#####################################################################
# Alchemist log file - simulation started at: 2019-03-12T10:41+0000 #
#####################################################################
# seed = 6.0, bandwidth = 17782.79410038923, propagationDelay = 0.31622776601683794, baserange = 17.78279410038923
#
# The columns have the following meaning: 
# time neighbor_count[Sum] <value>@neighbor_count[Sum] packet_size[Mean] mean_delay[Mean] crowd[Sum] overcrowded[Sum] risk[Sum] 
0.0 NaN NaN NaN NaN NaN NaN NaN 
2.0001772441965198 920.0 NaN 4989.811623246493 0.431257449541928 1497.0 0.0 1497.0 
4.00017724419652 1118.0 NaN 4996.213760855044 0.502855250082764 1497.0 0.0 1497.0 
6.00017724419652 1118.0 NaN 4995.080828323314 0.5028744863653857 1497.0 0.0 1497.0 
8.00017724419652 1118.0 NaN 4993.442885771543 0.5063015255200903 1495.0 2.0 1495.0 
10.00017724419652 1120.0 NaN 4992.598530394122 0.5153617307250777 1491.0 6.0 1491.0 
12.00017724419652 1120.0 NaN 4992.945891783567 0.5276195593320382 1488.0 9.0 1488.0 
14.00017724419652 1120.0 NaN 4992.6466265865065 0.5398672147943446 1487.0 10.0 1487.0 
16.000177244196518 1122.0 NaN 4991.978623914496 0.553253915161872 1487.0 10.0 1487.0 
18.000177244196518 1126.0 NaN 4991.951903807615 0.573691808509766 1487.0 10.0 1487.0 
20.000177244196518 1128.0 NaN 4991.724782899131 0.5991305437248725 1487.0 10.0 1487.0 
22.000177244196518 1128.0 NaN 4991.687374749499 0.6243784183299823 1487.0 10.0 1487.0 
24.000177244196518 1128.0 NaN 4991.946559786239 0.6527028252200026 1487.0 10.0 1487.0 
26.000177244196518 1128.0 NaN 4991.76753507014 0.6840543129673067 1487.0 10.0 1487.0 
28.000177244196518 1138.0 NaN 4991.807615230461 0.676764566484773 1487.0 10.0 1487.0 
30.000177244196518 1136.0 NaN 4991.775551102204 0.652018941179805 1487.0 10.0 1487.0 
32.000177244196514 1137.0 NaN 4991.636606546426 0.6364332067660088 1487.0 10.0 1487.0 
34.000177244196514 1138.0 NaN 4991.759519038076 0.6358621731806842 1487.0 10.0 1487.0 
36.000177244196514 1142.0 NaN 4991.86372745491 0.6563453603202336 1487.0 10.0 1487.0 
38.000177244196514 1149.0 NaN 4991.607214428857 0.6982636046104028 1487.0 10.0 1487.0 
40.000177244196514 1151.0 NaN 4991.799599198397 0.6478999431436666 1487.0 10.0 1487.0 
42.000177244196514 1153.0 NaN 4991.866399465598 0.6624405048578617 1487.0 10.0 1487.0 
44.000177244196514 1157.0 NaN 4991.457581830327 0.709763019619988 1487.0 10.0 1487.0 
46.000177244196514 1160.0 NaN 4991.794255177021 0.7344022726644641 1487.0 10.0 1487.0 
48.000177244196514 1176.0 NaN 4991.997327989312 0.7671369859530384 1487.0 10.0 1487.0 
50.000177244196514 1182.0 NaN 4991.64462257849 0.8268007782000788 1487.0 10.0 1487.0 
52.000177244196514 1188.0 NaN 4991.641950567802 0.8447262302807601 1487.0 10.0 1487.0 
54.000177244196514 1188.0 NaN 4992.072144288577 0.9234030306362514 1487.0 10.0 1487.0 
56.000177244196514 1194.0 NaN 4991.727454909819 1.001395191290002 1487.0 10.0 1487.0 
58.000177244196514 1201.0 NaN 4991.503006012024 1.0157547204254698 1487.0 10.0 1487.0 
60.000177244196514 1198.0 NaN 4992.042752171009 0.9556175242288322 1487.0 10.0 1487.0 
62.000162527844864 1198.0 NaN 990.0280561122262 0.9855865962486621 485.0 9.0 183.0 
64.00016252784486 1197.0 NaN 989.9772879091533 1.010151838445074 482.0 9.0 183.0 
66.00016252784486 1203.0 NaN 989.8623914495635 1.0879523096166033 457.0 9.0 183.0 
68.00016252784486 1207.0 NaN 989.9933199732819 1.1464992159584686 402.0 9.0 183.0 
70.00016252784486 1204.0 NaN 992.9806279225104 1.1285793005024507 372.0 9.0 184.0 
72.00016252784486 1204.0 NaN 996.0293921175715 1.1935382929959026 347.0 9.0 185.0 
74.00016252784486 1192.0 NaN 996.0454241816989 1.1990135530082286 336.0 9.0 185.0 
76.00016252784486 1191.0 NaN 996.0240480961908 1.2450537956103322 331.0 9.0 185.0 
78.00016252784486 1191.0 NaN 995.9599198396805 1.246992198229134 321.0 9.0 185.0 
80.00016252784486 1172.0 NaN 995.9679358717457 1.1275535073286311 313.0 9.0 185.0 
82.00016252784486 1173.0 NaN 995.9545758183011 1.0870475796756274 305.0 9.0 185.0 
84.00016252784486 1163.0 NaN 995.890447561791 0.960969546557544 298.0 9.0 185.0 
86.00016252784486 1167.0 NaN 998.9659318637272 0.998278914013759 296.0 9.0 186.0 
88.00016252784486 1175.0 NaN 999.0033400133622 0.993785065085961 294.0 9.0 186.0 
90.00016252784486 1176.0 NaN 1002.0093520374094 1.0129999967973475 293.0 9.0 187.0 
92.00016252784486 1174.0 NaN 1005.1275885103547 1.0053657596087275 291.0 9.0 188.0 
94.00016252784486 1177.0 NaN 1008.219104876418 1.0891352253294795 288.0 9.0 189.0 
96.00016252784486 1182.0 NaN 1011.2758851035378 1.1305310369724606 289.0 9.0 190.0 
98.00016252784486 1182.0 NaN 1014.4021376085533 1.0398561790501748 287.0 9.0 191.0 
100.00016252784486 1180.0 NaN 1014.3674014696078 1.119190315139118 287.0 9.0 191.0 
102.00016252784486 1181.0 NaN 1014.3513694054806 1.1387995845926513 286.0 9.0 191.0 
104.00016252784486 1191.0 NaN 1014.3540414161633 1.1552263102224565 289.0 9.0 191.0 
106.00016252784486 1189.0 NaN 1017.4321977287909 1.1649386557145893 288.0 9.0 192.0 
108.00016252784486 1194.0 NaN 1017.4562458249816 1.2177680631000738 288.0 9.0 192.0 
110.00016252784486 1182.0 NaN 1011.2785571142272 1.058007899542439 286.0 10.0 189.0 
112.00016252784486 1191.0 NaN 1011.1636606546441 1.1232477885403171 283.0 13.0 186.0 
114.00016252784486 1188.0 NaN 1011.1583166332651 1.2080412714952187 287.0 9.0 190.0 
116.00016252784486 1194.0 NaN 1011.246492985973 1.3057446613900998 285.0 9.0 190.0 
118.00016252784486 1200.0 NaN 1014.3032732130907 1.3762720530932187 285.0 9.0 191.0 
120.00016252784486 1190.0 NaN 1011.2010688042742 1.226677930041544 283.0 9.0 190.0 
122.00016252784486 1187.0 NaN 1014.321977287909 1.2425483810228521 283.0 9.0 191.0 
124.00016252784486 1183.0 NaN 1014.3246492985988 1.224605951800416 283.0 9.0 191.0 
126.00016252784486 1199.0 NaN 1017.4856379425531 1.2716854247825968 282.0 9.0 192.0 
128.00016252784485 1199.0 NaN 1017.4482297929179 1.2976728004643894 284.0 9.0 192.0 
130.00016252784488 1196.0 NaN 1017.4188376753531 1.1893876621178172 284.0 9.0 192.0 
132.00016252784488 1196.0 NaN 1017.3520374081469 1.1114343019089203 281.0 9.0 192.0 
134.00016252784488 1197.0 NaN 1020.4836339345366 1.2162850000793668 279.0 9.0 193.0 
136.00016252784488 1207.0 NaN 1008.2084168336656 1.2794123556299684 277.0 9.0 189.0 
138.00016252784488 1208.0 NaN 1008.2752171008709 1.2103586093325507 279.0 9.0 189.0 
140.00016252784488 1202.0 NaN 1014.428857715429 1.123442534184913 280.0 9.0 191.0 
142.00016252784488 1220.0 NaN 1017.5390781563107 1.201678908922325 280.0 9.0 192.0 
144.00016252784488 1214.0 NaN 1017.5470941883741 1.1526296778481329 280.0 9.0 192.0 
146.00016252784488 1218.0 NaN 1020.6920507682013 1.175789951581215 280.0 9.0 193.0 
148.00016252784488 1215.0 NaN 1020.5905143620558 1.0384497376069688 278.0 9.0 193.0 
150.00016252784488 1225.0 NaN 1020.529058116235 1.0818062716800134 280.0 9.0 193.0 
152.00016252784488 1241.0 NaN 1020.6172344689362 1.1582897060146768 282.0 9.0 193.0 
154.00016252784488 1235.0 NaN 1023.7675350701377 1.1596466490952009 281.0 9.0 194.0 
156.00016252784488 1239.0 NaN 1020.6305945223804 1.1827735418631466 280.0 9.0 193.0 
158.00016252784488 1245.0 NaN 1020.590514362056 1.0861182042583144 284.0 9.0 193.0 
160.00016252784488 1244.0 NaN 1020.4168336673365 1.0875581414243716 285.0 9.0 193.0 
162.00016252784488 1253.0 NaN 1020.529058116235 1.1392748032949085 286.0 9.0 193.0 
164.00016252784488 1246.0 NaN 1020.6653306613199 1.1543360797098998 287.0 9.0 193.0 
166.00016252784488 1258.0 NaN 1017.5177020708093 1.276359725552718 288.0 9.0 192.0 
168.00016252784488 1261.0 NaN 1023.6419505677997 1.3857826975592709 288.0 9.0 194.0 
170.00016252784488 1253.0 NaN 1017.4375417501649 1.249369039267629 288.0 9.0 192.0 
172.00016252784488 1255.0 NaN 1020.480961923845 1.245711668527845 287.0 9.0 193.0 
174.00016252784488 1247.0 NaN 1023.5644622578468 1.2722217946589904 285.0 9.0 194.0 
176.00016252784488 1255.0 NaN 1020.563794255174 1.3030793063174213 286.0 9.0 193.0 
178.00016252784488 1258.0 NaN 1017.4696058784259 1.3633527732553596 286.0 9.0 192.0 
180.00016252784488 1253.0 NaN 1017.4215096860376 1.405786607497802 286.0 9.0 192.0 
182.00016252784488 1251.0 NaN 1017.4001336005365 1.3971017538336936 286.0 9.0 192.0 
184.00016252784488 1238.0 NaN 1014.2578490313986 1.433323671436138 285.0 9.0 191.0 
186.00016252784488 1236.0 NaN 1011.1529726118911 1.478102703344666 286.0 9.0 190.0 
188.00016252784488 1230.0 NaN 1014.2658650634621 1.3698896628766686 286.0 9.0 191.0 
190.00016252784488 1219.0 NaN 1014.249832999335 1.3024863297786287 285.0 9.0 191.0 
192.00016252784488 1222.0 NaN 1014.1883767535091 1.4094098663098091 285.0 9.0 191.0 
194.00016252784488 1213.0 NaN 1011.1636606546442 1.362983782150669 286.0 9.0 190.0 
196.00016252784488 1226.0 NaN 1001.9585838343365 1.4171270367879205 285.0 9.0 187.0 
198.00016252784488 1224.0 NaN 998.9178356713442 1.369362644475995 286.0 9.0 186.0 
200.00016252784488 1218.0 NaN 992.8283233132925 1.3629323755459328 286.0 9.0 184.0 
202.00016252784488 1216.0 NaN 992.7722110888458 1.2478307054998778 287.0 9.0 184.0 
204.00016252784488 1215.0 NaN 992.7348029392107 1.2933645420870574 286.0 9.0 184.0 
206.00016252784488 1222.0 NaN 992.8042752170998 1.2176845750206495 285.0 9.0 184.0 
208.00016252784488 1232.0 NaN 998.9552438209741 1.2137928904534976 285.0 9.0 186.0 
210.00016252784488 1227.0 NaN 998.9098196392805 1.2770443143433 283.0 9.0 186.0 
212.00016252784488 1228.0 NaN 998.9766199064819 1.21533318941348 283.0 9.0 186.0 
214.00016252784488 1224.0 NaN 998.9605878423533 1.169886656355871 282.0 9.0 186.0 
216.00016252784488 1234.0 NaN 998.9418837675363 1.2106685194946454 283.0 9.0 186.0 
218.00016252784488 1248.0 NaN 1008.2297929191731 1.2470991468140724 286.0 9.0 189.0 
220.00016252784488 1246.0 NaN 1008.1389445557801 1.3645075157622706 287.0 9.0 189.0 
222.00016252784488 1242.0 NaN 1008.1710086840363 1.424178000880999 287.0 10.0 188.0 
224.00016252784488 1242.0 NaN 1008.1870407481638 1.5626749658208248 280.0 15.0 183.0 
226.00016252784488 1245.0 NaN 1011.286573146291 1.6031590068947443 279.0 15.0 184.0 
228.00016252784488 1244.0 NaN 1014.3006012024075 1.5414239418851954 278.0 15.0 185.0 
230.00016252784488 1240.0 NaN 1011.3052772211092 1.4811077479555432 278.0 15.0 184.0 
232.00016252784488 1246.0 NaN 1014.332665330662 1.6141899022704407 279.0 15.0 185.0 
234.00016252784488 1245.0 NaN 1014.2257849031378 1.711764031125274 283.0 14.0 186.0 
236.00016252784488 1253.0 NaN 1017.3707414829635 1.7626567876208619 290.0 9.0 192.0 
238.00016252784488 1247.0 NaN 1020.4221776887091 1.6228912961489046 288.0 9.0 193.0 
240.00016252784488 1236.0 NaN 1014.3006012024076 1.52614619499232 285.0 9.0 191.0 
242.00016252784488 1236.0 NaN 1014.3112892451556 1.4941207882266994 285.0 9.0 191.0 
244.00016252784488 1236.0 NaN 1005.0661322645273 1.5655571586438828 284.0 9.0 188.0 
246.00016252784488 1228.0 NaN 1002.0440881763546 1.5577336191145648 283.0 9.0 187.0 
248.00016252784488 1228.0 NaN 995.9358717434891 1.5451842331178167 283.0 9.0 185.0 
250.00016252784488 1216.0 NaN 992.753507014027 1.5081863894679444 282.0 9.0 184.0 
252.00016252784488 1215.0 NaN 992.8203072812272 1.5169936498782977 283.0 9.0 184.0 
254.00016252784488 1219.0 NaN 992.7722110888457 1.5638412955255596 284.0 9.0 184.0 
256.00016252784485 1224.0 NaN 992.7855711422832 1.5532961000763095 283.0 9.0 184.0 
258.00016252784485 1217.0 NaN 992.7454909819635 1.4206119197210398 280.0 9.0 184.0 
260.00016252784485 1211.0 NaN 989.6700066800275 1.35201336220037 277.0 9.0 183.0 
262.00016252784485 1216.0 NaN 992.7909151636622 1.3945150279151481 278.0 9.0 184.0 
264.00016252784485 1207.0 NaN 989.688710754844 1.2952614068051365 278.0 9.0 183.0 
266.00016252784485 1204.0 NaN 989.7207748831003 1.334687010524873 279.0 9.0 183.0 
268.00016252784485 1206.0 NaN 995.8209752838997 1.3628995598984177 282.0 9.0 185.0 
270.00016252784485 1202.0 NaN 992.6920507682017 1.3248218727339023 284.0 9.0 184.0 
272.00016252784485 1205.0 NaN 992.7321309285253 1.3344219367471357 285.0 9.0 184.0 
274.00016252784485 1203.0 NaN 992.625250501 1.4383970616163926 286.0 9.0 184.0 
276.00016252784485 1211.0 NaN 986.522378089511 1.4591591426168293 287.0 9.0 182.0 
278.00016252784485 1217.0 NaN 998.9124916499652 1.4823649520406847 288.0 9.0 186.0 
280.00016252784485 1210.0 NaN 998.8857715430835 1.5548660491004824 286.0 9.0 186.0 
282.00016252784485 1205.0 NaN 995.8022712090836 1.6344966747568483 286.0 9.0 185.0 
284.00016252784485 1201.0 NaN 995.7808951235819 1.7534901469362978 288.0 9.0 185.0 
286.00016252784485 1195.0 NaN 995.7167668670654 1.7772060092822766 286.0 9.0 185.0 
288.00016252784485 1196.0 NaN 1004.9779559118256 1.6856967742535545 285.0 9.0 188.0 
290.00016252784485 1186.0 NaN 1001.9799599198379 1.6401132296299257 287.0 9.0 187.0 
292.00016252784485 1185.0 NaN 1005.0260521042093 1.722148619409536 287.0 9.0 188.0 
294.00016252784485 1175.0 NaN 1008.0988643954563 1.6535392523881898 284.0 9.0 189.0 
296.00016252784485 1173.0 NaN 1011.1983967935889 1.5060968610791046 286.0 9.0 190.0 
298.00016252784485 1182.0 NaN 1011.1877087508365 1.4932690860859805 284.0 9.0 190.0 
300.00016252784485 1176.0 NaN 1005.0554442217749 1.292668443469306 280.0 9.0 188.0 
302.00016252784485 1172.0 NaN 1005.0474281897114 1.0941196387109942 280.0 9.0 188.0 
304.00016252784485 1168.0 NaN 1001.9425517702093 1.0795617480050193 279.0 9.0 187.0 
306.00016252784485 1170.0 NaN 995.759519038076 1.1134999169118849 281.0 9.0 185.0 
308.00016252784485 1179.0 NaN 1005.0180360721457 1.130698737956477 282.0 9.0 188.0 
310.00016252784485 1181.0 NaN 1005.0260521042093 1.1434829933653723 283.0 9.0 188.0 
312.00016252784485 1182.0 NaN 1001.9612558450245 1.1969688829529264 282.0 9.0 187.0 
314.00016252784485 1180.0 NaN 1001.9612558450245 1.2892355662231199 280.0 9.0 187.0 
316.00016252784485 1188.0 NaN 1004.9832999332001 1.427593840296349 282.0 9.0 188.0 
318.00016252784485 1200.0 NaN 1011.1690046760181 1.4982380156406672 286.0 9.0 190.0 
320.00016252784485 1190.0 NaN 1011.2331329325292 1.284497715596015 286.0 9.0 190.0 
322.00016252784485 1192.0 NaN 1008.1816967267888 1.3501164084142536 287.0 9.0 189.0 
324.00016252784485 1183.0 NaN 1005.0233800935179 1.3429089297691459 287.0 9.0 188.0 
326.00016252784485 1180.0 NaN 998.9205076820298 1.3862863101101421 285.0 9.0 186.0 
328.00016252784485 1184.0 NaN 1001.9452237808935 1.2750799145267606 288.0 9.0 187.0 
330.00016252784485 1182.0 NaN 1005.0180360721457 1.2883411898289103 288.0 9.0 188.0 
332.00016252784485 1180.0 NaN 1001.9585838343365 1.3772443089932607 288.0 9.0 187.0 
334.00016252784485 1178.0 NaN 1001.8730794923183 1.5191990485784106 288.0 9.0 187.0 
336.00016252784485 1172.0 NaN 1001.8891115564452 1.4246699163558967 287.0 9.0 187.0 
338.00016252784485 1185.0 NaN 1005.0100200400818 1.3689083756860312 290.0 9.0 188.0 
340.00016252784485 1177.0 NaN 1001.8704074816304 1.3402681292533476 289.0 9.0 187.0 
342.00016252784485 1179.0 NaN 998.8563794255183 1.4691056250112442 289.0 9.0 186.0 
344.00016252784485 1179.0 NaN 995.738142952573 1.5092759987161062 287.0 9.0 185.0 
346.00016252784485 1179.0 NaN 995.8236472945908 1.5219969804450055 286.0 9.0 185.0 
348.00016252784485 1169.0 NaN 992.7187708750819 1.4526849902889751 285.0 9.0 184.0 
350.00016252784485 1164.0 NaN 992.7401469605875 1.4435793968426096 286.0 9.0 184.0 
352.00016252784485 1163.0 NaN 992.748162992651 1.5373391647162984 285.0 9.0 184.0 
354.00016252784485 1158.0 NaN 992.6653306613218 1.6017198913904398 282.0 9.0 184.0 
356.00016252784485 1162.0 NaN 992.7000668002673 1.7544615306177567 282.0 9.0 184.0 
358.00016252784485 1177.0 NaN 992.700066800267 1.6273885685388316 284.0 9.0 184.0 
360.00016252784485 1167.0 NaN 995.7648630594547 1.5105703762835463 284.0 9.0 185.0 
362.00016252784485 1165.0 NaN 992.7561790247182 1.4977333486541964 285.0 9.0 184.0 
364.00016252784485 1151.0 NaN 989.5497661990634 1.3702919819763277 283.0 9.0 183.0 
366.00016252784485 1157.0 NaN 983.4736138944543 1.5061019326158867 281.0 9.0 181.0 
368.00016252784485 1157.0 NaN 980.4275217100873 1.4662929162095304 282.0 9.0 180.0 
370.00016252784485 1141.0 NaN 977.3226452905819 1.3231627629935334 281.0 9.0 179.0 
372.00016252784485 1143.0 NaN 977.2985971943908 1.4475719668043738 283.0 9.0 179.0 
374.00016252784485 1148.0 NaN 977.2718770875092 1.5543006796303287 282.0 9.0 179.0 
376.00016252784485 1154.0 NaN 980.3580494322001 1.5459821676947405 280.0 9.0 180.0 
378.00016252784485 1152.0 NaN 974.2685370741489 1.3375235125314884 280.0 9.0 178.0 
380.00016252784485 1155.0 NaN 965.0901803607214 1.3279196799860655 279.0 9.0 175.0 
382.00016252784485 1156.0 NaN 968.1816967267874 1.2775737515361623 277.0 9.0 176.0 
384.00016252784485 1157.0 NaN 965.0714762859055 1.3337391953654665 272.0 9.0 175.0 
386.00016252784485 1156.0 NaN 965.1356045424182 1.4190886264746967 271.0 9.0 175.0 
388.00016252784485 1170.0 NaN 968.1603206412816 1.3573161604174664 273.0 9.0 176.0 
390.00016252784485 1151.0 NaN 958.9712758851043 1.2784328818632769 269.0 9.0 173.0 
392.00016252784485 1148.0 NaN 955.925183700736 1.349114461793986 268.0 9.0 172.0 
394.00016252784485 1145.0 NaN 955.9358717434866 1.3431553360391013 270.0 9.0 172.0 
396.00016252784485 1160.0 NaN 949.8009352037404 1.3962899629339902 268.0 9.0 170.0 
398.00016252784485 1173.0 NaN 952.9325317301274 1.4973808325246198 269.0 9.0 171.0 
400.00016252784485 1167.0 NaN 949.80093520374 1.5108494373669366 268.0 9.0 170.0 
402.00016252784485 1183.0 NaN 949.814295257182 1.6063699388817818 269.0 9.0 170.0 
404.00016252784485 1183.0 NaN 949.7982631930545 1.5833049063811448 270.0 9.0 170.0 
406.00016252784485 1190.0 NaN 943.7247828991309 1.5565988080862299 273.0 9.0 168.0 
408.00016252784485 1189.0 NaN 946.794923179691 1.5325017002743844 272.0 9.0 169.0 
410.00016252784485 1183.0 NaN 949.8543754175 1.563121125587119 270.0 9.0 170.0 
412.00016252784485 1177.0 NaN 949.8383433533725 1.495679578009377 271.0 10.0 169.0 
414.00016252784485 1184.0 NaN 946.8162992651971 1.5845144836130325 266.0 12.0 166.0 
416.00016252784485 1180.0 NaN 946.8162992651971 1.4909734923372426 261.0 16.0 162.0 
418.00016252784485 1181.0 NaN 937.6299265197066 1.5193966830854553 257.0 16.0 159.0 
420.00016252784485 1178.0 NaN 934.5303941215756 1.6453228424245818 257.0 16.0 158.0 
422.00016252784485 1178.0 NaN 937.6112224448914 1.6662041793720217 257.0 16.0 159.0 
424.00016252784485 1182.0 NaN 934.4635938543755 1.6880719916172149 257.0 16.0 158.0 
426.00016252784485 1177.0 NaN 934.4529058116242 1.7556035242943406 254.0 16.0 158.0 
428.00016252784485 1161.0 NaN 931.4362057448241 1.6563546987475004 254.0 15.0 158.0 
430.00016252784485 1151.0 NaN 931.3987975951911 1.4740112402258556 255.0 11.0 162.0 
432.00016252784485 1164.0 NaN 943.6419505677998 1.6081822071691199 257.0 9.0 168.0 
434.00016252784485 1167.0 NaN 943.6820307281242 1.595707065057207 257.0 9.0 168.0 
436.00016252784485 1175.0 NaN 943.660654642618 1.6427408438501787 257.0 9.0 168.0 
438.00016252784485 1171.0 NaN 943.6526386105545 1.5466749611903725 261.0 9.0 168.0 
440.00016252784485 1167.0 NaN 946.7815631262546 1.535139024573213 260.0 9.0 169.0 
442.00016252784485 1177.0 NaN 949.8223112892456 1.5784926025616153 261.0 9.0 170.0 
444.00016252784485 1173.0 NaN 949.806279225118 1.60495860287468 262.0 9.0 170.0 
446.00016252784485 1193.0 NaN 962.1402805611208 1.6654588972845576 263.0 9.0 174.0 
448.00016252784485 1183.0 NaN 968.2859051436204 1.4417527484164716 261.0 9.0 176.0 
450.00016252784485 1184.0 NaN 968.2992651970615 1.4215647270267138 262.0 9.0 176.0 
452.00016252784485 1184.0 NaN 959.0407481629909 1.4286378167057425 259.0 10.0 172.0 
454.00016252784485 1186.0 NaN 955.9118236472938 1.4975213125327267 254.0 15.0 166.0 
456.00016252784485 1196.0 NaN 955.9011356045429 1.422412924600356 253.0 17.0 164.0 
458.00016252784485 1198.0 NaN 958.9632598530387 1.3598134314017067 257.0 17.0 165.0 
460.00016252784485 1202.0 NaN 961.9986639946546 1.4002430880081118 255.0 17.0 166.0 
462.00016252784485 1202.0 NaN 962.0066800267183 1.4867029482426095 254.0 17.0 166.0 
464.00016252784485 1190.0 NaN 961.9986639946546 1.498794797466381 254.0 17.0 166.0 
466.00016252784485 1196.0 NaN 965.0260521042092 1.6528276362538852 255.0 17.0 167.0 
468.00016252784485 1188.0 NaN 968.1175684702724 1.4360946733162008 256.0 17.0 168.0 
470.00016252784485 1185.0 NaN 968.1629926519727 1.4123781946937215 259.0 17.0 168.0 
472.00016252784485 1180.0 NaN 968.1175684702724 1.5028654434074573 260.0 17.0 168.0 
474.00016252784485 1166.0 NaN 965.0180360721457 1.586602134556032 260.0 17.0 167.0 
476.00016252784485 1169.0 NaN 968.128256513027 1.6649364614188942 258.0 17.0 168.0 
478.00016252784485 1163.0 NaN 965.1142284569162 1.600858576415892 257.0 17.0 167.0 
480.00016252784485 1156.0 NaN 965.0688042752184 1.7039681349006455 256.0 17.0 167.0 
482.00016252784485 1162.0 NaN 962.0440881763544 1.7669835099784614 254.0 17.0 166.0 
484.00016252784485 1158.0 NaN 958.9632598530384 1.7510093954621238 252.0 17.0 165.0 
486.00016252784485 1170.0 NaN 958.9659318637272 1.8459508185134315 251.0 17.0 165.0 
488.00016252784485 1164.0 NaN 952.8550434201726 1.5621032899231109 250.0 17.0 163.0 
490.00016252784485 1164.0 NaN 952.8390113560454 1.5107556620510147 248.0 17.0 163.0 
492.00016252784485 1156.0 NaN 955.9011356045431 1.4261911455781584 248.0 17.0 164.0 
494.00016252784485 1147.0 NaN 955.8797595190365 1.2778006426715731 252.0 16.0 165.0 
496.00016252784485 1143.0 NaN 949.680694722779 1.2746660237436656 255.0 11.0 168.0 
498.00016252784485 1146.0 NaN 940.4622578490313 1.2595632964163639 255.0 9.0 167.0 
500.00016252784485 1150.0 NaN 940.4622578490313 1.3313581442661082 256.0 9.0 167.0 
502.00016252784485 1150.0 NaN 937.3734134936548 1.3622000116582096 256.0 9.0 166.0 
504.00016252784485 1143.0 NaN 934.2685370741493 1.3510238432682118 257.0 9.0 165.0 
506.00016252784485 1144.0 NaN 931.2491649966593 1.329582914956174 256.0 9.0 164.0 
508.00016252784485 1144.0 NaN 928.1870407481638 1.3166551631254837 256.0 9.0 163.0 
510.00016252784485 1136.0 NaN 915.9278557114227 1.305826692861159 253.0 9.0 159.0 
512.0001625278449 1139.0 NaN 912.8844355377416 1.3678911345174252 253.0 9.0 158.0 
514.0001625278449 1141.0 NaN 912.8817635270547 1.4802385316204432 253.0 9.0 158.0 
516.0001625278449 1141.0 NaN 909.7902471609904 1.5339471743490953 251.0 9.0 157.0 
518.0001625278449 1125.0 NaN 912.9058116232452 1.421808246801894 250.0 9.0 158.0 
520.0001625278449 1124.0 NaN 906.7334669338682 1.4377598245982257 249.0 9.0 156.0 
522.0001625278449 1123.0 NaN 909.7849031396138 1.491932540040736 247.0 9.0 157.0 
524.0001625278449 1122.0 NaN 906.7147628590507 1.5431598556506418 248.0 9.0 156.0 
526.0001625278449 1126.0 NaN 906.738810955245 1.6537897243120516 246.0 9.0 156.0 
528.0001625278449 1115.0 NaN 900.5771543086183 1.4139895290756315 244.0 9.0 154.0 
530.0001625278449 1111.0 NaN 906.7601870407493 1.3126756357203726 245.0 9.0 156.0 
532.0001625278449 1107.0 NaN 906.7201068804271 1.3288136204895111 245.0 9.0 156.0 
534.0001625278449 1109.0 NaN 906.7361389445553 1.4199027981487116 243.0 9.0 156.0 
536.0001625278449 1118.0 NaN 906.8056112224456 1.3683297533561498 242.0 9.0 156.0 
538.0001625278449 1129.0 NaN 919.0567802271221 1.3492896871186926 244.0 9.0 160.0 
540.0001625278449 1122.0 NaN 919.0354041416173 1.335652149780616 244.0 9.0 160.0 
542.0001625278449 1131.0 NaN 919.07014028056 1.3340816812115173 244.0 9.0 160.0 
544.0001625278449 1127.0 NaN 919.0380761523045 1.367103015930682 243.0 9.0 160.0 
546.0001625278449 1133.0 NaN 912.9378757515034 1.4243055808145915 242.0 9.0 158.0 
548.0001625278449 1136.0 NaN 903.7301269205078 1.4709780370192045 244.0 9.0 155.0 
550.0001625278449 1128.0 NaN 903.6927187708756 1.4895203677624667 247.0 9.0 155.0 
552.0001625278449 1115.0 NaN 903.6900467601864 1.1526019023442047 249.0 9.0 155.0 
554.0001625278449 1118.0 NaN 906.7548430193726 1.2858653898772046 249.0 9.0 156.0 
556.0001625278449 1127.0 NaN 909.8142952571818 1.4204012190587507 248.0 9.0 157.0 
558.0001625278449 1129.0 NaN 906.7468269873091 1.419390136940591 249.0 9.0 156.0 
560.0001625278449 1142.0 NaN 909.8677354709409 1.4584365813751174 249.0 9.0 157.0 
562.0001625278449 1140.0 NaN 909.8543754175012 1.5677922157172057 250.0 9.0 157.0 
564.0001625278449 1150.0 NaN 912.9111556446228 1.5535042519295497 251.0 9.0 158.0 
566.0001625278449 1159.0 NaN 916.0347361389455 1.5777627589717889 252.0 9.0 159.0 
568.0001625278449 1171.0 NaN 919.096860387441 1.6085134764160642 250.0 9.0 160.0 
570.0001625278449 1160.0 NaN 919.1102204408819 1.502586699910344 250.0 9.0 160.0 
572.0001625278449 1153.0 NaN 916.0347361389455 1.4809164424751318 249.0 9.0 159.0 
574.0001625278449 1151.0 NaN 912.9432197728785 1.4334571865542634 251.0 9.0 158.0 
576.0001625278449 1154.0 NaN 912.9806279225124 1.5366848923288021 253.0 9.0 158.0 
578.0001625278449 1166.0 NaN 919.120908483633 1.6210908358677998 253.0 9.0 160.0 
580.0001625278449 1173.0 NaN 922.1776887107545 1.5348700389567727 255.0 9.0 161.0 
582.0001625278449 1151.0 NaN 922.2418169672683 1.4122731900671759 255.0 9.0 161.0 
584.0001625278449 1152.0 NaN 922.2311289245146 1.4264083798038498 255.0 9.0 161.0 
586.0001625278449 1148.0 NaN 922.2444889779555 1.491681672103377 257.0 9.0 161.0 
588.0001625278449 1160.0 NaN 931.4629258517045 1.4721739941725933 258.0 9.0 164.0 
590.0001625278449 1164.0 NaN 928.4515698062779 1.4895481656227854 259.0 9.0 163.0 
592.0001625278449 1163.0 NaN 937.6192384769546 1.3902701037362923 265.0 9.0 166.0 
594.0001625278449 1172.0 NaN 937.5764863059455 1.535298701721938 267.0 9.0 166.0 
596.0001625278449 1164.0 NaN 937.6032064128266 1.6031677677449216 266.0 9.0 166.0 
598.0001625278449 1171.0 NaN 946.7361389445549 1.508930930251982 269.0 9.0 169.0 
600.0001625278449 1180.0 NaN 949.8356713426863 1.5297167058681802 273.0 9.0 170.0 
602.0001625278449 1177.0 NaN 952.9271877087502 1.435991139086385 273.0 9.0 171.0 
604.0001625278449 1173.0 NaN 946.7067468269867 1.4491397402432442 273.0 9.0 169.0 
606.0001625278449 1166.0 NaN 943.6125584502323 1.3517188989311562 271.0 9.0 168.0 
608.0001625278449 1178.0 NaN 946.7842351369405 1.3862677466505235 270.0 9.0 169.0 
610.0001625278449 1180.0 NaN 949.7902471609906 1.463558802621835 272.0 9.0 170.0 
612.0001625278449 1182.0 NaN 952.9325317301274 1.4886649678867392 271.0 9.0 171.0 
614.0001625278449 1180.0 NaN 952.9111556446225 1.6039744848069164 269.0 9.0 171.0 
616.0001625278449 1183.0 NaN 952.9245156980638 1.6955756816214103 270.0 9.0 171.0 
618.0001625278449 1208.0 NaN 962.0921843687361 1.8549937997293833 271.0 9.0 174.0 
620.0001625278449 1194.0 NaN 965.1943887775544 1.7681168764006816 269.0 9.0 175.0 
622.0001625278449 1195.0 NaN 962.1616566466274 1.7974062493605178 270.0 9.0 174.0 
624.0001625278449 1195.0 NaN 968.2805611222456 1.8812855990947053 271.0 9.0 176.0 
626.0001625278449 1208.0 NaN 968.3179692718767 1.925191051646335 271.0 9.0 176.0 
628.0001625278449 1223.0 NaN 965.2531730126907 1.7418870062360126 271.0 9.0 175.0 
630.0001625278449 1214.0 NaN 968.3152972611905 1.5959383079906848 270.0 9.0 176.0 
632.0001625278449 1221.0 NaN 959.1155644622585 1.6535243341456034 269.0 9.0 173.0 
634.0001625278449 1222.0 NaN 962.0948563794268 1.70329200208364 270.0 9.0 174.0 
636.0001625278449 1242.0 NaN 974.439545758182 1.7885310639589118 272.0 9.0 178.0 
638.0001625278449 1274.0 NaN 980.718770875082 1.7340970733208734 272.0 9.0 180.0 
640.0001625278449 1243.0 NaN 980.6172344689365 1.569002515948611 273.0 9.0 180.0 
642.0001625278449 1247.0 NaN 983.6927187708757 1.6316157663182598 273.0 9.0 181.0 
644.0001625278449 1241.0 NaN 983.7434869739484 1.6700555725851303 272.0 10.0 180.0 
646.0001625278449 1254.0 NaN 989.8383433533726 1.8675344779827936 267.0 15.0 177.0 
648.0001625278449 1261.0 NaN 992.9993319973271 1.8991938015350973 269.0 15.0 178.0 
650.0001625278449 1241.0 NaN 996.0267201068817 1.7740515640914645 273.0 15.0 179.0 
652.0001625278449 1235.0 NaN 995.9251837007363 1.833312667315334 273.0 15.0 179.0 
654.0001625278449 1226.0 NaN 992.8657314629272 1.7997718875842905 271.0 15.0 178.0 
656.0001625278449 1246.0 NaN 992.9138276553091 1.8970050150835929 272.0 16.0 177.0 
658.0001625278449 1264.0 NaN 1008.2164328657295 1.985684817578469 275.0 16.0 182.0 
660.0001625278449 1252.0 NaN 1014.4742818971272 1.905346827776516 277.0 17.0 183.0 
662.0001625278449 1249.0 NaN 1014.4555778223091 1.928781996650102 276.0 17.0 183.0 
664.0001625278449 1234.0 NaN 1014.3486973947907 1.7934490531141316 276.0 17.0 183.0 
#####################################################################
# End of data export. Simulation finished at: 2019-03-12T10:45+0000 #
#####################################################################
