#####################################################################
# Alchemist log file - simulation started at: 2019-03-11T21:22+0000 #
#####################################################################
# seed = 6.0, bandwidth = 4216.965034285822, propagationDelay = 0.01, baserange = 17.78279410038923
#
# The columns have the following meaning: 
# time neighbor_count[Sum] <value>@neighbor_count[Sum] packet_size[Mean] mean_delay[Mean] crowd[Sum] overcrowded[Sum] risk[Sum] 
0.0 NaN NaN NaN NaN NaN NaN NaN 
2.000332243565074 369.0 NaN 4988.563794255177 0.24346201751907123 1497.0 0.0 1497.0 
4.000993120081663 1118.0 NaN 4995.473613894455 1.1310069940554477 1497.0 0.0 1497.0 
6.000655080998289 1118.0 NaN 4994.931195724783 1.134286460008812 1496.0 1.0 1496.0 
8.000993120081663 1118.0 NaN 4993.862391449566 1.1305702074218387 1496.0 1.0 1496.0 
10.000193605627294 1118.0 NaN 4992.334001336006 1.136819343739776 1493.0 4.0 1493.0 
12.000193605627294 1120.0 NaN 4991.90380761523 1.1500413410744232 1490.0 7.0 1490.0 
14.000993120081661 1120.0 NaN 4991.444221776887 1.1627364981973964 1490.0 7.0 1490.0 
16.00019360562729 1121.0 NaN 4991.233132932532 1.1787425561148561 1490.0 7.0 1490.0 
18.000193605627295 1126.0 NaN 4990.992651970608 1.2026426960147527 1490.0 7.0 1490.0 
20.000193605627295 1126.0 NaN 4990.931195724783 1.228007013176573 1490.0 7.0 1490.0 
22.000993120081663 1128.0 NaN 4990.907147628591 1.2538959516466741 1490.0 7.0 1490.0 
24.000993120081663 1128.0 NaN 4990.797595190381 1.2811785867233356 1490.0 7.0 1490.0 
26.000193605627295 1128.0 NaN 4990.781563126253 1.312552646943574 1490.0 7.0 1490.0 
28.000993120081663 1133.0 NaN 4990.835003340013 1.3306636210219176 1490.0 7.0 1490.0 
30.000993120081663 1140.0 NaN 4990.752171008684 1.3305807192362165 1490.0 7.0 1490.0 
32.00099312008167 1142.0 NaN 4990.778891115565 1.3586052995700046 1490.0 7.0 1490.0 
34.00099312008166 1146.0 NaN 4990.802939211757 1.3867667727305522 1490.0 7.0 1490.0 
36.00099312008166 1150.0 NaN 4990.837675350702 1.4191630299017854 1490.0 7.0 1490.0 
38.00099312008166 1148.0 NaN 4990.738810955244 1.4001795015903957 1490.0 7.0 1490.0 
40.00099312008166 1155.0 NaN 4990.784235136941 1.3710171790822976 1490.0 7.0 1490.0 
42.00099312008166 1158.0 NaN 4990.75751503006 1.4136547566128708 1490.0 7.0 1490.0 
44.000655080998285 1160.0 NaN 4990.693386773547 1.4535394067512573 1490.0 7.0 1490.0 
46.000655080998285 1163.0 NaN 4990.84034736139 1.4030770545707407 1490.0 7.0 1490.0 
48.001304213596484 1167.0 NaN 4990.888443553774 1.41933603206217 1490.0 7.0 1490.0 
50.001304213596484 1180.0 NaN 4990.856379425518 1.4601904407285207 1490.0 7.0 1490.0 
52.00099312008166 1186.0 NaN 4990.86706746827 1.5213406146530954 1490.0 7.0 1490.0 
54.000655080998285 1190.0 NaN 4990.835003340013 1.5966694909287227 1490.0 7.0 1490.0 
56.000655080998285 1191.0 NaN 4990.888443553774 1.6587215192477498 1490.0 7.0 1490.0 
58.001304213596484 1198.0 NaN 4990.85370741483 1.7183493808906993 1490.0 7.0 1490.0 
60.001304213596484 1206.0 NaN 4990.851035404142 1.8247074234656888 1490.0 7.0 1490.0 
62.00004415327858 1211.0 NaN 983.8530394121559 1.6480273124986164 491.0 6.0 184.0 
64.00004415327858 1212.0 NaN 986.7281229124908 1.692614891171294 485.0 6.0 185.0 
66.00004415327858 1213.0 NaN 986.6426185704727 1.57218937458353 429.0 6.0 185.0 
68.00004415327858 1210.0 NaN 986.6933867735454 1.5677582362257416 384.0 6.0 185.0 
70.00004415327858 1217.0 NaN 989.7555110220454 1.675242684494746 353.0 6.0 186.0 
72.00004415327858 1216.0 NaN 989.7715430861729 1.6693205424910569 339.0 6.0 186.0 
74.00004415327858 1214.0 NaN 992.7802271209092 1.7175773394396643 329.0 6.0 187.0 
76.00004415327858 1211.0 NaN 992.7962591850362 1.7374814714223141 322.0 6.0 187.0 
78.00004415327858 1213.0 NaN 992.7641950567819 1.7867485292470642 309.0 6.0 187.0 
80.00004415327858 1207.0 NaN 992.7294589178366 1.7861021773343566 306.0 6.0 187.0 
82.00004415327858 1204.0 NaN 992.7401469605896 1.8279893135071688 303.0 6.0 187.0 
84.00004415327858 1202.0 NaN 992.7160988643988 1.8428481991801016 299.0 6.0 187.0 
86.00004415327858 1198.0 NaN 995.8396793587184 1.8347232151257753 294.0 6.0 188.0 
88.00004415327858 1191.0 NaN 995.8156312625276 1.6128769996300263 293.0 6.0 188.0 
90.00004415327858 1189.0 NaN 998.8857715430834 1.5221482871305019 293.0 6.0 189.0 
92.00004415327858 1187.0 NaN 1001.9505678022729 1.5177025199680745 293.0 6.0 190.0 
94.00004415327858 1187.0 NaN 1001.9265197060803 1.528457654567795 291.0 6.0 190.0 
96.00004415327858 1194.0 NaN 1008.109552438209 1.5814341067696904 292.0 6.0 192.0 
98.00004415327858 1197.0 NaN 1011.158316633265 1.6067045491065337 290.0 6.0 193.0 
100.00004415327858 1194.0 NaN 1011.1716766867077 1.7024978379271134 290.0 6.0 193.0 
102.00004415327858 1194.0 NaN 1011.1369405477637 1.7931014290239358 288.0 6.0 193.0 
104.00004415327858 1201.0 NaN 1011.1262525050089 1.7545004954611867 290.0 6.0 193.0 
106.00004415327858 1201.0 NaN 1014.207080828326 1.6744807190404203 291.0 6.0 194.0 
108.00004415327858 1202.0 NaN 1014.1696726786911 1.7366879416136243 291.0 6.0 194.0 
110.00004415327858 1212.0 NaN 1014.1643286573168 1.837541847660187 290.0 6.0 194.0 
112.00004415327858 1215.0 NaN 1014.1750167000648 1.8375330398157128 289.0 6.0 194.0 
114.00004415327858 1212.0 NaN 1014.1696726786911 1.9076482005852933 289.0 6.0 194.0 
116.00004415327858 1208.0 NaN 1011.1663326653288 1.891755450626015 289.0 6.0 193.0 
118.00004415327858 1206.0 NaN 1014.2097528390087 1.7916356437135945 288.0 6.0 194.0 
120.00004415327858 1211.0 NaN 1017.2638610554455 1.8721289606139333 288.0 6.0 195.0 
122.00004415327858 1216.0 NaN 1017.3146292585185 1.9592195836719248 287.0 6.0 195.0 
124.00004415327858 1219.0 NaN 1017.3173012692079 2.0932715489652693 288.0 6.0 195.0 
126.00004415327858 1220.0 NaN 1023.5965263861077 1.9049306540674276 286.0 6.0 197.0 
128.00004415327857 1230.0 NaN 1020.4301937207724 1.9184411819154898 288.0 6.0 196.0 
130.00004415327857 1230.0 NaN 1023.5511022044093 1.9204459273937458 288.0 6.0 197.0 
132.00004415327857 1232.0 NaN 1026.6132264529076 1.95939457018199 286.0 6.0 198.0 
134.00004415327857 1223.0 NaN 1029.6219104876438 1.966351805270738 285.0 6.0 199.0 
136.00004415327857 1218.0 NaN 1023.5804943219804 1.8307726971206228 283.0 6.0 197.0 
138.00004415327857 1230.0 NaN 1020.5183700734818 1.7480081913161651 283.0 6.0 196.0 
140.00004415327857 1240.0 NaN 1029.7020708082816 1.8144408322819534 283.0 6.0 199.0 
142.00004415327857 1251.0 NaN 1023.5056780227109 1.9197336682701487 285.0 6.0 197.0 
144.00004415327857 1238.0 NaN 1026.6479625918528 1.8325293766856232 285.0 6.0 198.0 
146.00004415327857 1232.0 NaN 1029.8089512358076 1.7723476569035896 285.0 6.0 199.0 
148.00004415327857 1238.0 NaN 1026.6559786239168 1.8354859952929063 286.0 6.0 198.0 
150.00004415327857 1239.0 NaN 1026.6319305277195 1.7221612469624692 286.0 6.0 198.0 
152.00004415327857 1251.0 NaN 1026.5918503674 1.7644832022892774 289.0 6.0 198.0 
154.00004415327857 1254.0 NaN 1029.7047428189728 1.6482051605542096 288.0 6.0 199.0 
156.00004415327857 1255.0 NaN 1026.6132264529078 1.6654579507884997 287.0 6.0 198.0 
158.00004415327857 1264.0 NaN 1026.5731462925833 1.713612391306321 290.0 6.0 198.0 
160.00004415327857 1264.0 NaN 1029.6700066800274 1.7409642537667134 290.0 6.0 199.0 
162.00004415327857 1270.0 NaN 1026.5784903139622 1.8099063218455163 291.0 6.0 198.0 
164.00004415327857 1276.0 NaN 1026.5838343353362 1.8135959173826113 292.0 6.0 198.0 
166.00004415327857 1277.0 NaN 1026.5651302605195 1.7536639344458909 294.0 6.0 198.0 
168.00004415327857 1276.0 NaN 1032.7882431529729 1.7522069274657492 294.0 6.0 200.0 
170.00004415327857 1276.0 NaN 1029.7020708082816 1.8262954231037254 294.0 6.0 199.0 
172.00004415327857 1284.0 NaN 1029.6539746159 1.9750875634867122 295.0 6.0 199.0 
174.00004415327857 1286.0 NaN 1029.6593186372725 2.0937547356841133 294.0 6.0 199.0 
176.00004415327857 1276.0 NaN 1020.464929859718 1.979625213150491 292.0 6.0 196.0 
178.00004415327857 1282.0 NaN 1020.5450901803624 1.8691409640280119 290.0 6.0 196.0 
180.00004415327857 1284.0 NaN 1023.5698062792275 1.9847370714180634 289.0 6.0 197.0 
182.00004415327857 1278.0 NaN 1023.5511022044093 2.0574406074731275 289.0 6.0 197.0 
184.00004415327857 1272.0 NaN 1020.4008016032078 2.1082828355795793 288.0 6.0 196.0 
186.00004415327857 1274.0 NaN 1014.2658650634622 2.2228192807157807 289.0 6.0 194.0 
188.00004415327857 1276.0 NaN 1020.4408817635274 2.088186740490999 290.0 6.0 196.0 
190.00004415327857 1266.0 NaN 1020.4114896459557 2.1630647577508713 290.0 6.0 196.0 
192.00004415327857 1256.0 NaN 1020.3767535070169 2.1911129827457123 291.0 6.0 196.0 
194.00004415327857 1249.0 NaN 1014.2231128924534 2.2023467109648402 290.0 6.0 194.0 
196.00004415327857 1249.0 NaN 1011.257181028726 2.0392912048083223 288.0 6.0 193.0 
198.00004415327857 1257.0 NaN 1011.2812291249181 1.9898299592528792 291.0 6.0 193.0 
200.00004415327857 1256.0 NaN 1014.305945223782 2.020935973043934 291.0 6.0 194.0 
202.00004415327857 1251.0 NaN 1008.1202404809635 2.044158872028404 291.0 6.0 192.0 
204.00004415327857 1246.0 NaN 998.9098196392806 2.1284157162926673 290.0 6.0 189.0 
206.00004415327857 1248.0 NaN 995.8423513694074 2.026021642134012 289.0 6.0 188.0 
208.00004415327857 1253.0 NaN 998.9151636606546 1.8152401383256027 289.0 6.0 189.0 
210.00004415327857 1250.0 NaN 1001.9478957915819 1.8702070687602785 289.0 6.0 190.0 
212.00004415327857 1253.0 NaN 1001.9131596526362 1.9359054088987473 291.0 6.0 190.0 
214.00004415327857 1249.0 NaN 1001.9185036740166 1.9303776561717267 290.0 6.0 190.0 
216.00004415327857 1251.0 NaN 1005.0848363393454 1.8931880977813393 290.0 6.0 191.0 
218.00004415327857 1262.0 NaN 1011.2705410821634 1.8969212327764142 289.0 6.0 193.0 
220.00004415327857 1257.0 NaN 1011.1556446225806 1.7903896447173149 291.0 6.0 193.0 
222.00004415327857 1259.0 NaN 1011.1850367401455 1.8960200228280606 291.0 7.0 192.0 
224.00004415327857 1259.0 NaN 1011.1529726118911 2.061989178394078 290.0 7.0 192.0 
226.00004415327857 1258.0 NaN 1017.3520374081468 2.1186936937493033 286.0 12.0 189.0 
228.00004415327857 1268.0 NaN 1023.5163660654634 2.1837323112584155 286.0 12.0 191.0 
230.00004415327857 1271.0 NaN 1020.4408817635274 2.34014098158063 286.0 12.0 190.0 
232.00004415327857 1275.0 NaN 1023.5136940547742 2.4435180956148095 287.0 12.0 191.0 
234.00004415327857 1271.0 NaN 1020.3473613894455 2.53033394121274 288.0 12.0 190.0 
236.00004415327857 1264.0 NaN 1020.3794255176998 2.336300841962022 288.0 12.0 190.0 
238.00004415327857 1269.0 NaN 1026.583834335336 2.3496706128673917 285.0 12.0 192.0 
240.00004415327857 1275.0 NaN 1020.4488977955908 2.4617966393784907 283.0 11.0 191.0 
242.00004415327857 1279.0 NaN 1023.4896459585817 2.549208122810367 283.0 11.0 192.0 
244.00004415327857 1275.0 NaN 1020.3820975283911 2.491887459453203 287.0 6.0 196.0 
246.00004415327857 1257.0 NaN 1020.4782899131624 2.351892291272955 286.0 6.0 196.0 
248.00004415327857 1255.0 NaN 1014.3299933199725 2.3140453599125004 286.0 6.0 194.0 
250.00004415327857 1251.0 NaN 1011.1903807615262 2.363065570800856 286.0 6.0 193.0 
252.00004415327857 1251.0 NaN 1011.2117568470271 2.4390389084758435 287.0 6.0 193.0 
254.00004415327857 1247.0 NaN 1005.0340681362728 2.401851177232739 288.0 6.0 191.0 
256.00004415327857 1243.0 NaN 1002.0253841015362 2.2716396732859594 289.0 6.0 190.0 
258.00004415327857 1240.0 NaN 1001.961255845026 2.084659865800106 288.0 6.0 190.0 
260.00004415327857 1243.0 NaN 998.8456913827636 2.2405675063219195 289.0 6.0 189.0 
262.00004415327857 1249.0 NaN 1002.0334001335997 2.2594307285279016 289.0 6.0 190.0 
264.00004415327857 1241.0 NaN 995.8530394121557 2.2984943024679447 289.0 6.0 188.0 
266.00004415327857 1237.0 NaN 995.8931195724805 2.088440260336778 287.0 6.0 188.0 
268.00004415327857 1241.0 NaN 1001.9772879091531 2.117982513757234 290.0 6.0 190.0 
270.00004415327857 1231.0 NaN 1001.9692718770892 1.979790176666158 292.0 6.0 190.0 
272.00004415327857 1233.0 NaN 1001.939879759518 2.1370168459929824 293.0 6.0 190.0 
274.00004415327857 1229.0 NaN 1001.9024716098895 2.1144878851529976 294.0 6.0 190.0 
276.00004415327857 1223.0 NaN 992.6599866399451 2.0039055814276683 292.0 6.0 187.0 
278.00004415327857 1232.0 NaN 1005.023380093518 1.987576914812887 293.0 6.0 191.0 
280.00004415327857 1230.0 NaN 1001.8971275885091 2.172499884425098 292.0 6.0 190.0 
282.00004415327857 1227.0 NaN 1001.9078156312639 2.3591713637907663 292.0 6.0 190.0 
284.00004415327857 1224.0 NaN 1001.8677354709438 2.402957215025632 294.0 6.0 190.0 
286.00004415327857 1218.0 NaN 1001.8837675350712 2.426779126251758 292.0 6.0 190.0 
288.00004415327857 1225.0 NaN 1014.2044088176366 2.5109202852156116 294.0 6.0 194.0 
290.00004415327857 1218.0 NaN 1011.0915163660634 2.5604355019980063 293.0 6.0 193.0 
292.00004415327857 1216.0 NaN 1011.1022044088185 2.6144305367136496 292.0 6.0 193.0 
294.00004415327857 1216.0 NaN 1011.0861723446911 2.657184818410523 291.0 6.0 193.0 
296.00004415327857 1205.0 NaN 1014.2150968603892 2.3554275194938956 290.0 6.0 194.0 
298.00004415327857 1215.0 NaN 1017.3012692050742 2.4380924208334065 290.0 6.0 195.0 
300.00004415327857 1206.0 NaN 1020.411489645956 2.3397338221750092 288.0 6.0 196.0 
302.00004415327857 1201.0 NaN 1017.3199732798906 2.319411588866656 288.0 6.0 195.0 
304.00004415327857 1198.0 NaN 1014.252505010018 2.306197231271835 288.0 6.0 194.0 
306.00004415327857 1192.0 NaN 1004.9993319973271 2.0811672135111947 286.0 6.0 191.0 
308.00004415327857 1195.0 NaN 1008.0427521710093 1.8133710802314194 290.0 6.0 192.0 
310.00004415327857 1205.0 NaN 1011.171676686707 1.7235241317836119 289.0 6.0 193.0 
312.00004415327857 1203.0 NaN 1011.1770207080816 1.7482756826882613 290.0 6.0 193.0 
314.00004415327857 1199.0 NaN 1005.0207080828338 1.7961646059535938 288.0 6.0 191.0 
316.00004415327857 1201.0 NaN 1008.0774883099546 1.8139272239230944 284.0 6.0 192.0 
318.00004415327857 1205.0 NaN 1011.0941883767549 1.8504202641064915 289.0 6.0 193.0 
320.00004415327857 1212.0 NaN 1011.0754843019362 1.9358894151898403 289.0 6.0 193.0 
322.00004415327857 1221.0 NaN 1014.2685370741474 2.081044087616648 290.0 6.0 194.0 
324.00004415327857 1222.0 NaN 1014.2257849031382 2.2635407939443146 290.0 6.0 194.0 
326.00004415327857 1210.0 NaN 1008.1389445557795 2.016658772428549 288.0 6.0 192.0 
328.00004415327857 1214.0 NaN 1004.9779559118248 2.0593148593836745 291.0 6.0 191.0 
330.00004415327857 1214.0 NaN 1008.0454241816979 2.1086740479478676 291.0 6.0 192.0 
332.00004415327857 1200.0 NaN 1001.8917835671365 2.0500586710766946 290.0 6.0 190.0 
334.00004415327857 1194.0 NaN 1001.8490313961273 2.0921749777613616 290.0 6.0 190.0 
336.00004415327857 1190.0 NaN 1001.8730794923183 2.0545685301339063 290.0 6.0 190.0 
338.00004415327857 1206.0 NaN 1008.0614562458275 2.0957704639049917 293.0 6.0 192.0 
340.00004415327857 1209.0 NaN 1004.961923847694 2.2600370989423166 292.0 6.0 191.0 
342.00004415327857 1206.0 NaN 1001.8463593854364 2.3146256736741466 292.0 6.0 190.0 
344.00004415327857 1200.0 NaN 1001.8650634602548 2.180547846627542 290.0 6.0 190.0 
346.00004415327857 1188.0 NaN 1001.9078156312639 2.160135722917052 289.0 6.0 190.0 
348.00004415327857 1192.0 NaN 1004.9966599866397 2.318729871752895 289.0 6.0 191.0 
350.00004415327857 1197.0 NaN 1004.9645958583818 2.4562039173373975 289.0 6.0 191.0 
352.00004415327857 1193.0 NaN 1004.9405477621908 2.4325095038368105 289.0 6.0 191.0 
354.00004415327857 1188.0 NaN 1001.8704074816304 2.3495076549952527 289.0 6.0 190.0 
356.00004415327857 1176.0 NaN 995.7167668670672 2.251358531475618 290.0 6.0 188.0 
358.00004415327857 1195.0 NaN 1001.8704074816304 2.2684938376768664 292.0 6.0 190.0 
360.00004415327857 1200.0 NaN 1001.8997995992 2.351091178383668 290.0 6.0 190.0 
362.00004415327857 1200.0 NaN 998.8109552438215 2.437781839158192 289.0 6.0 189.0 
364.00004415327857 1198.0 NaN 995.714094856379 2.5551254838873225 288.0 6.0 188.0 
366.00004415327857 1182.0 NaN 995.756847027388 2.3269679167552617 285.0 6.0 188.0 
368.00004415327857 1181.0 NaN 992.643954575818 2.2206577900438567 286.0 6.0 187.0 
370.00004415327857 1180.0 NaN 989.568470273882 2.1534966480964357 286.0 6.0 186.0 
372.00004415327857 1176.0 NaN 989.568470273882 2.2307052023266944 287.0 6.0 186.0 
374.00004415327857 1176.0 NaN 983.3747494989999 2.277990290076592 288.0 6.0 184.0 
376.00004415327857 1170.0 NaN 986.5437541750181 2.100775939142907 287.0 6.0 185.0 
378.00004415327857 1171.0 NaN 992.7508350033397 2.1004065832904897 287.0 6.0 187.0 
380.00004415327857 1174.0 NaN 992.7294589178366 2.17264545438216 286.0 6.0 187.0 
382.00004415327857 1177.0 NaN 992.7401469605879 2.1190133248731358 285.0 6.0 187.0 
384.00004415327857 1181.0 NaN 995.7488309953244 2.1973716709744915 284.0 6.0 188.0 
386.00004415327857 1178.0 NaN 977.3173012692056 2.043494988754541 281.0 6.0 182.0 
388.00004415327857 1185.0 NaN 980.4221776887091 1.9706479285230123 279.0 6.0 183.0 
390.00004415327857 1185.0 NaN 968.1336005343999 2.038994485198374 277.0 6.0 179.0 
392.00004415327857 1186.0 NaN 962.0440881763543 2.109863129943739 276.0 6.0 177.0 
394.00004415327857 1192.0 NaN 961.9799599198401 2.21144258648785 277.0 6.0 177.0 
396.00004415327857 1186.0 NaN 962.0387441549767 2.1410342124962685 275.0 6.0 177.0 
398.00004415327857 1187.0 NaN 965.1409485637943 2.0431652085715633 276.0 6.0 178.0 
400.00004415327857 1184.0 NaN 965.0688042752184 2.0788190101281785 274.0 6.0 178.0 
402.00004415327857 1190.0 NaN 955.895791583167 2.050167448948567 275.0 6.0 175.0 
404.00004415327857 1202.0 NaN 952.8016032064131 2.177380803371375 277.0 6.0 174.0 
406.00004415327857 1213.0 NaN 946.677354709418 2.225351993545945 280.0 6.0 172.0 
408.00004415327857 1212.0 NaN 946.6639946559786 2.348201072245329 281.0 6.0 172.0 
410.00004415327857 1219.0 NaN 949.7287909151637 2.5370082874050977 280.0 6.0 173.0 
412.00004415327857 1221.0 NaN 949.7207748831003 2.525190990061561 279.0 6.0 173.0 
414.00004415327857 1216.0 NaN 949.7020708082819 2.3742308760503006 277.0 6.0 173.0 
416.00004415327857 1208.0 NaN 952.8256513026057 2.386158679551187 274.0 6.0 174.0 
418.00004415327857 1203.0 NaN 952.8737474949912 2.3903329577347456 271.0 6.0 174.0 
420.00004415327857 1196.0 NaN 949.8276553106207 2.3311524285303813 269.0 6.0 173.0 
422.00004415327857 1197.0 NaN 952.8443553774208 2.323824315529929 267.0 6.0 174.0 
424.00004415327857 1201.0 NaN 946.6506346025361 2.3067041339504235 268.0 6.0 172.0 
426.00004415327857 1202.0 NaN 937.4642618570454 2.4477514788925725 266.0 6.0 169.0 
428.00004415327857 1196.0 NaN 934.394121576485 2.583035598972388 266.0 6.0 168.0 
430.00004415327857 1193.0 NaN 934.4288577154305 2.538108262500008 265.0 6.0 168.0 
432.00004415327857 1199.0 NaN 937.4802939211755 2.58704377778784 265.0 6.0 169.0 
434.00004415327857 1194.0 NaN 943.660654642618 2.643450003246447 265.0 6.0 171.0 
436.00004415327857 1190.0 NaN 943.7114228456907 2.3712706754346464 264.0 6.0 171.0 
438.00004415327857 1198.0 NaN 943.663326653306 2.3523539509508735 266.0 6.0 171.0 
440.00004415327857 1199.0 NaN 946.7655310621243 2.4051574333159644 266.0 6.0 172.0 
442.00004415327857 1205.0 NaN 949.750167000667 2.410847028582214 266.0 6.0 173.0 
444.00004415327857 1204.0 NaN 949.8196392785577 2.333754573999243 268.0 6.0 173.0 
446.00004415327857 1209.0 NaN 962.0975283901116 2.2544748348685544 269.0 6.0 177.0 
448.00004415327857 1213.0 NaN 968.197728790916 2.3395135191302923 271.0 6.0 179.0 
450.00004415327857 1220.0 NaN 968.173680694725 2.4217636892064855 273.0 6.0 179.0 
452.00004415327857 1219.0 NaN 968.173680694725 2.50481247742716 270.0 7.0 178.0 
454.00004415327857 1210.0 NaN 968.1255845023363 2.407957060866707 267.0 7.0 178.0 
456.00004415327857 1213.0 NaN 968.1442885771546 2.221360853279666 263.0 11.0 174.0 
458.00004415327857 1209.0 NaN 955.8637274549089 2.066817844351977 264.0 13.0 168.0 
460.00004415327857 1215.0 NaN 962.0093520374093 2.084380898301094 263.0 13.0 170.0 
462.00004415327857 1215.0 NaN 961.9906479625907 2.1073358022927313 261.0 13.0 170.0 
464.00004415327857 1211.0 NaN 961.9826319305272 2.139708630004838 259.0 13.0 170.0 
466.00004415327857 1217.0 NaN 965.0661322645274 2.1786047059837697 261.0 13.0 171.0 
468.00004415327857 1221.0 NaN 968.1656646626572 2.2640887943130426 263.0 13.0 172.0 
470.00004415327857 1218.0 NaN 968.1576486305936 2.212465140173725 264.0 13.0 172.0 
472.00004415327857 1212.0 NaN 968.1469605878431 2.393986989038182 264.0 13.0 172.0 
474.00004415327857 1204.0 NaN 961.9746158984638 2.4932523507390996 263.0 13.0 170.0 
476.00004415327857 1193.0 NaN 971.2117568470271 2.210746987979079 261.0 13.0 173.0 
478.00004415327857 1199.0 NaN 968.109552438209 2.4088290223731406 261.0 13.0 172.0 
480.00004415327857 1188.0 NaN 968.1469605878434 2.4069732398360113 261.0 13.0 172.0 
482.00004415327857 1187.0 NaN 965.0875083500346 2.530860049249566 262.0 13.0 171.0 
484.00004415327857 1185.0 NaN 962.0227120908474 2.597308120919448 261.0 13.0 170.0 
486.00004415327857 1183.0 NaN 962.0681362725455 2.5060942724990483 259.0 13.0 170.0 
488.00004415327857 1194.0 NaN 965.1142284569162 2.5249797230941904 260.0 13.0 171.0 
490.00004415327857 1198.0 NaN 962.0040080160343 2.466235889578537 257.0 13.0 170.0 
492.00004415327857 1196.0 NaN 965.071476285907 2.558926614655771 258.0 13.0 171.0 
494.00004415327857 1182.0 NaN 961.9906479625907 2.3297789212179456 257.0 13.0 170.0 
496.00004415327857 1173.0 NaN 952.7802271209092 2.2545270821388406 254.0 13.0 167.0 
498.00004415327857 1171.0 NaN 949.7154308617241 2.1768494554922326 254.0 13.0 166.0 
500.00004415327857 1168.0 NaN 949.6753507014029 2.0372451664001767 256.0 12.0 167.0 
502.00004415327857 1163.0 NaN 949.6539746158999 1.8939378975033339 257.0 12.0 167.0 
504.00004415327857 1161.0 NaN 946.5758183032725 1.9511553082544906 261.0 8.0 170.0 
506.00004415327857 1158.0 NaN 943.5564462257852 1.9580618828864729 261.0 7.0 170.0 
508.00004415327857 1166.0 NaN 940.4702738810961 1.960599265988076 260.0 7.0 169.0 
510.00004415327857 1166.0 NaN 931.2384769539088 2.086746861723824 259.0 6.0 167.0 
512.0000441532786 1165.0 NaN 928.1950567802273 2.0009408096201766 260.0 6.0 166.0 
514.0000441532786 1155.0 NaN 922.060120240482 1.9330763757722953 255.0 8.0 162.0 
516.0000441532786 1147.0 NaN 918.9659318637272 1.9398160758323597 252.0 9.0 160.0 
518.0000441532786 1146.0 NaN 922.0280561122235 2.0506381272391403 255.0 6.0 164.0 
520.0000441532786 1149.0 NaN 918.9579158316637 2.124438430237619 255.0 6.0 163.0 
522.0000441532786 1148.0 NaN 922.0093520374093 2.242093391728606 253.0 6.0 164.0 
524.0000441532786 1136.0 NaN 912.7855711422857 2.237087585054172 253.0 6.0 161.0 
526.0000441532786 1134.0 NaN 912.8363393453584 2.103010540013038 251.0 6.0 161.0 
528.0000441532786 1137.0 NaN 909.7661990647955 2.192857425340784 251.0 6.0 160.0 
530.0000441532786 1142.0 NaN 915.9331997328002 2.273414920292091 252.0 6.0 162.0 
532.0000441532786 1143.0 NaN 915.9091516366054 2.3845230293909228 252.0 6.0 162.0 
534.0000441532786 1136.0 NaN 915.9011356045418 2.2984823801335006 251.0 6.0 162.0 
536.0000441532786 1141.0 NaN 909.7822311289235 2.164044896182323 252.0 6.0 160.0 
538.0000441532786 1144.0 NaN 925.1783567134274 1.9707230355867118 255.0 6.0 165.0 
540.0000441532786 1150.0 NaN 925.1569806279225 1.9742237465963373 254.0 6.0 165.0 
542.0000441532786 1155.0 NaN 928.2324649298591 1.9670751524201786 254.0 6.0 166.0 
544.0000441532786 1151.0 NaN 928.2164328657317 1.9112667716334324 252.0 6.0 166.0 
546.0000441532786 1143.0 NaN 925.2024048096181 1.8503707745581812 252.0 6.0 165.0 
548.0000441532786 1152.0 NaN 922.129592518369 2.0047999853658744 254.0 6.0 164.0 
550.0000441532786 1149.0 NaN 922.129592518369 2.024416901501245 256.0 6.0 164.0 
552.0000441532786 1151.0 NaN 919.0380761523045 2.143113004876318 256.0 6.0 163.0 
554.0000441532786 1150.0 NaN 906.7922511690044 2.212281890792169 254.0 6.0 159.0 
556.0000441532786 1144.0 NaN 909.8329993319967 2.2105854280768376 253.0 6.0 160.0 
558.0000441532786 1138.0 NaN 909.824983299933 1.9768321632359493 255.0 6.0 160.0 
560.0000441532786 1150.0 NaN 909.8570474281897 1.9721015565567077 256.0 6.0 160.0 
562.0000441532786 1153.0 NaN 912.9058116232454 2.1493039901046593 258.0 6.0 161.0 
564.0000441532786 1163.0 NaN 909.8169672678682 2.31648728008072 257.0 6.0 160.0 
566.0000441532786 1169.0 NaN 912.964595858383 2.1957397369152827 257.0 6.0 161.0 
568.0000441532786 1182.0 NaN 916.0748162992647 2.305697622399087 256.0 6.0 162.0 
570.0000441532786 1185.0 NaN 916.098864395458 2.31839312032648 256.0 6.0 162.0 
572.0000441532786 1183.0 NaN 916.0935203740819 2.2925915437183226 255.0 6.0 162.0 
574.0000441532786 1184.0 NaN 915.9759519038081 2.375097499647741 255.0 6.0 162.0 
576.0000441532786 1177.0 NaN 916.0240480961919 2.259525280734771 255.0 6.0 162.0 
578.0000441532786 1183.0 NaN 919.152972611891 2.29086168997039 257.0 6.0 163.0 
580.0000441532786 1192.0 NaN 922.2818971275875 2.2428286981030667 258.0 6.0 164.0 
582.0000441532786 1192.0 NaN 922.2872411489636 2.2581258983277572 261.0 6.0 164.0 
584.0000441532786 1200.0 NaN 922.1857047428182 2.3452654643048354 260.0 6.0 164.0 
586.0000441532786 1194.0 NaN 922.2231128924509 2.3643197392741184 260.0 6.0 164.0 
588.0000441532786 1191.0 NaN 934.5170340681364 2.2648710327411163 262.0 6.0 168.0 
590.0000441532786 1193.0 NaN 934.5357381429541 2.226855898407767 265.0 6.0 168.0 
592.0000441532786 1191.0 NaN 940.7134268537086 2.2773369453766823 268.0 6.0 170.0 
594.0000441532786 1194.0 NaN 943.7140948563782 2.3091223278352193 271.0 6.0 171.0 
596.0000441532786 1190.0 NaN 940.643954575818 2.3064939608831474 272.0 6.0 170.0 
598.0000441532786 1197.0 NaN 952.847027388109 2.0881277868159764 277.0 6.0 174.0 
600.0000441532786 1210.0 NaN 952.7962591850363 2.2665649914873205 279.0 6.0 174.0 
602.0000441532786 1209.0 NaN 955.9305277221092 2.3899238066831394 279.0 6.0 175.0 
604.0000441532786 1202.0 NaN 952.7668670674685 2.351699788123423 278.0 6.0 174.0 
606.0000441532786 1200.0 NaN 949.7394789579143 2.2948106782873015 276.0 6.0 173.0 
608.0000441532786 1208.0 NaN 952.8657314629271 2.2186171667154664 276.0 6.0 174.0 
610.0000441532786 1208.0 NaN 949.7474949899814 2.214425968229178 278.0 6.0 173.0 
612.0000441532786 1202.0 NaN 952.8336673346682 2.261135509078539 278.0 6.0 174.0 
614.0000441532786 1203.0 NaN 955.8316633266539 2.3089371328466264 278.0 6.0 175.0 
616.0000441532786 1204.0 NaN 955.8931195724773 2.313492007270766 278.0 6.0 175.0 
618.0000441532786 1209.0 NaN 965.0821643286582 2.2970892380609893 276.0 6.0 178.0 
620.0000441532786 1225.0 NaN 965.1462925851694 2.4509627185604015 275.0 6.0 178.0 
622.0000441532786 1225.0 NaN 965.1489645958587 2.5760611468358707 276.0 6.0 178.0 
624.0000441532786 1231.0 NaN 968.1977287909145 2.8237474195907604 277.0 6.0 179.0 
626.0000441532786 1226.0 NaN 971.2705410821635 2.745764225099604 275.0 6.0 180.0 
628.0000441532786 1246.0 NaN 962.0654642618582 2.571563619102352 276.0 6.0 177.0 
630.0000441532786 1247.0 NaN 968.2378089512365 2.6579063637685163 276.0 6.0 179.0 
632.0000441532786 1255.0 NaN 965.2478289913179 2.832313561146927 276.0 6.0 178.0 
634.0000441532786 1254.0 NaN 968.2591850367407 2.796901702437925 276.0 6.0 179.0 
636.0000441532786 1255.0 NaN 971.337341349364 2.6797675221276975 277.0 6.0 180.0 
638.0000441532786 1289.0 NaN 977.5230460921855 2.455003967762407 276.0 6.0 182.0 
640.0000441532786 1291.0 NaN 983.698062792251 2.550473124219451 278.0 6.0 184.0 
642.0000441532786 1296.0 NaN 986.7762191048762 2.6205554515691745 277.0 6.0 185.0 
644.0000441532786 1305.0 NaN 989.8089512358057 2.731698710262868 276.0 6.0 186.0 
646.0000441532786 1285.0 NaN 996.040080160321 2.4774385230825504 276.0 6.0 188.0 
648.0000441532786 1277.0 NaN 995.9706078824304 2.483644838924208 278.0 6.0 188.0 
650.0000441532786 1281.0 NaN 995.9331997328003 2.651471423496467 281.0 6.0 188.0 
652.0000441532786 1281.0 NaN 998.9846359385455 2.848536323573812 283.0 6.0 189.0 
654.0000441532786 1284.0 NaN 995.8690714762843 2.9208831782242277 282.0 6.0 188.0 
656.0000441532786 1284.0 NaN 999.0006680026729 2.8246938077989143 282.0 6.0 189.0 
658.0000441532786 1294.0 NaN 1014.4101536406162 2.7083379179722717 287.0 6.0 194.0 
660.0000441532786 1296.0 NaN 1017.5390781563111 2.7533973000782415 288.0 6.0 195.0 
662.0000441532786 1285.0 NaN 1020.5744822979273 2.7387192460472862 287.0 6.0 196.0 
664.0000441532786 1284.0 NaN 1017.4321977287909 2.852864296220629 288.0 6.0 195.0 
#####################################################################
# End of data export. Simulation finished at: 2019-03-11T21:26+0000 #
#####################################################################
