#####################################################################
# Alchemist log file - simulation started at: 2019-03-07T09:29+0000 #
#####################################################################
# seed = 2.0, bandwidth = 1000.0, propagationDelay = 0.001, baserange = 100.0
#
# The columns have the following meaning: 
# time neighbor_count[Sum] <value>@neighbor_count[Sum] packet_size[Mean] mean_delay[Mean] crowd[Sum] overcrowded[Sum] risk[Sum] 
0.0 NaN NaN NaN NaN NaN NaN NaN 
2.0005829790527505 NaN NaN 4988.0 NaN 1497.0 0.0 1497.0 
4.0005829790527505 NaN NaN 4988.0 NaN 1497.0 0.0 1497.0 
6.0005829790527505 6613.0 NaN 4989.205076820307 0.2664390865956817 1497.0 0.0 1497.0 
8.000582979052751 13124.0 NaN 4995.596526386105 2.0029705384917147 1497.0 0.0 1497.0 
10.000582979052751 13124.0 NaN 4994.752171008684 4.0027868402396445 1497.0 0.0 1497.0 
12.000582979052751 13124.0 NaN 4996.6760187040745 1.009236498864789 1497.0 0.0 1497.0 
14.000582979052751 13124.0 NaN 4993.715430861724 3.009236498864789 1497.0 0.0 1497.0 
16.00058297905275 13124.0 NaN 4993.814295257181 2.5200881031197393 1496.0 1.0 1496.0 
18.00058297905275 13124.0 NaN 4994.912491649967 1.9984937178012732 1489.0 8.0 1489.0 
20.00058297905275 13124.0 NaN 4994.522378089512 3.9984937178012734 1489.0 8.0 1489.0 
22.00058297905275 13147.0 NaN 4994.981963927856 2.2287062894377048 1488.0 9.0 1488.0 
24.00058297905275 13155.0 NaN 4993.774215096861 2.4060030628965583 1490.0 7.0 1490.0 
26.00058297905275 13156.0 NaN 4993.461589846359 3.4256752466045595 1490.0 7.0 1490.0 
28.00058297905275 13173.0 NaN 4993.9826319305275 2.4068287662365226 1491.0 6.0 1491.0 
30.00058297905275 13178.0 NaN 4994.268537074148 2.9520825189142577 1493.0 4.0 1493.0 
32.00058297905275 13194.0 NaN 4994.161656646626 2.7843011762709793 1493.0 4.0 1493.0 
34.00017157845532 13208.0 NaN 4994.228456913827 2.8048386260286056 1491.0 6.0 1491.0 
36.00058297905275 13227.0 NaN 4993.889111556447 2.522805794690536 1492.0 5.0 1492.0 
38.00058297905275 13238.0 NaN 4993.859719438878 2.876761399605585 1492.0 5.0 1492.0 
40.000171578455316 13248.0 NaN 4993.9906479625915 3.364127638073763 1492.0 5.0 1492.0 
42.00058297905275 13275.0 NaN 4994.0253841015365 1.9134814541398386 1492.0 5.0 1492.0 
44.00058297905275 13281.0 NaN 4994.153640614562 3.3317574098244314 1492.0 5.0 1492.0 
46.000171578455316 13304.0 NaN 4993.899799599199 2.9283060789716986 1492.0 5.0 1492.0 
48.00058297905275 13323.0 NaN 4993.728790915164 2.100671106933546 1492.0 5.0 1492.0 
50.00058297905275 13323.0 NaN 4993.902471609887 3.814809592653273 1492.0 5.0 1492.0 
52.000171578455316 13364.0 NaN 4994.070808283233 2.3050460360387643 1492.0 5.0 1492.0 
54.00058297905275 13382.0 NaN 4993.9585838343355 2.579988629057559 1492.0 5.0 1492.0 
56.00058297905275 13384.0 NaN 4994.094856379425 3.3428744927753087 1492.0 5.0 1492.0 
58.000171578455316 13389.0 NaN 4993.811623246493 2.525273374957623 1492.0 5.0 1492.0 
60.00058297905275 13394.0 NaN 4990.674682698731 3.048726173475044 1491.0 5.0 1491.0 
62.000562649975805 13400.0 NaN 1522.6239144956576 2.5437079281566395 816.0 2.0 363.0 
64.00017157845531 13439.0 NaN 1525.6539746158996 2.0544937038144266 713.0 3.0 363.0 
66.00056264997582 13457.0 NaN 1525.5577822311275 1.4701920060183051 633.0 4.0 362.0 
68.00056264997582 13459.0 NaN 1525.493653974618 1.8300399235785365 576.0 4.0 362.0 
70.00056264997582 13465.0 NaN 1525.4562458249823 1.6143031787552955 552.0 4.0 362.0 
72.00056264997582 13491.0 NaN 1525.3760855043424 1.2677506798702267 538.0 4.0 362.0 
74.00056264997582 13499.0 NaN 1525.3814295257184 1.8470323917078977 531.0 4.0 362.0 
76.00056264997582 13507.0 NaN 1525.4081496325996 1.6056112817756212 530.0 4.0 362.0 
78.00056264997582 13516.0 NaN 1528.4702738810938 1.2980747975796145 530.0 4.0 363.0 
80.00056264997582 13534.0 NaN 1531.5323981295912 1.9046012721526475 527.0 4.0 364.0 
82.00056264997582 13523.0 NaN 1531.5217100868394 1.5291093037599797 527.0 4.0 364.0 
84.00056264997582 13522.0 NaN 1534.567802271209 1.2928611150424014 528.0 4.0 365.0 
86.00056264997582 13522.0 NaN 1534.5704742818973 1.835624779941671 527.0 4.0 365.0 
88.00056264997582 13500.0 NaN 1534.5731462925849 1.534518260322139 526.0 4.0 365.0 
90.00056264997582 13498.0 NaN 1534.551770207082 1.3188086545347537 527.0 4.0 365.0 
92.00056264997582 13499.0 NaN 1534.549098196391 1.7996306950395378 526.0 4.0 365.0 
94.00056264997582 13512.0 NaN 1534.5277221108886 1.6211253648274597 524.0 4.0 365.0 
96.00056264997582 13516.0 NaN 1534.549098196391 1.3758799988063728 524.0 4.0 365.0 
98.00056264997582 13522.0 NaN 1534.5010020040093 1.9059070564221179 524.0 4.0 365.0 
100.00056264997582 13508.0 NaN 1534.5303941215757 1.7047306415726755 524.0 4.0 365.0 
102.00056264997582 13501.0 NaN 1537.5951903807634 1.4038946570736475 523.0 5.0 365.0 
104.00056264997582 13507.0 NaN 1537.6005344021364 1.983768860922835 523.0 5.0 365.0 
106.00056264997582 13498.0 NaN 1537.6192384769547 1.7498531260316894 522.0 5.0 365.0 
108.00056264997582 13504.0 NaN 1540.6546426185726 1.4398092547188643 523.0 4.0 367.0 
110.00056264997582 13501.0 NaN 1540.6359385437547 2.011541104137587 523.0 4.0 367.0 
112.00056264997582 13517.0 NaN 1540.6706746826997 1.7524135951725772 523.0 4.0 367.0 
114.00056264997582 13532.0 NaN 1540.6706746826997 1.4633355053674029 524.0 4.0 367.0 
116.00056264997582 13530.0 NaN 1543.7568470273884 1.9711209688725877 525.0 4.0 368.0 
118.00056264997582 13519.0 NaN 1543.7167668670666 1.6731877752924202 526.0 4.0 368.0 
120.00056264997582 13497.0 NaN 1543.7434869739477 1.3614075285824088 526.0 4.0 368.0 
122.00056264997582 13528.0 NaN 1549.8971275885092 1.8449815949153903 526.0 4.0 370.0 
124.00056264997582 13538.0 NaN 1546.8109552438207 1.5925564936704841 526.0 4.0 369.0 
126.00056264997582 13543.0 NaN 1546.8216432865727 1.3370306778178018 526.0 4.0 369.0 
128.00056264997582 13547.0 NaN 1546.8082832331334 1.8418208679413206 526.0 4.0 369.0 
130.00056264997582 13540.0 NaN 1546.8109552438207 1.6364838085090914 526.0 4.0 369.0 
132.00056264997582 13557.0 NaN 1546.8403473613907 1.3521652674661913 526.0 4.0 369.0 
134.00056264997582 13582.0 NaN 1546.859051436206 1.8976632267516298 526.0 4.0 369.0 
136.00056264997582 13575.0 NaN 1546.8724114896452 1.653749838973645 526.0 4.0 369.0 
138.00056264997582 13578.0 NaN 1543.7274549098183 1.3714902013094288 524.0 3.0 369.0 
140.00056264997582 13589.0 NaN 1546.835003340012 1.940277654820227 520.0 3.0 370.0 
142.00056264997582 13596.0 NaN 1543.7835671342698 1.6156955804422404 520.0 3.0 369.0 
144.00056264997582 13606.0 NaN 1543.794255177021 1.406356437369583 520.0 3.0 369.0 
146.00056264997582 13598.0 NaN 1550.0013360053454 1.901632388739607 520.0 3.0 371.0 
148.00056264997582 13590.0 NaN 1546.9258517034089 1.6519140232683935 522.0 3.0 370.0 
150.00056264997582 13583.0 NaN 1543.807615230461 1.4257548285494526 522.0 3.0 369.0 
152.00056264997582 13572.0 NaN 1540.694722778891 1.8396651083200837 519.0 5.0 366.0 
154.00056264997582 13563.0 NaN 1540.7000668002668 1.6343843600288654 515.0 5.0 366.0 
156.00056264997582 13553.0 NaN 1540.734802939212 1.3838944663887471 512.0 5.0 366.0 
158.00056264997582 13547.0 NaN 1540.7401469605882 1.8267289573062981 515.0 4.0 367.0 
160.00056264997582 13515.0 NaN 1540.7321309285242 1.6610002296068822 516.0 4.0 367.0 
162.00056264997582 13512.0 NaN 1540.7054108216453 1.337753013119357 517.0 4.0 367.0 
164.00056264997582 13526.0 NaN 1543.7515030060117 1.8803681517324595 518.0 4.0 368.0 
166.00056264997582 13526.0 NaN 1543.7515030060117 1.6922200704677604 517.0 4.0 368.0 
168.00056264997582 13527.0 NaN 1549.9532398129609 1.4150234246345532 518.0 4.0 370.0 
170.00056264997582 13518.0 NaN 1549.9372077488301 1.972428524819732 516.0 4.0 370.0 
172.00056264997582 13506.0 NaN 1543.8183032732118 1.6932564084330777 514.0 5.0 367.0 
174.00056264997582 13506.0 NaN 1543.8076152304611 1.4726450535215156 518.0 5.0 367.0 
176.00056264997582 13490.0 NaN 1543.8102872411482 1.9459779182328643 518.0 5.0 367.0 
178.00056264997582 13485.0 NaN 1537.645958583836 1.7077099953707546 515.0 8.0 362.0 
180.00056264997582 13456.0 NaN 1537.6539746158999 1.4678800731429424 514.0 8.0 362.0 
182.00056264997582 13450.0 NaN 1540.7348029392115 1.887567529859193 514.0 8.0 363.0 
184.00056264997582 13445.0 NaN 1537.6860387441545 1.6416701834521406 511.0 8.0 362.0 
186.00056264997582 13418.0 NaN 1534.6158984635933 1.3639082786970906 510.0 8.0 361.0 
188.00056264997582 13433.0 NaN 1537.6887107548432 1.793670789735279 510.0 8.0 362.0 
190.00056264997582 13411.0 NaN 1537.6700066800274 1.6526630213182723 509.0 8.0 362.0 
192.00056264997582 13396.0 NaN 1537.6833667334663 1.3498200920951322 510.0 8.0 362.0 
194.00056264997582 13396.0 NaN 1537.7127588510366 1.8693729365001135 509.0 8.0 362.0 
196.00056264997582 13391.0 NaN 1540.793587174348 1.6411468643415186 510.0 8.0 363.0 
198.00056264997582 13391.0 NaN 1543.8049432197727 1.365076964058757 510.0 8.0 364.0 
200.00056264997582 13390.0 NaN 1543.7434869739477 1.9113326096675565 513.0 8.0 364.0 
202.00056264997582 13373.0 NaN 1543.7515030060117 1.6710036146435707 512.0 8.0 364.0 
204.00056264997582 13367.0 NaN 1543.7194388777543 1.449225289683683 512.0 8.0 364.0 
206.00056264997582 13368.0 NaN 1540.6867067468274 1.9579756136999968 512.0 8.0 363.0 
208.00056264997582 13365.0 NaN 1543.7755511022028 1.7541510935893847 513.0 8.0 364.0 
210.00056264997582 13342.0 NaN 1540.6653306613216 1.5889335870467016 510.0 8.0 363.0 
212.00056264997582 13327.0 NaN 1540.6680026720094 2.0027710303068225 508.0 8.0 363.0 
214.00056264997582 13327.0 NaN 1543.7140948563797 1.7978458554141161 506.0 8.0 364.0 
216.00056264997582 13342.0 NaN 1543.7621910487635 1.5985001992421344 507.0 8.0 364.0 
218.00056264997582 13341.0 NaN 1543.7434869739475 2.070215184637809 506.0 8.0 364.0 
220.00056264997582 13311.0 NaN 1540.6706746826999 1.9201584624469836 509.0 8.0 363.0 
222.00056264997582 13284.0 NaN 1540.6680026720094 1.63996774427248 509.0 8.0 363.0 
224.00056264997582 13283.0 NaN 1540.6359385437547 2.161953766953403 509.0 8.0 363.0 
226.00056264997582 13251.0 NaN 1540.7027388109543 1.8742891422205525 509.0 8.0 363.0 
228.00056264997582 13233.0 NaN 1540.70808283233 1.6084898280408353 510.0 8.0 363.0 
230.00056264997582 13242.0 NaN 1537.648630594521 2.168219204662385 513.0 4.0 366.0 
232.00056264997582 13226.0 NaN 1540.7401469605884 1.7945574553663726 511.0 4.0 367.0 
234.00056264997582 13204.0 NaN 1540.6786907147637 1.4570291081866638 510.0 4.0 367.0 
236.00056264997582 13193.0 NaN 1540.643954575818 1.9186560815562212 512.0 4.0 367.0 
238.00056264997582 13182.0 NaN 1540.6546426185728 1.6695911873970104 513.0 4.0 367.0 
240.00056264997582 13165.0 NaN 1540.6225784903154 1.466115647170751 513.0 4.0 367.0 
242.00056264997582 13171.0 NaN 1537.5337341349364 1.9183705979980654 513.0 3.0 367.0 
244.00056264997582 13178.0 NaN 1537.5310621242481 1.7304717047620488 515.0 3.0 367.0 
246.00056264997582 13182.0 NaN 1534.444889779561 1.5239030921246646 514.0 3.0 366.0 
248.00056264997582 13183.0 NaN 1534.426185704743 1.964720764385611 515.0 3.0 366.0 
250.00056264997582 13166.0 NaN 1531.3533734134935 1.8098237445019953 511.0 3.0 365.0 
252.00056264997582 13153.0 NaN 1531.3747494989998 1.547363619578263 512.0 3.0 365.0 
254.00056264997582 13146.0 NaN 1531.4148296593182 2.0606591124606126 511.0 3.0 365.0 
256.0005626499758 13125.0 NaN 1531.454909819639 1.839821954670634 512.0 3.0 365.0 
258.0005626499758 13130.0 NaN 1531.4255177020725 1.5637759333269972 513.0 3.0 365.0 
260.0005626499758 13122.0 NaN 1531.4255177020725 2.0812270369437407 514.0 3.0 365.0 
262.0005626499758 13127.0 NaN 1525.3173012692062 1.8531461140804961 513.0 3.0 363.0 
264.0005626499758 13127.0 NaN 1525.3333333333337 1.5692124355242578 514.0 3.0 363.0 
266.0005626499758 13113.0 NaN 1525.3199732798912 2.0120398426086434 511.0 4.0 362.0 
268.0005626499758 13084.0 NaN 1528.3767535070153 1.7365448749056354 512.0 5.0 362.0 
270.0005626499758 13057.0 NaN 1528.34201736807 1.5175500482157487 511.0 4.0 363.0 
272.0005626499758 13047.0 NaN 1528.3233132932544 1.9549510296328956 512.0 4.0 363.0 
274.0005626499758 13079.0 NaN 1540.6680026720092 1.7968530374250744 513.0 3.0 368.0 
276.0005626499758 13086.0 NaN 1537.565798263191 1.5300441333456478 509.0 3.0 367.0 
278.0005626499758 13084.0 NaN 1537.5497661990635 2.00823687215354 509.0 3.0 367.0 
280.0005626499758 13063.0 NaN 1537.5257181028728 1.849897761869106 513.0 3.0 367.0 
282.0005626499758 13047.0 NaN 1537.5123580494337 1.608821847580017 512.0 4.0 366.0 
284.0005626499758 13042.0 NaN 1537.531062124248 2.100378443200338 513.0 4.0 366.0 
286.0005626499758 13029.0 NaN 1534.4261857047431 1.9191419187493615 512.0 3.0 366.0 
288.0005626499758 13004.0 NaN 1534.4448897795612 1.6884842452546571 513.0 3.0 366.0 
290.0005626499758 12991.0 NaN 1534.468937875752 2.1800465108290976 513.0 3.0 366.0 
292.0005626499758 12971.0 NaN 1534.4154976619911 1.8906179294124614 512.0 3.0 366.0 
294.0005626499758 12959.0 NaN 1531.3453573814272 1.7030162933570459 511.0 3.0 365.0 
296.0005626499758 12972.0 NaN 1528.2965931863728 2.150497736099871 511.0 3.0 364.0 
298.0005626499758 12938.0 NaN 1531.374749499 1.8565509324681198 511.0 3.0 365.0 
300.0005626499758 12908.0 NaN 1534.5010020040093 1.683214851975078 511.0 3.0 366.0 
302.0005626499758 12891.0 NaN 1528.27521710087 2.019047708635235 508.0 3.0 364.0 
304.0005626499758 12885.0 NaN 1525.2317969271885 1.8765486983030626 507.0 3.0 363.0 
306.0005626499758 12867.0 NaN 1528.2805611222457 1.5851923291375805 507.0 3.0 364.0 
308.0005626499758 12864.0 NaN 1531.438877755509 1.956003360630314 506.0 3.0 365.0 
310.0005626499758 12835.0 NaN 1534.5357381429544 1.8061758353549733 505.0 3.0 366.0 
312.0005626499758 12827.0 NaN 1531.404141616566 1.5216094458239073 505.0 3.0 365.0 
314.0005626499758 12826.0 NaN 1528.3072812291255 2.0021589728733478 506.0 3.0 364.0 
316.0005626499758 12791.0 NaN 1528.3607214428841 1.8041916311127943 505.0 3.0 364.0 
318.0005626499758 12778.0 NaN 1522.2070808283247 1.5123005808535162 504.0 3.0 362.0 
320.0005626499758 12759.0 NaN 1522.2338009352027 2.0027343957026393 504.0 3.0 362.0 
322.0005626499758 12749.0 NaN 1528.3820975283911 1.7742087590538071 507.0 3.0 364.0 
324.0005626499758 12757.0 NaN 1537.5764863059455 1.5814975185133908 506.0 3.0 367.0 
326.0005626499758 12743.0 NaN 1537.6032064128271 2.0243907489795934 507.0 3.0 367.0 
328.0005626499758 12727.0 NaN 1537.5791583166338 1.817527063507961 507.0 3.0 367.0 
330.0005626499758 12691.0 NaN 1537.5177020708093 1.6305285731890604 507.0 3.0 367.0 
332.0005626499758 12680.0 NaN 1537.4989979959907 2.0363878990385698 508.0 3.0 367.0 
334.0005626499758 12672.0 NaN 1531.3961255845002 1.827047665897642 507.0 3.0 365.0 
336.0005626499758 12663.0 NaN 1534.4635938543754 1.4953133730534989 508.0 3.0 366.0 
338.0005626499758 12659.0 NaN 1531.3881095524366 1.905953627166738 508.0 3.0 365.0 
340.0005626499758 12652.0 NaN 1525.2665330661334 1.7624055285138869 506.0 3.0 363.0 
342.0005626499758 12655.0 NaN 1528.235136940546 1.477603600425926 508.0 3.0 364.0 
344.0005626499758 12645.0 NaN 1531.3319973279906 1.9108426103363159 508.0 3.0 365.0 
346.0005626499758 12655.0 NaN 1531.3106212424843 1.7374377446805893 512.0 3.0 365.0 
348.0005626499758 12661.0 NaN 1531.350701402806 1.4802757228375185 512.0 3.0 365.0 
350.0005626499758 12660.0 NaN 1531.401469605879 1.9885262347287531 512.0 3.0 365.0 
352.0005626499758 12666.0 NaN 1531.3747494989996 1.7567880560023057 513.0 3.0 365.0 
354.0005626499758 12681.0 NaN 1528.2939211756843 1.4856919065468208 514.0 3.0 364.0 
356.0005626499758 12694.0 NaN 1528.3233132932542 1.8750512070922358 513.0 3.0 364.0 
358.0005626499758 12681.0 NaN 1525.239812959252 1.6596893020764367 513.0 3.0 363.0 
360.0005626499758 12671.0 NaN 1522.1509686038735 1.4610456909222065 513.0 3.0 362.0 
362.0005626499758 12678.0 NaN 1522.1242484969932 1.8561799630150038 511.0 3.0 362.0 
364.0005626499758 12686.0 NaN 1525.1703406813635 1.6873733364524912 510.0 4.0 362.0 
366.0005626499758 12707.0 NaN 1525.1730126920515 1.4769383352958776 516.0 3.0 363.0 
368.0005626499758 12705.0 NaN 1515.9492317969275 1.941244245220742 515.0 3.0 360.0 
370.0005626499758 12700.0 NaN 1506.7307949231808 1.825997753606204 513.0 3.0 357.0 
372.0005626499758 12672.0 NaN 1503.6526386105547 1.4583492530700861 513.0 3.0 356.0 
374.0005626499758 12680.0 NaN 1509.792919171676 1.9509755472315462 514.0 4.0 357.0 
376.0005626499758 12671.0 NaN 1509.8116232464918 1.775651469399687 515.0 3.0 358.0 
378.0005626499758 12674.0 NaN 1509.8062792251176 1.5572520004197783 516.0 3.0 358.0 
380.0005626499758 12669.0 NaN 1506.7067468269877 2.079187249625917 518.0 3.0 357.0 
382.0005626499758 12671.0 NaN 1503.6579826319298 1.8643023100969423 515.0 4.0 355.0 
384.0005626499758 12678.0 NaN 1500.529058116233 1.699881628994144 516.0 4.0 354.0 
386.0005626499758 12688.0 NaN 1506.7414829659306 2.1324377522411426 516.0 4.0 356.0 
388.0005626499758 12691.0 NaN 1506.7441549766193 1.9737921230432154 515.0 4.0 356.0 
390.0005626499758 12676.0 NaN 1503.6927187708748 1.8171260445029878 515.0 4.0 355.0 
392.0005626499758 12673.0 NaN 1506.7147628590521 2.2126227655269983 513.0 4.0 356.0 
394.0005626499758 12670.0 NaN 1509.792919171676 2.022234407484913 517.0 4.0 357.0 
396.0005626499758 12646.0 NaN 1506.7575150300609 1.7913273319390859 514.0 4.0 356.0 
398.0005626499758 12646.0 NaN 1503.68470273881 2.109809740945662 516.0 4.0 355.0 
400.0005626499758 12633.0 NaN 1506.709418837675 1.996500262807079 518.0 4.0 356.0 
402.0005626499758 12612.0 NaN 1509.803607214428 1.6582604013486884 519.0 4.0 357.0 
404.0005626499758 12609.0 NaN 1509.7822311289249 2.111254075953083 520.0 4.0 357.0 
406.0005626499758 12600.0 NaN 1512.8817635270545 1.9285280188984653 520.0 4.0 358.0 
408.0005626499758 12574.0 NaN 1515.906479625918 1.5704063022677572 520.0 4.0 359.0 
410.0005626499758 12593.0 NaN 1518.9579158316637 2.0964794785543295 520.0 4.0 360.0 
412.0005626499758 12594.0 NaN 1522.076152304609 1.829836690917447 520.0 4.0 361.0 
414.0005626499758 12591.0 NaN 1528.2565130260523 1.55586207030617 519.0 4.0 363.0 
416.0005626499758 12575.0 NaN 1525.1222444889788 1.975139885429757 520.0 4.0 362.0 
418.0005626499758 12578.0 NaN 1519.0006680026727 1.7474411191941974 522.0 3.0 361.0 
420.0005626499758 12569.0 NaN 1518.941883767536 1.5590236226491105 522.0 3.0 361.0 
422.0005626499758 12567.0 NaN 1509.747494989981 1.9496656303862814 522.0 3.0 358.0 
424.0005626499758 12591.0 NaN 1506.6666666666658 1.7801216165352287 521.0 3.0 357.0 
426.0005626499758 12616.0 NaN 1512.822979291918 1.568241568485735 517.0 3.0 359.0 
428.0005626499758 12605.0 NaN 1512.8523714094847 1.9749674556771846 515.0 3.0 359.0 
430.0005626499758 12608.0 NaN 1509.7875751503 1.8942005903500816 516.0 3.0 358.0 
432.0005626499758 12590.0 NaN 1506.6693386773545 1.595540035425834 516.0 3.0 357.0 
434.0005626499758 12596.0 NaN 1509.7555110220449 2.045541555282093 518.0 3.0 358.0 
436.0005626499758 12592.0 NaN 1515.890447561791 1.8939951114482014 518.0 3.0 360.0 
438.0005626499758 12575.0 NaN 1515.917167668672 1.5092817861021353 518.0 4.0 359.0 
440.0005626499758 12571.0 NaN 1525.1275885103546 1.9999236874919022 523.0 4.0 362.0 
442.0005626499758 12559.0 NaN 1525.0420841683363 1.8250489190694308 523.0 3.0 363.0 
444.0005626499758 12572.0 NaN 1525.0207080828334 1.652002473773523 522.0 3.0 363.0 
446.0005626499758 12580.0 NaN 1531.2224448897814 2.049506956402302 524.0 4.0 364.0 
448.0005626499758 12570.0 NaN 1534.3299933199726 1.8047701883578011 524.0 4.0 365.0 
450.0005626499758 12548.0 NaN 1534.3326653306633 1.5934952399852873 524.0 4.0 365.0 
452.0005626499758 12528.0 NaN 1537.3360053440208 1.9484994500875628 525.0 4.0 366.0 
454.0005626499758 12536.0 NaN 1537.322645290582 1.833518015819199 525.0 4.0 366.0 
456.0005626499758 12556.0 NaN 1549.7234468937882 1.6442788566931947 526.0 3.0 371.0 
458.0005626499758 12552.0 NaN 1549.7474949899818 2.0295973360504624 525.0 3.0 371.0 
460.0005626499758 12567.0 NaN 1546.6880427521724 1.961462806552405 522.0 4.0 369.0 
462.0005626499758 12555.0 NaN 1546.6212424849703 1.640838926266546 521.0 5.0 368.0 
464.0005626499758 12568.0 NaN 1546.6105544422182 2.084953426522411 521.0 5.0 368.0 
466.0005626499758 12558.0 NaN 1543.6259185036731 1.9893543254852013 521.0 6.0 366.0 
468.0005626499758 12546.0 NaN 1543.5885103540425 1.686637769343002 522.0 6.0 366.0 
470.0005626499758 12520.0 NaN 1540.4676018704088 2.1288962892203864 521.0 6.0 365.0 
472.0005626499758 12529.0 NaN 1534.3166332665337 1.9189739094052052 521.0 5.0 364.0 
474.0005626499758 12510.0 NaN 1531.2758851035392 1.6508760917362242 518.0 5.0 363.0 
476.0005626499758 12506.0 NaN 1525.1516366065455 2.0879922340421215 515.0 5.0 361.0 
478.0005626499758 12502.0 NaN 1528.2431529726114 1.9063082271895708 513.0 5.0 362.0 
480.0005626499758 12499.0 NaN 1525.1436205744817 1.686586657645947 516.0 3.0 363.0 
482.0005626499758 12489.0 NaN 1522.0146960587838 2.0880727608452667 519.0 3.0 362.0 
484.0005626499758 12493.0 NaN 1518.9979959919826 1.8080646873730175 514.0 3.0 361.0 
486.0005626499758 12489.0 NaN 1519.0888443553788 1.548911645416863 511.0 3.0 361.0 
488.0005626499758 12487.0 NaN 1509.9104876419515 1.9681315011186622 513.0 3.0 358.0 
490.0005626499758 12499.0 NaN 1506.7922511690056 1.836344898570293 513.0 3.0 357.0 
492.0005626499758 12494.0 NaN 1503.6713426853717 1.5752022251925857 513.0 3.0 356.0 
494.0005626499758 12481.0 NaN 1500.5878423513705 1.949366341764274 513.0 3.0 355.0 
496.0005626499758 12476.0 NaN 1500.6573146292576 1.7765632052572782 509.0 3.0 355.0 
498.0005626499758 12481.0 NaN 1497.5577822311284 1.5772740294030188 511.0 3.0 354.0 
500.0005626499758 12478.0 NaN 1497.587174348698 2.067561518582559 510.0 3.0 354.0 
502.0005626499758 12493.0 NaN 1497.5283901135613 1.8458223061693377 507.0 3.0 354.0 
504.0005626499758 12487.0 NaN 1497.5764863059455 1.6344022010663153 507.0 4.0 353.0 
506.0005626499758 12490.0 NaN 1503.7194388777546 2.0411378125833877 511.0 4.0 355.0 
508.0005626499758 12491.0 NaN 1503.6419505678007 1.864366086571593 511.0 4.0 355.0 
510.0005626499758 12493.0 NaN 1506.706746826988 1.7206200164963987 513.0 3.0 357.0 
512.0005626499758 12498.0 NaN 1506.7120908483637 2.146775465226062 513.0 3.0 357.0 
514.0005626499758 12493.0 NaN 1503.6927187708745 1.8871869251297069 513.0 3.0 356.0 
516.0005626499758 12496.0 NaN 1494.5704742818982 1.6474743308133741 512.0 3.0 353.0 
518.0005626499758 12490.0 NaN 1488.42217768871 1.9943760198875864 510.0 3.0 351.0 
520.0005626499758 12504.0 NaN 1479.1422845691375 1.7989567140236224 511.0 3.0 348.0 
522.0005626499758 12500.0 NaN 1476.0347361389452 1.5223786592560136 510.0 3.0 347.0 
524.0005626499758 12506.0 NaN 1469.8436873747487 1.9691342579562958 506.0 4.0 344.0 
526.0005626499758 12501.0 NaN 1463.7675350701393 1.757428035404551 504.0 5.0 341.0 
528.0005626499758 12512.0 NaN 1466.8162992651978 1.4278024266249434 501.0 7.0 340.0 
530.0005626499758 12528.0 NaN 1460.6786907147632 1.9202156550445841 500.0 7.0 338.0 
532.0005626499758 12545.0 NaN 1460.609218436873 1.6997865590690653 499.0 6.0 339.0 
534.0005626499758 12564.0 NaN 1466.7494989979969 1.463246870380681 500.0 10.0 337.0 
536.0005626499758 12590.0 NaN 1463.6793587174354 1.9081259727128441 499.0 10.0 336.0 
538.0005626499758 12597.0 NaN 1466.8002672010696 1.6801627054149306 500.0 10.0 337.0 
540.0005626499758 12605.0 NaN 1460.7000668002665 1.5207064818099645 502.0 10.0 335.0 
542.0005626499758 12599.0 NaN 1466.789579158317 1.8937305759417156 502.0 10.0 337.0 
544.0005626499758 12617.0 NaN 1466.781563126253 1.6999967475480935 503.0 10.0 337.0 
546.0005626499758 12638.0 NaN 1466.7708750835 1.556416102934679 501.0 10.0 337.0 
548.0005626499758 12644.0 NaN 1469.8623914495652 1.9831075675101533 502.0 10.0 338.0 
550.0005626499758 12655.0 NaN 1472.9378757515028 1.8328362826720717 505.0 10.0 339.0 
552.0005626499758 12655.0 NaN 1466.733466933867 1.6398734471421967 504.0 10.0 337.0 
554.0005626499758 12655.0 NaN 1472.9004676018715 2.030824193810703 503.0 10.0 339.0 
556.0005626499758 12662.0 NaN 1475.9465597862386 1.8545948435501813 501.0 10.0 340.0 
558.0005626499758 12679.0 NaN 1463.6579826319303 1.7131374289512598 500.0 10.0 336.0 
560.0005626499758 12702.0 NaN 1460.598530394122 2.187929353688866 501.0 10.0 335.0 
562.0005626499758 12707.0 NaN 1460.5958583834338 1.9836737795301895 499.0 10.0 335.0 
564.0001715784554 12697.0 NaN 1469.878423513694 1.829483766951986 499.0 10.0 338.0 
566.0005626499758 12713.0 NaN 1469.8623914495652 2.216161184362392 498.0 10.0 338.0 
568.0005626499758 12700.0 NaN 1469.849031396126 1.8964398862476977 500.0 10.0 338.0 
570.0001715784554 12699.0 NaN 1479.0460921843692 1.7828945246616843 501.0 10.0 341.0 
572.0005626499758 12694.0 NaN 1482.1456245824988 2.104503376246548 500.0 10.0 342.0 
574.0005626499758 12666.0 NaN 1485.1890447561796 1.874924911171509 503.0 9.0 344.0 
576.0001715784554 12696.0 NaN 1488.3473613894453 1.7435065488854486 505.0 9.0 345.0 
578.0005626499758 12721.0 NaN 1479.0941883767541 2.0060750651811796 505.0 9.0 342.0 
580.0005626499758 12726.0 NaN 1485.2558450233805 1.8849286243444168 503.0 9.0 344.0 
582.0001715784554 12722.0 NaN 1482.1349365397457 1.65227282368542 503.0 9.0 343.0 
584.0005626499758 12729.0 NaN 1482.1242484969935 2.013366435395714 504.0 9.0 343.0 
586.0005626499758 12767.0 NaN 1482.1108884435541 1.8511376523772867 510.0 9.0 343.0 
588.0005626499758 12787.0 NaN 1485.1756847027382 1.6654438088215984 510.0 9.0 344.0 
590.0005626499758 12799.0 NaN 1491.2839011356036 2.150628805549956 512.0 9.0 346.0 
592.0005626499758 12795.0 NaN 1488.2030728122909 1.9234201359088587 509.0 9.0 345.0 
594.0001715784554 12786.0 NaN 1488.2698730794918 1.7794099360879059 511.0 9.0 345.0 
596.0005626499758 12769.0 NaN 1491.385437541751 2.184806910953438 516.0 9.0 346.0 
598.0005626499758 12766.0 NaN 1488.2404809619243 1.9586948413213559 515.0 9.0 345.0 
600.0005626499758 12756.0 NaN 1488.2672010688034 1.881446967217456 518.0 9.0 345.0 
602.0005626499758 12744.0 NaN 1485.1222444889786 2.162071537301286 517.0 9.0 344.0 
604.0005626499758 12759.0 NaN 1485.1890447561798 2.002906233354072 516.0 9.0 344.0 
606.0005626499758 12761.0 NaN 1494.4876419505667 1.8455669785186857 516.0 9.0 347.0 
608.0005626499758 12766.0 NaN 1494.4181696726796 2.133647988392921 517.0 9.0 347.0 
610.0005626499758 12786.0 NaN 1494.3941215764878 2.0065458634783546 516.0 9.0 347.0 
612.0005626499758 12794.0 NaN 1491.3079492317981 1.7991985752400566 514.0 9.0 346.0 
614.0005626499758 12826.0 NaN 1491.3079492317981 2.102910836140643 515.0 9.0 346.0 
616.0005626499758 12837.0 NaN 1491.3507014028062 1.9597373001928504 514.0 9.0 346.0 
618.0005626499758 12865.0 NaN 1494.4342017368078 1.7734993290370076 516.0 9.0 347.0 
620.0005626499758 12884.0 NaN 1494.4048096192375 2.142318898579352 514.0 10.0 346.0 
622.0005626499758 12867.0 NaN 1497.4375417501665 1.877630943421657 513.0 10.0 347.0 
624.0005626499758 12892.0 NaN 1497.4455577822303 1.7732628276940336 508.0 14.0 343.0 
626.0005626499758 12903.0 NaN 1494.4074816299271 2.1887774725737947 506.0 13.0 343.0 
628.0005626499758 12934.0 NaN 1503.6927187708745 1.9934993259553593 510.0 9.0 350.0 
630.0005626499758 12927.0 NaN 1503.690046760188 1.8322887862339692 507.0 10.0 349.0 
632.0005626499758 12912.0 NaN 1506.7147628590526 2.1221133249169513 507.0 10.0 350.0 
634.0005626499758 12904.0 NaN 1519.0835003340007 1.898924298135658 503.0 17.0 347.0 
636.0005626499758 12925.0 NaN 1515.997327989311 1.8052963167275944 502.0 17.0 346.0 
638.0005626499758 12932.0 NaN 1512.967267869072 2.1262273473495745 500.0 18.0 344.0 
640.0005626499758 12953.0 NaN 1516.0240480961918 1.9693748691494408 509.0 17.0 346.0 
642.0005626499758 12932.0 NaN 1516.0534402137619 1.8013998925960366 509.0 17.0 346.0 
644.0005626499758 12914.0 NaN 1512.9458917835666 2.2119562277528613 512.0 16.0 346.0 
646.0005626499758 12901.0 NaN 1512.9565798263181 2.0167266562909156 511.0 16.0 346.0 
648.0005626499758 12898.0 NaN 1516.0160320641273 1.8027449874428767 511.0 15.0 348.0 
650.0005626499758 12902.0 NaN 1519.0487641950556 2.2305955201906986 509.0 14.0 350.0 
652.0005626499758 12878.0 NaN 1519.0514362057456 1.9377924601345067 511.0 11.0 353.0 
654.0005626499758 12873.0 NaN 1522.1135604542426 1.7782530827537897 514.0 9.0 356.0 
656.0005626499758 12880.0 NaN 1522.2044088176365 2.0925163658774752 511.0 9.0 356.0 
658.0005626499758 12892.0 NaN 1531.3961255845009 1.8765886281617483 508.0 9.0 359.0 
660.0005626499758 12905.0 NaN 1534.4074816299274 1.7770139552797497 508.0 9.0 360.0 
662.0005626499758 12907.0 NaN 1534.3540414161646 2.0889647310661625 507.0 9.0 360.0 
664.0005626499758 12886.0 NaN 1537.4375417501667 1.8926807348761874 508.0 9.0 361.0 
#####################################################################
# End of data export. Simulation finished at: 2019-03-07T09:35+0000 #
#####################################################################
