#####################################################################
# Alchemist log file - simulation started at: 2019-03-03T19:51+0000 #
#####################################################################
# seed = 1.0, bandwidth = 2.3713737056616552E7, propagationDelay = 10.0, baserange = 10.0
#
# The columns have the following meaning: 
# time neighbor_count[Sum] <value>@neighbor_count[Sum] packet_size[Mean] mean_delay[Mean] crowd[Sum] overcrowded[Sum] risk[Sum] 
0.0 NaN NaN NaN NaN NaN NaN NaN 
10.000417374280275 NaN NaN 4988.0 NaN 1497.0 0.0 1497.0 
20.000417374280275 488.0 NaN 4990.482297929192 9.003011202981503 1497.0 0.0 1497.0 
30.000417374280275 494.0 NaN 4989.790247160989 8.147852853940153 1497.0 0.0 1497.0 
40.000417374280275 503.0 NaN 4989.800935203741 7.171876095852624 1497.0 0.0 1497.0 
50.000417374280275 519.0 NaN 4989.568470273881 6.513527132196894 1497.0 0.0 1497.0 
60.000417374280275 522.0 NaN 4989.632598530394 5.4643805569726664 1497.0 0.0 1497.0 
70.00041737428027 512.0 NaN 599.585838343353 4.543555474949649 307.0 0.0 65.0 
80.00041737428027 503.0 NaN 605.6887107548428 3.5543559584724256 298.0 0.0 67.0 
90.00041737428027 499.0 NaN 608.7695390781563 2.538152329559855 291.0 0.0 68.0 
100.00041737428027 496.0 NaN 611.8610554442225 1.5024299069074443 289.0 0.0 69.0 
110.00041737428027 487.0 NaN 608.7909151636605 5.497608276894974 270.0 0.0 68.0 
120.00041737428027 486.0 NaN 608.7588510354046 10.002766269306168 250.0 0.0 68.0 
130.0004173742803 487.0 NaN 587.2919171676683 9.245713428959071 216.0 0.0 61.0 
140.0004173742803 508.0 NaN 605.7261189044759 8.251720129703623 196.0 0.0 67.0 
150.0004173742803 523.0 NaN 618.0066800267198 7.247340738502156 190.0 0.0 71.0 
160.0004173742803 536.0 NaN 618.0601202404818 6.619741312228763 182.0 0.0 71.0 
170.0004173742803 523.0 NaN 611.9064796259181 5.519018323129087 172.0 0.0 69.0 
180.0004173742803 515.0 NaN 608.8256513026051 4.5265581039359715 160.0 0.0 68.0 
190.0004173742803 510.0 NaN 614.9445557782227 4.021324424014444 156.0 0.0 70.0 
200.0004173742803 514.0 NaN 630.3486973947894 2.22340292261535 159.0 0.0 75.0 
210.0004173742803 537.0 NaN 639.5804943219773 1.694298853624128 160.0 0.0 78.0 
220.0004173742803 507.0 NaN 627.2892451569803 5.65135451325423 149.0 0.0 74.0 
230.0004173742803 488.0 NaN 618.0681362725455 10.00326815236402 143.0 0.0 71.0 
240.0004173742803 501.0 NaN 611.8851035404136 9.307964019408754 140.0 0.0 69.0 
250.0004173742803 519.0 NaN 618.0146960587845 8.655751888748313 136.0 0.0 71.0 
260.0004173742803 520.0 NaN 624.1576486305955 7.421573664950606 134.0 0.0 73.0 
270.0004173742803 516.0 NaN 627.2037408149637 6.683300217717047 134.0 0.0 74.0 
280.0004173742803 507.0 NaN 624.168336673347 5.422949808583199 129.0 0.0 73.0 
290.0004173742803 510.0 NaN 605.734134936541 4.585806888108444 128.0 0.0 67.0 
300.0004173742803 512.0 NaN 599.5911823647292 3.5250839980992033 121.0 0.0 65.0 
310.0004173742803 499.0 NaN 602.6693386773545 2.593650800855006 120.0 0.0 66.0 
320.0004173742803 484.0 NaN 599.6179024716092 1.7833766700481744 122.0 0.0 65.0 
330.0004173742803 470.0 NaN 599.6045424181699 5.561471738839854 121.0 0.0 65.0 
340.0004173742803 466.0 NaN 578.076152304609 10.003166688851026 121.0 0.0 58.0 
350.0004173742803 494.0 NaN 590.3754175016704 9.23646092555388 123.0 0.0 62.0 
360.0004173742803 502.0 NaN 587.2999331997323 8.624654626969953 118.0 0.0 61.0 
370.0004173742803 489.0 NaN 578.0975283901137 7.481184111161121 117.0 0.0 58.0 
380.0004173742803 490.0 NaN 568.8844355377422 6.569945282302686 113.0 0.0 55.0 
390.0004173742803 485.0 NaN 571.9545758183033 5.601484382504824 114.0 0.0 56.0 
400.0004173742803 500.0 NaN 584.2538410153636 4.499912201175523 120.0 0.0 60.0 
410.0004173742803 509.0 NaN 596.5450901803605 3.8243995002280786 124.0 0.0 64.0 
420.0004173742803 518.0 NaN 611.9385437541745 2.333779533761538 124.0 0.0 69.0 
430.0004173742803 519.0 NaN 621.1703406813637 1.7615274847684768 127.0 0.0 72.0 
440.0004173742803 494.0 NaN 627.2545090180365 5.5849870368992995 126.0 0.0 74.0 
450.0004173742803 482.0 NaN 636.4649298597191 10.007786908438996 128.0 0.0 77.0 
460.0004173742803 498.0 NaN 645.6887107548423 9.421952164774048 129.0 0.0 80.0 
470.0004173742803 504.0 NaN 648.6599866399451 8.80798406337821 133.0 0.0 81.0 
480.0004173742803 484.0 NaN 639.4442217768865 7.74926018944056 129.0 0.0 78.0 
490.0004173742803 474.0 NaN 630.2097528390096 6.515933906519264 127.0 0.0 75.0 
500.0004173742803 486.0 NaN 627.1396125584499 5.330946512164563 122.0 0.0 74.0 
510.0004173742803 482.0 NaN 611.8129592518366 4.46347922801992 121.0 0.0 69.0 
520.0004173742802 480.0 NaN 587.2919171676684 3.4283183809274953 117.0 0.0 61.0 
530.0004173742802 487.0 NaN 581.1623246492989 2.5685801989484465 120.0 0.0 59.0 
540.0004173742802 484.0 NaN 581.2157648630593 1.7543027478114832 119.0 0.0 59.0 
550.0004173742802 468.0 NaN 578.1055444221777 5.565993827761576 111.0 0.0 58.0 
560.0004173742802 463.0 NaN 575.0300601202406 10.001771917334409 110.0 0.0 57.0 
570.0004173742802 476.0 NaN 584.2672010688045 9.387086510292743 114.0 0.0 60.0 
580.0004173742802 476.0 NaN 581.1703406813626 8.73230891049372 118.0 0.0 59.0 
590.0004173742802 482.0 NaN 587.2919171676683 7.5215286392591905 116.0 0.0 61.0 
600.0004173742802 495.0 NaN 593.4348697394795 6.404785958552961 118.0 0.0 63.0 
610.0004173742802 499.0 NaN 596.5156980627924 6.064999755826332 117.0 0.0 64.0 
620.0004173742802 493.0 NaN 608.7668670674682 4.547371028671172 117.0 0.0 68.0 
630.0004173742802 513.0 NaN 614.8670674682703 3.8827171001868597 120.0 0.0 70.0 
640.0004173742802 496.0 NaN 624.0641282565135 2.702214648042834 124.0 0.0 73.0 
650.0004173742802 487.0 NaN 627.2010688042752 1.4458930266137406 136.0 0.0 74.0 
660.0004173742802 477.0 NaN 614.899131596527 5.666873117743163 136.0 0.0 70.0 
#####################################################################
# End of data export. Simulation finished at: 2019-03-03T19:55+0000 #
#####################################################################
