#####################################################################
# Alchemist log file - simulation started at: 2019-03-06T03:21+0000 #
#####################################################################
# seed = 3.0, bandwidth = 2.3713737056616552E7, propagationDelay = 0.1, baserange = 1000.0
#
# The columns have the following meaning: 
# time neighbor_count[Sum] <value>@neighbor_count[Sum] packet_size[Mean] mean_delay[Mean] crowd[Sum] overcrowded[Sum] risk[Sum] 
0.0 NaN NaN NaN NaN NaN NaN NaN 
2.0005923698108097 209048.0 NaN 4995.048764195057 0.497806811446531 1497.0 0.0 1497.0 
4.00059236981081 210022.0 NaN 4993.9772879091515 0.5003009075042798 1495.0 2.0 1495.0 
6.000084666035003 210022.0 NaN 4994.076152304609 0.5003008718228336 1495.0 2.0 1495.0 
8.00059236981081 210022.0 NaN 4994.444889779559 0.5003008530160526 1497.0 0.0 1497.0 
10.00033353340315 210026.0 NaN 4995.692718770875 0.5002926569069128 1497.0 0.0 1497.0 
12.00059236981081 210034.0 NaN 4995.12625250501 0.5003007065371164 1497.0 0.0 1497.0 
14.00059236981081 210036.0 NaN 4994.378089512358 0.5002998343519605 1497.0 0.0 1497.0 
16.000084666035004 210059.0 NaN 4994.51169004676 0.5003200689381235 1496.0 1.0 1496.0 
18.00059236981081 210063.0 NaN 4995.4175016700065 0.5004917549953901 1496.0 1.0 1496.0 
20.00033353340315 210063.0 NaN 4995.679358717435 0.5005090415026846 1496.0 1.0 1496.0 
22.00059236981081 210068.0 NaN 4994.642618570474 0.5003983933672721 1496.0 1.0 1496.0 
24.00059236981081 210103.0 NaN 4994.412825651302 0.5007636063204144 1497.0 0.0 1497.0 
26.000084666035004 210111.0 NaN 4994.319305277221 0.5004264387054537 1497.0 0.0 1497.0 
28.00059236981081 210158.0 NaN 4995.2571810287245 0.5007430957652682 1495.0 2.0 1495.0 
30.00033353340315 210120.0 NaN 4996.288577154309 0.5003522207899522 1495.0 2.0 1495.0 
32.00059236981081 210122.0 NaN 4994.749498997996 0.5003178750377464 1496.0 1.0 1496.0 
34.00059236981081 210167.0 NaN 4994.16967267869 0.5004911040048333 1497.0 0.0 1497.0 
36.00008466603501 210189.0 NaN 4994.62124248497 0.5004060323091908 1496.0 1.0 1496.0 
38.00059236981081 210268.0 NaN 4994.997995991984 0.5004646573812832 1497.0 0.0 1497.0 
40.00033353340315 210262.0 NaN 4996.02672010688 0.5006946059917656 1497.0 0.0 1497.0 
42.00059236981081 210256.0 NaN 4995.3213092852375 0.5002110616922909 1497.0 0.0 1497.0 
44.00059236981081 210283.0 NaN 4994.177688710754 0.5003640416742731 1495.0 2.0 1495.0 
46.00008466603501 210282.0 NaN 4994.311289245157 0.5001720538960429 1493.0 4.0 1493.0 
48.00059236981081 210350.0 NaN 4995.193052772211 0.5006494393539382 1495.0 2.0 1495.0 
50.00033353340315 210347.0 NaN 4995.687374749499 0.5006284391151513 1497.0 0.0 1497.0 
52.00059236981081 210362.0 NaN 4994.837675350702 0.5005580923673462 1497.0 0.0 1497.0 
54.00059236981081 210336.0 NaN 4994.637274549098 0.5010592123095527 1497.0 0.0 1497.0 
56.00008466603501 210337.0 NaN 4994.522378089512 0.5003667308838724 1495.0 2.0 1495.0 
58.00059236981081 210372.0 NaN 4995.120908483634 0.5008051931923974 1494.0 3.0 1494.0 
60.00033353340315 210354.0 NaN 4996.082832331329 0.5005457847702465 1495.0 2.0 1495.0 
62.00047819698967 210356.0 NaN 1522.5170340681366 0.500966542208272 784.0 0.0 365.0 
64.00047819698966 210293.0 NaN 1522.4101536406151 0.5004674554213282 637.0 1.0 364.0 
66.00008466603501 210317.0 NaN 1522.4502338009365 0.5003576190998381 580.0 1.0 364.0 
68.00047819698966 210348.0 NaN 1522.492985971945 0.5010096619439451 554.0 1.0 364.0 
70.00033353340315 210290.0 NaN 1525.6325985303936 0.5006788975090316 537.0 1.0 365.0 
72.00047819698966 210293.0 NaN 1525.5845023380089 0.5005289937827992 534.0 1.0 365.0 
74.00047819698966 210287.0 NaN 1525.5230460921844 0.5002925724884983 531.0 1.0 365.0 
76.00008466603501 210312.0 NaN 1525.507014028055 0.5002055056195764 532.0 1.0 365.0 
78.00047819698966 210344.0 NaN 1534.7628590514364 0.5005172962530979 530.0 1.0 368.0 
80.00033353340315 210321.0 NaN 1534.7762191048757 0.500246588619783 529.0 1.0 368.0 
82.00047819698966 210347.0 NaN 1534.752171008682 0.5005560611593664 529.0 1.0 368.0 
84.00047819698966 210311.0 NaN 1534.7762191048757 0.5001096770366384 529.0 1.0 368.0 
86.00008466603501 210358.0 NaN 1534.810955243821 0.5001952760758581 527.0 1.0 368.0 
88.00047819698966 210415.0 NaN 1534.8056112224456 0.5001699319649677 527.0 1.0 368.0 
90.00033353340315 210418.0 NaN 1537.9372077488304 0.5000453324452598 527.0 1.0 369.0 
92.00047819698966 210445.0 NaN 1537.8383433533727 0.5002408001525547 527.0 1.0 369.0 
94.00047819698966 210422.0 NaN 1537.8303273213091 0.5000618147597501 527.0 1.0 369.0 
96.00008466603501 210499.0 NaN 1540.9539078156304 0.500003640323153 527.0 1.0 370.0 
98.00047819698966 210573.0 NaN 1540.9378757515026 0.5002515185152703 527.0 1.0 370.0 
100.00033353340315 210541.0 NaN 1540.9405477621908 0.4999723425159044 527.0 1.0 370.0 
102.00047819698966 210567.0 NaN 1540.9111556446212 0.5000894971526068 527.0 1.0 370.0 
104.00047819698966 210564.0 NaN 1540.9031396125577 0.499980382039398 527.0 1.0 370.0 
106.00008466603501 210632.0 NaN 1540.9378757515026 0.49992540296791127 527.0 1.0 370.0 
108.00047819698966 210692.0 NaN 1540.9752839011364 0.5002654659398456 526.0 1.0 370.0 
110.00033353340315 210659.0 NaN 1540.9859719438882 0.49996474933447366 526.0 1.0 370.0 
112.00047819698966 210677.0 NaN 1540.9539078156304 0.5001857297429485 526.0 1.0 370.0 
114.00047819698966 210663.0 NaN 1540.9084836339362 0.4998973427673239 527.0 1.0 370.0 
116.00008466603501 210689.0 NaN 1550.126920507682 0.5002689633132444 529.0 1.0 373.0 
118.00047819698966 210667.0 NaN 1550.092184368736 0.5000886971519208 529.0 1.0 373.0 
120.00033353340315 210642.0 NaN 1553.1810287241155 0.4999083852834799 529.0 1.0 374.0 
122.00047819698966 210645.0 NaN 1553.1997327989302 0.500037911414177 529.0 1.0 374.0 
124.00047819698966 210641.0 NaN 1553.210420841682 0.4999722406651324 529.0 1.0 374.0 
126.00008466603501 210673.0 NaN 1547.1396125584517 0.5001531412716318 529.0 1.0 372.0 
128.00047819698966 210669.0 NaN 1547.0808283233118 0.5004353230789915 529.0 1.0 372.0 
130.00033353340314 210653.0 NaN 1547.083500334 0.49991602399684154 529.0 1.0 372.0 
132.00047819698966 210676.0 NaN 1547.0273881095545 0.5001385586186907 529.0 1.0 372.0 
134.00047819698966 210671.0 NaN 1546.9899799599182 0.5001181595694538 526.0 1.0 372.0 
136.000084666035 210711.0 NaN 1547.0033400133607 0.500076804394171 524.0 1.0 372.0 
138.00047819698966 210708.0 NaN 1547.0407481629911 0.5002224125681437 523.0 1.0 372.0 
140.00033353340314 210699.0 NaN 1547.1075484301937 0.4999463584376496 526.0 1.0 372.0 
142.00047819698966 210717.0 NaN 1550.172344689379 0.500072009209291 525.0 1.0 373.0 
144.00047819698966 210710.0 NaN 1553.3146292585184 0.49997386543903116 525.0 1.0 374.0 
146.000084666035 210750.0 NaN 1544.0454241816972 0.5003239665365798 523.0 1.0 371.0 
148.00047819698966 210721.0 NaN 1544.0187040748178 0.5000512748621303 522.0 1.0 371.0 
150.00033353340314 210708.0 NaN 1544.0561122244487 0.5000837940024301 522.0 1.0 371.0 
152.00047819698966 210702.0 NaN 1543.9706078824304 0.5002455135250181 522.0 1.0 371.0 
154.00047819698966 210686.0 NaN 1540.9325317301273 0.5000539571664541 523.0 1.0 370.0 
156.000084666035 210759.0 NaN 1540.943219772879 0.5000597861333809 525.0 1.0 370.0 
158.00047819698966 210751.0 NaN 1547.1075484301937 0.5003571320175906 523.0 1.0 372.0 
160.00033353340314 210729.0 NaN 1544.0454241816972 0.500019005837924 520.0 1.0 371.0 
162.00047819698966 210752.0 NaN 1544.053440213761 0.5004637179968495 519.0 1.0 371.0 
164.00047819698966 210714.0 NaN 1544.0507682030725 0.5002219064599576 520.0 1.0 371.0 
166.000084666035 210720.0 NaN 1547.1182364729455 0.5000377571271428 521.0 1.0 372.0 
168.00047819698966 210729.0 NaN 1550.1910487641937 0.5001963535826355 521.0 1.0 373.0 
170.00033353340314 210734.0 NaN 1550.1803607214429 0.5001582812196453 524.0 1.0 373.0 
172.00047819698966 210734.0 NaN 1550.1696726786909 0.5002012544579127 522.0 1.0 373.0 
174.00047819698966 210741.0 NaN 1544.0454241816974 0.5003428144229243 522.0 1.0 371.0 
176.000084666035 210754.0 NaN 1540.9699398797611 0.5000868967377795 522.0 1.0 370.0 
178.00047819698966 210755.0 NaN 1541.0367401469612 0.5001060551062873 523.0 1.0 370.0 
180.00033353340314 210760.0 NaN 1541.1035404141635 0.5001642935484549 520.0 2.0 369.0 
182.00047819698966 210743.0 NaN 1537.9986639946546 0.5002800646515742 519.0 3.0 367.0 
184.00047819698966 210736.0 NaN 1537.9585838343364 0.5002480646306492 518.0 3.0 367.0 
186.000084666035 210743.0 NaN 1537.9665998664002 0.5002577372478972 518.0 3.0 367.0 
188.00047819698966 210738.0 NaN 1537.926519706079 0.5001535654907868 517.0 3.0 367.0 
190.00033353340314 210745.0 NaN 1537.9104876419517 0.5001640081018933 516.0 3.0 367.0 
192.00047819698966 210746.0 NaN 1534.8643954575818 0.5004058235279484 516.0 3.0 366.0 
194.00047819698966 210720.0 NaN 1534.8617234468936 0.5005579705867914 516.0 3.0 366.0 
196.000084666035 210718.0 NaN 1534.8777555110212 0.5003544453476623 516.0 3.0 366.0 
198.00047819698966 210719.0 NaN 1534.925851703409 0.500570993324515 517.0 3.0 366.0 
200.00033353340314 210695.0 NaN 1537.979959919839 0.5003485865625589 517.0 3.0 367.0 
202.00047819698966 210693.0 NaN 1544.0961923847701 0.5001113653797955 517.0 3.0 369.0 
204.00047819698966 210706.0 NaN 1540.9966599866393 0.5004678209036032 516.0 3.0 368.0 
206.000084666035 210820.0 NaN 1541.0073480293909 0.5004045877702624 517.0 2.0 369.0 
208.00047819698966 210800.0 NaN 1541.0340681362727 0.5003378793432385 518.0 2.0 369.0 
210.00033353340314 210791.0 NaN 1531.8316633266545 0.5003538932526373 520.0 2.0 366.0 
212.00047819698966 210788.0 NaN 1534.8537074148294 0.5003539432425018 521.0 2.0 367.0 
214.00047819698966 210798.0 NaN 1531.7702070808273 0.5015170528601794 517.0 1.0 367.0 
216.000084666035 210876.0 NaN 1531.8209752838998 0.5009537943905604 515.0 1.0 367.0 
218.00047819698966 210846.0 NaN 1528.748162992652 0.5003085500749296 514.0 2.0 365.0 
220.00033353340314 210851.0 NaN 1528.7374749499 0.5005365211717401 513.0 1.0 366.0 
222.00047819698966 210827.0 NaN 1528.7214428857728 0.5004079559978962 513.0 1.0 366.0 
224.00047819698966 210837.0 NaN 1528.6813627254517 0.5006128476728701 513.0 2.0 365.0 
226.000084666035 210910.0 NaN 1528.70808283233 0.5005888170188734 512.0 3.0 364.0 
228.00047819698966 210868.0 NaN 1531.8209752838998 0.5003038532465071 511.0 3.0 365.0 
230.00033353340314 210890.0 NaN 1531.8396793587183 0.5009834410999668 511.0 4.0 364.0 
232.00047819698966 210866.0 NaN 1534.9044756179023 0.5002422356041295 510.0 4.0 365.0 
234.00047819698966 210884.0 NaN 1538.0227120908482 0.50013618937304 511.0 3.0 367.0 
236.000084666035 210944.0 NaN 1541.0661322645274 0.5004703301693683 513.0 3.0 368.0 
238.00047819698966 210915.0 NaN 1537.969271877088 0.5004889032005424 512.0 3.0 367.0 
240.00033353340314 210928.0 NaN 1531.7942551770207 0.5006773708134817 512.0 3.0 365.0 
242.00047819698966 210907.0 NaN 1534.8376753507002 0.5001230103574249 512.0 3.0 366.0 
244.00047819698966 210919.0 NaN 1534.8056112224456 0.5003059815456039 514.0 3.0 366.0 
246.000084666035 210970.0 NaN 1534.8269873079482 0.5005024039371723 514.0 3.0 366.0 
248.00047819698966 210969.0 NaN 1528.710754843018 0.5004980598978656 513.0 3.0 364.0 
250.00033353340314 211018.0 NaN 1528.7214428857728 0.5004533938244305 512.0 3.0 364.0 
252.00047819698966 211010.0 NaN 1525.6646626586517 0.5001158311443294 512.0 3.0 363.0 
254.00047819698966 211005.0 NaN 1525.6566466265874 0.5002814243144 512.0 2.0 364.0 
256.00008466603504 211037.0 NaN 1525.6780227120908 0.5001904320749901 515.0 1.0 365.0 
258.0004781969897 211040.0 NaN 1525.616566466264 0.5004734809625196 515.0 1.0 365.0 
260.00033353340314 211012.0 NaN 1525.5524382097542 0.5000318292812871 516.0 1.0 365.0 
262.0004781969897 211024.0 NaN 1528.6519706078818 0.5001046126463942 516.0 1.0 366.0 
264.0004781969897 211021.0 NaN 1528.6786907147637 0.5007659033573035 516.0 1.0 366.0 
266.00008466603504 211061.0 NaN 1534.9311957247817 0.5003433875298448 513.0 1.0 368.0 
268.0004781969897 211085.0 NaN 1534.8857715430852 0.5002182651685807 512.0 1.0 368.0 
270.00033353340314 211134.0 NaN 1531.8049432197727 0.5004042303299918 510.0 1.0 367.0 
272.0004781969897 211131.0 NaN 1528.6786907147637 0.500228712896372 510.0 1.0 366.0 
274.0004781969897 211130.0 NaN 1528.6893787575154 0.5002428217054538 510.0 1.0 366.0 
276.00008466603504 211186.0 NaN 1528.6867067468274 0.50044277887759 510.0 1.0 366.0 
278.0004781969897 211170.0 NaN 1537.8677354709428 0.5006295556209094 514.0 1.0 369.0 
280.00033353340314 211170.0 NaN 1537.8410153640634 0.5008016439537898 514.0 1.0 369.0 
282.0004781969897 211137.0 NaN 1534.7815631262545 0.5002082630665496 513.0 1.0 368.0 
284.0004781969897 211154.0 NaN 1534.8082832331338 0.5005512226375606 513.0 1.0 368.0 
286.00008466603504 211159.0 NaN 1534.8323313293272 0.5005643668516764 513.0 1.0 368.0 
288.0004781969897 211145.0 NaN 1534.8136272545091 0.5009384559898217 513.0 1.0 368.0 
290.00033353340314 211097.0 NaN 1534.7869071476273 0.5007197398361557 512.0 1.0 368.0 
292.0004781969897 211077.0 NaN 1534.8162992651976 0.5003298399276245 512.0 1.0 368.0 
294.0004781969897 211074.0 NaN 1534.8243152972616 0.5004842830120945 511.0 1.0 368.0 
296.00008466603504 211121.0 NaN 1537.8463593854362 0.5004838982461871 511.0 1.0 369.0 
298.0004781969897 211095.0 NaN 1537.8142952571818 0.5006736773867153 511.0 1.0 369.0 
300.00033353340314 211057.0 NaN 1537.7955911823635 0.5007371055132461 509.0 1.0 369.0 
302.0004781969897 210987.0 NaN 1537.857047428191 0.5004280511059102 509.0 1.0 369.0 
304.0004781969897 210980.0 NaN 1534.8670674682703 0.5011803597122226 509.0 1.0 368.0 
306.00008466603504 210967.0 NaN 1534.8456913827638 0.5004908035052354 510.0 2.0 367.0 
308.0004781969897 210945.0 NaN 1531.7702070808273 0.5006786490065251 507.0 2.0 366.0 
310.00033353340314 210940.0 NaN 1534.733466933866 0.5005181108086171 507.0 1.0 368.0 
312.0004781969897 210937.0 NaN 1531.7060788243157 0.5002688598213987 506.0 1.0 367.0 
314.0004781969897 210932.0 NaN 1534.749498997997 0.5004902431476197 505.0 2.0 367.0 
316.00008466603504 210979.0 NaN 1534.7201068804272 0.5006796900165836 507.0 3.0 366.0 
318.0004781969897 210981.0 NaN 1537.8036072144275 0.5004102281391744 508.0 3.0 367.0 
320.00033353340314 210963.0 NaN 1537.873079492318 0.5005653046119717 506.0 3.0 367.0 
322.0004781969897 210928.0 NaN 1540.9672678690727 0.5002495932709066 506.0 3.0 368.0 
324.0004781969897 210943.0 NaN 1540.9779559118247 0.5002593194016324 506.0 2.0 369.0 
326.00008466603504 210970.0 NaN 1540.9512358049456 0.5005845746837848 508.0 1.0 370.0 
328.0004781969897 210956.0 NaN 1537.8410153640634 0.5003339187030976 507.0 1.0 369.0 
330.00033353340314 210944.0 NaN 1540.9004676018726 0.5007927776026062 507.0 1.0 370.0 
332.0004781969897 210869.0 NaN 1540.9084836339364 0.5001336264064659 506.0 2.0 369.0 
334.0004781969897 210871.0 NaN 1537.8517034068154 0.5002216601528279 507.0 2.0 368.0 
336.00008466603504 210911.0 NaN 1531.775551102203 0.5004862488246035 508.0 1.0 367.0 
338.0004781969897 210870.0 NaN 1531.7648630594545 0.5004928222747194 509.0 1.0 367.0 
340.00033353340314 210853.0 NaN 1528.649298597194 0.5007958832977989 510.0 1.0 366.0 
342.0004781969897 210774.0 NaN 1528.6359385437547 0.5002017823357119 510.0 1.0 366.0 
344.0004781969897 210774.0 NaN 1528.582498329993 0.5003031928949481 510.0 1.0 366.0 
346.00008466603504 210770.0 NaN 1531.7114228456908 0.5004124409977789 510.0 1.0 367.0 
348.0004781969897 210771.0 NaN 1528.6653306613216 0.5001393179983321 509.0 1.0 366.0 
350.00033353340314 210771.0 NaN 1525.5764863059455 0.5006500177753188 511.0 1.0 365.0 
352.0004781969897 210703.0 NaN 1525.531062124248 0.5003164590589345 515.0 1.0 365.0 
354.0004781969897 210712.0 NaN 1525.5390781563121 0.5001975517524369 515.0 2.0 364.0 
356.00008466603504 210745.0 NaN 1525.5604542418178 0.5007690029845961 514.0 2.0 364.0 
358.0004781969897 210746.0 NaN 1525.5604542418178 0.5002567920859272 513.0 1.0 365.0 
360.00033353340314 210740.0 NaN 1528.6412825651298 0.5003621913696672 515.0 1.0 366.0 
362.0004781969897 210707.0 NaN 1528.6653306613218 0.5001088223031416 516.0 1.0 366.0 
364.0004781969897 210698.0 NaN 1525.5738142952569 0.5003800570437169 514.0 2.0 364.0 
366.00008466603504 210704.0 NaN 1504.0213760855036 0.500877193651767 515.0 3.0 356.0 
368.0004781969897 210623.0 NaN 1500.9245156980635 0.5004662504976378 513.0 3.0 355.0 
370.00033353340314 210581.0 NaN 1510.0975283901123 0.5004175204197021 512.0 3.0 358.0 
372.0004781969897 210541.0 NaN 1510.1055444221786 0.5002621205813549 512.0 3.0 358.0 
374.0004781969897 210532.0 NaN 1510.1349365397455 0.5002979655509379 513.0 3.0 358.0 
376.00008466603504 210570.0 NaN 1510.1616566466273 0.5003909430625111 514.0 3.0 358.0 
378.0004781969897 210510.0 NaN 1510.1750167000662 0.5011843367324923 516.0 3.0 358.0 
380.00033353340314 210326.0 NaN 1510.1135604542426 0.5008871081288568 514.0 3.0 358.0 
382.0004781969897 210269.0 NaN 1507.040748162992 0.5019562974774724 513.0 3.0 357.0 
384.0004781969897 210260.0 NaN 1513.2291249165 0.5010783309608454 516.0 3.0 359.0 
386.00008466603504 210288.0 NaN 1525.560454241818 0.5005912645084286 518.0 2.0 364.0 
388.0004781969897 210235.0 NaN 1510.2124248497 0.5010536392481694 518.0 1.0 360.0 
390.00033353340314 210088.0 NaN 1510.2204408817638 0.5005778354086949 515.0 1.0 360.0 
392.0004781969897 210052.0 NaN 1513.3119572478279 0.5003599445981036 516.0 1.0 361.0 
394.0004781969897 210083.0 NaN 1513.3012692050756 0.5003244974439508 517.0 1.0 361.0 
396.00008466603504 210120.0 NaN 1513.2905811623248 0.5006174266932163 519.0 1.0 361.0 
398.0004781969897 210153.0 NaN 1510.1857047428182 0.5007373267977997 520.0 1.0 360.0 
400.00033353340314 210098.0 NaN 1513.2264529058114 0.5007686072759282 520.0 1.0 361.0 
402.0004781969897 210048.0 NaN 1513.2371409485636 0.5003529944478341 521.0 1.0 361.0 
404.0004781969897 210074.0 NaN 1519.4575818303274 0.5004074773925149 520.0 1.0 363.0 
406.00008466603504 210132.0 NaN 1522.5624582498333 0.50047503404996 522.0 1.0 364.0 
408.0004781969897 210120.0 NaN 1522.5010020040093 0.5006443627638765 521.0 1.0 364.0 
410.00033353340314 210062.0 NaN 1525.568470273882 0.5007789041394899 521.0 1.0 365.0 
412.0004781969897 210002.0 NaN 1525.563126252506 0.5001463258588527 523.0 1.0 365.0 
414.0004781969897 210004.0 NaN 1525.5711422845698 0.5004881500624818 526.0 2.0 364.0 
416.00008466603504 210029.0 NaN 1525.6192384769547 0.5001374435375335 526.0 3.0 363.0 
418.0004781969897 210087.0 NaN 1525.5898463593849 0.5005651011807555 526.0 2.0 364.0 
420.00033353340314 210058.0 NaN 1513.253173012691 0.5011209512647137 528.0 1.0 361.0 
422.0004781969897 209991.0 NaN 1507.0728122912485 0.5004501144037781 528.0 1.0 359.0 
424.0004781969897 210000.0 NaN 1504.018704074817 0.5005304191837572 524.0 1.0 358.0 
426.00008466603504 210009.0 NaN 1513.2291249165 0.5004858135624292 518.0 1.0 361.0 
428.0004781969897 209968.0 NaN 1504.0106880427525 0.5003192037640859 516.0 1.0 358.0 
430.00033353340314 209991.0 NaN 1503.9866399465604 0.5008210480500004 518.0 1.0 358.0 
432.0004781969897 209985.0 NaN 1500.9699398797602 0.5005293370725348 519.0 1.0 357.0 
434.0004781969897 209966.0 NaN 1504.0213760855038 0.5004946875411621 520.0 1.0 358.0 
436.00008466603504 209962.0 NaN 1516.2992651970617 0.500701287307762 525.0 1.0 362.0 
438.0004781969897 209940.0 NaN 1519.3239812959262 0.5003119809926717 526.0 1.0 363.0 
440.00033353340314 209976.0 NaN 1516.197728790916 0.500745898807936 524.0 1.0 362.0 
442.0004781969897 209987.0 NaN 1519.3132932531726 0.5004574222812195 526.0 1.0 363.0 
444.0004781969897 209946.0 NaN 1522.4395457581825 0.5009344170357883 524.0 1.0 364.0 
446.00008466603504 209910.0 NaN 1528.6065464261849 0.5002895001274182 528.0 1.0 366.0 
448.0004781969897 209893.0 NaN 1534.7735470941886 0.5004036203891282 529.0 1.0 368.0 
450.00033353340314 209926.0 NaN 1543.9946559786245 0.5013970075277256 530.0 1.0 371.0 
452.0004781969897 209842.0 NaN 1547.0380761523063 0.5002713116404421 529.0 1.0 372.0 
454.0004781969897 209846.0 NaN 1547.0674682698727 0.5003806004699156 528.0 1.0 372.0 
456.00008466603504 209846.0 NaN 1550.1242484969935 0.5002622892121953 528.0 1.0 373.0 
458.0004781969897 209828.0 NaN 1547.080828323312 0.5004658207880479 529.0 1.0 372.0 
460.00033353340314 209840.0 NaN 1547.0541082164336 0.5011566053888823 526.0 1.0 372.0 
462.0004781969897 209805.0 NaN 1547.0567802271207 0.5002992965223163 527.0 1.0 372.0 
464.0004781969897 209783.0 NaN 1547.0514362057456 0.5003679460209441 527.0 1.0 372.0 
466.00008466603504 209765.0 NaN 1543.9812959251824 0.5003137781259108 528.0 1.0 371.0 
468.0004781969897 209747.0 NaN 1543.9519038076157 0.5004372942178396 529.0 1.0 371.0 
470.00033353340314 209753.0 NaN 1543.9492317969275 0.5014836492408278 524.0 1.0 371.0 
472.0004781969897 209681.0 NaN 1534.7869071476277 0.5002933281087941 523.0 1.0 368.0 
474.0004781969897 209681.0 NaN 1528.6786907147637 0.5011450173151311 520.0 1.0 366.0 
476.00008466603504 209660.0 NaN 1525.5764863059455 0.5000467137942576 518.0 1.0 365.0 
478.0004781969897 209674.0 NaN 1522.479625918503 0.5004760361613078 519.0 1.0 364.0 
480.00033353340314 209668.0 NaN 1525.5283901135613 0.5006775317593845 518.0 1.0 365.0 
482.0004781969897 209632.0 NaN 1522.5143620574477 0.5003209604979477 519.0 1.0 364.0 
484.0004781969897 209617.0 NaN 1513.2905811623252 0.5002266534231904 518.0 1.0 361.0 
486.00008466603504 209697.0 NaN 1510.2231128924525 0.5002028554594368 517.0 1.0 360.0 
488.0004781969897 209718.0 NaN 1497.945223780894 0.5002276448275241 515.0 1.0 356.0 
490.00033353340314 209763.0 NaN 1497.9559118236464 0.5009292682757334 517.0 1.0 356.0 
492.0004781969897 209711.0 NaN 1491.7862391449557 0.500144087649576 518.0 1.0 354.0 
494.0004781969897 209714.0 NaN 1497.8971275885096 0.5005030573086611 513.0 1.0 356.0 
496.00008466603504 209749.0 NaN 1494.8162992651978 0.500262155031628 511.0 1.0 355.0 
498.0004781969897 209729.0 NaN 1494.8243152972618 0.5004409230643393 512.0 1.0 355.0 
500.00033353340314 209701.0 NaN 1494.84034736139 0.5008716379151521 510.0 1.0 355.0 
502.0004781969897 209636.0 NaN 1488.69739478958 0.500051125392768 516.0 1.0 353.0 
504.0004781969897 209654.0 NaN 1485.6593186372736 0.5000570020624127 516.0 1.0 352.0 
506.00008466603504 209735.0 NaN 1488.7401469605886 0.5001990062839925 515.0 1.0 353.0 
508.0004781969897 209722.0 NaN 1488.7107548430183 0.5006601770547354 514.0 1.0 353.0 
510.00033353340314 209689.0 NaN 1491.7461589846364 0.5010383051042387 513.0 1.0 354.0 
512.0004781969897 209641.0 NaN 1494.7949231796918 0.5003215643088655 512.0 1.0 355.0 
514.0004781969897 209624.0 NaN 1494.8296593186367 0.5006964266341609 513.0 1.0 355.0 
516.000084666035 209677.0 NaN 1491.8343353373425 0.5004146982448682 513.0 1.0 354.0 
518.0004781969897 209636.0 NaN 1479.5911823647284 0.5004036544500209 510.0 1.0 350.0 
520.0003335334031 209615.0 NaN 1473.4001336005354 0.5008269489437588 511.0 1.0 348.0 
522.0004781969897 209619.0 NaN 1473.3520374081486 0.5001412953832646 512.0 1.0 348.0 
524.0004781969897 209660.0 NaN 1457.942551770208 0.5001533845131424 505.0 1.0 343.0 
526.000084666035 209655.0 NaN 1457.9879759519029 0.5003781420375832 507.0 1.0 343.0 
528.0004781969897 209634.0 NaN 1458.020040080161 0.500314702383448 505.0 1.0 343.0 
530.0003335334031 209625.0 NaN 1461.0527722110899 0.5007273122324748 505.0 1.0 344.0 
532.0004781969897 209765.0 NaN 1464.1336005344012 0.5001100517963774 511.0 1.0 345.0 
534.0004781969897 209803.0 NaN 1460.9832999332002 0.5000806175813547 510.0 1.0 344.0 
536.000084666035 209804.0 NaN 1467.1422845691377 0.500145357970424 511.0 1.0 346.0 
538.0004781969897 209784.0 NaN 1467.1690046760182 0.5002618831026242 512.0 1.0 346.0 
540.0003335334031 209748.0 NaN 1467.214428857716 0.5006183394046552 511.0 1.0 346.0 
542.0004781969897 209773.0 NaN 1467.227788911155 0.5001970076607608 512.0 1.0 346.0 
544.0004781969897 209745.0 NaN 1470.3032732130923 0.500178735316868 514.0 1.0 347.0 
546.000084666035 209726.0 NaN 1473.394789579158 0.5000523300830682 513.0 1.0 348.0 
548.0004781969897 209738.0 NaN 1473.336005344021 0.5005827766213341 513.0 1.0 348.0 
550.0003335334031 209697.0 NaN 1467.1850367401464 0.5011550102600137 512.0 1.0 346.0 
552.0004781969897 209730.0 NaN 1473.2905811623252 0.500298609920897 517.0 1.0 348.0 
554.0004781969897 209764.0 NaN 1476.4221776887102 0.5003805360261684 520.0 1.0 349.0 
556.000084666035 209764.0 NaN 1476.4729458917832 0.5003797262294044 520.0 1.0 349.0 
558.0004781969897 209748.0 NaN 1476.456913827655 0.5003457455515301 517.0 1.0 349.0 
560.0003335334031 209744.0 NaN 1464.1122244488988 0.5010434597854514 512.0 1.0 345.0 
562.0004781969897 209771.0 NaN 1464.0855043420179 0.5002630898559631 508.0 1.0 345.0 
564.0004781969897 209818.0 NaN 1467.1690046760182 0.5005319787102355 508.0 1.0 346.0 
566.000084666035 209811.0 NaN 1470.249832999332 0.5001480045716511 510.0 1.0 347.0 
568.0004781969897 209818.0 NaN 1476.3927855711424 0.5005061317300198 515.0 1.0 349.0 
570.0003335334031 209784.0 NaN 1476.4034736138942 0.5004499125073147 519.0 1.0 349.0 
572.0004781969897 209824.0 NaN 1476.4114896459585 0.5003575565115314 517.0 1.0 349.0 
574.0004781969897 209869.0 NaN 1479.551102204409 0.5008397253031781 518.0 1.0 350.0 
576.000084666035 209823.0 NaN 1488.7160988643966 0.5001351789612042 521.0 1.0 353.0 
578.0004781969897 209834.0 NaN 1485.6325985303934 0.5004374845266313 522.0 1.0 352.0 
580.0003335334031 209849.0 NaN 1485.6085504342013 0.5007644470419734 524.0 1.0 352.0 
582.0004781969897 209859.0 NaN 1485.6299265197067 0.5004328574625609 521.0 1.0 352.0 
584.0004781969897 209887.0 NaN 1482.5731462925849 0.500813663979886 526.0 1.0 351.0 
586.000084666035 209879.0 NaN 1482.5357381429533 0.5000420985208754 525.0 1.0 351.0 
588.0004781969897 209882.0 NaN 1485.6032064128262 0.500430557855734 524.0 1.0 352.0 
590.0003335334031 209904.0 NaN 1488.662658650635 0.5005100377569032 525.0 1.0 353.0 
592.0004781969897 209901.0 NaN 1491.7515030060115 0.5002157705145909 526.0 1.0 354.0 
594.0004781969897 209982.0 NaN 1488.7294589178362 0.5005004287939224 528.0 1.0 353.0 
596.000084666035 209952.0 NaN 1488.705410821644 0.5002409214441179 528.0 1.0 353.0 
598.0004781969897 209968.0 NaN 1479.4575818303274 0.5001418594064388 527.0 1.0 350.0 
600.0003335334031 210009.0 NaN 1485.6085504342013 0.5005209772101396 529.0 1.0 352.0 
602.0004781969897 209964.0 NaN 1482.522378089512 0.5002212514805436 529.0 1.0 351.0 
604.0004781969897 210018.0 NaN 1482.5197060788248 0.500356434330176 527.0 1.0 351.0 
606.000084666035 210016.0 NaN 1488.6599866399458 0.5000849817393238 526.0 1.0 353.0 
608.0004781969897 210013.0 NaN 1491.7221108884441 0.5003239306691877 529.0 1.0 354.0 
610.0003335334031 210048.0 NaN 1497.8997995991988 0.5007864100403179 529.0 1.0 356.0 
612.0004781969897 209976.0 NaN 1497.9612558450244 0.5005892246239351 529.0 1.0 356.0 
614.0004781969897 209952.0 NaN 1497.9799599198386 0.5007637955837709 528.0 1.0 356.0 
616.000084666035 209934.0 NaN 1494.8857715430852 0.5001512805177952 528.0 1.0 355.0 
618.0004781969897 209941.0 NaN 1491.748830995325 0.5003769275905116 528.0 1.0 354.0 
620.0003335334031 210007.0 NaN 1500.8924515698075 0.5008910272842838 528.0 1.0 357.0 
622.0004781969897 209971.0 NaN 1500.9271877087517 0.5005218673266718 526.0 2.0 356.0 
624.0004781969897 209973.0 NaN 1504.0480961923838 0.5002569606569665 523.0 3.0 356.0 
626.000084666035 209955.0 NaN 1507.1716766867075 0.5001038508390379 525.0 2.0 358.0 
628.0004781969897 209964.0 NaN 1510.263193052773 0.50023835282079 530.0 1.0 360.0 
630.0003335334031 210022.0 NaN 1507.198396793588 0.5012219445401056 529.0 2.0 358.0 
632.0004781969897 209981.0 NaN 1513.3333333333344 0.5002944434757635 526.0 2.0 360.0 
634.0004781969897 209991.0 NaN 1516.4088176352714 0.5000872469436126 526.0 2.0 361.0 
636.000084666035 210033.0 NaN 1516.3687374749486 0.5002147580612093 527.0 2.0 361.0 
638.0004781969897 210047.0 NaN 1516.3580494321989 0.5001727453864679 527.0 2.0 361.0 
640.0003335334031 210075.0 NaN 1513.2585170340697 0.5005592384932284 527.0 2.0 360.0 
642.0004781969897 210096.0 NaN 1513.314629258518 0.49999684133355227 526.0 2.0 360.0 
644.0004781969897 210140.0 NaN 1510.3059452237815 0.5003036105454822 523.0 2.0 359.0 
646.000084666035 210135.0 NaN 1510.2845691382756 0.5001256127559893 523.0 2.0 359.0 
648.0004781969897 210157.0 NaN 1516.3633934535728 0.5002085168427655 523.0 2.0 361.0 
650.0003335334031 210180.0 NaN 1519.4468937875745 0.5002861969961888 520.0 2.0 362.0 
652.0004781969897 210203.0 NaN 1516.3687374749486 0.5002497009522502 521.0 1.0 362.0 
654.0004781969897 210217.0 NaN 1516.4088176352714 0.5003192211082066 520.0 2.0 361.0 
656.000084666035 210237.0 NaN 1516.4088176352714 0.5004414138553819 518.0 2.0 361.0 
658.0004781969897 210231.0 NaN 1525.6325985303931 0.5005868820534963 518.0 2.0 364.0 
660.0003335334031 210204.0 NaN 1531.751503006011 0.5005754378570012 514.0 2.0 366.0 
662.0004781969897 210231.0 NaN 1531.7247828991303 0.5001979101455123 515.0 2.0 366.0 
664.0004781969897 210263.0 NaN 1531.7327989311968 0.5005385415095717 517.0 2.0 366.0 
#####################################################################
# End of data export. Simulation finished at: 2019-03-06T04:14+0000 #
#####################################################################
