#####################################################################
# Alchemist log file - simulation started at: 2019-03-10T11:09+0000 #
#####################################################################
# seed = 2.0, bandwidth = 2.3713737056616552E7, propagationDelay = 0.01, baserange = 177.82794100389228
#
# The columns have the following meaning: 
# time neighbor_count[Sum] <value>@neighbor_count[Sum] packet_size[Mean] mean_delay[Mean] crowd[Sum] overcrowded[Sum] risk[Sum] 
0.0 NaN NaN NaN NaN NaN NaN NaN 
2.000242747106583 26544.0 NaN 4996.02672010688 0.5014317367932182 1497.0 0.0 1497.0 
4.000241735034974 26546.0 NaN 4995.024716098865 0.5014460934371042 1495.0 2.0 1495.0 
6.000242747106583 26549.0 NaN 4994.161656646626 0.501525878157026 1495.0 2.0 1495.0 
8.000241735034974 26546.0 NaN 4994.706746826987 0.5014400850207856 1494.0 3.0 1494.0 
10.000242747106583 26548.0 NaN 4995.160988643955 0.5014464319402699 1494.0 3.0 1494.0 
12.000241735034974 26551.0 NaN 4994.5250501002 0.5014382587202759 1495.0 2.0 1495.0 
14.000242747106583 26556.0 NaN 4994.078824315297 0.5015992960985166 1496.0 1.0 1496.0 
16.000241735034976 26558.0 NaN 4994.444889779559 0.5026143428154031 1496.0 1.0 1496.0 
18.000242747106583 26550.0 NaN 4994.837675350702 0.5019905967176145 1496.0 1.0 1496.0 
20.000241735034976 26554.0 NaN 4995.599198396793 0.504863035593514 1496.0 1.0 1496.0 
22.000242747106583 26566.0 NaN 4994.923179692719 0.5021186317205847 1496.0 1.0 1496.0 
24.000241735034976 26568.0 NaN 4994.618570474282 0.5024907002673025 1495.0 2.0 1495.0 
26.000242747106583 26564.0 NaN 4994.733466933868 0.5015899836544558 1495.0 2.0 1495.0 
28.000241735034976 26570.0 NaN 4995.4281897127585 0.5015535431017525 1496.0 1.0 1496.0 
30.000242747106583 26569.0 NaN 4995.716766867067 0.5016653799070568 1496.0 1.0 1496.0 
32.00024173503497 26631.0 NaN 4995.019372077489 0.5036222751859158 1496.0 1.0 1496.0 
34.000242747106576 26629.0 NaN 4994.447561790247 0.5025845661958532 1496.0 1.0 1496.0 
36.00024173503497 26622.0 NaN 4994.650634602538 0.5035188215739019 1495.0 2.0 1495.0 
38.000242747106576 26635.0 NaN 4995.104876419506 0.5013890095356263 1496.0 1.0 1496.0 
40.00024173503497 26629.0 NaN 4996.106880427522 0.5011335772039641 1496.0 1.0 1496.0 
42.000242747106576 26677.0 NaN 4995.251837007348 0.5031675619630965 1496.0 1.0 1496.0 
44.00024173503497 26648.0 NaN 4994.701402805611 0.5025880761154901 1497.0 0.0 1497.0 
46.000242747106576 26629.0 NaN 4994.60788243153 0.5009527263533144 1497.0 0.0 1497.0 
48.00024173503497 26627.0 NaN 4995.123580494322 0.5033678928927361 1495.0 2.0 1495.0 
50.000242747106576 26623.0 NaN 4995.700734802939 0.5009427224906398 1495.0 2.0 1495.0 
52.00024173503497 26677.0 NaN 4995.2598530394125 0.5024994453448359 1494.0 3.0 1494.0 
54.000242747106576 26664.0 NaN 4994.725450901804 0.5042592508492234 1495.0 2.0 1495.0 
56.00024173503497 26652.0 NaN 4995.088844355378 0.5017896210407233 1496.0 1.0 1496.0 
58.000242747106576 26648.0 NaN 4995.3533734134935 0.5036161895301288 1497.0 0.0 1497.0 
60.00024173503497 26639.0 NaN 4995.826319305277 0.5018056197646108 1496.0 1.0 1496.0 
62.0000482606792 26677.0 NaN 1516.5290581162333 0.5042706029172803 783.0 0.0 363.0 
64.00004826067921 26667.0 NaN 1519.6633266533067 0.5041230555403342 620.0 2.0 362.0 
66.00004826067921 26662.0 NaN 1519.583166332664 0.5018352018484429 575.0 1.0 363.0 
68.00004826067921 26690.0 NaN 1519.6339345357367 0.503818593998145 545.0 3.0 361.0 
70.00004826067921 26713.0 NaN 1519.6713426853723 0.5032650773621816 534.0 0.0 364.0 
72.00004826067921 26764.0 NaN 1519.5778223112904 0.5032199412147202 532.0 1.0 363.0 
74.00004826067921 26776.0 NaN 1525.6406145624576 0.5056152700103808 529.0 2.0 364.0 
76.00004826067921 26769.0 NaN 1525.63794255177 0.501627329098777 526.0 6.0 360.0 
78.00004826067921 26796.0 NaN 1525.5898463593849 0.5036512822615212 525.0 5.0 361.0 
80.00004826067921 26798.0 NaN 1528.6412825651298 0.5050703104478598 521.0 7.0 360.0 
82.00004826067921 26789.0 NaN 1528.694722778891 0.5034264011049115 523.0 6.0 361.0 
84.00004826067921 26789.0 NaN 1531.8396793587183 0.5024763673948105 524.0 6.0 362.0 
86.00004826067921 26776.0 NaN 1531.842351369406 0.5023988736756335 522.0 6.0 362.0 
88.00004826067921 26790.0 NaN 1531.946559786239 0.505467197579454 522.0 6.0 362.0 
90.00004826067921 26785.0 NaN 1531.906479625918 0.5037856599349271 523.0 5.0 363.0 
92.00004826067921 26755.0 NaN 1531.9331997328002 0.5018972471546099 522.0 6.0 362.0 
94.00004826067921 26757.0 NaN 1531.8557114228454 0.50345045508905 522.0 6.0 362.0 
96.00004826067921 26761.0 NaN 1531.90380761523 0.5023327975138147 522.0 6.0 362.0 
98.00004826067921 26768.0 NaN 1531.8370073480273 0.503843215889244 521.0 7.0 361.0 
100.00004826067921 26756.0 NaN 1531.8183032732122 0.5031725665130139 521.0 7.0 361.0 
102.00004826067921 26730.0 NaN 1534.86706746827 0.5025415595271215 521.0 7.0 362.0 
104.00004826067921 26728.0 NaN 1534.952571810288 0.5037445644133158 520.0 8.0 361.0 
106.00004826067921 26745.0 NaN 1534.963259853039 0.5021198008097927 521.0 6.0 363.0 
108.00004826067921 26768.0 NaN 1538.0494321977276 0.5031845606559514 519.0 8.0 362.0 
110.00004826067921 26770.0 NaN 1537.905143620573 0.5024366591530216 522.0 6.0 364.0 
112.00004826067921 26754.0 NaN 1537.811623246491 0.5037937275255178 521.0 7.0 363.0 
114.00004826067921 26749.0 NaN 1537.7822311289244 0.5036695736531774 523.0 6.0 364.0 
116.00004826067921 26736.0 NaN 1540.9004676018726 0.5026791312803622 524.0 6.0 365.0 
118.00004826067921 26738.0 NaN 1547.0327321309273 0.5038488867879196 524.0 6.0 367.0 
120.00004826067921 26733.0 NaN 1547.0327321309273 0.5034049444752242 524.0 6.0 367.0 
122.00004826067921 26695.0 NaN 1547.0407481629911 0.5042110646147566 524.0 6.0 367.0 
124.00004826067921 26693.0 NaN 1547.2037408149638 0.5033866748461379 524.0 6.0 367.0 
126.00004826067921 26683.0 NaN 1547.2705410821634 0.501812271111072 523.0 7.0 366.0 
128.0000482606792 26673.0 NaN 1547.3239812959273 0.502564970337716 523.0 7.0 366.0 
130.00004826067916 26672.0 NaN 1547.2785571142272 0.502474123523579 523.0 7.0 366.0 
132.00004826067916 26666.0 NaN 1544.1870407481638 0.501867512317057 520.0 7.0 365.0 
134.00004826067916 26680.0 NaN 1544.1416165664664 0.5037367401434331 520.0 7.0 365.0 
136.00004826067916 26682.0 NaN 1547.2705410821634 0.5032628217048353 517.0 8.0 365.0 
138.00004826067916 26677.0 NaN 1544.2404809619243 0.5037109603153702 517.0 6.0 366.0 
140.00004826067916 26683.0 NaN 1547.2571810287243 0.5031080775785911 517.0 6.0 367.0 
142.00004826067916 26692.0 NaN 1550.276553106212 0.5031251216866766 517.0 6.0 368.0 
144.00004826067916 26677.0 NaN 1550.249832999333 0.5026071654231367 516.0 6.0 368.0 
146.00004826067916 26664.0 NaN 1550.2044088176367 0.5027622816449915 516.0 6.0 368.0 
148.00004826067916 26655.0 NaN 1547.169004676018 0.5027620214953005 517.0 6.0 367.0 
150.00004826067916 26655.0 NaN 1544.0614562458272 0.5028642425814769 517.0 6.0 366.0 
152.00004826067916 26644.0 NaN 1541.0073480293909 0.5027646278503449 513.0 7.0 364.0 
154.00004826067916 26637.0 NaN 1541.0153640614546 0.5032465327664284 510.0 7.0 364.0 
156.00004826067916 26629.0 NaN 1540.9913159652635 0.5023475396937654 510.0 9.0 362.0 
158.00004826067916 26636.0 NaN 1541.0634602538419 0.5046715978103764 512.0 8.0 363.0 
160.00004826067916 26610.0 NaN 1541.0688042752186 0.5019872419031013 513.0 8.0 363.0 
162.00004826067916 26619.0 NaN 1541.0394121576483 0.5033180073105322 514.0 7.0 364.0 
164.00004826067916 26580.0 NaN 1544.1202404809635 0.5062038626374266 512.0 7.0 365.0 
166.00004826067916 26545.0 NaN 1550.1883767535091 0.5023922755155079 513.0 7.0 367.0 
168.00004826067916 26553.0 NaN 1550.1456245825 0.5045765096113404 515.0 7.0 367.0 
170.00004826067916 26526.0 NaN 1547.043420173682 0.5022091528450988 516.0 6.0 367.0 
172.00004826067916 26544.0 NaN 1543.9946559786245 0.5017537930095738 517.0 6.0 366.0 
174.00004826067916 26542.0 NaN 1544.072144288576 0.5047359538974359 518.0 5.0 367.0 
176.00004826067916 26515.0 NaN 1544.106880427521 0.5022886993112129 514.0 6.0 366.0 
178.00004826067916 26517.0 NaN 1537.9906479625906 0.5032895242962151 513.0 6.0 364.0 
180.00004826067916 26480.0 NaN 1541.0794923179699 0.5019446277259914 514.0 6.0 365.0 
182.00004826067916 26464.0 NaN 1541.0153640614546 0.5038152814742194 515.0 6.0 365.0 
184.00004826067916 26453.0 NaN 1541.0474281897118 0.5030644536454715 513.0 6.0 365.0 
186.00004826067916 26445.0 NaN 1541.0688042752186 0.5064222038998447 514.0 5.0 366.0 
188.00004826067916 26434.0 NaN 1541.1543086172362 0.5057171026301275 511.0 8.0 363.0 
190.00004826067916 26401.0 NaN 1541.1489645958573 0.5019078431296 512.0 7.0 364.0 
192.00004826067916 26398.0 NaN 1541.1356045424182 0.504437355303792 513.0 6.0 365.0 
194.00004826067916 26379.0 NaN 1541.0955243820977 0.5058410629727828 513.0 6.0 365.0 
196.00004826067916 26348.0 NaN 1541.1596526386093 0.5019813519317282 513.0 6.0 365.0 
198.00004826067916 26360.0 NaN 1544.2565130260523 0.5037641970829946 514.0 6.0 366.0 
200.00004826067916 26336.0 NaN 1544.136272545091 0.501553843814801 516.0 6.0 366.0 
202.00004826067916 26346.0 NaN 1543.983967935873 0.5038212112101174 515.0 7.0 365.0 
204.00004826067916 26340.0 NaN 1547.006012024048 0.5064668673762583 515.0 7.0 366.0 
206.00004826067916 26292.0 NaN 1543.9385437541728 0.5054240260217071 515.0 7.0 365.0 
208.00004826067916 26278.0 NaN 1540.9806279225118 0.5064982510151917 513.0 7.0 364.0 
210.00004826067916 26238.0 NaN 1538.0868403473637 0.5055178361388372 510.0 6.0 364.0 
212.00004826067916 26238.0 NaN 1541.122244488979 0.5057183911249551 509.0 7.0 364.0 
214.00004826067916 26244.0 NaN 1544.1656646626573 0.5080303082426217 510.0 7.0 365.0 
216.00004826067916 26202.0 NaN 1544.1656646626573 0.5034494180359642 509.0 7.0 365.0 
218.00004826067916 26207.0 NaN 1538.0467601870391 0.5034853333433315 511.0 8.0 362.0 
220.00004826067916 26172.0 NaN 1541.0447561790247 0.5022229260735761 510.0 8.0 363.0 
222.00004826067916 26170.0 NaN 1541.0875083500339 0.5061607956110764 511.0 8.0 363.0 
224.00004826067916 26142.0 NaN 1541.0100200400816 0.506508775713912 510.0 8.0 363.0 
226.00004826067916 26099.0 NaN 1541.0527722110908 0.504594023882764 511.0 7.0 364.0 
228.00004826067916 26079.0 NaN 1541.0100200400816 0.5058943020996804 511.0 7.0 364.0 
230.00004826067916 26060.0 NaN 1538.0547762191063 0.502554002340252 508.0 7.0 363.0 
232.00004826067916 26066.0 NaN 1541.0794923179699 0.503710501709256 508.0 7.0 364.0 
234.00004826067916 26033.0 NaN 1541.1142284569148 0.5036940328974779 510.0 6.0 365.0 
236.00004826067916 26005.0 NaN 1540.9913159652635 0.5032385491807889 509.0 7.0 364.0 
238.00004826067916 26011.0 NaN 1541.0340681362727 0.5061507165951263 509.0 7.0 364.0 
240.00004826067916 25994.0 NaN 1537.9425517702089 0.5042791312543172 508.0 8.0 362.0 
242.00004826067916 25973.0 NaN 1537.8891115564454 0.5036418086405172 510.0 8.0 362.0 
244.00004826067916 25957.0 NaN 1537.9559118236457 0.5072722887822221 511.0 7.0 363.0 
246.00004826067916 25928.0 NaN 1534.8857715430852 0.5033581914485671 512.0 6.0 363.0 
248.00004826067916 25959.0 NaN 1537.985303941216 0.5046578875028292 511.0 7.0 363.0 
250.00004826067916 25959.0 NaN 1535.0220440881753 0.5032853214027344 509.0 8.0 361.0 
252.00004826067916 25943.0 NaN 1531.8450233800936 0.5044958914370744 505.0 8.0 360.0 
254.00004826067916 25935.0 NaN 1534.7708750835 0.5043579814276381 508.0 7.0 362.0 
256.0000482606792 25870.0 NaN 1531.7541750167002 0.5046617714582701 508.0 7.0 361.0 
258.0000482606792 25840.0 NaN 1531.7648630594545 0.5046979593470519 508.0 8.0 360.0 
260.0000482606792 25835.0 NaN 1528.6786907147637 0.5033590501306876 508.0 8.0 359.0 
262.0000482606792 25821.0 NaN 1525.6245824983298 0.504776516021316 509.0 8.0 358.0 
264.0000482606792 25793.0 NaN 1528.7454909819635 0.5054337101963354 508.0 7.0 360.0 
266.0000482606792 25724.0 NaN 1528.6599866399454 0.5041908329216902 509.0 7.0 360.0 
268.0000482606792 25709.0 NaN 1538.0547762191065 0.5030122090133138 508.0 8.0 362.0 
270.0000482606792 25721.0 NaN 1541.1222444889793 0.5036187912419384 508.0 8.0 363.0 
272.0000482606792 25699.0 NaN 1541.0126920507662 0.5052300100308604 507.0 9.0 362.0 
274.0000482606792 25716.0 NaN 1544.1603206412817 0.5062279732410847 507.0 8.0 364.0 
276.0000482606792 25615.0 NaN 1541.074148296591 0.5026788494628084 509.0 6.0 365.0 
278.0000482606792 25645.0 NaN 1541.0046760187024 0.503844335797795 508.0 7.0 364.0 
280.0000482606792 25670.0 NaN 1537.9505678022726 0.505300070071666 510.0 7.0 363.0 
282.0000482606792 25648.0 NaN 1537.9211756847023 0.5044368182892122 510.0 6.0 364.0 
284.0000482606792 25641.0 NaN 1537.851703406816 0.5042806045564526 508.0 7.0 363.0 
286.0000482606792 25607.0 NaN 1537.942551770209 0.504861155188452 508.0 7.0 363.0 
288.0000482606792 25613.0 NaN 1537.8704074816294 0.5045155569938342 508.0 6.0 364.0 
290.0000482606792 25580.0 NaN 1537.814295257182 0.5056938837972024 507.0 7.0 363.0 
292.0000482606792 25558.0 NaN 1537.758183032734 0.5023262035852081 507.0 7.0 363.0 
294.0000482606792 25580.0 NaN 1531.663326653307 0.5045370271074339 508.0 6.0 362.0 
296.0000482606792 25540.0 NaN 1531.6847027388092 0.5032979216001157 507.0 7.0 361.0 
298.0000482606792 25540.0 NaN 1531.8156312625274 0.5046113945660278 506.0 7.0 361.0 
300.0000482606792 25548.0 NaN 1534.9552438209753 0.5018689349423284 504.0 6.0 363.0 
302.0000482606792 25528.0 NaN 1528.7962591850362 0.5037853108128533 503.0 7.0 360.0 
304.0000482606792 25537.0 NaN 1531.8209752838998 0.5038196713406368 503.0 7.0 361.0 
306.0000482606792 25499.0 NaN 1531.7835671342698 0.5030746193844262 504.0 6.0 362.0 
308.0000482606792 25494.0 NaN 1531.7221108884453 0.5074879635606615 502.0 7.0 361.0 
310.0000482606792 25451.0 NaN 1537.8490313961272 0.5045765125472331 501.0 7.0 363.0 
312.0000482606792 25426.0 NaN 1534.672010688043 0.5038263158672952 501.0 7.0 362.0 
314.0000482606792 25428.0 NaN 1531.5404141616546 0.5058127221605963 502.0 7.0 361.0 
316.0000482606792 25383.0 NaN 1528.630594522379 0.5023645413603479 502.0 7.0 360.0 
318.0000482606792 25389.0 NaN 1528.782899131597 0.5056147594595876 503.0 6.0 361.0 
320.0000482606792 25371.0 NaN 1531.807615230461 0.5071448672610919 502.0 7.0 361.0 
322.0000482606792 25349.0 NaN 1528.7989311957247 0.503742773838303 503.0 7.0 360.0 
324.0000482606792 25333.0 NaN 1531.7862391449548 0.5049797928978643 502.0 7.0 361.0 
326.0000482606792 25290.0 NaN 1528.7588510354028 0.5033786539599292 502.0 7.0 360.0 
328.0000482606792 25283.0 NaN 1528.7027388109543 0.5030216490526387 502.0 7.0 360.0 
330.0000482606792 25268.0 NaN 1528.7454909819635 0.5035395524447615 504.0 6.0 361.0 
332.0000482606792 25266.0 NaN 1525.5016700066817 0.5025777614514182 506.0 6.0 360.0 
334.0000482606792 25306.0 NaN 1528.6920507682025 0.5036933458186701 505.0 6.0 361.0 
336.0000482606792 25288.0 NaN 1531.6766867067456 0.503091810605987 505.0 6.0 362.0 
338.0000482606792 25284.0 NaN 1528.6920507682025 0.5036233720221236 507.0 6.0 361.0 
340.0000482606792 25281.0 NaN 1525.5497661990635 0.5025149110139759 506.0 6.0 360.0 
342.0000482606792 25299.0 NaN 1531.7862391449548 0.5038469016924503 511.0 5.0 363.0 
344.0000482606792 25303.0 NaN 1534.752171008682 0.5043365187587927 508.0 6.0 363.0 
346.0000482606792 25295.0 NaN 1531.7247828991303 0.5059621047432189 508.0 6.0 362.0 
348.0000482606792 25290.0 NaN 1528.5985303941213 0.5039432908805809 511.0 6.0 361.0 
350.0000482606792 25291.0 NaN 1528.6519706078818 0.506488312240014 511.0 6.0 361.0 
352.0000482606792 25306.0 NaN 1528.590514362057 0.5043700763728095 511.0 6.0 361.0 
354.0000482606792 25292.0 NaN 1525.6379425517703 0.5053339748265968 512.0 5.0 361.0 
356.0000482606792 25271.0 NaN 1525.6085504342007 0.5034821324577953 510.0 6.0 360.0 
358.0000482606792 25291.0 NaN 1525.736806947227 0.5037858281994729 508.0 6.0 360.0 
360.0000482606792 25271.0 NaN 1525.736806947227 0.505169149752007 509.0 6.0 360.0 
362.0000482606792 25263.0 NaN 1525.7234468937884 0.5043464199378122 510.0 6.0 360.0 
364.0000482606792 25247.0 NaN 1525.5444221776902 0.504378110479459 511.0 6.0 360.0 
366.0000482606792 25226.0 NaN 1525.5738142952569 0.5048665319531841 514.0 5.0 361.0 
368.0000482606792 25207.0 NaN 1507.0247160988638 0.5048487762495656 509.0 6.0 354.0 
370.0000482606792 25178.0 NaN 1501.0153640614556 0.504744923277776 510.0 6.0 352.0 
372.0000482606792 25187.0 NaN 1507.040748162992 0.5049323390763903 511.0 6.0 354.0 
374.0000482606792 25176.0 NaN 1510.20975283901 0.5047811048354234 513.0 6.0 355.0 
376.0000482606792 25145.0 NaN 1507.0594522378092 0.5036593407727886 513.0 6.0 354.0 
378.0000482606792 25139.0 NaN 1507.2464929859725 0.5063294446324481 512.0 5.0 355.0 
380.0000482606792 25092.0 NaN 1503.9893119572475 0.5095166264302149 513.0 5.0 354.0 
382.0000482606792 25078.0 NaN 1500.9993319973273 0.5063767466216033 512.0 6.0 352.0 
384.0000482606792 25091.0 NaN 1503.9492317969275 0.5058997888776476 513.0 6.0 353.0 
386.0000482606792 25063.0 NaN 1510.1723446893795 0.5034434007402191 511.0 8.0 353.0 
388.0000482606792 25071.0 NaN 1510.1616566466273 0.5025177999247424 510.0 8.0 353.0 
390.0000482606792 25081.0 NaN 1503.9866399465604 0.5045324529937555 512.0 5.0 354.0 
392.0000482606792 25080.0 NaN 1513.1970607882445 0.5058659269446728 515.0 1.0 361.0 
394.0000482606792 25053.0 NaN 1510.2177688710751 0.5100119036436439 516.0 1.0 360.0 
396.0000482606792 25020.0 NaN 1510.2845691382759 0.5054897046698552 516.0 1.0 360.0 
398.0000482606792 25018.0 NaN 1510.3112892451566 0.5044342766878042 517.0 1.0 360.0 
400.0000482606792 24987.0 NaN 1507.206412825652 0.5042824888956313 517.0 4.0 356.0 
402.0000482606792 24985.0 NaN 1510.2044088176365 0.5061531111113866 519.0 1.0 360.0 
404.0000482606792 24985.0 NaN 1516.350033400134 0.5057406736616136 521.0 1.0 362.0 
406.0000482606792 24985.0 NaN 1519.5110220440883 0.5065649567014655 521.0 1.0 363.0 
408.0000482606792 24977.0 NaN 1522.5731462925849 0.5053555506483342 520.0 1.0 364.0 
410.0000482606792 24963.0 NaN 1531.927855711424 0.5051461270115546 521.0 1.0 367.0 
412.0000482606792 24965.0 NaN 1531.8316633266543 0.5080830195086745 521.0 1.0 367.0 
414.0000482606792 24930.0 NaN 1534.9418837675362 0.5063040460598466 520.0 1.0 368.0 
416.0000482606792 24899.0 NaN 1534.936539746158 0.5060123860840129 521.0 1.0 368.0 
418.0000482606792 24920.0 NaN 1519.6045424181702 0.5041373716926387 521.0 2.0 362.0 
420.0000482606792 24899.0 NaN 1516.392785571143 0.5043068960076031 518.0 4.0 359.0 
422.0000482606792 24912.0 NaN 1516.5103540414175 0.5071464847399332 517.0 3.0 360.0 
424.0000482606792 24870.0 NaN 1513.3306613226455 0.5053411151879439 516.0 1.0 361.0 
426.0000482606792 24857.0 NaN 1516.3874415497658 0.5054090303941944 516.0 2.0 361.0 
428.0000482606792 24870.0 NaN 1519.3587174348704 0.5074351501369524 517.0 1.0 363.0 
430.0000482606792 24843.0 NaN 1516.3366733466928 0.5042894230578793 519.0 0.0 363.0 
432.0000482606792 24842.0 NaN 1513.2157648630605 0.5051814491540774 517.0 3.0 359.0 
434.0000482606792 24855.0 NaN 1522.3486973947904 0.5071331221409983 521.0 2.0 363.0 
436.0000482606792 24837.0 NaN 1528.513026052103 0.5041688959941135 525.0 2.0 365.0 
438.0000482606792 24858.0 NaN 1528.4969939879752 0.5054883640987858 523.0 2.0 365.0 
440.0000482606792 24835.0 NaN 1528.5210420841693 0.506840044947464 523.0 3.0 364.0 
442.0000482606792 24826.0 NaN 1531.6072144288573 0.5063393680735156 524.0 2.0 366.0 
444.0000482606792 24840.0 NaN 1531.660654642618 0.5068111577240203 524.0 2.0 366.0 
446.0000482606792 24824.0 NaN 1534.8430193720787 0.5083457936846577 527.0 2.0 367.0 
448.0000482606792 24829.0 NaN 1544.1122244489 0.5051194553243898 530.0 2.0 370.0 
450.0000482606792 24837.0 NaN 1541.071476285906 0.5039167894207908 527.0 2.0 369.0 
452.0000482606792 24848.0 NaN 1544.0347361389454 0.5051082327294493 527.0 2.0 370.0 
454.0000482606792 24878.0 NaN 1544.0400801603205 0.5055734359799808 526.0 2.0 370.0 
456.0000482606792 24874.0 NaN 1553.2024048096182 0.5057843584519223 526.0 2.0 373.0 
458.0000482606792 24856.0 NaN 1553.2665330661337 0.5052988289995229 526.0 2.0 373.0 
460.0000482606792 24867.0 NaN 1550.126920507682 0.5090075319588482 524.0 2.0 372.0 
462.0000482606792 24870.0 NaN 1547.0861723446908 0.5075913550728578 524.0 2.0 371.0 
464.0000482606792 24886.0 NaN 1544.0 0.507162582755012 525.0 2.0 370.0 
466.0000482606792 24871.0 NaN 1547.1529726118908 0.5088321930800416 526.0 2.0 371.0 
468.0000482606792 24849.0 NaN 1547.006012024048 0.5053585762954858 526.0 2.0 371.0 
470.0000482606792 24818.0 NaN 1540.9298597194388 0.5038672639592517 525.0 2.0 369.0 
472.0000482606792 24828.0 NaN 1537.806279225118 0.5057142625752952 523.0 2.0 368.0 
474.0000482606792 24826.0 NaN 1522.4555778223098 0.5058796827208226 519.0 2.0 363.0 
476.0000482606792 24841.0 NaN 1516.2778891115554 0.5070343056228218 517.0 2.0 361.0 
478.0000482606792 24823.0 NaN 1516.3500334001342 0.5074085731658721 513.0 4.0 359.0 
480.0000482606792 24821.0 NaN 1516.3179692718757 0.5045995953421885 516.0 2.0 361.0 
482.0000482606792 24836.0 NaN 1510.3059452237815 0.5048787184656766 515.0 2.0 359.0 
484.0000482606792 24855.0 NaN 1510.255177020709 0.5059875301433341 513.0 2.0 359.0 
486.0000482606792 24875.0 NaN 1507.1796927187718 0.504944739759172 513.0 2.0 358.0 
488.0000482606792 24872.0 NaN 1497.9104876419515 0.5044343570299709 511.0 2.0 355.0 
490.0000482606792 24875.0 NaN 1497.808951235806 0.5070407083043131 511.0 2.0 355.0 
492.0000482606792 24874.0 NaN 1494.7414829659303 0.5054720366766106 509.0 2.0 354.0 
494.0000482606792 24910.0 NaN 1491.668670674682 0.5085619881610143 509.0 2.0 353.0 
496.0000482606792 24918.0 NaN 1491.690046760188 0.504708481955312 507.0 2.0 353.0 
498.0000482606792 24926.0 NaN 1488.718770875083 0.5058227888346218 506.0 2.0 352.0 
500.0000482606792 24892.0 NaN 1488.6840347361383 0.506541045016333 505.0 2.0 352.0 
502.0000482606792 24900.0 NaN 1491.9011356045432 0.5083856633190121 508.0 2.0 353.0 
504.0000482606792 24907.0 NaN 1491.8183032732122 0.5089064962151026 510.0 2.0 353.0 
506.0000482606792 24900.0 NaN 1498.006680026719 0.5060283175663157 512.0 2.0 355.0 
508.0000482606792 24896.0 NaN 1491.7675350701393 0.5062916073869143 512.0 1.0 354.0 
510.0000482606792 24914.0 NaN 1498.0227120908473 0.5101969186210658 511.0 2.0 355.0 
512.0000482606793 24914.0 NaN 1497.8971275885096 0.5060540800781375 509.0 4.0 353.0 
514.0000482606791 24959.0 NaN 1491.7247828991303 0.5061544327046795 510.0 4.0 351.0 
516.0000482606791 24958.0 NaN 1479.4175016700071 0.5058576413678312 508.0 3.0 348.0 
518.0000482606791 24963.0 NaN 1473.3226452905817 0.5060824590622965 506.0 1.0 348.0 
520.0000482606791 24954.0 NaN 1467.198396793588 0.5057926037689106 505.0 1.0 346.0 
522.0000482606791 24976.0 NaN 1470.2738810955252 0.5090475504150986 504.0 1.0 347.0 
524.0000482606791 24996.0 NaN 1451.7835671342696 0.5100614038854278 503.0 1.0 341.0 
526.0000482606791 24981.0 NaN 1451.7488309953246 0.507838919037494 503.0 1.0 341.0 
528.0000482606791 24995.0 NaN 1454.8269873079485 0.5078378574907548 503.0 1.0 342.0 
530.0000482606791 24977.0 NaN 1454.8456913827647 0.5094748054626097 506.0 1.0 342.0 
532.0000482606791 24987.0 NaN 1454.9445557782242 0.5060118787718029 505.0 1.0 342.0 
534.0000482606791 25012.0 NaN 1461.0928523714092 0.5063206200154367 504.0 1.0 344.0 
536.0000482606791 25015.0 NaN 1454.9418837675357 0.5074160093023492 504.0 1.0 342.0 
538.0000482606791 25004.0 NaN 1458.1028724114901 0.5092184779497245 504.0 1.0 343.0 
540.0000482606791 24953.0 NaN 1458.0788243152977 0.5081532495946764 505.0 1.0 343.0 
542.0000482606791 24960.0 NaN 1461.124916499666 0.5063027459397837 505.0 1.0 344.0 
544.0000482606791 24960.0 NaN 1461.0046760187035 0.5086621941819588 508.0 1.0 344.0 
546.0000482606791 24951.0 NaN 1458.0253841015365 0.5066128820836715 508.0 1.0 343.0 
548.0000482606791 24949.0 NaN 1457.923847695391 0.506702108033957 511.0 1.0 343.0 
550.0000482606791 24937.0 NaN 1461.0340681362727 0.5054008516913983 511.0 1.0 344.0 
552.0000482606791 24937.0 NaN 1461.036740146961 0.5049677944794579 511.0 0.0 345.0 
554.0000482606791 24971.0 NaN 1467.2464929859723 0.5077410948262865 514.0 1.0 346.0 
556.0000482606791 24992.0 NaN 1470.346025384101 0.5069827956940728 511.0 2.0 346.0 
558.0000482606791 25005.0 NaN 1455.0060120240485 0.5063299943887343 508.0 1.0 342.0 
560.0000482606791 24998.0 NaN 1451.9331997328 0.5075898694534869 504.0 2.0 340.0 
562.0000482606791 24949.0 NaN 1455.035404141617 0.5064911215929718 500.0 1.0 342.0 
564.0000482606791 24961.0 NaN 1461.1569806279228 0.5085051393105665 501.0 1.0 344.0 
566.0000482606791 24991.0 NaN 1470.2818971275885 0.509300824912902 504.0 1.0 347.0 
568.0000482606791 24997.0 NaN 1470.3433533734133 0.5082902174737693 505.0 1.0 347.0 
570.0000482606791 24991.0 NaN 1476.448897795591 0.5074497598703315 513.0 1.0 349.0 
572.0000482606791 24959.0 NaN 1479.6018704074818 0.5068517988797303 512.0 1.0 350.0 
574.0000482606791 25006.0 NaN 1482.6052104208422 0.5102858562722822 511.0 1.0 351.0 
576.0000482606791 24996.0 NaN 1488.8203072812285 0.5079754003038499 511.0 1.0 353.0 
578.0000482606791 25015.0 NaN 1482.6452905811627 0.5063830071880857 513.0 1.0 351.0 
580.0000482606791 25008.0 NaN 1485.7127588510361 0.5078047785095564 513.0 1.0 352.0 
582.0000482606791 24975.0 NaN 1485.6673346693376 0.508128124145646 517.0 1.0 352.0 
584.0000482606791 25017.0 NaN 1482.6132264529065 0.5104849750486937 516.0 1.0 351.0 
586.0000482606791 25014.0 NaN 1491.8904475617908 0.506384550738744 519.0 1.0 354.0 
588.0000482606791 25046.0 NaN 1488.7561790247169 0.506459036685245 519.0 1.0 353.0 
590.0000482606791 25054.0 NaN 1491.8797595190376 0.5065384975851657 521.0 1.0 354.0 
592.0000482606791 25041.0 NaN 1491.869071476285 0.5088783388216606 524.0 1.0 354.0 
594.0000482606791 25085.0 NaN 1491.839679358718 0.5083310382398584 524.0 1.0 354.0 
596.0000482606791 25084.0 NaN 1494.9659318637273 0.5067240541295781 526.0 1.0 355.0 
598.0000482606791 25076.0 NaN 1488.7401469605886 0.5076889645095891 526.0 1.0 353.0 
600.0000482606791 25066.0 NaN 1485.5631262525058 0.5061125773290687 528.0 1.0 352.0 
602.0000482606791 25075.0 NaN 1491.788911155645 0.5077426401260663 528.0 1.0 354.0 
604.0000482606791 25144.0 NaN 1491.826319305276 0.5119399706188713 526.0 1.0 354.0 
606.0000482606791 25158.0 NaN 1498.009352037409 0.5111791097906979 522.0 2.0 355.0 
608.0000482606791 25169.0 NaN 1498.0334001335998 0.508078524372552 522.0 2.0 355.0 
610.0000482606791 25157.0 NaN 1494.9445557782242 0.5067950184639158 524.0 1.0 355.0 
612.0000482606791 25143.0 NaN 1494.9525718102882 0.5093503190644438 520.0 1.0 355.0 
614.0000482606791 25165.0 NaN 1494.816299265198 0.5076189619668398 520.0 1.0 355.0 
616.0000482606791 25129.0 NaN 1497.9345357381437 0.5056885233245433 521.0 1.0 356.0 
618.0000482606791 25188.0 NaN 1497.8891115564456 0.5065326523177559 523.0 1.0 356.0 
620.0000482606791 25158.0 NaN 1494.8002672010698 0.5081133301722227 521.0 1.0 355.0 
622.0000482606791 25142.0 NaN 1500.9913159652635 0.5064827322166683 520.0 1.0 357.0 
624.0000482606791 25162.0 NaN 1504.0133600534393 0.5087002541469285 517.0 1.0 358.0 
626.0000482606791 25120.0 NaN 1507.0915163660648 0.5069074436402253 518.0 1.0 359.0 
628.0000482606791 25186.0 NaN 1507.2518370073474 0.5062694981700644 516.0 1.0 359.0 
630.0000482606791 25137.0 NaN 1507.2464929859727 0.5062935301188749 514.0 1.0 359.0 
632.0000482606791 25136.0 NaN 1507.1877087508356 0.5046226885673976 513.0 1.0 359.0 
634.0000482606791 25181.0 NaN 1513.3814295257184 0.5062303845957015 516.0 1.0 361.0 
636.0000482606791 25160.0 NaN 1516.4408817635274 0.5100172287758932 524.0 1.0 362.0 
638.0000482606791 25168.0 NaN 1516.5023380093528 0.5062451462186187 525.0 1.0 362.0 
640.0000482606791 25141.0 NaN 1513.4268537074154 0.5055893336442504 524.0 1.0 361.0 
642.0000482606791 25136.0 NaN 1510.3540414161648 0.5046479437292679 525.0 1.0 360.0 
644.0000482606791 25148.0 NaN 1507.2972611890455 0.5104426165213178 525.0 1.0 359.0 
646.0000482606791 25096.0 NaN 1510.3967935871738 0.5083480653531456 522.0 1.0 360.0 
648.0000482606791 25114.0 NaN 1513.5310621242475 0.5039869494498366 523.0 1.0 361.0 
650.0000482606791 25121.0 NaN 1519.5831663326649 0.5048379426871166 519.0 1.0 363.0 
652.0000482606791 25125.0 NaN 1522.6960587842357 0.5051308558616938 517.0 1.0 364.0 
654.0000482606791 25123.0 NaN 1519.5377421509697 0.5099846969903284 515.0 2.0 362.0 
656.0000482606791 25086.0 NaN 1525.763527054109 0.5043888950411336 513.0 3.0 363.0 
658.0000482606791 25093.0 NaN 1535.0060120240473 0.5057211367332358 513.0 2.0 367.0 
660.0000482606791 25043.0 NaN 1535.0006680026727 0.5063426278813624 514.0 1.0 368.0 
662.0000482606791 25030.0 NaN 1534.9365397461581 0.5073290443221774 514.0 1.0 368.0 
664.0000482606791 25014.0 NaN 1538.0494321977283 0.5083231526072829 516.0 1.0 369.0 
#####################################################################
# End of data export. Simulation finished at: 2019-03-10T11:20+0000 #
#####################################################################
