#####################################################################
# Alchemist log file - simulation started at: 2019-03-08T02:42+0000 #
#####################################################################
# seed = 5.0, bandwidth = 1.0E8, propagationDelay = 3.1622776601683795, baserange = 1000.0
#
# The columns have the following meaning: 
# time neighbor_count[Sum] <value>@neighbor_count[Sum] packet_size[Mean] mean_delay[Mean] crowd[Sum] overcrowded[Sum] risk[Sum] 
0.0 NaN NaN NaN NaN NaN NaN NaN 
2.000101793669918 NaN NaN 4988.0 NaN 1497.0 0.0 1497.0 
4.000101793669918 73500.0 NaN 4988.889779559118 0.2058475317215834 1497.0 0.0 1497.0 
6.000101793669918 210022.0 NaN 4995.620574482298 1.8380212511051188 1497.0 0.0 1497.0 
8.000101793669918 210022.0 NaN 4995.4228456913825 2.442148422953193 1497.0 0.0 1497.0 
10.000101793669918 210023.0 NaN 4994.0093520374085 1.8380221089587525 1497.0 0.0 1497.0 
12.000101793669918 210024.0 NaN 4993.9612558450235 2.4421191315767756 1496.0 1.0 1496.0 
14.000101793669918 210024.0 NaN 4994.800267201069 1.8380264191089828 1495.0 2.0 1495.0 
16.00010179366992 210029.0 NaN 4994.800267201069 2.442087940190511 1495.0 2.0 1495.0 
18.00010179366992 210038.0 NaN 4993.9826319305275 1.8380230257346344 1495.0 2.0 1495.0 
20.00010179366992 210047.0 NaN 4993.9826319305275 2.442060024214573 1495.0 2.0 1495.0 
22.00010179366992 210075.0 NaN 4994.768203072812 1.8392833570549134 1495.0 2.0 1495.0 
24.00010179366992 210069.0 NaN 4994.794923179693 2.4420234057327086 1495.0 2.0 1495.0 
26.00010179366992 210076.0 NaN 4994.0253841015365 1.8381944977638724 1495.0 2.0 1495.0 
28.00010179366992 210091.0 NaN 4994.0253841015365 2.442088968467939 1495.0 2.0 1495.0 
30.00010179366992 210123.0 NaN 4994.826987307949 1.8397178054981231 1495.0 2.0 1495.0 
32.00010179366992 210140.0 NaN 4994.826987307949 2.4425933850949266 1495.0 2.0 1495.0 
34.00010179366992 210195.0 NaN 4994.0440881763525 1.8396911609325837 1495.0 2.0 1495.0 
36.00010179366992 210148.0 NaN 4994.0440881763525 2.442321439107645 1495.0 2.0 1495.0 
38.00010179366992 210155.0 NaN 4994.832331329325 1.8383434476172424 1495.0 2.0 1495.0 
40.00010179366992 210179.0 NaN 4994.832331329325 2.4421497823794747 1495.0 2.0 1495.0 
42.00010179366992 210225.0 NaN 4994.0467601870405 1.8399991841539711 1495.0 2.0 1495.0 
44.00010179366992 210238.0 NaN 4994.0334001336005 2.441857704069694 1495.0 2.0 1495.0 
46.00010179366992 210307.0 NaN 4994.765531062124 1.8386066036816189 1496.0 1.0 1496.0 
48.00010179366992 210296.0 NaN 4994.765531062124 2.442776777936158 1496.0 1.0 1496.0 
50.00010179366992 210313.0 NaN 4994.0280561122245 1.8411645601991473 1496.0 1.0 1496.0 
52.00010179366992 210308.0 NaN 4994.0280561122245 2.4421695593878483 1496.0 1.0 1496.0 
54.00010179366992 210366.0 NaN 4994.792251169005 1.8401774094174164 1495.0 2.0 1495.0 
56.00010179366992 210348.0 NaN 4994.792251169005 2.44234833090234 1495.0 2.0 1495.0 
58.00010179366992 210381.0 NaN 4994.0547762191045 1.839122225101361 1495.0 2.0 1495.0 
60.00010179366992 210377.0 NaN 4990.98997995992 2.4433799413511297 1494.0 2.0 1494.0 
62.00010179366992 210410.0 NaN 1519.2999331997335 1.840467893307512 840.0 0.0 364.0 
64.00010179366993 210361.0 NaN 1522.3780895123575 2.4426373328655857 789.0 0.0 365.0 
66.00010179366993 210405.0 NaN 1522.300601202406 1.840218278246593 667.0 1.0 364.0 
68.00010179366993 210349.0 NaN 1522.249832999333 2.4424602312303114 648.0 2.0 363.0 
70.00010179366993 210383.0 NaN 1525.2879091516363 1.8407836165731022 601.0 3.0 363.0 
72.00010179366993 210349.0 NaN 1525.282565130261 2.4428476742296423 594.0 3.0 363.0 
74.00010179366993 210401.0 NaN 1528.3633934535726 1.84091898752599 578.0 2.0 365.0 
76.00010179366993 210290.0 NaN 1528.3660654642633 2.4421926110539953 569.0 2.0 365.0 
78.00010179366993 210323.0 NaN 1531.4522378089518 1.838779205200047 554.0 2.0 366.0 
80.00010179366993 210324.0 NaN 1531.4629258517032 2.4422500054955556 552.0 2.0 366.0 
82.00010179366993 210341.0 NaN 1534.5277221108886 1.8387972889883044 545.0 2.0 367.0 
84.00010179366993 210333.0 NaN 1534.5277221108886 2.4420400960694937 541.0 2.0 367.0 
86.00010179366993 210356.0 NaN 1534.5277221108886 1.8389659872940691 537.0 2.0 367.0 
88.00010179366993 210349.0 NaN 1534.5277221108886 2.442008891216206 535.0 2.0 367.0 
90.00010179366993 210413.0 NaN 1534.4929859719452 1.8385815070945457 535.0 2.0 367.0 
92.00010179366993 210420.0 NaN 1534.4876419505667 2.441967359927441 536.0 2.0 367.0 
94.00010179366993 210452.0 NaN 1534.4876419505667 1.8390592503851648 534.0 2.0 367.0 
96.00010179366993 210418.0 NaN 1534.4876419505667 2.441897863068861 534.0 2.0 367.0 
98.00010179366993 210507.0 NaN 1537.5711422845698 1.8385531632027767 532.0 2.0 368.0 
100.00010179366993 210573.0 NaN 1537.5657982631913 2.4419616896292684 532.0 2.0 368.0 
102.00010179366993 210607.0 NaN 1537.573814295257 1.8391354400495286 531.0 2.0 368.0 
104.00010179366993 210567.0 NaN 1540.649298597194 2.4418418481940867 530.0 2.0 369.0 
106.00010179366993 210578.0 NaN 1540.6332665330663 1.838666471590738 529.0 2.0 369.0 
108.00010179366993 210602.0 NaN 1540.6332665330663 2.441745607015112 528.0 2.0 369.0 
110.00010179366993 210676.0 NaN 1540.6332665330663 1.8384801816172653 527.0 2.0 369.0 
112.00010179366993 210666.0 NaN 1540.6332665330663 2.441876398569667 527.0 2.0 369.0 
114.00010179366993 210675.0 NaN 1540.6305945223787 1.839046736358854 526.0 2.0 369.0 
116.00010179366993 210636.0 NaN 1540.6252505010004 2.441793572319357 526.0 2.0 369.0 
118.00010179366993 210651.0 NaN 1540.6252505010004 1.8389941410178434 528.0 2.0 369.0 
120.00010179366993 210645.0 NaN 1540.6252505010004 2.441879737472791 528.0 2.0 369.0 
122.00010179366993 210670.0 NaN 1543.7060788243155 1.839471822686417 528.0 2.0 370.0 
124.00010179366993 210647.0 NaN 1540.6412825651298 2.4415169106672594 528.0 2.0 369.0 
126.00010179366993 210673.0 NaN 1543.7247828991303 1.8387385703087 528.0 2.0 370.0 
128.00010179366993 210640.0 NaN 1540.6653306613216 2.441565768101149 528.0 2.0 369.0 
130.00010179366993 210646.0 NaN 1540.662658650636 1.8384258754013576 528.0 2.0 369.0 
132.00010179366993 210657.0 NaN 1537.5738142952573 2.441855024775983 528.0 2.0 368.0 
134.00010179366993 210693.0 NaN 1537.5898463593849 1.8391998514395984 529.0 2.0 368.0 
136.00010179366993 210662.0 NaN 1537.6085504342002 2.441555304536777 529.0 2.0 368.0 
138.00010179366993 210676.0 NaN 1534.5330661322635 1.839181588464772 527.0 2.0 367.0 
140.00010179366993 210676.0 NaN 1534.530394121576 2.4411480632169313 527.0 2.0 367.0 
142.00010179366993 210707.0 NaN 1537.6219104876425 1.8387785534825374 529.0 2.0 368.0 
144.00010179366993 210693.0 NaN 1537.6219104876425 2.4411746890387356 529.0 2.0 368.0 
146.00010179366993 210716.0 NaN 1537.6219104876425 1.8392938691211316 527.0 2.0 368.0 
148.00010179366993 210693.0 NaN 1534.5544422177695 2.440878668570091 527.0 2.0 367.0 
150.00010179366993 210707.0 NaN 1534.5490981963912 1.8388815192957582 527.0 2.0 367.0 
152.00010179366993 210714.0 NaN 1528.4114896459575 2.4413109099890247 527.0 2.0 365.0 
154.00010179366993 210757.0 NaN 1528.392785571143 1.8395001921961096 526.0 2.0 365.0 
156.00010179366993 210724.0 NaN 1531.4655978623907 2.441162389673771 526.0 2.0 366.0 
158.00010179366993 210747.0 NaN 1528.3927855711427 1.8392642199702023 527.0 2.0 365.0 
160.00010179366993 210724.0 NaN 1531.4682698730817 2.4412477898404283 526.0 2.0 366.0 
162.00010179366993 210757.0 NaN 1534.551770207082 1.8398342706899329 525.0 2.0 367.0 
164.00010179366993 210716.0 NaN 1534.5597862391458 2.4414727986326876 525.0 2.0 367.0 
166.00010179366993 210729.0 NaN 1537.6459585838363 1.8390709145003286 524.0 2.0 368.0 
168.00010179366993 210709.0 NaN 1534.5784903139615 2.4409608163371934 524.0 2.0 367.0 
170.00010179366993 210736.0 NaN 1534.6052104208427 1.8389984250271125 524.0 2.0 367.0 
172.00010179366993 210717.0 NaN 1534.6052104208427 2.44102802771541 525.0 2.0 367.0 
174.00010179366993 210739.0 NaN 1537.6539746158999 1.838734568545052 526.0 2.0 368.0 
176.00010179366993 210729.0 NaN 1534.5731462925844 2.4412100738305607 526.0 2.0 367.0 
178.00010179366993 210767.0 NaN 1534.5865063460274 1.839547704672043 525.0 2.0 367.0 
180.00010179366993 210741.0 NaN 1534.5998663994635 2.440895238893768 525.0 2.0 367.0 
182.00010179366993 210755.0 NaN 1534.5410821643272 1.8390232488816574 524.0 2.0 367.0 
184.00010179366993 210748.0 NaN 1534.5410821643272 2.441044143436194 523.0 2.0 367.0 
186.00010179366993 210781.0 NaN 1534.5891783567117 1.839339158235286 523.0 2.0 367.0 
188.00010179366993 210730.0 NaN 1537.6700066800274 2.4414299362047513 523.0 2.0 368.0 
190.00010179366993 210738.0 NaN 1534.5731462925846 1.8397470427808706 521.0 2.0 367.0 
192.00010179366993 210703.0 NaN 1531.4923179692728 2.4412548303115793 520.0 2.0 366.0 
194.00010179366993 210724.0 NaN 1534.5731462925846 1.8398637115829777 520.0 2.0 367.0 
196.00010179366993 210711.0 NaN 1534.5571142284568 2.4415291878530168 520.0 2.0 367.0 
198.00010179366993 210729.0 NaN 1534.5731462925846 1.8396712014937664 520.0 2.0 367.0 
200.00010179366993 210700.0 NaN 1537.6700066800274 2.441173615960178 522.0 2.0 368.0 
202.00010179366993 210719.0 NaN 1540.7027388109543 1.8398402205471827 522.0 2.0 369.0 
204.00010179366993 210729.0 NaN 1540.694722778891 2.440762577560749 521.0 2.0 369.0 
206.00010179366993 210823.0 NaN 1540.7401469605884 1.8395114935011208 521.0 2.0 369.0 
208.00010179366993 210788.0 NaN 1534.5891783567117 2.441888045215668 521.0 2.0 367.0 
210.00010179366993 210795.0 NaN 1534.5223780895117 1.8399595928744787 524.0 2.0 367.0 
212.00010179366993 210792.0 NaN 1531.4201736806938 2.441538357193504 524.0 2.0 366.0 
214.00010179366993 210863.0 NaN 1531.4201736806938 1.839158959868432 522.0 2.0 366.0 
216.00010179366993 210836.0 NaN 1525.2798931195728 2.4422608142807403 522.0 2.0 364.0 
218.00010179366993 210858.0 NaN 1525.2985971943906 1.840520294605605 518.0 2.0 364.0 
220.00010179366993 210846.0 NaN 1525.3039412157639 2.4423668484234846 517.0 2.0 364.0 
222.00010179366993 210863.0 NaN 1531.4255177020725 1.8414522009815253 518.0 2.0 366.0 
224.00010179366993 210846.0 NaN 1531.4228456913816 2.441913210349764 518.0 2.0 366.0 
226.00010179366993 210898.0 NaN 1528.384769539079 1.840710697318051 518.0 2.0 365.0 
228.00010179366993 210843.0 NaN 1531.4923179692728 2.441776901360238 518.0 2.0 366.0 
230.00010179366993 210863.0 NaN 1534.5784903139613 1.8397868237465218 517.0 2.0 367.0 
232.00010179366993 210865.0 NaN 1537.6593186372727 2.4416709173903666 517.0 2.0 368.0 
234.00010179366993 210926.0 NaN 1537.62458249833 1.83965513443258 516.0 2.0 368.0 
236.00010179366993 210870.0 NaN 1534.5544422177697 2.4412995884549176 516.0 2.0 367.0 
238.00010179366993 210886.0 NaN 1528.419505678021 1.8392240521683825 516.0 2.0 365.0 
240.00010179366993 210884.0 NaN 1528.3901135604547 2.441185419283827 515.0 2.0 365.0 
242.00010179366993 210926.0 NaN 1528.3660654642633 1.839626232943413 514.0 2.0 365.0 
244.00010179366993 210918.0 NaN 1528.355377421509 2.4408019375182306 513.0 2.0 365.0 
246.00010179366993 211002.0 NaN 1525.2798931195728 1.8393087095932252 516.0 2.0 364.0 
248.00010179366993 210978.0 NaN 1522.2124248497 2.442087624482669 516.0 2.0 363.0 
250.00010179366993 211019.0 NaN 1525.2852371409479 1.8400233492198343 515.0 2.0 364.0 
252.00010179366993 210969.0 NaN 1522.185704742818 2.4421841614389517 515.0 2.0 363.0 
254.00010179366993 210988.0 NaN 1525.282565130261 1.8391666001386797 516.0 2.0 364.0 
256.00010179366996 210950.0 NaN 1528.3473613894453 2.4417449000446805 518.0 1.0 366.0 
258.00010179366996 210995.0 NaN 1528.3420173680702 1.839349136187513 518.0 1.0 366.0 
260.00010179366996 210976.0 NaN 1528.3420173680702 2.4415729614278128 518.0 1.0 366.0 
262.00010179366996 211030.0 NaN 1525.274549098197 1.8388647985596032 519.0 1.0 365.0 
264.00010179366996 211008.0 NaN 1525.250501002003 2.4412985246413244 518.0 1.0 365.0 
266.00010179366996 211067.0 NaN 1534.5063460253818 1.83908957483534 517.0 1.0 368.0 
268.00010179366996 211058.0 NaN 1534.4929859719452 2.442550541866753 516.0 2.0 367.0 
270.00010179366996 211112.0 NaN 1534.5170340681366 1.839624307187493 513.0 2.0 367.0 
272.00010179366996 211104.0 NaN 1531.444221776888 2.442514175705743 513.0 2.0 366.0 
274.00010179366996 211193.0 NaN 1531.462925851703 1.8397135645545595 513.0 2.0 366.0 
276.00010179366996 211138.0 NaN 1534.5303941215755 2.4424857266779343 512.0 2.0 367.0 
278.00010179366996 211173.0 NaN 1540.6492985971936 1.8393506120802097 513.0 2.0 369.0 
280.00010179366996 211144.0 NaN 1537.5845023380089 2.442563650151706 514.0 2.0 368.0 
282.00010179366996 211180.0 NaN 1534.5197060788248 1.839711842774991 515.0 2.0 367.0 
284.00010179366996 211145.0 NaN 1531.4201736806936 2.4424797394797038 514.0 2.0 366.0 
286.00010179366996 211199.0 NaN 1534.511690046761 1.8405203489852875 514.0 2.0 367.0 
288.00010179366996 211134.0 NaN 1534.5090180360728 2.442465964989285 514.0 2.0 367.0 
290.00010179366996 211177.0 NaN 1534.4716098864387 1.8418538376206706 515.0 2.0 367.0 
292.00010179366996 211079.0 NaN 1534.4529058116248 2.4417429948283487 515.0 2.0 367.0 
294.00010179366996 211105.0 NaN 1531.4014696058791 1.8392823737122341 513.0 2.0 366.0 
296.00010179366996 211081.0 NaN 1531.4014696058791 2.4417008100539204 513.0 2.0 366.0 
298.00010179366996 211140.0 NaN 1531.4014696058791 1.840276622092948 513.0 2.0 366.0 
300.00010179366996 211064.0 NaN 1531.404141616566 2.442287826450698 513.0 2.0 366.0 
302.00010179366996 211084.0 NaN 1534.5250501002 1.8409162771267076 512.0 2.0 367.0 
304.00010179366996 210993.0 NaN 1531.4709418837665 2.4419359560392104 511.0 2.0 366.0 
306.00010179366996 211054.0 NaN 1537.6379425517703 1.8399634476321594 509.0 2.0 368.0 
308.00010179366996 210998.0 NaN 1534.5197060788248 2.4427594906573997 510.0 1.0 368.0 
310.00010179366996 211058.0 NaN 1537.6245824983298 1.8420117543012497 509.0 1.0 369.0 
312.00010179366996 210952.0 NaN 1531.4549098196387 2.4421601468469114 508.0 2.0 366.0 
314.00010179366996 210980.0 NaN 1528.336673346693 1.8391537672970257 508.0 2.0 365.0 
316.00010179366996 210984.0 NaN 1525.2798931195728 2.4422154397655165 506.0 2.0 364.0 
318.00010179366996 211050.0 NaN 1528.4088176352725 1.8402198752510663 504.0 2.0 365.0 
320.00010179366996 210975.0 NaN 1528.392785571143 2.4421501469966347 506.0 2.0 365.0 
322.00010179366996 211034.0 NaN 1531.4415497662003 1.8400989983915166 507.0 2.0 366.0 
324.00010179366996 210989.0 NaN 1531.4415497662003 2.4423497709959108 507.0 2.0 366.0 
326.00010179366996 211047.0 NaN 1534.551770207082 1.8413097080321301 505.0 2.0 367.0 
328.00010179366996 210921.0 NaN 1531.4843019372088 2.4422380727379718 508.0 1.0 367.0 
330.00010179366996 210954.0 NaN 1531.4068136272545 1.8405767158286022 508.0 1.0 367.0 
332.00010179366996 210887.0 NaN 1531.4041416165662 2.4417414210778 508.0 1.0 367.0 
334.00010179366996 210915.0 NaN 1531.4415497662 1.8395313220739777 507.0 1.0 367.0 
336.00010179366996 210884.0 NaN 1528.3847695390791 2.4420742459759697 506.0 2.0 365.0 
338.00010179366996 210922.0 NaN 1528.3847695390791 1.8405278976933508 507.0 2.0 365.0 
340.00010179366996 210819.0 NaN 1528.3847695390791 2.4420208048301717 508.0 2.0 365.0 
342.00010179366996 210853.0 NaN 1528.3687374749484 1.8404087024755182 508.0 2.0 365.0 
344.00010179366996 210803.0 NaN 1528.3714094856366 2.4417271829740903 508.0 2.0 365.0 
346.00010179366996 210842.0 NaN 1528.3901135604547 1.840275815344019 507.0 2.0 365.0 
348.00010179366996 210729.0 NaN 1522.225784903139 2.4414064591079887 507.0 2.0 363.0 
350.00010179366996 210751.0 NaN 1528.344689378757 1.8397840173825613 507.0 2.0 365.0 
352.00010179366996 210714.0 NaN 1522.19906479626 2.441285062686704 507.0 2.0 363.0 
354.00010179366996 210777.0 NaN 1522.201736806946 1.839790821943405 512.0 2.0 363.0 
356.00010179366996 210737.0 NaN 1519.131596526385 2.4418582249877137 512.0 2.0 362.0 
358.00010179366996 210764.0 NaN 1519.136940547763 1.8404098095402546 511.0 2.0 362.0 
360.00010179366996 210688.0 NaN 1519.1262525050088 2.4414624240296137 510.0 2.0 362.0 
362.00010179366996 210755.0 NaN 1516.0454241816976 1.840009105375335 511.0 2.0 361.0 
364.00010179366996 210730.0 NaN 1509.9185036740153 2.4420427223608323 511.0 2.0 359.0 
366.00010179366996 210779.0 NaN 1509.8917835671355 1.8413236980288528 512.0 2.0 359.0 
368.00010179366996 210665.0 NaN 1503.7327989311968 2.4420863477960344 513.0 2.0 357.0 
370.00010179366996 210677.0 NaN 1509.8463593854365 1.8413703933194243 513.0 2.0 359.0 
372.00010179366996 210552.0 NaN 1509.8543754175007 2.4418908573174845 513.0 2.0 359.0 
374.00010179366996 210593.0 NaN 1509.873079492318 1.8402209956789795 514.0 2.0 359.0 
376.00010179366996 210502.0 NaN 1506.8109552438202 2.441669805047793 515.0 2.0 358.0 
378.00010179366996 210540.0 NaN 1506.7735470941889 1.8407109278338822 515.0 2.0 358.0 
380.00010179366996 210397.0 NaN 1500.6386105544432 2.442512617135312 514.0 2.0 356.0 
382.00010179366996 210398.0 NaN 1497.579158316634 1.8413148328316922 514.0 2.0 355.0 
384.00010179366996 210263.0 NaN 1497.5925183700729 2.4421630853422114 514.0 2.0 355.0 
386.00010179366996 210316.0 NaN 1494.5143620574477 1.8399453267865509 516.0 2.0 354.0 
388.00010179366996 210223.0 NaN 1494.5090180360728 2.4425765025381114 516.0 2.0 354.0 
390.00010179366996 210256.0 NaN 1494.506346025383 1.845887964900698 514.0 2.0 354.0 
392.00010179366996 210140.0 NaN 1494.519706078825 2.4407765343960772 516.0 2.0 354.0 
394.00010179366996 210209.0 NaN 1503.7515030060113 1.8394634653237882 518.0 2.0 357.0 
396.00010179366996 210129.0 NaN 1509.9051436205734 2.441325831582946 518.0 2.0 359.0 
398.00010179366996 210160.0 NaN 1509.8864395457574 1.840707426168618 519.0 2.0 359.0 
400.00010179366996 210088.0 NaN 1503.7488309953249 2.4416584534481927 518.0 2.0 357.0 
402.00010179366996 210193.0 NaN 1506.8243152972616 1.8417049297783246 519.0 2.0 358.0 
404.00010179366996 210122.0 NaN 1512.9699398797607 2.441738860178388 521.0 2.0 360.0 
406.00010179366996 210206.0 NaN 1512.9699398797607 1.8400596693629991 520.0 2.0 360.0 
408.00010179366996 210093.0 NaN 1516.0694722778903 2.4420742380980873 520.0 2.0 361.0 
410.00010179366996 210125.0 NaN 1522.249832999333 1.8414830562993931 520.0 2.0 363.0 
412.00010179366996 210012.0 NaN 1519.1503006012022 2.4417604989377724 520.0 2.0 362.0 
414.00010179366996 210096.0 NaN 1519.1022044088184 1.8399937237946642 522.0 2.0 362.0 
416.00010179366996 210047.0 NaN 1506.8189712758842 2.4416546983363605 522.0 2.0 358.0 
418.00010179366996 210097.0 NaN 1506.8243152972616 1.8392294745983877 522.0 2.0 358.0 
420.00010179366996 210061.0 NaN 1500.6760187040736 2.4425175011729063 523.0 2.0 356.0 
422.00010179366996 210149.0 NaN 1500.6653306613218 1.8418216582700209 519.0 2.0 356.0 
424.00010179366996 210051.0 NaN 1491.4629258517032 2.442050065163139 517.0 2.0 353.0 
426.00010179366996 210094.0 NaN 1500.6973947895794 1.8413080922773302 515.0 2.0 356.0 
428.00010179366996 209968.0 NaN 1500.6786907147634 2.441924940079643 517.0 2.0 356.0 
430.00010179366996 210013.0 NaN 1500.6680026720103 1.8398290350746402 519.0 2.0 356.0 
432.00010179366996 209990.0 NaN 1497.5711422845698 2.44166237010012 520.0 2.0 355.0 
434.00010179366996 210066.0 NaN 1516.0427521710092 1.841005353042405 525.0 2.0 361.0 
436.00010179366996 209980.0 NaN 1512.9485637942546 2.442025457469158 526.0 2.0 360.0 
438.00010179366996 210005.0 NaN 1516.0614562458263 1.8403518974048045 527.0 2.0 361.0 
440.00010179366996 209953.0 NaN 1516.0454241816976 2.441786940695887 527.0 2.0 361.0 
442.00010179366996 210054.0 NaN 1525.2879091516363 1.8410121428476465 527.0 2.0 364.0 
444.00010179366996 209994.0 NaN 1522.1910487641937 2.4418777846044417 527.0 2.0 363.0 
446.00010179366996 210034.0 NaN 1534.479625918503 1.8418221370851349 529.0 2.0 367.0 
448.00010179366996 209911.0 NaN 1534.4742818971272 2.442504026527859 530.0 2.0 367.0 
450.00010179366996 209960.0 NaN 1537.5764863059455 1.8428802640618214 530.0 2.0 368.0 
452.00010179366996 209878.0 NaN 1534.4983299933185 2.443198212815978 530.0 2.0 367.0 
454.00010179366996 209949.0 NaN 1540.6519706078816 1.84050978332046 528.0 2.0 369.0 
456.00010179366996 209885.0 NaN 1540.6412825651298 2.4439636375951235 526.0 2.0 369.0 
458.00010179366996 209927.0 NaN 1540.6359385437547 1.8418425190278391 525.0 2.0 369.0 
460.00010179366996 209823.0 NaN 1543.7167668670666 2.4436020664480487 524.0 2.0 370.0 
462.00010179366996 209906.0 NaN 1543.6526386105547 1.840290546415832 523.0 2.0 370.0 
464.00010179366996 209859.0 NaN 1537.5257181028728 2.4442293752924558 522.0 2.0 368.0 
466.00010179366996 209894.0 NaN 1537.5150300601185 1.8424835206090857 524.0 2.0 368.0 
468.00010179366996 209719.0 NaN 1537.528390113561 2.4437676947198343 525.0 2.0 368.0 
470.00010179366996 209756.0 NaN 1540.6012024048089 1.8400173172353793 524.0 2.0 369.0 
472.00010179366996 209711.0 NaN 1531.3827655310633 2.4445545316348944 523.0 2.0 366.0 
474.00010179366996 209778.0 NaN 1528.2431529726114 1.84223293846302 520.0 2.0 365.0 
476.00010179366996 209699.0 NaN 1525.1623246492995 2.444246757538221 520.0 2.0 364.0 
478.00010179366996 209737.0 NaN 1525.2264529058114 1.8412094994028094 519.0 2.0 364.0 
480.00010179366996 209660.0 NaN 1522.1536406145638 2.4440599667545535 519.0 2.0 363.0 
482.00010179366996 209716.0 NaN 1519.1102204408817 1.8413526503112065 519.0 2.0 362.0 
484.00010179366996 209688.0 NaN 1506.8296593186367 2.443636269256706 517.0 2.0 358.0 
486.00010179366996 209783.0 NaN 1503.7381429525724 1.8403656567799052 514.0 2.0 357.0 
488.00010179366996 209705.0 NaN 1497.5738142952564 2.443574510292092 514.0 2.0 355.0 
490.00010179366996 209763.0 NaN 1500.6867067468274 1.8406381070537734 515.0 2.0 356.0 
492.00010179366996 209685.0 NaN 1488.4008016032071 2.4435436147813094 514.0 2.0 352.0 
494.00010179366996 209725.0 NaN 1491.4388777555102 1.8408061644907374 513.0 2.0 353.0 
496.00010179366996 209677.0 NaN 1485.2985971943897 2.4435408490971184 513.0 2.0 351.0 
498.00010179366996 209774.0 NaN 1485.2825651302612 1.8407468241676295 515.0 2.0 351.0 
500.00010179366996 209689.0 NaN 1488.3580494321989 2.443554367382596 514.0 2.0 352.0 
502.00010179366996 209751.0 NaN 1494.5811623246484 1.8418459162371845 512.0 2.0 354.0 
504.00010179366996 209692.0 NaN 1485.3573814295264 2.4432512049319497 512.0 2.0 351.0 
506.00010179366996 209763.0 NaN 1491.4655978623907 1.8401994804578896 513.0 2.0 353.0 
508.00010179366996 209668.0 NaN 1497.5818303273204 2.44348291183383 515.0 2.0 355.0 
510.00010179366996 209716.0 NaN 1494.5090180360728 1.8405091090890457 516.0 2.0 354.0 
512.00010179367 209658.0 NaN 1485.317301269206 2.443286539113719 515.0 2.0 351.0 
514.00010179367 209706.0 NaN 1485.360053440215 1.8406974243469971 515.0 2.0 351.0 
516.00010179367 209655.0 NaN 1479.2251169004667 2.4433757093073396 514.0 2.0 349.0 
518.00010179367 209715.0 NaN 1479.1529726118908 1.8407265277059117 512.0 2.0 349.0 
520.00010179367 209647.0 NaN 1472.9993319973275 2.443990317731333 511.0 2.0 347.0 
522.00010179367 209757.0 NaN 1469.9398797595186 1.8414196337192692 511.0 2.0 346.0 
524.00010179367 209709.0 NaN 1457.6940547762185 2.443891810008681 510.0 2.0 342.0 
526.00010179367 209760.0 NaN 1463.802271209084 1.8426481054283717 507.0 2.0 344.0 
528.00010179367 209638.0 NaN 1463.8049432197727 2.4429389172265608 508.0 2.0 344.0 
530.00010179367 209690.0 NaN 1460.8096192384758 1.8402150310045744 506.0 2.0 343.0 
532.00010179367 209645.0 NaN 1448.526386105545 2.4430178037382464 505.0 2.0 339.0 
534.00010179367 209719.0 NaN 1451.5110220440883 1.8400545331626796 505.0 2.0 340.0 
536.00010179367 209650.0 NaN 1451.5003340013363 2.4432819265116374 505.0 2.0 340.0 
538.00010179367 209687.0 NaN 1460.7855711422842 1.8403343999912984 507.0 2.0 343.0 
540.00010179367 209678.0 NaN 1460.7695390781557 2.4432464771274085 506.0 2.0 343.0 
542.00010179367 209843.0 NaN 1463.8637274549094 1.8408325229599296 508.0 2.0 344.0 
544.00010179367 209765.0 NaN 1466.9205076820303 2.4448500665396113 507.0 2.0 345.0 
546.00010179367 209767.0 NaN 1470.0066800267193 1.8419179731754656 506.0 2.0 346.0 
548.00010179367 209660.0 NaN 1466.9124916499666 2.443507210067714 508.0 2.0 345.0 
550.00010179367 209707.0 NaN 1466.9018036072146 1.8401429963148617 509.0 2.0 345.0 
552.00010179367 209688.0 NaN 1463.8183032732127 2.443487837299942 508.0 2.0 344.0 
554.00010179367 209772.0 NaN 1466.8857715430856 1.840906940793437 508.0 2.0 345.0 
556.00010179367 209684.0 NaN 1463.8102872411487 2.443719929798465 508.0 2.0 344.0 
558.00010179367 209741.0 NaN 1460.700066800267 1.841727886805082 507.0 2.0 343.0 
560.00010179367 209706.0 NaN 1460.7134268537077 2.4430960833997477 503.0 2.0 343.0 
562.00010179367 209846.0 NaN 1460.708082832331 1.8413432266494438 506.0 2.0 343.0 
564.00010179367 209744.0 NaN 1463.786239144956 2.4433918102253065 509.0 2.0 344.0 
566.00010179367 209783.0 NaN 1463.8183032732136 1.841217962915919 507.0 2.0 344.0 
568.00010179367 209731.0 NaN 1463.8343353373411 2.4430330965531444 506.0 2.0 344.0 
570.00010179367 209829.0 NaN 1469.9986639946555 1.8412979394032354 512.0 2.0 346.0 
572.00010179367 209759.0 NaN 1476.1629926519713 2.44286633674719 512.0 2.0 348.0 
574.00010179367 209850.0 NaN 1479.2090848363391 1.8403283616051067 509.0 2.0 349.0 
576.00010179367 209797.0 NaN 1473.0634602538412 2.442844455280655 509.0 2.0 347.0 
578.00010179367 209861.0 NaN 1473.0501002004005 1.840647077994228 509.0 2.0 347.0 
580.00010179367 209833.0 NaN 1469.9799599198393 2.4429385549148126 512.0 2.0 346.0 
582.00010179367 209953.0 NaN 1473.0607882431534 1.8412748092941724 513.0 2.0 347.0 
584.00010179367 209890.0 NaN 1476.1603206412822 2.4431876232946075 513.0 2.0 348.0 
586.00010179367 209936.0 NaN 1479.1983967935878 1.8410582026876356 516.0 2.0 349.0 
588.00010179367 209859.0 NaN 1476.1309285237148 2.442671556655335 517.0 2.0 348.0 
590.00010179367 209961.0 NaN 1479.1770207080824 1.841299736761403 523.0 2.0 349.0 
592.00010179367 209887.0 NaN 1479.1529726118908 2.4426908195137598 525.0 2.0 349.0 
594.00010179367 209952.0 NaN 1482.2525050100194 1.8400934086074234 528.0 2.0 350.0 
596.00010179367 209923.0 NaN 1482.2257849031391 2.442287172780919 528.0 2.0 350.0 
598.00010179367 210007.0 NaN 1488.3580494321986 1.8404324225370214 531.0 2.0 352.0 
600.00010179367 209985.0 NaN 1491.4575818303274 2.4424093698102856 529.0 2.0 353.0 
602.00010179367 210092.0 NaN 1488.3981295925182 1.8418172124662737 529.0 2.0 352.0 
604.00010179367 210014.0 NaN 1497.645958583835 2.4421028364707684 533.0 2.0 355.0 
606.00010179367 210084.0 NaN 1500.7214428857726 1.8410352856743346 531.0 2.0 356.0 
608.00010179367 210025.0 NaN 1500.7214428857724 2.442526138439395 529.0 2.0 356.0 
610.00010179367 210098.0 NaN 1506.853707414829 1.8423811485466592 530.0 2.0 358.0 
612.00010179367 209973.0 NaN 1500.7267869071466 2.4424193169678614 530.0 2.0 356.0 
614.00010179367 210019.0 NaN 1503.799599198398 1.8398735914288282 527.0 2.0 357.0 
616.00010179367 209991.0 NaN 1500.7374749499 2.4425786166055814 525.0 2.0 356.0 
618.00010179367 210100.0 NaN 1500.7241148964606 1.8422613246331203 525.0 2.0 356.0 
620.00010179367 210005.0 NaN 1506.8697394789574 2.44294199176778 526.0 2.0 358.0 
622.00010179367 210074.0 NaN 1516.1042084168346 1.8417572481156774 524.0 2.0 361.0 
624.00010179367 209972.0 NaN 1516.1309285237153 2.4431558419361115 523.0 2.0 361.0 
626.00010179367 210018.0 NaN 1516.1229124916515 1.8409134694960945 523.0 2.0 361.0 
628.00010179367 209966.0 NaN 1519.1850367401462 2.4429081452691612 523.0 2.0 362.0 
630.00010179367 210097.0 NaN 1519.2090848363384 1.8420901272630368 524.0 2.0 362.0 
632.00010179367 210001.0 NaN 1528.4569138276547 2.4434934081320345 527.0 2.0 365.0 
634.00010179367 210046.0 NaN 1525.360053440215 1.841262710675238 526.0 2.0 364.0 
636.00010179367 209999.0 NaN 1525.354709418837 2.4428093951621817 525.0 2.0 364.0 
638.00010179367 210075.0 NaN 1525.341349365398 1.840144376586629 532.0 2.0 364.0 
640.00010179367 210032.0 NaN 1516.1469605878435 2.4423955452956476 530.0 2.0 361.0 
642.00010179367 210124.0 NaN 1516.157648630594 1.8401309661159515 530.0 2.0 361.0 
644.00010179367 210101.0 NaN 1513.0768203072819 2.4422648641125044 527.0 2.0 360.0 
646.00010179367 210166.0 NaN 1516.1897127588518 1.8401567606231934 526.0 2.0 361.0 
648.00010179367 210125.0 NaN 1519.2705410821636 2.4419673948955367 525.0 2.0 362.0 
650.00010179367 210199.0 NaN 1516.1897127588518 1.8406227144529341 522.0 2.0 361.0 
652.00010179367 210155.0 NaN 1519.2358049432194 2.4414921921198323 523.0 2.0 362.0 
654.00010179367 210210.0 NaN 1525.2959251837 1.839978722587214 521.0 2.0 364.0 
656.00010179367 210198.0 NaN 1525.2959251837 2.441845481131914 519.0 2.0 364.0 
658.00010179367 210267.0 NaN 1525.3680694722789 1.8404246176889074 519.0 2.0 364.0 
660.00010179367 210244.0 NaN 1531.5457581830335 2.4417300384615057 517.0 2.0 366.0 
662.00010179367 210334.0 NaN 1534.5731462925849 1.84164775907335 516.0 2.0 367.0 
664.00010179367 210268.0 NaN 1534.570474281898 2.4421481929834896 514.0 2.0 367.0 
#####################################################################
# End of data export. Simulation finished at: 2019-03-08T03:20+0000 #
#####################################################################
