#####################################################################
# Alchemist log file - simulation started at: 2019-03-14T17:41+0000 #
#####################################################################
# seed = 6.0, bandwidth = 2.3713737056616552E7, propagationDelay = 10.0, baserange = 56.234132519034915
#
# The columns have the following meaning: 
# time neighbor_count[Sum] <value>@neighbor_count[Sum] packet_size[Mean] mean_delay[Mean] crowd[Sum] overcrowded[Sum] risk[Sum] 
0.0 NaN NaN NaN NaN NaN NaN NaN 
2.0013042135964882 NaN NaN 4988.0 NaN 1497.0 0.0 1497.0 
4.001304213596488 NaN NaN 4988.0 NaN 1497.0 0.0 1497.0 
6.001304213596488 NaN NaN 4988.0 NaN 1497.0 0.0 1497.0 
8.001304213596487 NaN NaN 4988.0 NaN 1497.0 0.0 1497.0 
10.001304213596487 NaN NaN 4988.0 NaN 1497.0 0.0 1497.0 
12.001304213596487 6166.0 NaN 4996.040080160321 0.9989185688728127 1497.0 0.0 1497.0 
14.001304213596487 6166.0 NaN 4995.527054108216 2.9989185688728126 1497.0 0.0 1497.0 
16.001304213596487 6166.0 NaN 4995.3400133600535 4.998918568872813 1497.0 0.0 1497.0 
18.001304213596487 6166.0 NaN 4995.3400133600535 6.998918568872813 1497.0 0.0 1497.0 
20.001304213596487 6166.0 NaN 4995.3480293921175 8.998918568872813 1497.0 0.0 1497.0 
22.001304213596487 6180.0 NaN 4997.039412157648 5.526449934583254 1497.0 0.0 1497.0 
24.001304213596487 6194.0 NaN 4994.324649298597 2.0203974786421828 1488.0 9.0 1488.0 
26.001304213596487 6194.0 NaN 4993.261189044756 4.020397478642183 1488.0 9.0 1488.0 
28.001304213596487 6194.0 NaN 4993.258517034068 6.020397478642183 1488.0 9.0 1488.0 
30.001304213596487 6194.0 NaN 4993.26920507682 8.020397478642183 1488.0 9.0 1488.0 
32.001304213596484 6190.0 NaN 4993.271877087508 9.99915515806537 1488.0 9.0 1488.0 
34.001304213596484 6240.0 NaN 4995.022044088177 1.0502537161573076 1475.0 22.0 1475.0 
36.001304213596484 6240.0 NaN 4994.196392785571 3.0502537161573073 1475.0 22.0 1475.0 
38.001304213596484 6240.0 NaN 4994.065464261857 5.050253716157307 1475.0 22.0 1475.0 
40.001304213596484 6240.0 NaN 4994.0547762191045 7.050253716157307 1475.0 22.0 1475.0 
42.001304213596484 6230.0 NaN 4994.0494321977285 9.021097957469445 1475.0 22.0 1475.0 
44.001304213596484 6242.0 NaN 4995.2785571142285 5.541858706996496 1474.0 23.0 1474.0 
46.001304213596484 6266.0 NaN 4993.739478957916 2.055254058343923 1473.0 24.0 1473.0 
48.001304213596484 6266.0 NaN 4992.961923847695 4.055254058343923 1473.0 24.0 1473.0 
50.001304213596484 6266.0 NaN 4992.940547762191 6.055254058343923 1473.0 24.0 1473.0 
52.001304213596484 6266.0 NaN 4992.940547762191 8.055254058343923 1474.0 23.0 1474.0 
54.001304213596484 6222.0 NaN 4992.969939879759 9.999204370505346 1475.0 22.0 1475.0 
56.001304213596484 6345.0 NaN 4994.372745490982 1.0741056171076497 1469.0 28.0 1469.0 
58.001304213596484 6345.0 NaN 4993.726118904476 3.0741056171076497 1469.0 28.0 1469.0 
60.001304213596484 6345.0 NaN 4993.629926519706 5.07410561710765 1469.0 28.0 1469.0 
62.001304213596484 6345.0 NaN 1525.3333333333337 7.07410561710765 812.0 25.0 341.0 
64.00130421359648 6305.0 NaN 1525.3199732798912 9.034132157583743 813.0 25.0 341.0 
66.00130421359648 6327.0 NaN 1525.6432865731454 5.510196393944037 737.0 27.0 339.0 
68.00130421359648 6393.0 NaN 1525.4054776219093 2.1103286947939033 641.0 27.0 339.0 
70.00130421359648 6393.0 NaN 1525.0821643286572 4.110328694793903 641.0 27.0 339.0 
72.00130421359648 6393.0 NaN 1525.0981963927848 6.110328694793903 641.0 27.0 339.0 
74.00130421359648 6393.0 NaN 1525.071476285906 8.110328694793903 641.0 27.0 339.0 
76.00130421359648 6271.0 NaN 1525.140948563794 10.000320517222589 639.0 28.0 338.0 
78.00130421359648 6384.0 NaN 1531.5457581830335 1.1619588749439906 571.0 35.0 333.0 
80.00130421359648 6384.0 NaN 1530.8911155644635 3.1619588749439904 571.0 35.0 333.0 
82.00130421359648 6384.0 NaN 1530.8537074148296 5.16195887494399 571.0 35.0 333.0 
84.00130421359648 6384.0 NaN 1533.926519706079 7.16195887494399 571.0 35.0 334.0 
86.00130421359648 6329.0 NaN 1533.9719438877753 9.073344368685614 572.0 34.0 335.0 
88.00130421359648 6298.0 NaN 1534.257849031397 5.552104856665462 556.0 36.0 333.0 
90.00130421359648 6330.0 NaN 1534.1696726786909 2.1261413956198187 536.0 45.0 324.0 
92.00130421359648 6330.0 NaN 1533.9772879091518 4.126141395619819 536.0 45.0 324.0 
94.00130421359648 6330.0 NaN 1533.9612558450242 6.126141395619818 536.0 45.0 324.0 
96.00130421359648 6330.0 NaN 1534.0093520374094 8.126141395619818 536.0 45.0 324.0 
98.00130421359648 6234.0 NaN 1537.0741482965911 10.000897316643513 536.0 45.0 325.0 
100.00130421359648 6323.0 NaN 1537.5257181028728 1.067779100209459 509.0 45.0 325.0 
102.00130421359648 6323.0 NaN 1537.092852371409 3.067779100209459 509.0 45.0 325.0 
104.00130421359648 6323.0 NaN 1537.0794923179697 5.067779100209459 509.0 45.0 325.0 
106.00130421359648 6323.0 NaN 1537.1382765531064 7.067779100209459 509.0 45.0 325.0 
108.00130421359648 6290.0 NaN 1537.0741482965911 9.028802382875382 508.0 45.0 325.0 
110.00130421359648 6299.0 NaN 1537.3092852371426 5.567835107577968 506.0 42.0 328.0 
112.00130421359648 6340.0 NaN 1540.2030728122909 2.1583892966395606 498.0 45.0 326.0 
114.00130421359648 6340.0 NaN 1540.032064128255 4.158389296639561 499.0 44.0 327.0 
116.00130421359648 6340.0 NaN 1540.0961923847701 6.158389296639561 497.0 46.0 325.0 
118.00130421359648 6340.0 NaN 1540.0534402137612 8.15838929663956 497.0 46.0 325.0 
120.00130421359648 6242.0 NaN 1540.0587842351363 10.000177877201823 497.0 46.0 325.0 
122.00130421359648 6388.0 NaN 1546.4181696726791 1.104416782867172 489.0 47.0 326.0 
124.00130421359648 6388.0 NaN 1546.1135604542426 3.104416782867172 489.0 47.0 326.0 
126.00130421359648 6388.0 NaN 1543.0995323981274 5.104416782867172 491.0 45.0 327.0 
128.00130421359648 6388.0 NaN 1543.0754843019363 7.1044167828671725 491.0 45.0 327.0 
130.00130421359648 6324.0 NaN 1543.083500334 9.053973722341116 491.0 45.0 327.0 
132.00130421359648 6320.0 NaN 1543.2758851035392 5.562792304765182 491.0 43.0 329.0 
134.00130421359648 6380.0 NaN 1543.246492985973 2.1397956663844027 492.0 41.0 331.0 
136.00130421359648 6380.0 NaN 1533.907815631264 4.139795666384402 491.0 41.0 328.0 
138.00130421359648 6380.0 NaN 1530.8216432865727 6.139795666384403 491.0 41.0 327.0 
140.00130421359648 6380.0 NaN 1530.8029392117548 8.139795666384403 491.0 41.0 327.0 
142.00130421359648 6272.0 NaN 1530.835003340012 10.000073199814796 490.0 41.0 327.0 
144.00130421359648 6422.0 NaN 1543.4041416165664 1.195885131204883 492.0 39.0 333.0 
146.00130421359648 6422.0 NaN 1543.056780227121 3.195885131204882 492.0 39.0 333.0 
148.00130421359648 6422.0 NaN 1539.9625918503668 5.195885131204882 492.0 39.0 332.0 
150.00130421359648 6422.0 NaN 1539.9358717434877 7.195885131204882 492.0 39.0 332.0 
152.00130421359648 6346.0 NaN 1543.0247160988636 9.105892076915877 492.0 39.0 333.0 
154.00130421359648 6306.0 NaN 1543.1583166332664 5.567952290384773 491.0 40.0 332.0 
156.00130421359648 6349.0 NaN 1543.2037408149638 2.1710003543924477 489.0 43.0 329.0 
158.00130421359648 6349.0 NaN 1540.0427521710092 4.171000354392448 489.0 43.0 328.0 
160.00130421359648 6349.0 NaN 1533.8944555778212 6.171000354392448 489.0 43.0 326.0 
162.00130421359648 6349.0 NaN 1533.8757515030065 8.171000354392447 488.0 44.0 325.0 
164.00130421359648 6236.0 NaN 1533.902471609888 10.000268817283555 488.0 44.0 325.0 
166.00130421359648 6353.0 NaN 1540.2965931863728 1.1476827143681934 488.0 45.0 326.0 
168.00130421359648 6353.0 NaN 1539.9946559786242 3.1476827143681936 488.0 45.0 326.0 
170.00130421359648 6353.0 NaN 1536.9458917835664 5.147682714368194 488.0 45.0 325.0 
172.00130421359648 6353.0 NaN 1533.8329993319974 7.147682714368194 488.0 45.0 324.0 
174.00130421359648 6279.0 NaN 1533.8356713426847 9.082532014037483 487.0 46.0 323.0 
176.00130421359648 6260.0 NaN 1537.039412157648 5.595930069846443 487.0 45.0 325.0 
178.00130421359648 6322.0 NaN 1540.0374081496338 2.2363106145085165 486.0 48.0 323.0 
180.00130421359648 6322.0 NaN 1539.9251837007364 4.236310614508516 486.0 48.0 323.0 
182.00130421359648 6322.0 NaN 1536.836339345357 6.2363106145085165 486.0 48.0 322.0 
184.00130421359648 6322.0 NaN 1539.9225116900454 8.236310614508517 486.0 48.0 323.0 
186.00130421359648 6173.0 NaN 1539.9893119572475 10.001245219609231 486.0 48.0 323.0 
188.00130421359648 6296.0 NaN 1543.3533734134933 1.1231218729919004 483.0 48.0 324.0 
190.00130421359648 6296.0 NaN 1540.0240480961909 3.1231218729919004 483.0 48.0 323.0 
192.00130421359648 6296.0 NaN 1533.8891115564454 5.1231218729919 482.0 48.0 321.0 
194.00130421359648 6296.0 NaN 1530.8376753507 7.1231218729919 482.0 48.0 320.0 
196.00130421359648 6232.0 NaN 1530.8643954575818 9.065238477309892 483.0 47.0 321.0 
198.00130421359648 6211.0 NaN 1534.097528390112 5.576965264651097 484.0 47.0 322.0 
200.00130421359648 6252.0 NaN 1537.0287241148972 2.200982968178904 484.0 47.0 323.0 
202.00130421359648 6252.0 NaN 1536.8897795591183 4.200982968178904 484.0 47.0 323.0 
204.00130421359648 6252.0 NaN 1536.8871075484299 6.200982968178904 483.0 47.0 323.0 
206.00130421359648 6252.0 NaN 1533.8329993319974 8.200982968178904 483.0 47.0 322.0 
208.00130421359648 6124.0 NaN 1533.8677354709425 9.999949686397407 482.0 47.0 322.0 
210.00130421359648 6224.0 NaN 1537.1890447561793 1.2557881449136754 482.0 44.0 326.0 
212.00130421359648 6224.0 NaN 1536.8897795591183 3.2557881449136756 482.0 44.0 326.0 
214.00130421359648 6224.0 NaN 1530.7468269873093 5.255788144913676 482.0 44.0 324.0 
216.00130421359648 6224.0 NaN 1527.695390781564 7.255788144913676 482.0 44.0 323.0 
218.00130421359648 6151.0 NaN 1527.692718770875 9.152400584240096 483.0 43.0 324.0 
220.00130421359648 6126.0 NaN 1530.8617234468936 5.549294710613928 481.0 45.0 323.0 
222.00130421359648 6178.0 NaN 1524.6252505010002 2.1452264718549237 480.0 47.0 319.0 
224.00130421359648 6178.0 NaN 1521.4268537074151 4.145226471854923 481.0 46.0 319.0 
226.00130421359648 6178.0 NaN 1527.5965263861062 6.145226471854924 480.0 47.0 320.0 
228.00130421359648 6178.0 NaN 1530.7227788911155 8.145226471854924 478.0 48.0 320.0 
230.00130421359648 6057.0 NaN 1530.7120908483637 9.999975558692705 479.0 47.0 321.0 
232.00130421359648 6147.0 NaN 1533.9879759519029 1.2300535704604718 486.0 36.0 333.0 
234.00130421359648 6147.0 NaN 1533.7528390113546 3.2300535704604716 486.0 36.0 333.0 
236.00130421359648 6147.0 NaN 1533.8009352037398 5.230053570460472 488.0 36.0 333.0 
238.00130421359648 6147.0 NaN 1533.784903139612 7.230053570460472 488.0 36.0 333.0 
240.00130421359648 6062.0 NaN 1527.6392785571152 9.129489611081905 485.0 36.0 331.0 
242.00130421359648 6021.0 NaN 1527.7862391449548 5.573953167054486 482.0 37.0 330.0 
244.00130421359648 6067.0 NaN 1524.6626586506359 2.210289668715659 482.0 38.0 328.0 
246.00130421359648 6067.0 NaN 1521.5016700066817 4.210289668715658 483.0 37.0 328.0 
248.00130421359648 6067.0 NaN 1521.4776219104883 6.210289668715659 483.0 37.0 328.0 
250.00130421359648 6067.0 NaN 1518.383433533736 8.210289668715658 482.0 37.0 327.0 
252.00130421359648 5971.0 NaN 1518.4208416833662 9.999945420570779 481.0 37.0 327.0 
254.00130421359648 6069.0 NaN 1518.6239144956576 1.224446089495196 479.0 40.0 324.0 
256.0013042135965 6069.0 NaN 1518.4529058116243 3.2244460894951956 479.0 40.0 324.0 
258.0013042135965 6069.0 NaN 1518.4315297261182 5.2244460894951965 479.0 40.0 324.0 
260.0013042135965 6069.0 NaN 1515.3507014028062 7.2244460894951965 478.0 40.0 323.0 
262.0013042135965 6004.0 NaN 1515.369405477621 9.12981233999386 478.0 40.0 323.0 
264.0013042135965 5979.0 NaN 1515.5297261189062 5.607489690820064 473.0 41.0 322.0 
266.0013042135965 6027.0 NaN 1521.6085504342004 2.287584431148776 472.0 44.0 321.0 
268.0013042135965 6027.0 NaN 1521.493653974618 4.287584431148776 471.0 44.0 321.0 
270.0013042135965 6027.0 NaN 1518.3780895123573 6.287584431148776 471.0 44.0 320.0 
272.0013042135965 6027.0 NaN 1518.3914495657998 8.287584431148776 471.0 44.0 320.0 
274.0013042135965 5888.0 NaN 1518.383433533736 10.001112532284507 471.0 44.0 320.0 
276.0013042135965 5987.0 NaN 1527.906479625918 1.199927965393982 476.0 41.0 326.0 
278.0013042135965 5987.0 NaN 1530.6960587842364 3.199927965393982 475.0 41.0 327.0 
280.0013042135965 5987.0 NaN 1533.7555110220453 5.199927965393982 474.0 41.0 328.0 
282.0013042135965 5987.0 NaN 1530.6693386773545 7.199927965393982 475.0 40.0 328.0 
284.0013042135965 5929.0 NaN 1530.677354709418 9.111129025752545 475.0 40.0 328.0 
286.0013042135965 5923.0 NaN 1533.9318637274544 5.600743992879965 475.0 38.0 331.0 
288.0013042135965 5990.0 NaN 1530.7869071476273 2.305744557880367 474.0 41.0 327.0 
290.0013042135965 5990.0 NaN 1530.6559786239156 4.305744557880366 474.0 41.0 327.0 
292.0013042135965 5990.0 NaN 1527.5858383433547 6.3057445578803675 474.0 41.0 326.0 
294.0013042135965 5990.0 NaN 1527.5885103540425 8.305744557880367 474.0 41.0 326.0 
296.0013042135965 5808.0 NaN 1527.644622578491 9.999894413713937 474.0 41.0 326.0 
298.0013042135965 5889.0 NaN 1534.046760187039 1.220315816337872 480.0 35.0 334.0 
300.0013042135965 5889.0 NaN 1533.7715430861729 3.2203158163378722 480.0 35.0 334.0 
302.0013042135965 5889.0 NaN 1533.763527054109 5.220315816337872 480.0 35.0 334.0 
304.0013042135965 5889.0 NaN 1530.7174348697388 7.220315816337872 480.0 35.0 333.0 
306.0013042135965 5835.0 NaN 1530.7254509018028 9.107264854923868 479.0 35.0 333.0 
308.0013042135965 5827.0 NaN 1533.9452237808937 5.643000251504772 475.0 35.0 334.0 
310.0013042135965 5866.0 NaN 1540.0106880427525 2.3380345173251236 473.0 38.0 333.0 
312.0013042135965 5866.0 NaN 1530.6880427521726 4.338034517325124 473.0 38.0 330.0 
314.0013042135965 5866.0 NaN 1527.5911823647273 6.3380345173251245 473.0 38.0 329.0 
316.0013042135965 5866.0 NaN 1527.6472945891792 8.338034517325125 473.0 38.0 329.0 
318.0013042135965 5747.0 NaN 1524.547762191048 10.001857538617392 470.0 38.0 328.0 
320.0013042135965 5835.0 NaN 1530.9659318637273 1.1713448924556047 476.0 35.0 333.0 
322.0013042135965 5835.0 NaN 1530.7334669338663 3.1713448924556045 476.0 35.0 333.0 
324.0013042135965 5835.0 NaN 1527.6526386105547 5.171344892455605 476.0 35.0 332.0 
326.0013042135965 5835.0 NaN 1530.7708750835 7.171344892455605 474.0 35.0 333.0 
328.0013042135965 5786.0 NaN 1530.7521710086817 9.093887777119951 473.0 35.0 333.0 
330.0013042135965 5774.0 NaN 1530.8670674682703 5.529328755157645 475.0 35.0 333.0 
332.0013042135965 5815.0 NaN 1536.8844355377428 2.128386651682073 472.0 38.0 332.0 
334.0013042135965 5815.0 NaN 1536.7695390781548 4.128386651682073 472.0 38.0 332.0 
336.0013042135965 5815.0 NaN 1527.5698062792271 6.128386651682073 470.0 38.0 329.0 
338.0013042135965 5815.0 NaN 1524.513026052103 8.128386651682073 469.0 38.0 328.0 
340.0013042135965 5755.0 NaN 1521.4455577822303 9.999726021046124 467.0 38.0 327.0 
342.0013042135965 5877.0 NaN 1524.825651302606 1.2258618113099204 473.0 35.0 331.0 
344.0013042135965 5877.0 NaN 1515.3907815631273 3.2258618113099207 473.0 35.0 328.0 
346.0013042135965 5877.0 NaN 1515.4549098196387 5.225861811309921 473.0 35.0 328.0 
348.0013042135965 5877.0 NaN 1518.4876419505667 7.225861811309921 473.0 35.0 329.0 
350.0013042135965 5822.0 NaN 1521.5551102204392 9.133562795963325 472.0 35.0 330.0 
352.0013042135965 5812.0 NaN 1521.6619906479636 5.5903231144359715 473.0 35.0 330.0 
354.0013042135965 5862.0 NaN 1521.5845023380089 2.2472175387445064 473.0 38.0 327.0 
356.0013042135965 5862.0 NaN 1521.4722778891112 4.247217538744506 473.0 38.0 327.0 
358.0013042135965 5862.0 NaN 1521.4589178356723 6.247217538744506 473.0 38.0 327.0 
360.0013042135965 5862.0 NaN 1521.4295257181025 8.247217538744506 473.0 38.0 327.0 
362.0013042135965 5753.0 NaN 1521.4134936539733 10.001445535794236 473.0 38.0 327.0 
364.0013042135965 5833.0 NaN 1524.758851035403 1.2058761162209763 479.0 35.0 331.0 
366.0013042135965 5833.0 NaN 1521.4402137608542 3.2058761162209763 477.0 35.0 330.0 
368.0013042135965 5833.0 NaN 1506.0921843687365 5.205876116220977 476.0 36.0 324.0 
370.0013042135965 5833.0 NaN 1506.0654642618567 7.205876116220977 476.0 36.0 324.0 
372.0013042135965 5780.0 NaN 1506.0440881763536 9.106810085157987 475.0 36.0 324.0 
374.0013042135965 5793.0 NaN 1509.2692050768192 5.583621675047032 477.0 38.0 323.0 
376.0013042135965 5849.0 NaN 1509.2478289913172 2.23332823906937 474.0 41.0 320.0 
378.0013042135965 5849.0 NaN 1506.0066800267193 4.23332823906937 474.0 41.0 319.0 
380.0013042135965 5849.0 NaN 1502.917835671343 6.23332823906937 474.0 41.0 318.0 
382.0013042135965 5849.0 NaN 1506.0227120908476 8.233328239069369 473.0 41.0 319.0 
384.0013042135965 5755.0 NaN 1506.0200400801612 9.999274859253727 473.0 41.0 319.0 
386.0013042135965 5867.0 NaN 1515.5804943219787 1.2701033439706735 468.0 49.0 314.0 
388.0013042135965 5867.0 NaN 1515.3400133600546 3.2701033439706735 470.0 47.0 316.0 
390.0013042135965 5867.0 NaN 1515.2919171676697 5.270103343970674 469.0 47.0 316.0 
392.0013042135965 5867.0 NaN 1509.1676686706737 7.270103343970674 466.0 48.0 313.0 
394.0013042135965 5817.0 NaN 1506.1135604542426 9.149762685983617 465.0 48.0 312.0 
396.0013042135965 5827.0 NaN 1515.529726118906 5.621464818997073 471.0 47.0 316.0 
398.0013042135965 5889.0 NaN 1518.4101536406151 2.307074459219175 465.0 56.0 308.0 
400.0013042135965 5889.0 NaN 1518.3460253841006 4.307074459219176 465.0 56.0 308.0 
402.0013042135965 5889.0 NaN 1503.011356045425 6.307074459219175 465.0 55.0 304.0 
404.0013042135965 5889.0 NaN 1506.1002004008008 8.307074459219175 465.0 55.0 305.0 
406.0013042135965 5779.0 NaN 1506.1135604542426 10.000685746341757 465.0 55.0 305.0 
408.0013042135965 5917.0 NaN 1518.6052104208425 1.236771664315762 483.0 40.0 324.0 
410.0013042135965 5917.0 NaN 1521.3894455577818 3.236771664315762 483.0 40.0 325.0 
412.0013042135965 5917.0 NaN 1521.4188376753516 5.236771664315762 483.0 39.0 326.0 
414.0013042135965 5917.0 NaN 1521.3921175684707 7.236771664315762 483.0 39.0 326.0 
416.0013042135965 5858.0 NaN 1521.4428857715434 9.124573747582902 481.0 39.0 326.0 
418.0013042135965 5843.0 NaN 1521.5390781563121 5.636014353945363 480.0 39.0 326.0 
420.0013042135965 5891.0 NaN 1524.5156980627914 2.3863807340825507 481.0 39.0 327.0 
422.0013042135965 5891.0 NaN 1515.2171008684031 4.386380734082551 481.0 39.0 324.0 
424.0013042135965 5891.0 NaN 1502.952571810288 6.38638073408255 481.0 38.0 321.0 
426.0013042135965 5891.0 NaN 1502.9819639278546 8.38638073408255 481.0 38.0 321.0 
428.0013042135965 5721.0 NaN 1502.995323981297 10.001491029975323 481.0 38.0 321.0 
430.0013042135965 5853.0 NaN 1515.4789579158307 1.3623146682899727 482.0 35.0 328.0 
432.0013042135965 5853.0 NaN 1512.2538410153636 3.3623146682899727 482.0 35.0 327.0 
434.0013042135965 5853.0 NaN 1512.2778891115556 5.362314668289973 481.0 35.0 327.0 
436.0013042135965 5853.0 NaN 1518.3941215764878 7.362314668289972 481.0 35.0 329.0 
438.0013042135965 5784.0 NaN 1521.469605878424 9.202401857284459 481.0 35.0 330.0 
440.0013042135965 5769.0 NaN 1521.5711422845698 5.551317203935488 484.0 35.0 330.0 
442.0013042135965 5827.0 NaN 1539.9144956579817 2.2498426714775257 488.0 38.0 333.0 
444.0013042135965 5827.0 NaN 1539.7728790915178 4.249842671477525 488.0 38.0 333.0 
446.0013042135965 5827.0 NaN 1530.589178356712 6.249842671477526 488.0 38.0 330.0 
448.0013042135965 5827.0 NaN 1533.659318637273 8.249842671477525 489.0 37.0 332.0 
450.0013042135965 5745.0 NaN 1533.6673346693365 10.004204021173914 487.0 37.0 332.0 
452.0013042135965 5872.0 NaN 1549.2611890447547 1.2529021151300865 494.0 34.0 340.0 
454.0013042135965 5872.0 NaN 1545.9372077488301 3.2529021151300865 493.0 35.0 338.0 
456.0013042135965 5872.0 NaN 1542.9311957247814 5.252902115130087 491.0 35.0 337.0 
458.0013042135965 5872.0 NaN 1542.9498997996002 7.2529021151300865 491.0 35.0 337.0 
460.0013042135965 5807.0 NaN 1542.928523714094 9.129660413767892 491.0 34.0 338.0 
462.0013042135965 5790.0 NaN 1549.2585170340699 5.57167236570924 493.0 35.0 339.0 
464.0013042135965 5841.0 NaN 1549.1035404141635 2.268640961847987 492.0 38.0 336.0 
466.0013042135965 5841.0 NaN 1539.8316633266545 4.268640961847987 488.0 38.0 333.0 
468.0013042135965 5841.0 NaN 1536.7775551102181 6.268640961847987 488.0 38.0 332.0 
470.0013042135965 5841.0 NaN 1536.7428189712755 8.268640961847987 487.0 38.0 332.0 
472.0013042135965 5720.0 NaN 1536.7828991315969 10.001393765583089 486.0 38.0 332.0 
474.0013042135965 5812.0 NaN 1536.9592518370089 1.146909368893513 491.0 36.0 334.0 
476.0013042135965 5812.0 NaN 1533.6806947227794 3.146909368893513 489.0 36.0 333.0 
478.0013042135965 5812.0 NaN 1524.4782899131606 5.146909368893513 487.0 36.0 330.0 
480.0013042135965 5812.0 NaN 1524.4408817635274 7.146909368893513 485.0 36.0 330.0 
482.0013042135965 5773.0 NaN 1524.4542418169665 9.086117520849314 483.0 37.0 329.0 
484.0013042135965 5777.0 NaN 1524.5584502338 5.61324118114801 482.0 35.0 331.0 
486.0013042135965 5822.0 NaN 1515.2892451569817 2.3262112556543872 481.0 37.0 326.0 
488.0013042135965 5822.0 NaN 1502.9579158316637 4.326211255654386 480.0 37.0 322.0 
490.0013042135965 5822.0 NaN 1496.7935871743477 6.326211255654386 479.0 37.0 320.0 
492.0013042135965 5822.0 NaN 1496.7989311957253 8.326211255654387 479.0 37.0 320.0 
494.0013042135965 5690.0 NaN 1490.6559786239154 10.001638257583139 478.0 37.0 318.0 
496.0013042135965 5782.0 NaN 1503.2251169004667 1.2964209947460323 481.0 34.0 325.0 
498.0013042135965 5782.0 NaN 1496.8496993987983 3.2964209947460312 481.0 34.0 323.0 
500.0013042135965 5782.0 NaN 1487.6259185036733 5.296420994746033 481.0 34.0 320.0 
502.0013042135965 5782.0 NaN 1490.6907147628576 7.296420994746032 481.0 34.0 321.0 
504.0013042135965 5729.0 NaN 1487.6125584502345 9.152550825288186 481.0 34.0 320.0 
506.0013042135965 5708.0 NaN 1493.9345357381437 5.555671642492035 485.0 34.0 322.0 
508.0013042135965 5751.0 NaN 1493.8704074816292 2.241030129589114 481.0 37.0 319.0 
510.0013042135965 5751.0 NaN 1490.6933867735465 4.241030129589114 481.0 37.0 318.0 
512.0013042135965 5751.0 NaN 1487.6312625250516 6.241030129589114 481.0 37.0 317.0 
514.0013042135965 5751.0 NaN 1487.5991983967929 8.241030129589113 481.0 37.0 317.0 
516.0013042135965 5660.0 NaN 1481.4909819639272 10.003114220747156 480.0 37.0 315.0 
518.0013042135965 5766.0 NaN 1487.802271209084 1.1851969798952358 479.0 35.0 319.0 
520.0013042135965 5766.0 NaN 1487.6526386105547 3.185196979895236 479.0 35.0 319.0 
522.0013042135965 5766.0 NaN 1475.3640614562455 5.1851969798952355 479.0 35.0 315.0 
524.0013042135965 5766.0 NaN 1469.2157648630605 7.185196979895236 479.0 35.0 313.0 
526.0013042135965 5714.0 NaN 1466.2124248496998 9.077356527487513 478.0 35.0 312.0 
528.0013042135965 5730.0 NaN 1475.4655978623907 5.545568226538758 475.0 39.0 311.0 
530.0013042135965 5790.0 NaN 1478.4822979291912 2.2087880186637836 468.0 43.0 308.0 
532.0013042135965 5790.0 NaN 1472.264529058117 4.2087880186637845 470.0 43.0 306.0 
534.0013042135965 5790.0 NaN 1466.0921843687368 6.208788018663784 469.0 43.0 304.0 
536.0013042135965 5790.0 NaN 1466.1215764863066 8.208788018663784 469.0 43.0 304.0 
538.0013042135965 5672.0 NaN 1466.1082164328648 10.002076901047612 470.0 43.0 304.0 
540.0013042135965 5795.0 NaN 1475.5991983967929 1.2440516338340688 479.0 36.0 314.0 
542.0013042135965 5795.0 NaN 1475.318637274548 3.244051633834069 479.0 36.0 314.0 
544.0013042135965 5795.0 NaN 1472.2297929191723 5.2440516338340695 478.0 36.0 313.0 
546.0013042135965 5795.0 NaN 1472.2565130260525 7.244051633834069 478.0 36.0 313.0 
548.0013042135965 5747.0 NaN 1478.3914495657987 9.141272868923016 478.0 36.0 315.0 
550.0013042135965 5739.0 NaN 1481.5177020708086 5.573073982690886 479.0 36.0 316.0 
552.0013042135965 5782.0 NaN 1481.5524382097533 2.24738854950598 481.0 38.0 314.0 
554.0013042135965 5782.0 NaN 1472.2511690046754 4.247388549505981 481.0 38.0 311.0 
556.0013042135965 5782.0 NaN 1466.1482965931855 6.247388549505981 478.0 38.0 309.0 
558.0013042135965 5782.0 NaN 1466.1910487641944 8.247388549505981 478.0 38.0 309.0 
560.0013042135965 5692.0 NaN 1469.2211088844358 10.001425057596188 478.0 38.0 310.0 
562.0013042135965 5825.0 NaN 1472.5076820307277 1.2057968204993734 484.0 36.0 313.0 
564.0013042135965 5825.0 NaN 1472.2084168336667 3.2057968204993728 483.0 36.0 313.0 
566.0013042135965 5825.0 NaN 1469.154308617235 5.205796820499373 481.0 36.0 312.0 
568.0013042135965 5825.0 NaN 1472.2458249832998 7.205796820499373 481.0 36.0 313.0 
570.0013042135965 5770.0 NaN 1472.1977287909156 9.124316369280036 481.0 36.0 313.0 
572.0013042135965 5791.0 NaN 1475.4308617234462 5.6109546400735955 483.0 36.0 314.0 
574.0013042135965 5870.0 NaN 1487.6793587174354 2.340295117392854 485.0 38.0 316.0 
576.0013042135965 5870.0 NaN 1484.5771543086178 4.340295117392854 484.0 38.0 315.0 
578.0013042135965 5870.0 NaN 1481.4562458249827 6.340295117392855 483.0 38.0 314.0 
580.0013042135965 5870.0 NaN 1478.3727454909817 8.340295117392856 483.0 38.0 313.0 
582.0013042135965 5707.0 NaN 1484.5584502338004 10.002442519443157 482.0 38.0 315.0 
584.0013042135965 5848.0 NaN 1494.0200400801614 1.356712247812004 490.0 36.0 320.0 
586.0013042135965 5848.0 NaN 1493.7875751503 3.3567122478120037 488.0 36.0 320.0 
588.0013042135965 5848.0 NaN 1490.6693386773545 5.356712247812004 488.0 36.0 319.0 
590.0013042135965 5848.0 NaN 1490.6693386773545 7.356712247812004 488.0 36.0 319.0 
592.0013042135965 5766.0 NaN 1490.7307949231806 9.176852841121459 487.0 36.0 319.0 
594.0013042135965 5752.0 NaN 1500.0053440213758 5.619300125224444 492.0 36.0 322.0 
596.0013042135965 5821.0 NaN 1503.0674682698727 2.376054307496519 491.0 38.0 321.0 
598.0013042135965 5821.0 NaN 1496.8149632598536 4.376054307496518 491.0 38.0 319.0 
600.0013042135965 5821.0 NaN 1493.7154308617244 6.376054307496519 489.0 38.0 318.0 
602.0013042135965 5821.0 NaN 1493.7261189044746 8.376054307496519 489.0 38.0 318.0 
604.0013042135965 5651.0 NaN 1490.6693386773545 9.999676569835378 489.0 38.0 317.0 
606.0013042135965 5818.0 NaN 1497.1195724782906 1.3163650351984602 494.0 37.0 320.0 
608.0013042135965 5818.0 NaN 1506.1536406145635 3.3163650351984604 496.0 37.0 323.0 
610.0013042135965 5818.0 NaN 1496.8523714094847 5.31636503519846 495.0 37.0 320.0 
612.0013042135965 5818.0 NaN 1496.8977955911816 7.31636503519846 493.0 37.0 320.0 
614.0013042135965 5750.0 NaN 1496.8737474949908 9.169283564728373 493.0 37.0 320.0 
616.0013042135965 5789.0 NaN 1496.9913159652635 5.572981638445042 490.0 40.0 317.0 
618.0013042135965 5898.0 NaN 1503.083500334001 2.295489131908856 491.0 42.0 317.0 
620.0013042135965 5898.0 NaN 1502.9445557782242 4.295489131908856 491.0 42.0 317.0 
622.0013042135965 5898.0 NaN 1503.0060120240473 6.295489131908855 491.0 42.0 317.0 
624.0013042135965 5898.0 NaN 1502.9632598530386 8.295489131908855 492.0 42.0 317.0 
626.0013042135965 5754.0 NaN 1506.1322645290575 10.00176702219855 486.0 42.0 318.0 
628.0013042135965 5988.0 NaN 1527.9251837007355 1.3133759342811975 490.0 37.0 330.0 
630.0013042135965 5988.0 NaN 1521.453573814294 3.3133759342811975 489.0 37.0 328.0 
632.0013042135965 5988.0 NaN 1515.3266533066123 5.313375934281198 488.0 37.0 326.0 
634.0013042135965 5988.0 NaN 1512.2351369405467 7.313375934281197 486.0 37.0 325.0 
636.0013042135965 5906.0 NaN 1515.4094856379436 9.170620941907906 486.0 37.0 326.0 
638.0013042135965 5909.0 NaN 1518.5490981963922 5.601643661136821 486.0 36.0 328.0 
640.0013042135965 6002.0 NaN 1524.7080828323303 2.3439012513067197 483.0 39.0 327.0 
642.0013042135965 6002.0 NaN 1521.5016700066808 4.34390125130672 482.0 39.0 326.0 
644.0013042135965 6002.0 NaN 1518.4288577154302 6.343901251306719 483.0 39.0 325.0 
646.0013042135965 6002.0 NaN 1518.4448897795605 8.34390125130672 484.0 39.0 325.0 
648.0013042135965 5802.0 NaN 1518.4261857047436 10.004006581057101 482.0 39.0 325.0 
650.0013042135965 5986.0 NaN 1524.7080828323303 1.3028703812951072 481.0 43.0 323.0 
652.0013042135965 5986.0 NaN 1518.4074816299271 3.3028703812951075 481.0 43.0 321.0 
654.0013042135965 5986.0 NaN 1518.3861055444215 5.302870381295108 480.0 43.0 321.0 
656.0013042135965 5986.0 NaN 1527.7060788243164 7.302870381295108 480.0 44.0 323.0 
658.0013042135965 5898.0 NaN 1527.7301269205082 9.16022589992496 479.0 44.0 323.0 
660.0013042135965 5877.0 NaN 1533.899799599199 5.610845318283068 479.0 42.0 327.0 
662.0013042135965 5943.0 NaN 1530.7548430193729 2.307609014257783 472.0 46.0 322.0 
664.0013042135965 5943.0 NaN 1527.6098864395453 4.307609014257783 472.0 46.0 321.0 
#####################################################################
# End of data export. Simulation finished at: 2019-03-14T17:47+0000 #
#####################################################################
