#####################################################################
# Alchemist log file - simulation started at: 2019-03-07T13:19+0000 #
#####################################################################
# seed = 5.0, bandwidth = 74989.42093324558, propagationDelay = 0.1, baserange = 316.2277660168379
#
# The columns have the following meaning: 
# time neighbor_count[Sum] <value>@neighbor_count[Sum] packet_size[Mean] mean_delay[Mean] crowd[Sum] overcrowded[Sum] risk[Sum] 
0.0 NaN NaN NaN NaN NaN NaN NaN 
2.000101793669918 50651.0 NaN 4994.394121576486 0.4936818161984323 1497.0 0.0 1497.0 
4.000101793669918 51288.0 NaN 4993.608550434202 0.499351134555626 1495.0 2.0 1495.0 
6.000101793669918 51288.0 NaN 4994.364729458918 0.4993191602303393 1496.0 1.0 1496.0 
8.000101793669918 51288.0 NaN 4994.541082164329 0.4993501613300471 1494.0 3.0 1494.0 
10.000101793669918 51290.0 NaN 4995.730126920507 0.499310212804314 1494.0 3.0 1494.0 
12.000101793669918 51290.0 NaN 4995.436205744823 0.4993002232993092 1496.0 1.0 1496.0 
14.000101793669918 51294.0 NaN 4994.268537074148 0.4993579622283234 1495.0 2.0 1495.0 
16.00010179366992 51298.0 NaN 4994.530394121576 0.49936674703957545 1495.0 2.0 1495.0 
18.00010179366992 51302.0 NaN 4995.53507014028 0.4996484741848807 1495.0 2.0 1495.0 
20.00010179366992 51340.0 NaN 4995.503006012024 0.5030916645829397 1495.0 2.0 1495.0 
22.00010179366992 51344.0 NaN 4994.810955243821 0.5070514496073795 1495.0 2.0 1495.0 
24.00010179366992 51342.0 NaN 4994.805611222445 0.5031852272569205 1494.0 3.0 1494.0 
26.00010179366992 51339.0 NaN 4994.447561790247 0.4999569470569704 1495.0 2.0 1495.0 
28.00010179366992 51341.0 NaN 4995.12625250501 0.5002511249411504 1495.0 2.0 1495.0 
30.00010179366992 51384.0 NaN 4996.301937207749 0.5017157034511324 1496.0 1.0 1496.0 
32.00010179366992 51394.0 NaN 4994.728122912492 0.5032442142094443 1495.0 2.0 1495.0 
34.00010179366992 51399.0 NaN 4994.297929191716 0.5020184705596628 1495.0 2.0 1495.0 
36.00010179366992 51407.0 NaN 4995.000668002672 0.5033803857863746 1494.0 3.0 1494.0 
38.00010179366992 51369.0 NaN 4994.909819639279 0.5006303928123281 1494.0 3.0 1494.0 
40.00010179366992 51408.0 NaN 4995.804943219773 0.5048078104374796 1496.0 1.0 1496.0 
42.00010179366992 51407.0 NaN 4995.540414161656 0.509468311602948 1495.0 2.0 1495.0 
44.00010179366992 51403.0 NaN 4994.247160988644 0.5041839896346547 1495.0 2.0 1495.0 
46.00010179366992 51400.0 NaN 4994.506346025384 0.5039011393008618 1495.0 2.0 1495.0 
48.00010179366992 51369.0 NaN 4995.4255177020705 0.5018191128226995 1495.0 2.0 1495.0 
50.00010179366992 51383.0 NaN 4995.478957915831 0.5039936952965309 1495.0 2.0 1495.0 
52.00010179366992 51389.0 NaN 4994.826987307949 0.5068587013685647 1495.0 2.0 1495.0 
54.00010179366992 51394.0 NaN 4994.864395457582 0.5023238326618036 1495.0 2.0 1495.0 
56.00010179366992 51398.0 NaN 4994.506346025384 0.5044352738280521 1495.0 2.0 1495.0 
58.00010179366992 51383.0 NaN 4995.080828323314 0.5038827612477096 1495.0 2.0 1495.0 
60.00010179366992 51393.0 NaN 4993.060788243153 0.5063141404447433 1494.0 2.0 1494.0 
62.00010179366992 51452.0 NaN 1522.6052104208425 0.5035349545317822 793.0 1.0 364.0 
64.00010179366993 51465.0 NaN 1522.506346025382 0.502564224393528 629.0 5.0 360.0 
66.00010179366993 51458.0 NaN 1522.431529726118 0.5024464932142538 580.0 6.0 359.0 
68.00010179366993 51486.0 NaN 1525.5791583166338 0.5004997528787634 549.0 9.0 357.0 
70.00010179366993 51505.0 NaN 1525.5524382097542 0.5005289336248375 529.0 9.0 357.0 
72.00010179366993 51503.0 NaN 1525.547094188376 0.5019721913257428 526.0 9.0 357.0 
74.00010179366993 51491.0 NaN 1528.6145624582489 0.5015983995759193 526.0 7.0 360.0 
76.00010179366993 51473.0 NaN 1528.649298597194 0.5012016356331602 528.0 4.0 363.0 
78.00010179366993 51478.0 NaN 1531.6499665998663 0.5010354444550378 528.0 3.0 365.0 
80.00010179366993 51500.0 NaN 1534.810955243821 0.5037057686336665 527.0 3.0 366.0 
82.00010179366993 51523.0 NaN 1534.717434869739 0.5035840411675644 526.0 3.0 366.0 
84.00010179366993 51521.0 NaN 1534.7201068804272 0.5044690141079226 526.0 3.0 366.0 
86.00010179366993 51520.0 NaN 1534.7441549766183 0.5001133559911768 524.0 3.0 366.0 
88.00010179366993 51543.0 NaN 1534.810955243821 0.5000765295597936 523.0 3.0 366.0 
90.00010179366993 51555.0 NaN 1534.8243152972614 0.5007472066231212 524.0 3.0 366.0 
92.00010179366993 51576.0 NaN 1534.7014028056094 0.5018800331341671 525.0 3.0 366.0 
94.00010179366993 51570.0 NaN 1534.6265865063453 0.5020087937421023 525.0 3.0 366.0 
96.00010179366993 51557.0 NaN 1534.6666666666663 0.5023693600088422 525.0 3.0 366.0 
98.00010179366993 51545.0 NaN 1537.7902471609907 0.49999888272194043 524.0 4.0 366.0 
100.00010179366993 51556.0 NaN 1537.8757515030065 0.502352350056817 525.0 3.0 367.0 
102.00010179366993 51554.0 NaN 1537.808951235806 0.5044000162340546 524.0 3.0 367.0 
104.00010179366993 51549.0 NaN 1540.8871075484299 0.5014798146145741 524.0 3.0 368.0 
106.00010179366993 51535.0 NaN 1540.8710754843003 0.4996578592290545 524.0 3.0 368.0 
108.00010179366993 51561.0 NaN 1540.8790915163659 0.5013049749267406 523.0 4.0 367.0 
110.00010179366993 51579.0 NaN 1540.8764195056788 0.503725575232473 524.0 3.0 368.0 
112.00010179366993 51554.0 NaN 1540.8710754843003 0.5023676882556412 525.0 3.0 368.0 
114.00010179366993 51560.0 NaN 1540.7935871743482 0.5000100020447026 525.0 3.0 368.0 
116.00010179366993 51551.0 NaN 1540.8630594522367 0.5009126819179771 526.0 3.0 368.0 
118.00010179366993 51557.0 NaN 1540.8550434201725 0.5024872193895068 527.0 3.0 368.0 
120.00010179366993 51571.0 NaN 1540.9138276553094 0.5017919685179131 527.0 3.0 368.0 
122.00010179366993 51549.0 NaN 1540.865731462927 0.5013818681237003 527.0 3.0 368.0 
124.00010179366993 51573.0 NaN 1543.9198396793574 0.5028852416831167 527.0 3.0 369.0 
126.00010179366993 51559.0 NaN 1543.9438877755515 0.5043077854198916 527.0 3.0 369.0 
128.00010179366993 51555.0 NaN 1540.8737474949912 0.5050163836095367 527.0 3.0 368.0 
130.00010179366993 51551.0 NaN 1540.8790915163659 0.5021459286457208 526.0 3.0 368.0 
132.00010179366993 51513.0 NaN 1537.7982631930543 0.5030862595584981 525.0 3.0 367.0 
134.00010179366993 51495.0 NaN 1537.7555110220453 0.5002529448658771 526.0 3.0 367.0 
136.00010179366993 51490.0 NaN 1537.849031396127 0.5015827470527048 520.0 6.0 364.0 
138.00010179366993 51476.0 NaN 1534.7521710086821 0.5021275012907751 521.0 4.0 365.0 
140.00010179366993 51473.0 NaN 1534.8510354041423 0.5010426349176624 523.0 3.0 366.0 
142.00010179366993 51464.0 NaN 1537.814295257182 0.5028239730841287 519.0 6.0 364.0 
144.00010179366993 51447.0 NaN 1537.827655310621 0.5011915741033828 520.0 4.0 366.0 
146.00010179366993 51436.0 NaN 1534.7227788911155 0.5022858535856769 519.0 4.0 365.0 
148.00010179366993 51422.0 NaN 1534.7682030728117 0.5033211133490633 515.0 8.0 361.0 
150.00010179366993 51419.0 NaN 1534.7441549766186 0.5027366455968014 518.0 5.0 364.0 
152.00010179366993 51410.0 NaN 1528.6012024048089 0.5034657478970552 520.0 3.0 364.0 
154.00010179366993 51352.0 NaN 1528.6225784903152 0.5015776842104608 514.0 6.0 361.0 
156.00010179366993 51356.0 NaN 1531.7354709418819 0.5022429862854433 514.0 5.0 363.0 
158.00010179366993 51353.0 NaN 1534.8162992651974 0.5025596864176796 519.0 4.0 365.0 
160.00010179366993 51365.0 NaN 1534.8029392117546 0.5052600746626468 516.0 7.0 362.0 
162.00010179366993 51306.0 NaN 1534.7361389445546 0.5038082607248106 518.0 5.0 364.0 
164.00010179366993 51216.0 NaN 1537.814295257182 0.5003564285548672 520.0 3.0 367.0 
166.00010179366993 51208.0 NaN 1537.8036072144273 0.5001452517319291 517.0 6.0 364.0 
168.00010179366993 51216.0 NaN 1531.7381429525728 0.5026366935867496 518.0 5.0 363.0 
170.00010179366993 51207.0 NaN 1534.8724114896452 0.5090414672424676 518.0 5.0 364.0 
172.00010179366993 51139.0 NaN 1534.789579158318 0.5052074006884123 519.0 3.0 366.0 
174.00010179366993 51068.0 NaN 1537.774215096861 0.49940843108768174 515.0 5.0 365.0 
176.00010179366993 51068.0 NaN 1534.7361389445546 0.5002371440401275 511.0 7.0 362.0 
178.00010179366993 51073.0 NaN 1534.6987307949248 0.5032479024273552 514.0 5.0 364.0 
180.00010179366993 51068.0 NaN 1534.7494989979975 0.5064786119453208 513.0 8.0 361.0 
182.00010179366993 51019.0 NaN 1534.7494989979975 0.5021097175909326 516.0 5.0 364.0 
184.00010179366993 50981.0 NaN 1537.8329993319976 0.5017286625978482 513.0 8.0 362.0 
186.00010179366993 50977.0 NaN 1534.7949231796908 0.5041606297244293 515.0 5.0 364.0 
188.00010179366993 50964.0 NaN 1537.8490313961272 0.5025574181815328 511.0 8.0 362.0 
190.00010179366993 50961.0 NaN 1531.6526386105547 0.5032402476196495 514.0 5.0 363.0 
192.00010179366993 50941.0 NaN 1531.6526386105547 0.5015721322164483 511.0 8.0 360.0 
194.00010179366993 50912.0 NaN 1534.6185704742816 0.4997891784068878 514.0 5.0 364.0 
196.00010179366993 50916.0 NaN 1534.7895791583182 0.5021959299560494 511.0 8.0 361.0 
198.00010179366993 50903.0 NaN 1537.8597194388792 0.5030241548983801 515.0 5.0 365.0 
200.00010179366993 50906.0 NaN 1541.0607882431545 0.5054733434079345 513.0 8.0 363.0 
202.00010179366993 50866.0 NaN 1540.9378757515026 0.501220007793059 516.0 5.0 366.0 
204.00010179366993 50841.0 NaN 1540.9271877087517 0.5005154402905704 512.0 8.0 363.0 
206.00010179366993 50850.0 NaN 1537.8276553106207 0.5032516833590848 515.0 5.0 365.0 
208.00010179366993 50826.0 NaN 1534.8243152972614 0.5021580782311595 514.0 7.0 362.0 
210.00010179366993 50808.0 NaN 1531.6820307281246 0.5033790823201901 518.0 4.0 364.0 
212.00010179366993 50770.0 NaN 1531.6633266533067 0.5014731240652482 512.0 7.0 361.0 
214.00010179366993 50769.0 NaN 1534.6960587842364 0.5043475024315701 515.0 4.0 365.0 
216.00010179366993 50767.0 NaN 1528.627922511691 0.5095368488993048 512.0 7.0 360.0 
218.00010179366993 50729.0 NaN 1525.5738142952569 0.5021729318638897 512.0 5.0 361.0 
220.00010179366993 50711.0 NaN 1528.627922511691 0.5055374648078346 510.0 6.0 361.0 
222.00010179366993 50685.0 NaN 1531.6098864395453 0.5082733603800087 511.0 5.0 363.0 
224.00010179366993 50662.0 NaN 1531.6366065464274 0.5032792068753575 510.0 7.0 361.0 
226.00010179366993 50667.0 NaN 1528.5584502338 0.5078392056562672 511.0 5.0 362.0 
228.00010179366993 50650.0 NaN 1534.8296593186362 0.5102376509602814 510.0 6.0 363.0 
230.00010179366993 50637.0 NaN 1534.7762191048755 0.5096478908738611 511.0 4.0 365.0 
232.00010179366993 50653.0 NaN 1537.9104876419517 0.5050480751882664 509.0 6.0 364.0 
234.00010179366993 50667.0 NaN 1537.7768871075482 0.5059378932886092 512.0 4.0 366.0 
236.00010179366993 50660.0 NaN 1534.7922511690058 0.5110208516088496 509.0 6.0 363.0 
238.00010179366993 50624.0 NaN 1531.6793587174361 0.5033888462152435 512.0 4.0 364.0 
240.00010179366993 50598.0 NaN 1531.700734802939 0.5060143207208417 509.0 6.0 362.0 
242.00010179366993 50580.0 NaN 1531.6018704074818 0.505071485312773 511.0 4.0 364.0 
244.00010179366993 50584.0 NaN 1531.5938543754182 0.5001454128606839 511.0 6.0 362.0 
246.00010179366993 50604.0 NaN 1531.5991983967936 0.5016246766237615 513.0 4.0 364.0 
248.00010179366993 50588.0 NaN 1528.582498329993 0.5015353535697404 509.0 6.0 361.0 
250.00010179366993 50592.0 NaN 1531.6633266533067 0.5032127345597177 508.0 6.0 362.0 
252.00010179366993 50578.0 NaN 1528.582498329993 0.5032731493165074 507.0 8.0 359.0 
254.00010179366993 50557.0 NaN 1534.6853707414816 0.5007680159055097 509.0 6.0 363.0 
256.00010179366996 50557.0 NaN 1531.6766867067456 0.5018509077733266 509.0 8.0 360.0 
258.00010179366996 50529.0 NaN 1531.580494321979 0.5031311917807423 511.0 6.0 362.0 
260.00010179366996 50533.0 NaN 1531.7221108884453 0.5047746644497222 509.0 8.0 360.0 
262.00010179366996 50505.0 NaN 1525.4989979959907 0.506350712763864 511.0 6.0 360.0 
264.00010179366996 50453.0 NaN 1537.7955911823635 0.5044467268982357 509.0 8.0 362.0 
266.00010179366996 50445.0 NaN 1537.7982631930543 0.5087957698647816 509.0 6.0 364.0 
268.00010179366996 50416.0 NaN 1534.7655310621246 0.5052417851800398 507.0 8.0 361.0 
270.00010179366996 50421.0 NaN 1534.7922511690058 0.5086489590577651 507.0 6.0 363.0 
272.00010179366996 50402.0 NaN 1534.7281229124908 0.5139615005604924 506.0 8.0 361.0 
274.00010179366996 50264.0 NaN 1534.6826987307936 0.5024480714098041 508.0 6.0 363.0 
276.00010179366996 50269.0 NaN 1540.8871075484294 0.5037659136828473 503.0 8.0 363.0 
278.00010179366996 50234.0 NaN 1540.8203072812273 0.5046012372362441 509.0 6.0 365.0 
280.00010179366996 50212.0 NaN 1537.8223112892456 0.5069876949926867 510.0 5.0 365.0 
282.00010179366996 50164.0 NaN 1534.7227788911157 0.507416800628228 511.0 3.0 366.0 
284.00010179366996 50102.0 NaN 1534.7067468269884 0.5043904399832704 509.0 6.0 363.0 
286.00010179366996 50074.0 NaN 1534.7120908483637 0.5033485294055428 510.0 4.0 365.0 
288.00010179366996 50043.0 NaN 1534.6880427521726 0.5038262879333614 508.0 6.0 363.0 
290.00010179366996 50011.0 NaN 1534.6720106880432 0.5067934045974066 510.0 4.0 365.0 
292.00010179366996 49985.0 NaN 1534.6319305277207 0.5091489423687302 508.0 6.0 363.0 
294.00010179366996 49928.0 NaN 1531.5965263861065 0.5028087698550783 509.0 4.0 364.0 
296.00010179366996 49916.0 NaN 1531.6205744823 0.505276990783137 507.0 6.0 362.0 
298.00010179366996 49847.0 NaN 1540.9058116232454 0.5059582363430485 508.0 4.0 367.0 
300.00010179366996 49798.0 NaN 1540.8684034736157 0.5091072571284031 505.0 6.0 365.0 
302.00010179366996 49765.0 NaN 1531.6152304609209 0.5077687478035597 506.0 4.0 364.0 
304.00010179366996 49755.0 NaN 1534.7361389445546 0.5026446208148951 501.0 8.0 361.0 
306.00010179366996 49754.0 NaN 1537.9024716098882 0.5059074302821405 505.0 5.0 365.0 
308.00010179366996 49669.0 NaN 1537.7929191716755 0.5064342143706768 508.0 2.0 368.0 
310.00010179366996 49640.0 NaN 1537.7982631930543 0.5104192192866894 506.0 2.0 368.0 
312.00010179366996 49597.0 NaN 1531.6419505678 0.5095687066065169 505.0 3.0 365.0 
314.00010179366996 49563.0 NaN 1531.6339345357364 0.503224629694022 502.0 4.0 364.0 
316.00010179366996 49544.0 NaN 1531.655310621243 0.5061388585493733 506.0 2.0 366.0 
318.00010179366996 49484.0 NaN 1531.6713426853726 0.506045422502696 507.0 1.0 367.0 
320.00010179366996 49475.0 NaN 1531.5911823647275 0.5051660414345472 506.0 2.0 366.0 
322.00010179366996 49441.0 NaN 1534.6826987307938 0.5041827913814427 506.0 2.0 367.0 
324.00010179366996 49404.0 NaN 1531.72478289913 0.5038817504793254 504.0 3.0 365.0 
326.00010179366996 49397.0 NaN 1531.7354709418819 0.5070278760636945 502.0 5.0 363.0 
328.00010179366996 49322.0 NaN 1531.695390781564 0.5045946133042913 503.0 5.0 363.0 
330.00010179366996 49306.0 NaN 1531.7114228456908 0.505856669088735 506.0 2.0 366.0 
332.00010179366996 49297.0 NaN 1531.6873747495001 0.5063939502374527 506.0 2.0 366.0 
334.00010179366996 49313.0 NaN 1528.633266533066 0.5050954189642264 503.0 4.0 363.0 
336.00010179366996 49294.0 NaN 1528.595858383434 0.5103386245205676 503.0 5.0 362.0 
338.00010179366996 49248.0 NaN 1528.5771543086184 0.5068582997651013 503.0 6.0 361.0 
340.00010179366996 49250.0 NaN 1525.5177020708093 0.5051819650613852 505.0 4.0 362.0 
342.00010179366996 49240.0 NaN 1525.6112224448912 0.5070149814409783 506.0 3.0 363.0 
344.00010179366996 49223.0 NaN 1528.58784235137 0.5073935190801366 507.0 2.0 365.0 
346.00010179366996 49201.0 NaN 1519.4442217768878 0.5075610693084841 505.0 4.0 360.0 
348.00010179366996 49185.0 NaN 1519.4068136272545 0.5034675794810106 504.0 2.0 362.0 
350.00010179366996 49208.0 NaN 1525.4749498998 0.5057046684852226 506.0 4.0 362.0 
352.00010179366996 49195.0 NaN 1522.3780895123575 0.5070647313560134 506.0 3.0 362.0 
354.00010179366996 49152.0 NaN 1519.3453573814277 0.5033093129944186 510.0 4.0 360.0 
356.00010179366996 49122.0 NaN 1519.4281897127576 0.5031363648490597 509.0 2.0 362.0 
358.00010179366996 49096.0 NaN 1519.3987975951911 0.505371288039714 508.0 4.0 360.0 
360.00010179366996 49121.0 NaN 1516.2832331329332 0.5113256838322136 507.0 3.0 360.0 
362.00010179366996 49081.0 NaN 1513.2104208416824 0.5066154875876834 510.0 4.0 358.0 
364.00010179366996 49085.0 NaN 1507.0754843019365 0.5044480089855133 509.0 2.0 358.0 
366.00010179366996 49063.0 NaN 1503.9812959251828 0.5044742973813252 510.0 4.0 355.0 
368.00010179366996 49054.0 NaN 1500.825651302606 0.5034147336276183 509.0 3.0 355.0 
370.00010179366996 49068.0 NaN 1507.0594522378092 0.5085970308938034 511.0 4.0 356.0 
372.00010179366996 49044.0 NaN 1506.989979959919 0.5067526861011762 509.0 2.0 358.0 
374.00010179366996 49001.0 NaN 1503.9812959251826 0.5076553172492818 513.0 4.0 355.0 
376.00010179366996 48958.0 NaN 1500.9058116232457 0.506095554712921 511.0 3.0 355.0 
378.00010179366996 48948.0 NaN 1497.8410153640625 0.5049737473189859 512.0 4.0 353.0 
380.00010179366996 48960.0 NaN 1500.8897795591183 0.5090345792392188 509.0 2.0 356.0 
382.00010179366996 48948.0 NaN 1497.8303273213091 0.5086804372657682 513.0 4.0 353.0 
384.00010179366996 48924.0 NaN 1497.8356713426847 0.5052591627489431 513.0 2.0 355.0 
386.00010179366996 48870.0 NaN 1494.7628590514364 0.5037239121857833 514.0 3.0 353.0 
388.00010179366996 48849.0 NaN 1494.8189712758845 0.5027619648689381 509.0 3.0 353.0 
390.00010179366996 48845.0 NaN 1497.923847695391 0.5060865428851663 511.0 3.0 354.0 
392.00010179366996 48846.0 NaN 1500.9699398797604 0.5094537057340558 513.0 3.0 355.0 
394.00010179366996 48810.0 NaN 1507.1609886439546 0.5102483744195466 516.0 3.0 357.0 
396.00010179366996 48752.0 NaN 1507.1903807615242 0.5031787588812237 516.0 2.0 358.0 
398.00010179366996 48743.0 NaN 1503.9545758183024 0.504363459180725 520.0 2.0 357.0 
400.00010179366996 48740.0 NaN 1500.9378757515024 0.5077280823650244 514.0 6.0 352.0 
402.00010179366996 48738.0 NaN 1504.0534402137616 0.5107372102004137 513.0 5.0 354.0 
404.00010179366996 48709.0 NaN 1507.0541082164334 0.5142026629776737 511.0 9.0 351.0 
406.00010179366996 48640.0 NaN 1513.2451569806274 0.5123911180384112 512.0 8.0 354.0 
408.00010179366996 48616.0 NaN 1522.458249833 0.5033224382375091 516.0 9.0 356.0 
410.00010179366996 48622.0 NaN 1525.6192384769547 0.5054689494857977 519.0 5.0 361.0 
412.00010179366996 48623.0 NaN 1522.4635938543752 0.5040342283977738 524.0 4.0 361.0 
414.00010179366996 48653.0 NaN 1519.2812291249174 0.5049615718868108 524.0 5.0 359.0 
416.00010179366996 48620.0 NaN 1510.0360721442898 0.5023841454459852 521.0 7.0 354.0 
418.00010179366996 48620.0 NaN 1513.1756847027384 0.5026160215304188 519.0 6.0 356.0 
420.00010179366996 48635.0 NaN 1507.0647962591843 0.5055469773882488 521.0 5.0 355.0 
422.00010179366996 48619.0 NaN 1494.6960587842357 0.5055024440289215 513.0 6.0 350.0 
424.00010179366996 48600.0 NaN 1503.981295925183 0.5044787650254223 515.0 3.0 356.0 
426.00010179366996 48565.0 NaN 1507.0621242484972 0.5026598426691957 516.0 4.0 356.0 
428.00010179366996 48579.0 NaN 1507.0647962591847 0.5014014483609576 513.0 6.0 354.0 
430.00010179366996 48595.0 NaN 1500.8951235804943 0.5032599806236577 514.0 5.0 353.0 
432.00010179366996 48589.0 NaN 1519.3239812959262 0.5058919918440077 523.0 1.0 363.0 
434.00010179366996 48571.0 NaN 1519.2331329325305 0.5029486706237558 524.0 3.0 361.0 
436.00010179366996 48549.0 NaN 1519.2064128256523 0.5037164450788278 522.0 5.0 359.0 
438.00010179366996 48560.0 NaN 1522.3807615230455 0.5036538152849608 521.0 5.0 360.0 
440.00010179366996 48565.0 NaN 1525.458917835672 0.506672563520779 521.0 5.0 361.0 
442.00010179366996 48582.0 NaN 1537.763527054109 0.5126998578896442 522.0 5.0 365.0 
444.00010179366996 48546.0 NaN 1534.6265865063453 0.5038051870075928 524.0 5.0 364.0 
446.00010179366996 48484.0 NaN 1540.793587174348 0.5024989127327407 527.0 5.0 366.0 
448.00010179366996 48495.0 NaN 1540.8042752171 0.5033922499404905 527.0 5.0 366.0 
450.00010179366996 48492.0 NaN 1543.8931195724788 0.5098556540466528 526.0 5.0 367.0 
452.00010179366996 48485.0 NaN 1543.901135604543 0.5157688772046617 524.0 5.0 367.0 
454.00010179366996 48489.0 NaN 1543.8904475617912 0.504888740243882 525.0 5.0 367.0 
456.00010179366996 48456.0 NaN 1546.9739478957908 0.5075629746474531 523.0 5.0 368.0 
458.00010179366996 48442.0 NaN 1546.9979959919822 0.5046972943209462 522.0 5.0 368.0 
460.00010179366996 48424.0 NaN 1547.0380761523063 0.5044575388097251 521.0 5.0 368.0 
462.00010179366996 48433.0 NaN 1546.8563794255183 0.5047719884863893 521.0 5.0 368.0 
464.00010179366996 48455.0 NaN 1543.7942551770207 0.5060828923166956 523.0 5.0 367.0 
466.00010179366996 48405.0 NaN 1543.8236472945903 0.5026718001293367 520.0 5.0 367.0 
468.00010179366996 48399.0 NaN 1540.8229792919183 0.5036566477177324 519.0 5.0 366.0 
470.00010179366996 48387.0 NaN 1540.849699398798 0.5030013087979117 517.0 5.0 366.0 
472.00010179366996 48387.0 NaN 1534.6639946559792 0.5020840852044349 516.0 5.0 364.0 
474.00010179366996 48423.0 NaN 1528.5878423513702 0.5042826019883329 515.0 5.0 362.0 
476.00010179366996 48388.0 NaN 1528.4996659986634 0.5056605951794846 517.0 5.0 362.0 
478.00010179366996 48399.0 NaN 1528.537074148297 0.5022365794038106 515.0 5.0 362.0 
480.00010179366996 48400.0 NaN 1525.4428857715436 0.5031633454043801 515.0 5.0 361.0 
482.00010179366996 48420.0 NaN 1522.404809619237 0.5033019943470197 513.0 5.0 360.0 
484.00010179366996 48487.0 NaN 1507.0514362057454 0.5039258386262098 510.0 5.0 355.0 
486.00010179366996 48465.0 NaN 1500.8363393453565 0.5038194023707483 508.0 4.0 354.0 
488.00010179366996 48467.0 NaN 1497.7581830327333 0.5035715396260942 510.0 3.0 354.0 
490.00010179366996 48478.0 NaN 1497.8223112892456 0.5041296628643378 511.0 3.0 354.0 
492.00010179366996 48491.0 NaN 1491.68470273881 0.5062896364506638 510.0 4.0 351.0 
494.00010179366996 48521.0 NaN 1485.5016700066808 0.5084370004440842 503.0 5.0 348.0 
496.00010179366996 48512.0 NaN 1485.504342017367 0.5098551566540352 501.0 6.0 347.0 
498.00010179366996 48552.0 NaN 1485.4535738142943 0.5107872812499578 501.0 6.0 347.0 
500.00010179366996 48542.0 NaN 1488.5824983299926 0.507256612644269 500.0 7.0 347.0 
502.00010179366996 48561.0 NaN 1491.6740146960576 0.5066501093905683 501.0 7.0 348.0 
504.00010179366996 48580.0 NaN 1485.5417501670001 0.5062973379991554 502.0 6.0 347.0 
506.00010179366996 48585.0 NaN 1494.70140280561 0.5036416800754595 504.0 6.0 350.0 
508.00010179366996 48631.0 NaN 1497.81696726787 0.5049542942549773 506.0 6.0 351.0 
510.00010179366996 48627.0 NaN 1494.8510354041425 0.5086341173417874 503.0 6.0 350.0 
512.00010179367 48635.0 NaN 1488.66800267201 0.5126465323627301 501.0 7.0 347.0 
514.00010179367 48670.0 NaN 1482.4395457581825 0.5107270487663591 500.0 7.0 345.0 
516.00010179367 48663.0 NaN 1479.3934535738153 0.5056862950136585 500.0 6.0 345.0 
518.00010179367 48689.0 NaN 1476.3179692718757 0.5057032465562094 505.0 3.0 347.0 
520.00010179367 48676.0 NaN 1464.1336005344012 0.5077113821476295 504.0 3.0 343.0 
522.00010179367 48688.0 NaN 1460.9325317301273 0.5077755927447506 500.0 4.0 341.0 
524.00010179367 48692.0 NaN 1464.0507682030725 0.5082392342896838 499.0 4.0 342.0 
526.00010179367 48675.0 NaN 1460.9939879759525 0.5072566668426524 500.0 4.0 341.0 
528.00010179367 48684.0 NaN 1464.138944555779 0.5045437351445865 502.0 4.0 342.0 
530.00010179367 48687.0 NaN 1451.8129592518364 0.5057082154571173 502.0 3.0 339.0 
532.00010179367 48692.0 NaN 1451.826319305276 0.5084884585328624 501.0 4.0 338.0 
534.00010179367 48696.0 NaN 1451.8102872411487 0.5124976445509416 501.0 4.0 338.0 
536.00010179367 48672.0 NaN 1454.9311957247821 0.5075012895465255 499.0 4.0 339.0 
538.00010179367 48659.0 NaN 1460.9993319973275 0.5045599613919874 501.0 4.0 341.0 
540.00010179367 48681.0 NaN 1461.0688042752179 0.5071990226264226 501.0 4.0 341.0 
542.00010179367 48687.0 NaN 1467.2224448897805 0.5092535017854809 501.0 5.0 342.0 
544.00010179367 48699.0 NaN 1470.223112892452 0.5069615488546834 501.0 5.0 343.0 
546.00010179367 48688.0 NaN 1467.150300601202 0.5104047917766142 503.0 5.0 342.0 
548.00010179367 48696.0 NaN 1467.1957247828996 0.5040494796190291 503.0 5.0 342.0 
550.00010179367 48696.0 NaN 1464.1148964595855 0.5058654349306275 501.0 6.0 340.0 
552.00010179367 48700.0 NaN 1464.0855043420177 0.5086043234849272 501.0 6.0 340.0 
554.00010179367 48693.0 NaN 1467.1209084836344 0.5090827079396946 502.0 6.0 341.0 
556.00010179367 48675.0 NaN 1457.9318637274546 0.5080484711425238 499.0 6.0 338.0 
558.00010179367 48631.0 NaN 1454.8510354041416 0.5028251667669188 497.0 7.0 336.0 
560.00010179367 48696.0 NaN 1454.8216432865727 0.5049886050582425 495.0 7.0 336.0 
562.00010179367 48771.0 NaN 1457.8009352037407 0.507302566901277 498.0 5.0 339.0 
564.00010179367 48782.0 NaN 1460.9565798263181 0.5115361509926684 500.0 5.0 340.0 
566.00010179367 48760.0 NaN 1454.8376753507011 0.5059055112592336 498.0 6.0 337.0 
568.00010179367 48754.0 NaN 1461.0501002004003 0.5043497480212414 501.0 5.0 340.0 
570.00010179367 48807.0 NaN 1467.0888443553774 0.5078756533340898 504.0 4.0 343.0 
572.00010179367 48859.0 NaN 1473.2505010020038 0.5145600722764972 504.0 4.0 345.0 
574.00010179367 48840.0 NaN 1476.3500334001337 0.5133176944510465 502.0 4.0 346.0 
576.00010179367 48816.0 NaN 1473.3226452905815 0.5094111851919422 503.0 4.0 345.0 
578.00010179367 48787.0 NaN 1470.2097528390104 0.505455596098844 504.0 4.0 344.0 
580.00010179367 48820.0 NaN 1470.2097528390104 0.5052285881044833 505.0 4.0 344.0 
582.00010179367 48856.0 NaN 1473.2665330661328 0.5067696929176104 508.0 4.0 345.0 
584.00010179367 48851.0 NaN 1476.3714094856375 0.5073058754292054 514.0 4.0 346.0 
586.00010179367 48848.0 NaN 1473.2317969271883 0.5069106922590344 516.0 4.0 345.0 
588.00010179367 48824.0 NaN 1476.3420173680697 0.5097228377333498 516.0 4.0 346.0 
590.00010179367 48851.0 NaN 1482.4529058116234 0.5090114604358937 519.0 4.0 348.0 
592.00010179367 48842.0 NaN 1482.418169672679 0.5052846652407035 520.0 4.0 348.0 
594.00010179367 48851.0 NaN 1485.5096860387446 0.504680674284653 521.0 4.0 349.0 
596.00010179367 48836.0 NaN 1485.600534402137 0.5065734918648539 521.0 4.0 349.0 
598.00010179367 48821.0 NaN 1488.6653306613223 0.5068834679049402 520.0 4.0 350.0 
600.00010179367 48832.0 NaN 1491.7354709418832 0.507252250769199 522.0 4.0 351.0 
602.00010179367 48864.0 NaN 1488.6065464261853 0.5092472798512743 521.0 4.0 350.0 
604.00010179367 48848.0 NaN 1500.9432197728797 0.508501336227642 525.0 4.0 354.0 
606.00010179367 48840.0 NaN 1497.905143620574 0.5075787147560022 522.0 4.0 353.0 
608.00010179367 48867.0 NaN 1504.0267201068807 0.5072424654187988 524.0 4.0 355.0 
610.00010179367 48857.0 NaN 1504.002672010689 0.5074778994190482 524.0 4.0 355.0 
612.00010179367 48836.0 NaN 1503.938543754174 0.5049055227841456 523.0 4.0 355.0 
614.00010179367 48816.0 NaN 1503.9786239144967 0.5017777484626198 522.0 4.0 355.0 
616.00010179367 48835.0 NaN 1504.0133600534393 0.5045556065507891 520.0 4.0 355.0 
618.00010179367 48872.0 NaN 1507.0968603874426 0.5079095153089797 519.0 4.0 356.0 
620.00010179367 48870.0 NaN 1519.3346693386782 0.510540478955663 521.0 4.0 360.0 
622.00010179367 48860.0 NaN 1519.305277221109 0.5094896376609674 520.0 4.0 360.0 
624.00010179367 48796.0 NaN 1519.3426853707424 0.5091014677446529 520.0 4.0 360.0 
626.00010179367 48805.0 NaN 1519.3720774883093 0.5059306642348304 520.0 4.0 360.0 
628.00010179367 48813.0 NaN 1522.452905811624 0.5071039343260135 520.0 4.0 361.0 
630.00010179367 48812.0 NaN 1519.4148296593182 0.5088879293874274 523.0 4.0 360.0 
632.00010179367 48775.0 NaN 1528.6573146292576 0.5079612801753481 523.0 5.0 362.0 
634.00010179367 48716.0 NaN 1525.5925183700729 0.5016207523250604 527.0 4.0 362.0 
636.00010179367 48734.0 NaN 1525.5604542418175 0.5046701552191287 528.0 4.0 362.0 
638.00010179367 48752.0 NaN 1522.5090180360728 0.5079646398101977 529.0 4.0 361.0 
640.00010179367 48764.0 NaN 1516.3633934535728 0.5087812269636571 523.0 4.0 359.0 
642.00010179367 48737.0 NaN 1513.2772211088836 0.5081781226919264 519.0 4.0 358.0 
644.00010179367 48689.0 NaN 1516.3473613894453 0.5048919257794758 519.0 4.0 359.0 
646.00010179367 48711.0 NaN 1516.3446893787566 0.5048632679927203 518.0 4.0 359.0 
648.00010179367 48721.0 NaN 1516.3019372077483 0.5063146690728748 516.0 4.0 359.0 
650.00010179367 48714.0 NaN 1513.2558450233805 0.5119365732624329 517.0 4.0 358.0 
652.00010179367 48697.0 NaN 1525.5043420173668 0.5160955840019193 518.0 4.0 362.0 
654.00010179367 48628.0 NaN 1525.5497661990637 0.5112501523335271 516.0 4.0 362.0 
656.00010179367 48630.0 NaN 1525.4989979959907 0.5059006046022407 515.0 4.0 362.0 
658.00010179367 48653.0 NaN 1525.5791583166342 0.5070333702286596 514.0 4.0 362.0 
660.00010179367 48661.0 NaN 1534.7842351369395 0.5056391840958413 508.0 4.0 365.0 
662.00010179367 48697.0 NaN 1537.7715430861729 0.5076176466744118 509.0 4.0 366.0 
664.00010179367 48690.0 NaN 1537.8410153640625 0.5077534958194528 514.0 4.0 366.0 
#####################################################################
# End of data export. Simulation finished at: 2019-03-07T13:38+0000 #
#####################################################################
