#####################################################################
# Alchemist log file - simulation started at: 2019-03-19T03:40+0000 #
#####################################################################
# seed = 9.0, bandwidth = 4216.965034285822, propagationDelay = 0.1, baserange = 100.0
#
# The columns have the following meaning: 
# time neighbor_count[Sum] <value>@neighbor_count[Sum] packet_size[Mean] mean_delay[Mean] crowd[Sum] overcrowded[Sum] risk[Sum] 
0.0 NaN NaN NaN NaN NaN NaN NaN 
2.000093926604463 3468.0 NaN 4988.77755511022 0.20907150034577457 1497.0 0.0 1497.0 
4.000179874945212 13126.0 NaN 4996.12291249165 1.1886514590217212 1497.0 0.0 1497.0 
6.0001798749452115 13128.0 NaN 4995.294589178357 1.1910897566470844 1494.0 3.0 1494.0 
8.000197502943825 13128.0 NaN 4994.423513694055 1.1906110972662844 1491.0 6.0 1491.0 
10.000337445961424 13128.0 NaN 4994.396793587174 1.1904430839723397 1494.0 3.0 1494.0 
12.000337445961424 13128.0 NaN 4993.9559118236475 1.1890423883058248 1491.0 6.0 1491.0 
14.000337445961424 13130.0 NaN 4994.207080828323 1.1910092919392814 1488.0 9.0 1488.0 
16.000197502943827 13130.0 NaN 4994.0013360053445 1.1917344638787857 1486.0 11.0 1486.0 
18.000337445961424 13143.0 NaN 4993.865063460254 1.193384162348732 1484.0 13.0 1484.0 
20.000337445961424 13155.0 NaN 4994.0521042084165 1.1959116168971158 1484.0 13.0 1484.0 
22.000197502943827 13160.0 NaN 4993.686038744155 1.2027270049211423 1485.0 12.0 1485.0 
24.000337445961424 13163.0 NaN 4993.9692718770875 1.206810112837375 1483.0 14.0 1483.0 
26.000337445961424 13172.0 NaN 4993.859719438878 1.2114442628750082 1483.0 14.0 1483.0 
28.000337445961424 13186.0 NaN 4993.672678690715 1.2168107737691707 1483.0 14.0 1483.0 
30.000337445961424 13202.0 NaN 4994.0066800267205 1.2236874325858362 1484.0 13.0 1484.0 
32.00033744596142 13215.0 NaN 4993.576486305945 1.229356407548437 1484.0 13.0 1484.0 
34.00033744596142 13224.0 NaN 4993.894455577823 1.2355118885911753 1484.0 13.0 1484.0 
36.00033744596142 13227.0 NaN 4993.937207748831 1.2449254103847376 1484.0 13.0 1484.0 
38.00033744596142 13245.0 NaN 4993.648630594523 1.2534999627083458 1483.0 14.0 1483.0 
40.00033744596142 13275.0 NaN 4993.865063460254 1.2641952880263734 1482.0 15.0 1482.0 
42.00033744596142 13286.0 NaN 4993.653974615899 1.2796880437625617 1482.0 15.0 1482.0 
44.00033744596142 13298.0 NaN 4993.795591182365 1.2972303066964448 1481.0 16.0 1481.0 
46.00033744596142 13311.0 NaN 4993.803607214429 1.290332734252696 1480.0 17.0 1480.0 
48.00033744596142 13329.0 NaN 4993.70741482966 1.2852423358342968 1480.0 17.0 1480.0 
50.00033744596142 13355.0 NaN 4993.841015364062 1.2982961993729394 1482.0 15.0 1482.0 
52.00033744596142 13381.0 NaN 4993.629926519706 1.3208868490838563 1483.0 14.0 1483.0 
54.00033744596142 13382.0 NaN 4993.905143620575 1.3449251739126298 1483.0 14.0 1483.0 
56.00033744596142 13392.0 NaN 4993.771543086173 1.3618277691048177 1482.0 15.0 1482.0 
58.00033744596142 13414.0 NaN 4993.718102872412 1.3617578347590522 1480.0 17.0 1480.0 
60.00033744596142 13442.0 NaN 4993.854375417502 1.3709603559388315 1481.0 16.0 1481.0 
62.00010726660018 13460.0 NaN 1522.6880427521724 1.0400280236435602 785.0 10.0 355.0 
64.00010726660018 13464.0 NaN 1522.2952571810276 0.9918525069223993 641.0 11.0 354.0 
66.00010726660017 13474.0 NaN 1522.2551770207092 1.0224185929343592 569.0 17.0 348.0 
68.00010726660017 13485.0 NaN 1522.2471609886452 1.0175793410801421 539.0 17.0 348.0 
70.00010726660017 13496.0 NaN 1522.1937207748822 0.9653985736831875 519.0 17.0 348.0 
72.00010726660017 13518.0 NaN 1522.1670006680026 0.9696990662386034 516.0 14.0 351.0 
74.00010726660017 13535.0 NaN 1525.2130928523725 0.9914799732960712 509.0 19.0 347.0 
76.00010726660017 13541.0 NaN 1528.2805611222457 1.016505595208055 510.0 19.0 348.0 
78.00010726660017 13544.0 NaN 1531.3747494989998 1.0052421693791898 512.0 18.0 350.0 
80.00010726660017 13565.0 NaN 1531.372077488309 0.9790834862776516 511.0 19.0 349.0 
82.00010726660017 13567.0 NaN 1531.35871743487 0.9877650801469274 509.0 20.0 348.0 
84.00010726660017 13560.0 NaN 1534.4448897795608 1.0192071402273934 507.0 21.0 348.0 
86.00010726660017 13555.0 NaN 1534.4235136940545 1.034124979636707 502.0 21.0 348.0 
88.00010726660017 13542.0 NaN 1534.4021376085516 1.0021564363932975 504.0 21.0 348.0 
90.00010726660017 13533.0 NaN 1534.3914495657998 1.0062446833186085 504.0 21.0 348.0 
92.00010726660017 13525.0 NaN 1534.4048096192366 1.0128465599079055 503.0 21.0 348.0 
94.00010726660017 13518.0 NaN 1534.4208416833662 1.0492140449698986 499.0 25.0 344.0 
96.00010726660017 13519.0 NaN 1534.4101536406151 1.0722838855761776 500.0 24.0 345.0 
98.00010726660017 13522.0 NaN 1534.4074816299274 1.1095521066110754 499.0 24.0 345.0 
100.00010726660017 13527.0 NaN 1534.396793587173 1.1089073209490372 503.0 21.0 348.0 
102.00010726660017 13532.0 NaN 1537.4802939211754 1.1287355374535628 503.0 21.0 349.0 
104.00010726660017 13524.0 NaN 1537.4909819639272 1.131109185478369 505.0 20.0 350.0 
106.00010726660017 13506.0 NaN 1537.5096860387453 1.0862375543971585 505.0 20.0 350.0 
108.00010726660017 13521.0 NaN 1537.4909819639272 1.1174958248476452 504.0 20.0 350.0 
110.00010726660017 13517.0 NaN 1540.6359385437547 1.070121411161544 506.0 18.0 353.0 
112.00010726660017 13529.0 NaN 1540.6065464261849 1.1046376506913875 503.0 21.0 350.0 
114.00010726660017 13528.0 NaN 1540.6038744154996 1.1024005978394167 506.0 19.0 352.0 
116.00010726660017 13535.0 NaN 1543.6633266533067 1.078650435567589 508.0 18.0 354.0 
118.00010726660017 13543.0 NaN 1549.8463593854362 1.0534841777377126 508.0 19.0 355.0 
120.00010726660017 13551.0 NaN 1549.7822311289244 0.9837670302788475 505.0 22.0 352.0 
122.00010726660017 13555.0 NaN 1549.7955911823633 1.0216920144049793 509.0 19.0 355.0 
124.00010726660017 13557.0 NaN 1549.7181028724115 1.007947631620473 509.0 19.0 355.0 
126.00010726660017 13549.0 NaN 1546.706746826988 0.9818077992523451 512.0 16.0 357.0 
128.00010726660017 13563.0 NaN 1546.6720106880427 1.0150004659086804 512.0 16.0 357.0 
130.00010726660017 13580.0 NaN 1546.6506346025365 1.052950999546447 512.0 16.0 357.0 
132.00010726660017 13594.0 NaN 1543.5564462257846 1.078572630951577 512.0 16.0 356.0 
134.00010726660017 13584.0 NaN 1540.4916499666 1.0706073144019077 511.0 16.0 355.0 
136.00010726660017 13615.0 NaN 1543.5511022044093 1.0188360860951786 507.0 16.0 356.0 
138.00010726660017 13629.0 NaN 1543.5885103540425 1.0459795689719502 505.0 17.0 355.0 
140.00010726660017 13642.0 NaN 1543.5831663326637 1.0567101595962138 507.0 17.0 355.0 
142.00010726660017 13637.0 NaN 1540.5237140948548 1.0476622376907412 502.0 21.0 350.0 
144.00010726660017 13621.0 NaN 1540.4969939879754 1.0500922164442577 503.0 18.0 353.0 
146.00010726660017 13620.0 NaN 1543.6713426853726 1.0498340228791072 500.0 20.0 352.0 
148.00010726660017 13623.0 NaN 1543.6419505678 1.0419519018285812 501.0 19.0 353.0 
150.00010726660017 13625.0 NaN 1537.4802939211754 0.9964199137580794 496.0 24.0 346.0 
152.00010726660017 13615.0 NaN 1537.5043420173668 0.9872501008624022 494.0 25.0 345.0 
154.00010726660017 13584.0 NaN 1537.4989979959905 0.9884579717879136 494.0 26.0 344.0 
156.00010726660017 13561.0 NaN 1534.4235136940545 0.9863458401187449 498.0 25.0 344.0 
158.00010726660017 13565.0 NaN 1534.4181696726791 0.9931299330656566 493.0 24.0 345.0 
160.00010726660017 13588.0 NaN 1534.4154976619911 1.01223391431436 495.0 22.0 347.0 
162.00010726660017 13591.0 NaN 1534.4154976619911 1.0442541531750476 500.0 17.0 352.0 
164.00010726660017 13569.0 NaN 1540.5664662658637 1.0527075851956036 496.0 22.0 349.0 
166.00010726660017 13544.0 NaN 1540.627922511691 1.0672070911156477 498.0 21.0 350.0 
168.00010726660017 13535.0 NaN 1540.6199064796272 1.0887224577522894 499.0 20.0 351.0 
170.00010726660017 13559.0 NaN 1543.6713426853726 1.1030840047718296 505.0 16.0 356.0 
172.00010726660017 13558.0 NaN 1543.6659986639938 1.139607230698991 505.0 16.0 356.0 
174.00010726660017 13534.0 NaN 1537.4989979959905 1.1491476228589776 505.0 15.0 355.0 
176.00010726660017 13519.0 NaN 1537.5203740814973 1.0782356484371016 502.0 18.0 352.0 
178.00010726660017 13502.0 NaN 1537.4989979959905 1.079044868627524 500.0 21.0 349.0 
180.00010726660017 13513.0 NaN 1534.3593854375429 1.0649262820675247 502.0 20.0 349.0 
182.00010726660017 13518.0 NaN 1534.3861055444208 1.0862139547666492 501.0 21.0 348.0 
184.00010726660017 13484.0 NaN 1531.2678690714756 1.0885416594916162 499.0 22.0 346.0 
186.00010726660017 13455.0 NaN 1531.4148296593182 1.039204016017414 500.0 19.0 349.0 
188.00010726660017 13439.0 NaN 1528.267201068803 1.0581201223452092 493.0 25.0 342.0 
190.00010726660017 13449.0 NaN 1528.2725450901817 0.9961984621305806 494.0 25.0 342.0 
192.00010726660017 13463.0 NaN 1531.3533734134935 0.9982724506927444 492.0 25.0 343.0 
194.00010726660017 13446.0 NaN 1528.2297929191727 1.0085612069706913 492.0 25.0 342.0 
196.00010726660017 13422.0 NaN 1531.2999331997335 1.0100598947548083 492.0 25.0 343.0 
198.00010726660017 13426.0 NaN 1531.315965263861 1.0222440706661493 491.0 26.0 342.0 
200.00010726660017 13428.0 NaN 1534.4288577154302 1.0432363619372065 493.0 26.0 343.0 
202.00010726660017 13414.0 NaN 1537.5070140280548 1.0676123681516452 490.0 29.0 341.0 
204.00010726660017 13419.0 NaN 1537.5070140280548 1.097233278516104 489.0 29.0 341.0 
206.00010726660017 13416.0 NaN 1534.4742818971272 1.1329122585171632 488.0 29.0 340.0 
208.00010726660017 13405.0 NaN 1537.4829659318634 1.170701566680528 487.0 29.0 341.0 
210.00010726660017 13392.0 NaN 1537.4589178356725 1.0963904862577403 486.0 29.0 341.0 
212.00010726660017 13392.0 NaN 1537.4134936539729 1.0871127665361473 488.0 28.0 342.0 
214.00010726660017 13392.0 NaN 1531.29191716767 1.1333764776212791 489.0 28.0 340.0 
216.00010726660017 13367.0 NaN 1534.3834335337363 1.1702144054892132 488.0 26.0 343.0 
218.00010726660017 13362.0 NaN 1534.3273213092848 1.2165671216518934 493.0 22.0 347.0 
220.00010726660017 13364.0 NaN 1537.4268537074154 1.2716300271537426 494.0 22.0 348.0 
222.00010726660017 13360.0 NaN 1534.3193052772206 1.3127691807478148 495.0 22.0 347.0 
224.00010726660017 13352.0 NaN 1534.3193052772208 1.3441026281595112 493.0 22.0 347.0 
226.00010726660017 13340.0 NaN 1534.3460253841001 1.382553079840733 494.0 22.0 347.0 
228.00010726660017 13305.0 NaN 1534.297929191718 1.3650320315483302 492.0 22.0 347.0 
230.00010726660017 13287.0 NaN 1534.354041416164 1.367469490162821 491.0 22.0 347.0 
232.00010726660017 13267.0 NaN 1537.4642618570456 1.2107653507580174 490.0 22.0 348.0 
234.00010726660017 13288.0 NaN 1537.456245824982 1.1966299155792748 490.0 23.0 347.0 
236.00010726660017 13282.0 NaN 1537.4776219104883 1.1479982394420003 489.0 24.0 346.0 
238.00010726660017 13259.0 NaN 1537.4696058784243 1.1210424862887312 489.0 24.0 346.0 
240.00010726660017 13253.0 NaN 1528.1950567802273 1.1165331993328114 490.0 24.0 343.0 
242.00010726660017 13243.0 NaN 1528.2030728122909 1.1429462303252789 491.0 24.0 343.0 
244.00010726660017 13228.0 NaN 1528.2137608550452 1.1564952310485095 489.0 25.0 342.0 
246.00010726660017 13223.0 NaN 1528.2538410153636 1.1424192649443965 489.0 25.0 342.0 
248.00010726660017 13201.0 NaN 1528.2297929191727 1.1451792894284083 489.0 25.0 342.0 
250.00010726660017 13188.0 NaN 1531.2839011356027 1.1813758034220423 488.0 25.0 343.0 
252.00010726660017 13180.0 NaN 1531.2571810287245 1.1738152072713182 489.0 25.0 343.0 
254.00010726660017 13180.0 NaN 1531.2945891783547 1.1841248980921948 490.0 25.0 343.0 
256.00010726660014 13208.0 NaN 1528.2164328657302 1.2183392476655934 488.0 25.0 342.0 
258.0001072666002 13183.0 NaN 1528.1923847695389 1.237951739839121 489.0 25.0 342.0 
260.0001072666002 13171.0 NaN 1528.2110888443544 1.257483423315336 491.0 24.0 343.0 
262.0001072666002 13150.0 NaN 1528.2004008016027 1.235010936816782 495.0 20.0 347.0 
264.0001072666002 13161.0 NaN 1531.2732130928543 1.2286096880297455 493.0 21.0 347.0 
266.0001072666002 13171.0 NaN 1534.2845691382756 1.2323002208708977 490.0 23.0 346.0 
268.0001072666002 13155.0 NaN 1531.2010688042753 1.1595694892797912 491.0 22.0 346.0 
270.0001072666002 13147.0 NaN 1528.1763527054095 1.1711202817252098 490.0 22.0 345.0 
272.0001072666002 13119.0 NaN 1531.2144288577156 1.1968460987390737 486.0 27.0 341.0 
274.0001072666002 13104.0 NaN 1534.2952571810274 1.2038606262972986 492.0 23.0 346.0 
276.0001072666002 13115.0 NaN 1537.4268537074156 1.191361271716034 491.0 24.0 346.0 
278.0001072666002 13107.0 NaN 1537.3707414829637 1.1794047109162584 490.0 24.0 346.0 
280.0001072666002 13095.0 NaN 1537.4081496326 1.1894013704375823 489.0 25.0 345.0 
282.0001072666002 13081.0 NaN 1537.3653974615909 1.2298337506496535 485.0 29.0 341.0 
284.0001072666002 13056.0 NaN 1537.384101536407 1.2470135795491855 485.0 29.0 341.0 
286.0001072666002 13069.0 NaN 1537.384101536407 1.2786102458062827 484.0 29.0 341.0 
288.0001072666002 13055.0 NaN 1534.3086172344704 1.3143553177847207 483.0 29.0 340.0 
290.0001072666002 13045.0 NaN 1534.3193052772206 1.3664965010594012 484.0 28.0 341.0 
292.0001072666002 13016.0 NaN 1531.3079492317975 1.3933542745872434 482.0 28.0 340.0 
294.0001072666002 12977.0 NaN 1531.2705410821636 1.3682569544436645 482.0 27.0 341.0 
296.0001072666002 12988.0 NaN 1531.2865731462912 1.3163192164993864 482.0 27.0 341.0 
298.0001072666002 12966.0 NaN 1534.3861055444208 1.2693367142511562 482.0 27.0 342.0 
300.0001072666002 12957.0 NaN 1534.3246492985977 1.2527423768118635 481.0 27.0 342.0 
302.0001072666002 12944.0 NaN 1528.2057448229793 1.2738100252021571 479.0 27.0 340.0 
304.0001072666002 12907.0 NaN 1531.2785571142272 1.2556728367915853 480.0 26.0 342.0 
306.0001072666002 12895.0 NaN 1531.251837007348 1.270312730380527 478.0 26.0 342.0 
308.0001072666002 12884.0 NaN 1531.2865731462912 1.198694754545053 486.0 19.0 349.0 
310.0001072666002 12884.0 NaN 1531.2758851035392 1.2007645809359109 482.0 22.0 346.0 
312.0001072666002 12867.0 NaN 1531.2464929859727 1.17772815083909 483.0 23.0 345.0 
314.0001072666002 12820.0 NaN 1528.2137608550452 1.1684582075974623 485.0 22.0 345.0 
316.0001072666002 12813.0 NaN 1528.1736806947245 1.1604107527657916 485.0 23.0 344.0 
318.0001072666002 12812.0 NaN 1531.2999331997335 1.1958730916379607 487.0 23.0 345.0 
320.0001072666002 12790.0 NaN 1537.4348697394794 1.1977158945066952 485.0 23.0 347.0 
322.0001072666002 12769.0 NaN 1537.456245824982 1.1995619041813876 485.0 23.0 347.0 
324.0001072666002 12749.0 NaN 1534.2872411489634 1.2094326742360997 484.0 23.0 346.0 
326.0001072666002 12737.0 NaN 1534.354041416164 1.2226968859829257 486.0 23.0 346.0 
328.0001072666002 12740.0 NaN 1537.4081496325998 1.2391180225618623 485.0 23.0 347.0 
330.0001072666002 12738.0 NaN 1534.3567134268546 1.1574239229236285 484.0 23.0 346.0 
332.0001072666002 12722.0 NaN 1537.3841015364067 1.1581279901637087 484.0 23.0 347.0 
334.0001072666002 12697.0 NaN 1534.3567134268546 1.1269838519580544 484.0 23.0 346.0 
336.0001072666002 12704.0 NaN 1537.3707414829637 1.1461906228858825 485.0 23.0 347.0 
338.0001072666002 12702.0 NaN 1537.448229792918 1.1687532060395125 486.0 23.0 347.0 
340.0001072666002 12705.0 NaN 1534.3486973947906 1.176153377660072 488.0 23.0 346.0 
342.0001072666002 12705.0 NaN 1534.386105544421 1.1244377404452246 488.0 23.0 346.0 
344.0001072666002 12693.0 NaN 1534.3353373413483 1.1011653557084573 488.0 23.0 346.0 
346.0001072666002 12697.0 NaN 1525.1302605210424 1.1178683237348475 486.0 23.0 343.0 
348.0001072666002 12691.0 NaN 1528.1710086840358 1.139226680546488 490.0 23.0 344.0 
350.0001072666002 12703.0 NaN 1531.281229124918 1.1696155423049555 491.0 23.0 345.0 
352.0001072666002 12710.0 NaN 1531.251837007348 1.1565591820965022 492.0 23.0 345.0 
354.0001072666002 12702.0 NaN 1528.2004008016024 1.1523095045963134 490.0 23.0 344.0 
356.0001072666002 12708.0 NaN 1525.0794923179694 1.1548823992894888 488.0 24.0 342.0 
358.0001072666002 12718.0 NaN 1525.098196392785 1.1015806326562556 489.0 24.0 342.0 
360.0001072666002 12731.0 NaN 1525.0607882431539 1.0698245670635802 490.0 24.0 342.0 
362.0001072666002 12725.0 NaN 1525.1275885103548 1.0857049688351328 492.0 24.0 342.0 
364.0001072666002 12728.0 NaN 1525.071476285906 1.1065371493748368 493.0 24.0 342.0 
366.0001072666002 12725.0 NaN 1525.0901803607208 1.1100192198514591 493.0 24.0 342.0 
368.0001072666002 12721.0 NaN 1518.9472277889097 1.0925230054825679 493.0 24.0 340.0 
370.0001072666002 12725.0 NaN 1512.828323313293 1.1218738622931523 491.0 24.0 338.0 
372.0001072666002 12732.0 NaN 1509.7715430861729 1.1690299631479248 491.0 24.0 337.0 
374.0001072666002 12724.0 NaN 1506.6479625918512 1.2142175267587227 490.0 24.0 336.0 
376.0001072666002 12718.0 NaN 1509.7100868403465 1.196115415270832 491.0 24.0 337.0 
378.0001072666002 12722.0 NaN 1509.7127588510361 1.2036962404756812 492.0 24.0 337.0 
380.0001072666002 12723.0 NaN 1509.6780227120908 1.2488769845047971 494.0 23.0 338.0 
382.0001072666002 12736.0 NaN 1506.6399465597854 1.309632928995386 495.0 23.0 337.0 
384.0001072666002 12727.0 NaN 1506.5971943887785 1.334283693468759 497.0 23.0 337.0 
386.0001072666002 12717.0 NaN 1506.6025384101542 1.348269841743891 494.0 24.0 336.0 
388.0001072666002 12716.0 NaN 1512.7695390781555 1.3246649057198603 495.0 24.0 338.0 
390.0001072666002 12726.0 NaN 1515.8263193052758 1.4083584634793795 499.0 22.0 341.0 
392.0001072666002 12735.0 NaN 1512.7374749499 1.4749510317076242 504.0 17.0 345.0 
394.0001072666002 12729.0 NaN 1515.8797595190374 1.4674702957026515 504.0 17.0 346.0 
396.0001072666002 12663.0 NaN 1515.8183032732122 1.3807874572027146 503.0 17.0 346.0 
398.0001072666002 12654.0 NaN 1512.7535070140273 1.3835992077785562 503.0 17.0 345.0 
400.0001072666002 12655.0 NaN 1509.6700066800274 1.4159505848098581 504.0 17.0 344.0 
402.0001072666002 12667.0 NaN 1509.7074148296604 1.4308290236563188 505.0 17.0 344.0 
404.0001072666002 12662.0 NaN 1509.6913827655303 1.4358650854962336 503.0 17.0 344.0 
406.0001072666002 12642.0 NaN 1509.6860387441545 1.3903107079430086 502.0 17.0 344.0 
408.0001072666002 12621.0 NaN 1518.9445557782242 1.3153047144028818 505.0 17.0 347.0 
410.0001072666002 12623.0 NaN 1518.9445557782242 1.2778628837192687 505.0 17.0 347.0 
412.0001072666002 12631.0 NaN 1525.092852371409 1.2693114071265572 505.0 18.0 348.0 
414.0001072666002 12633.0 NaN 1528.0828323313278 1.2432836749463865 504.0 19.0 348.0 
416.0001072666002 12621.0 NaN 1525.0340681362727 1.239432775982869 503.0 19.0 347.0 
418.0001072666002 12597.0 NaN 1521.955911823646 1.1399611693955343 500.0 19.0 346.0 
420.0001072666002 12620.0 NaN 1515.7995991983976 1.1570259276739598 500.0 18.0 345.0 
422.0001072666002 12615.0 NaN 1515.8476953907818 1.1810247569264383 499.0 17.0 346.0 
424.0001072666002 12614.0 NaN 1518.9044756179019 1.1822828300392463 502.0 17.0 347.0 
426.0001072666002 12605.0 NaN 1512.7641950567809 1.1634133205564556 502.0 17.0 345.0 
428.0001072666002 12621.0 NaN 1525.0180360721454 1.159563247637047 503.0 17.0 349.0 
430.0001072666002 12645.0 NaN 1540.3473613894453 1.1948729613693225 508.0 17.0 354.0 
432.0001072666002 12656.0 NaN 1540.4328657314636 1.240199491217865 508.0 17.0 354.0 
434.0001072666002 12644.0 NaN 1540.4408817635274 1.1739907661778994 507.0 18.0 353.0 
436.0001072666002 12633.0 NaN 1537.3573814295269 1.19441110905158 507.0 18.0 352.0 
438.0001072666002 12624.0 NaN 1537.3734134936547 1.178115902411187 506.0 18.0 352.0 
440.0001072666002 12626.0 NaN 1537.3466933867728 1.2126373998544109 509.0 19.0 351.0 
442.0001072666002 12624.0 NaN 1546.5811623246484 1.241447897826353 506.0 21.0 352.0 
444.0001072666002 12607.0 NaN 1546.543754175018 1.2638806224589545 507.0 21.0 352.0 
446.0001072666002 12608.0 NaN 1534.3006012024061 1.267076635247391 512.0 17.0 352.0 
448.0001072666002 12598.0 NaN 1534.2284569138271 1.2858354161136527 511.0 17.0 352.0 
450.0001072666002 12609.0 NaN 1543.5136940547757 1.225738990382321 512.0 17.0 355.0 
452.0001072666002 12586.0 NaN 1549.6432865731454 1.2303783067528353 511.0 17.0 357.0 
454.0001072666002 12598.0 NaN 1552.6519706078818 1.2624245534979759 511.0 17.0 358.0 
456.0001072666002 12602.0 NaN 1552.710754843018 1.2777474019764143 512.0 17.0 358.0 
458.0001072666002 12597.0 NaN 1549.541750167 1.271491120554773 510.0 17.0 357.0 
460.0001072666002 12595.0 NaN 1552.6973947895792 1.3111025835265346 508.0 17.0 358.0 
462.0001072666002 12593.0 NaN 1552.7027388109545 1.3417812732484384 510.0 17.0 358.0 
464.0001072666002 12588.0 NaN 1552.7267869071457 1.3662939088549622 511.0 17.0 358.0 
466.0001072666002 12572.0 NaN 1555.818303273212 1.2610751508222655 511.0 17.0 359.0 
468.0001072666002 12570.0 NaN 1546.4849699398815 1.2800295777832749 510.0 17.0 356.0 
470.0001072666002 12570.0 NaN 1543.4575818303274 1.2982270954541155 507.0 17.0 355.0 
472.0001072666002 12558.0 NaN 1537.2985971943906 1.2677975813235232 507.0 17.0 353.0 
474.0001072666002 12529.0 NaN 1528.157648630594 1.2531812979024157 505.0 17.0 350.0 
476.0001072666002 12525.0 NaN 1528.1442885771546 1.2356789382431963 503.0 17.0 350.0 
478.0001072666002 12526.0 NaN 1528.0828323313278 1.258207056381497 500.0 17.0 350.0 
480.0001072666002 12529.0 NaN 1528.0908483633932 1.2815868826210584 500.0 17.0 350.0 
482.0001072666002 12521.0 NaN 1528.0668002671998 1.3037291542746676 499.0 17.0 350.0 
484.0001072666002 12520.0 NaN 1521.9559118236461 1.2196978428876721 498.0 17.0 348.0 
486.0001072666002 12517.0 NaN 1512.8122912491642 1.209984538821788 497.0 18.0 344.0 
488.0001072666002 12524.0 NaN 1503.5190380761535 1.1513991109399746 496.0 18.0 341.0 
490.0001072666002 12525.0 NaN 1497.3867735470933 1.1848370706719258 498.0 17.0 340.0 
492.0001072666002 12517.0 NaN 1497.3493653974624 1.1860407621404274 494.0 17.0 340.0 
494.0001072666002 12512.0 NaN 1497.3734134936547 1.2165719750582396 491.0 17.0 340.0 
496.0001072666002 12513.0 NaN 1491.2945891783556 1.1678585143043763 497.0 17.0 338.0 
498.0001072666002 12539.0 NaN 1485.1222444889788 1.2255357893187504 495.0 17.0 336.0 
500.0001072666002 12548.0 NaN 1485.116900467601 1.2475151443853303 495.0 17.0 336.0 
502.0001072666002 12536.0 NaN 1482.1055444221788 1.2577165638391696 495.0 17.0 335.0 
504.0001072666002 12528.0 NaN 1485.100868403473 1.2608071849568439 496.0 18.0 335.0 
506.0001072666002 12550.0 NaN 1485.2157648630607 1.2936981897431696 496.0 18.0 335.0 
508.0001072666002 12549.0 NaN 1491.310621242484 1.302403363445052 491.0 23.0 332.0 
510.0001072666002 12555.0 NaN 1497.3894455577818 1.3238306335707248 490.0 22.0 335.0 
512.0001072666003 12540.0 NaN 1491.257181028725 1.3159621350871618 494.0 16.0 339.0 
514.0001072666003 12526.0 NaN 1491.2785571142276 1.2570674525167425 494.0 16.0 339.0 
516.0001072666003 12525.0 NaN 1494.3380093520366 1.2245735205398054 496.0 14.0 342.0 
518.0001072666003 12521.0 NaN 1491.2545090180365 1.2563988310002754 496.0 14.0 341.0 
520.0001072666003 12544.0 NaN 1481.9986639946553 1.246734300929646 494.0 16.0 336.0 
522.0001072666003 12537.0 NaN 1475.8637274549092 1.224469955158413 496.0 14.0 336.0 
524.0001072666003 12548.0 NaN 1475.9225116900461 1.2076176248044417 494.0 15.0 335.0 
526.0001072666003 12564.0 NaN 1469.8009352037398 1.1929303604148418 491.0 15.0 333.0 
528.0001072666003 12565.0 NaN 1472.8924515698072 1.1774657260986043 494.0 14.0 335.0 
530.0001072666003 12612.0 NaN 1463.6045424181705 1.1878539424617076 499.0 14.0 332.0 
532.0001072666003 12603.0 NaN 1469.7715430861729 1.18251091705608 498.0 14.0 334.0 
534.0001072666003 12611.0 NaN 1472.8283233132927 1.1871607874595116 497.0 14.0 335.0 
536.0001072666003 12611.0 NaN 1472.8336673346698 1.0861584075935384 496.0 14.0 335.0 
538.0001072666003 12608.0 NaN 1469.7795591182362 1.1171157334276698 496.0 14.0 334.0 
540.0001072666003 12643.0 NaN 1469.7555110220449 1.1505512861378895 498.0 14.0 334.0 
542.0001072666003 12648.0 NaN 1469.795591182364 1.1524383594944767 498.0 14.0 334.0 
544.0001072666003 12655.0 NaN 1469.7902471609898 1.178311675750488 496.0 14.0 334.0 
546.0001072666003 12665.0 NaN 1466.6987307949241 1.1836071842979574 494.0 14.0 333.0 
548.0001072666003 12673.0 NaN 1469.7795591182362 1.219098073411866 495.0 14.0 334.0 
550.0001072666003 12692.0 NaN 1469.7448229792913 1.257823986210186 497.0 14.0 334.0 
552.0001072666003 12692.0 NaN 1469.7341349365392 1.2748753618152355 498.0 14.0 334.0 
554.0001072666003 12691.0 NaN 1466.6399465597851 1.2696071734686787 499.0 14.0 333.0 
556.0001072666003 12692.0 NaN 1463.6205744822987 1.3157741169601733 496.0 14.0 332.0 
558.0001072666003 12688.0 NaN 1466.6639946559792 1.3570249559171905 495.0 14.0 333.0 
560.0001072666003 12727.0 NaN 1460.5023380093526 1.402055929087183 493.0 14.0 331.0 
562.0001072666003 12739.0 NaN 1466.6426185704736 1.3822757614519867 494.0 14.0 333.0 
564.0001072666003 12719.0 NaN 1469.768871075484 1.3479158880313482 496.0 14.0 334.0 
566.0001072666003 12724.0 NaN 1469.726118904475 1.3303268174444796 499.0 12.0 336.0 
568.0001072666003 12736.0 NaN 1472.8122912491642 1.363531801137836 504.0 10.0 339.0 
570.0001072666003 12727.0 NaN 1475.8851035404145 1.386575162063336 506.0 10.0 340.0 
572.0001072666003 12713.0 NaN 1485.1088844355372 1.3697185426975156 507.0 10.0 343.0 
574.0001072666003 12688.0 NaN 1485.162324649299 1.2938914312727146 508.0 10.0 343.0 
576.0001072666003 12714.0 NaN 1485.2344689378747 1.3302871864266186 509.0 10.0 343.0 
578.0001072666003 12740.0 NaN 1485.183700734802 1.3761723801654335 507.0 10.0 343.0 
580.0001072666003 12765.0 NaN 1488.2404809619243 1.3840831555160853 509.0 10.0 344.0 
582.0001072666003 12795.0 NaN 1488.2832331329334 1.3727801460126499 507.0 10.0 344.0 
584.0001072666003 12794.0 NaN 1485.2291249165 1.3169909617447373 507.0 10.0 343.0 
586.0001072666003 12807.0 NaN 1488.304609218436 1.2638172061436006 509.0 10.0 344.0 
588.0001072666003 12828.0 NaN 1488.264529058117 1.3038402651764303 508.0 10.0 344.0 
590.0001072666003 12835.0 NaN 1491.315965263862 1.3776994138406697 508.0 10.0 345.0 
592.0001072666003 12842.0 NaN 1497.4482297929183 1.3542962851972855 509.0 10.0 347.0 
594.0001072666003 12830.0 NaN 1494.3647294589182 1.389761498032603 513.0 10.0 346.0 
596.0001072666003 12816.0 NaN 1488.2458249832998 1.347370911421355 515.0 10.0 344.0 
598.0001072666003 12848.0 NaN 1488.221776887108 1.4009153511520236 514.0 10.0 344.0 
600.0001072666003 12845.0 NaN 1491.2464929859727 1.4265867317401624 515.0 10.0 345.0 
602.0001072666003 12869.0 NaN 1497.448229792918 1.4924866014754 514.0 10.0 347.0 
604.0001072666003 12853.0 NaN 1500.4595858383445 1.5245267502624047 516.0 10.0 348.0 
606.0001072666003 12840.0 NaN 1500.5450901803617 1.5187471673298727 517.0 10.0 348.0 
608.0001072666003 12860.0 NaN 1500.4916499666 1.496945950095544 515.0 10.0 348.0 
610.0001072666003 12853.0 NaN 1503.596526386106 1.412164273607326 515.0 10.0 349.0 
612.0001072666003 12876.0 NaN 1503.5698062792264 1.4549205275430186 516.0 10.0 349.0 
614.0001072666003 12894.0 NaN 1512.7989311957251 1.488428028768853 519.0 10.0 352.0 
616.0001072666003 12892.0 NaN 1512.8657314629265 1.4523582796897634 518.0 10.0 352.0 
618.0001072666003 12913.0 NaN 1515.8503674014705 1.437967395667067 516.0 10.0 353.0 
620.0001072666003 12923.0 NaN 1521.9986639946553 1.4452765729972206 516.0 10.0 355.0 
622.0001072666003 12940.0 NaN 1518.8430193720787 1.4508080913730323 518.0 9.0 355.0 
624.0001072666003 12952.0 NaN 1522.0227120908478 1.4562955170182192 515.0 12.0 353.0 
626.0001072666003 12952.0 NaN 1525.140948563794 1.37507659606983 511.0 15.0 351.0 
628.0001072666003 12965.0 NaN 1528.2137608550447 1.2952843368475253 504.0 19.0 348.0 
630.0001072666003 12950.0 NaN 1528.1763527054097 1.2742001910638614 507.0 19.0 348.0 
632.0001072666003 12953.0 NaN 1528.2137608550447 1.2778173368724504 510.0 16.0 351.0 
634.0001072666003 12950.0 NaN 1528.2110888443544 1.3083851949680563 509.0 17.0 350.0 
636.0001072666003 12976.0 NaN 1525.1649966599878 1.3420027087847373 515.0 15.0 351.0 
638.0001072666003 12972.0 NaN 1525.1543086172355 1.2976540089551594 514.0 16.0 350.0 
640.0001072666003 12976.0 NaN 1522.0120240480971 1.3451433970540485 514.0 16.0 349.0 
642.0001072666003 12973.0 NaN 1525.1356045424182 1.416279061386491 512.0 16.0 350.0 
644.0001072666003 12966.0 NaN 1528.2004008016024 1.4675270264201632 512.0 15.0 352.0 
646.0001072666003 12978.0 NaN 1531.3667334669342 1.4541078920220638 513.0 15.0 353.0 
648.0001072666003 12986.0 NaN 1528.2511690046751 1.419597449023293 513.0 15.0 352.0 
650.0001072666003 12975.0 NaN 1528.1710086840355 1.3943935634228073 511.0 15.0 352.0 
652.0001072666003 12976.0 NaN 1528.1710086840355 1.407889066134908 511.0 14.0 353.0 
654.0001072666003 12956.0 NaN 1525.0848363393457 1.4072727119474742 509.0 15.0 351.0 
656.0001072666003 12955.0 NaN 1531.2972611890455 1.354580310443259 509.0 14.0 354.0 
658.0001072666003 12935.0 NaN 1540.4996659986634 1.3340101466647967 507.0 14.0 357.0 
660.0001072666003 12901.0 NaN 1540.4542418169665 1.3115578431604638 508.0 14.0 357.0 
662.0001072666003 12907.0 NaN 1540.446225784902 1.3538600220441077 508.0 14.0 357.0 
664.0001072666003 12903.0 NaN 1546.591850367401 1.377986072662237 506.0 14.0 359.0 
#####################################################################
# End of data export. Simulation finished at: 2019-03-19T04:08+0000 #
#####################################################################
