#####################################################################
# Alchemist log file - simulation started at: 2019-03-05T23:56+0000 #
#####################################################################
# seed = 3.0, bandwidth = 5623413.251903491, propagationDelay = 0.0031622776601683794, baserange = 316.2277660168379
#
# The columns have the following meaning: 
# time neighbor_count[Sum] <value>@neighbor_count[Sum] packet_size[Mean] mean_delay[Mean] crowd[Sum] overcrowded[Sum] risk[Sum] 
0.0 NaN NaN NaN NaN NaN NaN NaN 
2.0005923698108097 51288.0 NaN 4995.983967935872 0.5001000616515767 1497.0 0.0 1497.0 
4.00059236981081 51288.0 NaN 4994.637274549098 0.5001007316972992 1496.0 1.0 1496.0 
6.000084666035003 51288.0 NaN 4994.0440881763525 0.5001006519316211 1496.0 1.0 1496.0 
8.00059236981081 51289.0 NaN 4994.479625918504 0.5000974219961047 1496.0 1.0 1496.0 
10.00033353340315 51291.0 NaN 4995.3426853707415 0.5000851135351813 1497.0 0.0 1497.0 
12.00059236981081 51294.0 NaN 4994.487641950568 0.5001434622202958 1497.0 0.0 1497.0 
14.00059236981081 51292.0 NaN 4994.0066800267205 0.5001170614273678 1497.0 0.0 1497.0 
16.000084666035004 51326.0 NaN 4994.145624582498 0.50098287892427 1496.0 1.0 1496.0 
18.00059236981081 51323.0 NaN 4994.864395457582 0.501058589044002 1497.0 0.0 1497.0 
20.00033353340315 51325.0 NaN 4995.684702738811 0.500899091136956 1496.0 1.0 1496.0 
22.00059236981081 51330.0 NaN 4994.752171008684 0.4998932173822271 1496.0 1.0 1496.0 
24.00059236981081 51334.0 NaN 4994.332665330661 0.4998589256999944 1497.0 0.0 1497.0 
26.000084666035004 51376.0 NaN 4994.530394121576 0.49991035172604564 1497.0 0.0 1497.0 
28.00059236981081 51389.0 NaN 4995.454909819639 0.5007532249978437 1497.0 0.0 1497.0 
30.00033353340315 51359.0 NaN 4996.173680694723 0.5005072807744739 1497.0 0.0 1497.0 
32.00059236981081 51361.0 NaN 4994.960587842352 0.5000401147355282 1497.0 0.0 1497.0 
34.00059236981081 51360.0 NaN 4994.14295257181 0.4999919266994396 1496.0 1.0 1496.0 
36.00008466603501 51393.0 NaN 4994.354041416165 0.5004434486424449 1496.0 1.0 1496.0 
38.00059236981081 51399.0 NaN 4995.102204408818 0.5024634993505576 1497.0 0.0 1497.0 
40.00033353340315 51360.0 NaN 4996.256513026052 0.5020469813296818 1497.0 0.0 1497.0 
42.00059236981081 51343.0 NaN 4995.390781563126 0.5000214554776529 1497.0 0.0 1497.0 
44.00059236981081 51338.0 NaN 4994.332665330661 0.5021639177358699 1497.0 0.0 1497.0 
46.00008466603501 51366.0 NaN 4994.255177020708 0.5001324054482607 1496.0 1.0 1496.0 
48.00059236981081 51371.0 NaN 4994.800267201069 0.5012084130732924 1495.0 2.0 1495.0 
50.00033353340315 51353.0 NaN 4995.78089512358 0.5000092819959943 1495.0 2.0 1495.0 
52.00059236981081 51350.0 NaN 4995.147628590515 0.5004774064391029 1496.0 1.0 1496.0 
54.00059236981081 51343.0 NaN 4994.674682698731 0.5004606815827551 1496.0 1.0 1496.0 
56.00008466603501 51361.0 NaN 4994.832331329325 0.5011289305181292 1497.0 0.0 1497.0 
58.00059236981081 51384.0 NaN 4995.107548430194 0.5009855830191436 1497.0 0.0 1497.0 
60.00033353340315 51388.0 NaN 4995.925183700735 0.5019278961181647 1497.0 0.0 1497.0 
62.0001904281857 51376.0 NaN 1522.5571142284566 0.500716216454003 775.0 1.0 364.0 
64.00019042818569 51369.0 NaN 1522.639946559785 0.49962887968617686 622.0 1.0 364.0 
66.00008466603501 51408.0 NaN 1522.6639946559792 0.49980390868490504 580.0 1.0 364.0 
68.00019042818569 51494.0 NaN 1522.7307949231815 0.5016221192306595 548.0 1.0 364.0 
70.00019042818569 51462.0 NaN 1525.811623246491 0.5009643068190991 536.0 0.0 366.0 
72.00019042818569 51464.0 NaN 1525.7474949899815 0.5010157878671581 532.0 1.0 365.0 
74.00019042818569 51462.0 NaN 1525.6112224448912 0.5003199432285158 528.0 2.0 364.0 
76.00008466603501 51467.0 NaN 1525.4428857715432 0.5004801730307733 529.0 2.0 364.0 
78.00019042818569 51481.0 NaN 1534.6506346025367 0.5015794149279975 529.0 2.0 367.0 
80.00019042818569 51458.0 NaN 1534.7120908483637 0.5011336696927033 528.0 2.0 367.0 
82.00019042818569 51452.0 NaN 1534.714762859052 0.5024044417184091 526.0 2.0 367.0 
84.00019042818569 51449.0 NaN 1534.7468269873093 0.5001824409756848 527.0 1.0 368.0 
86.00008466603501 51495.0 NaN 1534.789579158318 0.500149921966106 525.0 2.0 367.0 
88.00019042818569 51532.0 NaN 1534.8937875751515 0.5003236885506444 524.0 4.0 365.0 
90.00019042818569 51535.0 NaN 1537.9692718770877 0.5011008866637934 524.0 4.0 366.0 
92.00019042818569 51531.0 NaN 1537.9265197060793 0.5015390044963816 521.0 5.0 365.0 
94.00019042818569 51522.0 NaN 1537.8971275885092 0.5004587322148596 521.0 5.0 365.0 
96.00008466603501 51546.0 NaN 1540.956579826318 0.5006840664300185 525.0 2.0 369.0 
98.00019042818569 51546.0 NaN 1540.9485637942544 0.5013653286516201 527.0 1.0 370.0 
100.00019042818569 51534.0 NaN 1540.8684034736152 0.5004551383694099 527.0 1.0 370.0 
102.00019042818569 51550.0 NaN 1540.9779559118242 0.5016755569736765 526.0 2.0 369.0 
104.00019042818569 51527.0 NaN 1540.8790915163659 0.5004664520615031 526.0 2.0 369.0 
106.00008466603501 51535.0 NaN 1540.9592518370087 0.5012550509421573 526.0 2.0 369.0 
108.00019042818569 51531.0 NaN 1541.0661322645276 0.5020584704751273 525.0 2.0 369.0 
110.00019042818569 51501.0 NaN 1540.9966599866395 0.5006234039334191 526.0 1.0 370.0 
112.00019042818569 51519.0 NaN 1540.999331997327 0.5005159272019681 525.0 2.0 369.0 
114.00019042818569 51513.0 NaN 1540.919171676688 0.500738612686572 525.0 3.0 368.0 
116.00008466603501 51523.0 NaN 1550.11623246493 0.500493628555838 526.0 4.0 370.0 
118.00019042818569 51535.0 NaN 1550.150968603873 0.5006573032145104 525.0 5.0 369.0 
120.00019042818569 51529.0 NaN 1553.2959251836999 0.5003223517973321 525.0 5.0 370.0 
122.00019042818569 51542.0 NaN 1553.3012692050756 0.5012934800841136 527.0 3.0 372.0 
124.00019042818569 51519.0 NaN 1553.3787575150297 0.5009159672549671 529.0 1.0 374.0 
126.00008466603501 51525.0 NaN 1547.3026052104208 0.5016888691417872 528.0 2.0 371.0 
128.0001904281857 51503.0 NaN 1547.2678690714756 0.5007083075066868 528.0 2.0 371.0 
130.0001904281857 51475.0 NaN 1547.2785571142272 0.5006363450767816 528.0 2.0 371.0 
132.0001904281857 51465.0 NaN 1547.2064128256518 0.5009047861460356 528.0 2.0 371.0 
134.0001904281857 51451.0 NaN 1547.0487641950544 0.5000589973276831 525.0 2.0 371.0 
136.000084666035 51463.0 NaN 1547.0754843019363 0.5009439647769055 523.0 1.0 372.0 
138.0001904281857 51445.0 NaN 1547.0514362057456 0.500457379017391 520.0 2.0 371.0 
140.0001904281857 51435.0 NaN 1547.0754843019363 0.500550050406778 522.0 4.0 369.0 
142.0001904281857 51420.0 NaN 1550.097528390112 0.5005671369877627 522.0 4.0 370.0 
144.0001904281857 51400.0 NaN 1553.3173012692062 0.4998532031663744 521.0 5.0 370.0 
146.000084666035 51421.0 NaN 1544.0347361389456 0.5006853070518251 519.0 5.0 367.0 
148.0001904281857 51401.0 NaN 1544.130928523715 0.5003785281366753 519.0 3.0 369.0 
150.0001904281857 51376.0 NaN 1544.171008684036 0.5006015555727734 521.0 2.0 370.0 
152.0001904281857 51337.0 NaN 1544.2618570474272 0.5001593884338424 520.0 2.0 370.0 
154.0001904281857 51311.0 NaN 1541.2371409485636 0.5003339270723737 522.0 2.0 369.0 
156.000084666035 51328.0 NaN 1541.2024048096182 0.5002611216788408 523.0 2.0 369.0 
158.0001904281857 51317.0 NaN 1547.2224448897816 0.501826924692189 522.0 2.0 371.0 
160.0001904281857 51265.0 NaN 1544.2538410153636 0.5010070570254218 517.0 2.0 370.0 
162.0001904281857 51261.0 NaN 1544.1469605878426 0.500611194808048 517.0 2.0 370.0 
164.0001904281857 51210.0 NaN 1544.136272545091 0.5023286208885384 519.0 1.0 371.0 
166.000084666035 51157.0 NaN 1547.0193720774882 0.501215655514365 521.0 1.0 372.0 
168.0001904281857 51140.0 NaN 1550.0868403473637 0.5014664322504992 520.0 1.0 373.0 
170.0001904281857 51072.0 NaN 1550.0601202404819 0.5009483025839575 523.0 1.0 373.0 
172.0001904281857 51048.0 NaN 1550.1082164328636 0.5009805390620427 523.0 0.0 374.0 
174.0001904281857 51036.0 NaN 1544.1416165664662 0.5012115472301901 522.0 1.0 371.0 
176.000084666035 51024.0 NaN 1541.1169004676 0.5004048143829677 522.0 1.0 370.0 
178.0001904281857 51026.0 NaN 1541.2024048096182 0.5013858035423228 522.0 1.0 370.0 
180.0001904281857 50981.0 NaN 1541.2825651302612 0.5010291266453019 522.0 0.0 371.0 
182.0001904281857 50943.0 NaN 1538.223112892452 0.5016462765118311 520.0 2.0 368.0 
184.0001904281857 50926.0 NaN 1538.1536406145638 0.5010508769949189 520.0 0.0 370.0 
186.000084666035 50915.0 NaN 1537.9986639946544 0.5018771535314586 519.0 2.0 368.0 
188.0001904281857 50929.0 NaN 1538.0253841015365 0.5005636200462611 518.0 1.0 369.0 
190.0001904281857 50908.0 NaN 1537.9639278557092 0.5018425423324574 518.0 0.0 370.0 
192.0001904281857 50869.0 NaN 1534.880427521709 0.5003448063452157 518.0 1.0 368.0 
194.0001904281857 50861.0 NaN 1534.8056112224456 0.500425357998911 517.0 1.0 368.0 
196.000084666035 50863.0 NaN 1534.86706746827 0.4999974317036752 517.0 1.0 368.0 
198.0001904281857 50859.0 NaN 1534.9498997996002 0.5005506317465102 520.0 0.0 369.0 
200.0001904281857 50840.0 NaN 1538.020040080161 0.5013988807191102 519.0 1.0 369.0 
202.0001904281857 50799.0 NaN 1544.1148964595848 0.5005520529447108 518.0 1.0 371.0 
204.0001904281857 50776.0 NaN 1541.0955243820977 0.5004797831838245 518.0 1.0 370.0 
206.000084666035 50789.0 NaN 1541.0581162324638 0.5008628057641987 517.0 1.0 370.0 
208.0001904281857 50776.0 NaN 1541.0287241148972 0.5002147902557681 518.0 1.0 370.0 
210.0001904281857 50765.0 NaN 1531.935871743488 0.5010559452598888 522.0 0.0 368.0 
212.0001904281857 50726.0 NaN 1534.9579158316637 0.5004601071688357 520.0 2.0 367.0 
214.0001904281857 50707.0 NaN 1531.9118236472939 0.5006597593210117 516.0 1.0 367.0 
216.000084666035 50717.0 NaN 1531.9786239144967 0.5026098670070743 515.0 1.0 367.0 
218.0001904281857 50669.0 NaN 1528.798931195725 0.501579473782653 515.0 0.0 367.0 
220.0001904281857 50652.0 NaN 1528.812291249164 0.5028016103313728 513.0 1.0 366.0 
222.0001904281857 50603.0 NaN 1528.694722778891 0.5010407284772294 513.0 0.0 367.0 
224.0001904281857 50584.0 NaN 1528.630594522379 0.5026738286585805 514.0 1.0 366.0 
226.000084666035 50605.0 NaN 1528.6252505010002 0.5060185696443117 514.0 0.0 367.0 
228.0001904281857 50567.0 NaN 1531.7408149632608 0.500953430422749 513.0 1.0 367.0 
230.0001904281857 50546.0 NaN 1531.7301269205088 0.5016014975944842 514.0 0.0 368.0 
232.0001904281857 50531.0 NaN 1534.9418837675362 0.5007736561053329 513.0 1.0 368.0 
234.0001904281857 50524.0 NaN 1538.1509686038728 0.5016309862667875 513.0 0.0 370.0 
236.000084666035 50618.0 NaN 1541.1062124248483 0.5012549626618755 515.0 1.0 370.0 
238.0001904281857 50588.0 NaN 1537.9211756847026 0.5012573632448977 514.0 0.0 370.0 
240.0001904281857 50572.0 NaN 1531.8156312625272 0.5026641013328328 514.0 1.0 367.0 
242.0001904281857 50534.0 NaN 1534.9231796927181 0.5007163574119254 514.0 0.0 369.0 
244.0001904281857 50524.0 NaN 1534.888443553773 0.5003799917613286 516.0 1.0 368.0 
246.000084666035 50562.0 NaN 1534.8109552438207 0.5003098252148462 516.0 0.0 369.0 
248.0001904281857 50555.0 NaN 1528.7294589178364 0.5006847650892254 515.0 1.0 366.0 
250.0001904281857 50514.0 NaN 1528.7882431529729 0.5006343140353242 514.0 0.0 367.0 
252.0001904281857 50489.0 NaN 1525.7822311289246 0.5002838487789746 513.0 2.0 364.0 
254.0001904281857 50472.0 NaN 1525.6486305945211 0.5007162927325992 512.0 0.0 366.0 
256.00008466603504 50494.0 NaN 1525.7127588510364 0.5001462728904782 515.0 1.0 365.0 
258.0001904281857 50491.0 NaN 1525.6272545090183 0.5011732552200073 514.0 1.0 365.0 
260.0001904281857 50475.0 NaN 1525.5577822311277 0.5010186696297101 516.0 0.0 366.0 
262.0001904281857 50447.0 NaN 1528.6653306613216 0.5001469351086991 517.0 0.0 367.0 
264.0001904281857 50424.0 NaN 1528.7374749499 0.5014874190513399 516.0 1.0 366.0 
266.00008466603504 50439.0 NaN 1538.0387441549756 0.50130107505657 513.0 0.0 370.0 
268.0001904281857 50337.0 NaN 1537.9505678022726 0.5024314186766169 513.0 1.0 369.0 
270.0001904281857 50276.0 NaN 1534.9498997996 0.5036276309420042 512.0 1.0 368.0 
272.0001904281857 50221.0 NaN 1531.7568470273884 0.5003693059803495 512.0 0.0 368.0 
274.0001904281857 50177.0 NaN 1531.8209752839 0.5000249673939974 513.0 0.0 368.0 
276.00008466603504 50184.0 NaN 1528.6546426185726 0.5004524260007687 512.0 1.0 366.0 
278.0001904281857 50151.0 NaN 1537.867735470943 0.5016724612856124 514.0 0.0 370.0 
280.0001904281857 50115.0 NaN 1537.7822311289249 0.5017050015643159 514.0 1.0 369.0 
282.0001904281857 50088.0 NaN 1534.7040748163001 0.5007868279600973 513.0 1.0 368.0 
284.0001904281857 50039.0 NaN 1534.8189712758842 0.5004637577804141 513.0 0.0 369.0 
286.00008466603504 50015.0 NaN 1534.8991315965272 0.5018663974983983 514.0 0.0 369.0 
288.0001904281857 49981.0 NaN 1534.880427521709 0.5018689701512257 513.0 1.0 368.0 
290.0001904281857 49929.0 NaN 1534.722778891116 0.5025474787068602 512.0 0.0 369.0 
292.0001904281857 49865.0 NaN 1534.7494989979973 0.5006674714032838 512.0 1.0 368.0 
294.0001904281857 49839.0 NaN 1534.6452905811636 0.5006131728064246 511.0 1.0 368.0 
296.00008466603504 49824.0 NaN 1537.6619906479636 0.5008318955035358 512.0 0.0 370.0 
298.0001904281857 49785.0 NaN 1537.734134936539 0.502650742174152 512.0 0.0 370.0 
300.0001904281857 49739.0 NaN 1537.8490313961272 0.5038085950165835 508.0 2.0 368.0 
302.0001904281857 49703.0 NaN 1537.9265197060793 0.5004490750125535 508.0 2.0 368.0 
304.0001904281857 49670.0 NaN 1534.8082832331338 0.500441218200832 507.0 1.0 368.0 
306.00008466603504 49642.0 NaN 1534.9098196392795 0.5004197976461657 509.0 1.0 368.0 
308.0001904281857 49619.0 NaN 1531.8183032732118 0.5015189552248034 507.0 2.0 366.0 
310.0001904281857 49590.0 NaN 1534.8964595858365 0.5017752100017157 507.0 1.0 368.0 
312.0001904281857 49531.0 NaN 1531.78356713427 0.5008532709939076 505.0 1.0 367.0 
314.0001904281857 49488.0 NaN 1534.6960587842364 0.5024567727546886 504.0 2.0 367.0 
316.00008466603504 49460.0 NaN 1537.7341349365392 0.5007818403182599 509.0 1.0 369.0 
318.0001904281857 49430.0 NaN 1537.6673346693365 0.500246863913266 509.0 1.0 369.0 
320.0001904281857 49429.0 NaN 1537.7207748831 0.5010334398786476 506.0 2.0 368.0 
322.0001904281857 49395.0 NaN 1540.8710754843 0.5012780349609 507.0 1.0 370.0 
324.0001904281857 49346.0 NaN 1540.8764195056792 0.5016610086410458 507.0 0.0 371.0 
326.00008466603504 49313.0 NaN 1540.841683366734 0.5009709824426808 507.0 1.0 370.0 
328.0001904281857 49286.0 NaN 1537.7822311289246 0.5003819381433912 506.0 1.0 369.0 
330.0001904281857 49289.0 NaN 1540.9485637942544 0.5011404672052618 507.0 0.0 371.0 
332.0001904281857 49257.0 NaN 1540.988643954575 0.49987663680884026 506.0 1.0 370.0 
334.0001904281857 49254.0 NaN 1538.0066800267182 0.5029179876041494 507.0 1.0 369.0 
336.00008466603504 49259.0 NaN 1531.842351369406 0.5013860686093754 508.0 0.0 368.0 
338.0001904281857 49226.0 NaN 1531.8156312625272 0.5007736670333791 509.0 1.0 367.0 
340.0001904281857 49212.0 NaN 1528.676018704073 0.5018710969455488 509.0 1.0 366.0 
342.0001904281857 49188.0 NaN 1528.6305945223787 0.5003825871679508 510.0 0.0 367.0 
344.0001904281857 49183.0 NaN 1528.6973947895792 0.5011431016621603 510.0 0.0 367.0 
346.00008466603504 49171.0 NaN 1531.6686706746818 0.5009577089002467 509.0 2.0 366.0 
348.0001904281857 49134.0 NaN 1528.5424181696726 0.500375940977931 508.0 0.0 367.0 
350.0001904281857 49119.0 NaN 1525.4001336005358 0.5020821657452518 511.0 1.0 365.0 
352.0001904281857 49115.0 NaN 1525.4963259853032 0.5004827843184331 514.0 1.0 365.0 
354.0001904281857 49108.0 NaN 1525.4909819639272 0.5020643061162839 516.0 0.0 366.0 
356.00008466603504 49076.0 NaN 1525.5951903807631 0.5010839601817784 514.0 1.0 365.0 
358.0001904281857 49056.0 NaN 1525.672678690715 0.5009733529691659 512.0 1.0 365.0 
360.0001904281857 49045.0 NaN 1528.6813627254517 0.5008648319623319 514.0 0.0 367.0 
362.0001904281857 49025.0 NaN 1528.6626586506359 0.500388062373407 515.0 1.0 366.0 
364.0001904281857 49012.0 NaN 1525.5150300601188 0.5007281186238909 514.0 1.0 365.0 
366.00008466603504 49038.0 NaN 1503.9251837007355 0.5015196374800449 517.0 0.0 359.0 
368.0001904281857 49029.0 NaN 1500.9084836339355 0.5017883995302729 515.0 0.0 358.0 
370.0001904281857 49009.0 NaN 1510.0734802939205 0.5022250580069674 514.0 1.0 360.0 
372.0001904281857 48969.0 NaN 1510.0253841015365 0.5005830596190053 514.0 0.0 361.0 
374.0001904281857 48943.0 NaN 1510.0307281229123 0.5020411620558531 514.0 1.0 360.0 
376.00008466603504 48943.0 NaN 1510.0334001335998 0.5013639451823089 515.0 1.0 360.0 
378.0001904281857 48927.0 NaN 1510.0654642618567 0.5013628580274453 518.0 0.0 361.0 
380.0001904281857 48906.0 NaN 1510.1108884435544 0.5026438290053393 515.0 1.0 360.0 
382.0001904281857 48860.0 NaN 1506.9659318637273 0.5006333375866474 514.0 1.0 359.0 
384.0001904281857 48850.0 NaN 1513.0821643286567 0.49998603081084947 518.0 0.0 362.0 
386.00008466603504 48862.0 NaN 1525.464261857046 0.5010966295793082 518.0 1.0 365.0 
388.0001904281857 48839.0 NaN 1510.2150968603878 0.5020351936335866 518.0 0.0 361.0 
390.0001904281857 48807.0 NaN 1510.3112892451566 0.5010549043372936 514.0 2.0 359.0 
392.0001904281857 48770.0 NaN 1513.3787575150295 0.5006631448905138 515.0 1.0 361.0 
394.0001904281857 48750.0 NaN 1513.317301269206 0.5000029430600983 516.0 1.0 361.0 
396.00008466603504 48765.0 NaN 1513.2024048096182 0.5011983624698308 517.0 2.0 360.0 
398.0001904281857 48724.0 NaN 1510.0093520374091 0.503107412465862 519.0 1.0 360.0 
400.0001904281857 48676.0 NaN 1513.0607882431539 0.5026440970149618 519.0 1.0 361.0 
402.0001904281857 48624.0 NaN 1513.071476285906 0.5006096601966267 519.0 2.0 360.0 
404.0001904281857 48622.0 NaN 1519.3774215096848 0.5023047150319786 519.0 1.0 363.0 
406.00008466603504 48617.0 NaN 1522.3139612558455 0.5008463732990521 522.0 0.0 365.0 
408.0001904281857 48623.0 NaN 1522.4235136940545 0.5022693475055199 520.0 1.0 364.0 
410.0001904281857 48601.0 NaN 1525.5764863059455 0.502165918574674 520.0 1.0 365.0 
412.0001904281857 48580.0 NaN 1525.6726786907152 0.5004886088679592 522.0 0.0 366.0 
414.0001904281857 48567.0 NaN 1525.5764863059455 0.5001095779917928 526.0 1.0 365.0 
416.00008466603504 48580.0 NaN 1525.6272545090183 0.5004460389821711 527.0 1.0 365.0 
418.0001904281857 48577.0 NaN 1525.6138944555787 0.5005443026143572 527.0 0.0 366.0 
420.0001904281857 48561.0 NaN 1513.2852371409479 0.5025704381760538 527.0 1.0 361.0 
422.0001904281857 48537.0 NaN 1510.1456245824988 0.5005143484165802 527.0 1.0 360.0 
424.0001904281857 48535.0 NaN 1504.0 0.49997192461640344 523.0 0.0 359.0 
426.00008466603504 48554.0 NaN 1513.100868403473 0.5007127486629182 518.0 1.0 361.0 
428.0001904281857 48554.0 NaN 1503.9278557114235 0.5006933734321658 517.0 1.0 358.0 
430.0001904281857 48566.0 NaN 1503.7675350701397 0.5025229279036922 519.0 0.0 359.0 
432.0001904281857 48526.0 NaN 1500.8737474949905 0.5006124674820754 519.0 1.0 357.0 
434.0001904281857 48503.0 NaN 1503.8289913159647 0.5003102546322796 521.0 0.0 359.0 
436.00008466603504 48491.0 NaN 1516.2458249832998 0.5006699231476515 524.0 2.0 361.0 
438.0001904281857 48502.0 NaN 1519.1796927187718 0.5002319103422399 521.0 5.0 359.0 
440.0001904281857 48502.0 NaN 1516.2271209084827 0.5037782226661346 523.0 2.0 361.0 
442.0001904281857 48484.0 NaN 1516.1523046092182 0.500878648227595 526.0 0.0 363.0 
444.0001904281857 48473.0 NaN 1525.4936539746175 0.5030741474141455 525.0 1.0 365.0 
446.00008466603504 48450.0 NaN 1528.6065464261849 0.49999014409069076 525.0 4.0 363.0 
448.0001904281857 48461.0 NaN 1534.8350033400122 0.5005967963629132 528.0 2.0 367.0 
450.0001904281857 48453.0 NaN 1543.9385437541732 0.5052507695885835 528.0 2.0 370.0 
452.0001904281857 48425.0 NaN 1546.8991315965272 0.5001526079326306 528.0 2.0 371.0 
454.0001904281857 48432.0 NaN 1546.7682030728117 0.5020659583073498 528.0 1.0 372.0 
456.00008466603504 48399.0 NaN 1549.9291917167664 0.5005488900450563 529.0 0.0 374.0 
458.0001904281857 48392.0 NaN 1546.8697394789574 0.5002615819128858 528.0 1.0 372.0 
460.0001904281857 48392.0 NaN 1546.9953239812971 0.501088319200392 527.0 0.0 373.0 
462.0001904281857 48374.0 NaN 1546.9712758851028 0.5004130550184561 528.0 0.0 373.0 
464.0001904281857 48377.0 NaN 1546.9739478957908 0.5008132371073486 528.0 0.0 373.0 
466.00008466603504 48353.0 NaN 1543.8476953907818 0.500306380107387 528.0 1.0 371.0 
468.0001904281857 48345.0 NaN 1540.836339345357 0.5004309647026215 529.0 0.0 371.0 
470.0001904281857 48356.0 NaN 1543.8396793587183 0.5024205816335048 524.0 0.0 372.0 
472.0001904281857 48349.0 NaN 1531.5831663326644 0.5001218606936682 524.0 0.0 368.0 
474.0001904281857 48356.0 NaN 1528.376753507015 0.5003535355118608 521.0 0.0 367.0 
476.00008466603504 48344.0 NaN 1525.4856379425523 0.5000861659199071 519.0 0.0 366.0 
478.0001904281857 48367.0 NaN 1522.3433533734126 0.49975919347738207 520.0 0.0 365.0 
480.0001904281857 48366.0 NaN 1525.536406145625 0.5013075679488636 519.0 0.0 366.0 
482.0001904281857 48357.0 NaN 1522.3460253841006 0.4997263311425876 519.0 0.0 365.0 
484.0001904281857 48401.0 NaN 1513.1756847027382 0.5003437644501683 519.0 0.0 362.0 
486.00008466603504 48411.0 NaN 1510.0387441549756 0.5000826754132113 518.0 0.0 361.0 
488.0001904281857 48430.0 NaN 1497.80093520374 0.5006135174457755 516.0 0.0 357.0 
490.0001904281857 48429.0 NaN 1497.7555110220446 0.5020591512635947 518.0 0.0 357.0 
492.0001904281857 48425.0 NaN 1491.6820307281241 0.5017827215609155 519.0 0.0 355.0 
494.0001904281857 48427.0 NaN 1497.7020708082825 0.5006080227234319 513.0 0.0 357.0 
496.00008466603504 48485.0 NaN 1494.7521710086828 0.5011340002087596 510.0 1.0 355.0 
498.0001904281857 48505.0 NaN 1494.6346025384094 0.5007326845980598 511.0 1.0 355.0 
500.0001904281857 48499.0 NaN 1494.7815631262533 0.5007018572448868 511.0 0.0 356.0 
502.0001904281857 48502.0 NaN 1488.4622578490303 0.4996346915562725 516.0 1.0 353.0 
504.0001904281857 48497.0 NaN 1485.5150300601192 0.502178100055144 515.0 2.0 351.0 
506.00008466603504 48561.0 NaN 1488.5664662658644 0.49937292621078055 511.0 4.0 350.0 
508.0001904281857 48571.0 NaN 1488.598530394121 0.5011873144486919 512.0 2.0 352.0 
510.0001904281857 48607.0 NaN 1491.6633266533072 0.501065851384035 511.0 1.0 354.0 
512.0001904281856 48578.0 NaN 1494.7521710086828 0.5000129276616152 510.0 2.0 354.0 
514.0001904281856 48565.0 NaN 1494.765531062125 0.500591665328011 508.0 5.0 351.0 
516.000084666035 48608.0 NaN 1491.7782231128917 0.5003952696277265 511.0 2.0 353.0 
518.0001904281856 48608.0 NaN 1479.486973947897 0.49959356529594645 507.0 1.0 350.0 
520.0001904281856 48628.0 NaN 1473.3947895791573 0.5011198646100145 510.0 2.0 347.0 
522.0001904281856 48616.0 NaN 1473.3333333333342 0.500437577256158 507.0 5.0 344.0 
524.0001904281856 48591.0 NaN 1457.8757515030068 0.5006906624922409 503.0 2.0 342.0 
526.000084666035 48622.0 NaN 1457.7795591182362 0.5007444552372723 503.0 1.0 343.0 
528.0001904281856 48628.0 NaN 1457.9078156312632 0.5011185548595526 503.0 2.0 342.0 
530.0001904281856 48632.0 NaN 1460.8122912491642 0.5015556024850683 502.0 5.0 340.0 
532.0001904281856 48635.0 NaN 1464.0293921175696 0.501029594956054 509.0 2.0 344.0 
534.0001904281856 48614.0 NaN 1460.8336673346698 0.5028008317797268 508.0 1.0 344.0 
536.000084666035 48634.0 NaN 1467.0941883767541 0.5021336654667673 510.0 2.0 345.0 
538.0001904281856 48638.0 NaN 1467.107548430193 0.5006698245143428 508.0 4.0 343.0 
540.0001904281856 48631.0 NaN 1467.2678690714756 0.5024132706153199 510.0 1.0 346.0 
542.0001904281856 48647.0 NaN 1467.1476285905153 0.5011345823400685 512.0 0.0 347.0 
544.0001904281856 48604.0 NaN 1473.4215096860382 0.5002404138923753 515.0 0.0 349.0 
546.000084666035 48633.0 NaN 1473.2905811623248 0.500525234816773 514.0 0.0 349.0 
548.0001904281856 48641.0 NaN 1473.3466933867733 0.5007821842436142 514.0 0.0 349.0 
550.0001904281856 48648.0 NaN 1467.1262525050095 0.5014430905502153 513.0 0.0 347.0 
552.0001904281856 48663.0 NaN 1473.1917167668666 0.5016514792508572 518.0 1.0 348.0 
554.0001904281856 48617.0 NaN 1476.1870407481636 0.5019199733865782 521.0 0.0 350.0 
556.000084666035 48618.0 NaN 1476.3286573146286 0.49951912130557097 521.0 0.0 350.0 
558.0001904281856 48670.0 NaN 1476.2084168336667 0.5004162665765316 518.0 0.0 350.0 
560.0001904281856 48694.0 NaN 1463.9759519038082 0.5017617992871123 513.0 0.0 346.0 
562.0001904281856 48717.0 NaN 1463.8610554442216 0.5007940425513863 508.0 1.0 345.0 
564.0001904281856 48705.0 NaN 1467.1289245156986 0.5023985993905468 508.0 2.0 345.0 
566.000084666035 48703.0 NaN 1470.0601202404814 0.50043901995835 507.0 4.0 344.0 
568.0001904281856 48756.0 NaN 1476.3206412825646 0.5010343655619407 515.0 1.0 349.0 
570.0001904281856 48775.0 NaN 1476.2672010688038 0.49990334507172524 519.0 0.0 350.0 
572.0001904281856 48835.0 NaN 1476.3473613894453 0.503260190304278 517.0 1.0 349.0 
574.0001904281856 48812.0 NaN 1479.4736138944552 0.5011514563566177 515.0 4.0 347.0 
576.000084666035 48744.0 NaN 1488.7267869071468 0.4990984800568351 519.0 3.0 351.0 
578.0001904281856 48774.0 NaN 1485.6406145624576 0.4990189092623919 521.0 1.0 352.0 
580.0001904281856 48789.0 NaN 1485.549766199064 0.5003135745242687 522.0 2.0 351.0 
582.0001904281856 48788.0 NaN 1485.5364061456253 0.501666441350642 517.0 5.0 348.0 
584.0001904281856 48771.0 NaN 1482.4235136940545 0.5035169637105967 525.0 2.0 350.0 
586.000084666035 48743.0 NaN 1482.4315297261185 0.4998038952653839 524.0 1.0 351.0 
588.0001904281856 48766.0 NaN 1485.5364061456253 0.4995745233922437 523.0 2.0 351.0 
590.0001904281856 48794.0 NaN 1488.662658650635 0.5014773724307052 521.0 5.0 349.0 
592.0001904281856 48790.0 NaN 1491.6526386105547 0.5006290396845606 525.0 2.0 353.0 
594.0001904281856 48785.0 NaN 1488.5691382765535 0.5011961299033076 528.0 0.0 354.0 
596.000084666035 48752.0 NaN 1488.6305945223787 0.4997010881202003 527.0 2.0 352.0 
598.0001904281856 48790.0 NaN 1479.3346693386777 0.500342214160694 524.0 5.0 346.0 
600.0001904281856 48813.0 NaN 1485.4509018036078 0.501736520177257 528.0 2.0 351.0 
602.0001904281856 48817.0 NaN 1482.2792251169 0.5001630204183911 528.0 1.0 351.0 
604.0001904281856 48823.0 NaN 1482.3647294589182 0.5008626458565865 526.0 2.0 350.0 
606.000084666035 48773.0 NaN 1488.5130260521034 0.5002362046930328 521.0 6.0 348.0 
608.0001904281856 48790.0 NaN 1491.6098864395453 0.49988944880830316 527.0 2.0 353.0 
610.0001904281856 48817.0 NaN 1497.7234468937886 0.5007716279887361 527.0 1.0 356.0 
612.0001904281856 48827.0 NaN 1497.7795591182362 0.5003205624178234 528.0 2.0 355.0 
614.0001904281856 48823.0 NaN 1497.766199064797 0.49991156044463 524.0 5.0 352.0 
616.000084666035 48816.0 NaN 1494.7975951903816 0.5006308844091507 527.0 2.0 354.0 
618.0001904281856 48789.0 NaN 1491.6259185036736 0.5028431892544714 527.0 1.0 354.0 
620.0001904281856 48773.0 NaN 1500.916499665999 0.5024951353054422 527.0 2.0 356.0 
622.0001904281856 48750.0 NaN 1500.9645958583828 0.5008525990520809 523.0 5.0 353.0 
624.0001904281856 48730.0 NaN 1504.085504342018 0.5009532506971829 524.0 1.0 358.0 
626.000084666035 48729.0 NaN 1507.083500334001 0.5000281452015631 527.0 0.0 360.0 
628.0001904281856 48738.0 NaN 1510.19906479626 0.5012866835792459 529.0 2.0 359.0 
630.0001904281856 48732.0 NaN 1510.1937207748826 0.500898332024007 525.0 5.0 356.0 
632.0001904281856 48709.0 NaN 1513.1703406813633 0.5008402555076066 525.0 2.0 360.0 
634.0001904281856 48683.0 NaN 1516.2004008016022 0.5007431094057437 525.0 1.0 362.0 
636.000084666035 48662.0 NaN 1516.1923847695382 0.49986271493321754 527.0 2.0 361.0 
638.0001904281856 48703.0 NaN 1516.2752171008697 0.5010925744525189 524.0 4.0 359.0 
640.0001904281856 48690.0 NaN 1513.2505010020031 0.5008354156145666 526.0 3.0 359.0 
642.0001904281856 48689.0 NaN 1513.2291249165 0.5017128679418361 526.0 1.0 361.0 
644.0001904281856 48671.0 NaN 1510.191048764194 0.5008809179860396 523.0 0.0 361.0 
646.000084666035 48640.0 NaN 1510.1055444221788 0.5003853916743437 525.0 0.0 361.0 
648.0001904281856 48647.0 NaN 1516.3420173680706 0.5027418561751537 526.0 0.0 363.0 
650.0001904281856 48616.0 NaN 1519.3373413493648 0.5018341182738012 522.0 1.0 363.0 
652.0001904281856 48614.0 NaN 1516.2591850367392 0.5022380608054624 521.0 1.0 362.0 
654.0001904281856 48622.0 NaN 1516.2965931863728 0.5017709473174645 522.0 0.0 363.0 
656.000084666035 48617.0 NaN 1516.3607214428848 0.49944899148577543 519.0 2.0 361.0 
658.0001904281856 48665.0 NaN 1525.5551102204392 0.5010807706586187 518.0 1.0 365.0 
660.0001904281856 48642.0 NaN 1531.7301269205084 0.4999143058738354 513.0 2.0 366.0 
662.0001904281856 48628.0 NaN 1531.6499665998658 0.5014297170875524 511.0 5.0 363.0 
664.0001904281856 48605.0 NaN 1531.727454909819 0.5014552584147991 516.0 2.0 366.0 
#####################################################################
# End of data export. Simulation finished at: 2019-03-06T00:14+0000 #
#####################################################################
