#####################################################################
# Alchemist log file - simulation started at: 2019-03-07T09:08+0000 #
#####################################################################
# seed = 5.0, bandwidth = 4216.965034285822, propagationDelay = 3.1622776601683795, baserange = 31.622776601683796
#
# The columns have the following meaning: 
# time neighbor_count[Sum] <value>@neighbor_count[Sum] packet_size[Mean] mean_delay[Mean] crowd[Sum] overcrowded[Sum] risk[Sum] 
0.0 NaN NaN NaN NaN NaN NaN NaN 
2.000101793669918 NaN NaN 4988.0 NaN 1497.0 0.0 1497.0 
4.000101793669918 NaN NaN 4988.0 NaN 1497.0 0.0 1497.0 
6.000101793669918 2619.0 NaN 4992.748162992652 0.6857622568064996 1497.0 0.0 1497.0 
8.000101793669918 2784.0 NaN 4995.4255177020705 2.6444047589142174 1497.0 0.0 1497.0 
10.000101793669918 2788.0 NaN 4995.011356045424 3.6634013889011077 1497.0 0.0 1497.0 
12.000101793669918 2796.0 NaN 4994.802939211757 1.6475657926348324 1493.0 4.0 1493.0 
14.000101793669918 2796.0 NaN 4991.3667334669335 3.6475657926348326 1493.0 4.0 1493.0 
16.00010179366992 2799.0 NaN 4994.145624582498 0.9791752651331557 1482.0 15.0 1482.0 
18.00010179366992 2799.0 NaN 4993.39211756847 2.6533717246757553 1481.0 16.0 1481.0 
20.00010179366992 2803.0 NaN 4993.336005344021 3.677533850773329 1470.0 27.0 1470.0 
22.00010179366992 2814.0 NaN 4992.814963259853 1.6763616366273713 1461.0 36.0 1461.0 
24.00010179366992 2814.0 NaN 4991.051436205745 3.6763616366273713 1461.0 36.0 1461.0 
26.00010179366992 2819.0 NaN 4992.6733466933865 1.0346326887881423 1438.0 59.0 1438.0 
28.00010179366992 2820.0 NaN 4993.197060788243 2.7113763717338117 1436.0 61.0 1436.0 
30.00010179366992 2820.0 NaN 4993.319973279893 3.731418207460396 1441.0 56.0 1441.0 
32.00010179366992 2828.0 NaN 4992.518370073481 1.7387917295298494 1436.0 61.0 1436.0 
34.00010179366992 2828.0 NaN 4991.096860387442 3.738791729529849 1435.0 62.0 1435.0 
36.00010179366992 2841.0 NaN 4992.534402137609 1.1005331190695553 1422.0 75.0 1422.0 
38.00010179366992 2844.0 NaN 4993.004676018704 2.7771165812584178 1420.0 77.0 1420.0 
40.00010179366992 2845.0 NaN 4993.202404809619 3.794911850336069 1417.0 80.0 1417.0 
42.00010179366992 2856.0 NaN 4992.363393453574 1.8166530655184419 1421.0 76.0 1421.0 
44.00010179366992 2856.0 NaN 4991.024716098865 3.816653065518442 1422.0 75.0 1422.0 
46.00010179366992 2875.0 NaN 4992.430193720775 1.1578402829721703 1423.0 74.0 1423.0 
48.00010179366992 2878.0 NaN 4992.951235804943 2.8339789571446685 1423.0 74.0 1423.0 
50.00010179366992 2883.0 NaN 4993.122244488978 3.8668051234211442 1423.0 74.0 1423.0 
52.00010179366992 2913.0 NaN 4992.561122244489 1.9212512579043632 1428.0 69.0 1428.0 
54.00010179366992 2913.0 NaN 4991.2571810287245 3.9212512579043635 1428.0 69.0 1428.0 
56.00010179366992 2931.0 NaN 4992.6386105544425 1.2914251506728307 1427.0 70.0 1427.0 
58.00010179366992 2932.0 NaN 4993.092852371409 2.968662365655311 1427.0 70.0 1427.0 
60.00010179366992 2938.0 NaN 4990.193720774883 3.994636973452849 1425.0 71.0 1425.0 
62.00010179366992 2954.0 NaN 1524.6225784903152 2.0329650463790925 639.0 67.0 299.0 
64.00004202794281 2954.0 NaN 1524.2725450901814 3.660412660578136 620.0 68.0 298.0 
66.00010179366993 2966.0 NaN 1524.6332665330663 1.6655349245152973 558.0 72.0 294.0 
68.00004202794283 2966.0 NaN 1524.4676018704088 3.087197726062536 539.0 75.0 291.0 
70.00010179366993 2965.0 NaN 1524.5050100200394 3.171371855640755 488.0 77.0 289.0 
72.00004202794283 2990.0 NaN 1524.5210420841693 2.4930878005326145 488.0 69.0 297.0 
74.00010179366993 2994.0 NaN 1527.2758851035394 3.1908850227843684 464.0 70.0 297.0 
76.00004202794283 2975.0 NaN 1527.5751503006 2.070078944265612 454.0 71.0 296.0 
78.00010179366993 2977.0 NaN 1527.4789579158307 2.5652229017143555 438.0 73.0 294.0 
80.00004202794283 2976.0 NaN 1527.5083500334 3.5980184411497143 436.0 74.0 293.0 
82.00010179366993 2995.0 NaN 1533.6299265197065 2.0190287390830512 432.0 69.0 300.0 
84.00004202794283 2995.0 NaN 1533.3413493653973 3.621566161217279 431.0 69.0 300.0 
86.00010179366993 2976.0 NaN 1533.63794255177 1.7136015335913506 424.0 72.0 297.0 
88.00004202794283 2975.0 NaN 1533.5364061456246 3.121024333196648 423.0 73.0 296.0 
90.00010179366993 2977.0 NaN 1533.520374081497 3.254484078405181 422.0 73.0 296.0 
92.00004202794283 2983.0 NaN 1533.6325985303936 2.5969362432879284 426.0 69.0 300.0 
94.00010179366993 2983.0 NaN 1533.3440213760848 3.2851902787096696 425.0 67.0 302.0 
96.00004202794283 2961.0 NaN 1533.7047428189726 2.1774671985813545 421.0 70.0 299.0 
98.00010179366993 2959.0 NaN 1536.6252505010002 2.6634557129692844 417.0 72.0 298.0 
100.00004202794283 2956.0 NaN 1536.643954575818 3.6968162405027303 414.0 75.0 295.0 
102.00010179366993 2956.0 NaN 1536.6920507682025 2.175628214839377 420.0 69.0 301.0 
104.00004202794283 2958.0 NaN 1536.384769539079 3.7664043353333136 420.0 69.0 301.0 
106.00010179366993 2932.0 NaN 1539.863727454909 1.771088156055698 419.0 67.0 304.0 
108.00004202794283 2930.0 NaN 1539.625918503673 3.0878314343763558 415.0 70.0 301.0 
110.00010179366993 2927.0 NaN 1539.660654642618 3.229467803967619 414.0 70.0 301.0 
112.00004202794283 2917.0 NaN 1539.8476953907818 2.5530903526788706 417.0 66.0 305.0 
114.00010179366993 2924.0 NaN 1539.5163660654637 3.264206657917544 416.0 67.0 304.0 
116.00004202794283 2923.0 NaN 1539.8690714762847 2.201726515699769 411.0 71.0 300.0 
118.00010179366993 2921.0 NaN 1539.665998663994 2.7056792908526854 409.0 71.0 300.0 
120.00004202794283 2926.0 NaN 1539.6633266533067 3.7037419742827673 410.0 70.0 301.0 
122.00010179366993 2956.0 NaN 1539.8022712090844 2.2200810401612547 416.0 66.0 305.0 
124.00004202794283 2958.0 NaN 1539.4762859051452 3.8002712780834966 417.0 65.0 306.0 
126.00010179366993 2954.0 NaN 1546.1108884435546 1.8840246151942617 412.0 70.0 303.0 
128.0000420279428 2954.0 NaN 1545.7608550434184 3.2477485544554843 411.0 71.0 302.0 
130.00010179366993 2965.0 NaN 1545.8303273213091 3.402160881305021 406.0 76.0 297.0 
132.0000420279428 2970.0 NaN 1543.0140280561118 2.7057757494836836 416.0 65.0 307.0 
134.00010179366993 2972.0 NaN 1542.6880427521726 3.4153152193224803 415.0 64.0 308.0 
136.0000420279428 2976.0 NaN 1543.0995323981274 2.4876896140074294 422.0 58.0 314.0 
138.00010179366993 2979.0 NaN 1539.7995991983973 2.998767051763882 419.0 60.0 311.0 
140.0000420279428 2992.0 NaN 1539.8663994656 3.883110526749389 416.0 62.0 309.0 
142.00010179366993 3016.0 NaN 1545.9639278557092 2.470240538912532 417.0 62.0 311.0 
144.0000420279428 3018.0 NaN 1545.7181028724115 4.054022562996141 417.0 62.0 311.0 
146.00010179366993 3022.0 NaN 1549.0554442217756 2.166049815043053 411.0 69.0 305.0 
148.0000420279428 3019.0 NaN 1548.9832999332 3.4567973161581063 410.0 70.0 304.0 
150.00010179366993 3024.0 NaN 1549.0607882431543 3.582704413747584 407.0 73.0 301.0 
152.0000420279428 3025.0 NaN 1539.8824315297275 2.8474001770555093 403.0 77.0 294.0 
154.00010179366993 3027.0 NaN 1536.5851703406818 3.565918419068372 404.0 76.0 294.0 
156.0000420279428 2985.0 NaN 1533.8517034068154 2.332497632248185 414.0 65.0 304.0 
158.00010179366993 2990.0 NaN 1530.5784903139613 2.848593209178053 412.0 67.0 301.0 
160.0000420279428 2990.0 NaN 1527.60454241817 3.816692338144305 407.0 71.0 296.0 
162.00010179366993 2992.0 NaN 1533.6833667334663 2.3733803451130706 409.0 68.0 301.0 
164.0000420279428 2991.0 NaN 1533.4268537074154 3.839205925469789 402.0 75.0 294.0 
166.00010179366993 2992.0 NaN 1536.9084836339364 1.9955077068120894 395.0 81.0 289.0 
168.0000420279428 2992.0 NaN 1536.7187708750819 3.327038513137097 393.0 82.0 288.0 
170.00010179366993 3000.0 NaN 1533.7100868403454 3.452935674089314 390.0 84.0 285.0 
172.0000420279428 3003.0 NaN 1536.8416833667338 2.793504345873716 390.0 83.0 287.0 
174.00010179366993 3001.0 NaN 1536.5344021376093 3.509157476445683 386.0 86.0 284.0 
176.0000420279428 3010.0 NaN 1533.7929191716753 2.520467471513298 404.0 68.0 301.0 
178.00010179366993 3012.0 NaN 1536.6626586506363 3.0882323084223606 402.0 69.0 301.0 
180.0000420279428 3014.0 NaN 1536.7294589178366 3.9057564155240145 403.0 69.0 301.0 
182.00010179366993 3008.0 NaN 1542.81095524382 2.4857960229758054 407.0 63.0 309.0 
184.0000420279428 3013.0 NaN 1542.5624582498342 4.0115607145539975 405.0 64.0 308.0 
186.00010179366993 3015.0 NaN 1542.9873079492343 2.091982013049274 401.0 66.0 306.0 
188.0000420279428 3009.0 NaN 1542.7788911155635 3.312360262175678 399.0 68.0 304.0 
190.00010179366993 3006.0 NaN 1539.7755511022026 3.4432035014037687 396.0 71.0 300.0 
192.0000420279428 3011.0 NaN 1539.8450233800934 2.847598407921924 403.0 65.0 306.0 
194.00010179366993 3010.0 NaN 1539.6472945891792 3.497159325096513 404.0 65.0 306.0 
196.0000420279428 2979.0 NaN 1539.9545758183024 2.4559470776082266 394.0 75.0 296.0 
198.00010179366993 2985.0 NaN 1539.7114228456908 2.98529478033243 391.0 78.0 293.0 
200.0000420279428 2989.0 NaN 1539.7728790915182 3.943433871230696 385.0 84.0 287.0 
202.00010179366993 2988.0 NaN 1549.0287241148976 2.5029962588668773 388.0 83.0 291.0 
204.0000420279428 2983.0 NaN 1548.8603874415478 3.9465928443972182 390.0 81.0 293.0 
206.00010179366993 2973.0 NaN 1549.1436205744817 2.1238203427902826 392.0 79.0 295.0 
208.0000420279428 2971.0 NaN 1545.923847695391 3.417445190297606 389.0 82.0 291.0 
210.00010179366993 2974.0 NaN 1545.9158316633275 3.5493026008781863 387.0 83.0 290.0 
212.0000420279428 2959.0 NaN 1549.0207080828338 2.922530190829032 395.0 76.0 298.0 
214.00010179366993 2959.0 NaN 1548.8203072812273 3.6258161075960595 394.0 76.0 298.0 
216.0000420279428 2931.0 NaN 1542.9151636606543 2.625131003768312 395.0 74.0 298.0 
218.00010179366993 2934.0 NaN 1539.7461589846364 3.1234560639075766 395.0 74.0 297.0 
220.0000420279428 2928.0 NaN 1545.873079492318 4.0610230315120885 395.0 73.0 300.0 
222.00010179366993 2937.0 NaN 1548.9726118904455 2.6312769126416113 398.0 71.0 303.0 
224.0000420279428 2932.0 NaN 1548.780227120909 3.9549440900357142 397.0 71.0 303.0 
226.00010179366993 2933.0 NaN 1545.9772879091522 2.132527779274277 392.0 75.0 298.0 
228.0000420279428 2936.0 NaN 1545.857047428191 3.4335203443593976 390.0 77.0 296.0 
230.00010179366993 2941.0 NaN 1549.0180360721456 3.533824921037486 388.0 79.0 295.0 
232.0000420279428 2926.0 NaN 1552.0267201068818 2.9029920750774956 394.0 73.0 302.0 
234.00010179366993 2918.0 NaN 1551.7862391449546 3.540096819818968 396.0 73.0 302.0 
236.0000420279428 2900.0 NaN 1549.0634602538425 2.4473041145671095 397.0 72.0 302.0 
238.00010179366993 2903.0 NaN 1545.7849031396117 2.954278684061292 393.0 74.0 299.0 
240.0000420279428 2904.0 NaN 1545.8517034068157 3.868262551717219 391.0 76.0 297.0 
242.00010179366993 2902.0 NaN 1545.907815631264 2.489462421223234 389.0 77.0 296.0 
244.0000420279428 2903.0 NaN 1545.7154308617248 3.9544880355520435 390.0 77.0 296.0 
246.00010179366993 2896.0 NaN 1542.9311957247817 2.189609952688094 386.0 81.0 291.0 
248.0000420279428 2892.0 NaN 1539.6633266533067 3.5135042601113016 382.0 84.0 287.0 
250.00010179366993 2885.0 NaN 1542.8483633934547 3.628479010431373 383.0 83.0 289.0 
252.0000420279428 2875.0 NaN 1542.8991315965272 3.019675733262801 386.0 81.0 291.0 
254.00010179366993 2864.0 NaN 1542.6506346025365 3.556125734996566 386.0 81.0 291.0 
256.0000420279428 2863.0 NaN 1539.9251837007362 2.5604899870840616 386.0 80.0 291.0 
258.00010179366996 2867.0 NaN 1539.72478289913 3.0075054629216695 384.0 82.0 289.0 
260.0000420279428 2866.0 NaN 1536.7668670674698 3.966605438373687 382.0 83.0 287.0 
262.00010179366996 2859.0 NaN 1533.6539746158999 2.514390656203942 388.0 78.0 291.0 
264.0000420279428 2855.0 NaN 1533.4348697394794 3.9403864502304176 390.0 77.0 292.0 
266.00010179366996 2886.0 NaN 1543.0086840347365 2.133460423088117 392.0 74.0 298.0 
268.0000420279428 2892.0 NaN 1542.7521710086817 3.4305470302943673 392.0 75.0 297.0 
270.00010179366996 2892.0 NaN 1539.8102872411482 3.4989586343497217 390.0 75.0 296.0 
272.0000420279428 2879.0 NaN 1542.9659318637273 2.8907285639341294 393.0 71.0 301.0 
274.00010179366996 2876.0 NaN 1542.7334669338663 3.551237857527999 393.0 70.0 302.0 
276.0000420279428 2862.0 NaN 1546.0788243152977 2.6298705289195103 392.0 72.0 301.0 
278.00010179366996 2862.0 NaN 1552.024048096191 3.106337395109013 389.0 75.0 300.0 
280.0000420279428 2864.0 NaN 1552.0507682030725 4.021879073877682 392.0 75.0 300.0 
282.00010179366996 2874.0 NaN 1552.0587842351363 2.7224052084395978 396.0 72.0 303.0 
284.0000420279428 2877.0 NaN 1554.8964595858365 4.151682456422452 397.0 72.0 304.0 
286.00010179366996 2864.0 NaN 1555.1743486973935 2.4059696576915983 395.0 72.0 304.0 
288.0000420279428 2858.0 NaN 1554.9605878423522 3.6049773051991973 392.0 74.0 302.0 
290.00010179366996 2857.0 NaN 1555.003340013361 3.737413186224763 393.0 74.0 302.0 
292.0000420279428 2828.0 NaN 1552.0080160320636 3.1444076500238984 400.0 68.0 307.0 
294.00010179366996 2829.0 NaN 1545.6887107548432 3.8095741111304884 397.0 68.0 305.0 
296.0000420279428 2805.0 NaN 1542.880427521709 2.7566302409384025 396.0 69.0 303.0 
298.00010179366996 2810.0 NaN 1545.8223112892456 3.302651046135667 394.0 70.0 303.0 
300.0000420279428 2804.0 NaN 1545.8223112892456 4.198640618343205 394.0 70.0 303.0 
302.00010179366996 2796.0 NaN 1539.6927187708748 2.841928896896813 395.0 68.0 303.0 
304.0000420279428 2790.0 NaN 1539.4549098196387 4.200394500625207 392.0 68.0 303.0 
306.00010179366996 2788.0 NaN 1539.695390781564 2.3818562339665816 397.0 64.0 307.0 
308.0000420279428 2787.0 NaN 1539.5350701402817 3.5420095879409677 394.0 66.0 305.0 
310.00010179366996 2785.0 NaN 1533.4295257181022 3.657385903409785 393.0 67.0 302.0 
312.0000420279428 2775.0 NaN 1533.5283901135613 2.969047981090035 400.0 60.0 309.0 
314.00010179366996 2772.0 NaN 1533.3039412157636 3.5700975397748875 400.0 60.0 309.0 
316.0000420279428 2753.0 NaN 1533.5951903807636 2.4649090856499964 396.0 63.0 306.0 
318.00010179366996 2755.0 NaN 1536.510354041418 2.902797622190583 393.0 65.0 305.0 
320.0000420279428 2754.0 NaN 1536.553106212425 3.8607694996707234 391.0 67.0 303.0 
322.00010179366996 2746.0 NaN 1539.6179024716089 2.4249158364660364 395.0 65.0 306.0 
324.0000420279428 2745.0 NaN 1539.4228456913816 3.8300820432237286 395.0 65.0 306.0 
326.00010179366996 2733.0 NaN 1542.8376753507 2.0824465523638795 398.0 63.0 309.0 
328.0000420279428 2731.0 NaN 1539.6045424181705 3.3322967362131055 398.0 63.0 308.0 
330.00010179366996 2731.0 NaN 1539.607214428857 3.3598494573583566 397.0 64.0 307.0 
332.0000420279428 2736.0 NaN 1539.7167668670663 2.808297069406591 400.0 62.0 309.0 
334.00010179366996 2733.0 NaN 1539.4869739478975 3.448665176026692 399.0 62.0 309.0 
336.0000420279428 2737.0 NaN 1542.8777555110207 2.4984094297592385 403.0 58.0 314.0 
338.00010179366996 2745.0 NaN 1539.6659986639934 2.9485134896998244 401.0 61.0 310.0 
340.0000420279428 2744.0 NaN 1533.5604542418182 3.8698200214796863 398.0 62.0 307.0 
342.00010179366996 2751.0 NaN 1530.4876419505665 2.3762471783446517 400.0 60.0 308.0 
344.0000420279428 2754.0 NaN 1530.263193052773 3.8629587679391313 402.0 59.0 309.0 
346.00010179366996 2740.0 NaN 1530.514362057448 2.0588543214850707 399.0 61.0 307.0 
348.0000420279428 2746.0 NaN 1527.3747494989998 3.378570063161959 395.0 63.0 304.0 
350.00010179366996 2746.0 NaN 1530.4689378757519 3.4631803762086824 395.0 64.0 304.0 
352.0000420279428 2763.0 NaN 1530.4555778223094 2.857630348854078 392.0 67.0 301.0 
354.00010179366996 2770.0 NaN 1527.230460921845 3.4558388240852826 395.0 67.0 300.0 
356.0000420279428 2760.0 NaN 1527.409485637943 2.47411605167009 400.0 60.0 307.0 
358.00010179366996 2761.0 NaN 1527.2678690714758 2.943917048236906 398.0 62.0 305.0 
360.0000420279428 2756.0 NaN 1527.3613894455573 3.809152418568348 395.0 64.0 303.0 
362.00010179366996 2766.0 NaN 1524.2859051436203 2.400802450859652 397.0 60.0 306.0 
364.0000420279428 2766.0 NaN 1518.0040080160334 3.854483280502695 397.0 60.0 304.0 
366.00010179366996 2771.0 NaN 1518.1456245824993 2.153029790511612 397.0 60.0 304.0 
368.0000420279428 2769.0 NaN 1511.9118236472939 3.3666643127937075 394.0 64.0 298.0 
370.00010179366996 2773.0 NaN 1515.0861723446903 3.523132072507922 392.0 66.0 297.0 
372.0000420279428 2788.0 NaN 1518.1643286573153 2.9697380639392463 393.0 66.0 298.0 
374.00010179366996 2793.0 NaN 1518.0173680694727 3.6084494068034005 394.0 66.0 298.0 
376.0000420279428 2783.0 NaN 1518.2177688710751 2.729528432733339 394.0 66.0 298.0 
378.00010179366996 2779.0 NaN 1521.1703406813635 3.1718021804763463 393.0 69.0 296.0 
380.0000420279428 2778.0 NaN 1521.2184368737462 4.101806269632922 390.0 71.0 294.0 
382.00010179366996 2784.0 NaN 1515.0647962591843 2.757603442044433 394.0 65.0 298.0 
384.0000420279428 2791.0 NaN 1511.8557114228454 4.052159608886634 394.0 67.0 295.0 
386.00010179366996 2807.0 NaN 1512.0881763527063 2.291610773181371 404.0 61.0 301.0 
388.0000420279428 2804.0 NaN 1511.9251837007357 3.5272598061898193 402.0 64.0 298.0 
390.00010179366996 2807.0 NaN 1511.9545758183024 3.6730151624486345 401.0 65.0 297.0 
392.0000420279428 2820.0 NaN 1515.0835003340005 3.1653549835209795 405.0 62.0 301.0 
394.00010179366996 2826.0 NaN 1518.0494321977278 3.8189902282031323 406.0 61.0 303.0 
396.0000420279428 2830.0 NaN 1524.3473613894453 2.8586765984078397 406.0 64.0 302.0 
398.00010179366996 2823.0 NaN 1521.1756847027384 3.306997675918079 404.0 66.0 299.0 
400.0000420279428 2818.0 NaN 1515.0888443553788 4.063780324828866 403.0 68.0 295.0 
402.00010179366996 2841.0 NaN 1515.0861723446903 2.7575739729755893 407.0 65.0 298.0 
404.0000420279428 2844.0 NaN 1514.9365397461581 4.162886153688159 408.0 65.0 298.0 
406.00010179366996 2861.0 NaN 1521.3466933867728 2.531617713700421 416.0 59.0 306.0 
408.0000420279428 2859.0 NaN 1524.2484969939885 3.8247332869206208 413.0 62.0 304.0 
410.00010179366996 2854.0 NaN 1527.3961255845004 3.9017977790130387 411.0 64.0 303.0 
412.0000420279428 2844.0 NaN 1533.6432865731454 3.3262715329137933 408.0 65.0 304.0 
414.00010179366996 2850.0 NaN 1533.4829659318634 3.9878775606325063 409.0 65.0 304.0 
416.0000420279428 2836.0 NaN 1533.6967267869088 2.954993226960353 408.0 67.0 302.0 
418.00010179366996 2834.0 NaN 1533.4883099532394 3.3997597452668473 407.0 67.0 302.0 
420.0000420279428 2820.0 NaN 1527.4388777555096 4.010344653845968 406.0 67.0 300.0 
422.00010179366996 2834.0 NaN 1524.3420173680702 2.694990414311415 414.0 59.0 307.0 
424.0000420279428 2840.0 NaN 1521.047428189712 4.172056024072197 414.0 59.0 306.0 
426.00010179366996 2849.0 NaN 1530.5330661322637 2.4563947265879693 422.0 54.0 314.0 
428.0000420279428 2840.0 NaN 1533.4134936539733 3.7204162418813786 419.0 56.0 313.0 
430.00010179366996 2842.0 NaN 1530.3299933199726 3.8742925837125624 422.0 58.0 310.0 
432.0000420279428 2832.0 NaN 1530.460921843688 3.1949246623280887 425.0 54.0 314.0 
434.00010179366996 2839.0 NaN 1545.6993987975939 3.871383103271015 426.0 54.0 319.0 
436.0000420279428 2844.0 NaN 1552.0881763527061 2.952165306855407 419.0 64.0 311.0 
438.00010179366996 2851.0 NaN 1551.9011356045428 3.4323812240093794 416.0 68.0 307.0 
440.0000420279428 2838.0 NaN 1551.9652638610546 4.147673699149735 413.0 71.0 304.0 
442.00010179366996 2835.0 NaN 1558.094856379427 2.902614025369769 425.0 58.0 319.0 
444.0000420279428 2834.0 NaN 1557.9639278557092 4.224657148540656 425.0 58.0 319.0 
446.00010179366996 2842.0 NaN 1567.3132932531726 2.6553604149775425 426.0 60.0 320.0 
448.0000420279428 2840.0 NaN 1567.134268537073 3.8199855873708346 424.0 63.0 317.0 
450.00010179366996 2830.0 NaN 1570.3273213092848 3.8094363168921377 427.0 64.0 317.0 
452.0000420279428 2806.0 NaN 1573.3012692050756 3.1588627125057007 438.0 54.0 328.0 
454.00010179366996 2810.0 NaN 1573.2184368737455 3.843817190553199 438.0 54.0 328.0 
456.0000420279428 2796.0 NaN 1582.714762859052 2.9575614170437494 437.0 55.0 330.0 
458.00010179366996 2803.0 NaN 1573.3627254509 3.341815797226529 435.0 57.0 325.0 
460.0000420279428 2804.0 NaN 1573.3306613226455 4.1955896913775526 429.0 59.0 323.0 
462.00010179366996 2801.0 NaN 1573.338677354709 2.8448688423087134 431.0 57.0 325.0 
464.0000420279428 2800.0 NaN 1573.2184368737455 4.209274858246687 432.0 57.0 325.0 
466.00010179366996 2781.0 NaN 1573.4802939211752 2.501072472629978 430.0 58.0 324.0 
468.0000420279428 2776.0 NaN 1573.338677354709 3.711606653568007 427.0 60.0 322.0 
470.00010179366996 2770.0 NaN 1573.3440213760844 3.7283361297638207 425.0 62.0 320.0 
472.0000420279428 2778.0 NaN 1570.2204408817638 3.227143433155155 429.0 58.0 323.0 
474.00010179366996 2785.0 NaN 1567.072812291248 3.910110522551662 429.0 58.0 322.0 
476.0000420279428 2756.0 NaN 1567.3266533066117 3.0155098901784316 431.0 56.0 324.0 
478.00010179366996 2749.0 NaN 1567.1369405477635 3.4189912423739055 427.0 58.0 322.0 
480.0000420279428 2747.0 NaN 1564.0534402137614 4.186246162382445 426.0 59.0 320.0 
482.00010179366996 2759.0 NaN 1557.907815631264 2.823051307406804 427.0 57.0 320.0 
484.0000420279428 2754.0 NaN 1548.6092184368727 4.0577758097310275 426.0 57.0 317.0 
486.00010179366996 2744.0 NaN 1548.769539078155 2.333465762884046 424.0 57.0 317.0 
488.0000420279428 2737.0 NaN 1545.683366733466 3.499637003749886 421.0 59.0 314.0 
490.00010179366996 2741.0 NaN 1545.6486305945211 3.5951023748986923 417.0 61.0 312.0 
492.0000420279428 2756.0 NaN 1542.6239144956576 3.0686451079122032 418.0 60.0 312.0 
494.00010179366996 2753.0 NaN 1542.4983299933187 3.698500939632859 419.0 60.0 312.0 
496.0000420279428 2728.0 NaN 1536.5344021376093 2.8240971382695035 413.0 65.0 305.0 
498.00010179366996 2724.0 NaN 1536.4408817635274 3.209795795042602 411.0 67.0 303.0 
500.0000420279428 2714.0 NaN 1533.4615898463608 4.000606163038171 409.0 69.0 300.0 
502.00010179366996 2715.0 NaN 1533.4001336005356 2.674689754674833 414.0 62.0 307.0 
504.0000420279428 2719.0 NaN 1533.3092852371426 4.05226770179886 414.0 61.0 308.0 
506.00010179366996 2713.0 NaN 1536.5771543086182 2.420745749577907 417.0 59.0 311.0 
508.0000420279428 2707.0 NaN 1536.4569138276547 3.608664841580754 416.0 61.0 309.0 
510.00010179366996 2709.0 NaN 1524.1897127588518 3.6192966477740267 417.0 61.0 305.0 
512.0000420279429 2717.0 NaN 1527.289245156982 3.036084467119186 423.0 55.0 312.0 
514.00010179367 2723.0 NaN 1524.0988643954568 3.6044873412718728 422.0 55.0 311.0 
516.0000420279428 2695.0 NaN 1521.1890447561798 2.624781251061831 416.0 59.0 306.0 
518.00010179367 2689.0 NaN 1514.9445557782242 2.9875932471513975 410.0 64.0 299.0 
520.0000420279428 2689.0 NaN 1505.808951235806 3.716837320178606 406.0 67.0 293.0 
522.00010179367 2700.0 NaN 1496.5664662658644 2.4480787145129708 407.0 65.0 292.0 
524.0000420279428 2707.0 NaN 1496.5290581162335 3.7548749043337546 407.0 65.0 292.0 
526.00010179367 2705.0 NaN 1493.5738142952564 2.1291129602499637 401.0 67.0 289.0 
528.0000420279428 2718.0 NaN 1493.4883099532392 3.4389059607576593 401.0 69.0 287.0 
530.00010179367 2736.0 NaN 1487.3934535738153 3.5006238191553627 398.0 71.0 283.0 
532.0000420279428 2745.0 NaN 1487.3987975951911 2.9908605690185466 398.0 68.0 286.0 
534.00010179367 2755.0 NaN 1487.2865731462919 3.5724461193165817 396.0 67.0 287.0 
536.0000420279428 2747.0 NaN 1490.5624582498335 2.7778850487936495 398.0 63.0 292.0 
538.00010179367 2760.0 NaN 1490.399465597863 3.268414533704421 397.0 64.0 291.0 
540.0000420279428 2754.0 NaN 1490.4555778223103 4.074990960628376 399.0 63.0 292.0 
542.00010179367 2764.0 NaN 1493.5257181028728 2.8485903850048166 404.0 58.0 298.0 
544.0000420279428 2770.0 NaN 1487.2625250501 4.121239468244699 405.0 58.0 296.0 
546.00010179367 2749.0 NaN 1493.6272545090183 2.4259312905756345 403.0 59.0 297.0 
548.0000420279428 2749.0 NaN 1490.3941215764876 3.6721980918942445 400.0 60.0 295.0 
550.00010179367 2745.0 NaN 1484.2805611222452 3.676474581009668 398.0 62.0 291.0 
552.0000420279428 2733.0 NaN 1487.3293253173008 3.157997946811392 391.0 68.0 286.0 
554.00010179367 2733.0 NaN 1487.2358049432191 3.569876854583551 390.0 68.0 286.0 
556.0000420279428 2716.0 NaN 1481.1943887775547 2.7401213940796993 391.0 67.0 285.0 
558.00010179367 2720.0 NaN 1471.9492317969275 3.1268229007381043 388.0 69.0 280.0 
560.0000420279428 2719.0 NaN 1478.1429525718097 4.044566446299032 389.0 69.0 282.0 
562.00010179367 2726.0 NaN 1478.0708082832336 2.7481081548936857 396.0 64.0 287.0 
564.0000420279428 2735.0 NaN 1481.0741482965923 3.955149883542551 397.0 64.0 288.0 
566.00010179367 2737.0 NaN 1478.1883767535078 2.416458170060668 396.0 64.0 287.0 
568.0000420279428 2743.0 NaN 1481.247828991317 3.6290332540837564 392.0 68.0 284.0 
570.00010179367 2738.0 NaN 1481.231796927188 3.544657791567739 392.0 69.0 283.0 
572.0000420279428 2748.0 NaN 1490.476953907816 3.1478511069907142 400.0 63.0 292.0 
574.00010179367 2762.0 NaN 1490.3780895123573 3.699737285202293 399.0 63.0 292.0 
576.0000420279428 2779.0 NaN 1493.592518370073 2.955599013404167 402.0 63.0 293.0 
578.00010179367 2781.0 NaN 1490.5597862391455 3.416245273070966 404.0 62.0 293.0 
580.0000420279428 2781.0 NaN 1490.5624582498335 4.335354739918978 403.0 63.0 292.0 
582.00010179367 2800.0 NaN 1496.5691382765535 3.1503465515729525 406.0 61.0 296.0 
584.0000420279428 2799.0 NaN 1493.4081496325991 4.308344689470791 407.0 61.0 295.0 
586.00010179367 2796.0 NaN 1496.5958583834345 2.74604775608299 408.0 62.0 295.0 
588.0000420279428 2794.0 NaN 1496.534402137609 3.89732068028189 406.0 64.0 293.0 
590.00010179367 2789.0 NaN 1496.5905143620566 3.951647499970612 406.0 65.0 292.0 
592.0000420279428 2776.0 NaN 1499.5965263861062 3.2453046297471517 411.0 61.0 297.0 
594.00010179367 2792.0 NaN 1502.6559786239152 3.7132150701775446 415.0 61.0 298.0 
596.0000420279428 2782.0 NaN 1502.8056112224453 2.958389798499398 413.0 62.0 297.0 
598.00010179367 2781.0 NaN 1508.9485637942546 3.353304472257561 414.0 64.0 297.0 
600.0000420279428 2776.0 NaN 1515.0567802271203 4.108628439602383 414.0 64.0 299.0 
602.00010179367 2768.0 NaN 1511.893119572479 2.944323468999957 408.0 68.0 294.0 
604.0000420279428 2774.0 NaN 1514.952571810288 4.158240174873875 409.0 68.0 295.0 
606.00010179367 2780.0 NaN 1518.2471609886445 2.5973233156293904 408.0 69.0 295.0 
608.0000420279428 2778.0 NaN 1521.2424849699394 3.651659686876707 406.0 71.0 294.0 
610.00010179367 2782.0 NaN 1518.1937207748826 3.7605888728832384 405.0 72.0 292.0 
612.0000420279428 2792.0 NaN 1515.0300601202393 3.40912140098319 405.0 71.0 292.0 
614.00010179367 2792.0 NaN 1518.07348029392 3.927065428403999 407.0 71.0 293.0 
616.0000420279428 2788.0 NaN 1521.2692050768192 3.0302639547214985 402.0 73.0 292.0 
618.00010179367 2786.0 NaN 1527.372077488309 3.2642297083485916 402.0 74.0 293.0 
620.0000420279428 2787.0 NaN 1527.3346693386784 4.109286121247805 402.0 74.0 293.0 
622.00010179367 2799.0 NaN 1530.3914495657993 2.884622487597473 407.0 69.0 299.0 
624.0000420279428 2806.0 NaN 1539.524382097527 4.192275777866291 407.0 70.0 301.0 
626.00010179367 2819.0 NaN 1539.7221108884448 2.6514144915380964 409.0 68.0 303.0 
628.0000420279428 2830.0 NaN 1533.520374081497 3.6266719584304496 403.0 72.0 297.0 
630.00010179367 2841.0 NaN 1530.4021376085516 3.6475552579707986 405.0 69.0 299.0 
632.0000420279428 2871.0 NaN 1539.7060788243161 3.224152041354149 409.0 68.0 303.0 
634.00010179367 2893.0 NaN 1542.661322645291 3.683850801924392 404.0 70.0 302.0 
636.0000420279428 2909.0 NaN 1545.9639278557097 2.9478717001622585 410.0 67.0 306.0 
638.00010179367 2906.0 NaN 1542.722778891116 3.2343505219609834 415.0 66.0 306.0 
640.0000420279428 2913.0 NaN 1542.7628590514364 4.145265154158843 410.0 70.0 302.0 
642.00010179367 2929.0 NaN 1542.7601870407475 3.003730647744661 415.0 65.0 307.0 
644.0000420279428 2936.0 NaN 1542.6158984635929 4.2703986094583675 415.0 65.0 307.0 
646.00010179367 2931.0 NaN 1542.8056112224456 2.833816454424239 406.0 72.0 300.0 
648.0000420279428 2922.0 NaN 1542.746826987309 3.826355133870844 404.0 74.0 298.0 
650.00010179367 2921.0 NaN 1539.7034068136272 3.926777985155898 400.0 77.0 294.0 
652.0000420279428 2930.0 NaN 1542.8056112224456 3.442251791599323 402.0 76.0 296.0 
654.00010179367 2945.0 NaN 1545.7020708082828 3.9228990545940765 401.0 76.0 297.0 
656.0000420279428 2918.0 NaN 1542.8243152972618 3.2239304162919136 405.0 72.0 300.0 
658.00010179367 2913.0 NaN 1542.6586506346018 3.558909129401731 402.0 73.0 299.0 
660.0000420279428 2907.0 NaN 1545.8410153640623 4.430980705194063 400.0 73.0 300.0 
662.00010179367 2923.0 NaN 1548.9832999332002 3.2242737168685127 410.0 65.0 309.0 
664.0000420279428 2922.0 NaN 1548.8710754843012 4.4607391614264085 411.0 64.0 310.0 
#####################################################################
# End of data export. Simulation finished at: 2019-03-07T09:13+0000 #
#####################################################################
