#####################################################################
# Alchemist log file - simulation started at: 2019-03-05T15:32+0000 #
#####################################################################
# seed = 3.0, bandwidth = 17782.79410038923, propagationDelay = 1.0, baserange = 562.341325190349
#
# The columns have the following meaning: 
# time neighbor_count[Sum] <value>@neighbor_count[Sum] packet_size[Mean] mean_delay[Mean] crowd[Sum] overcrowded[Sum] risk[Sum] 
0.0 NaN NaN NaN NaN NaN NaN NaN 
2.0005923698108097 25258.0 NaN 4988.7134268537075 0.18388536154570154 1497.0 0.0 1497.0 
4.00059236981081 98210.0 NaN 4996.050768203073 1.1999234765633453 1497.0 0.0 1497.0 
6.000084666035003 98210.0 NaN 4993.851703406814 1.2005215859518634 1495.0 2.0 1495.0 
8.00059236981081 98210.0 NaN 4995.4148296593185 1.200143758191172 1495.0 2.0 1495.0 
10.00033353340315 98210.0 NaN 4993.792919171677 1.200526646595196 1495.0 2.0 1495.0 
12.00059236981081 98210.0 NaN 4995.4148296593185 1.2001689066305532 1495.0 2.0 1495.0 
14.00059236981081 98210.0 NaN 4993.784903139613 1.2002079385606554 1495.0 2.0 1495.0 
16.000084666035004 98234.0 NaN 4995.390781563126 1.2004725551368765 1495.0 2.0 1495.0 
18.00059236981081 98268.0 NaN 4993.784903139613 1.2004171632665015 1495.0 2.0 1495.0 
20.00033353340315 98269.0 NaN 4995.390781563126 1.2017785909268726 1495.0 2.0 1495.0 
22.00059236981081 98272.0 NaN 4993.795591182365 1.2024538163704963 1495.0 2.0 1495.0 
24.00059236981081 98273.0 NaN 4995.409485637942 1.2034333424008057 1495.0 2.0 1495.0 
26.000084666035004 98308.0 NaN 4993.835671342686 1.2046647341639316 1495.0 2.0 1495.0 
28.00059236981081 98358.0 NaN 4995.441549766199 1.2061514053096587 1495.0 2.0 1495.0 
30.00033353340315 98368.0 NaN 4993.819639278557 1.209501558017583 1495.0 2.0 1495.0 
32.00059236981081 98370.0 NaN 4995.441549766199 1.212123501154594 1495.0 2.0 1495.0 
34.00059236981081 98376.0 NaN 4993.827655310622 1.2163026410674387 1495.0 2.0 1495.0 
36.00008466603501 98436.0 NaN 4995.465597862391 1.220706214822795 1495.0 2.0 1495.0 
38.00059236981081 98489.0 NaN 4993.827655310622 1.2249681725680268 1495.0 2.0 1495.0 
40.00033353340315 98504.0 NaN 4995.468269873079 1.228333865231516 1495.0 2.0 1495.0 
42.00059236981081 98503.0 NaN 4993.824983299934 1.223723731868007 1495.0 2.0 1495.0 
44.00059236981081 98511.0 NaN 4995.438877755511 1.2270958496472084 1495.0 2.0 1495.0 
46.00008466603501 98535.0 NaN 4993.832999331998 1.2321925216009095 1495.0 2.0 1495.0 
48.00059236981081 98563.0 NaN 4995.4255177020705 1.2364905451583925 1495.0 2.0 1495.0 
50.00033353340315 98600.0 NaN 4993.84368737475 1.239937451139814 1495.0 2.0 1495.0 
52.00059236981081 98588.0 NaN 4995.374749498998 1.2296063599069376 1495.0 2.0 1495.0 
54.00059236981081 98592.0 NaN 4993.824983299934 1.2358419694927565 1495.0 2.0 1495.0 
56.00008466603501 98617.0 NaN 4995.3507014028055 1.2392822953561426 1495.0 2.0 1495.0 
58.00059236981081 98673.0 NaN 4993.841015364062 1.2382259593393141 1495.0 2.0 1495.0 
60.00033353340315 98718.0 NaN 4995.3667334669335 1.244657437559146 1495.0 2.0 1495.0 
62.00059236981081 98705.0 NaN 1522.5918503674004 1.0502279740747535 775.0 1.0 364.0 
64.00059236981082 98715.0 NaN 1522.589178356712 1.0963741065867854 673.0 2.0 363.0 
66.00008466603501 98763.0 NaN 1522.4849699398812 1.120632056093204 599.0 2.0 363.0 
68.00059236981082 98833.0 NaN 1522.5731462925849 1.127670429613205 569.0 2.0 363.0 
70.00033353340315 98830.0 NaN 1525.568470273882 1.1262114643946892 547.0 2.0 364.0 
72.00059236981082 98796.0 NaN 1525.645958583836 1.1071730984288768 538.0 2.0 364.0 
74.00059236981082 98803.0 NaN 1525.5497661990635 1.1141371409002785 533.0 2.0 364.0 
76.00008466603501 98821.0 NaN 1525.6539746158996 1.1189938792356457 533.0 2.0 364.0 
78.00059236981082 98857.0 NaN 1531.7167668670666 1.1051002563041619 532.0 2.0 366.0 
80.00033353340315 98880.0 NaN 1534.909819639279 1.1114284681094178 531.0 2.0 367.0 
82.00059236981082 98888.0 NaN 1534.7815631262542 1.1103900157120121 531.0 2.0 367.0 
84.00059236981082 98900.0 NaN 1534.859051436206 1.1165040840313059 529.0 2.0 367.0 
86.00008466603501 98918.0 NaN 1534.7575150300606 1.1194166916942538 528.0 2.0 367.0 
88.00059236981082 98939.0 NaN 1534.8563794255183 1.1195022273409538 528.0 2.0 367.0 
90.00033353340315 98929.0 NaN 1537.814295257182 1.1182729647939778 528.0 2.0 368.0 
92.00059236981082 98949.0 NaN 1537.9131596526365 1.1157202979340028 527.0 2.0 368.0 
94.00059236981082 98952.0 NaN 1537.8009352037398 1.1154812145619108 526.0 2.0 368.0 
96.00008466603501 98961.0 NaN 1540.9779559118242 1.1152233286962034 526.0 2.0 369.0 
98.00059236981082 98985.0 NaN 1540.8470273881092 1.10400569743297 526.0 2.0 369.0 
100.00033353340315 98956.0 NaN 1540.9512358049453 1.1017010747497988 526.0 2.0 369.0 
102.00059236981082 98967.0 NaN 1540.8470273881092 1.1054785674937357 526.0 2.0 369.0 
104.00059236981082 98967.0 NaN 1540.943219772879 1.1109604624191982 526.0 2.0 369.0 
106.00008466603501 99006.0 NaN 1540.8550434201725 1.1180716088693987 526.0 2.0 369.0 
108.00059236981082 99059.0 NaN 1540.9271877087515 1.1214174765291616 525.0 2.0 369.0 
110.00033353340315 99035.0 NaN 1540.8684034736152 1.119839121550151 525.0 2.0 369.0 
112.00059236981082 99056.0 NaN 1540.9645958583822 1.123742414798819 525.0 2.0 369.0 
114.00059236981082 99053.0 NaN 1540.8897795591183 1.126442587715683 526.0 2.0 369.0 
116.00008466603501 99081.0 NaN 1550.2070808283243 1.1297810547725025 527.0 2.0 372.0 
118.00059236981082 99097.0 NaN 1550.0734802939207 1.1201738783086002 528.0 2.0 372.0 
120.00033353340315 98978.0 NaN 1553.2371409485636 1.1006669304080383 528.0 2.0 373.0 
122.00059236981082 98966.0 NaN 1553.1489645958575 1.1035221076513586 528.0 2.0 373.0 
124.00059236981082 98961.0 NaN 1553.247828991318 1.107662319336791 528.0 2.0 373.0 
126.00008466603501 98979.0 NaN 1550.0895123580485 1.1097550554874147 528.0 2.0 372.0 
128.00059236981082 98999.0 NaN 1547.0968603874426 1.1071615777940256 528.0 2.0 371.0 
130.00033353340314 98960.0 NaN 1547.0033400133607 1.1014128067986955 528.0 2.0 371.0 
132.00059236981082 98978.0 NaN 1547.1128924515701 1.1044905116829544 528.0 2.0 371.0 
134.00059236981082 98975.0 NaN 1547.0140280561118 1.1059890304834383 528.0 2.0 371.0 
136.000084666035 98980.0 NaN 1547.1396125584515 1.104949224482234 527.0 2.0 371.0 
138.00059236981082 98986.0 NaN 1547.0247160988636 1.1029965309295127 526.0 2.0 371.0 
140.00033353340314 98957.0 NaN 1547.152972611891 1.0978849880283719 525.0 2.0 371.0 
142.00059236981082 98958.0 NaN 1550.1456245825 1.1009200342473444 523.0 2.0 372.0 
144.00059236981082 98960.0 NaN 1550.2257849031391 1.1018646354514132 524.0 2.0 372.0 
146.000084666035 98978.0 NaN 1544.0400801603205 1.1026395271509921 523.0 2.0 370.0 
148.00059236981082 99007.0 NaN 1544.128256513027 1.105607823287015 523.0 2.0 370.0 
150.00033353340314 98974.0 NaN 1544.0080160320636 1.106686541810409 523.0 2.0 370.0 
152.00059236981082 98964.0 NaN 1544.0480961923845 1.1098026363615054 522.0 2.0 370.0 
154.00059236981082 98955.0 NaN 1540.9164996659995 1.1090272620534154 523.0 2.0 369.0 
156.000084666035 98968.0 NaN 1540.9806279225118 1.1065426142457293 524.0 2.0 369.0 
158.00059236981082 99009.0 NaN 1543.9866399465607 1.1050341275881048 523.0 2.0 370.0 
160.00033353340314 98978.0 NaN 1544.0614562458272 1.0973152453681119 520.0 3.0 369.0 
162.00059236981082 98963.0 NaN 1544.0053440213758 1.0937341879798046 518.0 2.0 370.0 
164.00059236981082 98965.0 NaN 1544.0507682030725 1.0954330841323447 519.0 2.0 370.0 
166.000084666035 98976.0 NaN 1547.070140280561 1.098799028395941 520.0 2.0 371.0 
168.00059236981082 98987.0 NaN 1550.2044088176367 1.102929168201942 520.0 2.0 372.0 
170.00033353340314 98969.0 NaN 1550.142952571809 1.1029340113055774 521.0 2.0 372.0 
172.00059236981082 98973.0 NaN 1550.18303273213 1.1044710020442583 523.0 2.0 372.0 
174.00059236981082 98967.0 NaN 1547.0541082164336 1.1034322492540325 523.0 2.0 371.0 
176.000084666035 98961.0 NaN 1540.996659986639 1.1036754355026066 521.0 2.0 369.0 
178.00059236981082 98979.0 NaN 1537.8463593854362 1.1096153361870031 521.0 2.0 368.0 
180.00033353340314 98959.0 NaN 1540.9752839011364 1.1021877513485665 520.0 2.0 369.0 
182.00059236981082 98976.0 NaN 1537.8757515030065 1.1022088163720634 521.0 2.0 368.0 
184.00059236981082 98957.0 NaN 1537.8917835671364 1.100561716869985 520.0 2.0 368.0 
186.000084666035 98964.0 NaN 1537.8704074816299 1.1038645895772403 520.0 2.0 368.0 
188.00059236981082 98974.0 NaN 1537.873079492318 1.1087042752020344 518.0 2.0 368.0 
190.00033353340314 98962.0 NaN 1537.8543754175 1.1135670754925557 519.0 2.0 368.0 
192.00059236981082 98919.0 NaN 1534.789579158318 1.1100924511520969 517.0 2.0 367.0 
194.00059236981082 98907.0 NaN 1534.7762191048757 1.1125384710575987 517.0 2.0 367.0 
196.000084666035 98905.0 NaN 1534.8243152972614 1.1167584786828095 517.0 2.0 367.0 
198.00059236981082 98919.0 NaN 1534.7708750835 1.1206045309996344 517.0 2.0 367.0 
200.00033353340314 98899.0 NaN 1537.8917835671361 1.1163300985101943 518.0 2.0 368.0 
202.00059236981082 98852.0 NaN 1540.9458917835664 1.1109336187008905 519.0 2.0 369.0 
204.00059236981082 98852.0 NaN 1540.9752839011364 1.1156897975250275 517.0 2.0 369.0 
206.000084666035 98859.0 NaN 1540.956579826318 1.1172953805354355 517.0 2.0 369.0 
208.00059236981082 98877.0 NaN 1540.969939879761 1.1252868999233816 517.0 2.0 369.0 
210.00033353340314 98848.0 NaN 1531.72478289913 1.1254598527601274 519.0 2.0 366.0 
212.00059236981082 98785.0 NaN 1534.8189712758845 1.1207983067824485 520.0 2.0 367.0 
214.00059236981082 98766.0 NaN 1531.6713426853726 1.1240848222100868 517.0 2.0 366.0 
216.000084666035 98774.0 NaN 1531.7568470273884 1.1260161627790097 514.0 2.0 366.0 
218.00059236981082 98794.0 NaN 1528.6359385437547 1.1343444756858339 514.0 2.0 365.0 
220.00033353340314 98764.0 NaN 1528.684034736139 1.1355188601965707 513.0 2.0 365.0 
222.00059236981082 98700.0 NaN 1528.5744822979275 1.1267834559976588 513.0 2.0 365.0 
224.00059236981082 98671.0 NaN 1528.627922511691 1.132188861035631 513.0 2.0 365.0 
226.000084666035 98751.0 NaN 1528.590514362057 1.132226910108595 513.0 2.0 365.0 
228.00059236981082 98804.0 NaN 1531.7515030060117 1.1405116148152634 513.0 2.0 366.0 
230.00033353340314 98770.0 NaN 1531.6820307281243 1.140283713461493 513.0 2.0 366.0 
232.00059236981082 98747.0 NaN 1534.8216432865727 1.1386729219740792 513.0 2.0 367.0 
234.00059236981082 98721.0 NaN 1537.8463593854362 1.1380484222959373 512.0 2.0 368.0 
236.000084666035 98744.0 NaN 1537.8997995992 1.1454338500728782 513.0 2.0 368.0 
238.00059236981082 98767.0 NaN 1534.760187040748 1.14169539213893 513.0 2.0 367.0 
240.00033353340314 98708.0 NaN 1528.6492985971938 1.1361618833146572 511.0 2.0 365.0 
242.00059236981082 98659.0 NaN 1531.6312625250516 1.134239277916137 511.0 2.0 366.0 
244.00059236981082 98630.0 NaN 1531.6740146960574 1.1272238729575363 510.0 2.0 366.0 
246.000084666035 98633.0 NaN 1531.6366065464274 1.1224304781683756 513.0 2.0 366.0 
248.00059236981082 98649.0 NaN 1528.6172344689367 1.1259311817551498 513.0 2.0 365.0 
250.00033353340314 98616.0 NaN 1528.5611222444907 1.12660313220046 513.0 2.0 365.0 
252.00059236981082 98565.0 NaN 1528.6172344689367 1.1208255867713117 513.0 2.0 365.0 
254.00059236981082 98541.0 NaN 1525.4642618570458 1.1249795018778836 512.0 2.0 364.0 
256.00008466603504 98545.0 NaN 1525.5364061456248 1.1323344828096302 514.0 2.0 364.0 
258.0005923698108 98534.0 NaN 1525.4509018036088 1.1375558201389981 513.0 2.0 364.0 
260.00033353340314 98488.0 NaN 1525.5444221776904 1.1365175266572733 515.0 2.0 364.0 
262.0005923698108 98463.0 NaN 1525.4375417501665 1.137928956155722 515.0 2.0 364.0 
264.0005923698108 98435.0 NaN 1528.6145624582489 1.1409049794379833 515.0 2.0 365.0 
266.00008466603504 98453.0 NaN 1528.5744822979275 1.148758795868258 515.0 2.0 365.0 
268.0005923698108 98451.0 NaN 1537.8623914495638 1.1484681681048554 513.0 2.0 368.0 
270.00033353340314 98381.0 NaN 1534.752171008682 1.1469779959142197 512.0 2.0 367.0 
272.0005923698108 98343.0 NaN 1531.7354709418819 1.147024784980111 512.0 2.0 366.0 
274.0005923698108 98324.0 NaN 1531.5965263861062 1.1499886786790345 512.0 2.0 366.0 
276.00008466603504 98346.0 NaN 1531.7488309953246 1.1620929553621782 511.0 2.0 366.0 
278.0005923698108 98324.0 NaN 1537.7154308617248 1.1637419502769368 515.0 2.0 368.0 
280.00033353340314 98257.0 NaN 1540.9432197728795 1.1546884029900786 515.0 2.0 369.0 
282.0005923698108 98185.0 NaN 1540.7535070140273 1.1466686743516106 516.0 2.0 369.0 
284.0005923698108 98153.0 NaN 1537.8463593854362 1.1515685129444924 516.0 2.0 368.0 
286.00008466603504 98122.0 NaN 1534.6372745490999 1.1494133318350022 514.0 2.0 367.0 
288.0005923698108 98131.0 NaN 1534.757515030061 1.1584729597293044 512.0 2.0 367.0 
290.00033353340314 98063.0 NaN 1534.6452905811636 1.1492167601985213 512.0 2.0 367.0 
292.0005923698108 98003.0 NaN 1534.7521710086817 1.1407770044749046 511.0 2.0 367.0 
294.0005923698108 97953.0 NaN 1534.6319305277207 1.1357994337325918 511.0 2.0 367.0 
296.00008466603504 97952.0 NaN 1534.7014028056092 1.1456219030380594 510.0 2.0 367.0 
298.0005923698108 97962.0 NaN 1537.7661990647973 1.1395431523716852 510.0 2.0 368.0 
300.00033353340314 97903.0 NaN 1537.8089512358065 1.1351939961711273 509.0 2.0 368.0 
302.0005923698108 97873.0 NaN 1537.7822311289249 1.1380774187043543 508.0 2.0 368.0 
304.0005923698108 97831.0 NaN 1537.8036072144273 1.1438146806576184 508.0 2.0 368.0 
306.00008466603504 97809.0 NaN 1534.7307949231817 1.14908033246491 510.0 2.0 367.0 
308.0005923698108 97816.0 NaN 1537.7795591182362 1.1586294937074908 508.0 2.0 368.0 
310.00033353340314 97760.0 NaN 1531.564462257848 1.1526684272039422 507.0 2.0 366.0 
312.0005923698108 97731.0 NaN 1531.5831663326637 1.1488654431494865 505.0 2.0 366.0 
314.0005923698108 97672.0 NaN 1534.6265865063453 1.1518507267839349 505.0 2.0 367.0 
316.00008466603504 97644.0 NaN 1534.6265865063453 1.157136746769507 507.0 2.0 367.0 
318.0005923698108 97642.0 NaN 1537.6780227120908 1.1627993035554132 509.0 2.0 368.0 
320.00033353340314 97584.0 NaN 1537.7047428189726 1.1613605920775174 509.0 2.0 368.0 
322.0005923698108 97534.0 NaN 1540.7828991315973 1.1655772158238182 507.0 2.0 369.0 
324.0005923698108 97462.0 NaN 1540.8523714094845 1.1502855007978725 506.0 2.0 369.0 
326.00008466603504 97444.0 NaN 1540.830995323982 1.159672975898438 507.0 2.0 369.0 
328.0005923698108 97445.0 NaN 1537.768871075484 1.1697983814371493 506.0 2.0 368.0 
330.00033353340314 97378.0 NaN 1540.798931195725 1.1660025306689212 506.0 2.0 369.0 
332.0005923698108 97318.0 NaN 1540.8096192384753 1.164779493742791 506.0 2.0 369.0 
334.0005923698108 97239.0 NaN 1540.8496993987978 1.1652162316946164 507.0 2.0 369.0 
336.00008466603504 97204.0 NaN 1531.660654642618 1.1729814175364233 507.0 2.0 366.0 
338.0005923698108 97182.0 NaN 1531.5778223112907 1.170655602497385 508.0 2.0 366.0 
340.00033353340314 97091.0 NaN 1528.582498329993 1.1562922768063857 509.0 2.0 365.0 
342.0005923698108 97042.0 NaN 1528.5718102872424 1.158378596067078 509.0 2.0 365.0 
344.0005923698108 96995.0 NaN 1528.590514362057 1.1621497320188103 509.0 2.0 365.0 
346.00008466603504 96985.0 NaN 1531.6366065464276 1.1707800731116622 509.0 2.0 366.0 
348.0005923698108 96988.0 NaN 1528.590514362057 1.1706149018859642 507.0 2.0 365.0 
350.00033353340314 96917.0 NaN 1525.509686038745 1.166616134316593 509.0 2.0 364.0 
352.0005923698108 96869.0 NaN 1525.4108216432878 1.1555817327440614 512.0 2.0 364.0 
354.0005923698108 96821.0 NaN 1525.4883099532396 1.158723234304484 515.0 2.0 364.0 
356.00008466603504 96825.0 NaN 1525.4722778891112 1.1676591300636059 514.0 2.0 364.0 
358.0005923698108 96835.0 NaN 1525.4722778891112 1.156569340940782 512.0 2.0 364.0 
360.00033353340314 96768.0 NaN 1528.5557782231122 1.1549362616392913 513.0 2.0 365.0 
362.0005923698108 96722.0 NaN 1528.5344021376093 1.1566213752608656 514.0 2.0 365.0 
364.0005923698108 96667.0 NaN 1525.4589178356723 1.15535277042929 514.0 2.0 364.0 
366.00008466603504 96665.0 NaN 1506.9979959919829 1.163150896848558 516.0 2.0 358.0 
368.0005923698108 96665.0 NaN 1500.9164996659993 1.1601011198268756 515.0 2.0 356.0 
370.00033353340314 96628.0 NaN 1506.9846359385444 1.1643587819359023 513.0 2.0 358.0 
372.0005923698108 96606.0 NaN 1510.076152304609 1.169543456989103 513.0 2.0 359.0 
374.0005923698108 96569.0 NaN 1510.049432197728 1.173932989675205 514.0 2.0 359.0 
376.00008466603504 96568.0 NaN 1510.0868403473628 1.1776111959180764 514.0 2.0 359.0 
378.0005923698108 96582.0 NaN 1510.0574482297918 1.1787887245822848 517.0 2.0 359.0 
380.00033353340314 96531.0 NaN 1510.0814963259847 1.1739117725004984 516.0 2.0 359.0 
382.0005923698108 96478.0 NaN 1506.971275885103 1.1729891652163877 515.0 2.0 358.0 
384.0005923698108 96427.0 NaN 1510.0841683366727 1.1764948852195292 514.0 2.0 359.0 
386.00008466603504 96424.0 NaN 1522.388777555109 1.176006659378462 518.0 2.0 363.0 
388.0005923698108 96427.0 NaN 1510.1509686038735 1.1769890983981801 517.0 2.0 359.0 
390.00033353340314 96380.0 NaN 1507.0354041416174 1.176279993685452 515.0 2.0 358.0 
392.0005923698108 96319.0 NaN 1513.2237808951243 1.1738582173404544 515.0 2.0 360.0 
394.0005923698108 96271.0 NaN 1513.1810287241155 1.1565817778594543 516.0 2.0 360.0 
396.00008466603504 96246.0 NaN 1513.1863727454909 1.1609142295423431 518.0 2.0 360.0 
398.0005923698108 96241.0 NaN 1510.0788243152977 1.1599304751177848 519.0 2.0 359.0 
400.00033353340314 96167.0 NaN 1513.253173012691 1.147000308930282 519.0 2.0 360.0 
402.0005923698108 96075.0 NaN 1513.1462925851706 1.1337386669044531 520.0 2.0 360.0 
404.0005923698108 96062.0 NaN 1519.3533734134935 1.1400512143617239 519.0 2.0 362.0 
406.00008466603504 96079.0 NaN 1519.305277221109 1.1501388073641752 521.0 2.0 362.0 
408.0005923698108 96098.0 NaN 1525.531062124248 1.1596644241281306 520.0 2.0 364.0 
410.00033353340314 96035.0 NaN 1525.4642618570458 1.164888870724916 521.0 2.0 364.0 
412.0005923698108 96000.0 NaN 1528.6199064796267 1.1621268896287644 523.0 2.0 365.0 
414.0005923698108 95991.0 NaN 1528.5584502338 1.1689757283890092 522.0 2.0 365.0 
416.00008466603504 95980.0 NaN 1528.6092184368727 1.1804752205571691 528.0 2.0 365.0 
418.0005923698108 95988.0 NaN 1528.5370741482968 1.1881444827522845 527.0 2.0 365.0 
420.00033353340314 95961.0 NaN 1516.2511690046751 1.1928901110344476 528.0 2.0 361.0 
422.0005923698108 95942.0 NaN 1513.1302605210424 1.1968914295687725 528.0 2.0 360.0 
424.0005923698108 95947.0 NaN 1507.0380761523054 1.2090031544736903 526.0 2.0 358.0 
426.00008466603504 95905.0 NaN 1513.191716766867 1.2121678981687896 519.0 2.0 360.0 
428.0005923698108 95887.0 NaN 1507.083500334001 1.1822495201492225 518.0 2.0 358.0 
430.00033353340314 95817.0 NaN 1507.0140280561116 1.1739337122929039 518.0 2.0 358.0 
432.0005923698108 95748.0 NaN 1503.9438877755513 1.160858870273004 519.0 2.0 357.0 
434.0005923698108 95755.0 NaN 1506.973947895791 1.1688859054107048 520.0 2.0 358.0 
436.00008466603504 95723.0 NaN 1519.3400133600544 1.170148418503112 521.0 2.0 362.0 
438.0005923698108 95706.0 NaN 1522.3834335337356 1.1744405690940969 526.0 2.0 363.0 
440.00033353340314 95642.0 NaN 1519.3480293921182 1.1625287460319536 524.0 2.0 362.0 
442.0005923698108 95619.0 NaN 1522.3861055444213 1.1575804802696985 525.0 2.0 363.0 
444.0005923698108 95589.0 NaN 1522.3994655978631 1.160211440896783 523.0 2.0 363.0 
446.00008466603504 95601.0 NaN 1531.599198396793 1.1692419439610522 526.0 2.0 366.0 
448.0005923698108 95597.0 NaN 1537.768871075484 1.1707909118846431 528.0 2.0 368.0 
450.00033353340314 95582.0 NaN 1540.801603206412 1.1763864286353296 527.0 2.0 369.0 
452.0005923698108 95556.0 NaN 1550.030728122912 1.1643294162900615 528.0 2.0 372.0 
454.0005923698108 95542.0 NaN 1550.030728122912 1.1629127653393356 527.0 2.0 372.0 
456.00008466603504 95518.0 NaN 1553.1516366065453 1.1627811250126827 527.0 2.0 373.0 
458.0005923698108 95526.0 NaN 1550.0387441549758 1.145400686196391 528.0 2.0 372.0 
460.00033353340314 95510.0 NaN 1550.0601202404819 1.149430507454991 525.0 2.0 372.0 
462.0005923698108 95478.0 NaN 1550.0013360053451 1.1432358335783575 525.0 2.0 372.0 
464.0005923698108 95464.0 NaN 1550.054776219106 1.1453980045738663 526.0 2.0 372.0 
466.00008466603504 95439.0 NaN 1546.9044756179023 1.1505732238453434 526.0 2.0 371.0 
468.0005923698108 95462.0 NaN 1546.952571810288 1.161024332509886 527.0 2.0 371.0 
470.00033353340314 95465.0 NaN 1546.917835671343 1.1686556518657563 525.0 2.0 371.0 
472.0005923698108 95424.0 NaN 1540.828323313293 1.157441711201638 524.0 2.0 369.0 
474.0005923698108 95408.0 NaN 1531.5938543754182 1.1548853985833067 521.0 2.0 366.0 
476.00008466603504 95403.0 NaN 1528.5183700734813 1.153005575291101 521.0 2.0 365.0 
478.0005923698108 95462.0 NaN 1522.3567134268546 1.1602394609850593 520.0 2.0 363.0 
480.00033353340314 95479.0 NaN 1525.4883099532394 1.164409154484072 516.0 2.0 364.0 
482.0005923698108 95425.0 NaN 1522.3059452237817 1.151368498449429 520.0 2.0 363.0 
484.0005923698108 95413.0 NaN 1513.1489645958575 1.1549137763170585 518.0 2.0 360.0 
486.00008466603504 95435.0 NaN 1510.0280561122254 1.159006112293579 516.0 2.0 359.0 
488.0005923698108 95504.0 NaN 1500.8657314629265 1.1417783333738565 514.0 2.0 356.0 
490.00033353340314 95517.0 NaN 1497.7768871075475 1.1464201641590115 515.0 2.0 355.0 
492.0005923698108 95464.0 NaN 1491.6820307281241 1.129021576955633 517.0 2.0 353.0 
494.0005923698108 95443.0 NaN 1497.7742150968613 1.1300438533678696 514.0 2.0 355.0 
496.00008466603504 95463.0 NaN 1494.7815631262533 1.137355361556368 511.0 2.0 354.0 
498.0005923698108 95514.0 NaN 1494.7094188376748 1.140147100372513 513.0 2.0 354.0 
500.00033353340314 95526.0 NaN 1494.7682030728113 1.1449921128880876 512.0 2.0 354.0 
502.0005923698108 95516.0 NaN 1488.5290581162335 1.1457873245398915 513.0 2.0 352.0 
504.0005923698108 95484.0 NaN 1485.5283901135613 1.1441034337517364 515.0 2.0 351.0 
506.00008466603504 95485.0 NaN 1485.4829659318634 1.1469459863143041 514.0 2.0 351.0 
508.0005923698108 95506.0 NaN 1488.643954575818 1.1513169420418543 513.0 2.0 352.0 
510.00033353340314 95529.0 NaN 1491.6392785571152 1.1565802510861993 512.0 2.0 353.0 
512.0005923698109 95482.0 NaN 1494.7414829659303 1.1435354429881457 511.0 2.0 354.0 
514.0005923698109 95460.0 NaN 1494.6880427521717 1.142307306785111 511.0 2.0 354.0 
516.000084666035 95476.0 NaN 1491.7114228456908 1.1466139443286845 513.0 2.0 353.0 
518.0005923698109 95523.0 NaN 1479.3800935203733 1.1522927330582402 509.0 2.0 349.0 
520.0003335334031 95490.0 NaN 1476.3607214428848 1.146553738735178 510.0 2.0 348.0 
522.0005923698109 95468.0 NaN 1473.213092852372 1.1432913948579304 510.0 2.0 347.0 
524.0005923698109 95437.0 NaN 1460.9512358049444 1.1455473557841276 506.0 2.0 343.0 
526.000084666035 95481.0 NaN 1460.9539078156304 1.1512567331526276 505.0 2.0 343.0 
528.0005923698109 95567.0 NaN 1460.9458917835664 1.1586788502798187 503.0 2.0 343.0 
530.0003335334031 95564.0 NaN 1463.9919839679362 1.1644031427547383 505.0 2.0 344.0 
532.0005923698109 95567.0 NaN 1463.9759519038084 1.1671106486532332 510.0 2.0 344.0 
534.0005923698109 95538.0 NaN 1467.0247160988638 1.1600633434552887 511.0 2.0 345.0 
536.000084666035 95558.0 NaN 1467.0354041416172 1.1657731950754393 511.0 2.0 345.0 
538.0005923698109 95618.0 NaN 1473.1917167668664 1.17256845335221 510.0 2.0 347.0 
540.0003335334031 95597.0 NaN 1473.1623246492993 1.1735838318844507 511.0 2.0 347.0 
542.0005923698109 95621.0 NaN 1473.1543086172353 1.1778660888260786 511.0 2.0 347.0 
544.0005923698109 95619.0 NaN 1479.3346693386782 1.16107072256881 513.0 2.0 349.0 
546.000084666035 95633.0 NaN 1479.342685370742 1.16610487671082 512.0 2.0 349.0 
548.0005923698109 95645.0 NaN 1479.3613894455573 1.14581694763688 512.0 2.0 349.0 
550.0003335334031 95649.0 NaN 1473.2718770875088 1.1520540275622975 512.0 2.0 347.0 
552.0005923698109 95660.0 NaN 1476.2538410153636 1.1522201284523927 517.0 2.0 348.0 
554.0005923698109 95738.0 NaN 1482.412825651302 1.1519033634180265 520.0 2.0 350.0 
556.000084666035 95785.0 NaN 1479.3213092852368 1.1532811211166085 521.0 2.0 349.0 
558.0005923698109 95828.0 NaN 1482.3754175016704 1.15075650328259 521.0 2.0 350.0 
560.0003335334031 95835.0 NaN 1470.1189044756181 1.1510485529359646 520.0 2.0 346.0 
562.0005923698109 95843.0 NaN 1470.097528390113 1.1414642434218558 515.0 2.0 346.0 
564.0005923698109 95881.0 NaN 1470.097528390113 1.1255906245941747 514.0 2.0 346.0 
566.000084666035 95910.0 NaN 1476.235136940547 1.134191897855862 516.0 2.0 348.0 
568.0005923698109 95930.0 NaN 1482.418169672679 1.140523404893597 518.0 2.0 350.0 
570.0003335334031 95937.0 NaN 1482.3887775551095 1.1477253250925987 521.0 2.0 350.0 
572.0005923698109 95937.0 NaN 1482.4128256513022 1.1384318352819367 520.0 2.0 350.0 
574.0005923698109 95980.0 NaN 1485.4802939211752 1.1453308358175176 521.0 2.0 351.0 
576.000084666035 96008.0 NaN 1494.7174348697388 1.156171525016065 522.0 2.0 354.0 
578.0005923698109 96025.0 NaN 1491.5911823647286 1.163722174818788 525.0 2.0 353.0 
580.0003335334031 96008.0 NaN 1488.5771543086178 1.1695470358806945 526.0 2.0 352.0 
582.0005923698109 96025.0 NaN 1488.5290581162333 1.1779106822375116 524.0 2.0 352.0 
584.0005923698109 96075.0 NaN 1485.4776219104883 1.175249352662603 524.0 2.0 351.0 
586.000084666035 96032.0 NaN 1482.3513694054784 1.176072207398944 528.0 2.0 350.0 
588.0005923698109 96000.0 NaN 1482.4021376085511 1.1809122715051315 528.0 2.0 350.0 
590.0003335334031 96006.0 NaN 1485.4482297929185 1.1911165436132216 526.0 2.0 351.0 
592.0005923698109 96046.0 NaN 1491.6339345357376 1.2033926416949114 526.0 2.0 353.0 
594.0005923698109 96076.0 NaN 1488.523714094856 1.1892706838798792 527.0 2.0 352.0 
596.000084666035 95975.0 NaN 1488.571810287242 1.1790714015984163 528.0 2.0 352.0 
598.0005923698109 95942.0 NaN 1479.2919171676692 1.175246693129775 525.0 2.0 349.0 
600.0003335334031 95971.0 NaN 1485.4776219104883 1.1840980418345795 528.0 2.0 351.0 
602.0005923698109 95990.0 NaN 1482.3727454909817 1.1847719506053997 528.0 2.0 350.0 
604.0005923698109 95932.0 NaN 1482.4048096192378 1.1801211732488797 527.0 2.0 350.0 
606.000084666035 95934.0 NaN 1485.469605878424 1.1795095189867815 525.0 2.0 351.0 
608.0005923698109 95946.0 NaN 1491.6232464929851 1.162034429691814 527.0 2.0 353.0 
610.0003335334031 95970.0 NaN 1497.7902471609896 1.1687493690386852 528.0 2.0 355.0 
612.0005923698109 95969.0 NaN 1494.7067468269881 1.163634128824891 527.0 2.0 354.0 
614.0005923698109 95916.0 NaN 1494.7040748163 1.1611695205670436 528.0 2.0 354.0 
616.000084666035 95902.0 NaN 1491.6205744822987 1.1524293064304336 527.0 2.0 353.0 
618.0005923698109 95888.0 NaN 1488.5504342017364 1.142856804245756 527.0 2.0 352.0 
620.0003335334031 95922.0 NaN 1494.7174348697383 1.1498422119439693 528.0 2.0 354.0 
622.0005923698109 95917.0 NaN 1500.868403473615 1.150510362053972 526.0 2.0 356.0 
624.0005923698109 95928.0 NaN 1503.9519038076162 1.156652797385389 525.0 2.0 357.0 
626.000084666035 95935.0 NaN 1507.032732130928 1.1662260802032232 525.0 2.0 358.0 
628.0005923698109 95896.0 NaN 1507.0541082164336 1.1502040955883224 530.0 2.0 358.0 
630.0003335334031 95913.0 NaN 1510.1135604542426 1.1568869906663213 530.0 2.0 359.0 
632.0005923698109 95890.0 NaN 1513.1703406813633 1.1431620087719165 528.0 3.0 359.0 
634.0005923698109 95891.0 NaN 1513.18904475618 1.1497804939298262 525.0 3.0 359.0 
636.000084666035 95881.0 NaN 1516.251169004675 1.1566491887205124 526.0 3.0 360.0 
638.0005923698109 95865.0 NaN 1516.2565130260527 1.1537942372623389 527.0 3.0 360.0 
640.0003335334031 95850.0 NaN 1513.2077488309944 1.1555893171825722 526.0 3.0 359.0 
642.0005923698109 95845.0 NaN 1516.2698730794918 1.16141055644305 528.0 2.0 361.0 
644.0005923698109 95869.0 NaN 1510.137608550435 1.1700266927231378 530.0 2.0 359.0 
646.000084666035 95881.0 NaN 1510.1643286573153 1.178477684906061 524.0 2.0 359.0 
648.0005923698109 95830.0 NaN 1516.2778891115559 1.174429390074911 528.0 2.0 361.0 
650.0003335334031 95815.0 NaN 1519.3640614562453 1.1809164673461239 522.0 2.0 362.0 
652.0005923698109 95801.0 NaN 1516.2324649298607 1.1844570941165342 521.0 2.0 361.0 
654.0005923698109 95838.0 NaN 1516.288577154309 1.192229999036628 521.0 2.0 361.0 
656.000084666035 95882.0 NaN 1516.2324649298607 1.2009215841268028 520.0 3.0 360.0 
658.0005923698109 95876.0 NaN 1522.4288577154302 1.185949017728751 517.0 3.0 362.0 
660.0003335334031 95771.0 NaN 1531.695390781564 1.1802342863027506 516.0 3.0 365.0 
662.0005923698109 95737.0 NaN 1531.623246492985 1.1583921753735216 513.0 3.0 365.0 
664.0005923698109 95745.0 NaN 1531.5991983967929 1.1658891303136751 516.0 3.0 365.0 
#####################################################################
# End of data export. Simulation finished at: 2019-03-05T15:57+0000 #
#####################################################################
