#####################################################################
# Alchemist log file - simulation started at: 2019-03-05T15:08+0000 #
#####################################################################
# seed = 3.0, bandwidth = 17782.79410038923, propagationDelay = 0.31622776601683794, baserange = 56.234132519034915
#
# The columns have the following meaning: 
# time neighbor_count[Sum] <value>@neighbor_count[Sum] packet_size[Mean] mean_delay[Mean] crowd[Sum] overcrowded[Sum] risk[Sum] 
0.0 NaN NaN NaN NaN NaN NaN NaN 
2.000105031905241 5148.0 NaN 4990.835003340013 0.4210451301716307 1497.0 0.0 1497.0 
4.000105031905242 6162.0 NaN 4995.473613894455 0.4989030517625385 1495.0 2.0 1495.0 
6.000084666035003 6168.0 NaN 4996.499665998664 0.4991801700994041 1488.0 9.0 1488.0 
8.00010503190524 6168.0 NaN 4996.293921175685 0.5004450869234672 1469.0 28.0 1469.0 
10.00010503190524 6170.0 NaN 4995.922511690047 0.500995517862896 1472.0 25.0 1472.0 
12.00010503190524 6174.0 NaN 4994.949899799599 0.5018302345402746 1466.0 31.0 1466.0 
14.00010503190524 6180.0 NaN 4995.110220440882 0.5025887696222899 1468.0 29.0 1468.0 
16.000084666035004 6188.0 NaN 4994.786907147629 0.5070361534980454 1461.0 36.0 1461.0 
18.00010503190524 6189.0 NaN 4994.96325985304 0.5121552519548092 1462.0 35.0 1462.0 
20.00010503190524 6191.0 NaN 4994.506346025384 0.5172352760168614 1466.0 31.0 1466.0 
22.00010503190524 6198.0 NaN 4994.287241148964 0.5223749381272019 1457.0 40.0 1457.0 
24.00010503190524 6198.0 NaN 4994.754843019372 0.5261278431036576 1465.0 32.0 1465.0 
26.000084666035004 6219.0 NaN 4994.0307281229125 0.5301106306533777 1463.0 34.0 1463.0 
28.00010503190524 6219.0 NaN 4994.436873747495 0.5315493615298063 1460.0 37.0 1460.0 
30.00010503190524 6221.0 NaN 4994.901803607215 0.5436763867504155 1458.0 39.0 1458.0 
32.000105031905235 6240.0 NaN 4993.763527054109 0.5569044373002694 1462.0 35.0 1462.0 
34.000105031905235 6241.0 NaN 4994.447561790247 0.5697459955843862 1459.0 38.0 1459.0 
36.00008466603501 6263.0 NaN 4994.303273213093 0.5806709155149303 1460.0 37.0 1460.0 
38.000105031905235 6262.0 NaN 4994.0494321977285 0.5650360508205452 1464.0 33.0 1464.0 
40.000105031905235 6264.0 NaN 4994.38877755511 0.579759468922823 1460.0 37.0 1460.0 
42.000105031905235 6274.0 NaN 4994.132264529058 0.5958310447069263 1464.0 33.0 1464.0 
44.000105031905235 6288.0 NaN 4993.913159652639 0.6125809130763961 1469.0 28.0 1469.0 
46.00008466603501 6338.0 NaN 4994.0521042084165 0.6251628961206149 1460.0 37.0 1460.0 
48.000105031905235 6347.0 NaN 4994.543754175017 0.5874671240782107 1463.0 34.0 1463.0 
50.000105031905235 6359.0 NaN 4994.062792251169 0.5717048341469201 1464.0 33.0 1464.0 
52.000105031905235 6366.0 NaN 4993.806279225117 0.578216371015594 1465.0 32.0 1465.0 
54.000105031905235 6372.0 NaN 4994.40213760855 0.5941518562339647 1469.0 28.0 1469.0 
56.00008466603501 6402.0 NaN 4993.440213760855 0.610598441361143 1465.0 32.0 1465.0 
58.000105031905235 6424.0 NaN 4994.311289245157 0.5986992359230422 1462.0 35.0 1462.0 
60.000105031905235 6431.0 NaN 4994.479625918504 0.6211897512292323 1463.0 34.0 1463.0 
62.00009003973192 6437.0 NaN 1525.4696058784243 0.6320268210801058 782.0 29.0 337.0 
64.00009003973192 6440.0 NaN 1525.2211088844365 0.6696039559265492 622.0 33.0 333.0 
66.00008466603501 6470.0 NaN 1525.0153640614549 0.6902642838398849 560.0 31.0 335.0 
68.00009003973192 6485.0 NaN 1528.1950567802273 0.6929997575408922 539.0 33.0 334.0 
70.00009003973192 6494.0 NaN 1528.1763527054095 0.7043869422389087 517.0 32.0 335.0 
72.00009003973192 6495.0 NaN 1528.0721442885763 0.7263313430428986 508.0 30.0 337.0 
74.00009003973192 6496.0 NaN 1528.0053440213758 0.7280136497332991 501.0 29.0 338.0 
76.00008466603501 6507.0 NaN 1527.8370073480276 0.7433871346181334 499.0 31.0 336.0 
78.00009003973192 6506.0 NaN 1534.2070808283243 0.7370288992075593 501.0 30.0 339.0 
80.00009003973192 6481.0 NaN 1537.2665330661334 0.695316438535231 497.0 34.0 336.0 
82.00009003973192 6465.0 NaN 1537.1917167668666 0.7060701375455148 500.0 31.0 339.0 
84.00009003973192 6451.0 NaN 1537.2371409485636 0.7019674357231246 495.0 35.0 335.0 
86.00008466603501 6462.0 NaN 1537.2237808951243 0.7320313499762742 494.0 31.0 339.0 
88.00009003973192 6454.0 NaN 1537.1169004676003 0.7426778780785956 490.0 35.0 335.0 
90.00009003973192 6444.0 NaN 1537.2024048096182 0.7460958529471842 494.0 31.0 339.0 
92.00009003973192 6442.0 NaN 1537.282565130261 0.7728486019143074 491.0 34.0 336.0 
94.00009003973192 6441.0 NaN 1537.154308617236 0.7774468160191382 495.0 31.0 339.0 
96.00008466603501 6453.0 NaN 1540.1977287909156 0.8089492497376373 490.0 36.0 335.0 
98.00009003973192 6473.0 NaN 1540.2698730794912 0.7780457739161533 496.0 30.0 341.0 
100.00009003973192 6465.0 NaN 1540.2084168336667 0.7497905124833408 494.0 32.0 339.0 
102.00009003973192 6460.0 NaN 1540.304609218436 0.7654957167648847 498.0 27.0 344.0 
104.00009003973192 6442.0 NaN 1540.2511690046754 0.7369163009200197 494.0 32.0 339.0 
106.00008466603501 6430.0 NaN 1540.1870407481638 0.7171948481666601 496.0 30.0 341.0 
108.00009003973192 6425.0 NaN 1540.2030728122909 0.7156418355904186 491.0 34.0 337.0 
110.00009003973192 6418.0 NaN 1540.1790247161002 0.6667984935094518 495.0 30.0 341.0 
112.00009003973192 6420.0 NaN 1540.1977287909156 0.672738355767695 492.0 33.0 338.0 
114.00009003973192 6415.0 NaN 1540.1870407481638 0.6671149462042767 498.0 28.0 343.0 
116.00008466603501 6430.0 NaN 1543.2598530394116 0.6751242765763056 494.0 33.0 339.0 
118.00009003973192 6462.0 NaN 1549.4268537074151 0.6968481746198809 498.0 30.0 344.0 
120.00009003973192 6462.0 NaN 1552.537074148297 0.7173872535398981 496.0 32.0 343.0 
122.00009003973192 6480.0 NaN 1552.5798263193062 0.7475460407219074 500.0 28.0 347.0 
124.00009003973192 6483.0 NaN 1552.5263861055455 0.762185645520398 496.0 32.0 343.0 
126.00008466603501 6501.0 NaN 1549.5123580494335 0.7891392680784243 501.0 27.0 347.0 
128.0000900397319 6517.0 NaN 1549.4829659318634 0.8042525225858963 498.0 30.0 344.0 
130.00009003973193 6518.0 NaN 1549.3974615898453 0.8024001513436592 502.0 26.0 348.0 
132.00009003973193 6506.0 NaN 1549.5043420173665 0.7695591014351425 498.0 30.0 344.0 
134.00009003973193 6514.0 NaN 1546.4689378757516 0.8083587023871199 501.0 27.0 346.0 
136.000084666035 6539.0 NaN 1549.410821643288 0.8246869251994933 494.0 33.0 341.0 
138.00009003973193 6544.0 NaN 1549.4989979959905 0.8057818385656307 499.0 26.0 348.0 
140.00009003973193 6529.0 NaN 1549.4615898463608 0.7759014170786388 497.0 31.0 343.0 
142.00009003973193 6549.0 NaN 1552.6225784903152 0.8064900020677955 497.0 30.0 345.0 
144.00009003973193 6555.0 NaN 1555.6793587174363 0.7865952991759555 497.0 30.0 346.0 
146.000084666035 6574.0 NaN 1549.448229792918 0.8233136731173648 499.0 28.0 346.0 
148.00009003973193 6569.0 NaN 1543.4655978623907 0.8493383766595631 491.0 35.0 337.0 
150.00009003973193 6536.0 NaN 1543.433533734136 0.8347650503119655 491.0 35.0 337.0 
152.00009003973193 6513.0 NaN 1543.4415497662003 0.8589411232435882 484.0 42.0 330.0 
154.00009003973193 6499.0 NaN 1540.213760855045 0.8467861768379136 485.0 41.0 330.0 
156.000084666035 6511.0 NaN 1540.2164328657304 0.8792983575737611 486.0 41.0 330.0 
158.00009003973193 6514.0 NaN 1546.3941215764878 0.9170264826526023 485.0 41.0 332.0 
160.00009003973193 6496.0 NaN 1543.2598530394118 0.908362504391615 475.0 47.0 325.0 
162.00009003973193 6476.0 NaN 1543.3400133600549 0.921426733184988 480.0 40.0 332.0 
164.00009003973193 6465.0 NaN 1543.3159652638608 0.9183169032720934 479.0 42.0 330.0 
166.000084666035 6476.0 NaN 1546.3006012024061 0.8983536401822857 489.0 33.0 340.0 
168.00009003973193 6486.0 NaN 1552.5023380093521 0.870494755243834 483.0 38.0 337.0 
170.00009003973193 6484.0 NaN 1552.582498329993 0.8367214536357755 490.0 34.0 341.0 
172.00009003973193 6468.0 NaN 1552.5798263193064 0.7978380384971882 485.0 39.0 336.0 
174.00009003973193 6460.0 NaN 1552.4462257849025 0.7808917441384314 490.0 34.0 341.0 
176.000084666035 6456.0 NaN 1546.3700734802933 0.7765405131676743 483.0 39.0 334.0 
178.00009003973193 6468.0 NaN 1546.3807615230453 0.7803886478343552 486.0 35.0 338.0 
180.00009003973193 6462.0 NaN 1549.4188376753523 0.7593529916522415 484.0 38.0 336.0 
182.00009003973193 6442.0 NaN 1546.455577822309 0.7845865588410096 493.0 28.0 345.0 
184.00009003973193 6440.0 NaN 1546.4261857047434 0.8126997537396169 489.0 32.0 341.0 
186.000084666035 6436.0 NaN 1543.169004676018 0.8473772136730403 494.0 28.0 344.0 
188.00009003973193 6441.0 NaN 1543.3186372745479 0.87805401811084 489.0 32.0 340.0 
190.00009003973193 6442.0 NaN 1543.2678690714754 0.8942839863950893 493.0 27.0 345.0 
192.00009003973193 6418.0 NaN 1540.2030728122909 0.8657395817924883 489.0 31.0 340.0 
194.00009003973193 6403.0 NaN 1540.352705410821 0.8743999118554295 494.0 26.0 345.0 
196.000084666035 6413.0 NaN 1537.1356045424182 0.8825226315262567 482.0 38.0 332.0 
198.00009003973193 6405.0 NaN 1537.210420841682 0.8644999063095096 489.0 32.0 338.0 
200.00009003973193 6392.0 NaN 1540.3126252504999 0.8190974967314905 484.0 37.0 334.0 
202.00009003973193 6370.0 NaN 1546.4074816299274 0.823010041675854 491.0 31.0 342.0 
204.00009003973193 6363.0 NaN 1543.3587174348702 0.814658128109762 484.0 37.0 335.0 
206.000084666035 6360.0 NaN 1543.3239812959273 0.8367350180523121 489.0 32.0 340.0 
208.00009003973193 6367.0 NaN 1543.305277221109 0.8703426969448874 482.0 40.0 332.0 
210.00009003973193 6359.0 NaN 1534.1108884435546 0.8679831589749265 489.0 35.0 334.0 
212.00009003973193 6360.0 NaN 1537.1890447561793 0.885929049410612 485.0 40.0 330.0 
214.00009003973193 6348.0 NaN 1534.0173680694727 0.9336510689496725 483.0 37.0 332.0 
216.000084666035 6353.0 NaN 1534.0868403473637 0.9283723092179186 465.0 53.0 316.0 
218.00009003973193 6372.0 NaN 1531.0113560454247 0.9544814135610199 478.0 40.0 328.0 
220.00009003973193 6352.0 NaN 1530.960587842352 0.9379866069328043 473.0 43.0 325.0 
222.00009003973193 6334.0 NaN 1531.0514362057456 0.9434309183536499 478.0 38.0 330.0 
224.00009003973193 6328.0 NaN 1531.0594522378092 0.9707117476725456 471.0 47.0 321.0 
226.000084666035 6325.0 NaN 1531.0113560454247 0.9472089415109157 480.0 38.0 330.0 
228.00009003973193 6316.0 NaN 1534.0467601870391 0.9365813993134426 473.0 46.0 323.0 
230.00009003973193 6301.0 NaN 1534.2204408817638 0.8802108780643216 479.0 41.0 328.0 
232.00009003973193 6274.0 NaN 1537.274549098197 0.8066813247279628 471.0 49.0 321.0 
234.00009003973193 6260.0 NaN 1537.1890447561793 0.8153684323348388 476.0 44.0 326.0 
236.000084666035 6268.0 NaN 1540.299265197061 0.8538412782658394 471.0 50.0 321.0 
238.00009003973193 6267.0 NaN 1537.1382765531066 0.8768248552447826 476.0 45.0 325.0 
240.00009003973193 6267.0 NaN 1531.0915163660638 0.9105516254373262 470.0 49.0 319.0 
242.00009003973193 6255.0 NaN 1534.076152304609 0.8911852151337138 475.0 43.0 326.0 
244.00009003973193 6235.0 NaN 1534.0494321977274 0.8821178808695401 474.0 45.0 324.0 
246.000084666035 6233.0 NaN 1534.097528390112 0.9139073376816077 480.0 39.0 330.0 
248.00009003973193 6220.0 NaN 1527.9893119572475 0.9032243911779694 478.0 42.0 325.0 
250.00009003973193 6190.0 NaN 1527.9492317969275 0.8878978512938542 478.0 41.0 326.0 
252.00009003973193 6197.0 NaN 1524.9031396125574 0.889348346939436 474.0 43.0 323.0 
254.00009003973193 6186.0 NaN 1524.876419505679 0.9072898227768671 478.0 39.0 327.0 
256.00008466603504 6173.0 NaN 1524.9138276553094 0.862452276208408 476.0 42.0 324.0 
258.00009003973184 6174.0 NaN 1524.7722110888456 0.872421750058264 482.0 38.0 328.0 
260.00009003973184 6171.0 NaN 1524.7668670674698 0.8855576664992916 480.0 41.0 325.0 
262.00009003973184 6195.0 NaN 1527.8316633266545 0.9392849293180368 484.0 37.0 330.0 
264.00009003973184 6187.0 NaN 1530.8136272545091 0.9803860651850518 483.0 38.0 330.0 
266.00008466603504 6190.0 NaN 1540.152304609218 0.9889777210944108 492.0 28.0 343.0 
268.00009003973184 6182.0 NaN 1543.2144288577156 0.9882167399089703 488.0 33.0 339.0 
270.00009003973184 6158.0 NaN 1540.1282565130273 0.9545889415383262 487.0 32.0 339.0 
272.00009003973184 6156.0 NaN 1537.0581162324638 0.9759113850491175 486.0 33.0 337.0 
274.00009003973184 6127.0 NaN 1537.0447561790247 0.9479794111037294 484.0 35.0 335.0 
276.00008466603504 6127.0 NaN 1537.0287241148972 0.9806933409391889 484.0 34.0 336.0 
278.00009003973184 6136.0 NaN 1543.1422845691366 1.0142617725121335 487.0 33.0 339.0 
280.00009003973184 6127.0 NaN 1546.2204408817638 1.030567169721294 488.0 33.0 340.0 
282.00009003973184 6145.0 NaN 1546.1910487641935 1.0318262266708071 487.0 32.0 341.0 
284.00009003973184 6112.0 NaN 1543.1556446225795 0.9922547000732391 486.0 33.0 339.0 
286.00008466603504 6100.0 NaN 1540.0721442885758 1.0055904052649536 482.0 32.0 339.0 
288.00009003973184 6105.0 NaN 1540.0053440213753 1.0030392924657705 482.0 32.0 339.0 
290.00009003973184 6101.0 NaN 1546.2204408817638 0.9631679929405995 482.0 32.0 341.0 
292.00009003973184 6082.0 NaN 1543.0728122912478 0.903476067743971 482.0 32.0 340.0 
294.00009003973184 6064.0 NaN 1543.0113560454251 0.9330892267001453 481.0 32.0 340.0 
296.00008466603504 6060.0 NaN 1543.0995323981274 0.9996010616815594 481.0 32.0 340.0 
298.00009003973184 6067.0 NaN 1542.9819639278544 1.011031794981597 481.0 32.0 340.0 
300.00009003973184 6046.0 NaN 1543.158316633266 1.003312503917916 478.0 32.0 340.0 
302.00009003973184 6047.0 NaN 1543.043420173682 1.0239234017245897 478.0 32.0 340.0 
304.00009003973184 6013.0 NaN 1543.1022044088184 1.026763947743184 478.0 32.0 340.0 
306.00008466603504 6003.0 NaN 1539.9919839679364 1.0874567130617987 479.0 32.0 339.0 
308.00009003973184 6002.0 NaN 1536.9031396125572 1.053542619047014 478.0 32.0 338.0 
310.00009003973184 5987.0 NaN 1536.9245156980637 0.973213645851618 478.0 32.0 338.0 
312.00009003973184 5982.0 NaN 1533.7955911823633 0.9945559898443234 478.0 32.0 337.0 
314.00009003973184 5962.0 NaN 1533.8543754175 1.0006150900966782 475.0 32.0 337.0 
316.00008466603504 5943.0 NaN 1536.9485637942544 1.0174615518337697 475.0 32.0 338.0 
318.00009003973184 5940.0 NaN 1539.975951903809 0.9879794412241155 477.0 32.0 339.0 
320.00009003973184 5944.0 NaN 1540.0534402137614 0.9501924216271173 476.0 32.0 339.0 
322.00009003973184 5945.0 NaN 1540.0614562458272 0.9099119941879905 476.0 32.0 339.0 
324.00009003973184 5939.0 NaN 1540.0507682030725 0.9275087089661561 474.0 33.0 338.0 
326.00008466603504 5927.0 NaN 1540.0534402137614 0.8615008229294709 470.0 38.0 333.0 
328.00009003973184 5937.0 NaN 1537.063460253842 0.8812286601452731 476.0 32.0 338.0 
330.00009003973184 5948.0 NaN 1540.0480961923843 0.8612765573766443 476.0 32.0 339.0 
332.00009003973184 5950.0 NaN 1540.0 0.8278188707445738 475.0 32.0 339.0 
334.00009003973184 5945.0 NaN 1540.0080160320636 0.829547127680058 476.0 32.0 339.0 
336.00008466603504 5953.0 NaN 1540.0561122244483 0.8535849782727343 475.0 32.0 339.0 
338.00009003973184 5960.0 NaN 1536.969939879761 0.866454119452251 476.0 32.0 338.0 
340.00009003973184 5957.0 NaN 1533.9211756847026 0.8293238037269733 477.0 32.0 337.0 
342.00009003973184 5967.0 NaN 1530.9819639278544 0.8283560841908661 477.0 32.0 336.0 
344.00009003973184 5961.0 NaN 1530.8617234468936 0.8321923325618592 477.0 32.0 336.0 
346.00008466603504 5959.0 NaN 1534.0627922511699 0.8327863304323457 477.0 32.0 337.0 
348.00009003973184 5959.0 NaN 1527.7515030060117 0.8431051252166036 476.0 32.0 335.0 
350.00009003973184 5964.0 NaN 1527.8183032732122 0.8701001405088249 475.0 33.0 334.0 
352.00009003973184 5970.0 NaN 1524.7348029392115 0.8983446554026654 481.0 33.0 333.0 
354.00009003973184 5951.0 NaN 1524.6973947895794 0.8908675444484399 482.0 33.0 333.0 
356.00008466603504 5968.0 NaN 1524.7454909819635 0.9146001252424139 482.0 32.0 334.0 
358.00009003973184 5967.0 NaN 1524.6466265865067 0.9023439428372216 481.0 31.0 335.0 
360.00009003973184 5952.0 NaN 1527.7702070808273 0.922053042890084 481.0 31.0 336.0 
362.00009003973184 5946.0 NaN 1527.8450233800934 0.9131866729424014 484.0 31.0 336.0 
364.00009003973184 5929.0 NaN 1524.7241148964606 0.9076762067617054 483.0 32.0 334.0 
366.00008466603504 5960.0 NaN 1512.4943219772886 0.8940542166244454 484.0 33.0 329.0 
368.00009003973184 5959.0 NaN 1506.2578490313967 0.9161251352482974 478.0 36.0 324.0 
370.00009003973184 5956.0 NaN 1515.4709418837667 0.89466193036287 479.0 36.0 327.0 
372.00009003973184 5975.0 NaN 1515.5484301937204 0.9034552870783344 480.0 35.0 328.0 
374.00009003973184 5973.0 NaN 1515.5323981295917 0.9467511778666368 481.0 35.0 328.0 
376.00008466603504 5973.0 NaN 1515.5404141616555 0.9679121409939018 481.0 35.0 328.0 
378.00009003973184 5965.0 NaN 1515.4709418837667 0.9593137625380316 481.0 35.0 328.0 
380.00009003973184 5956.0 NaN 1515.436205744824 0.9697291487655467 482.0 35.0 328.0 
382.00009003973184 5962.0 NaN 1515.4549098196387 0.9566075202684966 483.0 34.0 329.0 
384.00009003973184 5963.0 NaN 1521.6058784235122 0.9585892171067375 486.0 34.0 331.0 
386.00008466603504 5968.0 NaN 1530.8937875751515 0.9705435082565855 485.0 35.0 333.0 
388.00009003973184 5967.0 NaN 1518.535738142954 0.9746956568499572 483.0 35.0 329.0 
390.00009003973184 5976.0 NaN 1512.5290581162333 1.038434432320436 482.0 36.0 326.0 
392.00009003973184 6000.0 NaN 1518.6639946559792 1.0666607713162732 481.0 37.0 327.0 
394.00009003973184 5986.0 NaN 1518.5838343353364 1.0861835342055637 484.0 35.0 329.0 
396.00008466603504 5982.0 NaN 1518.5597862391458 1.0610737447139005 489.0 33.0 331.0 
398.00009003973184 5981.0 NaN 1515.4335337341358 1.0940962353206665 489.0 32.0 331.0 
400.00009003973184 6002.0 NaN 1518.5223780895117 1.1238992944924946 488.0 33.0 331.0 
402.00009003973184 6006.0 NaN 1518.551770207082 1.0071073510497321 487.0 34.0 330.0 
404.00009003973184 5994.0 NaN 1524.7641950567813 1.0278773256894462 490.0 32.0 334.0 
406.00008466603504 6014.0 NaN 1527.7461589846364 1.0586886076966038 493.0 31.0 336.0 
408.00009003973184 6015.0 NaN 1530.7494989979969 1.091527027079932 493.0 31.0 337.0 
410.00009003973184 6015.0 NaN 1530.907147628591 0.9970828359056916 493.0 31.0 337.0 
412.00009003973184 6027.0 NaN 1536.8977955911816 0.9222355353182373 494.0 31.0 339.0 
414.00009003973184 6015.0 NaN 1537.1035404141633 0.9473678755864718 496.0 32.0 338.0 
416.00008466603504 6025.0 NaN 1536.9539078156304 0.972572877635532 498.0 32.0 338.0 
418.00009003973184 6012.0 NaN 1536.9271877087515 0.9831624527908174 496.0 34.0 336.0 
420.00009003973184 6007.0 NaN 1524.6412825651298 1.0268909488046545 488.0 41.0 325.0 
422.00009003973184 6030.0 NaN 1518.5303941215757 1.0354827308517174 488.0 41.0 323.0 
424.00009003973184 6016.0 NaN 1512.34201736807 1.1073153274471004 491.0 35.0 327.0 
426.00008466603504 6013.0 NaN 1524.7348029392112 1.0996964457278406 488.0 32.0 334.0 
428.00009003973184 6013.0 NaN 1512.4141616566458 1.148210489121208 486.0 33.0 329.0 
430.00009003973184 6030.0 NaN 1512.4221776887102 1.1522833145215352 485.0 36.0 326.0 
432.00009003973184 6058.0 NaN 1509.2505010020031 1.1785264772283361 478.0 42.0 319.0 
434.00009003973184 6016.0 NaN 1512.2832331329332 1.2066996316219596 481.0 40.0 322.0 
436.00008466603504 6015.0 NaN 1524.6038744154991 1.193937531337937 488.0 36.0 330.0 
438.00009003973184 6018.0 NaN 1527.7301269205084 1.1971583639901167 488.0 39.0 328.0 
440.00009003973184 6013.0 NaN 1524.6786907147637 1.178444681248706 488.0 38.0 328.0 
442.00009003973184 6013.0 NaN 1527.8022712090842 1.1399328996067957 492.0 35.0 332.0 
444.00009003973184 5980.0 NaN 1527.690046760188 1.0782288153427064 493.0 32.0 335.0 
446.00008466603504 5968.0 NaN 1533.8383433533727 1.042567712051735 495.0 32.0 337.0 
448.00009003973184 5975.0 NaN 1540.0026720106885 0.9853986483118498 496.0 33.0 338.0 
450.00009003973184 5980.0 NaN 1546.142952571809 1.0214355810555826 500.0 33.0 340.0 
452.00009003973184 5989.0 NaN 1552.304609218436 1.061306125185166 502.0 32.0 343.0 
454.00009003973184 5975.0 NaN 1552.3206412825637 1.049007146304292 501.0 32.0 343.0 
456.00008466603504 5959.0 NaN 1555.3319973279906 1.016870975689494 500.0 33.0 343.0 
458.00009003973184 5967.0 NaN 1552.2591850367392 1.0091215304086754 501.0 32.0 343.0 
460.00009003973184 5981.0 NaN 1552.2565130260523 1.0457440055378973 496.0 36.0 339.0 
462.00009003973184 5980.0 NaN 1552.2725450901817 0.9948928672000096 496.0 36.0 339.0 
464.00009003973184 5968.0 NaN 1552.2698730794912 0.9882130207591022 499.0 35.0 340.0 
466.00008466603504 5972.0 NaN 1552.1870407481638 1.006430678208409 502.0 32.0 343.0 
468.00009003973184 5987.0 NaN 1549.1275885103548 1.001037069259255 500.0 32.0 342.0 
470.00009003973184 5980.0 NaN 1549.1489645958575 0.9453492277091257 499.0 33.0 341.0 
472.00009003973184 5975.0 NaN 1543.0140280561116 0.9246515908226572 494.0 35.0 337.0 
474.00009003973184 5955.0 NaN 1533.8517034068154 0.9212698708811682 491.0 33.0 336.0 
476.00008466603504 5947.0 NaN 1530.781563126254 0.9149711057949078 491.0 32.0 336.0 
478.00009003973184 5968.0 NaN 1527.6873747495001 0.9455177350001813 489.0 32.0 335.0 
480.00009003973184 5973.0 NaN 1530.7628590514364 0.963192024728859 490.0 32.0 336.0 
482.00009003973184 5980.0 NaN 1530.8697394789574 0.9371991980569607 491.0 32.0 336.0 
484.00009003973184 5939.0 NaN 1518.5010020040093 0.9067787840740991 490.0 32.0 332.0 
486.00008466603504 5936.0 NaN 1515.462925851703 0.9118196958214678 488.0 33.0 330.0 
488.00009003973184 5933.0 NaN 1509.3012692050756 0.9021598381035902 483.0 35.0 326.0 
490.00009003973184 5932.0 NaN 1506.249832999333 0.8968995011722287 489.0 32.0 328.0 
492.00009003973184 5934.0 NaN 1500.0427521710092 0.9090735840769387 487.0 33.0 325.0 
494.00009003973184 5927.0 NaN 1506.1803607214435 0.9496630360177122 482.0 36.0 324.0 
496.00008466603504 5932.0 NaN 1503.0835003340007 0.9989702328879383 478.0 37.0 322.0 
498.00009003973184 5937.0 NaN 1500.0133600534393 1.0102196455182895 480.0 36.0 322.0 
500.00009003973184 5917.0 NaN 1500.002672010689 1.0698621297374065 478.0 35.0 323.0 
502.00009003973184 5918.0 NaN 1496.8737474949908 1.0414927913757441 484.0 33.0 324.0 
504.00009003973184 5869.0 NaN 1493.8410153640627 1.0506635137438491 484.0 32.0 324.0 
506.00008466603504 5877.0 NaN 1500.0374081496336 1.0486440489691096 484.0 33.0 325.0 
508.00009003973184 5879.0 NaN 1503.0434201736819 1.0401198471553943 482.0 36.0 323.0 
510.00009003973184 5863.0 NaN 1503.174348697394 1.0340515612066967 487.0 33.0 326.0 
512.0000900397318 5875.0 NaN 1506.1135604542426 1.0548783655692267 486.0 33.0 327.0 
514.0000900397318 5857.0 NaN 1506.2391449565812 1.054245894696386 487.0 32.0 328.0 
516.000084666035 5858.0 NaN 1499.9412157648637 0.9992890931480995 485.0 33.0 325.0 
518.0000900397318 5870.0 NaN 1487.7621910487635 0.9701114591401646 479.0 38.0 316.0 
520.0000900397318 5862.0 NaN 1481.6005344021369 0.8743326840173957 475.0 38.0 314.0 
522.0000900397318 5877.0 NaN 1478.4448897795608 0.8666110611564745 478.0 38.0 313.0 
524.0000900397318 5882.0 NaN 1469.2291249165 0.8648613692897151 473.0 38.0 310.0 
526.000084666035 5893.0 NaN 1463.214428857716 0.9159904078694314 473.0 38.0 308.0 
528.0000900397318 5904.0 NaN 1466.1723446893795 0.9490347143672436 471.0 39.0 308.0 
530.0000900397318 5905.0 NaN 1466.2578490313972 0.9414630138273241 471.0 39.0 308.0 
532.0000900397318 5923.0 NaN 1466.2231128924525 0.8954238108847876 477.0 39.0 308.0 
534.0000900397318 5911.0 NaN 1472.3740814963267 0.8749679509019902 478.0 39.0 310.0 
536.000084666035 5933.0 NaN 1475.5564462257842 0.937374069280654 478.0 39.0 311.0 
538.0000900397318 5948.0 NaN 1478.5597862391455 0.9878225938013186 479.0 39.0 312.0 
540.0000900397318 5943.0 NaN 1481.6619906479634 0.9612044132296694 475.0 40.0 312.0 
542.0000900397318 5934.0 NaN 1481.704742818972 0.9677278174330803 477.0 39.0 313.0 
544.0000900397318 5912.0 NaN 1484.6733466933879 0.9788620251512544 478.0 40.0 313.0 
546.000084666035 5912.0 NaN 1490.853707414829 1.021194577522635 477.0 40.0 315.0 
548.0000900397318 5921.0 NaN 1487.7034068136272 0.9956522268446831 477.0 40.0 314.0 
550.0000900397318 5916.0 NaN 1481.6112224448905 0.9943555356035749 478.0 39.0 313.0 
552.0000900397318 5927.0 NaN 1487.7034068136272 0.983510933417421 484.0 39.0 315.0 
554.0000900397318 5938.0 NaN 1490.9365397461581 0.9554651883502172 486.0 40.0 315.0 
556.000084666035 5927.0 NaN 1490.8483633934543 0.9544472790832819 485.0 42.0 313.0 
558.0000900397318 5939.0 NaN 1490.8056112224456 0.9361423607968636 484.0 42.0 313.0 
560.0000900397318 5930.0 NaN 1478.5223780895117 0.9164226691376938 483.0 43.0 308.0 
562.0000900397318 5932.0 NaN 1478.5437541750173 0.8687467842320041 477.0 44.0 307.0 
564.0000900397318 5964.0 NaN 1481.6058784235129 0.899848461641111 480.0 42.0 310.0 
566.000084666035 5978.0 NaN 1484.7588510354035 0.9483965824248998 484.0 40.0 313.0 
568.0000900397318 5993.0 NaN 1487.8343353373423 0.9883687031987748 485.0 39.0 315.0 
570.0000900397318 5994.0 NaN 1487.8476953907818 0.9346712880479321 486.0 41.0 313.0 
572.0000900397318 6007.0 NaN 1487.906479625918 0.9530808938372034 484.0 43.0 311.0 
574.0000900397318 6013.0 NaN 1490.9071476285908 0.9800977343797249 485.0 41.0 314.0 
576.000084666035 5999.0 NaN 1500.138944555779 0.952428310435652 488.0 41.0 317.0 
578.0000900397318 6004.0 NaN 1497.1249164996655 0.9831687990912782 487.0 42.0 315.0 
580.0000900397318 6014.0 NaN 1493.9959919839669 1.0401746109494263 487.0 42.0 314.0 
582.0000900397318 6047.0 NaN 1493.9772879091527 1.111594894833041 485.0 44.0 312.0 
584.0000900397318 6058.0 NaN 1490.8964595858376 1.0960028476085708 493.0 41.0 314.0 
586.000084666035 6021.0 NaN 1490.8162992651978 1.1083894035030013 494.0 39.0 316.0 
588.0000900397318 6023.0 NaN 1490.8857715430854 1.17050106565296 495.0 39.0 316.0 
590.0000900397318 6031.0 NaN 1493.990647962591 1.2110726133829617 494.0 39.0 317.0 
592.0000900397318 6045.0 NaN 1503.2518370073471 1.2619587202307814 495.0 39.0 320.0 
594.0000900397318 6031.0 NaN 1500.0641282565123 1.2870157049117885 494.0 41.0 317.0 
596.000084666035 5993.0 NaN 1500.20574482298 1.2110094008748473 493.0 40.0 318.0 
598.0000900397318 5997.0 NaN 1493.958583834336 1.1983441111347344 494.0 40.0 316.0 
600.0000900397318 6023.0 NaN 1497.0821643286565 1.2611183951107758 496.0 39.0 318.0 
602.0000900397318 6027.0 NaN 1491.0140280561113 1.2144449368599661 494.0 39.0 316.0 
604.0000900397318 6028.0 NaN 1490.9498997995997 1.1781415369210337 494.0 39.0 316.0 
606.000084666035 6014.0 NaN 1497.1275885103546 1.163231476412675 495.0 39.0 318.0 
608.0000900397318 6022.0 NaN 1503.2384769539083 1.1064855033700876 495.0 39.0 320.0 
610.0000900397318 6022.0 NaN 1509.3547094188373 1.0555980440132837 496.0 40.0 321.0 
612.0000900397318 6035.0 NaN 1509.338677354709 1.0850927532643873 493.0 42.0 319.0 
614.0000900397318 6018.0 NaN 1509.3707414829646 1.1105421120148475 496.0 41.0 320.0 
616.000084666035 6015.0 NaN 1506.3139612558455 1.0842057930016809 496.0 40.0 320.0 
618.0000900397318 6029.0 NaN 1503.2625250501 1.0476846850027157 495.0 40.0 319.0 
620.0000900397318 6091.0 NaN 1509.3466933867728 1.000750101243351 494.0 41.0 320.0 
622.0000900397318 6132.0 NaN 1509.4615898463605 1.0042392442393215 492.0 43.0 318.0 
624.0000900397318 6128.0 NaN 1515.6526386105547 1.014360623940949 493.0 41.0 322.0 
626.000084666035 6135.0 NaN 1518.6907147628574 1.0326841860984333 489.0 42.0 322.0 
628.0000900397318 6160.0 NaN 1515.6713426853717 1.0443142886875993 498.0 38.0 325.0 
630.0000900397318 6172.0 NaN 1515.5511022044093 1.0233125864337973 497.0 40.0 323.0 
632.0000900397318 6187.0 NaN 1518.6880427521717 1.0643921560757952 492.0 45.0 319.0 
634.0000900397318 6180.0 NaN 1527.7862391449555 1.0971435880677896 495.0 45.0 322.0 
636.000084666035 6182.0 NaN 1527.8476953907818 1.070976394789466 500.0 42.0 325.0 
638.0000900397318 6214.0 NaN 1530.9739478957908 1.0484592042608012 495.0 46.0 322.0 
640.0000900397318 6204.0 NaN 1527.79425517702 1.0357742541031172 493.0 47.0 320.0 
642.0000900397318 6227.0 NaN 1530.8483633934543 1.069126754894003 494.0 47.0 321.0 
644.0000900397318 6210.0 NaN 1521.7234468937886 1.0354629285551649 490.0 48.0 317.0 
646.000084666035 6209.0 NaN 1521.5978623914484 1.0790552910870013 488.0 48.0 317.0 
648.0000900397318 6238.0 NaN 1524.7748830995333 1.1044083159206535 492.0 44.0 322.0 
650.0000900397318 6235.0 NaN 1527.7889111556453 1.1274678502573101 485.0 47.0 320.0 
652.0000900397318 6193.0 NaN 1524.7321309285244 1.1196842026395777 483.0 48.0 318.0 
654.0000900397318 6166.0 NaN 1524.7481629926526 1.123963855592848 486.0 43.0 323.0 
656.000084666035 6174.0 NaN 1524.7454909819635 1.1805217224964306 484.0 43.0 323.0 
658.0000900397318 6171.0 NaN 1530.8857715430852 1.1706197244999823 483.0 42.0 326.0 
660.0000900397318 6146.0 NaN 1540.1710086840355 1.1462615499323996 487.0 38.0 333.0 
662.0000900397318 6154.0 NaN 1543.2464929859727 1.137088044414857 483.0 39.0 333.0 
664.0000900397318 6142.0 NaN 1540.1255845023375 1.146447852734368 484.0 40.0 331.0 
#####################################################################
# End of data export. Simulation finished at: 2019-03-05T15:14+0000 #
#####################################################################
