#####################################################################
# Alchemist log file - simulation started at: 2019-03-10T04:22+0000 #
#####################################################################
# seed = 2.0, bandwidth = 5623413.251903491, propagationDelay = 0.31622776601683794, baserange = 100.0
#
# The columns have the following meaning: 
# time neighbor_count[Sum] <value>@neighbor_count[Sum] packet_size[Mean] mean_delay[Mean] crowd[Sum] overcrowded[Sum] risk[Sum] 
0.0 NaN NaN NaN NaN NaN NaN NaN 
2.0005230246453087 12583.0 NaN 4993.472277889112 0.48071866904748717 1497.0 0.0 1497.0 
4.000523024645308 13126.0 NaN 4995.692718770875 0.5015614138894161 1488.0 9.0 1488.0 
6.000523024645309 13130.0 NaN 4996.964595858383 0.5017316883685308 1487.0 10.0 1487.0 
8.00052302464531 13124.0 NaN 4996.7267869071475 0.5015569858131004 1484.0 13.0 1484.0 
10.000523024645307 13124.0 NaN 4995.623246492986 0.501557308937159 1488.0 9.0 1488.0 
12.000523024645307 13124.0 NaN 4996.069472277889 0.501556900455723 1481.0 16.0 1481.0 
14.000523024645307 13124.0 NaN 4995.230460921844 0.5015570921036128 1482.0 15.0 1482.0 
16.000523024645307 13124.0 NaN 4995.759519038076 0.5018254431014917 1488.0 9.0 1488.0 
18.000523024645307 13121.0 NaN 4995.2625250501005 0.5027300065265521 1484.0 13.0 1484.0 
20.000523024645307 13118.0 NaN 4995.2839011356045 0.5030196030875679 1482.0 15.0 1482.0 
22.000523024645307 13136.0 NaN 4995.377421509686 0.5023665864471847 1485.0 12.0 1485.0 
24.000523024645307 13149.0 NaN 4995.462925851703 0.5023461781701918 1482.0 15.0 1482.0 
26.000523024645307 13154.0 NaN 4994.936539746159 0.5023835485578261 1480.0 17.0 1480.0 
28.000523024645307 13156.0 NaN 4995.388109552438 0.5023447280432352 1480.0 17.0 1480.0 
30.000523024645307 13152.0 NaN 4995.163660654643 0.5023435289251241 1482.0 15.0 1482.0 
32.00052302464531 13194.0 NaN 4995.2785571142285 0.5048549888155918 1482.0 15.0 1482.0 
34.000523024645304 13185.0 NaN 4995.131596526386 0.5025924118695861 1483.0 14.0 1483.0 
36.000523024645304 13188.0 NaN 4995.22244488978 0.5027587619810302 1482.0 15.0 1482.0 
38.000523024645304 13190.0 NaN 4995.048764195057 0.5027235685797652 1483.0 14.0 1483.0 
40.000523024645304 13198.0 NaN 4995.2571810287245 0.5027178502319519 1483.0 14.0 1483.0 
42.000523024645304 13246.0 NaN 4995.024716098865 0.504361098390338 1485.0 12.0 1485.0 
44.000523024645304 13228.0 NaN 4994.997995991984 0.5048812820358348 1485.0 12.0 1485.0 
46.000523024645304 13236.0 NaN 4995.08617234469 0.5019582249191114 1485.0 12.0 1485.0 
48.000523024645304 13243.0 NaN 4995.2598530394125 0.501956842517211 1485.0 12.0 1485.0 
50.000523024645304 13238.0 NaN 4994.86706746827 0.501815847215923 1482.0 15.0 1482.0 
52.000523024645304 13287.0 NaN 4995.094188376754 0.5054727806791207 1482.0 15.0 1482.0 
54.000523024645304 13248.0 NaN 4995.110220440882 0.5045317406062144 1482.0 15.0 1482.0 
56.000523024645304 13253.0 NaN 4994.917835671343 0.5022167227174263 1481.0 16.0 1481.0 
58.000523024645304 13257.0 NaN 4995.139612558451 0.506901167312542 1484.0 13.0 1484.0 
60.000523024645304 13225.0 NaN 4995.091516366066 0.5050605985256643 1483.0 14.0 1483.0 
62.00058297905275 13276.0 NaN 1517.0794923179697 0.5051873416634086 800.0 9.0 354.0 
64.00058297905275 13235.0 NaN 1519.7782231128913 0.5042952289186247 639.0 13.0 351.0 
66.00058297905275 13232.0 NaN 1519.6125584502338 0.5030122176716147 575.0 20.0 344.0 
68.00058297905275 13251.0 NaN 1519.5404141616548 0.504332091900603 543.0 22.0 342.0 
70.00058297905275 13243.0 NaN 1519.6820307281243 0.5049112249016834 516.0 28.0 336.0 
72.00058297905275 13303.0 NaN 1519.4709418837667 0.5065008591635592 517.0 20.0 344.0 
74.00058297905275 13288.0 NaN 1525.6619906479636 0.5044377852208223 506.0 24.0 342.0 
76.00058297905275 13294.0 NaN 1525.6539746158999 0.5046610828365902 515.0 17.0 349.0 
78.00058297905275 13306.0 NaN 1525.766199064797 0.5069792034151743 513.0 18.0 348.0 
80.00058297905275 13317.0 NaN 1528.6546426185728 0.5049505531153174 504.0 24.0 343.0 
82.00058297905275 13314.0 NaN 1528.8096192384755 0.5042568971357452 503.0 25.0 342.0 
84.00058297905275 13314.0 NaN 1531.7381429525728 0.5068148376468224 503.0 27.0 341.0 
86.00058297905275 13297.0 NaN 1531.7595190380757 0.503039955254909 501.0 26.0 342.0 
88.00058297905275 13311.0 NaN 1531.6392785571152 0.5088957802710066 509.0 18.0 350.0 
90.00058297905275 13306.0 NaN 1531.8049432197727 0.5107762463553267 507.0 21.0 347.0 
92.00058297905275 13258.0 NaN 1531.6740146960576 0.5054774932985426 509.0 19.0 349.0 
94.00058297905275 13252.0 NaN 1531.6793587174363 0.5070919289088635 506.0 20.0 348.0 
96.00058297905275 13250.0 NaN 1531.644622578491 0.50290350770828 513.0 13.0 355.0 
98.00058297905275 13263.0 NaN 1531.7381429525728 0.504715504278957 503.0 24.0 344.0 
100.00058297905275 13241.0 NaN 1531.708750835003 0.5049023244561415 505.0 20.0 348.0 
102.00058297905275 13212.0 NaN 1534.8777555110212 0.5030071655939525 501.0 24.0 345.0 
104.00058297905275 13219.0 NaN 1534.6746826987303 0.5031853099080991 499.0 27.0 342.0 
106.00058297905275 13234.0 NaN 1534.8216432865727 0.5041773227262186 501.0 24.0 345.0 
108.00058297905275 13254.0 NaN 1537.873079492318 0.5048276715983794 504.0 20.0 350.0 
110.00058297905275 13251.0 NaN 1537.8623914495638 0.5044447425158709 500.0 26.0 344.0 
112.00058297905275 13258.0 NaN 1537.7795591182362 0.5038089028846319 510.0 16.0 354.0 
114.00058297905275 13265.0 NaN 1537.905143620573 0.5097458122224378 506.0 21.0 349.0 
116.00058297905275 13252.0 NaN 1540.8416833667336 0.5036733215399428 513.0 14.0 357.0 
118.00058297905275 13278.0 NaN 1547.241148964597 0.5061180970541942 508.0 21.0 352.0 
120.00058297905275 13272.0 NaN 1547.1903807615245 0.5038094647084357 510.0 18.0 355.0 
122.00058297905275 13292.0 NaN 1547.155644622579 0.507953151088877 506.0 22.0 351.0 
124.00058297905275 13276.0 NaN 1546.9846359385454 0.506620412697057 511.0 18.0 355.0 
126.00058297905275 13286.0 NaN 1547.1716766867069 0.5053585549490982 510.0 19.0 354.0 
128.00058297905275 13286.0 NaN 1547.1209084836341 0.5055845528466966 517.0 11.0 362.0 
130.00058297905275 13296.0 NaN 1547.2358049432182 0.5031608695656052 509.0 20.0 353.0 
132.00058297905275 13282.0 NaN 1544.053440213761 0.5040000402715988 515.0 13.0 359.0 
134.00058297905275 13279.0 NaN 1544.0347361389456 0.5043398067833765 509.0 19.0 353.0 
136.00058297905275 13255.0 NaN 1547.123580494321 0.5036920048471673 517.0 11.0 362.0 
138.00058297905275 13247.0 NaN 1544.205744822979 0.5047078774322358 502.0 22.0 350.0 
140.00058297905275 13256.0 NaN 1547.1609886439546 0.5031650695114045 501.0 20.0 353.0 
142.00058297905275 13278.0 NaN 1550.3994655978636 0.5032937903625613 500.0 21.0 353.0 
144.00058297905275 13303.0 NaN 1550.2338009352031 0.5058642530432224 496.0 25.0 349.0 
146.00058297905275 13279.0 NaN 1550.1696726786909 0.503929995548769 498.0 23.0 351.0 
148.00058297905275 13258.0 NaN 1547.1823647294575 0.5057767405390128 510.0 13.0 360.0 
150.00058297905275 13240.0 NaN 1544.0988643954572 0.5063596918652846 495.0 29.0 343.0 
152.00058297905275 13227.0 NaN 1541.0073480293909 0.5042020813588413 499.0 23.0 348.0 
154.00058297905275 13224.0 NaN 1540.9939879759518 0.506512678077791 490.0 26.0 345.0 
156.00058297905275 13199.0 NaN 1540.9218436873728 0.5081557732229816 493.0 24.0 347.0 
158.00058297905275 13202.0 NaN 1541.0340681362727 0.5056147617376703 487.0 31.0 340.0 
160.00058297905275 13190.0 NaN 1540.9966599866395 0.5038447596889478 495.0 25.0 346.0 
162.00058297905275 13202.0 NaN 1540.9779559118244 0.5047201345451772 490.0 28.0 343.0 
164.00058297905275 13192.0 NaN 1543.975951903809 0.5038158825754306 488.0 31.0 341.0 
166.00058297905275 13174.0 NaN 1550.2017368069457 0.5047543420531692 495.0 23.0 351.0 
168.00058297905275 13178.0 NaN 1550.2525050100182 0.5059582443492742 505.0 15.0 359.0 
170.00058297905275 13146.0 NaN 1547.155644622579 0.5024041611047381 494.0 27.0 346.0 
172.00058297905275 13164.0 NaN 1544.0427521710092 0.5042829166223397 504.0 16.0 356.0 
174.00058297905275 13167.0 NaN 1543.9652638610544 0.5059056621802972 499.0 21.0 351.0 
176.00058297905275 13141.0 NaN 1543.9599198396797 0.5034517580337319 502.0 17.0 355.0 
178.00058297905275 13140.0 NaN 1540.9592518370089 0.5045365393965279 493.0 26.0 345.0 
180.00058297905275 13105.0 NaN 1537.9024716098882 0.5029876512627827 495.0 22.0 348.0 
182.00058297905275 13103.0 NaN 1540.9913159652635 0.5046063083813241 493.0 24.0 347.0 
184.00058297905275 13088.0 NaN 1541.002004008018 0.5076147627059979 496.0 23.0 348.0 
186.00058297905275 13070.0 NaN 1541.0207080828334 0.5043843099843929 495.0 23.0 348.0 
188.00058297905275 13092.0 NaN 1540.9726118904455 0.5057893095581648 505.0 12.0 359.0 
190.00058297905275 13062.0 NaN 1541.0474281897118 0.5029405653191447 497.0 21.0 350.0 
192.00058297905275 13081.0 NaN 1540.9672678690727 0.5046845536433601 503.0 14.0 357.0 
194.00058297905275 13072.0 NaN 1540.9672678690727 0.5089078726266621 497.0 20.0 351.0 
196.00058297905275 13024.0 NaN 1541.0073480293909 0.5041465913837955 506.0 11.0 360.0 
198.00058297905275 13048.0 NaN 1544.072144288576 0.5100269446409297 498.0 21.0 351.0 
200.00058297905275 13007.0 NaN 1544.0213760855033 0.5014526788700571 501.0 18.0 354.0 
202.00058297905275 13016.0 NaN 1544.1416165664662 0.5080709169793287 498.0 22.0 350.0 
204.00058297905275 13013.0 NaN 1547.0808283233118 0.5107636885087626 500.0 21.0 352.0 
206.00058297905275 12980.0 NaN 1544.0614562458272 0.5038553971750436 501.0 20.0 352.0 
208.00058297905275 13000.0 NaN 1544.016032064127 0.5090312710765231 507.0 11.0 361.0 
210.00058297905275 12950.0 NaN 1537.9639278557092 0.5027942068994607 493.0 22.0 348.0 
212.00058297905275 12965.0 NaN 1540.9619238476935 0.5064133280131794 497.0 17.0 354.0 
214.00058297905275 12946.0 NaN 1544.21643286573 0.5069632484288566 494.0 21.0 351.0 
216.00058297905275 12908.0 NaN 1543.9973279893115 0.5034930768053998 497.0 17.0 355.0 
218.00058297905275 12924.0 NaN 1537.9185036740155 0.5032142069252407 489.0 29.0 341.0 
220.00058297905275 12905.0 NaN 1541.0046760187026 0.5038937516199851 494.0 22.0 349.0 
222.00058297905275 12895.0 NaN 1541.1008684034728 0.5057132622411964 491.0 25.0 346.0 
224.00058297905275 12887.0 NaN 1540.7294589178364 0.5054374807616833 495.0 22.0 349.0 
226.00058297905275 12868.0 NaN 1540.9458917835664 0.505101551680474 497.0 21.0 350.0 
228.00058297905275 12876.0 NaN 1540.9378757515026 0.507078079923457 498.0 18.0 353.0 
230.00058297905275 12862.0 NaN 1537.8971275885092 0.5042096413336378 487.0 27.0 343.0 
232.00058297905275 12856.0 NaN 1541.0153640614546 0.508541364404521 497.0 16.0 355.0 
234.00058297905275 12839.0 NaN 1540.9539078156301 0.5090192805392917 489.0 24.0 347.0 
236.00058297905275 12799.0 NaN 1544.0320641282547 0.5073028045629946 498.0 16.0 356.0 
238.00058297905275 12806.0 NaN 1544.1923847695389 0.5072498400617106 488.0 26.0 346.0 
240.00058297905275 12791.0 NaN 1541.0340681362727 0.5060281886446322 490.0 21.0 350.0 
242.00058297905275 12785.0 NaN 1540.996659986639 0.5067332511371699 492.0 23.0 348.0 
244.00058297905275 12766.0 NaN 1540.8844355377428 0.5063594175201144 496.0 18.0 353.0 
246.00058297905275 12738.0 NaN 1537.8142952571818 0.5069402113454253 494.0 21.0 349.0 
248.00058297905275 12738.0 NaN 1540.9672678690727 0.5060661010188837 501.0 13.0 358.0 
250.00058297905275 12730.0 NaN 1537.8784235136936 0.5030644692105161 490.0 25.0 345.0 
252.00058297905275 12733.0 NaN 1534.714762859052 0.5051690165951722 488.0 21.0 348.0 
254.00058297905275 12745.0 NaN 1534.7682030728117 0.5057284722257809 487.0 25.0 344.0 
256.00058297905275 12718.0 NaN 1531.6152304609209 0.5049413617970852 499.0 12.0 356.0 
258.00058297905275 12701.0 NaN 1531.6713426853726 0.5035308100111872 490.0 24.0 344.0 
260.00058297905275 12715.0 NaN 1528.598530394121 0.5067445909534403 491.0 21.0 346.0 
262.00058297905275 12718.0 NaN 1525.5070140280548 0.5077771663503662 487.0 28.0 338.0 
264.00058297905275 12713.0 NaN 1528.6038744154996 0.5088450606424085 483.0 29.0 338.0 
266.00058297905275 12676.0 NaN 1528.5397461589844 0.5053920970008231 487.0 27.0 340.0 
268.00058297905275 12662.0 NaN 1537.7742150968613 0.5073828953227868 497.0 15.0 355.0 
270.00058297905275 12670.0 NaN 1540.9378757515024 0.5127601323599424 488.0 26.0 345.0 
272.00058297905275 12657.0 NaN 1540.817635270543 0.5075611288204398 496.0 17.0 354.0 
274.00058297905275 12691.0 NaN 1543.9438877755522 0.515834973306766 489.0 22.0 350.0 
276.00058297905275 12649.0 NaN 1540.8336673346703 0.5064330622904029 486.0 27.0 344.0 
278.00058297905275 12642.0 NaN 1540.916499666 0.5066895781883086 482.0 30.0 341.0 
280.00058297905275 12636.0 NaN 1537.718102872411 0.510800639267018 488.0 24.0 346.0 
282.00058297905275 12621.0 NaN 1537.942551770209 0.5053475150212868 486.0 25.0 345.0 
284.00058297905275 12620.0 NaN 1537.763527054109 0.5088781555162363 486.0 30.0 340.0 
286.00058297905275 12585.0 NaN 1537.7688710754837 0.5043552925625893 489.0 23.0 347.0 
288.00058297905275 12588.0 NaN 1537.8623914495638 0.5050687016061393 491.0 19.0 351.0 
290.00058297905275 12581.0 NaN 1537.7795591182362 0.5092577139778447 488.0 23.0 347.0 
292.00058297905275 12561.0 NaN 1537.7822311289249 0.5052197875307158 492.0 20.0 350.0 
294.00058297905275 12549.0 NaN 1531.698062792252 0.507506701095841 489.0 22.0 346.0 
296.00058297905275 12502.0 NaN 1531.5564462257844 0.5044090652111431 496.0 15.0 353.0 
298.00058297905275 12511.0 NaN 1531.7354709418819 0.5036240886506226 489.0 22.0 346.0 
300.00058297905275 12506.0 NaN 1534.749498997997 0.5044292497752175 482.0 26.0 343.0 
302.00058297905275 12497.0 NaN 1528.627922511691 0.507244680026914 485.0 22.0 345.0 
304.00058297905275 12475.0 NaN 1531.6740146960574 0.5062770045444235 487.0 21.0 347.0 
306.00058297905275 12457.0 NaN 1531.6526386105547 0.5053001791585279 485.0 23.0 345.0 
308.00058297905275 12451.0 NaN 1531.7915831663336 0.5079657177684956 488.0 19.0 349.0 
310.00058297905275 12437.0 NaN 1537.9131596526365 0.5050552366487671 485.0 21.0 349.0 
312.00058297905275 12428.0 NaN 1534.7174348697388 0.50449685955265 490.0 14.0 355.0 
314.00058297905275 12441.0 NaN 1531.6873747495001 0.5089721668953432 486.0 21.0 347.0 
316.00058297905275 12424.0 NaN 1528.4595858383452 0.5067554485212361 493.0 14.0 353.0 
318.00058297905275 12413.0 NaN 1528.6492985971938 0.5048444516697823 478.0 30.0 337.0 
320.00058297905275 12411.0 NaN 1531.5136940547757 0.504649248084201 485.0 21.0 347.0 
322.00058297905275 12423.0 NaN 1528.6786907147637 0.5070176780929838 477.0 31.0 336.0 
324.00058297905275 12443.0 NaN 1531.5911823647275 0.5090816606227397 479.0 29.0 339.0 
326.00058297905275 12425.0 NaN 1528.673346693388 0.5068652755754595 488.0 19.0 348.0 
328.00058297905275 12423.0 NaN 1528.5584502337997 0.5080127164749463 499.0 8.0 359.0 
330.00058297905275 12393.0 NaN 1528.676018704073 0.5048468391918133 488.0 21.0 346.0 
332.00058297905275 12395.0 NaN 1525.5337341349364 0.5072518086152061 498.0 12.0 354.0 
334.00058297905275 12384.0 NaN 1528.555778223112 0.5071816424046641 493.0 16.0 351.0 
336.00058297905275 12376.0 NaN 1528.4301937207729 0.5069778095452678 496.0 13.0 354.0 
338.00058297905275 12387.0 NaN 1525.560454241818 0.5043839564859814 489.0 20.0 346.0 
340.00058297905275 12385.0 NaN 1522.4635938543754 0.5045776674903307 494.0 14.0 351.0 
342.00058297905275 12423.0 NaN 1528.6065464261849 0.5057479329678227 489.0 21.0 346.0 
344.00058297905275 12407.0 NaN 1531.623246492985 0.5140900485360782 494.0 18.0 350.0 
346.00058297905275 12382.0 NaN 1528.638610554443 0.5059047862593281 497.0 16.0 351.0 
348.00058297905275 12407.0 NaN 1525.5016700066815 0.506315358040082 499.0 12.0 354.0 
350.00058297905275 12392.0 NaN 1525.5150300601188 0.5039461632967983 493.0 19.0 347.0 
352.00058297905275 12429.0 NaN 1525.5123580494333 0.5058229494584952 501.0 10.0 356.0 
354.00058297905275 12441.0 NaN 1522.3807615230453 0.5093118227450986 490.0 20.0 345.0 
356.00058297905275 12423.0 NaN 1522.3567134268546 0.5089925844868447 499.0 11.0 354.0 
358.00058297905275 12437.0 NaN 1522.468937875752 0.5067659306696225 493.0 18.0 347.0 
360.00058297905275 12410.0 NaN 1522.3620574482297 0.5102334854471922 491.0 18.0 347.0 
362.00058297905275 12436.0 NaN 1522.4876419505667 0.5063383241916335 491.0 19.0 346.0 
364.00058297905275 12437.0 NaN 1522.3299933199726 0.5092658412989676 495.0 16.0 349.0 
366.00058297905275 12413.0 NaN 1522.383433533736 0.5059631514837439 493.0 20.0 345.0 
368.00058297905275 12416.0 NaN 1503.9893119572473 0.5102820851122485 501.0 10.0 349.0 
370.00058297905275 12371.0 NaN 1497.8650634602545 0.5084115512699328 495.0 17.0 340.0 
372.00058297905275 12379.0 NaN 1500.8470273881092 0.5065644882837708 498.0 14.0 344.0 
374.00058297905275 12354.0 NaN 1507.0086840347365 0.5110072395903853 495.0 18.0 342.0 
376.00058297905275 12316.0 NaN 1503.890447561791 0.5072696227355131 504.0 9.0 350.0 
378.00058297905275 12329.0 NaN 1503.9812959251828 0.5078811419648924 492.0 22.0 337.0 
380.00058297905275 12302.0 NaN 1500.8283233132927 0.5085778903335257 498.0 16.0 342.0 
382.00058297905275 12315.0 NaN 1497.8704074816294 0.503677433201537 497.0 17.0 340.0 
384.00058297905275 12310.0 NaN 1500.8149632598538 0.5142259490183995 494.0 20.0 338.0 
386.00058297905275 12268.0 NaN 1506.968603874416 0.5056000386027775 497.0 19.0 341.0 
388.00058297905275 12310.0 NaN 1507.0594522378092 0.5075294018277927 506.0 9.0 351.0 
390.00058297905275 12287.0 NaN 1500.822979291918 0.5134111845501594 493.0 22.0 336.0 
392.00058297905275 12294.0 NaN 1510.070808283234 0.5064075227355779 502.0 12.0 349.0 
394.00058297905275 12281.0 NaN 1507.0273881095536 0.5068138404109936 495.0 20.0 340.0 
396.00058297905275 12264.0 NaN 1509.9826319305273 0.5093495455094779 495.0 21.0 340.0 
398.00058297905275 12300.0 NaN 1510.2124248497 0.5042091337874136 495.0 23.0 338.0 
400.00058297905275 12291.0 NaN 1507.0086840347365 0.5038918788898401 496.0 23.0 337.0 
402.00058297905275 12306.0 NaN 1510.2124248497 0.5053716219767946 492.0 28.0 333.0 
404.00058297905275 12292.0 NaN 1519.3132932531726 0.5092953310608314 493.0 28.0 336.0 
406.00058297905275 12269.0 NaN 1519.4094856379431 0.5089169183376331 502.0 19.0 345.0 
408.00058297905275 12286.0 NaN 1522.4956579826332 0.5080895747198818 499.0 22.0 343.0 
410.00058297905275 12265.0 NaN 1531.6499665998663 0.5077064243831002 496.0 26.0 342.0 
412.00058297905275 12292.0 NaN 1531.6579826319298 0.5028024751650223 510.0 11.0 357.0 
414.00058297905275 12286.0 NaN 1534.7227788911157 0.5040807636813928 501.0 19.0 350.0 
416.00058297905275 12274.0 NaN 1531.6419505678002 0.501890961349649 512.0 10.0 358.0 
418.00058297905275 12316.0 NaN 1519.3881095524368 0.5084482215691375 505.0 18.0 346.0 
420.00058297905275 12285.0 NaN 1519.2972611890455 0.503677122306196 505.0 17.0 347.0 
422.00058297905275 12312.0 NaN 1516.2458249832998 0.50482911653672 499.0 21.0 342.0 
424.00058297905275 12312.0 NaN 1513.0207080828332 0.5088069730757724 496.0 23.0 339.0 
426.00058297905275 12276.0 NaN 1519.3026052104203 0.5023399382832651 495.0 22.0 342.0 
428.00058297905275 12317.0 NaN 1519.3026052104203 0.5065224770503387 501.0 17.0 347.0 
430.00058297905275 12286.0 NaN 1516.1790247161 0.5019711070165459 498.0 19.0 344.0 
432.00058297905275 12303.0 NaN 1513.087508350034 0.5054431780716822 499.0 18.0 344.0 
434.00058297905275 12310.0 NaN 1519.2705410821636 0.5104353469097016 500.0 20.0 344.0 
436.00058297905275 12288.0 NaN 1528.419505678021 0.5047638154634403 514.0 12.0 355.0 
438.00058297905275 12299.0 NaN 1528.6172344689369 0.5055659466617004 501.0 25.0 342.0 
440.00058297905275 12277.0 NaN 1528.4034736138938 0.5035516360841148 502.0 22.0 345.0 
442.00058297905275 12280.0 NaN 1531.6793587174361 0.509711454300806 500.0 24.0 344.0 
444.00058297905275 12250.0 NaN 1531.4682698730815 0.5098751214676557 502.0 23.0 345.0 
446.00058297905275 12241.0 NaN 1537.80093520374 0.5073958481480678 505.0 23.0 347.0 
448.00058297905275 12259.0 NaN 1543.9144956579817 0.5036787663323693 515.0 13.0 359.0 
450.00058297905275 12238.0 NaN 1540.830995323982 0.502418170367588 500.0 28.0 343.0 
452.00058297905275 12234.0 NaN 1543.8851035404152 0.5095290281105938 514.0 13.0 359.0 
454.00058297905275 12223.0 NaN 1543.9038076152299 0.5094754519424926 508.0 18.0 354.0 
456.00058297905275 12228.0 NaN 1553.111556446227 0.5065184349250428 509.0 17.0 358.0 
458.00058297905275 12236.0 NaN 1553.357381429527 0.5029603109784033 500.0 27.0 348.0 
460.00058297905275 12236.0 NaN 1549.907815631264 0.5035319329465645 507.0 16.0 358.0 
462.00058297905275 12235.0 NaN 1547.0193720774882 0.5045922351028208 502.0 22.0 351.0 
464.00058297905275 12256.0 NaN 1540.7722110888456 0.510279795097367 501.0 22.0 349.0 
466.00058297905275 12249.0 NaN 1543.935871743488 0.5095618818813005 496.0 28.0 344.0 
468.00058297905275 12244.0 NaN 1543.9305277221094 0.5060976581556547 510.0 13.0 359.0 
470.00058297905275 12228.0 NaN 1537.6299265197065 0.5065952103036507 503.0 20.0 350.0 
472.00058297905275 12233.0 NaN 1534.6559786239154 0.5096698919280417 505.0 15.0 354.0 
474.00058297905275 12222.0 NaN 1525.3921175684707 0.5083065218857205 489.0 31.0 335.0 
476.00058297905275 12224.0 NaN 1516.2137608550445 0.5113721132130029 504.0 13.0 350.0 
478.00058297905275 12206.0 NaN 1516.2271209084827 0.5086840976931482 492.0 23.0 340.0 
480.00058297905275 12198.0 NaN 1516.1736806947245 0.5054078623292072 494.0 21.0 342.0 
482.00058297905275 12215.0 NaN 1510.0627922511699 0.5098486970873726 488.0 28.0 333.0 
484.00058297905275 12213.0 NaN 1510.0040080160334 0.5113187405141002 492.0 21.0 340.0 
486.00058297905275 12192.0 NaN 1509.993319973281 0.5148580607723307 488.0 25.0 336.0 
488.00058297905275 12183.0 NaN 1500.8577154308625 0.5097404563057097 497.0 13.0 345.0 
490.00058297905275 12159.0 NaN 1497.8036072144282 0.511529175708353 486.0 26.0 331.0 
492.00058297905275 12160.0 NaN 1494.7067468269881 0.5074017300531121 495.0 15.0 341.0 
494.00058297905275 12155.0 NaN 1491.556446225784 0.5060217062504833 491.0 19.0 336.0 
496.00058297905275 12161.0 NaN 1491.6152304609209 0.5064605315533786 495.0 13.0 342.0 
498.00058297905275 12169.0 NaN 1488.6706746826992 0.5061570996371336 478.0 31.0 323.0 
500.00058297905275 12151.0 NaN 1488.534402137609 0.5104424719298005 483.0 22.0 332.0 
502.00058297905275 12167.0 NaN 1491.6606546426183 0.5033830100458646 485.0 23.0 332.0 
504.00058297905275 12167.0 NaN 1491.5804943219787 0.507137785916963 488.0 23.0 332.0 
506.00058297905275 12184.0 NaN 1494.7040748163 0.504491788447895 484.0 30.0 326.0 
508.00058297905275 12203.0 NaN 1491.6579826319296 0.504574993437089 496.0 16.0 339.0 
510.00058297905275 12192.0 NaN 1497.8276553106202 0.5066879985276296 488.0 25.0 332.0 
512.0005829790528 12212.0 NaN 1497.629926519707 0.5067185579520593 490.0 22.0 335.0 
514.0005829790528 12210.0 NaN 1491.5751503006002 0.5096324371501569 490.0 22.0 333.0 
516.0005829790528 12231.0 NaN 1479.2251169004667 0.5044640299973625 493.0 17.0 334.0 
518.0005829790528 12225.0 NaN 1473.2585170340697 0.5029637670861605 485.0 23.0 326.0 
520.0005829790528 12249.0 NaN 1470.0360721442898 0.5034951165176987 490.0 16.0 332.0 
522.0005829790528 12263.0 NaN 1470.0788243152979 0.506234471866724 486.0 22.0 326.0 
524.0005829790528 12287.0 NaN 1457.758183032733 0.5083263661707887 486.0 19.0 325.0 
526.0005829790528 12295.0 NaN 1451.593854375418 0.5074242918148604 487.0 18.0 324.0 
528.0005829790528 12297.0 NaN 1454.7628590514364 0.504000545043031 491.0 13.0 330.0 
530.0005829790528 12309.0 NaN 1454.8162992651976 0.5051302295127971 487.0 20.0 323.0 
532.0005829790528 12318.0 NaN 1454.794923179692 0.5048398237441792 493.0 12.0 331.0 
534.0005829790528 12349.0 NaN 1460.9245156980633 0.5054421138630725 484.0 22.0 323.0 
536.0005829790528 12371.0 NaN 1457.8517034068147 0.5049996105711121 492.0 13.0 331.0 
538.0005829790528 12364.0 NaN 1458.0066800267193 0.5109980009862846 488.0 21.0 323.0 
540.0005829790528 12342.0 NaN 1457.891783567135 0.5070961897689032 487.0 21.0 323.0 
542.0005829790528 12328.0 NaN 1461.0581162324645 0.5078498637858261 487.0 22.0 323.0 
544.0005829790528 12314.0 NaN 1460.8977955911819 0.5038662958187861 492.0 20.0 325.0 
546.0005829790528 12321.0 NaN 1460.9298597194388 0.5104596366264812 488.0 25.0 320.0 
548.0005829790528 12304.0 NaN 1461.026052104209 0.505816109097664 492.0 20.0 325.0 
550.0005829790528 12297.0 NaN 1460.9619238476948 0.506180880141516 489.0 26.0 319.0 
552.0005829790528 12305.0 NaN 1460.9645958583828 0.503881262587466 488.0 25.0 320.0 
554.0005829790528 12317.0 NaN 1467.1022044088181 0.5116107304715569 487.0 25.0 322.0 
556.0005829790528 12319.0 NaN 1470.164328657315 0.5095274439078351 486.0 24.0 324.0 
558.0005829790528 12299.0 NaN 1457.8997995991988 0.5022795182372743 472.0 34.0 310.0 
560.0005829790528 12318.0 NaN 1451.8744154976623 0.506894801484516 472.0 30.0 312.0 
562.0005829790528 12311.0 NaN 1454.8670674682696 0.5034237471706946 465.0 30.0 313.0 
564.0005829790528 12342.0 NaN 1461.0607882431534 0.507498348673435 464.0 33.0 312.0 
566.0005829790528 12351.0 NaN 1470.249832999332 0.5084809111185167 476.0 26.0 322.0 
568.0005829790528 12347.0 NaN 1470.2444889779554 0.5052788524925699 486.0 17.0 331.0 
570.0005829790528 12334.0 NaN 1476.3927855711424 0.5081320791933963 480.0 30.0 320.0 
572.0005829790528 12279.0 NaN 1479.551102204409 0.5044465328107149 490.0 20.0 331.0 
574.0005829790528 12316.0 NaN 1482.5090180360726 0.5083284879932864 482.0 27.0 325.0 
576.0005829790528 12328.0 NaN 1485.592518370073 0.5099788845960415 492.0 18.0 335.0 
578.0005829790528 12351.0 NaN 1482.5918503674009 0.5077550545384869 492.0 22.0 330.0 
580.0005829790528 12323.0 NaN 1485.6940547762185 0.5114173739700191 497.0 16.0 337.0 
582.0005829790528 12292.0 NaN 1485.6379425517707 0.5079747768158707 495.0 22.0 331.0 
584.0005829790528 12308.0 NaN 1482.5116900467606 0.5105276887074283 497.0 21.0 331.0 
586.0005829790528 12351.0 NaN 1491.7167668670666 0.5101907581292482 501.0 20.0 335.0 
588.0005829790528 12349.0 NaN 1491.7461589846364 0.5061475200834331 503.0 19.0 336.0 
590.0005829790528 12346.0 NaN 1491.828991315965 0.5066751915377347 496.0 26.0 329.0 
592.0005829790528 12346.0 NaN 1491.6793587174352 0.5099459948315535 506.0 17.0 338.0 
594.0005829790528 12363.0 NaN 1491.665998663994 0.5098510163562522 496.0 27.0 328.0 
596.0005829790528 12351.0 NaN 1494.8830995323988 0.5058711874162308 506.0 19.0 337.0 
598.0005829790528 12364.0 NaN 1488.614562458249 0.5083110270343975 501.0 25.0 329.0 
600.0005829790528 12335.0 NaN 1488.6359385437545 0.5102317278342281 505.0 24.0 330.0 
602.0005829790528 12336.0 NaN 1491.8343353373423 0.5120505733980492 502.0 25.0 330.0 
604.0005829790528 12384.0 NaN 1491.7354709418832 0.5167834578277801 503.0 23.0 332.0 
606.0005829790528 12391.0 NaN 1497.878423513693 0.509870737525011 498.0 26.0 331.0 
608.0005829790528 12408.0 NaN 1498.0467601870396 0.5069524935027827 507.0 16.0 341.0 
610.0005829790528 12419.0 NaN 1494.9579158316637 0.5107795197393513 503.0 23.0 333.0 
612.0005829790528 12438.0 NaN 1494.9205076820303 0.5071031851622964 499.0 21.0 335.0 
614.0005829790528 12478.0 NaN 1494.9338677354717 0.5107763557215059 496.0 24.0 332.0 
616.0005829790528 12454.0 NaN 1497.8223112892456 0.5083028401817103 503.0 17.0 340.0 
618.0005829790528 12502.0 NaN 1497.942551770208 0.5071642970563313 490.0 33.0 324.0 
620.0005829790528 12476.0 NaN 1494.8937875751515 0.5112467326687943 493.0 27.0 329.0 
622.0005829790528 12466.0 NaN 1501.0768203072819 0.5091324662170574 492.0 27.0 331.0 
624.0005829790528 12496.0 NaN 1504.0881763527063 0.516526159144892 491.0 27.0 332.0 
626.0005829790528 12482.0 NaN 1507.217100868403 0.5153851401634045 490.0 28.0 332.0 
628.0005829790528 12508.0 NaN 1507.241148964597 0.5082119645880093 498.0 18.0 342.0 
630.0005829790528 12455.0 NaN 1507.2491649966607 0.5077231735534061 477.0 39.0 321.0 
632.0005829790528 12450.0 NaN 1507.3186372745483 0.5066160951163626 488.0 26.0 334.0 
634.0005829790528 12476.0 NaN 1516.3874415497658 0.5127817030922134 484.0 32.0 331.0 
636.0005829790528 12465.0 NaN 1513.3360053440204 0.5103639657100022 496.0 26.0 336.0 
638.0005829790528 12485.0 NaN 1516.4836339345363 0.5090713599547493 492.0 33.0 330.0 
640.0005829790528 12429.0 NaN 1513.338677354709 0.5081844282415476 497.0 26.0 336.0 
642.0005829790528 12433.0 NaN 1510.3246492985982 0.5097104526097248 487.0 36.0 325.0 
644.0005829790528 12428.0 NaN 1507.198396793588 0.5097823838875906 495.0 30.0 330.0 
646.0005829790528 12413.0 NaN 1507.3106212424839 0.5107386587439532 496.0 28.0 332.0 
648.0005829790528 12436.0 NaN 1513.410821643288 0.5088936949319088 502.0 20.0 342.0 
650.0005829790528 12392.0 NaN 1519.532398129592 0.5100961688077326 487.0 33.0 331.0 
652.0005829790528 12388.0 NaN 1519.5644622578484 0.5072267766679874 491.0 24.0 340.0 
654.0005829790528 12402.0 NaN 1519.6045424181707 0.5167344225147467 485.0 29.0 335.0 
656.0005829790528 12399.0 NaN 1522.5544422177697 0.5064157319491428 493.0 21.0 344.0 
658.0005829790528 12409.0 NaN 1531.914495657982 0.5069795930490952 489.0 26.0 342.0 
660.0005829790528 12388.0 NaN 1534.837675350701 0.5071909503638813 486.0 27.0 342.0 
662.0005829790528 12384.0 NaN 1534.901803607215 0.505974946123665 484.0 29.0 340.0 
664.0005829790528 12388.0 NaN 1534.6533066132274 0.5111296864740903 485.0 30.0 339.0 
#####################################################################
# End of data export. Simulation finished at: 2019-03-10T04:30+0000 #
#####################################################################
