#####################################################################
# Alchemist log file - simulation started at: 2019-03-14T23:03+0000 #
#####################################################################
# seed = 8.0, bandwidth = 4216.965034285822, propagationDelay = 0.03162277660168379, baserange = 177.82794100389228
#
# The columns have the following meaning: 
# time neighbor_count[Sum] <value>@neighbor_count[Sum] packet_size[Mean] mean_delay[Mean] crowd[Sum] overcrowded[Sum] risk[Sum] 
0.0 NaN NaN NaN NaN NaN NaN NaN 
2.0000937400655205 8139.0 NaN 4988.833667334669 0.2227388253401769 1497.0 0.0 1497.0 
4.0001517704722565 26546.0 NaN 4995.770207080828 1.1788447331558256 1497.0 0.0 1497.0 
6.000151770472257 26546.0 NaN 4994.0360721442885 1.1794489653353912 1493.0 4.0 1493.0 
8.000151770472257 26548.0 NaN 4994.800267201069 1.1793525398609874 1493.0 4.0 1493.0 
10.000151770472256 26553.0 NaN 4993.779559118237 1.179554511089565 1493.0 4.0 1493.0 
12.000151770472256 26555.0 NaN 4994.63460253841 1.179914528587327 1493.0 4.0 1493.0 
14.000151770472256 26557.0 NaN 4993.744822979292 1.1815046235097217 1493.0 4.0 1493.0 
16.000151770472257 26562.0 NaN 4994.658650634603 1.1834183747876894 1493.0 4.0 1493.0 
18.000151770472254 26564.0 NaN 4993.667334669339 1.1881208361165987 1493.0 4.0 1493.0 
20.000151770472254 26566.0 NaN 4994.669338677355 1.1927449565928891 1493.0 4.0 1493.0 
22.000151770472254 26570.0 NaN 4993.656646626587 1.197683165330817 1493.0 4.0 1493.0 
24.000151770472254 26592.0 NaN 4994.696058784235 1.203260429934838 1493.0 4.0 1493.0 
26.000151770472254 26604.0 NaN 4993.675350701403 1.2093297715423053 1494.0 3.0 1494.0 
28.000151770472254 26625.0 NaN 4994.602538410154 1.219493355199026 1494.0 3.0 1494.0 
30.000151770472254 26630.0 NaN 4993.664662658651 1.2290363592469682 1494.0 3.0 1494.0 
32.00015177047226 26648.0 NaN 4994.591850367401 1.2348973350042307 1494.0 3.0 1494.0 
34.00015177047226 26692.0 NaN 4993.696726786907 1.2490305220778901 1493.0 4.0 1493.0 
36.00015177047226 26696.0 NaN 4994.618570474282 1.2641280496873686 1494.0 3.0 1494.0 
38.00015177047226 26709.0 NaN 4993.667334669339 1.2798549246903272 1494.0 3.0 1494.0 
40.00015177047226 26723.0 NaN 4994.642618570474 1.2891646865532054 1494.0 3.0 1494.0 
42.00015177047226 26736.0 NaN 4993.659318637275 1.2968472877564634 1493.0 4.0 1493.0 
44.00015177047226 26772.0 NaN 4994.645290581162 1.305505937384004 1493.0 4.0 1493.0 
46.00015177047226 26774.0 NaN 4993.688710754843 1.2844289170025383 1493.0 4.0 1493.0 
48.00015177047226 26780.0 NaN 4994.631930527722 1.3012376978211053 1493.0 4.0 1493.0 
50.00015177047226 26782.0 NaN 4993.710086840348 1.3205200182275831 1493.0 4.0 1493.0 
52.00015177047226 26804.0 NaN 4994.605210420842 1.3319796174132899 1493.0 4.0 1493.0 
54.00015177047226 26834.0 NaN 4993.710086840348 1.3453843170348772 1493.0 4.0 1493.0 
56.00015177047226 26831.0 NaN 4994.666666666667 1.322526503194756 1493.0 4.0 1493.0 
58.00015177047226 26841.0 NaN 4993.704742818972 1.3419480138810789 1493.0 4.0 1493.0 
60.00015177047226 26854.0 NaN 4994.685370741483 1.3652598498495396 1493.0 4.0 1493.0 
62.00076397037406 26858.0 NaN 1519.4148296593182 0.9161521059330928 796.0 1.0 363.0 
64.00076397037405 26895.0 NaN 1522.5116900467606 0.8505485430695163 625.0 3.0 362.0 
66.0001983480089 26927.0 NaN 1522.4342017368087 0.8535398371030362 586.0 3.0 362.0 
68.00076397037405 26948.0 NaN 1522.3620574482297 0.8652796410319152 558.0 3.0 362.0 
70.00076397037405 26961.0 NaN 1522.3620574482297 0.8803357168467527 536.0 3.0 362.0 
72.00076397037405 26956.0 NaN 1525.4589178356725 0.8925623842044665 528.0 3.0 363.0 
74.00076397037405 26976.0 NaN 1525.4428857715432 0.9080607370200647 528.0 3.0 363.0 
76.0001983480089 27014.0 NaN 1531.6072144288573 0.8619831151981933 528.0 3.0 365.0 
78.00076397037405 27041.0 NaN 1531.580494321979 0.864080043711098 525.0 3.0 365.0 
80.00076397037405 27041.0 NaN 1531.561790247161 0.8820650794307485 524.0 3.0 365.0 
82.00076397037405 27021.0 NaN 1531.5591182364726 0.8962401939105987 525.0 3.0 365.0 
84.00076397037405 27010.0 NaN 1534.642618570473 0.9030612563981071 524.0 3.0 366.0 
86.0001983480089 27010.0 NaN 1534.642618570473 0.8828819222936461 522.0 3.0 366.0 
88.00076397037405 27023.0 NaN 1534.642618570473 0.8809759998820064 523.0 3.0 366.0 
90.00076397037405 27028.0 NaN 1534.6452905811634 0.9006540669192149 523.0 3.0 366.0 
92.00076397037405 27000.0 NaN 1534.6346025384091 0.9099811303214446 523.0 3.0 366.0 
94.00076397037405 27005.0 NaN 1534.639946559785 0.9296758529646325 523.0 3.0 366.0 
96.0001983480089 27021.0 NaN 1537.7154308617241 0.9268426844761083 523.0 3.0 367.0 
98.00076397037405 27061.0 NaN 1537.6967267869088 0.9352141253121442 524.0 2.0 368.0 
100.00076397037405 27053.0 NaN 1537.6967267869088 0.9328335845530771 524.0 2.0 368.0 
102.00076397037405 27047.0 NaN 1537.694054776218 0.9532735542081603 524.0 2.0 368.0 
104.00076397037405 27053.0 NaN 1537.7047428189724 0.9182602714357485 523.0 2.0 368.0 
106.0001983480089 27055.0 NaN 1537.702070808282 0.9171015988299602 523.0 3.0 367.0 
108.00076397037405 27082.0 NaN 1537.6967267869088 0.934683872853161 522.0 3.0 367.0 
110.00076397037405 27088.0 NaN 1537.6860387441545 0.9114587874735463 522.0 3.0 367.0 
112.00076397037405 27097.0 NaN 1540.7935871743482 0.9172469665567009 522.0 3.0 368.0 
114.00076397037405 27094.0 NaN 1540.7668670674698 0.9345684369479486 522.0 3.0 368.0 
116.0001983480089 27095.0 NaN 1540.7989311957247 0.9243753950902134 523.0 2.0 369.0 
118.00076397037405 27074.0 NaN 1543.8663994655997 0.8962771849196782 526.0 2.0 370.0 
120.00076397037405 27078.0 NaN 1543.8957915831663 0.8926301721788363 527.0 2.0 370.0 
122.00076397037405 27087.0 NaN 1546.9338677354726 0.8863248606038544 527.0 2.0 371.0 
124.00076397037405 27103.0 NaN 1543.8851035404152 0.9042814237412056 527.0 2.0 370.0 
126.0001983480089 27097.0 NaN 1543.8557114228454 0.917521514591488 527.0 2.0 370.0 
128.00076397037404 27083.0 NaN 1543.8770875083483 0.8979889267012598 525.0 2.0 370.0 
130.00076397037407 27104.0 NaN 1543.8530394121574 0.8997848520046384 525.0 2.0 370.0 
132.00076397037407 27128.0 NaN 1540.8229792919183 0.9051451501527552 525.0 2.0 369.0 
134.00076397037407 27123.0 NaN 1537.7100868403456 0.9175808558673946 524.0 2.0 368.0 
136.0001983480089 27114.0 NaN 1531.615230460921 0.9353390385277162 523.0 2.0 366.0 
138.00076397037407 27105.0 NaN 1531.5724782899122 0.9107063152545939 519.0 2.0 366.0 
140.00076397037407 27106.0 NaN 1537.7555110220453 0.9103483034778648 516.0 2.0 368.0 
142.00076397037407 27112.0 NaN 1540.7748830995333 0.9176095717600846 518.0 2.0 369.0 
144.00076397037407 27101.0 NaN 1543.8797595190367 0.8859023803378736 518.0 2.0 370.0 
146.0001983480089 27080.0 NaN 1543.8476953907818 0.8933879889330932 518.0 2.0 370.0 
148.00076397037407 27077.0 NaN 1550.078824315297 0.8673346973015685 518.0 2.0 372.0 
150.00076397037407 27054.0 NaN 1550.0013360053454 0.8605240437040014 519.0 2.0 372.0 
152.00076397037407 27053.0 NaN 1540.8042752171 0.869243344788428 519.0 2.0 369.0 
154.00076397037407 27031.0 NaN 1537.7047428189726 0.8657268463821136 516.0 2.0 368.0 
156.0001983480089 27013.0 NaN 1540.8042752171 0.8644955052460485 515.0 2.0 369.0 
158.00076397037407 26991.0 NaN 1540.780227120909 0.8630741714471254 516.0 2.0 369.0 
160.00076397037407 26957.0 NaN 1540.8096192384758 0.8606169216350709 518.0 2.0 369.0 
162.00076397037407 26947.0 NaN 1540.761523046091 0.8703532624859984 516.0 2.0 369.0 
164.00076397037407 26941.0 NaN 1543.8931195724788 0.8458934794380399 516.0 2.0 370.0 
166.0001983480089 26948.0 NaN 1543.8610554442212 0.8552940033418156 516.0 2.0 370.0 
168.00076397037407 26930.0 NaN 1540.8069472277907 0.8461763754926437 516.0 2.0 369.0 
170.00076397037407 26912.0 NaN 1540.7722110888458 0.8390239735451012 517.0 2.0 369.0 
172.00076397037407 26913.0 NaN 1540.7828991315969 0.8490644344435694 517.0 2.0 369.0 
174.00076397037407 26924.0 NaN 1546.925851703409 0.8689455453270044 518.0 2.0 371.0 
176.0001983480089 26926.0 NaN 1543.8744154976637 0.8838487037287931 519.0 1.0 371.0 
178.00076397037407 26928.0 NaN 1543.8316633266545 0.8997477216870007 519.0 1.0 371.0 
180.00076397037407 26921.0 NaN 1543.8690714762845 0.9077589262486306 519.0 2.0 370.0 
182.00076397037407 26920.0 NaN 1537.6780227120908 0.9232720555962091 519.0 2.0 368.0 
184.00076397037407 26914.0 NaN 1537.69138276553 0.9477753637676215 518.0 2.0 368.0 
186.0001983480089 26916.0 NaN 1537.6379425517703 0.9414927751820433 519.0 2.0 368.0 
188.00076397037407 26908.0 NaN 1540.750835003339 0.9606010876535361 519.0 2.0 369.0 
190.00076397037407 26879.0 NaN 1534.5811623246482 0.9494854700498365 517.0 2.0 367.0 
192.00076397037407 26865.0 NaN 1534.594522378091 0.9431108939963776 517.0 2.0 367.0 
194.00076397037407 26844.0 NaN 1537.63794255177 0.9294853327079273 518.0 2.0 368.0 
196.0001983480089 26839.0 NaN 1540.7989311957247 0.942683230291553 518.0 2.0 369.0 
198.00076397037407 26832.0 NaN 1537.6806947227792 0.9430940539442114 518.0 2.0 368.0 
200.00076397037407 26820.0 NaN 1540.7989311957247 0.9502657352993477 519.0 2.0 369.0 
202.00076397037407 26783.0 NaN 1540.748162992652 0.9546417202807597 520.0 2.0 369.0 
204.00076397037407 26772.0 NaN 1540.7722110888458 0.9841151303377457 521.0 2.0 369.0 
206.0001983480089 26761.0 NaN 1540.7214428857728 1.0099798637331183 521.0 2.0 369.0 
208.00076397037407 26751.0 NaN 1534.6452905811634 1.012745510566382 518.0 2.0 367.0 
210.00076397037407 26732.0 NaN 1531.5404141616548 1.0337289996327574 515.0 2.0 366.0 
212.00076397037407 26712.0 NaN 1531.5644622578484 1.0130530428633742 515.0 2.0 366.0 
214.00076397037407 26707.0 NaN 1531.5484301937208 1.0222183682023838 515.0 2.0 366.0 
216.0001983480089 26690.0 NaN 1534.6479625918516 1.0456472056233388 516.0 2.0 367.0 
218.00076397037407 26677.0 NaN 1528.4462257849025 1.02868387656037 516.0 2.0 365.0 
220.00076397037407 26653.0 NaN 1528.4863059452246 1.0548011560767305 514.0 2.0 365.0 
222.00076397037407 26623.0 NaN 1525.3413493653977 1.082295885243684 514.0 2.0 364.0 
224.00076397037407 26614.0 NaN 1522.3326653306633 1.0939834211108634 514.0 2.0 363.0 
226.0001983480089 26604.0 NaN 1525.3760855043424 1.133839361483834 514.0 2.0 364.0 
228.00076397037407 26572.0 NaN 1528.4542418169665 1.1439759387542812 512.0 2.0 365.0 
230.00076397037407 26552.0 NaN 1528.4435537742156 1.1441707322389674 510.0 3.0 364.0 
232.00076397037407 26544.0 NaN 1531.580494321979 1.134084735173262 510.0 3.0 365.0 
234.00076397037407 26521.0 NaN 1531.4949899799608 1.0508026072257954 510.0 3.0 365.0 
236.0001983480089 26516.0 NaN 1531.5511022044093 1.029770463289734 510.0 3.0 365.0 
238.00076397037407 26497.0 NaN 1534.543754175018 1.0559361816127835 510.0 3.0 366.0 
240.00076397037407 26464.0 NaN 1531.5217100868394 1.0545502770615265 510.0 3.0 365.0 
242.00076397037407 26444.0 NaN 1531.4843019372088 1.0628425410091313 512.0 2.0 366.0 
244.00076397037407 26466.0 NaN 1528.3954575818298 1.0675859870684377 512.0 2.0 365.0 
246.0001983480089 26463.0 NaN 1525.322645290582 1.063438729727034 511.0 3.0 363.0 
248.00076397037407 26459.0 NaN 1525.3440213760846 1.0444284326223547 511.0 3.0 363.0 
250.00076397037407 26439.0 NaN 1525.3119572478276 1.03870107987026 511.0 3.0 363.0 
252.00076397037407 26434.0 NaN 1525.338677354709 1.0575768706328952 511.0 2.0 364.0 
254.00076397037407 26424.0 NaN 1525.274549098197 1.0270082740408062 511.0 2.0 364.0 
256.0001983480089 26428.0 NaN 1525.3119572478276 1.0267310801260232 512.0 2.0 364.0 
258.00076397037407 26406.0 NaN 1525.32531730127 1.0222043847253837 514.0 2.0 364.0 
260.00076397037407 26388.0 NaN 1525.3173012692062 1.0210206351075728 514.0 2.0 364.0 
262.00076397037407 26380.0 NaN 1519.1957247829 1.0422221238468883 513.0 2.0 362.0 
264.00076397037407 26388.0 NaN 1516.109552438209 1.04070301362674 511.0 2.0 361.0 
266.0001983480089 26409.0 NaN 1516.109552438209 1.0467939943226146 510.0 2.0 361.0 
268.00076397037407 26378.0 NaN 1525.3333333333337 1.0375007074078786 512.0 2.0 364.0 
270.00076397037407 26347.0 NaN 1528.3981295925182 0.9900640885871016 511.0 2.0 365.0 
272.00076397037407 26345.0 NaN 1531.4228456913816 0.9702541872410676 511.0 2.0 366.0 
274.00076397037407 26341.0 NaN 1534.4956579826337 0.9456556351723727 513.0 2.0 367.0 
276.0001983480089 26310.0 NaN 1534.5036740146973 0.9566742705123791 514.0 2.0 367.0 
278.00076397037407 26289.0 NaN 1528.336673346693 0.9631547020416817 513.0 2.0 365.0 
280.00076397037407 26251.0 NaN 1534.5330661322637 0.9425647352321512 513.0 2.0 367.0 
282.00076397037407 26242.0 NaN 1531.428189712757 0.9537173955800592 513.0 2.0 366.0 
284.00076397037407 26260.0 NaN 1531.4228456913816 0.9797392039377022 515.0 2.0 366.0 
286.0001983480089 26242.0 NaN 1531.3881095524364 0.9939470162945537 514.0 2.0 366.0 
288.00076397037407 26211.0 NaN 1531.438877755509 0.9809358559908072 513.0 2.0 366.0 
290.00076397037407 26198.0 NaN 1534.4903139612545 0.9802906008307443 512.0 2.0 367.0 
292.00076397037407 26174.0 NaN 1534.549098196391 0.9653742488942219 511.0 2.0 367.0 
294.00076397037407 26163.0 NaN 1534.4689378757523 0.9866746498636794 511.0 2.0 367.0 
296.0001983480089 26087.0 NaN 1537.5978623914475 0.9678640375268237 511.0 2.0 368.0 
298.00076397037407 26083.0 NaN 1537.563126252507 0.9813298018989771 510.0 2.0 368.0 
300.00076397037407 26057.0 NaN 1537.587174348698 0.968765353482692 510.0 2.0 368.0 
302.00076397037407 26045.0 NaN 1540.6706746827 0.9790056555763345 510.0 2.0 369.0 
304.00076397037407 26045.0 NaN 1540.713426853709 1.0101995493030587 510.0 2.0 369.0 
306.0001983480089 26012.0 NaN 1537.6138944555796 0.9849413696472098 509.0 2.0 368.0 
308.00076397037407 26009.0 NaN 1537.6379425517707 0.9895346184367595 507.0 2.0 368.0 
310.00076397037407 25988.0 NaN 1534.4849699398817 0.9960340996099846 508.0 2.0 367.0 
312.00076397037407 25957.0 NaN 1534.495657982634 0.991470262410322 507.0 2.0 367.0 
314.00076397037407 25946.0 NaN 1534.4849699398817 1.0252280394606903 507.0 2.0 367.0 
316.0001983480089 25916.0 NaN 1531.4362057448247 1.0214725771480437 509.0 2.0 366.0 
318.00076397037407 25879.0 NaN 1531.4121576486298 1.041589285118502 510.0 2.0 366.0 
320.00076397037407 25859.0 NaN 1528.3954575818298 1.061164574937643 507.0 2.0 365.0 
322.00076397037407 25837.0 NaN 1528.3794255177002 1.0196603235739394 507.0 2.0 365.0 
324.00076397037407 25825.0 NaN 1531.484301937209 1.0438072896902062 506.0 2.0 366.0 
326.0001983480089 25781.0 NaN 1534.5330661322635 1.062869553624063 507.0 2.0 367.0 
328.00076397037407 25759.0 NaN 1537.6726786907154 1.0570827902702042 507.0 2.0 368.0 
330.00076397037407 25749.0 NaN 1537.573814295257 1.0814797494810031 508.0 2.0 368.0 
332.00076397037407 25750.0 NaN 1537.6219104876427 1.0908974524490276 508.0 2.0 368.0 
334.00076397037407 25766.0 NaN 1531.433533734136 1.1227819862249928 507.0 2.0 366.0 
336.0001983480089 25742.0 NaN 1528.4088176352723 1.0935241092875891 509.0 2.0 365.0 
338.00076397037407 25732.0 NaN 1528.3420173680702 1.1046228889533936 509.0 2.0 365.0 
340.00076397037407 25718.0 NaN 1528.3954575818298 1.0763160196318406 509.0 2.0 365.0 
342.00076397037407 25699.0 NaN 1534.549098196391 0.9935534361389462 508.0 2.0 367.0 
344.00076397037407 25710.0 NaN 1534.5197060788248 0.9904812853621671 510.0 2.0 367.0 
346.0001983480089 25690.0 NaN 1534.492985971945 0.9707994895485313 512.0 2.0 367.0 
348.00076397037407 25680.0 NaN 1531.4816299265185 0.9280658538039022 512.0 2.0 366.0 
350.00076397037407 25653.0 NaN 1528.3794255177004 0.9187585987819349 512.0 2.0 365.0 
352.00076397037407 25648.0 NaN 1528.3714094856368 0.9303533948375309 513.0 2.0 365.0 
354.00076397037407 25652.0 NaN 1525.2424849699394 0.9557672532915428 514.0 2.0 364.0 
356.0001983480089 25627.0 NaN 1525.322645290582 0.9494777943121178 513.0 2.0 364.0 
358.00076397037407 25612.0 NaN 1525.2211088844365 0.9435934409438567 512.0 2.0 364.0 
360.00076397037407 25622.0 NaN 1525.2772211088843 0.9280826520230006 512.0 2.0 364.0 
362.00076397037407 25616.0 NaN 1525.2424849699394 0.9349661652006093 514.0 2.0 364.0 
364.00076397037407 25635.0 NaN 1522.185704742818 0.9512953190898072 516.0 2.0 363.0 
366.0001983480089 25630.0 NaN 1522.180360721443 0.975135232579712 517.0 2.0 363.0 
368.00076397037407 25614.0 NaN 1519.1396125584515 0.9798893495380878 516.0 2.0 362.0 
370.00076397037407 25603.0 NaN 1503.7541750167002 1.0005042263153894 516.0 2.0 357.0 
372.00076397037407 25601.0 NaN 1506.8216432865727 1.0147600665399203 516.0 2.0 358.0 
374.00076397037407 25612.0 NaN 1509.8623914495647 1.0522597553464341 517.0 2.0 359.0 
376.0001983480089 25593.0 NaN 1516.0534402137616 1.0693174976979136 516.0 2.0 361.0 
378.00076397037407 25586.0 NaN 1515.9812959251826 1.0528838552771298 516.0 2.0 361.0 
380.00076397037407 25563.0 NaN 1512.961923847694 1.0572570651679478 516.0 2.0 360.0 
382.00076397037407 25534.0 NaN 1509.8623914495647 1.0249576594106276 518.0 2.0 359.0 
384.00076397037407 25527.0 NaN 1512.9699398797607 0.999633681182465 516.0 2.0 360.0 
386.0001983480089 25526.0 NaN 1516.0133600534393 1.0238610970059767 517.0 2.0 361.0 
388.00076397037407 25533.0 NaN 1512.9832999332002 1.052392351774334 516.0 2.0 360.0 
390.00076397037407 25526.0 NaN 1509.9078156312637 1.0797401820602908 516.0 2.0 359.0 
392.00076397037407 25510.0 NaN 1509.9425517702084 1.0665181436915068 515.0 2.0 359.0 
394.00076397037407 25513.0 NaN 1512.9432197728795 1.0650201326219095 515.0 2.0 360.0 
396.0001983480089 25503.0 NaN 1512.9726118904462 1.0855222288108468 516.0 2.0 360.0 
398.00076397037407 25489.0 NaN 1512.9325317301273 1.0674407373954737 519.0 3.0 359.0 
400.00076397037407 25479.0 NaN 1506.8804275217092 1.079329436758861 520.0 2.0 358.0 
402.00076397037407 25445.0 NaN 1506.8430193720785 1.012217950562093 519.0 2.0 358.0 
404.00076397037407 25444.0 NaN 1509.9291917167661 1.0195226481133997 519.0 2.0 359.0 
406.0001983480089 25459.0 NaN 1513.0020040080176 1.0538556998956186 521.0 2.0 360.0 
408.00076397037407 25430.0 NaN 1519.1823647294575 1.043305126846142 521.0 2.0 362.0 
410.00076397037407 25412.0 NaN 1522.1963927855722 1.0480499155146874 521.0 2.0 363.0 
412.00076397037407 25402.0 NaN 1519.1396125584515 1.0581343069889377 522.0 2.0 362.0 
414.00076397037407 25399.0 NaN 1522.1883767535087 1.0800167488188377 522.0 2.0 363.0 
416.0001983480089 25389.0 NaN 1519.1556446225793 1.0667074720881207 522.0 2.0 362.0 
418.00076397037407 25366.0 NaN 1519.1022044088184 1.0690225800610857 522.0 2.0 362.0 
420.00076397037407 25355.0 NaN 1509.9158316633273 1.0686814869779329 525.0 2.0 359.0 
422.00076397037407 25340.0 NaN 1506.7922511690056 1.0707599149582334 524.0 2.0 358.0 
424.00076397037407 25334.0 NaN 1497.6138944555787 1.0410286889320386 519.0 2.0 355.0 
426.0001983480089 25311.0 NaN 1503.7327989311964 1.0311450464115581 516.0 2.0 357.0 
428.00076397037407 25301.0 NaN 1503.759519038076 1.0076431391518388 517.0 2.0 357.0 
430.00076397037407 25298.0 NaN 1497.5764863059455 1.0227781991282834 517.0 2.0 355.0 
432.00076397037407 25290.0 NaN 1500.6519706078818 1.0310974844241925 517.0 2.0 356.0 
434.00076397037407 25262.0 NaN 1516.0320641282553 1.0116418712432507 518.0 2.0 361.0 
436.0001983480089 25256.0 NaN 1522.2124248497 1.0001736991795196 524.0 2.0 363.0 
438.00076397037407 25248.0 NaN 1522.1509686038735 1.0038532753530234 525.0 2.0 363.0 
440.00076397037407 25231.0 NaN 1522.1723446893795 0.9836725291220136 526.0 2.0 363.0 
442.00076397037407 25230.0 NaN 1528.3527054108213 0.9828513066054898 526.0 2.0 365.0 
444.00076397037407 25206.0 NaN 1528.344689378757 0.97183509017551 527.0 2.0 365.0 
446.0001983480089 25213.0 NaN 1531.409485637943 0.960604257764644 527.0 2.0 366.0 
448.00076397037407 25227.0 NaN 1528.3473613894453 0.9722291283434052 526.0 2.0 365.0 
450.00076397037407 25227.0 NaN 1528.3259853039424 0.9754544286313416 526.0 2.0 365.0 
452.00076397037407 25206.0 NaN 1531.433533734136 0.9813652044766891 525.0 2.0 366.0 
454.00076397037407 25192.0 NaN 1540.598530394121 0.9858659805894463 525.0 2.0 369.0 
456.0001983480089 25212.0 NaN 1543.7060788243157 0.9266217331426069 526.0 2.0 370.0 
458.00076397037407 25212.0 NaN 1537.541750167 0.9296059473179034 523.0 2.0 368.0 
460.00076397037407 25212.0 NaN 1540.627922511691 0.9425451599775205 523.0 2.0 369.0 
462.00076397037407 25221.0 NaN 1540.630594522379 0.9657470837772827 525.0 2.0 369.0 
464.00076397037407 25220.0 NaN 1537.5818303273209 0.9818963562240729 525.0 2.0 368.0 
466.0001983480089 25206.0 NaN 1534.4849699398812 0.954045042008871 523.0 2.0 367.0 
468.00076397037407 25195.0 NaN 1534.4956579826335 0.9656970424471935 523.0 2.0 367.0 
470.00076397037407 25191.0 NaN 1531.41215764863 0.9668632719678584 522.0 2.0 366.0 
472.00076397037407 25208.0 NaN 1525.293253173012 0.9909385079631617 520.0 2.0 364.0 
474.00076397037407 25208.0 NaN 1525.2505010020031 1.0013003174995327 518.0 2.0 364.0 
476.0001983480089 25225.0 NaN 1525.2905811623248 1.011470600790251 518.0 2.0 364.0 
478.00076397037407 25208.0 NaN 1525.2344689378751 1.027662397088673 518.0 2.0 364.0 
480.00076397037407 25219.0 NaN 1525.2291249165 1.0551857170949068 518.0 2.0 364.0 
482.00076397037407 25242.0 NaN 1525.2585170340699 1.0744582359990051 516.0 2.0 364.0 
484.00076397037407 25250.0 NaN 1519.169004676018 1.025732703119273 515.0 2.0 362.0 
486.0001983480089 25268.0 NaN 1512.9859719438887 1.0390419133935105 511.0 2.0 360.0 
488.00076397037407 25263.0 NaN 1506.861723446893 1.0553198936698565 510.0 2.0 358.0 
490.00076397037407 25257.0 NaN 1506.8483633934545 1.0239364658929326 510.0 2.0 358.0 
492.00076397037407 25252.0 NaN 1500.7000668002663 1.025928957101923 510.0 2.0 356.0 
494.00076397037407 25270.0 NaN 1494.533066132264 1.0348483000943731 510.0 2.0 354.0 
496.0001983480089 25254.0 NaN 1491.5003340013363 1.001449180493623 506.0 2.0 353.0 
498.00076397037407 25238.0 NaN 1494.546426185706 0.9818451192817057 506.0 2.0 354.0 
500.00076397037407 25230.0 NaN 1494.5544422177697 0.9678237267266122 506.0 2.0 354.0 
502.00076397037407 25227.0 NaN 1497.5951903807625 0.9516638402065283 510.0 3.0 354.0 
504.00076397037407 25252.0 NaN 1494.55444221777 0.9636452887851994 512.0 2.0 354.0 
506.0001983480089 25250.0 NaN 1494.5945223780902 0.9816410851368328 512.0 2.0 354.0 
508.00076397037407 25280.0 NaN 1491.5003340013366 0.9716669304971475 516.0 2.0 353.0 
510.00076397037407 25319.0 NaN 1494.5116900467608 0.9892191280439668 514.0 2.0 354.0 
512.0007639703741 25314.0 NaN 1488.4301937207738 0.9966440886594585 515.0 2.0 352.0 
514.0007639703741 25317.0 NaN 1491.4843019372083 0.99334814553463 513.0 3.0 352.0 
516.0001983480089 25312.0 NaN 1488.427521710088 1.0153272152558175 511.0 3.0 351.0 
518.0007639703741 25327.0 NaN 1482.2605210420836 1.0118464166374843 510.0 2.0 350.0 
520.0007639703741 25369.0 NaN 1482.2712090848363 1.0243718056511824 505.0 3.0 349.0 
522.0007639703741 25358.0 NaN 1479.1556446225795 1.0323475159927895 508.0 2.0 349.0 
524.0007639703741 25367.0 NaN 1470.0146960587836 1.0293148944653292 506.0 2.0 346.0 
526.0001983480089 25354.0 NaN 1463.8370073480285 0.9789440930027166 502.0 3.0 343.0 
528.0007639703741 25341.0 NaN 1463.8557114228454 0.9793219004829995 501.0 2.0 344.0 
530.0007639703741 25335.0 NaN 1469.9959919839669 0.9938243064061325 498.0 2.0 346.0 
532.0007639703741 25329.0 NaN 1463.8637274549094 1.0034850736134668 502.0 2.0 344.0 
534.0007639703741 25320.0 NaN 1466.8643954575818 1.0043022575097567 504.0 2.0 345.0 
536.0001983480089 25316.0 NaN 1466.912491649966 1.026281802895938 505.0 2.0 345.0 
538.0007639703741 25319.0 NaN 1466.8884435537736 1.0230103402623711 506.0 2.0 345.0 
540.0007639703741 25325.0 NaN 1466.8750835003345 1.0387741972709783 508.0 2.0 345.0 
542.0007639703741 25323.0 NaN 1466.845691382765 1.0263994375903382 511.0 2.0 345.0 
544.0007639703741 25312.0 NaN 1463.8289913159647 1.0406126707499535 512.0 2.0 344.0 
546.0001983480089 25308.0 NaN 1463.8610554442212 1.0564176359214865 512.0 2.0 344.0 
548.0007639703741 25308.0 NaN 1466.912491649966 1.0672922220387413 511.0 2.0 345.0 
550.0007639703741 25329.0 NaN 1463.7915831663336 1.0895021862835375 510.0 2.0 344.0 
552.0007639703741 25339.0 NaN 1473.055444221776 1.080239144012685 510.0 2.0 347.0 
554.0007639703741 25350.0 NaN 1469.8784235136936 1.0383964910626127 511.0 2.0 346.0 
556.0001983480089 25361.0 NaN 1469.9478957915826 1.0097787945285488 511.0 2.0 346.0 
558.0007639703741 25358.0 NaN 1469.8891115564459 0.9966809704473423 512.0 2.0 346.0 
560.0007639703741 25371.0 NaN 1463.775551102204 1.005474724217899 509.0 2.0 344.0 
562.0007639703741 25390.0 NaN 1463.772879091517 1.0042603106558496 508.0 2.0 344.0 
564.0007639703741 25428.0 NaN 1463.788911155645 0.9864605537335931 509.0 2.0 344.0 
566.0001983480089 25465.0 NaN 1466.8243152972614 0.9998228480892597 506.0 2.0 345.0 
568.0007639703741 25409.0 NaN 1469.918503674015 0.9665073028036557 510.0 2.0 346.0 
570.0007639703741 25424.0 NaN 1466.8136272545091 0.932711585061892 513.0 2.0 345.0 
572.0007639703741 25424.0 NaN 1469.9612558450237 0.946339774297698 512.0 2.0 346.0 
574.0007639703741 25473.0 NaN 1472.9352037408153 0.9766702392313159 510.0 2.0 347.0 
576.0001983480089 25498.0 NaN 1472.9993319973275 0.9911396532810444 512.0 2.0 347.0 
578.0007639703741 25473.0 NaN 1472.9565798263186 0.9864736636343118 512.0 2.0 347.0 
580.0007639703741 25496.0 NaN 1476.0774883099537 1.0050498015229565 512.0 2.0 348.0 
582.0007639703741 25495.0 NaN 1472.9913159652635 1.0132885654939052 510.0 2.0 347.0 
584.0007639703741 25568.0 NaN 1485.3226452905817 1.0384022952941403 511.0 2.0 351.0 
586.0001983480089 25617.0 NaN 1482.2204408817638 1.0593113332723905 518.0 2.0 350.0 
588.0007639703741 25614.0 NaN 1482.2150968603878 1.0759901330395722 518.0 2.0 350.0 
590.0007639703741 25603.0 NaN 1482.241816967267 1.0488487710696242 520.0 2.0 350.0 
592.0007639703741 25574.0 NaN 1482.2284569138274 1.0255268712925247 520.0 2.0 350.0 
594.0007639703741 25568.0 NaN 1482.1589846359377 1.0258613962030128 521.0 2.0 350.0 
596.0001983480089 25611.0 NaN 1482.2097528390104 1.0547315611066335 519.0 2.0 350.0 
598.0007639703741 25579.0 NaN 1482.1536406145633 1.0225997880299258 519.0 2.0 350.0 
600.0007639703741 25585.0 NaN 1491.4068136272545 1.0077447756618445 525.0 2.0 353.0 
602.0007639703741 25606.0 NaN 1494.4529058116239 0.9944620285806136 527.0 2.0 354.0 
604.0007639703741 25605.0 NaN 1491.3800935203735 0.9777327468427934 525.0 2.0 353.0 
606.0001983480089 25668.0 NaN 1488.2431529726111 1.0014345729896839 528.0 2.0 352.0 
608.0007639703741 25655.0 NaN 1485.221108884436 1.0217044156400807 528.0 2.0 351.0 
610.0007639703741 25661.0 NaN 1497.5444221776897 1.0420408733943878 526.0 2.0 355.0 
612.0007639703741 25646.0 NaN 1500.6225784903152 1.0327004603319108 523.0 2.0 356.0 
614.0007639703741 25623.0 NaN 1509.8169672678698 1.0098895766287843 523.0 2.0 359.0 
616.0001983480089 25687.0 NaN 1515.973279893119 1.0498552810943667 528.0 2.0 361.0 
618.0007639703741 25704.0 NaN 1515.9278557114237 1.0979137494485895 525.0 2.0 361.0 
620.0007639703741 25703.0 NaN 1512.8897795591183 1.1298928019572179 525.0 2.0 360.0 
622.0007639703741 25664.0 NaN 1515.9305277221101 1.1039384620815695 526.0 2.0 361.0 
624.0007639703741 25660.0 NaN 1519.0300601202393 1.1122237768461791 525.0 2.0 362.0 
626.0001983480089 25703.0 NaN 1522.076152304609 1.156024121834184 525.0 2.0 363.0 
628.0007639703741 25724.0 NaN 1522.1055444221788 1.1730329874371912 527.0 3.0 362.0 
630.0007639703741 25740.0 NaN 1522.0868403473626 1.1784720572494416 529.0 3.0 362.0 
632.0007639703741 25717.0 NaN 1522.1616566466273 1.1243816231297625 529.0 3.0 362.0 
634.0007639703741 25713.0 NaN 1525.183700734802 1.0799746807855717 529.0 3.0 363.0 
636.0001983480089 25718.0 NaN 1528.304609218436 1.0978093072244457 535.0 3.0 364.0 
638.0007639703741 25738.0 NaN 1528.2859051436199 1.1152722721826167 532.0 3.0 364.0 
640.0007639703741 25747.0 NaN 1525.1970607882442 1.143050055749533 531.0 3.0 363.0 
642.0007639703741 25692.0 NaN 1525.205076820308 1.0680159922841623 528.0 3.0 363.0 
644.0007639703741 25677.0 NaN 1522.1670006680017 1.0721293315625195 526.0 3.0 362.0 
646.0001983480089 25659.0 NaN 1525.164996659988 1.0671381328010245 525.0 3.0 363.0 
648.0007639703741 25643.0 NaN 1522.1963927855718 1.0921142931509333 525.0 3.0 362.0 
650.0007639703741 25659.0 NaN 1522.1696726786909 1.1211360593943949 525.0 2.0 363.0 
652.0007639703741 25631.0 NaN 1525.3333333333344 1.0783131200196183 523.0 2.0 364.0 
654.0007639703741 25607.0 NaN 1528.3179692718759 1.0880548710637858 521.0 2.0 365.0 
656.0001983480089 25591.0 NaN 1531.3774215096848 1.073898871347419 521.0 2.0 366.0 
658.0007639703741 25586.0 NaN 1531.3800935203735 1.0955421215677228 519.0 2.0 366.0 
660.0007639703741 25616.0 NaN 1534.4849699398806 1.1253968743644913 519.0 2.0 367.0 
662.0007639703741 25580.0 NaN 1537.5337341349364 1.0844731560117433 520.0 2.0 368.0 
664.0007639703741 25545.0 NaN 1540.6599866399454 1.0711089521787405 518.0 2.0 369.0 
#####################################################################
# End of data export. Simulation finished at: 2019-03-14T23:44+0000 #
#####################################################################
