#####################################################################
# Alchemist log file - simulation started at: 2019-03-05T11:10+0000 #
#####################################################################
# seed = 3.0, bandwidth = 1000.0, propagationDelay = 10.0, baserange = 316.2277660168379
#
# The columns have the following meaning: 
# time neighbor_count[Sum] <value>@neighbor_count[Sum] packet_size[Mean] mean_delay[Mean] crowd[Sum] overcrowded[Sum] risk[Sum] 
0.0 NaN NaN NaN NaN NaN NaN NaN 
2.0005923698108097 NaN NaN 4988.0 NaN 1497.0 0.0 1497.0 
4.00059236981081 NaN NaN 4988.0 NaN 1497.0 0.0 1497.0 
6.000084666035003 NaN NaN 4988.0 NaN 1497.0 0.0 1497.0 
8.00059236981081 NaN NaN 4988.0 NaN 1497.0 0.0 1497.0 
10.00033353340315 NaN NaN 4988.0 NaN 1497.0 0.0 1497.0 
12.00059236981081 NaN NaN 4988.0 NaN 1497.0 0.0 1497.0 
14.00059236981081 NaN NaN 4988.0 NaN 1497.0 0.0 1497.0 
16.000084666035004 25861.0 NaN 4989.213092852371 0.26704217110351325 1497.0 0.0 1497.0 
18.00059236981081 51320.0 NaN 4994.704074816299 2.0034495977188924 1497.0 0.0 1497.0 
20.00033353340315 51320.0 NaN 4994.690714762859 4.002756597025892 1497.0 0.0 1497.0 
22.00059236981081 51320.0 NaN 4994.693386773547 6.003449597718893 1497.0 0.0 1497.0 
24.00059236981081 51320.0 NaN 4994.693386773547 8.003449597718893 1497.0 0.0 1497.0 
26.000084666035004 51320.0 NaN 4994.733466933868 10.002756597025892 1497.0 0.0 1497.0 
28.00059236981081 51320.0 NaN 4994.725450901804 12.003449597718893 1497.0 0.0 1497.0 
30.00018084892078 51320.0 NaN 4994.736138944556 14.00052813177134 1497.0 0.0 1497.0 
32.00059236981081 51414.0 NaN 4994.541082164329 1.0459380667714537 1497.0 0.0 1497.0 
34.00059236981081 51414.0 NaN 4994.0280561122245 3.0459380667714537 1497.0 0.0 1497.0 
36.00008466603501 51414.0 NaN 4994.0360721442885 5.045246503839227 1497.0 0.0 1497.0 
38.00059236981081 51414.0 NaN 4994.0280561122245 7.045938066771454 1497.0 0.0 1497.0 
40.00033353340315 51414.0 NaN 4994.0387441549765 9.045246503839227 1497.0 0.0 1497.0 
42.00059236981081 51414.0 NaN 4994.0307281229125 11.045938066771454 1497.0 0.0 1497.0 
44.00059236981081 51414.0 NaN 4994.0307281229125 13.045938066771454 1497.0 0.0 1497.0 
46.00008466603501 51443.0 NaN 4994.137608550434 7.537359816451033 1495.0 2.0 1495.0 
48.00059236981081 51472.0 NaN 4994.313961255845 2.0780918881844834 1494.0 3.0 1494.0 
50.00033353340315 51472.0 NaN 4994.311289245157 4.077400803181028 1494.0 3.0 1494.0 
52.00059236981081 51472.0 NaN 4994.303273213093 6.078091888184483 1494.0 3.0 1494.0 
54.00059236981081 51472.0 NaN 4994.303273213093 8.078091888184483 1494.0 3.0 1494.0 
56.00008466603501 51472.0 NaN 4994.311289245157 10.077400803181028 1494.0 3.0 1494.0 
58.00059236981081 51472.0 NaN 4994.303273213093 12.078091888184483 1494.0 3.0 1494.0 
60.00018084892078 51472.0 NaN 4994.311289245157 14.075327548170662 1494.0 3.0 1494.0 
62.00059236981081 51463.0 NaN 1518.8911155644635 4.073430448394907 831.0 0.0 364.0 
64.00059236981082 51493.0 NaN 1521.8944555778212 2.670164246810312 820.0 1.0 364.0 
66.00008466603501 51493.0 NaN 1521.8757515030065 4.669472683878085 821.0 1.0 364.0 
68.00059236981082 51493.0 NaN 1521.8677354709425 6.670164246810312 822.0 1.0 364.0 
70.00033353340315 51493.0 NaN 1521.8757515030065 8.669472683878086 824.0 1.0 364.0 
72.00059236981082 51549.0 NaN 1521.8704074816299 6.243534138789079 747.0 1.0 364.0 
74.00059236981082 51578.0 NaN 1521.945223780894 5.954110045091762 671.0 1.0 364.0 
76.00008466603501 51537.0 NaN 1521.9291917167661 7.094356515640663 661.0 1.0 364.0 
78.00059236981082 51549.0 NaN 1531.2117568470271 6.073706638089647 646.0 3.0 365.0 
80.00033353340315 51569.0 NaN 1531.126252505009 6.213926302876279 643.0 6.0 362.0 
82.00051373500273 51573.0 NaN 1531.1155644622572 7.288582470360302 643.0 6.0 362.0 
84.00059236981082 51610.0 NaN 1531.1075484301934 4.252135304311584 615.0 6.0 362.0 
86.00008466603501 51628.0 NaN 1531.126252505009 5.062115059140523 588.0 6.0 362.0 
88.00059236981082 51653.0 NaN 1534.2017368069457 6.276714438886569 588.0 6.0 363.0 
90.00033353340315 51653.0 NaN 1534.1990647962602 8.266794780926398 588.0 6.0 363.0 
92.00059236981082 51572.0 NaN 1534.1750167000664 9.92924914947228 588.0 6.0 363.0 
94.00059236981082 51589.0 NaN 1534.191048764194 5.150078886236522 582.0 6.0 363.0 
96.00008466603501 51640.0 NaN 1540.3500334001337 3.054469625075897 565.0 6.0 365.0 
98.00059236981082 51667.0 NaN 1540.3366733466933 4.05423651080718 564.0 6.0 365.0 
100.00033353340315 51667.0 NaN 1540.3500334001337 5.967067688216514 564.0 6.0 365.0 
102.00059236981082 51635.0 NaN 1540.3527054108213 7.905491809733604 564.0 6.0 365.0 
104.00051373500273 51623.0 NaN 1540.3660654642633 8.969738813171013 564.0 6.0 365.0 
106.00008466603501 51645.0 NaN 1540.3607214428848 5.803430083968196 558.0 6.0 365.0 
108.00059236981082 51647.0 NaN 1540.3420173680702 6.417947501459379 545.0 6.0 365.0 
110.00033353340315 51663.0 NaN 1540.376753507015 5.406619168167425 547.0 4.0 367.0 
112.00059236981082 51680.0 NaN 1540.3473613894453 5.638081588514422 549.0 2.0 369.0 
114.00059236981082 51660.0 NaN 1540.3500334001337 7.607537596247763 549.0 2.0 369.0 
116.00008466603501 51696.0 NaN 1543.4362057448243 4.96330982976982 549.0 2.0 370.0 
118.00059236981082 51719.0 NaN 1543.4068136272545 4.6987880614238735 536.0 2.0 370.0 
120.00033353340315 51732.0 NaN 1549.5845023380089 5.6972182471235335 536.0 2.0 372.0 
122.00059236981082 51724.0 NaN 1549.5577822311275 7.3306700944588 537.0 2.0 372.0 
124.00059236981082 51654.0 NaN 1546.4742818971272 9.164954835476252 537.0 2.0 371.0 
126.00008466603501 51635.0 NaN 1552.6573146292576 8.116668541416754 537.0 3.0 372.0 
128.00059236981082 51696.0 NaN 1552.662658650636 3.3624039987084138 533.0 3.0 372.0 
130.00033353340314 51718.0 NaN 1552.6653306613216 4.180045155695293 531.0 3.0 372.0 
132.00059236981082 51726.0 NaN 1552.6519706078818 5.329434293552844 531.0 3.0 372.0 
134.00059236981082 51718.0 NaN 1552.649298597194 7.307451775837553 531.0 3.0 372.0 
136.000084666035 51673.0 NaN 1546.5090180360728 9.115692354228727 531.0 3.0 370.0 
138.00059236981082 51691.0 NaN 1543.41215764863 6.291348039359138 531.0 3.0 369.0 
140.00033353340314 51654.0 NaN 1543.4388777555089 5.903691086428763 529.0 3.0 369.0 
142.00059236981082 51653.0 NaN 1543.5083500334 4.827750703981147 527.0 4.0 368.0 
144.00059236981082 51668.0 NaN 1543.4228456913816 5.018947648100334 529.0 4.0 368.0 
146.000084666035 51626.0 NaN 1540.3714094856366 6.953333299765594 529.0 4.0 367.0 
148.00051373500273 51620.0 NaN 1540.3714094856366 7.987499679575188 530.0 3.0 368.0 
150.00033353340314 51654.0 NaN 1540.3714094856366 4.942085908574019 530.0 3.0 368.0 
152.00059236981082 51644.0 NaN 1540.3633934535724 5.5083178887589 529.0 3.0 368.0 
154.00059236981082 51649.0 NaN 1531.147628590515 6.5729378986595774 529.0 3.0 365.0 
156.000084666035 51583.0 NaN 1534.263193052773 8.430327867101457 528.0 3.0 366.0 
158.00059236981082 51513.0 NaN 1537.3493653974633 8.342785902122214 531.0 2.0 368.0 
160.00033353340314 51556.0 NaN 1537.357381429527 3.982393344435593 531.0 2.0 368.0 
162.00059236981082 51576.0 NaN 1537.338677354709 3.733193360470033 529.0 2.0 368.0 
164.00059236981082 51581.0 NaN 1540.4275217100878 4.719815452063699 529.0 2.0 369.0 
166.000084666035 51571.0 NaN 1540.4248496994003 6.479869659809507 529.0 2.0 369.0 
168.00059236981082 51531.0 NaN 1537.3440213760848 8.268799533284227 529.0 2.0 368.0 
170.00033353340314 51534.0 NaN 1537.3440213760848 9.256175145273836 527.0 2.0 368.0 
172.00059236981082 51492.0 NaN 1537.3520374081484 6.124611727420583 527.0 2.0 368.0 
174.00059236981082 51450.0 NaN 1543.5404141616546 4.947316745400722 529.0 2.0 370.0 
176.000084666035 51468.0 NaN 1540.4034736138938 4.377323667516704 530.0 2.0 369.0 
178.00059236981082 51453.0 NaN 1540.3794255177 6.312658958769999 529.0 2.0 369.0 
180.00033353340314 51405.0 NaN 1540.374081496327 8.251141566874013 530.0 2.0 369.0 
182.00059236981082 51404.0 NaN 1540.3607214428846 5.350901786757688 530.0 2.0 369.0 
184.00059236981082 51418.0 NaN 1543.4495657982638 5.059052068322875 530.0 2.0 370.0 
186.000084666035 51418.0 NaN 1534.265865063461 6.039827289762243 529.0 2.0 367.0 
188.00059236981082 51289.0 NaN 1528.14963259853 7.779251887360223 528.0 2.0 365.0 
190.00033353340314 51201.0 NaN 1528.152304609218 7.691809981621356 529.0 2.0 365.0 
192.00051373500273 51162.0 NaN 1528.1629926519727 7.017475830115705 529.0 3.0 364.0 
194.00059236981082 51181.0 NaN 1531.2438209752818 4.001452858888264 527.0 3.0 365.0 
196.000084666035 51179.0 NaN 1531.2411489645972 4.734646627849285 526.0 3.0 365.0 
198.00059236981082 51177.0 NaN 1531.2171008684031 5.696220470612489 526.0 3.0 365.0 
200.00033353340314 51176.0 NaN 1531.2171008684031 7.549816086201046 525.0 3.0 365.0 
202.00059236981082 51145.0 NaN 1534.2658650634608 9.497372892383787 526.0 3.0 366.0 
204.00059236981082 51051.0 NaN 1537.3707414829637 6.6768315502639695 525.0 3.0 367.0 
206.000084666035 50989.0 NaN 1537.3600534402153 4.488808410734585 523.0 3.0 367.0 
208.00059236981082 51023.0 NaN 1540.4088176352725 3.805980649079719 524.0 2.0 369.0 
210.00033353340314 51018.0 NaN 1537.32531730127 5.634880439819991 524.0 2.0 368.0 
212.00059236981082 50989.0 NaN 1537.3039412157636 7.324593188193254 524.0 2.0 368.0 
214.00051373500273 50996.0 NaN 1534.2418169672665 8.270327603469092 525.0 2.0 367.0 
216.000084666035 51027.0 NaN 1531.1716766867069 5.2252420332988425 522.0 2.0 366.0 
218.00059236981082 51021.0 NaN 1528.093520374082 6.091497190111268 521.0 2.0 365.0 
220.00033353340314 50945.0 NaN 1531.2171008684031 7.037016681102655 520.0 2.0 366.0 
222.00059236981082 50898.0 NaN 1537.3734134936547 6.997036379162657 521.0 2.0 368.0 
224.00059236981082 50896.0 NaN 1537.3466933867726 7.289553388882411 521.0 2.0 368.0 
226.000084666035 50920.0 NaN 1537.3600534402153 4.545039402775356 520.0 2.0 368.0 
228.00059236981082 50917.0 NaN 1540.4275217100883 4.1913182932512525 516.0 2.0 369.0 
230.00033353340314 50915.0 NaN 1540.422177688709 5.112480033985131 516.0 2.0 369.0 
232.00059236981082 50939.0 NaN 1540.4141616566453 6.9385087272004515 516.0 2.0 369.0 
234.00059236981082 50898.0 NaN 1540.4034736138938 8.859486010687046 516.0 2.0 369.0 
236.000084666035 50826.0 NaN 1540.438209752839 9.72609626067084 516.0 2.0 369.0 
238.00059236981082 50847.0 NaN 1537.32531730127 4.819586656676668 516.0 2.0 368.0 
240.00033353340314 50893.0 NaN 1537.3146292585184 4.060557772392333 514.0 2.0 368.0 
242.00059236981082 50905.0 NaN 1540.3901135604547 4.881085849174177 514.0 2.0 369.0 
244.00059236981082 50904.0 NaN 1540.3687374749484 6.726692571426118 513.0 2.0 369.0 
246.000084666035 50857.0 NaN 1540.3927855711427 8.527634980193184 513.0 2.0 369.0 
248.00059236981082 50897.0 NaN 1537.3146292585184 5.898959656339102 512.0 2.0 368.0 
250.00033353340314 50873.0 NaN 1534.2551770207092 5.654043000154506 512.0 2.0 367.0 
252.00059236981082 50790.0 NaN 1534.249832999333 6.459093892021409 512.0 2.0 367.0 
254.00059236981082 50740.0 NaN 1531.209084836339 6.345147567380054 515.0 2.0 366.0 
256.00008466603504 50733.0 NaN 1531.2224448897816 6.501255898537043 517.0 2.0 366.0 
258.0005137350027 50720.0 NaN 1531.217100868403 7.340412680597149 516.0 2.0 366.0 
260.00033353340314 50754.0 NaN 1531.2010688042753 4.3183475068880295 515.0 2.0 366.0 
262.0005923698108 50760.0 NaN 1534.2925851703392 5.165222044982376 515.0 2.0 367.0 
264.0005923698108 50778.0 NaN 1531.201068804275 6.230990084222959 516.0 2.0 366.0 
266.00008466603504 50771.0 NaN 1528.1282565130273 8.092409443264382 515.0 2.0 365.0 
268.0005923698108 50667.0 NaN 1528.1122244489 9.85008148950103 515.0 2.0 365.0 
270.00033353340314 50659.0 NaN 1528.152304609218 5.349862530276554 513.0 2.0 365.0 
272.0005923698108 50683.0 NaN 1531.1877087508362 3.3231547163234207 512.0 2.0 366.0 
274.0005923698108 50689.0 NaN 1534.2712090848363 4.19682497638163 511.0 2.0 367.0 
276.00008466603504 50699.0 NaN 1534.2872411489636 6.000671268732289 513.0 2.0 367.0 
278.0005923698108 50666.0 NaN 1540.3954575818293 7.891563336631729 514.0 2.0 369.0 
280.00033353340314 50663.0 NaN 1537.3306613226455 8.87456109649387 514.0 2.0 368.0 
282.0005923698108 50665.0 NaN 1534.2605210420836 5.898115008156996 513.0 2.0 367.0 
284.0005923698108 50583.0 NaN 1537.3680694722796 6.571957467840087 512.0 2.0 368.0 
286.00008466603504 50509.0 NaN 1534.292585170339 5.605687540512699 514.0 2.0 367.0 
288.0005923698108 50503.0 NaN 1534.2338009352025 5.808676343236183 514.0 2.0 367.0 
290.00033353340314 50413.0 NaN 1534.2338009352025 7.570743853170675 514.0 2.0 367.0 
292.0005923698108 50419.0 NaN 1534.241816967266 4.979300305751872 514.0 2.0 367.0 
294.0005923698108 50388.0 NaN 1534.2391449565816 4.734270712900109 513.0 2.0 367.0 
296.00008466603504 50380.0 NaN 1525.0313961255843 5.658668170247025 510.0 2.0 364.0 
298.0005923698108 50365.0 NaN 1525.0126920507662 7.471998000711224 508.0 2.0 364.0 
300.00033353340314 50210.0 NaN 1518.8724114896452 9.196915286989933 507.0 2.0 362.0 
302.0005137350027 50144.0 NaN 1525.0367401469612 8.062471792460133 509.0 2.0 364.0 
304.0005923698108 50172.0 NaN 1531.1850367401455 3.491428291587491 508.0 2.0 366.0 
306.00008466603504 50151.0 NaN 1531.2037408149638 4.271766692282417 508.0 2.0 366.0 
308.0005923698108 50146.0 NaN 1531.201068804275 5.360703753688621 506.0 2.0 366.0 
310.00033353340314 50131.0 NaN 1534.297929191718 7.218343587776822 507.0 2.0 367.0 
312.0005923698108 50081.0 NaN 1534.2899131596544 9.103809440094514 507.0 2.0 367.0 
314.0005923698108 50077.0 NaN 1525.0447561790247 6.482268272361605 507.0 2.0 364.0 
316.00008466603504 49939.0 NaN 1528.1042084168337 5.9557591087289845 506.0 2.0 365.0 
318.0005923698108 49860.0 NaN 1534.268537074148 4.873658271951023 508.0 2.0 367.0 
320.00033353340314 49874.0 NaN 1531.2277889111542 5.105929126882151 508.0 2.0 366.0 
322.0005923698108 49822.0 NaN 1531.219772879091 6.9570078005980776 506.0 2.0 366.0 
324.0005137350027 49785.0 NaN 1531.2411489645972 7.922903129204371 504.0 2.0 366.0 
326.00008466603504 49803.0 NaN 1531.238476953909 4.96243948888386 505.0 2.0 366.0 
328.0005923698108 49794.0 NaN 1528.1683366733455 5.7988272515678165 504.0 2.0 365.0 
330.00033353340314 49756.0 NaN 1528.1683366733455 6.822517202578003 503.0 2.0 365.0 
332.0005923698108 49663.0 NaN 1528.171008684036 8.321767045763783 501.0 2.0 365.0 
334.0005923698108 49561.0 NaN 1528.1683366733455 8.194902036340627 504.0 2.0 365.0 
336.00008466603504 49614.0 NaN 1525.092852371409 4.074015942001732 503.0 2.0 364.0 
338.0005923698108 49607.0 NaN 1525.0688042752183 3.839558797670443 504.0 2.0 364.0 
340.00033353340314 49600.0 NaN 1518.9044756179023 4.775705252933569 503.0 2.0 362.0 
342.0005923698108 49588.0 NaN 1518.9151636606543 6.5737186042495726 503.0 2.0 362.0 
344.0005923698108 49555.0 NaN 1515.8316633266543 8.43218098760464 503.0 2.0 361.0 
346.00008466603504 49518.0 NaN 1515.85036740147 9.269768022267156 503.0 2.0 361.0 
348.0005923698108 49450.0 NaN 1515.8343353373425 5.970347295863726 504.0 2.0 361.0 
350.00033353340314 49420.0 NaN 1525.0794923179697 4.908093803368699 504.0 2.0 364.0 
352.0005923698108 49443.0 NaN 1522.0066800267184 4.468976109519855 504.0 2.0 363.0 
354.0005923698108 49439.0 NaN 1522.0013360053451 6.326966826599453 504.0 2.0 363.0 
356.00008466603504 49390.0 NaN 1525.0875083500337 8.174290411220714 506.0 2.0 364.0 
358.0005923698108 49399.0 NaN 1521.979959919839 5.569255184408401 507.0 2.0 363.0 
360.00033353340314 49408.0 NaN 1521.955911823646 5.304253862522552 506.0 2.0 363.0 
362.0005923698108 49392.0 NaN 1515.8129592518362 6.0043150238617695 508.0 2.0 361.0 
364.0005923698108 49326.0 NaN 1512.7722110888456 7.547193340582767 507.0 2.0 360.0 
366.00008466603504 49264.0 NaN 1515.8263193052758 7.549077992708821 509.0 2.0 361.0 
368.0005137350027 49283.0 NaN 1512.710754843018 7.07142827881683 509.0 2.0 360.0 
370.00033353340314 49328.0 NaN 1515.7862391449553 4.0294504439991385 508.0 2.0 361.0 
372.0005923698108 49335.0 NaN 1515.7728790915176 4.883434180318787 509.0 2.0 361.0 
374.0005923698108 49346.0 NaN 1521.9372077488301 5.919241450651713 509.0 2.0 363.0 
376.00008466603504 49330.0 NaN 1512.7027388109545 7.668477087142861 509.0 2.0 360.0 
378.0005923698108 49256.0 NaN 1506.5651302605204 9.335054680852716 508.0 2.0 358.0 
380.00033353340314 49245.0 NaN 1506.5945223780902 6.48418088793701 510.0 2.0 358.0 
382.0005923698108 49217.0 NaN 1506.5624582498335 4.414677836907769 510.0 2.0 358.0 
384.0005923698108 49235.0 NaN 1509.6486305945211 3.903213931740943 510.0 2.0 359.0 
386.00008466603504 49241.0 NaN 1512.7668670674695 5.657493548271717 510.0 2.0 360.0 
388.0005923698108 49203.0 NaN 1506.6185704742816 7.5225543829021335 510.0 2.0 358.0 
390.00033353340314 49173.0 NaN 1506.6052104208425 8.478334289002223 511.0 2.0 358.0 
392.0005923698108 49188.0 NaN 1512.777555110219 5.239389604740389 513.0 2.0 360.0 
394.0005923698108 49150.0 NaN 1506.6105544422182 5.9670374083001265 514.0 2.0 358.0 
396.00008466603504 49101.0 NaN 1509.6860387441545 6.864421624212865 513.0 2.0 359.0 
398.0005923698108 49076.0 NaN 1512.7294589178364 6.91540485442388 514.0 2.0 360.0 
400.00033353340314 49036.0 NaN 1512.7000668002665 7.30460323089767 513.0 2.0 360.0 
402.0005923698108 49048.0 NaN 1512.7187708750826 4.669679450025286 514.0 2.0 360.0 
404.0005923698108 49037.0 NaN 1515.7702070808273 4.422434511508131 515.0 2.0 361.0 
406.00008466603504 49025.0 NaN 1518.8456913827642 5.22363361308937 517.0 2.0 362.0 
408.0005923698108 49019.0 NaN 1515.7702070808273 6.844617263442881 517.0 2.0 361.0 
410.00033353340314 48985.0 NaN 1512.7374749499 8.607629222333426 517.0 2.0 360.0 
412.0005137350027 48936.0 NaN 1512.7561790247175 9.470366597422057 517.0 2.0 360.0 
414.0005923698108 48965.0 NaN 1515.8396793587183 4.685334652808135 515.0 2.0 361.0 
416.00008466603504 48943.0 NaN 1515.885103540415 4.045982892667235 516.0 2.0 361.0 
418.0005923698108 48949.0 NaN 1522.0040080160334 5.075087815640314 515.0 2.0 363.0 
420.00033353340314 48930.0 NaN 1521.9772879091522 6.93362491939195 515.0 2.0 363.0 
422.0005923698108 48861.0 NaN 1525.0340681362727 8.50629623759287 515.0 2.0 364.0 
424.0005923698108 48864.0 NaN 1518.8777555110212 5.837764344449908 514.0 2.0 362.0 
426.00008466603504 48855.0 NaN 1500.4328657314636 5.497560035811609 515.0 2.0 356.0 
428.0005923698108 48809.0 NaN 1500.3954575818295 6.308295351796447 515.0 2.0 356.0 
430.00033353340314 48823.0 NaN 1503.4762859051443 6.247264128155076 515.0 2.0 357.0 
432.0005923698108 48816.0 NaN 1500.344689378757 6.644507622652757 515.0 2.0 356.0 
434.0005137350027 48796.0 NaN 1500.4061456245818 7.599150089441492 513.0 2.0 356.0 
436.00008466603504 48814.0 NaN 1503.452237808952 4.4680914064248025 512.0 2.0 357.0 
438.0005923698108 48806.0 NaN 1506.5517702070817 5.099316869958267 512.0 2.0 358.0 
440.00033353340314 48802.0 NaN 1506.5090180360728 6.10607999200612 512.0 2.0 358.0 
442.0005923698108 48782.0 NaN 1506.5250501002 7.923347575127269 513.0 2.0 358.0 
444.0005923698108 48731.0 NaN 1512.7107548430183 9.630688453502524 517.0 2.0 360.0 
446.00008466603504 48738.0 NaN 1512.694722778891 5.208807028062413 517.0 2.0 360.0 
448.0005923698108 48761.0 NaN 1518.8537074148292 3.5567808836016117 517.0 2.0 362.0 
450.00033353340314 48758.0 NaN 1524.9966599866393 4.494313246363641 518.0 2.0 364.0 
452.0005923698108 48756.0 NaN 1524.972611890446 6.035451305172265 517.0 2.0 364.0 
454.0005923698108 48726.0 NaN 1515.7541750167002 7.806418494850066 516.0 2.0 361.0 
456.00008466603504 48706.0 NaN 1515.7702070808273 8.759833633190667 515.0 2.0 361.0 
458.0005923698108 48707.0 NaN 1521.9265197060795 5.705672463767663 515.0 2.0 363.0 
460.00033353340314 48641.0 NaN 1528.109552438209 6.346982702032901 515.0 2.0 365.0 
462.0005923698108 48651.0 NaN 1534.2551770207092 5.659384178185604 516.0 2.0 367.0 
464.0005923698108 48657.0 NaN 1534.2605210420838 6.101365718256502 516.0 2.0 367.0 
466.00008466603504 48605.0 NaN 1534.2818971275888 7.787054041061374 517.0 2.0 367.0 
468.0005923698108 48612.0 NaN 1534.249832999333 4.959798523892772 518.0 2.0 367.0 
470.00033353340314 48619.0 NaN 1537.338677354709 4.655612120385549 519.0 2.0 368.0 
472.0005923698108 48605.0 NaN 1528.1309285237153 5.604069869628228 516.0 2.0 365.0 
474.0005923698108 48600.0 NaN 1521.9772879091522 7.281171234950622 517.0 2.0 363.0 
476.00008466603504 48542.0 NaN 1521.9425517702084 8.982170345618343 515.0 2.0 363.0 
478.0005137350027 48514.0 NaN 1521.9078156312637 8.181753833853442 515.0 2.0 363.0 
480.00033353340314 48598.0 NaN 1521.873079492318 3.7502798520366287 516.0 2.0 363.0 
482.0005923698108 48598.0 NaN 1515.71409485638 4.328642723521546 516.0 2.0 361.0 
484.0005923698108 48610.0 NaN 1509.595190380763 5.304827026158665 514.0 2.0 359.0 
486.00008466603504 48609.0 NaN 1512.689378757516 7.109060431234819 515.0 2.0 360.0 
488.0005923698108 48572.0 NaN 1503.4575818303274 8.953940915757109 513.0 2.0 357.0 
490.00033353340314 48606.0 NaN 1500.3927855711431 6.186064509161482 512.0 2.0 356.0 
492.0005923698108 48615.0 NaN 1497.2505010020031 5.792227884536769 512.0 2.0 355.0 
494.0005923698108 48648.0 NaN 1500.3420173680704 5.022952459261342 513.0 2.0 356.0 
496.00008466603504 48692.0 NaN 1500.3740814963267 5.293155306262896 513.0 2.0 356.0 
498.0005923698108 48661.0 NaN 1500.3473613894453 7.006016570001501 517.0 2.0 356.0 
500.00033353340314 48647.0 NaN 1503.4896459585827 7.880578010709495 517.0 2.0 357.0 
502.0005923698108 48718.0 NaN 1500.3981295925182 4.811192439119506 514.0 2.0 356.0 
504.0005923698108 48737.0 NaN 1491.1877087508356 5.584813735943649 515.0 2.0 353.0 
506.00008466603504 48742.0 NaN 1491.1903807615242 6.553473329250288 513.0 2.0 353.0 
508.0005923698108 48703.0 NaN 1491.1636606546435 8.288403873382405 511.0 2.0 353.0 
510.00033353340314 48691.0 NaN 1491.1636606546435 8.43870866731094 515.0 3.0 352.0 
512.0005923698109 48782.0 NaN 1494.2444889779551 4.171820186113253 516.0 2.0 354.0 
514.0005923698109 48815.0 NaN 1497.3092852371426 3.853654762079159 517.0 2.0 355.0 
516.000084666035 48829.0 NaN 1491.1583166332657 4.736612607283672 516.0 2.0 353.0 
518.0005923698109 48842.0 NaN 1488.093520374082 6.436296728727731 513.0 2.0 352.0 
520.0003335334031 48793.0 NaN 1481.9719438877746 8.277521735292005 512.0 2.0 350.0 
522.0005137350028 48761.0 NaN 1478.891115564463 9.152387127242653 512.0 2.0 349.0 
524.0005923698109 48802.0 NaN 1469.6700066800272 6.019760039926661 512.0 2.0 346.0 
526.000084666035 48808.0 NaN 1469.7127588510361 4.9941780053363996 513.0 2.0 346.0 
528.0005923698109 48835.0 NaN 1466.610554442218 4.555699269946925 510.0 2.0 345.0 
530.0003335334031 48840.0 NaN 1469.699398797594 6.299127351349675 510.0 2.0 346.0 
532.0005923698109 48797.0 NaN 1463.5350701402813 8.164666678027137 511.0 2.0 344.0 
534.0005923698109 48840.0 NaN 1463.5564462257842 5.4110127478006715 516.0 2.0 344.0 
536.000084666035 48861.0 NaN 1469.7154308617244 5.165338871850787 516.0 2.0 346.0 
538.0005923698109 48877.0 NaN 1469.7100868403465 5.99857289847858 518.0 2.0 346.0 
540.0003335334031 48875.0 NaN 1469.7020708082825 7.604809253944088 514.0 2.0 346.0 
542.0005923698109 48839.0 NaN 1478.9311957247821 7.529317908815934 514.0 2.0 349.0 
544.0005137350028 48853.0 NaN 1485.0474281897118 7.095186328211786 516.0 2.0 351.0 
546.000084666035 48883.0 NaN 1485.0527722110899 4.090528628841648 515.0 2.0 351.0 
548.0005923698109 48881.0 NaN 1481.9799599198388 4.855441927379867 516.0 2.0 350.0 
550.0003335334031 48917.0 NaN 1485.0928523714092 5.790737149054643 513.0 2.0 351.0 
552.0005923698109 48905.0 NaN 1488.1282565130266 7.606713735078148 516.0 2.0 352.0 
554.0005923698109 48864.0 NaN 1488.1255845023377 9.38587739369097 516.0 2.0 352.0 
556.000084666035 48898.0 NaN 1488.1816967267878 6.4941850979004725 519.0 2.0 352.0 
558.0005923698109 48916.0 NaN 1488.1523046092182 4.457975588275187 522.0 2.0 352.0 
560.0003335334031 48966.0 NaN 1482.0173680694725 3.9440576965165937 520.0 1.0 351.0 
562.0005923698109 48981.0 NaN 1482.0280561122252 5.651876746460001 520.0 1.0 351.0 
564.0005923698109 48936.0 NaN 1482.0093520374087 7.470629857770344 520.0 1.0 351.0 
566.000084666035 48917.0 NaN 1482.0467601870398 8.35185147800969 522.0 1.0 351.0 
568.0005923698109 48960.0 NaN 1485.1382765531068 5.351718279923623 520.0 2.0 351.0 
570.0003335334031 48973.0 NaN 1482.0547762191059 6.073053104890553 516.0 3.0 349.0 
572.0005923698109 48995.0 NaN 1485.0928523714092 6.755998155763704 515.0 3.0 350.0 
574.0005923698109 48995.0 NaN 1485.0554442217758 6.876369035225316 514.0 3.0 350.0 
576.000084666035 48957.0 NaN 1494.2525050100191 7.372931907687924 514.0 3.0 353.0 
578.0005923698109 48974.0 NaN 1494.2471609886445 4.699859356839874 516.0 3.0 353.0 
580.0003335334031 48985.0 NaN 1497.3680694722789 4.459494845138366 517.0 3.0 354.0 
582.0005923698109 49009.0 NaN 1497.3680694722789 5.278322796875842 516.0 3.0 354.0 
584.0005923698109 49022.0 NaN 1494.2845691382756 6.94969646424738 518.0 2.0 354.0 
586.000084666035 49053.0 NaN 1494.3112892451563 8.591555085008181 521.0 1.0 355.0 
588.0005137350028 49016.0 NaN 1497.3814295257184 9.327261023871353 524.0 1.0 356.0 
590.0003335334031 49066.0 NaN 1497.3653974615906 4.620696083957147 528.0 1.0 356.0 
592.0005923698109 49103.0 NaN 1500.4702738810943 4.083759278754392 529.0 1.0 357.0 
594.0005923698109 49127.0 NaN 1500.464929859719 5.042014819672256 532.0 1.0 357.0 
596.000084666035 49113.0 NaN 1503.5858383433542 6.82510419604665 533.0 1.0 358.0 
598.0005923698109 49079.0 NaN 1494.3647294589182 8.621528690504439 532.0 1.0 355.0 
600.0003335334031 49102.0 NaN 1500.5237140948557 5.895669139522766 535.0 1.0 357.0 
602.0005923698109 49118.0 NaN 1491.2651970607888 5.444037999554281 535.0 1.0 354.0 
604.0005923698109 49120.0 NaN 1491.2491649966607 6.178803044615653 534.0 1.0 354.0 
606.000084666035 49136.0 NaN 1500.5237140948557 6.221446607837269 534.0 1.0 357.0 
608.0005923698109 49135.0 NaN 1500.5183700734808 6.705072899385295 534.0 1.0 357.0 
610.0003335334031 49079.0 NaN 1500.5130260521032 7.587339995660492 534.0 1.0 357.0 
612.0005923698109 49124.0 NaN 1497.3547094188373 4.588488489507352 532.0 1.0 356.0 
614.0005923698109 49127.0 NaN 1500.4382097528382 5.340541934378335 533.0 1.0 357.0 
616.000084666035 49152.0 NaN 1497.3894455577818 6.135441931627417 534.0 1.0 356.0 
618.0005923698109 49149.0 NaN 1497.3894455577818 7.833053371950308 533.0 1.0 356.0 
620.0003335334031 49067.0 NaN 1497.408149632599 9.490694622286917 535.0 1.0 356.0 
622.0005923698109 49103.0 NaN 1500.5210420841693 5.209969571419547 533.0 1.0 357.0 
624.0005923698109 49149.0 NaN 1506.682698730794 3.673916237339461 531.0 1.0 359.0 
626.000084666035 49167.0 NaN 1509.7768871075475 4.506160837858534 532.0 1.0 360.0 
628.0005923698109 49146.0 NaN 1509.742150968603 6.205168718770254 537.0 1.0 360.0 
630.0003335334031 49088.0 NaN 1509.7875751503 7.982762812839928 536.0 1.0 360.0 
632.0005137350028 49062.0 NaN 1509.7742150968613 8.617984286175187 535.0 1.0 360.0 
634.0005923698109 49088.0 NaN 1515.906479625918 5.581497721976684 534.0 1.0 362.0 
636.000084666035 49031.0 NaN 1515.914495657982 6.240434361481445 534.0 1.0 362.0 
638.0005923698109 49024.0 NaN 1525.1489645958575 5.5710085347363245 535.0 1.0 365.0 
640.0003335334031 49013.0 NaN 1522.0814963259845 6.0847144973702365 535.0 1.0 364.0 
642.0005923698109 48973.0 NaN 1515.9091516366072 7.837026417754128 532.0 1.0 362.0 
644.0005923698109 48988.0 NaN 1512.8416833667345 5.194598179102477 532.0 1.0 361.0 
646.000084666035 48974.0 NaN 1512.868403473615 4.810356890659001 536.0 1.0 361.0 
648.0005923698109 48985.0 NaN 1515.9331997328 5.466020919825314 537.0 1.0 362.0 
650.0003335334031 48993.0 NaN 1515.914495657982 7.11153200882047 538.0 1.0 362.0 
652.0005923698109 48927.0 NaN 1512.8416833667345 8.857879734957443 536.0 1.0 361.0 
654.0005137350028 48900.0 NaN 1512.8496993987983 8.106381619160748 535.0 1.0 361.0 
656.000084666035 48959.0 NaN 1515.9305277221101 3.8229633267031793 531.0 1.0 362.0 
658.0005923698109 48979.0 NaN 1522.0841683366727 4.580240275170644 531.0 1.0 364.0 
660.0003335334031 48985.0 NaN 1522.0841683366727 5.6122293169551005 530.0 1.0 364.0 
662.0005923698109 49007.0 NaN 1528.224448897797 7.154059699149068 530.0 1.0 366.0 
664.0005923698109 48987.0 NaN 1531.307949231798 8.832415959071099 531.0 1.0 367.0 
#####################################################################
# End of data export. Simulation finished at: 2019-03-05T11:24+0000 #
#####################################################################
