#####################################################################
# Alchemist log file - simulation started at: 2019-03-14T12:31+0000 #
#####################################################################
# seed = 8.0, bandwidth = 1000.0, propagationDelay = 0.03162277660168379, baserange = 31.622776601683796
#
# The columns have the following meaning: 
# time neighbor_count[Sum] <value>@neighbor_count[Sum] packet_size[Mean] mean_delay[Mean] crowd[Sum] overcrowded[Sum] risk[Sum] 
0.0 NaN NaN NaN NaN NaN NaN NaN 
2.000927030832833 NaN NaN 4988.0 NaN 1497.0 0.0 1497.0 
4.000927030832833 NaN NaN 4988.0 NaN 1497.0 0.0 1497.0 
6.000198348008885 1314.0 NaN 4989.186372745491 0.2927857166872451 1497.0 0.0 1497.0 
8.000927030832834 2787.0 NaN 4997.13293253173 1.9740334634631218 1497.0 0.0 1497.0 
10.000927030832834 2787.0 NaN 4994.060120240481 3.974033463463122 1497.0 0.0 1497.0 
12.000095758012085 2790.0 NaN 4996.884435537742 3.1552721581153373 1495.0 2.0 1495.0 
14.000927030832834 2795.0 NaN 4993.816967267869 1.9711553812362104 1491.0 6.0 1491.0 
16.000198348008887 2795.0 NaN 4991.684702738811 3.969736941519898 1491.0 6.0 1491.0 
18.00050556423654 2798.0 NaN 4992.988643954576 3.2036888660799474 1488.0 9.0 1488.0 
20.000927030832834 2801.0 NaN 4994.773547094188 1.971812562132541 1471.0 26.0 1471.0 
22.000927030832834 2801.0 NaN 4993.020708082832 3.9718125621325413 1471.0 26.0 1471.0 
24.000095758012083 2809.0 NaN 4994.701402805611 3.1579052532842793 1450.0 47.0 1450.0 
26.000198348008887 2816.0 NaN 4992.5771543086175 2.013590362186543 1448.0 49.0 1448.0 
28.000927030832834 2816.0 NaN 4991.187708750835 4.015006792781445 1448.0 49.0 1448.0 
30.000927030832834 2820.0 NaN 4991.826319305277 3.2393729822776614 1446.0 51.0 1446.0 
32.000927030832834 2824.0 NaN 4994.2792251169 2.0595105023214058 1438.0 59.0 1438.0 
34.000927030832834 2824.0 NaN 4992.972611890447 4.059510502321406 1438.0 59.0 1438.0 
36.00009575801209 2831.0 NaN 4994.383433533734 3.243584426412925 1428.0 69.0 1428.0 
38.000927030832834 2838.0 NaN 4992.184368737475 2.118026474225973 1431.0 66.0 1431.0 
40.000927030832834 2838.0 NaN 4991.2571810287245 4.118026474225974 1431.0 66.0 1431.0 
42.000927030832834 2854.0 NaN 4991.794255177021 3.327073164313539 1433.0 64.0 1433.0 
44.000927030832834 2868.0 NaN 4993.9612558450235 2.155757556899795 1426.0 71.0 1426.0 
46.00019834800889 2868.0 NaN 4992.849699398797 4.154347119664252 1426.0 71.0 1426.0 
48.000095758012094 2871.0 NaN 4994.185704742819 3.3340011595869696 1425.0 72.0 1425.0 
50.000927030832834 2875.0 NaN 4992.040080160321 2.138496635457999 1423.0 74.0 1423.0 
52.000927030832834 2875.0 NaN 4991.123580494322 4.138496635457999 1425.0 72.0 1425.0 
54.000927030832834 2900.0 NaN 4991.698062792251 3.3848050811883232 1426.0 71.0 1426.0 
56.00019834800889 2929.0 NaN 4994.0360721442885 2.2585831227868907 1423.0 74.0 1423.0 
58.000927030832834 2929.0 NaN 4992.833667334669 4.2599935600224335 1423.0 74.0 1423.0 
60.000095758012094 2936.0 NaN 4994.100200400801 3.44554374359548 1418.0 79.0 1418.0 
62.00063497545094 2942.0 NaN 1518.714762859052 1.7862389488087025 616.0 80.0 284.0 
64.00063497545095 2944.0 NaN 1518.2177688710754 3.053624178545637 559.0 80.0 284.0 
66.0001983480089 2951.0 NaN 1518.426185704743 2.5610263900289816 505.0 80.0 284.0 
68.00063497545095 2959.0 NaN 1518.479625918503 1.7759817973432805 472.0 82.0 282.0 
70.00063497545095 2960.0 NaN 1518.2925851703394 2.9241477875803517 441.0 82.0 282.0 
72.00063497545095 2973.0 NaN 1518.5544422177697 2.497145903998208 428.0 81.0 283.0 
74.00063497545095 2988.0 NaN 1521.3787575150297 1.9081425845543014 425.0 74.0 291.0 
76.0001983480089 2995.0 NaN 1524.2431529726116 3.0569578000447506 423.0 74.0 292.0 
78.00050556423653 2978.0 NaN 1524.403473613894 2.4884590594393945 417.0 78.0 288.0 
80.00063497545095 2961.0 NaN 1527.6847027388094 1.724858086716773 414.0 76.0 291.0 
82.00063497545095 2963.0 NaN 1527.5190380761544 2.8699413134422054 413.0 75.0 292.0 
84.00050556423653 2975.0 NaN 1530.8830995324 2.4112839309073912 409.0 76.0 292.0 
86.0001983480089 2981.0 NaN 1530.6559786239152 1.8250978708786174 406.0 77.0 291.0 
88.00063497545095 2982.0 NaN 1530.4395457581818 2.9708103176533407 405.0 78.0 290.0 
90.00050556423653 2972.0 NaN 1530.639946559785 2.5240728418895353 402.0 79.0 289.0 
92.00063497545095 2958.0 NaN 1530.6105544422182 1.8953250266005701 396.0 85.0 283.0 
94.00063497545095 2958.0 NaN 1530.5410821643275 3.0409896099770175 394.0 84.0 284.0 
96.0001983480089 2956.0 NaN 1533.7902471609907 2.5660014098251884 394.0 83.0 286.0 
98.00063497545095 2950.0 NaN 1533.565798263191 1.877995829642029 387.0 87.0 282.0 
100.00063497545095 2950.0 NaN 1533.3974615898453 3.021025875916079 387.0 87.0 282.0 
102.00063497545095 2933.0 NaN 1533.520374081497 2.54083503602808 388.0 86.0 283.0 
104.00063497545095 2913.0 NaN 1533.6887107548432 1.8887998670974981 397.0 77.0 292.0 
106.0001983480089 2913.0 NaN 1533.5230460921846 2.9956959283888533 397.0 77.0 292.0 
108.00050556423653 2915.0 NaN 1533.731462925852 2.4046578664713367 395.0 79.0 290.0 
110.00063497545095 2909.0 NaN 1533.603206412827 1.7847449972335379 398.0 76.0 293.0 
112.00063497545095 2911.0 NaN 1533.4268537074151 2.926664334987412 398.0 76.0 293.0 
114.00018947767941 2917.0 NaN 1536.6386105544427 2.4368670020853265 398.0 76.0 294.0 
116.0001983480089 2923.0 NaN 1539.8102872411484 1.8509112481595478 404.0 70.0 301.0 
118.00063497545095 2930.0 NaN 1545.8329993319974 2.9911612631429296 404.0 71.0 302.0 
120.00018947767941 2936.0 NaN 1546.0387441549758 2.519279689938349 406.0 71.0 302.0 
122.00063497545095 2941.0 NaN 1548.9512358049456 1.9267017819257282 405.0 75.0 299.0 
124.00063497545095 2942.0 NaN 1548.7855711422847 3.0686224245029847 406.0 74.0 300.0 
126.0001983480089 2951.0 NaN 1548.964595858382 2.6290632571273256 404.0 76.0 298.0 
128.00063497545094 2952.0 NaN 1549.0420841683363 2.0495376147101316 401.0 77.0 297.0 
130.00063497545096 2956.0 NaN 1548.9084836339364 3.188182124136364 401.0 77.0 297.0 
132.00050556423653 2961.0 NaN 1549.1142284569148 2.744552167460154 401.0 76.0 298.0 
134.00063497545096 2975.0 NaN 1545.857047428191 2.201815137969714 398.0 79.0 294.0 
136.0001983480089 2973.0 NaN 1545.7448229792908 3.3156055035546235 397.0 79.0 294.0 
138.00063497545096 2976.0 NaN 1548.9939879759518 2.7812766775760553 395.0 80.0 294.0 
140.00063497545096 2981.0 NaN 1552.0080160320636 2.25800563091706 396.0 78.0 297.0 
142.00063497545096 2988.0 NaN 1551.9331997328002 3.407761655982562 396.0 78.0 297.0 
144.00063497545096 2996.0 NaN 1555.283901135603 2.8229565202025553 398.0 77.0 299.0 
146.0001983480089 3009.0 NaN 1548.980627922512 2.214671527709606 399.0 75.0 299.0 
148.00063497545096 3007.0 NaN 1548.8710754843 3.2956943100242007 400.0 75.0 299.0 
150.0001894776794 3007.0 NaN 1555.1128924515701 2.717279597380874 392.0 83.0 293.0 
152.00063497545096 3010.0 NaN 1549.0287241148974 2.1660702174937803 391.0 85.0 289.0 
154.00063497545096 3008.0 NaN 1545.857047428191 3.2763414790856085 391.0 85.0 288.0 
156.0001894776794 3000.0 NaN 1546.1376085504364 2.7000821829239072 388.0 87.0 286.0 
158.00063497545096 2976.0 NaN 1549.0981963927845 1.9919058009819153 390.0 83.0 291.0 
160.00063497545096 2976.0 NaN 1548.9405477621908 3.1409312362274027 389.0 83.0 291.0 
162.0001894776794 2980.0 NaN 1549.1516366065453 2.5752875043222017 392.0 81.0 293.0 
164.00063497545096 2983.0 NaN 1552.122912491652 2.0595343333102756 392.0 82.0 293.0 
166.0001983480089 2983.0 NaN 1551.9679358717456 3.2143034622622735 392.0 82.0 293.0 
168.0001894776794 2991.0 NaN 1552.2057448229793 2.764319373544062 390.0 83.0 292.0 
170.00063497545096 3007.0 NaN 1552.0587842351363 2.234155028310116 387.0 84.0 291.0 
172.00063497545096 3009.0 NaN 1551.9385437541725 3.349961144788935 384.0 85.0 290.0 
174.0001894776794 3017.0 NaN 1555.206412825652 2.870784708475778 380.0 88.0 288.0 
176.0001983480089 3013.0 NaN 1558.316633266534 2.321296158799666 381.0 90.0 287.0 
178.00063497545096 3009.0 NaN 1558.1830327321297 3.357977320138787 381.0 90.0 287.0 
180.00050556423656 3008.0 NaN 1552.2752171008701 2.868800761843566 386.0 87.0 288.0 
182.00063497545096 3011.0 NaN 1549.0180360721458 2.29407494829333 391.0 81.0 293.0 
184.00063497545096 3010.0 NaN 1545.7902471609912 3.328019001656841 390.0 81.0 292.0 
186.0001983480089 2990.0 NaN 1546.0334001335998 2.7315253696514312 391.0 77.0 296.0 
188.00063497545096 2978.0 NaN 1545.947895791582 2.131035078275593 398.0 70.0 303.0 
190.00063497545096 2977.0 NaN 1542.760187040748 3.240419841588605 397.0 70.0 302.0 
192.0001894776794 2980.0 NaN 1539.9118236472937 2.680251535474265 399.0 69.0 302.0 
194.00063497545096 2989.0 NaN 1542.8617234468936 2.130012879684001 399.0 70.0 302.0 
196.0001983480089 2988.0 NaN 1542.6907147628574 3.2220580646881958 399.0 70.0 302.0 
198.00063497545096 2975.0 NaN 1545.9906479625906 2.7040360790209497 392.0 77.0 296.0 
200.00063497545096 2965.0 NaN 1552.1710086840362 2.0804782836885405 391.0 79.0 296.0 
202.00063497545096 2968.0 NaN 1552.0614562458272 3.204730000183329 390.0 80.0 295.0 
204.00063497545096 2971.0 NaN 1552.2832331329334 2.737125633657728 392.0 79.0 296.0 
206.0001983480089 2960.0 NaN 1552.0961923847701 2.2159078822742777 391.0 82.0 293.0 
208.00063497545096 2960.0 NaN 1548.9164996659997 3.349618666928906 390.0 82.0 292.0 
210.00063497545096 2959.0 NaN 1549.047428189712 2.7761620451108238 384.0 85.0 289.0 
212.00063497545096 2957.0 NaN 1549.0447561790247 2.224501027643957 387.0 82.0 292.0 
214.00063497545096 2956.0 NaN 1548.8603874415485 3.306590217392245 385.0 82.0 292.0 
216.0001894776794 2946.0 NaN 1549.0581162324638 2.8500678772511385 387.0 81.0 293.0 
218.00063497545096 2929.0 NaN 1548.9138276553092 2.172056423730382 391.0 76.0 298.0 
220.00063497545096 2931.0 NaN 1548.7695390781548 3.2739590644985856 391.0 76.0 298.0 
222.00063497545096 2929.0 NaN 1545.811623246491 2.7883146823624596 391.0 77.0 296.0 
224.00063497545096 2924.0 NaN 1545.902471609888 2.2065292732578325 393.0 76.0 297.0 
226.0001983480089 2923.0 NaN 1545.7929191716757 3.2895940326647994 391.0 76.0 297.0 
228.00050556423656 2923.0 NaN 1545.9639278557092 2.6661552486462066 391.0 76.0 297.0 
230.00063497545096 2931.0 NaN 1549.036740146961 2.1041859644966503 387.0 79.0 295.0 
232.00063497545096 2933.0 NaN 1551.9519038076157 3.25370432736871 387.0 79.0 296.0 
234.00063497545096 2923.0 NaN 1548.988643954575 2.740749811125813 387.0 79.0 295.0 
236.0001983480089 2908.0 NaN 1549.052772211091 2.1753837670483365 382.0 84.0 290.0 
238.00063497545096 2905.0 NaN 1545.8650634602548 3.2433812209532547 383.0 84.0 289.0 
240.00063497545096 2901.0 NaN 1539.890447561791 2.724678431430206 376.0 89.0 282.0 
242.00063497545096 2901.0 NaN 1536.643954575818 2.222843514597006 377.0 88.0 282.0 
244.00063497545096 2907.0 NaN 1533.3627254509001 3.3475092893662715 377.0 88.0 281.0 
246.0001983480089 2891.0 NaN 1533.555110220439 2.8313319490530144 379.0 86.0 283.0 
248.00063497545096 2874.0 NaN 1533.7154308617244 2.242592771728144 379.0 87.0 282.0 
250.00063497545096 2872.0 NaN 1530.4368737474938 3.296285549616635 378.0 86.0 282.0 
252.00063497545096 2873.0 NaN 1530.6987307949244 2.811676597563328 379.0 85.0 283.0 
254.00063497545096 2876.0 NaN 1530.5410821643275 2.244946624313101 386.0 78.0 290.0 
256.0001983480089 2875.0 NaN 1530.388777555109 3.3132576216162235 386.0 78.0 290.0 
258.0006349754509 2882.0 NaN 1530.5490981963912 2.7715474768601593 383.0 80.0 288.0 
260.0006349754509 2890.0 NaN 1533.659318637273 2.2832729469469233 383.0 80.0 289.0 
262.0006349754509 2889.0 NaN 1533.5497661990635 3.3910025685628047 384.0 79.0 290.0 
264.0006349754509 2889.0 NaN 1533.7261189044752 2.9125069679941062 386.0 77.0 292.0 
266.0001983480089 2883.0 NaN 1533.6272545090183 2.282895625294157 385.0 78.0 291.0 
268.0006349754509 2885.0 NaN 1533.4509018036088 3.2888994173903123 385.0 79.0 290.0 
270.00050556423656 2879.0 NaN 1533.5978623914484 2.8059026937657405 383.0 80.0 289.0 
272.0006349754509 2880.0 NaN 1536.756179024718 2.3305566022333295 384.0 80.0 290.0 
274.0006349754509 2880.0 NaN 1548.9458917835664 3.3885026019514912 385.0 80.0 294.0 
276.0001983480089 2866.0 NaN 1549.1008684034728 2.872965350203254 384.0 80.0 294.0 
278.0006349754509 2853.0 NaN 1548.9458917835664 2.3282552134691032 385.0 82.0 292.0 
280.0006349754509 2852.0 NaN 1551.9625918503662 3.3238677520408624 384.0 82.0 293.0 
282.00050556423656 2851.0 NaN 1552.109552438209 2.909104941357412 385.0 80.0 295.0 
284.0006349754509 2859.0 NaN 1555.0594522378092 2.433020262558128 387.0 80.0 296.0 
286.0001983480089 2857.0 NaN 1554.8964595858365 3.514270776256058 385.0 80.0 296.0 
288.00050556423656 2838.0 NaN 1551.9732798931184 3.098955726480408 385.0 80.0 295.0 
290.0006349754509 2833.0 NaN 1548.830995323982 2.557154025245404 389.0 75.0 299.0 
292.0006349754509 2832.0 NaN 1548.7134268537088 3.6016903719855065 388.0 75.0 299.0 
294.0006349754509 2821.0 NaN 1548.836339345357 3.2100122377308797 384.0 79.0 295.0 
296.0001983480089 2802.0 NaN 1548.9939879759522 2.548937699288278 386.0 78.0 296.0 
298.0006349754509 2804.0 NaN 1545.8036072144275 3.5848131605222773 386.0 78.0 295.0 
300.00050556423656 2808.0 NaN 1549.0394121576478 3.0474486814324844 387.0 78.0 296.0 
302.0006349754509 2818.0 NaN 1551.962591850366 2.6041753787930073 387.0 78.0 297.0 
304.0006349754509 2816.0 NaN 1548.8096192384753 3.604426639505079 384.0 78.0 296.0 
306.0001983480089 2803.0 NaN 1545.867735470943 3.0744543189229474 390.0 74.0 299.0 
308.0006349754509 2788.0 NaN 1548.956579826318 2.29794407605862 387.0 74.0 300.0 
310.0006349754509 2786.0 NaN 1545.7715430861729 3.3616703615218126 388.0 74.0 299.0 
312.0006349754509 2769.0 NaN 1542.9124916499657 2.8290711240492605 388.0 72.0 300.0 
314.0006349754509 2756.0 NaN 1542.7040748163001 2.2211930824181354 390.0 70.0 302.0 
316.0001983480089 2752.0 NaN 1542.5651302605204 3.243299246029843 389.0 70.0 302.0 
318.0006349754509 2738.0 NaN 1545.8517034068157 2.6573917656798973 385.0 72.0 301.0 
320.0006349754509 2734.0 NaN 1542.8243152972616 2.1223215076830364 386.0 71.0 301.0 
322.0006349754509 2740.0 NaN 1536.590514362057 3.189456923300802 386.0 71.0 299.0 
324.0006349754509 2744.0 NaN 1539.8984635938546 2.753210523445809 384.0 75.0 296.0 
326.0001983480089 2741.0 NaN 1542.826987307948 2.179970392819731 388.0 71.0 301.0 
328.0006349754509 2740.0 NaN 1545.814295257182 3.22564095870201 389.0 71.0 302.0 
330.00050556423656 2750.0 NaN 1545.9318637274544 2.7668301890854385 391.0 71.0 302.0 
332.0006349754509 2754.0 NaN 1539.810287241148 2.1971735476771586 391.0 71.0 300.0 
334.0006349754509 2753.0 NaN 1539.7034068136272 3.183352521297663 391.0 71.0 300.0 
336.0001983480089 2752.0 NaN 1536.836339345357 2.6710785023039803 392.0 71.0 299.0 
338.0006349754509 2739.0 NaN 1539.7194388777543 2.0230803069912664 393.0 71.0 300.0 
340.0006349754509 2740.0 NaN 1539.5537742150975 3.1109149240753045 393.0 71.0 300.0 
342.00018947767944 2749.0 NaN 1539.78356713427 2.609486141484848 392.0 71.0 300.0 
344.0006349754509 2754.0 NaN 1539.8289913159638 2.0505057508294042 389.0 73.0 298.0 
346.0001983480089 2757.0 NaN 1539.7060788243155 3.1541705890055205 389.0 73.0 298.0 
348.0006349754509 2755.0 NaN 1536.8577154308634 2.6662195207582506 392.0 73.0 297.0 
350.0006349754509 2756.0 NaN 1533.5310621242481 2.1972351142172295 390.0 75.0 294.0 
352.0006349754509 2755.0 NaN 1533.4348697394792 3.2670249712683535 389.0 75.0 294.0 
354.0006349754509 2754.0 NaN 1536.7000668002665 2.6444995595427128 387.0 76.0 294.0 
356.0001983480089 2756.0 NaN 1536.6920507682025 2.1035011165929296 389.0 74.0 296.0 
358.0006349754509 2755.0 NaN 1536.5424181696726 3.173770836486917 389.0 74.0 296.0 
360.0006349754509 2763.0 NaN 1536.7508350033393 2.6715102114249487 391.0 71.0 299.0 
362.0006349754509 2778.0 NaN 1536.566466265864 2.1762815742486876 396.0 65.0 305.0 
364.0006349754509 2777.0 NaN 1536.4542418169665 3.223851421488625 396.0 65.0 305.0 
366.0001983480089 2783.0 NaN 1536.5851703406818 2.754601181893775 396.0 65.0 305.0 
368.0006349754509 2780.0 NaN 1539.6392785571152 2.207418937285566 396.0 65.0 306.0 
370.0006349754509 2782.0 NaN 1539.5404141616548 3.2505284467940934 396.0 65.0 306.0 
372.00050556423656 2777.0 NaN 1542.8082832331334 2.8074013820671677 396.0 65.0 307.0 
374.0006349754509 2772.0 NaN 1542.6666666666663 2.3260029862940885 397.0 66.0 306.0 
376.0001983480089 2775.0 NaN 1542.597194388779 3.4254117373147484 395.0 66.0 306.0 
378.00050556423656 2780.0 NaN 1539.722110888445 2.9046101356528955 397.0 66.0 305.0 
380.0006349754509 2774.0 NaN 1536.5344021376093 2.3745545110414215 393.0 68.0 302.0 
382.0006349754509 2772.0 NaN 1533.3627254509004 3.4315719721494147 392.0 68.0 301.0 
384.00050556423656 2796.0 NaN 1533.605878423512 2.963580873274449 392.0 70.0 299.0 
386.0001983480089 2801.0 NaN 1536.5103540414177 2.50366425453078 391.0 72.0 298.0 
388.0006349754509 2800.0 NaN 1533.360053440215 3.5788385131840745 390.0 72.0 297.0 
390.0006349754509 2800.0 NaN 1530.4662658650636 2.9415687524898013 386.0 76.0 292.0 
392.0006349754509 2813.0 NaN 1533.5978623914484 2.4351273626810515 384.0 78.0 291.0 
394.0006349754509 2816.0 NaN 1518.0627922511699 3.513633958347473 386.0 77.0 287.0 
396.0001983480089 2831.0 NaN 1521.4054776219095 3.150495983758037 385.0 81.0 284.0 
398.0006349754509 2839.0 NaN 1521.2317969271885 2.552770069759919 394.0 76.0 289.0 
400.0006349754509 2842.0 NaN 1518.0360721442903 3.655921842989875 394.0 76.0 288.0 
402.00030469822224 2846.0 NaN 1518.2017368069462 2.9944909425260136 400.0 72.0 292.0 
404.0006349754509 2841.0 NaN 1518.1616566466273 2.4043084723692885 399.0 75.0 289.0 
406.0001983480089 2841.0 NaN 1518.0895123580485 3.5376052249212533 399.0 75.0 289.0 
408.00030469822224 2838.0 NaN 1524.4756179024728 2.957196581235774 396.0 77.0 289.0 
410.0006349754509 2835.0 NaN 1527.2999331997335 2.5286836794644625 399.0 74.0 293.0 
412.0006349754509 2837.0 NaN 1527.171676686707 3.5889807073990685 398.0 74.0 293.0 
414.00030469822224 2842.0 NaN 1536.5798263193062 3.099345286424591 402.0 70.0 300.0 
416.0001983480089 2840.0 NaN 1533.603206412827 2.655067300475375 400.0 73.0 296.0 
418.0006349754509 2843.0 NaN 1536.595858383434 3.8384649307318766 400.0 74.0 296.0 
420.00018947767944 2850.0 NaN 1530.6559786239152 3.1792352292197528 403.0 70.0 298.0 
422.0006349754509 2857.0 NaN 1533.5337341349364 2.6535261293988692 404.0 71.0 298.0 
424.0006349754509 2858.0 NaN 1524.2110888443547 3.716485081920172 406.0 71.0 295.0 
426.0001983480089 2855.0 NaN 1530.5143620574477 3.224256231894322 404.0 71.0 297.0 
428.0006349754509 2833.0 NaN 1530.4475617902463 2.570089116271553 409.0 68.0 300.0 
430.0006349754509 2837.0 NaN 1530.289913159654 3.710835505438909 409.0 68.0 300.0 
432.00030469822224 2837.0 NaN 1542.8189712758845 3.1252263315953246 411.0 67.0 305.0 
434.0006349754509 2834.0 NaN 1542.6479625918514 2.5399105061852785 417.0 62.0 310.0 
436.0001983480089 2832.0 NaN 1551.7034068136272 3.6383552150161993 420.0 62.0 313.0 
438.00030469822224 2810.0 NaN 1548.8977955911816 3.0229714032326593 419.0 63.0 311.0 
440.0006349754509 2811.0 NaN 1551.938543754173 2.4822074530243494 418.0 63.0 312.0 
442.0006349754509 2820.0 NaN 1561.1436205744817 3.6058421584927918 420.0 64.0 314.0 
444.00030469822224 2824.0 NaN 1552.0374081496334 3.0776870762256645 418.0 67.0 308.0 
446.0001983480089 2824.0 NaN 1564.269873079491 2.488141921746247 416.0 69.0 310.0 
448.0006349754509 2828.0 NaN 1570.2765531062116 3.601266039471892 419.0 68.0 313.0 
450.00018947767944 2813.0 NaN 1570.434201736809 2.9925105761822173 418.0 69.0 312.0 
452.0006349754509 2816.0 NaN 1570.3299933199726 2.619921988277097 417.0 71.0 310.0 
454.0006349754509 2823.0 NaN 1570.3486973947909 3.7702672946754383 418.0 71.0 310.0 
456.0001983480089 2808.0 NaN 1573.5150300601183 3.1348232851212425 418.0 72.0 310.0 
458.0006349754509 2799.0 NaN 1576.422177688709 2.65797667627001 414.0 75.0 308.0 
460.0006349754509 2801.0 NaN 1573.2772211088843 3.7074237179253453 415.0 75.0 307.0 
462.0006349754509 2791.0 NaN 1570.3593854375426 3.1438074027407437 414.0 75.0 306.0 
464.0006349754509 2777.0 NaN 1570.3754175016702 2.6688214236265386 414.0 74.0 307.0 
466.0001983480089 2771.0 NaN 1567.201068804275 3.695898811847059 413.0 74.0 306.0 
468.00018947767944 2775.0 NaN 1567.3800935203726 3.122040496086707 414.0 73.0 307.0 
470.0000957580121 2778.0 NaN 1564.1763527054093 2.5953981584756405 420.0 68.0 311.0 
472.0006349754509 2778.0 NaN 1561.0207080828336 3.6482360284698205 416.0 68.0 310.0 
474.0006349754509 2759.0 NaN 1561.2478289913183 3.0001710042836183 417.0 67.0 311.0 
476.0000957580121 2737.0 NaN 1561.1356045424182 2.5303187228480835 417.0 68.0 310.0 
478.0006349754509 2737.0 NaN 1557.9585838343364 3.6241273657638597 417.0 69.0 308.0 
480.00018947767944 2750.0 NaN 1558.1456245825 3.036268208036499 418.0 68.0 309.0 
482.0006349754509 2762.0 NaN 1558.0547762191063 2.5051769860953836 414.0 71.0 306.0 
484.0006349754509 2763.0 NaN 1557.977287909152 3.5676206181192454 414.0 71.0 306.0 
486.0001983480089 2765.0 NaN 1558.2097528390088 3.0800579343891235 412.0 71.0 306.0 
488.0006349754509 2741.0 NaN 1548.8844355377428 2.5797552429042856 409.0 73.0 301.0 
490.0006349754509 2737.0 NaN 1548.7962591850362 3.502893714594989 407.0 73.0 301.0 
492.0006349754509 2728.0 NaN 1536.6680026720096 2.9741624555061206 406.0 72.0 298.0 
494.0006349754509 2728.0 NaN 1533.4936539746177 2.5365099077254385 400.0 75.0 294.0 
496.0001983480089 2726.0 NaN 1533.3627254509006 3.6373655127110562 400.0 75.0 294.0 
498.0006349754509 2713.0 NaN 1530.503674014697 2.982758886088971 400.0 74.0 294.0 
500.0006349754509 2718.0 NaN 1530.3727454909817 2.5132639993487347 401.0 72.0 296.0 
502.0006349754509 2714.0 NaN 1530.2765531062114 3.4475584981679726 400.0 72.0 296.0 
504.0006349754509 2709.0 NaN 1530.4181696726796 2.9355135918729096 401.0 72.0 296.0 
506.0001983480089 2696.0 NaN 1530.2899131596537 2.305615414931894 408.0 67.0 301.0 
508.0006349754509 2700.0 NaN 1524.1309285237153 3.3872784559807965 409.0 67.0 299.0 
510.0006349754509 2698.0 NaN 1524.2324649298607 2.7668515505732043 409.0 67.0 299.0 
512.0006349754509 2706.0 NaN 1518.1563126252515 2.2292398868577155 408.0 66.0 298.0 
514.0006349754509 2709.0 NaN 1521.164996659988 3.2328103736014344 408.0 66.0 299.0 
516.0001983480089 2707.0 NaN 1524.2778891115554 2.621493775620561 406.0 67.0 299.0 
518.0006349754509 2698.0 NaN 1521.1543086172358 2.052325049409867 403.0 68.0 297.0 
520.0006349754509 2697.0 NaN 1521.092852371409 3.073343626457314 402.0 68.0 297.0 
522.0006349754509 2697.0 NaN 1505.8276553106202 2.487435264806509 398.0 69.0 291.0 
524.0006349754509 2706.0 NaN 1496.6492985971938 2.0582149971526658 392.0 75.0 282.0 
526.0001983480089 2710.0 NaN 1496.555778223112 3.1291941597375996 390.0 75.0 282.0 
528.0006349754509 2728.0 NaN 1490.607882431529 2.7286910727000864 392.0 74.0 281.0 
530.0006349754509 2746.0 NaN 1496.513026052103 2.2543582666483237 390.0 75.0 282.0 
532.0006349754509 2750.0 NaN 1496.4328657314636 3.312667882929339 390.0 75.0 282.0 
534.0006349754509 2755.0 NaN 1493.54442217769 2.712087850083834 388.0 75.0 281.0 
536.0001983480089 2759.0 NaN 1502.7842351369395 2.2432001902824035 390.0 74.0 285.0 
538.0006349754509 2760.0 NaN 1502.7334669338666 3.2927342819753576 389.0 75.0 284.0 
540.0006349754509 2772.0 NaN 1502.8724114896452 2.8833707336292798 391.0 74.0 285.0 
542.0006349754509 2773.0 NaN 1502.7441549766193 2.4302947831763935 396.0 71.0 288.0 
544.0006349754509 2774.0 NaN 1499.5965263861062 3.5307742390914845 396.0 71.0 287.0 
546.0001983480089 2761.0 NaN 1499.6339345357374 2.917333394206034 388.0 77.0 281.0 
548.0006349754509 2755.0 NaN 1490.5731462925846 2.468074818037102 389.0 76.0 279.0 
550.0006349754509 2752.0 NaN 1487.3800935203735 3.396980522781295 389.0 76.0 278.0 
552.0006349754509 2750.0 NaN 1490.5704742818982 2.936559988314728 391.0 74.0 281.0 
554.0006349754509 2736.0 NaN 1496.6840347361383 2.3074597315279073 388.0 76.0 281.0 
556.0001983480089 2741.0 NaN 1490.3861055444213 3.390310172638718 389.0 76.0 279.0 
558.0006349754509 2737.0 NaN 1487.4869739478968 2.960610901253186 387.0 78.0 276.0 
560.0006349754509 2738.0 NaN 1481.354709418837 2.499583111681812 386.0 78.0 274.0 
562.0006349754509 2746.0 NaN 1487.4094856379431 3.4826175973343845 386.0 78.0 276.0 
564.0006349754509 2757.0 NaN 1484.4782899131603 2.963112861958791 389.0 76.0 277.0 
566.0001983480089 2770.0 NaN 1490.4929859719446 2.5282668152118073 389.0 76.0 279.0 
568.0006349754509 2764.0 NaN 1490.4983299933192 3.4651522071285163 387.0 78.0 277.0 
570.0006349754509 2750.0 NaN 1493.6165664662647 3.0229104428735214 388.0 79.0 277.0 
572.0006349754509 2751.0 NaN 1490.5998663994649 2.5649095842005303 391.0 76.0 279.0 
574.0006349754509 2760.0 NaN 1496.598530394121 3.6392108467010615 393.0 76.0 281.0 
576.0001983480089 2784.0 NaN 1499.7969271877091 3.1436766758802785 394.0 75.0 283.0 
578.0006349754509 2796.0 NaN 1502.8056112224456 2.681414088582945 400.0 69.0 290.0 
580.0006349754509 2794.0 NaN 1499.6820307281241 3.6645329292243076 402.0 69.0 289.0 
582.0006349754509 2779.0 NaN 1493.6726786907152 3.221528645994566 403.0 69.0 287.0 
584.0006349754509 2779.0 NaN 1506.0414161656638 2.7849321216486453 405.0 69.0 291.0 
586.0001983480089 2778.0 NaN 1502.8216432865727 3.69762033367435 405.0 69.0 290.0 
588.0006349754509 2767.0 NaN 1506.0414161656638 3.2251787133751733 406.0 69.0 291.0 
590.0006349754509 2768.0 NaN 1512.0240480961918 2.6393902488819845 407.0 69.0 293.0 
592.0006349754509 2776.0 NaN 1518.1376085504353 3.659140035646213 409.0 69.0 295.0 
594.0006349754509 2774.0 NaN 1518.2044088176365 2.952215552825735 406.0 71.0 293.0 
596.0001983480089 2785.0 NaN 1518.2899131596535 2.5212896787271304 404.0 73.0 291.0 
598.0006349754509 2781.0 NaN 1515.1182364729455 3.5166801838821033 404.0 73.0 290.0 
600.0006349754509 2762.0 NaN 1518.3139612558455 2.9829857300068334 401.0 77.0 287.0 
602.0006349754509 2750.0 NaN 1527.3132932531726 2.537209996831218 388.0 89.0 278.0 
604.0006349754509 2755.0 NaN 1527.2678690714756 3.579370376290128 390.0 89.0 278.0 
606.0001983480089 2770.0 NaN 1524.3179692718759 3.1883567672955713 391.0 87.0 279.0 
608.0006349754509 2775.0 NaN 1524.379425517701 2.704072859741521 390.0 86.0 280.0 
610.0006349754509 2774.0 NaN 1521.164996659988 3.6607922759779465 389.0 86.0 279.0 
612.0006349754509 2772.0 NaN 1521.338677354709 3.238514325186048 389.0 87.0 278.0 
614.0006349754509 2771.0 NaN 1527.356045424182 2.6570663236343353 398.0 76.0 291.0 
616.0001983480089 2770.0 NaN 1530.3299933199726 3.544935753729718 399.0 76.0 292.0 
618.0006349754509 2770.0 NaN 1533.5551102204392 2.947785879284035 405.0 70.0 299.0 
620.0006349754509 2775.0 NaN 1533.5791583166342 2.4642534070757653 397.0 78.0 291.0 
622.0006349754509 2780.0 NaN 1533.4722778891112 3.3564668768334767 396.0 79.0 290.0 
624.0006349754509 2813.0 NaN 1536.6920507682023 3.0094911970853535 399.0 76.0 294.0 
626.0001983480089 2827.0 NaN 1536.5023380093523 2.637785945337776 397.0 78.0 292.0 
628.0006349754509 2832.0 NaN 1539.5350701402813 3.596272558951278 395.0 79.0 292.0 
630.0006349754509 2854.0 NaN 1539.6419505678007 3.1085680445439503 395.0 80.0 291.0 
632.0006349754509 2866.0 NaN 1542.8269873079485 2.4316360542315985 390.0 86.0 286.0 
634.0006349754509 2885.0 NaN 1545.8009352037398 3.424626730222534 393.0 85.0 288.0 
636.0001983480089 2914.0 NaN 1545.8677354709425 3.0450367175733897 394.0 85.0 288.0 
638.0006349754509 2925.0 NaN 1551.9786239144967 2.648440853443462 395.0 83.0 292.0 
640.0006349754509 2927.0 NaN 1548.7695390781555 3.6509476563772125 399.0 81.0 293.0 
642.0006349754509 2929.0 NaN 1548.9218436873737 3.1681128915775645 400.0 80.0 294.0 
644.0006349754509 2928.0 NaN 1548.8684034736152 2.759366387775929 401.0 79.0 295.0 
646.0001983480089 2930.0 NaN 1545.7154308617244 3.69630462223734 401.0 79.0 294.0 
648.0006349754509 2908.0 NaN 1542.8269873079482 3.156025238410829 404.0 78.0 294.0 
650.0006349754509 2896.0 NaN 1545.766199064797 2.625533108126101 409.0 72.0 301.0 
652.0006349754509 2901.0 NaN 1548.8096192384758 3.51722189845497 408.0 72.0 302.0 
654.0006349754509 2921.0 NaN 1542.7975951903816 3.1771171014401682 405.0 72.0 300.0 
656.0001983480089 2933.0 NaN 1542.8724114896454 2.8295720131764246 404.0 72.0 300.0 
658.0006349754509 2931.0 NaN 1542.7788911155637 3.7879258947366776 403.0 72.0 300.0 
660.0006349754509 2915.0 NaN 1549.0394121576478 3.3908462915916613 402.0 75.0 299.0 
662.0006349754509 2913.0 NaN 1552.0320641282558 2.833306758847196 400.0 77.0 298.0 
664.0006349754509 2918.0 NaN 1561.2130928523718 3.766033272212406 397.0 77.0 301.0 
#####################################################################
# End of data export. Simulation finished at: 2019-03-14T12:49+0000 #
#####################################################################
