#####################################################################
# Alchemist log file - simulation started at: 2019-03-02T15:46+0000 #
#####################################################################
# seed = 0.0, bandwidth = 2.3713737056616552E7, propagationDelay = 1.0, baserange = 1000.0
#
# The columns have the following meaning: 
# time neighbor_count[Sum] <value>@neighbor_count[Sum] packet_size[Mean] mean_delay[Mean] crowd[Sum] overcrowded[Sum] risk[Sum] 
0.0 NaN NaN NaN NaN NaN NaN NaN 
10.000405536260626 210022.0 NaN 4994.070808283233 0.9997682514126714 1496.0 1.0 1496.0 
20.000405536260626 210059.0 NaN 4994.0574482297925 0.9998284533560128 1496.0 1.0 1496.0 
30.000405536260626 210107.0 NaN 4994.0574482297925 0.9996128542967587 1496.0 1.0 1496.0 
40.00040553626063 210246.0 NaN 4994.086840347361 0.9997639769489782 1496.0 1.0 1496.0 
50.00040553626063 210325.0 NaN 4994.097528390113 1.0001299103801966 1496.0 1.0 1496.0 
60.00040553626063 210338.0 NaN 4991.043420173681 1.0002283605984787 1495.0 1.0 1495.0 
70.00040553626063 210293.0 NaN 1528.032064128255 1.0001522743477178 550.0 1.0 366.0 
80.00040553626063 210317.0 NaN 1537.2718770875092 0.9999855788842916 531.0 1.0 369.0 
90.00040553626063 210388.0 NaN 1537.2665330661334 1.000049130706799 529.0 1.0 369.0 
100.00040553626063 210502.0 NaN 1540.3286573146277 0.9999366952714923 526.0 1.0 370.0 
110.00040553626063 210620.0 NaN 1540.3366733466933 0.9998706486492936 527.0 1.0 370.0 
120.00040553626063 210658.0 NaN 1540.3259853039424 0.9998823096303253 529.0 1.0 370.0 
130.00040553626064 210650.0 NaN 1537.2157648630607 0.9998231185666192 528.0 1.0 369.0 
140.00040553626064 210687.0 NaN 1531.1128924515701 0.9997345808878011 527.0 1.0 367.0 
150.00040553626064 210709.0 NaN 1534.188376753509 0.999822852379831 523.0 1.0 368.0 
160.00040553626064 210725.0 NaN 1531.1235804943212 1.0000306449068788 522.0 1.0 367.0 
170.00040553626064 210726.0 NaN 1537.2611890447547 0.9997873367054227 522.0 1.0 369.0 
180.00040553626064 210734.0 NaN 1531.1449565798275 1.0000503428721037 524.0 1.0 367.0 
190.00040553626064 210730.0 NaN 1531.163660654643 1.0003657969472701 519.0 1.0 367.0 
200.00040553626064 210747.0 NaN 1537.3146292585184 1.0002295164051174 520.0 1.0 369.0 
210.00040553626064 210830.0 NaN 1531.1716766867069 1.0000788053234946 515.0 1.0 367.0 
220.00040553626064 210839.0 NaN 1528.1015364061454 1.000415986802213 515.0 1.0 366.0 
230.00040553626064 210881.0 NaN 1531.126252505009 1.000244001610462 512.0 2.0 366.0 
240.00040553626064 210914.0 NaN 1528.0534402137612 0.9999574920241968 511.0 2.0 365.0 
250.00040553626064 210986.0 NaN 1524.9512358049453 1.000043587155868 513.0 2.0 364.0 
260.00040553626064 210986.0 NaN 1524.9806279225115 0.9995498983915965 514.0 1.0 365.0 
270.00040553626064 211075.0 NaN 1531.169004676018 0.9998114186148964 513.0 1.0 367.0 
280.00040553626064 211149.0 NaN 1537.2024048096182 1.000086220497238 516.0 1.0 369.0 
290.00040553626064 211096.0 NaN 1531.083500334 1.0002486564190154 511.0 1.0 367.0 
300.00040553626064 211054.0 NaN 1531.0754843019363 1.0000746984064979 509.0 1.0 367.0 
310.00040553626064 210939.0 NaN 1528.0053440213753 0.9999277901083566 507.0 1.0 366.0 
320.00040553626064 210965.0 NaN 1534.1295925183704 1.0000112706702748 508.0 2.0 367.0 
330.00040553626064 210929.0 NaN 1534.1082164328639 1.0003497163008161 508.0 1.0 368.0 
340.00040553626064 210832.0 NaN 1531.070140280561 1.0000861682254838 511.0 1.0 367.0 
350.00040553626064 210721.0 NaN 1531.0514362057456 1.0001003487577844 516.0 1.0 367.0 
360.00040553626064 210697.0 NaN 1524.8897795591183 1.0003197495631306 514.0 2.0 364.0 
370.00040553626064 210583.0 NaN 1506.471609886439 1.00049902595465 516.0 2.0 358.0 
380.00040553626064 210351.0 NaN 1509.512358049433 1.000451754376913 517.0 2.0 359.0 
390.00040553626064 210142.0 NaN 1509.5711422845698 1.000485875548485 516.0 2.0 359.0 
400.00040553626064 210028.0 NaN 1506.482297929191 1.0007011525371798 518.0 2.0 358.0 
410.00040553626064 210052.0 NaN 1518.7869071476277 1.0004295079209973 522.0 2.0 362.0 
420.00040553626064 210028.0 NaN 1512.6172344689369 1.0004541449740996 515.0 2.0 360.0 
430.00040553626064 209989.0 NaN 1500.2939211756843 1.0003473178558753 512.0 2.0 356.0 
440.00040553626064 209952.0 NaN 1512.622578490315 1.000285402093525 518.0 2.0 360.0 
450.00040553626064 209919.0 NaN 1534.1135604542426 1.000302934923806 526.0 2.0 367.0 
460.00040553626064 209839.0 NaN 1540.2992651970612 1.0001301107137053 525.0 2.0 369.0 
470.00040553626064 209760.0 NaN 1531.0835003340005 1.0006345797286111 519.0 2.0 366.0 
480.00040553626064 209671.0 NaN 1518.7494989979969 1.0000071441540108 516.0 1.0 363.0 
490.00040553626064 209727.0 NaN 1497.2478289913172 1.0003176323253944 512.0 1.0 356.0 
500.00040553626064 209701.0 NaN 1491.08617234469 1.0001089332127433 507.0 1.0 354.0 
510.00040553626064 209691.0 NaN 1494.215096860388 1.0004172263920752 511.0 1.0 355.0 
520.0004055362606 209675.0 NaN 1475.756847027389 1.0005151550960019 509.0 1.0 349.0 
530.0004055362606 209671.0 NaN 1451.1957247828996 1.0002813310436491 505.0 1.0 341.0 
540.0004055362606 209742.0 NaN 1466.5651302605204 1.0001974619009695 505.0 1.0 346.0 
550.0004055362606 209746.0 NaN 1466.522378089512 1.0004235446947825 509.0 2.0 345.0 
560.0004055362606 209728.0 NaN 1466.4983299933194 1.0004134046577255 511.0 1.0 346.0 
570.0004055362606 209783.0 NaN 1472.713426853708 1.000227209677171 508.0 1.0 348.0 
580.0004055362606 209883.0 NaN 1472.7080828323305 1.000344610443272 513.0 1.0 348.0 
590.0004055362606 209901.0 NaN 1469.5764863059455 1.0002845508927447 516.0 1.0 347.0 
600.0004055362606 209988.0 NaN 1488.0267201068807 1.000148699153225 525.0 1.0 353.0 
610.0004055362606 210011.0 NaN 1497.2505010020031 1.0004425376310526 527.0 1.0 356.0 
620.0004055362606 209985.0 NaN 1497.2959251837 0.9998868535951131 525.0 1.0 356.0 
630.0004055362606 210008.0 NaN 1509.6192384769547 0.9999882469776724 521.0 1.0 360.0 
640.0004055362606 210048.0 NaN 1506.5571142284562 0.9999370217819749 529.0 1.0 359.0 
650.0004055362606 210162.0 NaN 1521.929191716766 0.9999910883517148 519.0 1.0 364.0 
660.0004055362606 210304.0 NaN 1524.9913159652635 0.9999811333744162 518.0 1.0 365.0 
#####################################################################
# End of data export. Simulation finished at: 2019-03-02T16:44+0000 #
#####################################################################
