#####################################################################
# Alchemist log file - simulation started at: 2019-03-06T11:15+0000 #
#####################################################################
# seed = 4.0, bandwidth = 4216.965034285822, propagationDelay = 3.1622776601683795, baserange = 562.341325190349
#
# The columns have the following meaning: 
# time neighbor_count[Sum] <value>@neighbor_count[Sum] packet_size[Mean] mean_delay[Mean] crowd[Sum] overcrowded[Sum] risk[Sum] 
0.0 NaN NaN NaN NaN NaN NaN NaN 
2.0004793365590676 NaN NaN 4988.0 NaN 1497.0 0.0 1497.0 
4.00042902272939 NaN NaN 4988.0 NaN 1497.0 0.0 1497.0 
6.000479336559067 92832.0 NaN 4992.606546426186 0.6823128132248253 1497.0 0.0 1497.0 
8.000479336559067 98210.0 NaN 4995.030060120241 2.6511402298403532 1497.0 0.0 1497.0 
10.000479336559067 98210.0 NaN 4995.030060120241 3.611134593430553 1497.0 0.0 1497.0 
12.000479336559067 98210.0 NaN 4994.773547094188 1.6519053717834744 1497.0 0.0 1497.0 
14.00042902272939 98210.0 NaN 4994.332665330661 3.6512324242733802 1497.0 0.0 1497.0 
16.000479336559067 98236.0 NaN 4993.210420841683 0.9509351903841659 1495.0 2.0 1495.0 
18.000479336559067 98240.0 NaN 4992.927187708751 2.6509890967405467 1495.0 2.0 1495.0 
20.000479336559067 98253.0 NaN 4992.985971943888 3.6125058208798384 1494.0 3.0 1494.0 
22.000479336559067 98270.0 NaN 4995.796927187709 1.6545195733432614 1497.0 0.0 1497.0 
24.000429022729392 98270.0 NaN 4995.3613894455575 3.653846625833167 1497.0 0.0 1497.0 
26.000479336559067 98324.0 NaN 4995.54843019372 0.9561655265916954 1497.0 0.0 1497.0 
28.000479336559067 98328.0 NaN 4995.24916499666 2.6569987340194765 1497.0 0.0 1497.0 
30.00015779478874 98340.0 NaN 4995.3373413493655 3.623520916867031 1497.0 0.0 1497.0 
32.00047933655907 98374.0 NaN 4993.498997995992 1.6642870909507004 1497.0 0.0 1497.0 
34.00042902272939 98374.0 NaN 4993.015364061456 3.6636141434406064 1497.0 0.0 1497.0 
36.00047933655907 98427.0 NaN 4993.595190380762 0.9732077199671711 1495.0 2.0 1495.0 
38.00047933655907 98430.0 NaN 4994.212424849699 2.675817320923252 1495.0 2.0 1495.0 
40.00047933655907 98457.0 NaN 4994.271209084836 3.638084900835881 1494.0 3.0 1494.0 
42.00047933655907 98503.0 NaN 4994.818971275885 1.6875468344722286 1497.0 0.0 1497.0 
44.00042902272939 98503.0 NaN 4994.340681362725 3.6868738869621343 1497.0 0.0 1497.0 
46.00047933655907 98532.0 NaN 4994.260521042084 0.9831719374082788 1495.0 2.0 1495.0 
48.00047933655907 98533.0 NaN 4993.448229792919 2.6869177555571584 1495.0 2.0 1495.0 
50.00047933655907 98543.0 NaN 4993.496325985304 3.653019773366898 1494.0 3.0 1494.0 
52.00047933655907 98600.0 NaN 4995.764863059452 1.7022235709575713 1497.0 0.0 1497.0 
54.00042902272939 98600.0 NaN 4995.2625250501005 3.701550623447477 1497.0 0.0 1497.0 
56.00047933655907 98612.0 NaN 4995.625918503674 0.9977110412340223 1497.0 0.0 1497.0 
58.00047933655907 98621.0 NaN 4995.620574482298 2.7028320688676395 1497.0 0.0 1497.0 
60.00047933655907 98643.0 NaN 4992.590514362058 3.6648762432010487 1497.0 0.0 1496.0 
62.00047933655907 98726.0 NaN 1522.5731462925849 1.7069356349445255 838.0 0.0 365.0 
64.00011572881759 98741.0 NaN 1522.5410821643275 3.0475217816535314 802.0 0.0 365.0 
66.00047933655907 98776.0 NaN 1525.5898463593849 1.4984447642420151 664.0 3.0 363.0 
68.0001157288176 98789.0 NaN 1525.3440213760848 2.710013794892441 647.0 3.0 363.0 
70.00047933655907 98835.0 NaN 1525.3360053440208 2.1835419464961827 595.0 6.0 360.0 
72.0001157288176 98849.0 NaN 1525.4936539746177 2.483750565968296 591.0 3.0 363.0 
74.00042902272939 98893.0 NaN 1525.4455577822303 2.2132076379121135 575.0 3.0 363.0 
76.0001157288176 98841.0 NaN 1531.6098864395453 2.2796718220166876 573.0 2.0 366.0 
78.00047933655907 98865.0 NaN 1534.3861055444213 1.9357828722667836 554.0 2.0 367.0 
80.0001157288176 98873.0 NaN 1537.4802939211754 2.9751436944718317 552.0 3.0 367.0 
82.00047933655907 98918.0 NaN 1538.0253841015365 1.6753333817866252 543.0 4.0 366.0 
84.0001157288176 98926.0 NaN 1537.987975951903 2.9736434833142282 544.0 4.0 366.0 
86.00047933655907 98938.0 NaN 1537.9639278557092 1.4927774035360268 535.0 5.0 365.0 
88.0001157288176 98940.0 NaN 1537.6005344021366 2.7226110412574758 535.0 4.0 366.0 
90.00047933655907 98961.0 NaN 1537.5845023380089 2.194470146524704 535.0 3.0 367.0 
92.0001157288176 98969.0 NaN 1537.8944555778212 2.472126163727414 537.0 1.0 369.0 
94.00042902272939 99011.0 NaN 1537.88376753507 2.198913778785993 535.0 1.0 369.0 
96.0001157288176 98986.0 NaN 1537.9372077488304 2.28313530741384 532.0 4.0 366.0 
98.00047933655907 99002.0 NaN 1537.5657982631913 1.9390302213694763 531.0 3.0 367.0 
100.0001157288176 98981.0 NaN 1540.6519706078818 2.954529393196351 532.0 2.0 369.0 
102.00047933655907 99010.0 NaN 1540.8871075484299 1.6773834990550958 532.0 2.0 369.0 
104.0001157288176 98984.0 NaN 1540.873747494991 2.9664354160891735 531.0 2.0 369.0 
106.00047933655907 99004.0 NaN 1540.9031396125577 1.4938054791868174 527.0 5.0 366.0 
108.0001157288176 99012.0 NaN 1540.513026052103 2.7225558479694136 525.0 5.0 366.0 
110.00047933655907 99079.0 NaN 1540.4969939879754 2.193325598450807 524.0 4.0 367.0 
112.0001157288176 99096.0 NaN 1540.999331997327 2.4757611708419804 526.0 2.0 369.0 
114.00042902272939 99147.0 NaN 1540.9752839011364 2.206597170362658 525.0 3.0 368.0 
116.0001157288176 99133.0 NaN 1540.9645958583822 2.2851896064324193 523.0 5.0 366.0 
118.00047933655907 99123.0 NaN 1549.827655310621 1.9384165461214187 524.0 5.0 369.0 
120.0001157288176 99085.0 NaN 1546.7361389445546 2.9542012761978635 525.0 4.0 369.0 
122.00047933655907 99093.0 NaN 1550.0868403473637 1.676183553860946 529.0 1.0 373.0 
124.0001157288176 99065.0 NaN 1550.052104208418 2.9613596613340407 529.0 1.0 373.0 
126.00047933655907 99041.0 NaN 1550.0280561122247 1.4909807708070502 526.0 4.0 370.0 
128.0001157288176 99040.0 NaN 1549.7047428189726 2.7100085603931525 527.0 3.0 371.0 
130.00047933655907 99047.0 NaN 1546.6372745491 2.1776193329790594 528.0 2.0 371.0 
132.0001157288176 99032.0 NaN 1547.1422845691366 2.458543533299961 528.0 2.0 371.0 
134.0004290227294 99045.0 NaN 1547.1396125584517 2.1849703534697453 528.0 2.0 371.0 
136.0001157288176 99008.0 NaN 1540.985971943888 2.271472704951521 525.0 5.0 366.0 
138.00047933655907 99008.0 NaN 1540.625250501 1.924598848494521 525.0 5.0 366.0 
140.0001157288176 98984.0 NaN 1537.5337341349364 2.9444450959765 523.0 4.0 366.0 
142.00047933655907 99010.0 NaN 1544.09619238477 1.6789672688462423 527.0 2.0 370.0 
144.0001157288176 98993.0 NaN 1544.064128256512 2.9577866732892795 525.0 2.0 370.0 
146.00047933655907 98989.0 NaN 1547.219772879091 1.500392588326743 524.0 5.0 368.0 
148.0001157288176 98971.0 NaN 1549.9345357381426 2.6961295698685475 524.0 5.0 369.0 
150.00047933655907 99005.0 NaN 1549.9398797595181 2.169423795484484 524.0 4.0 370.0 
152.0001157288176 99008.0 NaN 1553.1730126920515 2.4567071301991494 527.0 2.0 373.0 
154.0004290227294 98999.0 NaN 1547.0273881095547 2.183709452600385 527.0 2.0 371.0 
156.0001157288176 98992.0 NaN 1544.002672010688 2.277675463842373 522.0 4.0 368.0 
158.00047933655907 99033.0 NaN 1543.7808951235818 1.9380716887573717 523.0 3.0 369.0 
160.0001157288176 99005.0 NaN 1543.8102872411484 2.9329074087143514 519.0 3.0 369.0 
162.00047933655907 99020.0 NaN 1544.1175684702725 1.6797688696647088 520.0 3.0 369.0 
164.0001157288176 99011.0 NaN 1544.093520374082 2.9356356248884423 520.0 3.0 369.0 
166.00047933655907 99012.0 NaN 1547.1449565798275 1.4986888266115759 516.0 6.0 367.0 
168.0001157288176 99006.0 NaN 1546.7548430193729 2.6878840197768086 516.0 6.0 367.0 
170.00047933655907 99026.0 NaN 1540.627922511691 2.1651141657969846 517.0 5.0 366.0 
172.0001157288176 98998.0 NaN 1544.1309285237155 2.4543587507829088 521.0 2.0 370.0 
174.0004290227294 99004.0 NaN 1541.0126920507662 2.173549398399196 523.0 2.0 369.0 
176.0001157288176 99009.0 NaN 1541.0046760187026 2.2802169519482822 522.0 5.0 366.0 
178.00047933655907 99036.0 NaN 1540.6412825651298 1.9323059664996989 522.0 4.0 367.0 
180.0001157288176 99011.0 NaN 1540.643954575818 2.92756780727375 521.0 3.0 368.0 
182.00047933655907 99010.0 NaN 1541.0340681362727 1.6837768963165016 524.0 1.0 370.0 
184.0001157288176 99001.0 NaN 1537.9532398129609 2.926677647940534 522.0 1.0 369.0 
186.00047933655907 99002.0 NaN 1541.0207080828336 1.5114953784052725 516.0 4.0 367.0 
188.0001157288176 98994.0 NaN 1537.6245824983298 2.6873759666890287 517.0 3.0 367.0 
190.00047933655907 99002.0 NaN 1534.5277221108886 2.1700689605591212 517.0 2.0 367.0 
192.0001157288176 98986.0 NaN 1538.0093520374094 2.4552270295547682 518.0 1.0 369.0 
194.0004290227294 98993.0 NaN 1534.8830995324 2.1838775729209896 518.0 1.0 368.0 
196.0001157288176 98937.0 NaN 1537.9719438877753 2.281743743882485 516.0 4.0 366.0 
198.00047933655907 98934.0 NaN 1537.4909819639272 1.9408443571019873 517.0 3.0 367.0 
200.0001157288176 98944.0 NaN 1537.5310621242481 2.9413249352769832 518.0 2.0 368.0 
202.00047933655907 98950.0 NaN 1541.0688042752186 1.7150311208666176 520.0 1.0 370.0 
204.0001157288176 98930.0 NaN 1541.0474281897118 2.953636592840546 520.0 1.0 370.0 
206.00047933655907 98939.0 NaN 1547.238476953909 1.544221636201778 517.0 4.0 369.0 
208.0001157288176 98914.0 NaN 1543.7995991983973 2.7083562135003514 518.0 3.0 369.0 
210.00047933655907 98921.0 NaN 1540.753507014027 2.204372225638234 519.0 2.0 369.0 
212.0001157288176 98897.0 NaN 1537.8997995991997 2.479138603381435 517.0 1.0 369.0 
214.0004290227294 98914.0 NaN 1537.7955911823635 2.2158705379160923 515.0 1.0 369.0 
216.0001157288176 98838.0 NaN 1540.9164996659997 2.307256119971947 515.0 5.0 366.0 
218.00047933655907 98820.0 NaN 1540.5744822979273 1.97434096317215 515.0 4.0 367.0 
220.0001157288176 98811.0 NaN 1537.5096860387453 2.9607025518816554 514.0 3.0 367.0 
222.00047933655907 98843.0 NaN 1534.8911155644635 1.7403772129877064 516.0 1.0 368.0 
224.0001157288176 98810.0 NaN 1534.8510354041425 2.9710653054617415 516.0 1.0 368.0 
226.00047933655907 98776.0 NaN 1537.8303273213091 1.5697224792183975 512.0 4.0 366.0 
228.0001157288176 98778.0 NaN 1543.5938543754182 2.7205640184250557 514.0 3.0 369.0 
230.00047933655907 98789.0 NaN 1543.607214428857 2.224887284884371 516.0 2.0 370.0 
232.0001157288176 98764.0 NaN 1544.1496325985297 2.4857991307131346 516.0 1.0 371.0 
234.0004290227294 98788.0 NaN 1544.1576486305937 2.2279310084994512 517.0 1.0 371.0 
236.0001157288176 98757.0 NaN 1544.1255845023366 2.3046419964724025 512.0 4.0 368.0 
238.00047933655907 98763.0 NaN 1543.7461589846364 1.9709775537589589 513.0 3.0 369.0 
240.0001157288176 98758.0 NaN 1540.6973947895792 2.955193335545441 514.0 2.0 369.0 
242.00047933655907 98740.0 NaN 1537.8490313961272 1.7380404445187527 515.0 1.0 369.0 
244.0001157288176 98733.0 NaN 1534.7201068804272 2.955793254598822 515.0 1.0 368.0 
246.00047933655907 98694.0 NaN 1534.7361389445546 1.5738087498802569 513.0 4.0 365.0 
248.0001157288176 98665.0 NaN 1534.4502338009365 2.707436948861338 513.0 3.0 366.0 
250.00047933655907 98670.0 NaN 1534.426185704743 2.2142538400477774 514.0 2.0 367.0 
252.0001157288176 98639.0 NaN 1531.692718770875 2.4780332811811956 515.0 1.0 367.0 
254.0004290227294 98643.0 NaN 1531.6366065464274 2.217566689851825 515.0 1.0 367.0 
256.0001157288176 98584.0 NaN 1528.630594522379 2.307296840286234 514.0 4.0 363.0 
258.00047933655907 98581.0 NaN 1528.2832331329334 1.974820473550513 513.0 3.0 364.0 
260.0001157288176 98555.0 NaN 1528.2431529726116 2.9591193864359 514.0 2.0 365.0 
262.00047933655907 98529.0 NaN 1525.6860387441545 1.7496514706426285 516.0 1.0 365.0 
264.0001157288176 98511.0 NaN 1528.676018704073 2.967522887083182 517.0 1.0 366.0 
266.00047933655907 98483.0 NaN 1534.8697394789574 1.5869642816302163 513.0 5.0 364.0 
268.0001157288176 98456.0 NaN 1543.6686706746818 2.723984498891922 514.0 4.0 368.0 
270.00047933655907 98465.0 NaN 1543.6553106212432 2.2273708327135067 512.0 3.0 369.0 
272.0001157288176 98409.0 NaN 1540.9432197728793 2.5048254968899357 514.0 1.0 370.0 
274.0004290227294 98431.0 NaN 1537.8356713426845 2.23830891504855 514.0 1.0 369.0 
276.0001157288176 98357.0 NaN 1534.8376753507 2.3305307266201596 510.0 4.0 365.0 
278.00047933655907 98375.0 NaN 1540.6199064796274 2.000924211697978 513.0 3.0 368.0 
280.0001157288176 98327.0 NaN 1540.6038744154998 2.977655048670857 513.0 3.0 368.0 
282.00047933655907 98282.0 NaN 1540.999331997327 1.774012836173518 517.0 2.0 369.0 
284.0001157288176 98251.0 NaN 1540.8871075484294 2.9703445448071335 517.0 2.0 369.0 
286.00047933655907 98216.0 NaN 1534.8136272545091 1.5996370261772581 514.0 4.0 365.0 
288.0001157288176 98169.0 NaN 1534.4395457581818 2.7315247443932877 514.0 3.0 366.0 
290.00047933655907 98171.0 NaN 1528.3179692718752 2.2316263315284304 511.0 3.0 364.0 
292.0001157288176 98094.0 NaN 1528.7641950567818 2.496640807786421 507.0 3.0 364.0 
294.0004290227294 98090.0 NaN 1528.700066800266 2.23185337335713 508.0 3.0 364.0 
296.0001157288176 98018.0 NaN 1534.8590514362068 2.331871868398999 509.0 4.0 365.0 
298.00047933655907 98037.0 NaN 1534.3914495657998 1.997502411340972 508.0 3.0 366.0 
300.0001157288176 97968.0 NaN 1537.5390781563115 2.9589559392642566 509.0 2.0 368.0 
302.00047933655907 97923.0 NaN 1537.814295257182 1.7593245381351703 509.0 2.0 368.0 
304.0001157288176 97914.0 NaN 1534.7281229124908 2.9634636905844287 509.0 2.0 367.0 
306.00047933655907 97899.0 NaN 1534.8002672010703 1.5925332078726442 507.0 4.0 365.0 
308.0001157288176 97858.0 NaN 1534.4555778223091 2.7325686763887234 508.0 3.0 366.0 
310.00047933655907 97853.0 NaN 1528.2965931863728 2.231175638432387 509.0 2.0 365.0 
312.0001157288176 97785.0 NaN 1528.6840347361388 2.506975471967751 509.0 2.0 365.0 
314.0004290227294 97792.0 NaN 1528.5824983299929 2.243589851809338 508.0 2.0 365.0 
316.0001157288176 97693.0 NaN 1528.6706746826999 2.3376598303021394 508.0 4.0 363.0 
318.00047933655907 97691.0 NaN 1531.3961255845002 2.0072262301293895 508.0 3.0 365.0 
320.0001157288176 97654.0 NaN 1531.4068136272545 2.962739598854606 509.0 2.0 366.0 
322.00047933655907 97613.0 NaN 1528.662658650636 1.7773586984438492 509.0 1.0 366.0 
324.0001157288176 97582.0 NaN 1525.4722778891114 2.965719428482372 509.0 1.0 365.0 
326.00047933655907 97538.0 NaN 1531.65798263193 1.6048399755890455 506.0 4.0 364.0 
328.0001157288176 97489.0 NaN 1534.3780895123573 2.734329217149053 507.0 3.0 366.0 
330.00047933655907 97491.0 NaN 1531.3533734134937 2.2458188286109277 507.0 2.0 366.0 
332.0001157288176 97448.0 NaN 1528.716098864397 2.5239164989353546 507.0 1.0 366.0 
334.0004290227294 97418.0 NaN 1531.7648630594545 2.2653231958691054 508.0 1.0 367.0 
336.0001157288176 97304.0 NaN 1531.7889111556456 2.3577157692218567 505.0 5.0 363.0 
338.00047933655907 97294.0 NaN 1528.3820975283911 2.038717591480105 506.0 4.0 363.0 
340.0001157288176 97223.0 NaN 1525.2531730126907 2.989453130985313 507.0 3.0 363.0 
342.00047933655907 97182.0 NaN 1525.7287909151637 1.8039233819304175 510.0 1.0 365.0 
344.0001157288176 97142.0 NaN 1528.7294589178364 2.9974824927718586 511.0 1.0 366.0 
346.00047933655907 97083.0 NaN 1534.9418837675362 1.6410557159020074 508.0 4.0 365.0 
348.0001157288176 97021.0 NaN 1531.4362057448243 2.7342891247464394 510.0 3.0 365.0 
350.00047933655907 97025.0 NaN 1531.4041416165662 2.2411611573496195 513.0 2.0 366.0 
352.0001157288176 96993.0 NaN 1528.6118904475632 2.5192394392548767 513.0 1.0 366.0 
354.0004290227294 96983.0 NaN 1525.4963259853032 2.253615260552621 513.0 1.0 365.0 
356.0001157288176 96888.0 NaN 1525.6085504342007 2.350338711988804 511.0 4.0 362.0 
358.00047933655907 96872.0 NaN 1525.3012692050759 2.0188386849971027 512.0 3.0 363.0 
360.0001157288176 96834.0 NaN 1525.2718770875092 2.9543628338538364 513.0 2.0 364.0 
362.00047933655907 96839.0 NaN 1525.5898463593849 1.7800016517033967 514.0 1.0 365.0 
364.0001157288176 96821.0 NaN 1525.4909819639272 2.969483976142351 514.0 1.0 365.0 
366.00047933655907 96772.0 NaN 1525.5551102204392 1.6294422046185368 514.0 4.0 362.0 
368.0001157288176 96758.0 NaN 1513.0073480293916 2.7497682535425376 514.0 3.0 359.0 
370.00047933655907 96766.0 NaN 1503.7702070808275 2.257925603614844 517.0 2.0 357.0 
372.0001157288176 96708.0 NaN 1510.2177688710751 2.5258274837206116 517.0 1.0 360.0 
374.0004290227294 96703.0 NaN 1510.1376085504353 2.2621098926647907 517.0 1.0 360.0 
376.0001157288176 96619.0 NaN 1507.1155644622572 2.3678513874452753 514.0 4.0 356.0 
378.00047933655907 96631.0 NaN 1506.7708750835 2.0396914696515513 515.0 3.0 357.0 
380.0001157288176 96631.0 NaN 1506.709418837675 2.991206112838452 518.0 2.0 358.0 
382.00047933655907 96632.0 NaN 1507.2384769539083 1.8206636785569346 520.0 1.0 359.0 
384.0001157288176 96594.0 NaN 1507.115564462257 2.999140180454272 519.0 1.0 359.0 
386.00047933655907 96533.0 NaN 1513.3253173012697 1.6562424422317017 516.0 4.0 358.0 
388.0001157288176 96486.0 NaN 1516.114896459585 2.7640055240804684 516.0 3.0 360.0 
390.00047933655907 96481.0 NaN 1509.9879759519029 2.2508493836996752 517.0 3.0 358.0 
392.0001157288176 96447.0 NaN 1513.3921175684707 2.528006312098728 519.0 2.0 360.0 
394.0004290227294 96435.0 NaN 1513.3012692050756 2.2481118615728004 518.0 2.0 360.0 
396.0001157288176 96333.0 NaN 1516.4889779559114 2.3603115421589784 516.0 4.0 359.0 
398.00047933655907 96303.0 NaN 1516.2057448229796 2.0018866519955796 518.0 3.0 360.0 
400.0001157288176 96224.0 NaN 1509.9959919839669 2.955777374927849 519.0 2.0 359.0 
402.00047933655907 96223.0 NaN 1516.4221776887098 1.7661904957655408 520.0 1.0 362.0 
404.0001157288176 96198.0 NaN 1516.3126252505 2.960232655343451 520.0 1.0 362.0 
406.00047933655907 96166.0 NaN 1516.3714094856368 1.6125383367238753 519.0 4.0 359.0 
408.0001157288176 96115.0 NaN 1519.201068804275 2.724824721551653 520.0 3.0 361.0 
410.00047933655907 96110.0 NaN 1519.169004676018 2.22155777450465 521.0 2.0 362.0 
412.0001157288176 96102.0 NaN 1525.7581830327333 2.5165238310213867 522.0 1.0 365.0 
414.0004290227294 96078.0 NaN 1525.6513026052096 2.2409344785018708 522.0 1.0 365.0 
416.0001157288176 96060.0 NaN 1525.7100868403459 2.3653933503500792 521.0 4.0 362.0 
418.00047933655907 96053.0 NaN 1519.2358049432187 2.0278683034854916 519.0 3.0 361.0 
420.0001157288176 96023.0 NaN 1513.1142284569148 2.992820167233625 519.0 2.0 360.0 
422.00047933655907 96045.0 NaN 1519.5110220440883 1.820617262481316 518.0 1.0 363.0 
424.0001157288176 96041.0 NaN 1516.3607214428848 3.0166618245438666 517.0 2.0 361.0 
426.00047933655907 96002.0 NaN 1513.311957247828 1.669569061502822 513.0 4.0 358.0 
428.0001157288176 95969.0 NaN 1509.9959919839669 2.792399283490147 513.0 3.0 358.0 
430.00047933655907 95946.0 NaN 1513.138276553107 2.2779205102954254 518.0 2.0 360.0 
432.0001157288176 95897.0 NaN 1516.3954575818295 2.553423811198493 522.0 1.0 362.0 
434.0004290227294 95890.0 NaN 1522.5303941215757 2.262655537397733 526.0 1.0 364.0 
436.0001157288176 95826.0 NaN 1528.654642618572 2.379677337324557 522.0 4.0 363.0 
438.00047933655907 95798.0 NaN 1531.5136940547754 2.0352142002738147 523.0 3.0 365.0 
440.0001157288176 95729.0 NaN 1534.5758183032729 2.975705278257361 527.0 2.0 367.0 
442.00047933655907 95706.0 NaN 1534.8937875751517 1.8115168072601318 529.0 1.0 368.0 
444.0001157288176 95676.0 NaN 1534.8804275217092 2.9716048984804897 528.0 2.0 367.0 
446.00047933655907 95659.0 NaN 1525.6085504342004 1.6242836243907213 526.0 4.0 362.0 
448.0001157288176 95642.0 NaN 1531.5270541082177 2.7434416642380484 525.0 3.0 365.0 
450.00047933655907 95657.0 NaN 1540.753507014027 2.2381361840744587 525.0 2.0 369.0 
452.0001157288176 95623.0 NaN 1550.1189044756184 2.5430766102972324 526.0 1.0 373.0 
454.0004290227294 95647.0 NaN 1550.1349365397452 2.24983420351547 527.0 1.0 373.0 
456.0001157288176 95604.0 NaN 1550.1135604542428 2.3720255876434386 521.0 5.0 369.0 
458.00047933655907 95602.0 NaN 1549.8329993319974 2.021112204328474 522.0 4.0 370.0 
460.0001157288176 95559.0 NaN 1546.6933867735456 2.969838586450687 524.0 3.0 370.0 
462.00047933655907 95564.0 NaN 1544.032064128255 1.8219730838771127 522.0 1.0 371.0 
464.0001157288176 95535.0 NaN 1544.0988643954572 2.951665889772346 522.0 1.0 371.0 
466.00047933655907 95545.0 NaN 1547.0541082164336 1.6280280359230233 520.0 5.0 368.0 
468.0001157288176 95509.0 NaN 1546.7575150300609 2.7330650851940703 521.0 4.0 369.0 
470.00047933655907 95490.0 NaN 1543.6820307281243 2.2155874669529547 522.0 3.0 369.0 
472.0001157288176 95474.0 NaN 1544.032064128255 2.5228669711652683 524.0 1.0 371.0 
474.0004290227294 95495.0 NaN 1537.9372077488301 2.2290601693390126 522.0 1.0 369.0 
476.0001157288176 95456.0 NaN 1528.6813627254517 2.360584254487296 517.0 5.0 362.0 
478.00047933655907 95474.0 NaN 1525.3012692050756 2.008586932613248 518.0 4.0 362.0 
480.0001157288176 95438.0 NaN 1525.2718770875092 2.931322907216976 517.0 3.0 363.0 
482.00047933655907 95476.0 NaN 1528.6092184368727 1.793111507219851 520.0 1.0 366.0 
484.0001157288176 95483.0 NaN 1528.6546426185723 2.948392106571937 520.0 1.0 366.0 
486.00047933655907 95509.0 NaN 1519.388109552437 1.6384711048164224 515.0 5.0 359.0 
488.0001157288176 95506.0 NaN 1516.1175684702728 2.7308417156847855 515.0 4.0 359.0 
490.00047933655907 95504.0 NaN 1500.734802939211 2.2124626226438675 516.0 3.0 355.0 
492.0001157288176 95503.0 NaN 1497.9158316633273 2.5082367903734073 516.0 1.0 356.0 
494.0004290227294 95532.0 NaN 1494.8082832331336 2.201615936843973 517.0 1.0 355.0 
496.0001157288176 95512.0 NaN 1497.8891115564456 2.3380477194337197 508.0 5.0 352.0 
498.00047933655907 95532.0 NaN 1494.5784903139618 1.9866223803252983 508.0 4.0 352.0 
500.0001157288176 95521.0 NaN 1491.486973947897 2.906876565401705 509.0 3.0 352.0 
502.00047933655907 95531.0 NaN 1491.7595190380755 1.7862845147905813 514.0 1.0 354.0 
504.0001157288176 95519.0 NaN 1494.8056112224456 2.9261077085884954 516.0 1.0 355.0 
506.00047933655907 95540.0 NaN 1491.775551102203 1.633230581548381 513.0 5.0 350.0 
508.0001157288176 95528.0 NaN 1488.4569138276547 2.717132664713607 513.0 4.0 350.0 
510.00047933655907 95517.0 NaN 1491.529726118906 2.199749580385596 512.0 3.0 352.0 
512.0001157288176 95522.0 NaN 1494.8323313293263 2.5139050322319307 517.0 1.0 355.0 
514.0004290227293 95565.0 NaN 1491.748830995325 2.2108031487677025 516.0 1.0 354.0 
516.0001157288176 95548.0 NaN 1485.6032064128265 2.3560936410131124 509.0 6.0 347.0 
518.000479336559 95561.0 NaN 1473.074148296592 2.001273434391162 509.0 5.0 344.0 
520.0001157288176 95519.0 NaN 1463.8637274549094 2.9122762708945187 511.0 3.0 343.0 
522.000479336559 95555.0 NaN 1458.0066800267193 1.7947343640755247 514.0 1.0 343.0 
524.0001157288176 95559.0 NaN 1457.9799599198388 2.9261250736045286 512.0 1.0 343.0 
526.000479336559 95577.0 NaN 1460.9993319973275 1.645604536622842 503.0 5.0 340.0 
528.0001157288176 95555.0 NaN 1451.4468937875747 2.7257861329165545 501.0 4.0 338.0 
530.000479336559 95574.0 NaN 1451.4843019372083 2.2166605456538573 501.0 3.0 339.0 
532.0001157288176 95587.0 NaN 1467.249164996661 2.5274025448854323 507.0 1.0 346.0 
534.0004290227293 95595.0 NaN 1467.190380761524 2.227706592837045 505.0 1.0 346.0 
536.0001157288176 95614.0 NaN 1467.2678690714754 2.374780100888295 502.0 5.0 342.0 
538.000479336559 95667.0 NaN 1463.8797595190374 2.0281592636827117 504.0 4.0 342.0 
540.0001157288176 95641.0 NaN 1460.8630594522372 2.950112473743516 504.0 3.0 342.0 
542.000479336559 95684.0 NaN 1473.4188376753516 1.8307991077875632 506.0 1.0 348.0 
544.0001157288176 95686.0 NaN 1476.4088176352714 2.960645852382055 509.0 1.0 349.0 
546.000479336559 95671.0 NaN 1473.338677354709 1.6732713349536241 507.0 5.0 344.0 
548.0001157288176 95642.0 NaN 1469.9772879091522 2.740940434253461 508.0 4.0 344.0 
550.000479336559 95649.0 NaN 1470.0334001336 2.2357322617587503 509.0 3.0 345.0 
552.0001157288176 95644.0 NaN 1470.1883767535078 2.5176588853176716 512.0 1.0 347.0 
554.0004290227293 95717.0 NaN 1470.0814963259847 2.20439476410634 512.0 1.0 347.0 
556.0001157288176 95758.0 NaN 1470.2097528390104 2.361566814339896 508.0 5.0 343.0 
558.000479336559 95795.0 NaN 1466.9311957247821 1.9938100175106221 510.0 4.0 343.0 
560.0001157288176 95782.0 NaN 1466.9472277889104 2.919181332899771 510.0 3.0 344.0 
562.000479336559 95859.0 NaN 1470.180360721443 1.7905935340646941 510.0 1.0 347.0 
564.0001157288176 95891.0 NaN 1460.908483633935 2.901118963825105 509.0 1.0 344.0 
566.000479336559 95975.0 NaN 1464.072144288577 1.630562990653686 508.0 5.0 341.0 
568.0001157288176 95968.0 NaN 1479.281229124917 2.6933478878689856 511.0 4.0 347.0 
570.000479336559 95962.0 NaN 1488.5397461589841 2.187156928264921 512.0 3.0 351.0 
572.0001157288176 95968.0 NaN 1485.6673346693376 2.5106659456579057 515.0 1.0 352.0 
574.0004290227293 96004.0 NaN 1482.4903139612554 2.199578742794917 514.0 1.0 351.0 
576.0001157288176 96023.0 NaN 1485.6085504342013 2.360727035262932 509.0 5.0 348.0 
578.000479336559 96087.0 NaN 1485.3573814295262 1.9976319470813007 510.0 4.0 349.0 
580.0001157288176 96078.0 NaN 1491.5965263861062 2.9322538283107575 511.0 3.0 352.0 
582.000479336559 96094.0 NaN 1491.8076152304616 1.8149384755335214 514.0 1.0 354.0 
584.0001157288176 96100.0 NaN 1491.7808951235809 2.9515744386916216 516.0 1.0 354.0 
586.000479336559 96190.0 NaN 1491.7808951235809 1.6837566519030174 515.0 6.0 349.0 
588.0001157288176 96159.0 NaN 1488.3954575818293 2.764640623187299 517.0 5.0 349.0 
590.000479336559 96152.0 NaN 1488.4435537742163 2.2544046881066713 520.0 4.0 350.0 
592.0001157288176 96088.0 NaN 1491.7274549098192 2.58345637831907 526.0 1.0 354.0 
594.0004290227293 96073.0 NaN 1494.7628590514364 2.241882049012045 525.0 1.0 355.0 
596.0001157288176 96036.0 NaN 1491.7327989311966 2.408980990459203 522.0 5.0 350.0 
598.000479336559 96060.0 NaN 1494.5410821643284 2.042630284799417 526.0 4.0 352.0 
600.0001157288176 96009.0 NaN 1497.637942551771 2.960272200220816 526.0 3.0 354.0 
602.000479336559 95996.0 NaN 1503.8957915831654 1.8450688451340642 532.0 1.0 358.0 
604.0001157288176 95995.0 NaN 1503.8263193052758 2.9542730821540544 531.0 1.0 358.0 
606.000479336559 96043.0 NaN 1507.0113560454254 1.6836383391244092 528.0 5.0 355.0 
608.0001157288176 96020.0 NaN 1509.8223112892456 2.757601951337325 530.0 4.0 357.0 
610.000479336559 95997.0 NaN 1516.0641282565123 2.232141732901264 527.0 4.0 359.0 
612.0001157288176 95979.0 NaN 1513.2505010020031 2.5523072992753737 530.0 1.0 361.0 
614.0004290227293 96038.0 NaN 1510.142952571809 2.224064650756014 527.0 1.0 360.0 
616.0001157288176 95986.0 NaN 1510.1376085504355 2.3697915809465897 525.0 5.0 356.0 
618.000479336559 95963.0 NaN 1509.835671342685 1.996566777198383 525.0 4.0 357.0 
620.0001157288176 95929.0 NaN 1516.0374081496334 2.905752839165105 528.0 3.0 360.0 
622.000479336559 95970.0 NaN 1522.5223780895114 1.8015909200874398 529.0 1.0 364.0 
624.0001157288176 95969.0 NaN 1522.476953907816 2.9166655773170125 529.0 1.0 364.0 
626.000479336559 95983.0 NaN 1525.6539746158992 1.6479365318452068 523.0 5.0 361.0 
628.0001157288176 95964.0 NaN 1525.3894455577818 2.713821238438909 523.0 4.0 362.0 
630.000479336559 95968.0 NaN 1525.4829659318634 2.193522603901342 524.0 3.0 363.0 
632.0001157288176 95956.0 NaN 1519.3800935203735 2.5305310026758536 524.0 1.0 363.0 
634.0004290227293 95974.0 NaN 1522.3540414161644 2.20028257065806 520.0 2.0 363.0 
636.0001157288176 95949.0 NaN 1522.476953907816 2.3682804401593986 516.0 6.0 359.0 
638.000479336559 95970.0 NaN 1519.2251169004667 1.9939687056143203 520.0 4.0 360.0 
640.0001157288176 95942.0 NaN 1519.2625250501 2.9237004853933897 518.0 4.0 360.0 
642.000479336559 95947.0 NaN 1522.6239144956576 1.8321966472273492 524.0 2.0 363.0 
644.0001157288176 95917.0 NaN 1522.5384101536395 2.934690628631819 528.0 2.0 363.0 
646.000479336559 95918.0 NaN 1528.6653306613218 1.6763561213562572 529.0 5.0 362.0 
648.0001157288176 95905.0 NaN 1528.3687374749486 2.7434537326581605 529.0 4.0 363.0 
650.000479336559 95929.0 NaN 1522.2605210420834 2.224680811769354 528.0 3.0 362.0 
652.0001157288176 95925.0 NaN 1522.4422177688716 2.5749574956469194 526.0 1.0 364.0 
654.0004290227293 95955.0 NaN 1525.472277889111 2.2424798424972168 524.0 1.0 365.0 
656.0001157288176 95933.0 NaN 1537.9158316633275 2.427330009866698 518.0 5.0 365.0 
658.000479336559 95965.0 NaN 1543.8370073480282 2.041679341512343 518.0 4.0 368.0 
660.0001157288176 95927.0 NaN 1546.952571810288 2.9681674253788906 517.0 3.0 370.0 
662.000479336559 95950.0 NaN 1547.1422845691375 1.8693393925844328 519.0 1.0 372.0 
664.0001157288176 95908.0 NaN 1544.0293921175696 2.962398357660402 518.0 1.0 371.0 
#####################################################################
# End of data export. Simulation finished at: 2019-03-06T11:38+0000 #
#####################################################################
