#####################################################################
# Alchemist log file - simulation started at: 2019-03-02T16:10+0000 #
#####################################################################
# seed = 0.0, bandwidth = 2.3713737056616552E7, propagationDelay = 3.1622776601683795, baserange = 1000.0
#
# The columns have the following meaning: 
# time neighbor_count[Sum] <value>@neighbor_count[Sum] packet_size[Mean] mean_delay[Mean] crowd[Sum] overcrowded[Sum] risk[Sum] 
0.0 NaN NaN NaN NaN NaN NaN NaN 
10.000405536260626 210022.0 NaN 4993.929191716767 1.8385001007888402 1496.0 1.0 1496.0 
20.000405536260626 210050.0 NaN 4993.85704742819 2.43258460327197 1496.0 1.0 1496.0 
30.000405536260626 210149.0 NaN 4994.680026720107 1.8397977722703978 1496.0 1.0 1496.0 
40.00040553626063 210237.0 NaN 4994.728122912492 2.432647223851399 1496.0 1.0 1496.0 
50.00040553626063 210339.0 NaN 4993.889111556447 1.839299741674382 1496.0 1.0 1496.0 
60.00040553626063 210376.0 NaN 4990.832331329325 2.4344625114364016 1495.0 1.0 1495.0 
70.00040553626063 210377.0 NaN 1528.3660654642633 1.8414956761734864 604.0 1.0 366.0 
80.00040553626063 210315.0 NaN 1534.5384101536395 2.4326786086996597 551.0 1.0 368.0 
90.00040553626063 210391.0 NaN 1537.5951903807634 1.8392357886957442 537.0 1.0 369.0 
100.00040553626063 210493.0 NaN 1540.649298597194 2.432584188519349 532.0 1.0 370.0 
110.00040553626063 210629.0 NaN 1540.6813627254517 1.8388083179613686 529.0 1.0 370.0 
120.00040553626063 210656.0 NaN 1540.676018704073 2.4323983611080178 529.0 1.0 370.0 
130.00040553626064 210666.0 NaN 1537.520374081497 1.8390140260983692 529.0 1.0 369.0 
140.00040553626064 210678.0 NaN 1531.4255177020727 2.4317045527042516 528.0 1.0 367.0 
150.00040553626064 210732.0 NaN 1531.470941883767 1.8392690553684246 527.0 1.0 367.0 
160.00040553626064 210733.0 NaN 1531.4736138944545 2.432262471168525 528.0 1.0 367.0 
170.00040553626064 210745.0 NaN 1534.5303941215757 1.8390350845667365 526.0 1.0 368.0 
180.00040553626064 210733.0 NaN 1531.4869739478975 2.432317943781225 527.0 1.0 367.0 
190.00040553626064 210754.0 NaN 1531.5083500334 1.8394107713361023 522.0 1.0 367.0 
200.00040553626064 210741.0 NaN 1537.6887107548432 2.4328581452580798 523.0 1.0 369.0 
210.00040553626064 210811.0 NaN 1534.5624582498335 1.8395016995292908 518.0 1.0 368.0 
220.00040553626064 210830.0 NaN 1528.3954575818298 2.4319946053913233 518.0 1.0 366.0 
230.00040553626064 210870.0 NaN 1531.4816299265183 1.8394243713378857 516.0 1.0 367.0 
240.00040553626064 210888.0 NaN 1528.3874415497662 2.432117745878011 514.0 2.0 365.0 
250.00040553626064 210990.0 NaN 1525.261189044755 1.839321053523196 516.0 2.0 364.0 
260.00040553626064 210967.0 NaN 1525.2772211088843 2.4318179466772336 517.0 1.0 365.0 
270.00040553626064 211063.0 NaN 1531.5110220440883 1.8393973745742889 516.0 1.0 367.0 
280.00040553626064 211116.0 NaN 1537.5898463593844 2.4332846573770883 516.0 1.0 369.0 
290.00040553626064 211133.0 NaN 1534.4769539078159 1.8406380668770486 513.0 1.0 368.0 
300.00040553626064 211052.0 NaN 1528.3420173680704 2.4339062257443573 511.0 1.0 366.0 
310.00040553626064 210979.0 NaN 1531.4869739478977 1.8400340957922556 509.0 1.0 367.0 
320.00040553626064 210989.0 NaN 1534.498329993318 2.4334426884526925 507.0 2.0 367.0 
330.00040553626064 210989.0 NaN 1537.4909819639272 1.8404100412160314 509.0 1.0 369.0 
340.00040553626064 210841.0 NaN 1528.3019372077483 2.4339012299044605 510.0 1.0 366.0 
350.00040553626064 210785.0 NaN 1531.409485637943 1.840751401313554 516.0 1.0 367.0 
360.00040553626064 210694.0 NaN 1525.263861055445 2.4343642653782087 513.0 2.0 364.0 
370.00040553626064 210641.0 NaN 1512.9432197728795 1.8403027905066263 516.0 2.0 360.0 
380.00040553626064 210353.0 NaN 1509.8223112892456 2.434711528860884 517.0 2.0 359.0 
390.00040553626064 210217.0 NaN 1506.8456913827647 1.841309707789719 515.0 2.0 358.0 
400.00040553626064 210029.0 NaN 1506.8269873079485 2.436335400618394 518.0 2.0 358.0 
410.00040553626064 210083.0 NaN 1525.279893119573 1.8402424089847567 522.0 2.0 364.0 
420.00040553626064 210049.0 NaN 1516.0240480961916 2.435688825409438 519.0 2.0 361.0 
430.00040553626064 210056.0 NaN 1500.6733466933872 1.8410461258575619 517.0 2.0 356.0 
440.00040553626064 209931.0 NaN 1512.9405477621908 2.43517771019691 521.0 2.0 360.0 
450.00040553626064 210014.0 NaN 1531.3132932531726 1.8421970001627261 527.0 2.0 366.0 
460.00040553626064 209841.0 NaN 1543.6579826319298 2.433881496235655 526.0 1.0 371.0 
470.00040553626064 209823.0 NaN 1537.5364061456248 1.8419397876458246 524.0 1.0 369.0 
480.00040553626064 209689.0 NaN 1522.1215764863068 2.43311753664129 517.0 0.0 365.0 
490.00040553626064 209794.0 NaN 1506.70140280561 1.8418603251620924 515.0 1.0 359.0 
500.00040553626064 209731.0 NaN 1491.3453573814284 2.432749908205759 517.0 1.0 354.0 
510.00040553626064 209756.0 NaN 1497.5818303273204 1.8415131118242274 516.0 1.0 356.0 
520.0004055362606 209667.0 NaN 1479.1609886439546 2.433249391440119 514.0 1.0 350.0 
530.0004055362606 209705.0 NaN 1463.7568470273889 1.841365688864914 506.0 1.0 345.0 
540.0004055362606 209696.0 NaN 1466.8750835003345 2.433213242523587 505.0 1.0 346.0 
550.0004055362606 209824.0 NaN 1469.9478957915826 1.8416555105261254 510.0 1.0 347.0 
560.0004055362606 209736.0 NaN 1469.9318637274546 2.4344430783277904 510.0 2.0 346.0 
570.0004055362606 209846.0 NaN 1476.0587842351365 1.8407606502443914 508.0 2.0 348.0 
580.0004055362606 209864.0 NaN 1473.028724114897 2.4337385313695363 512.0 2.0 347.0 
590.0004055362606 209925.0 NaN 1476.0641282565125 1.8412506897282914 518.0 2.0 348.0 
600.0004055362606 209943.0 NaN 1485.2718770875088 2.4335306558921275 521.0 2.0 351.0 
610.0004055362606 210025.0 NaN 1500.6626586506352 1.8408555832854174 527.0 2.0 356.0 
620.0004055362606 209940.0 NaN 1500.6466265865072 2.4328602363661047 525.0 1.0 357.0 
630.0004055362606 210010.0 NaN 1516.0641282565123 1.8411730223551304 522.0 1.0 362.0 
640.0004055362606 209992.0 NaN 1513.0020040080171 2.4329453620342023 525.0 2.0 360.0 
650.0004055362606 210172.0 NaN 1522.249832999333 1.8399170843846755 521.0 1.0 364.0 
660.0004055362606 210261.0 NaN 1522.1723446893795 2.4328298994213067 519.0 1.0 364.0 
#####################################################################
# End of data export. Simulation finished at: 2019-03-02T16:59+0000 #
#####################################################################
