#####################################################################
# Alchemist log file - simulation started at: 2019-03-12T05:10+0000 #
#####################################################################
# seed = 6.0, bandwidth = 17782.79410038923, propagationDelay = 0.001, baserange = 177.82794100389228
#
# The columns have the following meaning: 
# time neighbor_count[Sum] <value>@neighbor_count[Sum] packet_size[Mean] mean_delay[Mean] crowd[Sum] overcrowded[Sum] risk[Sum] 
0.0 NaN NaN NaN NaN NaN NaN NaN 
2.0004620777245066 25570.0 NaN 4993.688710754843 0.48411107585240354 1497.0 0.0 1497.0 
4.00109307325982 26546.0 NaN 4993.859719438878 0.5043958043951638 1495.0 2.0 1495.0 
6.00109307325982 26546.0 NaN 4995.187708750835 0.5044519807464447 1493.0 4.0 1493.0 
8.00109307325982 26547.0 NaN 4994.904475617903 0.5045418571037935 1491.0 6.0 1491.0 
10.00109307325982 26555.0 NaN 4995.577822311289 0.5047397519953426 1490.0 7.0 1490.0 
12.00109307325982 26560.0 NaN 4995.519038076152 0.5049416826680238 1490.0 7.0 1490.0 
14.00109307325982 26560.0 NaN 4994.372745490982 0.5078490312424419 1490.0 7.0 1490.0 
16.00109307325982 26560.0 NaN 4994.658650634603 0.512260946153537 1490.0 7.0 1490.0 
18.001093073259824 26582.0 NaN 4995.607214428857 0.5170924575037432 1490.0 7.0 1490.0 
20.001093073259824 26590.0 NaN 4995.4148296593185 0.5242015864644374 1489.0 8.0 1489.0 
22.001093073259824 26592.0 NaN 4994.923179692719 0.5312677504786129 1489.0 8.0 1489.0 
24.001093073259824 26592.0 NaN 4995.2651970607885 0.53852403366992 1492.0 5.0 1492.0 
26.001093073259824 26617.0 NaN 4994.372745490982 0.5470585138437566 1490.0 7.0 1490.0 
28.001093073259824 26661.0 NaN 4995.067468269873 0.5564077668129496 1489.0 8.0 1489.0 
30.001093073259824 26664.0 NaN 4996.195056780227 0.5640540726179952 1488.0 9.0 1488.0 
32.001093073259824 26674.0 NaN 4994.768203072812 0.5742443606320936 1487.0 10.0 1487.0 
34.00109307325982 26673.0 NaN 4994.653306613226 0.579712408353539 1489.0 8.0 1489.0 
36.00109307325982 26677.0 NaN 4995.174348697395 0.5538116815527514 1490.0 7.0 1490.0 
38.00109307325982 26719.0 NaN 4994.896459585839 0.560536021601686 1490.0 7.0 1490.0 
40.00109307325982 26724.0 NaN 4995.735470941884 0.5458450865939896 1490.0 7.0 1490.0 
42.00109307325982 26734.0 NaN 4995.543086172344 0.5561076837109054 1489.0 8.0 1489.0 
44.00109307325982 26739.0 NaN 4994.546426185705 0.5673656117489903 1488.0 9.0 1488.0 
46.00109307325982 26749.0 NaN 4994.714762859051 0.5810191973265796 1486.0 11.0 1486.0 
48.00109307325982 26773.0 NaN 4995.663326653306 0.5807800434700064 1487.0 10.0 1487.0 
50.00109307325982 26773.0 NaN 4995.4201736806945 0.59455844577445 1487.0 10.0 1487.0 
52.00109307325982 26787.0 NaN 4994.936539746159 0.6106822202326854 1487.0 10.0 1487.0 
54.00109307325982 26790.0 NaN 4995.2625250501005 0.6065348701210831 1488.0 9.0 1488.0 
56.00109307325982 26797.0 NaN 4994.492985971944 0.6258031749334286 1486.0 11.0 1486.0 
58.00109307325982 26803.0 NaN 4995.142284569139 0.6176431121178158 1487.0 10.0 1487.0 
60.00109307325982 26792.0 NaN 4996.216432865732 0.5921734255810922 1488.0 9.0 1488.0 
62.00042162975063 26816.0 NaN 1525.8196392785571 0.5939049593317293 772.0 10.0 356.0 
64.00042162975063 26815.0 NaN 1525.7181028724112 0.6165042426750341 612.0 10.0 356.0 
66.00042162975063 26876.0 NaN 1525.6726786907152 0.6220966085561509 568.0 11.0 355.0 
68.00042162975063 26881.0 NaN 1528.8871075484296 0.5763674548101922 541.0 11.0 356.0 
70.00042162975063 26872.0 NaN 1528.9325317301273 0.5805828420984902 526.0 10.0 357.0 
72.00042162975063 26894.0 NaN 1528.7962591850362 0.5944727501612928 521.0 12.0 355.0 
74.00042162975063 26911.0 NaN 1531.8557114228454 0.6049063277223778 519.0 12.0 356.0 
76.00042162975063 26988.0 NaN 1534.9098196392792 0.6039575145777952 519.0 12.0 357.0 
78.00042162975063 26964.0 NaN 1534.9953239812971 0.5931598816012018 518.0 11.0 358.0 
80.00042162975063 26936.0 NaN 1535.0701402805612 0.6022446725119607 517.0 9.0 360.0 
82.00042162975063 26949.0 NaN 1534.9498997996002 0.6218041091299418 519.0 8.0 361.0 
84.00042162975063 26945.0 NaN 1538.014696058784 0.640980881113246 519.0 8.0 362.0 
86.00042162975063 26970.0 NaN 1538.0040080160334 0.6244749568064513 518.0 8.0 362.0 
88.00042162975063 26967.0 NaN 1538.076152304609 0.6143753263346782 518.0 8.0 362.0 
90.00042162975063 26956.0 NaN 1538.1028724114908 0.6222979999486884 520.0 8.0 362.0 
92.00042162975063 26955.0 NaN 1538.0013360053451 0.6385164830922757 520.0 8.0 362.0 
94.00042162975063 26952.0 NaN 1537.9826319305273 0.6476594432003695 520.0 8.0 362.0 
96.00042162975063 26963.0 NaN 1537.9933199732816 0.6576654212821931 520.0 8.0 362.0 
98.00042162975063 26951.0 NaN 1541.1489645958577 0.6425726761358601 520.0 8.0 363.0 
100.00042162975063 26975.0 NaN 1541.1863727454909 0.6288484141490802 519.0 8.0 363.0 
102.00042162975063 26995.0 NaN 1541.1062124248485 0.6288967862243622 518.0 9.0 362.0 
104.00042162975063 26990.0 NaN 1541.060788243154 0.6293878715222141 519.0 7.0 364.0 
106.00042162975063 27016.0 NaN 1538.0093520374091 0.6361936694898994 518.0 8.0 362.0 
108.00042162975063 27015.0 NaN 1541.092852371409 0.6052729104415662 520.0 6.0 365.0 
110.00042162975063 27021.0 NaN 1541.1516366065453 0.62234369400637 521.0 7.0 364.0 
112.00042162975063 27037.0 NaN 1541.0634602538419 0.6259580116375449 521.0 6.0 365.0 
114.00042162975063 27037.0 NaN 1540.993987975952 0.6419765887290596 522.0 7.0 364.0 
116.00042162975063 27022.0 NaN 1544.128256513027 0.6432568682703297 523.0 6.0 366.0 
118.00042162975063 27012.0 NaN 1541.0794923179697 0.6159300715618597 524.0 6.0 365.0 
120.00042162975063 26994.0 NaN 1541.1516366065453 0.6229048714853971 526.0 3.0 368.0 
122.00042162975063 27007.0 NaN 1541.0554442217756 0.6308767420647013 526.0 4.0 367.0 
124.00042162975063 27015.0 NaN 1541.0340681362727 0.6391135674907511 525.0 4.0 367.0 
126.00042162975063 27014.0 NaN 1541.0501002003998 0.6384387606089051 525.0 5.0 366.0 
128.00042162975063 26983.0 NaN 1538.0414161656636 0.625992978210048 525.0 3.0 367.0 
130.00042162975063 26978.0 NaN 1538.0841683366725 0.6400593565776613 524.0 4.0 366.0 
132.00042162975063 26988.0 NaN 1538.0013360053454 0.64677838791526 521.0 4.0 366.0 
134.00042162975063 27001.0 NaN 1537.9879759519029 0.6245897347252346 521.0 4.0 366.0 
136.00042162975063 27009.0 NaN 1534.9498997996002 0.6130362198313166 519.0 4.0 365.0 
138.00042162975063 26970.0 NaN 1535.0140280561118 0.6036757984688577 519.0 4.0 365.0 
140.00042162975063 26958.0 NaN 1535.043420173682 0.6103117812952641 517.0 4.0 365.0 
142.00042162975063 26969.0 NaN 1538.1082164328639 0.6174922012338516 517.0 4.0 366.0 
144.00042162975063 26962.0 NaN 1541.0821643286574 0.6213614021623826 516.0 4.0 367.0 
146.00042162975063 26955.0 NaN 1541.0794923179694 0.6251508318245815 517.0 4.0 367.0 
148.00042162975063 26925.0 NaN 1544.221776887109 0.6244986944339658 519.0 4.0 368.0 
150.00042162975063 26909.0 NaN 1544.2591850367394 0.6060746800593793 519.0 4.0 368.0 
152.00042162975063 26913.0 NaN 1550.351369405479 0.6052017288035926 520.0 4.0 370.0 
154.00042162975063 26901.0 NaN 1541.1088844355368 0.6057498454446336 521.0 4.0 367.0 
156.00042162975063 26894.0 NaN 1537.9959919839666 0.6083490288202186 521.0 4.0 366.0 
158.00042162975063 26876.0 NaN 1538.0895123580485 0.5771451049291696 521.0 4.0 366.0 
160.00042162975063 26848.0 NaN 1538.12959251837 0.5735604706777973 518.0 4.0 366.0 
162.00042162975063 26851.0 NaN 1541.1436205744817 0.5818317895952678 518.0 4.0 367.0 
164.00042162975063 26844.0 NaN 1541.0875083500339 0.5896126324215527 517.0 5.0 366.0 
166.00042162975063 26860.0 NaN 1538.0040080160334 0.6029324097053008 517.0 5.0 365.0 
168.00042162975063 26855.0 NaN 1541.1275885103548 0.607576266078037 517.0 5.0 366.0 
170.00042162975063 26836.0 NaN 1541.1783567134273 0.5974862834042234 513.0 7.0 364.0 
172.00042162975063 26851.0 NaN 1541.1249164996657 0.616571807704583 511.0 7.0 364.0 
174.00042162975063 26832.0 NaN 1538.0013360053454 0.629564309448211 512.0 7.0 363.0 
176.00042162975063 26849.0 NaN 1537.9959919839662 0.6453116215254396 513.0 7.0 363.0 
178.00042162975063 26842.0 NaN 1541.1756847027384 0.6318128207575692 513.0 7.0 364.0 
180.00042162975063 26818.0 NaN 1541.2211088844365 0.6455220409601439 513.0 7.0 364.0 
182.00042162975063 26822.0 NaN 1541.119572478291 0.6587442545263742 512.0 7.0 364.0 
184.00042162975063 26803.0 NaN 1541.0875083500339 0.6595775622268536 510.0 7.0 364.0 
186.00042162975063 26815.0 NaN 1538.0120240480971 0.6454194191701059 510.0 7.0 363.0 
188.00042162975063 26793.0 NaN 1535.006012024048 0.6413794376744665 510.0 6.0 363.0 
190.00042162975063 26754.0 NaN 1535.0754843019363 0.6387658241475594 509.0 6.0 363.0 
192.00042162975063 26746.0 NaN 1534.9766199064816 0.6584654688669842 511.0 6.0 363.0 
194.00042162975063 26723.0 NaN 1538.0814963259847 0.6469939600500686 508.0 9.0 361.0 
196.00042162975063 26724.0 NaN 1538.014696058784 0.6653826568263508 508.0 8.0 362.0 
198.00042162975063 26699.0 NaN 1538.1215764863064 0.6731735027107285 509.0 9.0 361.0 
200.00042162975063 26671.0 NaN 1538.2017368069457 0.6768958548371051 507.0 10.0 360.0 
202.00042162975063 26650.0 NaN 1538.097528390112 0.6953706508597232 506.0 10.0 360.0 
204.00042162975063 26650.0 NaN 1538.0681362725456 0.6743820905611373 505.0 11.0 359.0 
206.00042162975063 26653.0 NaN 1535.006012024048 0.7002785036710146 505.0 10.0 359.0 
208.00042162975063 26621.0 NaN 1535.0541082164334 0.6907348814859141 500.0 10.0 359.0 
210.00042162975063 26593.0 NaN 1535.1128924515701 0.6776730484043473 501.0 10.0 359.0 
212.00042162975063 26593.0 NaN 1534.9899799599182 0.7073298496105707 502.0 10.0 359.0 
214.00042162975063 26581.0 NaN 1534.9926519706091 0.7143321123898342 501.0 10.0 359.0 
216.00042162975063 26592.0 NaN 1528.8817635270545 0.726362458053105 505.0 10.0 357.0 
218.00042162975063 26538.0 NaN 1528.9138276553092 0.7322639074638565 503.0 10.0 357.0 
220.00042162975063 26529.0 NaN 1528.919171676688 0.76694104286253 502.0 10.0 357.0 
222.00042162975063 26512.0 NaN 1522.738810955245 0.7920312392749581 503.0 10.0 355.0 
224.00042162975063 26486.0 NaN 1522.672010688043 0.7949134209739974 503.0 10.0 355.0 
226.00042162975063 26469.0 NaN 1531.9679358717453 0.7911539559226941 501.0 11.0 357.0 
228.00042162975063 26451.0 NaN 1535.1396125584517 0.7461510678138628 503.0 10.0 359.0 
230.00042162975063 26447.0 NaN 1535.1636606546429 0.729846304479401 501.0 10.0 359.0 
232.00042162975063 26427.0 NaN 1535.0861723446908 0.743269202195774 499.0 12.0 357.0 
234.00042162975063 26400.0 NaN 1534.9579158316637 0.7130693598890299 501.0 11.0 358.0 
236.00042162975063 26385.0 NaN 1535.0728122912483 0.7033828805349978 502.0 10.0 359.0 
238.00042162975063 26362.0 NaN 1535.006012024048 0.69246418634326 501.0 10.0 359.0 
240.00042162975063 26326.0 NaN 1532.024048096191 0.6835938067210793 500.0 12.0 356.0 
242.00042162975063 26332.0 NaN 1531.9144956579817 0.7143077200169557 500.0 11.0 357.0 
244.00042162975063 26345.0 NaN 1528.8657314629272 0.7186811048487982 501.0 10.0 357.0 
246.00042162975063 26330.0 NaN 1525.750167000667 0.6919029148139785 503.0 9.0 357.0 
248.00042162975063 26323.0 NaN 1525.7822311289244 0.6663467094503249 501.0 12.0 354.0 
250.00042162975063 26333.0 NaN 1519.6927187708748 0.6875172865376953 499.0 10.0 354.0 
252.00042162975063 26323.0 NaN 1519.6125584502338 0.7024146481972792 499.0 10.0 354.0 
254.00042162975063 26309.0 NaN 1519.5671342685364 0.7214749307056928 500.0 10.0 354.0 
256.00042162975063 26310.0 NaN 1519.6205744822996 0.7080982139702439 499.0 10.0 354.0 
258.0004216297506 26303.0 NaN 1516.523714094855 0.7076394757997372 500.0 12.0 351.0 
260.0004216297506 26284.0 NaN 1516.5691382765542 0.6870884880983112 501.0 10.0 353.0 
262.0004216297506 26251.0 NaN 1516.5424181696726 0.6735203891521793 500.0 11.0 352.0 
264.0004216297506 26226.0 NaN 1519.6018704074818 0.6842670736976915 502.0 10.0 354.0 
266.0004216297506 26195.0 NaN 1522.6987307949244 0.6581325951836177 502.0 10.0 355.0 
268.0004216297506 26210.0 NaN 1532.0614562458272 0.6464980381339942 500.0 10.0 358.0 
270.0004216297506 26193.0 NaN 1531.9706078824295 0.6444419472375057 499.0 10.0 358.0 
272.0004216297506 26178.0 NaN 1531.975951903809 0.6562293188227311 499.0 10.0 358.0 
274.0004216297506 26181.0 NaN 1528.849699398798 0.6789126004664928 498.0 10.0 357.0 
276.0004216297506 26195.0 NaN 1528.8871075484296 0.6877309266147005 498.0 10.0 357.0 
278.0004216297506 26177.0 NaN 1531.9706078824295 0.6802532575400325 499.0 10.0 358.0 
280.0004216297506 26133.0 NaN 1535.0033400133616 0.6588579806172637 503.0 10.0 359.0 
282.0004216297506 26099.0 NaN 1535.0060120240475 0.6654413258989529 502.0 10.0 359.0 
284.0004216297506 26086.0 NaN 1534.9525718102886 0.6736564691006672 501.0 10.0 359.0 
286.0004216297506 26125.0 NaN 1531.8851035404157 0.6836097917845873 501.0 9.0 359.0 
288.0004216297506 26096.0 NaN 1528.8069472277907 0.6923010732508107 501.0 9.0 358.0 
290.0004216297506 25991.0 NaN 1528.817635270543 0.6638177235588169 502.0 9.0 358.0 
292.0004216297506 25961.0 NaN 1528.8523714094842 0.6639399171095336 501.0 10.0 357.0 
294.0004216297506 25941.0 NaN 1525.7314629258524 0.6799467979077629 502.0 9.0 357.0 
296.0004216297506 25959.0 NaN 1525.7795591182362 0.6770033888774198 501.0 9.0 357.0 
298.0004216297506 25960.0 NaN 1531.9385437541728 0.6817137959354882 499.0 9.0 359.0 
300.0004216297506 25938.0 NaN 1535.000668002673 0.6954734095996258 501.0 6.0 363.0 
302.0004216297506 25924.0 NaN 1534.9819639278544 0.7151550021744378 500.0 8.0 361.0 
304.0004216297506 25906.0 NaN 1525.718102872411 0.7061317582461278 503.0 4.0 362.0 
306.0004216297506 25902.0 NaN 1525.7742150968616 0.6807854409810664 504.0 4.0 362.0 
308.0004216297506 25838.0 NaN 1531.9786239144971 0.6645093312732824 501.0 5.0 363.0 
310.0004216297506 25817.0 NaN 1535.0060120240475 0.675869910927751 501.0 6.0 363.0 
312.0004216297506 25792.0 NaN 1534.9846359385454 0.6865491223567374 501.0 5.0 364.0 
314.0004216297506 25783.0 NaN 1535.0060120240475 0.6793791166493318 501.0 6.0 363.0 
316.0004216297506 25776.0 NaN 1531.943887775552 0.6826868920141137 504.0 5.0 363.0 
318.0004216297506 25746.0 NaN 1532.0454241816974 0.6963460115827301 501.0 6.0 362.0 
320.0004216297506 25698.0 NaN 1531.9118236472937 0.7164895578618875 502.0 5.0 363.0 
322.0004216297506 25684.0 NaN 1535.0193720774882 0.7393303751026118 502.0 6.0 363.0 
324.0004216297506 25687.0 NaN 1534.9819639278544 0.7342892129085246 502.0 5.0 364.0 
326.0004216297506 25690.0 NaN 1538.1242484969935 0.7559229049095691 502.0 6.0 364.0 
328.0004216297506 25667.0 NaN 1538.1002004008 0.7356299687847896 501.0 5.0 365.0 
330.0004216297506 25638.0 NaN 1535.0033400133607 0.7160229909723975 503.0 6.0 363.0 
332.0004216297506 25630.0 NaN 1534.9205076820303 0.7006751373385476 504.0 5.0 364.0 
334.0004216297506 25624.0 NaN 1534.9552438209753 0.7138566790382485 505.0 6.0 363.0 
336.0004216297506 25608.0 NaN 1525.8276553106207 0.7006660699675417 506.0 5.0 361.0 
338.0004216297506 25617.0 NaN 1531.9946559786242 0.6918184729844544 506.0 6.0 362.0 
340.0004216297506 25604.0 NaN 1525.7100868403459 0.675592723855117 505.0 5.0 361.0 
342.0004216297506 25603.0 NaN 1522.6158984635933 0.6861819089347903 502.0 6.0 359.0 
344.0004216297506 25594.0 NaN 1519.633934535737 0.6880732073118443 502.0 5.0 359.0 
346.0004216297506 25579.0 NaN 1519.7301269205084 0.6729961177262505 505.0 6.0 358.0 
348.0004216297506 25547.0 NaN 1522.650634602537 0.6365173097990704 508.0 5.0 360.0 
350.0004216297506 25545.0 NaN 1522.6559786239152 0.6469512194907083 507.0 6.0 359.0 
352.0004216297506 25543.0 NaN 1522.6265865063453 0.6343142235732048 506.0 5.0 360.0 
354.0004216297506 25535.0 NaN 1522.5891783567122 0.6379897752308097 505.0 6.0 359.0 
356.0004216297506 25543.0 NaN 1522.6052104208425 0.6350422862199744 505.0 5.0 360.0 
358.0004216297506 25559.0 NaN 1522.650634602537 0.6540661188401069 507.0 6.0 359.0 
360.0004216297506 25558.0 NaN 1528.7508350033393 0.6767135799145731 508.0 5.0 362.0 
362.0004216297506 25557.0 NaN 1525.736806947227 0.700821053092006 511.0 6.0 360.0 
364.0004216297506 25531.0 NaN 1525.6780227120908 0.6910989955042826 511.0 5.0 361.0 
366.0004216297506 25526.0 NaN 1519.5537742150975 0.6830837687384886 511.0 6.0 358.0 
368.0004216297506 25504.0 NaN 1516.448897795591 0.6898595730551843 511.0 5.0 358.0 
370.0004216297506 25479.0 NaN 1513.3653974615906 0.6907182454645263 512.0 6.0 356.0 
372.0004216297506 25475.0 NaN 1513.3680694722789 0.7057132215545298 512.0 5.0 357.0 
374.0004216297506 25469.0 NaN 1513.3440213760846 0.7217052711518525 512.0 6.0 356.0 
376.0004216297506 25486.0 NaN 1510.3059452237815 0.7226076168080848 511.0 5.0 356.0 
378.0004216297506 25459.0 NaN 1510.2979291917175 0.7133652731284458 514.0 6.0 355.0 
380.0004216297506 25433.0 NaN 1510.2444889779554 0.6702076868090469 514.0 5.0 356.0 
382.0004216297506 25419.0 NaN 1516.4569138276547 0.6831842074718706 514.0 6.0 357.0 
384.0004216297506 25427.0 NaN 1522.5758183032729 0.7017914867361239 516.0 5.0 360.0 
386.0004216297506 25439.0 NaN 1519.5698062792262 0.7216841601125088 515.0 6.0 358.0 
388.0004216297506 25422.0 NaN 1528.7722110888456 0.7256075973782664 516.0 5.0 362.0 
390.0004216297506 25412.0 NaN 1525.6780227120908 0.7410937030346302 516.0 6.0 360.0 
392.0004216297506 25381.0 NaN 1522.6052104208427 0.7563442998626395 515.0 6.0 359.0 
394.0004216297506 25375.0 NaN 1516.4168336673356 0.7600578864015346 515.0 6.0 357.0 
396.0004216297506 25375.0 NaN 1510.3727454909817 0.7024411361148208 515.0 6.0 355.0 
398.0004216297506 25338.0 NaN 1510.2925851703396 0.700273913163066 516.0 5.0 356.0 
400.0004216297506 25345.0 NaN 1513.3573814295266 0.7136811799989724 516.0 5.0 357.0 
402.0004216297506 25344.0 NaN 1519.5617902471613 0.7256769393426313 518.0 5.0 359.0 
404.0004216297506 25340.0 NaN 1525.6566466265874 0.7293046242723935 517.0 6.0 360.0 
406.0004216297506 25352.0 NaN 1525.7181028724112 0.7219032751687557 518.0 5.0 361.0 
408.0004216297506 25344.0 NaN 1522.6025384101545 0.7379635631591072 518.0 5.0 360.0 
410.0004216297506 25308.0 NaN 1525.683366733466 0.740690070601422 518.0 5.0 361.0 
412.0004216297506 25285.0 NaN 1534.9151636606543 0.7465227615906262 518.0 5.0 364.0 
414.0004216297506 25276.0 NaN 1537.9799599198388 0.7420122185546146 520.0 5.0 365.0 
416.0004216297506 25282.0 NaN 1531.8076152304611 0.7178512065796078 519.0 5.0 363.0 
418.0004216297506 25276.0 NaN 1528.7241148964606 0.7209292403968522 519.0 5.0 362.0 
420.0004216297506 25244.0 NaN 1531.7915831663333 0.6998613034372477 520.0 5.0 363.0 
422.0004216297506 25217.0 NaN 1525.6806947227794 0.693277654015369 525.0 5.0 361.0 
424.0004216297506 25215.0 NaN 1513.3440213760848 0.6978023481490163 522.0 5.0 357.0 
426.0004216297506 25222.0 NaN 1516.4782899131606 0.7018031394685099 518.0 5.0 358.0 
428.0004216297506 25212.0 NaN 1513.3787575150293 0.6958340816170702 513.0 5.0 357.0 
430.0004216297506 25206.0 NaN 1513.3680694722786 0.7044764910747239 516.0 5.0 357.0 
432.0004216297506 25188.0 NaN 1510.2925851703396 0.6781866042634167 515.0 5.0 356.0 
434.0004216297506 25172.0 NaN 1513.2959251837 0.6865126207400246 516.0 5.0 357.0 
436.0004216297506 25193.0 NaN 1528.7000668002665 0.6921057134027507 519.0 6.0 361.0 
438.0004216297506 25169.0 NaN 1534.9098196392792 0.6835051004370329 525.0 5.0 364.0 
440.0004216297506 25144.0 NaN 1534.8430193720787 0.686690511485946 523.0 6.0 363.0 
442.0004216297506 25143.0 NaN 1531.7808951235816 0.6984514218317669 525.0 5.0 363.0 
444.0004216297506 25132.0 NaN 1531.7515030060117 0.7026404335326459 523.0 6.0 362.0 
446.0004216297506 25183.0 NaN 1540.9859719438882 0.7212837237492685 526.0 5.0 366.0 
448.0004216297506 25140.0 NaN 1550.249832999333 0.6655329822279247 526.0 6.0 368.0 
450.0004216297506 25116.0 NaN 1544.0801603206426 0.6525322167202746 527.0 5.0 367.0 
452.0004216297506 25123.0 NaN 1547.1075484301934 0.6612941035143367 523.0 6.0 367.0 
454.0004216297506 25113.0 NaN 1547.1022044088184 0.6556571112551531 525.0 5.0 368.0 
456.0004216297506 25134.0 NaN 1553.3066132264544 0.6601240413988497 523.0 6.0 369.0 
458.0004216297506 25128.0 NaN 1553.3012692050754 0.6620492330450851 524.0 5.0 370.0 
460.0004216297506 25125.0 NaN 1550.1589846359366 0.6719720920289264 523.0 6.0 368.0 
462.0004216297506 25117.0 NaN 1550.1910487641937 0.6760566320054016 525.0 5.0 369.0 
464.0004216297506 25114.0 NaN 1550.1750167000662 0.6834888125303337 524.0 6.0 368.0 
466.0004216297506 25120.0 NaN 1544.1282565130273 0.6718367616853576 523.0 5.0 367.0 
468.0004216297506 25107.0 NaN 1541.002004008018 0.6654877908527649 520.0 6.0 365.0 
470.0004216297506 25100.0 NaN 1534.845691382764 0.6772740729730542 522.0 5.0 364.0 
472.0004216297506 25095.0 NaN 1534.8830995323997 0.6942889983430451 521.0 6.0 363.0 
474.0004216297506 25096.0 NaN 1531.8129592518362 0.705954404545984 520.0 5.0 363.0 
476.0004216297506 25123.0 NaN 1525.6272545090183 0.7097770704833927 515.0 6.0 360.0 
478.0004216297506 25124.0 NaN 1525.6726786907152 0.714396133407781 514.0 6.0 360.0 
480.0004216297506 25119.0 NaN 1525.6325985303934 0.7391981390467695 508.0 10.0 356.0 
482.0004216297506 25122.0 NaN 1525.6432865731454 0.727524688194172 510.0 8.0 358.0 
484.0004216297506 25109.0 NaN 1522.4716098864387 0.7175267862228559 509.0 10.0 355.0 
486.0004216297506 25122.0 NaN 1513.3279893119566 0.7191279939287115 509.0 8.0 354.0 
488.0004216297506 25150.0 NaN 1510.30861723447 0.683029742394659 508.0 7.0 354.0 
490.0004216297506 25137.0 NaN 1501.092852371409 0.6471143263193441 506.0 7.0 351.0 
492.0004216297506 25139.0 NaN 1501.068804275218 0.6492385941270811 502.0 6.0 352.0 
494.0004216297506 25148.0 NaN 1494.9098196392795 0.6365425514225468 502.0 6.0 350.0 
496.0004216297506 25156.0 NaN 1494.995323981297 0.6538879225428992 497.0 7.0 349.0 
498.0004216297506 25138.0 NaN 1491.8423513694063 0.645627135118067 502.0 4.0 351.0 
500.0004216297506 25127.0 NaN 1491.885103540415 0.6567494232086625 501.0 8.0 347.0 
502.0004216297506 25145.0 NaN 1498.0200400801614 0.6769074461840536 510.0 4.0 353.0 
504.0004216297506 25173.0 NaN 1491.8156312625265 0.6896042211480848 504.0 8.0 347.0 
506.0004216297506 25177.0 NaN 1498.03607214429 0.6860779991880394 507.0 6.0 351.0 
508.0004216297506 25181.0 NaN 1501.066132264528 0.6879303576683818 509.0 8.0 350.0 
510.0004216297506 25175.0 NaN 1494.928523714094 0.7061626276261566 508.0 8.0 348.0 
512.0004216297506 25196.0 NaN 1498.0173680694727 0.7211196961277856 509.0 8.0 349.0 
514.0004216297506 25232.0 NaN 1494.8857715430852 0.723711382792855 507.0 10.0 346.0 
516.0004216297506 25242.0 NaN 1479.5671342685364 0.6803730833533393 507.0 7.0 344.0 
518.0004216297506 25237.0 NaN 1479.593854375418 0.6941601812999436 506.0 6.0 345.0 
520.0004216297506 25249.0 NaN 1479.620574482299 0.714121420604282 508.0 4.0 347.0 
522.0004216297506 25256.0 NaN 1479.5644622578482 0.7176787798582295 508.0 4.0 347.0 
524.0004216297506 25242.0 NaN 1470.391449565799 0.6954122902733608 505.0 4.0 344.0 
526.0004216297506 25234.0 NaN 1461.1569806279215 0.6861710984584992 504.0 4.0 341.0 
528.0004216297506 25248.0 NaN 1467.2384769539083 0.7076734349485292 504.0 5.0 342.0 
530.0004216297506 25249.0 NaN 1464.2297929191723 0.7053148678137706 511.0 4.0 342.0 
532.0004216297506 25231.0 NaN 1467.2358049432191 0.7136968064927182 509.0 4.0 343.0 
534.0004216297506 25226.0 NaN 1470.30861723447 0.739409115230769 507.0 4.0 344.0 
536.0004216297506 25232.0 NaN 1467.3400133600544 0.7441153245204631 507.0 4.0 343.0 
538.0004216297506 25229.0 NaN 1467.2919171676697 0.7330842284500977 511.0 4.0 343.0 
540.0004216297506 25234.0 NaN 1470.3593854375426 0.722561450650714 509.0 4.0 344.0 
542.0004216297506 25236.0 NaN 1470.3727454909817 0.7093697164158982 510.0 4.0 344.0 
544.0004216297506 25225.0 NaN 1467.2358049432191 0.7147919126447908 510.0 4.0 343.0 
546.0004216297506 25240.0 NaN 1470.3861055444215 0.6685445565643283 512.0 4.0 344.0 
548.0004216297506 25246.0 NaN 1470.4048096192378 0.671582890064268 513.0 4.0 344.0 
550.0004216297506 25242.0 NaN 1470.3406813627262 0.6977842717852123 512.0 5.0 343.0 
552.0004216297506 25242.0 NaN 1470.354041416165 0.7014473042203706 513.0 5.0 343.0 
554.0004216297506 25239.0 NaN 1470.3861055444215 0.6960647415641992 513.0 5.0 343.0 
556.0004216297506 25247.0 NaN 1461.0794923179694 0.6834650891972748 511.0 5.0 340.0 
558.0004216297506 25272.0 NaN 1458.1189044756184 0.6730611932328667 508.0 5.0 339.0 
560.0004216297506 25307.0 NaN 1461.1516366065457 0.6852294602927246 507.0 5.0 340.0 
562.0004216297506 25306.0 NaN 1461.1783567134273 0.6675099831948511 506.0 5.0 340.0 
564.0004216297506 25291.0 NaN 1458.0601202404814 0.6519807278484632 503.0 5.0 339.0 
566.0004216297506 25328.0 NaN 1464.2431529726116 0.660115014433012 505.0 5.0 341.0 
568.0004216297506 25341.0 NaN 1473.4669338677359 0.6471013052814768 506.0 5.0 344.0 
570.0004216297506 25343.0 NaN 1473.445557782231 0.649582585939517 509.0 5.0 344.0 
572.0004216297506 25345.0 NaN 1473.3333333333335 0.6696998955757245 512.0 5.0 344.0 
574.0004216297506 25362.0 NaN 1479.5190380761533 0.6940914424957316 512.0 5.0 346.0 
576.0004216297506 25384.0 NaN 1488.8042752171004 0.6850860108240704 513.0 5.0 349.0 
578.0004216297506 25414.0 NaN 1488.8203072812285 0.6941978773973032 510.0 5.0 349.0 
580.0004216297506 25410.0 NaN 1485.7207748831 0.7041221435795496 510.0 6.0 347.0 
582.0004216297506 25457.0 NaN 1488.7855711422837 0.7242960975455409 512.0 6.0 348.0 
584.0004216297506 25464.0 NaN 1488.643954575818 0.7309396877708778 512.0 6.0 348.0 
586.0004216297506 25464.0 NaN 1491.8102872411484 0.7150908917975609 513.0 6.0 349.0 
588.0004216297506 25473.0 NaN 1497.92651970608 0.7188336400755629 516.0 6.0 351.0 
590.0004216297506 25477.0 NaN 1501.047428189712 0.7285730671351376 518.0 6.0 352.0 
592.0004216297506 25486.0 NaN 1501.0260521042092 0.7476681829294872 517.0 6.0 352.0 
594.0004216297506 25471.0 NaN 1500.980627922511 0.7192690540351488 517.0 6.0 352.0 
596.0004216297506 25466.0 NaN 1497.9505678022715 0.6782215091738547 522.0 6.0 351.0 
598.0004216297506 25465.0 NaN 1494.8430193720783 0.6724476540720422 522.0 6.0 350.0 
600.0004216297506 25465.0 NaN 1497.9532398129602 0.6760780672442894 520.0 6.0 351.0 
602.0004216297506 25491.0 NaN 1497.9398797595186 0.6976877534100965 519.0 6.0 351.0 
604.0004216297506 25489.0 NaN 1494.8136272545091 0.703168049298867 521.0 6.0 350.0 
606.0004216297506 25523.0 NaN 1494.909819639279 0.6995852944680188 521.0 6.0 350.0 
608.0004216297506 25521.0 NaN 1504.1389445557788 0.6988219811786373 520.0 6.0 353.0 
610.0004216297506 25514.0 NaN 1504.106880427521 0.7068973253514638 518.0 6.0 353.0 
612.0004216297506 25533.0 NaN 1503.975951903808 0.725860863300408 515.0 6.0 353.0 
614.0004216297506 25538.0 NaN 1507.0594522378092 0.7439244007796213 516.0 6.0 354.0 
616.0004216297506 25565.0 NaN 1507.1476285905153 0.7540644592813792 518.0 6.0 354.0 
618.0004216297506 25580.0 NaN 1516.355377421509 0.7632065525367508 518.0 6.0 357.0 
620.0004216297506 25563.0 NaN 1513.293253173012 0.7858640521734299 516.0 6.0 356.0 
622.0004216297506 25597.0 NaN 1516.3473613894453 0.8234773666410772 517.0 6.0 357.0 
624.0004216297506 25581.0 NaN 1519.4308617234465 0.8114854920070639 519.0 6.0 358.0 
626.0004216297506 25614.0 NaN 1522.5277221108893 0.8222957253500491 516.0 6.0 359.0 
628.0004216297506 25618.0 NaN 1522.5143620574472 0.7656131948811571 516.0 5.0 360.0 
630.0004216297506 25592.0 NaN 1519.4468937875745 0.7569536134436184 515.0 5.0 359.0 
632.0004216297506 25572.0 NaN 1516.382097528391 0.7262094088091241 514.0 5.0 358.0 
634.0004216297506 25589.0 NaN 1522.5036740146968 0.7315379610067125 513.0 5.0 360.0 
636.0004216297506 25602.0 NaN 1513.362725450901 0.7280566863868599 516.0 5.0 357.0 
638.0004216297506 25609.0 NaN 1516.4275217100878 0.7376896121466205 516.0 5.0 358.0 
640.0004216297506 25572.0 NaN 1516.4462257849023 0.7452683165887113 519.0 5.0 358.0 
642.0004216297506 25560.0 NaN 1510.2872411489639 0.7576469769733629 520.0 5.0 356.0 
644.0004216297506 25571.0 NaN 1513.4161656646634 0.7838616743675512 517.0 6.0 356.0 
646.0004216297506 25568.0 NaN 1516.5557782231122 0.7564453079577432 516.0 5.0 358.0 
648.0004216297506 25507.0 NaN 1516.537074148297 0.7403298407856225 513.0 5.0 358.0 
650.0004216297506 25456.0 NaN 1516.5584502338002 0.7292735463916185 512.0 6.0 357.0 
652.0004216297506 25452.0 NaN 1516.5210420841693 0.7409567374249378 511.0 6.0 357.0 
654.0004216297506 25457.0 NaN 1516.4943219772888 0.7678655493647547 511.0 5.0 358.0 
656.0004216297506 25477.0 NaN 1534.9926519706082 0.7648015119370001 513.0 5.0 364.0 
658.0004216297506 25452.0 NaN 1541.181028724116 0.7696325732605321 512.0 5.0 366.0 
660.0004216297506 25423.0 NaN 1544.2378089512365 0.754049125678001 511.0 5.0 367.0 
662.0004216297506 25408.0 NaN 1544.2538410153636 0.7007156660301828 511.0 5.0 367.0 
664.0004216297506 25420.0 NaN 1544.2591850367396 0.718830813959425 507.0 5.0 367.0 
#####################################################################
# End of data export. Simulation finished at: 2019-03-12T05:20+0000 #
#####################################################################
