#####################################################################
# Alchemist log file - simulation started at: 2019-03-03T20:33+0000 #
#####################################################################
# seed = 1.0, bandwidth = 1.0E8, propagationDelay = 0.0031622776601683794, baserange = 31.622776601683796
#
# The columns have the following meaning: 
# time neighbor_count[Sum] <value>@neighbor_count[Sum] packet_size[Mean] mean_delay[Mean] crowd[Sum] overcrowded[Sum] risk[Sum] 
0.0 NaN NaN NaN NaN NaN NaN NaN 
10.000358537608447 2795.0 NaN 4994.645290581162 0.4980572085901585 1421.0 76.0 1421.0 
20.000358537608445 2803.0 NaN 4995.107548430194 0.4996854899207201 1420.0 77.0 1420.0 
30.000358537608445 2806.0 NaN 4993.653974615899 0.49884062487358805 1416.0 81.0 1416.0 
40.00035853760844 2823.0 NaN 4994.88042752171 0.49940475583558086 1414.0 83.0 1414.0 
50.00035853760844 2835.0 NaN 4993.37875751503 0.5121014612367937 1399.0 98.0 1399.0 
60.00035853760844 2818.0 NaN 4994.602538410154 0.4978209780973821 1406.0 91.0 1406.0 
70.00031265760845 2838.0 NaN 1524.513026052103 0.5013845725150509 407.0 87.0 279.0 
80.00031265760845 2841.0 NaN 1533.7661990647969 0.5024874672649 392.0 92.0 277.0 
90.00031265760845 2820.0 NaN 1533.8249832999336 0.5007958373706901 394.0 82.0 287.0 
100.00031265760845 2798.0 NaN 1536.8710754843003 0.4989187539059649 386.0 87.0 283.0 
110.00031265760845 2793.0 NaN 1536.7909151636609 0.5027022543632138 391.0 82.0 288.0 
120.00031265760845 2792.0 NaN 1543.070140280561 0.5073248667798346 396.0 80.0 292.0 
130.00031265760845 2771.0 NaN 1539.9412157648637 0.5030448049540249 404.0 69.0 302.0 
140.00031265760845 2785.0 NaN 1540.0427521710092 0.5034270395828312 386.0 80.0 291.0 
150.00031265760845 2833.0 NaN 1543.019372077488 0.5067437865613986 380.0 89.0 283.0 
160.00031265760845 2841.0 NaN 1539.9171676686726 0.503369231589881 379.0 90.0 281.0 
170.00031265760845 2799.0 NaN 1543.1102204408817 0.5079431982770747 381.0 84.0 288.0 
180.00031265760845 2777.0 NaN 1537.0501002003998 0.504849930368442 383.0 83.0 287.0 
190.00031265760845 2768.0 NaN 1537.0394121576483 0.5079948341042031 381.0 83.0 287.0 
200.00031265760845 2760.0 NaN 1537.0180360721456 0.4997380922286457 373.0 92.0 278.0 
210.00031265760845 2761.0 NaN 1527.772879091518 0.502949166813392 372.0 89.0 278.0 
220.00031265760845 2744.0 NaN 1524.6145624582489 0.49961111683854137 379.0 88.0 278.0 
230.00031265760845 2747.0 NaN 1530.8002672010698 0.5045186884808692 370.0 94.0 274.0 
240.00031265760845 2726.0 NaN 1530.7334669338666 0.5021749927057113 370.0 89.0 279.0 
250.00031265760845 2705.0 NaN 1533.6753507014025 0.5023887450511059 363.0 96.0 273.0 
260.00031265760845 2696.0 NaN 1524.6038744154998 0.5091734252217381 362.0 98.0 268.0 
270.00031265760845 2690.0 NaN 1527.6419505678 0.5074368387931604 387.0 75.0 292.0 
280.00031265760845 2662.0 NaN 1527.5297261189062 0.5160159508136033 388.0 74.0 293.0 
290.00031265760845 2620.0 NaN 1533.8249832999338 0.5108872979271399 381.0 78.0 291.0 
300.00031265760845 2608.0 NaN 1536.7267869071457 0.5051759721352974 383.0 77.0 293.0 
310.00031265760845 2635.0 NaN 1533.6165664662635 0.5126650369000911 389.0 68.0 301.0 
320.00031265760845 2609.0 NaN 1530.7575150300609 0.5124606312913532 387.0 71.0 297.0 
330.00031265760845 2614.0 NaN 1542.9605878423522 0.511267331106849 389.0 71.0 301.0 
340.00031265760845 2632.0 NaN 1530.6265865063453 0.5147572184185918 386.0 70.0 298.0 
350.00031265760845 2621.0 NaN 1521.3814295257184 0.5090104856726442 388.0 74.0 291.0 
360.00031265760845 2616.0 NaN 1521.4428857715434 0.5117077861819902 383.0 80.0 285.0 
370.00031265760845 2622.0 NaN 1518.3593854375424 0.5227898643008766 380.0 82.0 282.0 
380.00031265760845 2624.0 NaN 1502.8724114896454 0.5079115437224316 382.0 82.0 277.0 
390.00031265760845 2618.0 NaN 1509.2585170340697 0.5085289300636769 385.0 75.0 286.0 
400.00031265760845 2619.0 NaN 1509.1837007348024 0.5163537629619686 387.0 79.0 282.0 
410.00031265760845 2636.0 NaN 1515.3186372745483 0.5136676608348868 398.0 73.0 290.0 
420.00031265760845 2635.0 NaN 1493.9211756847023 0.504158624411076 404.0 65.0 291.0 
430.00031265760845 2619.0 NaN 1515.2598530394112 0.5143477432374746 397.0 79.0 284.0 
440.00031265760845 2614.0 NaN 1518.5223780895114 0.5039429799112292 394.0 81.0 283.0 
450.00031265760845 2610.0 NaN 1533.859719438879 0.5112422079265427 402.0 75.0 294.0 
460.00031265760845 2584.0 NaN 1542.9018036072152 0.5038616441400908 405.0 71.0 301.0 
470.00031265760845 2588.0 NaN 1533.7314629258522 0.5147761616519342 397.0 79.0 290.0 
480.00031265760845 2576.0 NaN 1527.4388777555096 0.5139938060578898 402.0 72.0 295.0 
490.00031265760845 2577.0 NaN 1505.9986639946553 0.5167865202771021 400.0 68.0 292.0 
500.00031265760845 2555.0 NaN 1487.5911823647284 0.512886841133948 387.0 70.0 284.0 
510.00031265760845 2578.0 NaN 1499.8637274549092 0.5030859027763156 395.0 69.0 289.0 
520.0003126576084 2580.0 NaN 1475.1823647294575 0.5146740779593743 383.0 70.0 280.0 
530.0003126576084 2577.0 NaN 1456.9859719438884 0.5179999469513972 378.0 73.0 271.0 
540.0003126576084 2576.0 NaN 1466.1670006680022 0.5180420573800787 386.0 66.0 281.0 
550.0003126576084 2568.0 NaN 1475.305277221109 0.5082474623500057 389.0 71.0 279.0 
560.0003126576084 2590.0 NaN 1472.355377421509 0.5102173559018378 384.0 77.0 272.0 
570.0003126576084 2539.0 NaN 1487.7675350701397 0.5086252472503582 393.0 69.0 285.0 
580.0003126576084 2553.0 NaN 1493.862391449565 0.5125501672544305 403.0 64.0 292.0 
590.0003126576084 2571.0 NaN 1503.1342685370737 0.5145863187896386 405.0 66.0 293.0 
600.0003126576084 2566.0 NaN 1503.0086840347365 0.5081848478936923 405.0 69.0 290.0 
610.0003126576084 2599.0 NaN 1512.0988643954565 0.5073831667440339 396.0 74.0 288.0 
620.0003126576084 2608.0 NaN 1521.4883099532394 0.5164631819151116 388.0 79.0 286.0 
630.0003126576084 2649.0 NaN 1518.5865063460265 0.5162115823096131 393.0 73.0 291.0 
640.0003126576084 2676.0 NaN 1515.4308617234465 0.521664664853276 388.0 78.0 285.0 
650.0003126576084 2630.0 NaN 1527.727454909819 0.519571153352915 386.0 79.0 288.0 
660.0003126576084 2624.0 NaN 1530.7922511690056 0.5178033636492263 388.0 73.0 295.0 
#####################################################################
# End of data export. Simulation finished at: 2019-03-03T20:39+0000 #
#####################################################################
