#####################################################################
# Alchemist log file - simulation started at: 2019-03-02T22:28+0000 #
#####################################################################
# seed = 1.0, bandwidth = 4216.965034285822, propagationDelay = 0.001, baserange = 10.0
#
# The columns have the following meaning: 
# time neighbor_count[Sum] <value>@neighbor_count[Sum] packet_size[Mean] mean_delay[Mean] crowd[Sum] overcrowded[Sum] risk[Sum] 
0.0 NaN NaN NaN NaN NaN NaN NaN 
10.000278928657904 487.0 NaN 4990.420841683367 1.1603933665665667 1497.0 0.0 1497.0 
20.000278928657906 491.0 NaN 4989.509686038744 1.1855915587025858 1497.0 0.0 1497.0 
30.000278928657906 505.0 NaN 4989.507014028056 1.3234747873093589 1497.0 0.0 1497.0 
40.0002789286579 518.0 NaN 4989.547094188377 1.6473770916669133 1497.0 0.0 1497.0 
50.0002789286579 542.0 NaN 4989.616566466266 1.9829077880420463 1497.0 0.0 1497.0 
60.0002789286579 551.0 NaN 4989.670006680027 2.496384430459765 1497.0 0.0 1497.0 
70.00041737428027 554.0 NaN 615.0113560454242 2.340575095663612 269.0 0.0 70.0 
80.00041737428027 535.0 NaN 624.1255845023377 2.2181510200167702 173.0 0.0 73.0 
90.00041737428027 537.0 NaN 627.1636606546422 2.342684911381197 160.0 0.0 74.0 
100.00041737428027 532.0 NaN 630.2204408817637 2.761423520688553 157.0 0.0 75.0 
110.00041737428027 528.0 NaN 639.4442217768867 2.077738512594941 152.0 0.0 78.0 
120.00041737428027 521.0 NaN 636.4542418169677 1.9535627961807864 145.0 0.0 77.0 
130.0004173742803 540.0 NaN 636.4622578490312 1.927675920085047 146.0 0.0 77.0 
140.0004173742803 542.0 NaN 630.2631930527729 2.0245520635329024 141.0 0.0 75.0 
150.0004173742803 551.0 NaN 642.5678022712091 1.676338681612478 142.0 0.0 79.0 
160.0004173742803 568.0 NaN 642.6292585170352 1.987254259793153 147.0 0.0 79.0 
170.0004173742803 570.0 NaN 642.5784903139604 2.179947650726017 153.0 0.0 79.0 
180.0004173742803 575.0 NaN 636.462257849032 2.5136449560230085 151.0 0.0 77.0 
190.0004173742803 566.0 NaN 645.6593186372736 2.924218493999302 152.0 0.0 80.0 
200.0004173742803 563.0 NaN 648.7454909819635 2.8420122503179703 147.0 0.0 81.0 
210.0004173742803 563.0 NaN 660.9752839011364 2.2966681910359323 147.0 0.0 85.0 
220.0004173742803 556.0 NaN 660.9939879759512 2.1867198334860674 145.0 0.0 85.0 
230.0004173742803 562.0 NaN 651.7969271877092 2.3752900636383325 135.0 0.0 82.0 
240.0004173742803 562.0 NaN 642.5143620574489 2.0768807706681245 136.0 0.0 79.0 
250.0004173742803 565.0 NaN 639.5056780227128 2.6175593314863086 134.0 0.0 78.0 
260.0004173742803 568.0 NaN 636.3927855711419 2.556747540440741 133.0 0.0 77.0 
270.0004173742803 572.0 NaN 642.5437541750174 2.4665757400101067 140.0 0.0 79.0 
280.0004173742803 573.0 NaN 639.4468937875765 2.829771933301196 135.0 0.0 78.0 
290.0004173742803 554.0 NaN 639.4148296593181 2.5083803105307583 134.0 0.0 78.0 
300.0004173742803 556.0 NaN 633.3333333333329 2.4782788315853206 134.0 0.0 76.0 
310.0004173742803 545.0 NaN 630.2712090848363 2.335280381468468 132.0 0.0 75.0 
320.0004173742803 542.0 NaN 624.133600534401 2.907291553513383 131.0 0.0 73.0 
330.0004173742803 525.0 NaN 621.0554442217774 2.4137965297608557 127.0 0.0 72.0 
340.0004173742803 539.0 NaN 621.063460253841 2.6852216931337827 129.0 0.0 72.0 
350.0004173742803 531.0 NaN 608.8016032064135 2.3094962554928524 125.0 0.0 68.0 
360.0004173742803 524.0 NaN 605.7181028724116 2.259456965862361 123.0 0.0 67.0 
370.0004173742803 525.0 NaN 608.7588510354046 2.2246686160449367 123.0 0.0 68.0 
380.0004173742803 531.0 NaN 602.634602538409 2.2839742360097484 126.0 0.0 66.0 
390.0004173742803 532.0 NaN 605.7127588510365 2.468647525775248 124.0 0.0 67.0 
400.0004173742803 550.0 NaN 618.1108884435546 2.3189356690947287 121.0 0.0 71.0 
410.0004173742803 557.0 NaN 636.4729458917827 2.589768387299856 126.0 0.0 77.0 
420.0004173742803 571.0 NaN 645.7528390113554 2.732085590314038 130.0 0.0 80.0 
430.0004173742803 560.0 NaN 648.7615230460917 2.8174702905420808 137.0 0.0 81.0 
440.0004173742803 558.0 NaN 664.0374081496325 2.335627082045948 142.0 0.0 86.0 
450.0004173742803 575.0 NaN 679.4629258517031 2.5572098229968856 146.0 0.0 91.0 
460.0004173742803 569.0 NaN 682.4181696726791 2.73826993344042 146.0 0.0 92.0 
470.0004173742803 570.0 NaN 688.5637942551764 3.1961583871744854 145.0 0.0 94.0 
480.0004173742803 540.0 NaN 673.2130928523721 3.124766040463113 143.0 0.0 89.0 
490.0004173742803 532.0 NaN 663.9973279893126 2.6341806516986264 143.0 0.0 86.0 
500.0004173742803 529.0 NaN 660.9405477621908 2.1600131955607584 140.0 0.0 85.0 
510.0004173742803 522.0 NaN 654.7682030728126 2.343311724639579 140.0 0.0 83.0 
520.0004173742802 511.0 NaN 639.4388777555101 2.166040565193328 133.0 0.0 78.0 
530.0004173742802 516.0 NaN 621.0340681362728 2.164434199464793 131.0 0.0 72.0 
540.0004173742802 520.0 NaN 614.9285237140955 2.3368349645770907 126.0 0.0 70.0 
550.0004173742802 522.0 NaN 608.8122912491652 2.5148867023099273 118.0 0.0 68.0 
560.0004173742802 540.0 NaN 618.0120240480959 2.975071960607877 121.0 0.0 71.0 
570.0004173742802 535.0 NaN 618.0360721442886 3.060407623453405 119.0 0.0 71.0 
580.0004173742802 540.0 NaN 621.0875083500335 3.305332992748314 119.0 0.0 72.0 
590.0004173742802 533.0 NaN 618.0574482297931 2.633259277844914 122.0 0.0 71.0 
600.0004173742802 533.0 NaN 605.7875751503 2.1827660446296053 117.0 0.0 67.0 
610.0004173742802 545.0 NaN 615.022044088177 2.377763955582652 118.0 0.0 70.0 
620.0004173742802 570.0 NaN 621.1543086172342 2.9908564004012135 127.0 0.0 72.0 
630.0004173742802 571.0 NaN 633.434869739479 3.013732703173992 131.0 0.0 76.0 
640.0004173742802 575.0 NaN 645.6967267869077 3.164153966462761 133.0 0.0 80.0 
650.0004173742802 571.0 NaN 645.6619906479638 3.43430378276844 142.0 0.0 80.0 
660.0004173742802 548.0 NaN 651.7728790915172 2.548095893437579 146.0 0.0 82.0 
#####################################################################
# End of data export. Simulation finished at: 2019-03-02T22:33+0000 #
#####################################################################
