#####################################################################
# Alchemist log file - simulation started at: 2019-03-05T20:16+0000 #
#####################################################################
# seed = 3.0, bandwidth = 316227.76601683797, propagationDelay = 1.0, baserange = 10.0
#
# The columns have the following meaning: 
# time neighbor_count[Sum] <value>@neighbor_count[Sum] packet_size[Mean] mean_delay[Mean] crowd[Sum] overcrowded[Sum] risk[Sum] 
0.0 NaN NaN NaN NaN NaN NaN NaN 
2.0004334044264893 236.0 NaN 4988.414161656647 0.30965793658459645 1497.0 0.0 1497.0 
4.000408106205208 486.0 NaN 4992.6626586506345 1.0025557991988872 1497.0 0.0 1497.0 
6.000084666035003 486.0 NaN 4991.497661990648 1.0025062438484031 1497.0 0.0 1497.0 
8.000408106205208 486.0 NaN 4990.86706746827 1.0025312427073994 1497.0 0.0 1497.0 
10.00033353340315 487.0 NaN 4990.458249832999 0.9996438861149428 1497.0 0.0 1497.0 
12.000408106205208 488.0 NaN 4989.664662658651 1.002327100875698 1497.0 0.0 1497.0 
14.000408106205208 488.0 NaN 4989.731462925852 1.0023333967148755 1497.0 0.0 1497.0 
16.000084666035004 488.0 NaN 4989.688710754843 1.008975698241167 1497.0 0.0 1497.0 
18.00040810620521 487.0 NaN 4989.63794255177 0.9993881718332751 1497.0 0.0 1497.0 
20.00033353340315 490.0 NaN 4989.648630594523 1.0062448509271629 1497.0 0.0 1497.0 
22.00040810620521 488.0 NaN 4989.544422177689 1.0023218943167047 1497.0 0.0 1497.0 
24.00040810620521 488.0 NaN 4989.61122244489 1.002320868147133 1497.0 0.0 1497.0 
26.000084666035004 488.0 NaN 4989.632598530394 1.002320889089369 1497.0 0.0 1497.0 
28.00040810620521 492.0 NaN 4989.619238476954 1.0028862271581904 1497.0 0.0 1497.0 
30.00033353340315 494.0 NaN 4989.672678690715 0.9978645344282142 1497.0 0.0 1497.0 
32.00040810620521 494.0 NaN 4989.456245824983 0.994522283310387 1497.0 0.0 1497.0 
34.00040810620521 495.0 NaN 4989.608550434202 1.002457150028364 1497.0 0.0 1497.0 
36.00008466603501 498.0 NaN 4989.648630594523 0.9951170906990283 1497.0 0.0 1497.0 
38.00040810620521 501.0 NaN 4989.616566466266 0.9995145642269989 1497.0 0.0 1497.0 
40.00033353340315 501.0 NaN 4989.688710754843 1.0058789457490835 1497.0 0.0 1497.0 
42.00040810620521 498.0 NaN 4989.517702070808 1.0032753353183415 1497.0 0.0 1497.0 
44.00040810620521 499.0 NaN 4989.595190380762 0.9897741697803194 1497.0 0.0 1497.0 
46.00008466603501 503.0 NaN 4989.608550434202 0.9985802603416023 1497.0 0.0 1497.0 
48.00040810620521 500.0 NaN 4989.664662658651 1.0004980422205545 1497.0 0.0 1497.0 
50.00033353340315 502.0 NaN 4989.672678690715 1.0037437620602676 1497.0 0.0 1497.0 
52.00040810620521 505.0 NaN 4989.504342017368 1.01729644056921 1497.0 0.0 1497.0 
54.00040810620521 499.0 NaN 4989.595190380762 1.0138060926713763 1497.0 0.0 1497.0 
56.00008466603501 504.0 NaN 4989.632598530394 1.007359862335557 1497.0 0.0 1497.0 
58.00040810620521 501.0 NaN 4989.656646626587 1.0116706031823828 1497.0 0.0 1497.0 
60.00033353340315 499.0 NaN 4989.678022712091 1.0000711114940426 1497.0 0.0 1497.0 
62.00027805237796 500.0 NaN 596.6466265865066 0.987524767522453 306.0 0.0 64.0 
64.00027805237795 503.0 NaN 596.5397461589843 1.0086657993569679 307.0 0.0 64.0 
66.00008466603501 498.0 NaN 599.5724782899139 1.0249545834131373 302.0 0.0 65.0 
68.00027805237796 490.0 NaN 602.6292585170346 0.99992897600007 296.0 0.0 66.0 
70.00027805237796 489.0 NaN 602.6559786239138 0.9983742091480989 279.0 0.0 66.0 
72.00027805237796 486.0 NaN 602.6346025384091 0.9877097474410886 243.0 0.0 66.0 
74.00027805237796 490.0 NaN 605.7314629258519 0.9934361934307883 218.0 0.0 67.0 
76.00008466603501 491.0 NaN 605.707414829659 0.9973301479871333 200.0 0.0 67.0 
78.00027805237796 491.0 NaN 605.6806947227786 0.995089876184926 183.0 0.0 67.0 
80.00027805237796 492.0 NaN 608.7641950567804 0.9907508749176809 172.0 0.0 68.0 
82.00027805237796 491.0 NaN 608.7561790247164 0.9972941523910993 161.0 0.0 68.0 
84.00027805237796 487.0 NaN 608.7588510354046 1.0020311550480407 151.0 0.0 68.0 
86.00008466603501 482.0 NaN 608.7508350033407 1.010210647686721 148.0 0.0 68.0 
88.00027805237796 483.0 NaN 608.7588510354046 0.9939559331238161 148.0 0.0 68.0 
90.00027805237796 485.0 NaN 605.6967267869072 0.9919702743000991 146.0 0.0 67.0 
92.00027805237796 480.0 NaN 602.6426185704742 0.9872740704524811 141.0 0.0 66.0 
94.00027805237796 482.0 NaN 602.6185704742818 0.9884004676819551 139.0 0.0 66.0 
96.00008466603501 482.0 NaN 602.62124248497 0.9942019506258812 138.0 0.0 66.0 
98.00027805237796 482.0 NaN 605.6993987975956 0.9984403286796418 135.0 0.0 67.0 
100.00027805237796 484.0 NaN 605.6860387441544 1.0189612464093645 134.0 0.0 67.0 
102.00027805237796 480.0 NaN 605.7020708082832 0.9967829186082549 127.0 0.0 67.0 
104.00027805237796 480.0 NaN 605.7047428189713 0.9967725648303812 126.0 0.0 67.0 
106.00008466603501 481.0 NaN 605.7100868403473 0.9936741376196886 124.0 0.0 67.0 
108.00027805237796 483.0 NaN 593.3974615898461 1.001168015257782 121.0 0.0 63.0 
110.00027805237796 484.0 NaN 593.4081496325983 0.9965602866457831 121.0 0.0 63.0 
112.00027805237796 483.0 NaN 593.4188376753505 0.9906902053647011 122.0 0.0 63.0 
114.00027805237796 482.0 NaN 590.3353373413495 0.9928069302400805 120.0 0.0 62.0 
116.00008466603501 481.0 NaN 587.2491649966597 0.9926795159740676 119.0 0.0 61.0 
118.00027805237796 486.0 NaN 590.3326653306613 1.0021208233532017 120.0 0.0 62.0 
120.00027805237796 483.0 NaN 596.5050100200403 0.9946523363132647 119.0 0.0 64.0 
122.00027805237796 484.0 NaN 596.4889779559119 0.9920244623223582 120.0 0.0 64.0 
124.00027805237796 486.0 NaN 596.4889779559119 0.9943308424033998 122.0 0.0 64.0 
126.00008466603501 489.0 NaN 596.4889779559119 0.9977430880043564 123.0 0.0 64.0 
128.00027805237795 490.0 NaN 599.5804943219773 0.9946585167015994 124.0 0.0 65.0 
130.00027805237795 496.0 NaN 608.7962591850363 0.9993488957425068 124.0 0.0 68.0 
132.00027805237795 497.0 NaN 608.7962591850363 0.9990735765239307 128.0 0.0 68.0 
134.00027805237795 499.0 NaN 608.7615230460922 0.9981213717094013 127.0 0.0 68.0 
136.000084666035 500.0 NaN 608.7561790247164 1.0032968711570156 127.0 0.0 68.0 
138.00027805237795 496.0 NaN 605.6833667334669 1.0041235551884387 127.0 0.0 67.0 
140.00027805237795 499.0 NaN 611.8396793587181 0.9778136108255884 124.0 0.0 69.0 
142.00027805237795 506.0 NaN 611.7889111556452 1.0022166833618682 124.0 0.0 69.0 
144.00027805237795 505.0 NaN 611.7835671342681 0.9964209599934766 124.0 0.0 69.0 
146.000084666035 506.0 NaN 608.7187708750835 0.996624736113138 124.0 0.0 68.0 
148.00027805237795 509.0 NaN 608.7187708750835 1.0160771188364577 126.0 0.0 68.0 
150.00027805237795 510.0 NaN 611.7995991983968 1.0103510791556873 126.0 0.0 69.0 
152.00027805237795 502.0 NaN 608.7722110888452 1.0018791792833641 126.0 0.0 68.0 
154.00027805237795 500.0 NaN 608.7775551102197 1.00397790515874 125.0 0.0 68.0 
156.000084666035 501.0 NaN 611.8396793587178 0.9999999644446278 126.0 0.0 69.0 
158.00027805237795 502.0 NaN 611.8396793587178 1.0032477198268435 129.0 0.0 69.0 
160.00027805237795 499.0 NaN 611.8396793587178 1.0210246391287356 129.0 0.0 69.0 
162.00027805237795 494.0 NaN 605.7100868403475 0.9954466090239737 126.0 0.0 67.0 
164.00027805237795 492.0 NaN 605.6673346693387 1.0110394880470044 126.0 0.0 67.0 
166.000084666035 492.0 NaN 605.6459585838343 1.003120354203328 125.0 0.0 67.0 
168.00027805237795 498.0 NaN 605.6673346693387 1.008039706943251 128.0 0.0 67.0 
170.00027805237795 498.0 NaN 605.6646626586504 1.0041101336627187 128.0 0.0 67.0 
172.00027805237795 492.0 NaN 602.6372745490979 1.0022529460004905 125.0 0.0 66.0 
174.00027805237795 486.0 NaN 602.6078824315297 0.9918499997508221 127.0 0.0 66.0 
176.000084666035 490.0 NaN 602.5811623246497 0.9988881559627665 127.0 0.0 66.0 
178.00027805237795 489.0 NaN 602.5838343353367 1.0186741217558444 128.0 0.0 66.0 
180.00027805237795 486.0 NaN 602.5678022712091 1.0146897687584135 127.0 0.0 66.0 
182.00027805237795 480.0 NaN 608.7107548430197 0.9891138044615169 125.0 0.0 68.0 
184.00027805237795 479.0 NaN 608.6893787575151 0.9873248409265387 125.0 0.0 68.0 
186.000084666035 480.0 NaN 608.6893787575151 0.9979012773913293 123.0 0.0 68.0 
188.00027805237795 483.0 NaN 602.5597862391455 0.9786490076572529 123.0 0.0 66.0 
190.00027805237795 490.0 NaN 614.8830995323981 0.9814082360591803 124.0 0.0 70.0 
192.00027805237795 495.0 NaN 614.9311957247824 0.9887399630863549 121.0 0.0 70.0 
194.00027805237795 496.0 NaN 614.8991315965267 0.9797562502678435 123.0 0.0 70.0 
196.000084666035 502.0 NaN 614.8991315965267 0.9872984735243316 120.0 0.0 70.0 
198.00027805237795 502.0 NaN 614.9018036072142 0.9988706901572659 121.0 0.0 70.0 
200.00027805237795 499.0 NaN 611.8370073480294 0.9920607188912839 119.0 0.0 69.0 
202.00027805237795 503.0 NaN 611.8423513694053 0.9863947024515768 118.0 0.0 69.0 
204.00027805237795 509.0 NaN 614.8937875751499 0.9960150069756578 120.0 0.0 70.0 
206.000084666035 511.0 NaN 621.0848363393454 0.9924960579506621 120.0 0.0 72.0 
208.00027805237795 508.0 NaN 621.0688042752179 1.003746231866879 121.0 0.0 72.0 
210.00027805237795 504.0 NaN 624.1229124916499 1.0050132492458057 123.0 0.0 73.0 
212.00027805237795 497.0 NaN 618.0120240480958 0.9947558312074962 122.0 0.0 71.0 
214.00027805237795 498.0 NaN 618.0227120908485 0.9858709401785692 122.0 0.0 71.0 
216.000084666035 499.0 NaN 614.9418837675347 0.9866367511033274 121.0 0.0 70.0 
218.00027805237795 499.0 NaN 614.9044756179027 0.9923106567108283 121.0 0.0 70.0 
220.00027805237795 495.0 NaN 614.8777555110227 1.0010124584308118 120.0 0.0 70.0 
222.00027805237795 488.0 NaN 614.9018036072138 0.9929482294793041 120.0 0.0 70.0 
224.00027805237795 485.0 NaN 611.8450233800935 0.9825387227272497 120.0 0.0 69.0 
226.000084666035 487.0 NaN 611.8770875083501 0.991348820093659 120.0 0.0 69.0 
228.00027805237795 487.0 NaN 611.8583834335338 0.9959769079145065 120.0 0.0 69.0 
230.00027805237795 489.0 NaN 611.8423513694048 1.0008260426520632 117.0 0.0 69.0 
232.00027805237795 486.0 NaN 608.7909151636609 0.9938148325618826 116.0 0.0 68.0 
234.00027805237795 487.0 NaN 608.7748830995317 0.9886730203348065 115.0 0.0 68.0 
236.000084666035 489.0 NaN 608.7775551102203 0.979463948911747 114.0 0.0 68.0 
238.00027805237795 498.0 NaN 611.8637274549094 1.0038718121817656 115.0 0.0 69.0 
240.00027805237795 498.0 NaN 611.839679358718 1.0095573645431546 115.0 0.0 69.0 
242.00027805237795 500.0 NaN 614.9205076820317 0.9963424378532475 118.0 0.0 70.0 
244.00027805237795 503.0 NaN 617.99331997328 0.9966144483511761 119.0 0.0 71.0 
246.000084666035 505.0 NaN 621.076820307282 0.9949391211352413 119.0 0.0 72.0 
248.00027805237795 505.0 NaN 621.0394121576485 1.0064386881641334 118.0 0.0 72.0 
250.00027805237795 503.0 NaN 624.1255845023377 0.9843975787609174 122.0 0.0 73.0 
252.00027805237795 507.0 NaN 624.0801603206409 0.9983913696791061 122.0 0.0 73.0 
254.00027805237795 505.0 NaN 624.0774883099532 0.9860907328141154 122.0 0.0 73.0 
256.00008466603504 501.0 NaN 624.1148964595865 0.9969752924343621 121.0 0.0 73.0 
258.00027805237795 493.0 NaN 624.0855043420182 0.990433283640257 121.0 0.0 73.0 
260.00027805237795 492.0 NaN 624.0881763527045 1.0081875641002387 120.0 0.0 73.0 
262.00027805237795 490.0 NaN 624.0828323313286 1.0003212015922185 118.0 0.0 73.0 
264.00027805237795 489.0 NaN 624.0614562458259 1.003275257684069 119.0 0.0 73.0 
266.00008466603504 487.0 NaN 624.1015364061454 0.9899434380015842 118.0 0.0 73.0 
268.00027805237795 490.0 NaN 624.0908483633939 1.0000098758942795 119.0 0.0 73.0 
270.00027805237795 491.0 NaN 621.060788243153 0.984541158120342 119.0 0.0 72.0 
272.00027805237795 494.0 NaN 621.060788243153 0.9991323880711444 118.0 0.0 72.0 
274.00027805237795 493.0 NaN 621.060788243153 1.0024829890744384 118.0 0.0 72.0 
276.00008466603504 491.0 NaN 621.0367401469607 0.9897106824953557 115.0 0.0 72.0 
278.00027805237795 492.0 NaN 617.9185036740136 0.9788393236666798 117.0 0.0 71.0 
280.00027805237795 499.0 NaN 614.8857715430864 0.9935456479967917 116.0 0.0 70.0 
282.00027805237795 500.0 NaN 608.7214428857707 0.9969108328323562 114.0 0.0 68.0 
284.00027805237795 499.0 NaN 605.651302605211 1.0103961455528818 114.0 0.0 67.0 
286.00008466603504 494.0 NaN 602.5731462925845 1.0100755899869278 112.0 0.0 66.0 
288.00027805237795 496.0 NaN 605.6352705410817 0.9808583897596991 114.0 0.0 67.0 
290.00027805237795 504.0 NaN 602.5918503674017 1.0040785701967077 112.0 0.0 66.0 
292.00027805237795 490.0 NaN 599.5350701402801 0.9820612034204881 114.0 0.0 65.0 
294.00027805237795 494.0 NaN 599.5270541082161 0.9756469176830822 113.0 0.0 65.0 
296.00008466603504 501.0 NaN 602.6185704742818 0.99302659223083 116.0 0.0 66.0 
298.00027805237795 498.0 NaN 602.6452905811619 1.0189490273492512 113.0 0.0 66.0 
300.00027805237795 484.0 NaN 602.6452905811619 0.9951677960100291 112.0 0.0 66.0 
302.00027805237795 474.0 NaN 602.6426185704744 1.0185543829703512 112.0 0.0 66.0 
304.00027805237795 469.0 NaN 602.6265865063452 0.9906640209578825 111.0 0.0 66.0 
306.00008466603504 472.0 NaN 602.6025384101545 0.9926447157159661 112.0 0.0 66.0 
308.00027805237795 476.0 NaN 602.60788243153 0.9862675608295284 112.0 0.0 66.0 
310.00027805237795 477.0 NaN 602.6265865063452 1.0006117873838873 112.0 0.0 66.0 
312.00027805237795 471.0 NaN 599.5644622578499 1.0025521578689724 110.0 0.0 65.0 
314.00027805237795 471.0 NaN 599.585838343353 0.9932327372057917 110.0 0.0 65.0 
316.00008466603504 470.0 NaN 590.3780895123591 0.9949840965906513 110.0 0.0 62.0 
318.00027805237795 471.0 NaN 584.2244488977954 0.9859760705132565 111.0 0.0 60.0 
320.00027805237795 475.0 NaN 584.2191048764199 0.9833205342945817 111.0 0.0 60.0 
322.00027805237795 477.0 NaN 584.2110888443548 0.9861804374151674 111.0 0.0 60.0 
324.00027805237795 480.0 NaN 584.2137608550433 0.9842625705880468 110.0 0.0 60.0 
326.00008466603504 478.0 NaN 584.2084168336679 0.9949966506683794 110.0 0.0 60.0 
328.00027805237795 475.0 NaN 584.2004008016029 1.0020375733761602 107.0 0.0 60.0 
330.00027805237795 473.0 NaN 587.275885103541 0.9839623541137174 106.0 0.0 61.0 
332.00027805237795 476.0 NaN 590.3246492985978 0.9799189772459889 105.0 0.0 62.0 
334.00027805237795 478.0 NaN 590.3460253841017 1.0053328367561671 106.0 0.0 62.0 
336.00008466603504 474.0 NaN 590.327321309286 0.9826118444510442 105.0 0.0 62.0 
338.00027805237795 481.0 NaN 590.3353373413496 0.9864533268085937 105.0 0.0 62.0 
340.00027805237795 489.0 NaN 596.4676018704074 0.9840044539393651 109.0 0.0 64.0 
342.00027805237795 491.0 NaN 593.4054776219108 1.0153012552781189 110.0 0.0 63.0 
344.00027805237795 483.0 NaN 593.3653974615906 0.9986409741617318 110.0 0.0 63.0 
346.00008466603504 478.0 NaN 590.2899131596524 0.9892741375870541 110.0 0.0 62.0 
348.00027805237795 479.0 NaN 590.295257181029 0.9927823995180304 110.0 0.0 62.0 
350.00027805237795 481.0 NaN 587.23580494322 1.0016535340776205 111.0 0.0 61.0 
352.00027805237795 479.0 NaN 587.2865731462931 0.986682273022712 110.0 0.0 61.0 
354.00027805237795 481.0 NaN 587.2545090180365 0.9918614957989128 110.0 0.0 61.0 
356.00008466603504 480.0 NaN 587.2491649966593 0.9980889214198656 110.0 0.0 61.0 
358.00027805237795 478.0 NaN 587.2491649966593 0.993992823361836 109.0 0.0 61.0 
360.00027805237795 476.0 NaN 584.1897127588502 0.9929187732529946 105.0 0.0 60.0 
362.00027805237795 470.0 NaN 581.1462925851705 0.9953164104147434 107.0 0.0 59.0 
364.00027805237795 473.0 NaN 581.1436205744818 0.980568592449692 106.0 0.0 59.0 
366.00008466603504 477.0 NaN 581.1302605210423 0.9982779068582073 104.0 0.0 59.0 
368.00027805237795 477.0 NaN 581.1302605210423 1.001005034482609 102.0 0.0 59.0 
370.00027805237795 471.0 NaN 581.140948563794 0.9913339616696217 104.0 0.0 59.0 
372.00027805237795 469.0 NaN 584.2057448229797 1.00429502049264 105.0 0.0 60.0 
374.00027805237795 467.0 NaN 587.2865731462932 0.9807562964452258 106.0 0.0 61.0 
376.00008466603504 471.0 NaN 587.2732130928523 0.9888852583082745 106.0 0.0 61.0 
378.00027805237795 472.0 NaN 587.2839011356045 0.9960600687373357 106.0 0.0 61.0 
380.00027805237795 468.0 NaN 587.2812291249159 1.0052745491630843 106.0 0.0 61.0 
382.00027805237795 456.0 NaN 587.3213092852368 1.0031309911655826 106.0 0.0 61.0 
384.00027805237795 453.0 NaN 590.3780895123588 0.9916282125409159 104.0 0.0 62.0 
386.00008466603504 452.0 NaN 590.3727454909817 1.0185765313950874 103.0 0.0 62.0 
388.00027805237795 449.0 NaN 590.3700734802937 0.9877211337657749 103.0 0.0 62.0 
390.00027805237795 456.0 NaN 587.3266533066137 0.9868830224164973 102.0 0.0 61.0 
392.00027805237795 464.0 NaN 596.529058116232 0.9830110499374689 107.0 0.0 64.0 
394.00027805237795 466.0 NaN 596.5103540414161 0.9961320260496436 107.0 0.0 64.0 
396.00008466603504 467.0 NaN 596.4809619238473 0.998299406711983 107.0 0.0 64.0 
398.00027805237795 471.0 NaN 596.4943219772881 0.992913439005299 107.0 0.0 64.0 
400.00027805237795 471.0 NaN 596.5023380093518 1.0144697069740258 109.0 0.0 64.0 
402.00027805237795 461.0 NaN 596.5237140948564 0.9871428604822086 109.0 0.0 64.0 
404.00027805237795 465.0 NaN 596.4889779559118 0.9899676225395779 109.0 0.0 64.0 
406.00008466603504 469.0 NaN 605.7261189044757 1.0127195191318208 110.0 0.0 67.0 
408.00027805237795 466.0 NaN 605.7394789579155 1.0020466150461256 112.0 0.0 67.0 
410.00027805237795 471.0 NaN 608.8523714094862 0.9957128329199292 112.0 0.0 68.0 
412.00027805237795 481.0 NaN 608.8416833667334 0.9864349224259762 113.0 0.0 68.0 
414.00027805237795 484.0 NaN 608.7989311957247 0.9993486332803618 113.0 0.0 68.0 
416.00008466603504 481.0 NaN 608.7828991315956 0.9998271539069268 113.0 0.0 68.0 
418.00027805237795 483.0 NaN 614.9712758851044 0.9931516809436808 114.0 0.0 70.0 
420.00027805237795 492.0 NaN 624.1843687374744 1.0008081483995213 116.0 0.0 73.0 
422.00027805237795 487.0 NaN 624.208416833668 1.005086526204657 116.0 0.0 73.0 
424.00027805237795 483.0 NaN 627.171676686706 0.9904840441152328 122.0 0.0 74.0 
426.00008466603504 484.0 NaN 627.1743486973953 0.9766377788957613 122.0 0.0 74.0 
428.00027805237795 487.0 NaN 627.1796927187713 0.9957467755037609 122.0 0.0 74.0 
430.00027805237795 487.0 NaN 633.3333333333328 1.0021297791525794 124.0 0.0 76.0 
432.00027805237795 481.0 NaN 633.3466933867727 0.9966008453631962 123.0 0.0 76.0 
434.00027805237795 479.0 NaN 636.3740814963264 0.9951344178802372 124.0 0.0 77.0 
436.00008466603504 480.0 NaN 636.3580494321993 0.987988138613801 126.0 0.0 77.0 
438.00027805237795 482.0 NaN 636.3740814963264 0.9871056670477911 126.0 0.0 77.0 
440.00027805237795 484.0 NaN 633.3039412157646 0.988400820814247 126.0 0.0 76.0 
442.00027805237795 489.0 NaN 627.1743486973953 1.0245698880177143 127.0 0.0 74.0 
444.00027805237795 469.0 NaN 627.1716766867061 0.986336863142048 122.0 0.0 74.0 
446.00008466603504 469.0 NaN 627.1903807615226 0.9891126816128352 123.0 0.0 74.0 
448.00027805237795 474.0 NaN 630.2418169672683 0.9978473654607742 120.0 0.0 75.0 
450.00027805237795 471.0 NaN 630.2418169672683 1.0092765863596866 124.0 0.0 75.0 
452.00027805237795 472.0 NaN 636.3820975283909 0.9844554705375552 126.0 0.0 77.0 
454.00027805237795 470.0 NaN 636.3714094856374 0.9842602971308259 125.0 0.0 77.0 
456.00008466603504 474.0 NaN 636.3740814963262 0.9900320658443171 127.0 0.0 77.0 
458.00027805237795 476.0 NaN 636.3473613894455 0.9823808326919057 128.0 0.0 77.0 
460.00027805237795 482.0 NaN 636.3927855711421 0.9895281382710203 128.0 0.0 77.0 
462.00027805237795 486.0 NaN 636.4061456245819 0.9901527572807958 127.0 0.0 77.0 
464.00027805237795 488.0 NaN 636.3633934535727 0.9881588066344504 127.0 0.0 77.0 
466.00008466603504 488.0 NaN 636.3553774215089 1.0047967262564923 127.0 0.0 77.0 
468.00027805237795 482.0 NaN 636.3633934535727 1.002818172029109 125.0 0.0 77.0 
470.00027805237795 475.0 NaN 636.3446893787577 1.0068426880071346 124.0 0.0 77.0 
472.00027805237795 468.0 NaN 633.2798931195729 1.001388514015623 121.0 0.0 76.0 
474.00027805237795 457.0 NaN 633.2638610554441 0.9770400297598469 121.0 0.0 76.0 
476.00008466603504 461.0 NaN 630.1803607214424 0.9720982206097831 121.0 0.0 75.0 
478.00027805237795 466.0 NaN 627.1342685370739 0.9820455550809231 122.0 0.0 74.0 
480.00027805237795 468.0 NaN 627.1315965263865 1.0044214737758215 123.0 0.0 74.0 
482.00027805237795 463.0 NaN 624.0721442885774 1.0006724806579468 122.0 0.0 73.0 
484.00027805237795 457.0 NaN 624.0454241816968 0.9784602706473339 124.0 0.0 73.0 
486.00008466603504 458.0 NaN 623.9919839679366 0.9957299042621689 124.0 0.0 73.0 
488.00027805237795 464.0 NaN 624.0 0.9863244340040667 122.0 0.0 73.0 
490.00027805237795 467.0 NaN 614.8617234468938 0.9847035081540524 121.0 0.0 70.0 
492.00027805237795 467.0 NaN 611.799599198397 0.9870439664252467 123.0 0.0 69.0 
494.00027805237795 466.0 NaN 608.7668670674682 0.9688515584795411 122.0 0.0 68.0 
496.00008466603504 473.0 NaN 611.8156312625254 0.9833629596988958 121.0 0.0 69.0 
498.00027805237795 474.0 NaN 608.7802271209089 0.9841534077895558 120.0 0.0 68.0 
500.00027805237795 470.0 NaN 605.7207748831001 0.9860360206253278 118.0 0.0 67.0 
502.00027805237795 467.0 NaN 596.4996659986637 0.9969620187600713 116.0 0.0 64.0 
504.00027805237795 464.0 NaN 590.3299933199728 0.9741010555166184 115.0 0.0 62.0 
506.00008466603504 466.0 NaN 587.2571810287241 0.9770304613785642 113.0 0.0 61.0 
508.00027805237795 469.0 NaN 587.246492985972 0.9785074547178982 113.0 0.0 61.0 
510.00027805237795 471.0 NaN 590.3246492985976 0.9784722737828921 113.0 0.0 62.0 
512.0002780523779 471.0 NaN 584.189712758851 0.9903927394634395 112.0 0.0 60.0 
514.0002780523779 467.0 NaN 584.1816967267866 0.9873912944117839 112.0 0.0 60.0 
516.000084666035 465.0 NaN 584.2084168336672 0.9790176284505457 112.0 0.0 60.0 
518.0002780523779 468.0 NaN 584.1950567802273 1.0067533879355846 112.0 0.0 60.0 
520.0002780523779 463.0 NaN 584.1763527054111 0.993122912876431 112.0 0.0 60.0 
522.0002780523779 462.0 NaN 578.0414161656648 0.9920093382278998 111.0 0.0 58.0 
524.0002780523779 459.0 NaN 578.0334001336003 0.9860934987997693 109.0 0.0 58.0 
526.000084666035 456.0 NaN 574.9819639278558 0.9811363085272972 108.0 0.0 57.0 
528.0002780523779 459.0 NaN 571.8957915831663 0.9966270248787839 110.0 0.0 56.0 
530.0002780523779 464.0 NaN 574.9792919171678 0.9918269792593063 109.0 0.0 57.0 
532.0002780523779 465.0 NaN 574.9792919171678 0.9981649969610548 106.0 0.0 57.0 
534.0002780523779 463.0 NaN 574.9792919171678 0.9941682208239935 105.0 0.0 57.0 
536.000084666035 462.0 NaN 575.000668002672 0.9970754465348848 103.0 0.0 57.0 
538.0002780523779 458.0 NaN 574.9953239812959 0.9903993443602053 103.0 0.0 57.0 
540.0002780523779 459.0 NaN 578.0841683366734 1.0103417740592848 102.0 0.0 58.0 
542.0002780523779 456.0 NaN 578.1028724114898 0.994298939752156 102.0 0.0 58.0 
544.0002780523779 456.0 NaN 578.0814963259852 0.9862936889372415 101.0 0.0 58.0 
546.000084666035 457.0 NaN 581.1623246492989 0.9884453942531483 102.0 0.0 59.0 
548.0002780523779 458.0 NaN 581.1409485637944 0.9773162070138686 102.0 0.0 59.0 
550.0002780523779 459.0 NaN 578.0734802939211 0.998022635593444 101.0 0.0 58.0 
552.0002780523779 460.0 NaN 578.0921843687374 0.9968519949198175 102.0 0.0 58.0 
554.0002780523779 458.0 NaN 581.1195724782897 1.0038102244934568 105.0 0.0 59.0 
556.000084666035 456.0 NaN 581.130260521042 0.9932639416057439 105.0 0.0 59.0 
558.0002780523779 454.0 NaN 581.13293253173 1.0033202805698789 105.0 0.0 59.0 
560.0002780523779 450.0 NaN 581.130260521042 0.9806238348247458 104.0 0.0 59.0 
562.0002780523779 455.0 NaN 578.0895123580495 0.9884339906641099 106.0 0.0 58.0 
564.0002780523779 456.0 NaN 574.9712758851034 0.9895203617474898 106.0 0.0 57.0 
566.000084666035 451.0 NaN 574.9819639278558 1.008994633280412 108.0 0.0 57.0 
568.0002780523779 445.0 NaN 574.9712758851034 0.981618630930135 106.0 0.0 57.0 
570.0002780523779 449.0 NaN 574.9712758851034 0.9931051287531734 106.0 0.0 57.0 
572.0002780523779 453.0 NaN 578.0895123580495 1.0085556983323434 105.0 0.0 58.0 
574.0002780523779 450.0 NaN 578.0547762191048 0.9833850445378263 105.0 0.0 58.0 
576.000084666035 453.0 NaN 578.0601202404807 0.9834554344963132 105.0 0.0 58.0 
578.0002780523779 461.0 NaN 578.0654642618568 1.0009931585485348 106.0 0.0 58.0 
580.0002780523779 459.0 NaN 575.0247160988644 1.0031812924873766 103.0 0.0 57.0 
582.0002780523779 453.0 NaN 578.113560454242 0.9873679712996196 105.0 0.0 58.0 
584.0002780523779 458.0 NaN 578.070808283233 1.006107297472802 106.0 0.0 58.0 
586.000084666035 456.0 NaN 578.070808283233 1.0075883205536862 105.0 0.0 58.0 
588.0002780523779 459.0 NaN 581.1329325317299 1.0092261979080084 106.0 0.0 59.0 
590.0002780523779 458.0 NaN 584.2324649298598 0.9978457811178485 104.0 0.0 60.0 
592.0002780523779 458.0 NaN 584.2565130260523 0.9883470128229256 104.0 0.0 60.0 
594.0002780523779 461.0 NaN 584.1496325985306 0.999516365372433 104.0 0.0 60.0 
596.000084666035 467.0 NaN 584.1496325985306 1.0102893470457046 105.0 0.0 60.0 
598.0002780523779 470.0 NaN 584.1576486305944 1.0144873606472544 104.0 0.0 60.0 
600.0002780523779 465.0 NaN 584.1950567802273 0.9877984347058675 107.0 0.0 60.0 
602.0002780523779 469.0 NaN 587.2625250501001 1.0131517127360696 107.0 0.0 61.0 
604.0002780523779 463.0 NaN 587.2625250501001 1.0053232815373818 106.0 0.0 61.0 
606.000084666035 464.0 NaN 584.1923847695389 0.9959364712867375 106.0 0.0 60.0 
608.0002780523779 474.0 NaN 587.2758851035408 1.0134695338568838 107.0 0.0 61.0 
610.0002780523779 479.0 NaN 596.5263861055449 1.0046874005800381 109.0 0.0 64.0 
612.0002780523779 473.0 NaN 593.4081496325983 1.0057141801119416 110.0 0.0 63.0 
614.0002780523779 473.0 NaN 593.3974615898462 0.991890252373117 113.0 0.0 63.0 
616.000084666035 475.0 NaN 587.2625250501 1.0063120536059682 110.0 0.0 61.0 
618.0002780523779 478.0 NaN 587.2812291249159 1.0037529933705487 112.0 0.0 61.0 
620.0002780523779 474.0 NaN 590.4048096192387 1.0213553590941338 110.0 0.0 62.0 
622.0002780523779 461.0 NaN 587.3079492317971 0.988549017877834 111.0 0.0 61.0 
624.0002780523779 464.0 NaN 587.2678690714766 0.9930068879044275 110.0 0.0 61.0 
626.000084666035 465.0 NaN 587.259853039412 0.9917893424345813 108.0 0.0 61.0 
628.0002780523779 474.0 NaN 590.3273213092857 1.0049396343592507 113.0 0.0 62.0 
630.0002780523779 477.0 NaN 593.4215096860386 0.9804351275741914 115.0 0.0 63.0 
632.0002780523779 483.0 NaN 596.4943219772881 0.9929446630038415 120.0 0.0 64.0 
634.0002780523779 477.0 NaN 596.4355377421505 0.9805419768758645 120.0 0.0 64.0 
636.000084666035 475.0 NaN 596.430193720775 0.9792461518152131 119.0 0.0 64.0 
638.0002780523779 478.0 NaN 599.5163660654641 1.0042385631217359 118.0 0.0 65.0 
640.0002780523779 471.0 NaN 608.8283233132931 1.0020387988119404 118.0 0.0 68.0 
642.0002780523779 465.0 NaN 605.7127588510358 1.0004550324794725 118.0 0.0 67.0 
644.0002780523779 458.0 NaN 605.6860387441545 0.974493246896824 117.0 0.0 67.0 
646.000084666035 462.0 NaN 605.6486305945227 0.978274862379837 118.0 0.0 67.0 
648.0002780523779 469.0 NaN 611.8049432197727 1.011024374295647 123.0 0.0 69.0 
650.0002780523779 463.0 NaN 605.6806947227786 0.989648408162083 122.0 0.0 67.0 
652.0002780523779 464.0 NaN 602.6078824315294 0.9976852497163611 127.0 0.0 66.0 
654.0002780523779 465.0 NaN 602.5945223780898 0.9881674868807925 125.0 0.0 66.0 
656.000084666035 471.0 NaN 608.7294589178357 0.9914879859632343 126.0 0.0 68.0 
658.0002780523779 476.0 NaN 608.7508350033401 0.9979235056424062 129.0 0.0 68.0 
660.0002780523779 484.0 NaN 611.8717434869742 1.017574690719127 129.0 0.0 69.0 
662.0002780523779 475.0 NaN 614.9231796927181 1.0291487545525266 128.0 0.0 70.0 
664.0002780523779 462.0 NaN 614.9044756179022 0.9958293332616032 122.0 0.0 70.0 
#####################################################################
# End of data export. Simulation finished at: 2019-03-05T20:19+0000 #
#####################################################################
