#####################################################################
# Alchemist log file - simulation started at: 2019-03-16T22:05+0000 #
#####################################################################
# seed = 8.0, bandwidth = 1333521.4321633242, propagationDelay = 0.31622776601683794, baserange = 316.2277660168379
#
# The columns have the following meaning: 
# time neighbor_count[Sum] <value>@neighbor_count[Sum] packet_size[Mean] mean_delay[Mean] crowd[Sum] overcrowded[Sum] risk[Sum] 
0.0 NaN NaN NaN NaN NaN NaN NaN 
2.000927030832833 48524.0 NaN 4993.496325985304 0.4800209597766413 1497.0 0.0 1497.0 
4.000927030832833 51288.0 NaN 4993.311957247829 0.5051720770292516 1496.0 1.0 1496.0 
6.000198348008885 51288.0 NaN 4995.214428857716 0.5051721253123326 1496.0 1.0 1496.0 
8.000927030832834 51288.0 NaN 4994.26586506346 0.5051720786628983 1495.0 2.0 1495.0 
10.000927030832834 51288.0 NaN 4994.912491649967 0.505310158461641 1494.0 3.0 1494.0 
12.000927030832834 51291.0 NaN 4995.668670674682 0.5057521889401079 1494.0 3.0 1494.0 
14.000927030832834 51289.0 NaN 4994.086840347361 0.5050978215193626 1496.0 1.0 1496.0 
16.000198348008887 51290.0 NaN 4994.423513694055 0.5051037694293795 1494.0 3.0 1494.0 
18.000927030832834 51297.0 NaN 4995.74081496326 0.5061978521588727 1494.0 3.0 1494.0 
20.000927030832834 51296.0 NaN 4994.674682698731 0.5052142489016345 1496.0 1.0 1496.0 
22.000927030832834 51313.0 NaN 4994.573146292585 0.5057928041826659 1493.0 4.0 1493.0 
24.000927030832834 51343.0 NaN 4995.462925851703 0.505715024847741 1492.0 5.0 1492.0 
26.000198348008887 51350.0 NaN 4994.1189044756175 0.5063309142459164 1496.0 1.0 1496.0 
28.000927030832834 51331.0 NaN 4994.653306613226 0.5071964606869087 1494.0 3.0 1494.0 
30.000927030832834 51323.0 NaN 4995.975951903808 0.5057939968207755 1494.0 3.0 1494.0 
32.000927030832834 51341.0 NaN 4994.324649298597 0.505594690258836 1496.0 1.0 1496.0 
34.000927030832834 51381.0 NaN 4994.37541750167 0.505896773241909 1493.0 4.0 1493.0 
36.00019834800889 51385.0 NaN 4995.516366065464 0.5065008492329454 1491.0 6.0 1491.0 
38.000927030832834 51352.0 NaN 4994.36205744823 0.5084371740287236 1496.0 1.0 1496.0 
40.000927030832834 51353.0 NaN 4994.944555778223 0.5055631213354866 1494.0 3.0 1494.0 
42.000927030832834 51363.0 NaN 4995.682030728123 0.5065042500749254 1494.0 3.0 1494.0 
44.000927030832834 51384.0 NaN 4994.092184368737 0.5068610330263749 1495.0 2.0 1495.0 
46.00019834800889 51354.0 NaN 4994.383433533734 0.5066745427896342 1491.0 6.0 1491.0 
48.000927030832834 51331.0 NaN 4995.714094856379 0.5080644496529149 1492.0 5.0 1492.0 
50.000927030832834 51336.0 NaN 4994.591850367401 0.5051204252174023 1497.0 0.0 1497.0 
52.000927030832834 51355.0 NaN 4994.538410153641 0.5071616635983894 1494.0 3.0 1494.0 
54.000927030832834 51376.0 NaN 4995.4201736806945 0.5056189680261332 1492.0 5.0 1492.0 
56.00019834800889 51377.0 NaN 4994.124248496994 0.5052747110385405 1496.0 1.0 1496.0 
58.000927030832834 51401.0 NaN 4994.610554442218 0.5058056629102785 1494.0 3.0 1494.0 
60.000927030832834 51421.0 NaN 4995.978623914496 0.5058720336604654 1494.0 3.0 1494.0 
62.000403365708245 51421.0 NaN 1519.3827655310633 0.5051923522241906 815.0 1.0 363.0 
64.00040336570825 51424.0 NaN 1522.5277221108886 0.5059444642155724 647.0 3.0 362.0 
66.0001983480089 51474.0 NaN 1522.4288577154302 0.5068111615048064 593.0 5.0 360.0 
68.00040336570825 51464.0 NaN 1522.3647294589182 0.5063004074779278 564.0 6.0 359.0 
70.00040336570825 51475.0 NaN 1525.5337341349364 0.5061966883274053 539.0 6.0 360.0 
72.00040336570825 51470.0 NaN 1525.4802939211752 0.5057238555181488 534.0 5.0 361.0 
74.00040336570825 51470.0 NaN 1525.4562458249823 0.5060353086344217 528.0 5.0 361.0 
76.0001983480089 51462.0 NaN 1531.660654642618 0.5056533198439057 528.0 5.0 363.0 
78.00040336570825 51504.0 NaN 1531.6633266533067 0.5065043246630991 525.0 5.0 363.0 
80.00040336570825 51518.0 NaN 1531.6098864395453 0.5052009841239169 522.0 5.0 363.0 
82.00040336570825 51510.0 NaN 1531.660654642618 0.5050319674739668 523.0 5.0 363.0 
84.00040336570825 51510.0 NaN 1534.7414829659303 0.5045769385770122 522.0 6.0 363.0 
86.0001983480089 51515.0 NaN 1534.677354709418 0.5044817219416187 520.0 6.0 363.0 
88.00040336570825 51549.0 NaN 1534.7441549766183 0.5051837269710592 521.0 6.0 363.0 
90.00040336570825 51561.0 NaN 1534.7361389445546 0.5051504200865659 520.0 6.0 363.0 
92.00040336570825 51556.0 NaN 1534.661322645291 0.504678906500919 520.0 6.0 363.0 
94.00040336570825 51557.0 NaN 1534.7548430193729 0.505229900626536 520.0 6.0 363.0 
96.0001983480089 51548.0 NaN 1537.7902471609907 0.504613318161698 521.0 5.0 365.0 
98.00040336570825 51555.0 NaN 1537.7528390113548 0.5049756080984273 521.0 6.0 364.0 
100.00040336570825 51539.0 NaN 1537.8436873747485 0.5062287421900575 521.0 7.0 363.0 
102.00040336570825 51521.0 NaN 1537.7955911823633 0.5047471928166192 521.0 7.0 363.0 
104.00040336570825 51516.0 NaN 1537.7688710754842 0.5046113113192737 519.0 7.0 363.0 
106.0001983480089 51505.0 NaN 1537.827655310621 0.5050059203025001 520.0 6.0 364.0 
108.00040336570825 51498.0 NaN 1537.7929191716757 0.5049271057313 521.0 5.0 365.0 
110.00040336570825 51494.0 NaN 1537.7688710754842 0.505328802499786 518.0 7.0 363.0 
112.00040336570825 51532.0 NaN 1540.8630594522367 0.5046816466598785 520.0 7.0 364.0 
114.00040336570825 51546.0 NaN 1540.8764195056788 0.5053149625491319 520.0 7.0 364.0 
116.0001983480089 51532.0 NaN 1540.8229792919183 0.5049666671444005 520.0 6.0 365.0 
118.00040336570825 51517.0 NaN 1543.9786239144967 0.5053257096864455 523.0 6.0 366.0 
120.00040336570825 51501.0 NaN 1547.0407481629911 0.5047895056044794 523.0 6.0 367.0 
122.00040336570825 51531.0 NaN 1546.963259853039 0.505042006044466 523.0 6.0 367.0 
124.00040336570825 51519.0 NaN 1543.9599198396795 0.5047725998899707 523.0 6.0 366.0 
126.0001983480089 51515.0 NaN 1543.9412157648637 0.5051338749589327 523.0 6.0 366.0 
128.00040336570825 51498.0 NaN 1543.9011356045426 0.5040518463046542 523.0 6.0 366.0 
130.00040336570825 51487.0 NaN 1543.9545758183028 0.5056397310978784 522.0 6.0 366.0 
132.00040336570825 51477.0 NaN 1540.8603874415485 0.5046320769355895 521.0 6.0 365.0 
134.00040336570825 51471.0 NaN 1537.7581830327333 0.504174128176061 520.0 6.0 364.0 
136.0001983480089 51457.0 NaN 1531.6740146960576 0.5042644759624916 519.0 6.0 362.0 
138.00040336570825 51424.0 NaN 1534.7414829659303 0.5040268818717851 515.0 5.0 364.0 
140.00040336570825 51431.0 NaN 1537.7902471609907 0.505374683935485 516.0 6.0 364.0 
142.00040336570825 51424.0 NaN 1540.8817635270545 0.5045607847020247 518.0 6.0 365.0 
144.00040336570825 51397.0 NaN 1543.9973279893118 0.5045602074413442 516.0 7.0 365.0 
146.0001983480089 51386.0 NaN 1543.911823647294 0.5045418677070174 514.0 7.0 365.0 
148.00040336570825 51370.0 NaN 1547.0621242484972 0.5046610514622609 513.0 7.0 366.0 
150.00040336570825 51370.0 NaN 1550.140280561121 0.5053531044465207 513.0 8.0 366.0 
152.00040336570825 51335.0 NaN 1540.8203072812273 0.5049128796067954 512.0 9.0 362.0 
154.00040336570825 51328.0 NaN 1537.87040748163 0.5063373925825381 513.0 7.0 363.0 
156.0001983480089 51302.0 NaN 1540.879091516366 0.5058339493659688 511.0 6.0 365.0 
158.00040336570825 51255.0 NaN 1540.8630594522365 0.5045091206485705 510.0 8.0 363.0 
160.00040336570825 51272.0 NaN 1540.9218436873728 0.5043439465518995 510.0 10.0 361.0 
162.00040336570825 51270.0 NaN 1540.8363393453574 0.5063538217332615 510.0 10.0 361.0 
164.00040336570825 51208.0 NaN 1543.9091516366063 0.5049783415982568 511.0 9.0 363.0 
166.0001983480089 51167.0 NaN 1543.9171676686726 0.5065687276668471 512.0 8.0 364.0 
168.00040336570825 51095.0 NaN 1540.852371409485 0.5048013229171802 513.0 7.0 364.0 
170.00040336570825 51090.0 NaN 1540.8149632598543 0.5046660125739735 514.0 7.0 364.0 
172.00040336570825 51088.0 NaN 1540.852371409485 0.5057746095007575 516.0 7.0 364.0 
174.00040336570825 51024.0 NaN 1547.035404141618 0.5047602105800946 518.0 7.0 366.0 
176.0001983480089 50986.0 NaN 1543.9225116900454 0.5048750655950135 516.0 7.0 365.0 
178.00040336570825 50972.0 NaN 1543.983967935873 0.5044792590515988 514.0 7.0 365.0 
180.00040336570825 50991.0 NaN 1544.018704074818 0.5050420798845934 513.0 8.0 364.0 
182.00040336570825 50974.0 NaN 1537.7875751503 0.5059774325125102 511.0 8.0 362.0 
184.00040336570825 50934.0 NaN 1537.8650634602548 0.5061676578431145 510.0 8.0 362.0 
186.0001983480089 50911.0 NaN 1537.814295257182 0.5042010533863936 511.0 8.0 362.0 
188.00040336570825 50912.0 NaN 1540.8684034736154 0.5046225668284247 511.0 8.0 363.0 
190.00040336570825 50914.0 NaN 1534.8082832331336 0.5054775009886685 509.0 8.0 361.0 
192.00040336570825 50894.0 NaN 1534.6559786239154 0.5048438798309622 510.0 7.0 362.0 
194.00040336570825 50898.0 NaN 1537.8036072144273 0.5051440095822817 511.0 7.0 363.0 
196.0001983480089 50852.0 NaN 1537.8196392785571 0.5043410580499479 511.0 7.0 363.0 
198.00040336570825 50846.0 NaN 1534.7307949231817 0.5054966691096109 511.0 7.0 362.0 
200.00040336570825 50829.0 NaN 1540.865731462927 0.5043515117603659 512.0 7.0 364.0 
202.00040336570825 50802.0 NaN 1540.8363393453571 0.5046328557747556 514.0 7.0 364.0 
204.00040336570825 50794.0 NaN 1540.876419505679 0.505250065781272 513.0 7.0 364.0 
206.0001983480089 50749.0 NaN 1540.7722110888458 0.5048112919915041 513.0 7.0 364.0 
208.00040336570825 50756.0 NaN 1534.6826987307938 0.5051262270897131 512.0 7.0 362.0 
210.00040336570825 50741.0 NaN 1531.6419505678002 0.5053945209431019 506.0 8.0 360.0 
212.00040336570825 50714.0 NaN 1528.4916499666 0.5052993131309229 507.0 7.0 360.0 
214.00040336570825 50723.0 NaN 1531.6526386105547 0.5080765089298566 507.0 7.0 361.0 
216.0001983480089 50664.0 NaN 1534.7120908483637 0.5057555300864945 508.0 7.0 362.0 
218.00040336570825 50637.0 NaN 1528.5050100200392 0.5055730568194746 507.0 7.0 360.0 
220.00040336570825 50606.0 NaN 1528.5023380093521 0.506900640333128 506.0 7.0 360.0 
222.00040336570825 50587.0 NaN 1525.4856379425523 0.506495862113868 506.0 7.0 359.0 
224.00040336570825 50572.0 NaN 1522.3593854375426 0.5068275656816889 506.0 7.0 358.0 
226.0001983480089 50553.0 NaN 1525.4081496325996 0.5061674389716383 505.0 8.0 358.0 
228.00040336570825 50563.0 NaN 1525.5123580494335 0.5070914673540589 505.0 7.0 359.0 
230.00040336570825 50533.0 NaN 1528.598530394121 0.5053385451416805 504.0 8.0 359.0 
232.00040336570825 50527.0 NaN 1531.6686706746818 0.5061465207870653 511.0 2.0 366.0 
234.00040336570825 50563.0 NaN 1531.6766867067456 0.5084456107128069 509.0 4.0 364.0 
236.0001983480089 50533.0 NaN 1531.5991983967936 0.5060473941280071 507.0 6.0 362.0 
238.00040336570825 50545.0 NaN 1534.6907147628574 0.5067341739422957 507.0 6.0 363.0 
240.00040336570825 50533.0 NaN 1531.6686706746818 0.504803954408643 506.0 6.0 362.0 
242.00040336570825 50511.0 NaN 1531.5911823647277 0.5055931505626754 507.0 6.0 362.0 
244.00040336570825 50496.0 NaN 1528.6065464261847 0.5052477872190406 506.0 7.0 360.0 
246.0001983480089 50508.0 NaN 1525.4909819639272 0.5045759831447679 505.0 8.0 358.0 
248.00040336570825 50530.0 NaN 1528.5344021376093 0.5049891701377992 505.0 8.0 359.0 
250.00040336570825 50536.0 NaN 1525.5150300601185 0.5054699235767299 505.0 8.0 358.0 
252.00040336570825 50502.0 NaN 1525.5230460921844 0.5052742283334762 505.0 8.0 358.0 
254.00040336570825 50473.0 NaN 1525.4268537074154 0.5052357665323953 503.0 9.0 357.0 
256.0001983480089 50454.0 NaN 1525.4642618570458 0.5050484817285282 504.0 9.0 357.0 
258.0004033657083 50463.0 NaN 1525.4883099532394 0.5052673065072886 507.0 8.0 358.0 
260.0004033657083 50447.0 NaN 1522.3567134268546 0.5050997704765101 507.0 8.0 357.0 
262.0004033657083 50443.0 NaN 1516.28590514362 0.5059894303364547 506.0 8.0 355.0 
264.0004033657083 50394.0 NaN 1516.3152972611904 0.5075488608796114 504.0 8.0 355.0 
266.0001983480089 50392.0 NaN 1516.2004008016024 0.5059262222362859 504.0 8.0 355.0 
268.0004033657083 50291.0 NaN 1525.541750167 0.5097242027574342 505.0 8.0 358.0 
270.0004033657083 50254.0 NaN 1531.6740146960574 0.5056303961025264 505.0 8.0 360.0 
272.0004033657083 50188.0 NaN 1531.5537742150973 0.5054961442499218 505.0 8.0 360.0 
274.0004033657083 50151.0 NaN 1534.6880427521726 0.5049816924647921 507.0 8.0 361.0 
276.0001983480089 50127.0 NaN 1534.6212424849705 0.504230895203314 509.0 8.0 361.0 
278.0004033657083 50128.0 NaN 1528.4649298597183 0.5050815898420947 508.0 8.0 359.0 
280.0004033657083 50094.0 NaN 1531.6018704074818 0.5051421592871198 508.0 8.0 360.0 
282.0004033657083 50070.0 NaN 1531.5430861723455 0.5058798828686731 508.0 8.0 360.0 
284.0004033657083 50022.0 NaN 1531.503006012025 0.5061081793290285 509.0 8.0 360.0 
286.0001983480089 49968.0 NaN 1531.4949899799612 0.5059045122137289 508.0 8.0 360.0 
288.0004033657083 49938.0 NaN 1531.5617902471615 0.5069656927327735 507.0 8.0 360.0 
290.0004033657083 49913.0 NaN 1534.5758183032726 0.5058644500542636 506.0 8.0 361.0 
292.0004033657083 49881.0 NaN 1534.6265865063453 0.5065256984189136 505.0 8.0 361.0 
294.0004033657083 49827.0 NaN 1534.6212424849707 0.5057282516407596 505.0 8.0 361.0 
296.0001983480089 49813.0 NaN 1537.6192384769547 0.5063150579234593 505.0 8.0 362.0 
298.0004033657083 49772.0 NaN 1537.694054776218 0.5080207010727433 504.0 8.0 362.0 
300.0004033657083 49745.0 NaN 1540.8042752171 0.5060935147419766 504.0 8.0 363.0 
302.0004033657083 49707.0 NaN 1540.7214428857728 0.5081460428537905 504.0 8.0 363.0 
304.0004033657083 49648.0 NaN 1531.6045424181707 0.5068030866849316 504.0 8.0 360.0 
306.0001983480089 49629.0 NaN 1540.8550434201725 0.5056651955267083 503.0 8.0 363.0 
308.0004033657083 49609.0 NaN 1537.6887107548437 0.5059138569316431 501.0 8.0 362.0 
310.0004033657083 49594.0 NaN 1534.6319305277207 0.5061527582145536 502.0 8.0 361.0 
312.0004033657083 49561.0 NaN 1534.6506346025365 0.5071927229311728 501.0 8.0 361.0 
314.0004033657083 49497.0 NaN 1534.613226452907 0.5064904320195459 503.0 8.0 361.0 
316.0001983480089 49455.0 NaN 1531.5751503006 0.5059879940698649 503.0 8.0 360.0 
318.0004033657083 49465.0 NaN 1534.661322645291 0.5103963151096131 504.0 8.0 361.0 
320.0004033657083 49425.0 NaN 1528.438209752839 0.5077252478215879 501.0 8.0 359.0 
322.0004033657083 49363.0 NaN 1528.4943219772883 0.5077264197139518 501.0 8.0 359.0 
324.0004033657083 49311.0 NaN 1531.6098864395453 0.5065748613715794 500.0 8.0 360.0 
326.0001983480089 49288.0 NaN 1534.6025384101547 0.5065976396597637 502.0 7.0 362.0 
328.0004033657083 49295.0 NaN 1537.8036072144273 0.5075736865525893 502.0 7.0 363.0 
330.0004033657083 49281.0 NaN 1540.8042752171 0.5090245369696073 503.0 7.0 364.0 
332.0004033657083 49256.0 NaN 1540.76686706747 0.5070565676889369 502.0 7.0 364.0 
334.0004033657083 49255.0 NaN 1534.6987307949244 0.5088928237948681 503.0 7.0 362.0 
336.0001983480089 49223.0 NaN 1531.5911823647275 0.5059536769714622 504.0 7.0 361.0 
338.0004033657083 49231.0 NaN 1528.4649298597185 0.5074776817042664 504.0 7.0 360.0 
340.0004033657083 49213.0 NaN 1528.5397461589844 0.5075786473632442 504.0 7.0 360.0 
342.0004033657083 49181.0 NaN 1534.6826987307938 0.5080414539811421 503.0 7.0 362.0 
344.0004033657083 49154.0 NaN 1534.6132264529065 0.5085133665995568 505.0 7.0 362.0 
346.0001983480089 49161.0 NaN 1534.6506346025367 0.506981100135839 507.0 7.0 362.0 
348.0004033657083 49149.0 NaN 1531.655310621243 0.5095681044266971 507.0 7.0 361.0 
350.0004033657083 49129.0 NaN 1528.4301937207733 0.5073496108098704 507.0 7.0 360.0 
352.0004033657083 49109.0 NaN 1528.5183700734813 0.5078556705631719 509.0 7.0 360.0 
354.0004033657083 49106.0 NaN 1525.4108216432878 0.5087259247684496 509.0 7.0 359.0 
356.0001983480089 49080.0 NaN 1525.3947895791575 0.5084902743899432 508.0 7.0 359.0 
358.0004033657083 49105.0 NaN 1525.4829659318634 0.507951511155113 507.0 7.0 359.0 
360.0004033657083 49086.0 NaN 1525.4241816967274 0.5094769961514507 507.0 7.0 359.0 
362.0004033657083 49042.0 NaN 1525.338677354709 0.509197591863972 509.0 7.0 359.0 
364.0004033657083 49015.0 NaN 1522.3380093520364 0.5084190148973715 511.0 7.0 358.0 
366.0001983480089 48992.0 NaN 1522.300601202406 0.5080158157809618 512.0 7.0 358.0 
368.0004033657083 49002.0 NaN 1509.9746158984635 0.5075513556814575 511.0 7.0 354.0 
370.0004033657083 48984.0 NaN 1503.8316633266538 0.5072370862375504 511.0 7.0 352.0 
372.0004033657083 48980.0 NaN 1506.8804275217094 0.5093804814631303 510.0 7.0 353.0 
374.0004033657083 48977.0 NaN 1509.942551770208 0.507865399044422 512.0 7.0 354.0 
376.0001983480089 48935.0 NaN 1516.130928523715 0.5072563850603116 511.0 7.0 356.0 
378.0004033657083 48943.0 NaN 1513.0901803607205 0.5085659565596102 511.0 7.0 355.0 
380.0004033657083 48894.0 NaN 1513.010020040081 0.5078491861470151 511.0 7.0 355.0 
382.0004033657083 48888.0 NaN 1510.049432197728 0.5089565262526967 512.0 7.0 354.0 
384.0004033657083 48863.0 NaN 1516.2137608550445 0.5088982152695591 510.0 8.0 355.0 
386.0001983480089 48827.0 NaN 1516.1282565130268 0.5069607868004959 511.0 8.0 355.0 
388.0004033657083 48850.0 NaN 1513.1275885103548 0.5083937115859781 510.0 8.0 354.0 
390.0004033657083 48803.0 NaN 1510.0734802939205 0.5086144840166451 510.0 8.0 353.0 
392.0004033657083 48774.0 NaN 1509.9933199732811 0.5095123345106704 509.0 8.0 353.0 
394.0004033657083 48742.0 NaN 1513.1516366065455 0.5079026545583476 511.0 7.0 355.0 
396.0001983480089 48706.0 NaN 1513.1329325317295 0.5080111845651385 511.0 7.0 355.0 
398.0004033657083 48753.0 NaN 1510.0253841015365 0.5085814938528117 515.0 7.0 354.0 
400.0004033657083 48684.0 NaN 1506.968603874416 0.5095513744871496 515.0 7.0 353.0 
402.0004033657083 48659.0 NaN 1506.9979959919826 0.5082823050488916 514.0 7.0 353.0 
404.0004033657083 48621.0 NaN 1513.1222444889788 0.509868536165557 513.0 8.0 354.0 
406.0001983480089 48596.0 NaN 1516.1897127588516 0.5098148797525007 515.0 8.0 355.0 
408.0004033657083 48591.0 NaN 1522.3834335337358 0.509634369867436 515.0 8.0 357.0 
410.0004033657083 48570.0 NaN 1525.3680694722789 0.5085886959640502 515.0 8.0 358.0 
412.0004033657083 48582.0 NaN 1522.273881095525 0.5086032694403558 516.0 8.0 357.0 
414.0004033657083 48559.0 NaN 1525.3894455577818 0.508343470644392 516.0 8.0 358.0 
416.0001983480089 48555.0 NaN 1522.260521042084 0.5073919027472906 517.0 8.0 357.0 
418.0004033657083 48567.0 NaN 1525.327989311957 0.507000867351023 516.0 8.0 358.0 
420.0004033657083 48553.0 NaN 1510.0334001336 0.5074108063801922 519.0 8.0 353.0 
422.0004033657083 48549.0 NaN 1509.9265197060797 0.5082699884884234 518.0 8.0 353.0 
424.0004033657083 48538.0 NaN 1506.8911155644628 0.5073190813764377 516.0 7.0 353.0 
426.0001983480089 48508.0 NaN 1506.952571810288 0.5072232475115144 510.0 8.0 352.0 
428.0004033657083 48545.0 NaN 1506.8804275217094 0.506446776638522 512.0 7.0 353.0 
430.0004033657083 48541.0 NaN 1500.7374749499 0.5065131392796419 512.0 7.0 351.0 
432.0004033657083 48563.0 NaN 1513.1115564462266 0.5084480457244038 515.0 4.0 358.0 
434.0004033657083 48538.0 NaN 1519.1289245156993 0.5069558014860766 516.0 4.0 360.0 
436.0001983480089 48516.0 NaN 1525.2665330661334 0.5061795234225077 521.0 4.0 362.0 
438.0004033657083 48541.0 NaN 1525.306613226454 0.5088193903219974 522.0 5.0 361.0 
440.0004033657083 48492.0 NaN 1525.2852371409479 0.5075104310312626 524.0 4.0 362.0 
442.0004033657083 48485.0 NaN 1534.5704742818975 0.5073908132173035 524.0 4.0 365.0 
444.0004033657083 48493.0 NaN 1531.4923179692728 0.5063852892658023 527.0 3.0 365.0 
446.0001983480089 48474.0 NaN 1534.5731462925849 0.5059928929433561 524.0 5.0 364.0 
448.0004033657083 48482.0 NaN 1531.486973947897 0.5100533367428844 523.0 5.0 363.0 
450.0004033657083 48460.0 NaN 1534.6132264529065 0.5067568071390879 524.0 3.0 366.0 
452.0004033657083 48453.0 NaN 1534.5811623246484 0.507491267370493 522.0 5.0 364.0 
454.0004033657083 48444.0 NaN 1543.8423513694063 0.5057753825561329 520.0 7.0 365.0 
456.0001983480089 48413.0 NaN 1546.907147628591 0.5052267011799167 524.0 4.0 369.0 
458.0004033657083 48416.0 NaN 1540.7241148964608 0.506779938622704 520.0 5.0 366.0 
460.0004033657083 48372.0 NaN 1543.8396793587183 0.5052725629129126 520.0 5.0 367.0 
462.0004033657083 48370.0 NaN 1540.7428189712755 0.5068043894392262 523.0 4.0 367.0 
464.0004033657083 48385.0 NaN 1540.7160988643973 0.5059183891036044 521.0 6.0 365.0 
466.0001983480089 48361.0 NaN 1537.6272545090183 0.5056669397022094 518.0 7.0 363.0 
468.0004033657083 48346.0 NaN 1537.6245824983298 0.5053053020434604 521.0 4.0 366.0 
470.0004033657083 48349.0 NaN 1531.5243820975272 0.5048626315243052 518.0 5.0 363.0 
472.0004033657083 48370.0 NaN 1528.4328657314638 0.5066072994244886 517.0 5.0 362.0 
474.0004033657083 48384.0 NaN 1525.4161656646638 0.5052485091829237 516.0 4.0 362.0 
476.0001983480089 48377.0 NaN 1522.273881095525 0.5056785699388172 514.0 6.0 359.0 
478.0004033657083 48374.0 NaN 1525.3440213760848 0.5064260760157138 513.0 7.0 359.0 
480.0004033657083 48358.0 NaN 1528.419505678021 0.5058259534889039 516.0 4.0 363.0 
482.0004033657083 48361.0 NaN 1525.3253173012697 0.5049201320636615 513.0 5.0 361.0 
484.0004033657083 48410.0 NaN 1519.2010688042749 0.5057867470625783 513.0 5.0 359.0 
486.0001983480089 48391.0 NaN 1513.108884435537 0.5055241717998991 510.0 3.0 359.0 
488.0004033657083 48439.0 NaN 1506.933867735472 0.5057717798581205 509.0 3.0 357.0 
490.0004033657083 48449.0 NaN 1503.839679358718 0.505439150230587 508.0 4.0 355.0 
492.0004033657083 48453.0 NaN 1500.8336673346698 0.5058396507122458 510.0 3.0 355.0 
494.0004033657083 48478.0 NaN 1494.67468269873 0.5053862544122382 511.0 3.0 353.0 
496.0001983480089 48460.0 NaN 1491.6018704074818 0.5079833093984398 506.0 5.0 350.0 
498.0004033657083 48507.0 NaN 1494.7414829659303 0.5062017515255552 506.0 3.0 353.0 
500.0004033657083 48537.0 NaN 1494.5945223780902 0.5057425324545786 507.0 3.0 353.0 
502.0004033657083 48542.0 NaN 1497.7261189044748 0.5061269390843931 510.0 1.0 356.0 
504.0004033657083 48554.0 NaN 1491.5911823647284 0.5062139411340619 513.0 0.0 355.0 
506.0001983480089 48527.0 NaN 1494.6800267201081 0.5058675717120061 512.0 2.0 354.0 
508.0004033657083 48542.0 NaN 1491.6018704074818 0.5082239961946189 515.0 1.0 354.0 
510.0004033657083 48590.0 NaN 1494.6960587842357 0.5058112222440887 514.0 1.0 355.0 
512.0004033657083 48598.0 NaN 1488.5050100200392 0.5073914402146907 515.0 1.0 353.0 
514.0004033657083 48602.0 NaN 1488.5156980627917 0.5063277531868544 513.0 1.0 353.0 
516.0001983480089 48580.0 NaN 1488.6092184368729 0.5056029850364578 508.0 2.0 352.0 
518.0004033657083 48603.0 NaN 1482.391449565799 0.5067087069892872 509.0 1.0 351.0 
520.0004033657083 48616.0 NaN 1485.4081496325991 0.5067052250328037 505.0 2.0 351.0 
522.0004033657083 48602.0 NaN 1476.3099532398119 0.5071912089904003 507.0 1.0 349.0 
524.0004033657083 48613.0 NaN 1463.9331997327997 0.5059956466135209 504.0 2.0 344.0 
526.0001983480089 48605.0 NaN 1464.0160320641276 0.5057523506114094 502.0 1.0 345.0 
528.0004033657083 48631.0 NaN 1467.0968603874426 0.5070625362216044 500.0 1.0 346.0 
530.0004033657083 48631.0 NaN 1473.181028724116 0.5062236031058642 498.0 1.0 348.0 
532.0004033657083 48628.0 NaN 1467.1048764195061 0.5085199512332612 504.0 1.0 346.0 
534.0004033657083 48643.0 NaN 1467.115564462257 0.5074928128981586 506.0 1.0 346.0 
536.0001983480089 48637.0 NaN 1470.1028724114901 0.5076399968121643 506.0 1.0 347.0 
538.0004033657083 48657.0 NaN 1467.1529726118908 0.5083611423231205 509.0 1.0 346.0 
540.0004033657083 48651.0 NaN 1467.0754843019367 0.5073683243533297 509.0 2.0 345.0 
542.0004033657083 48620.0 NaN 1467.1128924515704 0.5082846572741815 511.0 1.0 346.0 
544.0004033657083 48636.0 NaN 1464.0160320641278 0.5083120938000733 509.0 2.0 344.0 
546.0001983480089 48635.0 NaN 1464.1175684702732 0.5068620213731186 510.0 1.0 345.0 
548.0004033657083 48638.0 NaN 1467.0728122912483 0.5071124685621297 509.0 2.0 345.0 
550.0004033657083 48605.0 NaN 1467.1289245156988 0.5068478013367363 508.0 1.0 346.0 
552.0004033657083 48571.0 NaN 1476.3393453573817 0.5060998409114382 508.0 2.0 348.0 
554.0004033657083 48613.0 NaN 1473.2157648630605 0.5059043338930006 510.0 1.0 348.0 
556.0001983480089 48629.0 NaN 1473.2531730126914 0.5070660133332093 509.0 2.0 347.0 
558.0004033657083 48637.0 NaN 1470.1857047428186 0.5059922267649828 509.0 1.0 347.0 
560.0004033657083 48689.0 NaN 1467.0434201736814 0.5065261772757359 507.0 2.0 345.0 
562.0004033657083 48699.0 NaN 1467.0567802271207 0.5069409304186617 507.0 1.0 346.0 
564.0004033657083 48747.0 NaN 1467.0995323981285 0.5067832553646453 506.0 2.0 345.0 
566.0001983480089 48736.0 NaN 1470.1456245824988 0.5064774579058532 505.0 1.0 347.0 
568.0004033657083 48737.0 NaN 1470.1349365397457 0.5099263083550729 506.0 2.0 346.0 
570.0004033657083 48788.0 NaN 1470.1402805611217 0.5068589885400275 514.0 1.0 347.0 
572.0004033657083 48768.0 NaN 1473.218436873747 0.5063442066179374 510.0 2.0 347.0 
574.0004033657083 48794.0 NaN 1476.3473613894453 0.506751631170245 511.0 1.0 349.0 
576.0001983480089 48760.0 NaN 1476.3393453573817 0.5069570759763593 510.0 2.0 348.0 
578.0004033657083 48739.0 NaN 1476.293921175684 0.5074568925490901 514.0 0.0 350.0 
580.0004033657083 48801.0 NaN 1479.393453573815 0.5080280044564597 514.0 1.0 350.0 
582.0004033657083 48761.0 NaN 1476.3286573146286 0.5050462826576486 511.0 1.0 349.0 
584.0004033657083 48821.0 NaN 1488.5744822979286 0.5081564749357369 514.0 1.0 353.0 
586.0001983480089 48796.0 NaN 1485.4989979959912 0.5085945682142369 518.0 2.0 351.0 
588.0004033657083 48756.0 NaN 1482.4448897795605 0.5054588585719154 516.0 4.0 348.0 
590.0004033657083 48771.0 NaN 1485.4963259853032 0.5061537396511719 518.0 4.0 349.0 
592.0004033657083 48773.0 NaN 1488.5450901803615 0.5063996467087581 519.0 4.0 350.0 
594.0004033657083 48807.0 NaN 1485.480293921175 0.5077201521187638 519.0 4.0 349.0 
596.0001983480089 48762.0 NaN 1485.4642618570467 0.5080554632892917 516.0 4.0 349.0 
598.0004033657083 48748.0 NaN 1488.5851703406818 0.5067472406920813 517.0 4.0 350.0 
600.0004033657083 48756.0 NaN 1494.7120908483637 0.5064211277508088 523.0 4.0 352.0 
602.0004033657083 48781.0 NaN 1497.7795591182362 0.5059989225237214 524.0 4.0 353.0 
604.0004033657083 48814.0 NaN 1494.6746826987303 0.5081992664821171 525.0 4.0 352.0 
606.0001983480089 48734.0 NaN 1494.6372745490987 0.5068011905182754 526.0 4.0 352.0 
608.0004033657083 48717.0 NaN 1491.535070140281 0.5053913530695653 525.0 4.0 351.0 
610.0004033657083 48745.0 NaN 1500.7962591850362 0.5055082638431072 524.0 4.0 354.0 
612.0004033657083 48787.0 NaN 1503.9198396793577 0.5057174666514537 519.0 4.0 355.0 
614.0004033657083 48838.0 NaN 1516.1336005344012 0.5087262580212918 522.0 4.0 359.0 
616.0001983480089 48816.0 NaN 1516.157648630594 0.5070490956636051 523.0 4.0 359.0 
618.0004033657083 48823.0 NaN 1516.1683366733462 0.5060986605747556 522.0 4.0 359.0 
620.0004033657083 48805.0 NaN 1509.9612558450242 0.5061645054640097 522.0 4.0 357.0 
622.0004033657083 48817.0 NaN 1513.0447561790254 0.507556192180956 522.0 4.0 358.0 
624.0004033657083 48811.0 NaN 1516.1255845023375 0.5100748054783399 520.0 3.0 360.0 
626.0001983480089 48717.0 NaN 1519.2090848363384 0.5062863508313987 521.0 4.0 360.0 
628.0004033657083 48701.0 NaN 1519.2384769539083 0.5067289059810007 524.0 4.0 360.0 
630.0004033657083 48685.0 NaN 1525.4375417501665 0.5056972727112722 525.0 4.0 362.0 
632.0004033657083 48689.0 NaN 1522.3647294589182 0.5074815422909491 525.0 4.0 361.0 
634.0004033657083 48701.0 NaN 1525.4428857715438 0.5078674691813232 526.0 4.0 362.0 
636.0001983480089 48646.0 NaN 1528.5397461589837 0.5070634071123088 532.0 4.0 363.0 
638.0004033657083 48627.0 NaN 1528.5344021376093 0.5065098176297737 529.0 4.0 363.0 
640.0004033657083 48641.0 NaN 1525.456245824983 0.5059634349104003 526.0 4.0 362.0 
642.0004033657083 48655.0 NaN 1522.4288577154302 0.507279097526903 525.0 4.0 361.0 
644.0004033657083 48686.0 NaN 1522.3754175016709 0.5085919986805811 523.0 4.0 361.0 
646.0001983480089 48639.0 NaN 1525.4936539746172 0.5083729346946008 523.0 4.0 362.0 
648.0004033657083 48600.0 NaN 1522.4342017368078 0.5067891012726087 523.0 4.0 361.0 
650.0004033657083 48605.0 NaN 1522.3540414161648 0.5090161292491185 522.0 4.0 361.0 
652.0004033657083 48597.0 NaN 1525.4883099532394 0.5075174147138393 520.0 4.0 362.0 
654.0004033657083 48627.0 NaN 1528.6065464261849 0.5072890585511461 518.0 4.0 363.0 
656.0001983480089 48582.0 NaN 1531.5965263861062 0.5076796412323928 518.0 4.0 364.0 
658.0004033657083 48629.0 NaN 1531.6553106212436 0.5068001347275451 516.0 4.0 364.0 
660.0004033657083 48608.0 NaN 1531.644622578491 0.5063575920638151 517.0 4.0 364.0 
662.0004033657083 48589.0 NaN 1531.6366065464274 0.5054201157674603 517.0 4.0 364.0 
664.0004033657083 48610.0 NaN 1537.7955911823635 0.5062353539732294 512.0 4.0 366.0 
#####################################################################
# End of data export. Simulation finished at: 2019-03-16T23:09+0000 #
#####################################################################
