#####################################################################
# Alchemist log file - simulation started at: 2019-03-07T20:49+0000 #
#####################################################################
# seed = 5.0, bandwidth = 5623413.251903491, propagationDelay = 0.1, baserange = 177.82794100389228
#
# The columns have the following meaning: 
# time neighbor_count[Sum] <value>@neighbor_count[Sum] packet_size[Mean] mean_delay[Mean] crowd[Sum] overcrowded[Sum] risk[Sum] 
0.0 NaN NaN NaN NaN NaN NaN NaN 
2.000101793669918 26420.0 NaN 4994.98997995992 0.4984220142115168 1497.0 0.0 1497.0 
4.000101793669918 26546.0 NaN 4994.460921843687 0.5001589745756692 1494.0 3.0 1494.0 
6.000101793669918 26550.0 NaN 4994.338009352037 0.5001649866996721 1494.0 3.0 1494.0 
8.000101793669918 26552.0 NaN 4994.685370741483 0.500222945562204 1494.0 3.0 1494.0 
10.000101793669918 26550.0 NaN 4995.470941883767 0.5000985652312759 1494.0 3.0 1494.0 
12.000101793669918 26552.0 NaN 4995.49498997996 0.500089961176423 1494.0 3.0 1494.0 
14.000101793669918 26552.0 NaN 4994.663994655979 0.5000899929336773 1494.0 3.0 1494.0 
16.00010179366992 26558.0 NaN 4994.749498997996 0.5001746428504557 1494.0 3.0 1494.0 
18.00010179366992 26555.0 NaN 4995.211756847028 0.500935457435548 1494.0 3.0 1494.0 
20.00010179366992 26575.0 NaN 4995.505678022712 0.5051356029837312 1494.0 3.0 1494.0 
22.00010179366992 26568.0 NaN 4994.861723446894 0.5008475378097217 1494.0 3.0 1494.0 
24.00010179366992 26570.0 NaN 4994.907147628591 0.4999883128006918 1494.0 3.0 1494.0 
26.00010179366992 26569.0 NaN 4994.594522378089 0.500008640111167 1494.0 3.0 1494.0 
28.00010179366992 26566.0 NaN 4995.462925851703 0.4996607311102106 1494.0 3.0 1494.0 
30.00010179366992 26598.0 NaN 4995.818303273213 0.4998666027056607 1494.0 3.0 1494.0 
32.00010179366992 26605.0 NaN 4994.861723446894 0.5000168848087929 1494.0 3.0 1494.0 
34.00010179366992 26625.0 NaN 4994.324649298597 0.5016042397133886 1494.0 3.0 1494.0 
36.00010179366992 26620.0 NaN 4994.805611222445 0.49969560531144025 1494.0 3.0 1494.0 
38.00010179366992 26621.0 NaN 4994.971275885104 0.5013327234936368 1494.0 3.0 1494.0 
40.00010179366992 26653.0 NaN 4995.893119572478 0.500077559741288 1494.0 3.0 1494.0 
42.00010179366992 26636.0 NaN 4995.500334001336 0.49969288475487383 1494.0 3.0 1494.0 
44.00010179366992 26635.0 NaN 4994.642618570474 0.5017398969280984 1494.0 3.0 1494.0 
46.00010179366992 26619.0 NaN 4994.567802271209 0.4998947658050624 1494.0 3.0 1494.0 
48.00010179366992 26620.0 NaN 4995.243820975284 0.49947497322483536 1494.0 3.0 1494.0 
50.00010179366992 26664.0 NaN 4995.374749498998 0.5010874890764642 1494.0 3.0 1494.0 
52.00010179366992 26644.0 NaN 4995.051436205745 0.4992247555369747 1494.0 3.0 1494.0 
54.00010179366992 26651.0 NaN 4994.738810955244 0.5000702569616654 1494.0 3.0 1494.0 
56.00010179366992 26642.0 NaN 4994.832331329325 0.4988324510220854 1494.0 3.0 1494.0 
58.00010179366992 26660.0 NaN 4995.131596526386 0.49897071755077027 1494.0 3.0 1494.0 
60.00010179366992 26684.0 NaN 4992.847027388109 0.5024587065142624 1493.0 3.0 1493.0 
62.00004344939255 26671.0 NaN 1522.7975951903818 0.500477459004129 793.0 1.0 364.0 
64.00004344939255 26692.0 NaN 1522.7094188376752 0.5012519479890745 634.0 1.0 364.0 
66.00004344939254 26685.0 NaN 1522.7575150300606 0.5016532087349037 581.0 4.0 361.0 
68.00004344939254 26707.0 NaN 1525.7822311289246 0.5003777977554708 550.0 5.0 361.0 
70.00004344939254 26706.0 NaN 1525.7742150968609 0.501956739138445 531.0 4.0 362.0 
72.00004344939254 26733.0 NaN 1525.7181028724112 0.5002886509380956 528.0 4.0 362.0 
74.00004344939254 26778.0 NaN 1528.8844355377428 0.5013741912656744 524.0 6.0 361.0 
76.00004344939254 26768.0 NaN 1528.8416833667338 0.500086876964334 525.0 4.0 363.0 
78.00004344939254 26803.0 NaN 1534.9338677354726 0.5033658812480988 528.0 3.0 366.0 
80.00004344939254 26790.0 NaN 1534.909819639279 0.5011919769556273 526.0 3.0 366.0 
82.00004344939254 26791.0 NaN 1534.9418837675362 0.49981769171625745 525.0 3.0 366.0 
84.00004344939254 26788.0 NaN 1534.9338677354726 0.5025368783648886 525.0 3.0 366.0 
86.00004344939254 26775.0 NaN 1535.0647962591845 0.4997859758595361 521.0 5.0 364.0 
88.00004344939254 26788.0 NaN 1535.0113560454247 0.4998096764787619 521.0 4.0 365.0 
90.00004344939254 26762.0 NaN 1534.992651970609 0.503228455058108 522.0 4.0 365.0 
92.00004344939254 26755.0 NaN 1534.8857715430852 0.4999462840579983 524.0 3.0 366.0 
94.00004344939254 26781.0 NaN 1534.86706746827 0.5003085427681389 524.0 3.0 366.0 
96.00004344939254 26765.0 NaN 1534.9124916499663 0.49960300262321333 524.0 3.0 366.0 
98.00004344939254 26782.0 NaN 1538.0253841015365 0.5033065494877637 523.0 4.0 366.0 
100.00004344939254 26729.0 NaN 1537.9959919839666 0.5024453589484306 522.0 5.0 365.0 
102.00004344939254 26763.0 NaN 1537.9826319305273 0.5001868281516254 520.0 6.0 364.0 
104.00004344939254 26755.0 NaN 1541.060788243154 0.5010466443004243 520.0 6.0 365.0 
106.00004344939254 26750.0 NaN 1541.1222444889788 0.49964947778943847 520.0 6.0 365.0 
108.00004344939254 26777.0 NaN 1541.0233800935187 0.5001226928078116 521.0 5.0 366.0 
110.00004344939254 26759.0 NaN 1541.0794923179697 0.5018221140426731 522.0 4.0 367.0 
112.00004344939254 26772.0 NaN 1541.047428189712 0.5001075127563517 523.0 4.0 367.0 
114.00004344939254 26784.0 NaN 1541.0313961255845 0.5023557699308866 522.0 5.0 366.0 
116.00004344939254 26748.0 NaN 1541.028724114897 0.5025076600172115 523.0 5.0 366.0 
118.00004344939254 26780.0 NaN 1541.028724114897 0.5019188965427546 523.0 6.0 365.0 
120.00004344939254 26704.0 NaN 1541.0020040080178 0.5047352415445778 523.0 6.0 365.0 
122.00004344939254 26670.0 NaN 1541.0313961255845 0.501330113402072 522.0 7.0 364.0 
124.00004344939254 26688.0 NaN 1544.0080160320636 0.5017797136679761 525.0 4.0 368.0 
126.00004344939254 26659.0 NaN 1544.136272545091 0.5014474859446255 525.0 4.0 368.0 
128.00004344939254 26693.0 NaN 1541.002004008018 0.5020405449668854 525.0 4.0 367.0 
130.00004344939256 26661.0 NaN 1541.0073480293909 0.5024934200229226 521.0 7.0 364.0 
132.00004344939256 26637.0 NaN 1537.9692718770877 0.502354558427731 522.0 5.0 365.0 
134.00004344939256 26686.0 NaN 1537.9532398129606 0.5010357824212913 523.0 5.0 365.0 
136.00004344939256 26659.0 NaN 1537.9986639946549 0.500519484365477 517.0 8.0 362.0 
138.00004344939256 26690.0 NaN 1534.9124916499663 0.5023480780670735 518.0 6.0 363.0 
140.00004344939256 26626.0 NaN 1534.8643954575818 0.5040779037887585 520.0 5.0 364.0 
142.00004344939256 26610.0 NaN 1537.9692718770877 0.5000964279544424 519.0 5.0 365.0 
144.00004344939256 26670.0 NaN 1537.8944555778212 0.500371534905568 519.0 4.0 366.0 
146.00004344939256 26652.0 NaN 1534.8617234468936 0.49975407098459723 518.0 4.0 365.0 
148.00004344939256 26669.0 NaN 1534.8002672010696 0.5011652890557879 517.0 5.0 364.0 
150.00004344939256 26628.0 NaN 1534.8510354041423 0.5020101568556348 516.0 6.0 363.0 
152.00004344939256 26627.0 NaN 1528.769539078155 0.4999372543726738 517.0 5.0 362.0 
154.00004344939256 26643.0 NaN 1528.812291249164 0.5002983304304139 511.0 8.0 359.0 
156.00004344939256 26626.0 NaN 1531.9091516366063 0.5004904044165006 511.0 7.0 361.0 
158.00004344939256 26656.0 NaN 1534.9846359385454 0.5032241285592455 516.0 6.0 363.0 
160.00004344939256 26604.0 NaN 1534.8777555110212 0.5012081873681242 514.0 8.0 361.0 
162.00004344939256 26564.0 NaN 1534.8911155644637 0.5008543101801927 516.0 6.0 363.0 
164.00004344939256 26574.0 NaN 1537.9211756847028 0.5012366047010138 517.0 5.0 365.0 
166.00004344939256 26530.0 NaN 1538.0414161656636 0.5005518904298711 515.0 7.0 363.0 
168.00004344939256 26549.0 NaN 1531.9465597862388 0.5043313109899279 515.0 7.0 361.0 
170.00004344939256 26515.0 NaN 1535.0541082164336 0.5018096499091088 513.0 10.0 359.0 
172.00004344939256 26493.0 NaN 1534.9953239812974 0.5008358224749866 509.0 12.0 357.0 
174.00004344939256 26528.0 NaN 1538.1108884435546 0.5022354881928976 506.0 12.0 358.0 
176.00004344939256 26482.0 NaN 1534.9686038744157 0.49982443207076355 508.0 10.0 359.0 
178.00004344939256 26504.0 NaN 1534.9686038744157 0.5011586523879452 509.0 10.0 359.0 
180.00004344939256 26471.0 NaN 1534.9151636606543 0.5025147947959235 513.0 7.0 362.0 
182.00004344939256 26448.0 NaN 1535.0140280561116 0.5022350229190727 512.0 8.0 361.0 
184.00004344939256 26469.0 NaN 1538.0975283901116 0.5011754629696624 512.0 9.0 361.0 
186.00004344939256 26448.0 NaN 1535.043420173682 0.5019894962233886 513.0 7.0 362.0 
188.00004344939256 26457.0 NaN 1541.1382765531066 0.5034635044297469 511.0 7.0 364.0 
190.00004344939256 26400.0 NaN 1534.9766199064818 0.5004813376633472 514.0 4.0 365.0 
192.00004344939256 26376.0 NaN 1534.9819639278544 0.5004787179020515 513.0 6.0 363.0 
194.00004344939256 26379.0 NaN 1538.0040080160338 0.5022174668574202 514.0 4.0 366.0 
196.00004344939256 26355.0 NaN 1538.1135604542428 0.5018055998264379 515.0 4.0 366.0 
198.00004344939256 26350.0 NaN 1541.2531730126907 0.5013064976668605 517.0 3.0 368.0 
200.00004344939256 26317.0 NaN 1544.2378089512365 0.4997433345474371 515.0 5.0 367.0 
202.00004344939256 26319.0 NaN 1544.3340013360064 0.5000518697326559 515.0 6.0 366.0 
204.00004344939256 26351.0 NaN 1544.2030728122909 0.5064896802062168 517.0 3.0 369.0 
206.00004344939256 26309.0 NaN 1541.1249164996657 0.502264637370721 516.0 4.0 367.0 
208.00004344939256 26296.0 NaN 1538.0280561122247 0.5039224117813482 517.0 4.0 366.0 
210.00004344939256 26243.0 NaN 1534.9392117568457 0.5015559875778202 518.0 5.0 364.0 
212.00004344939256 26246.0 NaN 1534.925851703409 0.5012234631293097 514.0 6.0 363.0 
214.00004344939256 26251.0 NaN 1537.9959919839666 0.5049667142199374 516.0 3.0 367.0 
216.00004344939256 26210.0 NaN 1531.9225116900457 0.5033803222565462 515.0 5.0 363.0 
218.00004344939256 26208.0 NaN 1528.828323313293 0.5027392801693836 514.0 3.0 364.0 
220.00004344939256 26153.0 NaN 1531.8129592518362 0.5035113184385216 511.0 6.0 362.0 
222.00004344939256 26137.0 NaN 1534.8991315965272 0.5018957417461379 510.0 5.0 364.0 
224.00004344939256 26127.0 NaN 1534.880427521709 0.5033670385589989 509.0 8.0 361.0 
226.00004344939256 26084.0 NaN 1531.8770875083483 0.5014700455659559 514.0 2.0 366.0 
228.00004344939256 26082.0 NaN 1534.8964595858365 0.5022978651821758 513.0 4.0 365.0 
230.00004344939256 26061.0 NaN 1537.9772879091518 0.5039959335840692 513.0 3.0 367.0 
232.00004344939256 26051.0 NaN 1541.0714762859063 0.5011471867410479 509.0 6.0 365.0 
234.00004344939256 26042.0 NaN 1541.1409485637937 0.5028741019912765 505.0 11.0 360.0 
236.00004344939256 26030.0 NaN 1538.0013360053454 0.5002572624427716 509.0 5.0 365.0 
238.00004344939256 26023.0 NaN 1534.9498997996002 0.5021230557448149 509.0 7.0 362.0 
240.00004344939256 25977.0 NaN 1534.963259853039 0.5031055216323356 507.0 7.0 362.0 
242.00004344939256 25980.0 NaN 1534.8777555110212 0.5001656188501539 514.0 2.0 367.0 
244.00004344939256 26014.0 NaN 1534.7735470941882 0.5048950556687762 515.0 2.0 367.0 
246.00004344939256 25992.0 NaN 1534.9445557782244 0.5036242158519812 511.0 6.0 363.0 
248.00004344939256 25973.0 NaN 1528.7454909819635 0.5011632933138215 509.0 5.0 362.0 
250.00004344939256 25947.0 NaN 1531.863727454909 0.5024814603166687 506.0 6.0 362.0 
252.00004344939256 25920.0 NaN 1528.6386105544427 0.5006375140705479 509.0 4.0 363.0 
254.00004344939256 25918.0 NaN 1534.9205076820301 0.5014693947555655 509.0 4.0 365.0 
256.00004344939254 25878.0 NaN 1531.8209752839 0.5001456839665805 509.0 6.0 362.0 
258.0000434493926 25866.0 NaN 1531.7915831663336 0.5005302386552095 508.0 7.0 361.0 
260.0000434493926 25864.0 NaN 1531.7221108884453 0.5028294827160493 508.0 7.0 361.0 
262.0000434493926 25816.0 NaN 1525.6646626586517 0.4999443961903931 509.0 6.0 360.0 
264.0000434493926 25797.0 NaN 1537.9505678022726 0.500710270948579 510.0 5.0 365.0 
266.0000434493926 25761.0 NaN 1538.0814963259845 0.5004622531931028 508.0 5.0 365.0 
268.0000434493926 25746.0 NaN 1534.9178356713428 0.5024293479881602 508.0 5.0 364.0 
270.0000434493926 25746.0 NaN 1534.8697394789572 0.5036486862910483 508.0 4.0 365.0 
272.0000434493926 25665.0 NaN 1534.8350033400118 0.49995441972848853 508.0 4.0 365.0 
274.0000434493926 25673.0 NaN 1534.7548430193729 0.50083042689713 508.0 4.0 365.0 
276.0000434493926 25651.0 NaN 1540.9539078156297 0.5011009418630248 505.0 4.0 367.0 
278.0000434493926 25650.0 NaN 1540.9458917835661 0.5032638825516066 507.0 6.0 365.0 
280.0000434493926 25669.0 NaN 1537.905143620573 0.5034188600584748 508.0 5.0 365.0 
282.0000434493926 25649.0 NaN 1534.8403473613907 0.501542753160281 507.0 5.0 364.0 
284.0000434493926 25659.0 NaN 1534.7975951903818 0.5034569579221947 509.0 4.0 365.0 
286.0000434493926 25619.0 NaN 1534.8777555110207 0.5010879727297304 508.0 4.0 365.0 
288.0000434493926 25623.0 NaN 1534.7655310621249 0.5035459786418606 508.0 4.0 365.0 
290.0000434493926 25598.0 NaN 1534.7815631262545 0.5028320753493495 508.0 4.0 365.0 
292.0000434493926 25608.0 NaN 1534.7468269873093 0.5007241422767912 507.0 5.0 364.0 
294.0000434493926 25595.0 NaN 1531.6820307281246 0.5024498272502496 505.0 6.0 362.0 
296.0000434493926 25566.0 NaN 1531.7568470273886 0.5024494234152924 506.0 5.0 363.0 
298.0000434493926 25553.0 NaN 1541.0073480293909 0.5026841845825724 505.0 5.0 366.0 
300.0000434493926 25529.0 NaN 1540.9512358049456 0.5003269181284743 504.0 5.0 366.0 
302.0000434493926 25533.0 NaN 1531.7942551770207 0.4998954988035691 505.0 3.0 365.0 
304.0000434493926 25538.0 NaN 1534.8216432865727 0.5016602141011386 504.0 3.0 366.0 
306.0000434493926 25515.0 NaN 1537.947895791582 0.5026334705558603 505.0 3.0 367.0 
308.0000434493926 25490.0 NaN 1537.8864395457572 0.5061094632623335 505.0 3.0 367.0 
310.0000434493926 25445.0 NaN 1537.9158316633275 0.5054337911860699 502.0 4.0 366.0 
312.0000434493926 25416.0 NaN 1531.7621910487635 0.5033430497494074 504.0 2.0 366.0 
314.0000434493926 25418.0 NaN 1531.72478289913 0.5037324493511914 500.0 7.0 361.0 
316.0000434493926 25389.0 NaN 1531.7354709418819 0.5017321254815674 506.0 2.0 366.0 
318.0000434493926 25384.0 NaN 1531.7995991983973 0.5046677987412359 503.0 5.0 363.0 
320.0000434493926 25340.0 NaN 1531.7808951235816 0.5074447895508251 507.0 2.0 366.0 
322.0000434493926 25339.0 NaN 1534.8724114896452 0.502262814295272 502.0 7.0 362.0 
324.0000434493926 25331.0 NaN 1531.7408149632608 0.5039256823953888 505.0 3.0 365.0 
326.0000434493926 25297.0 NaN 1531.8717434869727 0.5021360857737132 501.0 6.0 362.0 
328.0000434493926 25306.0 NaN 1531.7515030060115 0.5033128976176563 506.0 3.0 365.0 
330.0000434493926 25289.0 NaN 1531.8102872411482 0.5049542049379256 503.0 6.0 362.0 
332.0000434493926 25294.0 NaN 1531.7541750167002 0.5022234187426006 506.0 3.0 365.0 
334.0000434493926 25294.0 NaN 1531.772879091518 0.5020162855095139 503.0 5.0 363.0 
336.0000434493926 25273.0 NaN 1531.7942551770207 0.5018051388143673 506.0 2.0 366.0 
338.0000434493926 25294.0 NaN 1528.7428189712753 0.5016765338461008 505.0 5.0 362.0 
340.0000434493926 25300.0 NaN 1525.6219104876425 0.501477201384899 508.0 2.0 364.0 
342.0000434493926 25308.0 NaN 1525.7287909151637 0.500752898428653 503.0 7.0 359.0 
344.0000434493926 25312.0 NaN 1528.6893787575157 0.5026782838754456 507.0 3.0 364.0 
346.0000434493926 25301.0 NaN 1519.6018704074818 0.5059601894693574 503.0 6.0 358.0 
348.0000434493926 25303.0 NaN 1519.420173680694 0.5024834279816343 506.0 2.0 362.0 
350.0000434493926 25297.0 NaN 1525.6406145624576 0.5028117129589051 505.0 5.0 361.0 
352.0000434493926 25292.0 NaN 1522.5223780895117 0.5015545945965573 510.0 2.0 363.0 
354.0000434493926 25272.0 NaN 1519.452237808952 0.5032419974060993 509.0 5.0 359.0 
356.0000434493926 25261.0 NaN 1519.5430861723455 0.5001518271623236 511.0 3.0 361.0 
358.0000434493926 25270.0 NaN 1519.4602538410159 0.5036761103334251 505.0 7.0 357.0 
360.0000434493926 25255.0 NaN 1516.403473613894 0.5026232802675593 510.0 3.0 360.0 
362.0000434493926 25245.0 NaN 1513.3520374081486 0.5057744609355395 508.0 6.0 356.0 
364.0000434493926 25201.0 NaN 1507.1235804943212 0.5016391693242179 511.0 3.0 357.0 
366.0000434493926 25178.0 NaN 1504.1255845023372 0.5012406321301848 509.0 5.0 354.0 
368.0000434493926 25188.0 NaN 1500.9298597194384 0.5021990672215765 513.0 2.0 356.0 
370.0000434493926 25186.0 NaN 1507.174348697394 0.5032920801054012 510.0 5.0 355.0 
372.0000434493926 25164.0 NaN 1507.1529726118908 0.5034863399438757 512.0 2.0 358.0 
374.0000434493926 25102.0 NaN 1504.1923847695386 0.5044683995089891 511.0 6.0 353.0 
376.0000434493926 25089.0 NaN 1501.0554442217758 0.5016503984871866 514.0 3.0 355.0 
378.0000434493926 25093.0 NaN 1497.9318637274546 0.5045386682606923 509.0 7.0 350.0 
380.0000434493926 25072.0 NaN 1500.9352037408157 0.5047859673890837 512.0 2.0 356.0 
382.0000434493926 25080.0 NaN 1497.987975951903 0.5030417558492358 512.0 5.0 352.0 
384.0000434493926 25093.0 NaN 1497.8704074816294 0.5012576202064811 516.0 2.0 355.0 
386.0000434493926 25097.0 NaN 1494.8724114896454 0.5012017676175542 510.0 7.0 349.0 
388.0000434493926 25096.0 NaN 1494.8162992651978 0.5042680429577863 509.0 6.0 350.0 
390.0000434493926 25069.0 NaN 1501.1382765531068 0.5036155276152091 508.0 6.0 352.0 
392.0000434493926 25051.0 NaN 1501.108884435537 0.5037989208458431 513.0 6.0 352.0 
394.0000434493926 25035.0 NaN 1507.2571810287247 0.5026803865070514 515.0 4.0 356.0 
396.0000434493926 25023.0 NaN 1507.2571810287247 0.5014939999141536 517.0 4.0 356.0 
398.0000434493926 25022.0 NaN 1504.0641282565123 0.5067240049758854 517.0 3.0 356.0 
400.0000434493926 24980.0 NaN 1501.0287241148972 0.5069966622942694 517.0 3.0 355.0 
402.0000434493926 24961.0 NaN 1504.1202404809626 0.5035216785040377 515.0 3.0 356.0 
404.0000434493926 24982.0 NaN 1507.150300601202 0.5022643866396307 516.0 3.0 357.0 
406.0000434493926 24969.0 NaN 1513.3867735470933 0.5015387076327915 515.0 5.0 357.0 
408.0000434493926 24978.0 NaN 1522.6292585170356 0.505393332938809 521.0 4.0 361.0 
410.0000434493926 24962.0 NaN 1525.750167000667 0.5061458608500563 521.0 4.0 362.0 
412.0000434493926 24950.0 NaN 1522.6319305277214 0.5035586095072245 524.0 3.0 362.0 
414.0000434493926 24937.0 NaN 1519.4041416165658 0.5040879694821992 524.0 3.0 361.0 
416.0000434493926 24907.0 NaN 1510.1776887107544 0.5031907283842908 525.0 2.0 359.0 
418.0000434493926 24904.0 NaN 1513.2852371409479 0.5038077833920276 525.0 2.0 360.0 
420.0000434493926 24905.0 NaN 1507.1609886439546 0.5027096727143808 521.0 6.0 354.0 
422.0000434493926 24898.0 NaN 1494.9098196392788 0.5047935183546606 510.0 9.0 347.0 
424.0000434493926 24880.0 NaN 1504.1122244488988 0.5038787402031902 512.0 8.0 351.0 
426.0000434493926 24861.0 NaN 1507.2117568470271 0.5027058901307998 512.0 9.0 351.0 
428.0000434493926 24849.0 NaN 1507.1930527722104 0.5063885217518592 510.0 10.0 350.0 
430.0000434493926 24832.0 NaN 1501.0100200400807 0.5058338331470772 512.0 9.0 349.0 
432.0000434493926 24814.0 NaN 1519.4094856379434 0.5034489457098562 519.0 6.0 358.0 
434.0000434493926 24823.0 NaN 1519.2945891783556 0.5053323221039752 523.0 5.0 359.0 
436.0000434493926 24825.0 NaN 1519.356045424182 0.502766066457136 522.0 6.0 358.0 
438.0000434493926 24829.0 NaN 1522.458249833 0.5047167311945302 518.0 9.0 356.0 
440.0000434493926 24824.0 NaN 1525.54442217769 0.5056060961950654 518.0 10.0 356.0 
442.0000434493926 24808.0 NaN 1537.7982631930538 0.504605403228537 518.0 11.0 359.0 
444.0000434493926 24815.0 NaN 1534.706746826988 0.503560280556214 522.0 9.0 360.0 
446.0000434493926 24817.0 NaN 1541.0100200400811 0.50367561714241 525.0 9.0 362.0 
448.0000434493926 24828.0 NaN 1540.9271877087517 0.5038779105620694 525.0 9.0 362.0 
450.0000434493926 24844.0 NaN 1543.9625918503666 0.5035834867969935 523.0 10.0 362.0 
452.0000434493926 24842.0 NaN 1543.9278557114237 0.50390402922733 522.0 9.0 363.0 
454.0000434493926 24858.0 NaN 1543.9358717434877 0.505738050534262 522.0 9.0 363.0 
456.0000434493926 24864.0 NaN 1547.0701402805612 0.5035885666753753 520.0 9.0 364.0 
458.0000434493926 24871.0 NaN 1547.0594522378092 0.5045099188745972 518.0 10.0 363.0 
460.0000434493926 24884.0 NaN 1547.1396125584515 0.5031757134781186 518.0 9.0 364.0 
462.0000434493926 24896.0 NaN 1547.0621242484974 0.5070393334153221 519.0 8.0 365.0 
464.0000434493926 24870.0 NaN 1544.0587842351363 0.5115711450917748 521.0 8.0 364.0 
466.0000434493926 24844.0 NaN 1544.0427521710092 0.504132617614246 518.0 8.0 364.0 
468.0000434493926 24860.0 NaN 1540.9058116232454 0.5063851370860032 516.0 9.0 362.0 
470.0000434493926 24846.0 NaN 1540.9325317301273 0.5041707656706035 512.0 11.0 360.0 
472.0000434493926 24826.0 NaN 1534.7628590514364 0.5039925567970936 512.0 10.0 359.0 
474.0000434493926 24825.0 NaN 1528.6118904475632 0.5046069388072849 513.0 8.0 359.0 
476.0000434493926 24804.0 NaN 1528.6145624582489 0.5046682235183607 518.0 5.0 362.0 
478.0000434493926 24830.0 NaN 1528.5424181696726 0.503133068631519 514.0 7.0 360.0 
480.0000434493926 24825.0 NaN 1525.5657982631915 0.5027760098312641 515.0 6.0 360.0 
482.0000434493926 24837.0 NaN 1522.4876419505665 0.5038398193332674 514.0 5.0 360.0 
484.0000434493926 24866.0 NaN 1507.1155644622568 0.5025495925513945 510.0 6.0 354.0 
486.0000434493926 24872.0 NaN 1500.9325317301273 0.5023284773113575 511.0 3.0 355.0 
488.0000434493926 24905.0 NaN 1494.7975951903813 0.5057374713780877 512.0 2.0 354.0 
490.0000434493926 24919.0 NaN 1497.9372077488301 0.503033200510562 513.0 2.0 355.0 
492.0000434493926 24900.0 NaN 1491.7835671342696 0.5034209551367047 513.0 2.0 353.0 
494.0000434493926 24925.0 NaN 1485.584502338009 0.5077752091904897 507.0 2.0 351.0 
496.0000434493926 24899.0 NaN 1485.5657982631922 0.5028990554917651 507.0 2.0 351.0 
498.0000434493926 24906.0 NaN 1485.5444221776895 0.5049326758660925 508.0 2.0 351.0 
500.0000434493926 24916.0 NaN 1488.681362725452 0.5032881126730001 507.0 3.0 351.0 
502.0000434493926 24918.0 NaN 1491.8316633266538 0.5052660302175915 508.0 3.0 352.0 
504.0000434493926 24939.0 NaN 1485.6486305945211 0.5061043430819199 508.0 3.0 350.0 
506.0000434493926 24901.0 NaN 1494.84034736139 0.5058575589361411 509.0 4.0 352.0 
508.0000434493926 24907.0 NaN 1497.8490313961263 0.5036070373078881 514.0 2.0 355.0 
510.0000434493926 24914.0 NaN 1494.8350033400122 0.503713687077532 511.0 2.0 354.0 
512.0000434493926 24927.0 NaN 1488.7027388109548 0.5050145315569783 509.0 3.0 351.0 
514.0000434493926 24956.0 NaN 1482.4929859719446 0.5054225261361733 505.0 6.0 346.0 
516.0000434493926 24935.0 NaN 1479.4976619906472 0.5020956656346816 504.0 4.0 347.0 
518.0000434493926 24974.0 NaN 1476.3740814963267 0.5039416962120646 507.0 3.0 347.0 
520.0000434493926 24981.0 NaN 1464.117568470273 0.5059919012385676 506.0 3.0 343.0 
522.0000434493926 24971.0 NaN 1461.0340681362727 0.50829385435075 502.0 4.0 341.0 
524.0000434493926 24996.0 NaN 1464.0534402137616 0.5042347148960652 503.0 2.0 344.0 
526.0000434493926 24996.0 NaN 1461.087508350034 0.5024331092468173 505.0 2.0 343.0 
528.0000434493926 24994.0 NaN 1464.1629926519715 0.5044322423419334 506.0 2.0 344.0 
530.0000434493926 25000.0 NaN 1451.869071476285 0.5023374829455263 505.0 2.0 340.0 
532.0000434493926 25013.0 NaN 1451.85036740147 0.5048523552099777 505.0 2.0 340.0 
534.0000434493926 25030.0 NaN 1451.8904475617908 0.5028342937172271 505.0 2.0 340.0 
536.0000434493926 25024.0 NaN 1455.0273881095532 0.5015893752836053 503.0 2.0 341.0 
538.0000434493926 25019.0 NaN 1461.151636606546 0.5020753487060079 505.0 2.0 343.0 
540.0000434493926 25010.0 NaN 1461.116900467601 0.5033279354194341 505.0 2.0 343.0 
542.0000434493926 24991.0 NaN 1467.2972611890452 0.5058451245010639 506.0 2.0 345.0 
544.0000434493926 24958.0 NaN 1470.354041416165 0.5069311905683045 506.0 2.0 346.0 
546.0000434493926 24921.0 NaN 1467.2438209752831 0.5029804492457745 508.0 2.0 345.0 
548.0000434493926 24933.0 NaN 1467.2064128256513 0.5013983714380076 508.0 2.0 345.0 
550.0000434493926 24949.0 NaN 1464.1282565130266 0.5021973663837517 507.0 2.0 344.0 
552.0000434493926 24955.0 NaN 1464.1870407481633 0.501197182747982 507.0 2.0 344.0 
554.0000434493926 24976.0 NaN 1467.1315965263855 0.5020543553799066 508.0 2.0 345.0 
556.0000434493926 24972.0 NaN 1458.0521042084172 0.5013516796242308 505.0 2.0 342.0 
558.0000434493926 24958.0 NaN 1454.9498997995997 0.5012526399925966 504.0 2.0 341.0 
560.0000434493926 24950.0 NaN 1454.899131596527 0.5013712945914799 502.0 2.0 341.0 
562.0000434493926 24987.0 NaN 1457.9024716098866 0.5031308076292341 503.0 2.0 342.0 
564.0000434493926 24987.0 NaN 1461.0420841683363 0.5020162600338369 505.0 2.0 343.0 
566.0000434493926 24975.0 NaN 1454.9365397461593 0.502512943974789 504.0 2.0 341.0 
568.0000434493926 24976.0 NaN 1461.1275885103546 0.5019978673810503 506.0 2.0 343.0 
570.0000434493926 24960.0 NaN 1467.1823647294589 0.5029334692472256 508.0 2.0 345.0 
572.0000434493926 24993.0 NaN 1473.3921175684702 0.504629580089975 508.0 2.0 347.0 
574.0000434493926 24989.0 NaN 1476.414161656646 0.503547034718218 507.0 2.0 348.0 
576.0000434493926 24967.0 NaN 1473.4428857715432 0.5034893101305772 507.0 2.0 347.0 
578.0000434493926 24973.0 NaN 1470.3139612558452 0.5027948192882294 508.0 2.0 346.0 
580.0000434493926 24990.0 NaN 1470.3059452237812 0.5024174405592612 509.0 2.0 346.0 
582.0000434493926 25002.0 NaN 1473.3547094188373 0.5019747445814607 510.0 2.0 347.0 
584.0000434493926 25025.0 NaN 1476.483633934536 0.5036332496879146 516.0 2.0 348.0 
586.0000434493926 25010.0 NaN 1473.3173012692057 0.503801047122193 518.0 2.0 347.0 
588.0000434493926 25029.0 NaN 1476.459585838344 0.5029416833956305 518.0 2.0 348.0 
590.0000434493926 25050.0 NaN 1482.535738142953 0.5030018996869382 521.0 2.0 350.0 
592.0000434493926 25075.0 NaN 1482.5651302605208 0.5040273150096157 522.0 2.0 350.0 
594.0000434493926 25048.0 NaN 1485.5657982631924 0.5031592447178153 523.0 2.0 351.0 
596.0000434493926 25026.0 NaN 1485.704742818972 0.5019028558737626 523.0 2.0 351.0 
598.0000434493926 25061.0 NaN 1488.8016032064122 0.5033465641946383 522.0 2.0 352.0 
600.0000434493926 25105.0 NaN 1491.9198396793581 0.5036797730239557 524.0 2.0 353.0 
602.0000434493926 25155.0 NaN 1488.7454909819635 0.5027497342286149 523.0 2.0 352.0 
604.0000434493926 25148.0 NaN 1501.100868403473 0.5045844333091415 527.0 2.0 356.0 
606.0000434493926 25143.0 NaN 1498.0253841015365 0.5057633828662258 524.0 2.0 355.0 
608.0000434493926 25169.0 NaN 1504.1950567802273 0.507077184485312 526.0 2.0 357.0 
610.0000434493926 25143.0 NaN 1504.0774883099537 0.505836974759836 527.0 2.0 357.0 
612.0000434493926 25111.0 NaN 1501.0073480293918 0.5042804513340837 524.0 4.0 354.0 
614.0000434493926 25116.0 NaN 1500.9886439545749 0.5040125074739407 522.0 5.0 353.0 
616.0000434493926 25107.0 NaN 1501.092852371409 0.5029967701760173 519.0 6.0 352.0 
618.0000434493926 25181.0 NaN 1504.117568470273 0.5044558724483708 518.0 5.0 354.0 
620.0000434493926 25184.0 NaN 1516.4542418169665 0.5089444101133854 521.0 5.0 358.0 
622.0000434493926 25144.0 NaN 1516.430193720774 0.5021094772349023 520.0 5.0 358.0 
624.0000434493926 25159.0 NaN 1516.467601870408 0.5048172162364213 520.0 5.0 358.0 
626.0000434493926 25133.0 NaN 1516.4782899131606 0.5042151893838851 520.0 5.0 358.0 
628.0000434493926 25172.0 NaN 1519.6018704074818 0.5040212316014816 520.0 5.0 359.0 
630.0000434493926 25163.0 NaN 1516.5344021376093 0.5044995151027419 523.0 5.0 358.0 
632.0000434493926 25145.0 NaN 1525.750167000667 0.5027613974180093 526.0 3.0 363.0 
634.0000434493926 25190.0 NaN 1522.6319305277211 0.5039627243504147 529.0 4.0 361.0 
636.0000434493926 25174.0 NaN 1522.7388109552444 0.503117947890088 530.0 4.0 361.0 
638.0000434493926 25163.0 NaN 1519.6045424181707 0.5059984404208394 533.0 2.0 362.0 
640.0000434493926 25123.0 NaN 1513.549766199064 0.506003733358728 524.0 5.0 357.0 
642.0000434493926 25096.0 NaN 1510.4342017368078 0.5029307929287193 520.0 6.0 355.0 
644.0000434493926 25115.0 NaN 1513.4509018036078 0.5024928715972481 519.0 6.0 356.0 
646.0000434493926 25105.0 NaN 1513.4856379425528 0.5011078837647271 517.0 7.0 355.0 
648.0000434493926 25118.0 NaN 1513.4883099532392 0.50442216694433 518.0 4.0 358.0 
650.0000434493926 25080.0 NaN 1510.354041416165 0.5024382281337108 518.0 5.0 356.0 
652.0000434493926 25069.0 NaN 1525.6940547762183 0.5021552615575713 520.0 4.0 362.0 
654.0000434493926 25088.0 NaN 1525.79024716099 0.5064483605847734 516.0 6.0 360.0 
656.0000434493926 25078.0 NaN 1525.704742818972 0.5037407818744797 517.0 4.0 362.0 
658.0000434493926 25064.0 NaN 1525.7768871075475 0.5027367450440953 514.0 6.0 360.0 
660.0000434493926 25027.0 NaN 1534.9365397461581 0.5040070353529742 510.0 4.0 365.0 
662.0000434493926 25004.0 NaN 1538.0521042084172 0.503016640544406 512.0 4.0 366.0 
664.0000434493926 24996.0 NaN 1538.0494321977283 0.502738850642811 517.0 3.0 367.0 
#####################################################################
# End of data export. Simulation finished at: 2019-03-07T21:02+0000 #
#####################################################################
