#####################################################################
# Alchemist log file - simulation started at: 2019-03-14T22:31+0000 #
#####################################################################
# seed = 6.0, bandwidth = 1.0E8, propagationDelay = 0.03162277660168379, baserange = 177.82794100389228
#
# The columns have the following meaning: 
# time neighbor_count[Sum] <value>@neighbor_count[Sum] packet_size[Mean] mean_delay[Mean] crowd[Sum] overcrowded[Sum] risk[Sum] 
0.0 NaN NaN NaN NaN NaN NaN NaN 
2.0001236201816948 26532.0 NaN 4995.882431529726 0.5011505920334308 1497.0 0.0 1497.0 
4.000123620181695 26546.0 NaN 4994.947227788911 0.5014240572195512 1493.0 4.0 1493.0 
6.000123620181695 26546.0 NaN 4994.172344689378 0.5014240552041028 1493.0 4.0 1493.0 
8.000123620181695 26548.0 NaN 4994.693386773547 0.5015690584806584 1493.0 4.0 1493.0 
10.000123620181695 26549.0 NaN 4995.211756847028 0.5015678340011558 1493.0 4.0 1493.0 
12.000123620181695 26554.0 NaN 4994.85370741483 0.5015398114847811 1493.0 4.0 1493.0 
14.000123620181695 26554.0 NaN 4994.450233800935 0.5038333904869894 1494.0 3.0 1494.0 
16.000123620181693 26548.0 NaN 4994.778891115565 0.5028404013385572 1494.0 3.0 1494.0 
18.000123620181693 26568.0 NaN 4995.078156312626 0.5023838054230636 1494.0 3.0 1494.0 
20.000123620181693 26563.0 NaN 4995.834335337341 0.5031948560178079 1493.0 4.0 1493.0 
22.000123620181693 26561.0 NaN 4994.928523714095 0.5013063278608708 1492.0 5.0 1492.0 
24.000123620181693 26560.0 NaN 4994.821643286573 0.5012907920460159 1491.0 6.0 1491.0 
26.000123620181693 26583.0 NaN 4994.578490313961 0.5027926884131515 1492.0 5.0 1492.0 
28.000123620181693 26602.0 NaN 4995.575150300601 0.5015549690249703 1492.0 5.0 1492.0 
30.000123620181693 26603.0 NaN 4995.778223112892 0.5012487165338354 1492.0 5.0 1492.0 
32.0001236201817 26607.0 NaN 4995.128924515698 0.5021500076518416 1493.0 4.0 1493.0 
34.0001236201817 26606.0 NaN 4994.418169672679 0.50171848295354 1493.0 4.0 1493.0 
36.0001236201817 26614.0 NaN 4994.917835671343 0.5040642851763529 1493.0 4.0 1493.0 
38.0001236201817 26630.0 NaN 4995.155644622579 0.5046259858296486 1493.0 4.0 1493.0 
40.0001236201817 26626.0 NaN 4996.10955243821 0.5017424521519067 1493.0 4.0 1493.0 
42.0001236201817 26637.0 NaN 4995.144956579827 0.5020414718826813 1493.0 4.0 1493.0 
44.0001236201817 26634.0 NaN 4994.709418837675 0.5019333952742666 1493.0 4.0 1493.0 
46.0001236201817 26642.0 NaN 4994.482297929192 0.5053686882256397 1493.0 4.0 1493.0 
48.0001236201817 26672.0 NaN 4995.123580494322 0.5034631194841581 1492.0 5.0 1492.0 
50.0001236201817 26656.0 NaN 4995.575150300601 0.5018048251313533 1492.0 5.0 1492.0 
52.0001236201817 26666.0 NaN 4995.20908483634 0.5020874622224047 1493.0 4.0 1493.0 
54.0001236201817 26663.0 NaN 4994.714762859051 0.5023159050042104 1493.0 4.0 1493.0 
56.0001236201817 26659.0 NaN 4995.024716098865 0.5060269983313804 1494.0 3.0 1494.0 
58.0001236201817 26665.0 NaN 4995.206412825652 0.5029643085067894 1494.0 3.0 1494.0 
60.0001236201817 26636.0 NaN 4995.810287241149 0.502769736232288 1494.0 3.0 1494.0 
62.000077740181695 26650.0 NaN 1525.520374081497 0.5024086372676089 779.0 3.0 363.0 
64.0000777401817 26652.0 NaN 1525.7474949899813 0.5023022523089455 617.0 5.0 361.0 
66.0000777401817 26714.0 NaN 1525.5577822311277 0.508230032967575 574.0 5.0 361.0 
68.0000777401817 26725.0 NaN 1528.8149632598543 0.5021871272947932 547.0 5.0 362.0 
70.0000777401817 26708.0 NaN 1528.748162992652 0.5019802568181513 531.0 5.0 362.0 
72.0000777401817 26728.0 NaN 1528.873747494991 0.5020750329304108 528.0 5.0 362.0 
74.0000777401817 26735.0 NaN 1531.7167668670666 0.5022420107389682 527.0 4.0 364.0 
76.0000777401817 26810.0 NaN 1534.8376753507002 0.5051361178665815 527.0 4.0 365.0 
78.0000777401817 26784.0 NaN 1534.8162992651974 0.5033160869804635 525.0 4.0 365.0 
80.0000777401817 26783.0 NaN 1534.8029392117548 0.5025412174468958 522.0 5.0 364.0 
82.0000777401817 26790.0 NaN 1534.832331329327 0.5025884035793771 520.0 7.0 362.0 
84.0000777401817 26771.0 NaN 1537.9933199732816 0.5029859794869529 523.0 5.0 365.0 
86.0000777401817 26797.0 NaN 1537.9372077488304 0.5039010139884862 520.0 5.0 365.0 
88.0000777401817 26771.0 NaN 1537.985303941216 0.5035399674048583 519.0 6.0 364.0 
90.0000777401817 26767.0 NaN 1537.9719438877753 0.5016841800457399 522.0 5.0 365.0 
92.0000777401817 26776.0 NaN 1538.0093520374094 0.502390424401279 521.0 6.0 364.0 
94.0000777401817 26773.0 NaN 1537.9692718770877 0.502263261819564 524.0 4.0 366.0 
96.0000777401817 26771.0 NaN 1538.0307281229123 0.5064100021069667 523.0 5.0 365.0 
98.0000777401817 26729.0 NaN 1541.140948563794 0.5017777803397673 521.0 6.0 365.0 
100.0000777401817 26742.0 NaN 1541.1142284569148 0.5027430071923114 522.0 4.0 367.0 
102.0000777401817 26768.0 NaN 1541.0634602538419 0.502752342291358 520.0 6.0 365.0 
104.0000777401817 26760.0 NaN 1541.0768203072819 0.5026624469305311 522.0 4.0 367.0 
106.0000777401817 26773.0 NaN 1537.907815631264 0.50442943293769 521.0 5.0 365.0 
108.0000777401817 26758.0 NaN 1541.092852371409 0.5018729709292715 522.0 5.0 366.0 
110.0000777401817 26759.0 NaN 1541.0527722110905 0.502573788447516 523.0 5.0 366.0 
112.0000777401817 26770.0 NaN 1541.13293253173 0.5031974120450401 523.0 5.0 366.0 
114.0000777401817 26744.0 NaN 1541.0207080828332 0.5053199933949517 524.0 5.0 366.0 
116.0000777401817 26751.0 NaN 1543.9973279893118 0.5037715124792971 523.0 7.0 365.0 
118.0000777401817 26719.0 NaN 1540.9111556446212 0.5032084669553436 522.0 8.0 363.0 
120.0000777401817 26700.0 NaN 1540.9832999332002 0.5029804465556406 525.0 5.0 366.0 
122.0000777401817 26715.0 NaN 1541.0126920507664 0.5027036815947943 525.0 5.0 366.0 
124.0000777401817 26697.0 NaN 1541.111556446227 0.5021375026675584 524.0 6.0 365.0 
126.0000777401817 26690.0 NaN 1538.0601202404819 0.5028790273733901 524.0 6.0 364.0 
128.0000777401817 26665.0 NaN 1538.092184368736 0.5037714676827316 524.0 5.0 365.0 
130.0000777401817 26641.0 NaN 1537.9639278557092 0.5043536555644649 523.0 5.0 365.0 
132.0000777401817 26663.0 NaN 1538.0494321977274 0.5034833132445214 522.0 4.0 366.0 
134.0000777401817 26651.0 NaN 1537.8917835671364 0.5026066578876129 520.0 5.0 365.0 
136.0000777401817 26655.0 NaN 1534.8430193720787 0.5041948183637313 519.0 4.0 365.0 
138.0000777401817 26648.0 NaN 1534.8109552438207 0.5039718724380103 519.0 4.0 365.0 
140.0000777401817 26624.0 NaN 1534.8350033400122 0.5018773673030944 516.0 5.0 364.0 
142.0000777401817 26642.0 NaN 1537.9585838343364 0.5022360701143026 516.0 5.0 365.0 
144.0000777401817 26636.0 NaN 1540.9271877087515 0.501797040217252 516.0 4.0 367.0 
146.0000777401817 26645.0 NaN 1543.975951903809 0.5025972945568787 517.0 4.0 368.0 
148.0000777401817 26647.0 NaN 1544.0026720106882 0.5030253390148326 519.0 4.0 368.0 
150.0000777401817 26619.0 NaN 1543.975951903809 0.5033765782080003 519.0 4.0 368.0 
152.0000777401817 26642.0 NaN 1550.2284569138271 0.5020019858031013 518.0 6.0 368.0 
154.0000777401817 26628.0 NaN 1541.007348029391 0.5020440773963172 517.0 8.0 363.0 
156.0000777401817 26618.0 NaN 1537.9532398129606 0.5028766737060301 518.0 7.0 363.0 
158.0000777401817 26622.0 NaN 1537.923847695391 0.5033818221646391 518.0 7.0 363.0 
160.0000777401817 26591.0 NaN 1537.9398797595181 0.5019802357443632 518.0 4.0 366.0 
162.0000777401817 26599.0 NaN 1541.0688042752183 0.5036650349316132 516.0 6.0 365.0 
164.0000777401817 26568.0 NaN 1541.0313961255845 0.5036916887879855 516.0 6.0 365.0 
166.0000777401817 26575.0 NaN 1537.9372077488304 0.5044761468377547 516.0 6.0 364.0 
168.0000777401817 26559.0 NaN 1541.114228456915 0.5043167989825896 517.0 4.0 367.0 
170.0000777401817 26529.0 NaN 1541.0420841683363 0.5016590782313739 515.0 5.0 366.0 
172.0000777401817 26527.0 NaN 1541.114228456915 0.5042511828915146 515.0 5.0 366.0 
174.0000777401817 26510.0 NaN 1537.9318637274544 0.5017891538355135 515.0 5.0 365.0 
176.0000777401817 26522.0 NaN 1538.0013360053454 0.5029456389394437 516.0 4.0 366.0 
178.0000777401817 26490.0 NaN 1541.119572478291 0.5029789672885938 517.0 4.0 367.0 
180.0000777401817 26446.0 NaN 1541.2264529058116 0.5040579455422488 515.0 5.0 366.0 
182.0000777401817 26449.0 NaN 1541.1863727454909 0.5046864834566448 514.0 6.0 365.0 
184.0000777401817 26425.0 NaN 1541.1596526386093 0.5035383794886192 513.0 5.0 366.0 
186.0000777401817 26458.0 NaN 1534.888443553773 0.5038257079438164 510.0 8.0 361.0 
188.0000777401817 26436.0 NaN 1534.880427521709 0.5050446611832043 509.0 8.0 361.0 
190.0000777401817 26389.0 NaN 1534.8056112224456 0.5030693871508436 511.0 6.0 363.0 
192.0000777401817 26383.0 NaN 1534.997995991982 0.5031206227427856 513.0 5.0 364.0 
194.0000777401817 26356.0 NaN 1537.9906479625906 0.5041016874612568 513.0 5.0 365.0 
196.0000777401817 26377.0 NaN 1538.193720774882 0.5031587102180137 515.0 4.0 366.0 
198.0000777401817 26354.0 NaN 1538.0414161656636 0.5029824014660202 513.0 6.0 364.0 
200.0000777401817 26332.0 NaN 1538.092184368736 0.5029023820420879 514.0 5.0 365.0 
202.0000777401817 26323.0 NaN 1537.9665998664002 0.5043145180119607 514.0 6.0 364.0 
204.0000777401817 26319.0 NaN 1538.0841683366727 0.5051921260674603 514.0 5.0 365.0 
206.0000777401817 26294.0 NaN 1534.9205076820303 0.5074768820052971 513.0 5.0 364.0 
208.0000777401817 26265.0 NaN 1535.0247160988636 0.5056046067757887 510.0 4.0 365.0 
210.0000777401817 26252.0 NaN 1535.0033400133607 0.5093575064670208 509.0 6.0 363.0 
212.0000777401817 26247.0 NaN 1535.0514362057456 0.5058276562742807 509.0 6.0 363.0 
214.0000777401817 26229.0 NaN 1534.9231796927181 0.5059513325538767 509.0 6.0 363.0 
216.0000777401817 26218.0 NaN 1528.8710754843 0.503792958557304 509.0 9.0 358.0 
218.0000777401817 26184.0 NaN 1528.6412825651298 0.5064769165859387 506.0 10.0 357.0 
220.0000777401817 26122.0 NaN 1528.7588510354028 0.5041095503778896 508.0 8.0 359.0 
222.0000777401817 26116.0 NaN 1522.597194388779 0.5035446435750401 512.0 4.0 361.0 
224.0000777401817 26098.0 NaN 1522.6132264529065 0.506134002997956 511.0 5.0 360.0 
226.0000777401817 26073.0 NaN 1531.7515030060117 0.5073648395777036 511.0 5.0 363.0 
228.0000777401817 26055.0 NaN 1534.9124916499663 0.5062135219270477 511.0 5.0 364.0 
230.0000777401817 26044.0 NaN 1534.8456913827638 0.5040095219682263 509.0 4.0 365.0 
232.0000777401817 26045.0 NaN 1534.9498997996002 0.5054867855534692 509.0 5.0 364.0 
234.0000777401817 26015.0 NaN 1534.907147628591 0.5047559661475813 510.0 5.0 364.0 
236.0000777401817 26018.0 NaN 1538.0494321977274 0.505785182450656 507.0 7.0 363.0 
238.0000777401817 25996.0 NaN 1538.0975283901118 0.5082731873649416 509.0 6.0 364.0 
240.0000777401817 25970.0 NaN 1535.0861723446908 0.5075687617394029 506.0 6.0 363.0 
242.0000777401817 25958.0 NaN 1535.056780227121 0.5053773559915469 504.0 8.0 361.0 
244.0000777401817 25965.0 NaN 1531.9038076152299 0.5063384354502345 507.0 7.0 361.0 
246.0000777401817 25942.0 NaN 1528.7401469605884 0.5065366411645326 507.0 7.0 360.0 
248.0000777401817 25924.0 NaN 1528.8096192384755 0.5050954544093257 508.0 6.0 361.0 
250.0000777401817 25901.0 NaN 1522.6960587842361 0.5040531420780339 505.0 6.0 359.0 
252.0000777401817 25892.0 NaN 1522.7548430193729 0.5041749324169907 502.0 7.0 358.0 
254.0000777401817 25881.0 NaN 1522.599866399464 0.5044305186436732 505.0 5.0 360.0 
256.00007774018167 25890.0 NaN 1522.503674014697 0.5054256740021448 506.0 5.0 360.0 
258.0000777401817 25873.0 NaN 1519.4201736806938 0.5066702026972828 509.0 4.0 360.0 
260.0000777401817 25820.0 NaN 1519.4736138944545 0.5043121225527838 509.0 4.0 360.0 
262.0000777401817 25786.0 NaN 1519.5751503006 0.505526402833479 510.0 3.0 361.0 
264.0000777401817 25750.0 NaN 1519.6847027388094 0.505075874749579 509.0 4.0 360.0 
266.0000777401817 25748.0 NaN 1522.789579158318 0.5043793592990043 510.0 5.0 360.0 
268.0000777401817 25771.0 NaN 1531.9919839679364 0.5073306227739139 507.0 5.0 363.0 
270.0000777401817 25690.0 NaN 1531.9438877755522 0.506218666339194 507.0 4.0 364.0 
272.0000777401817 25653.0 NaN 1531.8824315297275 0.5054142393035199 505.0 7.0 361.0 
274.0000777401817 25628.0 NaN 1528.7027388109543 0.5065718258921867 506.0 4.0 363.0 
276.0000777401817 25640.0 NaN 1528.7348029392115 0.5054044370636078 503.0 8.0 359.0 
278.0000777401817 25679.0 NaN 1531.759519038075 0.5066312328007722 505.0 6.0 362.0 
280.0000777401817 25638.0 NaN 1531.7702070808273 0.5048737847807412 508.0 8.0 360.0 
282.0000777401817 25634.0 NaN 1534.7388109552453 0.5071174006258129 512.0 3.0 366.0 
284.0000777401817 25606.0 NaN 1534.7201068804272 0.5082742010350285 507.0 7.0 362.0 
286.0000777401817 25638.0 NaN 1528.5824983299929 0.5071538762695156 508.0 4.0 363.0 
288.0000777401817 25595.0 NaN 1525.5444221776906 0.5071798327714737 503.0 10.0 356.0 
290.0000777401817 25567.0 NaN 1525.485637942552 0.5054238633357051 507.0 7.0 359.0 
292.0000777401817 25549.0 NaN 1525.5337341349364 0.5061985805735444 504.0 10.0 356.0 
294.0000777401817 25529.0 NaN 1522.5036740146975 0.509741723832218 506.0 8.0 357.0 
296.0000777401817 25560.0 NaN 1522.5277221108888 0.505983609729834 502.0 11.0 354.0 
298.0000777401817 25564.0 NaN 1531.7434869739473 0.5060358289453233 506.0 5.0 363.0 
300.0000777401817 25533.0 NaN 1534.9819639278544 0.5051322938572211 499.0 11.0 358.0 
302.0000777401817 25515.0 NaN 1534.8670674682705 0.5068940502298358 506.0 4.0 365.0 
304.0000777401817 25494.0 NaN 1525.696726786909 0.5065794103402119 503.0 7.0 359.0 
306.0000777401817 25505.0 NaN 1525.675350701402 0.5068203629371242 504.0 4.0 362.0 
308.0000777401817 25489.0 NaN 1535.0273881095545 0.5083626712493402 501.0 6.0 363.0 
310.0000777401817 25448.0 NaN 1534.9018036072157 0.5073665667843806 501.0 6.0 363.0 
312.0000777401817 25432.0 NaN 1534.8724114896452 0.5069240107472727 504.0 3.0 366.0 
314.0000777401817 25414.0 NaN 1534.661322645291 0.5070161117421993 502.0 5.0 364.0 
316.0000777401817 25392.0 NaN 1531.6072144288569 0.5098231243072923 507.0 4.0 364.0 
318.0000777401817 25369.0 NaN 1531.5991983967936 0.5056394515532018 504.0 4.0 364.0 
320.0000777401817 25347.0 NaN 1531.6499665998663 0.5073795996319664 503.0 5.0 363.0 
322.0000777401817 25342.0 NaN 1534.789579158318 0.5051906438309514 503.0 5.0 364.0 
324.0000777401817 25327.0 NaN 1531.7381429525728 0.5047838522290138 503.0 5.0 363.0 
326.0000777401817 25336.0 NaN 1537.8249832999338 0.5079591031322027 502.0 6.0 364.0 
328.0000777401817 25312.0 NaN 1537.8436873747482 0.5041689586739138 501.0 6.0 364.0 
330.0000777401817 25298.0 NaN 1534.7628590514364 0.5029000698308593 505.0 4.0 365.0 
332.0000777401817 25294.0 NaN 1534.8456913827638 0.5056697756335149 504.0 6.0 363.0 
334.0000777401817 25279.0 NaN 1534.8617234468934 0.504928145811032 507.0 4.0 365.0 
336.0000777401817 25283.0 NaN 1525.7127588510366 0.5024903713843369 508.0 4.0 362.0 
338.0000777401817 25316.0 NaN 1531.8156312625272 0.5033048945755287 507.0 5.0 363.0 
340.0000777401817 25298.0 NaN 1525.6406145624576 0.5021270278276919 506.0 5.0 361.0 
342.0000777401817 25314.0 NaN 1522.4983299933185 0.5050008707041655 503.0 5.0 360.0 
344.0000777401817 25294.0 NaN 1519.417501670007 0.5062377207506251 503.0 5.0 359.0 
346.0000777401817 25294.0 NaN 1519.3426853707424 0.5029837912742917 506.0 5.0 359.0 
348.0000777401817 25291.0 NaN 1522.458249833 0.5046373240123939 512.0 3.0 362.0 
350.0000777401817 25262.0 NaN 1522.3593854375424 0.5030728269860725 510.0 3.0 362.0 
352.0000777401817 25279.0 NaN 1522.4181696726794 0.5028780541888573 508.0 4.0 361.0 
354.0000777401817 25262.0 NaN 1522.3647294589182 0.5044172178064461 507.0 4.0 361.0 
356.0000777401817 25285.0 NaN 1522.3727454909817 0.5050764254995035 507.0 4.0 361.0 
358.0000777401817 25270.0 NaN 1522.4181696726794 0.5076562162915259 508.0 6.0 359.0 
360.0000777401817 25233.0 NaN 1528.6519706078818 0.5037868728136 508.0 6.0 361.0 
362.0000777401817 25236.0 NaN 1525.528390113561 0.5052150062000607 511.0 6.0 360.0 
364.0000777401817 25200.0 NaN 1525.6566466265874 0.5038747014627936 510.0 7.0 359.0 
366.0000777401817 25200.0 NaN 1516.3420173680704 0.5051847608657322 511.0 6.0 357.0 
368.0000777401817 25180.0 NaN 1516.3633934535728 0.503768077097978 511.0 6.0 357.0 
370.0000777401817 25156.0 NaN 1513.1943887775544 0.5032702334673038 515.0 4.0 358.0 
372.0000777401817 25145.0 NaN 1513.1943887775544 0.5059229856042629 515.0 3.0 359.0 
374.0000777401817 25111.0 NaN 1513.1249164996655 0.5081746847680175 513.0 5.0 357.0 
376.0000777401817 25127.0 NaN 1507.0434201736816 0.5070139957738898 513.0 4.0 356.0 
378.0000777401817 25113.0 NaN 1510.1910487641942 0.5052236721466281 516.0 4.0 357.0 
380.0000777401817 25083.0 NaN 1510.257849031397 0.5038991630302531 516.0 4.0 357.0 
382.0000777401817 25079.0 NaN 1516.3607214428848 0.5075451830313351 516.0 4.0 359.0 
384.0000777401817 25068.0 NaN 1522.479625918503 0.5067294765152808 517.0 5.0 360.0 
386.0000777401817 25088.0 NaN 1519.396125584501 0.5035760293357799 515.0 6.0 358.0 
388.0000777401817 25105.0 NaN 1528.6760187040734 0.5062587560643758 515.0 7.0 360.0 
390.0000777401817 25052.0 NaN 1525.4829659318634 0.5048095198502877 515.0 6.0 360.0 
392.0000777401817 25035.0 NaN 1522.45557782231 0.5079347182505104 516.0 6.0 359.0 
394.0000777401817 25013.0 NaN 1516.2404809619243 0.5073195663049521 516.0 6.0 357.0 
396.0000777401817 25029.0 NaN 1510.175016700066 0.5055118795944058 516.0 6.0 355.0 
398.0000777401817 25022.0 NaN 1510.1589846359373 0.5062472614980974 515.0 7.0 354.0 
400.0000777401817 24995.0 NaN 1513.2184368737462 0.5061130490803989 513.0 8.0 354.0 
402.0000777401817 24975.0 NaN 1519.3239812959266 0.5060746957966672 519.0 4.0 360.0 
404.0000777401817 24970.0 NaN 1525.5738142952569 0.5034402611090898 521.0 3.0 363.0 
406.0000777401817 25001.0 NaN 1525.5043420173668 0.5051087876231293 519.0 4.0 362.0 
408.0000777401817 24987.0 NaN 1522.5571142284566 0.5058688340465726 520.0 4.0 361.0 
410.0000777401817 24961.0 NaN 1525.579158316634 0.5060891613489168 518.0 4.0 362.0 
412.0000777401817 24940.0 NaN 1534.8216432865727 0.5065725786299037 521.0 3.0 366.0 
414.0000777401817 24929.0 NaN 1534.7788911155635 0.5046003957846149 520.0 5.0 364.0 
416.0000777401817 24967.0 NaN 1531.6713426853723 0.5043341702721057 521.0 4.0 364.0 
418.0000777401817 24955.0 NaN 1528.6680026720096 0.5059306532980345 520.0 4.0 363.0 
420.0000777401817 24913.0 NaN 1531.7942551770207 0.5033439545560205 519.0 7.0 361.0 
422.0000777401817 24898.0 NaN 1522.4128256513025 0.5046558714674387 523.0 7.0 358.0 
424.0000777401817 24866.0 NaN 1516.3126252505 0.5034522514163213 520.0 7.0 356.0 
426.0000777401817 24905.0 NaN 1516.3046092184363 0.5065588641097014 519.0 3.0 360.0 
428.0000777401817 24877.0 NaN 1513.213092852372 0.5090606338711944 514.0 5.0 357.0 
430.0000777401817 24832.0 NaN 1513.100868403473 0.5037019396836092 517.0 4.0 358.0 
432.0000777401817 24829.0 NaN 1510.0467601870396 0.5044443682290276 516.0 4.0 357.0 
434.0000777401817 24814.0 NaN 1513.0768203072819 0.5059086072752447 517.0 4.0 358.0 
436.0000777401817 24833.0 NaN 1528.5798263193062 0.5044088691807936 521.0 5.0 362.0 
438.0000777401817 24839.0 NaN 1534.7922511690056 0.5050605369971944 525.0 5.0 364.0 
440.0000777401817 24824.0 NaN 1534.752171008682 0.5039406119049155 524.0 5.0 364.0 
442.0000777401817 24838.0 NaN 1531.695390781564 0.5043467679744738 525.0 5.0 363.0 
444.0000777401817 24824.0 NaN 1531.7007348029388 0.5046589923722611 523.0 6.0 362.0 
446.0000777401817 24879.0 NaN 1547.0621242484974 0.5073481552953611 529.0 4.0 369.0 
448.0000777401817 24869.0 NaN 1550.231128924516 0.5056643130375291 527.0 5.0 369.0 
450.0000777401817 24859.0 NaN 1543.7889111556456 0.5037007905334067 528.0 4.0 368.0 
452.0000777401817 24865.0 NaN 1546.9231796927181 0.5046027958670616 522.0 7.0 366.0 
454.0000777401817 24841.0 NaN 1546.8697394789574 0.50608916333694 524.0 6.0 367.0 
456.0000777401817 24876.0 NaN 1553.119572478291 0.5050068628135179 523.0 6.0 369.0 
458.0000777401817 24863.0 NaN 1553.1436205744817 0.5042274562560437 524.0 5.0 370.0 
460.0000777401817 24859.0 NaN 1550.1189044756184 0.5048748199686248 523.0 6.0 368.0 
462.0000777401817 24863.0 NaN 1550.1082164328636 0.5042937220260066 526.0 4.0 370.0 
464.0000777401817 24841.0 NaN 1550.1696726786909 0.5041095206836702 524.0 6.0 368.0 
466.0000777401817 24844.0 NaN 1543.9919839679364 0.5040394755003713 523.0 6.0 366.0 
468.0000777401817 24835.0 NaN 1540.999331997327 0.5104214410147303 520.0 6.0 365.0 
470.0000777401817 24812.0 NaN 1534.8510354041425 0.5028725064901239 523.0 4.0 365.0 
472.0000777401817 24825.0 NaN 1534.794923179691 0.5039862111045033 523.0 4.0 365.0 
474.0000777401817 24821.0 NaN 1531.6312625250516 0.5018714479818702 520.0 5.0 363.0 
476.0000777401817 24860.0 NaN 1525.5257181028728 0.5032078840871985 514.0 6.0 360.0 
478.0000777401817 24854.0 NaN 1525.4615898463608 0.5047474897658573 516.0 4.0 362.0 
480.0000777401817 24819.0 NaN 1522.3700734802933 0.5022172080106256 510.0 8.0 357.0 
482.0000777401817 24832.0 NaN 1525.3787575150295 0.5023771052214199 512.0 7.0 359.0 
484.0000777401817 24835.0 NaN 1522.3994655978631 0.5045598660402165 512.0 7.0 358.0 
486.0000777401817 24854.0 NaN 1513.1569806279213 0.503100427179707 513.0 5.0 357.0 
488.0000777401817 24899.0 NaN 1507.169004676018 0.504086370663016 507.0 8.0 352.0 
490.0000777401817 24883.0 NaN 1500.9031396125574 0.50280898745326 509.0 5.0 353.0 
492.0000777401817 24899.0 NaN 1500.8871075484294 0.5036147146039002 506.0 4.0 354.0 
494.0000777401817 24885.0 NaN 1494.6586506346018 0.5056192148035332 506.0 4.0 352.0 
496.0000777401817 24884.0 NaN 1494.7682030728113 0.5049157879087677 502.0 4.0 352.0 
498.0000777401817 24897.0 NaN 1491.735470941883 0.5031258723137845 503.0 5.0 350.0 
500.0000777401817 24900.0 NaN 1491.802271209084 0.5027777297451459 505.0 4.0 351.0 
502.0000777401817 24918.0 NaN 1497.8891115564456 0.5056385322436806 511.0 3.0 354.0 
504.0000777401817 24885.0 NaN 1491.7648630594535 0.5052416600135877 510.0 2.0 353.0 
506.0000777401817 24876.0 NaN 1500.9432197728797 0.5021206312651166 512.0 3.0 355.0 
508.0000777401817 24887.0 NaN 1500.9779559118244 0.5034553898678573 513.0 5.0 353.0 
510.0000777401817 24881.0 NaN 1494.6853707414818 0.5036333757956921 508.0 9.0 347.0 
512.0000777401817 24901.0 NaN 1497.8383433533727 0.5030040817839877 506.0 11.0 346.0 
514.0000777401817 24936.0 NaN 1491.617902471609 0.5016280516413529 506.0 11.0 344.0 
516.0000777401817 24965.0 NaN 1476.3527054108208 0.5027768465589467 504.0 9.0 341.0 
518.0000777401817 24940.0 NaN 1479.3800935203735 0.504652340203 506.0 7.0 344.0 
520.0000777401817 24936.0 NaN 1479.5377421509697 0.5061479827558153 503.0 9.0 342.0 
522.0000777401817 24963.0 NaN 1479.473613894455 0.5033676725255495 505.0 7.0 344.0 
524.0000777401817 24985.0 NaN 1467.1503006012017 0.5060561571681572 503.0 6.0 341.0 
526.0000777401817 25001.0 NaN 1460.9672678690722 0.5022613316970725 501.0 7.0 338.0 
528.0000777401817 24997.0 NaN 1467.1369405477628 0.5011936082737428 503.0 6.0 341.0 
530.0000777401817 25005.0 NaN 1463.9225116900461 0.5022895055791626 509.0 6.0 340.0 
532.0000777401817 24994.0 NaN 1467.1048764195061 0.5032369788182751 508.0 5.0 342.0 
534.0000777401817 24971.0 NaN 1470.0467601870396 0.5040803594766115 506.0 5.0 343.0 
536.0000777401817 24992.0 NaN 1467.1422845691377 0.5036402813228257 506.0 5.0 342.0 
538.0000777401817 24974.0 NaN 1467.0220440881756 0.502643529071602 509.0 5.0 342.0 
540.0000777401817 24983.0 NaN 1470.2738810955252 0.5037575072756968 507.0 6.0 342.0 
542.0000777401817 24991.0 NaN 1467.174348697394 0.5040219986372394 507.0 7.0 340.0 
544.0000777401817 24962.0 NaN 1467.3186372745483 0.5054854804658448 506.0 9.0 338.0 
546.0000777401817 24966.0 NaN 1467.2384769539085 0.5033191998363546 509.0 8.0 339.0 
548.0000777401817 24977.0 NaN 1473.3947895791575 0.504458838740714 508.0 10.0 339.0 
550.0000777401817 24943.0 NaN 1473.1409485637937 0.501971846222437 511.0 7.0 342.0 
552.0000777401817 24943.0 NaN 1473.170340681363 0.501907952969746 512.0 7.0 342.0 
554.0000777401817 24945.0 NaN 1473.167668670674 0.5046135516605096 510.0 9.0 340.0 
556.0000777401817 24952.0 NaN 1460.9726118904468 0.5031836062309734 507.0 9.0 336.0 
558.0000777401817 25000.0 NaN 1460.9271877087508 0.5040419183306799 506.0 8.0 337.0 
560.0000777401817 24996.0 NaN 1464.114896459586 0.5023052951019492 506.0 7.0 339.0 
562.0000777401817 24987.0 NaN 1460.935203740815 0.5032165168472141 503.0 8.0 337.0 
564.0000777401817 24985.0 NaN 1461.0180360721452 0.5046477340734364 500.0 9.0 336.0 
566.0000777401817 24978.0 NaN 1467.1235804943217 0.5046454560321758 505.0 8.0 339.0 
568.0000777401817 25015.0 NaN 1476.494321977288 0.5046533044621263 507.0 8.0 342.0 
570.0000777401817 24989.0 NaN 1476.454241816967 0.502286752333561 511.0 8.0 342.0 
572.0000777401817 24984.0 NaN 1476.4916499666 0.5047333423464666 511.0 10.0 340.0 
574.0000777401817 24970.0 NaN 1482.5010020040088 0.5092783275628832 511.0 10.0 342.0 
576.0000777401817 24961.0 NaN 1491.7755511022033 0.5038705451737139 512.0 10.0 345.0 
578.0000777401817 25004.0 NaN 1488.630594522379 0.505669740067733 513.0 8.0 346.0 
580.0000777401817 24984.0 NaN 1482.5303941215757 0.5025430428099493 513.0 7.0 345.0 
582.0000777401817 25021.0 NaN 1488.521042084169 0.5033538539731269 515.0 6.0 348.0 
584.0000777401817 25021.0 NaN 1488.5744822979284 0.5051872058919357 515.0 6.0 348.0 
586.0000777401817 25045.0 NaN 1491.695390781564 0.5039852953782025 515.0 7.0 348.0 
588.0000777401817 25086.0 NaN 1497.8837675350708 0.5058224367107533 518.0 5.0 352.0 
590.0000777401817 25078.0 NaN 1500.876419505679 0.5036255300686056 520.0 4.0 354.0 
592.0000777401817 25078.0 NaN 1500.9886439545746 0.5050177261301775 519.0 4.0 354.0 
594.0000777401817 25057.0 NaN 1500.9619238476942 0.5046737505385821 520.0 6.0 352.0 
596.0000777401817 25083.0 NaN 1497.9158316633273 0.5053337179763313 523.0 5.0 352.0 
598.0000777401817 25113.0 NaN 1494.802939211756 0.5048823739085009 524.0 4.0 352.0 
600.0000777401817 25100.0 NaN 1497.958583834336 0.5020745399038986 519.0 7.0 350.0 
602.0000777401817 25122.0 NaN 1494.78423513694 0.5078226400531289 518.0 7.0 349.0 
604.0000777401817 25115.0 NaN 1494.6773547094185 0.5047411468354935 520.0 7.0 349.0 
606.0000777401817 25164.0 NaN 1494.6960587842357 0.5113269952486686 521.0 6.0 350.0 
608.0000777401817 25152.0 NaN 1500.9111556446217 0.5053370265103346 518.0 8.0 350.0 
610.0000777401817 25126.0 NaN 1500.8416833667343 0.5051549573634352 519.0 5.0 353.0 
612.0000777401817 25129.0 NaN 1500.8817635270545 0.5094164222734271 517.0 4.0 354.0 
614.0000777401817 25115.0 NaN 1503.8316633266536 0.5051706488938785 517.0 5.0 354.0 
616.0000777401817 25166.0 NaN 1503.9919839679362 0.5040716158778303 519.0 5.0 354.0 
618.0000777401817 25173.0 NaN 1513.1649966599878 0.5047183816653771 519.0 5.0 357.0 
620.0000777401817 25128.0 NaN 1510.009352037409 0.5034822888609741 518.0 4.0 357.0 
622.0000777401817 25132.0 NaN 1513.1329325317292 0.5046502934866319 518.0 5.0 357.0 
624.0000777401817 25112.0 NaN 1516.2805611222452 0.5066819831465744 520.0 5.0 358.0 
626.0000777401817 25159.0 NaN 1519.3346693386782 0.5063915987099393 517.0 5.0 359.0 
628.0000777401817 25153.0 NaN 1519.4281897127578 0.5056091133421451 515.0 6.0 358.0 
630.0000777401817 25100.0 NaN 1516.2538410153636 0.5036642133268778 514.0 6.0 357.0 
632.0000777401817 25110.0 NaN 1513.2211088844363 0.5030183048629193 513.0 6.0 356.0 
634.0000777401817 25141.0 NaN 1516.2565130260527 0.5062502247077825 511.0 5.0 358.0 
636.0000777401817 25161.0 NaN 1510.161656646627 0.5039028144820177 513.0 6.0 355.0 
638.0000777401817 25154.0 NaN 1513.162324649299 0.5052635736610737 514.0 7.0 355.0 
640.0000777401817 25106.0 NaN 1513.205076820308 0.5063227053392627 514.0 7.0 355.0 
642.0000777401817 25096.0 NaN 1507.0006680026725 0.5049087396644738 519.0 3.0 357.0 
644.0000777401817 25113.0 NaN 1510.161656646627 0.5035473490327461 515.0 5.0 356.0 
646.0000777401817 25144.0 NaN 1516.3740814963264 0.5051680536714307 513.0 5.0 358.0 
648.0000777401817 25136.0 NaN 1516.3874415497655 0.507085663647128 513.0 5.0 358.0 
650.0000777401817 25085.0 NaN 1516.3954575818293 0.5031828829927186 512.0 6.0 357.0 
652.0000777401817 25085.0 NaN 1516.4328657314636 0.5029823092159746 509.0 8.0 355.0 
654.0000777401817 25075.0 NaN 1516.3580494321989 0.5057824962076705 510.0 6.0 357.0 
656.0000777401817 25087.0 NaN 1537.9585838343362 0.503906124959318 516.0 3.0 367.0 
658.0000777401817 25089.0 NaN 1540.8977955911816 0.5046143418138532 515.0 3.0 368.0 
660.0000777401817 25037.0 NaN 1540.9084836339352 0.5036105759793231 512.0 4.0 367.0 
662.0000777401817 25024.0 NaN 1543.8316633266536 0.5048178757311674 509.0 4.0 368.0 
664.0000777401817 25004.0 NaN 1543.9652638610546 0.5066685893282691 509.0 3.0 369.0 
#####################################################################
# End of data export. Simulation finished at: 2019-03-14T22:43+0000 #
#####################################################################
