#####################################################################
# Alchemist log file - simulation started at: 2019-03-05T17:58+0000 #
#####################################################################
# seed = 3.0, bandwidth = 74989.42093324558, propagationDelay = 1.0, baserange = 177.82794100389228
#
# The columns have the following meaning: 
# time neighbor_count[Sum] <value>@neighbor_count[Sum] packet_size[Mean] mean_delay[Mean] crowd[Sum] overcrowded[Sum] risk[Sum] 
0.0 NaN NaN NaN NaN NaN NaN NaN 
2.0005923698108097 11605.0 NaN 4989.090180360721 0.25551044206359097 1497.0 0.0 1497.0 
4.00057716745534 26547.0 NaN 4995.019372077489 1.0590583409671706 1497.0 0.0 1497.0 
6.000084666035003 26551.0 NaN 4994.297929191716 1.05910977556234 1494.0 3.0 1494.0 
8.00057716745534 26556.0 NaN 4994.255177020708 1.0592549459179805 1493.0 4.0 1493.0 
10.00033353340315 26558.0 NaN 4994.134936539746 1.0594142026378344 1493.0 4.0 1493.0 
12.000577167455342 26552.0 NaN 4994.188376753507 1.0590608060822617 1493.0 4.0 1493.0 
14.000577167455342 26552.0 NaN 4994.102872411489 1.0590604499164744 1493.0 4.0 1493.0 
16.000084666035004 26561.0 NaN 4994.236472945891 1.0597158910835012 1493.0 4.0 1493.0 
18.00057716745534 26575.0 NaN 4994.070808283233 1.0643610948258524 1493.0 4.0 1493.0 
20.00033353340315 26577.0 NaN 4994.241816967268 1.069507658139882 1493.0 4.0 1493.0 
22.00057716745534 26567.0 NaN 4994.0066800267205 1.0686538325604147 1493.0 4.0 1493.0 
24.00057716745534 26568.0 NaN 4994.263193052772 1.0652247649399111 1493.0 4.0 1493.0 
26.000084666035004 26591.0 NaN 4994.068136272545 1.0608322952450762 1493.0 4.0 1493.0 
28.00057716745534 26623.0 NaN 4994.204408817635 1.0639113353101488 1493.0 4.0 1493.0 
30.00033353340315 26635.0 NaN 4994.134936539746 1.0682754233488754 1493.0 4.0 1493.0 
32.00057716745534 26639.0 NaN 4994.161656646626 1.0675195329343738 1493.0 4.0 1493.0 
34.00057716745535 26617.0 NaN 4994.12959251837 1.0663480567078962 1493.0 4.0 1493.0 
36.00008466603501 26621.0 NaN 4994.276553106212 1.0631355638174742 1493.0 4.0 1493.0 
38.00057716745535 26638.0 NaN 4994.0494321977285 1.0674376405887511 1493.0 4.0 1493.0 
40.00033353340315 26653.0 NaN 4994.268537074148 1.0630536064947953 1493.0 4.0 1493.0 
42.00057716745535 26658.0 NaN 4994.094856379425 1.0657536840657296 1493.0 4.0 1493.0 
44.00057716745535 26641.0 NaN 4994.220440881763 1.0637139781121263 1493.0 4.0 1493.0 
46.00008466603501 26655.0 NaN 4994.12959251837 1.0663767383993725 1493.0 4.0 1493.0 
48.00057716745535 26682.0 NaN 4994.223112892451 1.0679525759438468 1493.0 4.0 1493.0 
50.00033353340315 26691.0 NaN 4994.100200400801 1.0639585634400408 1493.0 4.0 1493.0 
52.00057716745535 26682.0 NaN 4994.180360721443 1.0668044485012178 1493.0 4.0 1493.0 
54.00057716745535 26667.0 NaN 4994.175016700066 1.063628692398145 1493.0 4.0 1493.0 
56.00008466603501 26664.0 NaN 4994.172344689378 1.0655860136061595 1493.0 4.0 1493.0 
58.00057716745535 26685.0 NaN 4994.097528390113 1.059178678411158 1493.0 4.0 1493.0 
60.00033353340315 26702.0 NaN 4994.233800935203 1.064756409907649 1493.0 4.0 1493.0 
62.000357707322124 26680.0 NaN 1522.1696726786909 1.0147384631113523 774.0 2.0 363.0 
64.00035770732212 26661.0 NaN 1522.2899131596541 1.0192377198017708 667.0 4.0 361.0 
66.00008466603501 26679.0 NaN 1522.1963927855722 1.023381008730448 596.0 4.0 361.0 
68.00035770732212 26741.0 NaN 1522.1776887107544 1.0163642827132837 567.0 4.0 361.0 
70.00033353340315 26794.0 NaN 1525.2130928523725 1.0214811470947829 545.0 3.0 363.0 
72.00035770732212 26783.0 NaN 1525.2211088844365 1.023088575304383 535.0 3.0 363.0 
74.00035770732212 26764.0 NaN 1525.2184368737458 1.0254624416510352 530.0 3.0 363.0 
76.00008466603501 26783.0 NaN 1525.205076820309 1.024409508810123 530.0 3.0 363.0 
78.00035770732212 26812.0 NaN 1531.3854375417511 1.0248075387347761 529.0 3.0 365.0 
80.00033353340315 26818.0 NaN 1534.4448897795608 1.0315337819136123 528.0 3.0 366.0 
82.00035770732212 26811.0 NaN 1534.4368737474938 1.0223220878517474 527.0 4.0 365.0 
84.00035770732212 26813.0 NaN 1534.4261857047427 1.0245520686918774 526.0 3.0 366.0 
86.00008466603501 26816.0 NaN 1534.434201736809 1.024976156117485 525.0 3.0 366.0 
88.00035770732212 26822.0 NaN 1534.4288577154302 1.0269999304227544 525.0 3.0 366.0 
90.00033353340315 26825.0 NaN 1537.5016700066817 1.0217112283749559 525.0 3.0 367.0 
92.00035770732212 26810.0 NaN 1537.4696058784243 1.0189676888434065 525.0 2.0 368.0 
94.00035770732212 26804.0 NaN 1537.477621910488 1.0217520105155984 523.0 3.0 367.0 
96.00008466603501 26810.0 NaN 1540.5424181696726 1.0263619421212213 524.0 2.0 369.0 
98.00035770732212 26810.0 NaN 1540.5237140948548 1.0236359506394361 524.0 2.0 369.0 
100.00033353340315 26817.0 NaN 1540.5183700734815 1.0263321875738693 524.0 2.0 369.0 
102.00035770732212 26775.0 NaN 1540.5263861055455 1.0180647195129764 524.0 2.0 369.0 
104.00035770732212 26761.0 NaN 1540.5370741482968 1.019964240190087 523.0 3.0 368.0 
106.00008466603501 26776.0 NaN 1540.5263861055455 1.0231704904428316 522.0 4.0 367.0 
108.00035770732212 26789.0 NaN 1540.5183700734815 1.0211903125842794 521.0 4.0 367.0 
110.00033353340315 26805.0 NaN 1540.5370741482968 1.027924154785701 522.0 3.0 368.0 
112.00035770732212 26782.0 NaN 1540.5317301269185 1.02227619911532 522.0 3.0 368.0 
114.00035770732212 26772.0 NaN 1540.5183700734815 1.024487461300742 523.0 3.0 368.0 
116.00008466603501 26781.0 NaN 1549.7448229792908 1.0281976982327692 525.0 3.0 371.0 
118.00035770732212 26778.0 NaN 1549.7448229792908 1.029928415770218 525.0 3.0 371.0 
120.00033353340315 26799.0 NaN 1552.8096192384755 1.0314917655332592 525.0 3.0 372.0 
122.00035770732212 26775.0 NaN 1552.8042752171 1.021444750601457 525.0 3.0 372.0 
124.00035770732212 26756.0 NaN 1552.8069472277907 1.0215970705654638 525.0 3.0 372.0 
126.00008466603501 26753.0 NaN 1549.7555110220453 1.0199901632288628 526.0 2.0 372.0 
128.00035770732214 26727.0 NaN 1546.6720106880427 1.021094983074606 527.0 2.0 371.0 
130.00033353340314 26748.0 NaN 1546.67468269873 1.0256498426625213 527.0 2.0 371.0 
132.00035770732214 26741.0 NaN 1546.6720106880427 1.023355986510594 527.0 2.0 371.0 
134.00035770732214 26708.0 NaN 1546.6987307949244 1.022735519892971 527.0 2.0 371.0 
136.000084666035 26700.0 NaN 1546.7040748163001 1.026333054763276 526.0 2.0 371.0 
138.00035770732214 26723.0 NaN 1546.7014028056092 1.026740229877755 525.0 2.0 371.0 
140.00033353340314 26741.0 NaN 1546.7094188376757 1.0322640295741796 523.0 2.0 371.0 
142.00035770732214 26731.0 NaN 1549.808951235806 1.0213121813425838 521.0 2.0 372.0 
144.00035770732214 26709.0 NaN 1549.7982631930543 1.022832065501953 521.0 3.0 371.0 
146.000084666035 26680.0 NaN 1543.6419505678002 1.0215090561231257 520.0 3.0 369.0 
148.00035770732214 26694.0 NaN 1543.6205744822996 1.0196939798396094 520.0 3.0 369.0 
150.00033353340314 26709.0 NaN 1543.6045424181702 1.0192174548913244 521.0 2.0 370.0 
152.00035770732214 26691.0 NaN 1543.569806279227 1.0191560559281905 520.0 2.0 370.0 
154.00035770732214 26670.0 NaN 1540.5397461589844 1.0192193121929423 520.0 3.0 368.0 
156.000084666035 26666.0 NaN 1540.502338009352 1.0186581048945482 522.0 2.0 369.0 
158.00035770732214 26676.0 NaN 1543.625918503673 1.0206973658481757 521.0 2.0 370.0 
160.00033353340314 26688.0 NaN 1543.5885103540425 1.0263825447419204 519.0 2.0 370.0 
162.00035770732214 26669.0 NaN 1543.615230460921 1.02598675162321 516.0 2.0 370.0 
164.00035770732214 26622.0 NaN 1543.6125584502336 1.0241081845099838 517.0 2.0 370.0 
166.000084666035 26591.0 NaN 1546.7227788911155 1.0285942788483196 518.0 2.0 371.0 
168.00035770732214 26596.0 NaN 1549.7474949899818 1.0255467024404068 518.0 2.0 372.0 
170.00033353340314 26616.0 NaN 1549.763527054109 1.0266238974948712 520.0 2.0 372.0 
172.00035770732214 26609.0 NaN 1549.7261189044752 1.0300952601522237 521.0 2.0 372.0 
174.00035770732214 26582.0 NaN 1546.7040748163001 1.028342227841295 521.0 2.0 371.0 
176.000084666035 26543.0 NaN 1540.5237140948545 1.0260022337987806 519.0 2.0 369.0 
178.00035770732214 26546.0 NaN 1537.4883099532392 1.02117873037509 518.0 3.0 367.0 
180.00033353340314 26569.0 NaN 1540.5237140948545 1.0282463292138884 517.0 3.0 368.0 
182.00035770732214 26537.0 NaN 1537.4669338677365 1.0286097692599854 521.0 2.0 368.0 
184.00035770732214 26507.0 NaN 1537.4241816967274 1.0288936690210833 520.0 2.0 368.0 
186.000084666035 26470.0 NaN 1537.4535738142936 1.0319786746372344 520.0 2.0 368.0 
188.00035770732214 26473.0 NaN 1537.432197728791 1.0387471973005673 518.0 2.0 368.0 
190.00033353340314 26484.0 NaN 1537.450901803609 1.0374960904854929 518.0 2.0 368.0 
192.00035770732214 26472.0 NaN 1534.3380093520364 1.0335914486240343 517.0 2.0 367.0 
194.00035770732214 26433.0 NaN 1534.37541750167 1.0318446507851182 517.0 2.0 367.0 
196.000084666035 26402.0 NaN 1534.340681362727 1.031381645163132 517.0 2.0 367.0 
198.00035770732214 26399.0 NaN 1534.386105544421 1.0328001220503307 517.0 2.0 367.0 
200.00033353340314 26411.0 NaN 1537.4161656646638 1.0296191874903973 518.0 2.0 368.0 
202.00035770732214 26395.0 NaN 1540.5263861055455 1.0338176032389377 519.0 2.0 369.0 
204.00035770732214 26358.0 NaN 1540.5504342017364 1.0338636981740381 517.0 2.0 369.0 
206.000084666035 26327.0 NaN 1540.555778223112 1.0364971248505912 517.0 2.0 369.0 
208.00035770732214 26338.0 NaN 1540.5290581162335 1.0443931728640758 517.0 2.0 369.0 
210.00033353340314 26347.0 NaN 1531.3213092852363 1.0419282922862747 519.0 2.0 366.0 
212.00035770732214 26309.0 NaN 1534.340681362727 1.038875890135971 522.0 2.0 367.0 
214.00035770732214 26279.0 NaN 1531.2839011356027 1.040022113876007 517.0 2.0 366.0 
216.000084666035 26244.0 NaN 1531.315965263861 1.039648644247905 514.0 2.0 366.0 
218.00035770732214 26246.0 NaN 1531.323981295927 1.0389620038175005 513.0 3.0 365.0 
220.00033353340314 26253.0 NaN 1531.315965263861 1.035235688511618 512.0 3.0 365.0 
222.00035770732214 26206.0 NaN 1531.2999331997335 1.0414714580029496 511.0 3.0 365.0 
224.00035770732214 26180.0 NaN 1531.294589178355 1.041706568308422 512.0 3.0 365.0 
226.000084666035 26154.0 NaN 1531.3106212424843 1.0340716657231688 512.0 3.0 365.0 
228.00035770732214 26145.0 NaN 1534.4208416833662 1.039372719159566 512.0 3.0 366.0 
230.00033353340314 26131.0 NaN 1534.394121576488 1.0377484096795038 512.0 3.0 366.0 
232.00035770732214 26095.0 NaN 1537.4909819639272 1.0299238392779804 511.0 3.0 367.0 
234.00035770732214 26071.0 NaN 1540.5344021376093 1.030301513467681 511.0 3.0 368.0 
236.000084666035 26058.0 NaN 1540.5397461589844 1.0302076674631442 512.0 3.0 368.0 
238.00035770732214 26057.0 NaN 1537.3841015364064 1.0340428288253147 512.0 3.0 367.0 
240.00033353340314 26061.0 NaN 1531.2972611890455 1.0444291626024091 512.0 3.0 365.0 
242.00035770732214 26032.0 NaN 1534.3700734802935 1.0350359900840918 512.0 3.0 366.0 
244.00035770732214 26015.0 NaN 1534.297929191718 1.0352423490084575 512.0 3.0 366.0 
246.000084666035 26020.0 NaN 1534.3273213092848 1.0366045055810365 514.0 3.0 366.0 
248.00035770732214 26036.0 NaN 1528.1843687374728 1.0382423500466031 513.0 3.0 364.0 
250.00033353340314 26031.0 NaN 1528.1870407481638 1.0361732729276398 512.0 3.0 364.0 
252.00035770732214 25986.0 NaN 1528.1843687374728 1.033858891258477 512.0 3.0 364.0 
254.00035770732214 25950.0 NaN 1525.1462925851706 1.0261938897827805 510.0 3.0 363.0 
256.00008466603504 25947.0 NaN 1525.1195724782908 1.0270816548281096 513.0 3.0 363.0 
258.0003577073221 25947.0 NaN 1525.122244488979 1.030437011016351 512.0 3.0 363.0 
260.00033353340314 25947.0 NaN 1525.1356045424182 1.037118738629306 514.0 3.0 363.0 
262.0003577073221 25897.0 NaN 1528.2164328657302 1.0304082040165221 513.0 4.0 363.0 
264.0003577073221 25872.0 NaN 1528.2057448229793 1.0287687205847886 514.0 3.0 364.0 
266.00008466603504 25884.0 NaN 1528.2297929191727 1.0295040286192763 509.0 7.0 360.0 
268.0003577073221 25875.0 NaN 1537.4615898463608 1.0329271052096871 507.0 7.0 363.0 
270.00033353340314 25849.0 NaN 1534.3967935871729 1.0395668048917632 506.0 7.0 362.0 
272.0003577073221 25771.0 NaN 1531.29191716767 1.0368190620358477 506.0 7.0 361.0 
274.0003577073221 25739.0 NaN 1531.2945891783547 1.0292972722040092 506.0 7.0 361.0 
276.00008466603504 25715.0 NaN 1531.2865731462912 1.0280701127155683 505.0 7.0 361.0 
278.0003577073221 25686.0 NaN 1537.4295257181025 1.0296687854072124 509.0 7.0 363.0 
280.00033353340314 25706.0 NaN 1540.486305945225 1.0371765180623256 511.0 6.0 365.0 
282.0003577073221 25707.0 NaN 1540.4916499666 1.0406008957128783 511.0 6.0 365.0 
284.0003577073221 25706.0 NaN 1537.4108216432885 1.0318094716563444 511.0 6.0 364.0 
286.00008466603504 25696.0 NaN 1534.3433533734121 1.0305072030904363 509.0 6.0 363.0 
288.0003577073221 25694.0 NaN 1534.3433533734121 1.0324927108888498 507.0 6.0 363.0 
290.00033353340314 25711.0 NaN 1534.335337341348 1.0430513825835428 506.0 6.0 363.0 
292.0003577073221 25696.0 NaN 1534.3433533734121 1.0476944664584373 506.0 6.0 363.0 
294.0003577073221 25658.0 NaN 1534.3486973947909 1.032787275020616 506.0 6.0 363.0 
296.00008466603504 25638.0 NaN 1534.3433533734121 1.0305724330229584 506.0 6.0 363.0 
298.0003577073221 25621.0 NaN 1537.4535738142936 1.0301287820687433 506.0 6.0 364.0 
300.00033353340314 25630.0 NaN 1537.4428857715434 1.0353795001421415 504.0 6.0 364.0 
302.0003577073221 25593.0 NaN 1537.44555778223 1.0326051356088872 504.0 6.0 364.0 
304.0003577073221 25578.0 NaN 1537.4535738142936 1.0301731458297407 504.0 6.0 364.0 
306.00008466603504 25563.0 NaN 1534.402137608552 1.0315187413954958 505.0 6.0 363.0 
308.0003577073221 25545.0 NaN 1534.3219772879092 1.04191502922618 504.0 6.0 363.0 
310.00033353340314 25533.0 NaN 1531.2491649966612 1.0455283032508544 502.0 6.0 362.0 
312.0003577073221 25516.0 NaN 1531.2651970607885 1.0451734273819304 501.0 6.0 362.0 
314.0003577073221 25492.0 NaN 1534.3353373413483 1.0303032348716439 501.0 6.0 363.0 
316.00008466603504 25454.0 NaN 1534.3219772879092 1.0263986047479232 503.0 6.0 363.0 
318.0003577073221 25445.0 NaN 1537.3814295257182 1.0296705793430043 505.0 6.0 364.0 
320.00033353340314 25440.0 NaN 1537.3894455577818 1.0385313193204255 503.0 6.0 364.0 
322.0003577073221 25426.0 NaN 1540.454241816966 1.0453019935113552 503.0 6.0 365.0 
324.0003577073221 25395.0 NaN 1540.5076820307272 1.0369028414724824 502.0 6.0 365.0 
326.00008466603504 25382.0 NaN 1540.4916499666 1.0395893710959134 502.0 6.0 365.0 
328.0003577073221 25369.0 NaN 1537.3947895791573 1.0330848050703043 501.0 6.0 364.0 
330.00033353340314 25370.0 NaN 1540.472945891782 1.0298339359359687 500.0 6.0 365.0 
332.0003577073221 25370.0 NaN 1540.4863059452246 1.0325472036112975 500.0 6.0 365.0 
334.0003577073221 25337.0 NaN 1540.4943219772886 1.027441079417896 501.0 6.0 365.0 
336.00008466603504 25338.0 NaN 1531.305277221109 1.0259975603158162 501.0 6.0 362.0 
338.0003577073221 25341.0 NaN 1531.2758851035392 1.0279392020801887 503.0 6.0 362.0 
340.00033353340314 25344.0 NaN 1528.2084168336667 1.0292628998431348 503.0 6.0 361.0 
342.0003577073221 25333.0 NaN 1528.2030728122909 1.0261150217508828 503.0 6.0 361.0 
344.0003577073221 25344.0 NaN 1528.227120908482 1.0244126700107936 503.0 6.0 361.0 
346.00008466603504 25350.0 NaN 1531.2999331997335 1.0274667392827386 502.0 6.0 362.0 
348.0003577073221 25340.0 NaN 1528.1950567802273 1.0335763195095586 500.0 6.0 361.0 
350.00033353340314 25336.0 NaN 1525.1222444889788 1.0390756709255689 503.0 6.0 360.0 
352.0003577073221 25336.0 NaN 1525.1249164996657 1.0283661695679636 505.0 6.0 360.0 
354.0003577073221 25351.0 NaN 1525.1329325317297 1.0366363625570507 508.0 6.0 360.0 
356.00008466603504 25332.0 NaN 1525.119572478291 1.0304118411794874 507.0 6.0 360.0 
358.0003577073221 25311.0 NaN 1525.119572478291 1.0336570314406854 505.0 6.0 360.0 
360.00033353340314 25314.0 NaN 1528.1870407481638 1.0338904205172568 507.0 6.0 361.0 
362.0003577073221 25305.0 NaN 1528.1950567802273 1.0292767652545696 508.0 6.0 361.0 
364.0003577073221 25288.0 NaN 1525.140948563794 1.028846482116175 507.0 6.0 360.0 
366.00008466603504 25275.0 NaN 1503.6098864395453 1.0283839451849073 509.0 6.0 353.0 
368.0003577073221 25279.0 NaN 1500.545090180361 1.0358230429018878 508.0 6.0 352.0 
370.00033353340314 25274.0 NaN 1509.744822979291 1.0386868772831626 506.0 6.0 355.0 
372.0003577073221 25247.0 NaN 1509.7474949899809 1.0328838533559304 506.0 6.0 355.0 
374.0003577073221 25212.0 NaN 1509.7100868403463 1.0297044802975608 507.0 6.0 355.0 
376.00008466603504 25199.0 NaN 1509.7314629258524 1.0308659416952342 507.0 6.0 355.0 
378.0003577073221 25208.0 NaN 1509.6940547762183 1.041412975774274 510.0 6.0 355.0 
380.00033353340314 25210.0 NaN 1509.6967267869081 1.0574767495235833 508.0 6.0 355.0 
382.0003577073221 25172.0 NaN 1506.6265865063453 1.0554426916459694 507.0 6.0 354.0 
384.0003577073221 25132.0 NaN 1512.8283233132927 1.0413029892478483 509.0 6.0 356.0 
386.00008466603504 25113.0 NaN 1522.0574482297916 1.0268015006031785 512.0 6.0 359.0 
388.0003577073221 25130.0 NaN 1509.782231128925 1.027868537080963 511.0 6.0 355.0 
390.00033353340314 25150.0 NaN 1509.7849031396122 1.0361362089506132 508.0 6.0 355.0 
392.0003577073221 25132.0 NaN 1512.857715430863 1.0390705818791697 508.0 6.0 356.0 
394.0003577073221 25083.0 NaN 1512.820307281228 1.031832125572866 512.0 6.0 356.0 
396.00008466603504 25073.0 NaN 1512.7882431529729 1.0376277381569858 514.0 6.0 356.0 
398.0003577073221 25069.0 NaN 1509.744822979291 1.0487091162426037 515.0 6.0 355.0 
400.00033353340314 25078.0 NaN 1512.8470273881092 1.0579413212516628 515.0 6.0 356.0 
402.0003577073221 25043.0 NaN 1512.825651302606 1.0402329981337672 516.0 6.0 356.0 
404.0003577073221 25010.0 NaN 1519.000668002673 1.0285621788151431 515.0 6.0 358.0 
406.00008466603504 25014.0 NaN 1519.0113560454247 1.0316997094587805 515.0 7.0 357.0 
408.0003577073221 25011.0 NaN 1525.1730126920515 1.0328097757145895 514.0 7.0 359.0 
410.00033353340314 25017.0 NaN 1528.2084168336667 1.0429203073311968 515.0 7.0 360.0 
412.0003577073221 25019.0 NaN 1528.2030728122909 1.0442238399820263 517.0 7.0 360.0 
414.0003577073221 24982.0 NaN 1528.1843687374733 1.0318442092786684 517.0 7.0 360.0 
416.00008466603504 24967.0 NaN 1528.2004008016024 1.0348110836730915 521.0 8.0 359.0 
418.0003577073221 24952.0 NaN 1528.1843687374733 1.0310570399003605 519.0 9.0 358.0 
420.00033353340314 24946.0 NaN 1515.8770875083485 1.0365334458526514 521.0 8.0 355.0 
422.0003577073221 24936.0 NaN 1512.7695390781555 1.0314177637853577 521.0 8.0 354.0 
424.0003577073221 24923.0 NaN 1506.6319305277218 1.0300147159083106 519.0 8.0 352.0 
426.00008466603504 24899.0 NaN 1512.822979291918 1.0340047706938702 513.0 7.0 355.0 
428.0003577073221 24898.0 NaN 1506.6880427521714 1.0380366872510718 512.0 7.0 353.0 
430.00033353340314 24889.0 NaN 1506.6239144956576 1.031860874414705 512.0 7.0 353.0 
432.0003577073221 24889.0 NaN 1503.5617902471613 1.0309004809537814 513.0 7.0 352.0 
434.0003577073221 24864.0 NaN 1506.6239144956576 1.02865588254637 514.0 7.0 353.0 
436.00008466603504 24873.0 NaN 1518.9632598530386 1.0331470467864718 516.0 7.0 357.0 
438.0003577073221 24873.0 NaN 1522.054776219106 1.034257102701754 520.0 7.0 358.0 
440.00033353340314 24875.0 NaN 1518.9365397461581 1.03473133851679 517.0 7.0 357.0 
442.0003577073221 24867.0 NaN 1522.0227120908476 1.034147822203285 519.0 7.0 358.0 
444.0003577073221 24852.0 NaN 1525.1062124248485 1.02843208392343 518.0 7.0 359.0 
446.00008466603504 24862.0 NaN 1531.2785571142274 1.0320515587384889 521.0 6.0 362.0 
448.0003577073221 24865.0 NaN 1537.4081496325996 1.033301125770889 523.0 6.0 364.0 
450.00033353340314 24870.0 NaN 1540.4408817635274 1.0284121341237518 523.0 6.0 365.0 
452.0003577073221 24882.0 NaN 1549.6833667334663 1.0267289285713623 523.0 6.0 368.0 
454.0003577073221 24882.0 NaN 1549.7154308617244 1.026641217019053 522.0 6.0 368.0 
456.00008466603504 24884.0 NaN 1552.8122912491638 1.026968285342208 522.0 6.0 369.0 
458.0003577073221 24887.0 NaN 1549.702070808282 1.0245073138702532 523.0 6.0 368.0 
460.00033353340314 24893.0 NaN 1549.6887107548432 1.0295312336219615 520.0 6.0 368.0 
462.0003577073221 24893.0 NaN 1549.702070808282 1.0312721161515432 520.0 6.0 368.0 
464.0003577073221 24892.0 NaN 1549.6780227120908 1.0434348269383096 521.0 6.0 368.0 
466.00008466603504 24881.0 NaN 1546.6185704742816 1.0430674070506296 521.0 6.0 367.0 
468.0003577073221 24885.0 NaN 1546.567802271209 1.043718689417361 522.0 6.0 367.0 
470.00033353340314 24885.0 NaN 1546.5704742818975 1.0360768337460395 520.0 6.0 367.0 
472.0003577073221 24882.0 NaN 1540.4382097528387 1.031303098372291 519.0 6.0 365.0 
474.0003577073221 24847.0 NaN 1531.2117568470271 1.0227841287577193 516.0 6.0 362.0 
476.00008466603504 24855.0 NaN 1528.1656646626575 1.0270502402740498 515.0 7.0 360.0 
478.0003577073221 24887.0 NaN 1522.0253841015365 1.0326522892865786 513.0 7.0 358.0 
480.00033353340314 24902.0 NaN 1525.058116232464 1.03179340707724 517.0 2.0 364.0 
482.0003577073221 24937.0 NaN 1522.0440881763539 1.0273780843465758 519.0 2.0 363.0 
484.0003577073221 24940.0 NaN 1512.7722110888456 1.029098219784211 518.0 2.0 360.0 
486.00008466603504 24913.0 NaN 1509.7127588510361 1.0234884490243534 515.0 2.0 359.0 
488.0003577073221 24931.0 NaN 1500.4756179024725 1.0274523673938347 514.0 2.0 356.0 
490.00033353340314 24946.0 NaN 1497.4161656646634 1.0327248219358525 515.0 2.0 355.0 
492.0003577073221 24952.0 NaN 1491.2785571142276 1.0371919773160718 517.0 2.0 353.0 
494.0003577073221 24941.0 NaN 1497.4348697394798 1.0317446360019766 514.0 2.0 355.0 
496.00008466603504 24941.0 NaN 1494.3647294589182 1.0259673727153549 510.0 3.0 353.0 
498.0003577073221 24939.0 NaN 1494.3567134268542 1.02417919641507 513.0 2.0 354.0 
500.00033353340314 24949.0 NaN 1494.3620574482293 1.0278866540973868 506.0 6.0 350.0 
502.0003577073221 24949.0 NaN 1488.20574482298 1.0285370565369374 510.0 6.0 348.0 
504.0003577073221 24954.0 NaN 1485.1409485637937 1.0329200492146855 509.0 6.0 347.0 
506.00008466603504 24970.0 NaN 1485.1997327989302 1.0352084501748162 509.0 6.0 347.0 
508.0003577073221 24961.0 NaN 1488.2591850367392 1.033336156988507 508.0 6.0 348.0 
510.00033353340314 24981.0 NaN 1491.307949231798 1.0415342830645467 507.0 6.0 349.0 
512.0003577073221 24957.0 NaN 1494.3807615230455 1.0383722979950818 506.0 6.0 350.0 
514.0003577073221 24942.0 NaN 1494.3861055444213 1.0269507569675187 506.0 6.0 350.0 
516.000084666035 24974.0 NaN 1491.3346693386784 1.027760819757617 508.0 6.0 349.0 
518.0003577073221 24988.0 NaN 1479.0995323981283 1.0306835611104657 503.0 6.0 345.0 
520.0003335334031 24999.0 NaN 1475.95991983968 1.0302449447369295 503.0 6.0 344.0 
522.0003577073221 25006.0 NaN 1476.0347361389452 1.0238530346830363 504.0 6.0 344.0 
524.0003577073221 25008.0 NaN 1460.6519706078818 1.029841667291827 497.0 6.0 339.0 
526.000084666035 25008.0 NaN 1460.6492985971938 1.03347278378798 496.0 6.0 339.0 
528.0003577073221 25027.0 NaN 1460.6412825651296 1.0412440310438293 495.0 6.0 339.0 
530.0003335334031 25037.0 NaN 1463.7060788243161 1.0418609193694197 497.0 6.0 340.0 
532.0003577073221 25029.0 NaN 1463.68470273881 1.0332974417425402 503.0 6.0 340.0 
534.0003577073221 25044.0 NaN 1466.7628590514364 1.0353729291698102 503.0 6.0 341.0 
536.000084666035 25044.0 NaN 1466.7842351369395 1.029008505499042 503.0 6.0 341.0 
538.0003577073221 25028.0 NaN 1472.961923847694 1.0292822528229806 502.0 6.0 343.0 
540.0003335334031 25024.0 NaN 1472.9245156980633 1.0325206636382334 503.0 6.0 343.0 
542.0003577073221 25026.0 NaN 1472.9245156980633 1.0387462861437677 503.0 6.0 343.0 
544.0003577073221 25030.0 NaN 1479.0701402805616 1.0422907011467937 505.0 6.0 345.0 
546.000084666035 25035.0 NaN 1479.0995323981288 1.0383971422896827 504.0 6.0 345.0 
548.0003577073221 24994.0 NaN 1479.0567802271205 1.0305204562219796 504.0 6.0 345.0 
550.0003335334031 24983.0 NaN 1472.9539078156306 1.0262961604567633 504.0 6.0 343.0 
552.0003577073221 25000.0 NaN 1475.9706078824306 1.0266850371234195 508.0 6.0 344.0 
554.0003577073221 25027.0 NaN 1482.1082164328648 1.028689058226678 512.0 6.0 346.0 
556.000084666035 25045.0 NaN 1479.0220440881756 1.0329446549861168 513.0 6.0 345.0 
558.0003577073221 25044.0 NaN 1482.100200400801 1.0308481744275357 513.0 6.0 346.0 
560.0003335334031 25046.0 NaN 1469.8116232464922 1.0307432308774462 511.0 6.0 342.0 
562.0003577073221 25060.0 NaN 1469.835671342685 1.030747513042984 506.0 6.0 342.0 
564.0003577073221 25078.0 NaN 1472.8897795591183 1.0279721076639274 506.0 6.0 343.0 
566.000084666035 25089.0 NaN 1475.9973279893118 1.0324163336383727 508.0 6.0 344.0 
568.0003577073221 25088.0 NaN 1482.1108884435541 1.0384835638972576 510.0 6.0 346.0 
570.0003335334031 25043.0 NaN 1482.1108884435541 1.0370507561175324 513.0 6.0 346.0 
572.0003577073221 25041.0 NaN 1482.1055444221784 1.033429872166589 511.0 7.0 345.0 
574.0003577073221 25060.0 NaN 1485.205076820308 1.0356985788222506 513.0 6.0 347.0 
576.000084666035 25092.0 NaN 1494.4261857047434 1.0466828164252489 516.0 7.0 349.0 
578.0003577073221 25074.0 NaN 1491.3453573814286 1.0426166099340983 519.0 7.0 348.0 
580.0003335334031 25051.0 NaN 1488.288577154309 1.03037173334478 520.0 7.0 347.0 
582.0003577073221 25064.0 NaN 1488.3072812291255 1.0284405407598496 517.0 7.0 347.0 
584.0003577073221 25085.0 NaN 1485.2344689378751 1.0317740133544844 520.0 6.0 347.0 
586.000084666035 25099.0 NaN 1482.137608550435 1.0325505083312934 522.0 6.0 346.0 
588.0003577073221 25118.0 NaN 1485.2451569806274 1.0409313399430797 523.0 6.0 347.0 
590.0003335334031 25100.0 NaN 1485.2077488309947 1.0364676671704043 520.0 6.0 347.0 
592.0003577073221 25111.0 NaN 1491.398797595191 1.0308856598620215 521.0 6.0 349.0 
594.0003577073221 25126.0 NaN 1488.2778891115559 1.0325898636127746 522.0 6.0 348.0 
596.000084666035 25145.0 NaN 1488.2965931863728 1.0352342994079164 523.0 6.0 348.0 
598.0003577073221 25172.0 NaN 1479.075484301937 1.0396317840625915 522.0 6.0 345.0 
600.0003335334031 25168.0 NaN 1485.1997327989307 1.0383305761618036 523.0 6.0 347.0 
602.0003577073221 25170.0 NaN 1482.1028724114901 1.040885747186277 523.0 6.0 346.0 
604.0003577073221 25192.0 NaN 1482.1376085504348 1.0371563891178148 522.0 6.0 346.0 
606.000084666035 25211.0 NaN 1485.2451569806274 1.034440262860136 520.0 6.0 347.0 
608.0003577073221 25229.0 NaN 1491.3881095524378 1.047582954064316 523.0 6.0 349.0 
610.0003335334031 25235.0 NaN 1497.5551102204395 1.054806699477481 523.0 6.0 351.0 
612.0003577073221 25215.0 NaN 1494.4635938543745 1.039556290976207 522.0 6.0 350.0 
614.0003577073221 25213.0 NaN 1494.4448897795608 1.0318356095806458 524.0 6.0 350.0 
616.000084666035 25223.0 NaN 1491.3774215096848 1.0362528419686958 522.0 6.0 349.0 
618.0003577073221 25190.0 NaN 1488.3099532398119 1.033072944355894 522.0 6.0 348.0 
620.0003335334031 25232.0 NaN 1491.4175016700074 1.0361231270382196 523.0 6.0 349.0 
622.0003577073221 25269.0 NaN 1500.630594522379 1.0402218640916325 520.0 6.0 352.0 
624.0003577073221 25260.0 NaN 1503.7327989311968 1.0384679605844587 519.0 6.0 353.0 
626.000084666035 25211.0 NaN 1506.7708750835 1.0395495106473787 520.0 7.0 353.0 
628.0003577073221 25178.0 NaN 1506.8216432865727 1.037094529149572 525.0 6.0 354.0 
630.0003335334031 25204.0 NaN 1509.9024716098877 1.0316106509652652 525.0 6.0 355.0 
632.0003577073221 25255.0 NaN 1512.9298597194381 1.0350538063149275 523.0 7.0 355.0 
634.0003577073221 25273.0 NaN 1512.9111556446212 1.039065639098051 520.0 7.0 355.0 
636.000084666035 25231.0 NaN 1515.9625918503664 1.0407929964792615 521.0 7.0 356.0 
638.0003577073221 25208.0 NaN 1515.9919839679362 1.048831697998319 522.0 7.0 356.0 
640.0003335334031 25208.0 NaN 1512.9004676018715 1.0464430959423525 522.0 7.0 355.0 
642.0003577073221 25199.0 NaN 1515.989311957247 1.044268000476966 523.0 6.0 357.0 
644.0003577073221 25186.0 NaN 1509.859719438879 1.036864425540446 523.0 6.0 355.0 
646.000084666035 25175.0 NaN 1509.862391449565 1.0408015386070855 517.0 6.0 355.0 
648.0003577073221 25167.0 NaN 1516.0 1.0448767602418547 522.0 6.0 357.0 
650.0003335334031 25189.0 NaN 1519.078156312626 1.03391809453467 516.0 6.0 358.0 
652.0003577073221 25188.0 NaN 1515.973279893119 1.031108189544383 516.0 6.0 357.0 
654.0003577073221 25162.0 NaN 1516.0213760855033 1.029894130462716 515.0 6.0 357.0 
656.000084666035 25152.0 NaN 1515.989311957247 1.0369518620354365 515.0 6.0 357.0 
658.0003577073221 25133.0 NaN 1522.1857047428182 1.0410338374855952 512.0 6.0 359.0 
660.0003335334031 25139.0 NaN 1531.462925851703 1.0347241144700867 511.0 6.0 362.0 
662.0003577073221 25141.0 NaN 1531.374749498999 1.0365917814164372 509.0 6.0 362.0 
664.0003577073221 25113.0 NaN 1531.3854375417511 1.037546620732131 511.0 6.0 362.0 
#####################################################################
# End of data export. Simulation finished at: 2019-03-05T18:11+0000 #
#####################################################################
