#####################################################################
# Alchemist log file - simulation started at: 2019-03-05T14:14+0000 #
#####################################################################
# seed = 3.0, bandwidth = 17782.79410038923, propagationDelay = 0.01, baserange = 56.234132519034915
#
# The columns have the following meaning: 
# time neighbor_count[Sum] <value>@neighbor_count[Sum] packet_size[Mean] mean_delay[Mean] crowd[Sum] overcrowded[Sum] risk[Sum] 
0.0 NaN NaN NaN NaN NaN NaN NaN 
2.000247021514986 5963.0 NaN 4993.400133600534 0.4742537199244484 1496.0 1.0 1496.0 
4.000247021514986 6162.0 NaN 4996.6813627254505 0.490740323174339 1490.0 7.0 1490.0 
6.000084666035003 6167.0 NaN 4996.074816299265 0.49050410950531853 1483.0 14.0 1483.0 
8.000247021514985 6168.0 NaN 4996.515698062793 0.4919028897207058 1472.0 25.0 1472.0 
10.00033353340315 6170.0 NaN 4995.4121576486305 0.49241904203098313 1474.0 23.0 1474.0 
12.00059236981081 6174.0 NaN 4995.24916499666 0.49402557049342566 1467.0 30.0 1467.0 
14.00059236981081 6180.0 NaN 4994.89378757515 0.49454058281476204 1463.0 34.0 1463.0 
16.000084666035004 6188.0 NaN 4994.979291917168 0.49922641773529874 1465.0 32.0 1465.0 
18.00059236981081 6189.0 NaN 4994.682698730795 0.5036147226002313 1464.0 33.0 1464.0 
20.00033353340315 6191.0 NaN 4994.869739478958 0.5085350413174217 1467.0 30.0 1467.0 
22.00059236981081 6198.0 NaN 4994.188376753507 0.51320179243959 1461.0 36.0 1461.0 
24.00059236981081 6199.0 NaN 4994.615898463594 0.5187812668913769 1467.0 30.0 1467.0 
26.000084666035004 6220.0 NaN 4994.0360721442885 0.5224553407267153 1466.0 31.0 1466.0 
28.00059236981081 6219.0 NaN 4994.605210420842 0.5243589889325077 1467.0 30.0 1467.0 
30.00033353340315 6224.0 NaN 4994.356713426853 0.5359404377005231 1468.0 29.0 1468.0 
32.00059236981081 6240.0 NaN 4994.140280561122 0.549052015870274 1469.0 28.0 1469.0 
34.00059236981081 6242.0 NaN 4994.346025384101 0.5613761686234108 1466.0 31.0 1466.0 
36.00008466603501 6263.0 NaN 4994.167000668002 0.5480160115697622 1469.0 28.0 1469.0 
38.00059236981081 6262.0 NaN 4994.116232464929 0.5567726428718085 1469.0 28.0 1469.0 
40.00033353340315 6266.0 NaN 4994.591850367401 0.5720746468316869 1468.0 29.0 1468.0 
42.00059236981081 6274.0 NaN 4993.723446893788 0.5879681480260874 1469.0 28.0 1469.0 
44.00059236981081 6296.0 NaN 4994.399465597862 0.6036037143731191 1469.0 28.0 1469.0 
46.00008466603501 6337.0 NaN 4993.926519706079 0.5896078148300692 1469.0 28.0 1469.0 
48.00059236981081 6346.0 NaN 4994.407481629926 0.576970795979045 1467.0 30.0 1467.0 
50.00033353340315 6357.0 NaN 4994.081496325985 0.5580687721930543 1466.0 31.0 1466.0 
52.00059236981081 6364.0 NaN 4994.0414161656645 0.5668802984202025 1467.0 30.0 1467.0 
54.00059236981081 6374.0 NaN 4993.9746158984635 0.5841903240774268 1467.0 30.0 1467.0 
56.00008466603501 6405.0 NaN 4993.923847695391 0.5971828082891661 1467.0 30.0 1467.0 
58.00059236981081 6425.0 NaN 4993.915831663327 0.5859765542492515 1468.0 29.0 1468.0 
60.00033353340315 6424.0 NaN 4994.161656646626 0.6055677512978782 1468.0 29.0 1468.0 
62.00038107659696 6432.0 NaN 1525.3012692050756 0.6262214139252911 748.0 27.0 339.0 
64.00038107659695 6440.0 NaN 1525.0260521042092 0.6643743417350386 596.0 34.0 332.0 
66.00008466603501 6464.0 NaN 1525.039412157648 0.6799841771901118 545.0 35.0 331.0 
68.00038107659697 6484.0 NaN 1528.0106880427525 0.6864672973369694 513.0 35.0 332.0 
70.00033353340315 6489.0 NaN 1528.0026720106885 0.6966249224874839 499.0 34.0 333.0 
72.00038107659697 6492.0 NaN 1527.9652638610546 0.7159122367024869 494.0 36.0 331.0 
74.00038107659697 6495.0 NaN 1527.8583834335338 0.7228634318830944 494.0 34.0 333.0 
76.00008466603501 6504.0 NaN 1527.7915831663333 0.7403831863720508 494.0 35.0 332.0 
78.00038107659697 6490.0 NaN 1537.0207080828332 0.7128036974784879 490.0 37.0 333.0 
80.00033353340315 6467.0 NaN 1537.0607882431543 0.6848712574265928 490.0 35.0 335.0 
82.00038107659697 6455.0 NaN 1537.0340681362727 0.6713417939554898 489.0 36.0 334.0 
84.00038107659697 6452.0 NaN 1536.9645958583822 0.700478506231542 492.0 33.0 337.0 
86.00008466603501 6461.0 NaN 1536.8764195056788 0.7253786580646185 491.0 32.0 338.0 
88.00038107659697 6445.0 NaN 1536.873747494991 0.7171045740893734 491.0 32.0 338.0 
90.00033353340315 6436.0 NaN 1536.9138276553094 0.7298184395382532 493.0 30.0 340.0 
92.00038107659697 6439.0 NaN 1536.9726118904457 0.7640950313681424 494.0 29.0 341.0 
94.00038107659697 6442.0 NaN 1536.943219772879 0.7746903947671662 495.0 29.0 341.0 
96.00008466603501 6456.0 NaN 1540.0267201068816 0.809624787805057 494.0 29.0 342.0 
98.00038107659697 6469.0 NaN 1539.9866399465604 0.7513891259208653 487.0 37.0 334.0 
100.00033353340315 6461.0 NaN 1539.9572478289908 0.7377195858790555 490.0 34.0 337.0 
102.00038107659697 6455.0 NaN 1540.0267201068816 0.7472908645184876 487.0 37.0 334.0 
104.00038107659697 6437.0 NaN 1539.9786239144967 0.7071440715345582 489.0 35.0 336.0 
106.00008466603501 6430.0 NaN 1539.9625918503666 0.7119494496630964 487.0 37.0 334.0 
108.00038107659697 6409.0 NaN 1539.9519038076157 0.6540354689697617 490.0 33.0 338.0 
110.00033353340315 6412.0 NaN 1540.0267201068816 0.6537196031645125 490.0 33.0 338.0 
112.00038107659697 6414.0 NaN 1540.1603206412817 0.6470585662748534 490.0 33.0 338.0 
114.00038107659697 6409.0 NaN 1540.0561122244487 0.6480733807516942 491.0 33.0 338.0 
116.00008466603501 6441.0 NaN 1546.233800935203 0.6698710543699602 491.0 34.0 339.0 
118.00038107659697 6459.0 NaN 1549.2451569806271 0.6819575391656929 492.0 33.0 341.0 
120.00033353340315 6456.0 NaN 1552.4088176352725 0.7041021975063064 493.0 32.0 343.0 
122.00038107659697 6476.0 NaN 1552.3687374749484 0.7325156467633259 493.0 32.0 343.0 
124.00038107659697 6482.0 NaN 1552.4328657314638 0.7451336228259763 494.0 31.0 344.0 
126.00008466603501 6497.0 NaN 1549.2558450233817 0.7727987985305472 496.0 30.0 344.0 
128.00038107659697 6508.0 NaN 1549.2424849699391 0.7653618107046457 494.0 32.0 342.0 
130.00033353340314 6508.0 NaN 1549.3279893119573 0.7288671341997892 494.0 32.0 342.0 
132.00038107659694 6503.0 NaN 1549.3173012692062 0.7594701397803152 491.0 33.0 341.0 
134.00038107659694 6504.0 NaN 1546.2124248497 0.7993620273274562 486.0 36.0 337.0 
136.000084666035 6544.0 NaN 1549.3092852371426 0.7918172039687112 489.0 32.0 342.0 
138.00038107659694 6538.0 NaN 1549.2344689378756 0.7631147613907171 489.0 33.0 341.0 
140.00033353340314 6518.0 NaN 1546.2845691382756 0.7558434293132483 493.0 32.0 341.0 
142.00038107659694 6542.0 NaN 1552.3714094856364 0.7880521257050976 494.0 30.0 345.0 
144.00038107659694 6543.0 NaN 1555.4308617234453 0.7763905372335891 492.0 32.0 344.0 
146.000084666035 6582.0 NaN 1546.383433533736 0.8190545107886555 490.0 33.0 340.0 
148.00038107659694 6540.0 NaN 1543.2358049432185 0.8016569853296043 486.0 37.0 335.0 
150.00033353340314 6517.0 NaN 1543.3533734134937 0.8115264835117663 482.0 41.0 331.0 
152.00038107659694 6507.0 NaN 1543.2919171676697 0.8239157873516799 490.0 33.0 339.0 
154.00038107659694 6493.0 NaN 1540.0801603206423 0.8252894693313017 489.0 34.0 337.0 
156.000084666035 6513.0 NaN 1540.1442885771546 0.8660358826832603 483.0 42.0 329.0 
158.00038107659694 6497.0 NaN 1546.2044088176367 0.8558807850416454 485.0 37.0 336.0 
160.00033353340314 6480.0 NaN 1543.2224448897819 0.8835220193785708 478.0 41.0 331.0 
162.00038107659694 6464.0 NaN 1543.1957247829 0.8892700729625453 477.0 41.0 331.0 
164.00038107659694 6462.0 NaN 1543.1235804943212 0.8611197086511607 481.0 38.0 334.0 
166.000084666035 6473.0 NaN 1546.2204408817638 0.8877995836551092 482.0 38.0 335.0 
168.00038107659694 6476.0 NaN 1549.2879091516363 0.8053888068031588 479.0 39.0 335.0 
170.00033353340314 6474.0 NaN 1549.3012692050754 0.8082180904386131 482.0 39.0 335.0 
172.00038107659694 6459.0 NaN 1549.2211088844365 0.7735315614250244 479.0 40.0 334.0 
174.00038107659694 6456.0 NaN 1546.1028724114908 0.7534243499983845 479.0 40.0 333.0 
176.000084666035 6458.0 NaN 1543.1342685370728 0.7623652886973318 478.0 41.0 331.0 
178.00038107659694 6455.0 NaN 1543.1182364729455 0.7365271319267858 481.0 39.0 333.0 
180.00033353340314 6447.0 NaN 1546.180360721443 0.7397355431088908 487.0 32.0 341.0 
182.00038107659694 6433.0 NaN 1543.158316633266 0.764957947076058 487.0 33.0 339.0 
184.00038107659694 6440.0 NaN 1543.086172344691 0.8039367548511549 485.0 35.0 337.0 
186.000084666035 6431.0 NaN 1543.0300601202387 0.8345026471671122 489.0 31.0 341.0 
188.00038107659694 6433.0 NaN 1543.1022044088184 0.8628163307396008 489.0 31.0 341.0 
190.00033353340314 6432.0 NaN 1543.1182364729452 0.8693132257291805 491.0 28.0 344.0 
192.00038107659694 6412.0 NaN 1540.0988643954572 0.8369450736417362 490.0 29.0 342.0 
194.00038107659694 6398.0 NaN 1540.0801603206428 0.8310401067333665 484.0 35.0 336.0 
196.000084666035 6411.0 NaN 1537.0287241148972 0.8745392529395778 482.0 37.0 333.0 
198.0003719177826 6390.0 NaN 1536.9886439545753 0.7991822709547397 485.0 35.0 335.0 
200.00033353340314 6384.0 NaN 1540.1469605878428 0.802814752780789 487.0 33.0 338.0 
202.0003719177826 6370.0 NaN 1546.2471609886454 0.8206064819017853 489.0 32.0 341.0 
204.0003719177826 6364.0 NaN 1543.2411489645974 0.8129413322932443 485.0 35.0 337.0 
206.000084666035 6359.0 NaN 1543.163660654643 0.8284879483191955 485.0 35.0 337.0 
208.0003719177826 6351.0 NaN 1543.0754843019363 0.8443529810899899 483.0 38.0 334.0 
210.00033353340314 6354.0 NaN 1534.022712090848 0.8486313812691275 486.0 37.0 332.0 
212.0003719177826 6361.0 NaN 1536.8924515698066 0.8787872872953593 485.0 38.0 332.0 
214.0003719177826 6347.0 NaN 1533.8036072144275 0.9047349765459304 483.0 36.0 333.0 
216.000084666035 6355.0 NaN 1533.8356713426847 0.9157927676756527 478.0 39.0 330.0 
218.0003719177826 6352.0 NaN 1530.7628590514364 0.9261595095435149 479.0 38.0 330.0 
220.00033353340314 6345.0 NaN 1530.8189712758845 0.9273850365300326 475.0 40.0 328.0 
222.0003719177826 6327.0 NaN 1530.7575150300606 0.9263789673298752 477.0 39.0 329.0 
224.0003719177826 6327.0 NaN 1530.7040748163001 0.9666760875496314 476.0 41.0 327.0 
226.000084666035 6324.0 NaN 1530.7548430193729 0.9190143037140998 482.0 35.0 333.0 
228.0003719177826 6311.0 NaN 1533.7929191716757 0.91114460165486 479.0 38.0 331.0 
230.00033353340314 6284.0 NaN 1533.894455577821 0.8822297479580155 479.0 39.0 330.0 
232.0003719177826 6262.0 NaN 1536.9458917835664 0.7828444285517822 477.0 41.0 329.0 
234.0003719177826 6256.0 NaN 1539.9919839679364 0.8129802927596802 478.0 40.0 331.0 
236.000084666035 6269.0 NaN 1543.006012024048 0.8493962642635966 479.0 41.0 331.0 
238.0003719177826 6256.0 NaN 1536.876419505679 0.8675674470835161 478.0 41.0 329.0 
240.00033353340314 6262.0 NaN 1530.7842351369393 0.8922627565036473 476.0 41.0 327.0 
242.0003719177826 6244.0 NaN 1533.859719438879 0.8707201633480522 478.0 38.0 331.0 
244.0003719177826 6232.0 NaN 1533.6806947227792 0.877850287920996 479.0 38.0 331.0 
246.000084666035 6233.0 NaN 1533.7448229792908 0.9133196575212748 480.0 38.0 331.0 
248.0003719177826 6195.0 NaN 1527.6927187708748 0.8415741528607102 473.0 45.0 322.0 
250.00033353340314 6182.0 NaN 1527.6713426853726 0.8704774697373416 471.0 45.0 322.0 
252.0003719177826 6192.0 NaN 1524.6252505010004 0.8806270061848878 470.0 46.0 320.0 
254.0003719177826 6179.0 NaN 1524.4676018704088 0.8956831025767517 470.0 45.0 321.0 
256.00008466603504 6171.0 NaN 1524.5023380093521 0.852429935932697 472.0 46.0 320.0 
258.00037191778256 6166.0 NaN 1524.5611222444907 0.8593864001819923 474.0 44.0 322.0 
260.00033353340314 6168.0 NaN 1524.513026052103 0.8894214428150213 476.0 43.0 323.0 
262.00037191778256 6189.0 NaN 1527.6659986639938 0.9339977295847168 482.0 37.0 330.0 
264.00037191778256 6186.0 NaN 1530.6933867735459 0.9875535769916248 485.0 34.0 334.0 
266.00008466603504 6183.0 NaN 1539.9919839679364 0.9870734438422737 482.0 34.0 337.0 
268.00037191778256 6176.0 NaN 1540.0053440213755 0.9460927105399961 481.0 35.0 336.0 
270.00033353340314 6143.0 NaN 1536.9138276553092 0.901482403974206 480.0 34.0 336.0 
272.00037191778256 6147.0 NaN 1533.857047428191 0.9472659760542294 480.0 34.0 335.0 
274.00037191778256 6117.0 NaN 1533.8223112892456 0.9150183024524625 481.0 33.0 336.0 
276.00008466603504 6120.0 NaN 1533.7875751503 0.9332707246620893 479.0 32.0 337.0 
278.00037191778256 6125.0 NaN 1543.0086840347365 0.9736071455616557 485.0 29.0 343.0 
280.00033353340314 6118.0 NaN 1542.9712758851026 0.9630662573695135 486.0 29.0 343.0 
282.00037191778256 6126.0 NaN 1542.955243820975 0.956083811074116 485.0 29.0 343.0 
284.00037191778256 6097.0 NaN 1539.7969271877091 0.9569473402402442 485.0 29.0 342.0 
286.00008466603504 6096.0 NaN 1539.906479625918 0.9642402953387897 482.0 29.0 342.0 
288.00037191778256 6097.0 NaN 1539.877087508348 0.9685546174465569 483.0 29.0 342.0 
290.00033353340314 6091.0 NaN 1546.1162324649295 0.915672070040798 483.0 29.0 344.0 
292.00037191778256 6075.0 NaN 1542.9605878423524 0.8825748105243482 483.0 29.0 343.0 
294.00037191778256 6061.0 NaN 1542.987307949234 0.920162890476787 480.0 29.0 343.0 
296.00008466603504 6060.0 NaN 1542.9044756179019 0.9765679494898509 480.0 29.0 343.0 
298.00037191778256 6050.0 NaN 1542.9926519706091 0.9630287941577246 481.0 29.0 343.0 
300.00033353340314 6044.0 NaN 1542.9792919171662 0.9921557103461903 480.0 29.0 343.0 
302.00037191778256 6028.0 NaN 1543.0140280561116 1.0023163426874266 480.0 29.0 343.0 
304.00037191778256 6006.0 NaN 1542.925851703409 1.00894884592374 480.0 29.0 343.0 
306.00008466603504 6002.0 NaN 1536.8630594522365 1.0758125174422584 481.0 29.0 341.0 
308.00037191778256 5996.0 NaN 1536.7027388109543 1.0081141393528708 480.0 29.0 341.0 
310.00033353340314 5972.0 NaN 1536.8016032064115 0.9483898744406591 480.0 29.0 341.0 
312.00037191778256 5975.0 NaN 1533.6486305945207 0.9817459518007111 479.0 29.0 340.0 
314.00037191778256 5960.0 NaN 1536.7187708750819 0.9880254845762786 477.0 29.0 341.0 
316.00008466603504 5941.0 NaN 1536.6867067468274 0.9734002919070066 477.0 29.0 341.0 
318.00037191778256 5931.0 NaN 1539.7862391449546 0.9268083457237414 479.0 29.0 342.0 
320.00033353340314 5945.0 NaN 1539.7034068136272 0.936763688234152 478.0 29.0 342.0 
322.00037191778256 5938.0 NaN 1539.9331997328002 0.8890244339888722 478.0 29.0 342.0 
324.00037191778256 5937.0 NaN 1539.7969271877091 0.9166175237227792 477.0 29.0 342.0 
326.00008466603504 5925.0 NaN 1539.8316633266545 0.8268496652202555 478.0 29.0 342.0 
328.00037191778256 5935.0 NaN 1536.713426853709 0.8716334475681358 478.0 29.0 341.0 
330.00033353340314 5939.0 NaN 1539.8370073480273 0.8304485764805296 477.0 29.0 342.0 
332.00037191778256 5947.0 NaN 1539.8931195724792 0.817779591964962 477.0 29.0 342.0 
334.00037191778256 5943.0 NaN 1539.8717434869727 0.8144732831191228 478.0 29.0 342.0 
336.00008466603504 5954.0 NaN 1536.8470273881092 0.8492652399812943 477.0 29.0 341.0 
338.00037191778256 5949.0 NaN 1533.8517034068154 0.820871248514495 478.0 29.0 340.0 
340.00033353340314 5950.0 NaN 1530.5945223780907 0.7982490001945709 479.0 29.0 339.0 
342.00037191778256 5955.0 NaN 1530.6559786239152 0.8182774373264421 479.0 29.0 339.0 
344.00037191778256 5958.0 NaN 1530.5704742818973 0.8157819751067786 479.0 29.0 339.0 
346.00008466603504 5958.0 NaN 1533.69138276553 0.8264970976650804 478.0 29.0 340.0 
348.00037191778256 5958.0 NaN 1530.5945223780907 0.8308871197276624 476.0 29.0 339.0 
350.00033353340314 5960.0 NaN 1527.540414161655 0.862042643323786 478.0 29.0 338.0 
352.00037191778256 5953.0 NaN 1524.4863059452243 0.8625978040403689 484.0 29.0 337.0 
354.00037191778256 5949.0 NaN 1524.563794255176 0.8783857735801744 485.0 29.0 337.0 
356.00008466603504 5967.0 NaN 1524.547762191048 0.9071638559207872 484.0 29.0 337.0 
358.00037191778256 5964.0 NaN 1527.6820307281243 0.9031111702284215 482.0 29.0 338.0 
360.00033353340314 5945.0 NaN 1530.7682030728117 0.8965082975017016 483.0 29.0 339.0 
362.00037191778256 5927.0 NaN 1530.7922511690056 0.8814935554553183 483.0 30.0 338.0 
364.00037191778256 5924.0 NaN 1527.596526386106 0.9000571810863286 480.0 33.0 334.0 
366.00008466603504 5958.0 NaN 1512.291249164997 0.8913845303950809 482.0 32.0 330.0 
368.00037191778256 5955.0 NaN 1509.2879091516363 0.8926824816828088 484.0 29.0 332.0 
370.00033353340314 5956.0 NaN 1518.5704742818978 0.8708386081982655 486.0 29.0 335.0 
372.00037191778256 5963.0 NaN 1518.501002004009 0.8837920603315332 485.0 30.0 334.0 
374.00037191778256 5969.0 NaN 1518.452905811624 0.9187902969656321 484.0 32.0 332.0 
376.00008466603504 5967.0 NaN 1518.471609886439 0.9496268398190929 486.0 29.0 335.0 
378.00037191778256 5952.0 NaN 1518.4448897795608 0.9240480503944423 487.0 29.0 335.0 
380.00033353340314 5953.0 NaN 1518.3861055444213 0.9395480218705611 487.0 29.0 335.0 
382.00037191778256 5953.0 NaN 1518.4342017368083 0.9434439168975768 486.0 30.0 334.0 
384.00037191778256 5961.0 NaN 1524.6145624582489 0.9510517598652347 487.0 32.0 334.0 
386.00008466603504 5969.0 NaN 1533.857047428191 0.9871807527203329 487.0 33.0 336.0 
388.00037191778256 5964.0 NaN 1518.4769539078159 0.9706605757670435 486.0 33.0 331.0 
390.00033353340314 5977.0 NaN 1512.309953239812 1.0059812800009211 485.0 33.0 329.0 
392.00024702151495 5984.0 NaN 1518.5571142284566 1.0275928486655455 488.0 30.0 334.0 
394.00024702151495 5984.0 NaN 1518.482297929191 1.0765510349246499 489.0 31.0 333.0 
396.00008466603504 5980.0 NaN 1518.479625918503 1.056611794618307 490.0 32.0 332.0 
398.00037191778256 5980.0 NaN 1515.369405477621 1.0823243320889366 491.0 29.0 334.0 
400.00033353340314 5995.0 NaN 1518.4074816299274 1.004044703626737 492.0 29.0 335.0 
402.00037191778256 6005.0 NaN 1518.4101536406151 0.9949902631798585 492.0 29.0 335.0 
404.00037191778256 5988.0 NaN 1524.5424181696726 1.0074184525765038 492.0 29.0 337.0 
406.00008466603504 6007.0 NaN 1530.7468269873093 1.0174759110987674 493.0 30.0 338.0 
408.00037191778256 6002.0 NaN 1530.7281229124908 1.0018394316626271 493.0 30.0 338.0 
410.00033353340314 6009.0 NaN 1530.6533066132274 0.8856071973725154 493.0 30.0 338.0 
412.00037191778256 6019.0 NaN 1536.8390113560454 0.8902038614143748 494.0 30.0 340.0 
414.00037191778256 6014.0 NaN 1536.7428189712753 0.9350578586911603 496.0 31.0 339.0 
416.00008466603504 6016.0 NaN 1536.769539078155 0.9289987763289302 495.0 34.0 336.0 
418.00037191778256 6012.0 NaN 1536.825651302606 0.9751433626050944 497.0 32.0 338.0 
420.00033353340314 6003.0 NaN 1524.4756179024728 0.9816711771037604 498.0 31.0 335.0 
422.00037191778256 6023.0 NaN 1515.350701402806 1.0256369645843 497.0 32.0 331.0 
424.00037191778256 6002.0 NaN 1512.2618570474276 1.080340885102707 492.0 33.0 329.0 
426.00008466603504 6008.0 NaN 1524.5263861055453 1.0894662622397129 488.0 31.0 335.0 
428.00037191778256 6012.0 NaN 1512.2672010688032 1.1027980375641135 484.0 33.0 329.0 
430.00033353340314 6030.0 NaN 1512.309953239812 1.1284238992954077 488.0 31.0 331.0 
432.00037191778256 6033.0 NaN 1509.210420841683 1.1408281795875763 487.0 32.0 329.0 
434.00037191778256 6011.0 NaN 1512.3393453573817 1.1780390291143503 488.0 32.0 330.0 
436.00008466603504 6016.0 NaN 1524.6118904475627 1.1860021970380792 491.0 33.0 333.0 
438.00024702151495 6008.0 NaN 1527.6713426853719 1.13206844707158 492.0 33.0 334.0 
440.00033353340314 5999.0 NaN 1527.7702070808275 1.1169618369234364 491.0 33.0 334.0 
442.00037191778256 5986.0 NaN 1527.6927187708748 1.0856625366690809 494.0 31.0 336.0 
444.00037191778256 5971.0 NaN 1527.6766867067458 1.0226385121449972 493.0 30.0 337.0 
446.00008466603504 5961.0 NaN 1533.7474949899813 1.033840038412117 497.0 29.0 340.0 
448.00037191778256 5961.0 NaN 1539.9545758183026 0.9678393046963695 498.0 30.0 341.0 
450.00033353340314 5972.0 NaN 1552.2565130260523 1.0060238678069358 502.0 29.0 346.0 
452.00037191778256 5975.0 NaN 1555.3987975951911 1.0357824322487172 504.0 28.0 348.0 
454.00037191778256 5973.0 NaN 1555.3426853707426 1.0059277439229994 503.0 28.0 348.0 
456.00008466603504 5960.0 NaN 1558.3994655978636 1.0182225668176943 502.0 29.0 348.0 
458.00037191778256 5966.0 NaN 1555.2839011356027 0.9871525638825666 499.0 32.0 344.0 
460.00033353340314 5974.0 NaN 1555.2545090180365 0.9469218114787717 497.0 33.0 343.0 
462.00037191778256 5971.0 NaN 1555.2197728790907 0.964990932004863 497.0 33.0 343.0 
464.00037191778256 5966.0 NaN 1555.2491649966607 0.9832003474625916 499.0 32.0 344.0 
466.00008466603504 5973.0 NaN 1552.1175684702725 0.9977488445380855 502.0 29.0 346.0 
468.00037191778256 5981.0 NaN 1552.1790247161002 0.9566102691138177 499.0 32.0 343.0 
470.00033353340314 5973.0 NaN 1552.064128256512 0.8821993744744054 500.0 29.0 346.0 
472.00037191778256 5962.0 NaN 1542.880427521709 0.9142514759767665 495.0 33.0 339.0 
474.00037191778256 5948.0 NaN 1536.7000668002665 0.9088604274782279 491.0 33.0 337.0 
476.00008466603504 5944.0 NaN 1533.6646626586517 0.9095610255996649 490.0 32.0 337.0 
478.00037191778256 5964.0 NaN 1527.5270541082175 0.9263500861555939 494.0 28.0 339.0 
480.00033353340314 5970.0 NaN 1530.6265865063453 0.9240398656386783 491.0 29.0 339.0 
482.00037191778256 5956.0 NaN 1530.6452905811634 0.9076961861517076 488.0 31.0 337.0 
484.00037191778256 5936.0 NaN 1518.316633266534 0.8769261295251656 488.0 31.0 333.0 
486.00008466603504 5935.0 NaN 1515.2277889111544 0.9156992759514234 487.0 31.0 332.0 
488.00037191778256 5933.0 NaN 1509.1356045424182 0.9001874788756709 486.0 31.0 330.0 
490.00033353340314 5930.0 NaN 1506.0788243152979 0.8858879220628739 490.0 29.0 331.0 
492.00037191778256 5931.0 NaN 1499.95991983968 0.904809976922511 487.0 31.0 327.0 
494.00037191778256 5924.0 NaN 1506.0921843687365 0.9508286477867908 481.0 31.0 329.0 
496.00008466603504 5930.0 NaN 1502.9605878423522 0.9853255072447047 480.0 31.0 328.0 
498.00037191778256 5935.0 NaN 1499.9946559786245 1.0022935576319005 482.0 31.0 327.0 
500.00033353340314 5908.0 NaN 1499.9331997328 0.9977002372365882 479.0 30.0 328.0 
502.00037191778256 5890.0 NaN 1496.9058116232457 1.0115468368516154 486.0 28.0 329.0 
504.00037191778256 5865.0 NaN 1493.782231128925 1.0433385796120391 485.0 29.0 327.0 
506.00008466603504 5882.0 NaN 1502.9873079492334 1.0405448734666753 484.0 30.0 329.0 
508.00037191778256 5873.0 NaN 1506.1696726786909 0.9995231605428222 484.0 32.0 328.0 
510.00033353340314 5860.0 NaN 1506.140280561121 1.0214535955599733 487.0 30.0 330.0 
512.0003719177826 5863.0 NaN 1506.1242484969932 1.0346935691705832 487.0 29.0 331.0 
514.0003719177826 5855.0 NaN 1506.1082164328643 1.0255553756691198 488.0 29.0 331.0 
516.000084666035 5861.0 NaN 1500.0 0.9949355835610149 487.0 29.0 329.0 
518.0003719177826 5866.0 NaN 1490.7975951903816 0.9225686726902848 484.0 30.0 325.0 
520.0003335334031 5857.0 NaN 1484.5905143620566 0.8525371813421636 483.0 31.0 322.0 
522.0003719177826 5876.0 NaN 1481.4402137608545 0.8592026980578776 487.0 30.0 322.0 
524.0003719177826 5880.0 NaN 1469.1943887775547 0.8556877185535758 480.0 30.0 318.0 
526.000084666035 5896.0 NaN 1466.0280561122254 0.9136472673583057 482.0 30.0 317.0 
528.0003719177826 5903.0 NaN 1469.2478289913172 0.8920940620951504 479.0 30.0 318.0 
530.0003335334031 5898.0 NaN 1472.3099532398119 0.8893131583248428 478.0 30.0 319.0 
532.0003719177826 5911.0 NaN 1475.3266533066121 0.8410807633128672 487.0 30.0 320.0 
534.0003719177826 5912.0 NaN 1475.310621242484 0.8663074983100916 487.0 30.0 320.0 
536.000084666035 5931.0 NaN 1481.5123580494333 0.9337637934933304 488.0 30.0 322.0 
538.0003719177826 5945.0 NaN 1484.5851703406818 0.9286004689308854 492.0 29.0 324.0 
540.0003335334031 5929.0 NaN 1484.6012024048089 0.906697206431449 489.0 29.0 324.0 
542.0003719177826 5925.0 NaN 1484.5023380093528 0.9491478080172042 489.0 29.0 324.0 
544.0003719177826 5905.0 NaN 1490.7708750835 0.9537767913964312 491.0 29.0 326.0 
546.000084666035 5914.0 NaN 1490.752171008683 1.0154067823698871 491.0 29.0 326.0 
548.0003719177826 5913.0 NaN 1493.80093520374 0.9589873405839192 493.0 29.0 327.0 
550.0003335334031 5905.0 NaN 1487.636606546427 0.9197777937449031 493.0 29.0 325.0 
552.0003719177826 5917.0 NaN 1493.750167000667 0.9456472355276337 497.0 29.0 327.0 
554.0003719177826 5937.0 NaN 1496.9031396125574 0.9483584968208157 499.0 29.0 328.0 
556.000084666035 5923.0 NaN 1496.8203072812285 0.9443597912122909 500.0 29.0 328.0 
558.0003719177826 5930.0 NaN 1496.9539078156304 0.891601162909121 500.0 30.0 327.0 
560.0003335334031 5930.0 NaN 1484.5424181696726 0.8628754318389937 495.0 32.0 321.0 
562.0003719177826 5929.0 NaN 1484.5637942551762 0.8542343617594894 490.0 33.0 320.0 
564.0003719177826 5963.0 NaN 1487.6419505678014 0.8856309252454416 490.0 33.0 321.0 
566.000084666035 5979.0 NaN 1487.6686706746823 0.9453588231545719 485.0 37.0 317.0 
568.0003719177826 5985.0 NaN 1490.781563126253 0.9182488517553288 486.0 37.0 318.0 
570.0003335334031 5989.0 NaN 1490.7601870407477 0.9114631788127467 489.0 37.0 318.0 
572.0003719177826 6004.0 NaN 1490.7628590514364 0.9265786079441761 487.0 37.0 318.0 
574.0003810765969 6006.0 NaN 1493.8517034068147 0.9548977299912768 488.0 37.0 319.0 
576.000084666035 5992.0 NaN 1503.1128924515706 0.9253616435513451 491.0 36.0 323.0 
578.0003810765969 5996.0 NaN 1497.004676018703 0.9589381388002842 492.0 36.0 321.0 
580.0003335334031 6010.0 NaN 1496.9031396125574 1.0249336705133272 492.0 36.0 321.0 
582.0003810765969 6037.0 NaN 1496.9699398797607 1.0783924711304425 493.0 36.0 321.0 
584.0003810765969 6048.0 NaN 1493.891783567135 1.0693477171288719 501.0 33.0 323.0 
586.000084666035 6001.0 NaN 1493.8223112892456 1.0656558236166054 495.0 37.0 319.0 
588.0003810765969 6007.0 NaN 1499.9946559786245 1.1310496751921926 493.0 39.0 319.0 
590.0003335334031 6021.0 NaN 1503.0941883767543 1.1688911214392306 492.0 38.0 321.0 
592.0003810765969 6031.0 NaN 1509.2157648630605 1.215314943487103 492.0 39.0 322.0 
594.0003810765969 6022.0 NaN 1509.2451569806271 1.271261871757539 496.0 38.0 323.0 
596.000084666035 5983.0 NaN 1509.1943887775544 1.1804124729005907 494.0 39.0 322.0 
598.0003810765969 5995.0 NaN 1499.9679358717442 1.1901430299253306 501.0 32.0 326.0 
600.0003335334031 6015.0 NaN 1503.0193720774892 1.198612726493419 503.0 32.0 327.0 
602.0003810765969 6010.0 NaN 1496.9592518370077 1.1700532719390924 499.0 34.0 323.0 
604.0003810765969 6015.0 NaN 1496.9325317301273 1.1515145303828107 497.0 38.0 319.0 
606.000084666035 5993.0 NaN 1503.1182364729455 1.079636638535442 502.0 32.0 327.0 
608.0003810765969 6020.0 NaN 1506.1723446893798 1.1089822901634743 501.0 32.0 328.0 
610.0003335334031 6006.0 NaN 1509.3066132264535 1.0125757829680926 501.0 33.0 328.0 
612.0003810765969 6023.0 NaN 1509.183700734802 1.0471377461357412 502.0 33.0 328.0 
614.0003810765969 6003.0 NaN 1509.2772211088839 1.0683769503139149 502.0 33.0 328.0 
616.000084666035 5998.0 NaN 1506.1349365397455 0.997857260516477 498.0 36.0 324.0 
618.0003810765969 6002.0 NaN 1503.0541082164336 0.9659557300607676 500.0 33.0 326.0 
620.0003335334031 6075.0 NaN 1509.2798931195728 0.9355481488143393 501.0 33.0 328.0 
622.0003810765969 6123.0 NaN 1509.3012692050756 0.9475602927957335 501.0 33.0 328.0 
624.0003810765969 6116.0 NaN 1515.4308617234462 0.991545704202377 495.0 38.0 325.0 
626.000084666035 6131.0 NaN 1518.5758183032726 1.0220098940525324 491.0 39.0 325.0 
628.0003810765969 6134.0 NaN 1518.4929859719446 0.985847531807107 493.0 42.0 322.0 
630.0003335334031 6163.0 NaN 1515.4175016700074 0.9853765426216958 495.0 40.0 323.0 
632.0003810765969 6177.0 NaN 1518.5143620574472 1.0471544211797703 492.0 43.0 321.0 
634.0003810765969 6169.0 NaN 1524.6786907147634 1.069762038672587 494.0 44.0 322.0 
636.000084666035 6174.0 NaN 1524.5691382765538 1.0226942700583803 496.0 44.0 322.0 
638.0003810765969 6202.0 NaN 1524.6092184368729 0.9822020632719825 498.0 41.0 325.0 
640.0003335334031 6189.0 NaN 1521.4241816967271 0.989046513797049 498.0 40.0 325.0 
642.0003810765969 6218.0 NaN 1524.6118904475627 1.032046436500304 496.0 44.0 322.0 
644.0003810765969 6199.0 NaN 1515.2785571142274 0.9975539368788345 496.0 39.0 324.0 
646.000084666035 6203.0 NaN 1515.3239812959264 1.0499623874221444 494.0 40.0 323.0 
648.0003810765969 6231.0 NaN 1518.3967935871738 1.0935806633838585 497.0 37.0 327.0 
650.0003335334031 6221.0 NaN 1521.5791583166342 1.0896380311832614 494.0 37.0 328.0 
652.0003810765969 6168.0 NaN 1518.5116900467608 1.0766238352859003 493.0 36.0 328.0 
654.0003810765969 6152.0 NaN 1518.5758183032729 1.0944972977111591 490.0 37.0 327.0 
656.000084666035 6173.0 NaN 1518.5464261857062 1.1623524718095384 489.0 36.0 328.0 
658.0003810765969 6160.0 NaN 1524.8470273881092 1.1559492119902253 486.0 38.0 328.0 
660.0003335334031 6130.0 NaN 1533.993319973281 1.0536621116907665 484.0 36.0 333.0 
662.0003810765969 6146.0 NaN 1537.1195724782908 1.1196190828304264 486.0 34.0 336.0 
664.0003810765969 6124.0 NaN 1533.854375417501 1.099933025217968 490.0 31.0 338.0 
#####################################################################
# End of data export. Simulation finished at: 2019-03-05T14:20+0000 #
#####################################################################
