#####################################################################
# Alchemist log file - simulation started at: 2019-03-15T02:44+0000 #
#####################################################################
# seed = 8.0, bandwidth = 4216.965034285822, propagationDelay = 1.0, baserange = 100.0
#
# The columns have the following meaning: 
# time neighbor_count[Sum] <value>@neighbor_count[Sum] packet_size[Mean] mean_delay[Mean] crowd[Sum] overcrowded[Sum] risk[Sum] 
0.0 NaN NaN NaN NaN NaN NaN NaN 
2.000927030832833 NaN NaN 4988.0 NaN 1497.0 0.0 1497.0 
4.000927030832833 12895.0 NaN 4994.637274549098 0.8325177360134934 1497.0 0.0 1497.0 
6.000049757165264 13126.0 NaN 4996.2458249833 1.8342574842665895 1497.0 0.0 1497.0 
8.000927030832834 13126.0 NaN 4994.843019372078 1.8181173382780784 1493.0 4.0 1493.0 
10.000927030832834 13128.0 NaN 4994.0093520374085 0.8839674049650593 1489.0 8.0 1489.0 
12.000049757165263 13129.0 NaN 4994.805611222445 1.8341186919061732 1492.0 5.0 1492.0 
14.000927030832834 13130.0 NaN 4994.821643286573 1.8192599542309857 1492.0 5.0 1492.0 
16.000198348008887 13130.0 NaN 4994.818971275885 0.8853629013422879 1488.0 9.0 1488.0 
18.000049757165264 13132.0 NaN 4994.672010688043 1.8381523552679642 1490.0 7.0 1490.0 
20.000927030832834 13134.0 NaN 4994.418169672679 1.825963782007674 1494.0 3.0 1494.0 
22.000927030832834 13144.0 NaN 4994.693386773547 0.897970842452083 1488.0 9.0 1488.0 
24.000049757165264 13155.0 NaN 4994.677354709419 1.850871518210138 1489.0 8.0 1489.0 
26.000198348008887 13173.0 NaN 4994.316633266533 1.8388154887730388 1491.0 6.0 1491.0 
28.000927030832834 13194.0 NaN 4994.62124248497 0.9147135227991522 1485.0 12.0 1485.0 
30.000049757165264 13197.0 NaN 4994.471609886439 1.8687936806504404 1487.0 10.0 1487.0 
32.000927030832834 13206.0 NaN 4994.201736806947 1.8590402782953437 1488.0 9.0 1488.0 
34.000927030832834 13238.0 NaN 4994.348697394789 0.9374514688694606 1485.0 12.0 1485.0 
36.000049757165264 13240.0 NaN 4994.36205744823 1.8944099731106456 1487.0 10.0 1487.0 
38.000927030832834 13244.0 NaN 4994.153640614562 1.8926371009785163 1487.0 10.0 1487.0 
40.000927030832834 13252.0 NaN 4994.359385437542 0.975228493234444 1483.0 14.0 1483.0 
42.000049757165264 13269.0 NaN 4994.271209084836 1.9295532536843256 1487.0 10.0 1487.0 
44.000927030832834 13309.0 NaN 4994.121576486306 1.9275768423977215 1485.0 12.0 1485.0 
46.00019834800889 13322.0 NaN 4994.26586506346 0.963555937346665 1481.0 16.0 1481.0 
48.000049757165264 13327.0 NaN 4994.196392785571 1.916530763266917 1485.0 12.0 1485.0 
50.000927030832834 13341.0 NaN 4994.191048764195 1.9224744220957617 1480.0 17.0 1480.0 
52.000927030832834 13354.0 NaN 4994.263193052772 1.0035217371294984 1484.0 13.0 1484.0 
54.000049757165264 13370.0 NaN 4994.148296593186 1.948647162829353 1487.0 10.0 1487.0 
56.00019834800889 13407.0 NaN 4994.073480293921 1.9504624277939049 1485.0 12.0 1485.0 
58.000927030832834 13414.0 NaN 4994.297929191716 1.0480487794712254 1477.0 20.0 1477.0 
60.000049757165264 13415.0 NaN 4994.070808283233 2.006401402782514 1480.0 17.0 1480.0 
62.00045481904853 13423.0 NaN 1522.7788911155635 1.53748226317899 781.0 11.0 354.0 
64.00045481904853 13452.0 NaN 1525.907815631264 1.1381330792378292 631.0 19.0 347.0 
66.0001983480089 13460.0 NaN 1525.4535738142938 1.5055554105519053 580.0 21.0 345.0 
68.00045481904853 13464.0 NaN 1525.4883099532394 1.5222249294854577 555.0 19.0 347.0 
70.00045481904853 13464.0 NaN 1525.5951903807634 1.1980155792530258 525.0 25.0 341.0 
72.00045481904853 13472.0 NaN 1525.2184368737458 1.5556718292349414 515.0 24.0 342.0 
74.00045481904853 13488.0 NaN 1525.3306613226455 1.543486826133535 512.0 19.0 347.0 
76.0001983480089 13526.0 NaN 1531.6686706746818 1.2284582102542032 510.0 21.0 347.0 
78.00045481904853 13541.0 NaN 1531.3961255845004 1.5846653075325874 514.0 17.0 351.0 
80.00045481904853 13567.0 NaN 1531.4068136272545 1.5895025904583646 517.0 14.0 354.0 
82.00045481904853 13539.0 NaN 1531.5644622578484 1.2717621544134763 512.0 19.0 349.0 
84.00045481904853 13544.0 NaN 1534.4822979291907 1.5572798960516592 510.0 17.0 352.0 
86.0001983480089 13554.0 NaN 1534.522378089512 1.5572113830713306 498.0 28.0 341.0 
88.00045481904853 13541.0 NaN 1534.7334669338666 1.2133711644788365 496.0 31.0 338.0 
90.00045481904853 13531.0 NaN 1534.4101536406151 1.5706668235555477 505.0 22.0 347.0 
92.00045481904853 13500.0 NaN 1534.4422177688725 1.5563289896329042 502.0 26.0 343.0 
94.00045481904853 13517.0 NaN 1534.6666666666663 1.2425153731750163 507.0 19.0 350.0 
96.0001983480089 13518.0 NaN 1537.4883099532394 1.6019196293170466 510.0 16.0 354.0 
98.00045481904853 13518.0 NaN 1537.541750167 1.6131318884076424 505.0 21.0 349.0 
100.00045481904853 13515.0 NaN 1537.7581830327333 1.3196336132136062 497.0 29.0 341.0 
102.00045481904853 13505.0 NaN 1537.4856379425519 1.654456655085264 499.0 26.0 344.0 
104.00045481904853 13502.0 NaN 1537.5043420173668 1.6522357421842708 493.0 30.0 340.0 
106.0001983480089 13515.0 NaN 1537.6993987975939 1.372584224999652 495.0 28.0 342.0 
108.00045481904853 13524.0 NaN 1537.456245824982 1.669714515322545 497.0 26.0 344.0 
110.00045481904853 13546.0 NaN 1537.4802939211754 1.6701709274897034 492.0 31.0 339.0 
112.00045481904853 13553.0 NaN 1540.748162992652 1.3558303994106382 495.0 28.0 343.0 
114.00045481904853 13565.0 NaN 1540.4943219772883 1.6644158744853388 495.0 27.0 344.0 
116.0001983480089 13565.0 NaN 1540.545090180361 1.6503850004381706 492.0 30.0 341.0 
118.00045481904853 13532.0 NaN 1537.702070808282 1.2826164545155008 498.0 28.0 342.0 
120.00045481904853 13556.0 NaN 1543.5938543754182 1.6269199961125749 501.0 25.0 347.0 
122.00045481904853 13568.0 NaN 1546.6960587842364 1.620305920601346 497.0 29.0 344.0 
124.00045481904853 13557.0 NaN 1546.9472277889092 1.2684231223507991 501.0 25.0 348.0 
126.0001983480089 13561.0 NaN 1543.5751503006 1.6025316466959714 502.0 24.0 348.0 
128.0004548190485 13561.0 NaN 1543.6526386105547 1.5970807622393188 497.0 29.0 343.0 
130.00045481904854 13580.0 NaN 1543.9171676686726 1.278712571575338 500.0 25.0 347.0 
132.00045481904854 13580.0 NaN 1540.515698062791 1.6011485846204916 497.0 27.0 344.0 
134.00045481904854 13592.0 NaN 1537.5364061456244 1.5854017593627294 495.0 28.0 342.0 
136.0001983480089 13589.0 NaN 1531.6820307281243 1.281826166268652 503.0 19.0 349.0 
138.00045481904854 13587.0 NaN 1531.3480293921182 1.6267693824176785 499.0 22.0 346.0 
140.00045481904854 13581.0 NaN 1537.4375417501667 1.5952152855044042 494.0 24.0 346.0 
142.00045481904854 13578.0 NaN 1543.9599198396793 1.2897202554608551 499.0 22.0 350.0 
144.00045481904854 13606.0 NaN 1543.665998663994 1.6459826679562803 500.0 21.0 351.0 
146.0001983480089 13604.0 NaN 1543.7114228456908 1.5942528936729012 495.0 25.0 347.0 
148.00045481904854 13590.0 NaN 1547.0167000667998 1.2218869709260736 496.0 23.0 350.0 
150.00045481904854 13597.0 NaN 1549.8410153640637 1.5707409727089676 499.0 20.0 354.0 
152.00045481904854 13598.0 NaN 1540.6813627254517 1.554099001064491 490.0 29.0 342.0 
154.00045481904854 13603.0 NaN 1534.7922511690056 1.2643984598019238 494.0 24.0 345.0 
156.0001983480089 13596.0 NaN 1540.6118904475636 1.601710350671888 493.0 21.0 350.0 
158.00045481904854 13557.0 NaN 1540.6733466933879 1.550575918246422 484.0 31.0 340.0 
160.00045481904854 13545.0 NaN 1541.0126920507666 1.2652157009272347 488.0 29.0 342.0 
162.00045481904854 13543.0 NaN 1540.6706746826999 1.6049667314411808 490.0 28.0 343.0 
164.00045481904854 13539.0 NaN 1543.6873747495001 1.6118537460913 490.0 27.0 345.0 
166.0001983480089 13533.0 NaN 1543.9946559786242 1.3402751947333904 499.0 18.0 354.0 
168.00045481904854 13534.0 NaN 1540.6546426185726 1.6702592647481154 491.0 25.0 346.0 
170.00045481904854 13519.0 NaN 1540.5531062124248 1.642271471820413 488.0 30.0 341.0 
172.00045481904854 13519.0 NaN 1540.8897795591183 1.3677109792767472 499.0 22.0 349.0 
174.00045481904854 13534.0 NaN 1543.6659986639938 1.697136063033623 503.0 19.0 353.0 
176.0001983480089 13530.0 NaN 1543.625918503673 1.6578343767164758 498.0 23.0 349.0 
178.00045481904854 13494.0 NaN 1543.9465597862388 1.3237938025863407 497.0 22.0 350.0 
180.00045481904854 13493.0 NaN 1543.695390781564 1.6357188785689414 502.0 18.0 354.0 
182.00045481904854 13469.0 NaN 1537.4722778891114 1.566573893059208 489.0 31.0 339.0 
184.00045481904854 13460.0 NaN 1537.763527054109 1.2616321419163385 492.0 27.0 343.0 
186.0001983480089 13451.0 NaN 1537.5364061456246 1.5896643767038428 493.0 24.0 346.0 
188.00045481904854 13430.0 NaN 1540.585170340682 1.5314671369026287 486.0 31.0 340.0 
190.00045481904854 13413.0 NaN 1537.7234468937882 1.2185590345912545 489.0 27.0 343.0 
192.00045481904854 13411.0 NaN 1534.386105544421 1.5488701410880505 491.0 24.0 345.0 
194.00045481904854 13418.0 NaN 1537.5043420173665 1.55941108008919 487.0 29.0 341.0 
196.0001983480089 13413.0 NaN 1540.7775551102181 1.2900827435276478 489.0 27.0 344.0 
198.00045481904854 13406.0 NaN 1537.5150300601185 1.6075872757780927 490.0 25.0 345.0 
200.00045481904854 13414.0 NaN 1540.590514362057 1.5851295233119331 486.0 30.0 341.0 
202.00045481904854 13397.0 NaN 1540.7855711422844 1.3070433092723894 489.0 29.0 342.0 
204.00045481904854 13388.0 NaN 1540.5931863727455 1.6535818771716708 492.0 26.0 345.0 
206.0001983480089 13376.0 NaN 1540.5584502337997 1.6659140710937173 488.0 30.0 341.0 
208.00045481904854 13347.0 NaN 1537.7047428189724 1.3716849211821287 489.0 29.0 341.0 
210.00045481904854 13353.0 NaN 1531.337341349364 1.6996163786364589 487.0 25.0 343.0 
212.00045481904854 13353.0 NaN 1531.3587174348702 1.7119400858799876 484.0 29.0 339.0 
214.00045481904854 13356.0 NaN 1528.4702738810938 1.4456301282347102 483.0 29.0 338.0 
216.0001983480089 13353.0 NaN 1534.3593854375426 1.7724389354847645 488.0 25.0 344.0 
218.00045481904854 13347.0 NaN 1528.1469605878428 1.7747513674889102 482.0 30.0 337.0 
220.00045481904854 13324.0 NaN 1528.4061456245818 1.5129231670439234 485.0 26.0 341.0 
222.00045481904854 13321.0 NaN 1525.044756179025 1.8589820119610152 486.0 24.0 342.0 
224.00045481904854 13310.0 NaN 1521.8704074816296 1.889697991444072 481.0 29.0 336.0 
226.0001983480089 13272.0 NaN 1525.2665330661334 1.6055148964367476 484.0 25.0 341.0 
228.00045481904854 13271.0 NaN 1525.060788243154 1.8695738159826456 486.0 24.0 342.0 
230.00045481904854 13264.0 NaN 1528.104208416834 1.8515432232148654 477.0 29.0 338.0 
232.00045481904854 13255.0 NaN 1531.4522378089518 1.4953648357122626 483.0 25.0 343.0 
234.00045481904854 13256.0 NaN 1531.2625250501 1.8164731674178114 484.0 23.0 345.0 
236.0001983480089 13228.0 NaN 1531.2331329325302 1.7646369589314834 480.0 27.0 341.0 
238.00045481904854 13213.0 NaN 1534.5090180360728 1.3715691449135579 483.0 24.0 345.0 
240.00045481904854 13201.0 NaN 1531.2197728790907 1.6742026946731734 483.0 24.0 344.0 
242.00045481904854 13189.0 NaN 1531.2598530394116 1.6813547686364052 480.0 27.0 341.0 
244.00045481904854 13183.0 NaN 1528.3901135604547 1.4038683850761797 484.0 24.0 343.0 
246.0001983480089 13179.0 NaN 1525.0607882431543 1.7449066008626881 485.0 23.0 343.0 
248.00045481904854 13174.0 NaN 1528.1763527054095 1.7445414773041747 484.0 26.0 341.0 
250.00045481904854 13180.0 NaN 1525.2772211088843 1.468837532661798 487.0 23.0 343.0 
252.00045481904854 13173.0 NaN 1525.0100200400814 1.8078730209694938 485.0 23.0 343.0 
254.00045481904854 13162.0 NaN 1525.0447561790247 1.7977182747445255 483.0 26.0 340.0 
256.0001983480089 13136.0 NaN 1525.2344689378754 1.5192446508585065 485.0 25.0 341.0 
258.0004548190485 13116.0 NaN 1525.0180360721456 1.7583210123994986 487.0 24.0 342.0 
260.0004548190485 13126.0 NaN 1522.0521042084179 1.7305675671718022 485.0 27.0 338.0 
262.0004548190485 13131.0 NaN 1519.1957247829 1.448322054396825 488.0 23.0 341.0 
264.0004548190485 13128.0 NaN 1518.8563794255183 1.76618820743708 486.0 23.0 341.0 
266.0001983480089 13097.0 NaN 1518.9899799599186 1.7398051183287406 484.0 25.0 339.0 
268.0004548190485 13077.0 NaN 1528.430193720773 1.3820991362086874 486.0 23.0 344.0 
270.0004548190485 13060.0 NaN 1531.198396793588 1.690550880650761 487.0 23.0 345.0 
272.0004548190485 13079.0 NaN 1531.2839011356027 1.680266436671182 484.0 26.0 342.0 
274.0004548190485 13088.0 NaN 1534.5063460253818 1.4326066698429978 488.0 24.0 345.0 
276.0001983480089 13076.0 NaN 1534.2124248497003 1.765560124081259 489.0 23.0 346.0 
278.0004548190485 13084.0 NaN 1534.215096860388 1.7776706846424728 485.0 28.0 341.0 
280.0004548190485 13075.0 NaN 1537.5524382097544 1.517713460464163 488.0 24.0 346.0 
282.0004548190485 13060.0 NaN 1531.1342685370728 1.832208824605631 490.0 23.0 345.0 
284.0004548190485 13048.0 NaN 1531.16633266533 1.8644839998045595 485.0 28.0 340.0 
286.0001983480089 13013.0 NaN 1531.3079492317977 1.565233720386654 487.0 26.0 342.0 
288.0004548190485 13018.0 NaN 1531.169004676018 1.913789167360643 489.0 24.0 344.0 
290.0004548190485 13011.0 NaN 1534.265865063461 1.9367772493359654 482.0 28.0 341.0 
292.0004548190485 13013.0 NaN 1534.4849699398817 1.6025822276944481 485.0 26.0 343.0 
294.0004548190485 12998.0 NaN 1534.1990647962605 1.9566760841877238 485.0 24.0 345.0 
296.0001983480089 12951.0 NaN 1534.2231128924523 1.8994121955176089 481.0 28.0 341.0 
298.0004548190485 12930.0 NaN 1537.5150300601183 1.5071332063580516 484.0 26.0 344.0 
300.0004548190485 12909.0 NaN 1537.3279893119568 1.746651832672486 486.0 24.0 346.0 
302.0004548190485 12910.0 NaN 1543.5030060120253 1.7719956033905162 482.0 28.0 344.0 
304.0004548190485 12904.0 NaN 1537.6058784235113 1.4980290319546996 484.0 24.0 346.0 
306.0001983480089 12878.0 NaN 1537.4108216432887 1.7720291040504739 488.0 21.0 349.0 
308.0004548190485 12858.0 NaN 1543.4976619906477 1.7874675642952622 484.0 25.0 347.0 
310.0004548190485 12842.0 NaN 1537.621910487643 1.4579869292923113 487.0 23.0 347.0 
312.0004548190485 12841.0 NaN 1537.3814295257184 1.6965905863024544 485.0 21.0 349.0 
314.0004548190485 12827.0 NaN 1537.2932531730116 1.6942431300216443 482.0 25.0 345.0 
316.0001983480089 12800.0 NaN 1537.5390781563115 1.3984038730285224 487.0 23.0 347.0 
318.0004548190485 12800.0 NaN 1537.3012692050754 1.7420410602459455 489.0 21.0 349.0 
320.0004548190485 12783.0 NaN 1534.1803607214429 1.7208607551420596 484.0 25.0 344.0 
322.0004548190485 12755.0 NaN 1534.4529058116243 1.417323778710587 484.0 23.0 346.0 
324.0004548190485 12747.0 NaN 1537.3039412157636 1.7489369273613664 484.0 21.0 349.0 
326.0001983480089 12706.0 NaN 1537.2932531730116 1.7247009506564808 481.0 25.0 345.0 
328.0004548190485 12691.0 NaN 1540.625250501 1.430068639400178 483.0 23.0 348.0 
330.0004548190485 12690.0 NaN 1540.422177688709 1.7548560985449178 486.0 21.0 350.0 
332.0004548190485 12696.0 NaN 1537.327989311957 1.75648593749298 482.0 25.0 345.0 
334.0004548190485 12713.0 NaN 1537.4936539746182 1.4692179656847966 486.0 23.0 347.0 
336.0001983480089 12697.0 NaN 1531.2251169004667 1.7098314380206474 487.0 21.0 347.0 
338.0004548190485 12677.0 NaN 1531.1663326653302 1.7277210472751598 483.0 25.0 343.0 
340.0004548190485 12650.0 NaN 1531.4415497662 1.3820412730517353 485.0 23.0 345.0 
342.0004548190485 12661.0 NaN 1534.2872411489634 1.644927130345129 486.0 21.0 348.0 
344.000555406797 12670.0 NaN 1537.3066132264544 1.672041931656949 483.0 25.0 345.0 
346.0001983480089 12678.0 NaN 1537.5096860387453 1.368680214680034 486.0 23.0 347.0 
348.000555406797 12676.0 NaN 1534.150968603873 1.6942907863383734 489.0 21.0 348.0 
350.000555406797 12686.0 NaN 1534.2311289245158 1.700185661362826 485.0 25.0 344.0 
352.000555406797 12685.0 NaN 1531.3987975951911 1.395484513360226 488.0 23.0 345.0 
354.000555406797 12710.0 NaN 1527.9759519038087 1.7369020692143866 491.0 21.0 346.0 
356.0001983480089 12718.0 NaN 1528.146960587843 1.7449316640207733 487.0 25.0 342.0 
358.000555406797 12712.0 NaN 1528.4008016032067 1.3515270839801685 488.0 23.0 344.0 
360.000555406797 12708.0 NaN 1525.0634602538419 1.670080207667887 489.0 21.0 345.0 
362.000555406797 12698.0 NaN 1525.0180360721456 1.6511199830373404 486.0 25.0 341.0 
364.000555406797 12709.0 NaN 1522.0895123580485 1.38715437236494 491.0 23.0 342.0 
366.0001983480089 12705.0 NaN 1521.819639278557 1.6912136095612549 493.0 22.0 343.0 
368.000555406797 12708.0 NaN 1521.913159652637 1.6905772312640135 489.0 26.0 339.0 
370.000555406797 12719.0 NaN 1506.7494989979966 1.3783194589566283 490.0 24.0 336.0 
372.000555406797 12717.0 NaN 1506.5036740146968 1.6961424927844093 491.0 22.0 338.0 
374.000555406797 12722.0 NaN 1509.5818303273206 1.7244329998239634 489.0 26.0 335.0 
376.0001983480089 12716.0 NaN 1512.8764195056788 1.4501979543861583 491.0 24.0 338.0 
378.000555406797 12712.0 NaN 1512.6867067468274 1.8038964309328787 492.0 22.0 340.0 
380.000555406797 12708.0 NaN 1509.6219104876425 1.8172393664523396 488.0 26.0 335.0 
382.000555406797 12684.0 NaN 1506.7548430193726 1.5074197877342643 495.0 22.0 338.0 
384.0009270308328 12696.0 NaN 1509.6726786907152 1.8521119809544664 493.0 21.0 340.0 
386.0001983480089 12706.0 NaN 1512.7454909819635 1.9017581800667607 492.0 25.0 337.0 
388.0009270308328 12704.0 NaN 1515.93052772211 1.6063196196351492 496.0 21.0 342.0 
390.0009270308328 12683.0 NaN 1509.699398797594 1.93096644106025 496.0 21.0 340.0 
392.0009270308328 12693.0 NaN 1509.6325985303934 1.9168589964159588 491.0 25.0 336.0 
394.0009270308328 12700.0 NaN 1509.8917835671357 1.627238083831845 497.0 21.0 340.0 
396.0001983480089 12691.0 NaN 1512.7989311957251 1.9726547721387693 498.0 21.0 341.0 
398.0009270308328 12669.0 NaN 1512.6920507682023 1.9710129123106284 498.0 25.0 337.0 
400.0009270308328 12670.0 NaN 1506.7949231796918 1.6156594020937962 501.0 21.0 339.0 
402.0009270308328 12651.0 NaN 1506.6105544422182 1.8762135338768557 501.0 21.0 339.0 
404.0009270308328 12637.0 NaN 1512.7054108216448 1.8640907632149926 497.0 26.0 336.0 
406.0001983480089 12608.0 NaN 1512.9084836339357 1.5228300462843338 499.0 22.0 340.0 
408.0009270308328 12609.0 NaN 1518.8269873079485 1.8189746033084473 499.0 23.0 341.0 
410.0009270308328 12625.0 NaN 1525.0420841683363 1.7982530796758252 496.0 26.0 340.0 
412.0009270308328 12632.0 NaN 1525.2237808951243 1.477515252969133 501.0 21.0 345.0 
414.0009270308328 12627.0 NaN 1521.8623914495643 1.7613302758375493 500.0 22.0 343.0 
416.0001983480089 12599.0 NaN 1521.907815631264 1.7108705334732164 495.0 26.0 339.0 
418.0009270308328 12607.0 NaN 1525.1169004676005 1.4345760271019623 501.0 21.0 345.0 
420.0009270308328 12602.0 NaN 1512.6599866399454 1.7546326949904607 503.0 22.0 340.0 
422.0009270308328 12619.0 NaN 1512.7080828323303 1.7839081893663362 500.0 26.0 336.0 
424.0009270308328 12613.0 NaN 1509.8410153640625 1.4665230396714586 501.0 20.0 341.0 
426.0001983480089 12619.0 NaN 1509.5444221776897 1.7806094117786293 495.0 21.0 340.0 
428.00038481676296 12615.0 NaN 1512.758851035403 1.7771565747633313 491.0 26.0 336.0 
430.0009270308328 12633.0 NaN 1506.8002672010698 1.5434497441416921 495.0 22.0 338.0 
432.0009270308328 12612.0 NaN 1509.5978623914484 1.8353144496649325 494.0 23.0 338.0 
434.0009270308328 12600.0 NaN 1525.0501002004 1.777214742809064 491.0 27.0 339.0 
436.0001983480089 12617.0 NaN 1534.4635938543752 1.534142840633206 498.0 23.0 346.0 
438.0009270308328 12615.0 NaN 1531.0968603874426 1.768870542149989 498.0 26.0 342.0 
440.0009270308328 12619.0 NaN 1531.163660654643 1.8133128631632542 498.0 27.0 341.0 
442.0009270308328 12603.0 NaN 1540.630594522379 1.527405818035051 506.0 21.0 350.0 
444.0009270308328 12597.0 NaN 1537.2665330661334 1.8212492763767338 508.0 21.0 349.0 
446.0001983480089 12586.0 NaN 1540.3259853039426 1.7922529375022278 503.0 26.0 345.0 
448.0009270308328 12569.0 NaN 1543.700734802939 1.5069171700030732 509.0 21.0 351.0 
450.0009270308328 12568.0 NaN 1540.3981295925182 1.7541248521396093 510.0 21.0 350.0 
452.0009270308328 12563.0 NaN 1543.454909819639 1.737691209089736 503.0 27.0 345.0 
454.0009270308328 12573.0 NaN 1552.9271877087517 1.5018385234772773 511.0 20.0 355.0 
456.0001983480089 12568.0 NaN 1558.797595190382 1.8116413365453703 510.0 21.0 356.0 
458.0009270308328 12570.0 NaN 1555.7862391449546 1.8348175720830184 505.0 25.0 351.0 
460.0009270308328 12559.0 NaN 1555.981295925182 1.5410935483381363 510.0 20.0 356.0 
462.0009270308328 12555.0 NaN 1552.630594522379 1.8435814331902085 508.0 21.0 354.0 
464.0009270308328 12564.0 NaN 1549.6432865731454 1.8488610876234897 505.0 25.0 349.0 
466.0001983480089 12569.0 NaN 1546.8323313293272 1.5548806282778307 510.0 20.0 353.0 
468.0009270308328 12579.0 NaN 1546.4822979291907 1.8706781493788411 507.0 22.0 351.0 
470.0009270308328 12571.0 NaN 1540.4248496994 1.8700540133496024 505.0 25.0 346.0 
472.0009270308328 12540.0 NaN 1540.6412825651298 1.5516157257131018 508.0 20.0 351.0 
474.0009270308328 12533.0 NaN 1543.401469605879 1.8246285083214848 503.0 22.0 350.0 
476.0001983480089 12525.0 NaN 1537.2985971943906 1.8156278023917554 500.0 25.0 345.0 
478.0009270308328 12518.0 NaN 1540.5798263193062 1.5358104213984267 505.0 20.0 351.0 
480.0009270308328 12515.0 NaN 1540.3687374749484 1.7716712333497535 505.0 21.0 350.0 
482.0009270308328 12507.0 NaN 1537.3841015364067 1.7456961839294296 500.0 25.0 345.0 
484.0009270308328 12521.0 NaN 1531.3346693386784 1.486275588408068 506.0 20.0 348.0 
486.0001983480089 12512.0 NaN 1528.0213760855033 1.7945388388952646 499.0 21.0 346.0 
488.0009270308328 12501.0 NaN 1524.9966599866393 1.7510823795798358 492.0 25.0 341.0 
490.0009270308328 12495.0 NaN 1522.0387441549758 1.4634561348399404 497.0 20.0 345.0 
492.0009270308328 12498.0 NaN 1515.6793587174357 1.7713627770731681 496.0 21.0 342.0 
494.0009270308328 12515.0 NaN 1512.6546426185719 1.7853275672082076 492.0 25.0 337.0 
496.0001983480089 12508.0 NaN 1503.6125584502345 1.509595152418932 494.0 20.0 339.0 
498.0009270308328 12509.0 NaN 1506.3727454909817 1.7855154870394063 491.0 21.0 339.0 
500.0009270308328 12514.0 NaN 1506.5357381429537 1.8137395122582878 487.0 25.0 335.0 
502.0009270308328 12525.0 NaN 1506.6987307949244 1.5308699077239436 491.0 20.0 340.0 
504.0009270308328 12524.0 NaN 1503.3800935203735 1.8181669946823114 488.0 23.0 336.0 
506.0001983480089 12524.0 NaN 1500.42217768871 1.8168151722875208 486.0 25.0 333.0 
508.0009270308328 12525.0 NaN 1500.5290581162333 1.5694897292931886 496.0 19.0 339.0 
510.0009270308328 12531.0 NaN 1503.4335337341356 1.862092562243894 495.0 20.0 339.0 
512.0009270308328 12529.0 NaN 1503.4949899799606 1.8548004297753862 492.0 24.0 335.0 
514.0009270308328 12521.0 NaN 1500.630594522379 1.563548365575831 496.0 19.0 339.0 
516.0001983480089 12504.0 NaN 1494.233800935203 1.8283920296792973 493.0 19.0 337.0 
518.0009270308328 12498.0 NaN 1485.108884435537 1.7882649815112217 488.0 23.0 330.0 
520.0009270308328 12524.0 NaN 1485.2291249165 1.4559385506846514 490.0 18.0 335.0 
522.0008991447737 12535.0 NaN 1481.9104876419515 1.7417947050390556 487.0 19.0 333.0 
524.0009270308328 12538.0 NaN 1469.637942551771 1.7707975208726827 487.0 19.0 329.0 
526.0001983480089 12535.0 NaN 1466.8162992651978 1.4772233287600853 487.0 17.0 330.0 
528.0009270308328 12539.0 NaN 1469.6673346693376 1.7378105276932168 484.0 18.0 330.0 
530.0009270308328 12551.0 NaN 1475.8289913159647 1.7036215114631859 483.0 18.0 332.0 
532.0009270308328 12574.0 NaN 1469.8704074816292 1.4229939499163564 487.0 16.0 332.0 
534.0009270308328 12597.0 NaN 1472.6920507682023 1.7209156332144975 487.0 19.0 330.0 
536.0001983480089 12605.0 NaN 1472.8283233132927 1.6670442384873767 488.0 19.0 330.0 
538.0009270308328 12605.0 NaN 1469.862391449565 1.396958777901096 495.0 15.0 333.0 
540.0009270308328 12614.0 NaN 1469.5951903807625 1.6776809763336986 492.0 18.0 330.0 
542.0009270308328 12620.0 NaN 1472.772211088845 1.6347797206629187 489.0 20.0 329.0 
544.0009270308328 12649.0 NaN 1466.7975951903811 1.389304017689344 493.0 18.0 329.0 
546.0001983480089 12645.0 NaN 1469.6406145624576 1.7078126462888379 489.0 21.0 327.0 
548.0009270308328 12648.0 NaN 1469.704742818972 1.7248119908235264 491.0 18.0 330.0 
550.0009270308328 12679.0 NaN 1469.7929191716757 1.4946150138529362 491.0 18.0 330.0 
552.0009270308328 12683.0 NaN 1475.7969271877091 1.821457494816713 488.0 20.0 330.0 
554.0009270308328 12707.0 NaN 1472.809619238476 1.8417430284957492 492.0 18.0 331.0 
556.0001983480089 12703.0 NaN 1472.9512358049442 1.547652171887108 493.0 18.0 331.0 
558.0009270308328 12695.0 NaN 1472.7428189712755 1.869135010087616 492.0 20.0 329.0 
560.0009270308328 12697.0 NaN 1466.613226452906 1.888179128291527 489.0 18.0 329.0 
562.0009270308328 12691.0 NaN 1466.7735470941886 1.6530731447196523 491.0 18.0 329.0 
564.0008991447737 12712.0 NaN 1466.5410821643281 2.0123565841378395 487.0 20.0 327.0 
566.0001983480089 12739.0 NaN 1469.6753507014025 1.9889167293224588 489.0 18.0 330.0 
568.0009270308328 12686.0 NaN 1472.8603874415492 1.6685163760510466 491.0 18.0 331.0 
570.0009270308328 12695.0 NaN 1472.665330661322 1.90247854172487 488.0 21.0 328.0 
572.0009270308328 12712.0 NaN 1475.8770875083492 1.8919944764835586 493.0 18.0 332.0 
574.0009270308328 12741.0 NaN 1475.9759519038082 1.5995349074058982 498.0 14.0 336.0 
576.0001983480089 12739.0 NaN 1478.8350033400127 1.9043214738437966 496.0 16.0 335.0 
578.0009270308328 12727.0 NaN 1475.9011356045428 1.8274097472273674 500.0 14.0 336.0 
580.0009270308328 12736.0 NaN 1479.0968603874423 1.55407906448816 501.0 14.0 337.0 
582.0009270308328 12745.0 NaN 1472.7080828323308 1.8913939220184313 496.0 16.0 333.0 
584.0009270308328 12773.0 NaN 1488.20574482298 1.921541314305016 500.0 14.0 340.0 
586.0001983480089 12814.0 NaN 1485.2585170340694 1.629670816394862 505.0 14.0 339.0 
588.0009270308328 12813.0 NaN 1481.9532398129604 1.8752984508789785 503.0 16.0 336.0 
590.0009270308328 12821.0 NaN 1485.0688042752179 1.9058066498440567 505.0 14.0 339.0 
592.0009270308328 12786.0 NaN 1485.210420841683 1.625788791411344 509.0 14.0 339.0 
594.0009270308328 12812.0 NaN 1484.9565798263184 1.9765567712115146 506.0 16.0 337.0 
596.0001983480089 12850.0 NaN 1484.9859719438887 2.023146353926645 508.0 14.0 339.0 
598.0009270308328 12817.0 NaN 1488.1736806947242 1.756039437388517 510.0 14.0 340.0 
600.0009270308328 12807.0 NaN 1497.2371409485636 2.095418804504711 511.0 16.0 341.0 
602.0009270308328 12773.0 NaN 1500.4114896459578 2.0693635657050318 515.0 14.0 344.0 
604.0009270308328 12830.0 NaN 1500.488977955911 1.7378277082001672 517.0 15.0 343.0 
606.0001983480089 12857.0 NaN 1494.207080828324 2.052838306039997 514.0 17.0 339.0 
608.0009270308328 12838.0 NaN 1491.1529726118908 1.9641956958713156 517.0 14.0 341.0 
610.0009270308328 12827.0 NaN 1494.4582498329999 1.6855425172051195 517.0 14.0 342.0 
612.0009270308328 12830.0 NaN 1497.319973279892 1.9028494250936052 509.0 17.0 340.0 
614.0009270308328 12823.0 NaN 1500.4382097528382 1.794700769169085 510.0 15.0 343.0 
616.0001983480089 12868.0 NaN 1512.9138276553101 1.567249525737988 516.0 14.0 348.0 
618.0009270308328 12876.0 NaN 1512.6840347361383 1.9126218457003448 511.0 17.0 345.0 
620.0009270308328 12888.0 NaN 1509.5978623914486 1.9324834658435757 513.0 14.0 347.0 
622.0009270308328 12840.0 NaN 1509.7875751503 1.6187633628794398 515.0 14.0 347.0 
624.0009270308328 12845.0 NaN 1509.6406145624576 1.838219929054712 511.0 15.0 346.0 
626.0001983480089 12906.0 NaN 1515.8076152304618 1.8896581285762355 512.0 13.0 350.0 
628.0009270308328 12922.0 NaN 1519.0113560454254 1.6693576735176283 510.0 16.0 348.0 
630.0009270308328 12956.0 NaN 1518.9231796927181 1.9973088574515594 510.0 20.0 344.0 
632.0009270308328 12948.0 NaN 1518.8804275217092 1.872803101203102 514.0 18.0 346.0 
634.0009270308328 12951.0 NaN 1522.0681362725454 1.5668700670560487 515.0 19.0 346.0 
636.0001983480089 12951.0 NaN 1525.0955243820981 1.9049437451140356 510.0 22.0 344.0 
638.0009270308328 12930.0 NaN 1525.002004008017 1.927491726967399 515.0 20.0 346.0 
640.0009270308328 12952.0 NaN 1522.1082164328648 1.7008319819384137 517.0 20.0 345.0 
642.0009270308328 12938.0 NaN 1518.9098196392797 1.962743872473303 508.0 24.0 340.0 
644.0009270308328 12928.0 NaN 1518.853707414829 1.972270557626684 513.0 18.0 346.0 
646.0001983480089 12892.0 NaN 1522.2364729458911 1.6772067102294432 510.0 18.0 347.0 
648.0009270308328 12897.0 NaN 1518.9873079492334 2.0004212307536897 508.0 20.0 344.0 
650.0009270308328 12935.0 NaN 1518.9338677354717 2.000966728696449 508.0 19.0 345.0 
652.0009270308328 12909.0 NaN 1522.150968603874 1.672075622390902 504.0 23.0 342.0 
654.0009270308328 12914.0 NaN 1525.1195724782908 1.8893616698477884 499.0 25.0 341.0 
656.0001983480089 12913.0 NaN 1528.157648630594 1.865238954413203 506.0 18.0 349.0 
658.0009270308328 12899.0 NaN 1528.3072812291257 1.6115347969817184 505.0 19.0 348.0 
660.0009270308328 12896.0 NaN 1528.2538410153636 1.8976308046534478 501.0 21.0 346.0 
662.0009270308328 12889.0 NaN 1534.2925851703396 1.8245967149629452 501.0 19.0 350.0 
664.0009270308328 12902.0 NaN 1537.5257181028728 1.5895951401388884 499.0 20.0 350.0 
#####################################################################
# End of data export. Simulation finished at: 2019-03-15T03:09+0000 #
#####################################################################
