#####################################################################
# Alchemist log file - simulation started at: 2019-03-16T06:26+0000 #
#####################################################################
# seed = 8.0, bandwidth = 316227.76601683797, propagationDelay = 0.01, baserange = 10.0
#
# The columns have the following meaning: 
# time neighbor_count[Sum] <value>@neighbor_count[Sum] packet_size[Mean] mean_delay[Mean] crowd[Sum] overcrowded[Sum] risk[Sum] 
0.0 NaN NaN NaN NaN NaN NaN NaN 
2.0004015655684535 486.0 NaN 4990.968603874416 0.5079397681812423 1497.0 0.0 1497.0 
4.0004015655684535 486.0 NaN 4991.746158984636 0.507921110040319 1497.0 0.0 1497.0 
6.000198348008885 486.0 NaN 4990.690714762859 0.5079352816119711 1497.0 0.0 1497.0 
8.000401565568453 486.0 NaN 4989.889111556447 0.5079524099132353 1497.0 0.0 1497.0 
10.000401565568453 486.0 NaN 4989.715430861724 0.5079571301396898 1497.0 0.0 1497.0 
12.000401565568453 486.0 NaN 4989.774215096861 0.5079554520243448 1497.0 0.0 1497.0 
14.000401565568453 486.0 NaN 4989.7207748831 0.5079559860979052 1497.0 0.0 1497.0 
16.000198348008887 488.0 NaN 4989.643286573147 0.507601507248398 1497.0 0.0 1497.0 
18.000401565568456 488.0 NaN 4989.528390113561 0.5076025648429164 1497.0 0.0 1497.0 
20.000401565568456 488.0 NaN 4989.653974615899 0.5208903616908769 1497.0 0.0 1497.0 
22.000401565568456 484.0 NaN 4989.539078156313 0.5110467017827998 1497.0 0.0 1497.0 
24.000401565568456 484.0 NaN 4989.59786239145 0.5143098033925347 1497.0 0.0 1497.0 
26.000198348008887 486.0 NaN 4989.531062124249 0.5060916374793447 1497.0 0.0 1497.0 
28.000401565568456 490.0 NaN 4989.656646626587 0.5080302302589648 1497.0 0.0 1497.0 
30.000401565568456 490.0 NaN 4989.608550434202 0.5080315426390976 1497.0 0.0 1497.0 
32.00040156556845 494.0 NaN 4989.62458249833 0.5104518041125414 1497.0 0.0 1497.0 
34.00040156556845 502.0 NaN 4989.576486305945 0.5194764548984416 1497.0 0.0 1497.0 
36.00019834800889 503.0 NaN 4989.619238476954 0.5138332523076001 1497.0 0.0 1497.0 
38.00040156556845 503.0 NaN 4989.688710754843 0.5212905501607964 1497.0 0.0 1497.0 
40.00040156556845 502.0 NaN 4989.744822979292 0.5211827428479233 1497.0 0.0 1497.0 
42.00040156556845 506.0 NaN 4989.616566466266 0.5148288485160188 1497.0 0.0 1497.0 
44.00040156556845 515.0 NaN 4989.723446893788 0.5264690899244032 1497.0 0.0 1497.0 
46.00019834800889 515.0 NaN 4989.731462925852 0.5226631501341015 1497.0 0.0 1497.0 
48.00040156556845 518.0 NaN 4989.768871075485 0.5330633641497734 1497.0 0.0 1497.0 
50.00040156556845 519.0 NaN 4989.661990647963 0.5097760278052769 1497.0 0.0 1497.0 
52.00040156556845 530.0 NaN 4989.832999331998 0.5473031988662034 1497.0 0.0 1497.0 
54.00040156556845 521.0 NaN 4989.851703406814 0.5611575299794074 1497.0 0.0 1497.0 
56.00019834800889 502.0 NaN 4989.806279225117 0.5159139964484876 1497.0 0.0 1497.0 
58.00040156556845 500.0 NaN 4989.616566466266 0.5149534836124672 1497.0 0.0 1497.0 
60.00040156556845 502.0 NaN 4989.686038744155 0.5182507045411827 1497.0 0.0 1497.0 
62.000374102676304 504.0 NaN 605.8329993319973 0.5188004355877801 303.0 0.0 67.0 
64.0003741026763 503.0 NaN 605.7581830327317 0.5302845393524842 303.0 0.0 67.0 
66.0001983480089 495.0 NaN 608.8176352705409 0.5098496503699278 299.0 0.0 68.0 
68.00037410267632 488.0 NaN 608.830995323982 0.4925816516932157 284.0 0.0 68.0 
70.00037410267632 490.0 NaN 608.8256513026046 0.4925555625820556 235.0 0.0 68.0 
72.00037410267632 495.0 NaN 614.923179692718 0.5105742837196484 204.0 0.0 70.0 
74.00037410267632 497.0 NaN 614.9311957247818 0.5199944849474804 189.0 0.0 70.0 
76.0001983480089 490.0 NaN 614.8991315965271 0.5045490281984394 167.0 0.0 70.0 
78.00037410267632 487.0 NaN 614.9018036072138 0.5094229425183096 154.0 0.0 70.0 
80.00037410267632 486.0 NaN 617.9826319305271 0.5020116811820031 148.0 0.0 71.0 
82.00037410267632 488.0 NaN 617.947895791583 0.515730580048359 148.0 0.0 71.0 
84.00037410267632 486.0 NaN 617.9265197060785 0.5005007601989928 145.0 0.0 71.0 
86.0001983480089 487.0 NaN 617.9158316633273 0.5024069547730745 140.0 0.0 71.0 
88.00037410267632 486.0 NaN 617.9158316633273 0.503158449305919 140.0 0.0 71.0 
90.00037410267632 488.0 NaN 617.9158316633273 0.4944382881999192 138.0 0.0 71.0 
92.00037410267632 487.0 NaN 617.9158316633273 0.5083773538002445 137.0 0.0 71.0 
94.00037410267632 483.0 NaN 614.8563794255184 0.524593364168615 133.0 0.0 70.0 
96.0001983480089 479.0 NaN 614.851035404141 0.49566212689883804 131.0 0.0 70.0 
98.00037410267632 480.0 NaN 611.7835671342681 0.5093384462457644 131.0 0.0 69.0 
100.00037410267632 479.0 NaN 611.7782231128921 0.503592560363549 130.0 0.0 69.0 
102.00037410267632 483.0 NaN 611.7782231128921 0.49530684197871117 129.0 0.0 69.0 
104.00037410267632 490.0 NaN 614.851035404141 0.5015707769270759 130.0 0.0 70.0 
106.0001983480089 490.0 NaN 614.8590514362057 0.5060648623964481 126.0 0.0 70.0 
108.00037410267632 487.0 NaN 614.8590514362057 0.5072547603908033 124.0 0.0 70.0 
110.00037410267632 486.0 NaN 611.7942551770212 0.5016210424796382 122.0 0.0 69.0 
112.00037410267632 488.0 NaN 605.6646626586504 0.49376899218167764 121.0 0.0 67.0 
114.00037410267632 490.0 NaN 596.4809619238474 0.529376127869082 120.0 0.0 64.0 
116.0001983480089 482.0 NaN 593.4001336005344 0.5216302588375935 120.0 0.0 63.0 
118.00037410267632 476.0 NaN 593.4108216432863 0.500818633529284 120.0 0.0 63.0 
120.00037410267632 478.0 NaN 590.3460253841016 0.5075242881330193 120.0 0.0 62.0 
122.00037410267632 482.0 NaN 590.3700734802939 0.5033046967674923 119.0 0.0 62.0 
124.00037410267632 484.0 NaN 587.297261189045 0.4973218377126079 119.0 0.0 61.0 
126.0001983480089 484.0 NaN 587.2812291249161 0.5141228895255606 120.0 0.0 61.0 
128.00037410267632 482.0 NaN 587.2705410821641 0.4930265479613873 120.0 0.0 61.0 
130.0003741026763 491.0 NaN 587.2758851035408 0.4975873311462 122.0 0.0 61.0 
132.0003741026763 498.0 NaN 587.2705410821641 0.5133474616202368 118.0 0.0 61.0 
134.0003741026763 500.0 NaN 590.3353373413495 0.49613436159657764 116.0 0.0 62.0 
136.0001983480089 500.0 NaN 587.2705410821641 0.499373076059363 115.0 0.0 61.0 
138.0003741026763 498.0 NaN 587.2705410821641 0.49213069361858963 115.0 0.0 61.0 
140.0003741026763 503.0 NaN 593.4375417501666 0.5039187029328903 116.0 0.0 63.0 
142.0003741026763 507.0 NaN 599.5965263861051 0.5073505971647413 119.0 0.0 65.0 
144.0003741026763 508.0 NaN 602.6773547094188 0.499536303858872 119.0 0.0 66.0 
146.0001983480089 510.0 NaN 599.5938543754178 0.5001236295193097 120.0 0.0 65.0 
148.0003741026763 511.0 NaN 599.5591182364726 0.4934910631525831 120.0 0.0 65.0 
150.0003741026763 517.0 NaN 599.5430861723449 0.5064488162550841 118.0 0.0 65.0 
152.0003741026763 519.0 NaN 602.642618570474 0.5170246659608201 119.0 0.0 66.0 
154.0003741026763 507.0 NaN 602.6773547094188 0.5197770913634863 118.0 0.0 66.0 
156.0001983480089 497.0 NaN 602.6292585170345 0.49947205411999285 118.0 0.0 66.0 
158.0003741026763 499.0 NaN 602.6346025384096 0.4941381547816738 117.0 0.0 66.0 
160.0003741026763 505.0 NaN 605.6753507014024 0.5296216523061664 120.0 0.0 67.0 
162.0003741026763 497.0 NaN 605.6860387441546 0.5402496527617859 124.0 0.0 67.0 
164.0003741026763 490.0 NaN 605.7341349365403 0.497965077677976 126.0 0.0 67.0 
166.0001983480089 492.0 NaN 605.6913827655312 0.5022485339905842 126.0 0.0 67.0 
168.0003741026763 491.0 NaN 605.6753507014024 0.5027077299187752 126.0 0.0 67.0 
170.0003741026763 496.0 NaN 605.6940547762189 0.5215505843846169 128.0 0.0 67.0 
172.0003741026763 492.0 NaN 605.6940547762189 0.5175001444203844 129.0 0.0 67.0 
174.0003741026763 494.0 NaN 605.6887107548431 0.49575513853170194 127.0 0.0 67.0 
176.0001983480089 497.0 NaN 602.680026720107 0.5273168853039457 126.0 0.0 66.0 
178.0003741026763 492.0 NaN 605.6887107548429 0.5164370598882271 124.0 0.0 67.0 
180.0003741026763 488.0 NaN 605.678022712091 0.5373797539453768 125.0 0.0 67.0 
182.0003741026763 481.0 NaN 605.6753507014024 0.5245182884348497 124.0 0.0 67.0 
184.0003741026763 480.0 NaN 608.7481629926518 0.4986278827545508 122.0 0.0 68.0 
186.0001983480089 480.0 NaN 608.7321309285231 0.4919139872885085 121.0 0.0 68.0 
188.0003741026763 485.0 NaN 608.7481629926518 0.49017706803497213 120.0 0.0 68.0 
190.0003741026763 487.0 NaN 608.7294589178359 0.5183617232462946 120.0 0.0 68.0 
192.0003741026763 490.0 NaN 608.7134268537072 0.5052651598343688 122.0 0.0 68.0 
194.0003741026763 493.0 NaN 611.8289913159651 0.5036551657880735 124.0 0.0 69.0 
196.0001983480089 494.0 NaN 614.907147628591 0.493259115164361 123.0 0.0 70.0 
198.0003741026763 501.0 NaN 624.1202404809617 0.5032367137068117 123.0 0.0 73.0 
200.0003741026763 503.0 NaN 621.0794923179686 0.49660125140723477 123.0 0.0 72.0 
202.0003741026763 507.0 NaN 617.9853039412156 0.5070251657897026 122.0 0.0 71.0 
204.0003741026763 510.0 NaN 621.0554442217773 0.5204725637424165 120.0 0.0 72.0 
206.0001983480089 515.0 NaN 627.2384769539077 0.5043665312766487 121.0 0.0 74.0 
208.0003741026763 512.0 NaN 627.2331329325318 0.5115677175756883 124.0 0.0 74.0 
210.0003741026763 515.0 NaN 627.2010688042755 0.5249465662856234 124.0 0.0 74.0 
212.0003741026763 509.0 NaN 624.1442885771546 0.5357947752595462 123.0 0.0 73.0 
214.0003741026763 504.0 NaN 617.998663994656 0.5091436491907942 123.0 0.0 71.0 
216.0001983480089 500.0 NaN 618.0120240480958 0.5020190486856209 122.0 0.0 71.0 
218.0003741026763 502.0 NaN 617.9799599198393 0.4991644776708577 120.0 0.0 71.0 
220.0003741026763 503.0 NaN 614.8991315965271 0.5190607874570513 121.0 0.0 70.0 
222.0003741026763 498.0 NaN 614.8777555110227 0.531335243663991 121.0 0.0 70.0 
224.0003741026763 494.0 NaN 611.8102872411498 0.5025649848414377 120.0 0.0 69.0 
226.0001983480089 494.0 NaN 611.8263193052774 0.5178654476120879 119.0 0.0 69.0 
228.0003741026763 493.0 NaN 611.8263193052774 0.5108619277890791 120.0 0.0 69.0 
230.0003741026763 496.0 NaN 614.9124916499665 0.5346088543827514 121.0 0.0 70.0 
232.0003741026763 489.0 NaN 614.8884435537744 0.5024461158173381 119.0 0.0 70.0 
234.0003741026763 493.0 NaN 614.8590514362062 0.5074770675686326 118.0 0.0 70.0 
236.0001983480089 498.0 NaN 614.8643954575818 0.5007622895310133 114.0 0.0 70.0 
238.0003741026763 507.0 NaN 614.8724114896454 0.5201424926268343 116.0 0.0 70.0 
240.0003741026763 511.0 NaN 617.9959919839682 0.536356353978045 119.0 0.0 71.0 
242.0003741026763 503.0 NaN 618.009352037409 0.49815865014733746 118.0 0.0 71.0 
244.0003741026763 506.0 NaN 618.0253841015362 0.4925517292231069 118.0 0.0 71.0 
246.0001983480089 512.0 NaN 618.0307281229136 0.5318645739687826 119.0 0.0 71.0 
248.0003741026763 511.0 NaN 624.1843687374741 0.5184933626865941 120.0 0.0 73.0 
250.0003741026763 508.0 NaN 624.1870407481637 0.5283745615910188 120.0 0.0 73.0 
252.0003741026763 507.0 NaN 624.1629926519714 0.508075787308554 117.0 0.0 73.0 
254.0003741026763 516.0 NaN 624.093520374082 0.5191524570597009 119.0 0.0 73.0 
256.0001983480089 510.0 NaN 624.1068804275228 0.544438850214295 119.0 0.0 73.0 
258.0003741026763 502.0 NaN 624.1229124916499 0.5359457076087347 118.0 0.0 73.0 
260.0003741026763 489.0 NaN 624.1469605878423 0.5118871634455282 116.0 0.0 73.0 
262.0003741026763 491.0 NaN 624.0641282565138 0.5024129446572809 116.0 0.0 73.0 
264.0003741026763 492.0 NaN 624.0748162992651 0.5240634305319372 116.0 0.0 73.0 
266.0001983480089 488.0 NaN 624.061456245826 0.5041059605384339 115.0 0.0 73.0 
268.0003741026763 497.0 NaN 627.1289245156987 0.5118089930026818 117.0 0.0 74.0 
270.0003741026763 495.0 NaN 627.1342685370739 0.49924230254751767 119.0 0.0 74.0 
272.0003741026763 495.0 NaN 620.9832999332001 0.5052609849250296 117.0 0.0 72.0 
274.0003741026763 496.0 NaN 620.9993319973272 0.507321569108325 117.0 0.0 72.0 
276.0001983480089 503.0 NaN 617.9185036740136 0.5133831365780981 118.0 0.0 71.0 
278.0003741026763 506.0 NaN 617.923847695391 0.5117711127058099 117.0 0.0 71.0 
280.0003741026763 503.0 NaN 611.8049432197727 0.5041741620491526 116.0 0.0 69.0 
282.0003741026763 500.0 NaN 611.7782231128926 0.5111849354922507 114.0 0.0 69.0 
284.0003741026763 505.0 NaN 611.7942551770208 0.5361172474655578 114.0 0.0 69.0 
286.0001983480089 497.0 NaN 608.7134268537071 0.5151284656673951 112.0 0.0 68.0 
288.0003741026763 494.0 NaN 605.6459585838345 0.5143157675667074 112.0 0.0 67.0 
290.0003741026763 495.0 NaN 599.5217100868412 0.4960287830840036 112.0 0.0 65.0 
292.0003741026763 496.0 NaN 599.5270541082162 0.5032318007209416 112.0 0.0 65.0 
294.0003741026763 496.0 NaN 599.5430861723453 0.5324497703071894 112.0 0.0 65.0 
296.0001983480089 492.0 NaN 599.5270541082162 0.5055721506931123 111.0 0.0 65.0 
298.0003741026763 499.0 NaN 605.7181028724119 0.5173332960044357 113.0 0.0 67.0 
300.0003741026763 490.0 NaN 602.6533066132272 0.5256830212963584 113.0 0.0 66.0 
302.0003741026763 477.0 NaN 602.645290581162 0.5282535524521631 112.0 0.0 66.0 
304.0003741026763 472.0 NaN 602.6346025384091 0.5105095000609033 109.0 0.0 66.0 
306.0001983480089 475.0 NaN 602.60788243153 0.5102765543965948 108.0 0.0 66.0 
308.0003741026763 477.0 NaN 602.615898463594 0.5149457227959252 109.0 0.0 66.0 
310.0003741026763 472.0 NaN 605.7341349365411 0.4990365443361734 109.0 0.0 67.0 
312.0003741026763 472.0 NaN 605.7100868403471 0.5098471097163209 109.0 0.0 67.0 
314.0003741026763 475.0 NaN 605.7100868403471 0.5154763770333003 110.0 0.0 67.0 
316.0001983480089 472.0 NaN 602.5998663994653 0.5109749687073418 109.0 0.0 66.0 
318.0003741026763 475.0 NaN 587.2464929859726 0.5223683600005592 109.0 0.0 61.0 
320.0003741026763 472.0 NaN 587.2625250501 0.5040526604085042 110.0 0.0 61.0 
322.0003741026763 472.0 NaN 587.2705410821638 0.5008713101847115 110.0 0.0 61.0 
324.0003741026763 472.0 NaN 587.2678690714771 0.5092218864189343 110.0 0.0 61.0 
326.0001983480089 473.0 NaN 587.2518370073478 0.5273400750346606 108.0 0.0 61.0 
328.0003741026763 472.0 NaN 587.2518370073478 0.5265035480055468 106.0 0.0 61.0 
330.0003741026763 471.0 NaN 587.2464929859725 0.5105168488940103 104.0 0.0 61.0 
332.0003741026763 473.0 NaN 587.2331329325318 0.493711266029481 104.0 0.0 61.0 
334.0003741026763 479.0 NaN 587.2277889111547 0.5231424747205602 104.0 0.0 61.0 
336.0001983480089 475.0 NaN 584.1629926519704 0.5190874193202228 103.0 0.0 60.0 
338.0003741026763 485.0 NaN 593.4001336005341 0.5060159133160134 108.0 0.0 63.0 
340.0003741026763 486.0 NaN 593.4054776219108 0.5055585498276954 111.0 0.0 63.0 
342.0003741026763 488.0 NaN 593.4081496325982 0.5130191713860499 111.0 0.0 63.0 
344.0003741026763 491.0 NaN 596.46492985972 0.5243948603611571 111.0 0.0 64.0 
346.0001983480089 483.0 NaN 593.394789579159 0.5163553782778003 111.0 0.0 63.0 
348.0003741026763 489.0 NaN 590.3246492985976 0.5160815245093894 111.0 0.0 62.0 
350.0003741026763 485.0 NaN 590.3246492985976 0.5172764695193536 110.0 0.0 62.0 
352.0003741026763 481.0 NaN 587.2384769539073 0.5297201386641294 110.0 0.0 61.0 
354.0003741026763 482.0 NaN 587.2331329325318 0.49991007638920715 109.0 0.0 61.0 
356.0001983480089 484.0 NaN 587.2331329325318 0.5244366837533745 106.0 0.0 61.0 
358.0003741026763 484.0 NaN 587.2545090180365 0.5181983485291278 106.0 0.0 61.0 
360.0003741026763 478.0 NaN 581.1275885103546 0.5070393985092281 104.0 0.0 59.0 
362.0003741026763 475.0 NaN 578.0360721442887 0.5048644418063981 104.0 0.0 58.0 
364.0003741026763 474.0 NaN 578.0360721442887 0.5001866587748298 103.0 0.0 58.0 
366.0001983480089 474.0 NaN 578.030728122913 0.5038044240512709 103.0 0.0 58.0 
368.0003741026763 476.0 NaN 578.0521042084166 0.5104999782762717 104.0 0.0 58.0 
370.0003741026763 477.0 NaN 581.140948563794 0.5345059894495938 104.0 0.0 59.0 
372.0003741026763 470.0 NaN 581.1489645958584 0.5078985552656359 103.0 0.0 59.0 
374.0003741026763 473.0 NaN 581.138276553106 0.5192015902197594 102.0 0.0 59.0 
376.0001983480089 471.0 NaN 581.1275885103545 0.5001363617513301 100.0 0.0 59.0 
378.0003741026763 484.0 NaN 587.2839011356045 0.5122877528160688 104.0 0.0 61.0 
380.0003741026763 476.0 NaN 587.3132932531727 0.5230928339578262 103.0 0.0 61.0 
382.0003741026763 465.0 NaN 587.2945891783568 0.5235700403881554 103.0 0.0 61.0 
384.0003741026763 459.0 NaN 587.2945891783568 0.5306212211288124 103.0 0.0 61.0 
386.0001983480089 455.0 NaN 587.2999331997323 0.5046699175551843 103.0 0.0 61.0 
388.0003741026763 464.0 NaN 587.3052772211091 0.5141386333709009 104.0 0.0 61.0 
390.0003741026763 469.0 NaN 587.3453573814295 0.5054970533395562 104.0 0.0 61.0 
392.0003741026763 474.0 NaN 587.3052772211091 0.49941425233186565 105.0 0.0 61.0 
394.0003741026763 484.0 NaN 596.4863059452229 0.5264601734872678 110.0 0.0 64.0 
396.0001983480089 480.0 NaN 599.6072144288573 0.503913057945734 112.0 0.0 65.0 
398.0003741026763 486.0 NaN 599.6125584502338 0.5485587240621083 112.0 0.0 65.0 
400.0003741026763 473.0 NaN 596.5156980627925 0.5074845519717639 109.0 0.0 64.0 
402.0003741026763 474.0 NaN 596.4836339345361 0.5118322987199017 109.0 0.0 64.0 
404.0003741026763 479.0 NaN 605.707414829659 0.5476404144629555 110.0 0.0 67.0 
406.0001983480089 469.0 NaN 605.7341349365405 0.5212617155712983 111.0 0.0 67.0 
408.0003741026763 471.0 NaN 605.7127588510359 0.5075574980305354 112.0 0.0 67.0 
410.0003741026763 476.0 NaN 605.7020708082832 0.5024207833524356 113.0 0.0 67.0 
412.0003741026763 481.0 NaN 605.6860387441545 0.508887555157961 113.0 0.0 67.0 
414.0003741026763 476.0 NaN 605.667334669339 0.5079231305303172 114.0 0.0 67.0 
416.0001983480089 476.0 NaN 611.8423513694049 0.49805728963585905 114.0 0.0 69.0 
418.0003741026763 490.0 NaN 614.9498997995997 0.5168936022937658 114.0 0.0 70.0 
420.0003741026763 495.0 NaN 618.0146960587846 0.5234551358540253 117.0 0.0 71.0 
422.0003741026763 493.0 NaN 621.0901803607213 0.5167115311437782 117.0 0.0 72.0 
424.0003741026763 499.0 NaN 627.2251169004684 0.5258720795263601 119.0 0.0 74.0 
426.0001983480089 500.0 NaN 630.3032732130923 0.49959616509605065 125.0 0.0 75.0 
428.0003741026763 499.0 NaN 630.2792251168999 0.5196907093707032 126.0 0.0 75.0 
430.0003741026763 491.0 NaN 630.2818971275877 0.5269142511913006 127.0 0.0 75.0 
432.0003741026763 484.0 NaN 630.2631930527729 0.510221117054727 126.0 0.0 75.0 
434.0003741026763 482.0 NaN 636.4008016032057 0.530333371570242 126.0 0.0 77.0 
436.0001983480089 479.0 NaN 636.387441549767 0.5080558334868417 126.0 0.0 77.0 
438.0003741026763 480.0 NaN 636.3714094856373 0.5316291971771243 127.0 0.0 77.0 
440.0003741026763 477.0 NaN 627.201068804276 0.5126246342394618 126.0 0.0 74.0 
442.0003741026763 481.0 NaN 627.2037408149637 0.50531162033365 126.0 0.0 74.0 
444.0003741026763 481.0 NaN 627.1690046760181 0.5456931952291016 127.0 0.0 74.0 
446.0001983480089 473.0 NaN 630.2338009352045 0.520561470132234 127.0 0.0 75.0 
448.0003741026763 475.0 NaN 630.2231128924512 0.514070106075463 125.0 0.0 75.0 
450.0003741026763 475.0 NaN 630.2044088176365 0.520601209190798 124.0 0.0 75.0 
452.0003741026763 471.0 NaN 633.2478289913173 0.525796860172768 122.0 0.0 76.0 
454.0003741026763 473.0 NaN 636.3259853039409 0.5442235315578053 124.0 0.0 77.0 
456.0001983480089 480.0 NaN 636.3794255177012 0.5169965352093712 125.0 0.0 77.0 
458.0003741026763 489.0 NaN 639.4468937875761 0.5165189830074329 126.0 0.0 78.0 
460.0003741026763 490.0 NaN 636.3874415497669 0.5138494669638388 125.0 0.0 77.0 
462.0003741026763 487.0 NaN 636.3740814963262 0.5248970319749461 125.0 0.0 77.0 
464.0003741026763 485.0 NaN 636.3767535070135 0.5345330839505997 125.0 0.0 77.0 
466.0001983480089 482.0 NaN 636.3633934535727 0.5345837365517263 123.0 0.0 77.0 
468.0003741026763 477.0 NaN 636.3340013360046 0.5269143895152814 123.0 0.0 77.0 
470.0003741026763 466.0 NaN 636.331329325318 0.5210284345687383 122.0 0.0 77.0 
472.0003741026763 462.0 NaN 636.3366733466939 0.5000606545444655 122.0 0.0 77.0 
474.0003741026763 464.0 NaN 633.261189044756 0.5257092012400488 122.0 0.0 76.0 
476.0001983480089 463.0 NaN 627.152972611891 0.4968754151384287 121.0 0.0 74.0 
478.0003741026763 469.0 NaN 627.1048764195044 0.4988511575396237 123.0 0.0 74.0 
480.0003741026763 469.0 NaN 627.1182364729453 0.5059061966391071 124.0 0.0 74.0 
482.0003741026763 469.0 NaN 627.1102204408819 0.495517731696592 124.0 0.0 74.0 
484.0003741026763 478.0 NaN 627.0915163660649 0.5451599813803102 126.0 0.0 74.0 
486.0001983480089 467.0 NaN 627.1102204408819 0.5024087150713092 126.0 0.0 74.0 
488.0003741026763 472.0 NaN 624.0507682030727 0.5126994539583111 128.0 0.0 73.0 
490.0003741026763 474.0 NaN 621.0046760187047 0.5035536667123963 127.0 0.0 72.0 
492.0003741026763 475.0 NaN 617.913159652638 0.5084728413815898 127.0 0.0 71.0 
494.0003741026763 480.0 NaN 617.9185036740138 0.5225152458213215 127.0 0.0 71.0 
496.0001983480089 476.0 NaN 621.0073480293925 0.4994545397254789 125.0 0.0 72.0 
498.0003741026763 479.0 NaN 608.7775551102201 0.5201816946744214 121.0 0.0 68.0 
500.0003741026763 470.0 NaN 608.7615230460923 0.5143907726422128 118.0 0.0 68.0 
502.0003741026763 470.0 NaN 608.7374749499 0.5005215368669138 119.0 0.0 68.0 
504.0003741026763 479.0 NaN 599.5323981295925 0.520875625991 117.0 0.0 65.0 
506.0001983480089 473.0 NaN 587.2545090180363 0.5032409732242547 114.0 0.0 61.0 
508.0003741026763 474.0 NaN 587.243820975284 0.536325937194296 113.0 0.0 61.0 
510.0003741026763 470.0 NaN 587.2277889111556 0.517397381808587 113.0 0.0 61.0 
512.0003741026762 470.0 NaN 584.1362725450903 0.49878807416927884 111.0 0.0 60.0 
514.0003741026762 477.0 NaN 587.2277889111557 0.5028027450284286 110.0 0.0 61.0 
516.0001983480089 475.0 NaN 584.2164328657315 0.5025729363207768 109.0 0.0 60.0 
518.0003741026762 478.0 NaN 581.1195724782898 0.5105788673394603 108.0 0.0 59.0 
520.0003741026762 478.0 NaN 581.0848363393454 0.5514345531733168 110.0 0.0 59.0 
522.0003741026762 465.0 NaN 578.0200400801602 0.5209534816020627 109.0 0.0 58.0 
524.0003741026762 463.0 NaN 571.8931195724784 0.5127642208029332 109.0 0.0 56.0 
526.0001983480089 461.0 NaN 568.8737474949899 0.5135372419780034 109.0 0.0 55.0 
528.0003741026762 460.0 NaN 568.8416833667334 0.5320291322581664 108.0 0.0 55.0 
530.0003741026762 453.0 NaN 568.8176352705409 0.5065624900751592 108.0 0.0 55.0 
532.0003741026762 456.0 NaN 571.9064796259185 0.5055684373558598 107.0 0.0 56.0 
534.0003741026762 460.0 NaN 571.9251837007348 0.5116732379765989 102.0 0.0 56.0 
536.0001983480089 460.0 NaN 571.9679358717433 0.513190728608774 101.0 0.0 56.0 
538.0003741026762 462.0 NaN 571.9572478289913 0.5067921974726143 100.0 0.0 56.0 
540.0003741026762 460.0 NaN 571.9412157648632 0.5392821457786975 100.0 0.0 56.0 
542.0003741026762 455.0 NaN 571.935871743487 0.5077906603791653 100.0 0.0 56.0 
544.0003741026762 460.0 NaN 571.9412157648632 0.5041341099597996 100.0 0.0 56.0 
546.0001983480089 462.0 NaN 568.8871075484303 0.4972147545368685 101.0 0.0 55.0 
548.0003741026762 464.0 NaN 571.9331997327988 0.5222119153998038 103.0 0.0 56.0 
550.0003741026762 466.0 NaN 575.011356045424 0.5051661491227867 105.0 0.0 57.0 
552.0003741026762 468.0 NaN 575.0273881095522 0.5103856572285805 104.0 0.0 57.0 
554.0003741026762 476.0 NaN 575.0167000668 0.5243553741217557 104.0 0.0 57.0 
556.0001983480089 467.0 NaN 575.0167000668 0.5593286345087637 104.0 0.0 57.0 
558.0003741026762 458.0 NaN 574.9979959919841 0.5201589906702524 105.0 0.0 57.0 
560.0003741026762 458.0 NaN 568.8363393453573 0.49620018793167525 103.0 0.0 55.0 
562.0003741026762 458.0 NaN 568.8203072812291 0.530214080201757 103.0 0.0 55.0 
564.0003741026762 457.0 NaN 571.9118236472943 0.5471789220205083 103.0 0.0 56.0 
566.0001983480089 446.0 NaN 568.8844355377421 0.5150940885752581 104.0 0.0 55.0 
568.0003741026762 442.0 NaN 568.86038744155 0.5225084616577222 103.0 0.0 55.0 
570.0003741026762 446.0 NaN 571.9412157648633 0.5106807998679558 104.0 0.0 56.0 
572.0003741026762 444.0 NaN 571.9118236472943 0.511998682077407 104.0 0.0 56.0 
574.0003741026762 446.0 NaN 568.8443553774216 0.5213183522637092 103.0 0.0 55.0 
576.0001983480089 450.0 NaN 571.9091516366068 0.5047939788538022 100.0 0.0 56.0 
578.0003741026762 452.0 NaN 571.9091516366068 0.5085517751836789 100.0 0.0 56.0 
580.0003741026762 454.0 NaN 571.9091516366068 0.5278082931133868 99.0 0.0 56.0 
582.0003741026762 448.0 NaN 571.9198396793588 0.5170742635075285 99.0 0.0 56.0 
584.0003741026762 457.0 NaN 571.9412157648633 0.515054529373995 101.0 0.0 56.0 
586.0001983480089 460.0 NaN 571.9492317969273 0.5429321811657564 102.0 0.0 56.0 
588.0003741026762 452.0 NaN 571.930527722111 0.5032386126924538 102.0 0.0 56.0 
590.0003741026762 454.0 NaN 571.9091516366068 0.50806858080376 100.0 0.0 56.0 
592.0003741026762 454.0 NaN 571.9091516366068 0.5004504437899301 100.0 0.0 56.0 
594.0003741026762 462.0 NaN 571.935871743487 0.5154004913509286 100.0 0.0 56.0 
596.0001983480089 463.0 NaN 571.935871743487 0.5193618538480764 100.0 0.0 56.0 
598.0003741026762 462.0 NaN 571.9064796259185 0.504547388061772 100.0 0.0 56.0 
600.0003741026762 463.0 NaN 568.8309953239814 0.5211754099642528 100.0 0.0 55.0 
602.0003741026762 460.0 NaN 568.8203072812291 0.5487503823855056 100.0 0.0 55.0 
604.0003741026762 463.0 NaN 568.8203072812291 0.5361065405583938 98.0 0.0 55.0 
606.0001983480089 460.0 NaN 571.8797595190383 0.5053897520038018 102.0 0.0 56.0 
608.0003741026762 461.0 NaN 568.814963259853 0.49991326806049996 102.0 0.0 55.0 
610.0003741026762 471.0 NaN 571.8797595190383 0.509633758165569 103.0 0.0 56.0 
612.0003741026762 474.0 NaN 571.8797595190383 0.5045536121064013 103.0 0.0 56.0 
614.0003741026762 492.0 NaN 581.1008684034738 0.5359822232270154 106.0 0.0 59.0 
616.0001983480089 481.0 NaN 578.0414161656647 0.5198701451992497 104.0 0.0 58.0 
618.0003741026762 484.0 NaN 578.1028724114896 0.5025740015419456 105.0 0.0 58.0 
620.0003741026762 485.0 NaN 578.0895123580499 0.5334070085233478 106.0 0.0 58.0 
622.0003741026762 473.0 NaN 574.9926519706078 0.5080092791820459 105.0 0.0 57.0 
624.0003741026762 484.0 NaN 587.3293253173014 0.5829150948190359 107.0 0.0 61.0 
626.0001983480089 463.0 NaN 590.4475617902476 0.5202443527830992 108.0 0.0 62.0 
628.0003741026762 467.0 NaN 593.4321977287909 0.5157832252125387 110.0 0.0 63.0 
630.0003741026762 477.0 NaN 599.6472945891778 0.4976650079451934 112.0 0.0 65.0 
632.0003741026762 480.0 NaN 599.6125584502341 0.491433858120059 111.0 0.0 65.0 
634.0003741026762 489.0 NaN 605.7234468937883 0.5368715988504749 114.0 0.0 67.0 
636.0001983480089 479.0 NaN 605.7020708082837 0.5059350797970261 117.0 0.0 67.0 
638.0003741026762 477.0 NaN 608.7535070140277 0.528344644179825 116.0 0.0 68.0 
640.0003741026762 476.0 NaN 605.6940547762189 0.5294074720687504 116.0 0.0 67.0 
642.0003741026762 469.0 NaN 605.6539746158983 0.5069192998351402 118.0 0.0 67.0 
644.0003741026762 466.0 NaN 605.6352705410818 0.5210440940759009 120.0 0.0 67.0 
646.0001983480089 461.0 NaN 605.6219104876416 0.49436236370458353 121.0 0.0 67.0 
648.0003741026762 464.0 NaN 605.6219104876416 0.5236824470136843 120.0 0.0 67.0 
650.0003741026762 472.0 NaN 608.6893787575153 0.5407095179755663 121.0 0.0 68.0 
652.0003741026762 466.0 NaN 611.7889111556447 0.5106878646825467 123.0 0.0 69.0 
654.0003741026762 466.0 NaN 614.8911155644621 0.5283128876933506 123.0 0.0 70.0 
656.0001983480089 476.0 NaN 621.0714762859046 0.5042902881625603 124.0 0.0 72.0 
658.0003741026762 478.0 NaN 621.0875083500338 0.502034305127969 123.0 0.0 72.0 
660.0003741026762 484.0 NaN 624.1496325985299 0.5623840030634473 124.0 0.0 73.0 
662.0003741026762 472.0 NaN 624.1255845023384 0.5096831516668441 123.0 0.0 73.0 
664.0003741026762 476.0 NaN 624.1255845023384 0.5414477288585094 123.0 0.0 73.0 
#####################################################################
# End of data export. Simulation finished at: 2019-03-16T06:39+0000 #
#####################################################################
