#####################################################################
# Alchemist log file - simulation started at: 2019-03-01T23:55+0000 #
#####################################################################
# seed = 0.0, bandwidth = 17782.79410038923, propagationDelay = 0.01, baserange = 1000.0
#
# The columns have the following meaning: 
# time neighbor_count[Sum] <value>@neighbor_count[Sum] packet_size[Mean] mean_delay[Mean] crowd[Sum] overcrowded[Sum] risk[Sum] 
0.0 NaN NaN NaN NaN NaN NaN NaN 
10.000405536260626 210022.0 NaN 4995.201068804276 0.49942056206958957 1494.0 3.0 1494.0 
20.000405536260626 210074.0 NaN 4994.97661990648 0.4998761030170615 1496.0 1.0 1496.0 
30.000405536260626 210192.0 NaN 4996.312625250501 0.5075165368226373 1496.0 1.0 1496.0 
40.00040553626063 210368.0 NaN 4995.2571810287245 0.5184611394884474 1494.0 3.0 1494.0 
50.00040553626063 210435.0 NaN 4995.006012024048 0.5115294261414866 1496.0 1.0 1496.0 
60.00040553626063 210570.0 NaN 4993.247828991316 0.5240461039296326 1494.0 2.0 1494.0 
70.00040553626063 210702.0 NaN 1528.6733466933879 0.5438868681315715 531.0 6.0 361.0 
80.00040553626063 210700.0 NaN 1537.8623914495638 0.540031622652775 523.0 5.0 365.0 
90.00040553626063 210614.0 NaN 1537.9933199732816 0.523977598579479 523.0 5.0 365.0 
100.00040553626063 210702.0 NaN 1540.9806279225118 0.5149130120235353 522.0 5.0 366.0 
110.00040553626063 210789.0 NaN 1540.9752839011364 0.5117821988066674 523.0 5.0 366.0 
120.00040553626063 210835.0 NaN 1541.0447561790245 0.5126619551579146 525.0 5.0 366.0 
130.00040553626064 210835.0 NaN 1537.907815631264 0.5142758691894811 523.0 5.0 365.0 
140.00040553626064 210863.0 NaN 1531.7675350701393 0.5152958623081009 519.0 5.0 363.0 
150.00040553626064 210882.0 NaN 1531.8663994655994 0.5179705537822137 519.0 5.0 363.0 
160.00040553626064 210930.0 NaN 1531.842351369406 0.5160907042399724 517.0 5.0 363.0 
170.00040553626064 210947.0 NaN 1537.9559118236455 0.5203844508163559 516.0 5.0 365.0 
180.00040553626064 210934.0 NaN 1531.8797595190365 0.5181165419158046 517.0 5.0 363.0 
190.00040553626064 210939.0 NaN 1534.907147628591 0.5161978791420131 513.0 6.0 363.0 
200.00040553626064 210977.0 NaN 1537.9585838343364 0.5221224276136606 516.0 5.0 365.0 
210.00040553626064 211039.0 NaN 1528.8363393453571 0.5268425608691324 511.0 5.0 362.0 
220.00040553626064 211064.0 NaN 1528.7722110888456 0.5281119180527684 511.0 5.0 362.0 
230.00040553626064 211133.0 NaN 1531.8370073480276 0.5356012473959098 507.0 6.0 362.0 
240.00040553626064 211201.0 NaN 1531.8236472945907 0.5315787427705111 507.0 6.0 362.0 
250.00040553626064 211272.0 NaN 1525.6753507014023 0.5269926102099759 508.0 6.0 360.0 
260.00040553626064 211280.0 NaN 1525.6539746158996 0.5264249229150766 508.0 6.0 360.0 
270.00040553626064 211384.0 NaN 1531.8316633266545 0.5247271608403353 507.0 6.0 362.0 
280.00040553626064 211493.0 NaN 1537.93720774883 0.5232899944264701 509.0 6.0 364.0 
290.00040553626064 211572.0 NaN 1531.7648630594545 0.5355864558815309 505.0 6.0 362.0 
300.00040553626064 211534.0 NaN 1534.8777555110205 0.5390357120537159 503.0 6.0 363.0 
310.00040553626064 211491.0 NaN 1531.7515030060113 0.542468718604386 500.0 7.0 361.0 
320.00040553626064 211478.0 NaN 1534.794923179691 0.5416328232785458 502.0 7.0 362.0 
330.00040553626064 211412.0 NaN 1537.9131596526363 0.5318455693495178 501.0 7.0 363.0 
340.00040553626064 211352.0 NaN 1531.8156312625272 0.5369728717439476 504.0 7.0 361.0 
350.00008890332737 211272.0 NaN 1528.6733466933879 0.5395924821036094 509.0 7.0 360.0 
360.00008890332737 211224.0 NaN 1525.5764863059455 0.5344014934716823 508.0 7.0 359.0 
370.00008890332737 211149.0 NaN 1507.0915163660645 0.5368414409271204 510.0 7.0 353.0 
380.00008890332737 211108.0 NaN 1510.1776887107544 0.5463616626014102 511.0 7.0 354.0 
390.00008890332737 211006.0 NaN 1510.2150968603878 0.5587973710377675 511.0 6.0 355.0 
400.00008890332737 210836.0 NaN 1507.1422845691372 0.5674587324316189 513.0 6.0 354.0 
410.00008890332737 210763.0 NaN 1519.4655978623907 0.5460864299414533 517.0 6.0 358.0 
420.00008890332737 210754.0 NaN 1507.1182364729455 0.5519999219895837 508.0 6.0 354.0 
430.00008890332737 210649.0 NaN 1510.1830327321302 0.5481080515512546 511.0 5.0 356.0 
440.00008890332737 210587.0 NaN 1516.2752171008694 0.5490937306713667 517.0 5.0 358.0 
450.00008890332737 210575.0 NaN 1540.8817635270548 0.547668506993686 526.0 5.0 366.0 
460.00040553626064 210545.0 NaN 1540.8790915163659 0.5590119315701283 520.0 5.0 366.0 
470.00040553626064 210440.0 NaN 1531.649966599866 0.5592727076467472 515.0 5.0 363.0 
480.00040553626064 210367.0 NaN 1522.4288577154302 0.5628070447770451 511.0 5.0 360.0 
490.00040553626064 210384.0 NaN 1497.8704074816292 0.5602674357764801 507.0 5.0 352.0 
500.00040553626064 210327.0 NaN 1491.7461589846364 0.5482224732515819 503.0 5.0 350.0 
510.00040553626064 210293.0 NaN 1491.7327989311968 0.5479553901186667 506.0 5.0 350.0 
520.0004055362606 210307.0 NaN 1464.0721442885763 0.5474251951820392 501.0 6.0 340.0 
530.0004055362606 210360.0 NaN 1445.6860387441545 0.5586029840702152 499.0 6.0 334.0 
540.0004055362606 210387.0 NaN 1467.206412825652 0.5562262803439516 498.0 6.0 341.0 
550.0004055362606 210361.0 NaN 1467.1449565798268 0.5454894952026166 504.0 6.0 341.0 
560.0004055362606 210432.0 NaN 1464.0320641282558 0.5537579657329877 504.0 6.0 340.0 
570.0004055362606 210498.0 NaN 1473.338677354709 0.5591617710568512 504.0 6.0 343.0 
580.0004055362606 210510.0 NaN 1473.3333333333337 0.5506766823095814 505.0 6.0 343.0 
590.0004055362606 210563.0 NaN 1476.3927855711427 0.552436979348224 511.0 6.0 344.0 
600.0004055362606 210618.0 NaN 1488.676018704074 0.5567924783143108 519.0 6.0 348.0 
610.0004055362606 210595.0 NaN 1494.7975951903816 0.5487411535434518 522.0 6.0 350.0 
620.0004055362606 210667.0 NaN 1501.0180360721454 0.5546332289453781 518.0 7.0 351.0 
630.0004055362606 210693.0 NaN 1507.1823647294575 0.5625322998765188 515.0 6.0 354.0 
640.0004055362606 210677.0 NaN 1507.2037408149638 0.5548754454596375 519.0 6.0 354.0 
650.0004055362606 210689.0 NaN 1522.6292585170354 0.5461026019405535 514.0 6.0 359.0 
660.0004055362606 210786.0 NaN 1531.7541750167002 0.5372286380534375 511.0 8.0 360.0 
#####################################################################
# End of data export. Simulation finished at: 2019-03-02T00:54+0000 #
#####################################################################
