#####################################################################
# Alchemist log file - simulation started at: 2019-03-03T10:40+0000 #
#####################################################################
# seed = 1.0, bandwidth = 316227.76601683797, propagationDelay = 10.0, baserange = 316.2277660168379
#
# The columns have the following meaning: 
# time neighbor_count[Sum] <value>@neighbor_count[Sum] packet_size[Mean] mean_delay[Mean] crowd[Sum] overcrowded[Sum] risk[Sum] 
0.0 NaN NaN NaN NaN NaN NaN NaN 
10.000417374280275 NaN NaN 4988.0 NaN 1497.0 0.0 1497.0 
20.000417374280275 51289.0 NaN 4996.689378757515 8.987228901219993 1497.0 0.0 1497.0 
30.000417374280275 51350.0 NaN 4994.16967267869 8.00395651310226 1497.0 0.0 1497.0 
40.000417374280275 51420.0 NaN 4996.6492985971945 7.008866962954865 1495.0 2.0 1495.0 
50.000417374280275 51422.0 NaN 4994.177688710754 6.022902194411449 1496.0 1.0 1496.0 
60.000417374280275 51424.0 NaN 4996.566466265865 5.037185217094328 1495.0 2.0 1495.0 
70.00041737428027 51559.0 NaN 1525.5096860387453 4.0136537315611385 668.0 2.0 364.0 
80.00041737428027 51568.0 NaN 1535.6820307281243 3.025446282481272 604.0 3.0 366.0 
90.00041737428027 51627.0 NaN 1534.9392117568457 2.0296502948410735 577.0 7.0 362.0 
100.00041737428027 51619.0 NaN 1538.4609218436879 1.0189480743733113 552.0 6.0 364.0 
110.00002670321949 51586.0 NaN 1538.677354709418 5.563049297484193 549.0 4.0 366.0 
120.00041737428027 51585.0 NaN 1540.7775551102184 10.028644727622474 541.0 7.0 364.0 
130.0004173742803 51613.0 NaN 1538.5010020040093 9.02380714719711 528.0 11.0 359.0 
140.0004173742803 51626.0 NaN 1534.7869071476275 8.042120666820644 530.0 7.0 362.0 
150.0004173742803 51561.0 NaN 1547.751503006012 7.028011862200747 528.0 9.0 364.0 
160.0004173742803 51488.0 NaN 1540.9378757515028 6.032722515035648 527.0 7.0 364.0 
170.0004173742803 51395.0 NaN 1541.645958583836 5.043915421103902 523.0 9.0 362.0 
180.0004173742803 51234.0 NaN 1540.8603874415483 4.03780263978059 527.0 7.0 364.0 
190.0004173742803 51087.0 NaN 1541.6379425517703 3.043347754453398 527.0 6.0 365.0 
200.0004173742803 50991.0 NaN 1537.9398797595181 2.0337815971118136 526.0 5.0 365.0 
210.0004173742803 50944.0 NaN 1535.2545090180365 1.0319222509191177 523.0 6.0 363.0 
220.00002670321948 50776.0 NaN 1529.2959251836999 5.568694071820562 525.0 4.0 363.0 
230.0004173742803 50761.0 NaN 1528.5958583834338 10.037063718212096 522.0 7.0 360.0 
240.0004173742803 50790.0 NaN 1532.2805611222457 9.081108259080711 519.0 9.0 359.0 
250.0004173742803 50740.0 NaN 1528.5317301269183 8.064452541847206 505.0 15.0 352.0 
260.0004173742803 50654.0 NaN 1519.9438877755515 7.0331577842659145 503.0 16.0 348.0 
270.0004173742803 50559.0 NaN 1528.5637942551757 6.033068291124321 505.0 17.0 350.0 
280.0004173742803 50529.0 NaN 1529.1035404141635 5.090999785536929 510.0 11.0 356.0 
290.0004173742803 50209.0 NaN 1531.5190380761546 4.053025425348484 507.0 13.0 355.0 
300.0004173742803 50024.0 NaN 1535.1449565798273 3.0627625838275994 505.0 11.0 358.0 
310.0004173742803 49827.0 NaN 1541.0501002003998 2.048022661164427 501.0 13.0 358.0 
320.0004173742803 49660.0 NaN 1535.072812291248 1.060119377609034 500.0 14.0 355.0 
330.0000267032195 49446.0 NaN 1538.193720774882 5.564173387796005 507.0 8.0 362.0 
340.0004173742803 49439.0 NaN 1528.4515698062792 10.04461199393471 500.0 10.0 357.0 
350.0004173742803 49366.0 NaN 1522.7494989979969 9.05661650490386 503.0 10.0 355.0 
360.0004173742803 49306.0 NaN 1516.1549766199068 8.06699323848225 503.0 10.0 353.0 
370.0004173742803 49216.0 NaN 1513.4856379425523 7.057695495182686 507.0 10.0 352.0 
380.0004173742803 49115.0 NaN 1503.727454909819 6.055100947493481 509.0 10.0 349.0 
390.0004173742803 49020.0 NaN 1510.3406813627264 5.05589219240621 510.0 10.0 351.0 
400.0004173742803 48913.0 NaN 1519.2117568470271 4.06530665131415 510.0 11.0 353.0 
410.0004173742803 48827.0 NaN 1528.8069472277905 3.0900436641478644 512.0 11.0 356.0 
420.0004173742803 48722.0 NaN 1519.4148296593182 2.0533388907001027 509.0 11.0 353.0 
430.0004173742803 48679.0 NaN 1513.3787575150293 1.0506181323115569 514.0 10.0 352.0 
440.0000267032195 48581.0 NaN 1519.617902471609 5.546898703459168 516.0 8.0 356.0 
450.0004173742803 48613.0 NaN 1525.3440213760848 10.034338199890854 519.0 11.0 355.0 
460.0004173742803 48595.0 NaN 1531.8824315297275 9.084617472452479 517.0 9.0 359.0 
470.0004173742803 48514.0 NaN 1534.5384101536392 8.04569249247912 513.0 11.0 358.0 
480.0004173742803 48485.0 NaN 1522.6292585170359 7.047314048846319 509.0 11.0 354.0 
490.0004173742803 48496.0 NaN 1506.8750835003345 6.0327041432262325 510.0 9.0 351.0 
500.0004173742803 48625.0 NaN 1482.658650634602 5.059272054216427 515.0 5.0 347.0 
510.0004173742803 48653.0 NaN 1494.6693386773545 4.056924479642264 518.0 7.0 349.0 
520.0004173742802 48721.0 NaN 1485.7448229792913 3.0586915628905147 511.0 6.0 347.0 
530.0004173742802 48739.0 NaN 1467.257181028725 2.0431823492806993 511.0 8.0 339.0 
540.0004173742802 48749.0 NaN 1461.3146292585177 1.0811299709729119 506.0 7.0 338.0 
550.0000267032194 48688.0 NaN 1473.5898463593846 5.549242748528629 507.0 7.0 342.0 
560.0004173742802 48743.0 NaN 1466.9873079492327 10.037444910256372 511.0 9.0 338.0 
570.0004173742802 48857.0 NaN 1476.6145624582493 9.049014914508655 512.0 7.0 343.0 
580.0004173742802 48915.0 NaN 1485.4455577822303 8.091063758516981 509.0 9.0 344.0 
590.0004173742802 48959.0 NaN 1492.0374081496336 7.061061254634298 516.0 7.0 348.0 
600.0004173742802 49012.0 NaN 1500.6199064796265 6.066214612195935 523.0 8.0 350.0 
610.0004173742802 48964.0 NaN 1510.3513694054789 5.078993883089174 530.0 8.0 353.0 
620.0004173742802 48973.0 NaN 1515.9759519038082 4.0624829420565085 530.0 8.0 355.0 
630.0004173742802 48954.0 NaN 1516.5664662658644 3.076266240373954 528.0 7.0 356.0 
640.0004173742802 48836.0 NaN 1525.5951903807627 2.0589312151331964 528.0 8.0 358.0 
650.0004173742802 48802.0 NaN 1522.6933867735465 1.0855026351758197 525.0 7.0 358.0 
660.0000267032194 48669.0 NaN 1525.7768871075473 5.543697884422376 525.0 6.0 360.0 
#####################################################################
# End of data export. Simulation finished at: 2019-03-03T10:57+0000 #
#####################################################################
