#####################################################################
# Alchemist log file - simulation started at: 2019-03-07T13:35+0000 #
#####################################################################
# seed = 2.0, bandwidth = 1000.0, propagationDelay = 0.1, baserange = 10.0
#
# The columns have the following meaning: 
# time neighbor_count[Sum] <value>@neighbor_count[Sum] packet_size[Mean] mean_delay[Mean] crowd[Sum] overcrowded[Sum] risk[Sum] 
0.0 NaN NaN NaN NaN NaN NaN NaN 
2.0005829790527505 NaN NaN 4988.0 NaN 1497.0 0.0 1497.0 
4.0005829790527505 NaN NaN 4988.0 NaN 1497.0 0.0 1497.0 
6.0005829790527505 196.0 NaN 4988.336673346694 0.31822450144846465 1497.0 0.0 1497.0 
8.000582979052751 486.0 NaN 4991.794255177021 1.9096966320356072 1497.0 0.0 1497.0 
10.000582979052751 486.0 NaN 4990.420841683367 3.9096966320356072 1497.0 0.0 1497.0 
12.000263061332008 486.0 NaN 4991.382765531062 3.466926187591163 1497.0 0.0 1497.0 
14.000582979052751 486.0 NaN 4990.428857715431 1.904324965368941 1497.0 0.0 1497.0 
16.00058297905275 486.0 NaN 4989.76085504342 3.904324965368941 1497.0 0.0 1497.0 
18.00026306133201 487.0 NaN 4990.370073480294 3.5434735796515358 1497.0 0.0 1497.0 
20.00058297905275 488.0 NaN 4990.0414161656645 1.938206186979346 1497.0 0.0 1497.0 
22.00058297905275 488.0 NaN 4989.726118904476 3.9382061869793463 1497.0 0.0 1497.0 
24.00026306133201 490.0 NaN 4990.188376753507 3.5722491225713955 1497.0 0.0 1497.0 
26.00058297905275 494.0 NaN 4989.678022712091 2.021490794330145 1497.0 0.0 1497.0 
28.00058297905275 494.0 NaN 4989.394789579158 4.021490794330145 1497.0 0.0 1497.0 
30.00026306133201 496.0 NaN 4989.58450233801 3.6241767456871923 1497.0 0.0 1497.0 
32.00058297905275 499.0 NaN 4989.9853039412155 2.1554360658389395 1497.0 0.0 1497.0 
34.00058297905275 499.0 NaN 4989.680694722779 4.1554360658389395 1497.0 0.0 1497.0 
36.000263061332014 506.0 NaN 4989.9959919839675 3.7746329610192353 1497.0 0.0 1497.0 
38.00058297905275 516.0 NaN 4989.929191716767 2.3324346299596206 1497.0 0.0 1497.0 
40.00058297905275 516.0 NaN 4989.723446893788 4.332434629959621 1497.0 0.0 1497.0 
42.000263061332014 524.0 NaN 4990.0013360053445 3.868159750851349 1497.0 0.0 1497.0 
44.00058297905275 534.0 NaN 4990.0146960587845 2.4262855242517745 1497.0 0.0 1497.0 
46.00058297905275 534.0 NaN 4989.878423513694 4.4262855242517745 1497.0 0.0 1497.0 
48.000263061332014 537.0 NaN 4990.217768871075 4.093322694193557 1497.0 0.0 1497.0 
50.00058297905275 540.0 NaN 4989.736806947228 2.6817476920280603 1497.0 0.0 1497.0 
52.00058297905275 540.0 NaN 4989.541750167001 4.68174769202806 1497.0 0.0 1497.0 
54.000263061332014 543.0 NaN 4989.699398797595 4.3812445799244735 1497.0 0.0 1497.0 
56.00058297905275 550.0 NaN 4990.097528390113 3.0337241283698813 1497.0 0.0 1497.0 
58.00058297905275 550.0 NaN 4989.85704742819 5.033724128369881 1497.0 0.0 1497.0 
60.000263061332014 554.0 NaN 4990.183032732131 4.7174684658805015 1497.0 0.0 1497.0 
62.00058297905275 566.0 NaN 615.0647962591848 2.561000707450689 320.0 0.0 70.0 
64.00058297905275 569.0 NaN 618.076152304609 3.3335660835713803 321.0 0.0 71.0 
66.00058297905275 565.0 NaN 618.1295925183696 3.0486693160680587 318.0 0.0 71.0 
68.00058297905275 556.0 NaN 618.0521042084167 2.038200160287956 312.0 0.0 71.0 
70.00058297905275 558.0 NaN 621.1142284569136 2.6553411741610433 306.0 0.0 72.0 
72.00058297905275 558.0 NaN 624.2084168336683 2.6252931228673346 286.0 0.0 73.0 
74.00058297905275 552.0 NaN 627.2010688042759 2.2955377498166563 255.0 0.0 74.0 
76.00058297905275 555.0 NaN 630.2605210420854 2.8898644305980037 230.0 0.0 75.0 
78.00058297905275 551.0 NaN 630.2872411489634 2.923229326303467 218.0 0.0 75.0 
80.00058297905275 549.0 NaN 636.4275217100865 2.3594630937152923 203.0 0.0 77.0 
82.00058297905275 554.0 NaN 636.392785571142 2.9827510651670437 190.0 0.0 77.0 
84.00058297905275 550.0 NaN 636.4088176352722 2.9366181921573182 179.0 0.0 77.0 
86.00058297905275 545.0 NaN 636.3874415497671 2.399727738139154 173.0 0.0 77.0 
88.00058297905275 545.0 NaN 636.3714094856371 3.0547171224279017 173.0 0.0 77.0 
90.00058297905275 542.0 NaN 636.3767535070137 3.0977287527747843 172.0 0.0 77.0 
92.00058297905275 531.0 NaN 636.3660654642629 2.652353311439026 166.0 0.0 77.0 
94.00058297905275 534.0 NaN 636.3500334001328 3.1908399386354596 163.0 0.0 77.0 
96.00058297905275 533.0 NaN 636.3767535070137 3.0039286934344713 160.0 0.0 77.0 
98.00058297905275 533.0 NaN 636.3687374749497 2.679463248342033 158.0 0.0 77.0 
100.00058297905275 530.0 NaN 636.3313293253184 3.0444680276668907 154.0 0.0 77.0 
102.00058297905275 531.0 NaN 639.4281897127585 2.990133320701311 154.0 0.0 78.0 
104.00058297905275 534.0 NaN 639.4121576486303 2.8888872240418286 155.0 0.0 78.0 
106.00058297905275 539.0 NaN 642.5036740146961 3.532768789754876 154.0 0.0 79.0 
108.00058297905275 545.0 NaN 654.8056112224457 3.2948104519847266 159.0 0.0 83.0 
110.00058297905275 537.0 NaN 654.7842351369399 2.543684778720206 156.0 0.0 83.0 
112.00058297905275 535.0 NaN 654.7735470941881 3.030494202975534 155.0 0.0 83.0 
114.00058297905275 528.0 NaN 648.6599866399451 2.739246317616595 152.0 0.0 81.0 
116.00058297905275 523.0 NaN 648.6867067468274 2.4197569955232203 152.0 0.0 81.0 
118.00058297905275 521.0 NaN 648.6546426185723 2.9465804778007776 149.0 0.0 81.0 
120.00058297905275 521.0 NaN 648.6973947895787 2.8053787830507524 148.0 0.0 81.0 
122.00058297905275 516.0 NaN 648.6840347361394 2.1841153387562375 148.0 0.0 81.0 
124.00058297905275 515.0 NaN 648.6519706078817 2.544654384595168 148.0 0.0 81.0 
126.00058297905275 520.0 NaN 639.4949899799599 2.332707668902327 144.0 0.0 78.0 
128.00058297905275 536.0 NaN 642.6105544422184 1.973906219834111 146.0 0.0 79.0 
130.00058297905275 535.0 NaN 642.5758183032725 2.602598777265871 145.0 0.0 79.0 
132.00058297905275 537.0 NaN 636.4782899131598 2.432606530618405 143.0 0.0 77.0 
134.00058297905275 543.0 NaN 639.5163660654636 2.201533584696004 143.0 0.0 78.0 
136.00058297905275 539.0 NaN 639.5003340013365 2.516199659014492 143.0 0.0 78.0 
138.00058297905275 545.0 NaN 648.769539078155 2.35497534383009 141.0 0.0 81.0 
140.00058297905275 546.0 NaN 651.7728790915178 1.9527407305210194 142.0 0.0 82.0 
142.00058297905275 548.0 NaN 651.7381429525728 2.5790850506717162 142.0 0.0 82.0 
144.00058297905275 543.0 NaN 651.770207080827 2.1028166749773196 141.0 0.0 82.0 
146.00058297905275 545.0 NaN 651.76753507014 1.8021952366342084 141.0 0.0 82.0 
148.00058297905275 548.0 NaN 651.7515030060122 2.226298477214905 140.0 0.0 82.0 
150.00058297905275 549.0 NaN 648.7214428857721 1.831998631984866 140.0 0.0 81.0 
152.00058297905275 550.0 NaN 642.5678022712091 1.6095051833374077 141.0 0.0 79.0 
154.00058297905275 558.0 NaN 645.6245824983305 2.208319651355518 142.0 0.0 80.0 
156.00058297905275 557.0 NaN 642.5597862391456 2.1416259987844084 142.0 0.0 79.0 
158.00058297905275 561.0 NaN 639.5110220440877 1.9684514239655253 143.0 0.0 78.0 
160.00058297905275 559.0 NaN 639.4736138944545 2.557507397479695 144.0 0.0 78.0 
162.00058297905275 560.0 NaN 642.5731462925853 2.5046578143026283 146.0 0.0 79.0 
164.00058297905275 562.0 NaN 642.5437541750172 2.3685779576673753 147.0 0.0 79.0 
166.00058297905275 558.0 NaN 642.5437541750172 2.8458215726792164 147.0 0.0 79.0 
168.00058297905275 561.0 NaN 642.5357381429534 2.7075233965774164 147.0 0.0 79.0 
170.00058297905275 563.0 NaN 642.5865063460265 2.547268113234659 149.0 0.0 79.0 
172.00058297905275 568.0 NaN 639.4923179692728 3.182450965504586 149.0 0.0 78.0 
174.00058297905275 568.0 NaN 636.5023380093511 2.8067155283461185 150.0 0.0 77.0 
176.00058297905275 568.0 NaN 633.3921175684692 2.5265926122292077 153.0 0.0 76.0 
178.00058297905275 566.0 NaN 636.4088176352719 3.061537810679572 150.0 0.0 77.0 
180.00058297905275 558.0 NaN 633.3466933867725 3.0012489417033956 152.0 0.0 76.0 
182.00058297905275 550.0 NaN 630.2578490313954 2.628740437212041 151.0 0.0 75.0 
184.00058297905275 554.0 NaN 633.3173012692044 3.215107072004894 151.0 0.0 76.0 
186.00058297905275 547.0 NaN 630.2578490313954 3.0823204072220687 150.0 0.0 75.0 
188.00058297905275 549.0 NaN 633.3627254509012 2.961064487176072 151.0 0.0 76.0 
190.00058297905275 551.0 NaN 630.2605210420851 3.6145506927243134 150.0 0.0 75.0 
192.00058297905275 551.0 NaN 624.1816967267862 3.037217857088235 150.0 0.0 73.0 
194.00058297905275 548.0 NaN 627.1930527722108 2.7166557422136406 150.0 0.0 74.0 
196.00058297905275 546.0 NaN 627.1930527722108 3.221997632855929 150.0 0.0 74.0 
198.00058297905275 549.0 NaN 636.4515698062788 3.045652947080769 151.0 0.0 77.0 
200.00058297905275 549.0 NaN 636.4462257849033 2.941926911572077 151.0 0.0 77.0 
202.00058297905275 558.0 NaN 639.5056780227125 3.539876594718366 152.0 0.0 78.0 
204.00058297905275 552.0 NaN 636.4435537742149 3.0244141201978225 151.0 0.0 77.0 
206.00058297905275 553.0 NaN 636.462257849032 2.589788805761819 149.0 0.0 77.0 
208.00058297905275 550.0 NaN 636.4248496993987 2.9828520558585434 145.0 0.0 77.0 
210.00058297905275 556.0 NaN 639.5564462257852 2.761219736436408 142.0 0.0 78.0 
212.00058297905275 556.0 NaN 636.4408817635274 2.384520714409019 138.0 0.0 77.0 
214.00058297905275 556.0 NaN 636.4195056780227 2.7608208027059695 137.0 0.0 77.0 
216.00058297905275 554.0 NaN 636.496993987976 2.6414703855085895 136.0 0.0 77.0 
218.00058297905275 554.0 NaN 636.4488977955908 2.326959849946424 136.0 0.0 77.0 
220.00058297905275 553.0 NaN 636.4248496993987 2.8055091844503166 135.0 0.0 77.0 
222.00058297905275 553.0 NaN 639.5243820975272 2.6309990168988557 134.0 0.0 78.0 
224.00058297905275 556.0 NaN 636.4141616566468 2.364212719174294 133.0 0.0 77.0 
226.00058297905275 556.0 NaN 636.4088176352714 2.954917847379426 133.0 0.0 77.0 
228.00058297905275 554.0 NaN 636.4114896459593 2.8912386762755387 133.0 0.0 77.0 
230.00058297905275 550.0 NaN 636.43553774215 2.5904416389869946 132.0 0.0 77.0 
232.00058297905275 550.0 NaN 636.4195056780227 2.7933343408457025 132.0 0.0 77.0 
234.00058297905275 549.0 NaN 630.2979291917168 2.599951387176719 132.0 0.0 75.0 
236.00058297905275 551.0 NaN 627.2571810287241 2.5105174655426907 131.0 0.0 74.0 
238.00058297905275 557.0 NaN 627.2277889111547 2.999520763792999 132.0 0.0 74.0 
240.00058297905275 551.0 NaN 627.2518370073483 2.6819956542909944 131.0 0.0 74.0 
242.00058297905275 551.0 NaN 624.1816967267862 2.436168731699966 129.0 0.0 73.0 
244.00058297905275 553.0 NaN 624.154976619906 2.96189260170769 128.0 0.0 73.0 
246.00058297905275 557.0 NaN 627.2598530394124 2.9232465727926 128.0 0.0 74.0 
248.00058297905275 563.0 NaN 627.2464929859727 2.8659244548438934 130.0 0.0 74.0 
250.00058297905275 560.0 NaN 627.230460921844 3.322585804915815 130.0 0.0 74.0 
252.00058297905275 561.0 NaN 630.3406813627262 2.9098248974523155 130.0 0.0 75.0 
254.00058297905275 563.0 NaN 633.4001336005354 2.7150145015812397 131.0 0.0 76.0 
256.00058297905275 561.0 NaN 633.3841015364055 3.115760544969561 131.0 0.0 76.0 
258.00058297905275 551.0 NaN 633.4001336005354 2.548999494502403 130.0 0.0 76.0 
260.00058297905275 553.0 NaN 633.3921175684693 2.400285016346117 132.0 0.0 76.0 
262.00058297905275 555.0 NaN 633.3600534402135 2.8632263034273975 131.0 0.0 76.0 
264.00058297905275 553.0 NaN 633.3867735470944 2.627498350179535 131.0 0.0 76.0 
266.00058297905275 555.0 NaN 633.4054776219101 2.6064316938242427 131.0 0.0 76.0 
268.00058297905275 558.0 NaN 636.4515698062783 3.1801623567749044 132.0 0.0 77.0 
270.00058297905275 558.0 NaN 636.4676018704082 3.0536858947675043 134.0 0.0 77.0 
272.00058297905275 559.0 NaN 636.4275217100861 2.8695048693980003 132.0 0.0 77.0 
274.00058297905275 570.0 NaN 636.4114896459593 3.256945670128259 134.0 0.0 77.0 
276.00058297905275 569.0 NaN 639.5404141616551 3.1328830000271237 135.0 0.0 78.0 
278.00058297905275 571.0 NaN 639.511022044087 3.0368521636173513 135.0 0.0 78.0 
280.00058297905275 569.0 NaN 639.481629926519 3.4942479865722103 135.0 0.0 78.0 
282.00058297905275 559.0 NaN 639.4682698730779 2.8610181550472333 135.0 0.0 78.0 
284.00058297905275 551.0 NaN 639.4602538410144 2.460971900158015 131.0 0.0 78.0 
286.00058297905275 551.0 NaN 636.3874415497672 2.8954497842485263 132.0 0.0 77.0 
288.00058297905275 550.0 NaN 636.379425517701 2.8352321998691994 131.0 0.0 77.0 
290.00058297905275 548.0 NaN 636.3714094856373 2.5804659916544828 131.0 0.0 77.0 
292.00058297905275 553.0 NaN 636.3714094856373 3.016377073725273 130.0 0.0 77.0 
294.00058297905275 553.0 NaN 633.3039412157648 2.7146499280708896 132.0 0.0 76.0 
296.00058297905275 556.0 NaN 633.3173012692044 2.6927620803770487 133.0 0.0 76.0 
298.00058297905275 560.0 NaN 633.3306613226455 3.2360207243408103 131.0 0.0 76.0 
300.00058297905275 558.0 NaN 636.4275217100861 2.9395383197472036 132.0 0.0 77.0 
302.00058297905275 554.0 NaN 636.4488977955908 2.7572066305335814 131.0 0.0 77.0 
304.00058297905275 554.0 NaN 633.3413493653966 3.179322621435271 132.0 0.0 76.0 
306.00058297905275 549.0 NaN 633.3787575150308 2.9666776864634805 129.0 0.0 76.0 
308.00058297905275 544.0 NaN 633.3306613226455 2.661796839474952 130.0 0.0 76.0 
310.00058297905275 547.0 NaN 627.2197728790908 3.1628319439242576 130.0 0.0 74.0 
312.00058297905275 541.0 NaN 627.2117568470271 3.0692836017833063 128.0 0.0 74.0 
314.00058297905275 540.0 NaN 630.2658650634588 2.6476332892095593 129.0 0.0 75.0 
316.00058297905275 537.0 NaN 624.1255845023375 3.1875156439268895 129.0 0.0 73.0 
318.00058297905275 531.0 NaN 618.0066800267196 2.9859818998695227 126.0 0.0 71.0 
320.00058297905275 528.0 NaN 618.0280561122242 2.7200321664528015 123.0 0.0 71.0 
322.00058297905275 533.0 NaN 618.014696058785 3.1410276262119083 122.0 0.0 71.0 
324.00058297905275 539.0 NaN 621.0955243820968 3.073477563266554 123.0 0.0 72.0 
326.00058297905275 537.0 NaN 621.0554442217774 2.712235552868419 124.0 0.0 72.0 
328.00058297905275 537.0 NaN 621.0394121576486 3.2469303293691865 124.0 0.0 72.0 
330.00058297905275 531.0 NaN 624.138944555777 3.1160690437243153 125.0 0.0 73.0 
332.00058297905275 524.0 NaN 621.0474281897137 2.6459582794433936 124.0 0.0 72.0 
334.00058297905275 522.0 NaN 617.953239812959 3.1426231042902484 124.0 0.0 71.0 
336.00058297905275 523.0 NaN 617.9719438877759 3.127113086697745 126.0 0.0 71.0 
338.00058297905275 528.0 NaN 614.8750835003331 2.894815190994749 126.0 0.0 70.0 
340.00058297905275 526.0 NaN 608.7321309285226 3.290653844620907 126.0 0.0 68.0 
342.00058297905275 526.0 NaN 599.5564462257847 2.8182386262097743 126.0 0.0 65.0 
344.00058297905275 533.0 NaN 605.723446893788 2.6571027744533344 125.0 0.0 67.0 
346.00058297905275 533.0 NaN 605.7020708082835 3.185473559488225 124.0 0.0 67.0 
348.00058297905275 529.0 NaN 608.7882431529729 2.841235781310813 122.0 0.0 68.0 
350.00058297905275 528.0 NaN 608.7722110888456 2.642722917381622 122.0 0.0 68.0 
352.00058297905275 527.0 NaN 608.7909151636607 3.143130728798798 121.0 0.0 68.0 
354.00058297905275 527.0 NaN 611.8263193052774 2.680289065008669 122.0 0.0 69.0 
356.00058297905275 526.0 NaN 611.8343353373408 2.238705324894846 121.0 0.0 69.0 
358.00058297905275 528.0 NaN 608.7428189712757 2.8232939396117542 121.0 0.0 68.0 
360.00058297905275 528.0 NaN 608.7428189712757 2.616782331518032 122.0 0.0 68.0 
362.00058297905275 527.0 NaN 608.7454909819635 2.456311029995585 122.0 0.0 68.0 
364.00058297905275 526.0 NaN 605.6700066800274 2.943407181763044 122.0 0.0 67.0 
366.00058297905275 527.0 NaN 599.537742150968 2.895008919568325 124.0 0.0 65.0 
368.00058297905275 526.0 NaN 599.5430861723454 2.579915492893764 123.0 0.0 65.0 
370.00058297905275 526.0 NaN 599.5564462257847 3.0191228895018893 123.0 0.0 65.0 
372.00058297905275 521.0 NaN 593.4161656646636 2.6630672541849845 125.0 0.0 63.0 
374.00058297905275 523.0 NaN 593.4001336005344 2.624520972065125 125.0 0.0 63.0 
376.00058297905275 527.0 NaN 596.478289913159 3.2530610877123696 126.0 0.0 64.0 
378.00058297905275 527.0 NaN 602.6372745490983 2.8506977487538356 126.0 0.0 66.0 
380.00058297905275 528.0 NaN 602.6452905811622 2.8180049410317953 127.0 0.0 66.0 
382.00058297905275 525.0 NaN 602.634602538409 2.9553973437364194 127.0 0.0 66.0 
384.00058297905275 526.0 NaN 602.634602538409 2.8621639871940836 124.0 0.0 66.0 
386.00058297905275 528.0 NaN 608.7802271209091 2.6536366754873106 123.0 0.0 68.0 
388.00058297905275 525.0 NaN 608.7802271209091 2.972735149827001 120.0 0.0 68.0 
390.00058297905275 532.0 NaN 602.6666666666664 2.975912139258065 121.0 0.0 66.0 
392.00058297905275 537.0 NaN 611.8663994655985 2.8123244433992367 123.0 0.0 69.0 
394.00058297905275 541.0 NaN 611.8450233800938 3.216877184031108 123.0 0.0 69.0 
396.00058297905275 541.0 NaN 618.036072144288 2.6886183470419205 122.0 0.0 71.0 
398.00058297905275 540.0 NaN 618.0227120908485 2.5577806290721634 123.0 0.0 71.0 
400.00058297905275 536.0 NaN 618.0066800267199 2.8340343215599573 122.0 0.0 71.0 
402.00058297905275 533.0 NaN 618.036072144288 2.520411617361398 121.0 0.0 71.0 
404.00058297905275 535.0 NaN 618.046760187041 2.3473006974354362 123.0 0.0 71.0 
406.00058297905275 541.0 NaN 630.3700734802941 2.7699302110526847 125.0 0.0 75.0 
408.00058297905275 542.0 NaN 630.3486973947895 2.616938872584619 127.0 0.0 75.0 
410.00058297905275 541.0 NaN 630.3006012024044 2.544737064436981 127.0 0.0 75.0 
412.00058297905275 538.0 NaN 633.4028056112229 2.876546850349268 126.0 0.0 76.0 
414.00058297905275 545.0 NaN 633.4134936539742 2.5960277570213273 125.0 0.0 76.0 
416.00058297905275 546.0 NaN 633.3814295257182 2.370744067503101 125.0 0.0 76.0 
418.00058297905275 554.0 NaN 633.386773547094 2.955865944521156 125.0 0.0 76.0 
420.00058297905275 558.0 NaN 636.4408817635274 2.9587179862794932 124.0 0.0 77.0 
422.00058297905275 556.0 NaN 636.4569138276545 2.613048357421593 124.0 0.0 77.0 
424.00058297905275 563.0 NaN 645.678022712091 3.0698430633651324 127.0 0.0 80.0 
426.00058297905275 554.0 NaN 642.5998663994648 2.9451196845804786 127.0 0.0 79.0 
428.00058297905275 553.0 NaN 642.5410821643284 2.985310119603543 127.0 0.0 79.0 
430.00058297905275 551.0 NaN 642.591850367401 3.468382789811958 132.0 0.0 79.0 
432.00058297905275 553.0 NaN 642.5784903139603 3.3244183748344818 133.0 0.0 79.0 
434.00058297905275 550.0 NaN 642.549098196392 3.0053513115560926 132.0 0.0 79.0 
436.00058297905275 543.0 NaN 648.710754843019 3.1141940791637635 132.0 0.0 81.0 
438.00058297905275 549.0 NaN 651.7995991983964 3.0351202895146376 133.0 0.0 82.0 
440.00058297905275 550.0 NaN 648.6973947895782 3.0331540305101767 133.0 0.0 81.0 
442.00058297905275 545.0 NaN 651.7782231128915 3.183750678132819 133.0 0.0 82.0 
444.00058297905275 543.0 NaN 654.869739478958 3.0043268491489465 134.0 0.0 83.0 
446.00058297905275 546.0 NaN 661.0100200400811 2.691651666883831 135.0 0.0 85.0 
448.00058297905275 557.0 NaN 664.0561122244495 3.1718597227011984 136.0 0.0 86.0 
450.00058297905275 550.0 NaN 664.0614562458268 3.010029045906041 137.0 0.0 86.0 
452.00058297905275 554.0 NaN 667.1102204408819 2.7843091797868578 139.0 0.0 87.0 
454.00058297905275 554.0 NaN 667.0781563126267 3.0199877425518613 139.0 0.0 87.0 
456.00058297905275 550.0 NaN 670.1563126252505 2.901049034013843 139.0 0.0 88.0 
458.00058297905275 555.0 NaN 670.1670006680032 2.762312719598593 140.0 0.0 88.0 
460.00058297905275 547.0 NaN 670.1563126252505 3.1685696773642618 140.0 0.0 88.0 
462.00058297905275 560.0 NaN 673.2451569806271 2.9990933195044325 141.0 0.0 89.0 
464.00058297905275 561.0 NaN 676.2912491649969 2.7618649428316515 143.0 0.0 90.0 
466.00058297905275 558.0 NaN 676.3019372077497 3.17481696874596 144.0 0.0 90.0 
468.00058297905275 556.0 NaN 673.2879091516363 3.136965727058889 145.0 0.0 89.0 
470.00058297905275 550.0 NaN 673.2184368737461 3.010339053398229 143.0 0.0 89.0 
472.00058297905275 548.0 NaN 670.1563126252504 3.6149048943076547 142.0 0.0 88.0 
474.00058297905275 542.0 NaN 667.1022044088185 3.656002795470514 141.0 0.0 87.0 
476.00058297905275 542.0 NaN 660.9592518370087 3.5782457383932953 138.0 0.0 85.0 
478.00058297905275 539.0 NaN 660.9539078156315 3.8782213784239885 138.0 0.0 85.0 
480.00058297905275 538.0 NaN 660.9271877087504 3.8662697493595526 138.0 0.0 85.0 
482.00058297905275 537.0 NaN 660.9191716766868 3.66223842533026 138.0 0.0 85.0 
484.00058297905275 530.0 NaN 660.9138276553095 3.9422292206017793 137.0 0.0 85.0 
486.00058297905275 524.0 NaN 660.9699398797595 3.167145151158265 136.0 0.0 85.0 
488.00058297905275 524.0 NaN 660.8790915163671 2.976969556194156 136.0 0.0 85.0 
490.00058297905275 522.0 NaN 660.8817635270547 3.446928289449209 136.0 0.0 85.0 
492.00058297905275 523.0 NaN 660.8817635270547 3.2897563312368776 136.0 0.0 85.0 
494.00058297905275 525.0 NaN 657.8062792251175 2.9143508456015463 138.0 0.0 84.0 
496.00058297905275 524.0 NaN 654.7601870407491 3.2661925321612197 137.0 0.0 83.0 
498.00058297905275 526.0 NaN 654.7601870407491 3.2008237175200778 137.0 0.0 83.0 
500.00058297905275 524.0 NaN 651.7140948563783 2.678030715394285 138.0 0.0 82.0 
502.00058297905275 523.0 NaN 651.6873747495002 2.9419592424394603 138.0 0.0 82.0 
504.00058297905275 521.0 NaN 651.6793587174358 2.9395052679987157 138.0 0.0 82.0 
506.00058297905275 517.0 NaN 648.6492985971953 2.6146279329060267 136.0 0.0 81.0 
508.00058297905275 519.0 NaN 648.6225784903138 3.081546979220791 136.0 0.0 81.0 
510.00058297905275 514.0 NaN 636.3847695390773 2.847707791503426 133.0 0.0 77.0 
512.0005829790528 510.0 NaN 633.3012692050773 2.4158127098051847 131.0 0.0 76.0 
514.0005829790528 512.0 NaN 633.3012692050773 2.9763524749964594 131.0 0.0 76.0 
516.0005829790528 501.0 NaN 630.2551770207091 2.5997906984904 129.0 0.0 75.0 
518.0005829790528 502.0 NaN 624.0961923847697 2.250575051055143 128.0 0.0 73.0 
520.0005829790528 501.0 NaN 620.9993319973274 2.627574176656731 127.0 0.0 72.0 
522.0005829790528 503.0 NaN 617.9772879091515 2.563314369351088 128.0 0.0 71.0 
524.0005829790528 501.0 NaN 617.9398797595185 2.4201612574282594 128.0 0.0 71.0 
526.0005829790528 501.0 NaN 605.678022712091 2.80029879589529 127.0 0.0 67.0 
528.0005829790528 494.0 NaN 602.64796259185 2.4382940331497327 124.0 0.0 66.0 
530.0005829790528 498.0 NaN 599.5297261189046 2.3115652930113995 124.0 0.0 65.0 
532.0005829790528 500.0 NaN 593.4054776219104 2.848129815371483 123.0 0.0 63.0 
534.0005829790528 502.0 NaN 599.5885103540409 2.734682911548091 124.0 0.0 65.0 
536.0005829790528 502.0 NaN 599.5430861723448 2.3564461349033743 123.0 0.0 65.0 
538.0005829790528 504.0 NaN 599.5404141616568 2.739959163874749 124.0 0.0 65.0 
540.0005829790528 505.0 NaN 602.6132264529062 2.3006182779265814 128.0 0.0 66.0 
542.0005829790528 502.0 NaN 602.6132264529062 2.184557873330472 127.0 0.0 66.0 
544.0005829790528 509.0 NaN 602.6025384101541 2.544502554175511 126.0 0.0 66.0 
546.0005829790528 518.0 NaN 602.6319305277224 2.5958479817164593 126.0 0.0 66.0 
548.0005829790528 518.0 NaN 599.5377421509681 2.290082676423444 126.0 0.0 65.0 
550.0005829790528 520.0 NaN 599.5217100868409 2.884864771600938 126.0 0.0 65.0 
552.0005829790528 524.0 NaN 602.6292585170343 2.6576048542438104 122.0 0.0 66.0 
554.0005829790528 525.0 NaN 596.4622578490317 2.559324309480357 121.0 0.0 64.0 
556.0005829790528 526.0 NaN 599.5430861723448 2.9622757259897483 121.0 0.0 65.0 
558.0005829790528 528.0 NaN 602.6239144956585 2.9317799802752917 123.0 0.0 66.0 
560.0005829790528 530.0 NaN 602.5918503674017 2.98097567390268 123.0 0.0 66.0 
562.0005829790528 531.0 NaN 602.5945223780893 3.577755399503868 124.0 0.0 66.0 
564.0005829790528 532.0 NaN 608.7561790247161 3.585518464000281 126.0 0.0 68.0 
566.0005829790528 527.0 NaN 608.7454909819636 3.201557873852704 126.0 0.0 68.0 
568.0005829790528 525.0 NaN 608.7187708750839 3.4457266973538894 124.0 0.0 68.0 
570.0005829790528 522.0 NaN 608.7348029392114 3.3896368680677615 121.0 0.0 68.0 
572.0005829790528 518.0 NaN 608.7241148964591 2.9568896698086253 121.0 0.0 68.0 
574.0005829790528 523.0 NaN 608.7080828323318 3.5189309127770656 120.0 0.0 68.0 
576.0005829790528 528.0 NaN 611.8316633266528 3.323544567193386 121.0 0.0 69.0 
578.0005829790528 528.0 NaN 611.858383433534 3.2727084935587403 121.0 0.0 69.0 
580.0005829790528 529.0 NaN 611.8263193052774 3.754977362223464 121.0 0.0 69.0 
582.0005829790528 530.0 NaN 608.7802271209086 3.5350223064603084 120.0 0.0 68.0 
584.0005829790528 531.0 NaN 611.8530394121574 2.9592090279418963 121.0 0.0 69.0 
586.0005829790528 530.0 NaN 602.6319305277221 3.428923185138201 121.0 0.0 66.0 
588.0005829790528 527.0 NaN 602.6372745490978 3.047510130971927 121.0 0.0 66.0 
590.0005829790528 527.0 NaN 602.6239144956585 3.004492187876078 121.0 0.0 66.0 
592.0005829790528 523.0 NaN 608.7641950567802 3.1427199927751572 120.0 0.0 68.0 
594.0005829790528 518.0 NaN 605.7047428189712 2.676158826126656 119.0 0.0 67.0 
596.0005829790528 527.0 NaN 602.6346025384097 2.462599878235114 119.0 0.0 66.0 
598.0005829790528 532.0 NaN 605.6913827655313 2.961342440659264 119.0 0.0 67.0 
600.0005829790528 533.0 NaN 605.6913827655313 3.0811844690362684 121.0 0.0 67.0 
602.0005829790528 535.0 NaN 605.6967267869069 2.890991409270646 120.0 0.0 67.0 
604.0005829790528 541.0 NaN 605.6967267869069 3.3209729364246643 119.0 0.0 67.0 
606.0005829790528 535.0 NaN 608.8309953239818 3.0792293903667134 118.0 0.0 68.0 
608.0005829790528 538.0 NaN 614.9311957247821 2.965856939483363 119.0 0.0 70.0 
610.0005829790528 542.0 NaN 614.8964595858386 3.358543443610149 119.0 0.0 70.0 
612.0005829790528 548.0 NaN 617.9959919839682 3.188577380143426 122.0 0.0 71.0 
614.0005829790528 544.0 NaN 617.9746158984638 2.986915626713308 122.0 0.0 71.0 
616.0005829790528 547.0 NaN 621.0741482965931 3.342434282534451 121.0 0.0 72.0 
618.0005829790528 547.0 NaN 621.0688042752176 3.1918513138840194 119.0 0.0 72.0 
620.0005829790528 549.0 NaN 621.0527722110886 3.2658544512986065 117.0 0.0 72.0 
622.0005829790528 549.0 NaN 621.063460253841 3.6161594240157147 117.0 0.0 72.0 
624.0005829790528 555.0 NaN 621.082164328657 3.115554492606673 118.0 0.0 72.0 
626.0005829790528 558.0 NaN 621.0955243820977 3.126590039637781 118.0 0.0 72.0 
628.0005829790528 560.0 NaN 621.0474281897133 3.7154486183913544 119.0 0.0 72.0 
630.0005829790528 566.0 NaN 624.1790247161 3.7079549534356984 122.0 0.0 73.0 
632.0005829790528 566.0 NaN 621.0821643286572 3.5865386553532614 124.0 0.0 72.0 
634.0005829790528 565.0 NaN 630.2979291917169 3.71265208245039 127.0 0.0 75.0 
636.0005829790528 566.0 NaN 627.2224448897805 3.196471998533337 128.0 0.0 74.0 
638.0005829790528 573.0 NaN 636.4141616566465 3.2282012297723885 129.0 0.0 77.0 
640.0005829790528 575.0 NaN 639.5350701402809 3.7702656657628966 130.0 0.0 78.0 
642.0005829790528 570.0 NaN 639.5457581830318 3.800417936974846 130.0 0.0 78.0 
644.0005829790528 564.0 NaN 639.5003340013365 3.274906846970776 130.0 0.0 78.0 
646.0005829790528 569.0 NaN 642.5624582498328 3.596560877705593 130.0 0.0 79.0 
648.0005829790528 563.0 NaN 645.6379425517691 3.162216643957823 129.0 0.0 80.0 
650.0005829790528 565.0 NaN 651.69806279225 3.1294911517084856 133.0 0.0 82.0 
652.0005829790528 559.0 NaN 651.6820307281226 3.332832374394077 137.0 0.0 82.0 
654.0005829790528 548.0 NaN 648.6305945223774 3.0960707606472124 137.0 0.0 81.0 
656.0005829790528 552.0 NaN 651.7434869739486 2.769350412281528 140.0 0.0 82.0 
658.0005829790528 561.0 NaN 654.7922511690044 3.319909073002711 143.0 0.0 83.0 
660.0005829790528 565.0 NaN 657.8757515030055 3.546806993797352 144.0 0.0 84.0 
662.0005829790528 560.0 NaN 657.8436873747501 3.2995456735030886 144.0 0.0 84.0 
664.0005829790528 563.0 NaN 657.8329993319966 3.6835171625435055 147.0 0.0 84.0 
#####################################################################
# End of data export. Simulation finished at: 2019-03-07T13:38+0000 #
#####################################################################
