#####################################################################
# Alchemist log file - simulation started at: 2019-03-08T04:16+0000 #
#####################################################################
# seed = 2.0, bandwidth = 4216.965034285822, propagationDelay = 10.0, baserange = 177.82794100389228
#
# The columns have the following meaning: 
# time neighbor_count[Sum] <value>@neighbor_count[Sum] packet_size[Mean] mean_delay[Mean] crowd[Sum] overcrowded[Sum] risk[Sum] 
0.0 NaN NaN NaN NaN NaN NaN NaN 
2.0005829790527505 NaN NaN 4988.0 NaN 1497.0 0.0 1497.0 
4.0005829790527505 NaN NaN 4988.0 NaN 1497.0 0.0 1497.0 
6.0005829790527505 NaN NaN 4988.0 NaN 1497.0 0.0 1497.0 
8.000582979052751 NaN NaN 4988.0 NaN 1497.0 0.0 1497.0 
10.000582979052751 NaN NaN 4988.0 NaN 1497.0 0.0 1497.0 
12.000582979052751 8754.0 NaN 4988.88710754843 0.21540882443240297 1497.0 0.0 1497.0 
14.000582979052751 26554.0 NaN 4995.764863059452 1.8203862018679222 1497.0 0.0 1497.0 
16.00058297905275 26554.0 NaN 4995.567134268537 3.8203862018679224 1497.0 0.0 1497.0 
18.00058297905275 26554.0 NaN 4995.553774215097 5.820386201867922 1497.0 0.0 1497.0 
20.00058297905275 26554.0 NaN 4995.559118236473 7.820386201867922 1497.0 0.0 1497.0 
22.00058297905275 26554.0 NaN 4995.559118236473 9.820386201867922 1497.0 0.0 1497.0 
24.00058297905275 26564.0 NaN 4995.473613894455 7.824871484459436 1497.0 0.0 1497.0 
26.00058297905275 26596.0 NaN 4993.913159652639 1.8640624483123112 1493.0 4.0 1493.0 
28.00058297905275 26596.0 NaN 4993.694054776219 3.864062448312311 1493.0 4.0 1493.0 
30.00058297905275 26596.0 NaN 4993.694054776219 5.864062448312311 1493.0 4.0 1493.0 
32.00058297905275 26596.0 NaN 4993.696726786907 7.864062448312311 1493.0 4.0 1493.0 
34.00058297905275 26596.0 NaN 4993.728790915164 9.86406244831231 1493.0 4.0 1493.0 
36.00038495154382 26630.0 NaN 4993.76085504342 7.874892835526995 1493.0 4.0 1493.0 
38.00058297905275 26696.0 NaN 4994.88042752171 1.9481803896204997 1493.0 4.0 1493.0 
40.00058297905275 26696.0 NaN 4994.714762859051 3.9481803896204997 1493.0 4.0 1493.0 
42.00058297905275 26685.0 NaN 4994.73079492318 5.917266135253907 1493.0 4.0 1493.0 
44.00058297905275 26666.0 NaN 4994.73079492318 7.865458306782803 1493.0 4.0 1493.0 
46.00058297905275 26666.0 NaN 4994.736138944556 9.865458306782804 1493.0 4.0 1493.0 
48.00038495154382 26697.0 NaN 4994.792251169005 7.893076588514536 1493.0 4.0 1493.0 
50.00058297905275 26763.0 NaN 4993.891783567135 1.961758977013635 1493.0 4.0 1493.0 
52.00058297905275 26763.0 NaN 4993.774215096861 3.961758977013635 1493.0 4.0 1493.0 
54.00058297905275 26750.0 NaN 4993.776887107549 5.938796320051098 1493.0 4.0 1493.0 
56.00058297905275 26711.0 NaN 4993.787575150301 7.877062097502271 1493.0 4.0 1493.0 
58.00058297905275 26711.0 NaN 4993.798263193053 9.87706209750227 1493.0 4.0 1493.0 
60.00038495154382 26744.0 NaN 4993.83032732131 7.904688155353536 1493.0 4.0 1493.0 
62.00058297905275 26825.0 NaN 1519.3453573814274 1.979992481949056 837.0 2.0 362.0 
64.00058297905275 26825.0 NaN 1522.4288577154302 3.979992481949056 837.0 2.0 363.0 
66.00058297905275 26792.0 NaN 1522.4181696726791 5.94448069691708 839.0 2.0 363.0 
68.00058297905275 26729.0 NaN 1522.4074816299274 7.8732281158370006 839.0 2.0 363.0 
70.00058297905275 26729.0 NaN 1522.4074816299274 9.873228115837001 840.0 2.0 363.0 
72.00038495154382 26833.0 NaN 1522.4422177688725 3.933238952687485 693.0 2.0 363.0 
74.00058297905275 26963.0 NaN 1525.5818303273209 2.618486820545802 663.0 4.0 362.0 
76.00058297905275 26963.0 NaN 1525.5283901135608 4.618486820545802 664.0 4.0 362.0 
78.00058297905275 26926.0 NaN 1525.5444221776906 6.601024896326853 664.0 4.0 362.0 
80.00058297905275 26870.0 NaN 1528.627922511691 8.528434110306948 664.0 4.0 363.0 
82.00021346050522 26895.0 NaN 1528.6038744154998 7.8447474648916895 646.0 4.0 363.0 
84.00058297905275 26936.0 NaN 1531.6713426853726 3.729984506101884 604.0 5.0 363.0 
86.00058297905275 26963.0 NaN 1531.5831663326637 3.3715620086937235 605.0 4.0 364.0 
88.00058297905275 26963.0 NaN 1531.5350701402817 5.371562008693724 605.0 4.0 364.0 
90.00058297905275 26929.0 NaN 1531.5404141616546 7.334845896295786 605.0 4.0 364.0 
92.00058297905275 26852.0 NaN 1531.5323981295912 9.25781589907096 604.0 4.0 364.0 
94.00058297905275 26894.0 NaN 1531.5110220440881 4.376051801032581 578.0 4.0 364.0 
96.00049767580047 26927.0 NaN 1531.5110220440881 4.471308780650202 579.0 3.0 365.0 
98.00058297905275 26976.0 NaN 1531.5751503006 4.119995627358009 579.0 3.0 365.0 
100.00058297905275 26976.0 NaN 1531.5698062792271 6.119995627358009 579.0 3.0 365.0 
102.00058297905275 26929.0 NaN 1534.6479625918516 8.01288344981876 579.0 3.0 366.0 
104.00021346050522 26903.0 NaN 1534.642618570473 7.28144341440968 571.0 3.0 366.0 
106.00058297905275 26928.0 NaN 1534.642618570473 4.2850322538562695 554.0 3.0 366.0 
108.00049767580047 26955.0 NaN 1534.642618570473 5.1649206885206995 554.0 3.0 366.0 
110.00058297905275 26998.0 NaN 1537.6619906479636 4.8110633205004785 553.0 4.0 366.0 
112.00058297905275 26980.0 NaN 1537.6513026052094 6.784432161509363 553.0 4.0 366.0 
114.00058297905275 26906.0 NaN 1537.6619906479636 8.682418401780119 552.0 4.0 366.0 
116.00058297905275 26908.0 NaN 1537.6619906479636 3.7539851307900176 541.0 4.0 366.0 
118.00058297905275 26915.0 NaN 1540.716098864397 4.9500820889402855 542.0 3.0 368.0 
120.00058297905275 26959.0 NaN 1540.7348029392117 5.8296328906096875 542.0 3.0 368.0 
122.00058297905275 27006.0 NaN 1540.7748830995333 5.48784944952425 546.0 1.0 370.0 
124.00058297905275 26965.0 NaN 1540.7641950567815 7.409967755414284 546.0 1.0 370.0 
126.00021346050522 26955.0 NaN 1540.7668670674698 6.697764324405572 543.0 1.0 370.0 
128.00058297905275 26950.0 NaN 1540.7882431529729 3.6753910532294536 538.0 1.0 370.0 
130.00058297905275 26955.0 NaN 1540.7882431529729 5.651446289046749 538.0 1.0 370.0 
132.00058297905275 26991.0 NaN 1537.731462925852 6.533058609127457 536.0 3.0 367.0 
134.00058297905275 27017.0 NaN 1537.6673346693365 6.188145323347231 534.0 6.0 364.0 
136.00058297905275 26984.0 NaN 1537.6513026052091 8.13808257826666 534.0 6.0 364.0 
138.00058297905275 26981.0 NaN 1534.5865063460271 3.239611211448669 531.0 6.0 363.0 
140.00058297905275 26883.0 NaN 1537.6700066800274 4.386640662101978 532.0 6.0 364.0 
142.00058297905275 26885.0 NaN 1534.5998663994637 6.364436015415249 532.0 6.0 363.0 
144.00058297905275 26934.0 NaN 1537.7047428189726 7.237037254782786 533.0 5.0 365.0 
146.00058297905275 26943.0 NaN 1537.742150968603 6.839720459137711 532.0 4.0 366.0 
148.00021346050522 26954.0 NaN 1540.8042752171 6.14357310521835 532.0 4.0 367.0 
150.00058297905275 26950.0 NaN 1546.9392117568455 3.1256053148014047 529.0 4.0 369.0 
152.00058297905275 26865.0 NaN 1543.8530394121574 5.064161802926724 528.0 5.0 367.0 
154.00058297905275 26866.0 NaN 1537.7074148296606 7.033446663540567 529.0 4.0 366.0 
156.00058297905275 26872.0 NaN 1531.5751503006 7.882072524906966 523.0 6.0 362.0 
158.00058297905275 26878.0 NaN 1534.6078824315296 7.515053351105722 528.0 6.0 363.0 
160.00058297905275 26915.0 NaN 1534.6052104208425 2.624973849712423 523.0 6.0 363.0 
162.00058297905275 26871.0 NaN 1534.6025384101547 3.7834608329292334 523.0 6.0 363.0 
164.00058297905275 26788.0 NaN 1534.5998663994637 5.727449621143331 523.0 6.0 363.0 
166.00058297905275 26791.0 NaN 1534.6052104208425 7.6833846189097965 522.0 6.0 363.0 
168.00058297905275 26802.0 NaN 1534.6025384101547 8.512115952857155 525.0 5.0 364.0 
170.00021346050522 26846.0 NaN 1540.753507014027 5.568560800508897 529.0 4.0 367.0 
172.00058297905275 26875.0 NaN 1543.8396793587183 2.6078555109724815 530.0 4.0 368.0 
174.00058297905275 26835.0 NaN 1543.8396793587183 4.5487057919211304 530.0 4.0 368.0 
176.00058297905275 26752.0 NaN 1540.7748830995336 6.488300692895266 530.0 4.0 367.0 
178.00058297905275 26738.0 NaN 1537.7100868403456 8.401876731584457 530.0 4.0 366.0 
180.00058297905275 26747.0 NaN 1534.666666666666 9.25136703563537 531.0 5.0 364.0 
182.00058297905275 26853.0 NaN 1537.6753507014023 2.1429130022478624 528.0 6.0 364.0 
184.00058297905275 26858.0 NaN 1537.6806947227794 3.3430226909361065 528.0 6.0 364.0 
186.00058297905275 26792.0 NaN 1534.6158984635933 5.276325936657895 528.0 6.0 363.0 
188.00058297905275 26696.0 NaN 1534.6158984635933 7.201368476296297 528.0 6.0 363.0 
190.00058297905275 26667.0 NaN 1534.6025384101547 9.064796320318225 529.0 5.0 364.0 
192.00021346050522 26702.0 NaN 1534.5838343353362 7.257030695437914 525.0 5.0 364.0 
194.00058297905275 26769.0 NaN 1534.6399465597847 2.121329570463953 526.0 3.0 366.0 
196.00058297905275 26762.0 NaN 1534.6452905811634 4.05763229517727 526.0 3.0 366.0 
198.00058297905275 26696.0 NaN 1534.6452905811634 5.971915210604528 527.0 3.0 366.0 
200.00058297905275 26595.0 NaN 1534.6479625918516 7.869685678561615 527.0 3.0 366.0 
202.00058297905275 26574.0 NaN 1537.7207748831 9.764913517858595 527.0 3.0 367.0 
204.00058297905275 26634.0 NaN 1540.780227120909 3.891109535258379 523.0 5.0 366.0 
206.00058297905275 26681.0 NaN 1540.8096192384755 2.91516429184738 524.0 7.0 364.0 
208.00058297905275 26675.0 NaN 1540.7722110888456 4.848857897910969 524.0 7.0 364.0 
210.00058297905275 26620.0 NaN 1540.7454909819635 6.75529998380632 523.0 7.0 364.0 
212.00058297905275 26487.0 NaN 1540.756179024718 8.544553229465395 523.0 7.0 364.0 
214.00021346050522 26498.0 NaN 1540.7695390781548 7.831369461589992 523.0 7.0 364.0 
216.00058297905275 26542.0 NaN 1540.7962591850362 3.9049395813563605 521.0 6.0 365.0 
218.00058297905275 26580.0 NaN 1540.7695390781548 3.646087715706693 519.0 6.0 365.0 
220.00058297905275 26578.0 NaN 1540.7374749499 5.56416171657478 520.0 5.0 366.0 
222.00058297905275 26501.0 NaN 1537.6753507014025 7.425506097863287 520.0 5.0 365.0 
224.00058297905275 26406.0 NaN 1537.6806947227792 9.24344525406452 519.0 6.0 364.0 
226.00058297905275 26435.0 NaN 1537.6753507014025 4.462258863850393 517.0 5.0 365.0 
228.00058297905275 26456.0 NaN 1531.5537742150975 4.639339203115119 518.0 7.0 361.0 
230.00058297905275 26478.0 NaN 1534.6506346025367 4.3802303977648895 519.0 6.0 363.0 
232.00058297905275 26476.0 NaN 1537.7074148296608 6.287666737149719 519.0 6.0 364.0 
234.00058297905275 26392.0 NaN 1537.6619906479636 7.958929667814424 519.0 6.0 364.0 
236.00021346050522 26305.0 NaN 1537.6566466265876 7.220182435263847 518.0 6.0 364.0 
238.00058297905275 26323.0 NaN 1540.7588510354028 4.321417825933701 517.0 5.0 366.0 
240.00058297905275 26355.0 NaN 1540.7321309285244 5.209009241440145 516.0 4.0 367.0 
242.00058297905275 26371.0 NaN 1540.7054108216453 4.940149299989412 515.0 4.0 367.0 
244.00058297905275 26357.0 NaN 1540.681362725452 6.8406476197936446 515.0 4.0 367.0 
246.00058297905275 26290.0 NaN 1537.6245824983298 8.641050063080103 514.0 4.0 366.0 
248.00058297905275 26254.0 NaN 1537.6379425517703 3.818318942753768 513.0 4.0 366.0 
250.00058297905275 26253.0 NaN 1537.6619906479636 5.023509529244914 513.0 4.0 366.0 
252.00058297905275 26280.0 NaN 1531.5163660654637 5.921804882882388 510.0 5.0 363.0 
254.00058297905275 26341.0 NaN 1531.4602538410156 5.64904991294706 509.0 6.0 362.0 
256.00058297905275 26305.0 NaN 1531.4602538410156 7.485297944844385 510.0 6.0 362.0 
258.0002134605052 26264.0 NaN 1531.454909819639 6.714075336724443 511.0 6.0 362.0 
260.00058297905275 26205.0 NaN 1531.4655978623907 3.8176552618896227 513.0 5.0 363.0 
262.00058297905275 26200.0 NaN 1528.419505678021 5.72396169863734 512.0 6.0 361.0 
264.00058297905275 26228.0 NaN 1525.3466933867728 6.610473185585179 513.0 5.0 361.0 
266.00058297905275 26244.0 NaN 1525.3306613226455 6.3368819739763085 515.0 4.0 362.0 
268.00058297905275 26209.0 NaN 1528.3981295925182 8.134263065470124 515.0 5.0 362.0 
270.00058297905275 26196.0 NaN 1543.7675350701388 3.2630979172945054 511.0 5.0 367.0 
272.00058297905275 26111.0 NaN 1543.7354709418819 4.4505152522974045 512.0 5.0 367.0 
274.00058297905275 26112.0 NaN 1543.7461589846364 6.365897828923211 513.0 5.0 367.0 
276.00058297905275 26137.0 NaN 1537.611222444891 7.239951051853936 512.0 5.0 365.0 
278.00058297905275 26135.0 NaN 1537.4989979959907 6.9195399617851825 512.0 5.0 365.0 
280.0002134605052 26136.0 NaN 1537.4776219104886 6.227804429243389 511.0 5.0 365.0 
282.00058297905275 26107.0 NaN 1540.5798263193067 3.253542012989129 512.0 5.0 366.0 
284.00058297905275 25969.0 NaN 1537.4802939211752 5.11037229010215 510.0 6.0 364.0 
286.00058297905275 25964.0 NaN 1537.4829659318634 7.00017364208715 511.0 6.0 364.0 
288.00058297905275 25985.0 NaN 1534.4288577154298 7.867706037398725 511.0 6.0 363.0 
290.00058297905275 26014.0 NaN 1534.511690046761 7.5917073326079425 514.0 4.0 365.0 
292.00058297905275 26039.0 NaN 1534.495657982634 2.8092427620473672 515.0 4.0 365.0 
294.00058297905275 25978.0 NaN 1531.4281897127573 3.948791450955938 513.0 4.0 364.0 
296.00058297905275 25903.0 NaN 1528.3794255177 5.8449437835458005 511.0 4.0 363.0 
298.00058297905275 25896.0 NaN 1528.3901135604547 7.706971545188146 511.0 4.0 363.0 
300.00058297905275 25857.0 NaN 1528.3954575818295 8.495927174640645 512.0 4.0 363.0 
302.0002134605052 25913.0 NaN 1522.1536406145638 5.686010554126896 510.0 5.0 360.0 
304.00058297905275 25947.0 NaN 1528.3206412825637 2.789391597268419 507.0 5.0 362.0 
306.00058297905275 25899.0 NaN 1528.3206412825637 4.635582661384829 506.0 5.0 362.0 
308.00058297905275 25819.0 NaN 1531.3934535738153 6.498916432259579 506.0 5.0 363.0 
310.00058297905275 25797.0 NaN 1531.366733466934 8.359318143582152 506.0 4.0 364.0 
312.00058297905275 25773.0 NaN 1534.434201736809 9.18556766257748 506.0 4.0 365.0 
314.00058297905275 25828.0 NaN 1534.5731462925844 2.300810447320209 507.0 4.0 365.0 
316.00058297905275 25818.0 NaN 1534.5651302605206 3.4948330387152278 506.0 4.0 365.0 
318.00058297905275 25771.0 NaN 1531.4736138944545 5.355127039869841 504.0 4.0 364.0 
320.00058297905275 25677.0 NaN 1534.567802271209 7.1990837252881335 503.0 4.0 365.0 
322.00058297905275 25634.0 NaN 1531.4949899799608 9.010062835851357 504.0 3.0 365.0 
324.0002134605052 25657.0 NaN 1525.370741482964 7.368137160928162 506.0 3.0 363.0 
326.00058297905275 25698.0 NaN 1528.427521710088 2.360690182288256 506.0 3.0 364.0 
328.00058297905275 25685.0 NaN 1531.4655978623907 4.270247702585831 505.0 3.0 365.0 
330.00058297905275 25632.0 NaN 1531.4655978623907 6.094798265450341 506.0 3.0 365.0 
332.00058297905275 25547.0 NaN 1531.4655978623907 7.8889373520616255 506.0 3.0 365.0 
334.00058297905275 25500.0 NaN 1531.446893787575 9.693322925237906 505.0 3.0 365.0 
336.00058297905275 25579.0 NaN 1528.4008016032064 3.9350964162798943 504.0 3.0 364.0 
338.00058297905275 25605.0 NaN 1525.360053440215 2.9786603126986813 504.0 3.0 363.0 
340.00058297905275 25592.0 NaN 1522.2818971275888 4.894478517849401 503.0 3.0 362.0 
342.00058297905275 25553.0 NaN 1522.2338009352031 6.705611402100121 505.0 3.0 362.0 
344.00058297905275 25443.0 NaN 1519.169004676018 8.42349113450739 508.0 3.0 361.0 
346.0002134605052 25436.0 NaN 1519.185036740146 7.745006739567985 507.0 3.0 361.0 
348.00058297905275 25492.0 NaN 1522.2979291917177 3.825247513900352 506.0 3.0 362.0 
350.00058297905275 25541.0 NaN 1522.2391449565814 3.560802576964311 508.0 3.0 362.0 
352.00058297905275 25540.0 NaN 1525.2772211088845 5.465227291364559 508.0 3.0 363.0 
354.00058297905275 25505.0 NaN 1522.2204408817638 7.2567004239542205 507.0 3.0 362.0 
356.00058297905275 25438.0 NaN 1522.236472945891 9.081291101874534 505.0 3.0 362.0 
358.00058297905275 25463.0 NaN 1522.223112892452 4.32351172142704 505.0 3.0 362.0 
360.00058297905275 25494.0 NaN 1519.142284569137 4.50438345357583 506.0 3.0 361.0 
362.00058297905275 25541.0 NaN 1519.206412825652 4.2685042935693716 506.0 3.0 361.0 
364.00058297905275 25539.0 NaN 1519.1983967935878 6.1566639899209505 506.0 3.0 361.0 
366.00058297905275 25477.0 NaN 1519.1877087508358 7.912450934729458 506.0 3.0 361.0 
368.0002134605052 25439.0 NaN 1519.1903807615242 7.2017955170461345 507.0 3.0 361.0 
370.00058297905275 25463.0 NaN 1516.1229124916515 4.351864324938231 507.0 3.0 360.0 
372.00058297905275 25469.0 NaN 1509.9719438877748 5.250404991090345 509.0 3.0 358.0 
374.00058297905275 25510.0 NaN 1513.0340681362727 5.00553112568499 510.0 2.0 360.0 
376.00058297905275 25495.0 NaN 1500.7000668002665 6.8518854456931635 510.0 2.0 356.0 
378.00058297905275 25440.0 NaN 1500.7027388109545 8.637322979348681 510.0 2.0 356.0 
380.00058297905275 25419.0 NaN 1503.7995991983978 3.8904062583485355 510.0 2.0 357.0 
382.00058297905275 25413.0 NaN 1500.7187708750828 5.079155925781088 509.0 2.0 356.0 
384.00058297905275 25441.0 NaN 1497.6406145624576 5.985814059240946 512.0 2.0 355.0 
386.00058297905275 25466.0 NaN 1503.7889111556453 5.746792586683638 512.0 3.0 356.0 
388.00058297905275 25424.0 NaN 1503.7327989311968 7.503418173602781 513.0 2.0 357.0 
390.0002134605052 25390.0 NaN 1497.608550434201 6.774345392330184 512.0 2.0 355.0 
392.00058297905275 25339.0 NaN 1503.775551102203 3.8473547987940218 513.0 2.0 357.0 
394.00058297905275 25317.0 NaN 1506.859051436206 5.725076677222781 514.0 2.0 358.0 
396.00058297905275 25338.0 NaN 1500.764195056781 6.610423126821896 514.0 2.0 356.0 
398.00058297905275 25355.0 NaN 1500.6973947895797 6.293390580629609 516.0 2.0 356.0 
400.00058297905275 25324.0 NaN 1500.6680026720098 8.103571257201688 516.0 2.0 356.0 
402.00058297905275 25323.0 NaN 1500.6920507682023 3.358314682018389 517.0 2.0 356.0 
404.00058297905275 25242.0 NaN 1503.8049432197727 4.458351108708874 518.0 2.0 357.0 
406.00058297905275 25246.0 NaN 1506.8643954575818 6.352970506419372 515.0 2.0 358.0 
408.00058297905275 25258.0 NaN 1506.8830995323992 7.250393189155628 514.0 2.0 358.0 
410.00058297905275 25256.0 NaN 1516.1763527054097 6.941837875900362 516.0 2.0 361.0 
412.0002134605052 25258.0 NaN 1513.0607882431539 6.236675131717328 515.0 2.0 360.0 
414.00058297905275 25263.0 NaN 1509.971943887775 3.3687938244792592 515.0 2.0 359.0 
416.00058297905275 25204.0 NaN 1506.917835671343 5.220016160934011 515.0 2.0 358.0 
418.00058297905275 25208.0 NaN 1509.998663994655 7.084482244106914 517.0 2.0 359.0 
420.00058297905275 25211.0 NaN 1503.842351369406 7.978438130558107 518.0 2.0 357.0 
422.00058297905275 25200.0 NaN 1506.8483633934545 7.615906820431746 517.0 2.0 358.0 
424.00058297905275 25225.0 NaN 1500.6599866399456 2.9066158899170595 516.0 2.0 356.0 
426.00058297905275 25188.0 NaN 1506.8323313293263 4.015304132241446 515.0 2.0 358.0 
428.00058297905275 25120.0 NaN 1503.7648630594535 5.84802265747581 514.0 2.0 357.0 
430.00058297905275 25128.0 NaN 1500.6867067468274 7.711976386950193 514.0 2.0 356.0 
432.00058297905275 25094.0 NaN 1497.6245824983293 8.473321014104204 513.0 2.0 355.0 
434.0002134605052 25153.0 NaN 1503.8076152304614 5.671608968755626 515.0 2.0 357.0 
436.00058297905275 25191.0 NaN 1516.048096192384 2.8359725127099917 514.0 2.0 361.0 
438.00058297905275 25159.0 NaN 1513.004676018703 4.678687006064462 515.0 2.0 360.0 
440.00058297905275 25095.0 NaN 1516.0961923847703 6.490348455448767 520.0 2.0 361.0 
442.00058297905275 25074.0 NaN 1516.1015364061454 8.33489455579983 520.0 2.0 361.0 
444.00058297905275 25054.0 NaN 1513.0180360721454 9.134113032142203 520.0 2.0 360.0 
446.00058297905275 25144.0 NaN 1525.327989311957 2.397888058188251 520.0 3.0 363.0 
448.00058297905275 25135.0 NaN 1525.2985971943904 3.528375263926682 520.0 3.0 363.0 
450.00058297905275 25104.0 NaN 1525.2959251836999 5.373040939863769 519.0 3.0 363.0 
452.00058297905275 25034.0 NaN 1528.3981295925182 7.188317805872077 520.0 3.0 364.0 
454.00058297905275 25005.0 NaN 1528.3901135604547 8.898650141876015 520.0 3.0 364.0 
456.0002134605052 25046.0 NaN 1528.374081496327 7.232708527593815 519.0 3.0 364.0 
458.00058297905275 25126.0 NaN 1537.6192384769547 2.287403111144155 520.0 3.0 367.0 
460.00058297905275 25112.0 NaN 1534.5116900467606 4.172945341906576 520.0 3.0 366.0 
462.00058297905275 25090.0 NaN 1534.471609886439 5.99825623824676 520.0 3.0 366.0 
464.00058297905275 25036.0 NaN 1537.5898463593849 7.806160816188087 520.0 3.0 367.0 
466.00058297905275 25015.0 NaN 1537.5818303273206 9.538885261840424 519.0 3.0 367.0 
468.00058297905275 25074.0 NaN 1534.479625918503 3.9200975797201876 522.0 3.0 366.0 
470.00058297905275 25094.0 NaN 1531.4121576486298 2.9564329702188754 519.0 3.0 365.0 
472.00058297905275 25094.0 NaN 1525.1943887775544 4.845690936733287 518.0 3.0 363.0 
474.00058297905275 25068.0 NaN 1525.1783567134273 6.666238942953474 517.0 3.0 363.0 
476.00058297905275 25006.0 NaN 1525.2317969271885 8.444630407815053 516.0 3.0 363.0 
478.0002134605052 25020.0 NaN 1528.2832331329334 7.739834308258403 517.0 3.0 364.0 
480.00058297905275 25072.0 NaN 1519.115564462257 3.970611980160495 514.0 4.0 360.0 
482.00058297905275 25119.0 NaN 1516.0988643954568 3.7500584317951478 516.0 4.0 359.0 
484.00058297905275 25118.0 NaN 1516.0694722778903 5.611959601024056 514.0 4.0 359.0 
486.00058297905275 25082.0 NaN 1516.0748162992643 7.391219991957453 512.0 4.0 359.0 
488.00058297905275 25011.0 NaN 1516.106880427521 9.071766535350463 512.0 4.0 359.0 
490.00058297905275 25045.0 NaN 1516.0507682030725 4.366777152573727 509.0 5.0 358.0 
492.00058297905275 25072.0 NaN 1494.6158984635929 4.516043088700793 511.0 4.0 352.0 
494.00058297905275 25111.0 NaN 1497.629926519707 4.302774690199453 510.0 4.0 353.0 
496.00058297905275 25103.0 NaN 1497.6165664662647 6.155659026213348 511.0 4.0 353.0 
498.00058297905275 25069.0 NaN 1497.584502338009 7.913070846685607 512.0 3.0 354.0 
500.0002134605052 25035.0 NaN 1497.549766199064 7.145340046283564 515.0 3.0 354.0 
502.00058297905275 25083.0 NaN 1497.5524382097535 4.303491178342515 513.0 3.0 354.0 
504.00058297905275 25105.0 NaN 1497.6058784235122 5.16404118054455 515.0 4.0 353.0 
506.00058297905275 25137.0 NaN 1500.8122912491644 4.975564433158708 513.0 4.0 354.0 
508.00058297905275 25127.0 NaN 1500.780227120909 6.827212855122898 514.0 4.0 354.0 
510.00058297905275 25097.0 NaN 1509.9799599198386 8.622179791488202 518.0 4.0 357.0 
512.0005829790528 25117.0 NaN 1506.8884435537734 3.935503730634897 516.0 3.0 357.0 
514.0005829790528 25148.0 NaN 1500.780227120909 5.058199688923423 516.0 3.0 355.0 
516.0005829790528 25184.0 NaN 1494.6666666666658 5.929527782242494 514.0 3.0 353.0 
518.0005829790528 25235.0 NaN 1488.4301937207736 5.761747959203855 513.0 2.0 352.0 
520.0005829790528 25183.0 NaN 1482.255177020709 7.47586060275202 513.0 2.0 350.0 
522.0002134605053 25186.0 NaN 1482.249832999333 6.7795940972428985 512.0 2.0 350.0 
524.0005829790528 25192.0 NaN 1476.1068804275208 3.873851697047173 511.0 2.0 348.0 
526.0005829790528 25197.0 NaN 1473.0474281897118 5.680103217561018 512.0 2.0 347.0 
528.0005829790528 25212.0 NaN 1466.931195724782 6.530612238467272 512.0 2.0 345.0 
530.0005829790528 25201.0 NaN 1466.9632598530386 6.353288717761549 509.0 2.0 345.0 
532.0005829790528 25152.0 NaN 1473.071476285906 8.103130334817704 507.0 2.0 347.0 
534.0005829790528 25192.0 NaN 1476.114896459585 3.407986678675693 512.0 2.0 348.0 
536.0005829790528 25181.0 NaN 1469.9826319305273 4.485335849786176 512.0 2.0 346.0 
538.0005829790528 25188.0 NaN 1470.009352037409 6.286533047760555 513.0 2.0 346.0 
540.0005829790528 25204.0 NaN 1473.100868403473 7.144576958870277 512.0 2.0 347.0 
542.0005829790528 25192.0 NaN 1466.877755511021 6.961096049341472 510.0 2.0 345.0 
544.0002134605053 25197.0 NaN 1469.9345357381437 6.311251415090667 511.0 2.0 346.0 
546.0005829790528 25204.0 NaN 1469.9612558450244 3.463966184034008 512.0 2.0 346.0 
548.0005829790528 25172.0 NaN 1469.9024716098877 5.228430566793471 512.0 2.0 346.0 
550.0005829790528 25184.0 NaN 1475.9946559786245 6.982352832123865 512.0 2.0 348.0 
552.0005829790528 25185.0 NaN 1476.04008016032 7.866071159369783 513.0 2.0 348.0 
554.0005829790528 25168.0 NaN 1482.2712090848363 7.639500430772844 513.0 2.0 350.0 
556.0005829790528 25230.0 NaN 1485.2985971943897 3.0009924705940407 512.0 2.0 351.0 
558.0005829790528 25222.0 NaN 1479.1128924515706 4.058750596785214 513.0 2.0 349.0 
560.0005829790528 25204.0 NaN 1476.0721442885765 5.8212557424257705 514.0 2.0 348.0 
562.0005829790528 25213.0 NaN 1473.0046760187033 7.588188711367216 512.0 2.0 347.0 
564.0005829790528 25151.0 NaN 1470.0013360053447 8.349192669995782 510.0 2.0 346.0 
566.0002134605053 25219.0 NaN 1472.9619238476944 5.71846806770198 508.0 2.0 347.0 
568.0005829790528 25263.0 NaN 1472.9432197728795 2.908973206117635 509.0 2.0 347.0 
570.0005829790528 25249.0 NaN 1479.1315965263855 4.636481562272262 506.0 2.0 349.0 
572.0005829790528 25239.0 NaN 1476.0320641282558 6.377716619567431 507.0 2.0 348.0 
574.0005829790528 25245.0 NaN 1479.1422845691377 8.182895613292994 508.0 2.0 349.0 
576.0005829790528 25236.0 NaN 1485.3520374081488 9.045245552159827 513.0 2.0 351.0 
578.0005829790528 25359.0 NaN 1488.4275217100876 2.5262620485349543 513.0 2.0 352.0 
580.0005829790528 25375.0 NaN 1485.354709418837 3.6215663151730992 513.0 2.0 351.0 
582.0005829790528 25362.0 NaN 1485.370741482965 5.348881427527147 513.0 2.0 351.0 
584.0005829790528 25329.0 NaN 1485.362725450901 7.090416284972296 512.0 2.0 351.0 
586.0005829790528 25286.0 NaN 1482.2899131596532 8.846245192802217 512.0 2.0 350.0 
588.0002134605053 25318.0 NaN 1491.5778223112898 7.206100730310508 515.0 2.0 353.0 
590.0005829790528 25422.0 NaN 1500.630594522379 2.5043680858070774 521.0 2.0 356.0 
592.0005829790528 25423.0 NaN 1497.5230460921837 4.285346517841981 522.0 2.0 355.0 
594.0005829790528 25413.0 NaN 1494.4635938543747 5.966099038642241 524.0 2.0 354.0 
596.0005829790528 25316.0 NaN 1497.517702070809 7.702837565943705 524.0 2.0 355.0 
598.0005829790528 25273.0 NaN 1494.415497661991 9.50634699032425 525.0 2.0 354.0 
600.0005829790528 25319.0 NaN 1494.4716098864385 3.967551151403252 528.0 2.0 354.0 
602.0005829790528 25384.0 NaN 1497.6165664662649 3.169013675780396 535.0 2.0 355.0 
604.0005829790528 25389.0 NaN 1494.5170340681366 4.908367795573413 533.0 2.0 354.0 
606.0005829790528 25397.0 NaN 1500.718770875083 6.614297891932287 530.0 2.0 356.0 
608.0005829790528 25318.0 NaN 1497.6112224448907 8.339714818042673 530.0 2.0 355.0 
610.0002134605053 25332.0 NaN 1491.503006012025 7.661075800801495 529.0 2.0 353.0 
612.0005829790528 25401.0 NaN 1491.529726118906 3.9896728939570902 527.0 2.0 353.0 
614.0005829790528 25476.0 NaN 1488.288577154309 3.890626008974552 531.0 2.0 352.0 
616.0005829790528 25500.0 NaN 1491.33199732799 5.5953676505656285 529.0 2.0 353.0 
618.0005829790528 25469.0 NaN 1491.3400133600544 7.32534406089503 526.0 2.0 353.0 
620.0005829790528 25383.0 NaN 1488.2752171008694 9.0834019808166 527.0 2.0 352.0 
622.0005829790528 25411.0 NaN 1491.3613894455566 4.519085324806985 527.0 1.0 354.0 
624.0005829790528 25437.0 NaN 1494.5143620574472 4.727312199376274 526.0 1.0 355.0 
626.0005829790528 25507.0 NaN 1497.5978623914484 4.588212421315369 524.0 1.0 356.0 
628.0005829790528 25551.0 NaN 1494.527722110889 6.299905523404056 521.0 1.0 355.0 
630.0005829790528 25495.0 NaN 1494.4929859719443 7.971566988874942 522.0 1.0 355.0 
632.0002134605053 25449.0 NaN 1497.5684702738818 7.1862860100788994 523.0 1.0 356.0 
634.0005829790528 25471.0 NaN 1500.6225784903152 4.401044298707263 522.0 1.0 357.0 
636.0005829790528 25470.0 NaN 1503.756847027389 5.280865422903626 521.0 2.0 357.0 
638.0005829790528 25568.0 NaN 1503.7434869739473 5.084358822372438 522.0 2.0 357.0 
640.0005829790528 25568.0 NaN 1500.6519706078818 6.8031588820192095 522.0 2.0 356.0 
642.0005829790528 25513.0 NaN 1503.7194388777546 8.550068268142779 522.0 2.0 357.0 
644.0005829790528 25504.0 NaN 1503.7007348029383 3.908117947802453 522.0 2.0 357.0 
646.0005829790528 25491.0 NaN 1506.8082832331334 5.055278066793231 522.0 2.0 358.0 
648.0005829790528 25488.0 NaN 1506.856379425518 5.91770164117322 521.0 2.0 358.0 
650.0005829790528 25527.0 NaN 1516.1683366733464 5.751438010827629 521.0 2.0 361.0 
652.0005829790528 25482.0 NaN 1516.061456245826 7.505268926723827 520.0 2.0 361.0 
654.0002134605053 25452.0 NaN 1519.1209084836346 6.781295869011615 518.0 2.0 362.0 
656.0005829790528 25436.0 NaN 1519.1449565798273 3.9739338730564007 521.0 2.0 362.0 
658.0005829790528 25407.0 NaN 1525.2879091516363 5.768886700194548 521.0 2.0 364.0 
660.0005829790528 25419.0 NaN 1528.3981295925182 6.608704736291493 518.0 2.0 365.0 
662.0005829790528 25428.0 NaN 1531.4736138944547 6.431199828654702 517.0 2.0 366.0 
664.0005829790528 25377.0 NaN 1531.4094856379436 8.10843244528648 517.0 2.0 366.0 
#####################################################################
# End of data export. Simulation finished at: 2019-03-08T04:25+0000 #
#####################################################################
