#####################################################################
# Alchemist log file - simulation started at: 2019-03-03T01:39+0000 #
#####################################################################
# seed = 1.0, bandwidth = 17782.79410038923, propagationDelay = 0.001, baserange = 316.2277660168379
#
# The columns have the following meaning: 
# time neighbor_count[Sum] <value>@neighbor_count[Sum] packet_size[Mean] mean_delay[Mean] crowd[Sum] overcrowded[Sum] risk[Sum] 
0.0 NaN NaN NaN NaN NaN NaN NaN 
10.000417374280275 51288.0 NaN 4995.4228456913825 0.49723552604290994 1494.0 3.0 1494.0 
20.000417374280275 51340.0 NaN 4995.238476953908 0.5006013444623373 1494.0 3.0 1494.0 
30.000417374280275 51418.0 NaN 4996.224448897796 0.5218058874200053 1493.0 4.0 1493.0 
40.000417374280275 51475.0 NaN 4995.468269873079 0.5465029826905075 1494.0 3.0 1494.0 
50.000417374280275 51513.0 NaN 4995.3159652638615 0.5498903246413575 1492.0 5.0 1492.0 
60.000417374280275 51533.0 NaN 4996.21910487642 0.5756784359458922 1493.0 4.0 1493.0 
70.00015920396508 51628.0 NaN 1525.763527054109 0.5717151112391237 525.0 10.0 356.0 
80.00015920396508 51676.0 NaN 1535.0327321309273 0.5645120609243675 515.0 10.0 359.0 
90.00015920396508 51692.0 NaN 1534.963259853039 0.553469360563522 515.0 12.0 357.0 
100.00015920396508 51683.0 NaN 1538.0601202404819 0.5634371220346848 516.0 11.0 359.0 
110.00015920396508 51710.0 NaN 1538.0040080160334 0.5616764563685541 515.0 11.0 359.0 
120.00015920396508 51758.0 NaN 1544.1843687374728 0.5788767765828935 516.0 13.0 359.0 
130.0001592039651 51731.0 NaN 1541.092852371409 0.5624613795056612 516.0 11.0 360.0 
140.0001592039651 51711.0 NaN 1541.1249164996661 0.5758318677133466 507.0 12.0 359.0 
150.0001592039651 51655.0 NaN 1544.1656646626575 0.558585419296864 507.0 16.0 356.0 
160.0001592039651 51636.0 NaN 1541.140948563794 0.5786510092574075 507.0 12.0 359.0 
170.0001592039651 51537.0 NaN 1544.157648630594 0.5738216328707636 506.0 13.0 359.0 
180.0001592039651 51409.0 NaN 1538.0975283901118 0.5927656520797971 506.0 14.0 356.0 
190.0001592039651 51279.0 NaN 1537.9291917167664 0.5860759913400854 508.0 10.0 360.0 
200.0001592039651 51197.0 NaN 1538.0467601870394 0.5963731181475699 507.0 11.0 359.0 
210.0001592039651 51109.0 NaN 1528.8203072812275 0.5744879981536707 502.0 11.0 356.0 
220.0001592039651 51022.0 NaN 1525.6806947227794 0.5806655716587088 507.0 11.0 355.0 
230.0001592039651 50973.0 NaN 1531.8289913159638 0.6204288741982504 502.0 11.0 357.0 
240.0001592039651 50968.0 NaN 1528.7027388109545 0.6599849302673405 502.0 11.0 356.0 
250.0001592039651 50911.0 NaN 1528.6706746826999 0.6255976398183525 503.0 11.0 356.0 
260.00015920396504 50850.0 NaN 1522.5731462925846 0.6021767611199906 504.0 11.0 354.0 
270.00015920396504 50774.0 NaN 1528.6920507682028 0.5903510210169145 500.0 12.0 355.0 
280.00015920396504 50708.0 NaN 1528.684034736139 0.6297792106168226 501.0 11.0 356.0 
290.00015920396504 50562.0 NaN 1531.7541750167002 0.6466271658233191 501.0 11.0 357.0 
300.00015920396504 50301.0 NaN 1531.7381429525728 0.6250067319760942 499.0 11.0 357.0 
310.00015920396504 50106.0 NaN 1531.7595190380753 0.61790219257343 497.0 11.0 357.0 
320.00015920396504 49919.0 NaN 1531.7541750167002 0.6011758457254438 498.0 11.0 357.0 
330.00015920396504 49797.0 NaN 1540.988643954575 0.6214570272926401 498.0 11.0 360.0 
340.00015920396504 49651.0 NaN 1528.6118904475634 0.6246425254010406 499.0 11.0 356.0 
350.00015920396504 49551.0 NaN 1525.6379425517703 0.6263251493331803 502.0 11.0 355.0 
360.00015920396504 49493.0 NaN 1522.452905811624 0.6359787716944761 503.0 11.0 354.0 
370.00015920396504 49393.0 NaN 1513.1943887775544 0.6142803105299447 506.0 11.0 351.0 
380.00015920396504 49304.0 NaN 1500.9645958583828 0.6236300263982911 511.0 11.0 347.0 
390.00015920396504 49211.0 NaN 1504.0961923847703 0.6061022010496884 514.0 3.0 356.0 
400.00015920396504 49107.0 NaN 1507.169004676018 0.6235229263809691 515.0 3.0 357.0 
410.00015920396504 49015.0 NaN 1516.3740814963267 0.6233785535755252 511.0 10.0 353.0 
420.00015920396504 48959.0 NaN 1491.706078824316 0.652844161114752 502.0 9.0 346.0 
430.00015920396504 48900.0 NaN 1507.1209084836346 0.6085370724850823 516.0 6.0 354.0 
440.00015920396504 48859.0 NaN 1519.3533734134933 0.5946521698574494 517.0 8.0 356.0 
450.00015920396504 48806.0 NaN 1534.781563126254 0.6181064303116729 518.0 8.0 361.0 
460.00015920396504 48721.0 NaN 1544.0026720106885 0.6389885323103753 518.0 8.0 364.0 
470.00015920396504 48674.0 NaN 1531.722110888445 0.5984091757318383 511.0 9.0 359.0 
480.00015920396504 48683.0 NaN 1525.552438209754 0.5902278617249258 510.0 8.0 358.0 
490.00015920396504 48735.0 NaN 1500.9779559118247 0.5739434411656804 506.0 8.0 350.0 
500.00015920396504 48812.0 NaN 1485.6032064128262 0.58339943678279 495.0 10.0 343.0 
510.00015920396504 48881.0 NaN 1497.9318637274544 0.628843131520872 502.0 9.0 348.0 
520.000159203965 48919.0 NaN 1470.2044088176362 0.6335964602120269 497.0 9.0 339.0 
530.000159203965 48915.0 NaN 1454.8724114896454 0.6146839385757641 505.0 7.0 336.0 
540.000159203965 48919.0 NaN 1467.206412825652 0.6098560471512189 503.0 6.0 341.0 
550.000159203965 48948.0 NaN 1473.2451569806274 0.64603695858527 504.0 8.0 341.0 
560.000159203965 49020.0 NaN 1473.2985971943895 0.6134700531112484 506.0 8.0 341.0 
570.000159203965 49071.0 NaN 1488.6973947895794 0.6100662872122087 508.0 8.0 346.0 
580.000159203965 49119.0 NaN 1494.8697394789574 0.6403028622641118 509.0 8.0 348.0 
590.000159203965 49213.0 NaN 1504.0774883099537 0.6386228811892467 516.0 7.0 352.0 
600.000159203965 49232.0 NaN 1500.9405477621908 0.6343067141143574 523.0 7.0 351.0 
610.000159203965 49230.0 NaN 1516.339345357382 0.6336569387120449 520.0 7.0 356.0 
620.000159203965 49223.0 NaN 1522.4929859719446 0.6199715446932733 521.0 7.0 358.0 
630.000159203965 49163.0 NaN 1519.425517702072 0.636003028460883 515.0 7.0 357.0 
640.000159203965 49130.0 NaN 1516.4408817635274 0.6450590052221775 518.0 7.0 356.0 
650.000159203965 49026.0 NaN 1522.5624582498335 0.616613584081918 510.0 7.0 358.0 
660.000159203965 49059.0 NaN 1531.802271209084 0.6428683641566338 507.0 7.0 361.0 
#####################################################################
# End of data export. Simulation finished at: 2019-03-03T02:02+0000 #
#####################################################################
