#####################################################################
# Alchemist log file - simulation started at: 2019-03-19T16:21+0000 #
#####################################################################
# seed = 9.0, bandwidth = 17782.79410038923, propagationDelay = 0.31622776601683794, baserange = 562.341325190349
#
# The columns have the following meaning: 
# time neighbor_count[Sum] <value>@neighbor_count[Sum] packet_size[Mean] mean_delay[Mean] crowd[Sum] overcrowded[Sum] risk[Sum] 
0.0 NaN NaN NaN NaN NaN NaN NaN 
2.0003155962413413 80285.0 NaN 4991.23580494322 0.40995936386855814 1497.0 0.0 1497.0 
4.000315596241341 98210.0 NaN 4993.621910487642 0.49999144290346126 1496.0 1.0 1496.0 
6.000315596241341 98210.0 NaN 4996.5798263193055 0.4999810159132648 1494.0 3.0 1494.0 
8.000315596241341 98210.0 NaN 4994.225784903139 0.4999444090877678 1494.0 3.0 1494.0 
10.000315596241341 98227.0 NaN 4994.936539746159 0.5000288395113028 1494.0 3.0 1494.0 
12.000315596241341 98229.0 NaN 4996.6680026720105 0.5000043711027539 1494.0 3.0 1494.0 
14.000315596241341 98230.0 NaN 4994.655978623914 0.49999667558677446 1494.0 3.0 1494.0 
16.00031559624134 98230.0 NaN 4994.829659318637 0.5001371838834289 1494.0 3.0 1494.0 
18.00031559624134 98239.0 NaN 4996.697394789579 0.5008249508872231 1494.0 3.0 1494.0 
20.00031559624134 98296.0 NaN 4994.36205744823 0.5018063967293939 1494.0 3.0 1494.0 
22.00031559624134 98302.0 NaN 4994.786907147629 0.5029307748920622 1494.0 3.0 1494.0 
24.00031559624134 98305.0 NaN 4996.7080828323315 0.5039488353825798 1494.0 3.0 1494.0 
26.00031559624134 98308.0 NaN 4994.487641950568 0.5049860541523273 1494.0 3.0 1494.0 
28.00031559624134 98330.0 NaN 4995.027388109553 0.5067916830008063 1493.0 4.0 1493.0 
30.00031559624134 98382.0 NaN 4996.6546426185705 0.5091505462072146 1494.0 3.0 1494.0 
32.000315596241336 98407.0 NaN 4994.562458249833 0.5128197626833509 1494.0 3.0 1494.0 
34.000315596241336 98408.0 NaN 4994.802939211757 0.5168561079890759 1494.0 3.0 1494.0 
36.000315596241336 98410.0 NaN 4996.622578490314 0.5208744181664806 1494.0 3.0 1494.0 
38.000315596241336 98427.0 NaN 4994.597194388778 0.5219175752461707 1494.0 3.0 1494.0 
40.000315596241336 98472.0 NaN 4994.936539746159 0.5181874578348283 1494.0 3.0 1494.0 
42.000315596241336 98512.0 NaN 4996.844355377421 0.5211116848284185 1494.0 3.0 1494.0 
44.000315596241336 98520.0 NaN 4994.487641950568 0.5258614626131698 1494.0 3.0 1494.0 
46.000315596241336 98525.0 NaN 4994.955243820976 0.5314185594064722 1494.0 3.0 1494.0 
48.000315596241336 98541.0 NaN 4996.563794255177 0.5356628887349196 1494.0 3.0 1494.0 
50.000315596241336 98568.0 NaN 4994.439545758183 0.5343209325535767 1494.0 3.0 1494.0 
52.000315596241336 98648.0 NaN 4994.98997995992 0.5337001514857437 1494.0 3.0 1494.0 
54.000315596241336 98653.0 NaN 4996.686706746827 0.5268909105575732 1494.0 3.0 1494.0 
56.000315596241336 98660.0 NaN 4994.714762859051 0.5327128157540603 1494.0 3.0 1494.0 
58.000315596241336 98680.0 NaN 4994.891115564462 0.5355801701934877 1494.0 3.0 1494.0 
60.000315596241336 98753.0 NaN 4996.689378757515 0.53357904309798 1494.0 3.0 1494.0 
62.00033744596142 98788.0 NaN 1522.8082832331334 0.520432320638688 802.0 4.0 361.0 
64.00033744596142 98763.0 NaN 1522.7922511690056 0.5362396007989719 656.0 6.0 359.0 
66.00033744596142 98762.0 NaN 1522.9365397461581 0.5412783315676385 584.0 8.0 357.0 
68.00033744596142 98798.0 NaN 1525.8490313961267 0.5454232414580482 556.0 11.0 355.0 
70.00033744596142 98835.0 NaN 1525.8517034068152 0.5419123764303646 535.0 10.0 356.0 
72.00033744596142 98864.0 NaN 1526.0494321977276 0.5476726545336859 529.0 10.0 356.0 
74.00033744596142 98833.0 NaN 1532.0267201068816 0.5418682411166262 520.0 10.0 358.0 
76.00033744596142 98850.0 NaN 1532.0454241816974 0.5482802396293256 525.0 9.0 359.0 
78.00033744596142 98860.0 NaN 1535.2491649966607 0.5564044006096621 524.0 10.0 359.0 
80.00033744596142 98904.0 NaN 1535.0968603874423 0.5649772301127659 522.0 10.0 359.0 
82.00033744596142 98902.0 NaN 1535.126252505009 0.5523247813374911 522.0 9.0 360.0 
84.00033744596142 98888.0 NaN 1538.3486973947906 0.5468632887477297 520.0 10.0 360.0 
86.00033744596142 98905.0 NaN 1538.1482965931848 0.5477248112787658 519.0 9.0 361.0 
88.00033744596142 98913.0 NaN 1538.2150968603878 0.5416004879196205 523.0 6.0 364.0 
90.00033744596142 98938.0 NaN 1538.3567134268546 0.5311006817279882 522.0 7.0 363.0 
92.00033744596142 98922.0 NaN 1538.1616566466273 0.5303339527921268 522.0 7.0 363.0 
94.00033744596142 98906.0 NaN 1538.185704742818 0.5299210652984907 521.0 6.0 364.0 
96.00033744596142 98961.0 NaN 1538.3647294589182 0.531342609817958 520.0 7.0 363.0 
98.00033744596142 98973.0 NaN 1538.1563126252515 0.535550102508078 520.0 7.0 363.0 
100.00033744596142 98983.0 NaN 1538.188376753509 0.5388969783973361 521.0 6.0 364.0 
102.00033744596142 98954.0 NaN 1541.3894455577818 0.5383035107666592 520.0 7.0 364.0 
104.00033744596142 98942.0 NaN 1541.2398129592518 0.5405935973397918 520.0 7.0 364.0 
106.00033744596142 98978.0 NaN 1541.2959251836999 0.5451135489511664 520.0 6.0 365.0 
108.00033744596142 99011.0 NaN 1541.4348697394792 0.5495841009506737 518.0 7.0 364.0 
110.00033744596142 99044.0 NaN 1541.2451569806271 0.552801177690257 519.0 7.0 364.0 
112.00033744596142 99033.0 NaN 1541.2985971943906 0.5418280864939841 520.0 6.0 365.0 
114.00033744596142 99032.0 NaN 1541.4268537074151 0.5400484268216805 519.0 7.0 364.0 
116.00033744596142 99058.0 NaN 1544.291249164997 0.545966177805079 520.0 7.0 365.0 
118.00033744596142 99059.0 NaN 1550.4662658650636 0.5411364684719044 522.0 6.0 368.0 
120.00033744596142 99039.0 NaN 1550.6105544422182 0.5407348906356014 521.0 7.0 367.0 
122.00033744596142 98964.0 NaN 1550.4502338009365 0.5262323794132526 521.0 7.0 367.0 
124.00033744596142 98963.0 NaN 1550.4662658650636 0.5279075929634097 523.0 6.0 368.0 
126.00033744596142 98971.0 NaN 1547.5190380761546 0.5305560098916066 522.0 7.0 366.0 
128.0003374459614 98974.0 NaN 1547.3774215096846 0.5310658032374683 522.0 7.0 366.0 
130.0003374459614 98982.0 NaN 1544.3366733466933 0.5333650732766584 523.0 6.0 366.0 
132.0003374459614 98971.0 NaN 1544.4569138276545 0.5279355600723844 522.0 7.0 365.0 
134.0003374459614 98958.0 NaN 1541.2157648630605 0.5264945910932849 522.0 7.0 364.0 
136.0003374459614 98971.0 NaN 1544.374081496327 0.5308690038847541 520.0 6.0 366.0 
138.0003374459614 98960.0 NaN 1544.502338009352 0.5316017473541664 517.0 7.0 365.0 
140.0003374459614 98988.0 NaN 1544.3286573146274 0.5332882006302163 518.0 7.0 365.0 
142.0003374459614 98987.0 NaN 1541.285237140948 0.5257359474582731 517.0 6.0 365.0 
144.0003374459614 98987.0 NaN 1541.4268537074151 0.527825175855594 516.0 7.0 364.0 
146.0003374459614 98994.0 NaN 1544.3313293253184 0.5324702993962479 516.0 7.0 365.0 
148.0003374459614 98989.0 NaN 1544.3313293253184 0.5343823862424403 517.0 6.0 366.0 
150.0003374459614 98994.0 NaN 1541.4054776219093 0.5334791826149673 515.0 7.0 364.0 
152.0003374459614 98986.0 NaN 1538.2044088176367 0.5304113350477309 515.0 7.0 363.0 
154.0003374459614 98978.0 NaN 1541.3146292585184 0.5312467040768949 516.0 6.0 365.0 
156.0003374459614 98968.0 NaN 1535.2625250501 0.5324331999899258 519.0 7.0 362.0 
158.0003374459614 98956.0 NaN 1535.1235804943212 0.5313594462441849 513.0 7.0 362.0 
160.0003374459614 98967.0 NaN 1535.1636606546426 0.5293021610796786 514.0 6.0 363.0 
162.0003374459614 98996.0 NaN 1535.289245156982 0.5230241023045974 513.0 7.0 362.0 
164.0003374459614 98987.0 NaN 1538.1883767535091 0.5252103232517407 513.0 7.0 363.0 
166.0003374459614 98986.0 NaN 1541.293253173012 0.5301549401286642 514.0 6.0 365.0 
168.0003374459614 98986.0 NaN 1541.4375417501665 0.5339433120610202 515.0 7.0 364.0 
170.0003374459614 98980.0 NaN 1544.3660654642636 0.5343845884683973 515.0 7.0 365.0 
172.0003374459614 98980.0 NaN 1544.3660654642636 0.5313841221826641 517.0 6.0 366.0 
174.0003374459614 98968.0 NaN 1538.3674014696066 0.5288871218063859 515.0 7.0 363.0 
176.0003374459614 98962.0 NaN 1538.225784903139 0.5312527576458567 515.0 7.0 363.0 
178.0003374459614 98963.0 NaN 1541.3466933867726 0.5302395851608092 517.0 6.0 365.0 
180.0003374459614 98940.0 NaN 1535.2839011356025 0.5260221760935117 516.0 7.0 362.0 
182.0003374459614 98973.0 NaN 1535.1315965263846 0.5271761353355375 516.0 7.0 362.0 
184.0003374459614 98955.0 NaN 1532.1148964595848 0.5288153279036154 516.0 6.0 362.0 
186.0003374459614 98950.0 NaN 1532.2511690046754 0.528239898658673 513.0 7.0 361.0 
188.0003374459614 98952.0 NaN 1528.9779559118244 0.5313720904204186 513.0 7.0 360.0 
190.0003374459614 98929.0 NaN 1529.0126920507664 0.5325216456520849 514.0 6.0 361.0 
192.0003374459614 98927.0 NaN 1532.2431529726116 0.5367424584537261 511.0 7.0 361.0 
194.0003374459614 98911.0 NaN 1532.0587842351363 0.5399325427631624 511.0 7.0 361.0 
196.0003374459614 98897.0 NaN 1532.0908483633934 0.5437985952226786 512.0 6.0 362.0 
198.0003374459614 98900.0 NaN 1532.2110888443544 0.5487689384794194 512.0 7.0 361.0 
200.0003374459614 98900.0 NaN 1535.1663326653302 0.552582385791953 513.0 7.0 362.0 
202.0003374459614 98900.0 NaN 1538.2818971275888 0.5453140608181947 514.0 6.0 364.0 
204.0003374459614 98861.0 NaN 1541.5177020708093 0.5424369146526895 512.0 7.0 364.0 
206.0003374459614 98858.0 NaN 1535.1636606546429 0.5464085264754485 511.0 7.0 362.0 
208.0003374459614 98866.0 NaN 1538.2818971275888 0.5528321819833674 512.0 6.0 364.0 
210.0003374459614 98849.0 NaN 1538.3780895123573 0.5561247749750516 509.0 7.0 363.0 
212.0003374459614 98833.0 NaN 1538.188376753509 0.5539387245497568 511.0 7.0 363.0 
214.0003374459614 98779.0 NaN 1535.1609886439546 0.5544265374849201 512.0 6.0 363.0 
216.0003374459614 98753.0 NaN 1535.3132932531726 0.5567840330608329 508.0 7.0 362.0 
218.0003374459614 98758.0 NaN 1535.0941883767546 0.5640556211162174 509.0 7.0 362.0 
220.0003374459614 98721.0 NaN 1535.1369405477635 0.5575683186234969 511.0 6.0 363.0 
222.0003374459614 98767.0 NaN 1535.243820975282 0.5616510485628569 512.0 6.0 363.0 
224.0003374459614 98751.0 NaN 1535.1289245156997 0.5648398706821314 510.0 6.0 363.0 
226.0003374459614 98735.0 NaN 1535.1155644622572 0.5699977109313157 511.0 6.0 363.0 
228.0003374459614 98744.0 NaN 1535.2839011356027 0.5728764067102277 509.0 6.0 363.0 
230.0003374459614 98726.0 NaN 1535.0861723446908 0.5642985187638856 508.0 6.0 363.0 
232.0003374459614 98746.0 NaN 1538.2525050100185 0.5534602012315158 507.0 6.0 364.0 
234.0003374459614 98731.0 NaN 1541.4054776219093 0.5517491214347777 508.0 6.0 365.0 
236.0003374459614 98704.0 NaN 1541.3012692050754 0.5523220291936 507.0 6.0 365.0 
238.0003374459614 98694.0 NaN 1541.2718770875092 0.555271936221417 508.0 6.0 365.0 
240.0003374459614 98677.0 NaN 1532.181696726788 0.5550579726277475 509.0 6.0 362.0 
242.0003374459614 98659.0 NaN 1531.9839679358727 0.5502048283330147 509.0 6.0 362.0 
244.0003374459614 98622.0 NaN 1532.0427521710092 0.547868870002199 509.0 6.0 362.0 
246.0003374459614 98592.0 NaN 1532.1389445557788 0.5497441339251676 509.0 6.0 362.0 
248.0003374459614 98605.0 NaN 1532.0 0.5514131049752251 509.0 6.0 362.0 
250.0003374459614 98590.0 NaN 1531.9893119572475 0.5558193849945255 509.0 6.0 362.0 
252.0003374459614 98583.0 NaN 1532.1469605878428 0.5564133133409731 509.0 6.0 362.0 
254.0003374459614 98554.0 NaN 1531.9545758183026 0.5595274622773747 510.0 6.0 362.0 
256.0003374459614 98528.0 NaN 1528.9352037408155 0.5631423656577316 509.0 6.0 361.0 
258.0003374459614 98533.0 NaN 1529.0420841683363 0.5730528391893123 509.0 6.0 361.0 
260.0003374459614 98507.0 NaN 1525.8517034068154 0.5717853745434434 510.0 6.0 360.0 
262.0003374459614 98454.0 NaN 1528.9539078156301 0.5665015134615343 509.0 6.0 361.0 
264.0003374459614 98428.0 NaN 1532.14963259853 0.5692737211284725 508.0 7.0 361.0 
266.0003374459614 98386.0 NaN 1535.0247160988636 0.5676485835657177 507.0 7.0 362.0 
268.0003374459614 98375.0 NaN 1532.0213760855033 0.5735831121729588 509.0 6.0 362.0 
270.0003374459614 98372.0 NaN 1525.9559118236457 0.5737749611533635 507.0 7.0 359.0 
272.0003374459614 98320.0 NaN 1531.9919839679364 0.5700859583328794 508.0 7.0 361.0 
274.0003374459614 98293.0 NaN 1535.1209084836341 0.573978652298381 511.0 6.0 363.0 
276.0003374459614 98235.0 NaN 1538.3139612558455 0.573055050911328 510.0 7.0 363.0 
278.0003374459614 98224.0 NaN 1538.0788243152977 0.5807331596789119 509.0 7.0 363.0 
280.0003374459614 98180.0 NaN 1538.1536406145638 0.5753868729231479 510.0 6.0 364.0 
282.0003374459614 98141.0 NaN 1538.2284569138271 0.5758997717227411 509.0 7.0 363.0 
284.0003374459614 98127.0 NaN 1538.156312625252 0.575403998545221 509.0 7.0 363.0 
286.0003374459614 98071.0 NaN 1538.1509686038728 0.5759388616504907 509.0 6.0 364.0 
288.0003374459614 98061.0 NaN 1535.1930527722093 0.5776943488310196 509.0 6.0 363.0 
290.0003374459614 98010.0 NaN 1531.981295925182 0.5730820388438794 507.0 6.0 362.0 
292.0003374459614 97970.0 NaN 1532.0507682030725 0.5573833621314952 506.0 6.0 362.0 
294.0003374459614 97967.0 NaN 1532.0774883099546 0.5580463679432381 505.0 6.0 362.0 
296.0003374459614 97896.0 NaN 1531.978623914497 0.5564648286511267 505.0 6.0 362.0 
298.0003374459614 97904.0 NaN 1531.975951903809 0.5634928071852802 505.0 6.0 362.0 
300.0003374459614 97880.0 NaN 1532.1175684702725 0.5628199340135834 504.0 6.0 362.0 
302.0003374459614 97847.0 NaN 1525.873079492318 0.5665105672516884 503.0 6.0 360.0 
304.0003374459614 97832.0 NaN 1532.0801603206428 0.5731409956033974 503.0 6.0 362.0 
306.0003374459614 97779.0 NaN 1532.138944555779 0.5764614010078662 501.0 6.0 362.0 
308.0003374459614 97774.0 NaN 1532.0480961923843 0.5813179593589757 502.0 6.0 362.0 
310.0003374459614 97755.0 NaN 1532.0507682030725 0.5804024264841717 502.0 6.0 362.0 
312.0003374459614 97715.0 NaN 1529.0688042752183 0.5807533243492264 502.0 6.0 361.0 
314.0003374459614 97672.0 NaN 1528.873747494991 0.5746155074947007 502.0 7.0 360.0 
316.0003374459614 97593.0 NaN 1528.929859719439 0.5730904555727466 499.0 9.0 358.0 
318.0003374459614 97579.0 NaN 1532.0988643954572 0.5800551558103595 500.0 9.0 359.0 
320.0003374459614 97560.0 NaN 1538.1750167000662 0.5720535084228049 498.0 9.0 361.0 
322.0003374459614 97521.0 NaN 1538.1616566466273 0.5740971032911494 497.0 9.0 361.0 
324.0003374459614 97497.0 NaN 1535.219772879091 0.5786314992874885 498.0 9.0 360.0 
326.0003374459614 97427.0 NaN 1535.043420173682 0.5770997053189637 498.0 9.0 360.0 
328.0003374459614 97374.0 NaN 1535.1075484301932 0.5796413868602509 497.0 9.0 360.0 
330.0003374459614 97357.0 NaN 1535.2251169004662 0.5905631281339078 496.0 9.0 360.0 
332.0003374459614 97286.0 NaN 1535.083500334 0.5895334859821765 496.0 9.0 360.0 
334.0003374459614 97263.0 NaN 1535.0835003340003 0.5928747906932547 496.0 9.0 360.0 
336.0003374459614 97169.0 NaN 1535.1930527722093 0.5895362357323107 497.0 9.0 360.0 
338.0003374459614 97127.0 NaN 1535.030060120239 0.5920730153235739 498.0 9.0 360.0 
340.0003374459614 97093.0 NaN 1535.115564462257 0.5954305090257149 497.0 9.0 360.0 
342.0003374459614 97042.0 NaN 1532.1282565130273 0.5876390166338796 498.0 9.0 359.0 
344.0003374459614 97034.0 NaN 1532.016032064127 0.5907993004672171 499.0 9.0 359.0 
346.0003374459614 96974.0 NaN 1522.7575150300606 0.589610616081493 498.0 9.0 356.0 
348.0003374459614 96949.0 NaN 1525.9906479625909 0.5858842530033255 498.0 9.0 357.0 
350.0003374459614 96919.0 NaN 1528.8470273881092 0.5756650004150681 501.0 9.0 358.0 
352.0003374459614 96874.0 NaN 1528.9405477621908 0.5721018701764095 501.0 9.0 358.0 
354.0003374459614 96864.0 NaN 1522.8483633934547 0.5803325524788199 500.0 9.0 356.0 
356.0003374459614 96788.0 NaN 1522.7147628590521 0.574191187051823 500.0 9.0 356.0 
358.0003374459614 96781.0 NaN 1525.8597194388788 0.5774740208797944 501.0 9.0 357.0 
360.0003374459614 96755.0 NaN 1525.9318637274544 0.5762866677678055 503.0 9.0 357.0 
362.0003374459614 96706.0 NaN 1525.7875751503 0.5739948741015476 504.0 9.0 357.0 
364.0003374459614 96711.0 NaN 1525.835671342685 0.5871415973390791 503.0 9.0 357.0 
366.0003374459614 96676.0 NaN 1525.8810955243816 0.5882867069543102 503.0 9.0 357.0 
368.0003374459614 96657.0 NaN 1519.6392785571152 0.5902446135715392 504.0 9.0 355.0 
370.0003374459614 96650.0 NaN 1516.5290581162333 0.5927016793610621 503.0 9.0 354.0 
372.0003374459614 96572.0 NaN 1507.452237808952 0.5868867577491051 503.0 9.0 351.0 
374.0003374459614 96582.0 NaN 1507.3293253173006 0.5973353061590934 502.0 9.0 351.0 
376.0003374459614 96560.0 NaN 1510.4181696726796 0.5989131872666835 503.0 9.0 352.0 
378.0003374459614 96564.0 NaN 1510.5090180360728 0.6039519247281337 504.0 9.0 352.0 
380.0003374459614 96525.0 NaN 1510.3914495657991 0.6052752911226702 506.0 9.0 352.0 
382.0003374459614 96467.0 NaN 1507.3613894455568 0.6045636869215223 507.0 9.0 351.0 
384.0003374459614 96468.0 NaN 1507.4789579158307 0.6108931080768313 508.0 9.0 351.0 
386.0003374459614 96408.0 NaN 1510.4448897795605 0.6053417566220917 507.0 8.0 353.0 
388.0003374459614 96393.0 NaN 1513.5764863059455 0.5918118901479373 508.0 8.0 354.0 
390.0003374459614 96346.0 NaN 1519.775551102203 0.5917329173228417 510.0 8.0 356.0 
392.0003374459614 96257.0 NaN 1513.5684702738818 0.5747265034790501 510.0 8.0 354.0 
394.0003374459614 96229.0 NaN 1516.6359385437547 0.5772574804359936 509.0 9.0 354.0 
396.0003374459614 96197.0 NaN 1516.7454909819635 0.577563115385752 508.0 10.0 353.0 
398.0003374459614 96174.0 NaN 1516.58784235137 0.5752268383444188 508.0 10.0 353.0 
400.0003374459614 96112.0 NaN 1516.619906479627 0.5659659263507386 507.0 10.0 353.0 
402.0003374459614 96062.0 NaN 1513.6379425517705 0.5651770667277821 509.0 10.0 352.0 
404.0003374459614 96078.0 NaN 1513.541750167 0.572762146624411 508.0 10.0 352.0 
406.0003374459614 96043.0 NaN 1513.5604542418178 0.5766140221519435 509.0 10.0 352.0 
408.0003374459614 96019.0 NaN 1519.7782231128915 0.5803299956163129 510.0 10.0 354.0 
410.0003374459614 95983.0 NaN 1519.644622578491 0.5806639247531846 511.0 10.0 354.0 
412.0003374459614 95981.0 NaN 1525.8650634602545 0.5900528318941247 511.0 10.0 356.0 
414.0003374459614 96015.0 NaN 1528.9859719438884 0.6024911365612603 512.0 9.0 358.0 
416.0003374459614 96016.0 NaN 1525.8410153640632 0.6088003024449342 513.0 8.0 358.0 
418.0003374459614 95991.0 NaN 1519.6740146960576 0.6160302390450614 510.0 8.0 356.0 
420.0003374459614 95966.0 NaN 1513.6619906479634 0.6136392016313423 508.0 8.0 354.0 
422.0003374459614 95938.0 NaN 1519.6820307281243 0.6181792584666665 507.0 8.0 356.0 
424.0003374459614 95942.0 NaN 1516.6359385437545 0.6080143191191074 510.0 8.0 355.0 
426.0003374459614 95920.0 NaN 1510.533066132264 0.6079297121571742 512.0 7.0 354.0 
428.0003374459614 95877.0 NaN 1522.7067468269881 0.6086745734031893 515.0 6.0 359.0 
430.0003374459614 95814.0 NaN 1535.0354041416174 0.5954336068447424 518.0 8.0 361.0 
432.0003374459614 95746.0 NaN 1535.1422845691372 0.5925900348537064 520.0 6.0 363.0 
434.0003374459614 95755.0 NaN 1535.0247160988638 0.5989724131481654 520.0 6.0 363.0 
436.0003374459614 95705.0 NaN 1532.0026720106887 0.5898360047485387 520.0 6.0 362.0 
438.0003374459614 95697.0 NaN 1532.064128256512 0.5945667496311668 521.0 6.0 362.0 
440.0003374459614 95661.0 NaN 1535.027388109554 0.5907078232635234 523.0 6.0 363.0 
442.0003374459614 95590.0 NaN 1544.2805611222454 0.591606843278955 522.0 6.0 366.0 
444.0003374459614 95616.0 NaN 1544.4088176352723 0.6029924551582602 523.0 6.0 366.0 
446.0003374459614 95611.0 NaN 1531.935871743488 0.604390535740776 524.0 6.0 362.0 
448.0003374459614 95606.0 NaN 1538.1215764863066 0.611791633542102 523.0 6.0 364.0 
450.0003374459614 95581.0 NaN 1541.293253173012 0.5779438454111925 524.0 6.0 365.0 
452.0003374459614 95514.0 NaN 1544.2752171008697 0.5721668776219138 523.0 6.0 366.0 
454.0003374459614 95567.0 NaN 1547.3293253173003 0.5791583341081462 523.0 6.0 367.0 
456.0003374459614 95539.0 NaN 1547.4522378089518 0.5773731526084814 525.0 6.0 367.0 
458.0003374459614 95530.0 NaN 1547.289245156982 0.5811089735436623 523.0 6.0 367.0 
460.0003374459614 95504.0 NaN 1547.3400133600546 0.5707313534250359 521.0 6.0 367.0 
462.0003374459614 95483.0 NaN 1544.3259853039426 0.5754487186169776 522.0 6.0 366.0 
464.0003374459614 95464.0 NaN 1544.2271209084822 0.5685124886821751 522.0 6.0 366.0 
466.0003374459614 95437.0 NaN 1547.3426853707424 0.572863343616893 524.0 6.0 367.0 
468.0003374459614 95445.0 NaN 1538.1723446893793 0.5733229552629501 521.0 6.0 364.0 
470.0003374459614 95429.0 NaN 1534.9258517034089 0.5759999393437798 521.0 6.0 363.0 
472.0003374459614 95427.0 NaN 1534.9712758851028 0.5814338130381441 520.0 6.0 363.0 
474.0003374459614 95416.0 NaN 1525.808951235806 0.5788039456269141 518.0 6.0 360.0 
476.0003374459614 95406.0 NaN 1525.7314629258524 0.5800807973979131 515.0 6.0 360.0 
478.0003374459614 95419.0 NaN 1525.7074148296606 0.5801932017411047 515.0 6.0 360.0 
480.0003374459614 95427.0 NaN 1525.8303273213091 0.5800492105801529 512.0 6.0 360.0 
482.0003374459614 95437.0 NaN 1525.667334669337 0.5687229079611308 514.0 6.0 360.0 
484.0003374459614 95483.0 NaN 1519.5671342685364 0.5711245367818115 512.0 6.0 358.0 
486.0003374459614 95459.0 NaN 1516.598530394121 0.5708507200721032 512.0 6.0 357.0 
488.0003374459614 95478.0 NaN 1507.30260521042 0.5740879455765171 511.0 6.0 354.0 
490.0003374459614 95467.0 NaN 1501.1249164996652 0.5691979436694906 511.0 6.0 352.0 
492.0003374459614 95453.0 NaN 1501.2638610554447 0.5660684095229982 507.0 6.0 352.0 
494.0003374459614 95484.0 NaN 1501.1249164996655 0.5645803637248028 506.0 7.0 351.0 
496.0003374459614 95473.0 NaN 1495.032732130928 0.5665276591740208 505.0 9.0 347.0 
498.0003374459614 95491.0 NaN 1488.9565798263184 0.5706270960767087 505.0 9.0 345.0 
500.0003374459614 95486.0 NaN 1485.792919171676 0.5734698508373088 502.0 9.0 344.0 
502.0003374459614 95482.0 NaN 1482.653306613227 0.572503852238482 503.0 9.0 343.0 
504.0003374459614 95532.0 NaN 1485.851703406815 0.5821916864851412 504.0 9.0 344.0 
506.0003374459614 95515.0 NaN 1485.6940547762185 0.5771133622273626 506.0 8.0 345.0 
508.0003374459614 95491.0 NaN 1491.9519038076162 0.5762045092774662 506.0 8.0 347.0 
510.0003374459614 95446.0 NaN 1498.1696726786909 0.5655661124823897 504.0 8.0 349.0 
512.0003374459613 95443.0 NaN 1491.9305277221101 0.5675555024839841 501.0 8.0 347.0 
514.0003374459613 95472.0 NaN 1491.9198396793574 0.5719585118669953 502.0 8.0 347.0 
516.0003374459613 95471.0 NaN 1492.0053440213755 0.5697593119294139 501.0 8.0 347.0 
518.0003374459613 95479.0 NaN 1485.7234468937886 0.5748094024276211 502.0 8.0 345.0 
520.0003374459613 95500.0 NaN 1479.620574482299 0.5758533300877428 500.0 8.0 343.0 
522.0003374459613 95507.0 NaN 1473.5257181028728 0.5798443392338473 501.0 8.0 341.0 
524.0003374459613 95515.0 NaN 1476.5370741482973 0.5916977741086142 501.0 8.0 342.0 
526.0003374459613 95505.0 NaN 1470.4048096192373 0.5969089610211612 500.0 8.0 340.0 
528.0003374459613 95509.0 NaN 1467.4923179692723 0.5946792306776011 498.0 8.0 339.0 
530.0003374459613 95547.0 NaN 1464.2324649298605 0.586447762723795 504.0 8.0 338.0 
532.0003374459613 95550.0 NaN 1473.4856379425528 0.5902647199614424 505.0 8.0 341.0 
534.0003374459613 95570.0 NaN 1473.5444221776895 0.5995809682864331 505.0 8.0 341.0 
536.0003374459613 95587.0 NaN 1473.4562458249827 0.6011478318802786 502.0 9.0 340.0 
538.0003374459613 95577.0 NaN 1470.4101536406154 0.6039670038823233 503.0 9.0 339.0 
540.0003374459613 95576.0 NaN 1470.4983299933192 0.5849736262819287 503.0 9.0 339.0 
542.0003374459613 95593.0 NaN 1470.3861055444215 0.574868277379923 503.0 9.0 339.0 
544.0003374459613 95622.0 NaN 1467.3426853707424 0.575049158038574 503.0 9.0 338.0 
546.0003374459613 95615.0 NaN 1467.396125584501 0.5740844575725158 502.0 9.0 338.0 
548.0003374459613 95624.0 NaN 1470.3540414161648 0.5711238362043001 504.0 9.0 339.0 
550.0003374459613 95649.0 NaN 1473.453573814294 0.5688174838837782 504.0 9.0 340.0 
552.0003374459613 95655.0 NaN 1470.4422177688716 0.5679834066743458 505.0 9.0 339.0 
554.0003374459613 95688.0 NaN 1467.2358049432191 0.5750902458179089 506.0 9.0 338.0 
556.0003374459613 95717.0 NaN 1464.2004008016027 0.569807854200943 504.0 9.0 337.0 
558.0003374459613 95721.0 NaN 1467.3720774883095 0.5690880955651106 503.0 9.0 338.0 
560.0003374459613 95790.0 NaN 1461.1275885103546 0.5553222933404207 502.0 9.0 336.0 
562.0003374459613 95837.0 NaN 1461.1623246492993 0.5560639985309402 500.0 9.0 336.0 
564.0003374459613 95849.0 NaN 1464.3286573146286 0.563939145747442 501.0 8.0 338.0 
566.0003374459613 95923.0 NaN 1464.2244488977965 0.5593802695531576 505.0 6.0 340.0 
568.0003374459613 95954.0 NaN 1470.3967935871738 0.5634309932928885 507.0 6.0 342.0 
570.0003374459613 95950.0 NaN 1473.5764863059455 0.5609723599830287 507.0 6.0 343.0 
572.0003374459613 95960.0 NaN 1482.6826987307943 0.5710625207693805 507.0 6.0 346.0 
574.0003374459613 95947.0 NaN 1479.6205744822987 0.578670317546594 507.0 7.0 344.0 
576.0003374459613 96013.0 NaN 1479.7194388777546 0.5862551119506718 506.0 9.0 342.0 
578.0003374459613 96063.0 NaN 1482.7014028056103 0.5873452998683942 506.0 9.0 343.0 
580.0003374459613 96076.0 NaN 1485.7982631930531 0.5892328752960011 505.0 9.0 344.0 
582.0003374459613 96086.0 NaN 1485.905143620574 0.5997789713524291 504.0 9.0 344.0 
584.0003374459613 96027.0 NaN 1482.7334669338668 0.6048551578884337 504.0 9.0 343.0 
586.0003374459613 96067.0 NaN 1485.8410153640625 0.6065393798160901 508.0 9.0 344.0 
588.0003374459613 96099.0 NaN 1485.8650634602545 0.6139521424826626 507.0 9.0 344.0 
590.0003374459613 96053.0 NaN 1488.825651302606 0.596534281984348 506.0 9.0 345.0 
592.0003374459613 96026.0 NaN 1495.0006680026727 0.6023231416188034 507.0 9.0 347.0 
594.0003374459613 95924.0 NaN 1492.010688042753 0.6021153420992597 513.0 9.0 346.0 
596.0003374459613 95931.0 NaN 1482.6746826987303 0.5987269849906156 511.0 9.0 343.0 
598.0003374459613 95981.0 NaN 1482.6907147628579 0.6041833852570949 511.0 9.0 343.0 
600.0003374459613 95941.0 NaN 1485.8142952571818 0.6036955917092726 510.0 9.0 344.0 
602.0003374459613 95932.0 NaN 1491.8717434869736 0.6025182674883696 511.0 9.0 346.0 
604.0003374459613 95867.0 NaN 1498.054776219106 0.592189981784201 513.0 9.0 348.0 
606.0003374459613 95887.0 NaN 1495.0487641950556 0.5924660951598205 516.0 9.0 347.0 
608.0003374459613 95953.0 NaN 1494.9231796927181 0.5955734222012202 512.0 9.0 347.0 
610.0003374459613 95951.0 NaN 1494.952571810288 0.5989321119327008 511.0 9.0 347.0 
612.0003374459613 95940.0 NaN 1498.1002004008012 0.5932034216758513 512.0 9.0 348.0 
614.0003374459613 95864.0 NaN 1501.0901803607203 0.5693487691804646 514.0 9.0 349.0 
616.0003374459613 95887.0 NaN 1507.2705410821636 0.5761866218572542 515.0 9.0 351.0 
618.0003374459613 95890.0 NaN 1516.5931863727455 0.5805612822829009 513.0 9.0 354.0 
620.0003374459613 95886.0 NaN 1516.443553774216 0.5816539097493174 513.0 9.0 354.0 
622.0003374459613 95883.0 NaN 1513.3921175684707 0.5718337159260203 514.0 9.0 353.0 
624.0003374459613 95880.0 NaN 1516.574482297928 0.574791377679019 513.0 9.0 354.0 
626.0003374459613 95902.0 NaN 1519.5617902471613 0.5700585120796163 513.0 9.0 355.0 
628.0003374459613 95908.0 NaN 1522.6559786239152 0.5747115369061652 510.0 9.0 356.0 
630.0003374459613 95862.0 NaN 1522.7334669338666 0.5724091981821754 513.0 9.0 356.0 
632.0003374459613 95862.0 NaN 1522.6025384101545 0.5696075151167919 512.0 9.0 356.0 
634.0003374459613 95854.0 NaN 1519.5858383433545 0.5702934434001697 515.0 9.0 355.0 
636.0003374459613 95878.0 NaN 1519.676686706746 0.5803749450621626 516.0 9.0 355.0 
638.0003374459613 95874.0 NaN 1519.5751503006 0.5845338589976719 517.0 9.0 355.0 
640.0003374459613 95834.0 NaN 1516.5424181696726 0.5827327826973187 519.0 9.0 354.0 
642.0003374459613 95834.0 NaN 1519.7007348029385 0.5872277935034746 517.0 9.0 355.0 
644.0003374459613 95830.0 NaN 1522.6720106880434 0.5947775364309511 516.0 9.0 356.0 
646.0003374459613 95858.0 NaN 1519.6526386105547 0.6068847620654267 517.0 9.0 355.0 
648.0003374459613 95857.0 NaN 1519.6659986639938 0.6057491276329178 517.0 9.0 355.0 
650.0003374459613 95820.0 NaN 1519.580494321979 0.5970715665445819 514.0 9.0 355.0 
652.0003374459613 95803.0 NaN 1516.56112224449 0.5996815884956398 513.0 9.0 354.0 
654.0003374459613 95817.0 NaN 1519.6927187708745 0.6065155505933317 510.0 9.0 355.0 
656.0003374459613 95867.0 NaN 1522.6853707414818 0.6084485453621723 508.0 9.0 356.0 
658.0003374459613 95864.0 NaN 1531.9652638610546 0.5976436093412515 507.0 9.0 359.0 
660.0003374459613 95797.0 NaN 1531.9652638610546 0.5929611043991045 505.0 9.0 359.0 
662.0003374459613 95713.0 NaN 1534.9231796927181 0.5916411632243481 505.0 9.0 360.0 
664.0003374459613 95715.0 NaN 1538.0093520374091 0.6027859135991034 505.0 8.0 362.0 
#####################################################################
# End of data export. Simulation finished at: 2019-03-19T17:57+0000 #
#####################################################################
