#####################################################################
# Alchemist log file - simulation started at: 2019-03-15T14:56+0000 #
#####################################################################
# seed = 8.0, bandwidth = 17782.79410038923, propagationDelay = 3.1622776601683795, baserange = 56.234132519034915
#
# The columns have the following meaning: 
# time neighbor_count[Sum] <value>@neighbor_count[Sum] packet_size[Mean] mean_delay[Mean] crowd[Sum] overcrowded[Sum] risk[Sum] 
0.0 NaN NaN NaN NaN NaN NaN NaN 
2.000927030832833 NaN NaN 4988.0 NaN 1497.0 0.0 1497.0 
4.000122411038413 1010.0 NaN 4988.547762191049 0.16928564325425077 1497.0 0.0 1497.0 
6.000198348008885 6162.0 NaN 4996.689378757515 1.5528085544813024 1497.0 0.0 1497.0 
8.000212444488914 6162.0 NaN 4995.211756847028 2.9177677303153744 1497.0 0.0 1497.0 
10.000927030832834 6162.0 NaN 4995.217100868404 1.5553240678165716 1494.0 3.0 1494.0 
12.000212444488914 6162.0 NaN 4993.090180360721 2.9202496220733223 1493.0 4.0 1493.0 
14.000927030832834 6170.0 NaN 4995.080828323314 1.5563671411265985 1485.0 12.0 1485.0 
16.000198348008887 6170.0 NaN 4994.164328657314 2.92464479468305 1481.0 16.0 1481.0 
18.000927030832834 6174.0 NaN 4993.552438209753 1.5585037185059878 1469.0 28.0 1469.0 
20.000212444488913 6175.0 NaN 4992.558450233801 2.9266075583113635 1471.0 26.0 1471.0 
22.000927030832834 6189.0 NaN 4994.148296593186 1.5601324424345524 1476.0 21.0 1476.0 
24.000212444488913 6191.0 NaN 4993.73413493654 2.926908781829676 1474.0 23.0 1474.0 
26.000198348008887 6198.0 NaN 4993.346693386774 1.569065983549695 1475.0 22.0 1475.0 
28.000212444488913 6198.0 NaN 4992.515698062793 2.937110702696085 1475.0 22.0 1475.0 
30.000927030832834 6208.0 NaN 4993.854375417502 1.586744384766563 1476.0 21.0 1476.0 
32.00021244448891 6216.0 NaN 4993.549766199065 2.947168297336198 1476.0 21.0 1476.0 
34.000927030832834 6246.0 NaN 4993.237140948564 1.6006101427618533 1475.0 22.0 1475.0 
36.00019834800889 6247.0 NaN 4992.5691382765535 2.9681352061430384 1475.0 22.0 1475.0 
38.000927030832834 6254.0 NaN 4993.894455577823 1.6239497719311498 1476.0 21.0 1476.0 
40.00021244448891 6258.0 NaN 4993.541750167001 2.9888069432714186 1476.0 21.0 1476.0 
42.000927030832834 6267.0 NaN 4993.258517034068 1.6546392369342495 1475.0 22.0 1475.0 
44.00021244448891 6271.0 NaN 4992.619906479626 3.021333283804411 1475.0 22.0 1475.0 
46.00019834800889 6314.0 NaN 4993.798263193053 1.695032460378995 1476.0 21.0 1476.0 
48.00021244448891 6316.0 NaN 4993.453573814295 3.064858047633362 1476.0 21.0 1476.0 
50.000927030832834 6323.0 NaN 4993.130260521042 1.7042211478648162 1475.0 22.0 1475.0 
52.00021244448891 6339.0 NaN 4992.534402137609 3.071029982027601 1475.0 22.0 1475.0 
54.000927030832834 6390.0 NaN 4993.715430861724 1.7109507837018738 1477.0 20.0 1477.0 
56.00019834800889 6393.0 NaN 4993.426853707415 3.0794240683516034 1477.0 20.0 1477.0 
58.000927030832834 6399.0 NaN 4993.108884435538 1.6889295056194977 1475.0 22.0 1475.0 
60.00021244448891 6401.0 NaN 4992.61456245825 3.0590081502397686 1475.0 22.0 1475.0 
62.000927030832834 6415.0 NaN 1522.1082164328639 1.7370554010351094 822.0 17.0 348.0 
64.00041782659038 6434.0 NaN 1522.1135604542426 2.8457405543903285 782.0 17.0 348.0 
66.0001983480089 6485.0 NaN 1522.193720774882 1.8974288267153865 648.0 21.0 344.0 
68.0004178265904 6494.0 NaN 1521.8463593854362 2.9071063890353703 630.0 21.0 344.0 
70.00092703083283 6492.0 NaN 1521.9585838343364 1.9149571047518417 577.0 28.0 337.0 
72.0004178265904 6499.0 NaN 1521.7955911823635 2.908490819839432 567.0 29.0 336.0 
74.00092703083283 6518.0 NaN 1521.907815631264 1.967702937904437 549.0 30.0 335.0 
76.0001983480089 6530.0 NaN 1524.844355377421 2.9731324205714924 541.0 30.0 336.0 
78.00092703083283 6498.0 NaN 1528.0320641282547 1.96806884934468 516.0 36.0 331.0 
80.0004178265904 6499.0 NaN 1527.9438877755515 2.9584829501737953 511.0 37.0 330.0 
82.00092703083283 6501.0 NaN 1527.938543754173 2.0117543798586284 500.0 42.0 325.0 
84.0004178265904 6507.0 NaN 1530.9018036072152 3.0140850761499287 499.0 42.0 326.0 
86.0001983480089 6482.0 NaN 1531.0060120240482 2.0255162145734262 495.0 39.0 329.0 
88.0004178265904 6484.0 NaN 1530.9231796927181 3.02559235654855 493.0 40.0 328.0 
90.00092703083283 6439.0 NaN 1531.0541082164334 1.9759165525795714 490.0 42.0 326.0 
92.0004178265904 6446.0 NaN 1530.8857715430852 2.977185500661074 491.0 41.0 327.0 
94.00092703083283 6457.0 NaN 1531.0247160988636 1.9993375684421757 494.0 36.0 332.0 
96.0001983480089 6463.0 NaN 1533.9933199732816 3.0051065101952608 495.0 36.0 333.0 
98.00092703083283 6450.0 NaN 1534.0601202404819 2.0068237734444114 493.0 37.0 332.0 
100.0004178265904 6452.0 NaN 1533.9425517702089 3.0065261202400144 493.0 37.0 332.0 
102.00092703083283 6434.0 NaN 1534.0895123580485 1.9519197255749856 493.0 37.0 332.0 
104.0004178265904 6441.0 NaN 1533.9853039412158 2.9516834873095292 491.0 39.0 330.0 
106.0001983480089 6433.0 NaN 1534.0467601870394 1.9232962055065506 487.0 40.0 329.0 
108.0004178265904 6436.0 NaN 1533.9291917167664 2.9262766198315564 485.0 40.0 329.0 
110.00092703083283 6409.0 NaN 1534.094856379427 1.9407738156778975 487.0 38.0 331.0 
112.0004178265904 6416.0 NaN 1537.0875083500337 2.939868925259355 486.0 39.0 331.0 
114.00092703083283 6428.0 NaN 1537.154308617236 1.941237380271212 484.0 40.0 330.0 
116.0001983480089 6438.0 NaN 1537.007348029391 2.948166536509432 483.0 41.0 329.0 
118.00092703083283 6441.0 NaN 1537.119572478291 1.954058105790513 487.0 38.0 332.0 
120.0004178265904 6446.0 NaN 1537.0126920507666 2.956477842617004 488.0 38.0 332.0 
122.00092703083283 6499.0 NaN 1546.3380093520364 1.9891554414112165 486.0 40.0 333.0 
124.0004178265904 6507.0 NaN 1546.2017368069457 2.9951139154016495 487.0 39.0 334.0 
126.0001983480089 6517.0 NaN 1546.412825651303 2.032511133429602 489.0 37.0 336.0 
128.0004178265904 6522.0 NaN 1546.2792251168999 3.0511138040853045 489.0 37.0 336.0 
130.00092703083283 6509.0 NaN 1546.311289245157 2.0669996458938225 488.0 37.0 336.0 
132.00041782659036 6518.0 NaN 1543.1556446225788 3.0836747055190097 488.0 37.0 335.0 
134.00092703083283 6514.0 NaN 1540.227120908482 1.997638270210949 491.0 34.0 337.0 
136.0001983480089 6527.0 NaN 1537.0848363393457 3.013935142155069 491.0 34.0 336.0 
138.00092703083283 6518.0 NaN 1534.0093520374094 2.0579195755824373 490.0 35.0 334.0 
140.00041782659036 6530.0 NaN 1533.9372077488304 3.063230449563438 490.0 35.0 334.0 
142.00092703083283 6518.0 NaN 1540.2378089512365 2.014673380397547 488.0 37.0 334.0 
144.00041782659036 6534.0 NaN 1543.2277889111542 3.0251487164053126 487.0 38.0 334.0 
146.0001983480089 6553.0 NaN 1543.2491649966605 2.051860089642132 483.0 42.0 330.0 
148.00041782659036 6557.0 NaN 1546.276553106212 3.0735512360056636 483.0 42.0 331.0 
150.00092703083283 6555.0 NaN 1549.4722778891116 2.1447747063728744 482.0 43.0 331.0 
152.00041782659036 6562.0 NaN 1540.2191048764182 3.162344329825 481.0 45.0 326.0 
154.00092703083283 6552.0 NaN 1537.1676686706728 2.1696906779073175 481.0 46.0 324.0 
156.0001983480089 6560.0 NaN 1540.1576486305942 3.1901499568219314 479.0 48.0 323.0 
158.00092703083283 6526.0 NaN 1543.3640614562453 2.15383645851813 478.0 47.0 325.0 
160.00041782659036 6529.0 NaN 1543.2625250501 3.172601649964765 477.0 48.0 324.0 
162.00092703083283 6512.0 NaN 1543.265197060788 2.167949314583435 473.0 52.0 320.0 
164.00041782659036 6520.0 NaN 1543.1556446225788 3.177151015324431 474.0 51.0 321.0 
166.0001983480089 6474.0 NaN 1546.3353373413483 2.12937459781838 473.0 49.0 324.0 
168.00041782659036 6478.0 NaN 1546.2658650634608 3.134544566232424 475.0 46.0 327.0 
170.00092703083283 6480.0 NaN 1546.268537074148 2.1285850759099536 482.0 40.0 333.0 
172.00041782659036 6495.0 NaN 1546.1990647962602 3.119916794686405 482.0 40.0 333.0 
174.00092703083283 6512.0 NaN 1552.4462257849025 2.1259604512051267 486.0 38.0 337.0 
176.0001983480089 6519.0 NaN 1549.3066132264546 3.1422201764369646 487.0 38.0 336.0 
178.00092703083283 6484.0 NaN 1549.352037408148 2.0940048832534885 484.0 40.0 334.0 
180.00041782659036 6490.0 NaN 1549.269205076818 3.107761778563275 485.0 40.0 334.0 
182.00092703083283 6493.0 NaN 1546.3380093520361 2.1043226824455354 487.0 38.0 335.0 
184.00041782659036 6495.0 NaN 1543.1877087508365 3.127086721419642 487.0 38.0 334.0 
186.0001983480089 6454.0 NaN 1543.1877087508365 2.1070264554634948 484.0 40.0 332.0 
188.00041782659036 6463.0 NaN 1543.1102204408817 3.126647566000401 483.0 40.0 332.0 
190.00092703083283 6454.0 NaN 1540.1656646626573 2.149355511014339 482.0 39.0 332.0 
192.00041782659036 6467.0 NaN 1537.0607882431545 3.1655466661017084 478.0 42.0 328.0 
194.00092703083283 6455.0 NaN 1537.1275885103548 2.1766638783559498 473.0 47.0 323.0 
196.0001983480089 6462.0 NaN 1537.0287241148972 3.1914053042349053 473.0 47.0 323.0 
198.00092703083283 6418.0 NaN 1537.1756847027386 2.1760698074318787 475.0 44.0 326.0 
200.00041782659036 6426.0 NaN 1537.1008684034728 3.1785521323068475 476.0 44.0 326.0 
202.00092703083283 6419.0 NaN 1540.2832331329334 2.172446453541467 473.0 46.0 325.0 
204.00041782659036 6425.0 NaN 1540.1523046092182 3.2078506474926205 473.0 46.0 325.0 
206.0001983480089 6381.0 NaN 1540.2698730794912 2.1687235600216503 475.0 44.0 327.0 
208.00041782659036 6383.0 NaN 1537.111556446227 3.1945312140813313 474.0 44.0 326.0 
210.00092703083283 6401.0 NaN 1534.0868403473632 2.1627947664734464 469.0 46.0 323.0 
212.00041782659036 6408.0 NaN 1530.9338677354726 3.1976722199782146 467.0 46.0 322.0 
214.00092703083283 6387.0 NaN 1531.0193720774882 2.2324920732712323 473.0 43.0 325.0 
216.0001983480089 6393.0 NaN 1533.9933199732818 3.258292169885584 472.0 44.0 325.0 
218.00092703083283 6372.0 NaN 1534.1322645290575 2.2849855597236726 471.0 45.0 324.0 
220.00041782659036 6380.0 NaN 1527.8690714762847 3.293010534427619 474.0 42.0 325.0 
222.00092703083283 6363.0 NaN 1524.8577154308632 2.33317238654637 479.0 37.0 329.0 
224.00041782659036 6366.0 NaN 1521.7314629258522 3.3560638920503596 480.0 37.0 328.0 
226.0001983480089 6312.0 NaN 1524.8149632598543 2.2532023829865007 477.0 39.0 327.0 
228.00041782659036 6320.0 NaN 1527.8530394121572 3.2610540093913554 477.0 39.0 328.0 
230.00092703083283 6326.0 NaN 1530.9899799599184 2.1703729834438983 478.0 38.0 330.0 
232.00041782659036 6331.0 NaN 1530.9338677354726 3.190174619702346 478.0 38.0 330.0 
234.00092703083283 6290.0 NaN 1534.0013360053454 2.1942377878526482 483.0 33.0 336.0 
236.0001983480089 6293.0 NaN 1533.923847695391 3.212219287043494 484.0 32.0 337.0 
238.00092703083283 6272.0 NaN 1534.020040080161 2.16907291611867 485.0 30.0 339.0 
240.00041782659036 6277.0 NaN 1530.8724114896452 3.1810931861712914 484.0 31.0 337.0 
242.00092703083283 6281.0 NaN 1531.0140280561118 2.238452546403189 482.0 33.0 335.0 
244.00041782659036 6283.0 NaN 1527.8236472945905 3.2560154916414725 482.0 33.0 334.0 
246.0001983480089 6225.0 NaN 1527.975951903809 2.2333598340340615 483.0 32.0 335.0 
248.00041782659036 6233.0 NaN 1524.8550434201727 3.2544868891700327 483.0 32.0 334.0 
250.00092703083283 6242.0 NaN 1524.847027388109 2.2996304631225386 480.0 34.0 332.0 
252.00041782659036 6246.0 NaN 1527.8129592518362 3.3237646211328853 480.0 35.0 332.0 
254.00092703083283 6201.0 NaN 1527.8663994655997 2.288851130049023 483.0 34.0 333.0 
256.0001983480089 6204.0 NaN 1527.8209752839 3.3218586621762634 483.0 34.0 333.0 
258.0009270308328 6179.0 NaN 1527.839679358718 2.248582441854182 481.0 36.0 331.0 
260.00041782659036 6197.0 NaN 1527.7808951235816 3.2733734006069235 482.0 36.0 331.0 
262.0009270308328 6204.0 NaN 1527.9198396793574 2.239438729352184 483.0 35.0 332.0 
264.00041782659036 6205.0 NaN 1524.7241148964608 3.2780269891772145 482.0 35.0 331.0 
266.0001983480089 6181.0 NaN 1521.6539746158994 2.2297582636974607 475.0 40.0 325.0 
268.00041782659036 6189.0 NaN 1527.7675350701393 3.271898777848883 474.0 41.0 326.0 
270.0009270308328 6194.0 NaN 1540.136272545091 2.280343792595665 476.0 39.0 332.0 
272.00041782659036 6199.0 NaN 1540.064128256512 3.321842260394708 477.0 39.0 332.0 
274.0009270308328 6163.0 NaN 1543.209084836339 2.2787448663589696 475.0 42.0 330.0 
276.0001983480089 6170.0 NaN 1543.169004676018 3.3228203849350395 474.0 42.0 330.0 
278.0009270308328 6123.0 NaN 1543.2651970607885 2.229503032661984 478.0 38.0 334.0 
280.00041782659036 6136.0 NaN 1546.2177688710751 3.26214033296334 478.0 38.0 335.0 
282.0009270308328 6136.0 NaN 1546.2391449565816 2.3006179373969924 479.0 37.0 336.0 
284.00041782659036 6138.0 NaN 1539.9732798931182 3.327905586994613 481.0 37.0 334.0 
286.0001983480089 6101.0 NaN 1540.1255845023366 2.322093631659926 482.0 35.0 336.0 
288.00041782659036 6109.0 NaN 1540.093520374082 3.3671418735594005 481.0 35.0 336.0 
290.0009270308328 6108.0 NaN 1540.0721442885758 2.319893705526062 478.0 37.0 334.0 
292.00041782659036 6113.0 NaN 1539.975951903809 3.3629671180371017 478.0 37.0 334.0 
294.0009270308328 6099.0 NaN 1540.1255845023366 2.316861155809083 480.0 35.0 336.0 
296.0001983480089 6106.0 NaN 1540.0427521710092 3.3575145528202275 476.0 35.0 336.0 
298.0009270308328 6059.0 NaN 1540.048096192384 2.2799294542123683 476.0 37.0 334.0 
300.00041782659036 6064.0 NaN 1539.962591850366 3.316243538348638 476.0 37.0 334.0 
302.0009270308328 6066.0 NaN 1546.2471609886454 2.344032108862674 477.0 35.0 338.0 
304.00041782659036 6069.0 NaN 1543.1209084836346 3.3937851033507043 476.0 35.0 337.0 
306.0001983480089 6029.0 NaN 1546.1616566466273 2.3357970109197455 472.0 38.0 335.0 
308.00041782659036 6033.0 NaN 1536.9111556446207 3.3883605050970247 471.0 38.0 332.0 
310.0009270308328 6014.0 NaN 1540.1202404809635 2.3751232775406916 474.0 36.0 335.0 
312.00041782659036 6017.0 NaN 1533.9024716098882 3.3987943977983592 474.0 36.0 333.0 
314.0009270308328 6000.0 NaN 1530.880427521709 2.341109421702268 473.0 37.0 331.0 
316.0001983480089 6006.0 NaN 1530.7521710086817 3.372139924930781 470.0 37.0 331.0 
318.0009270308328 5965.0 NaN 1530.8403473613907 2.292742019626259 474.0 35.0 333.0 
320.00041782659036 5969.0 NaN 1530.7682030728115 3.311719003916659 471.0 35.0 333.0 
322.0009270308328 5973.0 NaN 1530.7922511690058 2.2884729630523384 467.0 37.0 331.0 
324.00041782659036 5979.0 NaN 1533.7929191716753 3.3129452798750822 468.0 37.0 332.0 
326.0001983480089 5959.0 NaN 1537.0207080828338 2.2752467735301622 470.0 35.0 335.0 
328.00041782659036 5959.0 NaN 1536.9138276553092 3.3094985567024024 470.0 35.0 335.0 
330.0009270308328 5954.0 NaN 1539.9893119572475 2.2167773478462642 470.0 37.0 334.0 
332.00041782659036 5958.0 NaN 1539.9198396793572 3.2384399563925546 470.0 37.0 334.0 
334.0009270308328 5951.0 NaN 1537.0367401469612 2.1770461796701874 472.0 35.0 335.0 
336.0001983480089 5954.0 NaN 1533.857047428191 3.198349891818093 472.0 35.0 334.0 
338.0009270308328 5946.0 NaN 1536.9058116232454 2.2190887265811536 471.0 37.0 333.0 
340.00041782659036 5961.0 NaN 1533.7688710754842 3.2571240029234887 471.0 37.0 332.0 
342.0009270308328 5983.0 NaN 1530.9151636606543 2.168970404762018 471.0 35.0 333.0 
344.00041782659036 5992.0 NaN 1536.9859719438882 3.2005779763611075 474.0 35.0 335.0 
346.0001983480089 5973.0 NaN 1536.956579826318 2.1025266401103 473.0 37.0 333.0 
348.00041782659036 5972.0 NaN 1533.7955911823635 3.1246923083370826 473.0 37.0 332.0 
350.0009270308328 5979.0 NaN 1533.9372077488304 2.187275778523681 475.0 35.0 334.0 
352.00041782659036 5989.0 NaN 1533.8169672678698 3.2012250143495162 475.0 35.0 334.0 
354.0009270308328 5991.0 NaN 1530.8082832331334 2.2520513620309193 474.0 37.0 331.0 
356.0001983480089 5995.0 NaN 1527.6419505678004 3.2618563748136764 474.0 37.0 330.0 
358.0009270308328 5961.0 NaN 1524.7080828323303 2.2456543319830575 476.0 34.0 332.0 
360.00041782659036 5965.0 NaN 1524.563794255176 3.26811569247484 475.0 34.0 332.0 
362.0009270308328 5965.0 NaN 1524.6599866399451 2.3028138532123648 473.0 37.0 329.0 
364.00041782659036 5971.0 NaN 1521.5364061456248 3.3064730052978946 474.0 37.0 328.0 
366.0001983480089 5974.0 NaN 1521.6753507014023 2.2599825716984028 482.0 34.0 331.0 
368.00041782659036 5981.0 NaN 1512.3527054108213 3.2759779877465243 481.0 34.0 328.0 
370.0009270308328 5973.0 NaN 1509.3039412157643 2.242977683418166 477.0 37.0 324.0 
372.0007344920861 5977.0 NaN 1506.1295925183706 3.259527639349852 476.0 37.0 323.0 
374.0009270308328 5976.0 NaN 1509.3253173012697 2.262512263283202 482.0 34.0 327.0 
376.0001983480089 5989.0 NaN 1509.2211088844363 3.2647454062825174 481.0 34.0 327.0 
378.0009270308328 5981.0 NaN 1515.4655978623907 2.339909213598251 479.0 36.0 327.0 
380.0007344920861 5989.0 NaN 1515.3480293921182 3.3529070104432397 478.0 36.0 327.0 
382.0009270308328 5996.0 NaN 1509.3306613226455 2.3820029233512585 481.0 34.0 327.0 
384.0007344920861 6002.0 NaN 1512.2939211756839 3.3928076197371246 483.0 35.0 327.0 
386.0001983480089 5972.0 NaN 1515.4175016700071 2.3849840493532337 480.0 37.0 326.0 
388.0007344920861 5977.0 NaN 1509.1649966599878 3.4189106388745794 480.0 37.0 324.0 
390.0009270308328 5973.0 NaN 1509.3466933867728 2.3764349131849074 483.0 35.0 326.0 
392.0007344920861 5979.0 NaN 1506.2044088176365 3.383667770057912 481.0 35.0 325.0 
394.0009270308328 5980.0 NaN 1509.306613226454 2.389680368833393 477.0 38.0 323.0 
396.0001983480089 5985.0 NaN 1509.1890447561796 3.409810504013328 476.0 38.0 323.0 
398.0009270308328 5983.0 NaN 1512.4515698062794 2.350190675594469 480.0 39.0 323.0 
400.0007344920861 5994.0 NaN 1512.320641282564 3.3596931565054438 479.0 40.0 322.0 
402.0009270308328 6023.0 NaN 1509.3520374081486 2.356230461115559 480.0 38.0 323.0 
404.0007344920861 6035.0 NaN 1512.3072812291252 3.3261464882176353 483.0 37.0 325.0 
406.0001983480089 6031.0 NaN 1515.4816299265187 2.30812306031438 488.0 34.0 329.0 
408.0007344920861 6040.0 NaN 1518.503674014697 3.3137384938514853 488.0 34.0 330.0 
410.0009270308328 6019.0 NaN 1527.7702070808273 2.328770583762328 486.0 35.0 332.0 
412.0007344920861 6025.0 NaN 1524.5557782231122 3.333060819946626 486.0 35.0 331.0 
414.0009270308328 6032.0 NaN 1527.7515030060115 2.314378314996229 487.0 35.0 332.0 
416.0001983480089 6036.0 NaN 1524.5584502338 3.3220952682644946 487.0 35.0 331.0 
418.0009270308328 6018.0 NaN 1521.5845023380089 2.3665988332305856 482.0 39.0 326.0 
420.0007344920861 6022.0 NaN 1518.4048096192369 3.406291096014526 485.0 37.0 327.0 
422.0009270308328 6034.0 NaN 1521.5951903807631 2.4313738713316075 486.0 37.0 328.0 
424.0007344920861 6047.0 NaN 1512.2591850367394 3.4382254662186216 485.0 37.0 325.0 
426.0001983480089 6051.0 NaN 1518.4849699398808 2.4880284073086725 483.0 36.0 328.0 
428.0007344920861 6056.0 NaN 1515.2758851035394 3.5245759781830968 483.0 35.0 328.0 
430.0009270308328 6031.0 NaN 1515.4068136272545 2.4713536444390662 482.0 35.0 328.0 
432.0007344920861 6037.0 NaN 1512.3046092184363 3.4802097685432467 483.0 34.0 328.0 
434.0009270308328 6050.0 NaN 1527.7060788243157 2.6011129399132873 479.0 39.0 328.0 
436.0001983480089 6062.0 NaN 1527.5938543754182 3.634293676771567 478.0 40.0 327.0 
438.0009270308328 6020.0 NaN 1533.873079492318 2.6011773788816432 484.0 40.0 329.0 
440.0007344920861 6033.0 NaN 1530.6639946559792 3.628229067553307 484.0 40.0 328.0 
442.0009270308328 6030.0 NaN 1536.9352037408155 2.5922919269501294 487.0 40.0 330.0 
444.0007344920861 6032.0 NaN 1530.661322645291 3.636577128000045 488.0 40.0 328.0 
446.0001983480089 5970.0 NaN 1546.249832999333 2.340036638627929 492.0 39.0 334.0 
448.0007344920861 5972.0 NaN 1542.9792919171666 3.3824773242806123 490.0 40.0 332.0 
450.0009270308328 5978.0 NaN 1543.1128924515701 2.4462585368107925 491.0 40.0 332.0 
452.0007344920861 5981.0 NaN 1542.960587842352 3.478806399465368 490.0 40.0 332.0 
454.0009270308328 5980.0 NaN 1555.468269873082 2.3392615244422923 493.0 37.0 339.0 
456.0001983480089 5989.0 NaN 1558.3460253841 3.3817859478738965 493.0 37.0 340.0 
458.0009270308328 5986.0 NaN 1558.5277221108888 2.4056509206961207 491.0 38.0 339.0 
460.0007344920861 5993.0 NaN 1555.3079492317975 3.427410526745785 489.0 38.0 338.0 
462.0009270308328 5997.0 NaN 1558.514362057448 2.419853653832526 489.0 38.0 339.0 
464.0007344920861 6005.0 NaN 1558.303273213091 3.464411302721208 490.0 38.0 339.0 
466.0001983480089 5984.0 NaN 1555.3480293921184 2.4107852352059855 491.0 38.0 338.0 
468.0007344920861 5990.0 NaN 1555.198396793588 3.458617587359451 491.0 38.0 338.0 
470.0009270308328 5996.0 NaN 1552.2859051436203 2.322828246108005 493.0 36.0 339.0 
472.0007344920861 5996.0 NaN 1546.0093520374094 3.3519472355777666 492.0 36.0 337.0 
474.0009270308328 5966.0 NaN 1546.0547762191063 2.3193007063350457 488.0 40.0 333.0 
476.0001983480089 5974.0 NaN 1542.8643954575818 3.3567589017748296 486.0 40.0 332.0 
478.0009270308328 5944.0 NaN 1546.076152304609 2.278298514963293 492.0 35.0 338.0 
480.00041782659036 5954.0 NaN 1539.8022712090844 3.302292932230458 491.0 35.0 336.0 
482.0009270308328 5954.0 NaN 1539.9385437541728 2.2808991325526358 489.0 36.0 335.0 
484.00041782659036 5964.0 NaN 1542.8777555110212 3.2889085683278205 489.0 36.0 336.0 
486.0001983480089 5945.0 NaN 1536.8871075484299 2.302028925861092 488.0 35.0 335.0 
488.00041782659036 5951.0 NaN 1527.6098864395453 3.318661521623758 489.0 35.0 332.0 
490.0009270308328 5931.0 NaN 1527.679358717436 2.271282667580846 486.0 36.0 331.0 
492.00041782659036 5937.0 NaN 1518.3460253841006 3.2870756412798503 484.0 36.0 328.0 
494.0009270308328 5927.0 NaN 1518.4956579826332 2.3082840662267454 484.0 36.0 328.0 
496.0001983480089 5931.0 NaN 1515.3319973279902 3.3539258144585737 484.0 36.0 327.0 
498.0009270308328 5909.0 NaN 1509.2211088844365 2.395377049910993 481.0 39.0 322.0 
500.0007344920861 5918.0 NaN 1509.1356045424182 3.443537076148686 479.0 39.0 322.0 
502.0009270308328 5926.0 NaN 1509.3066132264537 2.4312155761851884 483.0 35.0 326.0 
504.0007344920861 5933.0 NaN 1506.140280561121 3.476812792724447 483.0 35.0 325.0 
506.0001983480089 5889.0 NaN 1506.1937207748824 2.3445076357948795 481.0 37.0 323.0 
508.0007344920861 5895.0 NaN 1506.140280561121 3.3771880728605397 481.0 37.0 323.0 
510.0009270308328 5867.0 NaN 1509.2772211088843 2.305759338028546 480.0 39.0 322.0 
512.0007344920862 5874.0 NaN 1499.9919839679364 3.3429568080986836 478.0 39.0 319.0 
514.0009270308328 5868.0 NaN 1496.9966599866393 2.328217324323307 478.0 40.0 317.0 
516.0001983480089 5873.0 NaN 1496.9031396125574 3.355402053934987 476.0 40.0 317.0 
518.0009270308328 5863.0 NaN 1496.9565798263181 2.253295183257857 474.0 40.0 317.0 
520.000734492086 5874.0 NaN 1487.660654642618 3.280743310038643 473.0 40.0 314.0 
522.0009270308328 5894.0 NaN 1484.6867067468274 2.2669393515930834 474.0 41.0 312.0 
524.000734492086 5912.0 NaN 1475.3747494989989 3.2816114633223914 472.0 41.0 309.0 
526.0001983480089 5903.0 NaN 1469.346693386773 2.149428114714781 468.0 40.0 308.0 
528.000734492086 5913.0 NaN 1463.198396793588 3.1712744195243454 464.0 41.0 305.0 
530.0009270308328 5932.0 NaN 1469.3012692050759 2.186605575318941 463.0 41.0 307.0 
532.000734492086 5941.0 NaN 1460.0080160320638 3.205370667194776 466.0 41.0 304.0 
534.0009270308328 5933.0 NaN 1463.225116900467 2.232741989188852 469.0 35.0 311.0 
536.0001983480089 5939.0 NaN 1469.333333333334 3.2512715731052366 469.0 36.0 312.0 
538.0009270308328 5939.0 NaN 1469.317301269206 2.2254530746269383 468.0 36.0 312.0 
540.000734492086 5953.0 NaN 1469.2478289913172 3.2387224954426266 469.0 36.0 312.0 
542.0009270308328 5964.0 NaN 1472.4435537742156 2.2621607613125256 470.0 37.0 312.0 
544.000734492086 5970.0 NaN 1469.3119572478286 3.298347130558226 468.0 40.0 308.0 
546.0001983480089 5936.0 NaN 1472.4168336673351 2.265024918141203 471.0 41.0 308.0 
548.000734492086 5943.0 NaN 1472.288577154309 3.2903130209891813 474.0 38.0 311.0 
550.0009270308328 5939.0 NaN 1469.338677354709 2.2720530092073026 476.0 35.0 313.0 
552.000734492086 5945.0 NaN 1472.392785571143 3.3069367737276996 475.0 35.0 314.0 
554.0009270308328 5924.0 NaN 1469.3760855043424 2.2354233411797293 478.0 36.0 312.0 
556.0001983480089 5937.0 NaN 1466.2204408817638 3.256986045742038 480.0 36.0 311.0 
558.0009270308328 5935.0 NaN 1472.4756179024723 2.2660930639666867 479.0 35.0 314.0 
560.000734492086 5943.0 NaN 1466.260521042084 3.281309636197445 480.0 35.0 312.0 
562.0009270308328 5927.0 NaN 1463.2090848363391 2.3163593611227076 474.0 37.0 309.0 
564.0004178265903 5942.0 NaN 1463.1342685370737 3.3481393286851016 473.0 37.0 309.0 
566.0001983480089 5988.0 NaN 1466.3326653306624 2.3415530109722984 475.0 36.0 311.0 
568.0004178265903 5992.0 NaN 1469.3146292585177 3.3630630285517675 473.0 36.0 312.0 
570.0009270308328 5998.0 NaN 1469.413493653974 2.2734924168254182 478.0 37.0 311.0 
572.0004178265903 6003.0 NaN 1472.430193720774 3.309747344358152 476.0 37.0 312.0 
574.0009270308328 5991.0 NaN 1481.7154308617241 2.353351515362466 477.0 35.0 317.0 
576.0001983480089 6005.0 NaN 1484.7401469605886 3.405043499328401 476.0 37.0 316.0 
578.0009270308328 6008.0 NaN 1481.6673346693376 2.337611579025998 470.0 41.0 311.0 
580.0004178265903 6015.0 NaN 1481.6325985303934 3.3755819468720856 470.0 41.0 311.0 
582.0009270308328 6017.0 NaN 1481.7768871075477 2.4439275798295044 472.0 40.0 312.0 
584.0004178265903 6033.0 NaN 1490.9712758851028 3.509088601406533 478.0 37.0 318.0 
586.0001983480089 6054.0 NaN 1490.9418837675355 2.553190683008066 485.0 35.0 320.0 
588.0004178265903 6064.0 NaN 1487.8102872411482 3.607414394598746 485.0 35.0 319.0 
590.0009270308328 6005.0 NaN 1494.07348029392 2.562371108662738 486.0 37.0 319.0 
592.0004178265903 6016.0 NaN 1493.9879759519029 3.6244668933668494 486.0 37.0 319.0 
594.0009270308328 6042.0 NaN 1494.0280561122256 2.697035962612543 486.0 38.0 318.0 
596.0001983480089 6054.0 NaN 1493.9345357381437 3.745658522891054 485.0 38.0 318.0 
598.0009270308328 6005.0 NaN 1497.1035404141626 2.635694883608051 486.0 37.0 320.0 
600.0004178265903 6011.0 NaN 1500.0828323313285 3.69046493873986 491.0 37.0 321.0 
602.0009270308328 5993.0 NaN 1503.131596526385 2.650624537164816 490.0 38.0 321.0 
604.0004178265903 6026.0 NaN 1503.1048764195061 3.705028767232613 488.0 38.0 321.0 
606.0001983480089 6064.0 NaN 1503.1877087508353 2.690738899852123 494.0 37.0 322.0 
608.0004178265903 6071.0 NaN 1500.024048096192 3.7394432346628785 492.0 37.0 321.0 
610.0009270308328 6006.0 NaN 1503.128924515699 2.3774421274591657 492.0 38.0 321.0 
612.0004178265903 6014.0 NaN 1509.213092852372 3.3864563338850413 486.0 42.0 319.0 
614.0009270308328 6037.0 NaN 1512.384769539079 2.5067624915094937 485.0 44.0 318.0 
616.0001983480089 6047.0 NaN 1518.4288577154302 3.5438328023806873 488.0 41.0 323.0 
618.0009270308328 6068.0 NaN 1524.6519706078816 2.57831599285602 494.0 39.0 327.0 
620.0004178265903 6083.0 NaN 1521.4589178356719 3.595185921812578 489.0 42.0 323.0 
622.0009270308328 6083.0 NaN 1521.6379425517707 2.398913987573295 487.0 44.0 321.0 
624.0004178265903 6099.0 NaN 1521.595190380763 3.409530355111454 487.0 43.0 322.0 
626.0001983480089 6161.0 NaN 1527.7595190380757 2.4469052754265164 481.0 48.0 319.0 
628.0004178265903 6174.0 NaN 1527.7675350701393 3.4974316361568913 481.0 48.0 319.0 
630.0009270308328 6132.0 NaN 1530.9418837675357 2.333657219598616 482.0 47.0 321.0 
632.0004178265903 6142.0 NaN 1524.7107548430183 3.355937739624864 481.0 47.0 319.0 
634.0009270308328 6145.0 NaN 1530.8777555110212 2.4407033695668536 486.0 48.0 320.0 
636.0001983480089 6164.0 NaN 1533.8971275885099 3.4765554831495993 486.0 48.0 321.0 
638.0009270308328 6156.0 NaN 1537.0607882431539 2.3372480096948847 489.0 45.0 325.0 
640.0004178265903 6173.0 NaN 1533.8864395457574 3.3567180952846676 490.0 44.0 325.0 
642.0009270308328 6189.0 NaN 1536.9993319973273 2.335636800143315 495.0 43.0 327.0 
644.0004178265903 6205.0 NaN 1524.6332665330654 3.3830772187402554 494.0 43.0 323.0 
646.0001983480089 6226.0 NaN 1530.8750835003345 2.4278059567951664 495.0 42.0 326.0 
648.0004178265903 6243.0 NaN 1530.7975951903818 3.474219475897292 495.0 42.0 326.0 
650.0009270308328 6227.0 NaN 1533.9532398129606 2.4682453443657137 491.0 43.0 326.0 
652.0004178265903 6234.0 NaN 1536.9752839011362 3.5130899324248244 489.0 44.0 326.0 
654.0009270308328 6211.0 NaN 1540.1042084168344 2.4979510076487417 483.0 46.0 325.0 
656.0001983480089 6213.0 NaN 1540.0053440213755 3.54074349069964 482.0 47.0 324.0 
658.0009270308328 6184.0 NaN 1540.0374081496336 2.4850846802234674 480.0 47.0 324.0 
660.0004178265903 6193.0 NaN 1539.95991983968 3.5213681685566436 483.0 44.0 327.0 
662.0009270308328 6192.0 NaN 1546.20975283901 2.488863076881667 487.0 41.0 332.0 
664.0004178265903 6204.0 NaN 1543.032732130928 3.5442238856035226 483.0 44.0 328.0 
#####################################################################
# End of data export. Simulation finished at: 2019-03-15T15:17+0000 #
#####################################################################
