#####################################################################
# Alchemist log file - simulation started at: 2019-03-03T21:19+0000 #
#####################################################################
# seed = 1.0, bandwidth = 1.0E8, propagationDelay = 0.03162277660168379, baserange = 100.0
#
# The columns have the following meaning: 
# time neighbor_count[Sum] <value>@neighbor_count[Sum] packet_size[Mean] mean_delay[Mean] crowd[Sum] overcrowded[Sum] risk[Sum] 
0.0 NaN NaN NaN NaN NaN NaN NaN 
10.000125882622244 13130.0 NaN 4995.866399465598 0.4970653228915542 1493.0 4.0 1493.0 
20.000125802622247 13144.0 NaN 4995.831663326653 0.49729080083741906 1491.0 6.0 1491.0 
30.000125802622247 13177.0 NaN 4994.896459585839 0.49713518499898024 1491.0 6.0 1491.0 
40.000125922622246 13214.0 NaN 4995.791583166333 0.4969623695627243 1492.0 5.0 1492.0 
50.00012588262225 13243.0 NaN 4994.749498997996 0.49871724545602003 1488.0 9.0 1488.0 
60.00012580262225 13254.0 NaN 4995.3239812959255 0.5001847794325651 1493.0 4.0 1493.0 
70.00012588262224 13235.0 NaN 1525.6539746158996 0.497382361616384 523.0 13.0 353.0 
80.00012588262224 13294.0 NaN 1534.928523714094 0.4974586137998465 518.0 10.0 359.0 
90.00012588262224 13268.0 NaN 1534.789579158318 0.4973280162222792 513.0 14.0 355.0 
100.00012588262224 13219.0 NaN 1537.8383433533727 0.49663329241429055 512.0 15.0 355.0 
110.00012588262224 13248.0 NaN 1537.873079492318 0.49832033198325176 514.0 13.0 357.0 
120.00012588262224 13271.0 NaN 1544.093520374082 0.49909532931710077 518.0 12.0 360.0 
130.00012584262225 13265.0 NaN 1541.0126920507666 0.49857982185911526 518.0 10.0 361.0 
140.00012572262224 13254.0 NaN 1541.0501002003998 0.49704927771307067 503.0 17.0 354.0 
150.00012560262226 13259.0 NaN 1544.1656646626575 0.5013944727899513 503.0 21.0 351.0 
160.00012560262226 13169.0 NaN 1541.0180360721456 0.4964236202891234 502.0 19.0 352.0 
170.00012560262226 13147.0 NaN 1544.0587842351363 0.4968791720397838 501.0 19.0 353.0 
180.00012560262226 13101.0 NaN 1537.7822311289246 0.49749592748238985 508.0 13.0 357.0 
190.00012560262226 13067.0 NaN 1537.902471609888 0.49737415385929595 503.0 16.0 354.0 
200.00012560262226 13041.0 NaN 1537.7768871075482 0.5056779797462994 505.0 14.0 356.0 
210.00012560262226 12995.0 NaN 1528.710754843018 0.5017603940469848 499.0 15.0 352.0 
220.00012560262226 12884.0 NaN 1525.3653974615909 0.5001558656301648 507.0 12.0 354.0 
230.00012560262226 12836.0 NaN 1531.65798263193 0.5004190039119151 504.0 10.0 358.0 
240.00012560262226 12773.0 NaN 1528.4488977955907 0.5000272252587363 503.0 11.0 356.0 
250.00012560262226 12728.0 NaN 1528.4836339345366 0.5030369018395345 502.0 13.0 354.0 
260.00012560262223 12729.0 NaN 1522.2872411489636 0.5003690842051057 503.0 13.0 352.0 
270.00012560262223 12683.0 NaN 1528.5183700734817 0.5012377639616857 499.0 14.0 353.0 
280.00012560262223 12638.0 NaN 1528.3714094856366 0.5025920900398312 500.0 13.0 354.0 
290.00012560262223 12550.0 NaN 1534.5571142284564 0.5004594833458853 501.0 12.0 357.0 
300.00012560262223 12492.0 NaN 1534.5464261857067 0.5013279605178613 499.0 12.0 357.0 
310.00012560262223 12434.0 NaN 1534.5731462925844 0.49970975888223734 495.0 14.0 355.0 
320.00012560262223 12420.0 NaN 1531.6179024716089 0.5009361675030473 497.0 13.0 355.0 
330.00012560262223 12401.0 NaN 1540.8203072812273 0.5031509685505714 496.0 14.0 357.0 
340.00012560262223 12382.0 NaN 1528.5584502338 0.5006691205004494 497.0 14.0 353.0 
350.00012560262223 12418.0 NaN 1525.4108216432878 0.4985734431588168 502.0 12.0 354.0 
360.00012560262223 12401.0 NaN 1522.2177688710751 0.4998248869698783 504.0 11.0 354.0 
370.00012560262223 12354.0 NaN 1506.8804275217092 0.5013650945044238 504.0 14.0 346.0 
380.00012560262223 12317.0 NaN 1500.8203072812282 0.50299025640243 509.0 14.0 344.0 
390.00012560262223 12266.0 NaN 1506.9659318637273 0.5000209659413304 503.0 15.0 345.0 
400.00012560262223 12266.0 NaN 1507.0781563126263 0.5016715654567517 505.0 14.0 346.0 
410.00012560262223 12286.0 NaN 1516.0694722778903 0.5006407254947 511.0 12.0 351.0 
420.00012560262223 12307.0 NaN 1491.5564462257844 0.5020714322928282 500.0 12.0 343.0 
430.00012560262223 12310.0 NaN 1506.9498997995997 0.49918184984647196 507.0 16.0 344.0 
440.00012560262223 12275.0 NaN 1522.3380093520366 0.5004480601646414 509.0 18.0 347.0 
450.00012560262223 12253.0 NaN 1534.639946559785 0.5016735565178014 513.0 15.0 354.0 
460.00012560262223 12233.0 NaN 1540.7722110888456 0.5036019195239896 513.0 14.0 357.0 
470.00012560262223 12246.0 NaN 1531.5136940547754 0.49692011561031896 504.0 17.0 351.0 
480.00012560262223 12221.0 NaN 1525.3012692050756 0.5023913930450132 503.0 16.0 350.0 
490.00012560262223 12175.0 NaN 1497.7074148296606 0.5017808475501738 496.0 19.0 338.0 
500.00012560262223 12188.0 NaN 1485.4161656646634 0.5048766981378443 488.0 19.0 334.0 
510.00012560262223 12209.0 NaN 1497.7555110220449 0.4997529900056475 494.0 21.0 336.0 
520.0001256026222 12258.0 NaN 1470.1429525718095 0.49853358970549055 489.0 21.0 327.0 
530.0001256026222 12341.0 NaN 1454.7254509018028 0.5002750822224263 499.0 15.0 328.0 
540.0001256026222 12348.0 NaN 1467.0968603874423 0.5017526665829001 500.0 11.0 336.0 
550.0001256026222 12283.0 NaN 1473.1917167668666 0.49860130801648733 503.0 13.0 336.0 
560.0001256026222 12341.0 NaN 1473.1730126920513 0.5027513634363491 501.0 17.0 332.0 
570.0001256026222 12331.0 NaN 1488.6786907147634 0.5022955750651965 507.0 13.0 341.0 
580.0001256026222 12320.0 NaN 1494.752171008683 0.5052908010681351 507.0 16.0 340.0 
590.0001256026222 12359.0 NaN 1504.085504342018 0.5012818166144899 515.0 10.0 349.0 
600.0001256026222 12378.0 NaN 1500.7882431529729 0.505904855397648 520.0 13.0 345.0 
610.0001256026222 12461.0 NaN 1513.18904475618 0.50127558379966 519.0 12.0 350.0 
620.0001256026222 12502.0 NaN 1522.2872411489636 0.5002170392997315 510.0 19.0 346.0 
630.0001256026222 12470.0 NaN 1519.3774215096848 0.5007286682908014 512.0 16.0 348.0 
640.0001256026222 12466.0 NaN 1516.3714094856373 0.5020339656907787 509.0 18.0 345.0 
650.0001256026222 12441.0 NaN 1525.6726786907152 0.5035986573625363 508.0 13.0 353.0 
660.0001256026222 12385.0 NaN 1531.7862391449555 0.5032386230644987 499.0 17.0 351.0 
#####################################################################
# End of data export. Simulation finished at: 2019-03-03T21:29+0000 #
#####################################################################
