#####################################################################
# Alchemist log file - simulation started at: 2019-03-06T23:08+0000 #
#####################################################################
# seed = 4.0, bandwidth = 5623413.251903491, propagationDelay = 1.0, baserange = 10.0
#
# The columns have the following meaning: 
# time neighbor_count[Sum] <value>@neighbor_count[Sum] packet_size[Mean] mean_delay[Mean] crowd[Sum] overcrowded[Sum] risk[Sum] 
0.0 NaN NaN NaN NaN NaN NaN NaN 
2.0004793365590676 243.0 NaN 4988.403473613895 0.2959307252779827 1497.0 0.0 1497.0 
4.00042902272939 486.0 NaN 4992.6332665330665 0.9979299745995298 1497.0 0.0 1497.0 
6.000479336559067 486.0 NaN 4991.396125584502 0.9979270708865983 1497.0 0.0 1497.0 
8.000479336559067 486.0 NaN 4990.722778891116 0.9979286618539106 1497.0 0.0 1497.0 
10.000479336559067 486.0 NaN 4990.303273213093 0.9979290265197418 1497.0 0.0 1497.0 
12.000479336559067 488.0 NaN 4989.605878423514 0.9994288862769463 1497.0 0.0 1497.0 
14.00042902272939 488.0 NaN 4989.74749498998 0.9994291707228797 1497.0 0.0 1497.0 
16.000479336559067 488.0 NaN 4989.710086840348 1.012718008959052 1497.0 0.0 1497.0 
18.000479336559067 482.0 NaN 4989.651302605211 0.9994323531109665 1497.0 0.0 1497.0 
20.000479336559067 482.0 NaN 4989.608550434202 0.9994322413220371 1497.0 0.0 1497.0 
22.000479336559067 484.0 NaN 4989.477621910488 0.9994302904408598 1497.0 0.0 1497.0 
24.000429022729392 484.0 NaN 4989.512358049432 0.999430253689752 1497.0 0.0 1497.0 
26.000479336559067 487.0 NaN 4989.589846359386 0.9974617090070035 1497.0 0.0 1497.0 
28.000479336559067 490.0 NaN 4989.579158316633 1.0017657177550439 1497.0 0.0 1497.0 
30.000479336559067 497.0 NaN 4989.603206412826 1.0127318026788044 1497.0 0.0 1497.0 
32.00047933655907 500.0 NaN 4989.563126252505 1.00185638065436 1497.0 0.0 1497.0 
34.00042902272939 500.0 NaN 4989.565798263193 1.0018564434633463 1497.0 0.0 1497.0 
36.00047933655907 501.0 NaN 4989.595190380762 1.0061334628210656 1497.0 0.0 1497.0 
38.00047933655907 498.0 NaN 4989.58450233801 1.0001135086273045 1497.0 0.0 1497.0 
40.00047933655907 502.0 NaN 4989.645958583835 1.0126816849419775 1497.0 0.0 1497.0 
42.00047933655907 501.0 NaN 4989.496325985304 1.0098303602516843 1497.0 0.0 1497.0 
44.00042902272939 500.0 NaN 4989.565798263193 1.006284752839128 1497.0 0.0 1497.0 
46.00047933655907 501.0 NaN 4989.605878423514 1.0013224594146053 1497.0 0.0 1497.0 
48.00047933655907 503.0 NaN 4989.640614562458 0.9937548755950163 1497.0 0.0 1497.0 
50.00047933655907 508.0 NaN 4989.651302605211 1.0135511651817195 1497.0 0.0 1497.0 
52.00047933655907 500.0 NaN 4989.50167000668 0.9981041227998243 1497.0 0.0 1497.0 
54.00042902272939 503.0 NaN 4989.573814295257 1.006690149893968 1497.0 0.0 1497.0 
56.00047933655907 504.0 NaN 4989.683366733467 1.0051701172201728 1497.0 0.0 1497.0 
58.00047933655907 500.0 NaN 4989.656646626587 1.0032899219652285 1497.0 0.0 1497.0 
60.00047933655907 501.0 NaN 4986.578490313961 1.0050072880375813 1496.0 0.0 1496.0 
62.000041783208744 501.0 NaN 596.6332665330661 1.0048573192324952 306.0 0.0 64.0 
64.00004178320874 497.0 NaN 596.5210420841681 1.009792287115875 305.0 0.0 64.0 
66.00004178320874 491.0 NaN 596.5183700734801 1.0111168172239533 302.0 0.0 64.0 
68.00004178320874 486.0 NaN 596.4996659986635 1.0082916184372686 297.0 0.0 64.0 
70.00004178320874 486.0 NaN 596.5263861055453 0.9992827666097158 280.0 0.0 64.0 
72.00004178320874 488.0 NaN 599.5698062792254 0.9932119961954803 254.0 0.0 65.0 
74.00004178320874 489.0 NaN 599.593854375418 0.9882803951393079 223.0 0.0 65.0 
76.00004178320874 490.0 NaN 599.5591182364726 0.9951662251129559 192.0 0.0 65.0 
78.00004178320874 490.0 NaN 599.5644622578499 0.9998052881429441 180.0 0.0 65.0 
80.00004178320874 489.0 NaN 599.5751503006015 1.0057518986491067 164.0 0.0 65.0 
82.00004178320874 483.0 NaN 602.6613226452911 0.993281018669747 155.0 0.0 66.0 
84.00004178320874 486.0 NaN 602.6426185704743 0.997002546350272 144.0 0.0 66.0 
86.00004178320874 486.0 NaN 605.7020708082831 0.9966073505834264 143.0 0.0 67.0 
88.00004178320874 487.0 NaN 605.7234468937878 0.994333134280538 145.0 0.0 67.0 
90.00004178320874 487.0 NaN 605.7127588510361 1.0203216889355122 142.0 0.0 67.0 
92.00004178320874 478.0 NaN 602.6479625918499 0.9991259164895919 138.0 0.0 66.0 
94.00004178320874 478.0 NaN 602.6185704742818 1.0083799450956719 135.0 0.0 66.0 
96.00004178320874 478.0 NaN 599.5457581830323 1.006549281611365 132.0 0.0 65.0 
98.00004178320874 477.0 NaN 596.4889779559117 1.0003091916660969 131.0 0.0 64.0 
100.00004178320874 480.0 NaN 599.561790247161 1.010362763482201 131.0 0.0 65.0 
102.00004178320874 479.0 NaN 599.5564462257848 1.000426980115044 130.0 0.0 65.0 
104.00004178320874 480.0 NaN 599.5377421509681 0.9989738555803261 131.0 0.0 65.0 
106.00004178320874 484.0 NaN 602.6105544422182 1.018304853760869 128.0 0.0 66.0 
108.00004178320874 484.0 NaN 602.6265865063453 1.0040958945140592 124.0 0.0 66.0 
110.00004178320874 485.0 NaN 596.494321977288 0.9952425006424247 122.0 0.0 64.0 
112.00004178320874 486.0 NaN 587.2919171676683 1.005377112202529 120.0 0.0 61.0 
114.00004178320874 486.0 NaN 593.4642618570477 1.0078281169303471 120.0 0.0 63.0 
116.00004178320874 484.0 NaN 590.3754175016703 1.0145696390762318 119.0 0.0 62.0 
118.00004178320874 476.0 NaN 590.3914495657978 0.9983056865136063 123.0 0.0 62.0 
120.00004178320874 478.0 NaN 587.3079492317972 1.0211025304428745 123.0 0.0 61.0 
122.00004178320874 475.0 NaN 587.3213092852368 1.0010234934496465 122.0 0.0 61.0 
124.00004178320874 478.0 NaN 590.4021376085502 1.0063159226178993 121.0 0.0 62.0 
126.00004178320874 484.0 NaN 593.4989979959914 1.0072029692358768 124.0 0.0 63.0 
128.00004178320876 487.0 NaN 596.5450901803604 1.0090515975075014 125.0 0.0 64.0 
130.00004178320876 493.0 NaN 599.6232464929864 0.99683911574733 125.0 0.0 65.0 
132.00004178320876 502.0 NaN 602.661322645291 1.0103040380286756 128.0 0.0 66.0 
134.00004178320876 502.0 NaN 602.6533066132268 1.008644124233166 128.0 0.0 66.0 
136.00004178320876 502.0 NaN 605.7581830327317 1.001820992220235 125.0 0.0 67.0 
138.00004178320876 498.0 NaN 605.7448229792913 1.0006102394654575 124.0 0.0 67.0 
140.00004178320876 501.0 NaN 605.7501670006683 1.0073069458318984 125.0 0.0 67.0 
142.00004178320876 504.0 NaN 608.8363393453574 0.9956571274701169 127.0 0.0 68.0 
144.00004178320876 511.0 NaN 608.7935871743488 1.0026042233505945 128.0 0.0 68.0 
146.00004178320876 513.0 NaN 605.7314629258517 1.0118973904228552 127.0 0.0 67.0 
148.00004178320876 509.0 NaN 602.6533066132271 0.9985277748827885 127.0 0.0 66.0 
150.00004178320876 513.0 NaN 602.6613226452911 1.016777084902951 126.0 0.0 66.0 
152.00004178320876 513.0 NaN 605.6833667334669 1.0147123065524757 128.0 0.0 67.0 
154.00004178320876 505.0 NaN 608.8363393453573 1.0130612409214883 127.0 0.0 68.0 
156.00004178320876 503.0 NaN 611.8797595190381 1.0183525070791777 125.0 0.0 69.0 
158.00004178320876 501.0 NaN 608.7855711422844 0.9976884943995517 128.0 0.0 68.0 
160.00004178320876 505.0 NaN 611.8129592518368 1.0016221400562118 129.0 0.0 69.0 
162.00004178320876 501.0 NaN 605.6913827655313 1.02101603393728 131.0 0.0 67.0 
164.00004178320876 496.0 NaN 605.6860387441546 1.0035912806105785 130.0 0.0 67.0 
166.00004178320876 497.0 NaN 605.6806947227788 1.0095728346797208 128.0 0.0 67.0 
168.00004178320876 494.0 NaN 605.6860387441546 1.0011927243855214 127.0 0.0 67.0 
170.00004178320876 495.0 NaN 605.688710754843 1.0165549481661804 128.0 0.0 67.0 
172.00004178320876 488.0 NaN 605.6833667334668 1.0050067436615775 128.0 0.0 67.0 
174.00004178320876 488.0 NaN 602.6265865063455 0.9991649454963303 129.0 0.0 66.0 
176.00004178320876 489.0 NaN 599.5484301937206 1.0064691852308851 129.0 0.0 65.0 
178.00004178320876 486.0 NaN 599.543086172345 1.0100914108896268 127.0 0.0 65.0 
180.00004178320876 485.0 NaN 602.6239144956587 1.0125755419183855 127.0 0.0 66.0 
182.00004178320876 484.0 NaN 605.6967267869071 1.0104257520864401 127.0 0.0 67.0 
184.00004178320876 484.0 NaN 605.6726786907138 1.0037614990798989 124.0 0.0 67.0 
186.00004178320876 484.0 NaN 605.6967267869071 1.0146931568848367 124.0 0.0 67.0 
188.00004178320876 481.0 NaN 599.5110220440885 1.0052933001998 121.0 0.0 65.0 
190.00004178320876 487.0 NaN 608.7668670674682 1.017746059409882 121.0 0.0 68.0 
192.00004178320876 493.0 NaN 621.1275885103546 0.9918803194955874 123.0 0.0 72.0 
194.00004178320876 495.0 NaN 618.0200400801606 1.006374565679925 122.0 0.0 71.0 
196.00004178320876 494.0 NaN 614.9418837675349 0.9960960522724578 122.0 0.0 70.0 
198.00004178320876 498.0 NaN 614.9392117568469 1.0020678666688894 122.0 0.0 70.0 
200.00004178320876 501.0 NaN 614.9205076820313 0.9957489056573774 124.0 0.0 70.0 
202.00004178320876 500.0 NaN 614.917835671343 1.0070410960625296 124.0 0.0 70.0 
204.00004178320876 503.0 NaN 617.9639278557116 1.0027282184103363 125.0 0.0 71.0 
206.00004178320876 503.0 NaN 617.9719438877752 0.9953821305743464 126.0 0.0 71.0 
208.00004178320876 509.0 NaN 624.1309285237136 1.0004109725742618 127.0 0.0 73.0 
210.00004178320876 516.0 NaN 627.2251169004684 1.0163354437104255 127.0 0.0 74.0 
212.00004178320876 511.0 NaN 624.1469605878424 1.0080701205579354 123.0 0.0 73.0 
214.00004178320876 505.0 NaN 621.076820307282 1.000426054691048 122.0 0.0 72.0 
216.00004178320876 507.0 NaN 617.9826319305272 1.0134475622804888 121.0 0.0 71.0 
218.00004178320876 502.0 NaN 617.9986639946562 1.0058973331986298 122.0 0.0 71.0 
220.00004178320876 504.0 NaN 617.9959919839682 1.0233750159421613 122.0 0.0 71.0 
222.00004178320876 491.0 NaN 621.0875083500334 1.019063444781718 121.0 0.0 72.0 
224.00004178320876 486.0 NaN 621.0794923179682 1.0169915812836754 122.0 0.0 72.0 
226.00004178320876 487.0 NaN 621.0394121576484 1.0117286089452542 122.0 0.0 72.0 
228.00004178320876 488.0 NaN 614.9124916499663 1.0213042547130486 119.0 0.0 70.0 
230.00004178320876 489.0 NaN 614.9552438209752 1.0060153987634586 117.0 0.0 70.0 
232.00004178320876 489.0 NaN 614.9579158316637 1.0188396383095957 115.0 0.0 70.0 
234.00004178320876 489.0 NaN 614.907147628591 1.005586035516965 113.0 0.0 70.0 
236.00004178320876 491.0 NaN 614.899131596527 1.0103823861873835 114.0 0.0 70.0 
238.00004178320876 492.0 NaN 614.9178356713429 1.0149239817211952 113.0 0.0 70.0 
240.00004178320876 493.0 NaN 614.9258517034071 1.0036262875838355 115.0 0.0 70.0 
242.00004178320876 493.0 NaN 614.9231796927181 1.0012456115409885 116.0 0.0 70.0 
244.00004178320876 498.0 NaN 621.0420841683363 1.0039096295578716 117.0 0.0 72.0 
246.00004178320876 503.0 NaN 624.1309285237136 0.9997448205834474 118.0 0.0 73.0 
248.00004178320876 506.0 NaN 624.1576486305955 1.0107498276029394 116.0 0.0 73.0 
250.00004178320876 510.0 NaN 624.154976619906 1.0227741110213897 118.0 0.0 73.0 
252.00004178320876 504.0 NaN 627.2090848363397 1.019716324297973 120.0 0.0 74.0 
254.00004178320876 500.0 NaN 627.2064128256513 1.0168819074970028 122.0 0.0 74.0 
256.00004178320876 499.0 NaN 627.1903807615226 1.0159887108117618 122.0 0.0 74.0 
258.00004178320876 498.0 NaN 627.1823647294591 1.0106714969639166 121.0 0.0 74.0 
260.00004178320876 493.0 NaN 627.2037408149637 1.0140745264842148 121.0 0.0 74.0 
262.00004178320876 491.0 NaN 627.1770207080817 1.0047673683699943 120.0 0.0 74.0 
264.00004178320876 491.0 NaN 627.1396125584499 1.0150954992149066 122.0 0.0 74.0 
266.00004178320876 491.0 NaN 627.1503006012032 1.0157354600983102 120.0 0.0 74.0 
268.00004178320876 486.0 NaN 627.1396125584499 1.00917531190685 121.0 0.0 74.0 
270.00004178320876 486.0 NaN 627.1556446225786 1.0046154962468625 121.0 0.0 74.0 
272.00004178320876 486.0 NaN 627.1556446225786 0.9964876747017252 121.0 0.0 74.0 
274.00004178320876 488.0 NaN 624.1068804275227 1.0147168979008887 119.0 0.0 73.0 
276.00004178320876 493.0 NaN 624.0694722778893 1.0025978993980218 120.0 0.0 73.0 
278.00004178320876 493.0 NaN 624.1015364061454 0.9992957893667929 117.0 0.0 73.0 
280.00004178320876 498.0 NaN 621.0207080828317 1.0293030391307962 118.0 0.0 72.0 
282.00004178320876 486.0 NaN 608.7722110888456 1.0059270882842353 116.0 0.0 68.0 
284.00004178320876 487.0 NaN 608.7214428857708 1.0318712275721256 117.0 0.0 68.0 
286.00004178320876 493.0 NaN 611.7969271877092 0.9945056000370566 116.0 0.0 69.0 
288.00004178320876 503.0 NaN 611.8263193052774 1.0105796148944817 117.0 0.0 69.0 
290.00004178320876 499.0 NaN 599.5778223112892 1.0109524784785926 117.0 0.0 65.0 
292.00004178320876 497.0 NaN 599.5564462257847 1.0022717891989852 116.0 0.0 65.0 
294.00004178320876 497.0 NaN 605.7100868403472 1.0026928568794382 116.0 0.0 67.0 
296.00004178320876 497.0 NaN 605.7314629258519 1.0116546949620233 118.0 0.0 67.0 
298.00004178320876 490.0 NaN 605.7314629258519 0.9985629294810633 115.0 0.0 67.0 
300.00004178320876 492.0 NaN 605.7261189044756 1.0298277630373154 114.0 0.0 67.0 
302.00004178320876 482.0 NaN 605.7368069472271 0.9956510373139488 114.0 0.0 67.0 
304.00004178320876 483.0 NaN 605.7181028724118 1.0143220714747732 114.0 0.0 67.0 
306.00004178320876 478.0 NaN 605.7287909151637 1.0100546030973396 113.0 0.0 67.0 
308.00004178320876 479.0 NaN 605.7127588510365 0.9992101846280536 114.0 0.0 67.0 
310.00004178320876 479.0 NaN 605.7394789579154 1.0173756662755509 110.0 0.0 67.0 
312.00004178320876 471.0 NaN 599.593854375418 1.0024282657339951 110.0 0.0 65.0 
314.00004178320876 471.0 NaN 593.461589846359 1.0178306075255903 110.0 0.0 63.0 
316.00004178320876 469.0 NaN 590.3834335337342 0.9920780467548619 110.0 0.0 62.0 
318.00004178320876 472.0 NaN 584.2378089512365 1.0104858160368273 112.0 0.0 60.0 
320.00004178320876 468.0 NaN 581.1783567134273 1.004915538672257 112.0 0.0 59.0 
322.00004178320876 469.0 NaN 581.1596526386109 1.0072801163939251 113.0 0.0 59.0 
324.00004178320876 471.0 NaN 581.1356045424182 0.9939916343423361 112.0 0.0 59.0 
326.00004178320876 477.0 NaN 581.1462925851705 1.0162714318692605 110.0 0.0 59.0 
328.00004178320876 475.0 NaN 584.1870407481632 1.003980328555529 106.0 0.0 60.0 
330.00004178320876 478.0 NaN 587.3026052104204 1.0073441384197932 106.0 0.0 61.0 
332.00004178320876 477.0 NaN 587.2919171676681 1.007270170213279 104.0 0.0 61.0 
334.00004178320876 473.0 NaN 587.3079492317971 0.9971985535127766 105.0 0.0 61.0 
336.00004178320876 477.0 NaN 587.278557114229 1.0018839831201058 103.0 0.0 61.0 
338.00004178320876 482.0 NaN 587.2865731462932 1.0091213782445525 103.0 0.0 61.0 
340.00004178320876 488.0 NaN 590.3647294589183 1.0156504063365264 104.0 0.0 62.0 
342.00004178320876 486.0 NaN 587.3026052104206 1.0154141400213452 107.0 0.0 61.0 
344.00004178320876 483.0 NaN 587.2732130928524 1.0103750095197395 107.0 0.0 61.0 
346.00004178320876 479.0 NaN 587.275885103541 1.027445793471157 107.0 0.0 61.0 
348.00004178320876 474.0 NaN 587.2705410821641 1.0074513190948582 108.0 0.0 61.0 
350.00004178320876 477.0 NaN 587.3079492317971 1.0117833796383984 109.0 0.0 61.0 
352.00004178320876 483.0 NaN 587.3106212424847 1.0178484953176867 109.0 0.0 61.0 
354.00004178320876 482.0 NaN 587.2732130928525 1.017080735977516 108.0 0.0 61.0 
356.00004178320876 479.0 NaN 584.1897127588504 1.0160248132820133 109.0 0.0 60.0 
358.00004178320876 478.0 NaN 584.1950567802273 1.0215490501065594 109.0 0.0 60.0 
360.00004178320876 476.0 NaN 581.1489645958585 1.020248793110856 109.0 0.0 59.0 
362.00004178320876 469.0 NaN 581.1569806279228 1.0053702415850694 108.0 0.0 59.0 
364.00004178320876 471.0 NaN 581.1329325317295 1.026555886823129 109.0 0.0 59.0 
366.00004178320876 466.0 NaN 578.076152304609 0.9996308926520641 102.0 0.0 58.0 
368.00004178320876 467.0 NaN 578.0681362725454 1.007248679720181 103.0 0.0 58.0 
370.00004178320876 472.0 NaN 578.0814963259857 1.0239057323304204 104.0 0.0 58.0 
372.00004178320876 463.0 NaN 574.9979959919841 1.0104295095419769 102.0 0.0 57.0 
374.00004178320876 467.0 NaN 578.1108884435538 1.0050040617955964 102.0 0.0 58.0 
376.00004178320876 468.0 NaN 581.1730126920507 1.0093735441551863 106.0 0.0 59.0 
378.00004178320876 466.0 NaN 581.1649966599863 0.9975696347169795 106.0 0.0 59.0 
380.00004178320876 470.0 NaN 587.3293253173016 1.0196742666403555 106.0 0.0 61.0 
382.00004178320876 465.0 NaN 587.3373413493659 0.9993706469615056 107.0 0.0 61.0 
384.00004178320876 472.0 NaN 590.3727454909817 0.9988685719664958 108.0 0.0 62.0 
386.00004178320876 471.0 NaN 593.461589846359 1.0215626548804377 107.0 0.0 63.0 
388.00004178320876 461.0 NaN 593.469605878423 1.00737878998532 107.0 0.0 63.0 
390.00004178320876 461.0 NaN 593.4989979959911 1.0087773558129176 107.0 0.0 63.0 
392.00004178320876 467.0 NaN 599.6205744822981 1.0051446203127372 110.0 0.0 65.0 
394.00004178320876 472.0 NaN 602.7147628590516 1.0000224168626735 109.0 0.0 66.0 
396.00004178320876 475.0 NaN 602.6773547094183 1.0143831989559566 110.0 0.0 66.0 
398.00004178320876 473.0 NaN 602.6960587842347 1.0158206583305887 111.0 0.0 66.0 
400.00004178320876 477.0 NaN 608.8283233132937 1.0154003163129408 112.0 0.0 68.0 
402.00004178320876 479.0 NaN 611.9519038076153 1.0125881346184051 111.0 0.0 69.0 
404.00004178320876 477.0 NaN 614.9712758851044 1.0075901379703376 113.0 0.0 70.0 
406.00004178320876 477.0 NaN 611.9171676686709 1.0099412061760222 113.0 0.0 69.0 
408.00004178320876 477.0 NaN 611.8744154976621 1.012531729170555 114.0 0.0 69.0 
410.00004178320876 476.0 NaN 611.9038076152302 1.0136517140015877 115.0 0.0 69.0 
412.00004178320876 475.0 NaN 614.9899799599197 1.0027369232782608 115.0 0.0 70.0 
414.00004178320876 481.0 NaN 618.0253841015362 1.0184126428564793 116.0 0.0 71.0 
416.00004178320876 481.0 NaN 618.046760187041 0.9977044162805235 116.0 0.0 71.0 
418.00004178320876 482.0 NaN 618.0494321977288 1.0217804605454455 116.0 0.0 71.0 
420.00004178320876 481.0 NaN 618.0334001335998 0.9945884505699907 116.0 0.0 71.0 
422.00004178320876 491.0 NaN 624.176352705411 1.008332190663405 121.0 0.0 73.0 
424.00004178320876 491.0 NaN 627.2358049432195 0.9952713718952194 125.0 0.0 74.0 
426.00004178320876 492.0 NaN 630.3273213092865 1.0053994900607701 127.0 0.0 75.0 
428.00004178320876 490.0 NaN 633.3734134936548 0.9967157195481884 129.0 0.0 76.0 
430.00004178320876 493.0 NaN 633.365397461591 1.0090900538667142 130.0 0.0 76.0 
432.00004178320876 488.0 NaN 633.3627254509012 1.013813419853523 127.0 0.0 76.0 
434.00004178320876 477.0 NaN 633.3547094188374 1.0035882457914604 128.0 0.0 76.0 
436.00004178320876 482.0 NaN 639.4869739478955 1.0276980296912315 128.0 0.0 78.0 
438.00004178320876 476.0 NaN 639.4655978623906 1.0091891654194776 127.0 0.0 78.0 
440.00004178320876 479.0 NaN 633.3386773547089 1.0078339467422537 127.0 0.0 76.0 
442.00004178320876 476.0 NaN 633.3493653974625 1.0125278104566182 128.0 0.0 76.0 
444.00004178320876 472.0 NaN 633.3226452905817 1.0166725068059175 127.0 0.0 76.0 
446.00004178320876 474.0 NaN 636.4301937207739 1.0335677941302026 127.0 0.0 77.0 
448.00004178320876 466.0 NaN 636.4034736138954 1.0002855891354592 125.0 0.0 77.0 
450.00004178320876 475.0 NaN 630.2845691382772 1.0246390928425426 125.0 0.0 75.0 
452.00004178320876 466.0 NaN 630.2498329993317 1.0146539995127164 123.0 0.0 75.0 
454.00004178320876 464.0 NaN 630.2391449565806 1.013075492167579 122.0 0.0 75.0 
456.00004178320876 470.0 NaN 630.2525050100196 1.019768327380565 123.0 0.0 75.0 
458.00004178320876 471.0 NaN 630.2845691382771 1.0088969403727488 122.0 0.0 75.0 
460.00004178320876 477.0 NaN 630.2525050100196 1.0283725056973343 122.0 0.0 75.0 
462.00004178320876 485.0 NaN 633.3734134936548 1.012175031764935 123.0 0.0 76.0 
464.00004178320876 486.0 NaN 633.3600534402135 1.0205989283027113 123.0 0.0 76.0 
466.00004178320876 485.0 NaN 633.3573814295261 1.0270037981371654 123.0 0.0 76.0 
468.00004178320876 477.0 NaN 633.3173012692044 1.0183320345560356 122.0 0.0 76.0 
470.00004178320876 476.0 NaN 624.1042084168332 1.0248296590177064 119.0 0.0 73.0 
472.00004178320876 466.0 NaN 621.0527722110896 1.0305488729004706 118.0 0.0 72.0 
474.00004178320876 455.0 NaN 621.0554442217774 1.0045995558629315 120.0 0.0 72.0 
476.00004178320876 463.0 NaN 621.0046760187047 1.0165565634890013 120.0 0.0 72.0 
478.00004178320876 465.0 NaN 621.0287241148953 1.0001574189824454 120.0 0.0 72.0 
480.00004178320876 467.0 NaN 620.9939879759512 1.0141761749091036 120.0 0.0 72.0 
482.00004178320876 466.0 NaN 621.0207080828317 1.0145008860939122 122.0 0.0 72.0 
484.00004178320876 463.0 NaN 620.9752839011365 0.9974052520711512 120.0 0.0 72.0 
486.00004178320876 471.0 NaN 617.923847695391 1.0135856888536225 121.0 0.0 71.0 
488.00004178320876 464.0 NaN 617.9104876419499 1.0069372037760234 121.0 0.0 71.0 
490.00004178320876 471.0 NaN 621.0126920507682 1.0152351279382743 121.0 0.0 72.0 
492.00004178320876 480.0 NaN 614.9579158316637 1.0104346364883106 120.0 0.0 70.0 
494.00004178320876 477.0 NaN 602.6533066132268 1.001188329279057 118.0 0.0 66.0 
496.00004178320876 476.0 NaN 602.6239144956587 1.0328440063074764 119.0 0.0 66.0 
498.00004178320876 467.0 NaN 602.6372745490979 0.9998724182882953 119.0 0.0 66.0 
500.00004178320876 470.0 NaN 599.5858383433531 1.0069156281836402 120.0 0.0 65.0 
502.00004178320876 466.0 NaN 593.4856379425521 1.0210546586654132 118.0 0.0 63.0 
504.00004178320876 461.0 NaN 593.4856379425521 0.9897623029422327 114.0 0.0 63.0 
506.00004178320876 465.0 NaN 590.3486973947895 1.0023339331951082 114.0 0.0 62.0 
508.00004178320876 467.0 NaN 590.3353373413494 1.0022849932504436 113.0 0.0 62.0 
510.00004178320876 470.0 NaN 581.1222444889779 1.0074131234028751 112.0 0.0 59.0 
512.0000417832088 467.0 NaN 578.0494321977287 1.0225617088477608 113.0 0.0 58.0 
514.0000417832086 464.0 NaN 578.0414161656648 1.0058149149884892 113.0 0.0 58.0 
516.0000417832086 468.0 NaN 578.0334001336003 1.0198086126198846 114.0 0.0 58.0 
518.0000417832086 464.0 NaN 578.0414161656648 1.0117366429124033 114.0 0.0 58.0 
520.0000417832086 465.0 NaN 578.0547762191047 1.0160271596132604 111.0 0.0 58.0 
522.0000417832086 465.0 NaN 578.0734802939212 1.0063882046488064 111.0 0.0 58.0 
524.0000417832086 463.0 NaN 578.0334001336004 1.0345825094859353 111.0 0.0 58.0 
526.0000417832086 451.0 NaN 574.9686038744155 1.027938110600616 111.0 0.0 57.0 
528.0000417832086 445.0 NaN 571.9251837007348 1.0044462588827798 109.0 0.0 56.0 
530.0000417832086 450.0 NaN 568.86038744155 1.0055472126946543 109.0 0.0 55.0 
532.0000417832086 456.0 NaN 568.8790915163659 1.0198323651017547 108.0 0.0 55.0 
534.0000417832086 458.0 NaN 571.9759519038076 0.9896646377697972 107.0 0.0 56.0 
536.0000417832086 465.0 NaN 571.9572478289913 1.0054553946468783 107.0 0.0 56.0 
538.0000417832086 466.0 NaN 575.062124248497 1.0059793374517176 107.0 0.0 57.0 
540.0000417832086 467.0 NaN 575.0273881095522 1.0089037820023363 107.0 0.0 57.0 
542.0000417832086 466.0 NaN 575.0354041416166 1.019185302007547 105.0 0.0 57.0 
544.0000417832086 464.0 NaN 575.0167000668 1.0164331000048314 105.0 0.0 57.0 
546.0000417832086 466.0 NaN 571.9519038076153 1.0163237618208945 103.0 0.0 56.0 
548.0000417832086 463.0 NaN 571.943887775551 1.0050768794850353 103.0 0.0 56.0 
550.0000417832086 466.0 NaN 575.0434201736807 1.0196296675568204 104.0 0.0 57.0 
552.0000417832086 463.0 NaN 575.0354041416166 1.0039874169571117 104.0 0.0 57.0 
554.0000417832086 463.0 NaN 571.9572478289913 1.0125917916014977 104.0 0.0 56.0 
556.0000417832086 465.0 NaN 571.943887775551 1.0274094668438127 103.0 0.0 56.0 
558.0000417832086 456.0 NaN 575.0300601202405 1.0068126287568184 106.0 0.0 57.0 
560.0000417832086 454.0 NaN 575.0327321309284 1.0134157271690116 106.0 0.0 57.0 
562.0000417832086 448.0 NaN 568.9298597194387 0.9877742114596723 105.0 0.0 55.0 
564.0000417832086 450.0 NaN 568.8630594522376 1.012281942520271 105.0 0.0 55.0 
566.0000417832086 446.0 NaN 568.8737474949899 1.0048423735781118 103.0 0.0 55.0 
568.0000417832086 448.0 NaN 568.9004676018706 0.9924919415049649 102.0 0.0 55.0 
570.0000417832086 448.0 NaN 571.9839679358715 0.9913195064434126 101.0 0.0 56.0 
572.0000417832086 455.0 NaN 575.054108216433 1.0029507827255406 101.0 0.0 57.0 
574.0000417832086 451.0 NaN 575.0514362057447 1.0043514380538303 101.0 0.0 57.0 
576.0000417832086 453.0 NaN 575.0434201736807 1.007716173757284 101.0 0.0 57.0 
578.0000417832086 456.0 NaN 575.0861723446894 0.9960107211670599 101.0 0.0 57.0 
580.0000417832086 458.0 NaN 578.1269205076819 0.9974784252706007 103.0 0.0 58.0 
582.0000417832086 464.0 NaN 575.0487641950568 1.0212158491652845 102.0 0.0 57.0 
584.0000417832086 458.0 NaN 575.0354041416166 1.018751875578614 106.0 0.0 57.0 
586.0000417832086 460.0 NaN 575.0407481629927 1.0300428300011386 105.0 0.0 57.0 
588.0000417832086 454.0 NaN 575.0220440881762 1.0294023769428386 108.0 0.0 57.0 
590.0000417832086 449.0 NaN 578.1135604542419 1.012567158784316 103.0 0.0 58.0 
592.0000417832086 448.0 NaN 581.1917167668672 1.0021197577397079 105.0 0.0 59.0 
594.0000417832086 450.0 NaN 581.1756847027386 1.0068009247283534 102.0 0.0 59.0 
596.0000417832086 455.0 NaN 581.1703406813626 1.0142276205191725 103.0 0.0 59.0 
598.0000417832086 456.0 NaN 581.1623246492987 1.0090101541372596 103.0 0.0 59.0 
600.0000417832086 464.0 NaN 581.1596526386105 1.0200438674886894 103.0 0.0 59.0 
602.0000417832086 460.0 NaN 584.2271209084838 1.014839284036183 103.0 0.0 60.0 
604.0000417832086 459.0 NaN 584.2004008016032 1.0171796347905544 103.0 0.0 60.0 
606.0000417832086 465.0 NaN 590.3914495657978 1.0242047231226263 107.0 0.0 62.0 
608.0000417832086 461.0 NaN 590.4074816299267 0.9985823453826187 108.0 0.0 62.0 
610.0000417832086 469.0 NaN 590.3994655978622 0.9952121163676093 108.0 0.0 62.0 
612.0000417832086 480.0 NaN 590.3754175016702 1.004970282013556 110.0 0.0 62.0 
614.0000417832086 483.0 NaN 593.4375417501667 1.0133261250129064 112.0 0.0 63.0 
616.0000417832086 484.0 NaN 596.5156980627924 1.0096531908700226 114.0 0.0 64.0 
618.0000417832086 478.0 NaN 599.5911823647294 1.0213533319808716 112.0 0.0 65.0 
620.0000417832086 477.0 NaN 596.5050100200405 1.0355656079739597 110.0 0.0 64.0 
622.0000417832086 476.0 NaN 593.477621910488 1.0234269311568034 108.0 0.0 63.0 
624.0000417832086 474.0 NaN 596.5156980627927 0.9948097366785099 110.0 0.0 64.0 
626.0000417832086 477.0 NaN 599.569806279225 1.0162876981175748 114.0 0.0 65.0 
628.0000417832086 463.0 NaN 599.5617902471613 0.988729129912131 115.0 0.0 65.0 
630.0000417832086 472.0 NaN 602.5998663994659 1.0186127167370091 119.0 0.0 66.0 
632.0000417832086 468.0 NaN 605.6700066800274 1.0070725558096965 119.0 0.0 67.0 
634.0000417832086 465.0 NaN 599.5297261189046 1.0165308992264575 120.0 0.0 65.0 
636.0000417832086 472.0 NaN 605.6513026052108 0.9848163188982888 121.0 0.0 67.0 
638.0000417832086 482.0 NaN 614.9632598530391 0.9931706903194027 121.0 0.0 70.0 
640.0000417832086 486.0 NaN 608.8122912491655 1.020891404017413 122.0 0.0 68.0 
642.0000417832086 474.0 NaN 608.7695390781569 1.009864713889811 124.0 0.0 68.0 
644.0000417832086 472.0 NaN 608.7428189712755 1.0000635211626627 123.0 0.0 68.0 
646.0000417832086 474.0 NaN 611.8423513694053 1.0284703283767997 124.0 0.0 69.0 
648.0000417832086 462.0 NaN 611.8076152304614 0.9993286591804763 125.0 0.0 69.0 
650.0000417832086 466.0 NaN 608.7241148964591 0.9962120517612798 127.0 0.0 68.0 
652.0000417832086 469.0 NaN 608.7321309285236 1.023859044844766 128.0 0.0 68.0 
654.0000417832086 462.0 NaN 608.7374749499 1.0033683082253253 126.0 0.0 68.0 
656.0000417832086 469.0 NaN 608.7695390781568 1.020642114980362 126.0 0.0 68.0 
658.0000417832086 470.0 NaN 614.9418837675346 0.998008080913653 129.0 0.0 70.0 
660.0000417832086 470.0 NaN 614.8964595858386 1.0118780885383007 128.0 0.0 70.0 
662.0000417832086 473.0 NaN 611.8289913159655 1.0124292731915505 126.0 0.0 69.0 
664.0000417832086 473.0 NaN 611.7995991983972 1.0039652500063012 123.0 0.0 69.0 
#####################################################################
# End of data export. Simulation finished at: 2019-03-06T23:12+0000 #
#####################################################################
