#####################################################################
# Alchemist log file - simulation started at: 2019-03-18T17:43+0000 #
#####################################################################
# seed = 9.0, bandwidth = 1000.0, propagationDelay = 0.31622776601683794, baserange = 10.0
#
# The columns have the following meaning: 
# time neighbor_count[Sum] <value>@neighbor_count[Sum] packet_size[Mean] mean_delay[Mean] crowd[Sum] overcrowded[Sum] risk[Sum] 
0.0 NaN NaN NaN NaN NaN NaN NaN 
2.0003374459614243 NaN NaN 4988.0 NaN 1497.0 0.0 1497.0 
4.000337445961424 NaN NaN 4988.0 NaN 1497.0 0.0 1497.0 
6.000337445961424 118.0 NaN 4988.200400801603 0.20639705384003462 1497.0 0.0 1497.0 
8.000337445961424 486.0 NaN 4991.90380761523 1.6842426305928924 1497.0 0.0 1497.0 
10.000337445961424 486.0 NaN 4990.343353373413 3.6842426305928924 1497.0 0.0 1497.0 
12.000337445961424 486.0 NaN 4990.891115564462 4.373606963926226 1497.0 0.0 1497.0 
14.000337445961424 486.0 NaN 4990.538410153641 1.6822020750373372 1497.0 0.0 1497.0 
16.000337445961424 486.0 NaN 4989.560454241817 3.6822020750373374 1497.0 0.0 1497.0 
18.000337445961424 487.0 NaN 4989.897127588511 4.44149550836663 1497.0 0.0 1497.0 
20.000337445961424 492.0 NaN 4989.9585838343355 1.7117407457461964 1497.0 0.0 1497.0 
22.000337445961424 492.0 NaN 4989.608550434202 3.7117407457461966 1497.0 0.0 1497.0 
24.000337445961424 492.0 NaN 4989.835671342686 4.404966928364459 1497.0 0.0 1497.0 
26.000337445961424 492.0 NaN 4989.656646626587 1.7982173134029626 1497.0 0.0 1497.0 
28.000337445961424 492.0 NaN 4989.429525718103 3.798217313402963 1497.0 0.0 1497.0 
30.000337445961424 494.0 NaN 4989.512358049432 4.487283676431563 1497.0 0.0 1497.0 
32.00033744596142 500.0 NaN 4989.651302605211 1.9238673996765936 1497.0 0.0 1497.0 
34.00033744596142 500.0 NaN 4989.539078156313 3.9238673996765936 1497.0 0.0 1497.0 
36.00033744596142 504.0 NaN 4989.667334669339 4.619925521345938 1497.0 0.0 1497.0 
38.00033744596142 512.0 NaN 4989.752839011356 2.0646098891116846 1497.0 0.0 1497.0 
40.00033744596142 512.0 NaN 4989.608550434202 4.064609889111685 1497.0 0.0 1497.0 
42.00033744596142 514.0 NaN 4989.739478957916 4.78993250159235 1497.0 0.0 1497.0 
44.00033744596142 517.0 NaN 4989.752839011356 2.1343121950411303 1497.0 0.0 1497.0 
46.00033744596142 517.0 NaN 4989.619238476954 4.13431219504113 1497.0 0.0 1497.0 
48.00033744596142 526.0 NaN 4989.841015364062 4.767752623072516 1497.0 0.0 1497.0 
50.00033744596142 536.0 NaN 4989.750167000668 2.2901968308578264 1497.0 0.0 1497.0 
52.00033744596142 536.0 NaN 4989.59786239145 4.290196830857826 1497.0 0.0 1497.0 
54.00033744596142 537.0 NaN 4989.712758851036 4.9071483781486895 1497.0 0.0 1497.0 
56.00033744596142 548.0 NaN 4989.841015364062 2.5666672155200096 1497.0 0.0 1497.0 
58.00033744596142 548.0 NaN 4989.750167000668 4.5666672155200105 1497.0 0.0 1497.0 
60.00033744596142 552.0 NaN 4989.889111556447 5.310024340323991 1497.0 0.0 1497.0 
62.00033744596142 560.0 NaN 608.9592518370074 2.3306295968562476 320.0 0.0 68.0 
64.00033744596142 560.0 NaN 608.844355377421 3.141436450438803 320.0 0.0 68.0 
66.00033744596142 558.0 NaN 611.9519038076152 3.423226784393783 318.0 0.0 69.0 
68.00033744596142 554.0 NaN 611.8957915831666 1.992694899133811 315.0 0.0 69.0 
70.00033744596142 560.0 NaN 614.936539746159 2.574061052644456 316.0 0.0 70.0 
72.00033744596142 562.0 NaN 618.044088176353 2.8838183258402754 307.0 0.0 71.0 
74.00033744596142 561.0 NaN 618.0307281229137 2.2407859391975236 286.0 0.0 71.0 
76.00033744596142 562.0 NaN 621.0741482965922 2.8787127059070703 258.0 0.0 72.0 
78.00033744596142 562.0 NaN 624.1549766199059 3.109527567750009 243.0 0.0 73.0 
80.00033744596142 548.0 NaN 624.1229124916499 2.480335469539939 215.0 0.0 73.0 
82.00033744596142 553.0 NaN 627.1743486973955 3.0982803749817207 204.0 0.0 74.0 
84.00033744596142 547.0 NaN 627.2251169004684 3.2609339812641305 192.0 0.0 74.0 
86.00033744596142 536.0 NaN 627.1796927187715 2.64489318870573 180.0 0.0 74.0 
88.00033744596142 543.0 NaN 627.1529726118911 3.2335282162661847 177.0 0.0 74.0 
90.00033744596142 541.0 NaN 627.1743486973955 3.3893374914350223 173.0 0.0 74.0 
92.00033744596142 538.0 NaN 627.1583166332671 2.762122822848209 173.0 0.0 74.0 
94.00033744596142 537.0 NaN 627.1262525050089 3.3044935780821514 173.0 0.0 74.0 
96.00033744596142 530.0 NaN 627.1663326653321 3.1959164188620064 166.0 0.0 74.0 
98.00033744596142 530.0 NaN 633.3012692050772 2.4882273569177684 163.0 0.0 76.0 
100.00033744596142 530.0 NaN 633.2558450233809 2.919063960277746 161.0 0.0 76.0 
102.00033744596142 532.0 NaN 636.3446893787581 3.0886994548332316 157.0 0.0 77.0 
104.00033744596142 532.0 NaN 636.3446893787581 2.41960621084821 158.0 0.0 77.0 
106.00033744596142 527.0 NaN 636.3340013360046 2.7480846943158403 156.0 0.0 77.0 
108.00033744596142 527.0 NaN 636.3527054108228 3.0045883893137093 154.0 0.0 77.0 
110.00033744596142 527.0 NaN 636.3847695390773 2.468398403428687 154.0 0.0 77.0 
112.00033744596142 522.0 NaN 636.3580494321991 2.6128260357025304 152.0 0.0 77.0 
114.00033744596142 519.0 NaN 639.4789579158311 2.53892004802887 151.0 0.0 78.0 
116.00033744596142 522.0 NaN 642.5143620574485 2.14129742695467 148.0 0.0 79.0 
118.00033744596142 519.0 NaN 642.5036740146962 2.641923965624572 148.0 0.0 79.0 
120.00033744596142 521.0 NaN 639.4869739478962 2.8758900047263345 149.0 0.0 78.0 
122.00033744596142 524.0 NaN 642.5918503674005 2.2973381290971018 148.0 0.0 79.0 
124.00033744596142 526.0 NaN 642.5490981963915 2.7183253886670453 148.0 0.0 79.0 
126.00033744596142 531.0 NaN 642.6052104208417 2.946943909985754 147.0 0.0 79.0 
128.0003374459614 525.0 NaN 645.6860387441544 2.1288893155936326 146.0 0.0 80.0 
130.0003374459614 524.0 NaN 645.6593186372733 2.608913738040259 146.0 0.0 80.0 
132.0003374459614 527.0 NaN 642.5891783567128 2.868883498133846 146.0 0.0 79.0 
134.0003374459614 536.0 NaN 642.6506346025369 2.190240333085406 146.0 0.0 79.0 
136.0003374459614 538.0 NaN 639.5377421509689 2.77390659125784 145.0 0.0 78.0 
138.0003374459614 534.0 NaN 639.5404141616551 2.626357282001549 144.0 0.0 78.0 
140.0003374459614 537.0 NaN 645.6833667334666 1.9526229627920542 144.0 0.0 80.0 
142.0003374459614 540.0 NaN 645.6138944555779 2.4503145902336128 144.0 0.0 80.0 
144.0003374459614 536.0 NaN 642.5651302605211 2.16221054117589 145.0 0.0 79.0 
146.0003374459614 535.0 NaN 642.5731462925847 1.427298624523766 143.0 0.0 79.0 
148.0003374459614 537.0 NaN 639.4655978623907 1.9614977698998126 140.0 0.0 78.0 
150.0003374459614 540.0 NaN 639.4896459585827 2.082265911223975 140.0 0.0 78.0 
152.0003374459614 545.0 NaN 642.5624582498333 1.5924307157609625 139.0 0.0 79.0 
154.0003374459614 553.0 NaN 645.6272545090183 2.1660093715824167 140.0 0.0 80.0 
156.0003374459614 551.0 NaN 645.6352705410817 2.2560016026005987 140.0 0.0 80.0 
158.0003374459614 555.0 NaN 642.6239144956589 1.8482785662752808 141.0 0.0 79.0 
160.0003374459614 557.0 NaN 642.5678022712091 2.4328912244829537 143.0 0.0 79.0 
162.0003374459614 560.0 NaN 642.6319305277225 2.691848646728467 144.0 0.0 79.0 
164.0003374459614 556.0 NaN 642.6452905811626 2.18793086585274 145.0 0.0 79.0 
166.0003374459614 555.0 NaN 642.5784903139604 2.602231155594925 146.0 0.0 79.0 
168.0003374459614 559.0 NaN 642.6613226452911 2.8275750191732705 147.0 0.0 79.0 
170.0003374459614 562.0 NaN 642.6452905811626 2.364524807138969 147.0 0.0 79.0 
172.0003374459614 566.0 NaN 645.6673346693395 2.931346883876871 147.0 0.0 80.0 
174.0003374459614 568.0 NaN 642.6559786239137 3.0102405999320863 147.0 0.0 79.0 
176.0003374459614 560.0 NaN 645.6967267869082 2.548202401951454 148.0 0.0 80.0 
178.0003374459614 561.0 NaN 642.6078824315306 3.153818081535272 148.0 0.0 79.0 
180.0003374459614 559.0 NaN 642.6399465597862 3.3442794754667347 149.0 0.0 79.0 
182.0003374459614 554.0 NaN 642.605210420841 2.682232706513143 147.0 0.0 79.0 
184.0003374459614 550.0 NaN 642.5784903139604 3.029898971013396 146.0 0.0 79.0 
186.0003374459614 547.0 NaN 636.4702738810954 3.252661007292188 146.0 0.0 77.0 
188.0003374459614 543.0 NaN 630.3059452237817 2.7899253298609312 147.0 0.0 75.0 
190.0003374459614 550.0 NaN 633.3760855043411 3.2277273922434766 147.0 0.0 76.0 
192.0003374459614 554.0 NaN 633.3279893119576 3.4868325856939353 146.0 0.0 76.0 
194.0003374459614 558.0 NaN 642.5998663994651 3.032703178248223 146.0 0.0 79.0 
196.0003374459614 559.0 NaN 639.5030060120239 3.1982253593459475 144.0 0.0 78.0 
198.0003374459614 554.0 NaN 636.454241816968 3.274707142605414 144.0 0.0 77.0 
200.0003374459614 552.0 NaN 636.4649298597195 2.588951872533402 147.0 0.0 77.0 
202.0003374459614 554.0 NaN 639.4762859051439 2.945224670128332 149.0 0.0 78.0 
204.0003374459614 548.0 NaN 636.4114896459593 2.962902633400679 150.0 0.0 77.0 
206.0003374459614 557.0 NaN 639.4949899799592 2.5771564635750397 152.0 0.0 78.0 
208.0003374459614 555.0 NaN 639.4682698730788 2.7856035801145227 150.0 0.0 78.0 
210.0003374459614 553.0 NaN 639.4843019372078 2.85386460496044 148.0 0.0 78.0 
212.0003374459614 558.0 NaN 645.659318637274 2.5119333282298424 147.0 0.0 80.0 
214.0003374459614 555.0 NaN 645.6219104876409 2.8419009569702562 146.0 0.0 80.0 
216.0003374459614 554.0 NaN 642.570474281897 2.448990352164778 145.0 0.0 79.0 
218.0003374459614 558.0 NaN 642.5651302605212 2.0748280289447543 146.0 0.0 79.0 
220.0003374459614 558.0 NaN 642.5410821643285 2.658743372860095 144.0 0.0 79.0 
222.0003374459614 558.0 NaN 636.4168336673347 3.000963901960624 142.0 0.0 77.0 
224.0003374459614 557.0 NaN 636.3927855711422 2.5198553812547515 138.0 0.0 77.0 
226.0003374459614 559.0 NaN 639.4923179692726 2.9954563048499265 139.0 0.0 78.0 
228.0003374459614 558.0 NaN 636.4248496993988 3.1495378064401365 137.0 0.0 77.0 
230.0003374459614 553.0 NaN 633.3921175684695 2.529250791512768 135.0 0.0 76.0 
232.0003374459614 552.0 NaN 633.3653974615911 3.033799057698036 134.0 0.0 76.0 
234.0003374459614 559.0 NaN 630.3326653306606 3.2380716070813493 135.0 0.0 75.0 
236.0003374459614 560.0 NaN 630.3486973947895 2.7178239156953583 137.0 0.0 75.0 
238.0003374459614 561.0 NaN 630.3166332665332 3.1996952936414407 136.0 0.0 75.0 
240.0003374459614 555.0 NaN 630.3326653306606 3.0160576795898675 135.0 0.0 75.0 
242.0003374459614 553.0 NaN 627.2972611890456 2.5140389736601256 135.0 0.0 74.0 
244.0003374459614 552.0 NaN 627.2545090180365 2.9313335822228117 132.0 0.0 74.0 
246.0003374459614 555.0 NaN 630.3567134268548 3.2526932807080344 133.0 0.0 75.0 
248.0003374459614 549.0 NaN 630.3433533734137 2.5500273804542624 132.0 0.0 75.0 
250.0003374459614 553.0 NaN 633.3921175684693 3.1505578679444404 134.0 0.0 76.0 
252.0003374459614 557.0 NaN 633.3894455577816 3.4177615720514254 134.0 0.0 76.0 
254.0003374459614 553.0 NaN 636.4863059452224 2.643989815053154 133.0 0.0 77.0 
256.0003374459614 551.0 NaN 636.4569138276543 2.9779571502260107 131.0 0.0 77.0 
258.0003374459614 550.0 NaN 636.4488977955908 3.016489139148588 131.0 0.0 77.0 
260.0003374459614 555.0 NaN 636.4462257849037 2.1732477857811197 131.0 0.0 77.0 
262.0003374459614 554.0 NaN 636.4355377421497 2.7255017322879675 130.0 0.0 77.0 
264.0003374459614 553.0 NaN 633.3814295257182 2.9855240761198805 128.0 0.0 76.0 
266.0003374459614 554.0 NaN 633.3921175684693 2.4901169134607914 128.0 0.0 76.0 
268.0003374459614 563.0 NaN 636.4382097528402 3.071013335733331 129.0 0.0 77.0 
270.0003374459614 560.0 NaN 636.4435537742145 2.9393430165916485 130.0 0.0 77.0 
272.0003374459614 561.0 NaN 639.5323981295915 2.6278929153694244 131.0 0.0 78.0 
274.0003374459614 561.0 NaN 639.5270541082176 2.9930537392756444 133.0 0.0 78.0 
276.0003374459614 559.0 NaN 639.5323981295915 3.2629886886337918 133.0 0.0 78.0 
278.0003374459614 560.0 NaN 639.4789579158319 3.018457378730321 134.0 0.0 78.0 
280.0003374459614 559.0 NaN 639.4655978623906 3.404531169283519 134.0 0.0 78.0 
282.0003374459614 550.0 NaN 639.4896459585824 3.446989896377417 133.0 0.0 78.0 
284.0003374459614 547.0 NaN 639.4682698730778 2.8342049160118363 134.0 0.0 78.0 
286.0003374459614 554.0 NaN 639.4308617234461 3.247469157194929 132.0 0.0 78.0 
288.0003374459614 554.0 NaN 639.4655978623906 3.2112773350610384 133.0 0.0 78.0 
290.0003374459614 558.0 NaN 639.4522378089509 2.592917656177228 134.0 0.0 78.0 
292.0003374459614 557.0 NaN 639.4281897127591 3.1255923849443845 133.0 0.0 78.0 
294.0003374459614 553.0 NaN 636.3954575818309 3.123557706038518 133.0 0.0 77.0 
296.0003374459614 558.0 NaN 636.4141616566465 2.7564471156323913 131.0 0.0 77.0 
298.0003374459614 554.0 NaN 636.4061456245817 3.1131554224300224 131.0 0.0 77.0 
300.0003374459614 544.0 NaN 636.4141616566465 2.776270878546401 130.0 0.0 77.0 
302.0003374459614 540.0 NaN 627.1957247829001 2.4438625842339268 129.0 0.0 74.0 
304.0003374459614 541.0 NaN 630.2738810955238 2.7125237677731007 128.0 0.0 75.0 
306.0003374459614 540.0 NaN 627.2010688042762 2.785866525970923 128.0 0.0 74.0 
308.0003374459614 539.0 NaN 627.2010688042762 2.447685040986715 129.0 0.0 74.0 
310.0003374459614 538.0 NaN 627.1716766867055 2.8501047064526768 130.0 0.0 74.0 
312.0003374459614 533.0 NaN 624.146960587842 2.8627400314097016 130.0 0.0 73.0 
314.0003374459614 528.0 NaN 624.1442885771546 2.479240448508184 131.0 0.0 73.0 
316.0003374459614 530.0 NaN 621.0340681362728 2.9133141413890216 129.0 0.0 72.0 
318.0003374459614 533.0 NaN 624.152304609218 3.135356424699584 129.0 0.0 73.0 
320.0003374459614 529.0 NaN 624.146960587842 2.7334528855000113 128.0 0.0 73.0 
322.0003374459614 529.0 NaN 624.1309285237135 3.2638727962717384 128.0 0.0 73.0 
324.0003374459614 523.0 NaN 621.0875083500332 3.202082380453947 127.0 0.0 72.0 
326.0003374459614 522.0 NaN 627.2411489645953 2.741235421425265 128.0 0.0 74.0 
328.0003374459614 519.0 NaN 627.1770207080816 2.8239671894559404 130.0 0.0 74.0 
330.0003374459614 523.0 NaN 627.1983967935862 3.0450868746565174 130.0 0.0 74.0 
332.0003374459614 519.0 NaN 627.1877087508351 2.4766286280762975 129.0 0.0 74.0 
334.0003374459614 521.0 NaN 624.1469605878423 2.8060257830408744 129.0 0.0 73.0 
336.0003374459614 525.0 NaN 624.1122244488987 2.9737299534156114 130.0 0.0 73.0 
338.0003374459614 529.0 NaN 624.154976619906 2.536652393868249 131.0 0.0 73.0 
340.0003374459614 536.0 NaN 617.9772879091516 2.8934026269554174 132.0 0.0 71.0 
342.0003374459614 537.0 NaN 611.8904475617908 3.042571525721492 132.0 0.0 69.0 
344.0003374459614 539.0 NaN 611.8610554442226 2.5973993540024063 132.0 0.0 69.0 
346.0003374459614 535.0 NaN 611.8503674014698 2.6949657768871096 132.0 0.0 69.0 
348.0003374459614 531.0 NaN 608.7989311957247 2.857984396979437 131.0 0.0 68.0 
350.0003374459614 535.0 NaN 608.7935871743483 2.3968930433819096 131.0 0.0 68.0 
352.0003374459614 535.0 NaN 608.7722110888453 2.912400683725926 130.0 0.0 68.0 
354.0003374459614 534.0 NaN 611.8637274549092 3.1051369867204714 126.0 0.0 69.0 
356.0003374459614 533.0 NaN 611.8530394121575 2.5777745678620763 122.0 0.0 69.0 
358.0003374459614 529.0 NaN 611.8423513694046 2.8153607675821157 122.0 0.0 69.0 
360.0003374459614 530.0 NaN 611.8583834335336 2.9978353680560423 124.0 0.0 69.0 
362.0003374459614 527.0 NaN 614.9178356713426 2.3970954886249745 124.0 0.0 70.0 
364.0003374459614 526.0 NaN 611.8423513694046 2.9029103202067152 125.0 0.0 69.0 
366.0003374459614 521.0 NaN 608.7828991315955 2.919580703908276 126.0 0.0 68.0 
368.0003374459614 520.0 NaN 608.7962591850363 2.5495930414851506 126.0 0.0 68.0 
370.0003374459614 528.0 NaN 608.7748830995316 2.8226956189497763 123.0 0.0 68.0 
372.0003374459614 529.0 NaN 605.7154308617228 2.9497211373443073 123.0 0.0 67.0 
374.0003374459614 530.0 NaN 605.710086840347 2.6629043646326647 123.0 0.0 67.0 
376.0003374459614 528.0 NaN 611.8557114228454 2.946376365548142 124.0 0.0 69.0 
378.0003374459614 525.0 NaN 608.8042752171 3.014956234566293 125.0 0.0 68.0 
380.0003374459614 523.0 NaN 608.7828991315953 2.3421062608173084 126.0 0.0 68.0 
382.0003374459614 525.0 NaN 608.7909151636603 2.7600168683323463 125.0 0.0 68.0 
384.0003374459614 521.0 NaN 611.8904475617909 2.7510810180491685 125.0 0.0 69.0 
386.0003374459614 515.0 NaN 608.8016032064137 2.207987680357212 123.0 0.0 68.0 
388.0003374459614 523.0 NaN 611.8717434869739 2.741873442507412 121.0 0.0 69.0 
390.0003374459614 525.0 NaN 608.8096192384774 2.98558106792423 119.0 0.0 68.0 
392.0003374459614 532.0 NaN 611.9118236472955 2.46721475840581 119.0 0.0 69.0 
394.0003374459614 536.0 NaN 608.8416833667334 2.982941631573672 120.0 0.0 68.0 
396.0003374459614 539.0 NaN 618.076152304609 2.92726772819378 121.0 0.0 71.0 
398.0003374459614 541.0 NaN 618.0547762191044 2.6476932116326988 121.0 0.0 71.0 
400.0003374459614 540.0 NaN 621.1169004676016 2.6733986042361644 119.0 0.0 72.0 
402.0003374459614 548.0 NaN 627.3106212424851 2.901479885296814 122.0 0.0 74.0 
404.0003374459614 545.0 NaN 630.3807615230455 2.592027008029415 120.0 0.0 75.0 
406.0003374459614 550.0 NaN 630.3380093520364 2.9582544915792504 119.0 0.0 75.0 
408.0003374459614 545.0 NaN 630.3593854375409 3.0141415995856122 120.0 0.0 75.0 
410.0003374459614 537.0 NaN 630.3166332665329 2.4547122266118158 120.0 0.0 75.0 
412.0003374459614 537.0 NaN 630.3193052772217 2.9432344475555205 120.0 0.0 75.0 
414.0003374459614 535.0 NaN 633.4161656646637 3.131528290516808 120.0 0.0 76.0 
416.0003374459614 544.0 NaN 633.4455577822318 2.9395809392042005 120.0 0.0 76.0 
418.0003374459614 542.0 NaN 633.4161656646637 3.040147920693752 121.0 0.0 76.0 
420.0003374459614 543.0 NaN 633.4241816967275 3.123023195241685 123.0 0.0 76.0 
422.0003374459614 554.0 NaN 642.6506346025371 2.7915680361816864 126.0 0.0 79.0 
424.0003374459614 551.0 NaN 642.5704742818965 3.1281754291721966 126.0 0.0 79.0 
426.0003374459614 547.0 NaN 642.5838343353362 3.185294943867083 127.0 0.0 79.0 
428.0003374459614 545.0 NaN 639.5591182364726 2.7297131560167585 130.0 0.0 78.0 
430.0003374459614 549.0 NaN 639.5297261189045 3.3576759977410213 131.0 0.0 78.0 
432.0003374459614 548.0 NaN 639.521710086841 3.5039313367689227 135.0 0.0 78.0 
434.0003374459614 549.0 NaN 642.6212424849693 2.789478650757149 134.0 0.0 79.0 
436.0003374459614 553.0 NaN 651.8503674014694 3.246426905801762 134.0 0.0 82.0 
438.0003374459614 546.0 NaN 651.8530394121578 3.29597477711007 134.0 0.0 82.0 
440.0003374459614 544.0 NaN 651.8316633266537 2.982296785966446 134.0 0.0 82.0 
442.0003374459614 543.0 NaN 648.774883099532 3.3014229410239135 135.0 0.0 81.0 
444.0003374459614 547.0 NaN 654.9205076820314 3.2521959011883834 135.0 0.0 83.0 
446.0003374459614 548.0 NaN 657.9879759519039 2.872809412716635 135.0 0.0 84.0 
448.0003374459614 556.0 NaN 670.268537074148 3.2553343031312565 136.0 0.0 88.0 
450.0003374459614 562.0 NaN 670.2311289245156 3.3758142131877857 137.0 0.0 88.0 
452.0003374459614 565.0 NaN 673.3146292585185 3.1917997438858725 138.0 0.0 89.0 
454.0003374459614 562.0 NaN 670.2418169672673 3.3000301412936444 138.0 0.0 88.0 
456.0003374459614 559.0 NaN 670.2685370741483 3.1531858355143574 139.0 0.0 88.0 
458.0003374459614 550.0 NaN 670.2685370741483 2.593967247595699 139.0 0.0 88.0 
460.0003374459614 550.0 NaN 670.2391449565813 3.1110038274988345 139.0 0.0 88.0 
462.0003374459614 547.0 NaN 667.1743486973944 3.1579020556648953 137.0 0.0 87.0 
464.0003374459614 553.0 NaN 673.325317301269 2.7622605471280095 138.0 0.0 89.0 
466.0003374459614 550.0 NaN 673.2798931195729 3.2640993119208304 139.0 0.0 89.0 
468.0003374459614 551.0 NaN 673.2825651302607 3.5016901082638174 139.0 0.0 89.0 
470.0003374459614 542.0 NaN 673.2852371409484 2.9714533173092685 139.0 0.0 89.0 
472.0003374459614 539.0 NaN 670.1937207748824 3.511157839733945 139.0 0.0 88.0 
474.0003374459614 534.0 NaN 660.9939879759514 3.7825663448308444 138.0 0.0 85.0 
476.0003374459614 524.0 NaN 661.0020040080177 3.1068788012464585 138.0 0.0 85.0 
478.0003374459614 526.0 NaN 660.9859719438879 3.4533320579578377 136.0 0.0 85.0 
480.0003374459614 525.0 NaN 657.9265197060786 3.3751198135589098 134.0 0.0 84.0 
482.0003374459614 524.0 NaN 657.9051436205733 3.149746780583869 135.0 0.0 84.0 
484.0003374459614 512.0 NaN 657.8810955243816 2.9321087560368815 134.0 0.0 84.0 
486.0003374459614 515.0 NaN 654.8376753507006 3.1046297432275365 135.0 0.0 83.0 
488.0003374459614 527.0 NaN 654.8136272545091 2.7607591332915074 136.0 0.0 83.0 
490.0003374459614 529.0 NaN 654.8109552438215 3.259209408864551 137.0 0.0 83.0 
492.0003374459614 533.0 NaN 657.8837675350694 3.5372788071660564 138.0 0.0 84.0 
494.0003374459614 525.0 NaN 657.8730794923183 2.61908697886365 137.0 0.0 84.0 
496.0003374459614 520.0 NaN 651.6980627922504 2.6373215355856034 137.0 0.0 82.0 
498.0003374459614 519.0 NaN 645.5631262525047 2.7442928106988296 135.0 0.0 80.0 
500.0003374459614 516.0 NaN 645.5551102204405 2.235552588448132 135.0 0.0 80.0 
502.0003374459614 520.0 NaN 645.5444221776903 2.7669365877009855 134.0 0.0 80.0 
504.0003374459614 519.0 NaN 642.4742818971272 2.65761441810298 132.0 0.0 79.0 
506.0003374459614 510.0 NaN 645.5871743486965 1.919255595045868 134.0 0.0 80.0 
508.0003374459614 516.0 NaN 639.4362057448227 2.3828039427735255 133.0 0.0 78.0 
510.0003374459614 513.0 NaN 636.3767535070135 2.4482870679379025 131.0 0.0 77.0 
512.0003374459613 513.0 NaN 633.2985971943898 2.2194961294265743 130.0 0.0 76.0 
514.0003374459613 513.0 NaN 636.3553774215089 2.5870948219571424 130.0 0.0 77.0 
516.0003374459613 514.0 NaN 633.3012692050773 2.869074468116343 129.0 0.0 76.0 
518.0003374459613 507.0 NaN 630.2471609886443 2.299188764951155 129.0 0.0 75.0 
520.0003374459613 511.0 NaN 630.231128924515 2.6674018963449453 129.0 0.0 75.0 
522.0003374459613 508.0 NaN 614.9044756179026 2.765099118243176 127.0 0.0 70.0 
524.0003374459613 501.0 NaN 611.8156312625254 2.261475053686498 127.0 0.0 69.0 
526.0003374459613 498.0 NaN 605.6700066800273 2.584016699453843 125.0 0.0 67.0 
528.0003374459613 500.0 NaN 599.527054108216 2.8469216921165215 123.0 0.0 65.0 
530.0003374459613 497.0 NaN 596.4649298597196 2.2099561554689786 123.0 0.0 64.0 
532.0003374459613 502.0 NaN 596.472945891784 2.7614488381514954 123.0 0.0 64.0 
534.0003374459613 503.0 NaN 596.4676018704075 2.898732971917638 123.0 0.0 64.0 
536.0003374459613 512.0 NaN 605.6753507014022 2.604069897165079 126.0 0.0 67.0 
538.0003374459613 514.0 NaN 605.6539746158982 3.1117863461153097 126.0 0.0 67.0 
540.0003374459613 516.0 NaN 602.5891783567137 3.1039938090071844 125.0 0.0 66.0 
542.0003374459613 524.0 NaN 608.7935871743483 2.760703152248497 127.0 0.0 68.0 
544.0003374459613 516.0 NaN 605.7047428189712 2.9692667939029342 127.0 0.0 67.0 
546.0003374459613 514.0 NaN 605.6993987975956 3.064081859129335 127.0 0.0 67.0 
548.0003374459613 520.0 NaN 605.7154308617233 2.593646243609141 129.0 0.0 67.0 
550.0003374459613 522.0 NaN 605.6726786907143 3.1588653392027837 127.0 0.0 67.0 
552.0003374459613 527.0 NaN 605.6913827655312 3.4382402017925364 127.0 0.0 67.0 
554.0003374459613 529.0 NaN 605.6833667334668 2.9576226336266798 127.0 0.0 67.0 
556.0003374459613 533.0 NaN 599.5484301937206 3.171656437305419 127.0 0.0 65.0 
558.0003374459613 530.0 NaN 599.5591182364727 3.2398626992122055 127.0 0.0 65.0 
560.0003374459613 528.0 NaN 599.5404141616568 2.6835981389112273 127.0 0.0 65.0 
562.0003374459613 529.0 NaN 596.4782899131593 3.215823849022375 127.0 0.0 64.0 
564.0003374459613 530.0 NaN 596.4622578490315 3.1495318176757325 125.0 0.0 64.0 
566.0003374459613 534.0 NaN 596.5156980627921 2.8579823430477624 125.0 0.0 64.0 
568.0003374459613 533.0 NaN 596.5076820307283 3.1025766835404798 123.0 0.0 64.0 
570.0003374459613 536.0 NaN 596.5183700734804 3.283423478678537 123.0 0.0 64.0 
572.0003374459613 537.0 NaN 599.5991983967933 2.9315267195238954 125.0 0.0 65.0 
574.0003374459613 537.0 NaN 599.5804943219773 3.468388030597943 124.0 0.0 65.0 
576.0003374459613 540.0 NaN 599.5724782899134 3.7261678007617705 123.0 0.0 65.0 
578.0003374459613 529.0 NaN 599.5804943219773 2.7349494621396837 122.0 0.0 65.0 
580.0003374459613 532.0 NaN 599.5858383433533 3.3719725140476147 122.0 0.0 65.0 
582.0003374459613 537.0 NaN 596.5103540414159 3.612107705768964 121.0 0.0 64.0 
584.0003374459613 539.0 NaN 590.3647294589179 3.1903358115955966 121.0 0.0 62.0 
586.0003374459613 537.0 NaN 587.2732130928523 3.3696319636268837 120.0 0.0 61.0 
588.0003374459613 538.0 NaN 587.2812291249163 3.525451870633855 122.0 0.0 61.0 
590.0003374459613 534.0 NaN 599.6072144288577 2.902184819936378 123.0 0.0 65.0 
592.0003374459613 537.0 NaN 599.5484301937206 3.196635803478507 122.0 0.0 65.0 
594.0003374459613 534.0 NaN 599.5644622578491 3.204796985846371 122.0 0.0 65.0 
596.0003374459613 524.0 NaN 599.6179024716098 2.6311838401151606 122.0 0.0 65.0 
598.0003374459613 526.0 NaN 602.6639946559787 3.1094881501998337 121.0 0.0 66.0 
600.0003374459613 525.0 NaN 599.6072144288576 3.233843102240158 121.0 0.0 65.0 
602.0003374459613 532.0 NaN 602.6826987307953 2.8291138178787936 121.0 0.0 66.0 
604.0003374459613 533.0 NaN 599.5911823647295 3.279090109526337 118.0 0.0 65.0 
606.0003374459613 537.0 NaN 599.6232464929863 3.543380885226811 119.0 0.0 65.0 
608.0003374459613 544.0 NaN 605.7929191716772 2.9420492978854713 119.0 0.0 67.0 
610.0003374459613 545.0 NaN 605.7207748831 3.4466642624428605 119.0 0.0 67.0 
612.0003374459613 547.0 NaN 605.7207748831 3.6967765017315672 120.0 0.0 67.0 
614.0003374459613 546.0 NaN 608.8176352705409 3.073875403924191 117.0 0.0 68.0 
616.0003374459613 550.0 NaN 611.8610554442221 3.2931063376915497 117.0 0.0 69.0 
618.0003374459613 549.0 NaN 611.8423513694052 3.2929866503880447 117.0 0.0 69.0 
620.0003374459613 546.0 NaN 614.9338677354706 2.821973527866268 117.0 0.0 70.0 
622.0003374459613 551.0 NaN 611.8263193052774 3.395155584114474 117.0 0.0 69.0 
624.0003374459613 552.0 NaN 608.7668670674682 3.576583299646238 116.0 0.0 68.0 
626.0003374459613 558.0 NaN 614.9418837675345 2.872700685184944 119.0 0.0 70.0 
628.0003374459613 562.0 NaN 614.9418837675345 3.2007927778063734 119.0 0.0 70.0 
630.0003374459613 561.0 NaN 614.9472277889114 3.3963103480519896 121.0 0.0 70.0 
632.0003374459613 569.0 NaN 624.2137608550435 2.839030981510416 123.0 0.0 73.0 
634.0003374459613 575.0 NaN 630.3246492985973 3.3027332419166426 125.0 0.0 75.0 
636.0003374459613 571.0 NaN 633.4215096860394 3.3492986198309236 127.0 0.0 76.0 
638.0003374459613 574.0 NaN 630.3727454909817 2.839152759556047 128.0 0.0 75.0 
640.0003374459613 577.0 NaN 633.3680694722774 3.428534837672818 129.0 0.0 76.0 
642.0003374459613 575.0 NaN 633.3707414829651 3.6378382676036574 130.0 0.0 76.0 
644.0003374459613 571.0 NaN 642.5971943887772 3.0535878280992317 130.0 0.0 79.0 
646.0003374459613 569.0 NaN 642.5571142284579 3.4908137873099334 130.0 0.0 79.0 
648.0003374459613 573.0 NaN 645.640614562459 3.7054213342106284 132.0 0.0 80.0 
650.0003374459613 566.0 NaN 645.6459585838346 3.2974721486065417 130.0 0.0 80.0 
652.0003374459613 568.0 NaN 651.7515030060125 3.640209635199382 134.0 0.0 82.0 
654.0003374459613 569.0 NaN 651.7541750167 3.9176059777059478 138.0 0.0 82.0 
656.0003374459613 564.0 NaN 654.8430193720772 2.912627609096726 143.0 0.0 83.0 
658.0003374459613 564.0 NaN 654.8082832331319 3.1955772916116265 144.0 0.0 83.0 
660.0003374459613 567.0 NaN 654.8697394789581 3.5258535588506206 145.0 0.0 83.0 
662.0003374459613 566.0 NaN 654.8537074148304 3.07467420436963 145.0 0.0 83.0 
664.0003374459613 565.0 NaN 657.886439545759 3.5339067580396897 145.0 0.0 84.0 
#####################################################################
# End of data export. Simulation finished at: 2019-03-18T17:59+0000 #
#####################################################################
