#####################################################################
# Alchemist log file - simulation started at: 2019-03-05T15:22+0000 #
#####################################################################
# seed = 3.0, bandwidth = 17782.79410038923, propagationDelay = 1.0, baserange = 17.78279410038923
#
# The columns have the following meaning: 
# time neighbor_count[Sum] <value>@neighbor_count[Sum] packet_size[Mean] mean_delay[Mean] crowd[Sum] overcrowded[Sum] risk[Sum] 
0.0 NaN NaN NaN NaN NaN NaN NaN 
2.0005923698108097 289.0 NaN 4988.462257849032 0.20236320554279094 1497.0 0.0 1497.0 
4.00059236981081 1118.0 NaN 4995.388109552438 1.2009045656369086 1497.0 0.0 1497.0 
6.000084666035003 1118.0 NaN 4994.754843019372 1.2023767988982301 1497.0 0.0 1497.0 
8.00059236981081 1118.0 NaN 4994.137608550434 1.2087070526216142 1496.0 1.0 1496.0 
10.00033353340315 1120.0 NaN 4992.221776887108 1.2225886715390428 1496.0 1.0 1496.0 
12.00059236981081 1124.0 NaN 4991.826319305277 1.240631855899367 1491.0 6.0 1491.0 
14.000291861175878 1124.0 NaN 4991.500334001336 1.2537465442763407 1490.0 7.0 1490.0 
16.000084666035004 1124.0 NaN 4991.438877755511 1.2687783867495952 1490.0 7.0 1490.0 
18.000291861175878 1124.0 NaN 4991.094188376754 1.2919409358606124 1490.0 7.0 1490.0 
20.000291861175878 1126.0 NaN 4991.104876419506 1.315338275139106 1490.0 7.0 1490.0 
22.000291861175878 1130.0 NaN 4990.992651970608 1.338132257569772 1490.0 7.0 1490.0 
24.000291861175878 1130.0 NaN 4991.155644622579 1.365189169862393 1490.0 7.0 1490.0 
26.000084666035004 1131.0 NaN 4990.864395457582 1.3761746707299123 1490.0 7.0 1490.0 
28.000291861175878 1138.0 NaN 4991.040748162993 1.3784750303396323 1490.0 7.0 1490.0 
30.000291861175878 1134.0 NaN 4991.016700066801 1.3578761578388705 1490.0 7.0 1490.0 
32.000291861175874 1136.0 NaN 4991.019372077489 1.312752223132276 1490.0 7.0 1490.0 
34.000291861175874 1138.0 NaN 4990.973947895792 1.3129245013618778 1490.0 7.0 1490.0 
36.00008466603501 1138.0 NaN 4991.027388109553 1.3347168511876182 1490.0 7.0 1490.0 
38.000291861175874 1140.0 NaN 4990.89378757515 1.3597135553631512 1490.0 7.0 1490.0 
40.000291861175874 1142.0 NaN 4990.971275885104 1.3218420274683167 1490.0 7.0 1490.0 
42.000291861175874 1154.0 NaN 4990.821643286573 1.3666173098651522 1490.0 7.0 1490.0 
44.000291861175874 1153.0 NaN 4990.979291917168 1.4073201321715643 1490.0 7.0 1490.0 
46.00008466603501 1164.0 NaN 4990.933867735471 1.4548886050266414 1490.0 7.0 1490.0 
48.000291861175874 1171.0 NaN 4990.98997995992 1.4934401491539262 1490.0 7.0 1490.0 
50.000291861175874 1176.0 NaN 4990.917835671343 1.5294044615943132 1490.0 7.0 1490.0 
52.000291861175874 1181.0 NaN 4990.86706746827 1.5729754256398036 1490.0 7.0 1490.0 
54.000291861175874 1178.0 NaN 4990.952571810287 1.6154607456163752 1490.0 7.0 1490.0 
56.00008466603501 1188.0 NaN 4990.928523714095 1.6878483089391236 1490.0 7.0 1490.0 
58.000291861175874 1195.0 NaN 4990.928523714095 1.7831886371668728 1490.0 7.0 1490.0 
60.000291861175874 1201.0 NaN 4990.98997995992 1.8259475224071873 1490.0 7.0 1490.0 
62.00059236981081 1198.0 NaN 974.6399465597831 1.6306885941876832 491.0 6.0 181.0 
64.00059236981082 1194.0 NaN 983.7755511022013 1.568529175614689 484.0 6.0 184.0 
66.00008466603501 1198.0 NaN 989.8917835671365 1.6574846680920947 451.0 6.0 186.0 
68.00059236981082 1204.0 NaN 989.8196392785558 1.7301925519917283 407.0 6.0 186.0 
70.00033353340315 1208.0 NaN 989.7261189044739 1.8221469622120914 376.0 6.0 186.0 
72.00059236981082 1205.0 NaN 989.7448229792907 1.7304739587485822 354.0 6.0 186.0 
74.00059236981082 1203.0 NaN 989.6646626586534 1.7776693644442694 344.0 6.0 186.0 
76.00008466603501 1199.0 NaN 989.7181028724102 1.820181143959665 335.0 6.0 186.0 
78.00059236981082 1198.0 NaN 989.7154308617261 1.8190702161823604 328.0 6.0 186.0 
80.00033353340315 1183.0 NaN 989.6887107548442 1.7045080333155649 321.0 6.0 186.0 
82.00059236981082 1180.0 NaN 989.6833667334647 1.6581871842341056 314.0 6.0 186.0 
84.00059236981082 1178.0 NaN 989.6726786907168 1.6898779196422387 303.0 6.0 186.0 
86.00008466603501 1178.0 NaN 989.6593186372726 1.7343572145083601 301.0 6.0 186.0 
88.00059236981082 1181.0 NaN 986.6319305277194 1.6842555704332547 299.0 6.0 185.0 
90.00033353340315 1185.0 NaN 995.8209752838997 1.612547624734948 298.0 6.0 188.0 
92.00059236981082 1192.0 NaN 998.9071476285911 1.6727150023504573 293.0 6.0 189.0 
94.00059236981082 1189.0 NaN 1002.0120240480985 1.6638920273994118 292.0 6.0 190.0 
96.00008466603501 1189.0 NaN 1001.995991983965 1.7674090707008079 291.0 6.0 190.0 
98.00059236981082 1189.0 NaN 1001.9906479625907 1.801260438545222 291.0 6.0 190.0 
100.00033353340315 1189.0 NaN 1005.0367401469623 1.8605349168808119 290.0 6.0 191.0 
102.00059236981082 1191.0 NaN 1005.0233800935179 1.85784797836355 291.0 6.0 191.0 
104.00059236981082 1189.0 NaN 1005.0394121576467 1.9061223480747507 292.0 6.0 191.0 
106.00008466603501 1189.0 NaN 1005.0768203072821 1.937141399275283 292.0 6.0 191.0 
108.00059236981082 1188.0 NaN 1005.0688042752184 1.851896904254411 292.0 6.0 191.0 
110.00033353340315 1186.0 NaN 1008.1923847695376 1.8648767671594784 291.0 6.0 192.0 
112.00059236981082 1190.0 NaN 1005.1436205744816 1.8753309257662982 291.0 6.0 191.0 
114.00059236981082 1181.0 NaN 1005.0955243820986 1.7945748089323497 289.0 6.0 191.0 
116.00008466603501 1181.0 NaN 1005.0661322645271 1.9119626447267148 288.0 6.0 191.0 
118.00059236981082 1188.0 NaN 1005.0821643286558 1.8543337064755179 288.0 6.0 191.0 
120.00033353340315 1192.0 NaN 1008.1469605878442 1.785536349545815 286.0 6.0 192.0 
122.00059236981082 1202.0 NaN 1014.338009352036 1.838684734439974 286.0 6.0 194.0 
124.00059236981082 1193.0 NaN 1014.305945223782 1.8014926207637485 290.0 6.0 194.0 
126.00008466603501 1198.0 NaN 1014.3139612558456 1.7976197725339782 289.0 6.0 194.0 
128.00059236981082 1202.0 NaN 1014.3433533734108 1.8621894117073687 290.0 6.0 194.0 
130.00033353340314 1213.0 NaN 1011.2171008684015 1.9578971020732685 288.0 6.0 193.0 
132.00059236981082 1215.0 NaN 1017.3974615898452 1.99253415325412 288.0 6.0 195.0 
134.00059236981082 1200.0 NaN 1011.2277889111543 1.9806522168153589 288.0 6.0 193.0 
136.000084666035 1195.0 NaN 1014.348697394791 2.0043870090538065 288.0 6.0 194.0 
138.00059236981082 1194.0 NaN 1008.1870407481638 1.8838393246675855 288.0 6.0 192.0 
140.00033353340314 1199.0 NaN 1005.1302605210437 1.8601364226254162 288.0 6.0 191.0 
142.00059236981082 1201.0 NaN 1008.2084168336654 1.7875700648525181 285.0 6.0 192.0 
144.00059236981082 1196.0 NaN 1008.2057448229801 1.7576764741597006 286.0 6.0 192.0 
146.000084666035 1215.0 NaN 1014.3567134268548 1.8704215116799068 288.0 6.0 194.0 
148.00056088243008 1235.0 NaN 1017.3921175684709 1.9178151698837425 291.0 6.0 195.0 
150.00033353340314 1242.0 NaN 1020.5531062124256 1.8611694236996545 291.0 6.0 196.0 
152.00056088243008 1249.0 NaN 1020.5504342017363 1.7447309382027412 289.0 6.0 196.0 
154.00056088243008 1249.0 NaN 1023.6232464929833 1.790084070411526 289.0 6.0 197.0 
156.000084666035 1257.0 NaN 1023.5671342685362 1.7297597315731719 290.0 6.0 197.0 
158.00056088243008 1257.0 NaN 1023.5617902471621 1.6925976379714538 290.0 6.0 197.0 
160.00033353340314 1256.0 NaN 1032.8630594522363 1.7419744543548699 290.0 6.0 200.0 
162.00056088243008 1266.0 NaN 1032.8122912491635 1.769752892476454 291.0 6.0 200.0 
164.00056088243008 1254.0 NaN 1026.6372745491003 1.6382133827077374 292.0 6.0 198.0 
166.000084666035 1259.0 NaN 1023.5537742150989 1.7264645166490664 293.0 6.0 197.0 
168.00056088243008 1271.0 NaN 1023.5377421509716 1.8067163492812834 293.0 6.0 197.0 
170.00033353340314 1275.0 NaN 1023.649966599865 1.8722494625489914 292.0 6.0 197.0 
172.00056088243008 1281.0 NaN 1023.5778223112911 1.921078213418946 290.0 6.0 197.0 
174.00056088243008 1263.0 NaN 1023.5323981295907 1.9136535031199688 290.0 6.0 197.0 
176.000084666035 1268.0 NaN 1029.6967267869095 2.0411371949288313 289.0 6.0 199.0 
178.00056088243008 1265.0 NaN 1020.5103540414184 2.0420948929810203 289.0 6.0 196.0 
180.00033353340314 1263.0 NaN 1014.4288577154288 2.0921218975483225 289.0 6.0 194.0 
182.00056088243008 1251.0 NaN 1014.3780895123562 1.9839481796988458 289.0 6.0 194.0 
184.00056088243008 1236.0 NaN 1011.2651970607895 2.0152555261075333 289.0 6.0 193.0 
186.000084666035 1230.0 NaN 1011.2678690714744 2.062285024713701 289.0 6.0 193.0 
188.00056088243008 1234.0 NaN 1008.181696726789 2.1167039076549288 287.0 6.0 192.0 
190.00033353340314 1237.0 NaN 1014.2818971275894 2.067650071737992 288.0 6.0 194.0 
192.00056088243008 1238.0 NaN 1011.1957247829001 2.10328354935277 288.0 6.0 193.0 
194.00056088243008 1214.0 NaN 1011.206412825653 1.9485950218803856 284.0 6.0 193.0 
196.000084666035 1218.0 NaN 1005.0634602538436 1.9917762709818652 285.0 6.0 191.0 
198.00056088243008 1227.0 NaN 1005.0581162324637 2.0299914210734396 286.0 6.0 191.0 
200.00033353340314 1231.0 NaN 1005.0848363393454 2.0238688556943263 288.0 6.0 191.0 
202.00059236981082 1227.0 NaN 998.9498997996002 1.9861994310819533 288.0 6.0 189.0 
204.00059236981082 1222.0 NaN 1001.963927855711 1.9314000234879323 292.0 6.0 190.0 
206.000084666035 1225.0 NaN 1005.052772211091 1.9918966242563343 290.0 6.0 191.0 
208.00059236981082 1227.0 NaN 1005.0848363393454 1.8519921533399573 290.0 6.0 191.0 
210.00033353340314 1223.0 NaN 1011.2545090180365 1.8600517141135755 289.0 6.0 193.0 
212.00059236981082 1226.0 NaN 1011.222444889782 1.8892922843708728 288.0 6.0 193.0 
214.00059236981082 1232.0 NaN 1008.1389445557801 1.9310032587168764 287.0 6.0 192.0 
216.000084666035 1235.0 NaN 1008.1710086840363 2.010270606849574 286.0 7.0 191.0 
218.00059236981082 1237.0 NaN 1011.2358049432182 2.1134000602595804 288.0 7.0 192.0 
220.00033353340314 1237.0 NaN 1014.3353373413472 2.01918153336344 284.0 12.0 188.0 
222.00059236981082 1247.0 NaN 1017.3894455577816 2.115409135882937 285.0 12.0 189.0 
224.00059236981082 1239.0 NaN 1020.4301937207726 2.0829232199966916 283.0 12.0 190.0 
226.000084666035 1243.0 NaN 1020.4355377421526 2.2000634625368365 283.0 12.0 190.0 
228.00059236981082 1245.0 NaN 1020.4702738810979 2.1394422171284786 285.0 12.0 190.0 
230.00033353340314 1248.0 NaN 1023.5724782899108 2.178072523091033 288.0 11.0 192.0 
232.00059236981082 1255.0 NaN 1020.4301937207726 2.1728181938537605 288.0 11.0 191.0 
234.00059236981082 1259.0 NaN 1029.6245824983284 2.3125250410113822 294.0 6.0 199.0 
236.000084666035 1262.0 NaN 1029.5951903807638 2.3189740787051356 295.0 6.0 199.0 
238.00056088243008 1264.0 NaN 1023.4869739478988 2.2957185853911133 293.0 6.0 197.0 
240.00033353340314 1269.0 NaN 1020.4836339345366 2.3840569295791316 293.0 6.0 196.0 
242.00056088243008 1259.0 NaN 1023.4976619906467 2.3633872700710175 293.0 6.0 197.0 
244.00056088243008 1238.0 NaN 1023.4575818303272 2.251695470281849 293.0 6.0 197.0 
246.000084666035 1232.0 NaN 1017.290581162326 2.1456872211967823 292.0 6.0 195.0 
248.00056088243008 1230.0 NaN 1017.3306613226455 2.2361779325306785 291.0 6.0 195.0 
250.00033353340314 1224.0 NaN 1008.2057448229804 2.1771304794947897 291.0 6.0 192.0 
252.00056088243008 1222.0 NaN 1008.093520374082 2.198556806556181 290.0 6.0 192.0 
254.00056088243008 1212.0 NaN 1008.0561122244471 2.144067307743102 290.0 6.0 192.0 
256.00008466603504 1217.0 NaN 1001.929191716765 2.2554701879381964 288.0 6.0 190.0 
258.0005608824301 1214.0 NaN 1001.9318637274545 2.170475815127846 286.0 6.0 190.0 
260.00033353340314 1212.0 NaN 1001.9211756847012 2.1363620114192474 285.0 6.0 190.0 
262.0005608824301 1210.0 NaN 1001.939879759518 2.0167114971979276 282.0 6.0 190.0 
264.0005923698108 1204.0 NaN 1001.9372077488287 1.9189906039124354 281.0 6.0 190.0 
266.00008466603504 1205.0 NaN 998.8884435537726 1.9780955545626333 281.0 6.0 189.0 
268.0005923698108 1207.0 NaN 998.9071476285911 2.096496304853414 283.0 6.0 189.0 
270.00033353340314 1213.0 NaN 992.7348029392103 2.1702090258619835 283.0 6.0 187.0 
272.0005608824301 1206.0 NaN 992.7374749499 2.1432258312595804 284.0 6.0 187.0 
274.0005608824301 1206.0 NaN 995.7942551770196 2.275555714236174 286.0 6.0 188.0 
276.00008466603504 1201.0 NaN 998.8617234468925 2.1913234279894804 288.0 6.0 189.0 
278.0005608824301 1206.0 NaN 1001.9425517702093 2.239614909289781 289.0 6.0 190.0 
280.00033353340314 1204.0 NaN 998.9098196392805 2.1171779440857534 287.0 6.0 189.0 
282.0005608824301 1200.0 NaN 998.8964595858362 2.181401853689175 287.0 6.0 189.0 
284.0005608824301 1196.0 NaN 998.8724114896453 2.1331594656473865 286.0 6.0 189.0 
286.00008466603504 1195.0 NaN 998.8804275217088 2.2583562830335553 285.0 6.0 189.0 
288.0005608824301 1183.0 NaN 998.8403473613911 2.289267695776395 283.0 6.0 189.0 
290.00033353340314 1191.0 NaN 992.7802271209092 2.415802755603558 282.0 6.0 187.0 
292.0005608824301 1183.0 NaN 995.7995991983981 2.3180471287031144 281.0 6.0 188.0 
294.0005608824301 1177.0 NaN 1008.1416165664655 2.192342749025801 284.0 6.0 192.0 
296.00008466603504 1182.0 NaN 1008.1202404809637 2.117014678205642 284.0 6.0 192.0 
298.0005608824301 1177.0 NaN 1005.0260521042093 1.975246715147556 283.0 6.0 191.0 
300.00033353340314 1181.0 NaN 998.9926519706091 1.937753021880046 281.0 6.0 189.0 
302.0005608824301 1181.0 NaN 998.9178356713433 1.8651789408056891 282.0 6.0 189.0 
304.0005608824301 1176.0 NaN 998.901803607216 1.7879338915814105 283.0 6.0 189.0 
306.00008466603504 1178.0 NaN 995.8423513694065 1.8280566024791316 282.0 6.0 188.0 
308.0005608824301 1177.0 NaN 998.9579158316637 1.8503203418554997 281.0 6.0 189.0 
310.00033353340314 1179.0 NaN 998.9392117568453 1.8555726913666974 280.0 6.0 189.0 
312.0005608824301 1178.0 NaN 986.6158984635941 1.892345836640539 277.0 6.0 185.0 
314.0005923698108 1172.0 NaN 983.5404141616542 1.8824167027742043 276.0 6.0 184.0 
316.00008466603504 1175.0 NaN 980.4488977955908 2.009629119007672 276.0 6.0 183.0 
318.0005923698108 1173.0 NaN 983.5617902471607 2.0561348059531515 277.0 6.0 184.0 
320.00033353340314 1183.0 NaN 983.5911823647269 2.020687671748895 279.0 6.0 184.0 
322.0005923698108 1196.0 NaN 995.8663994656002 1.9937558529397619 282.0 6.0 188.0 
324.0005923698108 1183.0 NaN 989.7020708082817 1.8948753576116455 283.0 6.0 186.0 
326.00008466603504 1186.0 NaN 992.8176352705425 1.8247366409833399 282.0 6.0 187.0 
328.0005923698108 1187.0 NaN 992.7802271209093 1.8663339954137101 285.0 6.0 187.0 
330.00033353340314 1189.0 NaN 995.8637274549089 1.9242250515985504 285.0 6.0 188.0 
332.0005923698108 1179.0 NaN 995.7915831663333 1.878046862379034 285.0 6.0 188.0 
334.0005923698108 1176.0 NaN 998.8697394789576 1.9649188001877056 286.0 6.0 189.0 
336.00008466603504 1180.0 NaN 1001.9799599198396 2.0315277282687245 287.0 6.0 190.0 
338.0005923698108 1184.0 NaN 998.9311957247816 2.173038997354403 287.0 6.0 189.0 
340.00033353340314 1186.0 NaN 998.8510354041416 2.0244946371733024 285.0 6.0 189.0 
342.0005923698108 1186.0 NaN 998.8911155644636 2.134580098741583 287.0 6.0 189.0 
344.0005923698108 1184.0 NaN 998.8590514362054 2.2375672770155184 289.0 6.0 189.0 
346.00008466603504 1181.0 NaN 995.7969271877092 2.3312898724313214 290.0 6.0 188.0 
348.0005923698108 1173.0 NaN 992.700066800268 2.4064566332985082 291.0 6.0 187.0 
350.00033353340314 1176.0 NaN 995.8183032732131 2.409367027357933 291.0 6.0 188.0 
352.0005923698108 1167.0 NaN 986.5704742818957 2.391926597096051 287.0 6.0 185.0 
354.0005923698108 1151.0 NaN 983.5537742150956 2.104908484766626 291.0 6.0 184.0 
356.00008466603504 1155.0 NaN 986.5704742818958 2.2205475819125144 292.0 6.0 185.0 
358.0005923698108 1151.0 NaN 989.6406145624586 2.220343466375539 292.0 6.0 186.0 
360.00033353340314 1151.0 NaN 992.79091516366 2.2485989922597356 289.0 6.0 187.0 
362.0005923698108 1150.0 NaN 989.6513026052091 2.214949190162616 290.0 6.0 186.0 
364.0005923698108 1148.0 NaN 989.6192384769547 2.2236045688250674 288.0 6.0 186.0 
366.00008466603504 1148.0 NaN 989.5577822311274 2.135241621938532 287.0 6.0 186.0 
368.0005923698108 1145.0 NaN 986.5464261857053 2.0499476101259924 285.0 6.0 185.0 
370.00033353340314 1146.0 NaN 989.5604542418181 2.028153970571581 285.0 6.0 186.0 
372.0005923698108 1145.0 NaN 983.3881095524364 2.011989578454921 286.0 6.0 184.0 
374.0005923698108 1141.0 NaN 989.5123580494328 1.8837403077257715 287.0 6.0 186.0 
376.00008466603504 1152.0 NaN 986.463593854376 2.007235261120116 289.0 6.0 185.0 
378.0005923698108 1153.0 NaN 989.6646626586514 1.997194728107095 289.0 6.0 186.0 
380.00033353340314 1149.0 NaN 980.4248496993998 1.9360206129708846 287.0 6.0 183.0 
382.0005923698108 1148.0 NaN 980.3794255176999 1.8597007362433584 286.0 6.0 183.0 
384.0005923698108 1150.0 NaN 980.3981295925181 1.9591078990312745 285.0 6.0 183.0 
386.00008466603504 1154.0 NaN 971.1529726118911 1.9650070389199026 281.0 6.0 180.0 
388.0005923698108 1156.0 NaN 961.9746158984638 2.0656164349071973 280.0 6.0 177.0 
390.00033353340314 1159.0 NaN 955.8797595190368 2.072232923053362 275.0 6.0 175.0 
392.0005923698108 1158.0 NaN 955.8690714762862 1.9774306233444423 276.0 6.0 175.0 
394.0005923698108 1160.0 NaN 955.8984635938546 2.0830451846636397 274.0 6.0 175.0 
396.00008466603504 1160.0 NaN 955.8663994655998 1.9192013114316984 272.0 6.0 175.0 
398.0005923698108 1165.0 NaN 958.9338677354725 2.0579437826316305 274.0 6.0 176.0 
400.00033353340314 1172.0 NaN 952.7935871743491 2.210539953160734 274.0 6.0 174.0 
402.0005923698108 1176.0 NaN 952.8577154308635 2.1781903162478384 274.0 6.0 174.0 
404.0005923698108 1177.0 NaN 952.8229792919184 2.135546590404427 270.0 6.0 174.0 
406.00008466603504 1179.0 NaN 943.6553106212416 2.050255139206387 268.0 6.0 171.0 
408.0005923698108 1175.0 NaN 946.6826987307951 2.004510512969498 265.0 6.0 172.0 
410.00033353340314 1181.0 NaN 940.6573146292592 2.1087548048614684 270.0 6.0 170.0 
412.0005923698108 1187.0 NaN 943.6820307281233 2.0962854443884686 272.0 6.0 171.0 
414.0005923698108 1173.0 NaN 946.7708750834998 2.129538595700081 271.0 6.0 172.0 
416.00008466603504 1174.0 NaN 943.7327989311964 2.259702883219198 269.0 7.0 170.0 
418.0005923698108 1166.0 NaN 940.6867067468274 2.2938675856156157 264.0 11.0 165.0 
420.00033353340314 1170.0 NaN 946.7815631262547 2.23890650304325 260.0 13.0 165.0 
422.0005923698108 1176.0 NaN 943.7327989311967 2.249374579850638 259.0 13.0 164.0 
424.0005923698108 1171.0 NaN 937.5497661990632 2.244324755346113 259.0 13.0 162.0 
426.00008466603504 1177.0 NaN 940.643954575818 2.3778283529700555 258.0 13.0 163.0 
428.0005923698108 1175.0 NaN 937.5604542418181 2.26497764005955 259.0 13.0 162.0 
430.00033353340314 1175.0 NaN 940.6359385437547 2.2217059129665278 260.0 12.0 164.0 
432.0005923698108 1169.0 NaN 934.4983299933181 2.1267970783227472 255.0 12.0 162.0 
434.0005923698108 1166.0 NaN 937.5043420173669 2.1524760009692154 259.0 8.0 167.0 
436.00008466603504 1169.0 NaN 943.6419505677998 2.2787926907296168 262.0 6.0 171.0 
438.0005923698108 1167.0 NaN 943.6366065464276 2.1564266048424283 263.0 6.0 171.0 
440.00033353340314 1175.0 NaN 946.7735470941878 2.2702728228247353 265.0 6.0 172.0 
442.0005923698108 1196.0 NaN 956.0053440213753 2.3698295665671596 267.0 6.0 175.0 
444.0005608824301 1192.0 NaN 955.9091516366063 2.410507625953581 265.0 7.0 174.0 
446.00008466603504 1181.0 NaN 958.9846359385455 2.285016763213449 263.0 6.0 176.0 
448.0005608824301 1184.0 NaN 962.0200400801614 2.3680321491473086 267.0 6.0 177.0 
450.00033353340314 1186.0 NaN 955.9786239144972 2.282325610365191 263.0 6.0 175.0 
452.0005608824301 1193.0 NaN 955.8770875083482 2.346762476724931 265.0 6.0 175.0 
454.0005608824301 1184.0 NaN 952.830995323982 2.2326950337826093 265.0 6.0 174.0 
456.00008466603504 1189.0 NaN 952.8069472277908 2.2355536125370046 262.0 7.0 173.0 
458.0005608824301 1189.0 NaN 955.9278557114242 2.098205879524539 264.0 7.0 174.0 
460.00033353340314 1189.0 NaN 959.0167000667998 1.9735073026086256 254.0 13.0 169.0 
462.0005608824301 1190.0 NaN 959.0193720774885 2.0785011942604967 254.0 14.0 168.0 
464.0005608824301 1185.0 NaN 958.9392117568456 2.0515960431730575 253.0 14.0 168.0 
466.00008466603504 1181.0 NaN 958.9472277889091 2.1011419937733655 253.0 14.0 168.0 
468.0005608824301 1182.0 NaN 958.8991315965275 2.2504596943944724 252.0 14.0 168.0 
470.00033353340314 1184.0 NaN 962.028056112225 2.260044395495592 256.0 14.0 169.0 
472.0005608824301 1172.0 NaN 958.923179692718 2.2167393813839307 255.0 14.0 168.0 
474.0005608824301 1148.0 NaN 955.890447561791 2.1294197484296706 256.0 14.0 167.0 
476.00008466603504 1144.0 NaN 955.8396793587184 2.2331189912991016 257.0 14.0 167.0 
478.0005608824301 1148.0 NaN 946.6693386773545 2.2953377147824168 254.0 14.0 164.0 
480.00033353340314 1161.0 NaN 952.8871075484296 2.3366081419426092 256.0 14.0 166.0 
482.0005923698108 1164.0 NaN 949.7822311289248 2.3703028172923477 256.0 14.0 165.0 
484.0005923698108 1152.0 NaN 946.6586506346027 2.278048936472506 255.0 14.0 164.0 
486.00008466603504 1146.0 NaN 946.6372745490997 2.277140073327332 254.0 14.0 164.0 
488.0005923698108 1147.0 NaN 946.6533066132274 2.2863815015421625 251.0 14.0 164.0 
490.00033353340314 1155.0 NaN 946.733466933867 2.295463585868869 252.0 14.0 164.0 
492.0005923698108 1153.0 NaN 943.6018704074819 2.0777038230969933 250.0 14.0 163.0 
494.0005923698108 1153.0 NaN 940.5344021376093 2.1155075759650335 251.0 14.0 162.0 
496.00008466603504 1151.0 NaN 940.5664662658638 2.0959902914917743 251.0 14.0 162.0 
498.0005923698108 1147.0 NaN 943.6499665998672 2.036321031890756 253.0 14.0 163.0 
500.00033353340314 1145.0 NaN 943.6232464929857 1.8644417112870137 254.0 13.0 164.0 
502.0005923698108 1146.0 NaN 937.5043420173678 1.920611931525131 254.0 13.0 162.0 
504.0005923698108 1135.0 NaN 937.5150300601183 1.929476766125567 259.0 7.0 168.0 
506.00008466603504 1131.0 NaN 937.5070140280546 1.9215992731930105 260.0 6.0 169.0 
508.0005923698108 1135.0 NaN 934.4101536406139 2.041509061564121 260.0 7.0 167.0 
510.00033353340314 1136.0 NaN 928.2939211756859 2.0795688248932853 257.0 6.0 166.0 
512.0005923698109 1136.0 NaN 922.1643286573137 2.0060824746911634 255.0 6.0 164.0 
514.0005923698109 1125.0 NaN 922.1482965931862 1.8609706011032285 257.0 6.0 164.0 
516.000084666035 1124.0 NaN 915.9438877755499 1.8872468410336536 254.0 6.0 162.0 
518.0005923698109 1128.0 NaN 915.9465597862404 2.0173358109135533 253.0 6.0 162.0 
520.0003335334031 1128.0 NaN 916.0080160320634 1.9909201872964433 252.0 6.0 162.0 
522.0005923698109 1123.0 NaN 912.8710754843004 2.034269741028381 249.0 6.0 161.0 
524.0005923698109 1121.0 NaN 909.7955911823635 2.1337185267293615 248.0 6.0 160.0 
526.000084666035 1114.0 NaN 906.757515030059 1.9580675701726027 247.0 6.0 159.0 
528.0005923698109 1117.0 NaN 909.84368737475 2.008351229591043 247.0 6.0 160.0 
530.0003335334031 1122.0 NaN 909.8997995991995 1.9969471280609508 245.0 6.0 160.0 
532.0005923698109 1125.0 NaN 915.9492317969273 2.020690026793013 247.0 6.0 162.0 
534.00056088243 1117.0 NaN 909.8089512358046 1.9875100057881885 247.0 6.0 160.0 
536.000084666035 1123.0 NaN 912.8790915163672 2.0116202610512532 251.0 6.0 161.0 
538.00056088243 1130.0 NaN 916.0320641282555 2.0494250871891717 252.0 6.0 162.0 
540.0003335334031 1137.0 NaN 916.0026720106874 2.145650308592209 251.0 6.0 162.0 
542.00056088243 1125.0 NaN 912.86038744155 2.153578412612931 251.0 6.0 161.0 
544.0005923698109 1120.0 NaN 909.8463593854374 2.15735414081913 250.0 6.0 160.0 
546.000084666035 1114.0 NaN 909.8169672678681 2.0559422586196456 248.0 6.0 160.0 
548.0005923698109 1107.0 NaN 903.7087508350033 2.058263179314743 245.0 6.0 158.0 
550.0003335334031 1109.0 NaN 900.61456245825 2.1153940101467743 245.0 6.0 157.0 
552.0005923698109 1117.0 NaN 900.6252505010017 2.1587445877259603 245.0 6.0 157.0 
554.0005923698109 1115.0 NaN 900.6359385437546 1.9534019822697595 251.0 6.0 157.0 
556.000084666035 1124.0 NaN 900.5744822979286 1.996702006473442 251.0 6.0 157.0 
558.0005923698109 1123.0 NaN 897.579158316633 2.006549324356334 251.0 6.0 156.0 
560.0003335334031 1126.0 NaN 897.5738142952576 2.101258972959542 251.0 6.0 156.0 
562.0005923698109 1139.0 NaN 900.6599866399454 1.9961621961274425 253.0 6.0 157.0 
564.0005923698109 1145.0 NaN 906.7254509018045 1.8856131215525158 254.0 6.0 159.0 
566.000084666035 1149.0 NaN 906.7735470941876 1.9374114544500662 251.0 6.0 159.0 
568.0005923698109 1158.0 NaN 903.7461589846364 2.110804984494207 253.0 6.0 158.0 
570.0003335334031 1166.0 NaN 906.8430193720773 2.293966094434695 254.0 6.0 159.0 
572.0005923698109 1170.0 NaN 906.8296593186365 2.372613250421503 254.0 6.0 159.0 
574.0005923698109 1176.0 NaN 909.9719438877761 2.30161595283096 254.0 6.0 160.0 
576.000084666035 1186.0 NaN 913.0313961255854 2.3108204314608676 256.0 6.0 161.0 
578.0005923698109 1181.0 NaN 916.0881763527045 2.2224726034943147 257.0 6.0 162.0 
580.0003335334031 1182.0 NaN 916.0855043420182 2.1804273619939734 257.0 6.0 162.0 
582.0005923698109 1186.0 NaN 916.0080160320636 2.058598590384387 260.0 6.0 162.0 
584.0005923698109 1189.0 NaN 916.0507682030727 2.2099728956604165 259.0 6.0 162.0 
586.000084666035 1176.0 NaN 916.0561122244501 2.1777907152283973 259.0 6.0 162.0 
588.0005923698109 1159.0 NaN 925.2825651302597 2.0865491021871017 260.0 6.0 165.0 
590.0003335334031 1161.0 NaN 925.2638610554449 2.068384403247075 263.0 6.0 165.0 
592.0005923698109 1168.0 NaN 934.5170340681364 2.150937670420428 262.0 6.0 168.0 
594.0005923698109 1172.0 NaN 934.4956579826319 2.284371777280261 262.0 6.0 168.0 
596.000084666035 1172.0 NaN 937.4749498998001 2.3540771895390447 261.0 6.0 169.0 
598.0005923698109 1167.0 NaN 934.415497661991 2.3423144690131763 260.0 6.0 168.0 
600.0003335334031 1186.0 NaN 940.6332665330677 2.4124331528520617 263.0 6.0 170.0 
602.0005923698109 1191.0 NaN 931.3667334669323 2.4656160337903366 264.0 6.0 167.0 
604.0005923698109 1185.0 NaN 934.4422177688725 2.433942359948016 265.0 6.0 168.0 
606.000084666035 1185.0 NaN 937.4856379425505 2.504902641695047 267.0 6.0 169.0 
608.0005923698109 1181.0 NaN 937.4776219104868 2.137273060547736 269.0 6.0 169.0 
610.0003335334031 1192.0 NaN 952.9084836339363 2.1907652788771075 271.0 6.0 174.0 
612.0005923698109 1199.0 NaN 955.9572478289908 2.176619245146624 272.0 6.0 175.0 
614.0005923698109 1193.0 NaN 959.0354041416181 2.2121453353989944 273.0 6.0 176.0 
616.000084666035 1179.0 NaN 965.1863727454909 2.1580697023002453 270.0 6.0 178.0 
618.0005923698109 1188.0 NaN 965.1837007348038 2.285698396499209 270.0 6.0 178.0 
620.0003335334031 1191.0 NaN 968.2538410153635 2.219517858209984 269.0 6.0 179.0 
622.0005923698109 1201.0 NaN 965.1516366065453 2.3215048161248673 272.0 6.0 178.0 
624.0005923698109 1201.0 NaN 959.0140280561127 2.3686035199918534 272.0 6.0 176.0 
626.000084666035 1196.0 NaN 962.0921843687361 2.215981238223535 271.0 6.0 177.0 
628.0005923698109 1206.0 NaN 968.2672010688038 2.239134514643458 268.0 6.0 179.0 
630.0003335334031 1236.0 NaN 968.3500334001328 2.2523773988328384 270.0 6.0 179.0 
632.0005923698109 1257.0 NaN 962.2284569138272 2.2671429514396317 267.0 6.0 177.0 
634.0005923698109 1254.0 NaN 965.2157648630596 2.3305259352479104 268.0 6.0 178.0 
636.000084666035 1250.0 NaN 974.418169672678 2.289696573566499 267.0 6.0 181.0 
638.0005923698109 1264.0 NaN 983.6847027388094 2.40996730736708 271.0 6.0 184.0 
640.0003335334031 1264.0 NaN 983.5938543754182 2.3787014031166307 272.0 6.0 184.0 
642.0005923698109 1267.0 NaN 986.7521710086819 2.475171876172182 275.0 6.0 185.0 
644.0005923698109 1256.0 NaN 986.6399465597855 2.4865880881242117 271.0 6.0 185.0 
646.000084666035 1253.0 NaN 989.7742150968605 2.5869861427887755 273.0 6.0 186.0 
648.0005923698109 1270.0 NaN 996.0080160320634 2.584736672488778 275.0 6.0 188.0 
650.0003335334031 1270.0 NaN 996.0374081496338 2.7188340283052663 281.0 6.0 188.0 
652.0005923698109 1266.0 NaN 995.9278557114241 2.5834463419338656 279.0 7.0 187.0 
654.0005923698109 1262.0 NaN 995.8824315297275 2.5522580519039373 276.0 12.0 182.0 
656.000084666035 1250.0 NaN 999.0327321309273 2.4523262090190125 272.0 14.0 181.0 
658.0005923698109 1261.0 NaN 1002.1536406145635 2.5477604149314974 273.0 14.0 182.0 
660.0003335334031 1278.0 NaN 1005.2558450233817 2.3938266419874457 282.0 9.0 188.0 
662.0005923698109 1253.0 NaN 1002.1135604542429 2.334912503878048 281.0 12.0 184.0 
664.0005923698109 1233.0 NaN 1002.0521042084181 2.234784224696722 276.0 14.0 182.0 
#####################################################################
# End of data export. Simulation finished at: 2019-03-05T15:25+0000 #
#####################################################################
