#####################################################################
# Alchemist log file - simulation started at: 2019-03-19T21:33+0000 #
#####################################################################
# seed = 9.0, bandwidth = 74989.42093324558, propagationDelay = 0.001, baserange = 1000.0
#
# The columns have the following meaning: 
# time neighbor_count[Sum] <value>@neighbor_count[Sum] packet_size[Mean] mean_delay[Mean] crowd[Sum] overcrowded[Sum] risk[Sum] 
0.0 NaN NaN NaN NaN NaN NaN NaN 
2.0003374459614243 209373.0 NaN 4995.4255177020705 0.4983366558233196 1496.0 1.0 1496.0 
4.000337445961424 210022.0 NaN 4993.873079492318 0.49986422780995216 1496.0 1.0 1496.0 
6.000337445961424 210022.0 NaN 4993.921175684703 0.4998509627937055 1497.0 0.0 1497.0 
8.000337445961424 210022.0 NaN 4994.460921843687 0.4998355578683987 1495.0 2.0 1495.0 
10.000337445961424 210023.0 NaN 4995.676686706747 0.4998514906468444 1497.0 0.0 1497.0 
12.000337445961424 210024.0 NaN 4994.875083500334 0.4998674569683971 1497.0 0.0 1497.0 
14.000337445961424 210027.0 NaN 4994.148296593186 0.4998678018011382 1497.0 0.0 1497.0 
16.000337445961424 210040.0 NaN 4994.295257181028 0.49986379029044836 1497.0 0.0 1497.0 
18.000337445961424 210073.0 NaN 4995.2732130928525 0.5002073871086438 1496.0 1.0 1496.0 
20.000337445961424 210097.0 NaN 4995.959919839679 0.5009586927011065 1495.0 2.0 1495.0 
22.000337445961424 210103.0 NaN 4994.802939211757 0.5012842203008568 1495.0 2.0 1495.0 
24.000337445961424 210101.0 NaN 4994.348697394789 0.5011267450089482 1496.0 1.0 1496.0 
26.000337445961424 210100.0 NaN 4994.295257181028 0.5000040276461305 1497.0 0.0 1497.0 
28.000337445961424 210118.0 NaN 4995.211756847028 0.5003411275287994 1497.0 0.0 1497.0 
30.000337445961424 210148.0 NaN 4996.315297261189 0.5005146137292954 1497.0 0.0 1497.0 
32.00033744596142 210197.0 NaN 4994.725450901804 0.5005059285543948 1496.0 1.0 1496.0 
34.00033744596142 210211.0 NaN 4993.9719438877755 0.5010751886887528 1497.0 0.0 1497.0 
36.00033744596142 210209.0 NaN 4994.396793587174 0.5009707062647691 1495.0 2.0 1495.0 
38.00033744596142 210221.0 NaN 4995.016700066801 0.500345418249375 1497.0 0.0 1497.0 
40.00033744596142 210250.0 NaN 4996.243152972612 0.5012796513651543 1497.0 0.0 1497.0 
42.00033744596142 210300.0 NaN 4995.3426853707415 0.5011407554351226 1497.0 0.0 1497.0 
44.00033744596142 210309.0 NaN 4994.204408817635 0.5006531701106676 1497.0 0.0 1497.0 
46.00033744596142 210296.0 NaN 4994.268537074148 0.5000886988065308 1497.0 0.0 1497.0 
48.00033744596142 210307.0 NaN 4995.163660654643 0.50054413520529 1495.0 2.0 1495.0 
50.00033744596142 210354.0 NaN 4995.962591850367 0.5021476343615079 1495.0 2.0 1495.0 
52.00033744596142 210400.0 NaN 4994.915163660655 0.502440719081435 1497.0 0.0 1497.0 
54.00033744596142 210388.0 NaN 4994.490313961256 0.5017160564600327 1496.0 1.0 1496.0 
56.00033744596142 210355.0 NaN 4994.527722110888 0.5006276052007106 1496.0 1.0 1496.0 
58.00033744596142 210373.0 NaN 4995.160988643955 0.501810754969001 1497.0 0.0 1497.0 
60.00033744596142 210433.0 NaN 4996.227120908484 0.5033423572944471 1496.0 1.0 1496.0 
62.00033744596142 210452.0 NaN 1522.5170340681366 0.49947361828581976 767.0 2.0 363.0 
64.00033744596142 210373.0 NaN 1522.458249833 0.5022380347043434 624.0 4.0 361.0 
66.00033744596142 210321.0 NaN 1522.5277221108886 0.5010443477866197 578.0 4.0 361.0 
68.00033744596142 210333.0 NaN 1525.7074148296606 0.5013089895276271 544.0 4.0 362.0 
70.00033744596142 210368.0 NaN 1525.763527054109 0.5018658441377216 532.0 4.0 362.0 
72.00033744596142 210379.0 NaN 1525.7234468937882 0.5014060266699064 529.0 4.0 362.0 
74.00033744596142 210372.0 NaN 1531.8049432197727 0.5017971321920253 526.0 4.0 364.0 
76.00033744596142 210344.0 NaN 1534.7842351369393 0.5013360680887144 529.0 4.0 365.0 
78.00033744596142 210348.0 NaN 1534.7922511690058 0.5006138797235526 527.0 4.0 365.0 
80.00033744596142 210394.0 NaN 1534.7869071476275 0.5008244687486326 525.0 4.0 365.0 
82.00033744596142 210398.0 NaN 1534.8056112224456 0.5012006117293863 525.0 4.0 365.0 
84.00033744596142 210369.0 NaN 1537.9425517702089 0.5007252432555244 525.0 4.0 366.0 
86.00033744596142 210372.0 NaN 1537.923847695391 0.5003236209761277 524.0 3.0 367.0 
88.00033744596142 210441.0 NaN 1537.9559118236457 0.5008332166186369 525.0 3.0 367.0 
90.00033744596142 210500.0 NaN 1537.9959919839666 0.5010479337302469 524.0 4.0 366.0 
92.00033744596142 210505.0 NaN 1537.9639278557092 0.5011455493107343 524.0 4.0 366.0 
94.00033744596142 210480.0 NaN 1537.9104876419515 0.5007438727389983 524.0 4.0 366.0 
96.00033744596142 210469.0 NaN 1537.9104876419515 0.5002063979347746 525.0 3.0 367.0 
98.00033744596142 210550.0 NaN 1537.8810955243816 0.500589044515278 525.0 3.0 367.0 
100.00033744596142 210638.0 NaN 1537.859719438879 0.500741896838056 524.0 4.0 366.0 
102.00033744596142 210636.0 NaN 1540.9352037408155 0.500591920435669 524.0 4.0 367.0 
104.00033744596142 210625.0 NaN 1540.9539078156304 0.5003663072684336 523.0 4.0 367.0 
106.00033744596142 210626.0 NaN 1540.9966599866395 0.5002597616516435 524.0 3.0 368.0 
108.00033744596142 210664.0 NaN 1541.0768203072819 0.5005395176446693 523.0 3.0 368.0 
110.00033744596142 210705.0 NaN 1541.1703406813638 0.5005274028011786 523.0 4.0 367.0 
112.00033744596142 210706.0 NaN 1541.1462925851704 0.5007817899912563 523.0 4.0 367.0 
114.00033744596142 210693.0 NaN 1541.0126920507666 0.5010959781017318 523.0 4.0 367.0 
116.00033744596142 210684.0 NaN 1547.0273881095543 0.5002948460828611 526.0 3.0 370.0 
118.00033744596142 210699.0 NaN 1550.0467601870394 0.5006443795993817 526.0 3.0 371.0 
120.00033744596142 210688.0 NaN 1550.1242484969935 0.5008078020872742 525.0 4.0 370.0 
122.00033744596142 210689.0 NaN 1550.1990647962602 0.5012308257353763 526.0 4.0 370.0 
124.00033744596142 210673.0 NaN 1550.2551770207092 0.5005649130351364 526.0 4.0 370.0 
126.00033744596142 210685.0 NaN 1547.3106212424846 0.5003495099302105 527.0 3.0 370.0 
128.0003374459614 210699.0 NaN 1547.2224448897819 0.5008387366683135 527.0 3.0 370.0 
130.0003374459614 210705.0 NaN 1544.1309285237153 0.5009344537506055 526.0 4.0 368.0 
132.0003374459614 210716.0 NaN 1544.0668002671998 0.5007202112172161 526.0 4.0 368.0 
134.0003374459614 210707.0 NaN 1540.9458917835666 0.5005206771293713 525.0 4.0 367.0 
136.0003374459614 210707.0 NaN 1543.983967935873 0.5005270488708823 521.0 3.0 369.0 
138.0003374459614 210711.0 NaN 1544.0748162992638 0.5010675863540011 523.0 3.0 369.0 
140.0003374459614 210717.0 NaN 1544.1790247161002 0.500424248175244 522.0 4.0 368.0 
142.0003374459614 210756.0 NaN 1541.036740146961 0.500590276740764 520.0 4.0 367.0 
144.0003374459614 210741.0 NaN 1541.0340681362727 0.5005661666185188 520.0 4.0 367.0 
146.0003374459614 210746.0 NaN 1544.0855043420183 0.500367232079838 520.0 3.0 369.0 
148.0003374459614 210752.0 NaN 1544.1015364061454 0.5007916388601028 520.0 3.0 369.0 
150.0003374459614 210755.0 NaN 1538.0681362725456 0.5012093583695598 519.0 4.0 366.0 
152.0003374459614 210793.0 NaN 1538.0440881763543 0.5017076689880955 519.0 4.0 366.0 
154.0003374459614 210762.0 NaN 1538.0654642618572 0.5013470659750796 520.0 4.0 366.0 
156.0003374459614 210729.0 NaN 1534.9231796927181 0.5003956377796838 522.0 3.0 366.0 
158.0003374459614 210748.0 NaN 1534.909819639279 0.5005998958880251 518.0 3.0 366.0 
160.0003374459614 210767.0 NaN 1534.9124916499663 0.5008264152410827 517.0 4.0 365.0 
162.0003374459614 210803.0 NaN 1534.909819639279 0.501129001107366 517.0 4.0 365.0 
164.0003374459614 210776.0 NaN 1541.0848363393457 0.501200434435866 517.0 4.0 367.0 
166.0003374459614 210748.0 NaN 1541.074148296591 0.500661341121406 517.0 4.0 367.0 
168.0003374459614 210748.0 NaN 1544.21643286573 0.5008336307971466 519.0 3.0 369.0 
170.0003374459614 210778.0 NaN 1544.1442885771546 0.5007576881417068 519.0 4.0 368.0 
172.0003374459614 210776.0 NaN 1541.0554442217754 0.50047443371073 519.0 4.0 367.0 
174.0003374459614 210763.0 NaN 1537.9291917167661 0.500411528965257 519.0 4.0 366.0 
176.0003374459614 210743.0 NaN 1537.9906479625906 0.5002399402837697 520.0 3.0 367.0 
178.0003374459614 210761.0 NaN 1541.0768203072819 0.50072985801695 520.0 3.0 368.0 
180.0003374459614 210798.0 NaN 1534.9873079492338 0.5011788373497511 520.0 4.0 365.0 
182.0003374459614 210801.0 NaN 1531.978623914497 0.5011465493516987 518.0 3.0 365.0 
184.0003374459614 210779.0 NaN 1534.8991315965272 0.5009541076097582 517.0 3.0 366.0 
186.0003374459614 210748.0 NaN 1531.7889111556456 0.5006574597033309 517.0 2.0 366.0 
188.0003374459614 210750.0 NaN 1528.6225784903154 0.5006130482924097 517.0 2.0 365.0 
190.0003374459614 210769.0 NaN 1528.70808283233 0.5010089582390946 515.0 4.0 363.0 
192.0003374459614 210774.0 NaN 1531.842351369406 0.5012330457390907 515.0 4.0 364.0 
194.0003374459614 210754.0 NaN 1531.9251837007362 0.5012898423049463 515.0 4.0 364.0 
196.0003374459614 210734.0 NaN 1532.0053440213758 0.5017760731677006 516.0 3.0 365.0 
198.0003374459614 210708.0 NaN 1531.9625918503666 0.5015531576273218 517.0 3.0 365.0 
200.0003374459614 210716.0 NaN 1535.0407481629911 0.5014469533567375 518.0 3.0 366.0 
202.0003374459614 210824.0 NaN 1537.985303941216 0.5008681553181279 518.0 3.0 367.0 
204.0003374459614 210805.0 NaN 1537.977287909152 0.5008063080484259 517.0 3.0 367.0 
206.0003374459614 210793.0 NaN 1537.8917835671364 0.5008158743062847 518.0 2.0 368.0 
208.0003374459614 210801.0 NaN 1537.8891115564454 0.5009642841351639 514.0 3.0 367.0 
210.0003374459614 210817.0 NaN 1538.020040080161 0.5014125276314221 512.0 5.0 365.0 
212.0003374459614 210891.0 NaN 1534.9338677354726 0.5012886879927912 515.0 4.0 365.0 
214.0003374459614 210870.0 NaN 1534.9792919171666 0.5009069458987693 515.0 4.0 365.0 
216.0003374459614 210858.0 NaN 1535.0086840347365 0.50109137532669 513.0 3.0 366.0 
218.0003374459614 210874.0 NaN 1535.0220440881753 0.5023932737871085 515.0 2.0 367.0 
220.0003374459614 210886.0 NaN 1538.105544422179 0.5034425010088802 514.0 4.0 366.0 
222.0003374459614 210904.0 NaN 1534.9712758851028 0.5015660721853069 515.0 4.0 365.0 
224.0003374459614 210882.0 NaN 1534.9151636606543 0.5009256546359471 513.0 4.0 365.0 
226.0003374459614 210850.0 NaN 1534.8563794255183 0.5004923848076093 515.0 3.0 366.0 
228.0003374459614 210871.0 NaN 1534.8029392117548 0.5005700814584768 513.0 3.0 366.0 
230.0003374459614 210895.0 NaN 1534.8670674682703 0.5012726199031052 511.0 4.0 365.0 
232.0003374459614 210954.0 NaN 1537.985303941216 0.5013091495754022 510.0 4.0 366.0 
234.0003374459614 210943.0 NaN 1541.1035404141635 0.5012617574782556 511.0 4.0 367.0 
236.0003374459614 210889.0 NaN 1541.1730126920518 0.5002844193988537 512.0 3.0 368.0 
238.0003374459614 210941.0 NaN 1541.1249164996657 0.5006114037228206 512.0 3.0 368.0 
240.0003374459614 210958.0 NaN 1531.8851035404152 0.5016240762758067 512.0 5.0 363.0 
242.0003374459614 210993.0 NaN 1531.7568470273884 0.5014661218914782 511.0 5.0 363.0 
244.0003374459614 210997.0 NaN 1531.695390781564 0.5009782587817665 512.0 4.0 364.0 
246.0003374459614 210986.0 NaN 1531.7140948563797 0.5007723692571731 514.0 2.0 366.0 
248.0003374459614 211029.0 NaN 1531.778223112891 0.5006257037769101 514.0 2.0 366.0 
250.0003374459614 211033.0 NaN 1531.8102872411482 0.5008614697225373 513.0 3.0 365.0 
252.0003374459614 211040.0 NaN 1534.9712758851028 0.5013631948415685 513.0 3.0 366.0 
254.0003374459614 211041.0 NaN 1534.9579158316637 0.5009525133212445 514.0 3.0 366.0 
256.0003374459614 211005.0 NaN 1531.732798931197 0.5008149989500882 515.0 2.0 366.0 
258.0003374459614 211022.0 NaN 1531.7060788243157 0.5008193384125089 516.0 2.0 366.0 
260.0003374459614 211033.0 NaN 1528.6252505010002 0.5008431891103111 513.0 3.0 364.0 
262.0003374459614 211030.0 NaN 1531.7434869739477 0.5016925436039761 513.0 3.0 365.0 
264.0003374459614 211052.0 NaN 1534.8590514362063 0.5012743299287813 513.0 3.0 366.0 
266.0003374459614 211024.0 NaN 1537.9665998664002 0.5004338705045766 514.0 2.0 368.0 
268.0003374459614 211081.0 NaN 1534.843019372079 0.50048436532516 515.0 2.0 367.0 
270.0003374459614 211203.0 NaN 1528.7641950567815 0.5015658328601325 514.0 2.0 365.0 
272.0003374459614 211222.0 NaN 1541.0180360721456 0.5025447173391385 515.0 2.0 369.0 
274.0003374459614 211182.0 NaN 1537.907815631264 0.500841676512705 516.0 3.0 367.0 
276.0003374459614 211158.0 NaN 1540.903139612557 0.5007834635816165 517.0 2.0 369.0 
278.0003374459614 211175.0 NaN 1540.8336673346703 0.5008040172546857 516.0 2.0 369.0 
280.0003374459614 211206.0 NaN 1537.8383433533727 0.5014234051210209 515.0 3.0 367.0 
282.0003374459614 211204.0 NaN 1537.905143620573 0.5018634839688877 513.0 4.0 366.0 
284.0003374459614 211189.0 NaN 1537.9719438877748 0.5020904534161212 512.0 4.0 366.0 
286.0003374459614 211156.0 NaN 1537.923847695391 0.5010826730060473 512.0 3.0 367.0 
288.0003374459614 211145.0 NaN 1534.8750835003345 0.5014456916137819 513.0 2.0 367.0 
290.0003374459614 211150.0 NaN 1531.778223112891 0.5020429356432355 511.0 3.0 365.0 
292.0003374459614 211143.0 NaN 1531.7621910487635 0.5022822777240046 511.0 3.0 365.0 
294.0003374459614 211134.0 NaN 1531.767535070139 0.5014557870737787 510.0 3.0 365.0 
296.0003374459614 211092.0 NaN 1531.6098864395453 0.5015335760946991 511.0 2.0 366.0 
298.0003374459614 211079.0 NaN 1534.6746826987298 0.5014700114231214 510.0 3.0 366.0 
300.0003374459614 211078.0 NaN 1531.6526386105547 0.5011675902657432 508.0 4.0 364.0 
302.0003374459614 211086.0 NaN 1528.7134268537088 0.5025116959099922 507.0 4.0 363.0 
304.0003374459614 211082.0 NaN 1528.7160988643975 0.5031877435859584 507.0 4.0 363.0 
306.0003374459614 211015.0 NaN 1531.8797595190367 0.5013838717202954 508.0 2.0 366.0 
308.0003374459614 211000.0 NaN 1534.9338677354726 0.5014366973427191 508.0 2.0 367.0 
310.0003374459614 211033.0 NaN 1531.8022712090844 0.5011848883306151 505.0 4.0 364.0 
312.0003374459614 211060.0 NaN 1525.6219104876427 0.5020016075035556 504.0 4.0 362.0 
314.0003374459614 211051.0 NaN 1528.5798263193062 0.5023457510424884 506.0 4.0 363.0 
316.0003374459614 211027.0 NaN 1528.566466265864 0.5015695198223697 505.0 4.0 363.0 
318.0003374459614 211009.0 NaN 1528.5637942551757 0.5009662875832424 506.0 4.0 363.0 
320.0003374459614 211053.0 NaN 1534.8456913827638 0.5016537159326947 506.0 4.0 365.0 
322.0003374459614 211050.0 NaN 1534.8697394789574 0.5019067405488001 505.0 4.0 365.0 
324.0003374459614 211038.0 NaN 1531.8450233800936 0.5013447773044263 506.0 4.0 364.0 
326.0003374459614 211026.0 NaN 1531.8450233800936 0.5018751369446375 507.0 3.0 365.0 
328.0003374459614 210998.0 NaN 1531.8583834335338 0.5021320023982261 505.0 4.0 364.0 
330.0003374459614 210973.0 NaN 1531.8824315297275 0.5021262537488838 504.0 4.0 364.0 
332.0003374459614 210943.0 NaN 1531.7488309953246 0.5015265763387108 504.0 4.0 364.0 
334.0003374459614 210921.0 NaN 1531.6847027388092 0.5013389511130482 504.0 4.0 364.0 
336.0003374459614 210931.0 NaN 1531.6526386105547 0.5025917470316903 505.0 4.0 364.0 
338.0003374459614 210864.0 NaN 1534.7468269873093 0.501747820269961 506.0 4.0 365.0 
340.0003374459614 210860.0 NaN 1537.8704074816299 0.5012388443193929 508.0 4.0 366.0 
342.0003374459614 210853.0 NaN 1534.835003340012 0.5009514933473029 509.0 3.0 366.0 
344.0003374459614 210832.0 NaN 1531.794255177021 0.5011466084848777 509.0 3.0 365.0 
346.0003374459614 210833.0 NaN 1525.6539746158996 0.501806974399569 507.0 3.0 363.0 
348.0003374459614 210781.0 NaN 1528.6760187040732 0.5010257586417094 509.0 4.0 363.0 
350.0003374459614 210777.0 NaN 1531.7114228456908 0.5013574709061918 511.0 5.0 363.0 
352.0003374459614 210774.0 NaN 1531.6633266533067 0.5016037525652338 511.0 5.0 363.0 
354.0003374459614 210762.0 NaN 1525.528390113561 0.5009105649620127 510.0 5.0 361.0 
356.0003374459614 210794.0 NaN 1528.6225784903152 0.5016153912296878 509.0 5.0 362.0 
358.0003374459614 210772.0 NaN 1528.590514362057 0.5011591781855002 511.0 5.0 362.0 
360.0003374459614 210784.0 NaN 1528.649298597194 0.5026618116737075 512.0 5.0 362.0 
362.0003374459614 210745.0 NaN 1528.6733466933879 0.5031020301468957 513.0 5.0 362.0 
364.0003374459614 210656.0 NaN 1528.6038744154996 0.5011370751769623 513.0 5.0 362.0 
366.0003374459614 210675.0 NaN 1525.4776219104883 0.502005694410336 513.0 5.0 361.0 
368.0003374459614 210660.0 NaN 1522.3620574482297 0.5025333551602617 513.0 5.0 360.0 
370.0003374459614 210648.0 NaN 1516.2084168336667 0.5035492624702742 510.0 5.0 358.0 
372.0003374459614 210595.0 NaN 1510.2150968603878 0.5031850070160939 511.0 5.0 356.0 
374.0003374459614 210457.0 NaN 1510.241816967267 0.5017054081250863 511.0 5.0 356.0 
376.0003374459614 210424.0 NaN 1513.2879091516363 0.5018604975720108 512.0 5.0 357.0 
378.0003374459614 210416.0 NaN 1513.3226452905817 0.501779993989141 514.0 5.0 357.0 
380.0003374459614 210424.0 NaN 1510.2631930527727 0.5026725026919245 515.0 5.0 356.0 
382.0003374459614 210379.0 NaN 1510.2525050100191 0.5042512364461698 516.0 5.0 356.0 
384.0003374459614 210290.0 NaN 1510.2364729458911 0.5057436737293354 515.0 5.0 356.0 
386.0003374459614 210258.0 NaN 1513.2451569806274 0.5017746972587762 516.0 4.0 358.0 
388.0003374459614 210238.0 NaN 1516.28590514362 0.5015288294604191 517.0 4.0 359.0 
390.0003374459614 210250.0 NaN 1522.476953907816 0.5024233574681457 518.0 4.0 361.0 
392.0003374459614 210246.0 NaN 1516.4462257849023 0.5025678298939431 518.0 4.0 359.0 
394.0003374459614 210191.0 NaN 1519.5537742150975 0.5020105441038792 518.0 4.0 360.0 
396.0003374459614 210180.0 NaN 1519.6098864395453 0.5022644361492244 519.0 3.0 361.0 
398.0003374459614 210164.0 NaN 1516.4916499666 0.5024120082952539 518.0 3.0 360.0 
400.0003374459614 210200.0 NaN 1513.3841015364067 0.5033523101752233 516.0 4.0 358.0 
402.0003374459614 210213.0 NaN 1513.432197728791 0.5024363847674848 517.0 4.0 358.0 
404.0003374459614 210117.0 NaN 1510.255177020709 0.5011383922763807 518.0 4.0 357.0 
406.0003374459614 210152.0 NaN 1519.3987975951911 0.5015955456128133 518.0 4.0 360.0 
408.0003374459614 210162.0 NaN 1519.4041416165658 0.5020795298388062 519.0 4.0 360.0 
410.0003374459614 210185.0 NaN 1519.4495657982636 0.5034110544755231 520.0 4.0 360.0 
412.0003374459614 210184.0 NaN 1525.752839011355 0.5027946039301004 520.0 4.0 362.0 
414.0003374459614 210101.0 NaN 1528.830995323982 0.5014588492955144 521.0 4.0 363.0 
416.0003374459614 210122.0 NaN 1522.6319305277211 0.5015172898680417 520.0 4.0 361.0 
418.0003374459614 210111.0 NaN 1522.5090180360728 0.5015614886168929 517.0 4.0 361.0 
420.0003374459614 210136.0 NaN 1513.303941215764 0.5026141762166859 515.0 4.0 358.0 
422.0003374459614 210108.0 NaN 1519.4041416165658 0.5012473426363865 514.0 4.0 360.0 
424.0003374459614 210108.0 NaN 1510.1803607214435 0.500959456518432 517.0 4.0 357.0 
426.0003374459614 210111.0 NaN 1513.3066132264535 0.5017781502517609 516.0 5.0 357.0 
428.0003374459614 210088.0 NaN 1531.7995991983978 0.5027177377555079 518.0 4.0 364.0 
430.0003374459614 210073.0 NaN 1534.8243152972618 0.503341275067455 523.0 3.0 366.0 
432.0003374459614 210022.0 NaN 1534.8403473613903 0.5015863928485764 524.0 3.0 366.0 
434.0003374459614 210039.0 NaN 1531.8289913159642 0.5018960194891524 524.0 3.0 365.0 
436.0003374459614 210041.0 NaN 1531.7889111556453 0.502498134566001 524.0 3.0 365.0 
438.0003374459614 210037.0 NaN 1531.7728790915176 0.5022158276778524 525.0 3.0 365.0 
440.0003374459614 210031.0 NaN 1534.7975951903818 0.5028616390709616 526.0 3.0 366.0 
442.0003374459614 210033.0 NaN 1544.0026720106885 0.5023723632397432 527.0 3.0 369.0 
444.0003374459614 210065.0 NaN 1544.032064128255 0.5030220206845524 527.0 3.0 369.0 
446.0003374459614 210050.0 NaN 1534.781563126254 0.5044006502911186 527.0 4.0 365.0 
448.0003374459614 210028.0 NaN 1540.9458917835664 0.5044653662643027 527.0 4.0 367.0 
450.0003374459614 209947.0 NaN 1544.0801603206426 0.5020758292005261 527.0 4.0 368.0 
452.0003374459614 209947.0 NaN 1547.171676686707 0.5016347692708938 527.0 3.0 370.0 
454.0003374459614 209942.0 NaN 1553.2959251836999 0.5016282884841827 527.0 3.0 372.0 
456.0003374459614 209948.0 NaN 1550.150968603873 0.5024559885657194 527.0 4.0 370.0 
458.0003374459614 209972.0 NaN 1550.0948563794268 0.5036598843724167 525.0 4.0 370.0 
460.0003374459614 209932.0 NaN 1553.1756847027386 0.503929879897086 524.0 4.0 371.0 
462.0003374459614 209911.0 NaN 1550.193720774882 0.5026873982240954 526.0 3.0 371.0 
464.0003374459614 209890.0 NaN 1550.225784903139 0.5020613647466017 527.0 3.0 371.0 
466.0003374459614 209889.0 NaN 1553.2905811623248 0.5030873223954353 527.0 4.0 371.0 
468.0003374459614 209886.0 NaN 1544.0855043420183 0.5031293985405648 526.0 4.0 368.0 
470.0003374459614 209835.0 NaN 1541.0207080828334 0.5038342374565193 525.0 3.0 368.0 
472.0003374459614 209795.0 NaN 1540.8924515698068 0.5034014381015562 527.0 1.0 370.0 
474.0003374459614 209771.0 NaN 1528.4889779559114 0.5022549743079733 521.0 1.0 366.0 
476.0003374459614 209776.0 NaN 1528.4729458917825 0.5032586715532945 519.0 2.0 365.0 
478.0003374459614 209764.0 NaN 1528.5023380093523 0.5022011485424525 516.0 3.0 364.0 
480.0003374459614 209769.0 NaN 1528.6145624582489 0.502492779245902 516.0 3.0 364.0 
482.0003374459614 209757.0 NaN 1528.5931863727455 0.5018419514959775 517.0 2.0 365.0 
484.0003374459614 209767.0 NaN 1522.5170340681366 0.5017708438201407 517.0 2.0 363.0 
486.0003374459614 209788.0 NaN 1516.4569138276547 0.5029817861734774 514.0 3.0 360.0 
488.0003374459614 209791.0 NaN 1507.1609886439546 0.5023255912092746 514.0 2.0 358.0 
490.0003374459614 209814.0 NaN 1504.0614562458263 0.5025167237419779 514.0 2.0 357.0 
492.0003374459614 209778.0 NaN 1503.9572478289908 0.501745528005392 511.0 1.0 358.0 
494.0003374459614 209786.0 NaN 1500.8176352705425 0.5018576132943612 512.0 1.0 357.0 
496.0003374459614 209820.0 NaN 1497.7314629258526 0.5026142679022205 512.0 3.0 354.0 
498.0003374459614 209813.0 NaN 1491.6659986639938 0.5028306012937311 511.0 3.0 352.0 
500.0003374459614 209806.0 NaN 1491.7595190380755 0.5022610706178895 510.0 3.0 352.0 
502.0003374459614 209775.0 NaN 1488.6279225116907 0.5019143108274507 512.0 2.0 352.0 
504.0003374459614 209745.0 NaN 1494.8857715430852 0.5016939651380877 515.0 2.0 354.0 
506.0003374459614 209759.0 NaN 1494.883099532399 0.503220655816814 514.0 2.0 354.0 
508.0003374459614 209780.0 NaN 1497.9211756847021 0.5029867545636274 512.0 2.0 355.0 
510.0003374459614 209758.0 NaN 1500.9939879759527 0.5022122162355148 512.0 2.0 356.0 
512.0003374459613 209723.0 NaN 1494.7120908483637 0.5028282492048587 510.0 2.0 354.0 
514.0003374459613 209685.0 NaN 1494.6773547094183 0.5025412505969694 509.0 3.0 353.0 
516.0003374459613 209723.0 NaN 1494.6960587842357 0.5025937330173658 509.0 3.0 353.0 
518.0003374459613 209797.0 NaN 1485.5337341349364 0.5037815737757403 509.0 3.0 350.0 
520.0003374459613 209766.0 NaN 1482.549098196392 0.5031626821410932 508.0 3.0 349.0 
522.0003374459613 209718.0 NaN 1476.4676018704083 0.5025670257569793 509.0 2.0 348.0 
524.0003374459613 209672.0 NaN 1476.4809619238463 0.5019322107934081 510.0 2.0 348.0 
526.0003374459613 209761.0 NaN 1470.2765531062114 0.5025912319603995 505.0 2.0 346.0 
528.0003374459613 209800.0 NaN 1464.1496325985297 0.5030756975139663 511.0 2.0 344.0 
530.0003374459613 209787.0 NaN 1463.95991983968 0.5028704958736107 514.0 2.0 344.0 
532.0003374459613 209731.0 NaN 1473.2024048096187 0.5018835631666375 512.0 4.0 345.0 
534.0003374459613 209694.0 NaN 1473.2692050768194 0.5012147461984763 512.0 4.0 345.0 
536.0003374459613 209743.0 NaN 1473.3199732798919 0.5019615578331863 510.0 4.0 345.0 
538.0003374459613 209776.0 NaN 1470.233800935203 0.5024065702653461 510.0 4.0 344.0 
540.0003374459613 209806.0 NaN 1470.2899131596532 0.502158602809376 512.0 3.0 345.0 
542.0003374459613 209841.0 NaN 1470.2498329993327 0.5023392662955001 511.0 3.0 345.0 
544.0003374459613 209797.0 NaN 1467.1903807615242 0.502893671490908 511.0 3.0 344.0 
546.0003374459613 209809.0 NaN 1467.1850367401462 0.5039001569417689 510.0 3.0 344.0 
548.0003374459613 209799.0 NaN 1470.0921843687365 0.5030504497042091 513.0 3.0 345.0 
550.0003374459613 209803.0 NaN 1470.1189044756184 0.5024726094651404 512.0 4.0 344.0 
552.0003374459613 209812.0 NaN 1470.1349365397457 0.5021143553710227 513.0 4.0 344.0 
554.0003374459613 209786.0 NaN 1467.1128924515704 0.5022428841285683 513.0 4.0 343.0 
556.0003374459613 209792.0 NaN 1464.0961923847701 0.5032159874533892 511.0 4.0 342.0 
558.0003374459613 209859.0 NaN 1467.214428857716 0.503755580299806 511.0 3.0 344.0 
560.0003374459613 209843.0 NaN 1457.9746158984635 0.5027153573361034 509.0 3.0 341.0 
562.0003374459613 209840.0 NaN 1460.959251837008 0.5020941257737247 505.0 3.0 342.0 
564.0003374459613 209816.0 NaN 1464.0507682030727 0.5020197987525716 509.0 3.0 343.0 
566.0003374459613 209838.0 NaN 1463.9278557114235 0.5024285744602309 510.0 3.0 343.0 
568.0003374459613 209907.0 NaN 1473.1997327989304 0.5022990645093861 511.0 4.0 345.0 
570.0003374459613 209914.0 NaN 1476.3553774215093 0.5021353741858574 510.0 4.0 346.0 
572.0003374459613 209881.0 NaN 1485.6379425517707 0.5022054462075589 511.0 4.0 349.0 
574.0003374459613 209878.0 NaN 1485.6566466265872 0.5026058723730857 510.0 4.0 349.0 
576.0003374459613 209856.0 NaN 1488.8096192384758 0.5019507130124871 512.0 4.0 350.0 
578.0003374459613 209947.0 NaN 1485.6860387441545 0.5025344032618305 513.0 3.0 350.0 
580.0003374459613 209942.0 NaN 1488.69739478958 0.5022993824425935 512.0 3.0 351.0 
582.0003374459613 210011.0 NaN 1488.6573146292578 0.5032141818763808 513.0 3.0 351.0 
584.0003374459613 209952.0 NaN 1485.5283901135615 0.5030865172092813 512.0 4.0 349.0 
586.0003374459613 209907.0 NaN 1488.6386105544434 0.5025025721469284 513.0 4.0 350.0 
588.0003374459613 209965.0 NaN 1488.627922511691 0.5029408943958373 514.0 4.0 350.0 
590.0003374459613 209978.0 NaN 1491.7381429525726 0.5028469512639073 516.0 4.0 351.0 
592.0003374459613 209966.0 NaN 1497.8650634602545 0.5020323031171035 519.0 4.0 353.0 
594.0003374459613 209972.0 NaN 1488.7428189712746 0.5024845155818475 520.0 4.0 350.0 
596.0003374459613 209968.0 NaN 1485.68069472278 0.5013538244298976 520.0 3.0 350.0 
598.0003374459613 210049.0 NaN 1485.6165664662649 0.5021882945043471 520.0 3.0 350.0 
600.0003374459613 210055.0 NaN 1488.5691382765533 0.5025838274847045 520.0 3.0 351.0 
602.0003374459613 210061.0 NaN 1497.7127588510364 0.5021511735345318 521.0 4.0 353.0 
604.0003374459613 210075.0 NaN 1497.7181028724108 0.5025077455653277 520.0 4.0 353.0 
606.0003374459613 210043.0 NaN 1494.7628590514364 0.501554394835812 522.0 4.0 352.0 
608.0003374459613 210095.0 NaN 1494.8109552438198 0.5017168854216251 518.0 4.0 352.0 
610.0003374459613 210103.0 NaN 1494.8750835003348 0.5023717058003292 518.0 4.0 352.0 
612.0003374459613 210135.0 NaN 1498.0253841015365 0.5042913303434184 519.0 4.0 353.0 
614.0003374459613 210102.0 NaN 1501.047428189712 0.5043539509044965 521.0 3.0 355.0 
616.0003374459613 209994.0 NaN 1507.1556446225795 0.5019577112968002 523.0 3.0 357.0 
618.0003374459613 210036.0 NaN 1516.2752171008697 0.5023048231898083 521.0 3.0 360.0 
620.0003374459613 210037.0 NaN 1516.1870407481638 0.5026780354299469 520.0 4.0 359.0 
622.0003374459613 210080.0 NaN 1513.0848363393457 0.5033202926161379 521.0 4.0 358.0 
624.0003374459613 210043.0 NaN 1516.2484969939887 0.5026568463956117 520.0 5.0 358.0 
626.0003374459613 210016.0 NaN 1522.5250501002 0.5025571046188999 520.0 4.0 361.0 
628.0003374459613 210080.0 NaN 1522.5357381429537 0.5022639362097343 517.0 4.0 361.0 
630.0003374459613 210085.0 NaN 1522.5998663994644 0.5028895501291798 521.0 4.0 361.0 
632.0003374459613 210060.0 NaN 1522.503674014697 0.5022630107807067 521.0 3.0 362.0 
634.0003374459613 210064.0 NaN 1519.3881095524373 0.5024893325418446 525.0 3.0 361.0 
636.0003374459613 210065.0 NaN 1519.3774215096848 0.5023256123356767 526.0 3.0 361.0 
638.0003374459613 210092.0 NaN 1519.3293253173006 0.5019099779445038 526.0 4.0 360.0 
640.0003374459613 210100.0 NaN 1516.3152972611902 0.5022702187745165 524.0 4.0 359.0 
642.0003374459613 210074.0 NaN 1519.350701402806 0.5014045335036811 523.0 4.0 360.0 
644.0003374459613 210104.0 NaN 1522.5250501002 0.5013292310439116 523.0 4.0 361.0 
646.0003374459613 210143.0 NaN 1519.4709418837667 0.5015029229662569 524.0 4.0 360.0 
648.0003374459613 210173.0 NaN 1519.5991983967929 0.5019346942892035 523.0 4.0 360.0 
650.0003374459613 210184.0 NaN 1519.527054108217 0.5027497650886991 520.0 4.0 360.0 
652.0003374459613 210159.0 NaN 1516.358049432199 0.5020553834446321 519.0 4.0 359.0 
654.0003374459613 210207.0 NaN 1519.5003340013366 0.5008608574688392 518.0 3.0 361.0 
656.0003374459613 210286.0 NaN 1528.6092184368727 0.5013986174486869 515.0 4.0 363.0 
658.0003374459613 210339.0 NaN 1531.727454909819 0.5029616737453213 513.0 4.0 364.0 
660.0003374459613 210337.0 NaN 1531.7862391449555 0.5036098648700025 513.0 4.0 364.0 
662.0003374459613 210290.0 NaN 1537.929191716766 0.5030939410369413 512.0 4.0 366.0 
664.0003374459613 210320.0 NaN 1537.9318637274544 0.5018644526875855 513.0 4.0 366.0 
#####################################################################
# End of data export. Simulation finished at: 2019-03-20T00:25+0000 #
#####################################################################
