#####################################################################
# Alchemist log file - simulation started at: 2019-03-14T11:09+0000 #
#####################################################################
# seed = 8.0, bandwidth = 1000.0, propagationDelay = 0.01, baserange = 17.78279410038923
#
# The columns have the following meaning: 
# time neighbor_count[Sum] <value>@neighbor_count[Sum] packet_size[Mean] mean_delay[Mean] crowd[Sum] overcrowded[Sum] risk[Sum] 
0.0 NaN NaN NaN NaN NaN NaN NaN 
2.000927030832833 NaN NaN 4988.0 NaN 1497.0 0.0 1497.0 
4.000927030832833 NaN NaN 4988.0 NaN 1497.0 0.0 1497.0 
6.000198348008885 551.0 NaN 4988.798931195724 0.30577353891947456 1497.0 0.0 1497.0 
8.000927030832834 1118.0 NaN 4994.530394121576 1.99907233442371 1497.0 0.0 1497.0 
10.000927030832834 1118.0 NaN 4992.235136940548 3.99907233442371 1497.0 0.0 1497.0 
12.000927030832834 1118.0 NaN 4994.29258517034 3.039383724692156 1496.0 1.0 1496.0 
14.000927030832834 1118.0 NaN 4992.339345357382 2.0085131757909322 1496.0 1.0 1496.0 
16.00019764473707 1118.0 NaN 4991.080828323314 4.006468186015881 1496.0 1.0 1496.0 
18.00053298497412 1123.0 NaN 4992.285905143621 3.0164766829790346 1496.0 1.0 1496.0 
20.000927030832834 1128.0 NaN 4991.700734802939 2.110485754071168 1496.0 1.0 1496.0 
22.000927030832834 1128.0 NaN 4990.904475617903 4.023573688631495 1496.0 1.0 1496.0 
24.000927030832834 1134.0 NaN 4991.730126920507 3.0781250303440544 1492.0 5.0 1492.0 
26.000197644737074 1134.0 NaN 4991.3720774883095 2.2003148443473646 1492.0 5.0 1492.0 
28.000927030832834 1134.0 NaN 4990.578490313961 4.029217366501421 1492.0 5.0 1492.0 
30.000927030832834 1136.0 NaN 4991.059452237809 2.748659630907114 1491.0 6.0 1491.0 
32.000927030832834 1139.0 NaN 4991.735470941884 2.435855848761787 1490.0 7.0 1490.0 
34.000927030832834 1142.0 NaN 4991.158316633267 3.9445761375950275 1490.0 7.0 1490.0 
36.00019764473708 1145.0 NaN 4991.799599198397 3.0046671536059875 1490.0 7.0 1490.0 
38.000927030832834 1148.0 NaN 4991.088844355378 2.619860217562985 1490.0 7.0 1490.0 
40.000927030832834 1148.0 NaN 4990.650634602538 3.6990682088054587 1490.0 7.0 1490.0 
42.000927030832834 1148.0 NaN 4991.027388109553 3.1872725877262607 1490.0 7.0 1490.0 
44.000927030832834 1153.0 NaN 4991.500334001336 2.453421494297117 1490.0 7.0 1490.0 
46.00019764473707 1155.0 NaN 4991.094188376754 3.8946083150009443 1490.0 7.0 1490.0 
48.000927030832834 1162.0 NaN 4991.772879091516 3.25687687289727 1490.0 7.0 1490.0 
50.000927030832834 1170.0 NaN 4991.043420173681 2.229953419581943 1490.0 7.0 1490.0 
52.000927030832834 1172.0 NaN 4990.626586506346 4.067480990186089 1490.0 7.0 1490.0 
54.000927030832834 1190.0 NaN 4991.067468269873 3.217833764967791 1490.0 7.0 1490.0 
56.00019764473707 1196.0 NaN 4991.436205744823 2.5027120126441997 1490.0 7.0 1490.0 
58.000927030832834 1196.0 NaN 4990.973947895792 4.300422362106565 1490.0 7.0 1490.0 
60.000927030832834 1198.0 NaN 4988.419505678023 3.006213614213932 1490.0 7.0 1489.0 
62.000927030832834 1205.0 NaN 983.8289913159634 2.3820036034102574 488.0 6.0 184.0 
64.00092703083283 1216.0 NaN 986.8884435537726 3.2046483026512926 487.0 6.0 185.0 
66.0001983480089 1222.0 NaN 993.0928523714089 2.4423104634294788 464.0 6.0 187.0 
68.00092703083283 1223.0 NaN 996.0080160320634 2.02543831219742 436.0 6.0 188.0 
70.00092703083283 1226.0 NaN 995.9118236472922 2.6748489577669567 394.0 6.0 188.0 
72.00092703083283 1224.0 NaN 996.0881763527078 2.451096993886649 359.0 6.0 188.0 
74.00092703083283 1221.0 NaN 995.9492317969273 2.0893203562243037 341.0 6.0 188.0 
76.0001983480089 1221.0 NaN 995.8770875083466 2.827787823750182 334.0 6.0 188.0 
78.00092703083283 1211.0 NaN 995.9893119572467 2.4751271120097127 324.0 6.0 188.0 
80.00092703083283 1201.0 NaN 995.9652638610543 2.136002880741218 319.0 6.0 188.0 
82.00092703083283 1206.0 NaN 995.917167668673 2.8468851732700546 310.0 6.0 188.0 
84.00092703083283 1210.0 NaN 996.0133600534376 2.3742411981776734 309.0 6.0 188.0 
86.0001983480089 1208.0 NaN 1002.0253841015362 2.204018891941745 304.0 6.0 190.0 
88.00092703083283 1209.0 NaN 1002.006680026718 2.912996177628409 301.0 6.0 190.0 
90.00092703083283 1189.0 NaN 1002.0227120908465 2.229870466883737 298.0 6.0 190.0 
92.00092703083283 1183.0 NaN 1002.006680026718 2.1252490149388863 295.0 6.0 190.0 
94.00092703083283 1187.0 NaN 998.8991315965275 2.7235314043790284 290.0 6.0 189.0 
96.0001983480089 1196.0 NaN 1005.1356045424182 2.373266503306368 288.0 6.0 191.0 
98.00092703083283 1195.0 NaN 1014.3086172344714 2.16952417631736 289.0 6.0 194.0 
100.00092703083283 1191.0 NaN 1014.2685370741467 2.6825793800406035 289.0 6.0 194.0 
102.00092703083283 1186.0 NaN 1014.3567134268548 2.350435114303271 289.0 6.0 194.0 
104.00092703083283 1189.0 NaN 1014.3112892451559 2.091706730631497 288.0 6.0 194.0 
106.0001983480089 1189.0 NaN 1014.2605210420832 2.7456593548988852 287.0 6.0 194.0 
108.00092703083283 1192.0 NaN 1017.4188376753533 2.446986334289285 288.0 6.0 195.0 
110.00092703083283 1188.0 NaN 1017.3413493653987 2.1549689894665853 289.0 6.0 195.0 
112.00092703083283 1184.0 NaN 1011.1503006012014 2.926846277361252 289.0 6.0 193.0 
114.00092703083283 1192.0 NaN 1017.4188376753533 2.445463582702939 288.0 6.0 195.0 
116.0001983480089 1196.0 NaN 1017.3413493653987 2.340614900432406 287.0 6.0 195.0 
118.00092703083283 1199.0 NaN 1017.2852371409467 3.0378550497095747 287.0 6.0 195.0 
120.00092703083283 1203.0 NaN 1023.5698062792276 2.449556190592585 287.0 6.0 197.0 
122.00092703083283 1201.0 NaN 1023.4816299265179 2.389845664273029 288.0 6.0 197.0 
124.00092703083283 1201.0 NaN 1020.3527054108195 2.9986344280581614 287.0 6.0 196.0 
126.0001983480089 1207.0 NaN 1023.5003340013366 2.635598163530396 288.0 6.0 197.0 
128.00092703083283 1210.0 NaN 1026.5811623246466 2.568585232206663 288.0 6.0 198.0 
130.00092703083283 1207.0 NaN 1023.4789579158289 2.9326278717226875 286.0 6.0 197.0 
132.00092703083283 1194.0 NaN 1020.5237140948543 2.5210826463564806 288.0 6.0 196.0 
134.00092703083283 1194.0 NaN 1020.411489645956 2.360120931714352 288.0 6.0 196.0 
136.0001983480089 1196.0 NaN 1017.3039412157635 3.029215196076615 286.0 6.0 195.0 
138.00092703083283 1194.0 NaN 1020.4515698062804 2.4284604899269655 282.0 6.0 196.0 
140.00092703083283 1197.0 NaN 1020.4569138276544 2.2845929358214594 281.0 6.0 196.0 
142.00092703083283 1212.0 NaN 1023.524382097527 3.0515638524009607 280.0 6.0 197.0 
144.00092703083283 1204.0 NaN 1020.5504342017363 2.295279827730922 280.0 6.0 196.0 
146.0001983480089 1220.0 NaN 1029.699398797592 2.0888314137646202 280.0 6.0 199.0 
148.00092703083283 1222.0 NaN 1026.5891783567104 2.7510667793135952 281.0 6.0 198.0 
150.00092703083283 1226.0 NaN 1023.5617902471623 2.1912282209498737 284.0 6.0 197.0 
152.00092703083283 1239.0 NaN 1023.5751503006 2.1931370323208927 286.0 6.0 197.0 
154.00092703083283 1244.0 NaN 1026.5651302605195 2.6967451303754593 287.0 6.0 198.0 
156.0001983480089 1250.0 NaN 1026.6185704742816 2.239359177556186 287.0 6.0 198.0 
158.00092703083283 1248.0 NaN 1026.6212424849716 2.0455389452787145 287.0 6.0 198.0 
160.00092703083283 1251.0 NaN 1026.6025384101547 2.4994733567897534 286.0 6.0 198.0 
162.00092703083283 1255.0 NaN 1026.672010688044 2.158895024226914 285.0 6.0 198.0 
164.00092703083283 1265.0 NaN 1026.5998663994633 2.1463189934664912 288.0 6.0 198.0 
166.0001983480089 1268.0 NaN 1023.4843019372092 2.7431040800681377 289.0 6.0 197.0 
168.00092703083283 1264.0 NaN 1020.5103540414184 2.4879332406103294 289.0 6.0 196.0 
170.00092703083283 1264.0 NaN 1020.4301937207725 2.30822823007687 290.0 6.0 196.0 
172.00092703083283 1273.0 NaN 1020.4114896459558 3.0372334712037383 291.0 6.0 196.0 
174.00092703083283 1276.0 NaN 1017.3386773547089 2.7551173302155236 291.0 6.0 195.0 
176.0001983480089 1279.0 NaN 1023.5430861723457 2.6299102917745825 291.0 6.0 197.0 
178.00092703083283 1275.0 NaN 1023.5056780227103 3.133238311260269 291.0 6.0 197.0 
180.00092703083283 1264.0 NaN 1017.4562458249818 2.6932421202499603 290.0 6.0 195.0 
182.00092703083283 1257.0 NaN 1014.3139612558456 2.705043454862218 289.0 6.0 194.0 
184.00092703083283 1260.0 NaN 1011.1583166332651 3.2123375172230486 290.0 6.0 193.0 
186.0001983480089 1256.0 NaN 1008.165664662656 2.840313693798507 290.0 6.0 192.0 
188.00092703083283 1241.0 NaN 1008.2057448229805 2.748557215577075 290.0 6.0 192.0 
190.00092703083283 1247.0 NaN 1005.0741482965908 3.0722162063822394 287.0 6.0 191.0 
192.00092703083283 1231.0 NaN 1002.0654642618563 2.590421067717361 286.0 6.0 190.0 
194.00092703083283 1240.0 NaN 1005.0073480293911 2.5666641064670657 288.0 6.0 191.0 
196.0001983480089 1240.0 NaN 1004.9672678690727 2.9647398754495793 288.0 6.0 191.0 
198.00092703083283 1237.0 NaN 1001.9639278557106 2.670664586102836 288.0 6.0 190.0 
200.00092703083283 1230.0 NaN 1001.9398797595179 2.400021940323349 286.0 6.0 190.0 
202.00092703083283 1229.0 NaN 1001.9505678022726 3.037002121145369 286.0 6.0 190.0 
204.00092703083283 1239.0 NaN 998.9392117568455 2.5841397963871686 290.0 6.0 189.0 
206.0001983480089 1235.0 NaN 998.9044756179017 2.490098870144758 290.0 6.0 189.0 
208.00092703083283 1241.0 NaN 995.8076152304619 2.962856982448677 289.0 6.0 188.0 
210.00092703083283 1242.0 NaN 998.9285237140926 2.402304284911327 289.0 6.0 189.0 
212.00092703083283 1245.0 NaN 1005.0501002003998 2.45908284815442 290.0 6.0 191.0 
214.00092703083283 1245.0 NaN 1004.9993319973271 2.8689812616024413 290.0 6.0 191.0 
216.0001983480089 1248.0 NaN 1005.0367401469624 2.584721020525188 290.0 6.0 191.0 
218.00092703083283 1246.0 NaN 1014.2685370741469 2.4110083220627767 288.0 6.0 194.0 
220.00092703083283 1246.0 NaN 1014.2444889779546 2.8991705383771573 288.0 6.0 194.0 
222.00092703083283 1242.0 NaN 1014.2391449565819 2.62294656814071 287.0 7.0 193.0 
224.00092703083283 1248.0 NaN 1014.2952571810273 2.5318287252547114 286.0 10.0 190.0 
226.0001983480089 1243.0 NaN 1014.2471609886454 2.998981952226204 283.0 12.0 188.0 
228.00092703083283 1251.0 NaN 1017.3947895791562 2.765252181348489 284.0 12.0 189.0 
230.00092703083283 1259.0 NaN 1020.4863059452257 2.6760965474467104 282.0 12.0 190.0 
232.00092703083283 1258.0 NaN 1017.3226452905819 3.3836427801966567 280.0 12.0 189.0 
234.00092703083283 1261.0 NaN 1020.3954575818286 2.8951850326688766 281.0 12.0 190.0 
236.0001983480089 1264.0 NaN 1020.4248496993999 2.8248599996155277 282.0 12.0 190.0 
238.00092703083283 1263.0 NaN 1023.5323981295908 3.2749366225647414 282.0 12.0 191.0 
240.00092703083283 1272.0 NaN 1023.6179024716089 2.8631788877723188 280.0 11.0 192.0 
242.00092703083283 1267.0 NaN 1026.594522378091 2.925688958327728 286.0 6.0 198.0 
244.00092703083283 1264.0 NaN 1023.4281897127556 3.3633229438508425 287.0 6.0 197.0 
246.0001983480089 1250.0 NaN 1020.408817635273 2.9352101110736397 287.0 6.0 196.0 
248.00092703083283 1242.0 NaN 1014.3593854375439 2.8349334270775985 286.0 6.0 194.0 
250.00092703083283 1242.0 NaN 1014.321977287909 3.150564827429681 287.0 6.0 194.0 
252.00092703083283 1246.0 NaN 1008.1629926519729 2.9459261323290584 288.0 6.0 192.0 
254.00092703083283 1242.0 NaN 1005.0207080828347 2.8515866998947015 289.0 6.0 191.0 
256.0001983480089 1242.0 NaN 1004.9993319973271 3.369806110438351 289.0 6.0 191.0 
258.0009270308328 1241.0 NaN 1001.9612558450258 3.00560140735706 286.0 6.0 190.0 
260.0009270308328 1233.0 NaN 1005.031396125583 2.6852876744325256 283.0 6.0 191.0 
262.0009270308328 1232.0 NaN 1005.0126920507649 3.078038024105621 282.0 6.0 191.0 
264.0009270308328 1231.0 NaN 1004.9993319973271 2.7066154865263687 283.0 6.0 191.0 
266.0001983480089 1226.0 NaN 1004.988643954574 2.544465611233103 285.0 6.0 191.0 
268.0009270308328 1217.0 NaN 998.8136272545091 3.0592486523342095 284.0 6.0 189.0 
270.0009270308328 1214.0 NaN 998.8670674682712 2.5417325879864068 287.0 6.0 189.0 
272.0009270308328 1219.0 NaN 998.8643954575818 2.637340795267729 288.0 6.0 189.0 
274.0009270308328 1213.0 NaN 998.8136272545091 2.979843236970092 288.0 6.0 189.0 
276.0001983480089 1212.0 NaN 995.7515030060109 2.6896185670828365 287.0 6.0 188.0 
278.0009270308328 1218.0 NaN 998.8724114896453 2.744713688775014 291.0 6.0 189.0 
280.0009270308328 1214.0 NaN 1001.8837675350711 3.093098182573768 291.0 6.0 190.0 
282.0009270308328 1217.0 NaN 1001.9211756847014 2.9690889885231857 291.0 6.0 190.0 
284.0009270308328 1215.0 NaN 1001.9158316633275 2.912076987875552 289.0 6.0 190.0 
286.0001983480089 1215.0 NaN 1001.9291917167651 3.498938137996976 288.0 6.0 190.0 
288.0009270308328 1207.0 NaN 1001.9559118236452 3.1434795586721833 287.0 6.0 190.0 
290.0009270308328 1196.0 NaN 1001.985303941217 2.657957159531842 286.0 6.0 190.0 
292.0009270308328 1202.0 NaN 1008.0614562458276 3.3034729288240903 288.0 6.0 192.0 
294.0009270308328 1189.0 NaN 1001.9158316633275 2.884534123829428 290.0 6.0 190.0 
296.0001983480089 1194.0 NaN 1005.0607882431547 2.749479723479364 290.0 6.0 191.0 
298.0009270308328 1188.0 NaN 998.8937875751525 3.271908053262388 289.0 6.0 189.0 
300.0009270308328 1192.0 NaN 1005.1516366065451 2.671459314959056 291.0 6.0 191.0 
302.0009270308328 1192.0 NaN 1005.0554442217747 2.681135179507854 291.0 6.0 191.0 
304.0009270308328 1194.0 NaN 1001.945223780893 3.1371520671631394 289.0 6.0 190.0 
306.0001983480089 1190.0 NaN 998.9766199064821 2.6344464534355496 284.0 6.0 189.0 
308.0009270308328 1184.0 NaN 998.9686038744156 2.373007909671904 279.0 6.0 189.0 
310.0009270308328 1183.0 NaN 998.8991315965275 2.6925221810015185 278.0 6.0 189.0 
312.0009270308328 1185.0 NaN 998.9365397461571 2.526030037126256 280.0 6.0 189.0 
314.0009270308328 1188.0 NaN 1001.9478957915817 2.444826541972908 280.0 6.0 190.0 
316.0001983480089 1189.0 NaN 1001.913159652636 2.7643472852388604 280.0 6.0 190.0 
318.0009270308328 1191.0 NaN 1002.0013360053456 2.6145895287216465 279.0 6.0 190.0 
320.0009270308328 1203.0 NaN 1002.0227120908478 2.41031800301108 281.0 6.0 190.0 
322.0009270308328 1207.0 NaN 1001.9719438877751 3.082185372482359 283.0 6.0 190.0 
324.0009270308328 1207.0 NaN 995.847695390782 2.713040568403007 288.0 6.0 188.0 
326.0001983480089 1199.0 NaN 998.8697394789565 2.476000248156012 292.0 6.0 189.0 
328.0009270308328 1195.0 NaN 995.7835671342705 2.9751461234991488 291.0 6.0 188.0 
330.0009270308328 1199.0 NaN 1005.0714762859066 2.513148053085085 292.0 6.0 191.0 
332.0009270308328 1200.0 NaN 1008.1549766199067 2.440073703978386 292.0 6.0 192.0 
334.0009270308328 1204.0 NaN 1008.0881763527066 2.9814431129278116 293.0 6.0 192.0 
336.0001983480089 1189.0 NaN 1008.1469605878432 2.504563585819838 294.0 6.0 192.0 
338.0009270308328 1189.0 NaN 1008.0855043420183 2.614929098286323 295.0 6.0 192.0 
340.0009270308328 1190.0 NaN 1004.9458917835666 2.9327805248673924 294.0 6.0 191.0 
342.0009270308328 1191.0 NaN 998.885771543085 2.555953262954755 293.0 6.0 189.0 
344.0009270308328 1196.0 NaN 1005.0260521042092 2.4168565757896143 292.0 6.0 191.0 
346.0001983480089 1198.0 NaN 1001.8971275885092 3.0190299989434837 292.0 6.0 190.0 
348.0009270308328 1197.0 NaN 995.8049432197727 2.9921122240511644 291.0 6.0 188.0 
350.0009270308328 1196.0 NaN 998.8029392117544 2.915739036214033 292.0 6.0 189.0 
352.0009270308328 1195.0 NaN 998.8162992651967 3.5641005441629314 291.0 6.0 189.0 
354.0009270308328 1186.0 NaN 998.7869071476273 3.0839700301002115 292.0 6.0 189.0 
356.0001983480089 1182.0 NaN 998.7788911155634 2.9062207491791106 294.0 6.0 189.0 
358.0009270308328 1187.0 NaN 998.7815631262545 3.559869093078698 294.0 6.0 189.0 
360.0009270308328 1179.0 NaN 1001.8864395457578 3.1327245551105003 291.0 6.0 190.0 
362.0009270308328 1174.0 NaN 998.7548430193729 3.1692309572160005 290.0 6.0 189.0 
364.0009270308328 1177.0 NaN 998.7067468269875 3.6558655714813657 289.0 6.0 189.0 
366.0001983480089 1175.0 NaN 1001.814295257182 3.3178449983516507 289.0 6.0 190.0 
368.0009270308328 1167.0 NaN 998.8697394789579 3.082961126281999 287.0 6.0 189.0 
370.0009270308328 1167.0 NaN 998.8136272545091 3.277651535193901 288.0 6.0 189.0 
372.0009270308328 1158.0 NaN 998.923179692718 2.7532553898963337 288.0 6.0 189.0 
374.0009270308328 1158.0 NaN 998.8056112224456 2.557415928008265 288.0 6.0 189.0 
376.0001983480089 1157.0 NaN 992.630594522378 2.9193281216105564 287.0 6.0 187.0 
378.0009270308328 1165.0 NaN 995.8049432197727 2.694367996953864 288.0 6.0 188.0 
380.0009270308328 1164.0 NaN 998.7815631262546 2.408459555791775 287.0 6.0 189.0 
382.0009270308328 1162.0 NaN 998.7708750834998 2.928709162819019 284.0 6.0 189.0 
384.0009270308328 1160.0 NaN 980.4221776887094 2.443124087040786 282.0 6.0 183.0 
386.0001983480089 1160.0 NaN 971.1903807615231 2.3871764135695486 281.0 6.0 180.0 
388.0009270308328 1164.0 NaN 968.1148964595864 2.994457574424123 278.0 6.0 179.0 
390.0009270308328 1174.0 NaN 968.1389445557774 2.639667991522534 278.0 6.0 179.0 
392.0009270308328 1176.0 NaN 971.3346693386776 2.594904133664354 275.0 6.0 180.0 
394.0009270308328 1187.0 NaN 968.152304609218 2.9863119043544084 275.0 6.0 179.0 
396.0001983480089 1192.0 NaN 974.33266533066 2.589121733273964 276.0 6.0 181.0 
398.0009270308328 1195.0 NaN 968.1977287909147 2.6676946641824597 276.0 6.0 179.0 
400.0009270308328 1195.0 NaN 962.0307281229132 3.1308720356626814 277.0 6.0 177.0 
402.0009270308328 1192.0 NaN 952.9298597194401 2.8259770666033015 278.0 6.0 174.0 
404.0009270308328 1194.0 NaN 952.8977955911815 2.7278382246922375 277.0 6.0 174.0 
406.0001983480089 1198.0 NaN 952.8149632598544 3.247348560105261 277.0 6.0 174.0 
408.0009270308328 1196.0 NaN 952.9084836339363 2.855171605977985 275.0 6.0 174.0 
410.0009270308328 1198.0 NaN 949.7955911823633 2.528874134828113 275.0 6.0 173.0 
412.0009270308328 1191.0 NaN 949.7929191716763 2.9949359777958318 275.0 6.0 173.0 
414.0009270308328 1187.0 NaN 946.7067468269869 2.585609643280332 275.0 6.0 172.0 
416.0001983480089 1182.0 NaN 949.8036072144273 2.4670819178390038 273.0 6.0 173.0 
418.0009270308328 1183.0 NaN 943.6285905143636 3.193820082171554 272.0 6.0 171.0 
420.0009270308328 1179.0 NaN 934.4555778223089 2.8477901943988897 271.0 6.0 168.0 
422.0009270308328 1183.0 NaN 937.5524382097547 2.771319719859338 270.0 6.0 169.0 
424.0009270308328 1183.0 NaN 937.5016700066819 3.307438754705681 268.0 6.0 169.0 
426.0001983480089 1185.0 NaN 934.4555778223089 2.9514344649884343 267.0 6.0 168.0 
428.0009270308328 1184.0 NaN 937.5604542418181 2.759892202359635 264.0 6.0 169.0 
430.0009270308328 1188.0 NaN 937.5417501669998 3.2421038236319233 264.0 6.0 169.0 
432.0009270308328 1183.0 NaN 934.4849699398819 3.036975651927014 265.0 6.0 168.0 
434.0009270308328 1177.0 NaN 934.4876419505666 2.75208983518255 264.0 6.0 168.0 
436.0001983480089 1184.0 NaN 937.4749498998002 3.2105832984532627 266.0 6.0 169.0 
438.0009270308328 1179.0 NaN 940.6466265865062 2.793854910104059 265.0 6.0 170.0 
440.0009270308328 1180.0 NaN 940.6466265865062 2.662071415468732 264.0 6.0 170.0 
442.0009270308328 1192.0 NaN 962.1269205076817 3.2188168588420174 267.0 6.0 177.0 
444.0009270308328 1198.0 NaN 965.1943887775543 2.96618573935974 267.0 6.0 178.0 
446.0001983480089 1192.0 NaN 968.1870407481639 2.558617454144309 266.0 6.0 179.0 
448.0009270308328 1196.0 NaN 968.1843687374725 3.2352688450139135 268.0 6.0 179.0 
450.0009270308328 1200.0 NaN 971.2972611890457 2.865656050197952 269.0 6.0 180.0 
452.0009270308328 1204.0 NaN 968.2511690046748 2.8437092306773364 268.0 6.0 179.0 
454.0009270308328 1209.0 NaN 971.265197060789 3.251303591258349 269.0 6.0 180.0 
456.0001983480089 1210.0 NaN 965.1169004676001 2.988376770348285 267.0 6.0 178.0 
458.0009270308328 1207.0 NaN 965.159652638609 2.909581083954846 270.0 6.0 178.0 
460.0009270308328 1211.0 NaN 965.0848363393454 3.1542676052234695 270.0 6.0 178.0 
462.0009270308328 1208.0 NaN 962.0948563794271 2.9122825256626235 271.0 6.0 177.0 
464.0009270308328 1209.0 NaN 962.0414161656635 2.829227483832397 270.0 6.0 177.0 
466.0001983480089 1199.0 NaN 958.9712758851028 2.970333923274423 270.0 6.0 176.0 
468.0009270308328 1202.0 NaN 962.1509686038728 2.81017066555924 271.0 6.0 177.0 
470.0009270308328 1202.0 NaN 961.9959919839666 2.793439060694985 271.0 6.0 177.0 
472.0009270308328 1191.0 NaN 955.8770875083487 3.275064489631432 270.0 6.0 175.0 
474.0009270308328 1179.0 NaN 955.9225116900457 2.875402666946253 270.0 6.0 175.0 
476.0001983480089 1170.0 NaN 955.8744154976634 2.873097958485271 269.0 6.0 175.0 
478.0009270308328 1163.0 NaN 955.8663994655999 3.2844667500077036 266.0 6.0 175.0 
480.0009270308328 1159.0 NaN 952.9271877087518 2.9423577327087105 266.0 7.0 173.0 
482.0009270308328 1160.0 NaN 952.9191716766882 2.9056476424471707 262.0 10.0 170.0 
484.0009270308328 1167.0 NaN 955.8931195724791 3.3040929828409378 261.0 12.0 169.0 
486.0001983480089 1165.0 NaN 962.0788243152981 2.935290297493206 263.0 12.0 171.0 
488.0009270308328 1158.0 NaN 958.9926519706089 2.807442789301557 262.0 14.0 168.0 
490.0009270308328 1158.0 NaN 958.9498997996002 3.046137512593107 261.0 14.0 168.0 
492.0009270308328 1164.0 NaN 955.951903807616 2.8596198424159804 258.0 14.0 167.0 
494.0009270308328 1159.0 NaN 955.877087508348 2.6208749970115703 257.0 14.0 167.0 
496.0001983480089 1154.0 NaN 955.858383433534 3.050555667164731 255.0 14.0 167.0 
498.0009270308328 1156.0 NaN 952.8871075484299 2.772495435520652 256.0 14.0 166.0 
500.0009270308328 1158.0 NaN 952.7962591850363 2.512547792312273 257.0 14.0 166.0 
502.0009270308328 1158.0 NaN 946.6319305277217 3.0459016619763712 255.0 14.0 164.0 
504.0009270308328 1150.0 NaN 943.6125584502328 2.479811983485858 256.0 14.0 163.0 
506.0001983480089 1145.0 NaN 943.580494321978 2.216083329771523 255.0 14.0 163.0 
508.0009270308328 1148.0 NaN 937.4615898463595 2.614351031408065 253.0 14.0 161.0 
510.0009270308328 1148.0 NaN 934.4288577154315 2.2294434424444494 255.0 13.0 161.0 
512.0009270308328 1151.0 NaN 940.5824983299946 2.1894302201875275 261.0 8.0 168.0 
514.0009270308328 1147.0 NaN 934.439545758182 2.655325678752332 259.0 8.0 166.0 
516.0001983480089 1141.0 NaN 931.3827655310635 2.2988248423295854 258.0 9.0 164.0 
518.0009270308328 1140.0 NaN 922.1295925183687 2.2959636079728654 260.0 6.0 164.0 
520.0009270308328 1148.0 NaN 922.0788243152961 2.8114558117929227 260.0 6.0 164.0 
522.0009270308328 1139.0 NaN 922.2204408817637 2.694952508299679 257.0 6.0 164.0 
524.0009270308328 1142.0 NaN 922.1429525718092 2.597260452498055 255.0 6.0 164.0 
526.0001983480089 1142.0 NaN 922.076152304609 3.1816603205484464 254.0 6.0 164.0 
528.0009270308328 1145.0 NaN 922.1963927855726 2.8924052360489347 253.0 6.0 164.0 
530.0009270308328 1146.0 NaN 922.1162324649314 2.756285751975829 252.0 6.0 164.0 
532.0009270308328 1144.0 NaN 919.0300601202407 3.090460111793945 251.0 6.0 163.0 
534.0009270308328 1148.0 NaN 912.9539078156319 2.8059072228621864 253.0 6.0 161.0 
536.0001983480089 1154.0 NaN 922.2017368069456 2.691817731366894 253.0 6.0 164.0 
538.0009270308328 1163.0 NaN 922.1910487641952 3.1091762851695957 254.0 6.0 164.0 
540.0009270308328 1155.0 NaN 916.0053440213763 2.580495346709155 254.0 6.0 162.0 
542.0009270308328 1153.0 NaN 919.0354041416175 2.542074819796039 254.0 6.0 163.0 
544.0009270308328 1154.0 NaN 919.0033400133591 2.9647782264342406 255.0 6.0 163.0 
546.0001983480089 1153.0 NaN 912.8817635270547 2.6842193212900334 254.0 6.0 161.0 
548.0009270308328 1144.0 NaN 913.0207080828318 2.3683841522931175 253.0 6.0 161.0 
550.0009270308328 1142.0 NaN 912.9111556446228 2.70861162734932 252.0 6.0 161.0 
552.0009270308328 1135.0 NaN 909.8543754175012 2.6760467557180587 251.0 6.0 160.0 
554.0009270308328 1132.0 NaN 909.8276553106216 2.3837156002125344 255.0 6.0 160.0 
556.0001983480089 1132.0 NaN 909.7528390113557 2.9028423766665825 257.0 6.0 160.0 
558.0009270308328 1136.0 NaN 903.6633266533061 2.7925927083978106 256.0 6.0 158.0 
560.0009270308328 1136.0 NaN 906.802939211756 2.4134062396730225 255.0 6.0 159.0 
562.0009270308328 1145.0 NaN 903.668670674682 3.043109848423474 255.0 6.0 158.0 
564.0009270308328 1154.0 NaN 906.789579158317 2.775463399622767 255.0 6.0 159.0 
566.0001983480089 1163.0 NaN 909.8917835671352 2.5657082199338235 255.0 6.0 160.0 
568.0009270308328 1162.0 NaN 912.967267869072 2.9770564503558625 255.0 6.0 161.0 
570.0009270308328 1163.0 NaN 909.9398797595182 2.5925401596248157 252.0 6.0 160.0 
572.0009270308328 1170.0 NaN 906.8617234468946 2.605721791829305 253.0 6.0 159.0 
574.0002223326176 1186.0 NaN 906.8483633934545 3.063611702232112 254.0 6.0 159.0 
576.0001983480089 1199.0 NaN 906.8456913827647 2.9672462356911886 255.0 6.0 159.0 
578.0009270308328 1206.0 NaN 912.9913159652635 2.822289878485421 255.0 6.0 161.0 
580.0009270308328 1202.0 NaN 909.8784235136945 3.090792475404832 255.0 6.0 160.0 
582.0009270308328 1194.0 NaN 909.9185036740137 3.062730307348141 253.0 6.0 160.0 
584.0009270308328 1181.0 NaN 913.090180360722 2.58087511258777 254.0 6.0 161.0 
586.0001983480089 1183.0 NaN 912.9779559118227 3.1003414019326 255.0 6.0 161.0 
588.0009270308328 1179.0 NaN 909.9372077488317 3.0643557036426796 253.0 6.0 160.0 
590.0009270308328 1179.0 NaN 916.1015364061454 2.7279158779189063 259.0 6.0 162.0 
592.0009270308328 1178.0 NaN 919.1155644622585 3.198024323468293 258.0 6.0 163.0 
594.0009270308328 1181.0 NaN 928.3901135604547 2.837466812852722 259.0 6.0 166.0 
596.0001983480089 1185.0 NaN 928.2672010688046 2.662971802137826 261.0 6.0 166.0 
598.0009270308328 1187.0 NaN 931.3159652638598 3.277433884597106 260.0 6.0 167.0 
600.0009270308328 1183.0 NaN 937.584502338009 2.83723231097032 263.0 6.0 169.0 
602.0009270308328 1177.0 NaN 934.4288577154317 2.791168647927036 258.0 6.0 168.0 
604.0009270308328 1179.0 NaN 940.5477621910494 3.2858021163004256 259.0 6.0 170.0 
606.0001983480089 1185.0 NaN 934.4235136940545 3.055372838010201 261.0 6.0 168.0 
608.0009270308328 1196.0 NaN 931.356045424182 3.0201594648282652 264.0 6.0 167.0 
610.0009270308328 1191.0 NaN 934.4181696726779 3.109796573284197 265.0 6.0 168.0 
612.0009270308328 1185.0 NaN 943.7114228456908 2.8235307873443984 266.0 6.0 171.0 
614.0009270308328 1190.0 NaN 943.5991983967949 2.4534736136506767 268.0 6.0 171.0 
616.0001983480089 1187.0 NaN 943.5591182364726 2.9865246789221915 269.0 6.0 171.0 
618.0009270308328 1195.0 NaN 949.7982631930543 2.940570829326989 269.0 6.0 173.0 
620.0009270308328 1192.0 NaN 949.7421509686044 2.815464066907492 269.0 6.0 173.0 
622.0009270308328 1196.0 NaN 943.5778223112904 3.366538330303352 268.0 6.0 171.0 
624.0009270308328 1215.0 NaN 946.7441549766188 3.205214857672484 269.0 6.0 172.0 
626.0001983480089 1218.0 NaN 952.8844355377416 3.166457383136464 268.0 6.0 174.0 
628.0009270308328 1227.0 NaN 962.0975283901132 3.7782279459404915 271.0 6.0 177.0 
630.0009270308328 1230.0 NaN 962.0708082832326 3.157688220159722 270.0 6.0 177.0 
632.0009270308328 1227.0 NaN 959.0701402805598 2.9242859601304536 267.0 6.0 176.0 
634.0009270308328 1233.0 NaN 962.054776219105 3.2345300357359337 267.0 6.0 177.0 
636.0001983480089 1251.0 NaN 971.2892451569816 3.168983308470946 268.0 6.0 180.0 
638.0009270308328 1259.0 NaN 977.520374081496 3.18301621902389 270.0 6.0 182.0 
640.0009270308328 1265.0 NaN 983.5938543754183 3.677134297568281 271.0 6.0 184.0 
642.0009270308328 1263.0 NaN 983.6366065464274 3.3886070937406187 270.0 6.0 184.0 
644.0009270308328 1269.0 NaN 977.4615898463607 3.2713347051264616 272.0 6.0 182.0 
646.0001983480089 1273.0 NaN 989.7154308617243 3.6219488378966274 276.0 6.0 186.0 
648.0009270308328 1258.0 NaN 995.9331997328003 3.4036070028329632 277.0 6.0 188.0 
650.0009270308328 1262.0 NaN 1002.0253841015362 3.160868234671686 279.0 6.0 190.0 
652.0009270308328 1262.0 NaN 1002.0120240480974 3.656711202761106 282.0 6.0 190.0 
654.0009270308328 1253.0 NaN 998.9258517034091 3.254843741272887 282.0 7.0 188.0 
656.0001983480089 1265.0 NaN 1008.1870407481638 3.167007491076943 282.0 6.0 192.0 
658.0009270308328 1268.0 NaN 1008.173680694725 3.729864769004805 282.0 6.0 192.0 
660.0009270308328 1261.0 NaN 1008.1629926519727 3.2611892005077823 283.0 6.0 192.0 
662.0009270308328 1262.0 NaN 1014.2925851703385 3.252444784500679 285.0 6.0 194.0 
664.0009270308328 1257.0 NaN 1026.5544422177704 3.5066696278732365 288.0 6.0 198.0 
#####################################################################
# End of data export. Simulation finished at: 2019-03-14T11:22+0000 #
#####################################################################
