#####################################################################
# Alchemist log file - simulation started at: 2019-03-08T12:04+0000 #
#####################################################################
# seed = 2.0, bandwidth = 17782.79410038923, propagationDelay = 1.0, baserange = 10.0
#
# The columns have the following meaning: 
# time neighbor_count[Sum] <value>@neighbor_count[Sum] packet_size[Mean] mean_delay[Mean] crowd[Sum] overcrowded[Sum] risk[Sum] 
0.0 NaN NaN NaN NaN NaN NaN NaN 
2.0001624126916377 140.0 NaN 4988.2458249833 0.22962722073742006 1497.0 0.0 1497.0 
4.00025860672577 486.0 NaN 4992.208416833667 1.1340058252166727 1497.0 0.0 1497.0 
6.00025860672577 486.0 NaN 4991.3640614562455 1.133470763693991 1497.0 0.0 1497.0 
8.00025860672577 486.0 NaN 4990.925851703407 1.1334151668816406 1497.0 0.0 1497.0 
10.00025860672577 486.0 NaN 4990.260521042084 1.1335917170648027 1497.0 0.0 1497.0 
12.00025860672577 486.0 NaN 4989.715430861724 1.1337518843706906 1497.0 0.0 1497.0 
14.00025860672577 486.0 NaN 4989.664662658651 1.1339062533126922 1497.0 0.0 1497.0 
16.00025860672577 486.0 NaN 4989.600534402138 1.1339235984184557 1497.0 0.0 1497.0 
18.00025860672577 488.0 NaN 4989.61122244489 1.1400786026686678 1497.0 0.0 1497.0 
20.00025860672577 488.0 NaN 4989.587174348698 1.153354823062386 1497.0 0.0 1497.0 
22.00025860672577 489.0 NaN 4989.458917835671 1.1632960170563775 1497.0 0.0 1497.0 
24.00025860672577 494.0 NaN 4989.571142284569 1.196180975476757 1497.0 0.0 1497.0 
26.00025860672577 496.0 NaN 4989.560454241817 1.2246464312693717 1497.0 0.0 1497.0 
28.00025860672577 498.0 NaN 4989.525718102873 1.261440190973823 1497.0 0.0 1497.0 
30.00025860672577 498.0 NaN 4989.445557782231 1.29642356227334 1497.0 0.0 1497.0 
32.000258606725765 500.0 NaN 4989.453573814295 1.3472714140008226 1497.0 0.0 1497.0 
34.000258606725765 504.0 NaN 4989.493653974616 1.4094342561652542 1497.0 0.0 1497.0 
36.000258606725765 508.0 NaN 4989.482965931864 1.4605140898358362 1497.0 0.0 1497.0 
38.000258606725765 518.0 NaN 4989.528390113561 1.5076512268918565 1497.0 0.0 1497.0 
40.000258606725765 523.0 NaN 4989.531062124249 1.5332741882414853 1497.0 0.0 1497.0 
42.000258606725765 526.0 NaN 4989.560454241817 1.4655135111570883 1497.0 0.0 1497.0 
44.000258606725765 533.0 NaN 4989.608550434202 1.5718222086369416 1497.0 0.0 1497.0 
46.000258606725765 531.0 NaN 4989.58450233801 1.5696957878158353 1497.0 0.0 1497.0 
48.000258606725765 533.0 NaN 4989.571142284569 1.6942520978881377 1497.0 0.0 1497.0 
50.000258606725765 537.0 NaN 4989.640614562458 1.739300202920102 1497.0 0.0 1497.0 
52.000258606725765 540.0 NaN 4989.613894455578 1.8711005432198922 1497.0 0.0 1497.0 
54.000258606725765 549.0 NaN 4989.632598530394 1.953601965753764 1497.0 0.0 1497.0 
56.000258606725765 545.0 NaN 4989.632598530394 1.9526098084387675 1497.0 0.0 1497.0 
58.000258606725765 552.0 NaN 4989.656646626587 2.095282246434327 1497.0 0.0 1497.0 
60.000258606725765 554.0 NaN 4989.667334669339 2.2468006904431155 1497.0 0.0 1497.0 
62.000150283827445 559.0 NaN 618.1135604542407 2.2272207848656667 320.0 0.0 71.0 
64.00015028382744 560.0 NaN 621.1596526386104 2.1498849207736215 317.0 0.0 72.0 
66.00015028382745 554.0 NaN 621.1703406813639 1.9125637387262564 312.0 0.0 72.0 
68.00015028382745 557.0 NaN 621.1543086172351 2.0787892217855983 312.0 0.0 72.0 
70.00015028382745 548.0 NaN 624.2458249833 2.0752640933349684 298.0 0.0 73.0 
72.00015028382745 547.0 NaN 627.2571810287236 2.138496562553632 270.0 0.0 74.0 
74.00015028382745 551.0 NaN 636.478289913159 2.269092920298092 241.0 0.0 77.0 
76.00015028382745 543.0 NaN 636.4809619238458 2.120534539421351 217.0 0.0 77.0 
78.00015028382745 543.0 NaN 636.4542418169683 2.265040968119653 211.0 0.0 77.0 
80.00015028382745 546.0 NaN 642.5865063460269 2.401101349530426 197.0 0.0 79.0 
82.00015028382745 545.0 NaN 642.5918503674005 2.2912698243082934 183.0 0.0 79.0 
84.00015028382745 542.0 NaN 642.5731462925851 2.2893538393275543 177.0 0.0 79.0 
86.00015028382745 530.0 NaN 642.5277221108875 2.1570614826601973 172.0 0.0 79.0 
88.00015028382745 531.0 NaN 642.5170340681364 2.383412551917842 170.0 0.0 79.0 
90.00015028382745 525.0 NaN 642.5090180360729 2.2370164053565427 164.0 0.0 79.0 
92.00015028382745 524.0 NaN 642.5063460253821 2.1743683386180863 161.0 0.0 79.0 
94.00015028382745 522.0 NaN 642.4849699398815 2.3159739843487324 158.0 0.0 79.0 
96.00015028382745 520.0 NaN 642.4796259185041 2.202635739990812 156.0 0.0 79.0 
98.00015028382745 523.0 NaN 642.5197060788239 2.340796718096212 153.0 0.0 79.0 
100.00015028382745 525.0 NaN 642.5197060788239 2.5507083270479374 154.0 0.0 79.0 
102.00015028382745 528.0 NaN 645.5925183700724 2.7501615000390913 156.0 0.0 80.0 
104.00015028382745 524.0 NaN 645.5818303273213 2.4948819660455004 153.0 0.0 80.0 
106.00015028382745 521.0 NaN 651.7221108884451 2.1194196451005625 153.0 0.0 82.0 
108.00015028382745 526.0 NaN 657.8757515030062 2.071614099781564 153.0 0.0 84.0 
110.00015028382745 522.0 NaN 654.7682030728121 1.9680125570091618 154.0 0.0 83.0 
112.00015028382745 522.0 NaN 651.7327989311963 2.076566373252588 155.0 0.0 82.0 
114.00015028382745 520.0 NaN 648.6626586506359 2.13778401424663 153.0 0.0 81.0 
116.00015028382745 516.0 NaN 648.6786907147638 2.07380172209199 152.0 0.0 81.0 
118.00015028382745 513.0 NaN 648.6893787575152 1.9571208291810331 151.0 0.0 81.0 
120.00015028382745 510.0 NaN 648.7080828323309 1.9596342567678915 150.0 0.0 81.0 
122.00015028382745 510.0 NaN 642.5704742818968 1.90995662294839 147.0 0.0 79.0 
124.00015028382745 509.0 NaN 642.554442217769 1.9720782567877728 146.0 0.0 79.0 
126.00015028382745 514.0 NaN 642.5838343353362 1.9098254924903477 142.0 0.0 79.0 
128.00015028382745 531.0 NaN 642.6479625918508 1.9869978641075885 141.0 0.0 79.0 
130.00015028382745 532.0 NaN 636.4702738810961 1.8234337650661527 143.0 0.0 77.0 
132.00015028382745 530.0 NaN 633.3627254509008 1.7938376706095416 142.0 0.0 76.0 
134.00015028382745 531.0 NaN 633.3520374081494 1.710550238701964 144.0 0.0 76.0 
136.00015028382745 535.0 NaN 636.4328657314637 1.7895191622003748 144.0 0.0 77.0 
138.00015028382745 538.0 NaN 648.7695390781552 1.6876319769395443 143.0 0.0 81.0 
140.00015028382745 539.0 NaN 651.8370073480277 1.5818489593981504 142.0 0.0 82.0 
142.00015028382745 541.0 NaN 642.5998663994644 1.6784499992709445 140.0 0.0 79.0 
144.00015028382745 546.0 NaN 642.6105544422184 1.556493771415235 140.0 0.0 79.0 
146.00015028382745 541.0 NaN 639.5297261189043 1.4753180058914466 140.0 0.0 78.0 
148.00015028382745 544.0 NaN 639.5110220440876 1.5399280609852284 141.0 0.0 78.0 
150.00015028382745 550.0 NaN 639.5323981295917 1.6026622497219827 141.0 0.0 78.0 
152.00015028382745 554.0 NaN 633.4241816967274 1.6930395592169478 140.0 0.0 76.0 
154.00015028382745 555.0 NaN 633.4001336005351 1.7575070608040335 141.0 0.0 76.0 
156.00015028382745 558.0 NaN 636.4836339345362 1.8808121107687685 142.0 0.0 77.0 
158.00015028382745 560.0 NaN 636.478289913159 2.00907886139465 144.0 0.0 77.0 
160.00015028382745 552.0 NaN 636.4515698062787 1.9728703896049076 144.0 0.0 77.0 
162.00015028382745 549.0 NaN 639.5484301937214 1.9239240852120318 143.0 0.0 78.0 
164.00015028382745 551.0 NaN 636.4542418169683 2.0697039819717618 145.0 0.0 77.0 
166.00015028382745 555.0 NaN 636.4034736138956 2.2802788954144937 144.0 0.0 77.0 
168.00015028382745 559.0 NaN 630.3273213092865 2.3688177597749958 144.0 0.0 75.0 
170.00015028382745 557.0 NaN 630.3112892451578 2.357782920745029 143.0 0.0 75.0 
172.00015028382745 553.0 NaN 630.297929191717 2.308283878186998 144.0 0.0 75.0 
174.00015028382745 555.0 NaN 630.2899131596532 2.277466479362335 147.0 0.0 75.0 
176.00015028382745 553.0 NaN 633.3520374081501 2.236153848335457 146.0 0.0 76.0 
178.00015028382745 548.0 NaN 636.4462257849035 2.168447120202121 150.0 0.0 77.0 
180.00015028382745 539.0 NaN 630.3193052772215 2.252515294943997 151.0 0.0 75.0 
182.00015028382745 538.0 NaN 630.3112892451576 2.4051485037066294 151.0 0.0 75.0 
184.00015028382745 540.0 NaN 630.2952571810285 2.639052852856928 151.0 0.0 75.0 
186.00015028382745 534.0 NaN 630.2845691382772 2.3985270808337087 150.0 0.0 75.0 
188.00015028382745 531.0 NaN 636.4248496993988 2.3358003152687594 150.0 0.0 77.0 
190.00015028382745 532.0 NaN 630.3006012024044 2.3590313610314193 150.0 0.0 75.0 
192.00015028382745 535.0 NaN 627.2384769539077 2.2935036338470716 148.0 0.0 74.0 
194.00015028382745 540.0 NaN 630.321977287909 2.4925839215894428 148.0 0.0 75.0 
196.00015028382745 541.0 NaN 630.292585170341 2.6615985331358534 148.0 0.0 75.0 
198.00015028382745 540.0 NaN 636.4515698062789 2.652484941020277 149.0 0.0 77.0 
200.00015028382745 535.0 NaN 639.5136940547771 2.2440134002108736 147.0 0.0 78.0 
202.00015028382745 536.0 NaN 639.4682698730788 2.136940068047826 150.0 0.0 78.0 
204.00015028382745 541.0 NaN 639.4629258517044 2.1973163481058506 148.0 0.0 78.0 
206.00015028382745 541.0 NaN 639.4949899799593 2.061285799680341 145.0 0.0 78.0 
208.00015028382745 539.0 NaN 639.4762859051439 2.0060677239119498 142.0 0.0 78.0 
210.00015028382745 543.0 NaN 642.5811623246499 2.0052139034180176 141.0 0.0 79.0 
212.00015028382745 548.0 NaN 645.6646626586502 1.9275027134015152 141.0 0.0 80.0 
214.00015028382745 551.0 NaN 642.5731462925851 2.0953859421169683 141.0 0.0 79.0 
216.00015028382745 548.0 NaN 642.5784903139606 2.049335237531117 138.0 0.0 79.0 
218.00015028382745 546.0 NaN 636.4221776887103 2.116633089755734 138.0 0.0 77.0 
220.00015028382745 548.0 NaN 636.4248496993987 2.2737051469430547 138.0 0.0 77.0 
222.00015028382745 546.0 NaN 636.4195056780227 2.2091525487844526 137.0 0.0 77.0 
224.00015028382745 549.0 NaN 639.5056780227123 2.154268247495685 137.0 0.0 78.0 
226.00015028382745 541.0 NaN 639.4869739478954 2.0207993155836133 139.0 0.0 78.0 
228.00015028382745 543.0 NaN 639.4762859051441 2.1371249834790627 138.0 0.0 78.0 
230.00015028382745 541.0 NaN 636.3981295925181 2.2409806885954 136.0 0.0 77.0 
232.00015028382745 538.0 NaN 633.3573814295258 2.091438733068714 134.0 0.0 76.0 
234.00015028382745 541.0 NaN 630.3086172344683 2.0211866178875266 134.0 0.0 75.0 
236.00015028382745 540.0 NaN 621.1115564462258 2.0220840136362592 129.0 0.0 72.0 
238.00015028382745 544.0 NaN 621.1142284569136 2.1418624831933544 129.0 0.0 72.0 
240.00015028382745 548.0 NaN 624.18971275885 2.3050565637302816 130.0 0.0 73.0 
242.00015028382745 550.0 NaN 624.1843687374742 2.410726759056915 130.0 0.0 73.0 
244.00015028382745 551.0 NaN 624.1629926519712 2.4348217416179416 129.0 0.0 73.0 
246.00015028382745 551.0 NaN 627.2651970607877 2.395425711063046 128.0 0.0 74.0 
248.00015028382745 553.0 NaN 630.3567134268546 2.351752309440207 129.0 0.0 75.0 
250.00015028382745 549.0 NaN 630.3433533734137 2.3107780420450483 129.0 0.0 75.0 
252.00015028382745 544.0 NaN 627.2625250501 2.0361151499452834 129.0 0.0 74.0 
254.00015028382745 545.0 NaN 633.4054776219101 1.9329777423124352 129.0 0.0 76.0 
256.00015028382745 546.0 NaN 633.3760855043406 2.006305780342334 129.0 0.0 76.0 
258.00015028382745 545.0 NaN 633.3600534402135 2.0736463575236153 130.0 0.0 76.0 
260.00015028382745 548.0 NaN 633.3921175684693 2.110042146855524 131.0 0.0 76.0 
262.00015028382745 549.0 NaN 633.3547094188375 2.172385078990326 131.0 0.0 76.0 
264.00015028382745 546.0 NaN 633.3600534402135 2.212626092935455 130.0 0.0 76.0 
266.00015028382745 546.0 NaN 633.362725450901 2.3637450990724678 131.0 0.0 76.0 
268.00015028382745 551.0 NaN 633.3413493653966 2.4717088602762534 131.0 0.0 76.0 
270.00015028382745 553.0 NaN 636.4141616566465 2.6004297604200244 135.0 0.0 77.0 
272.00015028382745 553.0 NaN 636.3901135604547 2.7292365407665855 134.0 0.0 77.0 
274.00015028382745 560.0 NaN 639.4682698730779 2.6215985176092063 134.0 0.0 78.0 
276.00015028382745 553.0 NaN 639.4923179692729 2.4477252438647574 133.0 0.0 78.0 
278.00015028382745 548.0 NaN 639.4281897127591 2.3363373914657655 132.0 0.0 78.0 
280.00015028382745 544.0 NaN 639.4682698730779 2.1289300926182326 132.0 0.0 78.0 
282.00015028382745 542.0 NaN 639.425517702072 2.1709037942087845 132.0 0.0 78.0 
284.00015028382745 546.0 NaN 639.401469605877 2.1653201700171727 131.0 0.0 78.0 
286.00015028382745 540.0 NaN 639.3934535738135 2.128711291055508 130.0 0.0 78.0 
288.00015028382745 538.0 NaN 639.4068136272546 2.0713981296725836 130.0 0.0 78.0 
290.00015028382745 540.0 NaN 636.3446893787582 2.1957365675916862 131.0 0.0 77.0 
292.00015028382745 550.0 NaN 633.2718770875092 2.3276155188821552 132.0 0.0 76.0 
294.00015028382745 549.0 NaN 636.379425517701 2.16208166403575 133.0 0.0 77.0 
296.00015028382745 546.0 NaN 636.3500334001328 2.27118177837817 133.0 0.0 77.0 
298.00015028382745 550.0 NaN 639.4335337341356 2.3703683110765073 132.0 0.0 78.0 
300.00015028382745 545.0 NaN 636.4061456245817 2.3071812529767377 131.0 0.0 77.0 
302.00015028382745 541.0 NaN 636.4195056780227 2.19448973962661 130.0 0.0 77.0 
304.00015028382745 541.0 NaN 633.3119572478283 2.313395536945432 130.0 0.0 76.0 
306.00015028382745 539.0 NaN 630.2631930527729 2.3828235620430673 130.0 0.0 75.0 
308.00015028382745 533.0 NaN 630.2605210420855 2.300978889895246 131.0 0.0 75.0 
310.00015028382745 535.0 NaN 627.1823647294591 2.28965161816544 131.0 0.0 74.0 
312.00015028382745 530.0 NaN 627.1877087508353 2.3065709791803 129.0 0.0 74.0 
314.00015028382745 531.0 NaN 621.0260521042092 2.394492955036535 128.0 0.0 72.0 
316.00015028382745 527.0 NaN 621.0367401469604 2.303558885425444 125.0 0.0 72.0 
318.00015028382745 524.0 NaN 621.0367401469604 2.3484888017000816 124.0 0.0 72.0 
320.00015028382745 519.0 NaN 617.9719438877758 2.242604976443602 123.0 0.0 71.0 
322.00015028382745 524.0 NaN 617.9612558450226 2.283153855857143 123.0 0.0 71.0 
324.00015028382745 531.0 NaN 621.0260521042092 2.4558349851006147 124.0 0.0 72.0 
326.00015028382745 513.0 NaN 617.9986639946559 2.1421811168470057 124.0 0.0 71.0 
328.00015028382745 515.0 NaN 618.0040080160318 2.1943435733477306 124.0 0.0 71.0 
330.00015028382745 520.0 NaN 617.9906479625907 2.3964255614203775 125.0 0.0 71.0 
332.00015028382745 517.0 NaN 614.920507682032 2.413818537926321 125.0 0.0 70.0 
334.00015028382745 512.0 NaN 611.8343353373408 2.369384515351437 126.0 0.0 69.0 
336.00015028382745 509.0 NaN 605.6833667334664 2.2807708701519354 126.0 0.0 67.0 
338.00015028382745 514.0 NaN 599.6232464929865 2.2172982891280753 126.0 0.0 65.0 
340.00015028382745 519.0 NaN 599.5537742150972 2.3274903435167182 125.0 0.0 65.0 
342.00015028382745 519.0 NaN 602.6853707414817 2.221500480259448 122.0 0.0 66.0 
344.00015028382745 521.0 NaN 602.6265865063452 2.326408438502698 122.0 0.0 66.0 
346.00015028382745 523.0 NaN 605.6887107548426 2.371113493228645 121.0 0.0 67.0 
348.00015028382745 519.0 NaN 605.7154308617227 2.021787154022429 121.0 0.0 67.0 
350.00015028382745 516.0 NaN 605.6753507014026 1.9774274743877729 121.0 0.0 67.0 
352.00015028382745 520.0 NaN 602.6292585170345 2.0214021306032572 119.0 0.0 66.0 
354.00015028382745 522.0 NaN 605.6459585838346 2.024074799770416 120.0 0.0 67.0 
356.00015028382745 521.0 NaN 605.6513026052108 2.110840089230792 119.0 0.0 67.0 
358.00015028382745 521.0 NaN 602.6025384101546 2.109051731068285 119.0 0.0 66.0 
360.00015028382745 524.0 NaN 602.58116232465 2.262121770026046 120.0 0.0 66.0 
362.00015028382745 521.0 NaN 602.6158984635936 2.1952129192881147 120.0 0.0 66.0 
364.00015028382745 521.0 NaN 599.5083500333999 2.1650076230272877 121.0 0.0 65.0 
366.00015028382745 513.0 NaN 596.454241816968 2.069797002847669 121.0 0.0 64.0 
368.00015028382745 515.0 NaN 593.3974615898455 2.225849793573187 122.0 0.0 63.0 
370.00015028382745 517.0 NaN 590.3326653306611 2.3732809168238806 121.0 0.0 62.0 
372.00015028382745 514.0 NaN 590.3193052772209 2.2499502148114714 122.0 0.0 62.0 
374.00015028382745 518.0 NaN 590.2979291917164 2.4211340020519225 124.0 0.0 62.0 
376.00015028382745 514.0 NaN 593.3867735470939 2.2378968805881296 123.0 0.0 63.0 
378.00015028382745 515.0 NaN 599.5911823647291 2.1316557464512798 125.0 0.0 65.0 
380.00015028382745 517.0 NaN 599.5885103540407 2.192640536899705 124.0 0.0 65.0 
382.00015028382745 515.0 NaN 599.5831663326657 2.0666848382075798 119.0 0.0 65.0 
384.00015028382745 522.0 NaN 602.634602538409 2.2610987755886063 119.0 0.0 66.0 
386.00015028382745 522.0 NaN 608.7828991315954 2.316117926607782 118.0 0.0 68.0 
388.00015028382745 522.0 NaN 608.8042752171 2.3801643989966625 118.0 0.0 68.0 
390.00015028382745 525.0 NaN 605.7287909151637 2.237938265526159 116.0 0.0 67.0 
392.00015028382745 527.0 NaN 611.8744154976624 2.3038359950345364 121.0 0.0 69.0 
394.00058297905275 527.0 NaN 614.9659318637272 2.1146979656322684 121.0 0.0 70.0 
396.00058297905275 523.0 NaN 621.1436205744816 1.9306841070905723 120.0 0.0 72.0 
398.00058297905275 533.0 NaN 621.0821643286577 2.057660526013397 121.0 0.0 72.0 
400.00058297905275 534.0 NaN 621.1008684034726 2.1866035562216672 123.0 0.0 72.0 
402.00058297905275 528.0 NaN 621.1008684034726 2.1804557155981636 122.0 0.0 72.0 
404.00058297905275 529.0 NaN 624.2137608550445 2.231823290582939 123.0 0.0 73.0 
406.00058297905275 522.0 NaN 630.3674014696057 2.1294268043707323 122.0 0.0 75.0 
408.00058297905275 527.0 NaN 633.4669338677364 1.958038547265545 124.0 0.0 76.0 
410.00058297905275 531.0 NaN 633.4348697394786 1.9794122977619775 124.0 0.0 76.0 
412.00058297905275 532.0 NaN 633.4081496325989 2.0765270775673303 125.0 0.0 76.0 
414.00058297905275 543.0 NaN 636.4809619238465 2.2405240201145964 126.0 0.0 77.0 
416.00058297905275 541.0 NaN 636.4969939879762 2.067294338573216 124.0 0.0 77.0 
418.00058297905275 551.0 NaN 639.5591182364726 2.2613005091985077 124.0 0.0 78.0 
420.00058297905275 543.0 NaN 639.5270541082173 2.1747696708710933 124.0 0.0 78.0 
422.00058297905275 543.0 NaN 639.4762859051446 2.313082465742499 124.0 0.0 78.0 
424.00058297905275 548.0 NaN 642.5544422177682 2.4790478256965365 126.0 0.0 79.0 
426.00058297905275 550.0 NaN 645.6379425517691 2.609733868016681 127.0 0.0 80.0 
428.00058297905275 545.0 NaN 645.6245824983308 2.4872365375945473 132.0 0.0 80.0 
430.00058297905275 538.0 NaN 645.6272545090183 2.3645556629559534 132.0 0.0 80.0 
432.00058297905275 534.0 NaN 645.608550434201 2.1676813418533936 131.0 0.0 80.0 
434.00058297905275 540.0 NaN 645.5925183700726 2.346040678918476 133.0 0.0 80.0 
436.00058297905275 538.0 NaN 648.6786907147638 2.31191066088231 133.0 0.0 81.0 
438.00058297905275 541.0 NaN 654.8563794255184 2.30861798368973 134.0 0.0 83.0 
440.00058297905275 537.0 NaN 651.7835671342684 2.331361954648357 134.0 0.0 82.0 
442.00058297905275 537.0 NaN 654.8483633934547 2.3435212500286715 133.0 0.0 83.0 
444.00058297905275 536.0 NaN 657.9024716098869 2.3229970903096313 135.0 0.0 84.0 
446.00058297905275 530.0 NaN 664.0774883099539 2.4088704995528136 135.0 0.0 86.0 
448.00058297905275 541.0 NaN 673.3039412157642 2.448319472578148 138.0 0.0 89.0 
450.00058297905275 540.0 NaN 670.1750167000665 2.3521991110362315 138.0 0.0 88.0 
452.00058297905275 540.0 NaN 670.185704742818 2.3071916022094103 140.0 0.0 88.0 
454.00058297905275 541.0 NaN 667.1155644622575 2.3787264858256734 141.0 0.0 87.0 
456.00058297905275 535.0 NaN 670.1990647962599 2.2737320541078216 141.0 0.0 88.0 
458.00058297905275 538.0 NaN 670.1536406145631 2.119188748885199 140.0 0.0 88.0 
460.00058297905275 544.0 NaN 673.2024048096179 2.2468662641155723 140.0 0.0 89.0 
462.00058297905275 549.0 NaN 673.2130928523721 2.2497431321064347 141.0 0.0 89.0 
464.00058297905275 549.0 NaN 676.2725450901813 2.310086991582027 145.0 0.0 90.0 
466.00058297905275 542.0 NaN 670.1429525718097 2.4165289714035647 143.0 0.0 88.0 
468.00058297905275 545.0 NaN 664.0 2.6536453292816558 139.0 0.0 86.0 
470.00058297905275 538.0 NaN 663.9946559786242 2.6505069052234504 139.0 0.0 86.0 
472.00058297905275 538.0 NaN 663.9759519038084 2.782929563277654 139.0 0.0 86.0 
474.00058297905275 538.0 NaN 663.9438877755504 3.042041835005588 140.0 0.0 86.0 
476.00058297905275 533.0 NaN 657.8249832999331 2.9961840617920203 135.0 0.0 84.0 
478.00015028382745 532.0 NaN 654.7682030728124 3.006239290905812 135.0 0.0 83.0 
480.00015028382745 520.0 NaN 654.7575150300595 2.4914436261495867 134.0 0.0 83.0 
482.00015028382745 516.0 NaN 654.7414829659323 2.5047008095941283 134.0 0.0 83.0 
484.00015028382745 511.0 NaN 654.7147628590512 2.5353256333016425 133.0 0.0 83.0 
486.00015028382745 514.0 NaN 654.7227788911149 2.6916103558976006 133.0 0.0 83.0 
488.00015028382745 520.0 NaN 651.6579826319306 2.684448905046164 134.0 0.0 82.0 
490.00015028382745 519.0 NaN 651.6740146960587 2.5689387809369606 137.0 0.0 82.0 
492.00015028382745 514.0 NaN 651.6980627922502 2.3951709641807635 133.0 0.0 82.0 
494.00015028382745 516.0 NaN 651.7194388777544 2.3660492827909367 137.0 0.0 82.0 
496.00015028382745 512.0 NaN 651.7140948563784 2.058708951651435 135.0 0.0 82.0 
498.00015028382745 515.0 NaN 645.5818303273217 2.2375325843997462 136.0 0.0 80.0 
500.00015028382745 515.0 NaN 645.5711422845685 2.2243136268295753 135.0 0.0 80.0 
502.00015028382745 518.0 NaN 645.5551102204405 2.4200543679371727 136.0 0.0 80.0 
504.00015028382745 514.0 NaN 642.5090180360729 2.226189931432666 134.0 0.0 79.0 
506.00015028382745 509.0 NaN 639.4308617234462 2.028104770890532 133.0 0.0 78.0 
508.00015028382745 515.0 NaN 639.4468937875763 2.1621043802963955 133.0 0.0 78.0 
510.00015028382745 506.0 NaN 630.236472945891 2.1406799122927223 130.0 0.0 75.0 
512.0001502838275 494.0 NaN 627.1609886439546 1.9145563564518384 128.0 0.0 74.0 
514.0001502838275 493.0 NaN 621.0180360721454 1.9133002718119008 127.0 0.0 72.0 
516.0001502838275 496.0 NaN 621.0394121576486 2.0262858208148753 127.0 0.0 72.0 
518.0001131408513 499.0 NaN 617.9639278557119 2.119325755377595 126.0 0.0 71.0 
520.0001502838275 500.0 NaN 617.9478957915833 2.1606160133502867 126.0 0.0 71.0 
522.0001502838275 495.0 NaN 614.8884435537742 2.0603000484557477 126.0 0.0 70.0 
524.0001502838275 490.0 NaN 605.6700066800273 2.048812956177622 125.0 0.0 67.0 
526.0001502838275 489.0 NaN 599.5270541082161 2.095914726397009 123.0 0.0 65.0 
528.0001502838275 494.0 NaN 602.613226452906 2.178756648743833 124.0 0.0 66.0 
530.0001131408513 496.0 NaN 599.527054108216 2.25369718508322 123.0 0.0 65.0 
532.0001502838275 490.0 NaN 593.386773547094 2.021244401149649 122.0 0.0 63.0 
534.0001502838275 489.0 NaN 596.4515698062795 1.9169771044306878 123.0 0.0 64.0 
536.0001502838275 487.0 NaN 596.4435537742153 1.7368412740909929 124.0 0.0 64.0 
538.0001502838275 498.0 NaN 602.6105544422182 1.7893701214662696 128.0 0.0 66.0 
540.0001502838275 499.0 NaN 602.6052104208412 1.8824677195956336 127.0 0.0 66.0 
542.0001502838275 499.0 NaN 602.6265865063453 1.9880010719129966 125.0 0.0 66.0 
544.0001502838275 505.0 NaN 599.5457581830324 2.15332182499113 126.0 0.0 65.0 
546.0001502838275 510.0 NaN 599.5484301937205 2.213424422428499 124.0 0.0 65.0 
548.0001502838275 514.0 NaN 593.4241816967273 2.195012433766944 127.0 0.0 63.0 
550.0001502838275 513.0 NaN 593.426853707415 2.2366304899104055 126.0 0.0 63.0 
552.0001502838275 512.0 NaN 593.4241816967273 2.132497649396217 124.0 0.0 63.0 
554.0001502838275 517.0 NaN 596.4969939879759 2.3462736016122623 123.0 0.0 64.0 
556.0001502838275 521.0 NaN 596.4889779559115 2.619042049610485 123.0 0.0 64.0 
558.0001502838275 526.0 NaN 599.5591182364727 2.8387311957631476 126.0 0.0 65.0 
560.0001502838275 520.0 NaN 599.5404141616568 2.7449195183403523 127.0 0.0 65.0 
562.0001502838275 516.0 NaN 605.6993987975956 2.5472472096252514 123.0 0.0 67.0 
564.0001502838275 516.0 NaN 605.6940547762188 2.447698864292646 123.0 0.0 67.0 
566.0001502838275 509.0 NaN 605.7100868403476 2.3924608032163586 122.0 0.0 67.0 
568.0001502838275 511.0 NaN 605.6993987975956 2.6524132826371836 122.0 0.0 67.0 
570.0001502838275 510.0 NaN 602.6158984635938 2.6233615021999612 120.0 0.0 66.0 
572.0001502838275 514.0 NaN 602.6426185704744 2.753932997502595 120.0 0.0 66.0 
574.0001502838275 520.0 NaN 602.6052104208414 2.8304615515734453 120.0 0.0 66.0 
576.0001502838275 520.0 NaN 605.6993987975956 2.8308694753727712 120.0 0.0 67.0 
578.0001502838275 513.0 NaN 605.6993987975956 2.5165294132954195 119.0 0.0 67.0 
580.0001502838275 511.0 NaN 596.5317301269204 2.4806813972076522 119.0 0.0 64.0 
582.0001502838275 510.0 NaN 593.4402137608547 2.494190131632488 118.0 0.0 63.0 
584.0001502838275 510.0 NaN 596.494321977288 2.587705991877313 118.0 0.0 64.0 
586.0001502838275 511.0 NaN 596.5076820307281 2.475276625120491 118.0 0.0 64.0 
588.0001502838275 509.0 NaN 596.5050100200401 2.2165932227359084 118.0 0.0 64.0 
590.0001502838275 510.0 NaN 593.4402137608547 2.163038509989486 118.0 0.0 63.0 
592.0001502838275 512.0 NaN 596.5076820307281 2.226113307749895 117.0 0.0 64.0 
594.0001131408513 515.0 NaN 596.5156980627922 2.3170159951561042 118.0 0.0 64.0 
596.0001502838275 518.0 NaN 596.5156980627922 2.405317104872266 117.0 0.0 64.0 
598.0001502838275 525.0 NaN 599.588510354041 2.433198058239714 119.0 0.0 65.0 
600.0001502838275 523.0 NaN 599.588510354041 2.5031169940361226 119.0 0.0 65.0 
602.0001502838275 522.0 NaN 602.6533066132266 2.5431275893230456 119.0 0.0 66.0 
604.0001502838275 525.0 NaN 602.6265865063455 2.511141554880769 118.0 0.0 66.0 
606.0001502838275 523.0 NaN 599.5831663326658 2.4964949432596137 116.0 0.0 65.0 
608.0001502838275 528.0 NaN 608.7882431529728 2.4341538257076345 116.0 0.0 68.0 
610.0001502838275 533.0 NaN 608.7962591850363 2.3890887741136333 117.0 0.0 68.0 
612.0001502838275 533.0 NaN 608.8042752171004 2.473005813873506 117.0 0.0 68.0 
614.0001502838275 538.0 NaN 608.7828991315959 2.7102207526883633 117.0 0.0 68.0 
616.0001502838275 537.0 NaN 611.8637274549094 2.779211889887221 116.0 0.0 69.0 
618.0001502838275 535.0 NaN 611.8717434869745 2.5351704365444734 115.0 0.0 69.0 
620.0001502838275 535.0 NaN 611.8637274549094 2.675191590773563 116.0 0.0 69.0 
622.0001502838275 540.0 NaN 611.9064796259181 2.810374530075809 116.0 0.0 69.0 
624.0001502838275 547.0 NaN 611.8690714762863 2.870211686710247 116.0 0.0 69.0 
626.0001502838275 549.0 NaN 608.8122912491654 2.739680232072258 119.0 0.0 68.0 
628.0001502838275 547.0 NaN 617.9959919839682 2.5961612108609455 123.0 0.0 71.0 
630.0001502838275 545.0 NaN 621.100868403473 2.5357109800443793 123.0 0.0 72.0 
632.0001502838275 544.0 NaN 621.100868403473 2.6557684202000664 123.0 0.0 72.0 
634.0001502838275 552.0 NaN 624.1710086840349 2.80234514778921 125.0 0.0 73.0 
636.0001502838275 558.0 NaN 627.275885103541 2.9584982662978696 124.0 0.0 74.0 
638.0001502838275 561.0 NaN 633.4321977287909 2.6798539097630725 126.0 0.0 76.0 
640.0001502838275 555.0 NaN 636.5023380093509 2.662506631346518 126.0 0.0 77.0 
642.0001502838275 544.0 NaN 636.4943219772872 2.5167145449698456 125.0 0.0 77.0 
644.0001502838275 546.0 NaN 636.4542418169683 2.605810921702489 125.0 0.0 77.0 
646.0001502838275 548.0 NaN 639.5056780227127 2.5581559413813917 128.0 0.0 78.0 
648.0001502838275 553.0 NaN 645.6806947227783 2.509925297186227 132.0 0.0 80.0 
650.0001502838275 537.0 NaN 648.6867067468273 2.202257615152575 137.0 0.0 81.0 
652.0001502838275 535.0 NaN 648.6760187040738 2.38353567281312 138.0 0.0 81.0 
654.0001502838275 537.0 NaN 645.5871743486967 2.5613196490485826 139.0 0.0 80.0 
656.0001502838275 540.0 NaN 648.6840347361392 2.47392461193066 141.0 0.0 81.0 
658.0001502838275 550.0 NaN 648.6786907147634 2.4938476063234916 141.0 0.0 81.0 
660.0001502838275 548.0 NaN 648.6840347361393 2.531025333741844 145.0 0.0 81.0 
662.0001502838275 545.0 NaN 648.6706746826987 2.430442853659979 145.0 0.0 81.0 
664.0001502838275 547.0 NaN 651.7675350701408 2.5171396361286833 145.0 0.0 82.0 
#####################################################################
# End of data export. Simulation finished at: 2019-03-08T12:07+0000 #
#####################################################################
