#####################################################################
# Alchemist log file - simulation started at: 2019-03-18T11:18+0000 #
#####################################################################
# seed = 8.0, bandwidth = 1.0E8, propagationDelay = 10.0, baserange = 17.78279410038923
#
# The columns have the following meaning: 
# time neighbor_count[Sum] <value>@neighbor_count[Sum] packet_size[Mean] mean_delay[Mean] crowd[Sum] overcrowded[Sum] risk[Sum] 
0.0 NaN NaN NaN NaN NaN NaN NaN 
2.000927030832833 NaN NaN 4988.0 NaN 1497.0 0.0 1497.0 
4.000927030832833 NaN NaN 4988.0 NaN 1497.0 0.0 1497.0 
6.000198348008885 NaN NaN 4988.0 NaN 1497.0 0.0 1497.0 
8.000927030832834 NaN NaN 4988.0 NaN 1497.0 0.0 1497.0 
10.000927030832834 NaN NaN 4988.0 NaN 1497.0 0.0 1497.0 
12.000927030832834 1118.0 NaN 4993.565798263193 1.0050223744237106 1497.0 0.0 1497.0 
14.000927030832834 1118.0 NaN 4992.6786907147625 3.0050223744237106 1497.0 0.0 1497.0 
16.000198348008887 1118.0 NaN 4992.253841015364 5.002977384648659 1497.0 0.0 1497.0 
18.000927030832834 1118.0 NaN 4992.243152972612 7.005022374423711 1497.0 0.0 1497.0 
20.000927030832834 1118.0 NaN 4992.243152972612 9.00502237442371 1497.0 0.0 1497.0 
22.000927030832834 1126.0 NaN 4994.38877755511 5.481140431623318 1496.0 1.0 1496.0 
24.000927030832834 1134.0 NaN 4992.168336673347 2.1295560527392903 1496.0 1.0 1496.0 
26.000198348008887 1134.0 NaN 4991.110220440882 4.127511062964239 1496.0 1.0 1496.0 
28.000927030832834 1134.0 NaN 4991.118236472946 6.12955605273929 1496.0 1.0 1496.0 
30.000927030832834 1134.0 NaN 4991.11289245157 8.12955605273929 1496.0 1.0 1496.0 
32.000927030832834 1120.0 NaN 4991.174348697395 10.004401408033845 1496.0 1.0 1496.0 
34.000927030832834 1132.0 NaN 4993.202404809619 1.1127090870834229 1496.0 1.0 1496.0 
36.00019834800889 1132.0 NaN 4990.965931863728 3.110668270756892 1496.0 1.0 1496.0 
38.000927030832834 1132.0 NaN 4990.904475617903 5.112709087083423 1496.0 1.0 1496.0 
40.000927030832834 1132.0 NaN 4990.907147628591 7.112709087083423 1496.0 1.0 1496.0 
42.000927030832834 1127.0 NaN 4990.917835671343 9.055661332900753 1496.0 1.0 1496.0 
44.000927030832834 1135.0 NaN 4991.711422845691 5.470710691443611 1492.0 5.0 1492.0 
46.00019834800889 1148.0 NaN 4991.3560454241815 2.147165730325536 1492.0 5.0 1492.0 
48.000927030832834 1148.0 NaN 4990.663994655979 4.149202390203336 1492.0 5.0 1492.0 
50.000927030832834 1148.0 NaN 4990.658650634603 6.149202390203335 1492.0 5.0 1492.0 
52.000927030832834 1148.0 NaN 4990.677354709419 8.149202390203335 1492.0 5.0 1492.0 
54.000927030832834 1132.0 NaN 4990.725450901804 10.00245681054961 1492.0 5.0 1492.0 
56.00019834800889 1179.0 NaN 4992.0 1.2416998498514185 1490.0 7.0 1490.0 
58.000927030832834 1179.0 NaN 4991.3667334669335 3.2437282474173412 1490.0 7.0 1490.0 
60.000927030832834 1179.0 NaN 4988.203072812291 5.243728247417341 1490.0 7.0 1489.0 
62.000927030832834 1179.0 NaN 977.661990647964 7.243728247417342 486.0 6.0 182.0 
64.00092703083283 1161.0 NaN 977.661990647964 9.12266454278191 485.0 6.0 182.0 
66.0001983480089 1161.0 NaN 984.016032064127 5.672494716406267 485.0 6.0 184.0 
68.00092703083283 1178.0 NaN 989.9398797595179 2.401515972184438 488.0 6.0 186.0 
70.00092703083283 1178.0 NaN 989.7955911823633 4.4015159721844395 488.0 6.0 186.0 
72.00092703083283 1178.0 NaN 989.792919171674 6.401515972184438 488.0 6.0 186.0 
74.00092703083283 1178.0 NaN 989.7982631930547 8.40151597218444 488.0 6.0 186.0 
76.0001983480089 1126.0 NaN 989.8062792251183 9.997736918916551 485.0 6.0 186.0 
78.00092703083283 1142.0 NaN 989.9478957915817 1.3717370868589627 471.0 6.0 186.0 
80.00092703083283 1142.0 NaN 989.6887107548442 3.371737086858963 471.0 6.0 186.0 
82.00092703083283 1142.0 NaN 989.6887107548442 5.371737086858963 471.0 6.0 186.0 
84.00092703083283 1142.0 NaN 989.6913827655285 7.371737086858961 471.0 6.0 186.0 
86.0001983480089 1122.0 NaN 989.6993987975922 9.206488273463135 470.0 6.0 186.0 
88.00092703083283 1116.0 NaN 989.8463593854364 5.525470478818587 436.0 6.0 186.0 
90.00092703083283 1131.0 NaN 989.736806947227 2.2875435247915306 409.0 6.0 186.0 
92.00092703083283 1131.0 NaN 989.6406145624558 4.287543524791531 409.0 6.0 186.0 
94.00092703083283 1131.0 NaN 989.6192384769547 6.2875435247915314 409.0 6.0 186.0 
96.0001983480089 1131.0 NaN 989.6138944555805 8.285519233293556 409.0 6.0 186.0 
98.00092703083283 1102.0 NaN 989.6112224448913 10.003387465742529 408.0 6.0 186.0 
100.00092703083283 1142.0 NaN 1008.4328657314638 1.2722296225651137 377.0 6.0 192.0 
102.00092703083283 1142.0 NaN 1001.9853039412167 3.272229622565113 377.0 6.0 190.0 
104.00092703083283 1142.0 NaN 1001.9665998664003 5.2722296225651135 377.0 6.0 190.0 
106.0001983480089 1142.0 NaN 1001.9559118236452 7.270192962687313 377.0 6.0 190.0 
108.00092703083283 1128.0 NaN 1002.0013360053457 9.128118018440173 377.0 6.0 190.0 
110.00092703083283 1127.0 NaN 1002.086840347364 5.6447287017122925 368.0 6.0 190.0 
112.00092703083283 1140.0 NaN 1001.993319973282 2.459356603967927 355.0 6.0 190.0 
114.00092703083283 1140.0 NaN 1001.9024716098895 4.459356603967925 354.0 6.0 190.0 
116.0001983480089 1140.0 NaN 1001.897127588509 6.457319944090125 354.0 6.0 190.0 
118.00092703083283 1140.0 NaN 1001.9024716098895 8.459356603967924 354.0 6.0 190.0 
120.00092703083283 1085.0 NaN 998.9071476285911 10.004388141262325 351.0 6.0 189.0 
122.00092703083283 1130.0 NaN 1014.5571142284558 1.4509675072146504 341.0 6.0 194.0 
124.00092703083283 1130.0 NaN 1008.1576486305922 3.4509675072146497 339.0 6.0 192.0 
126.0001983480089 1130.0 NaN 1008.109552438209 5.448939109648727 339.0 6.0 192.0 
128.00092703083283 1130.0 NaN 1008.1336005343998 7.450967507214648 339.0 6.0 192.0 
130.00092703083283 1105.0 NaN 1005.1169004675999 9.225272849280405 335.0 6.0 191.0 
132.00092703083283 1104.0 NaN 1002.1376085504365 5.466968047990726 332.0 6.0 190.0 
134.00092703083283 1129.0 NaN 1002.0414161656635 2.3296196100999085 327.0 6.0 190.0 
136.0001983480089 1129.0 NaN 992.7775551102178 4.327591212533986 327.0 6.0 187.0 
138.00092703083283 1129.0 NaN 992.7828991315978 6.32961961009991 327.0 6.0 187.0 
140.00092703083283 1129.0 NaN 992.7882431529729 8.32961961009991 327.0 6.0 187.0 
142.00092703083283 1101.0 NaN 992.8363393453566 10.005522131316875 324.0 6.0 187.0 
144.00092703083283 1166.0 NaN 1008.5851703406819 1.3068014948245985 323.0 6.0 192.0 
146.0001983480089 1166.0 NaN 999.011356045425 3.3047689744993938 322.0 6.0 189.0 
148.00092703083283 1166.0 NaN 999.0247160988635 5.306801494824599 322.0 6.0 189.0 
150.00092703083283 1166.0 NaN 999.011356045425 7.3068014948245965 322.0 6.0 189.0 
152.00092703083283 1146.0 NaN 995.9625918503662 9.13350710678612 319.0 6.0 188.0 
154.00092703083283 1160.0 NaN 999.1315965263843 5.525276249769572 319.0 6.0 189.0 
156.0001983480089 1193.0 NaN 1002.2418169672658 2.332805488599871 319.0 6.0 190.0 
158.00092703083283 1193.0 NaN 999.0541082164343 4.334817561034479 319.0 6.0 189.0 
160.00092703083283 1193.0 NaN 999.086172344691 6.334817561034479 319.0 6.0 189.0 
162.00092703083283 1193.0 NaN 999.0674682698726 8.334817561034479 319.0 6.0 189.0 
164.00092703083283 1144.0 NaN 996.026720106882 10.00267833035297 318.0 6.0 188.0 
166.0001983480089 1190.0 NaN 1002.3914495658 1.4334698006765398 313.0 6.0 190.0 
168.00092703083283 1190.0 NaN 989.7368069472271 3.435477832805054 313.0 6.0 186.0 
170.00092703083283 1190.0 NaN 989.7474949899818 5.435477832805054 313.0 6.0 186.0 
172.00092703083283 1190.0 NaN 989.7234468937887 7.435477832805051 313.0 6.0 186.0 
174.00092703083283 1159.0 NaN 989.7394789579159 9.210719899295471 313.0 6.0 186.0 
176.0001983480089 1151.0 NaN 989.7555110220453 5.610469141924822 310.0 6.0 186.0 
178.00092703083283 1174.0 NaN 998.9792919171663 2.4087219651617118 305.0 6.0 189.0 
180.00092703083283 1174.0 NaN 992.7802271209092 4.408721965161712 305.0 6.0 187.0 
182.00092703083283 1174.0 NaN 992.7668670674702 6.408721965161711 305.0 6.0 187.0 
184.00092703083283 1174.0 NaN 992.7348029392114 8.408721965161712 305.0 6.0 187.0 
186.0001983480089 1124.0 NaN 992.7374749499 9.999926064966965 302.0 6.0 187.0 
188.00092703083283 1155.0 NaN 999.1770207080816 1.4532803523719549 299.0 6.0 189.0 
190.00092703083283 1155.0 NaN 971.3052772211092 3.453280352371954 298.0 6.0 180.0 
192.00092703083283 1155.0 NaN 971.3213092852362 5.4532803523719515 298.0 6.0 180.0 
194.00092703083283 1155.0 NaN 971.283901135603 7.453280352371954 298.0 6.0 180.0 
196.0001983480089 1136.0 NaN 971.281229124918 9.276819075308085 297.0 6.0 180.0 
198.00092703083283 1142.0 NaN 971.3453573814272 5.597758869963934 297.0 6.0 180.0 
200.00092703083283 1169.0 NaN 974.4742818971272 2.491962179026198 301.0 6.0 181.0 
202.00092703083283 1169.0 NaN 974.3780895123575 4.491962179026198 301.0 6.0 181.0 
204.00092703083283 1169.0 NaN 974.3406813627272 6.491962179026198 301.0 6.0 181.0 
206.0001983480089 1169.0 NaN 974.3353373413482 8.489966171042168 301.0 6.0 181.0 
208.00092703083283 1124.0 NaN 971.302605210421 10.001298121443348 298.0 6.0 180.0 
210.00092703083283 1171.0 NaN 983.8183032732117 1.3598795473095078 297.0 6.0 184.0 
212.00092703083283 1171.0 NaN 983.5778223112908 3.3598795473095087 297.0 6.0 184.0 
214.00092703083283 1171.0 NaN 983.556446225784 5.359879547309507 297.0 6.0 184.0 
216.0001983480089 1171.0 NaN 983.5617902471614 7.357895420325381 297.0 6.0 184.0 
218.00092703083283 1155.0 NaN 983.5724782899116 9.1977167261754 297.0 6.0 184.0 
220.00092703083283 1158.0 NaN 989.8944555778206 5.65409302184134 294.0 6.0 186.0 
222.00092703083283 1178.0 NaN 986.7762191048753 2.5279554892421534 293.0 6.0 185.0 
224.00092703083283 1178.0 NaN 986.5838343353362 4.527955489242154 292.0 6.0 185.0 
226.0001983480089 1178.0 NaN 986.5945223780909 6.525979204657175 291.0 6.0 185.0 
228.00092703083283 1178.0 NaN 983.5270541082181 8.527955489242153 291.0 6.0 184.0 
230.00092703083283 1126.0 NaN 977.434869739479 10.0013302762853 287.0 6.0 182.0 
232.00092703083283 1175.0 NaN 983.7862391449546 1.4766439896917163 281.0 7.0 183.0 
234.00092703083283 1175.0 NaN 968.2725450901817 3.476643989691716 280.0 7.0 178.0 
236.0001983480089 1175.0 NaN 968.2672010688032 5.474647981707683 280.0 7.0 178.0 
238.00092703083283 1175.0 NaN 968.261857047427 7.476643989691716 279.0 7.0 178.0 
240.00092703083283 1155.0 NaN 965.2264529058122 9.214742908339366 276.0 7.0 177.0 
242.00092703083283 1161.0 NaN 974.589178356712 5.637812979372635 273.0 10.0 177.0 
244.00092703083283 1183.0 NaN 968.4114896459571 2.5696047865365523 274.0 11.0 174.0 
246.0001983480089 1183.0 NaN 965.2371409485636 4.567612754664045 274.0 11.0 173.0 
248.00092703083283 1183.0 NaN 965.2291249165002 6.569604786536553 273.0 11.0 173.0 
250.00092703083283 1183.0 NaN 965.2291249165002 8.569604786536551 273.0 11.0 173.0 
252.00092703083283 1122.0 NaN 965.2398129592519 10.003177321066465 267.0 11.0 173.0 
254.00092703083283 1154.0 NaN 968.5317301269206 1.3596365654119043 272.0 6.0 179.0 
256.0001983480089 1154.0 NaN 965.2291249165002 3.357644533539394 271.0 6.0 178.0 
258.0009270308328 1154.0 NaN 965.2237808951245 5.359636565411905 271.0 6.0 178.0 
260.0009270308328 1154.0 NaN 965.1970607882456 7.359636565411904 270.0 6.0 178.0 
262.0009270308328 1136.0 NaN 962.1670006680027 9.22029095097652 269.0 6.0 177.0 
264.0009270308328 1138.0 NaN 965.3226452905819 5.616544624548775 270.0 6.0 178.0 
266.0001983480089 1159.0 NaN 968.4195056780211 2.5889588711458873 275.0 6.0 179.0 
268.0009270308328 1159.0 NaN 965.2371409485636 4.590931257733659 275.0 6.0 178.0 
270.0009270308328 1159.0 NaN 962.188376753509 6.590931257733658 275.0 6.0 177.0 
272.0009270308328 1159.0 NaN 962.1670006680027 8.590931257733658 275.0 6.0 177.0 
274.0009270308328 1113.0 NaN 962.169672678691 10.004368774015365 271.0 6.0 177.0 
276.0001983480089 1149.0 NaN 965.3653974615911 1.4852995629633385 278.0 6.0 178.0 
278.0009270308328 1149.0 NaN 955.9492317969273 3.487307595091853 278.0 6.0 175.0 
280.0009270308328 1149.0 NaN 955.9385437541728 5.48730759509185 278.0 6.0 175.0 
282.0009270308328 1149.0 NaN 952.8550434201726 7.48730759509185 276.0 6.0 174.0 
284.0009270308328 1127.0 NaN 952.8817635270547 9.258229659577488 275.0 6.0 174.0 
286.0001983480089 1114.0 NaN 959.158316633267 5.66642204317063 278.0 6.0 176.0 
288.0009270308328 1125.0 NaN 965.2451569806271 2.5862086846297307 277.0 6.0 178.0 
290.0009270308328 1125.0 NaN 965.0981963927849 4.586208684629731 277.0 6.0 178.0 
292.0009270308328 1125.0 NaN 965.0955243820971 6.586208684629731 275.0 6.0 178.0 
294.0009270308328 1125.0 NaN 965.0794923179697 8.586208684629732 275.0 6.0 178.0 
296.0001983480089 1078.0 NaN 965.090180360721 10.000679131272141 271.0 6.0 178.0 
298.0009270308328 1118.0 NaN 986.8804275217088 1.1972914370752057 274.0 6.0 185.0 
300.0009270308328 1118.0 NaN 983.5724782899123 3.197291437075205 274.0 6.0 184.0 
302.0009270308328 1118.0 NaN 983.5110220440877 5.197291437075204 274.0 6.0 184.0 
304.0009270308328 1118.0 NaN 980.4328657314638 7.197291437075205 274.0 6.0 183.0 
306.0001983480089 1106.0 NaN 974.321977287909 9.082164250991125 273.0 6.0 181.0 
308.0009270308328 1114.0 NaN 977.4802939211761 5.59880127704362 274.0 6.0 182.0 
310.0009270308328 1136.0 NaN 977.4428857715425 2.4725523276790757 276.0 6.0 182.0 
312.0009270308328 1136.0 NaN 961.9559118236452 4.472552327679075 276.0 6.0 177.0 
314.0009270308328 1136.0 NaN 958.8804275217088 6.472552327679075 275.0 6.0 176.0 
316.0001983480089 1136.0 NaN 958.8964595858362 8.470523930113153 274.0 6.0 176.0 
318.0009270308328 1085.0 NaN 958.9632598530401 10.000244976055006 273.0 6.0 176.0 
320.0009270308328 1135.0 NaN 965.226452905813 1.3827292914009006 279.0 6.0 178.0 
322.0009270308328 1135.0 NaN 965.0581162324636 3.3827292914009006 279.0 6.0 178.0 
324.0009270308328 1135.0 NaN 965.0367401469599 5.382729291400903 278.0 6.0 178.0 
326.0001983480089 1135.0 NaN 965.047428189713 7.380709089380701 278.0 6.0 178.0 
328.0009270308328 1114.0 NaN 965.047428189713 9.194581264343933 277.0 6.0 178.0 
330.0009270308328 1114.0 NaN 980.5637942551766 5.650877387789628 280.0 6.0 183.0 
332.0009270308328 1128.0 NaN 965.1062124248501 2.4073680783149016 277.0 6.0 178.0 
334.0009270308328 1128.0 NaN 961.9772879091504 4.407368078314902 277.0 6.0 177.0 
336.0001983480089 1128.0 NaN 961.9933199732815 6.405347876294698 277.0 6.0 177.0 
338.0009270308328 1128.0 NaN 962.0200400801596 8.407368078314903 277.0 6.0 177.0 
340.0009270308328 1090.0 NaN 961.9853039412143 9.998036314973433 274.0 6.0 177.0 
342.0009270308328 1132.0 NaN 968.3553774215089 1.4735118925138047 283.0 6.0 179.0 
344.0009270308328 1132.0 NaN 962.0013360053448 3.473511892513803 282.0 6.0 177.0 
346.0001983480089 1132.0 NaN 962.0093520374093 5.471491690493602 282.0 6.0 177.0 
348.0009270308328 1132.0 NaN 962.0146960587855 7.4735118925138035 282.0 6.0 177.0 
350.0009270308328 1110.0 NaN 962.0146960587855 9.245098101387716 279.0 6.0 177.0 
352.0009270308328 1101.0 NaN 962.1162324649312 5.750383705683275 282.0 6.0 177.0 
354.0009270308328 1113.0 NaN 959.0434201736821 2.63310327087942 280.0 6.0 176.0 
356.0001983480089 1113.0 NaN 955.9251837007355 4.631049882789073 279.0 6.0 175.0 
358.0009270308328 1113.0 NaN 955.9144956579818 6.633103270879421 279.0 6.0 175.0 
360.0009270308328 1113.0 NaN 949.7688710754857 8.633103270879422 277.0 6.0 173.0 
362.0009270308328 1059.0 NaN 946.7067468269862 10.001715335563304 269.0 6.0 172.0 
364.0009270308328 1091.0 NaN 959.2064128256505 1.2954353170428403 274.0 6.0 176.0 
366.0001983480089 1091.0 NaN 949.8036072144276 3.2933432668336358 274.0 6.0 173.0 
368.0009270308328 1091.0 NaN 946.7281229124908 5.29543531704284 273.0 6.0 172.0 
370.0009270308328 1091.0 NaN 946.663994655978 7.295435317042842 273.0 6.0 172.0 
372.0009270308328 1077.0 NaN 946.6773547094181 9.169681367233412 269.0 6.0 172.0 
374.0009270308328 1086.0 NaN 952.943219772878 5.613478772811942 272.0 6.0 174.0 
376.0001983480089 1109.0 NaN 943.7568470273872 2.360962954719659 272.0 6.0 171.0 
378.0009270308328 1109.0 NaN 931.356045424182 4.363029070422138 271.0 6.0 167.0 
380.0009270308328 1109.0 NaN 931.3694054776229 6.363029070422137 271.0 6.0 167.0 
382.0009270308328 1109.0 NaN 928.3019372077503 8.363029070422138 270.0 6.0 166.0 
384.0009270308328 1075.0 NaN 928.3286573146281 9.998988177773137 268.0 6.0 166.0 
386.0001983480089 1104.0 NaN 931.5457581830316 1.6400477812927599 267.0 6.0 167.0 
388.0009270308328 1104.0 NaN 916.0053440213765 3.6421181746675018 265.0 6.0 162.0 
390.0009270308328 1104.0 NaN 916.0160320641271 5.6421181746675035 265.0 6.0 162.0 
392.0009270308328 1104.0 NaN 915.9946559786235 7.642118174667501 264.0 6.0 162.0 
394.0009270308328 1075.0 NaN 915.9946559786235 9.364012479527746 262.0 6.0 162.0 
396.0001983480089 1074.0 NaN 919.1503006012038 5.524164513886773 262.0 6.0 163.0 
398.0009270308328 1103.0 NaN 922.247160988645 2.3449326971549422 260.0 6.0 164.0 
400.0009270308328 1103.0 NaN 919.0941883767548 4.344932697154942 259.0 6.0 163.0 
402.0009270308328 1103.0 NaN 915.997327989313 6.344932697154942 258.0 6.0 162.0 
404.0009270308328 1103.0 NaN 915.9759519038086 8.344932697154942 258.0 6.0 162.0 
406.0001983480089 1063.0 NaN 915.997327989313 10.000399918994068 257.0 6.0 162.0 
408.0009270308328 1123.0 NaN 925.4161656646639 1.6462455437421608 259.0 6.0 165.0 
410.0009270308328 1123.0 NaN 912.9592518370089 3.646245543742162 259.0 6.0 161.0 
412.0009270308328 1123.0 NaN 912.943219772878 5.646245543742163 259.0 6.0 161.0 
414.0009270308328 1123.0 NaN 909.851703406814 7.646245543742164 258.0 6.0 160.0 
416.0001983480089 1097.0 NaN 906.810955243822 9.326332259684607 257.0 6.0 159.0 
418.0009270308328 1089.0 NaN 906.923179692718 5.657456443787088 260.0 6.0 159.0 
420.0009270308328 1105.0 NaN 909.9692718770867 2.6326064567216076 259.0 6.0 160.0 
422.0009270308328 1105.0 NaN 906.8350033400133 4.63260645672161 258.0 6.0 159.0 
424.0009270308328 1105.0 NaN 906.8136272545091 6.632606456721609 258.0 6.0 159.0 
426.0001983480089 1105.0 NaN 906.808283233132 8.63054034101913 257.0 6.0 159.0 
428.0009270308328 1053.0 NaN 903.7301269205088 10.001015432485707 251.0 6.0 158.0 
430.0009270308328 1103.0 NaN 919.2625250500998 1.4301087758939888 256.0 6.0 163.0 
432.0009270308328 1103.0 NaN 915.9732798931183 3.430108775893989 256.0 6.0 162.0 
434.0009270308328 1103.0 NaN 912.8924515698052 5.43010877589399 255.0 6.0 161.0 
436.0001983480089 1103.0 NaN 912.8977955911815 7.42804266019151 255.0 6.0 161.0 
438.0009270308328 1083.0 NaN 912.9111556446223 9.225480215391073 255.0 6.0 161.0 
440.0009270308328 1090.0 NaN 916.0507682030727 5.643119944940449 255.0 6.0 162.0 
442.0009270308328 1119.0 NaN 925.2745490981956 2.559440001865748 254.0 6.0 165.0 
444.0009270308328 1119.0 NaN 915.9519038076141 4.5594400018657435 252.0 6.0 162.0 
446.0001983480089 1119.0 NaN 915.9519038076141 6.557369608491003 252.0 6.0 162.0 
448.0009270308328 1119.0 NaN 915.9679358717452 8.559440001865747 252.0 6.0 162.0 
450.0009270308328 1081.0 NaN 915.9625918503681 10.000302393654481 249.0 6.0 162.0 
452.0009270308328 1128.0 NaN 934.6346025384089 1.41592257956527 254.0 6.0 168.0 
454.0009270308328 1128.0 NaN 931.3266533066134 3.41592257956527 254.0 6.0 167.0 
456.0001983480089 1128.0 NaN 931.302605210422 5.413839246231938 254.0 6.0 167.0 
458.0009270308328 1128.0 NaN 928.2645290581179 7.41592257956527 253.0 6.0 166.0 
460.0009270308328 1102.0 NaN 928.2271209084821 9.256006552111165 253.0 6.0 166.0 
462.0009270308328 1098.0 NaN 928.2992651970598 5.6551807133424274 256.0 6.0 166.0 
464.0009270308328 1123.0 NaN 925.2772211088857 2.5953622887489454 258.0 6.0 165.0 
466.0001983480089 1123.0 NaN 922.0975283901133 4.593325628871144 258.0 6.0 164.0 
468.0009270308328 1123.0 NaN 922.1028724114906 6.595362288748943 258.0 6.0 164.0 
470.0009270308328 1123.0 NaN 922.0921843687361 8.595362288748944 258.0 6.0 164.0 
472.0009270308328 1069.0 NaN 922.1028724114906 9.998463079058094 256.0 6.0 164.0 
474.0009270308328 1094.0 NaN 937.6325985303943 1.5191637123020072 259.0 6.0 169.0 
476.0001983480089 1094.0 NaN 928.2084168336679 3.517093318927263 256.0 6.0 166.0 
478.0009270308328 1094.0 NaN 928.2244488977957 5.519163712302007 255.0 6.0 166.0 
480.0009270308328 1094.0 NaN 928.1897127588502 7.519163712302005 255.0 6.0 166.0 
482.0009270308328 1071.0 NaN 925.1943887775544 9.259435177990348 254.0 6.0 165.0 
484.0009270308328 1075.0 NaN 928.2511690046767 5.609856675109921 258.0 6.0 166.0 
486.0001983480089 1100.0 NaN 934.4609218436867 2.4981532964782773 256.0 6.0 168.0 
488.0009270308328 1100.0 NaN 931.3052772211092 4.500219412180757 256.0 6.0 167.0 
490.0009270308328 1100.0 NaN 931.2919171676684 6.500219412180758 256.0 6.0 167.0 
492.0009270308328 1100.0 NaN 931.2651970607869 8.500219412180758 256.0 6.0 167.0 
494.0009270308328 1051.0 NaN 931.3213092852362 10.001587423741592 253.0 6.0 167.0 
496.0001983480089 1083.0 NaN 934.5384101536406 1.3376448148627795 256.0 6.0 168.0 
498.0009270308328 1083.0 NaN 922.0975283901134 3.339741250921481 255.0 6.0 164.0 
500.0009270308328 1083.0 NaN 922.076152304609 5.339741250921481 255.0 6.0 164.0 
502.0009270308328 1083.0 NaN 919.0086840347365 7.33974125092148 254.0 6.0 163.0 
504.0009270308328 1067.0 NaN 919.0460921843681 9.155055947548885 254.0 6.0 163.0 
506.0001983480089 1073.0 NaN 919.1315965263864 5.604085260938246 256.0 6.0 163.0 
508.0009270308328 1096.0 NaN 916.0213760855046 2.3685000549750557 259.0 6.0 162.0 
510.0009270308328 1096.0 NaN 915.9358717434864 4.368500054975057 259.0 6.0 162.0 
512.0009270308328 1096.0 NaN 912.8657314629269 6.368500054975057 259.0 6.0 161.0 
514.0009270308328 1096.0 NaN 912.8871075484313 8.368500054975055 259.0 6.0 161.0 
516.0001983480089 1063.0 NaN 909.7955911823635 9.996443908548917 254.0 6.0 160.0 
518.0009270308328 1091.0 NaN 909.9933199732814 1.4076005660633186 252.0 6.0 160.0 
520.0009270308328 1091.0 NaN 900.5985303941229 3.407600566063318 249.0 6.0 157.0 
522.0009270308328 1091.0 NaN 894.4662658650636 5.407600566063319 249.0 6.0 155.0 
524.0009270308328 1091.0 NaN 894.4609218436863 7.407600566063318 250.0 6.0 155.0 
526.0001983480089 1075.0 NaN 894.4368737474956 9.219890275425525 249.0 6.0 155.0 
528.0009270308328 1068.0 NaN 897.5764863059455 5.7143411788192 248.0 6.0 156.0 
530.0009270308328 1085.0 NaN 888.3847695390773 2.5707417141567723 246.0 6.0 153.0 
532.0009270308328 1085.0 NaN 879.096860387441 4.570741714156772 245.0 6.0 150.0 
534.0009270308328 1085.0 NaN 879.096860387441 6.57074171415677 245.0 6.0 150.0 
536.0001983480089 1085.0 NaN 879.0835003340014 8.56865838082344 247.0 6.0 150.0 
538.0009270308328 1029.0 NaN 879.1449565798271 9.999203020716488 244.0 6.0 150.0 
540.0009270308328 1070.0 NaN 888.5023380093519 1.5241930639749734 242.0 6.0 153.0 
542.0009270308328 1070.0 NaN 882.2124248497 3.524193063974973 241.0 6.0 151.0 
544.0009270308328 1070.0 NaN 879.128924515698 5.524193063974972 241.0 6.0 150.0 
546.0001983480089 1070.0 NaN 879.1262525050095 7.522131208304872 241.0 6.0 150.0 
548.0009270308328 1052.0 NaN 879.1476285905138 9.272097890566371 241.0 6.0 150.0 
550.0009270308328 1053.0 NaN 882.3139612558455 5.480800669254929 241.0 7.0 150.0 
552.0009270308328 1072.0 NaN 885.298597194389 2.2731075404654155 239.0 6.0 152.0 
554.0009270308328 1072.0 NaN 885.2371409485636 4.273107540465416 239.0 6.0 152.0 
556.0001983480089 1072.0 NaN 885.2130928523712 6.271045684795313 239.0 6.0 152.0 
558.0009270308328 1072.0 NaN 885.2184368737472 8.273107540465416 239.0 6.0 152.0 
560.0009270308328 1049.0 NaN 885.2291249165 10.000737669368917 239.0 6.0 152.0 
562.0009270308328 1091.0 NaN 885.4268537074151 1.5513051072312627 245.0 6.0 152.0 
564.0009270308328 1091.0 NaN 882.2231128924517 3.551305107231263 245.0 6.0 151.0 
566.0001983480089 1091.0 NaN 882.2124248497 5.54927258690606 245.0 6.0 151.0 
568.0009270308328 1091.0 NaN 882.2204408817637 7.551305107231263 245.0 6.0 151.0 
570.0009270308328 1063.0 NaN 882.2284569138274 9.30118561783164 245.0 6.0 151.0 
572.0009270308328 1063.0 NaN 894.6078824315299 5.566693094532061 244.0 6.0 155.0 
574.0009270308328 1091.0 NaN 891.5698062792254 2.5031407212968966 245.0 6.0 154.0 
576.0001983480089 1091.0 NaN 888.3607214428863 4.501124592264639 244.0 6.0 153.0 
578.0009270308328 1091.0 NaN 888.379425517702 6.503140721296895 244.0 6.0 153.0 
580.0009270308328 1091.0 NaN 888.3580494321981 8.503140721296898 244.0 6.0 153.0 
582.0009270308328 1046.0 NaN 888.36873747495 10.00407008891263 241.0 6.0 153.0 
584.0009270308328 1103.0 NaN 897.8730794923182 1.6292560303181367 244.0 6.0 156.0 
586.0001983480089 1103.0 NaN 894.5170340681364 3.627252022302105 243.0 6.0 155.0 
588.0009270308328 1103.0 NaN 894.5544422177683 5.629256030318135 243.0 6.0 155.0 
590.0009270308328 1103.0 NaN 894.5277221108881 7.6292560303181345 243.0 6.0 155.0 
592.0009270308328 1075.0 NaN 894.5277221108881 9.322383236000446 243.0 6.0 155.0 
594.0009270308328 1077.0 NaN 897.7020708082831 5.56156225157077 245.0 6.0 156.0 
596.0001983480089 1103.0 NaN 906.912491649967 2.4259191950795067 248.0 6.0 159.0 
598.0009270308328 1103.0 NaN 897.6325985303941 4.4279558549573075 248.0 6.0 156.0 
600.0009270308328 1103.0 NaN 897.5898463593862 6.4279558549573075 248.0 6.0 156.0 
602.0009270308328 1103.0 NaN 897.59786239145 8.427955854957306 247.0 6.0 156.0 
604.0009270308328 1056.0 NaN 897.6325985303941 10.002384020582712 246.0 6.0 156.0 
606.0001983480089 1108.0 NaN 913.2077488309956 1.6010248444144874 251.0 6.0 161.0 
608.0009270308328 1108.0 NaN 906.837675350701 3.6030450464346897 250.0 6.0 159.0 
610.0009270308328 1108.0 NaN 906.7949231796922 5.603045046434689 250.0 6.0 159.0 
612.0009270308328 1108.0 NaN 906.8002672010682 7.603045046434688 250.0 6.0 159.0 
614.0009270308328 1081.0 NaN 903.7167668670681 9.337868771885223 246.0 6.0 158.0 
616.0001983480089 1079.0 NaN 913.0287241148956 5.600588040002435 249.0 6.0 161.0 
618.0009270308328 1109.0 NaN 922.2952571810283 2.4418448122912615 255.0 6.0 164.0 
620.0009270308328 1109.0 NaN 922.1670006680034 4.4418448122912615 255.0 6.0 164.0 
622.0009270308328 1109.0 NaN 919.107548430194 6.4418448122912615 255.0 6.0 163.0 
624.0009270308328 1109.0 NaN 916.0694722778896 8.441844812291261 254.0 6.0 162.0 
626.0001983480089 1067.0 NaN 916.0374081496318 9.997420309124935 254.0 6.0 162.0 
628.0009270308328 1131.0 NaN 943.9492317969273 1.700091149117664 262.0 6.0 171.0 
630.0009270308328 1131.0 NaN 931.3827655310633 3.700091149117663 262.0 6.0 167.0 
632.0009270308328 1131.0 NaN 928.3019372077501 5.700091149117666 261.0 6.0 166.0 
634.0009270308328 1131.0 NaN 928.3019372077501 7.700091149117666 261.0 6.0 166.0 
636.0001983480089 1096.0 NaN 928.2832331329317 9.386526460803301 261.0 6.0 166.0 
638.0009270308328 1096.0 NaN 934.551770207082 5.695571019339111 264.0 6.0 168.0 
640.0009270308328 1140.0 NaN 940.774883099532 2.7091525984903804 266.0 6.0 170.0 
642.0009270308328 1140.0 NaN 940.6680026720093 4.70915259849038 266.0 6.0 170.0 
644.0009270308328 1140.0 NaN 940.6653306613225 6.70915259849038 266.0 6.0 170.0 
646.0001983480089 1140.0 NaN 940.6305945223775 8.70711593861258 265.0 6.0 170.0 
648.0009270308328 1069.0 NaN 940.6760187040729 9.999537588340381 262.0 6.0 170.0 
650.0009270308328 1145.0 NaN 974.7067468269876 1.728747376133336 272.0 6.0 181.0 
652.0009270308328 1145.0 NaN 971.3961255845031 3.728747376133336 272.0 6.0 180.0 
654.0009270308328 1145.0 NaN 971.3961255845031 5.728747376133335 272.0 6.0 180.0 
656.0001983480089 1145.0 NaN 971.3613894455577 7.726689762964609 272.0 6.0 180.0 
658.0009270308328 1104.0 NaN 971.4495657982637 9.40185288409158 271.0 6.0 180.0 
660.0009270308328 1093.0 NaN 980.7267869071454 5.535517513777628 272.0 6.0 183.0 
662.0009270308328 1124.0 NaN 986.8964595858364 2.564097265532707 275.0 6.0 185.0 
664.0009270308328 1124.0 NaN 980.6332665330666 4.564097265532706 274.0 6.0 183.0 
#####################################################################
# End of data export. Simulation finished at: 2019-03-18T11:32+0000 #
#####################################################################
