#####################################################################
# Alchemist log file - simulation started at: 2019-03-06T19:27+0000 #
#####################################################################
# seed = 4.0, bandwidth = 1333521.4321633242, propagationDelay = 0.0031622776601683794, baserange = 177.82794100389228
#
# The columns have the following meaning: 
# time neighbor_count[Sum] <value>@neighbor_count[Sum] packet_size[Mean] mean_delay[Mean] crowd[Sum] overcrowded[Sum] risk[Sum] 
0.0 NaN NaN NaN NaN NaN NaN NaN 
2.0003309634185875 26544.0 NaN 4996.0 0.5007630988704208 1497.0 0.0 1497.0 
4.0003309634185875 26548.0 NaN 4994.965931863728 0.5007801335992996 1496.0 1.0 1496.0 
6.0003309634185875 26548.0 NaN 4994.16967267869 0.5007801500199909 1496.0 1.0 1496.0 
8.000330963418588 26552.0 NaN 4994.690714762859 0.5007810913867563 1495.0 2.0 1495.0 
10.000330963418588 26556.0 NaN 4995.190380761523 0.5008097982951611 1496.0 1.0 1496.0 
12.000330963418588 26558.0 NaN 4994.559786239145 0.5008920898418605 1496.0 1.0 1496.0 
14.000330963418588 26554.0 NaN 4994.108216432865 0.5007745022253615 1497.0 0.0 1497.0 
16.000330963418588 26568.0 NaN 4994.396793587174 0.5010984886798653 1497.0 0.0 1497.0 
18.000330963418588 26572.0 NaN 4994.762859051436 0.5016080697686468 1497.0 0.0 1497.0 
20.000330963418588 26576.0 NaN 4995.61790247161 0.5032529930314561 1497.0 0.0 1497.0 
22.000330963418588 26567.0 NaN 4994.869739478958 0.5005666157449953 1496.0 1.0 1496.0 
24.000330963418588 26566.0 NaN 4994.669338677355 0.5004918666228869 1496.0 1.0 1496.0 
26.000330963418588 26609.0 NaN 4994.733466933868 0.5021757215923759 1496.0 1.0 1496.0 
28.000330963418588 26607.0 NaN 4995.625918503674 0.5016215158402505 1496.0 1.0 1496.0 
30.000330963418588 26604.0 NaN 4995.778223112892 0.5006588195135848 1497.0 0.0 1497.0 
32.00033096341859 26614.0 NaN 4995.190380761523 0.5032076556755735 1497.0 0.0 1497.0 
34.00033096341859 26609.0 NaN 4994.394121576486 0.5027219455846661 1497.0 0.0 1497.0 
36.00033096341859 26645.0 NaN 4994.725450901804 0.5020867862444532 1496.0 1.0 1496.0 
38.00033096341859 26630.0 NaN 4995.048764195057 0.5019249201716298 1495.0 2.0 1495.0 
40.00033096341859 26632.0 NaN 4996.101536406146 0.5016203384709553 1496.0 1.0 1496.0 
42.00033096341859 26625.0 NaN 4995.198396793588 0.5017202510742444 1496.0 1.0 1496.0 
44.00033096341859 26625.0 NaN 4994.746826987308 0.5032502065033989 1495.0 2.0 1495.0 
46.00033096341859 26667.0 NaN 4994.530394121576 0.5018702882371482 1496.0 1.0 1496.0 
48.00033096341859 26672.0 NaN 4995.182364729459 0.5023404963848306 1495.0 2.0 1495.0 
50.00033096341859 26664.0 NaN 4995.74081496326 0.5018355704561903 1495.0 2.0 1495.0 
52.00033096341859 26651.0 NaN 4995.3453573814295 0.503752785060921 1495.0 2.0 1495.0 
54.00033096341859 26640.0 NaN 4994.60788243153 0.5005967802456969 1496.0 1.0 1496.0 
56.00033096341859 26664.0 NaN 4995.147628590515 0.5017064573374722 1496.0 1.0 1496.0 
58.00033096341859 26650.0 NaN 4995.230460921844 0.5022610157805165 1497.0 0.0 1497.0 
60.00033096341859 26648.0 NaN 4995.756847027388 0.5018166308054732 1497.0 0.0 1497.0 
62.000054009228315 26649.0 NaN 1522.3299933199726 0.5029149581790903 773.0 0.0 365.0 
64.00005400922832 26647.0 NaN 1522.3861055444213 0.5002673377716429 618.0 1.0 364.0 
66.00005400922832 26692.0 NaN 1525.3520374081486 0.50097695992484 583.0 2.0 364.0 
68.00005400922832 26715.0 NaN 1525.6058784235122 0.5011711075748354 549.0 1.0 365.0 
70.00005400922832 26726.0 NaN 1525.5310621242481 0.5021159186084784 533.0 2.0 364.0 
72.00005400922832 26759.0 NaN 1528.8176352705425 0.5033348371353706 530.0 3.0 364.0 
74.00005400922832 26750.0 NaN 1531.7862391449548 0.5005145613295494 525.0 5.0 363.0 
76.00005400922832 26769.0 NaN 1531.8530394121572 0.5008561918094342 525.0 6.0 362.0 
78.00005400922832 26786.0 NaN 1534.8991315965272 0.5016522948482671 526.0 3.0 366.0 
80.00005400922832 26784.0 NaN 1538.0066800267184 0.502132228025041 528.0 1.0 369.0 
82.00005400922832 26791.0 NaN 1537.9505678022724 0.5050949129539687 528.0 1.0 369.0 
84.00005400922832 26772.0 NaN 1537.9425517702089 0.5039059781607392 530.0 0.0 370.0 
86.00005400922832 26770.0 NaN 1537.9826319305273 0.5009287869783154 528.0 0.0 370.0 
88.00005400922832 26777.0 NaN 1537.987975951903 0.5013053440678926 527.0 1.0 369.0 
90.00005400922832 26796.0 NaN 1537.979959919839 0.5011827888493109 527.0 1.0 369.0 
92.00005400922832 26801.0 NaN 1537.9719438877753 0.5064003252537954 526.0 2.0 368.0 
94.00005400922832 26743.0 NaN 1537.9345357381428 0.501391706629822 528.0 0.0 370.0 
96.00005400922832 26751.0 NaN 1538.0494321977276 0.5011365177353848 528.0 0.0 370.0 
98.00005400922832 26764.0 NaN 1537.9906479625909 0.5018330566468555 528.0 0.0 370.0 
100.00005400922832 26764.0 NaN 1541.0581162324638 0.501323742974979 527.0 1.0 370.0 
102.00005400922832 26755.0 NaN 1541.0634602538419 0.504523230912359 527.0 1.0 370.0 
104.00005400922832 26716.0 NaN 1541.0501002003998 0.5010381698458218 526.0 2.0 369.0 
106.00005400922832 26746.0 NaN 1541.13293253173 0.5024986929709426 526.0 2.0 369.0 
108.00005400922832 26793.0 NaN 1541.1623246492998 0.5020842160177627 526.0 2.0 369.0 
110.00005400922832 26805.0 NaN 1541.2024048096182 0.5019993629541286 526.0 2.0 369.0 
112.00005400922832 26771.0 NaN 1541.167668670673 0.5052301083347945 526.0 2.0 369.0 
114.00005400922832 26746.0 NaN 1541.0046760187029 0.5021430520593905 528.0 0.0 371.0 
116.00005400922832 26747.0 NaN 1541.0260521042092 0.5018648738150622 528.0 1.0 370.0 
118.00005400922832 26758.0 NaN 1547.1369405477635 0.5027467284520594 530.0 0.0 373.0 
120.00005400922832 26757.0 NaN 1550.2391449565816 0.5033793226893358 530.0 0.0 374.0 
122.00005400922832 26707.0 NaN 1550.1750167000664 0.5035193271618119 530.0 0.0 374.0 
124.00005400922832 26674.0 NaN 1550.1910487641937 0.5014312689957987 530.0 0.0 374.0 
126.00005400922832 26691.0 NaN 1550.2818971275885 0.5023034483831875 529.0 1.0 373.0 
128.0000540092283 26683.0 NaN 1547.2812291249181 0.5039034559604733 528.0 2.0 371.0 
130.0000540092283 26670.0 NaN 1547.3319973279908 0.502813872129276 527.0 2.0 371.0 
132.0000540092283 26672.0 NaN 1544.2404809619243 0.5032406977516541 526.0 1.0 371.0 
134.0000540092283 26656.0 NaN 1541.119572478291 0.5025170793902557 527.0 0.0 371.0 
136.0000540092283 26658.0 NaN 1541.0981963927848 0.5023802658647387 526.0 0.0 371.0 
138.0000540092283 26637.0 NaN 1544.2511690046756 0.5016020800914454 525.0 0.0 372.0 
140.0000540092283 26667.0 NaN 1541.1382765531064 0.5036021574764359 524.0 0.0 371.0 
142.0000540092283 26680.0 NaN 1547.3159652638608 0.5039711666196486 524.0 0.0 373.0 
144.0000540092283 26647.0 NaN 1550.2952571810274 0.5015561632185769 526.0 0.0 374.0 
146.0000540092283 26632.0 NaN 1547.3667334669337 0.5016018894113737 525.0 0.0 373.0 
148.0000540092283 26639.0 NaN 1553.5551102204392 0.5017679704508792 523.0 1.0 374.0 
150.0000540092283 26657.0 NaN 1553.5631262525062 0.501836956375471 521.0 2.0 373.0 
152.0000540092283 26652.0 NaN 1550.5170340681366 0.5021652080583797 523.0 1.0 373.0 
154.0000540092283 26637.0 NaN 1544.3446893787573 0.5018507436312664 521.0 0.0 372.0 
156.0000540092283 26636.0 NaN 1544.4061456245815 0.503692050141535 520.0 0.0 372.0 
158.0000540092283 26614.0 NaN 1544.2885771543092 0.5034095495375742 520.0 1.0 371.0 
160.0000540092283 26641.0 NaN 1544.2004008016027 0.503119642609554 520.0 2.0 370.0 
162.0000540092283 26606.0 NaN 1544.1870407481638 0.504288995596935 518.0 3.0 369.0 
164.0000540092283 26546.0 NaN 1544.269873079491 0.5030872885058927 520.0 0.0 372.0 
166.0000540092283 26548.0 NaN 1544.3366733466933 0.5024620030483169 519.0 0.0 372.0 
168.0000540092283 26544.0 NaN 1544.2618570474272 0.5036677206879734 519.0 0.0 372.0 
170.0000540092283 26556.0 NaN 1544.2778891115547 0.5022600695893494 520.0 0.0 372.0 
172.0000540092283 26534.0 NaN 1544.2110888443544 0.503692916550053 520.0 0.0 372.0 
174.0000540092283 26507.0 NaN 1538.142952571809 0.5016658120723989 517.0 2.0 368.0 
176.0000540092283 26514.0 NaN 1541.239812959252 0.5018849909015284 518.0 2.0 369.0 
178.0000540092283 26513.0 NaN 1541.2718770875092 0.5039390362197794 514.0 6.0 365.0 
180.0000540092283 26512.0 NaN 1541.2184368737455 0.5026644715297511 513.0 8.0 363.0 
182.0000540092283 26478.0 NaN 1538.1723446893793 0.5051915748248111 513.0 5.0 365.0 
184.0000540092283 26439.0 NaN 1538.094856379427 0.504877404127675 514.0 5.0 365.0 
186.0000540092283 26440.0 NaN 1541.1943887775544 0.5025040246454641 513.0 5.0 366.0 
188.0000540092283 26438.0 NaN 1538.092184368736 0.5042380867429641 514.0 4.0 366.0 
190.0000540092283 26438.0 NaN 1535.088844355379 0.5023984295076431 513.0 5.0 364.0 
192.0000540092283 26415.0 NaN 1538.1990647962602 0.502776398144493 513.0 4.0 366.0 
194.0000540092283 26377.0 NaN 1538.1616566466275 0.506643468148772 512.0 5.0 365.0 
196.0000540092283 26363.0 NaN 1538.1563126252515 0.5032515732233283 514.0 4.0 366.0 
198.0000540092283 26351.0 NaN 1538.1616566466275 0.5028415517916145 512.0 5.0 365.0 
200.0000540092283 26347.0 NaN 1538.1456245824997 0.505724583849024 513.0 5.0 365.0 
202.0000540092283 26318.0 NaN 1544.2618570474272 0.501909173176896 513.0 5.0 367.0 
204.0000540092283 26298.0 NaN 1547.3293253173001 0.5015904245580847 515.0 5.0 368.0 
206.0000540092283 26305.0 NaN 1544.2378089512365 0.5063227978010296 513.0 5.0 367.0 
208.0000540092283 26284.0 NaN 1538.1028724114908 0.5033625336812728 513.0 6.0 364.0 
210.0000540092283 26260.0 NaN 1535.0033400133607 0.5060239875274039 511.0 5.0 364.0 
212.0000540092283 26235.0 NaN 1538.1295925183701 0.5026839816340842 513.0 5.0 365.0 
214.0000540092283 26208.0 NaN 1541.111556446227 0.5066165560861262 512.0 5.0 366.0 
216.0000540092283 26216.0 NaN 1538.1723446893793 0.5062473841542063 512.0 5.0 365.0 
218.0000540092283 26188.0 NaN 1538.1670006680026 0.5034921836529992 508.0 5.0 365.0 
220.0000540092283 26179.0 NaN 1538.193720774882 0.5054042351730136 509.0 5.0 365.0 
222.0000540092283 26143.0 NaN 1535.0701402805612 0.5038920112086339 508.0 5.0 364.0 
224.0000540092283 26104.0 NaN 1535.0460921843699 0.5049636171760741 510.0 4.0 365.0 
226.0000540092283 26098.0 NaN 1538.0681362725456 0.5024716615513246 508.0 5.0 365.0 
228.0000540092283 26079.0 NaN 1544.1843687374726 0.5024919777564844 512.0 4.0 368.0 
230.0000540092283 26062.0 NaN 1544.2351369405455 0.5045097635994253 510.0 5.0 367.0 
232.0000540092283 26036.0 NaN 1544.3340013360064 0.5037898430861985 511.0 4.0 368.0 
234.0000540092283 26013.0 NaN 1547.3881095524364 0.5025431312141537 509.0 5.0 368.0 
236.0000540092283 26017.0 NaN 1541.2745490981972 0.5029855862477187 510.0 4.0 367.0 
238.0000540092283 25998.0 NaN 1541.2024048096182 0.5024698517691365 508.0 5.0 366.0 
240.0000540092283 26037.0 NaN 1538.1135604542428 0.5110471261933932 510.0 4.0 366.0 
242.0000540092283 26010.0 NaN 1534.9953239812971 0.5032202432891889 507.0 5.0 364.0 
244.0000540092283 25972.0 NaN 1534.9926519706091 0.5020274492814576 510.0 5.0 364.0 
246.0000540092283 25985.0 NaN 1535.0754843019363 0.503418979659537 509.0 5.0 364.0 
248.0000540092283 25966.0 NaN 1535.083500334 0.5057029341686031 509.0 5.0 364.0 
250.0000540092283 25942.0 NaN 1535.1075484301934 0.5029879013794771 509.0 5.0 364.0 
252.0000540092283 25925.0 NaN 1531.9679358717453 0.5039165983687742 510.0 4.0 364.0 
254.0000540092283 25895.0 NaN 1528.876419505679 0.5020991119602111 507.0 5.0 362.0 
256.00005400922834 25898.0 NaN 1528.9352037408155 0.5040805910168755 511.0 4.0 363.0 
258.00005400922834 25850.0 NaN 1528.9405477621908 0.5047632597686349 509.0 5.0 362.0 
260.00005400922834 25820.0 NaN 1528.8871075484299 0.5026197069596429 512.0 4.0 363.0 
262.00005400922834 25816.0 NaN 1528.8951235804939 0.5041070380579824 510.0 5.0 362.0 
264.00005400922834 25777.0 NaN 1528.9378757515026 0.5026204157168439 511.0 5.0 362.0 
266.00005400922834 25782.0 NaN 1544.3794255177 0.5038654186244518 508.0 5.0 367.0 
268.00005400922834 25727.0 NaN 1544.283233132934 0.504355212642383 509.0 5.0 367.0 
270.00005400922834 25725.0 NaN 1541.2985971943908 0.5047158498049347 508.0 5.0 366.0 
272.00005400922834 25658.0 NaN 1535.0567802271207 0.5036596019071619 508.0 5.0 364.0 
274.00005400922834 25625.0 NaN 1535.0327321309273 0.5021214104172355 506.0 5.0 364.0 
276.00005400922834 25655.0 NaN 1538.132264529057 0.5037701858519146 509.0 5.0 365.0 
278.00005400922834 25638.0 NaN 1541.0981963927843 0.5026867178630493 506.0 6.0 365.0 
280.00005400922834 25645.0 NaN 1540.9913159652635 0.5041842618606751 509.0 6.0 365.0 
282.00005400922834 25665.0 NaN 1540.9752839011364 0.5059096252857407 510.0 6.0 365.0 
284.00005400922834 25624.0 NaN 1534.8670674682705 0.5022214610824607 510.0 6.0 363.0 
286.00005400922834 25662.0 NaN 1535.0033400133611 0.5037104675045464 509.0 5.0 364.0 
288.00005400922834 25624.0 NaN 1534.9151636606543 0.50337117191506 509.0 5.0 364.0 
290.00005400922834 25600.0 NaN 1531.9545758183026 0.5059254130388392 505.0 5.0 363.0 
292.00005400922834 25605.0 NaN 1531.9198396793572 0.5057980725977407 507.0 5.0 363.0 
294.00005400922834 25548.0 NaN 1538.0841683366725 0.5021563374553755 506.0 5.0 365.0 
296.00005400922834 25580.0 NaN 1538.0547762191068 0.5022619214321583 506.0 6.0 364.0 
298.00005400922834 25561.0 NaN 1541.119572478291 0.5023629677561677 506.0 5.0 366.0 
300.00005400922834 25536.0 NaN 1541.0340681362727 0.5013667154276582 506.0 5.0 366.0 
302.00005400922834 25539.0 NaN 1538.0734802939207 0.5043298338263041 505.0 5.0 365.0 
304.00005400922834 25505.0 NaN 1537.977287909152 0.5036160761073692 504.0 5.0 365.0 
306.00005400922834 25516.0 NaN 1535.0754843019363 0.5033927116136747 504.0 5.0 364.0 
308.00005400922834 25475.0 NaN 1531.9465597862386 0.5053246156922182 504.0 5.0 363.0 
310.00005400922834 25455.0 NaN 1531.943887775552 0.5029394149421857 502.0 5.0 363.0 
312.00005400922834 25441.0 NaN 1534.925851703409 0.5035327390750688 507.0 2.0 367.0 
314.00005400922834 25415.0 NaN 1534.907147628591 0.5033766199946361 509.0 2.0 367.0 
316.00005400922834 25421.0 NaN 1534.8483633934547 0.5056455182546841 510.0 2.0 367.0 
318.00005400922834 25375.0 NaN 1534.9498997996002 0.5031924680148073 508.0 2.0 367.0 
320.00005400922834 25377.0 NaN 1534.8643954575818 0.5033494418392905 509.0 1.0 368.0 
322.00005400922834 25371.0 NaN 1531.9599198396795 0.5038197823245353 507.0 2.0 366.0 
324.00005400922834 25339.0 NaN 1531.8102872411484 0.5032597895332436 509.0 0.0 368.0 
326.00005400922834 25326.0 NaN 1531.9305277221092 0.5070210959125963 509.0 1.0 367.0 
328.00005400922834 25310.0 NaN 1534.8483633934547 0.502759139399745 509.0 0.0 369.0 
330.00005400922834 25319.0 NaN 1528.8817635270545 0.5022235363327755 507.0 1.0 366.0 
332.00005400922834 25321.0 NaN 1528.7641950567815 0.5019321872042356 506.0 1.0 366.0 
334.00005400922834 25288.0 NaN 1534.9766199064816 0.5006120826433801 508.0 2.0 367.0 
336.00005400922834 25306.0 NaN 1525.7127588510366 0.5024204448757761 509.0 0.0 366.0 
338.00005400922834 25301.0 NaN 1525.8223112892456 0.5030103271351516 509.0 1.0 365.0 
340.00005400922834 25307.0 NaN 1525.694054776218 0.5014526494425255 510.0 0.0 366.0 
342.00005400922834 25302.0 NaN 1525.763527054109 0.5035879374553307 512.0 1.0 365.0 
344.00005400922834 25285.0 NaN 1531.7301269205088 0.5036101519509539 515.0 0.0 368.0 
346.00005400922834 25322.0 NaN 1535.0273881095543 0.5040952146629057 515.0 1.0 368.0 
348.00005400922834 25299.0 NaN 1531.7808951235816 0.5033343948582962 513.0 1.0 367.0 
350.00005400922834 25303.0 NaN 1525.80093520374 0.5021050369480659 513.0 1.0 365.0 
352.00005400922834 25301.0 NaN 1525.5604542418178 0.5032542595129414 516.0 0.0 366.0 
354.00005400922834 25274.0 NaN 1525.768871075484 0.5030581908107655 514.0 2.0 364.0 
356.00005400922834 25281.0 NaN 1525.6325985303934 0.5027812057882104 514.0 0.0 366.0 
358.00005400922834 25255.0 NaN 1525.7661990647969 0.50223577029237 514.0 1.0 365.0 
360.00005400922834 25257.0 NaN 1525.5764863059455 0.5040559306991517 514.0 0.0 366.0 
362.00005400922834 25260.0 NaN 1525.6619906479636 0.5039920650569286 516.0 1.0 365.0 
364.00005400922834 25226.0 NaN 1525.528390113561 0.5041659313401939 514.0 1.0 365.0 
366.00005400922834 25230.0 NaN 1516.470273881094 0.5035082256360928 515.0 1.0 362.0 
368.00005400922834 25223.0 NaN 1510.2204408817638 0.502955374506561 515.0 0.0 361.0 
370.00005400922834 25202.0 NaN 1507.2277889111547 0.5037488010200294 517.0 1.0 359.0 
372.00005400922834 25194.0 NaN 1510.2712090848363 0.5076848618416311 515.0 1.0 360.0 
374.00005400922834 25130.0 NaN 1507.3453573814281 0.5036385839826364 518.0 1.0 359.0 
376.00005400922834 25147.0 NaN 1507.2117568470271 0.5049344478280964 517.0 0.0 360.0 
378.00005400922834 25145.0 NaN 1507.3213092852366 0.5033789788538029 519.0 1.0 359.0 
380.00005400922834 25122.0 NaN 1507.0754843019365 0.5061952088893515 519.0 1.0 359.0 
382.00005400922834 25112.0 NaN 1510.1937207748824 0.506997530992246 517.0 1.0 360.0 
384.00005400922834 25041.0 NaN 1513.0501002004 0.5020515993140522 517.0 0.0 362.0 
386.00005400922834 25073.0 NaN 1516.3286573146281 0.5024001410217943 519.0 1.0 362.0 
388.00005400922834 25078.0 NaN 1516.2351369405462 0.5019224000824299 519.0 0.0 363.0 
390.00005400922834 25076.0 NaN 1510.2605210420836 0.5036664014169968 520.0 1.0 360.0 
392.00005400922834 25061.0 NaN 1510.2765531062116 0.5076641279083174 517.0 1.0 360.0 
394.00005400922834 24993.0 NaN 1510.452905811624 0.5027987649567878 517.0 1.0 360.0 
396.00005400922834 25009.0 NaN 1513.4562458249825 0.5088803266396785 518.0 0.0 362.0 
398.00005400922834 25006.0 NaN 1507.3854375417511 0.5062517246854769 520.0 1.0 359.0 
400.00005400922834 24994.0 NaN 1504.1095524382092 0.5041626673211205 520.0 0.0 359.0 
402.00005400922834 24983.0 NaN 1510.3780895123575 0.5055984108489804 521.0 1.0 360.0 
404.00005400922834 24929.0 NaN 1510.2070808283243 0.5033100467539277 521.0 0.0 361.0 
406.00005400922834 24961.0 NaN 1510.3540414161644 0.5041866390261057 522.0 1.0 360.0 
408.00005400922834 24963.0 NaN 1513.3440213760846 0.5050543233761717 522.0 0.0 362.0 
410.00005400922834 24963.0 NaN 1516.5584502338 0.5045328754623307 521.0 2.0 361.0 
412.00005400922834 24951.0 NaN 1522.6025384101545 0.5064452248876035 522.0 0.0 365.0 
414.00005400922834 24896.0 NaN 1522.661322645291 0.5037491925640062 522.0 1.0 364.0 
416.00005400922834 24905.0 NaN 1519.5591182364726 0.5034681159975573 523.0 1.0 363.0 
418.00005400922834 24903.0 NaN 1513.4188376753516 0.502507934848815 519.0 1.0 361.0 
420.00005400922834 24886.0 NaN 1510.3674014696066 0.5037189987627431 515.0 1.0 360.0 
422.00005400922834 24877.0 NaN 1513.3333333333342 0.5033895188803492 516.0 1.0 361.0 
424.00005400922834 24837.0 NaN 1510.2070808283243 0.50434155523615 518.0 1.0 360.0 
426.00005400922834 24858.0 NaN 1510.4368737474938 0.5031123665305557 515.0 1.0 360.0 
428.00005400922834 24846.0 NaN 1513.3707414829648 0.5019791991391095 517.0 0.0 362.0 
430.00005400922834 24852.0 NaN 1507.3854375417511 0.5029272989052229 523.0 2.0 358.0 
432.00005400922834 24836.0 NaN 1513.4562458249827 0.5041390757534453 525.0 0.0 362.0 
434.00005400922834 24809.0 NaN 1519.617902471609 0.5042376845563705 527.0 0.0 364.0 
436.00005400922834 24822.0 NaN 1522.5865063460265 0.5019145274565546 526.0 0.0 365.0 
438.00005400922834 24823.0 NaN 1525.7474949899813 0.5032508027847796 526.0 1.0 365.0 
440.00005400922834 24814.0 NaN 1528.6599866399454 0.5055713094665071 528.0 0.0 367.0 
442.00005400922834 24817.0 NaN 1528.638610554443 0.502882087441058 529.0 0.0 367.0 
444.00005400922834 24812.0 NaN 1525.5551102204392 0.5035574584927575 528.0 0.0 366.0 
446.00005400922834 24830.0 NaN 1519.444221776888 0.5026050601418851 526.0 1.0 363.0 
448.00005400922834 24825.0 NaN 1537.969271877088 0.5038593742374974 523.0 4.0 366.0 
450.00005400922834 24851.0 NaN 1547.281229124918 0.5054828985773258 528.0 1.0 372.0 
452.00005400922834 24865.0 NaN 1550.3219772879092 0.5048187167154667 526.0 2.0 372.0 
454.00005400922834 24835.0 NaN 1550.30861723447 0.5024075039970141 525.0 3.0 371.0 
456.00005400922834 24846.0 NaN 1550.268537074148 0.5052562404121003 524.0 2.0 372.0 
458.00005400922834 24838.0 NaN 1550.3486973947909 0.503399908687572 526.0 0.0 374.0 
460.00005400922834 24859.0 NaN 1547.0434201736819 0.5030363018863804 525.0 0.0 373.0 
462.00005400922834 24868.0 NaN 1544.0213760855033 0.5050467278339996 523.0 0.0 372.0 
464.00005400922834 24842.0 NaN 1543.9973279893115 0.5069978866869029 524.0 0.0 372.0 
466.00005400922834 24847.0 NaN 1544.1523046092182 0.5043886223553843 526.0 0.0 372.0 
468.00005400922834 24832.0 NaN 1544.106880427521 0.5045309311833348 524.0 1.0 371.0 
470.00005400922834 24831.0 NaN 1544.2244488977972 0.5022377259537604 526.0 0.0 372.0 
472.00005400922834 24835.0 NaN 1540.972611890446 0.5036630849262028 526.0 0.0 371.0 
474.00005400922834 24835.0 NaN 1531.7808951235813 0.5025998680090563 522.0 0.0 368.0 
476.00005400922834 24837.0 NaN 1522.567802271209 0.5035152477763108 521.0 0.0 365.0 
478.00005400922834 24835.0 NaN 1522.5758183032726 0.5031374031074296 522.0 0.0 365.0 
480.00005400922834 24857.0 NaN 1525.6459585838356 0.5030812303976296 521.0 0.0 366.0 
482.00005400922834 24844.0 NaN 1525.5925183700726 0.5051707301677042 521.0 0.0 366.0 
484.00005400922834 24844.0 NaN 1525.5898463593849 0.5023927206840243 520.0 0.0 366.0 
486.00005400922834 24909.0 NaN 1513.3440213760846 0.5035374567936276 517.0 1.0 361.0 
488.00005400922834 24890.0 NaN 1507.2464929859725 0.5039009576588215 517.0 0.0 360.0 
490.00005400922834 24886.0 NaN 1491.845023380093 0.5034931939310906 516.0 0.0 355.0 
492.00005400922834 24868.0 NaN 1491.7595190380755 0.504032992866534 513.0 0.0 355.0 
494.00005400922834 24857.0 NaN 1494.8777555110212 0.503215885625829 511.0 0.0 356.0 
496.00005400922834 24898.0 NaN 1494.7708750835 0.5031839129384871 508.0 0.0 356.0 
498.00005400922834 24898.0 NaN 1491.8770875083485 0.5029088581849108 507.0 1.0 354.0 
500.00005400922834 24902.0 NaN 1482.6639946559794 0.5055436163407964 512.0 1.0 351.0 
502.00005400922834 24881.0 NaN 1482.6212424849707 0.5050172330586271 512.0 1.0 351.0 
504.00005400922834 24858.0 NaN 1485.7074148296606 0.5028641433937204 513.0 0.0 353.0 
506.00005400922834 24909.0 NaN 1495.0167000668 0.5028753683519728 513.0 2.0 354.0 
508.00005400922834 24902.0 NaN 1485.699398797594 0.5039656287002816 512.0 0.0 353.0 
510.00005400922834 24893.0 NaN 1491.9011356045432 0.5026033633435306 513.0 1.0 354.0 
512.0000540092283 24937.0 NaN 1491.8129592518364 0.5049101382568643 512.0 2.0 353.0 
514.0000540092283 24920.0 NaN 1479.6392785571152 0.5044742172331205 514.0 1.0 350.0 
516.0000540092283 24962.0 NaN 1476.505010020039 0.5036363892072424 512.0 1.0 349.0 
518.0000540092283 24953.0 NaN 1461.2264529058111 0.5057139505430199 511.0 1.0 344.0 
520.0000540092283 24963.0 NaN 1461.1676686706737 0.5036092204164361 511.0 1.0 344.0 
522.0000540092283 24975.0 NaN 1461.1409485637937 0.5054184718131809 508.0 2.0 343.0 
524.0000540092283 24969.0 NaN 1464.3072812291255 0.5052982112792599 505.0 2.0 344.0 
526.0000540092283 24991.0 NaN 1455.0193720774887 0.506578827981801 505.0 1.0 342.0 
528.0000540092283 24993.0 NaN 1451.9465597862386 0.5045557831806757 503.0 1.0 341.0 
530.0000540092283 25027.0 NaN 1451.9839679358722 0.5038235772016336 505.0 1.0 341.0 
532.0000540092283 25002.0 NaN 1461.116900467601 0.5040211015366947 504.0 2.0 343.0 
534.0000540092283 24993.0 NaN 1461.167668670674 0.5035776598829331 502.0 1.0 344.0 
536.0000540092283 25005.0 NaN 1458.0173680694727 0.5030761247747888 505.0 1.0 343.0 
538.0000540092283 24991.0 NaN 1461.1329325317295 0.506564971535299 505.0 1.0 344.0 
540.0000540092283 24980.0 NaN 1464.1790247160995 0.5040285248918042 507.0 1.0 345.0 
542.0000540092283 24961.0 NaN 1470.3593854375426 0.5047744812135379 507.0 1.0 347.0 
544.0000540092283 24942.0 NaN 1473.3573814295262 0.5032260886867262 510.0 1.0 348.0 
546.0000540092283 24967.0 NaN 1470.354041416165 0.5047804416382851 511.0 0.0 348.0 
548.0000540092283 24939.0 NaN 1467.2491649966607 0.5034621362657022 512.0 0.0 347.0 
550.0000540092283 24943.0 NaN 1467.3907815631267 0.5018892794006787 513.0 0.0 347.0 
552.0000540092283 24964.0 NaN 1467.3774215096853 0.5038254008563785 510.0 1.0 346.0 
554.0000540092283 24964.0 NaN 1467.5110220440886 0.5025899505861353 511.0 0.0 347.0 
556.0000540092283 24991.0 NaN 1467.2598530394118 0.5051447312686026 512.0 0.0 347.0 
558.0000540092283 24963.0 NaN 1467.3881095524375 0.5030809950642635 513.0 0.0 347.0 
560.0000540092283 24984.0 NaN 1458.0574482297923 0.5038476944764857 506.0 0.0 344.0 
562.0000540092283 24982.0 NaN 1458.0013360053445 0.5041112097565186 505.0 2.0 342.0 
564.0000540092283 24985.0 NaN 1454.907147628591 0.5043579719536264 506.0 0.0 343.0 
566.0000540092283 25014.0 NaN 1461.0233800935198 0.5062524334874362 508.0 0.0 345.0 
568.0000540092283 24991.0 NaN 1482.6693386773545 0.5059888023163739 510.0 0.0 352.0 
570.0000540092283 24980.0 NaN 1482.6907147628583 0.5056652016458636 510.0 0.0 352.0 
572.0000540092283 24963.0 NaN 1479.6232464929851 0.5058625720238051 510.0 0.0 351.0 
574.0000540092283 24977.0 NaN 1476.6172344689373 0.5055215790996517 508.0 0.0 350.0 
576.0000540092283 25025.0 NaN 1482.6052104208425 0.5050829667091615 508.0 0.0 352.0 
578.0000540092283 24989.0 NaN 1479.7461589846364 0.503865471619496 510.0 0.0 351.0 
580.0000540092283 25011.0 NaN 1485.7528390113555 0.5047265332312032 509.0 1.0 352.0 
582.0000540092283 25004.0 NaN 1485.8650634602543 0.5065873709127157 508.0 1.0 352.0 
584.0000540092283 24993.0 NaN 1488.8042752171004 0.5039513855173335 508.0 1.0 353.0 
586.0000540092283 25065.0 NaN 1485.7715430861729 0.5026344720584247 516.0 0.0 353.0 
588.0000540092283 25079.0 NaN 1485.758183032733 0.5030724175940029 518.0 1.0 352.0 
590.0000540092283 25096.0 NaN 1488.8390113560454 0.5041762412418795 521.0 0.0 354.0 
592.0000540092283 25082.0 NaN 1488.7615230460917 0.50529039794206 521.0 1.0 353.0 
594.0000540092283 25084.0 NaN 1491.842351369406 0.504009480956109 524.0 0.0 355.0 
596.0000540092283 25100.0 NaN 1488.7882431529729 0.5044911407745097 528.0 1.0 353.0 
598.0000540092283 25073.0 NaN 1488.7909151636613 0.5049646519257557 527.0 0.0 354.0 
600.0000540092283 25095.0 NaN 1491.786239144956 0.5036536415350037 527.0 2.0 353.0 
602.0000540092283 25123.0 NaN 1500.985971943889 0.5041622536616034 531.0 0.0 358.0 
604.0000540092283 25142.0 NaN 1497.8810955243816 0.5033197153266594 529.0 1.0 356.0 
606.0000540092283 25172.0 NaN 1501.0100200400805 0.5074848080910452 528.0 0.0 358.0 
608.0000540092283 25155.0 NaN 1507.2117568470271 0.5054983166107169 525.0 1.0 359.0 
610.0000540092283 25188.0 NaN 1513.3947895791575 0.5067375966331231 526.0 0.0 362.0 
612.0000540092283 25217.0 NaN 1510.2231128924527 0.5053324812441179 526.0 1.0 360.0 
614.0000540092283 25190.0 NaN 1507.2117568470271 0.506289613240633 527.0 0.0 360.0 
616.0000540092283 25168.0 NaN 1507.126252505009 0.505086445658646 526.0 1.0 359.0 
618.0000540092283 25125.0 NaN 1504.221776887108 0.5023052188826463 527.0 0.0 359.0 
620.0000540092283 25172.0 NaN 1513.4134936539735 0.5060802933050482 525.0 2.0 360.0 
622.0000540092283 25194.0 NaN 1525.6566466265874 0.5061042687762213 528.0 0.0 366.0 
624.0000540092283 25179.0 NaN 1522.527722110889 0.5045092858613623 524.0 1.0 364.0 
626.0000540092283 25202.0 NaN 1525.7074148296606 0.5063200473895703 526.0 0.0 366.0 
628.0000540092283 25129.0 NaN 1525.6806947227797 0.5045958656860313 526.0 1.0 365.0 
630.0000540092283 25149.0 NaN 1519.5270541082173 0.5047320062414614 523.0 0.0 364.0 
632.0000540092283 25139.0 NaN 1522.5571142284564 0.5073762048197975 520.0 2.0 363.0 
634.0000540092283 25109.0 NaN 1519.5698062792262 0.5020782238657525 522.0 0.0 364.0 
636.0000540092283 25194.0 NaN 1522.5758183032726 0.5054492174049092 527.0 1.0 364.0 
638.0000540092283 25143.0 NaN 1519.5938543754182 0.5045544901053481 529.0 1.0 363.0 
640.0000540092283 25151.0 NaN 1522.6479625918514 0.5052179801513066 528.0 1.0 364.0 
642.0000540092283 25123.0 NaN 1525.8036072144284 0.5050221975848734 532.0 0.0 366.0 
644.0000540092283 25116.0 NaN 1522.613226452907 0.5043573369341516 530.0 1.0 364.0 
646.0000540092283 25158.0 NaN 1519.644622578491 0.503925668530139 528.0 0.0 364.0 
648.0000540092283 25116.0 NaN 1525.6860387441545 0.5028888347719382 524.0 1.0 365.0 
650.0000540092283 25115.0 NaN 1522.6960587842354 0.5051436882044856 522.0 0.0 365.0 
652.0000540092283 25117.0 NaN 1525.6486305945211 0.5035921020355141 522.0 1.0 365.0 
654.0000540092283 25098.0 NaN 1525.744822979291 0.5042466492355534 522.0 0.0 366.0 
656.0000540092283 25103.0 NaN 1534.936539746158 0.5054545497662928 520.0 1.0 368.0 
658.0000540092283 25051.0 NaN 1544.3500334001342 0.5022135818589948 518.0 2.0 370.0 
660.0000540092283 25054.0 NaN 1544.309953239812 0.5050197870119151 518.0 1.0 371.0 
662.0000540092283 25044.0 NaN 1544.355377421509 0.5055476147407097 518.0 0.0 372.0 
664.0000540092283 24986.0 NaN 1541.1730126920515 0.5016368981095047 516.0 1.0 370.0 
#####################################################################
# End of data export. Simulation finished at: 2019-03-06T19:40+0000 #
#####################################################################
