#####################################################################
# Alchemist log file - simulation started at: 2019-03-08T01:10+0000 #
#####################################################################
# seed = 5.0, bandwidth = 1.0E8, propagationDelay = 0.01, baserange = 177.82794100389228
#
# The columns have the following meaning: 
# time neighbor_count[Sum] <value>@neighbor_count[Sum] packet_size[Mean] mean_delay[Mean] crowd[Sum] overcrowded[Sum] risk[Sum] 
0.0 NaN NaN NaN NaN NaN NaN NaN 
2.000101793669918 26546.0 NaN 4995.930527722111 0.5004860496204645 1497.0 0.0 1497.0 
4.000101793669918 26546.0 NaN 4994.89378757515 0.5004860831810084 1495.0 2.0 1495.0 
6.000101793669918 26550.0 NaN 4994.217768871075 0.5004878528482722 1495.0 2.0 1495.0 
8.000101793669918 26551.0 NaN 4994.639946559786 0.500546329481371 1495.0 2.0 1495.0 
10.000101793669918 26551.0 NaN 4995.064796259185 0.5004148652802969 1495.0 2.0 1495.0 
12.000101793669918 26552.0 NaN 4994.669338677355 0.5003998471622988 1495.0 2.0 1495.0 
14.000101793669918 26552.0 NaN 4994.121576486306 0.5003998469617319 1496.0 1.0 1496.0 
16.00010179366992 26557.0 NaN 4994.29258517034 0.5004687430459106 1495.0 2.0 1495.0 
18.00010179366992 26556.0 NaN 4994.778891115565 0.5010485673868497 1495.0 2.0 1495.0 
20.00010179366992 26575.0 NaN 4995.575150300601 0.5054301096685867 1495.0 2.0 1495.0 
22.00010179366992 26568.0 NaN 4994.864395457582 0.5011130362842451 1494.0 3.0 1494.0 
24.00010179366992 26570.0 NaN 4994.63460253841 0.5005050739960729 1496.0 1.0 1496.0 
26.00010179366992 26569.0 NaN 4994.666666666667 0.5005460811495631 1496.0 1.0 1496.0 
28.00010179366992 26566.0 NaN 4995.577822311289 0.5002290388456703 1495.0 2.0 1495.0 
30.00010179366992 26600.0 NaN 4995.810287241149 0.5005793702574104 1493.0 4.0 1493.0 
32.00010179366992 26605.0 NaN 4995.056780227121 0.5008050105099424 1494.0 3.0 1494.0 
34.00010179366992 26622.0 NaN 4994.407481629926 0.5030457716562432 1494.0 3.0 1494.0 
36.00010179366992 26619.0 NaN 4994.663994655979 0.5011808586140243 1494.0 3.0 1494.0 
38.00010179366992 26621.0 NaN 4995.048764195057 0.503446760670453 1494.0 3.0 1494.0 
40.00010179366992 26653.0 NaN 4995.949231796927 0.5017237919334953 1494.0 3.0 1494.0 
42.00010179366992 26635.0 NaN 4995.214428857716 0.501444475104674 1495.0 2.0 1495.0 
44.00010179366992 26633.0 NaN 4994.420841683367 0.5031136879707913 1495.0 2.0 1495.0 
46.00010179366992 26619.0 NaN 4994.343353373413 0.5011985657496661 1495.0 2.0 1495.0 
48.00010179366992 26622.0 NaN 4994.816299265197 0.5024495175278535 1494.0 3.0 1494.0 
50.00010179366992 26663.0 NaN 4995.3426853707415 0.5030867071865154 1495.0 2.0 1495.0 
52.00010179366992 26644.0 NaN 4994.957915831664 0.5011103667430121 1494.0 3.0 1494.0 
54.00010179366992 26652.0 NaN 4994.51169004676 0.5019249458521905 1494.0 3.0 1494.0 
56.00010179366992 26644.0 NaN 4994.872411489646 0.5018593012853921 1495.0 2.0 1495.0 
58.00010179366992 26660.0 NaN 4995.115564462258 0.5010864262805453 1495.0 2.0 1495.0 
60.00010179366992 26683.0 NaN 4992.555778223113 0.5041295679853073 1494.0 2.0 1494.0 
62.00010179366992 26673.0 NaN 1522.388777555109 0.5016381030205427 778.0 1.0 364.0 
64.00010179366993 26691.0 NaN 1522.5277221108886 0.5023669737447948 622.0 2.0 363.0 
66.00010179366993 26684.0 NaN 1522.458249833 0.5024293332412634 583.0 1.0 364.0 
68.00010179366993 26707.0 NaN 1525.7608550434186 0.5014045459633716 548.0 2.0 364.0 
70.00010179366993 26707.0 NaN 1525.7207748831 0.5035659227076456 532.0 3.0 363.0 
72.00010179366993 26737.0 NaN 1525.7715430861729 0.5018360100651769 531.0 2.0 364.0 
74.00010179366993 26777.0 NaN 1528.9031396125577 0.5023255710951773 527.0 2.0 365.0 
76.00010179366993 26766.0 NaN 1528.9031396125577 0.5013663930377839 528.0 1.0 366.0 
78.00010179366993 26801.0 NaN 1534.9766199064816 0.5047652271136269 529.0 2.0 367.0 
80.00010179366993 26788.0 NaN 1534.9044756179023 0.5027191720145331 528.0 2.0 367.0 
82.00010179366993 26793.0 NaN 1534.7788911155635 0.5018463208631369 526.0 3.0 366.0 
84.00010179366993 26786.0 NaN 1534.8937875751515 0.5024829250287153 528.0 1.0 368.0 
86.00010179366993 26774.0 NaN 1534.7575150300606 0.5015226748336776 525.0 2.0 367.0 
88.00010179366993 26789.0 NaN 1534.875083500334 0.5014979863241892 523.0 2.0 367.0 
90.00010179366993 26761.0 NaN 1534.7975951903818 0.5051460648198469 523.0 3.0 366.0 
92.00010179366993 26755.0 NaN 1534.9365397461581 0.5012804956394565 524.0 3.0 366.0 
94.00010179366993 26782.0 NaN 1534.8537074148296 0.5016468870863381 523.0 4.0 365.0 
96.00010179366993 26765.0 NaN 1534.971275885103 0.5010293643655929 524.0 3.0 366.0 
98.00010179366993 26784.0 NaN 1537.9265197060793 0.5041490658442365 524.0 3.0 367.0 
100.00010179366993 26727.0 NaN 1537.987975951903 0.5033912832944553 523.0 4.0 366.0 
102.00010179366993 26763.0 NaN 1537.8997995991997 0.5013343520141976 521.0 4.0 366.0 
104.00010179366993 26753.0 NaN 1540.9859719438882 0.5022513580604453 523.0 3.0 368.0 
106.00010179366993 26751.0 NaN 1540.9832999332002 0.5007427758545717 524.0 2.0 369.0 
108.00010179366993 26780.0 NaN 1541.060788243154 0.5012438735596212 524.0 3.0 368.0 
110.00010179366993 26757.0 NaN 1541.0100200400816 0.5026525338130512 522.0 3.0 368.0 
112.00010179366993 26773.0 NaN 1541.1142284569148 0.500994109812204 525.0 2.0 369.0 
114.00010179366993 26785.0 NaN 1541.0447561790247 0.502750767624302 526.0 1.0 370.0 
116.00010179366993 26754.0 NaN 1541.092852371409 0.5046754939728266 526.0 2.0 369.0 
118.00010179366993 26780.0 NaN 1541.0126920507666 0.5028456939524414 529.0 1.0 370.0 
120.00010179366993 26698.0 NaN 1541.1062124248485 0.5053026906101564 529.0 1.0 370.0 
122.00010179366993 26671.0 NaN 1541.0046760187029 0.5019486177615857 529.0 1.0 370.0 
124.00010179366993 26689.0 NaN 1544.109552438209 0.5024721971777343 529.0 1.0 371.0 
126.00010179366993 26659.0 NaN 1544.1897127588516 0.5019418398571691 528.0 1.0 371.0 
128.00010179366993 26692.0 NaN 1541.0875083500337 0.5028193547242885 527.0 2.0 369.0 
130.00010179366993 26659.0 NaN 1541.1142284569148 0.5029314752463155 526.0 2.0 369.0 
132.00010179366993 26635.0 NaN 1538.0307281229123 0.5028011468640972 527.0 0.0 370.0 
134.00010179366993 26686.0 NaN 1537.9559118236455 0.5015782500462438 528.0 1.0 369.0 
136.00010179366993 26661.0 NaN 1537.9959919839666 0.5010507048461654 524.0 1.0 369.0 
138.00010179366993 26690.0 NaN 1534.9231796927181 0.5028414499420198 525.0 0.0 369.0 
140.00010179366993 26630.0 NaN 1534.8964595858367 0.5049231024853179 525.0 1.0 368.0 
142.00010179366993 26611.0 NaN 1537.9585838343364 0.5005882847246323 524.0 1.0 369.0 
144.00010179366993 26670.0 NaN 1538.0066800267182 0.5009771834966089 523.0 0.0 370.0 
146.00010179366993 26653.0 NaN 1534.8643954575818 0.500362532245709 521.0 2.0 367.0 
148.00010179366993 26667.0 NaN 1534.901803607215 0.5017307784598712 522.0 1.0 368.0 
150.00010179366993 26628.0 NaN 1531.7648630594542 0.5024413498104743 522.0 0.0 368.0 
152.00010179366993 26627.0 NaN 1528.7855711422844 0.5003015253947951 521.0 1.0 366.0 
154.00010179366993 26641.0 NaN 1528.830995323982 0.5005983705066779 517.0 2.0 365.0 
156.00010179366993 26627.0 NaN 1531.9492317969275 0.501006317213089 516.0 2.0 366.0 
158.00010179366993 26657.0 NaN 1535.000668002673 0.5035681902602145 519.0 4.0 365.0 
160.00010179366993 26604.0 NaN 1535.0113560454247 0.5022121880519166 519.0 4.0 365.0 
162.00010179366993 26565.0 NaN 1534.9873079492336 0.5020477538466084 521.0 1.0 368.0 
164.00010179366993 26575.0 NaN 1538.057448229791 0.5021534159753935 519.0 4.0 366.0 
166.00010179366993 26530.0 NaN 1538.020040080161 0.5012155189796057 522.0 1.0 369.0 
168.00010179366993 26550.0 NaN 1538.1055444221793 0.5053824595447629 522.0 0.0 370.0 
170.00010179366993 26515.0 NaN 1538.0040080160338 0.5026297019710246 521.0 2.0 368.0 
172.00010179366993 26492.0 NaN 1537.9826319305273 0.5016488829041584 519.0 1.0 369.0 
174.00010179366993 26527.0 NaN 1541.1543086172364 0.5030010262319629 516.0 2.0 369.0 
176.00010179366993 26487.0 NaN 1538.1295925183704 0.5007412347649786 518.0 0.0 370.0 
178.00010179366993 26501.0 NaN 1538.1189044756184 0.5020294184561017 519.0 0.0 370.0 
180.00010179366993 26466.0 NaN 1538.0494321977271 0.5031045663177842 521.0 0.0 370.0 
182.00010179366993 26446.0 NaN 1538.0013360053456 0.5033299988736694 516.0 5.0 365.0 
184.00010179366993 26471.0 NaN 1541.0501002003998 0.5013051764926475 517.0 3.0 368.0 
186.00010179366993 26447.0 NaN 1537.942551770209 0.5044206934694856 519.0 0.0 370.0 
188.00010179366993 26456.0 NaN 1544.0828323313274 0.5043998733305136 518.0 0.0 372.0 
190.00010179366993 26402.0 NaN 1537.910487641952 0.5014069158551845 519.0 0.0 370.0 
192.00010179366993 26375.0 NaN 1537.897127588509 0.5020323403674604 515.0 3.0 367.0 
194.00010179366993 26381.0 NaN 1541.07949231797 0.5022374627685233 515.0 3.0 368.0 
196.00010179366993 26355.0 NaN 1541.1062124248479 0.5028916091565068 515.0 4.0 367.0 
198.00010179366993 26351.0 NaN 1544.2992651970612 0.5036752995309433 517.0 2.0 370.0 
200.00010179366993 26318.0 NaN 1547.2491649966612 0.5016385665501348 518.0 2.0 371.0 
202.00010179366993 26320.0 NaN 1547.2331329325298 0.5016273579073928 519.0 2.0 371.0 
204.00010179366993 26350.0 NaN 1547.2037408149638 0.5078192362651489 514.0 5.0 368.0 
206.00010179366993 26306.0 NaN 1544.176352705409 0.5031838940458826 518.0 1.0 371.0 
208.00010179366993 26297.0 NaN 1541.087508350034 0.5051024000889909 520.0 2.0 369.0 
210.00010179366993 26241.0 NaN 1538.1215764863066 0.5024354478124389 519.0 3.0 367.0 
212.00010179366993 26242.0 NaN 1537.9906479625906 0.502393418601607 513.0 6.0 364.0 
214.00010179366993 26255.0 NaN 1541.1436205744817 0.5065787099610934 518.0 1.0 370.0 
216.00010179366993 26208.0 NaN 1534.9498997996002 0.5045137945307049 513.0 6.0 363.0 
218.00010179366993 26206.0 NaN 1531.8690714762847 0.5038518462134431 516.0 0.0 368.0 
220.00010179366993 26153.0 NaN 1531.7034068136272 0.5044883950802019 515.0 2.0 366.0 
222.00010179366993 26135.0 NaN 1534.7842351369393 0.502569112173574 513.0 3.0 366.0 
224.00010179366993 26128.0 NaN 1534.6933867735456 0.504040303625178 515.0 2.0 367.0 
226.00010179366993 26085.0 NaN 1531.7354709418819 0.5016290539985183 516.0 1.0 367.0 
228.00010179366993 26081.0 NaN 1534.843019372079 0.5025508657007361 515.0 1.0 368.0 
230.00010179366993 26060.0 NaN 1537.9104876419517 0.5048702820019461 514.0 1.0 369.0 
232.00010179366993 26051.0 NaN 1540.996659986639 0.5027662989675357 516.0 0.0 371.0 
234.00010179366993 26040.0 NaN 1541.092852371409 0.5039788033631802 515.0 1.0 370.0 
236.00010179366993 26029.0 NaN 1537.9665998664002 0.501773790019905 514.0 1.0 369.0 
238.00010179366993 26022.0 NaN 1534.9766199064816 0.5029515336567534 515.0 2.0 367.0 
240.00010179366993 25978.0 NaN 1534.7361389445546 0.5053166701925466 513.0 2.0 367.0 
242.00010179366993 25978.0 NaN 1534.8617234468936 0.5013960860398915 513.0 2.0 367.0 
244.00010179366993 26015.0 NaN 1534.835003340012 0.5059752477293781 517.0 1.0 368.0 
246.00010179366993 25992.0 NaN 1534.9018036072152 0.5050003848739345 514.0 3.0 366.0 
248.00010179366993 25973.0 NaN 1528.716098864397 0.5027608350347319 513.0 1.0 366.0 
250.00010179366993 25944.0 NaN 1531.8102872411482 0.5035784703646073 513.0 2.0 366.0 
252.00010179366993 25916.0 NaN 1528.7641950567815 0.5023944139015162 512.0 2.0 365.0 
254.00010179366993 25919.0 NaN 1534.9338677354726 0.5027908102864095 510.0 4.0 365.0 
256.00010179366996 25877.0 NaN 1531.692718770875 0.5011344459127082 513.0 3.0 365.0 
258.00010179366996 25871.0 NaN 1531.7408149632608 0.5019379706105341 514.0 2.0 366.0 
260.00010179366996 25856.0 NaN 1531.7381429525726 0.5037490676241833 515.0 1.0 367.0 
262.00010179366996 25813.0 NaN 1525.6673346693367 0.5012908861308449 512.0 4.0 362.0 
264.00010179366996 25804.0 NaN 1538.0093520374091 0.5023212850220926 512.0 1.0 369.0 
266.00010179366996 25761.0 NaN 1538.0841683366725 0.5016554954616324 512.0 2.0 368.0 
268.00010179366996 25748.0 NaN 1534.9926519706091 0.5037411259562805 512.0 1.0 368.0 
270.00010179366996 25742.0 NaN 1534.9552438209753 0.5049498334092252 508.0 4.0 365.0 
272.00010179366996 25663.0 NaN 1534.8643954575818 0.5009142286455431 507.0 4.0 365.0 
274.00010179366996 25678.0 NaN 1534.8456913827638 0.501756898878195 509.0 2.0 367.0 
276.00010179366996 25656.0 NaN 1540.9913159652635 0.5023154553258012 509.0 1.0 370.0 
278.00010179366996 25652.0 NaN 1540.9378757515024 0.5040750148587408 511.0 3.0 368.0 
280.00010179366996 25667.0 NaN 1537.8116232464909 0.5045162519933404 512.0 1.0 369.0 
282.00010179366996 25648.0 NaN 1534.7361389445546 0.5024702353355256 512.0 2.0 367.0 
284.00010179366996 25659.0 NaN 1534.8056112224456 0.5043137261677886 514.0 1.0 368.0 
286.00010179366996 25618.0 NaN 1534.8617234468932 0.5022567051507567 511.0 3.0 366.0 
288.00010179366996 25621.0 NaN 1534.8777555110207 0.5044000086413188 510.0 3.0 366.0 
290.00010179366996 25598.0 NaN 1534.851035404143 0.5036036268890599 512.0 1.0 368.0 
292.00010179366996 25608.0 NaN 1534.7842351369388 0.501449417793576 513.0 1.0 368.0 
294.00010179366996 25595.0 NaN 1531.810287241148 0.5030130471171355 511.0 2.0 366.0 
296.00010179366996 25564.0 NaN 1531.767535070139 0.5023859647769516 512.0 0.0 368.0 
298.00010179366996 25558.0 NaN 1540.9832999332002 0.5053961106223391 511.0 1.0 370.0 
300.00010179366996 25532.0 NaN 1540.9913159652635 0.5020206571420465 511.0 0.0 371.0 
302.00010179366996 25531.0 NaN 1531.7541750167002 0.5013556741250799 508.0 2.0 366.0 
304.00010179366996 25537.0 NaN 1534.8456913827638 0.5028747419577244 504.0 5.0 364.0 
306.00010179366996 25517.0 NaN 1538.0066800267182 0.5034245074963775 503.0 7.0 363.0 
308.00010179366996 25495.0 NaN 1537.9612558450244 0.5066519359058382 509.0 1.0 369.0 
310.00010179366996 25449.0 NaN 1537.8757515030068 0.5063385561409905 501.0 7.0 363.0 
312.00010179366996 25409.0 NaN 1531.6873747495001 0.5028155679921054 508.0 0.0 368.0 
314.00010179366996 25423.0 NaN 1531.6526386105547 0.504861722940741 506.0 1.0 367.0 
316.00010179366996 25390.0 NaN 1531.5911823647275 0.5027647679549527 508.0 0.0 368.0 
318.00010179366996 25386.0 NaN 1531.6980627922514 0.5058196414514694 506.0 2.0 366.0 
320.00010179366996 25341.0 NaN 1531.7060788243155 0.5075343858896908 505.0 4.0 364.0 
322.00010179366996 25332.0 NaN 1534.8323313293272 0.5029508820957664 506.0 3.0 366.0 
324.00010179366996 25345.0 NaN 1531.818303273212 0.504965163129464 507.0 1.0 367.0 
326.00010179366996 25298.0 NaN 1531.8476953907818 0.5038461662985371 505.0 2.0 366.0 
328.00010179366996 25306.0 NaN 1531.7194388777543 0.5031316249650597 509.0 0.0 368.0 
330.00010179366996 25290.0 NaN 1531.72478289913 0.5058318176525408 508.0 1.0 367.0 
332.00010179366996 25292.0 NaN 1531.7114228456908 0.5037847849590947 509.0 0.0 368.0 
334.00010179366996 25299.0 NaN 1531.7434869739475 0.5037133624638656 506.0 2.0 366.0 
336.00010179366996 25274.0 NaN 1531.7568470273886 0.5035802398905863 505.0 3.0 365.0 
338.00010179366996 25298.0 NaN 1528.7588510354028 0.5034201426046786 509.0 1.0 366.0 
340.00010179366996 25299.0 NaN 1525.6406145624576 0.5032362245590762 510.0 0.0 366.0 
342.00010179366996 25305.0 NaN 1525.6993987975939 0.5022636156854893 509.0 1.0 365.0 
344.00010179366996 25321.0 NaN 1528.638610554443 0.5046518504003856 510.0 0.0 367.0 
346.00010179366996 25302.0 NaN 1519.4068136272545 0.5070406815091729 508.0 1.0 363.0 
348.00010179366996 25302.0 NaN 1519.3400133600549 0.5040661166422705 508.0 0.0 364.0 
350.00010179366996 25296.0 NaN 1525.5177020708093 0.5045242796080772 508.0 2.0 364.0 
352.00010179366996 25288.0 NaN 1522.3727454909817 0.5030931878569876 509.0 3.0 362.0 
354.00010179366996 25278.0 NaN 1519.409485637943 0.5049797757622011 513.0 1.0 363.0 
356.00010179366996 25261.0 NaN 1519.3239812959268 0.501753142696461 514.0 0.0 364.0 
358.00010179366996 25270.0 NaN 1519.4228456913816 0.5051630219972355 511.0 1.0 363.0 
360.00010179366996 25256.0 NaN 1516.3446893787568 0.504403849824146 513.0 0.0 363.0 
362.00010179366996 25242.0 NaN 1513.2959251836999 0.5078068574361065 513.0 1.0 361.0 
364.00010179366996 25204.0 NaN 1507.099532398128 0.5033158347377307 514.0 0.0 360.0 
366.00010179366996 25179.0 NaN 1504.112224448899 0.5030505866539329 512.0 2.0 357.0 
368.00010179366996 25188.0 NaN 1500.9298597194384 0.5039796049124078 512.0 3.0 355.0 
370.00010179366996 25186.0 NaN 1507.0781563126263 0.5051094788401437 513.0 2.0 358.0 
372.00010179366996 25161.0 NaN 1507.0888443553788 0.5051858045097489 513.0 1.0 359.0 
374.00010179366996 25107.0 NaN 1504.04008016032 0.5059407323788901 516.0 1.0 358.0 
376.00010179366996 25089.0 NaN 1500.8817635270545 0.5029719796725705 517.0 0.0 358.0 
378.00010179366996 25097.0 NaN 1497.8864395457574 0.5063996130473881 515.0 1.0 356.0 
380.00010179366996 25072.0 NaN 1500.91382765531 0.5059385538852 514.0 0.0 358.0 
382.00010179366996 25080.0 NaN 1497.8436873747487 0.5045518681066403 516.0 2.0 355.0 
384.00010179366996 25093.0 NaN 1497.8276553106205 0.5023535847120393 516.0 2.0 355.0 
386.00010179366996 25098.0 NaN 1494.778891115564 0.5025440720360443 516.0 1.0 355.0 
388.00010179366996 25100.0 NaN 1494.7120908483637 0.5052549314451582 514.0 1.0 355.0 
390.00010179366996 25068.0 NaN 1501.0394121576478 0.5053879624442792 511.0 2.0 356.0 
392.00010179366996 25050.0 NaN 1501.0207080828332 0.5050156033919828 517.0 1.0 357.0 
394.00010179366996 25040.0 NaN 1507.2331329325305 0.5041972823499989 518.0 1.0 359.0 
396.00010179366996 25021.0 NaN 1507.198396793588 0.5026539721454613 520.0 1.0 359.0 
398.00010179366996 25026.0 NaN 1504.0641282565123 0.508441495268338 518.0 2.0 357.0 
400.00010179366996 24980.0 NaN 1500.9806279225113 0.5078969885690735 515.0 4.0 354.0 
402.00010179366996 24964.0 NaN 1504.085504342018 0.5063950478043475 519.0 1.0 358.0 
404.00010179366996 24981.0 NaN 1507.1476285905153 0.5037155107789887 520.0 1.0 359.0 
406.00010179366996 24968.0 NaN 1513.1917167668666 0.503131818706854 521.0 1.0 361.0 
408.00010179366996 24977.0 NaN 1522.484969939881 0.5067586063575509 526.0 1.0 364.0 
410.00010179366996 24963.0 NaN 1525.5123580494333 0.5080329910693664 526.0 1.0 365.0 
412.00010179366996 24947.0 NaN 1522.4555778223098 0.5051391712766509 529.0 0.0 365.0 
414.00010179366996 24944.0 NaN 1519.3800935203733 0.505229662636004 528.0 1.0 363.0 
416.00010179366996 24907.0 NaN 1510.1082164328645 0.5042986829611644 528.0 1.0 360.0 
418.00010179366996 24903.0 NaN 1513.1649966599878 0.5052125230803157 526.0 1.0 361.0 
420.00010179366996 24905.0 NaN 1506.9953239812967 0.5038251657605787 526.0 1.0 359.0 
422.00010179366996 24896.0 NaN 1494.7361389445553 0.5060802822799149 519.0 1.0 355.0 
424.00010179366996 24883.0 NaN 1503.962591850367 0.5050636723321572 518.0 1.0 358.0 
426.00010179366996 24863.0 NaN 1507.1048764195057 0.503749341841178 520.0 1.0 359.0 
428.00010179366996 24848.0 NaN 1507.0621242484972 0.5068816756436115 520.0 1.0 359.0 
430.00010179366996 24832.0 NaN 1504.0080160320638 0.5064122477181946 519.0 2.0 357.0 
432.00010179366996 24813.0 NaN 1519.3346693386782 0.5049016231005501 524.0 1.0 363.0 
434.00010179366996 24824.0 NaN 1519.2705410821636 0.5045636899725552 527.0 1.0 363.0 
436.00010179366996 24827.0 NaN 1519.115564462257 0.503387038420739 527.0 1.0 363.0 
438.00010179366996 24832.0 NaN 1525.2905811623252 0.5059354337590587 526.0 1.0 365.0 
440.00010179366996 24820.0 NaN 1525.2825651302614 0.5063215333986095 527.0 1.0 365.0 
442.00010179366996 24808.0 NaN 1537.5738142952569 0.5053006585937047 528.0 1.0 369.0 
444.00010179366996 24812.0 NaN 1534.5971943887787 0.5038072333090178 530.0 1.0 368.0 
446.00010179366996 24819.0 NaN 1540.7454909819635 0.5043983297131919 531.0 3.0 368.0 
448.00010179366996 24833.0 NaN 1540.7054108216448 0.504710246267603 533.0 1.0 370.0 
450.00010179366996 24844.0 NaN 1543.8503674014703 0.5042644163513628 533.0 0.0 372.0 
452.00010179366996 24842.0 NaN 1543.8744154976632 0.5046453132186646 530.0 1.0 371.0 
454.00010179366996 24862.0 NaN 1546.9792919171668 0.5066240469120568 531.0 0.0 373.0 
456.00010179366996 24863.0 NaN 1546.9659318637273 0.5040055280798295 528.0 1.0 372.0 
458.00010179366996 24872.0 NaN 1546.9472277889095 0.5051036809142675 528.0 0.0 373.0 
460.00010179366996 24881.0 NaN 1546.963259853039 0.5036993905766373 527.0 0.0 373.0 
462.00010179366996 24893.0 NaN 1546.9445557782242 0.5076930049935698 526.0 0.0 373.0 
464.00010179366996 24869.0 NaN 1543.775551102203 0.5116365479078328 528.0 0.0 372.0 
466.00010179366996 24845.0 NaN 1543.842351369406 0.5036580901329784 526.0 0.0 372.0 
468.00010179366996 24860.0 NaN 1540.844355377421 0.5070404872373676 525.0 0.0 371.0 
470.00010179366996 24845.0 NaN 1540.8069472277905 0.5046382600925249 523.0 0.0 371.0 
472.00010179366996 24825.0 NaN 1534.5624582498335 0.5051919636893172 522.0 0.0 369.0 
474.00010179366996 24823.0 NaN 1528.4676018704085 0.5057888890801787 521.0 0.0 367.0 
476.00010179366996 24808.0 NaN 1528.4969939879752 0.5052774194221079 523.0 0.0 367.0 
478.00010179366996 24830.0 NaN 1528.4889779559114 0.5040448391597222 521.0 0.0 367.0 
480.00010179366996 24824.0 NaN 1525.517702070809 0.5033888928134833 521.0 0.0 366.0 
482.00010179366996 24840.0 NaN 1522.2925851703394 0.5044839442226982 519.0 0.0 365.0 
484.00010179366996 24871.0 NaN 1506.9124916499657 0.5038556815803019 516.0 0.0 360.0 
486.00010179366996 24873.0 NaN 1500.9565798263184 0.503442293130052 514.0 0.0 358.0 
488.00010179366996 24907.0 NaN 1494.7494989979969 0.50683756543435 513.0 0.0 356.0 
490.00010179366996 24917.0 NaN 1500.8577154308625 0.5040669288240062 514.0 0.0 358.0 
492.00010179366996 24903.0 NaN 1491.6125584502345 0.5042129558653372 514.0 0.0 355.0 
494.00010179366996 24926.0 NaN 1485.4428857715436 0.5088761556488323 510.0 1.0 352.0 
496.00010179366996 24899.0 NaN 1485.4989979959912 0.5031313317027764 509.0 0.0 353.0 
498.00010179366996 24906.0 NaN 1485.5898463593849 0.5056002563303537 510.0 0.0 353.0 
500.00010179366996 24917.0 NaN 1491.7541750167002 0.5039508768218025 509.0 1.0 354.0 
502.00010179366996 24918.0 NaN 1491.6633266533072 0.5066591295019703 511.0 0.0 355.0 
504.00010179366996 24939.0 NaN 1488.7909151636616 0.5058793383103312 510.0 0.0 354.0 
506.00010179366996 24899.0 NaN 1494.8750835003345 0.5074912073019126 513.0 0.0 356.0 
508.00010179366996 24907.0 NaN 1497.8490313961263 0.5048911275056723 516.0 0.0 357.0 
510.00010179366996 24914.0 NaN 1494.786907147628 0.504210662620527 512.0 1.0 355.0 
512.00010179367 24926.0 NaN 1488.5237140948554 0.5060550340747135 511.0 1.0 353.0 
514.00010179367 24963.0 NaN 1482.2765531062116 0.5064960759818058 511.0 0.0 352.0 
516.00010179367 24934.0 NaN 1476.3072812291257 0.5027473231193686 507.0 1.0 349.0 
518.00010179367 24974.0 NaN 1476.2591850367392 0.5054741878166557 508.0 2.0 348.0 
520.00010179367 24978.0 NaN 1460.9084836339355 0.5071609949786284 508.0 1.0 344.0 
522.00010179367 24969.0 NaN 1461.0073480293916 0.5085349525293897 501.0 3.0 342.0 
524.00010179367 24997.0 NaN 1464.0240480961916 0.5050766407340861 504.0 1.0 345.0 
526.00010179367 24993.0 NaN 1460.9752839011362 0.5031708828564379 506.0 0.0 345.0 
528.00010179367 24995.0 NaN 1464.1336005344012 0.5050331513888857 507.0 1.0 345.0 
530.00010179367 24998.0 NaN 1451.7595190380757 0.503151267933056 506.0 0.0 342.0 
532.00010179367 25011.0 NaN 1451.8102872411482 0.5057696528313281 507.0 1.0 341.0 
534.00010179367 25030.0 NaN 1451.6953907815637 0.5037614666326516 505.0 1.0 341.0 
536.00010179367 25023.0 NaN 1454.8029392117558 0.5019602509015302 503.0 2.0 341.0 
538.00010179367 25022.0 NaN 1460.9779559118244 0.5025589337644598 505.0 1.0 344.0 
540.00010179367 25011.0 NaN 1461.1008684034732 0.5038413883493297 506.0 1.0 344.0 
542.00010179367 24992.0 NaN 1467.1289245156988 0.5059750560834808 506.0 1.0 346.0 
544.00010179367 24954.0 NaN 1470.2150968603878 0.5069522416355989 505.0 2.0 346.0 
546.00010179367 24922.0 NaN 1467.0968603874421 0.5037001062301327 507.0 2.0 345.0 
548.00010179367 24929.0 NaN 1467.1529726118908 0.501830723855923 508.0 2.0 345.0 
550.00010179367 24951.0 NaN 1464.0026720106885 0.5032176425047439 506.0 2.0 344.0 
552.00010179367 24957.0 NaN 1464.09619238477 0.5016843843646303 507.0 2.0 344.0 
554.00010179367 24975.0 NaN 1467.0567802271205 0.5045197961624388 507.0 2.0 345.0 
556.00010179367 24972.0 NaN 1457.977287909152 0.5024010228025755 505.0 2.0 342.0 
558.00010179367 24955.0 NaN 1454.9365397461588 0.502190046456939 504.0 1.0 342.0 
560.00010179367 24949.0 NaN 1454.9659318637273 0.5022871250464153 503.0 1.0 342.0 
562.00010179367 24988.0 NaN 1457.8062792251171 0.5040249428963165 503.0 0.0 344.0 
564.00010179367 24992.0 NaN 1460.9405477621908 0.50337990821667 506.0 1.0 344.0 
566.00010179367 24973.0 NaN 1454.6346025384091 0.5034590246809246 505.0 0.0 343.0 
568.00010179367 24974.0 NaN 1460.9592518370075 0.502973359937406 507.0 1.0 344.0 
570.00010179367 24961.0 NaN 1467.115564462258 0.5038426724919695 509.0 0.0 347.0 
572.00010179367 24991.0 NaN 1473.3493653974622 0.5054389340737665 509.0 1.0 348.0 
574.00010179367 24991.0 NaN 1476.3099532398128 0.5037725581002075 508.0 0.0 350.0 
576.00010179367 24965.0 NaN 1473.389445557782 0.5050563873304319 508.0 1.0 348.0 
578.00010179367 24973.0 NaN 1470.268537074148 0.5031565526442779 510.0 0.0 348.0 
580.00010179367 24992.0 NaN 1470.2738810955245 0.5027776132452757 510.0 1.0 347.0 
582.00010179367 25002.0 NaN 1473.3333333333337 0.5021178575114494 512.0 0.0 349.0 
584.00010179367 25021.0 NaN 1476.3794255177013 0.502700611223679 517.0 1.0 349.0 
586.00010179367 25009.0 NaN 1473.282565130261 0.5050657291098236 520.0 0.0 349.0 
588.00010179367 25030.0 NaN 1476.4702738810947 0.5029904786932953 519.0 1.0 349.0 
590.00010179367 25055.0 NaN 1482.4101536406147 0.5032423695088122 523.0 0.0 352.0 
592.00010179367 25075.0 NaN 1482.3834335337351 0.50380094192268 524.0 1.0 351.0 
594.00010179367 25043.0 NaN 1485.4829659318634 0.5031802307208559 525.0 0.0 353.0 
596.00010179367 25023.0 NaN 1485.4936539746168 0.5018865948243639 524.0 1.0 352.0 
598.00010179367 25062.0 NaN 1488.5985303941213 0.5038754753628097 524.0 0.0 354.0 
600.00010179367 25107.0 NaN 1491.7541750167002 0.50420772560842 525.0 1.0 354.0 
602.00010179367 25155.0 NaN 1488.5691382765535 0.5037770413480024 525.0 0.0 354.0 
604.00010179367 25147.0 NaN 1500.9939879759527 0.5051452345932161 527.0 1.0 357.0 
606.00010179367 25143.0 NaN 1497.8997995991988 0.5063361982564901 526.0 0.0 357.0 
608.00010179367 25166.0 NaN 1504.0160320641276 0.5077269229305906 527.0 1.0 358.0 
610.00010179367 25146.0 NaN 1504.0 0.505764815471105 528.0 0.0 359.0 
612.00010179367 25112.0 NaN 1500.9592518370077 0.5045017965811481 527.0 1.0 357.0 
614.00010179367 25115.0 NaN 1500.8496993987983 0.5036570328816511 526.0 0.0 358.0 
616.00010179367 25111.0 NaN 1500.9458917835664 0.5041238797213583 524.0 1.0 357.0 
618.00010179367 25182.0 NaN 1503.9198396793577 0.5049147868959848 522.0 1.0 358.0 
620.00010179367 25181.0 NaN 1516.2191048764191 0.5071950553997902 521.0 5.0 358.0 
622.00010179367 25144.0 NaN 1516.114896459585 0.5018658474806061 521.0 3.0 360.0 
624.00010179367 25159.0 NaN 1516.2004008016022 0.5038206201441603 521.0 4.0 359.0 
626.00010179367 25137.0 NaN 1516.20574482298 0.5052533626018545 521.0 3.0 360.0 
628.00010179367 25172.0 NaN 1519.484301937208 0.5042161000328432 522.0 3.0 361.0 
630.00010179367 25161.0 NaN 1516.448897795591 0.5045201101775355 524.0 3.0 360.0 
632.00010179367 25144.0 NaN 1525.6940547762183 0.5030820539014291 525.0 3.0 363.0 
634.00010179367 25190.0 NaN 1522.4849699398806 0.5039444300955649 529.0 4.0 361.0 
636.00010179367 25180.0 NaN 1522.5891783567122 0.5034691134266667 531.0 2.0 363.0 
638.00010179367 25167.0 NaN 1519.4468937875745 0.5069121548947397 532.0 2.0 362.0 
640.00010179367 25119.0 NaN 1513.317301269206 0.5058608963501555 526.0 2.0 360.0 
642.00010179367 25095.0 NaN 1510.2177688710747 0.5032455935489438 523.0 2.0 359.0 
644.00010179367 25114.0 NaN 1513.2531730126911 0.5025401825434361 521.0 3.0 359.0 
646.00010179367 25110.0 NaN 1513.1543086172353 0.5019066411148986 520.0 3.0 359.0 
648.00010179367 25122.0 NaN 1513.247828991317 0.5049858064769628 518.0 3.0 359.0 
650.00010179367 25078.0 NaN 1510.0173680694727 0.5020384616877883 519.0 3.0 358.0 
652.00010179367 25066.0 NaN 1525.5604542418175 0.5018859814557596 520.0 3.0 363.0 
654.00010179367 25086.0 NaN 1525.5043420173668 0.5061851378005694 518.0 3.0 363.0 
656.00010179367 25077.0 NaN 1525.5444221776897 0.504149447845447 516.0 4.0 362.0 
658.00010179367 25065.0 NaN 1525.5738142952564 0.5041440484172567 515.0 4.0 362.0 
660.00010179367 25027.0 NaN 1534.9579158316637 0.5054017926601714 509.0 4.0 365.0 
662.00010179367 25000.0 NaN 1537.8223112892456 0.5042198014718808 512.0 4.0 366.0 
664.00010179367 24995.0 NaN 1537.9639278557102 0.5045159509219206 515.0 3.0 367.0 
#####################################################################
# End of data export. Simulation finished at: 2019-03-08T01:23+0000 #
#####################################################################
