#####################################################################
# Alchemist log file - simulation started at: 2019-03-08T01:58+0000 #
#####################################################################
# seed = 5.0, bandwidth = 1.0E8, propagationDelay = 0.31622776601683794, baserange = 31.622776601683796
#
# The columns have the following meaning: 
# time neighbor_count[Sum] <value>@neighbor_count[Sum] packet_size[Mean] mean_delay[Mean] crowd[Sum] overcrowded[Sum] risk[Sum] 
0.0 NaN NaN NaN NaN NaN NaN NaN 
2.000101793669918 2638.0 NaN 4992.961923847695 0.4872120153390449 1496.0 1.0 1496.0 
4.000101793669918 2784.0 NaN 4999.74081496326 0.5129972700899208 1490.0 7.0 1490.0 
6.000101793669918 2784.0 NaN 4995.668670674682 0.5129972978834115 1472.0 25.0 1472.0 
8.000101793669918 2789.0 NaN 4996.766867067468 0.5136916403242766 1450.0 47.0 1450.0 
10.000101793669918 2790.0 NaN 4996.443553774215 0.5132314524903242 1424.0 73.0 1424.0 
12.000101793669918 2792.0 NaN 4994.789579158317 0.5141535880549807 1413.0 84.0 1413.0 
14.000101793669918 2788.0 NaN 4995.152972611891 0.5138581895032851 1415.0 82.0 1415.0 
16.00010179366992 2789.0 NaN 4994.324649298597 0.5132006970057925 1410.0 87.0 1410.0 
18.00010179366992 2795.0 NaN 4994.297929191716 0.5139440275400232 1407.0 90.0 1407.0 
20.00010179366992 2803.0 NaN 4994.888443553774 0.5165519479826088 1417.0 80.0 1417.0 
22.00010179366992 2800.0 NaN 4993.384101536406 0.5136751282344143 1409.0 88.0 1409.0 
24.00010179366992 2797.0 NaN 4994.476953907815 0.5138199396701024 1406.0 91.0 1406.0 
26.00010179366992 2800.0 NaN 4993.311957247829 0.5142132261832598 1407.0 90.0 1407.0 
28.00010179366992 2801.0 NaN 4994.420841683367 0.5146965630148722 1407.0 90.0 1407.0 
30.00010179366992 2806.0 NaN 4994.204408817635 0.5136037809701332 1407.0 90.0 1407.0 
32.00010179366992 2808.0 NaN 4993.450901803607 0.5204337957318321 1409.0 88.0 1409.0 
34.00010179366992 2808.0 NaN 4993.9692718770875 0.5170711993068635 1403.0 94.0 1403.0 
36.00010179366992 2811.0 NaN 4993.424181696727 0.5146325431900308 1404.0 93.0 1404.0 
38.00010179366992 2810.0 NaN 4993.838343353374 0.5155698774042873 1409.0 88.0 1409.0 
40.00010179366992 2819.0 NaN 4994.492985971944 0.5161105144756175 1412.0 85.0 1412.0 
42.00010179366992 2817.0 NaN 4993.226452905812 0.5147099586561259 1401.0 96.0 1401.0 
44.00010179366992 2824.0 NaN 4994.073480293921 0.520504173885425 1409.0 88.0 1409.0 
46.00010179366992 2826.0 NaN 4993.539078156313 0.5205396939650737 1404.0 93.0 1404.0 
48.00010179366992 2831.0 NaN 4994.14295257181 0.5221542802463225 1401.0 96.0 1401.0 
50.00010179366992 2842.0 NaN 4994.086840347361 0.5195023788012032 1405.0 92.0 1405.0 
52.00010179366992 2834.0 NaN 4993.670006680027 0.5161897808537014 1398.0 99.0 1398.0 
54.00010179366992 2846.0 NaN 4993.739478957916 0.5180391453413908 1391.0 106.0 1391.0 
56.00010179366992 2834.0 NaN 4993.547094188377 0.5192426923096405 1406.0 91.0 1406.0 
58.00010179366992 2841.0 NaN 4994.068136272545 0.5197190321098303 1402.0 95.0 1402.0 
60.00010179366992 2851.0 NaN 4991.2598530394125 0.5176507312037363 1408.0 88.0 1408.0 
62.00010179366992 2845.0 NaN 1521.8223112892456 0.5201561663178184 594.0 93.0 272.0 
64.00010179366993 2843.0 NaN 1521.6486305945211 0.5173100321317262 515.0 95.0 270.0 
66.00010179366993 2844.0 NaN 1521.5764863059455 0.5158461373643074 459.0 97.0 268.0 
68.00010179366993 2856.0 NaN 1524.5557782231122 0.5209625964642836 437.0 89.0 277.0 
70.00010179366993 2871.0 NaN 1524.5584502338 0.5220575224280992 412.0 90.0 276.0 
72.00010179366993 2857.0 NaN 1524.5210420841693 0.5202610961942822 398.0 96.0 270.0 
74.00010179366993 2849.0 NaN 1527.623246492985 0.5172921159759368 398.0 94.0 273.0 
76.00010179366993 2847.0 NaN 1527.6205744822996 0.5171785572634285 396.0 94.0 273.0 
78.00010179366993 2875.0 NaN 1530.8109552438207 0.5227201270949582 388.0 99.0 269.0 
80.00010179366993 2850.0 NaN 1533.8329993319974 0.5258684962811435 396.0 87.0 282.0 
82.00010179366993 2839.0 NaN 1533.7234468937882 0.5179086889349531 389.0 95.0 274.0 
84.00010179366993 2844.0 NaN 1533.8383433533727 0.5233743790809194 389.0 93.0 276.0 
86.00010179366993 2807.0 NaN 1533.8757515030065 0.5191956691917226 389.0 93.0 276.0 
88.00010179366993 2821.0 NaN 1533.7661990647969 0.5203746189004437 393.0 89.0 280.0 
90.00010179366993 2811.0 NaN 1533.8410153640634 0.5217802441184338 395.0 85.0 284.0 
92.00010179366993 2802.0 NaN 1533.7581830327333 0.5195232888772539 389.0 89.0 280.0 
94.00010179366993 2814.0 NaN 1533.763527054109 0.5231116237132244 383.0 92.0 277.0 
96.00010179366993 2794.0 NaN 1533.806279225118 0.5179401538778488 386.0 88.0 281.0 
98.00010179366993 2799.0 NaN 1536.8283233132931 0.524496389462276 381.0 91.0 279.0 
100.00010179366993 2787.0 NaN 1536.7909151636609 0.5172161870908516 390.0 82.0 288.0 
102.00010179366993 2788.0 NaN 1536.8096192384758 0.5275118528380351 379.0 93.0 277.0 
104.00010179366993 2784.0 NaN 1536.7722110888458 0.5188482883533246 381.0 90.0 280.0 
106.00010179366993 2784.0 NaN 1539.7889111556456 0.5195572176828716 377.0 94.0 277.0 
108.00010179366993 2795.0 NaN 1540.0534402137612 0.5192055705310228 379.0 92.0 279.0 
110.00010179366993 2785.0 NaN 1539.8610554442212 0.5170060120814689 390.0 81.0 290.0 
112.00010179366993 2796.0 NaN 1539.8209752838998 0.5222738200340573 381.0 90.0 281.0 
114.00010179366993 2798.0 NaN 1539.938543754173 0.5239024655884924 380.0 91.0 280.0 
116.00010179366993 2793.0 NaN 1539.863727454909 0.5145553551033593 379.0 94.0 277.0 
118.00010179366993 2825.0 NaN 1539.9625918503666 0.5210392113089718 380.0 93.0 278.0 
120.00010179366993 2814.0 NaN 1539.8396793587183 0.5220464974731883 395.0 80.0 291.0 
122.00010179366993 2813.0 NaN 1542.9338677354726 0.5194462947823695 388.0 88.0 284.0 
124.00010179366993 2811.0 NaN 1542.8937875751517 0.5228333117438927 392.0 84.0 288.0 
126.00010179366993 2787.0 NaN 1543.0541082164334 0.5136978447632096 389.0 86.0 286.0 
128.00010179366993 2805.0 NaN 1539.935871743488 0.5243299550320271 393.0 83.0 288.0 
130.00010179366993 2773.0 NaN 1539.8931195724788 0.5285206800692392 399.0 77.0 294.0 
132.00010179366993 2762.0 NaN 1540.109552438209 0.5128812406019988 390.0 84.0 287.0 
134.00010179366993 2765.0 NaN 1536.8550434201725 0.5185267898958201 391.0 82.0 288.0 
136.00010179366993 2771.0 NaN 1533.814295257182 0.5180114250529548 393.0 79.0 290.0 
138.00010179366993 2798.0 NaN 1533.9505678022724 0.5198352452378304 391.0 79.0 290.0 
140.00010179366993 2790.0 NaN 1533.835671342685 0.5224985865979618 394.0 74.0 295.0 
142.00010179366993 2795.0 NaN 1536.8977955911816 0.5240734133733184 382.0 86.0 284.0 
144.00010179366993 2823.0 NaN 1536.895123580494 0.5194879308720005 386.0 81.0 289.0 
146.00010179366993 2821.0 NaN 1536.9378757515028 0.5169928266596507 375.0 92.0 278.0 
148.00010179366993 2828.0 NaN 1533.7875751503 0.5234804577154011 380.0 89.0 280.0 
150.00010179366993 2831.0 NaN 1533.862391449564 0.5208505709150383 379.0 90.0 279.0 
152.00010179366993 2833.0 NaN 1527.5644622578486 0.5172847174053905 372.0 96.0 271.0 
154.00010179366993 2843.0 NaN 1527.607214428857 0.5177888526669879 374.0 94.0 273.0 
156.00010179366993 2837.0 NaN 1530.9044756179023 0.5163322500897812 372.0 93.0 275.0 
158.00010179366993 2849.0 NaN 1533.9345357381428 0.5225881514350722 373.0 94.0 275.0 
160.00010179366993 2833.0 NaN 1533.814295257182 0.529130479251758 369.0 98.0 271.0 
162.00010179366993 2811.0 NaN 1533.9398797595181 0.5150551711674898 366.0 101.0 268.0 
164.00010179366993 2828.0 NaN 1536.9913159652635 0.5235937271953658 362.0 105.0 265.0 
166.00010179366993 2801.0 NaN 1536.943219772879 0.5144123128266169 366.0 101.0 269.0 
168.00010179366993 2816.0 NaN 1531.000668002673 0.527557274057692 377.0 90.0 278.0 
170.00010179366993 2802.0 NaN 1533.8463593854362 0.5186721824995939 381.0 84.0 285.0 
172.00010179366993 2793.0 NaN 1533.7822311289246 0.5159490903640849 383.0 82.0 287.0 
174.00010179366993 2815.0 NaN 1537.1088844355363 0.5214722257822638 381.0 81.0 289.0 
176.00010179366993 2788.0 NaN 1533.8356713426845 0.5150543034349997 371.0 89.0 280.0 
178.00010179366993 2793.0 NaN 1536.9405477621908 0.5292802854055234 375.0 87.0 283.0 
180.00010179366993 2769.0 NaN 1533.942551770209 0.5193397729907321 382.0 81.0 288.0 
182.00010179366993 2767.0 NaN 1533.814295257182 0.5136909624823376 377.0 86.0 283.0 
184.00010179366993 2803.0 NaN 1536.9806279225115 0.5216773910263038 368.0 96.0 274.0 
186.00010179366993 2768.0 NaN 1533.9131596526363 0.5088019570584326 367.0 96.0 273.0 
188.00010179366993 2788.0 NaN 1540.0374081496338 0.5267428444975354 377.0 87.0 284.0 
190.00010179366993 2763.0 NaN 1537.0688042752186 0.5147253003095031 379.0 86.0 284.0 
192.00010179366993 2768.0 NaN 1533.9665998664002 0.5144302626186683 372.0 94.0 275.0 
194.00010179366993 2774.0 NaN 1537.0447561790247 0.5224395293468078 377.0 88.0 282.0 
196.00010179366993 2745.0 NaN 1537.0447561790247 0.518144942732593 373.0 91.0 279.0 
198.00010179366993 2768.0 NaN 1540.1710086840362 0.5212156606990186 373.0 92.0 279.0 
200.00010179366993 2777.0 NaN 1543.0968603874428 0.5177463885497228 379.0 86.0 286.0 
202.00010179366993 2785.0 NaN 1543.0140280561116 0.5153466514210604 371.0 94.0 278.0 
204.00010179366993 2781.0 NaN 1543.2571810287247 0.5201949749804344 372.0 93.0 279.0 
206.00010179366993 2746.0 NaN 1543.1476285905155 0.5117510672182275 367.0 98.0 274.0 
208.00010179366993 2752.0 NaN 1540.0080160320636 0.5252160671996161 367.0 99.0 272.0 
210.00010179366993 2755.0 NaN 1536.9138276553092 0.5222236808381729 370.0 95.0 275.0 
212.00010179366993 2745.0 NaN 1536.8523714094845 0.5164785815126807 358.0 105.0 265.0 
214.00010179366993 2748.0 NaN 1539.9599198396795 0.5219401126880873 355.0 109.0 262.0 
216.00010179366993 2729.0 NaN 1536.8844355377428 0.5101843137533111 361.0 102.0 268.0 
218.00010179366993 2744.0 NaN 1533.8543754175003 0.5277615191918695 368.0 96.0 273.0 
220.00010179366993 2742.0 NaN 1536.8897795591183 0.5179555188733076 372.0 91.0 279.0 
222.00010179366993 2767.0 NaN 1540.072144288576 0.5180786028095848 362.0 100.0 271.0 
224.00010179366993 2769.0 NaN 1539.9786239144967 0.5215719769161081 368.0 94.0 277.0 
226.00010179366993 2747.0 NaN 1536.8817635270545 0.5186524056919638 366.0 95.0 275.0 
228.00010179366993 2746.0 NaN 1543.1369405477635 0.5166006606848403 366.0 96.0 276.0 
230.00010179366993 2751.0 NaN 1543.0167000667998 0.5176465900158901 370.0 93.0 279.0 
232.00010179366993 2757.0 NaN 1545.9933199732818 0.5186502828606463 372.0 91.0 282.0 
234.00010179366993 2743.0 NaN 1546.2044088176365 0.5195976149049087 370.0 93.0 280.0 
236.00010179366993 2719.0 NaN 1542.9311957247817 0.519233448159025 366.0 95.0 277.0 
238.00010179366993 2713.0 NaN 1539.9545758183026 0.5208686896436602 365.0 96.0 275.0 
240.00010179366993 2715.0 NaN 1539.9465597862388 0.5209253215862469 372.0 89.0 282.0 
242.00010179366993 2716.0 NaN 1539.778223112891 0.5224015156115239 360.0 98.0 273.0 
244.00010179366993 2712.0 NaN 1539.9251837007362 0.5221685773843736 355.0 103.0 268.0 
246.00010179366993 2703.0 NaN 1539.9438877755517 0.5127596302478551 355.0 103.0 268.0 
248.00010179366993 2703.0 NaN 1536.761523046091 0.5188172171450344 358.0 101.0 269.0 
250.00010179366993 2700.0 NaN 1536.7962591850362 0.5166209188178105 363.0 96.0 274.0 
252.00010179366993 2707.0 NaN 1536.8042752171 0.5208760831291438 360.0 96.0 274.0 
254.00010179366993 2706.0 NaN 1533.8490313961272 0.5202093803253767 357.0 99.0 270.0 
256.00010179366996 2699.0 NaN 1530.7762191048755 0.5162982114371939 363.0 94.0 274.0 
258.00010179366996 2701.0 NaN 1530.7815631262542 0.5136350921172985 363.0 95.0 273.0 
260.00010179366996 2710.0 NaN 1530.6078824315296 0.5251134781627435 372.0 85.0 283.0 
262.00010179366996 2717.0 NaN 1527.5323981295912 0.5257962651730806 365.0 93.0 274.0 
264.00010179366996 2707.0 NaN 1536.9138276553092 0.523056501725271 368.0 92.0 278.0 
266.00010179366996 2693.0 NaN 1533.7608550434184 0.5109672769061826 371.0 88.0 281.0 
268.00010179366996 2698.0 NaN 1536.8176352705427 0.5121161792473556 383.0 76.0 294.0 
270.00010179366996 2695.0 NaN 1536.8470273881092 0.5219165966521817 388.0 69.0 301.0 
272.00010179366996 2677.0 NaN 1533.6780227120908 0.5196707793243042 384.0 75.0 294.0 
274.00010179366996 2663.0 NaN 1533.6940547762183 0.524400881948131 381.0 78.0 291.0 
276.00010179366996 2650.0 NaN 1539.951903807616 0.5232342373755918 380.0 77.0 294.0 
278.00010179366996 2644.0 NaN 1539.8931195724795 0.5161616490265662 385.0 77.0 294.0 
280.00010179366996 2651.0 NaN 1539.706078824316 0.5187632750842901 394.0 71.0 300.0 
282.00010179366996 2661.0 NaN 1536.7828991315973 0.5329956893440505 385.0 78.0 292.0 
284.00010179366996 2641.0 NaN 1533.7608550434184 0.5205596184876199 383.0 79.0 290.0 
286.00010179366996 2627.0 NaN 1533.6299265197067 0.5166453888199902 382.0 78.0 291.0 
288.00010179366996 2626.0 NaN 1533.7127588510364 0.5159860482989189 383.0 75.0 294.0 
290.00010179366996 2624.0 NaN 1533.6058784235115 0.5202001387156878 387.0 71.0 298.0 
292.00010179366996 2618.0 NaN 1533.5497661990635 0.5171943897630494 382.0 76.0 293.0 
294.00010179366996 2610.0 NaN 1530.642618570473 0.5127816920189515 379.0 78.0 290.0 
296.00010179366996 2603.0 NaN 1530.543754175018 0.5090340810360566 384.0 73.0 295.0 
298.00010179366996 2611.0 NaN 1536.6920507682023 0.5132396102468361 384.0 73.0 297.0 
300.00010179366996 2612.0 NaN 1536.7054108216453 0.5125828015736064 388.0 69.0 301.0 
302.00010179366996 2625.0 NaN 1530.538410153639 0.5170803327218911 381.0 76.0 292.0 
304.00010179366996 2625.0 NaN 1530.551770207082 0.5219981739083808 378.0 77.0 291.0 
306.00010179366996 2627.0 NaN 1536.830995323982 0.5093706795267605 384.0 73.0 297.0 
308.00010179366996 2634.0 NaN 1536.753507014027 0.5174010932814367 388.0 70.0 300.0 
310.00010179366996 2627.0 NaN 1536.7134268537088 0.5105629246034696 390.0 66.0 304.0 
312.00010179366996 2627.0 NaN 1536.6893787575157 0.5213626606058215 384.0 72.0 298.0 
314.00010179366996 2618.0 NaN 1530.6533066132274 0.5164480896201645 378.0 78.0 290.0 
316.00010179366996 2619.0 NaN 1530.6105544422182 0.5113949351759366 387.0 71.0 297.0 
318.00010179366996 2628.0 NaN 1530.749498997997 0.5182749285340469 387.0 71.0 297.0 
320.00010179366996 2605.0 NaN 1530.6372745490999 0.5114150172563775 393.0 64.0 304.0 
322.00010179366996 2611.0 NaN 1533.7100868403456 0.5146305546162606 387.0 70.0 299.0 
324.00010179366996 2608.0 NaN 1530.7361389445546 0.5201066368542694 385.0 71.0 297.0 
326.00010179366996 2597.0 NaN 1533.7474949899818 0.5132377238961557 384.0 72.0 297.0 
328.00010179366996 2605.0 NaN 1530.6666666666663 0.5170519099469671 383.0 71.0 297.0 
330.00010179366996 2608.0 NaN 1530.7094188376755 0.5103678982975537 383.0 71.0 297.0 
332.00010179366996 2612.0 NaN 1530.460921843688 0.5198869985041541 381.0 74.0 294.0 
334.00010179366996 2603.0 NaN 1530.6265865063453 0.5186823779851192 381.0 72.0 296.0 
336.00010179366996 2615.0 NaN 1530.6185704742818 0.517858889235038 384.0 70.0 298.0 
338.00010179366996 2614.0 NaN 1530.6880427521726 0.5087981813658802 384.0 70.0 298.0 
340.00010179366996 2632.0 NaN 1524.4782899131606 0.5211869423153803 390.0 65.0 301.0 
342.00010179366996 2624.0 NaN 1524.4649298597183 0.5156529104965105 383.0 72.0 294.0 
344.00010179366996 2624.0 NaN 1527.5430861723455 0.5112602069105672 384.0 72.0 295.0 
346.00010179366996 2621.0 NaN 1524.5290581162333 0.5164606284960493 383.0 72.0 294.0 
348.00010179366996 2621.0 NaN 1518.3861055444213 0.5129734612686265 384.0 70.0 294.0 
350.00010179366996 2647.0 NaN 1524.4916499666 0.5242718914431717 390.0 66.0 300.0 
352.00010179366996 2625.0 NaN 1521.3974615898453 0.520717335065793 386.0 71.0 294.0 
354.00010179366996 2621.0 NaN 1518.431529726118 0.5125169453444969 385.0 73.0 291.0 
356.00010179366996 2618.0 NaN 1518.3941215764878 0.5199720198970967 386.0 72.0 292.0 
358.00010179366996 2619.0 NaN 1518.452905811624 0.5290269359837254 378.0 79.0 285.0 
360.00010179366996 2629.0 NaN 1515.3426853707424 0.5300739566214645 384.0 72.0 291.0 
362.00010179366996 2619.0 NaN 1512.157648630594 0.5229104205071061 374.0 81.0 281.0 
364.00010179366996 2619.0 NaN 1506.0814963259847 0.521531178313447 370.0 86.0 274.0 
366.00010179366996 2630.0 NaN 1503.0567802271203 0.5226959984753597 371.0 85.0 274.0 
368.00010179366996 2631.0 NaN 1499.906479625918 0.5264241440513843 370.0 86.0 272.0 
370.00010179366996 2638.0 NaN 1506.1082164328645 0.534366281790192 377.0 80.0 280.0 
372.00010179366996 2617.0 NaN 1506.126920507682 0.5411491039525927 371.0 86.0 274.0 
374.00010179366996 2594.0 NaN 1506.0814963259847 0.5191794783710567 372.0 86.0 274.0 
376.00010179366996 2606.0 NaN 1503.032732130928 0.5225230792035596 378.0 80.0 279.0 
378.00010179366996 2614.0 NaN 1499.9385437541737 0.5227070631425413 379.0 80.0 278.0 
380.00010179366996 2628.0 NaN 1499.8236472945898 0.5264338493057052 381.0 77.0 281.0 
382.00010179366996 2634.0 NaN 1496.892451569807 0.52906348859553 376.0 83.0 274.0 
384.00010179366996 2645.0 NaN 1499.9679358717444 0.5303176855067927 377.0 84.0 274.0 
386.00010179366996 2614.0 NaN 1496.8443553774207 0.5181067014765713 376.0 83.0 274.0 
388.00010179366996 2629.0 NaN 1496.9084836339355 0.5241072163584051 380.0 80.0 277.0 
390.00010179366996 2631.0 NaN 1499.9652638610548 0.5276516223813243 382.0 77.0 281.0 
392.00010179366996 2635.0 NaN 1502.9418837675357 0.5411266083051072 383.0 80.0 279.0 
394.00010179366996 2634.0 NaN 1509.1756847027384 0.529340092932443 384.0 76.0 285.0 
396.00010179366996 2615.0 NaN 1509.271877087509 0.515304228027641 393.0 72.0 289.0 
398.00010179366996 2624.0 NaN 1509.2317969271885 0.5196801016880346 396.0 71.0 290.0 
400.00010179366996 2625.0 NaN 1502.952571810288 0.5202117841052335 403.0 64.0 295.0 
402.00010179366996 2645.0 NaN 1506.0146960587838 0.5344793869679851 397.0 70.0 290.0 
404.00010179366996 2642.0 NaN 1509.1890447561796 0.5210135595664543 397.0 69.0 292.0 
406.00010179366996 2635.0 NaN 1515.374749498999 0.5158433955516976 400.0 69.0 294.0 
408.00010179366996 2647.0 NaN 1521.458917835672 0.5202525229144226 407.0 65.0 300.0 
410.00010179366996 2661.0 NaN 1524.4996659986634 0.5205354981992771 411.0 61.0 305.0 
412.00010179366996 2660.0 NaN 1521.3573814295266 0.5276868713717555 413.0 61.0 304.0 
414.00010179366996 2645.0 NaN 1518.4475617902463 0.5345938168891696 412.0 62.0 302.0 
416.00010179366996 2609.0 NaN 1518.4128256513025 0.5182856231247397 412.0 62.0 302.0 
418.00010179366996 2627.0 NaN 1512.2591850367394 0.5268750158721391 406.0 68.0 294.0 
420.00010179366996 2633.0 NaN 1506.2177688710751 0.5218499117641501 411.0 60.0 300.0 
422.00010179366996 2641.0 NaN 1499.9492317969275 0.5225762238081811 403.0 67.0 291.0 
424.00010179366996 2655.0 NaN 1499.9412157648637 0.5331690835831091 399.0 68.0 290.0 
426.00010179366996 2621.0 NaN 1506.1830327321306 0.5209508150323913 400.0 69.0 291.0 
428.00010179366996 2618.0 NaN 1506.100200400801 0.5194776111314647 395.0 74.0 286.0 
430.00010179366996 2615.0 NaN 1503.032732130928 0.5275840691321844 396.0 73.0 286.0 
432.00010179366996 2609.0 NaN 1518.3353373413486 0.5303251456290597 396.0 77.0 287.0 
434.00010179366996 2614.0 NaN 1518.412825651302 0.5199435176289525 398.0 78.0 286.0 
436.00010179366996 2617.0 NaN 1518.3406813627264 0.5236026272992033 404.0 73.0 291.0 
438.00010179366996 2623.0 NaN 1518.399465597863 0.5235590886589986 404.0 72.0 292.0 
440.00010179366996 2619.0 NaN 1524.376753507015 0.5343569237493985 407.0 69.0 297.0 
442.00010179366996 2617.0 NaN 1536.7909151636613 0.5229993377461566 399.0 76.0 294.0 
444.00010179366996 2620.0 NaN 1536.8710754843007 0.5213209663541124 398.0 78.0 292.0 
446.00010179366996 2613.0 NaN 1539.8129592518362 0.5220838592681277 399.0 81.0 290.0 
448.00010179366996 2620.0 NaN 1539.7461589846364 0.5191520836389879 401.0 78.0 293.0 
450.00010179366996 2613.0 NaN 1539.8396793587183 0.5201532488558505 409.0 71.0 300.0 
452.00010179366996 2606.0 NaN 1539.671342685372 0.537132434909922 403.0 76.0 295.0 
454.00010179366996 2598.0 NaN 1542.859051436206 0.5168281914703273 401.0 78.0 294.0 
456.00010179366996 2598.0 NaN 1549.039412157648 0.5212067640035898 402.0 77.0 297.0 
458.00010179366996 2601.0 NaN 1545.9131596526368 0.5271520719655569 401.0 76.0 297.0 
460.00010179366996 2582.0 NaN 1545.8757515030065 0.5267273855732713 410.0 67.0 306.0 
462.00010179366996 2571.0 NaN 1545.8810955243816 0.5170925786446955 399.0 78.0 295.0 
464.00010179366996 2571.0 NaN 1542.6987307949244 0.5114043229251818 399.0 77.0 295.0 
466.00010179366996 2574.0 NaN 1542.802939211755 0.5198708211311781 399.0 76.0 296.0 
468.00010179366996 2577.0 NaN 1539.818303273212 0.520313917545529 399.0 74.0 297.0 
470.00010179366996 2562.0 NaN 1542.6639946559792 0.5240236083948512 400.0 74.0 298.0 
472.00010179366996 2573.0 NaN 1536.6199064796272 0.5232006156641253 399.0 73.0 297.0 
474.00010179366996 2566.0 NaN 1530.490313961255 0.5159518212107946 394.0 76.0 292.0 
476.00010179366996 2559.0 NaN 1527.3373413493644 0.5170913975081011 397.0 73.0 294.0 
478.00010179366996 2569.0 NaN 1527.404141616566 0.5241069352973634 400.0 70.0 297.0 
480.00010179366996 2570.0 NaN 1527.3854375417511 0.5238843421906456 408.0 64.0 303.0 
482.00010179366996 2574.0 NaN 1521.2077488309944 0.5238288307371073 399.0 72.0 293.0 
484.00010179366996 2575.0 NaN 1509.0527722110899 0.5160040929007709 398.0 72.0 289.0 
486.00010179366996 2566.0 NaN 1499.8076152304616 0.506026405798795 397.0 72.0 286.0 
488.00010179366996 2566.0 NaN 1496.6199064796265 0.5235052643419607 396.0 70.0 287.0 
490.00010179366996 2575.0 NaN 1499.8102872411482 0.5267124092080001 398.0 66.0 292.0 
492.00010179366996 2569.0 NaN 1490.6506346025376 0.5313942186380418 391.0 71.0 284.0 
494.00010179366996 2550.0 NaN 1490.5758183032729 0.5199246430417513 387.0 73.0 282.0 
496.00010179366996 2548.0 NaN 1484.4275217100878 0.5107145001198969 387.0 71.0 282.0 
498.00010179366996 2556.0 NaN 1484.5076820307277 0.5241808918777504 385.0 71.0 282.0 
500.00010179366996 2562.0 NaN 1484.3687374749488 0.5203106008404945 390.0 65.0 288.0 
502.00010179366996 2574.0 NaN 1490.6292585170352 0.5248715079334947 381.0 71.0 284.0 
504.00010179366996 2570.0 NaN 1490.7227788911161 0.5207919582863946 381.0 71.0 284.0 
506.00010179366996 2566.0 NaN 1493.6245824983293 0.520280633094228 382.0 71.0 285.0 
508.00010179366996 2579.0 NaN 1496.7561790247173 0.5227377822844169 388.0 71.0 286.0 
510.00010179366996 2596.0 NaN 1496.8496993987983 0.5183732794387462 386.0 72.0 285.0 
512.00010179367 2603.0 NaN 1487.535070140281 0.525285060722246 379.0 77.0 277.0 
514.00010179367 2589.0 NaN 1484.4221776887102 0.52563067038054 376.0 79.0 274.0 
516.00010179367 2565.0 NaN 1478.4208416833658 0.517615545543121 374.0 77.0 274.0 
518.00010179367 2578.0 NaN 1478.2792251169 0.5251786967046672 374.0 77.0 274.0 
520.00010179367 2577.0 NaN 1466.049432197728 0.5207185555972643 379.0 70.0 277.0 
522.00010179367 2577.0 NaN 1459.8931195724792 0.521884165492071 371.0 76.0 269.0 
524.00010179367 2567.0 NaN 1462.9979959919829 0.5218232345560566 370.0 74.0 272.0 
526.00010179367 2564.0 NaN 1463.080828323312 0.5165684461142429 371.0 74.0 272.0 
528.00010179367 2576.0 NaN 1463.0541082164339 0.5129419787323299 376.0 73.0 273.0 
530.00010179367 2587.0 NaN 1459.9278557114237 0.5223015547887775 382.0 67.0 278.0 
532.00010179367 2582.0 NaN 1450.666666666666 0.5253425998030501 376.0 71.0 271.0 
534.00010179367 2573.0 NaN 1447.6927187708748 0.5185305311351053 372.0 75.0 266.0 
536.00010179367 2571.0 NaN 1453.7341349365395 0.5097540707805286 378.0 69.0 274.0 
538.00010179367 2581.0 NaN 1456.8256513026058 0.5154164033571015 382.0 68.0 276.0 
540.00010179367 2586.0 NaN 1459.9732798931188 0.5144086792435318 386.0 63.0 282.0 
542.00010179367 2581.0 NaN 1462.9392117568464 0.5281634151530482 378.0 70.0 276.0 
544.00010179367 2562.0 NaN 1469.2157648630603 0.5173600896565477 374.0 77.0 271.0 
546.00010179367 2554.0 NaN 1469.167668670674 0.5099121407671549 376.0 76.0 272.0 
548.00010179367 2560.0 NaN 1469.1062124248494 0.5207100085377628 377.0 76.0 272.0 
550.00010179367 2561.0 NaN 1463.1022044088181 0.5150885397247081 383.0 70.0 276.0 
552.00010179367 2557.0 NaN 1462.9846359385442 0.5130539304514815 373.0 76.0 270.0 
554.00010179367 2560.0 NaN 1465.9746158984635 0.5134810688623053 375.0 76.0 271.0 
556.00010179367 2563.0 NaN 1459.943887775551 0.5159299756955332 374.0 75.0 270.0 
558.00010179367 2566.0 NaN 1456.7615230460917 0.5221929952784046 376.0 73.0 271.0 
560.00010179367 2551.0 NaN 1456.7241148964597 0.5101951803815826 375.0 70.0 274.0 
562.00010179367 2582.0 NaN 1459.7755511022042 0.5284851689625533 374.0 75.0 270.0 
564.00010179367 2572.0 NaN 1466.126920507682 0.5316433789014618 376.0 74.0 273.0 
566.00010179367 2542.0 NaN 1463.091516366065 0.51667538703523 377.0 72.0 274.0 
568.00010179367 2544.0 NaN 1466.1963927855716 0.5106275453282901 382.0 67.0 280.0 
570.00010179367 2552.0 NaN 1472.4034736138944 0.5190205665915231 389.0 62.0 287.0 
572.00010179367 2548.0 NaN 1481.6192384769543 0.5317552151236142 388.0 66.0 286.0 
574.00010179367 2552.0 NaN 1484.713426853708 0.5166906577977514 390.0 68.0 285.0 
576.00010179367 2537.0 NaN 1481.600534402137 0.5164196298362784 385.0 71.0 281.0 
578.00010179367 2533.0 NaN 1478.3887775551095 0.5133497455649199 392.0 65.0 286.0 
580.00010179367 2547.0 NaN 1478.567802271209 0.5217949953828475 397.0 58.0 293.0 
582.00010179367 2557.0 NaN 1481.7100868403468 0.5169853149761369 393.0 64.0 288.0 
584.00010179367 2563.0 NaN 1484.66800267201 0.5182444767188026 397.0 65.0 288.0 
586.00010179367 2555.0 NaN 1484.5824983299926 0.5076511148210786 403.0 64.0 289.0 
588.00010179367 2581.0 NaN 1484.609218436873 0.5175820851751136 404.0 64.0 289.0 
590.00010179367 2584.0 NaN 1487.6927187708748 0.5252310565991258 407.0 61.0 293.0 
592.00010179367 2591.0 NaN 1487.6873747494994 0.5222342413850756 400.0 67.0 287.0 
594.00010179367 2586.0 NaN 1490.7975951903813 0.5222164667643564 400.0 68.0 287.0 
596.00010179367 2558.0 NaN 1490.6426185704738 0.5168882781675513 398.0 67.0 288.0 
598.00010179367 2574.0 NaN 1493.8142952571814 0.5072992868353686 402.0 64.0 292.0 
600.00010179367 2588.0 NaN 1499.9732798931193 0.5250251628153582 409.0 58.0 300.0 
602.00010179367 2595.0 NaN 1493.7474949899804 0.5229570750229104 401.0 65.0 291.0 
604.00010179367 2580.0 NaN 1506.1696726786909 0.5200113460369536 397.0 69.0 291.0 
606.00010179367 2583.0 NaN 1506.2231128924525 0.5037483387638043 396.0 68.0 292.0 
608.00010179367 2594.0 NaN 1506.1536406145635 0.5136727161624738 396.0 67.0 293.0 
610.00010179367 2591.0 NaN 1506.0681362725456 0.5249983207594064 398.0 65.0 295.0 
612.00010179367 2578.0 NaN 1509.1917167668666 0.512702079615022 391.0 72.0 289.0 
614.00010179367 2581.0 NaN 1509.092852371409 0.5141027436840832 391.0 75.0 286.0 
616.00010179367 2579.0 NaN 1512.221776887108 0.5087996431594669 388.0 74.0 288.0 
618.00010179367 2597.0 NaN 1512.382097528391 0.5061484400828833 390.0 72.0 290.0 
620.00010179367 2603.0 NaN 1524.6038744154991 0.5208134725898657 391.0 71.0 295.0 
622.00010179367 2599.0 NaN 1524.6038744154991 0.5053407091630012 387.0 76.0 290.0 
624.00010179367 2623.0 NaN 1524.6332665330656 0.5190875987709938 389.0 75.0 291.0 
626.00010179367 2622.0 NaN 1521.3573814295262 0.5052316473570632 389.0 73.0 292.0 
628.00010179367 2647.0 NaN 1521.4749498998 0.513291345402153 383.0 78.0 287.0 
630.00010179367 2635.0 NaN 1524.4355377421516 0.5130301130297508 391.0 69.0 297.0 
632.00010179367 2627.0 NaN 1524.4756179024728 0.5080125722881335 387.0 76.0 290.0 
634.00010179367 2668.0 NaN 1524.6706746826992 0.5125128648286696 393.0 74.0 292.0 
636.00010179367 2655.0 NaN 1524.5424181696726 0.5075904969792564 393.0 76.0 290.0 
638.00010179367 2659.0 NaN 1524.5664662658646 0.5204298440298862 392.0 77.0 289.0 
640.00010179367 2650.0 NaN 1521.4482297929183 0.5136998972130067 394.0 74.0 291.0 
642.00010179367 2654.0 NaN 1518.396793587174 0.5086658057257729 382.0 84.0 280.0 
644.00010179367 2641.0 NaN 1518.4448897795605 0.5159867637809151 383.0 80.0 284.0 
646.00010179367 2618.0 NaN 1518.3647294589182 0.5144364448563726 375.0 84.0 280.0 
648.00010179367 2619.0 NaN 1518.4769539078163 0.5191606823694835 380.0 77.0 287.0 
650.00010179367 2622.0 NaN 1515.2224448897807 0.5126295168045232 379.0 79.0 284.0 
652.00010179367 2629.0 NaN 1527.6472945891787 0.5245953003810875 371.0 90.0 277.0 
654.00010179367 2631.0 NaN 1527.893119572479 0.5292362185073735 375.0 84.0 283.0 
656.00010179367 2606.0 NaN 1527.778223112892 0.5292800213657374 369.0 87.0 280.0 
658.00010179367 2612.0 NaN 1527.7862391449557 0.5274966484871677 378.0 79.0 288.0 
660.00010179367 2606.0 NaN 1530.8830995323988 0.5231250288571424 388.0 71.0 297.0 
662.00010179367 2618.0 NaN 1536.9966599866393 0.5246994438915902 383.0 78.0 292.0 
664.00010179367 2604.0 NaN 1537.0554442217758 0.5283425036046797 384.0 78.0 292.0 
#####################################################################
# End of data export. Simulation finished at: 2019-03-08T02:03+0000 #
#####################################################################
