#####################################################################
# Alchemist log file - simulation started at: 2019-03-11T00:09+0000 #
#####################################################################
# seed = 2.0, bandwidth = 1.0E8, propagationDelay = 0.1, baserange = 177.82794100389228
#
# The columns have the following meaning: 
# time neighbor_count[Sum] <value>@neighbor_count[Sum] packet_size[Mean] mean_delay[Mean] crowd[Sum] overcrowded[Sum] risk[Sum] 
0.0 NaN NaN NaN NaN NaN NaN NaN 
2.00004154512548 26433.0 NaN 4995.219772879092 0.501749810721334 1497.0 0.0 1497.0 
4.00004134512548 26546.0 NaN 4994.295257181028 0.5035468054686161 1492.0 5.0 1492.0 
6.0000413851254795 26549.0 NaN 4994.233800935203 0.5036243016010638 1491.0 6.0 1491.0 
8.00004134512548 26547.0 NaN 4994.75751503006 0.5035327536269648 1494.0 3.0 1494.0 
10.00004138512548 26548.0 NaN 4995.457581830327 0.5035318046904778 1495.0 2.0 1495.0 
12.00004134512548 26552.0 NaN 4995.241148964596 0.5035193397793716 1495.0 2.0 1495.0 
14.00004138512548 26557.0 NaN 4994.517034068136 0.5039240351070338 1494.0 3.0 1494.0 
16.000041345125478 26558.0 NaN 4994.704074816299 0.5048838177285184 1494.0 3.0 1494.0 
18.000041385125478 26550.0 NaN 4995.118236472946 0.5048950406869221 1493.0 4.0 1493.0 
20.000041345125478 26552.0 NaN 4995.380093520374 0.5058074830588334 1495.0 2.0 1495.0 
22.000041385125478 26566.0 NaN 4994.746826987308 0.5048476374226469 1495.0 2.0 1495.0 
24.000041345125478 26568.0 NaN 4994.706746826987 0.505199697986185 1494.0 3.0 1494.0 
26.000041385125478 26564.0 NaN 4994.444889779559 0.5043583702287386 1494.0 3.0 1494.0 
28.000041345125478 26570.0 NaN 4995.3319973279895 0.5041473584813754 1493.0 4.0 1493.0 
30.000041385125478 26571.0 NaN 4995.783567134268 0.5041129958953628 1495.0 2.0 1495.0 
32.00004134512548 26635.0 NaN 4994.704074816299 0.5069201670887203 1495.0 2.0 1495.0 
34.00004138512548 26617.0 NaN 4994.297929191716 0.5039532465846828 1494.0 3.0 1494.0 
36.00004134512548 26621.0 NaN 4994.653306613226 0.5059352507298919 1493.0 4.0 1493.0 
38.00004138512548 26635.0 NaN 4994.856379425518 0.5039365821962366 1492.0 5.0 1492.0 
40.00004134512548 26630.0 NaN 4995.786239144956 0.5037599032021309 1494.0 3.0 1494.0 
42.00004138512548 26679.0 NaN 4995.382765531062 0.5058862695913264 1495.0 2.0 1495.0 
44.00004134512548 26641.0 NaN 4994.535738142952 0.5044101136153631 1495.0 2.0 1495.0 
46.00004138512548 26629.0 NaN 4994.5250501002 0.5030260971426322 1494.0 3.0 1494.0 
48.00004134512548 26627.0 NaN 4995.142284569139 0.5062133180205793 1494.0 3.0 1494.0 
50.00004138512548 26620.0 NaN 4995.2812291249165 0.5031823320529824 1495.0 2.0 1495.0 
52.00004130512548 26678.0 NaN 4994.923179692719 0.5057921759969515 1495.0 2.0 1495.0 
54.00004130512548 26662.0 NaN 4994.746826987308 0.5060652743121575 1493.0 4.0 1493.0 
56.00004130512548 26651.0 NaN 4994.760187040748 0.5042057975496329 1491.0 6.0 1491.0 
58.00004130512548 26647.0 NaN 4995.147628590515 0.5060752081331347 1492.0 5.0 1492.0 
60.00004130512548 26637.0 NaN 4995.778223112892 0.5045179800648385 1494.0 3.0 1494.0 
62.00058297905275 26682.0 NaN 1516.4408817635274 0.5075092345521154 792.0 2.0 361.0 
64.00058297905275 26664.0 NaN 1519.5404141616548 0.5052614763663805 632.0 3.0 361.0 
66.00058297905275 26662.0 NaN 1519.4629258517032 0.5043517336656751 577.0 3.0 361.0 
68.00058297905275 26690.0 NaN 1519.596526386106 0.5063650710051346 546.0 6.0 358.0 
70.00058297905275 26711.0 NaN 1519.5778223112904 0.5059738615971867 529.0 5.0 359.0 
72.00058297905275 26796.0 NaN 1519.6179024716089 0.5063850997964428 529.0 4.0 360.0 
74.00058297905275 26774.0 NaN 1525.63794255177 0.5074681845439096 527.0 3.0 363.0 
76.00058297905275 26767.0 NaN 1525.6325985303936 0.5044002697202652 524.0 8.0 358.0 
78.00058297905275 26796.0 NaN 1525.5871743486973 0.5062751229709178 520.0 11.0 355.0 
80.00058297905275 26798.0 NaN 1528.6412825651298 0.5077849121730532 520.0 7.0 360.0 
82.00058297905275 26789.0 NaN 1528.598530394121 0.5060412925035505 525.0 3.0 364.0 
84.00058297905275 26790.0 NaN 1531.6980627922514 0.5053298816651821 525.0 3.0 365.0 
86.00058297905275 26776.0 NaN 1531.7461589846364 0.5051850549729706 524.0 4.0 364.0 
88.00058297905275 26792.0 NaN 1531.7488309953244 0.508281943532077 525.0 4.0 364.0 
90.00058297905275 26786.0 NaN 1531.690046760188 0.5065509182852435 527.0 3.0 365.0 
92.00058297905275 26755.0 NaN 1531.7434869739477 0.505380075493416 527.0 3.0 365.0 
94.00058297905275 26757.0 NaN 1531.6847027388092 0.5061198873449235 525.0 3.0 365.0 
96.00058297905275 26763.0 NaN 1531.7408149632606 0.5044982712988021 524.0 4.0 364.0 
98.00058297905275 26767.0 NaN 1531.6766867067456 0.5064766442173152 524.0 4.0 364.0 
100.00058297905275 26755.0 NaN 1531.7408149632606 0.5055140881062348 525.0 3.0 365.0 
102.00058297905275 26728.0 NaN 1534.6933867735456 0.5049390497863646 524.0 4.0 365.0 
104.00058297905275 26727.0 NaN 1534.7388109552453 0.5059027748120478 524.0 4.0 365.0 
106.00058297905275 26748.0 NaN 1534.7120908483637 0.5045023149228265 524.0 3.0 366.0 
108.00058297905275 26766.0 NaN 1537.8410153640634 0.5056794976898905 525.0 2.0 368.0 
110.00058297905275 26771.0 NaN 1537.8757515030065 0.5048978727644328 525.0 3.0 367.0 
112.00058297905275 26755.0 NaN 1537.8517034068152 0.5062493857451479 525.0 3.0 367.0 
114.00058297905275 26748.0 NaN 1537.8249832999336 0.5059425525119833 527.0 2.0 368.0 
116.00058297905275 26741.0 NaN 1540.8550434201725 0.5050370213536036 528.0 2.0 369.0 
118.00058297905275 26738.0 NaN 1546.9899799599184 0.5062128417773398 527.0 3.0 370.0 
120.00058297905275 26730.0 NaN 1546.9766199064816 0.505735624370192 527.0 3.0 370.0 
122.00058297905275 26701.0 NaN 1546.9899799599184 0.5076573991459218 528.0 2.0 371.0 
124.00058297905275 26696.0 NaN 1547.0647962591845 0.5058374836575772 528.0 2.0 371.0 
126.00058297905275 26685.0 NaN 1547.123580494321 0.5040906353944803 528.0 2.0 371.0 
128.00058297905275 26676.0 NaN 1547.1609886439546 0.5047996125951121 527.0 3.0 370.0 
130.00058297905275 26669.0 NaN 1547.088844355379 0.5048672545127147 528.0 2.0 371.0 
132.00058297905275 26668.0 NaN 1543.9919839679364 0.5042503603533597 528.0 2.0 370.0 
134.00058297905275 26680.0 NaN 1543.9412157648637 0.5057589879372786 528.0 2.0 370.0 
136.00058297905275 26685.0 NaN 1547.0995323981272 0.5069057415260938 526.0 2.0 371.0 
138.00058297905275 26675.0 NaN 1544.016032064127 0.5054423902528522 521.0 2.0 370.0 
140.00058297905275 26688.0 NaN 1547.1476285905153 0.5047661462750791 520.0 3.0 370.0 
142.00058297905275 26690.0 NaN 1550.257849031397 0.5045562111315985 520.0 3.0 371.0 
144.00058297905275 26679.0 NaN 1550.2311289245156 0.5045988615678128 518.0 4.0 370.0 
146.00058297905275 26664.0 NaN 1550.257849031397 0.504401984810292 518.0 4.0 370.0 
148.00058297905275 26656.0 NaN 1547.1609886439546 0.5044983777281399 519.0 4.0 369.0 
150.00058297905275 26658.0 NaN 1544.0320641282547 0.50453043796879 519.0 4.0 368.0 
152.00058297905275 26646.0 NaN 1540.9352037408155 0.504539167358602 516.0 4.0 367.0 
154.00058297905275 26637.0 NaN 1540.9699398797607 0.5048677665428598 513.0 4.0 367.0 
156.00058297905275 26630.0 NaN 1540.9726118904455 0.5042432667595395 515.0 4.0 367.0 
158.00058297905275 26637.0 NaN 1540.9779559118244 0.5066945840892566 516.0 4.0 367.0 
160.00058297905275 26612.0 NaN 1540.9939879759518 0.50414808124192 517.0 4.0 367.0 
162.00058297905275 26616.0 NaN 1540.9726118904455 0.5054486680295285 517.0 4.0 367.0 
164.00058297905275 26577.0 NaN 1544.0801603206426 0.5086183666012956 514.0 5.0 367.0 
166.00058297905275 26548.0 NaN 1550.223112892452 0.504269808855595 516.0 4.0 370.0 
168.00058297905275 26552.0 NaN 1550.223112892452 0.5070564336425062 517.0 4.0 370.0 
170.00058297905275 26524.0 NaN 1547.1022044088184 0.5041452730118535 518.0 3.0 370.0 
172.00058297905275 26545.0 NaN 1544.02939211757 0.5038858069554608 518.0 4.0 368.0 
174.00058297905275 26545.0 NaN 1544.016032064127 0.5063171666730829 518.0 4.0 368.0 
176.00058297905275 26518.0 NaN 1544.0534402137612 0.5038755645499126 516.0 4.0 368.0 
178.00058297905275 26518.0 NaN 1537.923847695391 0.5045244836593389 514.0 5.0 365.0 
180.00058297905275 26479.0 NaN 1537.9612558450244 0.5032557072600298 517.0 3.0 367.0 
182.00058297905275 26467.0 NaN 1541.063460253842 0.5047000733222569 517.0 3.0 368.0 
184.00058297905275 26457.0 NaN 1541.092852371409 0.5044915326761302 516.0 3.0 368.0 
186.00058297905275 26444.0 NaN 1541.036740146961 0.5075002927716785 514.0 5.0 366.0 
188.00058297905275 26435.0 NaN 1541.0260521042092 0.5070617057634287 514.0 5.0 366.0 
190.00058297905275 26399.0 NaN 1540.999331997327 0.5032565796837832 513.0 6.0 365.0 
192.00058297905275 26397.0 NaN 1540.996659986639 0.5057317062490997 513.0 5.0 366.0 
194.00058297905275 26383.0 NaN 1541.0233800935184 0.5076687190443107 514.0 4.0 367.0 
196.00058297905275 26347.0 NaN 1541.1062124248483 0.5038806585437962 512.0 6.0 365.0 
198.00058297905275 26361.0 NaN 1544.1336005344 0.5054890563299321 516.0 4.0 368.0 
200.00058297905275 26337.0 NaN 1544.1897127588518 0.5032439504286581 518.0 4.0 368.0 
202.00058297905275 26345.0 NaN 1544.1122244489 0.5052729842610896 516.0 6.0 366.0 
204.00058297905275 26338.0 NaN 1547.126252505009 0.5084726883147656 515.0 7.0 366.0 
206.00058297905275 26292.0 NaN 1544.0641282565118 0.5044374442671972 516.0 6.0 366.0 
208.00058297905275 26278.0 NaN 1541.0768203072819 0.509168547917395 515.0 5.0 366.0 
210.00058297905275 26237.0 NaN 1537.9906479625906 0.5037358799224609 512.0 4.0 366.0 
212.00058297905275 26242.0 NaN 1541.0794923179699 0.5059553259057716 508.0 8.0 363.0 
214.00058297905275 26247.0 NaN 1544.0534402137612 0.5092395813642118 510.0 6.0 366.0 
216.00058297905275 26203.0 NaN 1544.0694722778908 0.5057104041668649 512.0 3.0 369.0 
218.00058297905275 26205.0 NaN 1537.8810955243816 0.5055059015403118 513.0 6.0 364.0 
220.00058297905275 26171.0 NaN 1540.9138276553092 0.5043469528159924 513.0 5.0 366.0 
222.00058297905275 26171.0 NaN 1540.956579826318 0.5073631898718758 516.0 3.0 368.0 
224.00058297905275 26143.0 NaN 1541.0073480293909 0.5097598252714765 514.0 4.0 367.0 
226.00058297905275 26102.0 NaN 1541.0126920507664 0.5062758096226506 514.0 4.0 367.0 
228.00058297905275 26076.0 NaN 1540.969939879761 0.5072485880927068 512.0 5.0 366.0 
230.00058297905275 26053.0 NaN 1537.894455577821 0.5038069731540344 506.0 9.0 361.0 
232.00058297905275 26069.0 NaN 1540.9806279225118 0.5054844451822066 508.0 7.0 364.0 
234.00058297905275 26033.0 NaN 1540.9245156980637 0.5055118728692698 511.0 5.0 366.0 
236.00058297905275 26008.0 NaN 1541.0794923179699 0.5054967724209423 508.0 8.0 363.0 
238.00058297905275 26013.0 NaN 1540.9993319973273 0.5072663632965065 505.0 10.0 361.0 
240.00058297905275 25993.0 NaN 1537.8891115564454 0.5055597225844843 506.0 9.0 361.0 
242.00058297905275 25977.0 NaN 1537.8410153640634 0.5052512769357187 507.0 11.0 359.0 
244.00058297905275 25960.0 NaN 1537.8383433533727 0.5083075093361586 506.0 11.0 359.0 
246.00058297905275 25929.0 NaN 1534.7842351369393 0.5035342124924976 507.0 11.0 358.0 
248.00058297905275 25958.0 NaN 1537.8704074816299 0.5050548471783075 506.0 12.0 358.0 
250.00058297905275 25957.0 NaN 1534.8296593186365 0.5039389912401119 508.0 9.0 360.0 
252.00058297905275 25949.0 NaN 1531.8236472945907 0.5052536384198787 506.0 7.0 361.0 
254.00058297905275 25932.0 NaN 1531.7621910487635 0.5057305617787574 503.0 11.0 357.0 
256.00058297905275 25871.0 NaN 1531.7835671342698 0.5060317958943819 499.0 14.0 354.0 
258.00058297905275 25842.0 NaN 1531.7194388777546 0.5061839556473607 506.0 10.0 358.0 
260.00058297905275 25833.0 NaN 1528.6065464261847 0.504671367926195 504.0 12.0 355.0 
262.00058297905275 25823.0 NaN 1525.541750167 0.5064513638782561 505.0 12.0 354.0 
264.00058297905275 25794.0 NaN 1528.6626586506359 0.5070564965227532 502.0 13.0 354.0 
266.00058297905275 25728.0 NaN 1528.6519706078818 0.5061107797433784 503.0 13.0 354.0 
268.00058297905275 25711.0 NaN 1537.9612558450247 0.5046926022467212 500.0 16.0 354.0 
270.00058297905275 25723.0 NaN 1541.0688042752183 0.5051724396546132 505.0 11.0 360.0 
272.00058297905275 25704.0 NaN 1540.916499666 0.5068035954274525 503.0 12.0 359.0 
274.00058297905275 25713.0 NaN 1544.1523046092182 0.5085326846594712 505.0 10.0 362.0 
276.00058297905275 25617.0 NaN 1541.002004008018 0.5046298852373741 508.0 6.0 365.0 
278.00058297905275 25643.0 NaN 1541.0046760187024 0.5058836696660758 510.0 5.0 366.0 
280.00058297905275 25671.0 NaN 1537.905143620573 0.507637647822164 508.0 9.0 361.0 
282.00058297905275 25650.0 NaN 1537.857047428191 0.5061206814950453 506.0 9.0 361.0 
284.00058297905275 25639.0 NaN 1537.8303273213091 0.5064495484790585 510.0 4.0 366.0 
286.00058297905275 25607.0 NaN 1537.9024716098884 0.5069173127315022 508.0 7.0 363.0 
288.00058297905275 25614.0 NaN 1537.8784235136932 0.5068645008791794 499.0 14.0 356.0 
290.00058297905275 25581.0 NaN 1537.8837675350705 0.5076826039338896 502.0 11.0 359.0 
292.00058297905275 25561.0 NaN 1537.9505678022726 0.5045699919400187 509.0 5.0 365.0 
294.00058297905275 25577.0 NaN 1531.8717434869727 0.5068292441492918 508.0 6.0 362.0 
296.00058297905275 25545.0 NaN 1531.7889111556456 0.506181781993715 505.0 9.0 359.0 
298.00058297905275 25541.0 NaN 1531.8209752838998 0.508036143815068 503.0 9.0 359.0 
300.00058297905275 25546.0 NaN 1534.8189712758845 0.5056061534772127 500.0 9.0 360.0 
302.00058297905275 25532.0 NaN 1528.681362725452 0.5071535308101752 505.0 5.0 362.0 
304.00058297905275 25535.0 NaN 1531.8316633266545 0.5073476674109072 505.0 5.0 363.0 
306.00058297905275 25499.0 NaN 1531.8663994655997 0.5062395886578902 508.0 2.0 366.0 
308.00058297905275 25490.0 NaN 1531.9412157648637 0.511382211074978 507.0 2.0 366.0 
310.00058297905275 25450.0 NaN 1538.0093520374094 0.5082792246539203 504.0 4.0 366.0 
312.00058297905275 25424.0 NaN 1534.904475617902 0.5067844559781288 505.0 3.0 366.0 
314.00058297905275 25426.0 NaN 1531.7488309953246 0.5091741954211407 505.0 4.0 364.0 
316.00058297905275 25385.0 NaN 1528.7294589178364 0.5066501433299997 503.0 6.0 361.0 
318.00058297905275 25391.0 NaN 1528.761523046091 0.5066231480056052 499.0 9.0 358.0 
320.00058297905275 25373.0 NaN 1531.7408149632606 0.5098000721422339 503.0 6.0 362.0 
322.00058297905275 25347.0 NaN 1528.643954575818 0.5062773032183105 507.0 3.0 364.0 
324.00058297905275 25330.0 NaN 1531.8049432197727 0.5072697156505874 507.0 2.0 366.0 
326.00058297905275 25287.0 NaN 1528.716098864397 0.5066615641011163 507.0 2.0 365.0 
328.00058297905275 25283.0 NaN 1528.7374749499 0.5057549853180164 506.0 3.0 364.0 
330.00058297905275 25267.0 NaN 1528.6252505010002 0.5068355611447531 503.0 7.0 360.0 
332.00058297905275 25267.0 NaN 1525.5070140280548 0.5053438480738697 507.0 4.0 362.0 
334.00058297905275 25304.0 NaN 1528.6973947895792 0.5061908001277959 507.0 3.0 364.0 
336.00058297905275 25286.0 NaN 1531.7568470273884 0.5052705928511493 506.0 3.0 365.0 
338.00058297905275 25283.0 NaN 1528.6466265865065 0.5058843089268062 508.0 3.0 364.0 
340.00058297905275 25281.0 NaN 1525.5631262525062 0.5046315331121942 509.0 3.0 363.0 
342.00058297905275 25302.0 NaN 1531.7247828991303 0.5062309926370756 512.0 3.0 365.0 
344.00058297905275 25302.0 NaN 1534.8056112224456 0.5066327879758064 510.0 4.0 365.0 
346.00058297905275 25287.0 NaN 1531.7515030060115 0.5083418039536407 506.0 8.0 360.0 
348.00058297905275 25290.0 NaN 1528.7641950567813 0.5057761659950185 511.0 6.0 361.0 
350.00058297905275 25292.0 NaN 1528.6252505010004 0.50846196105907 508.0 8.0 359.0 
352.00058297905275 25306.0 NaN 1528.6012024048089 0.5062155989114542 511.0 5.0 362.0 
354.00058297905275 25292.0 NaN 1525.5497661990635 0.5067646764681292 512.0 3.0 363.0 
356.00058297905275 25269.0 NaN 1525.509686038745 0.5048523380252765 513.0 3.0 363.0 
358.00058297905275 25291.0 NaN 1525.5871743486975 0.5051877546852355 509.0 5.0 361.0 
360.00058297905275 25270.0 NaN 1525.5390781563121 0.5064731112305952 508.0 7.0 359.0 
362.00058297905275 25263.0 NaN 1525.4562458249825 0.5057011695155593 511.0 5.0 361.0 
364.00058297905275 25249.0 NaN 1525.568470273882 0.5059163312430802 511.0 6.0 360.0 
366.00058297905275 25225.0 NaN 1525.509686038745 0.506047064443991 510.0 9.0 357.0 
368.00058297905275 25210.0 NaN 1507.1128924515704 0.5061745714552007 507.0 8.0 352.0 
370.00058297905275 25175.0 NaN 1500.860387441549 0.5057091684867902 505.0 10.0 348.0 
372.00058297905275 25195.0 NaN 1504.0106880427525 0.5065458507220947 509.0 7.0 352.0 
374.00058297905275 25176.0 NaN 1510.0895123580488 0.5060391943359753 513.0 4.0 357.0 
376.00058297905275 25142.0 NaN 1507.0808283233123 0.5052526627501648 515.0 4.0 356.0 
378.00058297905275 25141.0 NaN 1507.0674682698727 0.5084849473497207 513.0 4.0 356.0 
380.00058297905275 25093.0 NaN 1504.0320641282556 0.511506932809831 513.0 5.0 354.0 
382.00058297905275 25078.0 NaN 1500.9004676018717 0.5090860933185268 510.0 8.0 350.0 
384.00058297905275 25090.0 NaN 1504.0213760855036 0.5075829047509904 511.0 8.0 351.0 
386.00058297905275 25063.0 NaN 1510.0921843687363 0.5056628005771974 509.0 9.0 352.0 
388.00058297905275 25074.0 NaN 1510.1750167000662 0.5043715491752646 509.0 9.0 352.0 
390.00058297905275 25078.0 NaN 1503.9919839679362 0.5064818386743588 512.0 4.0 355.0 
392.00058297905275 25081.0 NaN 1513.2104208416827 0.5077169844748527 514.0 4.0 358.0 
394.00058297905275 25054.0 NaN 1510.1723446893795 0.5106366751485064 514.0 5.0 356.0 
396.00058297905275 25023.0 NaN 1510.1670006680022 0.5065971469289627 514.0 5.0 356.0 
398.00058297905275 25020.0 NaN 1510.1349365397455 0.5049944921197098 513.0 7.0 354.0 
400.00058297905275 24983.0 NaN 1507.1476285905153 0.5047903681931949 513.0 8.0 352.0 
402.00058297905275 24987.0 NaN 1510.1937207748824 0.5069645382373337 512.0 9.0 352.0 
404.00058297905275 24982.0 NaN 1516.459585838345 0.5063224253073714 513.0 9.0 354.0 
406.00058297905275 24984.0 NaN 1519.4923179692728 0.507034968163209 518.0 4.0 360.0 
408.00058297905275 24977.0 NaN 1522.5918503674006 0.5057672786494275 518.0 5.0 360.0 
410.00058297905275 24959.0 NaN 1531.6526386105547 0.5059255877690115 516.0 8.0 360.0 
412.00058297905275 24969.0 NaN 1531.7114228456908 0.5085140235512879 516.0 8.0 360.0 
414.00058297905275 24926.0 NaN 1534.7494989979969 0.5069197897330221 514.0 8.0 361.0 
416.00058297905275 24898.0 NaN 1534.8082832331334 0.5064045239802032 516.0 8.0 361.0 
418.00058297905275 24920.0 NaN 1519.476285905145 0.5049307749093486 519.0 4.0 360.0 
420.00058297905275 24895.0 NaN 1516.3714094856368 0.5049685907779478 520.0 5.0 358.0 
422.00058297905275 24910.0 NaN 1516.3954575818298 0.5077720679300859 516.0 5.0 358.0 
424.00058297905275 24871.0 NaN 1513.3066132264537 0.5063706989234238 514.0 5.0 357.0 
426.00058297905275 24853.0 NaN 1516.3981295925182 0.5057441572449559 514.0 6.0 357.0 
428.00058297905275 24868.0 NaN 1519.3907815631271 0.5089219050573007 512.0 7.0 357.0 
430.00058297905275 24844.0 NaN 1516.272545090181 0.5054292209984532 512.0 7.0 356.0 
432.00058297905275 24839.0 NaN 1513.2077488309944 0.5060291647539887 512.0 7.0 355.0 
434.00058297905275 24856.0 NaN 1522.3941215764878 0.5083965497442394 517.0 7.0 358.0 
436.00058297905275 24838.0 NaN 1528.6012024048089 0.5055272994199773 521.0 7.0 360.0 
438.00058297905275 24857.0 NaN 1528.6118904475632 0.5071701257429301 520.0 7.0 360.0 
440.00058297905275 24832.0 NaN 1528.58784235137 0.5079027391980324 520.0 7.0 360.0 
442.00058297905275 24826.0 NaN 1531.572478289912 0.5073773508178026 520.0 7.0 361.0 
444.00058297905275 24840.0 NaN 1531.6900467601881 0.5093796214662144 521.0 6.0 362.0 
446.00058297905275 24822.0 NaN 1537.7822311289246 0.5074686505416198 524.0 6.0 364.0 
448.00058297905275 24830.0 NaN 1543.9919839679364 0.5058746142972061 527.0 6.0 366.0 
450.00058297905275 24837.0 NaN 1540.8416833667338 0.5047713327113684 524.0 6.0 365.0 
452.00058297905275 24846.0 NaN 1543.9038076152299 0.5059723614798076 524.0 6.0 366.0 
454.00058297905275 24877.0 NaN 1543.9545758183026 0.50648059103275 523.0 6.0 366.0 
456.00058297905275 24873.0 NaN 1553.2264529058116 0.5065004125517779 523.0 6.0 369.0 
458.00058297905275 24857.0 NaN 1553.156980627921 0.5068287217538543 522.0 6.0 369.0 
460.00058297905275 24867.0 NaN 1550.105544422179 0.5085520977975221 520.0 6.0 368.0 
462.00058297905275 24871.0 NaN 1546.9846359385451 0.5082660330105553 519.0 8.0 365.0 
464.00058297905275 24881.0 NaN 1540.8817635270545 0.507703757448454 517.0 8.0 363.0 
466.00058297905275 24870.0 NaN 1543.8744154976632 0.508638100672471 518.0 8.0 364.0 
468.00058297905275 24848.0 NaN 1543.8690714762847 0.5063951626472689 518.0 8.0 364.0 
470.00058297905275 24818.0 NaN 1537.69138276553 0.5050966868946033 517.0 8.0 362.0 
472.00058297905275 24830.0 NaN 1534.6853707414816 0.5070155048373672 515.0 8.0 361.0 
474.00058297905275 24825.0 NaN 1522.4315297261182 0.5073713103184888 513.0 8.0 357.0 
476.00058297905275 24845.0 NaN 1516.288577154309 0.508385206252206 511.0 8.0 355.0 
478.00058297905275 24826.0 NaN 1516.309953239812 0.5090984512249811 509.0 7.0 356.0 
480.00058297905275 24817.0 NaN 1516.2484969939887 0.5064316077606282 514.0 4.0 359.0 
482.00058297905275 24837.0 NaN 1510.0868403473628 0.5064177340488782 512.0 5.0 356.0 
484.00058297905275 24856.0 NaN 1510.1482965931848 0.5078857415834055 510.0 5.0 356.0 
486.00058297905275 24874.0 NaN 1510.1215764863068 0.5067076092939053 509.0 6.0 355.0 
488.00058297905275 24872.0 NaN 1497.9318637274546 0.5062240705910805 508.0 5.0 352.0 
490.00058297905275 24873.0 NaN 1497.8142952571816 0.508906882052737 509.0 4.0 353.0 
492.00058297905275 24875.0 NaN 1494.8162992651978 0.5075213369944328 508.0 3.0 353.0 
494.00058297905275 24910.0 NaN 1491.6766867067463 0.5107085450157292 507.0 4.0 351.0 
496.00058297905275 24916.0 NaN 1491.6766867067463 0.5068808454850691 503.0 5.0 350.0 
498.00058297905275 24925.0 NaN 1488.6332665330656 0.5073119396921733 502.0 5.0 349.0 
500.00058297905275 24895.0 NaN 1488.5718102872422 0.5084124450313676 503.0 4.0 350.0 
502.00058297905275 24901.0 NaN 1491.7434869739473 0.5094459405484504 507.0 4.0 351.0 
504.00058297905275 24903.0 NaN 1491.7354709418828 0.5103795533898592 507.0 5.0 350.0 
506.00058297905275 24901.0 NaN 1494.8056112224456 0.5080462441085384 512.0 4.0 352.0 
508.00058297905275 24900.0 NaN 1491.6873747494997 0.5073018374972036 511.0 3.0 352.0 
510.00058297905275 24909.0 NaN 1497.8410153640625 0.5109790770675419 511.0 4.0 353.0 
512.0005829790528 24918.0 NaN 1497.7982631930533 0.5065184645210421 509.0 5.0 352.0 
514.0005829790528 24957.0 NaN 1491.7034068136272 0.5074041053820284 511.0 4.0 351.0 
516.0005829790528 24959.0 NaN 1479.4014696058791 0.5063997692375063 507.0 3.0 348.0 
518.0005829790528 24959.0 NaN 1473.2718770875088 0.5068001115462712 505.0 3.0 346.0 
520.0005829790528 24952.0 NaN 1467.0941883767541 0.5067947901272944 504.0 4.0 343.0 
522.0005829790528 24976.0 NaN 1470.1536406145633 0.5098278314866131 500.0 6.0 342.0 
524.0005829790528 24996.0 NaN 1457.873079492318 0.5110177521296976 499.0 6.0 338.0 
526.0005829790528 24982.0 NaN 1451.6980627922517 0.5086386104586003 498.0 6.0 336.0 
528.0005829790528 24994.0 NaN 1454.9018036072152 0.5091236607102563 501.0 3.0 340.0 
530.0005829790528 24975.0 NaN 1454.8109552438202 0.510637454341233 506.0 3.0 340.0 
532.0005829790528 24990.0 NaN 1454.8697394789574 0.5069515950958227 503.0 2.0 341.0 
534.0005829790528 25011.0 NaN 1461.026052104209 0.5073428830261311 506.0 2.0 343.0 
536.0005829790528 25015.0 NaN 1454.8617234468934 0.5089044268016719 505.0 3.0 340.0 
538.0005829790528 25006.0 NaN 1457.987975951903 0.5102903574601035 506.0 2.0 342.0 
540.0005829790528 24955.0 NaN 1457.9559118236466 0.5095931232641703 507.0 3.0 341.0 
542.0005829790528 24962.0 NaN 1461.0020040080167 0.5072624836327494 506.0 2.0 343.0 
544.0005829790528 24955.0 NaN 1460.9966599866398 0.5097596405414907 509.0 4.0 341.0 
546.0005829790528 24950.0 NaN 1457.987975951903 0.5077711884919975 508.0 5.0 339.0 
548.0005829790528 24947.0 NaN 1457.9532398129597 0.5076995337018354 511.0 4.0 340.0 
550.0005829790528 24936.0 NaN 1460.967267869072 0.5063121924210693 511.0 4.0 341.0 
552.0005829790528 24939.0 NaN 1461.0126920507676 0.5062531436626316 509.0 4.0 341.0 
554.0005829790528 24966.0 NaN 1467.0621242484974 0.5082847310970307 509.0 4.0 343.0 
556.0005829790528 24991.0 NaN 1470.2605210420838 0.5076969183451856 506.0 5.0 343.0 
558.0005829790528 25006.0 NaN 1454.8510354041414 0.5075009512469327 503.0 4.0 339.0 
560.0005829790528 24997.0 NaN 1451.8557114228454 0.5084432079721373 500.0 4.0 338.0 
562.0005829790528 24956.0 NaN 1454.8456913827652 0.5079856478366749 495.0 4.0 339.0 
564.0005829790528 24958.0 NaN 1461.1169004676015 0.5088107630526366 497.0 3.0 342.0 
566.0005829790528 24990.0 NaN 1470.2097528390104 0.5097284085137777 502.0 3.0 345.0 
568.0005829790528 24998.0 NaN 1470.3299933199728 0.5088552785702253 503.0 3.0 345.0 
570.0005829790528 24990.0 NaN 1476.4328657314634 0.5080179537191788 511.0 2.0 348.0 
572.0005829790528 24963.0 NaN 1479.60454241817 0.5076843268850258 511.0 2.0 349.0 
574.0005829790528 25004.0 NaN 1482.5784903139615 0.5103411219931693 509.0 3.0 349.0 
576.0005829790528 24992.0 NaN 1485.7020708082828 0.5084427656486835 509.0 3.0 350.0 
578.0005829790528 25017.0 NaN 1482.5330661322641 0.5069374420806931 512.0 2.0 350.0 
580.0005829790528 25006.0 NaN 1485.7287909151637 0.5075187698842845 512.0 2.0 351.0 
582.0005829790528 24976.0 NaN 1485.584502338009 0.5095293350560257 515.0 3.0 350.0 
584.0005829790528 25017.0 NaN 1482.586506346026 0.5102599022701214 514.0 3.0 349.0 
586.0005829790528 25012.0 NaN 1491.8102872411482 0.5059459683751211 518.0 3.0 352.0 
588.0005829790528 25043.0 NaN 1488.7054108216441 0.5064209307916441 519.0 2.0 352.0 
590.0005829790528 25051.0 NaN 1491.751503006011 0.5065977779686197 520.0 2.0 353.0 
592.0005829790528 25037.0 NaN 1491.711422845691 0.5085319530085229 522.0 3.0 352.0 
594.0005829790528 25086.0 NaN 1491.6018704074818 0.508352611156896 522.0 3.0 352.0 
596.0005829790528 25084.0 NaN 1494.832331329326 0.5067052752526574 524.0 3.0 353.0 
598.0005829790528 25074.0 NaN 1488.5985303941213 0.5074000951805148 525.0 2.0 352.0 
600.0005829790528 25066.0 NaN 1485.5390781563121 0.506616967386146 527.0 2.0 351.0 
602.0005829790528 25073.0 NaN 1491.668670674682 0.5076514215648658 526.0 3.0 352.0 
604.0005829790528 25154.0 NaN 1491.6713426853714 0.5118255256936998 524.0 3.0 352.0 
606.0005829790528 25158.0 NaN 1497.8543754175012 0.5105496539135537 522.0 3.0 354.0 
608.0005829790528 25171.0 NaN 1497.862391449565 0.5085562782469815 523.0 2.0 355.0 
610.0005829790528 25159.0 NaN 1494.7227788911164 0.5056750607100775 523.0 3.0 353.0 
612.0005829790528 25145.0 NaN 1494.7334669338666 0.5100418229838773 517.0 4.0 352.0 
614.0005829790528 25161.0 NaN 1494.67468269873 0.5073643716117471 517.0 4.0 352.0 
616.0005829790528 25115.0 NaN 1497.8891115564456 0.5038294458435472 519.0 4.0 353.0 
618.0005829790528 25189.0 NaN 1497.784903139612 0.5061163504690688 522.0 2.0 355.0 
620.0005829790528 25161.0 NaN 1494.7361389445553 0.5083208796816265 520.0 2.0 354.0 
622.0005829790528 25140.0 NaN 1500.7909151636616 0.5066376752678572 518.0 3.0 355.0 
624.0005829790528 25162.0 NaN 1503.9171676686715 0.5087898967906545 514.0 4.0 355.0 
626.0005829790528 25117.0 NaN 1506.9445557782242 0.5055925644402668 516.0 3.0 357.0 
628.0005829790528 25177.0 NaN 1507.1102204408817 0.5051855847672593 515.0 2.0 358.0 
630.0005829790528 25144.0 NaN 1507.080828323312 0.5067274043707091 514.0 1.0 359.0 
632.0005829790528 25135.0 NaN 1507.0113560454251 0.5036698814371651 513.0 3.0 357.0 
634.0005829790528 25182.0 NaN 1516.1496325985295 0.5055510574545499 512.0 5.0 358.0 
636.0005829790528 25160.0 NaN 1516.3607214428848 0.5089067189477453 521.0 4.0 359.0 
638.0005829790528 25166.0 NaN 1516.2378089512365 0.5051572594891574 523.0 3.0 360.0 
640.0005829790528 25140.0 NaN 1513.2157648630605 0.5047244746154612 522.0 2.0 360.0 
642.0005829790528 25133.0 NaN 1510.1028724114901 0.5034778840834232 522.0 4.0 357.0 
644.0005829790528 25149.0 NaN 1507.019372077489 0.5109454715352788 522.0 4.0 356.0 
646.0005829790528 25092.0 NaN 1507.126252505009 0.5066936373024916 519.0 4.0 356.0 
648.0005829790528 25111.0 NaN 1513.2184368737467 0.5038443874766504 521.0 3.0 359.0 
650.0005829790528 25122.0 NaN 1519.3640614562453 0.5052644970630464 520.0 1.0 363.0 
652.0005829790528 25125.0 NaN 1522.4742818971272 0.5052674045255162 516.0 3.0 362.0 
654.0005829790528 25124.0 NaN 1519.3400133600546 0.5100988802410695 512.0 4.0 360.0 
656.0005829790528 25087.0 NaN 1522.5197060788253 0.5049102004203695 513.0 3.0 362.0 
658.0005829790528 25091.0 NaN 1531.7381429525726 0.5061309870880626 513.0 2.0 366.0 
660.0005829790528 25042.0 NaN 1534.8243152972618 0.5069200021868224 514.0 1.0 368.0 
662.0005829790528 25031.0 NaN 1534.6960587842357 0.5077520521712185 513.0 3.0 366.0 
664.0005829790528 25020.0 NaN 1537.7608550434193 0.508561811513374 513.0 4.0 366.0 
#####################################################################
# End of data export. Simulation finished at: 2019-03-11T00:20+0000 #
#####################################################################
