#####################################################################
# Alchemist log file - simulation started at: 2019-03-07T18:47+0000 #
#####################################################################
# seed = 5.0, bandwidth = 1333521.4321633242, propagationDelay = 1.0, baserange = 17.78279410038923
#
# The columns have the following meaning: 
# time neighbor_count[Sum] <value>@neighbor_count[Sum] packet_size[Mean] mean_delay[Mean] crowd[Sum] overcrowded[Sum] risk[Sum] 
0.0 NaN NaN NaN NaN NaN NaN NaN 
2.000101793669918 552.0 NaN 4988.785571142284 0.3181990959362474 1497.0 0.0 1497.0 
4.000101793669918 1118.0 NaN 4995.879759519038 1.0107787896051605 1497.0 0.0 1497.0 
6.000101793669918 1118.0 NaN 4995.243820975284 1.0107669806761002 1495.0 2.0 1495.0 
8.000101793669918 1118.0 NaN 4993.418837675351 1.0131581481515308 1495.0 2.0 1495.0 
10.000101793669918 1114.0 NaN 4992.01336005344 1.010353178864495 1491.0 6.0 1491.0 
12.000101793669918 1114.0 NaN 4991.826319305277 1.010356014598326 1490.0 7.0 1490.0 
14.000101793669918 1114.0 NaN 4991.144956579827 1.010356416676166 1490.0 7.0 1490.0 
16.00010179366992 1117.0 NaN 4991.2705410821645 1.0146571639818154 1490.0 7.0 1490.0 
18.00010179366992 1116.0 NaN 4990.98997995992 1.0128375179697031 1490.0 7.0 1490.0 
20.00010179366992 1116.0 NaN 4990.883099532398 1.0169367458625809 1490.0 7.0 1490.0 
22.00010179366992 1116.0 NaN 4990.832331329325 1.0137683336200232 1490.0 7.0 1490.0 
24.00010179366992 1116.0 NaN 4990.968603874416 1.0192553710931391 1490.0 7.0 1490.0 
26.00010179366992 1113.0 NaN 4990.672010688043 1.014186289714293 1490.0 7.0 1490.0 
28.00010179366992 1117.0 NaN 4990.928523714095 1.0131433593728478 1490.0 7.0 1490.0 
30.00010179366992 1121.0 NaN 4990.904475617903 1.0191313189076603 1490.0 7.0 1490.0 
32.00010179366992 1118.0 NaN 4990.824315297261 1.0143075829276864 1490.0 7.0 1490.0 
34.00010179366992 1119.0 NaN 4990.714762859051 1.0154589470969162 1490.0 7.0 1490.0 
36.00010179366992 1119.0 NaN 4990.920507682031 1.013965403997977 1490.0 7.0 1490.0 
38.00010179366992 1119.0 NaN 4990.706746826987 1.0148159017708964 1490.0 7.0 1490.0 
40.00010179366992 1124.0 NaN 4990.89378757515 1.0107382645589058 1490.0 7.0 1490.0 
42.00010179366992 1129.0 NaN 4990.835003340013 1.0135741241869607 1490.0 7.0 1490.0 
44.00010179366992 1132.0 NaN 4990.883099532398 1.0147434365557517 1490.0 7.0 1490.0 
46.00010179366992 1135.0 NaN 4990.797595190381 1.0099028452095222 1490.0 7.0 1490.0 
48.00010179366992 1137.0 NaN 4990.984635938544 1.0138966854583353 1490.0 7.0 1490.0 
50.00010179366992 1141.0 NaN 4990.794923179693 1.011495678248598 1490.0 7.0 1490.0 
52.00010179366992 1138.0 NaN 4991.054108216433 1.0130040295902225 1490.0 7.0 1490.0 
54.00010179366992 1141.0 NaN 4990.947227788911 1.0074616795580396 1490.0 7.0 1490.0 
56.00010179366992 1145.0 NaN 4990.896459585839 1.0100518384288502 1490.0 7.0 1490.0 
58.00010179366992 1146.0 NaN 4990.835003340013 1.0259171125284086 1490.0 7.0 1490.0 
60.00010179366992 1129.0 NaN 4987.949231796927 1.0164463943904416 1489.0 7.0 1489.0 
62.00010179366992 1120.0 NaN 977.7287909151637 1.0139434226786403 485.0 6.0 182.0 
64.00010179366993 1126.0 NaN 980.7214428857728 1.009365310318609 477.0 6.0 183.0 
66.00010179366993 1129.0 NaN 983.6259185036727 1.0092514378887996 448.0 6.0 184.0 
68.00010179366993 1128.0 NaN 983.6018704074819 1.0128473842739247 402.0 6.0 184.0 
70.00010179366993 1124.0 NaN 983.5430861723457 1.020739331708239 370.0 6.0 184.0 
72.00010179366993 1122.0 NaN 983.535070140282 1.0125865008473856 347.0 6.0 184.0 
74.00010179366993 1125.0 NaN 983.5217100868376 1.0153689188987354 335.0 6.0 184.0 
76.00010179366993 1119.0 NaN 983.4709418837648 1.0155818996688304 327.0 6.0 184.0 
78.00010179366993 1113.0 NaN 983.5430861723457 1.0190477450634552 323.0 6.0 184.0 
80.00010179366993 1106.0 NaN 983.5056780227103 1.0094772609102791 313.0 6.0 184.0 
82.00010179366993 1114.0 NaN 983.492317969273 1.0097041856722362 303.0 6.0 184.0 
84.00010179366993 1114.0 NaN 983.5511022044093 1.0173829160557024 300.0 6.0 184.0 
86.00010179366993 1106.0 NaN 983.4949899799624 1.0086961068561184 296.0 6.0 184.0 
88.00010179366993 1113.0 NaN 989.6700066800275 1.0128030590171389 296.0 6.0 186.0 
90.00010179366993 1108.0 NaN 989.651302605209 1.005159358434191 295.0 6.0 186.0 
92.00010179366993 1109.0 NaN 989.6700066800275 1.0080627297117817 290.0 6.0 186.0 
94.00010179366993 1115.0 NaN 992.7107548430181 1.0103058891631393 288.0 6.0 187.0 
96.00010179366993 1113.0 NaN 986.5410821643272 1.0066414854482637 287.0 6.0 185.0 
98.00010179366993 1111.0 NaN 989.6192384769546 1.0096571503672438 286.0 6.0 186.0 
100.00010179366993 1111.0 NaN 992.7535070140272 1.012271005333331 284.0 6.0 187.0 
102.00010179366993 1101.0 NaN 992.6920507682017 1.0143513962224138 283.0 6.0 187.0 
104.00010179366993 1098.0 NaN 992.7428189712745 1.0113662392565248 284.0 6.0 187.0 
106.00010179366993 1097.0 NaN 992.7535070140272 1.0200198153564781 286.0 6.0 187.0 
108.00010179366993 1091.0 NaN 995.7862391449543 1.017067964709532 285.0 6.0 188.0 
110.00010179366993 1091.0 NaN 995.7541750167 1.0173844152520115 286.0 6.0 188.0 
112.00010179366993 1092.0 NaN 995.7969271877092 1.0155145342354523 286.0 6.0 188.0 
114.00010179366993 1095.0 NaN 998.8403473613911 1.0117390370379111 283.0 6.0 189.0 
116.00010179366993 1090.0 NaN 992.7374749499002 1.0128885351838466 280.0 6.0 187.0 
118.00010179366993 1101.0 NaN 998.8857715430831 1.0176294237460497 277.0 6.0 189.0 
120.00010179366993 1093.0 NaN 986.6586506346016 1.0104121030963649 278.0 6.0 185.0 
122.00010179366993 1092.0 NaN 983.6285905143637 1.0147483092799794 275.0 6.0 184.0 
124.00010179366993 1097.0 NaN 989.7795591182363 1.0104128150384222 277.0 6.0 186.0 
126.00010179366993 1101.0 NaN 989.7154308617254 1.0058584812270277 273.0 6.0 186.0 
128.00010179366993 1115.0 NaN 986.6319305277201 1.019580243751847 273.0 6.0 185.0 
130.00010179366993 1106.0 NaN 995.8663994656002 1.0105745317526706 277.0 6.0 188.0 
132.00010179366993 1105.0 NaN 992.7802271209093 1.0089102021400334 276.0 6.0 187.0 
134.00010179366993 1110.0 NaN 989.661990647964 1.006745568194302 277.0 6.0 186.0 
136.00010179366993 1120.0 NaN 986.6265865063452 1.0082185952232021 273.0 6.0 185.0 
138.00010179366993 1129.0 NaN 992.8122912491636 1.0182812883812544 279.0 6.0 187.0 
140.00010179366993 1123.0 NaN 1002.1162324649295 1.0116358259106106 271.0 6.0 190.0 
142.00010179366993 1121.0 NaN 1002.1456245825 1.0091903123816652 276.0 6.0 190.0 
144.00010179366993 1125.0 NaN 986.7895791583182 1.0138292509518207 271.0 6.0 185.0 
146.00010179366993 1120.0 NaN 986.7147628590523 1.013078627858206 275.0 6.0 185.0 
148.00010179366993 1138.0 NaN 989.8329993319978 1.0116217671756986 271.0 6.0 186.0 
150.00010179366993 1141.0 NaN 989.7555110220454 1.0141399641700752 274.0 6.0 186.0 
152.00010179366993 1140.0 NaN 989.7768871075476 1.0163777662694462 272.0 6.0 186.0 
154.00010179366993 1142.0 NaN 989.7715430861729 1.0208194256799015 274.0 6.0 186.0 
156.00010179366993 1136.0 NaN 986.7414829659336 1.0084037912485793 274.0 6.0 185.0 
158.00010179366993 1139.0 NaN 989.8356713426842 1.0183353254920617 278.0 6.0 186.0 
160.00010179366993 1136.0 NaN 986.6746826987297 1.0045747890563417 279.0 6.0 185.0 
162.00010179366993 1137.0 NaN 986.6666666666658 1.013349916470371 282.0 6.0 185.0 
164.00010179366993 1133.0 NaN 983.6232464929843 1.0123305974827148 280.0 6.0 184.0 
166.00010179366993 1127.0 NaN 980.5210420841702 0.999146498816411 278.0 6.0 183.0 
168.00010179366993 1133.0 NaN 986.6399465597838 1.0104764244954985 278.0 6.0 185.0 
170.00010179366993 1132.0 NaN 989.7421509686019 1.0052133079955394 279.0 6.0 186.0 
172.00010179366993 1131.0 NaN 995.9679358717456 1.0023783649465123 278.0 6.0 188.0 
174.00010179366993 1135.0 NaN 995.9759519038091 1.016431031757288 281.0 6.0 188.0 
176.00010179366993 1136.0 NaN 999.0380761523073 1.0117869391862055 278.0 6.0 189.0 
178.00010179366993 1132.0 NaN 983.6366065464275 1.0240377517556882 280.0 6.0 184.0 
180.00010179366993 1125.0 NaN 980.5424181696728 1.0117900756906477 277.0 6.0 183.0 
182.00010179366993 1129.0 NaN 971.3213092852361 1.0120238415005185 279.0 6.0 180.0 
184.00010179366993 1135.0 NaN 971.2919171676698 1.0235262829877243 277.0 6.0 180.0 
186.00010179366993 1128.0 NaN 977.4482297929179 1.0136529902025389 276.0 6.0 182.0 
188.00010179366993 1128.0 NaN 977.4589178356725 1.0182224043644417 276.0 6.0 182.0 
190.00010179366993 1119.0 NaN 977.4054776219092 1.011950114328602 277.0 6.0 182.0 
192.00010179366993 1118.0 NaN 977.3974615898452 1.0109525631147334 275.0 6.0 182.0 
194.00010179366993 1128.0 NaN 980.539746158984 1.0198013949201337 276.0 6.0 183.0 
196.00010179366993 1120.0 NaN 980.5584502337998 1.0050234055294727 273.0 6.0 183.0 
198.00010179366993 1134.0 NaN 983.5885103540428 1.0015137927939035 273.0 6.0 184.0 
200.00010179366993 1140.0 NaN 983.6072144288569 1.0147211618757113 273.0 6.0 184.0 
202.00010179366993 1137.0 NaN 983.5350701402817 1.0049728327406053 273.0 6.0 184.0 
204.00010179366993 1146.0 NaN 989.6993987975932 1.0174851857031186 276.0 6.0 186.0 
206.00010179366993 1142.0 NaN 983.5911823647272 1.002327853007671 273.0 6.0 184.0 
208.00010179366993 1148.0 NaN 986.6372745491 1.0213791621526003 271.0 11.0 180.0 
210.00010179366993 1142.0 NaN 989.7207748831003 1.0200175588699854 265.0 12.0 180.0 
212.00010179366993 1138.0 NaN 989.6913827655293 1.0072054211414163 272.0 7.0 185.0 
214.00010179366993 1138.0 NaN 989.7154308617253 1.0092300047103697 266.0 11.0 181.0 
216.00010179366993 1138.0 NaN 992.8603874415476 1.0106185942235226 271.0 7.0 186.0 
218.00010179366993 1132.0 NaN 986.6506346025365 1.022892330768042 273.0 6.0 185.0 
220.00010179366993 1135.0 NaN 986.6105544422184 1.0086099226725258 272.0 6.0 185.0 
222.00010179366993 1144.0 NaN 980.4622578490302 1.0149145876466272 269.0 11.0 178.0 
224.00010179366993 1132.0 NaN 977.3894455577816 1.0161727352811154 268.0 12.0 176.0 
226.00010179366993 1123.0 NaN 971.2678690714757 1.0100519554478429 271.0 7.0 179.0 
228.00010179366993 1124.0 NaN 971.3132932531726 1.007015768732091 269.0 11.0 175.0 
230.00010179366993 1130.0 NaN 968.1656646626577 1.0076209875326232 272.0 7.0 178.0 
232.00010179366993 1139.0 NaN 974.2925851703393 1.022694982755064 272.0 6.0 181.0 
234.00010179366993 1137.0 NaN 974.3433533734119 1.0129655817253633 272.0 6.0 181.0 
236.00010179366993 1139.0 NaN 971.3026052104208 1.022044430761518 271.0 6.0 180.0 
238.00010179366993 1138.0 NaN 971.286573146291 1.0221317734797781 272.0 6.0 180.0 
240.00010179366993 1139.0 NaN 971.2812291249181 1.0228197620913893 269.0 6.0 180.0 
242.00010179366993 1129.0 NaN 971.3426853707427 1.0187087862509878 268.0 6.0 180.0 
244.00010179366993 1121.0 NaN 971.3319973279908 1.0147269677438864 266.0 6.0 180.0 
246.00010179366993 1119.0 NaN 971.3052772211091 1.013153624383788 266.0 6.0 180.0 
248.00010179366993 1116.0 NaN 968.1629926519728 1.0088301647846811 264.0 6.0 179.0 
250.00010179366993 1117.0 NaN 965.0741482965908 1.0109829016776901 263.0 6.0 178.0 
252.00010179366993 1116.0 NaN 965.0955243820972 1.0109353930563227 264.0 6.0 178.0 
254.00010179366993 1117.0 NaN 962.0360721442883 1.0035367024499893 264.0 6.0 177.0 
256.00010179366996 1123.0 NaN 958.9178356713422 1.0145594621253413 268.0 6.0 176.0 
258.00010179366996 1121.0 NaN 955.8797595190365 1.0106079247524866 268.0 6.0 175.0 
260.00010179366996 1123.0 NaN 958.9873079492335 1.0130470765667048 267.0 6.0 176.0 
262.00010179366996 1128.0 NaN 958.9605878423517 1.0242143713914902 267.0 6.0 176.0 
264.00010179366996 1116.0 NaN 958.9792919171667 1.023941901067178 268.0 6.0 176.0 
266.00010179366996 1109.0 NaN 952.8550434201726 1.0112780407445336 265.0 6.0 174.0 
268.00010179366996 1111.0 NaN 952.828323313294 1.017206872471495 268.0 6.0 174.0 
270.00010179366996 1115.0 NaN 946.7040748163001 1.0075597415330189 267.0 6.0 172.0 
272.00010179366996 1112.0 NaN 946.6933867735457 1.0210697237449256 269.0 6.0 172.0 
274.00010179366996 1113.0 NaN 952.8336673346685 1.0067209581163028 264.0 11.0 169.0 
276.00010179366996 1117.0 NaN 962.0788243152969 1.0240475389239114 271.0 8.0 175.0 
278.00010179366996 1111.0 NaN 965.1249164996668 1.0173813298171737 273.0 6.0 178.0 
280.00010179366996 1106.0 NaN 965.1569806279218 1.0235896583136728 271.0 6.0 178.0 
282.00010179366996 1096.0 NaN 965.0848363393454 1.0106889806002615 271.0 6.0 178.0 
284.00010179366996 1089.0 NaN 955.8877755511002 1.0100093054615997 267.0 6.0 175.0 
286.00010179366996 1090.0 NaN 952.8229792919184 1.0043829330789928 266.0 6.0 174.0 
288.00010179366996 1091.0 NaN 952.7935871743491 1.012185022154438 264.0 6.0 174.0 
290.00010179366996 1089.0 NaN 952.7588510354042 1.0019392937492932 266.0 6.0 174.0 
292.00010179366996 1096.0 NaN 952.7641950567817 1.005510962707917 267.0 6.0 174.0 
294.00010179366996 1096.0 NaN 962.0013360053453 1.0086553377153573 267.0 6.0 177.0 
296.00010179366996 1097.0 NaN 965.1275885103547 1.0090547400718899 269.0 6.0 178.0 
298.00010179366996 1101.0 NaN 962.0868403473637 1.0147069922736571 267.0 6.0 177.0 
300.00010179366996 1100.0 NaN 955.9278557114228 1.0212174325058503 267.0 6.0 175.0 
302.00010179366996 1097.0 NaN 955.909151636605 1.0156348280051921 266.0 6.0 175.0 
304.00010179366996 1094.0 NaN 955.9465597862405 1.014011556349961 267.0 6.0 175.0 
306.00010179366996 1092.0 NaN 959.0273881095546 1.0122736040185611 270.0 6.0 176.0 
308.00010179366996 1090.0 NaN 955.9251837007363 1.0199174429689668 267.0 6.0 175.0 
310.00010179366996 1080.0 NaN 952.8764195056772 1.0136714484787943 268.0 6.0 174.0 
312.00010179366996 1079.0 NaN 952.8229792919184 1.011129943652264 265.0 6.0 174.0 
314.00010179366996 1082.0 NaN 952.817635270541 1.0142014785337932 264.0 6.0 174.0 
316.00010179366996 1086.0 NaN 959.0006680026729 1.0114662128876066 266.0 6.0 176.0 
318.00010179366996 1084.0 NaN 962.078824315296 1.0078769084560764 268.0 6.0 177.0 
320.00010179366996 1091.0 NaN 962.0814963259864 1.0054664957189308 270.0 6.0 177.0 
322.00010179366996 1097.0 NaN 952.8897795591181 1.007628219526158 268.0 6.0 174.0 
324.00010179366996 1103.0 NaN 952.908483633936 1.0098247214502083 267.0 6.0 174.0 
326.00010179366996 1104.0 NaN 949.816967267868 1.0174350203323697 268.0 6.0 173.0 
328.00010179366996 1098.0 NaN 952.8764195056771 1.0143906130812141 267.0 6.0 174.0 
330.00010179366996 1100.0 NaN 952.8844355377415 1.0132269378858163 266.0 6.0 174.0 
332.00010179366996 1101.0 NaN 952.8416833667324 1.0139256880031167 267.0 6.0 174.0 
334.00010179366996 1099.0 NaN 955.906479625918 1.0202224300149065 267.0 6.0 175.0 
336.00010179366996 1091.0 NaN 952.8256513026046 1.0169583144855907 265.0 6.0 174.0 
338.00010179366996 1087.0 NaN 949.7501670006683 1.0257781550179916 263.0 6.0 173.0 
340.00010179366996 1086.0 NaN 946.6773547094182 1.018780901310553 263.0 6.0 172.0 
342.00010179366996 1084.0 NaN 946.6479625918499 1.0207323822451706 262.0 6.0 172.0 
344.00010179366996 1080.0 NaN 952.7775551102187 1.0128331954795735 266.0 6.0 174.0 
346.00010179366996 1084.0 NaN 955.863727454909 1.016967648043344 266.0 6.0 175.0 
348.00010179366996 1084.0 NaN 955.8717434869734 1.017543269989595 268.0 6.0 175.0 
350.00010179366996 1077.0 NaN 958.9018036072135 1.0294018212605986 270.0 6.0 176.0 
352.00010179366996 1068.0 NaN 955.7969271877092 1.0168662343828576 269.0 6.0 175.0 
354.00010179366996 1064.0 NaN 946.6078824315312 1.0154716638868466 268.0 6.0 172.0 
356.00010179366996 1060.0 NaN 940.4569138276545 1.0093448181087372 265.0 6.0 170.0 
358.00010179366996 1063.0 NaN 934.3460253841009 1.0255995376289138 263.0 6.0 168.0 
360.00010179366996 1067.0 NaN 937.4241816967274 1.0060382527657579 264.0 6.0 169.0 
362.00010179366996 1073.0 NaN 940.4756179024729 1.0109087020318064 263.0 6.0 170.0 
364.00010179366996 1077.0 NaN 928.2217768871086 1.0096056155965183 262.0 6.0 166.0 
366.00010179366996 1073.0 NaN 928.1816967267864 1.0068404931571169 263.0 6.0 166.0 
368.00010179366996 1068.0 NaN 928.1790247161002 1.0138108178211442 262.0 6.0 166.0 
370.00010179366996 1069.0 NaN 928.1977287909143 1.0114879345367007 264.0 6.0 166.0 
372.00010179366996 1054.0 NaN 928.1816967267864 1.0083798836601479 264.0 6.0 166.0 
374.00010179366996 1058.0 NaN 931.2785571142279 1.0025476116736853 267.0 6.0 167.0 
376.00010179366996 1060.0 NaN 925.132932531731 1.002143268711305 268.0 6.0 165.0 
378.00010179366996 1063.0 NaN 922.0521042084175 1.0089368953903524 268.0 6.0 164.0 
380.00010179366996 1069.0 NaN 928.2404809619233 1.0074271330332338 268.0 6.0 166.0 
382.00010179366996 1070.0 NaN 928.2939211756853 1.003760426863455 264.0 6.0 166.0 
384.00010179366996 1067.0 NaN 931.3426853707417 1.0208890409333438 264.0 6.0 167.0 
386.00010179366996 1052.0 NaN 928.2324649298597 1.0187324875810149 260.0 6.0 166.0 
388.00010179366996 1046.0 NaN 928.229792919173 1.0081777928097868 259.0 6.0 166.0 
390.00010179366996 1053.0 NaN 928.3259853039416 1.007311625489273 254.0 6.0 166.0 
392.00010179366996 1066.0 NaN 928.3420173680689 1.0013689186677281 257.0 6.0 166.0 
394.00010179366996 1080.0 NaN 934.4742818971272 1.0249550659632214 257.0 6.0 168.0 
396.00010179366996 1068.0 NaN 928.3286573146274 1.0121316439269636 255.0 6.0 166.0 
398.00010179366996 1073.0 NaN 925.2211088844366 1.0074010300210143 254.0 6.0 165.0 
400.00010179366996 1075.0 NaN 925.2985971943908 1.0127449943140823 252.0 6.0 165.0 
402.00010179366996 1081.0 NaN 922.2284569138271 1.0147889910803418 254.0 6.0 164.0 
404.00010179366996 1076.0 NaN 922.156312625251 1.0093589244744434 257.0 6.0 164.0 
406.00010179366996 1069.0 NaN 916.016032064127 1.0123448686666205 255.0 6.0 162.0 
408.00010179366996 1073.0 NaN 912.9726118904455 1.0050298157649327 253.0 6.0 161.0 
410.00010179366996 1081.0 NaN 916.1175684702724 1.0140619900644303 255.0 6.0 162.0 
412.00010179366996 1082.0 NaN 916.0347361389457 1.032706793928845 251.0 6.0 162.0 
414.00010179366996 1067.0 NaN 919.1369405477635 1.0091640045971635 252.0 6.0 163.0 
416.00010179366996 1066.0 NaN 922.1643286573146 1.0082560122156417 250.0 6.0 164.0 
418.00010179366996 1070.0 NaN 919.0915163660637 1.005453973746388 251.0 6.0 163.0 
420.00010179366996 1077.0 NaN 919.1476285905144 1.0104491324140272 250.0 6.0 163.0 
422.00010179366996 1078.0 NaN 919.1289245156999 1.007929810503972 249.0 6.0 163.0 
424.00010179366996 1075.0 NaN 922.2177688710763 1.020125277664475 248.0 6.0 164.0 
426.00010179366996 1064.0 NaN 915.9652638610543 1.0065582418117407 246.0 6.0 162.0 
428.00010179366996 1066.0 NaN 912.8871075484311 1.0119595912612518 243.0 6.0 161.0 
430.00010179366996 1065.0 NaN 912.8309953239819 1.006353497745379 243.0 6.0 161.0 
432.00010179366996 1069.0 NaN 906.7174348697401 1.0164464488414084 244.0 6.0 159.0 
434.00010179366996 1074.0 NaN 906.7281229124908 1.0034985951495583 245.0 6.0 159.0 
436.00010179366996 1089.0 NaN 916.0080160320634 1.0028379697208647 245.0 6.0 162.0 
438.00010179366996 1100.0 NaN 919.096860387441 1.0217753288056806 248.0 6.0 163.0 
440.00010179366996 1090.0 NaN 925.2157648630591 1.0301689784203045 247.0 6.0 165.0 
442.00010179366996 1084.0 NaN 937.5070140280549 1.0148659486882727 246.0 6.0 169.0 
444.00010179366996 1093.0 NaN 934.4502338009366 1.0147304118769518 248.0 6.0 168.0 
446.00010179366996 1084.0 NaN 937.4455577822314 1.0128552314898496 250.0 6.0 169.0 
448.00010179366996 1091.0 NaN 937.5016700066814 1.0078990922472728 252.0 6.0 169.0 
450.00010179366996 1088.0 NaN 940.595858383433 1.0097141515229129 252.0 6.0 170.0 
452.00010179366996 1090.0 NaN 940.6359385437546 1.0127868097624864 246.0 11.0 165.0 
454.00010179366996 1091.0 NaN 940.5424181696728 1.0081455293508441 245.0 14.0 162.0 
456.00010179366996 1095.0 NaN 937.4321977287909 1.0152459750523248 247.0 14.0 161.0 
458.00010179366996 1091.0 NaN 934.3994655978634 1.0098622434118452 249.0 14.0 160.0 
460.00010179366996 1093.0 NaN 934.3647294589183 1.0200988360649472 250.0 14.0 160.0 
462.00010179366996 1080.0 NaN 934.388777555109 1.0118089561643862 246.0 14.0 160.0 
464.00010179366996 1074.0 NaN 928.205744822978 1.0124156163977978 243.0 14.0 158.0 
466.00010179366996 1070.0 NaN 928.2191048764184 1.0135008948833288 240.0 14.0 158.0 
468.00010179366996 1071.0 NaN 931.2785571142275 1.012850884457766 241.0 14.0 159.0 
470.00010179366996 1062.0 NaN 931.2705410821636 1.0102128790648388 242.0 14.0 159.0 
472.00010179366996 1065.0 NaN 928.1897127588508 1.0151023028334298 242.0 14.0 158.0 
474.00010179366996 1063.0 NaN 925.0955243820964 1.0205057825422539 246.0 9.0 162.0 
476.00010179366996 1055.0 NaN 931.2625250501 1.021861579423799 250.0 6.0 167.0 
478.00010179366996 1051.0 NaN 931.2224448897817 1.0262201629107885 249.0 6.0 167.0 
480.00010179366996 1050.0 NaN 928.1656646626585 1.0167227006493313 251.0 6.0 166.0 
482.00010179366996 1054.0 NaN 925.1543086172361 1.0086188483894536 250.0 6.0 165.0 
484.00010179366996 1057.0 NaN 919.019372077487 1.009320342056952 251.0 6.0 163.0 
486.00010179366996 1052.0 NaN 925.1756847027402 1.0141903098843525 249.0 6.0 165.0 
488.00010179366996 1052.0 NaN 925.1062124248499 1.0162906776212934 248.0 6.0 165.0 
490.00010179366996 1052.0 NaN 925.1756847027402 1.0147702868111994 245.0 6.0 165.0 
492.00010179366996 1056.0 NaN 925.2050768203087 1.0128896430940943 249.0 6.0 165.0 
494.00010179366996 1057.0 NaN 922.0708082832324 1.0152188511897857 247.0 6.0 164.0 
496.00010179366996 1052.0 NaN 922.0307281229136 1.015774363534867 247.0 6.0 164.0 
498.00010179366996 1053.0 NaN 922.0601202404819 1.0102217173898422 246.0 6.0 164.0 
500.00010179366996 1062.0 NaN 916.0106880427506 1.004526993534631 242.0 6.0 162.0 
502.00010179366996 1065.0 NaN 912.9164996659996 1.0144388562541742 244.0 6.0 161.0 
504.00010179366996 1067.0 NaN 909.832999331996 1.0047828561960248 244.0 6.0 160.0 
506.00010179366996 1066.0 NaN 906.7361389445551 1.0129720085473637 245.0 6.0 159.0 
508.00010179366996 1063.0 NaN 897.5257181028728 0.998867364068128 245.0 6.0 156.0 
510.00010179366996 1071.0 NaN 894.4475617902464 1.0137270971846883 245.0 6.0 155.0 
512.00010179367 1061.0 NaN 894.4021376085499 1.021968762497026 244.0 6.0 155.0 
514.00010179367 1055.0 NaN 891.3720774883091 1.0125875008089176 244.0 6.0 154.0 
516.00010179367 1048.0 NaN 891.38543754175 1.0046915069820737 242.0 6.0 154.0 
518.00010179367 1049.0 NaN 891.409485637942 1.0035864685821756 241.0 6.0 154.0 
520.00010179367 1052.0 NaN 885.2879091516363 1.0122281911008197 240.0 6.0 152.0 
522.00010179367 1042.0 NaN 882.1750167000666 1.0173016533164823 239.0 6.0 151.0 
524.00010179367 1029.0 NaN 882.1803607214428 1.0195129735077466 239.0 6.0 151.0 
526.00010179367 1025.0 NaN 876.05611222445 1.0138567329189732 239.0 6.0 149.0 
528.00010179367 1026.0 NaN 872.9592518370072 1.0175423104676071 239.0 6.0 148.0 
530.00010179367 1028.0 NaN 866.8269873079498 1.0111763120449884 237.0 6.0 146.0 
532.00010179367 1024.0 NaN 869.9158316633271 1.0216933107796755 238.0 6.0 147.0 
534.00010179367 1030.0 NaN 872.9913159652635 0.9998211866141181 242.0 6.0 148.0 
536.00010179367 1044.0 NaN 879.0781563126253 1.00455767109663 244.0 6.0 150.0 
538.00010179367 1050.0 NaN 872.9832999332001 1.0026778287320643 242.0 6.0 148.0 
540.00010179367 1058.0 NaN 873.0020040080161 1.0132447559617204 244.0 6.0 148.0 
542.00010179367 1052.0 NaN 873.0367401469608 1.0087321016990596 242.0 6.0 148.0 
544.00010179367 1052.0 NaN 882.2070808283227 1.0132261551562027 246.0 6.0 151.0 
546.00010179367 1049.0 NaN 888.3313293253179 1.0100921102208904 243.0 6.0 153.0 
548.00010179367 1049.0 NaN 885.2879091516363 1.0029658500292977 249.0 6.0 152.0 
550.00010179367 1050.0 NaN 888.3393453573818 1.0123116542716426 248.0 6.0 153.0 
552.00010179367 1049.0 NaN 885.2959251837002 1.005343552999835 249.0 6.0 152.0 
554.00010179367 1053.0 NaN 888.3233132932532 1.0059757603946076 248.0 6.0 153.0 
556.00010179367 1051.0 NaN 888.3767535070135 1.0101382474039668 250.0 6.0 153.0 
558.00010179367 1051.0 NaN 888.36873747495 1.0123181587147758 248.0 6.0 153.0 
560.00010179367 1046.0 NaN 891.519038076153 1.0214072852931015 245.0 6.0 154.0 
562.00010179367 1045.0 NaN 891.468269873079 1.0103046411457304 243.0 6.0 154.0 
564.00010179367 1059.0 NaN 897.6806947227783 1.006321839291718 244.0 6.0 156.0 
566.00010179367 1059.0 NaN 894.5971943887771 1.0099000969031902 245.0 6.0 155.0 
568.00010179367 1050.0 NaN 891.4602538410153 1.021812456715604 245.0 6.0 154.0 
570.00010179367 1045.0 NaN 891.4843019372078 1.0039549147558007 245.0 6.0 154.0 
572.00010179367 1053.0 NaN 897.6352705410818 1.0166450535805203 247.0 6.0 156.0 
574.00010179367 1052.0 NaN 897.6619906479635 1.0126158278466402 247.0 6.0 156.0 
576.00010179367 1048.0 NaN 900.6786907147635 1.0151302332823764 246.0 6.0 157.0 
578.00010179367 1055.0 NaN 900.689378757515 1.0146731186732614 246.0 6.0 157.0 
580.00010179367 1061.0 NaN 894.6239144956589 1.0368766618553757 243.0 6.0 155.0 
582.00010179367 1047.0 NaN 888.4275217100864 1.0134506410501851 242.0 6.0 153.0 
584.00010179367 1053.0 NaN 888.4008016032063 1.0120299402533657 244.0 6.0 153.0 
586.00010179367 1054.0 NaN 888.3660654642619 1.0083174178786698 247.0 6.0 153.0 
588.00010179367 1059.0 NaN 891.4415497661997 1.011894752481704 246.0 6.0 154.0 
590.00010179367 1061.0 NaN 897.6352705410818 1.010318599799785 246.0 6.0 156.0 
592.00010179367 1062.0 NaN 900.6492985971954 1.0095293606339337 247.0 6.0 157.0 
594.00010179367 1065.0 NaN 900.6118904475624 1.0060287075417473 250.0 6.0 157.0 
596.00010179367 1068.0 NaN 903.7167668670681 1.0130278591729602 251.0 6.0 158.0 
598.00010179367 1065.0 NaN 903.7274549098192 1.00779184332112 250.0 6.0 158.0 
600.00010179367 1070.0 NaN 906.8082832331318 1.016336312518522 248.0 6.0 159.0 
602.00010179367 1060.0 NaN 894.5223780895124 1.0238911815087102 244.0 6.0 155.0 
604.00010179367 1059.0 NaN 894.5170340681364 1.018422613810052 244.0 6.0 155.0 
606.00010179367 1058.0 NaN 900.6760187040741 1.0109373626053229 247.0 6.0 157.0 
608.00010179367 1070.0 NaN 913.0126920507682 1.0170235214302195 245.0 6.0 161.0 
610.00010179367 1082.0 NaN 919.1957247828999 1.027395140646959 250.0 6.0 163.0 
612.00010179367 1079.0 NaN 922.2525050100193 1.0175109602104455 252.0 6.0 164.0 
614.00010179367 1078.0 NaN 925.2130928523718 1.0252146881722433 253.0 6.0 165.0 
616.00010179367 1067.0 NaN 922.1402805611228 1.0155669688363609 251.0 6.0 164.0 
618.00010179367 1063.0 NaN 925.1863727454909 1.020138749723092 251.0 6.0 165.0 
620.00010179367 1058.0 NaN 922.1482965931864 1.0123215785948518 248.0 6.0 164.0 
622.00010179367 1059.0 NaN 919.0327321309279 1.0110926405776839 250.0 6.0 163.0 
624.00010179367 1066.0 NaN 925.215764863059 1.012028896655632 251.0 6.0 165.0 
626.00010179367 1072.0 NaN 934.4929859719451 1.0166406535974355 258.0 6.0 168.0 
628.00010179367 1072.0 NaN 937.5497661990635 1.020680556184843 257.0 6.0 169.0 
630.00010179367 1072.0 NaN 940.5691382765543 1.0217710260187076 259.0 6.0 170.0 
632.00010179367 1063.0 NaN 937.5310621242495 1.019918398126037 258.0 6.0 169.0 
634.00010179367 1076.0 NaN 937.5497661990635 1.0235060844522255 257.0 6.0 169.0 
636.00010179367 1078.0 NaN 943.7140948563781 1.0189447056182503 258.0 6.0 171.0 
638.00010179367 1086.0 NaN 946.797595190382 1.0240746058924162 259.0 6.0 172.0 
640.00010179367 1087.0 NaN 949.8543754175003 1.0212584377178582 261.0 6.0 173.0 
642.00010179367 1080.0 NaN 949.8356713426862 1.0189293467069542 264.0 6.0 173.0 
644.00010179367 1084.0 NaN 952.9191716766867 1.021338297740335 263.0 6.0 174.0 
646.00010179367 1094.0 NaN 959.0674682698726 1.0156052571136693 262.0 6.0 176.0 
648.00010179367 1095.0 NaN 959.0514362057455 1.02898337332856 266.0 6.0 176.0 
650.00010179367 1076.0 NaN 959.0835003340002 1.013178771756845 266.0 6.0 176.0 
652.00010179367 1077.0 NaN 968.3767535070147 1.0065628902454475 269.0 6.0 179.0 
654.00010179367 1090.0 NaN 968.2832331329329 1.0267342688905816 269.0 6.0 179.0 
656.00010179367 1076.0 NaN 974.3754175016697 1.0220370381378032 269.0 6.0 181.0 
658.00010179367 1081.0 NaN 974.4074816299274 1.0153115919402633 271.0 6.0 181.0 
660.00010179367 1084.0 NaN 974.4315297261181 1.0183821934256496 271.0 6.0 181.0 
662.00010179367 1089.0 NaN 980.5584502337999 1.023906124499152 273.0 6.0 183.0 
664.00010179367 1065.0 NaN 977.4829659318636 1.0280345477166901 272.0 6.0 182.0 
#####################################################################
# End of data export. Simulation finished at: 2019-03-07T18:50+0000 #
#####################################################################
