#####################################################################
# Alchemist log file - simulation started at: 2019-03-02T00:01+0000 #
#####################################################################
# seed = 0.0, bandwidth = 17782.79410038923, propagationDelay = 0.03162277660168379, baserange = 17.78279410038923
#
# The columns have the following meaning: 
# time neighbor_count[Sum] <value>@neighbor_count[Sum] packet_size[Mean] mean_delay[Mean] crowd[Sum] overcrowded[Sum] risk[Sum] 
0.0 NaN NaN NaN NaN NaN NaN NaN 
10.000405536260626 1120.0 NaN 4992.6332665330665 0.5040047190471085 1488.0 9.0 1488.0 
20.000405536260626 1126.0 NaN 4991.812959251837 0.5794177399681412 1487.0 10.0 1487.0 
30.000405536260626 1136.0 NaN 4991.775551102204 0.6604895156982261 1487.0 10.0 1487.0 
40.00040553626063 1152.0 NaN 4991.783567134268 0.6708526919305389 1487.0 10.0 1487.0 
50.00040553626063 1182.0 NaN 4991.599198396793 0.7646832237131205 1487.0 10.0 1487.0 
60.00040553626063 1195.0 NaN 4988.8042752171 0.9617759381441435 1486.0 10.0 1486.0 
70.00040553626063 1204.0 NaN 995.9812959251816 1.0683994429920116 346.0 9.0 185.0 
80.00040553626063 1191.0 NaN 995.9385437541723 1.162993145154994 300.0 9.0 185.0 
90.00040553626063 1188.0 NaN 1005.0821643286558 1.021538688151202 286.0 9.0 188.0 
100.00040553626063 1187.0 NaN 1014.2044088176367 1.1520781273152656 288.0 9.0 191.0 
110.00040553626063 1192.0 NaN 1017.3894455577816 1.1165063502025792 285.0 10.0 191.0 
120.00040553626063 1190.0 NaN 1020.480961923845 1.1520175629606584 283.0 11.0 191.0 
130.00040553626064 1204.0 NaN 1020.4676018704093 1.266886540543429 284.0 12.0 190.0 
140.00040553626064 1189.0 NaN 1011.2171008684016 1.2001512331332858 276.0 14.0 185.0 
150.00040553626064 1219.0 NaN 1020.4996659986635 1.0631139657134123 280.0 9.0 193.0 
160.00040553626064 1249.0 NaN 1023.4789579158291 1.0768012224801344 283.0 10.0 193.0 
170.00040553626064 1265.0 NaN 1026.666666666665 1.272144440809178 287.0 9.0 195.0 
180.00040553626064 1253.0 NaN 1020.5931863727453 1.3351713948064006 283.0 9.0 193.0 
190.00040553626064 1226.0 NaN 1014.3299933199725 1.3347853449792997 282.0 9.0 191.0 
200.00040553626064 1224.0 NaN 998.9739478957908 1.3066202490433743 285.0 9.0 186.0 
210.00040553626064 1227.0 NaN 1005.0901803607195 1.2647616763344598 283.0 9.0 188.0 
220.00040553626064 1238.0 NaN 1008.2137608550455 1.38619082006127 279.0 15.0 183.0 
230.00040553626064 1250.0 NaN 1020.5931863727453 1.1982679296300414 290.0 10.0 192.0 
240.00040553626064 1251.0 NaN 1011.3159652638624 1.542504636158364 288.0 9.0 190.0 
250.00040553626064 1220.0 NaN 1002.1028724114909 1.508009514780692 283.0 9.0 187.0 
260.00040553626064 1207.0 NaN 1001.9906479625907 1.2749023925943055 280.0 9.0 187.0 
270.00040553626064 1203.0 NaN 995.845023380092 1.4091870505702482 280.0 9.0 185.0 
280.00040553626064 1198.0 NaN 1008.0908483633922 1.4771323080190844 286.0 9.0 189.0 
290.00040553626064 1173.0 NaN 986.5330661322633 1.4586246427273006 282.0 9.0 182.0 
300.00040553626064 1170.0 NaN 1004.9298597194384 1.2959290806269221 280.0 9.0 188.0 
310.00040553626064 1175.0 NaN 992.7321309285246 1.1473126585844742 267.0 9.0 184.0 
320.00040553626064 1191.0 NaN 986.6533066132275 1.2485084963572994 276.0 9.0 182.0 
330.00040553626064 1182.0 NaN 998.9311957247816 1.2064662165901092 280.0 9.0 186.0 
340.00040553626064 1182.0 NaN 1008.0614562458275 1.4197026523198897 284.0 9.0 189.0 
350.00040553626064 1177.0 NaN 998.9311957247816 1.5370284683538245 288.0 9.0 186.0 
360.00040553626064 1156.0 NaN 995.8183032732123 1.6210548496294426 282.0 9.0 185.0 
370.00040553626064 1131.0 NaN 989.5764863059455 1.3019760735849066 281.0 9.0 183.0 
380.00040553626064 1142.0 NaN 980.4462257849038 1.2251359172070901 283.0 9.0 180.0 
390.00040553626064 1169.0 NaN 965.1356045424182 1.349846975954837 275.0 9.0 175.0 
400.00040553626064 1170.0 NaN 965.1222444889783 1.3117270169773527 271.0 9.0 175.0 
410.00040553626064 1203.0 NaN 959.0621242484968 1.5704837370790035 261.0 16.0 166.0 
420.00040553626064 1189.0 NaN 940.7401469605886 1.685757201790712 264.0 9.0 167.0 
430.00040553626064 1171.0 NaN 940.5344021376094 1.545050940928906 254.0 9.0 167.0 
440.00040553626064 1191.0 NaN 959.0273881095547 1.6039152244115265 258.0 9.0 173.0 
450.00040553626064 1203.0 NaN 958.9953239812972 1.5391900468098563 260.0 9.0 173.0 
460.00040553626064 1196.0 NaN 952.8817635270548 1.2583056507016745 254.0 15.0 165.0 
470.00040553626064 1202.0 NaN 962.0547762191061 1.6212848841068943 255.0 16.0 167.0 
480.00040553626064 1172.0 NaN 952.8229792919184 1.7227792399005315 253.0 16.0 164.0 
490.00040553626064 1172.0 NaN 952.7989311957247 1.6392529004653837 247.0 16.0 164.0 
500.00040553626064 1145.0 NaN 949.6833667334664 1.2734290687104581 253.0 11.0 168.0 
510.00040553626064 1134.0 NaN 925.0981963927862 1.1885486908473646 255.0 9.0 162.0 
520.0004055362606 1122.0 NaN 918.9632598530403 1.2600502184818414 248.0 9.0 160.0 
530.0004055362606 1126.0 NaN 909.8089512358046 1.3371059445851219 246.0 9.0 157.0 
540.0004055362606 1127.0 NaN 915.9064796259181 1.3986631039127881 245.0 9.0 159.0 
550.0004055362606 1112.0 NaN 906.8216432865727 1.3730337988945696 251.0 9.0 156.0 
560.0004055362606 1134.0 NaN 909.8837675350692 1.3941471986819496 252.0 9.0 157.0 
570.0004055362606 1165.0 NaN 916.0293921175681 1.593843088592256 250.0 9.0 159.0 
580.0004055362606 1167.0 NaN 922.1482965931864 1.5062637772346146 254.0 9.0 161.0 
590.0004055362606 1164.0 NaN 919.1503006012035 1.4554922535774117 255.0 9.0 160.0 
600.0004055362606 1183.0 NaN 937.5203740814956 1.461991775256396 264.0 9.0 166.0 
610.0004055362606 1205.0 NaN 943.759519038077 1.495707352643549 266.0 9.0 168.0 
620.0004055362606 1208.0 NaN 965.239812959251 1.6645789796703678 269.0 9.0 175.0 
630.0004055362606 1215.0 NaN 959.1075484301946 1.6621825504249743 267.0 9.0 173.0 
640.0004055362606 1270.0 NaN 986.8617234468942 1.7643806469476877 269.0 9.0 182.0 
650.0004055362606 1275.0 NaN 993.1062124248485 1.9251163076253468 279.0 9.0 184.0 
660.0004055362606 1261.0 NaN 1002.2471609886453 1.9158800155864817 280.0 9.0 187.0 
#####################################################################
# End of data export. Simulation finished at: 2019-03-02T00:06+0000 #
#####################################################################
