#####################################################################
# Alchemist log file - simulation started at: 2019-03-07T10:17+0000 #
#####################################################################
# seed = 5.0, bandwidth = 17782.79410038923, propagationDelay = 0.01, baserange = 1000.0
#
# The columns have the following meaning: 
# time neighbor_count[Sum] <value>@neighbor_count[Sum] packet_size[Mean] mean_delay[Mean] crowd[Sum] overcrowded[Sum] risk[Sum] 
0.0 NaN NaN NaN NaN NaN NaN NaN 
2.000101793669918 201770.0 NaN 4993.183700734803 0.48184297682782257 1497.0 0.0 1497.0 
4.000101793669918 210022.0 NaN 4993.493653974616 0.5012226110523489 1495.0 2.0 1495.0 
6.000101793669918 210022.0 NaN 4995.444221776887 0.5013466725959889 1495.0 2.0 1495.0 
8.000101793669918 210022.0 NaN 4994.49832999332 0.5013527817254931 1495.0 2.0 1495.0 
10.000101793669918 210024.0 NaN 4995.193052772211 0.5013430025953662 1496.0 1.0 1496.0 
12.000101793669918 210024.0 NaN 4995.978623914496 0.5013778753690749 1497.0 0.0 1497.0 
14.000101793669918 210034.0 NaN 4994.196392785571 0.5012956268099654 1496.0 1.0 1496.0 
16.00010179366992 210036.0 NaN 4994.60788243153 0.501290816324688 1496.0 1.0 1496.0 
18.00010179366992 210040.0 NaN 4996.02672010688 0.5014832945496289 1495.0 2.0 1495.0 
20.00010179366992 210073.0 NaN 4994.875083500334 0.5020061908814356 1496.0 1.0 1496.0 
22.00010179366992 210081.0 NaN 4994.784235136941 0.5025727864982216 1497.0 0.0 1497.0 
24.00010179366992 210088.0 NaN 4995.676686706747 0.5032854764843508 1496.0 1.0 1496.0 
26.00010179366992 210089.0 NaN 4994.316633266533 0.5039149678740095 1496.0 1.0 1496.0 
28.00010179366992 210118.0 NaN 4994.864395457582 0.5047220496750103 1495.0 2.0 1495.0 
30.00010179366992 210161.0 NaN 4996.398129592519 0.5062841377966008 1496.0 1.0 1496.0 
32.00010179366992 210185.0 NaN 4994.509018036072 0.5079829516521379 1497.0 0.0 1497.0 
34.00010179366992 210233.0 NaN 4994.543754175017 0.5102806930534922 1496.0 1.0 1496.0 
36.00010179366992 210239.0 NaN 4995.820975283901 0.5128323089433902 1496.0 1.0 1496.0 
38.00010179366992 210268.0 NaN 4994.567802271209 0.5150951815028365 1495.0 2.0 1495.0 
40.00010179366992 210309.0 NaN 4995.246492985972 0.5141800765366656 1496.0 1.0 1496.0 
42.00010179366992 210354.0 NaN 4996.010688042752 0.5147506654657078 1497.0 0.0 1497.0 
44.00010179366992 210406.0 NaN 4994.231128924515 0.5176030762081446 1496.0 1.0 1496.0 
46.00010179366992 210422.0 NaN 4994.637274549098 0.5199520018194997 1496.0 1.0 1496.0 
48.00010179366992 210438.0 NaN 4996.005344021376 0.5230676248374154 1495.0 2.0 1495.0 
50.00010179366992 210449.0 NaN 4994.899131596527 0.5220389997107532 1496.0 1.0 1496.0 
52.00010179366992 210469.0 NaN 4994.784235136941 0.520381164216092 1497.0 0.0 1497.0 
54.00010179366992 210507.0 NaN 4995.655310621242 0.5196703319230466 1496.0 1.0 1496.0 
56.00010179366992 210513.0 NaN 4994.316633266533 0.5227905175737642 1496.0 1.0 1496.0 
58.00010179366992 210527.0 NaN 4994.851035404142 0.5257084412538533 1495.0 2.0 1495.0 
60.00010179366992 210555.0 NaN 4993.250501002004 0.5244757389016969 1495.0 1.0 1495.0 
62.00010179366992 210593.0 NaN 1522.471609886439 0.5135481231301362 782.0 1.0 364.0 
64.00010179366993 210598.0 NaN 1522.4956579826332 0.5294234005947506 625.0 2.0 363.0 
66.00010179366993 210610.0 NaN 1522.6132264529065 0.5345188885179379 581.0 3.0 362.0 
68.00010179366993 210659.0 NaN 1525.5925183700726 0.5396249352839076 548.0 4.0 362.0 
70.00010179366993 210667.0 NaN 1525.5845023380089 0.5345886988557766 532.0 4.0 362.0 
72.00010179366993 210720.0 NaN 1525.6753507014025 0.5377190834579958 531.0 4.0 362.0 
74.00010179366993 210720.0 NaN 1528.6786907147637 0.5402392045831734 527.0 4.0 363.0 
76.00010179366993 210722.0 NaN 1528.6973947895792 0.5387067891916204 526.0 4.0 363.0 
78.00010179366993 210749.0 NaN 1531.8557114228454 0.5419993474762965 527.0 4.0 364.0 
80.00010179366993 210759.0 NaN 1534.8216432865727 0.5404433936601072 526.0 3.0 366.0 
82.00010179366993 210703.0 NaN 1534.8136272545091 0.5355052651445326 526.0 2.0 367.0 
84.00010179366993 210639.0 NaN 1534.9472277889092 0.531856287739413 526.0 3.0 366.0 
86.00010179366993 210638.0 NaN 1534.8563794255183 0.5354058537571343 523.0 4.0 365.0 
88.00010179366993 210711.0 NaN 1534.8857715430852 0.5343807983607551 522.0 4.0 365.0 
90.00010179366993 210704.0 NaN 1534.9365397461581 0.5254820497703406 523.0 3.0 366.0 
92.00010179366993 210666.0 NaN 1534.794923179691 0.5191660945369385 525.0 2.0 367.0 
94.00010179366993 210613.0 NaN 1534.8430193720787 0.5148183943474025 525.0 3.0 366.0 
96.00010179366993 210602.0 NaN 1534.9365397461581 0.5133728644062908 524.0 4.0 365.0 
98.00010179366993 210748.0 NaN 1537.9265197060793 0.5146520274812625 524.0 4.0 366.0 
100.00010179366993 210783.0 NaN 1537.9532398129606 0.5151330587780649 524.0 3.0 367.0 
102.00010179366993 210779.0 NaN 1538.0414161656636 0.5144289072631011 524.0 2.0 368.0 
104.00010179366993 210763.0 NaN 1541.0020040080178 0.5151170546682234 523.0 4.0 367.0 
106.00010179366993 210745.0 NaN 1541.0207080828332 0.5139203925961547 522.0 5.0 366.0 
108.00010179366993 210859.0 NaN 1541.0768203072819 0.514415012230826 523.0 4.0 367.0 
110.00010179366993 210852.0 NaN 1540.9378757515026 0.5144076957572797 523.0 3.0 368.0 
112.00010179366993 210844.0 NaN 1540.9672678690724 0.512316442230143 525.0 2.0 369.0 
114.00010179366993 210828.0 NaN 1541.0768203072819 0.513072612072148 524.0 4.0 367.0 
116.00010179366993 210823.0 NaN 1540.9859719438882 0.5131084641336119 524.0 5.0 366.0 
118.00010179366993 210830.0 NaN 1540.9458917835666 0.5146196202408417 526.0 4.0 367.0 
120.00010179366993 210842.0 NaN 1541.0180360721456 0.514861654099386 526.0 3.0 368.0 
122.00010179366993 210848.0 NaN 1540.9084836339362 0.5125787611246 527.0 2.0 369.0 
124.00010179366993 210839.0 NaN 1544.0427521710092 0.5137736975718933 526.0 4.0 368.0 
126.00010179366993 210835.0 NaN 1544.1549766199064 0.5146168506887956 525.0 5.0 367.0 
128.00010179366993 210833.0 NaN 1540.9512358049456 0.5155529486116469 526.0 4.0 367.0 
130.00010179366993 210833.0 NaN 1540.9352037408155 0.5163624433890908 525.0 3.0 368.0 
132.00010179366993 210867.0 NaN 1537.902471609888 0.5174731537113035 525.0 2.0 368.0 
134.00010179366993 210846.0 NaN 1537.8383433533725 0.5161063377309514 525.0 4.0 366.0 
136.00010179366993 210844.0 NaN 1534.8029392117546 0.5161812355998593 520.0 5.0 364.0 
138.00010179366993 210842.0 NaN 1534.8937875751515 0.5165487140773573 521.0 4.0 365.0 
140.00010179366993 210872.0 NaN 1534.7842351369395 0.5179888457447038 522.0 3.0 366.0 
142.00010179366993 210868.0 NaN 1537.8891115564454 0.513251358224888 522.0 2.0 368.0 
144.00010179366993 210844.0 NaN 1538.0494321977274 0.5134283760515772 520.0 4.0 366.0 
146.00010179366993 210848.0 NaN 1537.907815631264 0.5141142783055156 518.0 5.0 365.0 
148.00010179366993 210855.0 NaN 1534.8403473613905 0.5151920054501293 519.0 4.0 365.0 
150.00010179366993 210880.0 NaN 1531.8102872411484 0.515609574474704 519.0 3.0 365.0 
152.00010179366993 210904.0 NaN 1528.6092184368727 0.5138836881723837 519.0 2.0 365.0 
154.00010179366993 210891.0 NaN 1528.6760187040732 0.5149010128920061 515.0 4.0 363.0 
156.00010179366993 210904.0 NaN 1531.8663994655997 0.5135900078984469 514.0 5.0 363.0 
158.00010179366993 210922.0 NaN 1534.8643954575818 0.5146469354485363 519.0 4.0 365.0 
160.00010179366993 210949.0 NaN 1534.8136272545091 0.5169283679250292 519.0 3.0 366.0 
162.00010179366993 210936.0 NaN 1534.8991315965275 0.5173542326844007 520.0 2.0 367.0 
164.00010179366993 210930.0 NaN 1537.8971275885092 0.5186697528999948 519.0 4.0 366.0 
166.00010179366993 210932.0 NaN 1537.9318637274544 0.5184243422146294 518.0 5.0 365.0 
168.00010179366993 210947.0 NaN 1531.8984635938546 0.520363092416056 519.0 3.0 365.0 
170.00010179366993 210940.0 NaN 1534.8510354041427 0.5203476316724867 522.0 2.0 367.0 
172.00010179366993 210937.0 NaN 1534.8724114896452 0.5183212491784204 520.0 2.0 367.0 
174.00010179366993 210940.0 NaN 1538.0173680694727 0.518329494425807 517.0 2.0 368.0 
176.00010179366993 210949.0 NaN 1534.7895791583182 0.5189060450765786 516.0 2.0 367.0 
178.00010179366993 210940.0 NaN 1534.7788911155635 0.5183338103834528 517.0 2.0 367.0 
180.00010179366993 210935.0 NaN 1534.8777555110207 0.5182818434054062 519.0 2.0 367.0 
182.00010179366993 210931.0 NaN 1534.7788911155635 0.5144876605883107 519.0 2.0 367.0 
184.00010179366993 210921.0 NaN 1537.8944555778207 0.5145385429517997 519.0 2.0 368.0 
186.00010179366993 210930.0 NaN 1534.9445557782246 0.5126970614190861 518.0 2.0 367.0 
188.00010179366993 210928.0 NaN 1537.8891115564454 0.5140128609845155 516.0 2.0 368.0 
190.00010179366993 210925.0 NaN 1531.6980627922517 0.5148713400037811 517.0 2.0 366.0 
192.00010179366993 210930.0 NaN 1531.7675350701393 0.516469927108036 516.0 2.0 366.0 
194.00010179366993 210923.0 NaN 1534.7788911155635 0.5186789442082316 516.0 2.0 367.0 
196.00010179366993 210922.0 NaN 1534.8323313293274 0.5205340925369919 517.0 2.0 367.0 
198.00010179366993 210916.0 NaN 1538.030728122912 0.5197411284869959 517.0 2.0 368.0 
200.00010179366993 210919.0 NaN 1540.9886439545753 0.5209733175525945 518.0 2.0 369.0 
202.00010179366993 210970.0 NaN 1540.956579826318 0.5235525687705401 519.0 2.0 369.0 
204.00010179366993 211021.0 NaN 1541.063460253842 0.5254171926806276 517.0 2.0 369.0 
206.00010179366993 211007.0 NaN 1537.9291917167661 0.5264776487440891 517.0 2.0 368.0 
208.00010179366993 210981.0 NaN 1534.877755511021 0.524945497817996 519.0 2.0 367.0 
210.00010179366993 210981.0 NaN 1531.8049432197727 0.5248976008398218 519.0 2.0 366.0 
212.00010179366993 211003.0 NaN 1531.700734802939 0.5248503493032746 516.0 2.0 366.0 
214.00010179366993 211062.0 NaN 1534.8162992651974 0.5276390568412336 517.0 2.0 367.0 
216.00010179366993 211069.0 NaN 1528.7722110888456 0.5237528744844387 516.0 2.0 365.0 
218.00010179366993 211059.0 NaN 1528.70808283233 0.5238092605151227 514.0 2.0 365.0 
220.00010179366993 211047.0 NaN 1531.7408149632608 0.5224387098910002 514.0 2.0 366.0 
222.00010179366993 211073.0 NaN 1534.9044756179023 0.5251379979095072 513.0 2.0 367.0 
224.00010179366993 211097.0 NaN 1534.8403473613907 0.5283267578846852 514.0 2.0 367.0 
226.00010179366993 211102.0 NaN 1531.8156312625272 0.5295453174495186 514.0 2.0 366.0 
228.00010179366993 211105.0 NaN 1538.0734802939207 0.5298031576950695 513.0 2.0 368.0 
230.00010179366993 211109.0 NaN 1537.9158316633273 0.5323310843831891 512.0 2.0 368.0 
232.00010179366993 211129.0 NaN 1541.0207080828334 0.5358317982468259 512.0 3.0 368.0 
234.00010179366993 211148.0 NaN 1541.0581162324638 0.5381986384513648 512.0 3.0 368.0 
236.00010179366993 211138.0 NaN 1537.8917835671361 0.5356058211495726 511.0 3.0 367.0 
238.00010179366993 211169.0 NaN 1534.8456913827638 0.5348040648671358 513.0 3.0 366.0 
240.00010179366993 211171.0 NaN 1534.9044756179023 0.5257839450248408 511.0 3.0 366.0 
242.00010179366993 211199.0 NaN 1534.8002672010698 0.5274246527401435 511.0 3.0 366.0 
244.00010179366993 211220.0 NaN 1534.7975951903818 0.5245178220949451 514.0 3.0 366.0 
246.00010179366993 211207.0 NaN 1534.9044756179023 0.5214235937210512 513.0 3.0 366.0 
248.00010179366993 211255.0 NaN 1528.6546426185726 0.5250889217837408 511.0 3.0 364.0 
250.00010179366993 211259.0 NaN 1531.7434869739477 0.5221646168153509 511.0 3.0 365.0 
252.00010179366993 211256.0 NaN 1528.756179024718 0.5226078951062698 512.0 2.0 365.0 
254.00010179366993 211245.0 NaN 1531.7381429525726 0.5213755499973718 512.0 2.0 366.0 
256.00010179366996 211240.0 NaN 1528.710754843018 0.520833426930278 515.0 2.0 365.0 
258.00010179366996 211279.0 NaN 1528.7588510354028 0.523246635165317 514.0 2.0 365.0 
260.00010179366996 211291.0 NaN 1528.630594522379 0.52240864919039 514.0 2.0 365.0 
262.00010179366996 211282.0 NaN 1525.5684702738818 0.5223308516497813 514.0 2.0 364.0 
264.00010179366996 211330.0 NaN 1534.9205076820301 0.523060035596623 513.0 2.0 367.0 
266.00010179366996 211324.0 NaN 1534.8136272545091 0.5228353456354891 512.0 2.0 367.0 
268.00010179366996 211343.0 NaN 1534.8323313293272 0.523292818454045 511.0 2.0 367.0 
270.00010179366996 211460.0 NaN 1531.8156312625272 0.5187409353212209 509.0 2.0 366.0 
272.00010179366996 211441.0 NaN 1531.7140948563797 0.5192985180925171 510.0 2.0 366.0 
274.00010179366996 211458.0 NaN 1531.7381429525728 0.5208329464228554 510.0 2.0 366.0 
276.00010179366996 211438.0 NaN 1537.9746158984635 0.5194961456587986 508.0 2.0 368.0 
278.00010179366996 211461.0 NaN 1537.814295257182 0.5205850815604006 512.0 2.0 368.0 
280.00010179366996 211484.0 NaN 1534.7281229124908 0.5232015164478722 512.0 2.0 367.0 
282.00010179366996 211468.0 NaN 1531.7140948563797 0.5250307317813673 512.0 2.0 366.0 
284.00010179366996 211520.0 NaN 1534.7601870407477 0.5281197561145272 513.0 2.0 367.0 
286.00010179366996 211525.0 NaN 1534.826987307948 0.5295095791686225 512.0 2.0 367.0 
288.00010179366996 211560.0 NaN 1534.8537074148292 0.5337803801129672 512.0 2.0 367.0 
290.00010179366996 211554.0 NaN 1534.7548430193729 0.5301481000183753 512.0 2.0 367.0 
292.00010179366996 211506.0 NaN 1534.7361389445546 0.5300653886084097 512.0 2.0 367.0 
294.00010179366996 211527.0 NaN 1531.730126920509 0.5329199703521199 511.0 2.0 366.0 
296.00010179366996 211519.0 NaN 1531.7221108884453 0.5312617073031697 511.0 2.0 366.0 
298.00010179366996 211536.0 NaN 1540.9672678690727 0.5359785018578372 510.0 2.0 369.0 
300.00010179366996 211521.0 NaN 1540.9806279225115 0.5350192862195802 509.0 2.0 369.0 
302.00010179366996 211503.0 NaN 1531.7194388777543 0.5389921229897343 508.0 2.0 366.0 
304.00010179366996 211527.0 NaN 1534.8296593186362 0.5438156002036619 506.0 3.0 366.0 
306.00010179366996 211501.0 NaN 1538.0093520374094 0.5390544778580878 506.0 3.0 367.0 
308.00010179366996 211505.0 NaN 1537.894455577821 0.5416778441961309 507.0 2.0 368.0 
310.00010179366996 211480.0 NaN 1537.905143620573 0.5320260336517162 505.0 3.0 367.0 
312.00010179366996 211442.0 NaN 1531.78356713427 0.5337144336841808 504.0 4.0 364.0 
314.00010179366996 211471.0 NaN 1531.7274549098183 0.5370353044554188 502.0 4.0 364.0 
316.00010179366996 211451.0 NaN 1531.7648630594545 0.5351113257754668 503.0 4.0 364.0 
318.00010179366996 211461.0 NaN 1531.828991315964 0.5388239839547705 503.0 4.0 364.0 
320.00010179366996 211466.0 NaN 1531.732798931197 0.5350511396935282 504.0 4.0 364.0 
322.00010179366996 211458.0 NaN 1534.8243152972614 0.5375134508104991 504.0 4.0 365.0 
324.00010179366996 211500.0 NaN 1531.7942551770207 0.5429488055214045 503.0 4.0 364.0 
326.00010179366996 211463.0 NaN 1531.772879091518 0.541047970531065 502.0 4.0 364.0 
328.00010179366996 211457.0 NaN 1531.7621910487635 0.542043804285488 504.0 4.0 364.0 
330.00010179366996 211390.0 NaN 1531.7942551770207 0.5298844036586386 504.0 4.0 364.0 
332.00010179366996 211393.0 NaN 1531.72478289913 0.5311394615990079 504.0 4.0 364.0 
334.00010179366996 211433.0 NaN 1528.643954575818 0.5361735357345387 503.0 4.0 363.0 
336.00010179366996 211385.0 NaN 1528.7054108216453 0.5356812473042115 503.0 4.0 363.0 
338.00010179366996 211375.0 NaN 1528.6680026720094 0.5383444769929442 505.0 4.0 363.0 
340.00010179366996 211356.0 NaN 1525.6219104876425 0.5369831344391905 505.0 4.0 362.0 
342.00010179366996 211357.0 NaN 1525.6299265197065 0.5403113723326918 505.0 4.0 362.0 
344.00010179366996 211359.0 NaN 1528.6786907147637 0.5404302146347061 505.0 4.0 363.0 
346.00010179366996 211265.0 NaN 1519.4655978623907 0.5367434386398949 504.0 4.0 360.0 
348.00010179366996 211242.0 NaN 1519.5030060120248 0.537357491191093 503.0 4.0 360.0 
350.00010179366996 211229.0 NaN 1525.5711422845695 0.5327191030219897 504.0 4.0 362.0 
352.00010179366996 211260.0 NaN 1522.5090180360728 0.5353249244081623 507.0 4.0 361.0 
354.00010179366996 211274.0 NaN 1519.4682698730812 0.5365171301959742 509.0 4.0 360.0 
356.00010179366996 211160.0 NaN 1519.4549098196387 0.5313091268839367 509.0 4.0 360.0 
358.00010179366996 211173.0 NaN 1519.430861723446 0.5346494171168876 507.0 4.0 360.0 
360.00010179366996 211172.0 NaN 1516.3580494321993 0.5298756304385881 508.0 4.0 359.0 
362.00010179366996 211184.0 NaN 1513.2237808951243 0.5316217276363585 508.0 4.0 358.0 
364.00010179366996 211209.0 NaN 1507.0781563126263 0.5346914199954066 508.0 4.0 356.0 
366.00010179366996 211138.0 NaN 1504.048096192384 0.5317281829949436 508.0 4.0 355.0 
368.00010179366996 211158.0 NaN 1500.9111556446214 0.5371315416125462 509.0 4.0 354.0 
370.00010179366996 211124.0 NaN 1507.0915163660643 0.5354669301968454 509.0 4.0 356.0 
372.00010179366996 211132.0 NaN 1507.0968603874423 0.5379561256065538 509.0 4.0 356.0 
374.00010179366996 211157.0 NaN 1503.9706078824304 0.5407743972378791 512.0 4.0 355.0 
376.00010179366996 211062.0 NaN 1500.9352037408157 0.5363651752510549 512.0 4.0 354.0 
378.00010179366996 211094.0 NaN 1497.9051436205739 0.5421931340137642 511.0 4.0 353.0 
380.00010179366996 211085.0 NaN 1500.8977955911816 0.5449018629074488 509.0 4.0 354.0 
382.00010179366996 211125.0 NaN 1497.8303273213091 0.5491028469947361 511.0 5.0 352.0 
384.00010179366996 211096.0 NaN 1497.9051436205739 0.5460231933476459 512.0 5.0 352.0 
386.00010179366996 211049.0 NaN 1494.8056112224456 0.5471701081451238 511.0 5.0 351.0 
388.00010179366996 211025.0 NaN 1494.8162992651976 0.5520802765653564 509.0 5.0 351.0 
390.00010179366996 210951.0 NaN 1497.9185036740153 0.5495006881876182 509.0 5.0 352.0 
392.00010179366996 210969.0 NaN 1504.0106880427527 0.5523541055892506 514.0 4.0 355.0 
394.00010179366996 210958.0 NaN 1507.1182364729455 0.556465743157638 516.0 4.0 356.0 
396.00010179366996 210883.0 NaN 1507.171676686707 0.5568938401252485 516.0 4.0 356.0 
398.00010179366996 210891.0 NaN 1504.0240480961918 0.5638121512601637 517.0 4.0 355.0 
400.00010179366996 210757.0 NaN 1500.9271877087515 0.5554524343665199 516.0 4.0 354.0 
402.00010179366996 210811.0 NaN 1504.0053440213755 0.5606203591553457 515.0 4.0 355.0 
404.00010179366996 210835.0 NaN 1507.0594522378092 0.5661234369503387 516.0 4.0 356.0 
406.00010179366996 210770.0 NaN 1513.2371409485636 0.5680958945478014 517.0 4.0 358.0 
408.00010179366996 210791.0 NaN 1522.5384101536395 0.552786711728766 522.0 4.0 361.0 
410.00010179366996 210751.0 NaN 1525.5444221776902 0.5430984940316426 522.0 4.0 362.0 
412.00010179366996 210788.0 NaN 1522.4395457581822 0.5480348577773886 524.0 4.0 361.0 
414.00010179366996 210836.0 NaN 1519.3319973279902 0.5527548778127901 524.0 4.0 360.0 
416.00010179366996 210745.0 NaN 1510.049432197728 0.5481290121057267 524.0 4.0 357.0 
418.00010179366996 210761.0 NaN 1513.2050768203082 0.5537048835665872 524.0 4.0 358.0 
420.00010179366996 210712.0 NaN 1507.08617234469 0.5420184911854263 522.0 4.0 356.0 
422.00010179366996 210747.0 NaN 1497.7528390113555 0.5450918404177939 516.0 4.0 353.0 
424.00010179366996 210739.0 NaN 1500.8764195056785 0.5464611083779983 515.0 4.0 354.0 
426.00010179366996 210668.0 NaN 1507.1209084836341 0.5479596776302901 517.0 4.0 356.0 
428.00010179366996 210668.0 NaN 1507.1128924515701 0.5526002762171198 517.0 4.0 356.0 
430.00010179366996 210585.0 NaN 1500.9432197728793 0.5443382845644017 517.0 4.0 354.0 
432.00010179366996 210611.0 NaN 1519.3774215096848 0.5454536620907834 520.0 4.0 360.0 
434.00010179366996 210609.0 NaN 1519.3426853707424 0.5451761809232827 524.0 4.0 360.0 
436.00010179366996 210545.0 NaN 1519.3453573814284 0.5464531290800451 524.0 4.0 360.0 
438.00010179366996 210608.0 NaN 1522.5223780895114 0.5527396922489984 523.0 4.0 361.0 
440.00010179366996 210562.0 NaN 1525.501670006681 0.541762758670784 524.0 4.0 362.0 
442.00010179366996 210567.0 NaN 1537.8116232464915 0.5449406154045817 525.0 4.0 366.0 
444.00010179366996 210587.0 NaN 1534.7548430193729 0.5459750725603296 526.0 4.0 365.0 
446.00010179366996 210512.0 NaN 1540.8977955911816 0.5418009172517075 530.0 4.0 367.0 
448.00010179366996 210540.0 NaN 1540.8951235804939 0.5485470419310424 530.0 4.0 367.0 
450.00010179366996 210549.0 NaN 1544.0240480961913 0.5489506401239453 529.0 3.0 369.0 
452.00010179366996 210546.0 NaN 1540.868403473615 0.5485329760441242 528.0 2.0 369.0 
454.00010179366996 210552.0 NaN 1544.0 0.5531138009709353 528.0 3.0 369.0 
456.00010179366996 210504.0 NaN 1547.1128924515701 0.5537113256484251 525.0 4.0 369.0 
458.00010179366996 210506.0 NaN 1547.048764195055 0.5581087083332936 524.0 4.0 369.0 
460.00010179366996 210513.0 NaN 1547.0167000667998 0.558597194780832 524.0 3.0 370.0 
462.00010179366996 210513.0 NaN 1547.0300601202393 0.5614618171123874 524.0 2.0 371.0 
464.00010179366996 210504.0 NaN 1543.9412157648637 0.5613233728128775 525.0 3.0 369.0 
466.00010179366996 210439.0 NaN 1543.9385437541732 0.5610076008593529 522.0 4.0 368.0 
468.00010179366996 210454.0 NaN 1540.919171676688 0.5620895288156214 521.0 4.0 367.0 
470.00010179366996 210387.0 NaN 1540.884435537743 0.551652856145557 520.0 3.0 368.0 
472.00010179366996 210403.0 NaN 1534.7040748163 0.5548720719139031 520.0 2.0 367.0 
474.00010179366996 210409.0 NaN 1528.6332665330658 0.5582030779522288 518.0 3.0 364.0 
476.00010179366996 210301.0 NaN 1528.5824983299929 0.5498414076759421 519.0 4.0 363.0 
478.00010179366996 210355.0 NaN 1528.5744822979277 0.555834134889381 517.0 4.0 363.0 
480.00010179366996 210340.0 NaN 1525.5497661990635 0.5574971001233175 518.0 3.0 363.0 
482.00010179366996 210328.0 NaN 1522.4101536406151 0.5609510314232223 517.0 2.0 363.0 
484.00010179366996 210361.0 NaN 1507.0835003340007 0.5609374472329042 513.0 3.0 357.0 
486.00010179366996 210296.0 NaN 1500.9405477621908 0.5553528188038677 510.0 4.0 354.0 
488.00010179366996 210337.0 NaN 1497.824983299934 0.5587757163800035 508.0 4.0 353.0 
490.00010179366996 210324.0 NaN 1497.8463593854367 0.5587252794343583 511.0 3.0 354.0 
492.00010179366996 210300.0 NaN 1491.7541750167002 0.5578937523507999 512.0 2.0 353.0 
494.00010179366996 210313.0 NaN 1485.5524382097535 0.5530471986076536 506.0 3.0 350.0 
496.00010179366996 210291.0 NaN 1485.5283901135613 0.5499157977725536 505.0 4.0 349.0 
498.00010179366996 210318.0 NaN 1485.5417501670001 0.5503920930798665 505.0 4.0 349.0 
500.00010179366996 210288.0 NaN 1488.5851703406818 0.5497227261805855 506.0 3.0 351.0 
502.00010179366996 210285.0 NaN 1491.7087508350028 0.5505053259661242 508.0 2.0 353.0 
504.00010179366996 210298.0 NaN 1485.600534402137 0.5504879218432318 508.0 3.0 350.0 
506.00010179366996 210267.0 NaN 1494.728122912491 0.5495870196793281 508.0 4.0 352.0 
508.00010179366996 210313.0 NaN 1497.8223112892456 0.5546679135124069 510.0 5.0 352.0 
510.00010179366996 210259.0 NaN 1494.8430193720787 0.5501416607025185 507.0 5.0 351.0 
512.00010179367 210272.0 NaN 1488.6386105544432 0.5493753629481379 506.0 5.0 349.0 
514.00010179367 210274.0 NaN 1482.5357381429535 0.5511065708748608 505.0 5.0 347.0 
516.00010179367 210214.0 NaN 1479.4682698730808 0.5437567788756422 502.0 5.0 346.0 
518.00010179367 210258.0 NaN 1476.3099532398119 0.5490905542487668 504.0 5.0 345.0 
520.00010179367 210215.0 NaN 1464.0240480961916 0.5433437593721524 504.0 5.0 341.0 
522.00010179367 210269.0 NaN 1460.9832999332 0.5433488085819447 500.0 5.0 340.0 
524.00010179367 210287.0 NaN 1464.0507682030725 0.5473219409773749 499.0 5.0 341.0 
526.00010179367 210241.0 NaN 1461.0073480293916 0.5485465552145197 500.0 5.0 340.0 
528.00010179367 210276.0 NaN 1464.1309285237153 0.5551774551035235 502.0 5.0 341.0 
530.00010179367 210247.0 NaN 1451.7782231128917 0.553970129308567 502.0 4.0 338.0 
532.00010179367 210296.0 NaN 1451.7782231128917 0.554996566341926 502.0 4.0 338.0 
534.00010179367 210300.0 NaN 1451.8236472945898 0.5570088717638231 502.0 4.0 338.0 
536.00010179367 210228.0 NaN 1454.8670674682703 0.5545680443568658 500.0 4.0 339.0 
538.00010179367 210254.0 NaN 1461.055444221776 0.5603333823578267 502.0 4.0 341.0 
540.00010179367 210364.0 NaN 1461.0634602538416 0.5558995735670178 501.0 5.0 340.0 
542.00010179367 210354.0 NaN 1467.1369405477628 0.555130534362468 502.0 5.0 342.0 
544.00010179367 210318.0 NaN 1470.2204408817638 0.5522398651795066 502.0 5.0 343.0 
546.00010179367 210252.0 NaN 1467.2037408149636 0.5437165078884215 504.0 5.0 342.0 
548.00010179367 210273.0 NaN 1467.11289245157 0.5481036415478423 504.0 5.0 342.0 
550.00010179367 210294.0 NaN 1464.026720106881 0.5462356230904509 503.0 5.0 341.0 
552.00010179367 210298.0 NaN 1464.0748162992647 0.5464542297917704 503.0 5.0 341.0 
554.00010179367 210302.0 NaN 1467.1048764195061 0.5483374244693184 504.0 5.0 342.0 
556.00010179367 210298.0 NaN 1457.9104876419506 0.5478792499946774 501.0 5.0 339.0 
558.00010179367 210323.0 NaN 1454.8483633934543 0.5535230459658796 500.0 5.0 338.0 
560.00010179367 210430.0 NaN 1454.7468269873089 0.5563097630197521 498.0 5.0 338.0 
562.00010179367 210429.0 NaN 1457.8169672678687 0.5569254649718072 499.0 5.0 339.0 
564.00010179367 210390.0 NaN 1460.9859719438878 0.5551303426840922 501.0 5.0 340.0 
566.00010179367 210366.0 NaN 1454.8269873079498 0.5494976099782002 499.0 5.0 338.0 
568.00010179367 210388.0 NaN 1460.9726118904468 0.5536508328462588 502.0 5.0 340.0 
570.00010179367 210465.0 NaN 1467.1262525050095 0.5555899103068866 504.0 5.0 342.0 
572.00010179367 210491.0 NaN 1476.3046092184363 0.5566907563373177 504.0 5.0 345.0 
574.00010179367 210474.0 NaN 1479.417501670007 0.5557219687490461 503.0 5.0 346.0 
576.00010179367 210451.0 NaN 1476.3740814963264 0.5476391282423161 503.0 5.0 345.0 
578.00010179367 210471.0 NaN 1473.2531730126914 0.5502932343513811 505.0 4.0 345.0 
580.00010179367 210538.0 NaN 1473.205076820308 0.552288023420877 506.0 4.0 345.0 
582.00010179367 210487.0 NaN 1476.3393453573817 0.5502724654380194 507.0 4.0 346.0 
584.00010179367 210492.0 NaN 1479.3720774883095 0.551953928470798 513.0 4.0 347.0 
586.00010179367 210484.0 NaN 1476.3099532398123 0.5471561049965781 515.0 4.0 346.0 
588.00010179367 210491.0 NaN 1479.4335337341354 0.5467248146653231 515.0 4.0 347.0 
590.00010179367 210518.0 NaN 1485.464261857047 0.5467261696977522 518.0 4.0 349.0 
592.00010179367 210506.0 NaN 1485.4722778891114 0.5482474064191803 519.0 4.0 349.0 
594.00010179367 210534.0 NaN 1488.6252505010013 0.5492932956054144 520.0 4.0 350.0 
596.00010179367 210553.0 NaN 1488.6332665330658 0.5489388657442131 520.0 4.0 350.0 
598.00010179367 210571.0 NaN 1491.6953907815637 0.5505909425255772 520.0 4.0 351.0 
600.00010179367 210608.0 NaN 1494.7949231796922 0.5483398853837977 521.0 4.0 352.0 
602.00010179367 210633.0 NaN 1491.644622578491 0.550761563130503 520.0 4.0 351.0 
604.00010179367 210586.0 NaN 1504.0374081496332 0.5441578521354914 521.0 4.0 355.0 
606.00010179367 210590.0 NaN 1500.9939879759525 0.5453714304276439 521.0 4.0 354.0 
608.00010179367 210633.0 NaN 1507.0674682698727 0.5476109713987968 523.0 4.0 356.0 
610.00010179367 210604.0 NaN 1507.0541082164334 0.5461475064186789 524.0 4.0 356.0 
612.00010179367 210591.0 NaN 1507.0674682698727 0.5460518202383483 523.0 4.0 356.0 
614.00010179367 210616.0 NaN 1507.0033400133607 0.5481828376076537 522.0 4.0 356.0 
616.00010179367 210639.0 NaN 1507.0460921843696 0.5500366603398072 520.0 4.0 356.0 
618.00010179367 210678.0 NaN 1510.1937207748826 0.5535145531458271 519.0 4.0 357.0 
620.00010179367 210654.0 NaN 1522.399465597863 0.5496192293150385 521.0 4.0 361.0 
622.00010179367 210621.0 NaN 1522.3593854375426 0.5514534573076629 520.0 4.0 361.0 
624.00010179367 210637.0 NaN 1522.4395457581827 0.5554840192376485 521.0 4.0 361.0 
626.00010179367 210650.0 NaN 1522.4368737474938 0.5562279922778993 520.0 4.0 361.0 
628.00010179367 210726.0 NaN 1525.5257181028728 0.5566806869914415 520.0 4.0 362.0 
630.00010179367 210648.0 NaN 1522.4983299933192 0.5483175017118068 523.0 4.0 361.0 
632.00010179367 210654.0 NaN 1528.6199064796265 0.554976297408465 524.0 4.0 363.0 
634.00010179367 210681.0 NaN 1525.547094188376 0.5565913551712061 528.0 4.0 362.0 
636.00010179367 210658.0 NaN 1525.6272545090183 0.554835254887851 529.0 4.0 362.0 
638.00010179367 210665.0 NaN 1522.4903139612554 0.5532079928011246 530.0 4.0 361.0 
640.00010179367 210638.0 NaN 1516.3527054108213 0.550328812783534 525.0 4.0 359.0 
642.00010179367 210643.0 NaN 1513.3360053440204 0.5498228634012825 520.0 4.0 358.0 
644.00010179367 210645.0 NaN 1516.3687374749486 0.5485592231029892 519.0 4.0 359.0 
646.00010179367 210636.0 NaN 1516.355377421509 0.5485914529213711 518.0 4.0 359.0 
648.00010179367 210669.0 NaN 1516.4221776887102 0.55001863622134 516.0 4.0 359.0 
650.00010179367 210640.0 NaN 1513.2371409485636 0.540949159409088 517.0 4.0 358.0 
652.00010179367 210627.0 NaN 1525.5364061456253 0.5351481799874068 518.0 4.0 362.0 
654.00010179367 210637.0 NaN 1525.5978623914484 0.5339145708341949 516.0 4.0 362.0 
656.00010179367 210646.0 NaN 1525.5684702738818 0.5317451176487069 516.0 4.0 362.0 
658.00010179367 210652.0 NaN 1525.541750167 0.5320959882523866 514.0 4.0 362.0 
660.00010179367 210692.0 NaN 1531.7702070808273 0.5310386960004907 508.0 4.0 364.0 
662.00010179367 210724.0 NaN 1537.8677354709425 0.5328335065679854 510.0 4.0 366.0 
664.00010179367 210741.0 NaN 1537.849031396126 0.5328715447764467 515.0 4.0 366.0 
#####################################################################
# End of data export. Simulation finished at: 2019-03-07T11:08+0000 #
#####################################################################
