#####################################################################
# Alchemist log file - simulation started at: 2019-03-02T06:54+0000 #
#####################################################################
# seed = 0.0, bandwidth = 316227.76601683797, propagationDelay = 1.0, baserange = 316.2277660168379
#
# The columns have the following meaning: 
# time neighbor_count[Sum] <value>@neighbor_count[Sum] packet_size[Mean] mean_delay[Mean] crowd[Sum] overcrowded[Sum] risk[Sum] 
0.0 NaN NaN NaN NaN NaN NaN NaN 
10.000405536260626 51289.0 NaN 4994.0360721442885 1.0185188833782577 1495.0 2.0 1495.0 
20.000405536260626 51321.0 NaN 4994.092184368737 1.0192768369674838 1495.0 2.0 1495.0 
30.000405536260626 51348.0 NaN 4994.0120240480965 1.0183109575977962 1495.0 2.0 1495.0 
40.00040553626063 51356.0 NaN 4994.121576486306 1.0201791069888835 1495.0 2.0 1495.0 
50.00040553626063 51352.0 NaN 4994.0521042084165 1.0187804130802884 1495.0 2.0 1495.0 
60.00040553626063 51386.0 NaN 4991.088844355378 1.021304686613266 1493.0 3.0 1493.0 
70.00012214328426 51466.0 NaN 1528.1549766199066 1.0098465530931928 547.0 2.0 365.0 
80.00012214328426 51476.0 NaN 1537.3974615898455 1.0084304440432095 527.0 2.0 368.0 
90.00012214328426 51525.0 NaN 1537.3653974615909 1.0088439779895924 525.0 2.0 368.0 
100.00012214328426 51532.0 NaN 1540.4088176352723 1.0090983827476625 524.0 2.0 369.0 
110.00012214328426 51474.0 NaN 1540.416833667336 1.0090648510539741 525.0 2.0 369.0 
120.00012214328426 51512.0 NaN 1540.4435537742156 1.0091461214243906 527.0 2.0 369.0 
130.00012214328424 51463.0 NaN 1537.3333333333335 1.0089379362185822 525.0 2.0 368.0 
140.00012214328424 51402.0 NaN 1531.2358049432185 1.0091196695665259 523.0 2.0 366.0 
150.00012214328424 51342.0 NaN 1534.311289245157 1.0092960014136523 519.0 2.0 367.0 
160.00012214328424 51232.0 NaN 1531.265197060788 1.0096164768793456 518.0 2.0 366.0 
170.00012214328424 51087.0 NaN 1537.3814295257184 1.0094422535328789 518.0 2.0 368.0 
180.00012214328424 50972.0 NaN 1531.2545090180365 1.0103244471895256 520.0 2.0 366.0 
190.00012214328424 50897.0 NaN 1531.2812291249181 1.0104509522617906 517.0 2.0 366.0 
200.00012214328424 50819.0 NaN 1537.4241816967274 1.0103184843692599 518.0 2.0 368.0 
210.00012214328424 50740.0 NaN 1531.294589178355 1.0101686018419513 513.0 2.0 366.0 
220.00012214328424 50654.0 NaN 1528.1897127588516 1.0124147860010815 513.0 2.0 365.0 
230.00012214328424 50568.0 NaN 1531.2304609218452 1.0126606486237149 511.0 2.0 366.0 
240.00012214328424 50552.0 NaN 1528.152304609218 1.0127305701221254 510.0 2.0 365.0 
250.00012214328424 50492.0 NaN 1525.0447561790247 1.0105172902609434 512.0 2.0 364.0 
260.0001221432843 50456.0 NaN 1525.0741482965911 1.0118567295328438 512.0 2.0 364.0 
270.0001221432843 50308.0 NaN 1531.2705410821636 1.0130102325860162 511.0 2.0 366.0 
280.0001221432843 50109.0 NaN 1537.3039412157636 1.0114598655378504 513.0 2.0 368.0 
290.0001221432843 49910.0 NaN 1531.1850367401455 1.0118756133341011 509.0 2.0 366.0 
300.0001221432843 49730.0 NaN 1531.1770207080817 1.0123078740965674 507.0 2.0 366.0 
310.0001221432843 49583.0 NaN 1528.122912491652 1.0116191573452646 505.0 2.0 365.0 
320.0001221432843 49420.0 NaN 1534.2391449565819 1.010475254188724 507.0 2.0 367.0 
330.0001221432843 49263.0 NaN 1534.2204408817638 1.0105242363817906 506.0 2.0 367.0 
340.0001221432843 49218.0 NaN 1531.1823647294575 1.012262159672471 509.0 2.0 366.0 
350.0001221432843 49145.0 NaN 1531.1583166332662 1.012385684479085 514.0 2.0 366.0 
360.0001221432843 49044.0 NaN 1524.9966599866395 1.0122090535064243 512.0 2.0 364.0 
370.0001221432843 48985.0 NaN 1506.5784903139615 1.0123137635725774 515.0 2.0 358.0 
380.0001221432843 48893.0 NaN 1509.584502338009 1.0129526569174827 516.0 2.0 359.0 
390.0001221432843 48825.0 NaN 1509.6432865731456 1.0133715032546944 515.0 2.0 359.0 
400.0001221432843 48708.0 NaN 1506.5544422177697 1.015602295824421 517.0 2.0 358.0 
410.0001221432843 48571.0 NaN 1518.8750835003343 1.013032361736308 522.0 2.0 362.0 
420.0001221432843 48556.0 NaN 1512.7187708750826 1.0134562109907523 514.0 2.0 360.0 
430.0001221432843 48554.0 NaN 1500.3393453573817 1.0127241683488537 512.0 2.0 356.0 
440.0001221432843 48502.0 NaN 1512.6813627254517 1.0141923515204605 519.0 2.0 360.0 
450.0001221432843 48466.0 NaN 1534.1509686038733 1.0158987903927532 526.0 2.0 367.0 
460.0001221432843 48409.0 NaN 1540.336673346693 1.0149191066360497 524.0 2.0 369.0 
470.0001221432843 48352.0 NaN 1531.1102204408817 1.0152388007825326 518.0 2.0 366.0 
480.0001221432843 48351.0 NaN 1518.7842351369393 1.0131796256270285 514.0 2.0 362.0 
490.0001221432843 48412.0 NaN 1497.2398129592525 1.0145882640360522 510.0 2.0 355.0 
500.0001221432843 48500.0 NaN 1491.128924515699 1.0135810728510135 506.0 3.0 352.0 
510.0001221432843 48564.0 NaN 1494.2765531062114 1.012946853883404 509.0 2.0 354.0 
520.0001221432842 48617.0 NaN 1475.8289913159645 1.0127729232647429 499.0 11.0 339.0 
530.0001221432842 48647.0 NaN 1451.2625250501 1.0137533188220405 492.0 11.0 331.0 
540.0001221432842 48616.0 NaN 1466.653306613227 1.0143198746614692 491.0 11.0 336.0 
550.0001221432842 48629.0 NaN 1466.5945223780902 1.011031812155465 496.0 11.0 336.0 
560.0001221432842 48684.0 NaN 1466.586506346026 1.012069832948092 497.0 11.0 336.0 
570.0001221432842 48764.0 NaN 1472.7775551102195 1.0123694568188815 496.0 10.0 339.0 
580.0001221432842 48788.0 NaN 1472.7748830995329 1.0143307879663883 502.0 10.0 339.0 
590.0001221432842 48784.0 NaN 1469.6753507014025 1.013473197911374 505.0 10.0 338.0 
600.0001221432842 48798.0 NaN 1488.1122244488988 1.014076453399606 514.0 10.0 344.0 
610.0001221432842 48788.0 NaN 1497.3360053440204 1.0133523190034301 516.0 10.0 347.0 
620.0001221432842 48826.0 NaN 1497.3814295257184 1.0148280126848768 514.0 10.0 347.0 
630.0001221432842 48692.0 NaN 1509.6967267869081 1.013835164965657 509.0 10.0 351.0 
640.0001221432842 48663.0 NaN 1506.639946559785 1.0152541915669333 516.0 11.0 349.0 
650.0001221432842 48626.0 NaN 1522.006680026719 1.016362073184913 506.0 10.0 355.0 
660.0001221432842 48614.0 NaN 1525.1115564462264 1.01293264304849 505.0 10.0 356.0 
#####################################################################
# End of data export. Simulation finished at: 2019-03-02T07:13+0000 #
#####################################################################
