#####################################################################
# Alchemist log file - simulation started at: 2019-03-07T01:33+0000 #
#####################################################################
# seed = 4.0, bandwidth = 2.3713737056616552E7, propagationDelay = 0.31622776601683794, baserange = 177.82794100389228
#
# The columns have the following meaning: 
# time neighbor_count[Sum] <value>@neighbor_count[Sum] packet_size[Mean] mean_delay[Mean] crowd[Sum] overcrowded[Sum] risk[Sum] 
0.0 NaN NaN NaN NaN NaN NaN NaN 
2.0004793365590676 25345.0 NaN 4993.028724114896 0.48373511505431166 1496.0 1.0 1496.0 
4.00042902272939 26548.0 NaN 4993.803607214429 0.5071213203685863 1495.0 2.0 1495.0 
6.000479336559067 26548.0 NaN 4995.575150300601 0.5071213741200558 1496.0 1.0 1496.0 
8.000479336559067 26552.0 NaN 4994.474281897127 0.5071059137664825 1496.0 1.0 1496.0 
10.000479336559067 26555.0 NaN 4995.030060120241 0.5071442031006947 1494.0 3.0 1494.0 
12.000479336559067 26557.0 NaN 4995.807615230461 0.507205734374612 1495.0 2.0 1495.0 
14.00042902272939 26554.0 NaN 4994.231128924515 0.5070914026621755 1495.0 2.0 1495.0 
16.000479336559067 26565.0 NaN 4994.658650634603 0.507384303345203 1494.0 3.0 1494.0 
18.000479336559067 26573.0 NaN 4995.885103540414 0.5085927647867278 1494.0 3.0 1494.0 
20.000479336559067 26578.0 NaN 4994.829659318637 0.5102343250364152 1494.0 3.0 1494.0 
22.000479336559067 26564.0 NaN 4994.618570474282 0.5070844890705941 1494.0 3.0 1494.0 
24.000429022729392 26566.0 NaN 4995.700734802939 0.5073541552173303 1495.0 2.0 1495.0 
26.000479336559067 26609.0 NaN 4994.164328657314 0.5094692911651943 1494.0 3.0 1494.0 
28.000479336559067 26611.0 NaN 4994.85370741483 0.508912063197417 1493.0 4.0 1493.0 
30.000479336559067 26602.0 NaN 4996.144288577154 0.5076826343715017 1494.0 3.0 1494.0 
32.00047933655907 26614.0 NaN 4994.466265865063 0.5108267067092177 1495.0 2.0 1495.0 
34.00042902272939 26608.0 NaN 4994.565130260521 0.5070021825663611 1495.0 2.0 1495.0 
36.00047933655907 26641.0 NaN 4995.698062792251 0.5082826474344055 1495.0 2.0 1495.0 
38.00047933655907 26634.0 NaN 4994.543754175017 0.5091224358410907 1494.0 3.0 1494.0 
40.00047933655907 26630.0 NaN 4995.230460921844 0.5082138800467364 1493.0 4.0 1493.0 
42.00047933655907 26626.0 NaN 4995.687374749499 0.508305983645188 1494.0 3.0 1494.0 
44.00042902272939 26628.0 NaN 4994.407481629926 0.5089175712666264 1494.0 3.0 1494.0 
46.00047933655907 26662.0 NaN 4994.658650634603 0.5077216882977857 1493.0 4.0 1493.0 
48.00047933655907 26676.0 NaN 4995.965263861055 0.510047531962748 1493.0 4.0 1493.0 
50.00047933655907 26665.0 NaN 4994.84034736139 0.5082386522167428 1493.0 4.0 1493.0 
52.00047933655907 26642.0 NaN 4994.706746826987 0.5107822825384573 1494.0 3.0 1494.0 
54.00042902272939 26639.0 NaN 4995.596526386105 0.5082041857847597 1495.0 2.0 1495.0 
56.00047933655907 26669.0 NaN 4994.407481629926 0.5087178697684035 1494.0 3.0 1494.0 
58.00047933655907 26660.0 NaN 4994.792251169005 0.5105193081116186 1493.0 4.0 1493.0 
60.00047933655907 26649.0 NaN 4993.114228456914 0.509800324438571 1495.0 2.0 1494.0 
62.00047933655907 26647.0 NaN 1522.6452905811632 0.5107344525757413 807.0 6.0 359.0 
64.00042902272939 26646.0 NaN 1522.7014028056094 0.5078988401237697 645.0 9.0 356.0 
66.00047933655907 26672.0 NaN 1525.7127588510364 0.5092707356263683 579.0 13.0 353.0 
68.00047933655907 26712.0 NaN 1525.7047428189724 0.5101974531843229 557.0 12.0 354.0 
70.00047933655907 26729.0 NaN 1525.7875751503 0.5093303615994328 540.0 11.0 355.0 
72.00047933655907 26756.0 NaN 1528.9245156980637 0.5110128512548138 533.0 7.0 360.0 
74.00042902272939 26747.0 NaN 1531.9118236472939 0.5084448961583674 521.0 8.0 360.0 
76.00047933655907 26760.0 NaN 1531.967935871745 0.5088384844855219 521.0 8.0 360.0 
78.00047933655907 26792.0 NaN 1535.1315965263848 0.5099475139478941 521.0 7.0 362.0 
80.00047933655907 26785.0 NaN 1538.0868403473635 0.5093682376422377 521.0 8.0 362.0 
82.00047933655907 26794.0 NaN 1538.097528390112 0.5137932063936231 521.0 10.0 360.0 
84.00042902272939 26773.0 NaN 1538.188376753509 0.5107443579669154 524.0 8.0 362.0 
86.00047933655907 26773.0 NaN 1538.193720774882 0.507596243156771 520.0 8.0 362.0 
88.00047933655907 26780.0 NaN 1538.2204408817638 0.508178251573677 521.0 8.0 362.0 
90.00047933655907 26796.0 NaN 1538.1108884435546 0.5078032195721867 522.0 7.0 363.0 
92.00047933655907 26799.0 NaN 1538.11623246493 0.5130954221699557 523.0 6.0 364.0 
94.00042902272939 26740.0 NaN 1538.2471609886452 0.5080280008542705 519.0 8.0 362.0 
96.00047933655907 26752.0 NaN 1538.1696726786909 0.5079476291925762 519.0 8.0 362.0 
98.00047933655907 26768.0 NaN 1538.1242484969935 0.5084945467138616 519.0 8.0 362.0 
100.00047933655907 26766.0 NaN 1541.2184368737458 0.5079582384777319 519.0 8.0 363.0 
102.00047933655907 26755.0 NaN 1541.2879091516363 0.5121265763062725 520.0 7.0 364.0 
104.00042902272939 26718.0 NaN 1541.1596526386095 0.5081991188506888 521.0 6.0 365.0 
106.00047933655907 26740.0 NaN 1541.2317969271883 0.5093287096962669 519.0 8.0 363.0 
108.00047933655907 26794.0 NaN 1541.2184368737458 0.5082966358189761 518.0 8.0 363.0 
110.00047933655907 26800.0 NaN 1541.1917167668669 0.5087212842017591 519.0 8.0 363.0 
112.00047933655907 26766.0 NaN 1541.2638610554452 0.5112944593979186 519.0 8.0 363.0 
114.00042902272939 26745.0 NaN 1541.1596526386095 0.5098256401014196 520.0 7.0 364.0 
116.00047933655907 26750.0 NaN 1541.1649966599878 0.5091398714498236 521.0 6.0 365.0 
118.00047933655907 26757.0 NaN 1544.3687374749484 0.5084798337955362 521.0 8.0 364.0 
120.00047933655907 26759.0 NaN 1550.4181696726791 0.5089819634567881 521.0 8.0 366.0 
122.00047933655907 26711.0 NaN 1550.3834335337365 0.5093771395203527 521.0 8.0 366.0 
124.00042902272939 26678.0 NaN 1550.4368737474938 0.5070550009664042 521.0 8.0 366.0 
126.00047933655907 26689.0 NaN 1550.4662658650636 0.5080991423083373 522.0 7.0 367.0 
128.00047933655907 26686.0 NaN 1547.3533734134937 0.5092833534804575 523.0 6.0 367.0 
130.00047933655907 26671.0 NaN 1547.350701402806 0.5078188122115465 521.0 8.0 365.0 
132.00047933655907 26670.0 NaN 1544.299265197061 0.5074950199953006 519.0 10.0 362.0 
134.0004290227294 26657.0 NaN 1541.2291249165 0.5065670470477235 519.0 10.0 361.0 
136.00047933655907 26662.0 NaN 1541.3092852371426 0.5064828184823881 517.0 9.0 362.0 
138.00047933655907 26643.0 NaN 1544.3313293253182 0.5060078353383639 518.0 6.0 366.0 
140.00047933655907 26664.0 NaN 1541.1810287241153 0.5078682674301497 516.0 7.0 364.0 
142.00047933655907 26673.0 NaN 1547.4281897127576 0.5087469635432808 515.0 9.0 364.0 
144.0004290227294 26648.0 NaN 1550.503674014697 0.5059904277132948 516.0 9.0 365.0 
146.00047933655907 26631.0 NaN 1547.4068136272545 0.5056330303191193 515.0 10.0 363.0 
148.00047933655907 26643.0 NaN 1553.5444221776909 0.5054200161024035 512.0 11.0 364.0 
150.00047933655907 26658.0 NaN 1553.6219104876425 0.5054859538279836 513.0 9.0 366.0 
152.00047933655907 26646.0 NaN 1550.4288577154302 0.5051780038029949 517.0 6.0 368.0 
154.0004290227294 26643.0 NaN 1544.339345357382 0.5054754089465852 511.0 9.0 363.0 
156.00047933655907 26636.0 NaN 1544.3927855711427 0.5071624327835236 507.0 12.0 360.0 
158.00047933655907 26619.0 NaN 1544.3633934535724 0.5082570502086371 509.0 11.0 361.0 
160.00047933655907 26637.0 NaN 1544.3313293253184 0.5066087343993108 509.0 11.0 361.0 
162.00047933655907 26606.0 NaN 1544.309953239812 0.5077833461293583 508.0 13.0 359.0 
164.0004290227294 26555.0 NaN 1544.3179692718757 0.5075786075852003 510.0 11.0 361.0 
166.00047933655907 26549.0 NaN 1544.3633934535724 0.5064683493652402 509.0 10.0 362.0 
168.00047933655907 26547.0 NaN 1544.3820975283911 0.508213832246019 512.0 8.0 364.0 
170.00047933655907 26559.0 NaN 1541.2291249165 0.5068228834788815 512.0 8.0 363.0 
172.00047933655907 26520.0 NaN 1544.3500334001337 0.5059698293666104 511.0 6.0 366.0 
174.0004290227294 26516.0 NaN 1538.2124248497 0.5061026879831677 514.0 5.0 365.0 
176.00047933655907 26516.0 NaN 1541.2264529058116 0.5048640102207995 514.0 6.0 365.0 
178.00047933655907 26517.0 NaN 1541.3440213760846 0.5073432547334437 513.0 6.0 365.0 
180.00047933655907 26515.0 NaN 1541.25851703407 0.5055006265874983 516.0 4.0 367.0 
182.00047933655907 26471.0 NaN 1538.2044088176367 0.5082502633711887 514.0 5.0 365.0 
184.0004290227294 26442.0 NaN 1538.236472945891 0.5060493603006945 512.0 6.0 364.0 
186.00047933655907 26440.0 NaN 1541.2371409485636 0.5051474222257252 512.0 6.0 365.0 
188.00047933655907 26437.0 NaN 1538.126920507682 0.506743201469682 513.0 5.0 365.0 
190.00047933655907 26438.0 NaN 1535.1128924515701 0.5059792694668094 511.0 6.0 363.0 
192.00047933655907 26405.0 NaN 1538.2044088176367 0.5064026254088624 510.0 7.0 363.0 
194.0004290227294 26377.0 NaN 1538.1295925183701 0.5097022034677311 513.0 4.0 366.0 
196.00047933655907 26367.0 NaN 1538.11623246493 0.5068448798490233 512.0 5.0 365.0 
198.00047933655907 26355.0 NaN 1538.236472945891 0.5077006965058529 512.0 6.0 364.0 
200.00047933655907 26343.0 NaN 1538.11623246493 0.5096638393478794 512.0 6.0 364.0 
202.00047933655907 26315.0 NaN 1544.3152972611908 0.5070291652809833 514.0 5.0 367.0 
204.0004290227294 26300.0 NaN 1547.401469605879 0.5061210853363596 513.0 6.0 367.0 
206.00047933655907 26311.0 NaN 1544.355377421509 0.5103312449718717 513.0 6.0 366.0 
208.00047933655907 26279.0 NaN 1541.2585170340699 0.5075113874844844 514.0 4.0 367.0 
210.00047933655907 26260.0 NaN 1538.1456245824997 0.5097682755631694 512.0 5.0 365.0 
212.00047933655907 26231.0 NaN 1538.092184368736 0.5057261043214721 512.0 6.0 364.0 
214.0004290227294 26207.0 NaN 1541.2451569806271 0.5092976162417948 511.0 6.0 365.0 
216.00047933655907 26219.0 NaN 1538.1322645290575 0.5089297501743238 513.0 5.0 365.0 
218.00047933655907 26190.0 NaN 1538.105544422179 0.5073980826903495 508.0 6.0 364.0 
220.00047933655907 26178.0 NaN 1538.18303273213 0.5071225606864112 507.0 6.0 364.0 
222.00047933655907 26140.0 NaN 1535.1449565798273 0.5064936547409643 510.0 4.0 365.0 
224.0004290227294 26107.0 NaN 1535.0674682698727 0.5080457124193422 509.0 5.0 364.0 
226.00047933655907 26091.0 NaN 1538.1643286573153 0.5044307096954773 506.0 7.0 363.0 
228.00047933655907 26081.0 NaN 1544.3473613894453 0.5051372593191495 505.0 10.0 362.0 
230.00047933655907 26060.0 NaN 1544.3580494322 0.5060770316285739 507.0 8.0 364.0 
232.00047933655907 26038.0 NaN 1544.3874415497662 0.5076611478905318 509.0 6.0 366.0 
234.0004290227294 26015.0 NaN 1547.503006012025 0.5055812667710682 507.0 8.0 365.0 
236.00047933655907 26013.0 NaN 1544.232464929861 0.5054595441411379 505.0 9.0 363.0 
238.00047933655907 26004.0 NaN 1541.25851703407 0.5049249229900519 505.0 8.0 363.0 
240.00047933655907 26028.0 NaN 1538.2418169672665 0.5136822415077142 510.0 5.0 365.0 
242.00047933655907 26007.0 NaN 1535.0086840347365 0.5057257935841063 506.0 8.0 361.0 
244.0004290227294 25972.0 NaN 1535.078156312627 0.5043937037882276 507.0 6.0 363.0 
246.00047933655907 25979.0 NaN 1535.0407481629911 0.505329637405066 510.0 6.0 363.0 
248.00047933655907 25977.0 NaN 1535.0167000667998 0.5085329794878898 509.0 5.0 364.0 
250.00047933655907 25937.0 NaN 1535.0861723446908 0.5056379974148154 506.0 8.0 361.0 
252.00047933655907 25925.0 NaN 1531.9839679358727 0.5063770595566808 504.0 8.0 360.0 
254.0004290227294 25900.0 NaN 1528.873747494991 0.5052989763289303 507.0 7.0 360.0 
256.00047933655907 25888.0 NaN 1528.9565798263181 0.5064388605935616 508.0 7.0 360.0 
258.00047933655907 25852.0 NaN 1528.9592518370087 0.5070521324529442 509.0 6.0 361.0 
260.00047933655907 25813.0 NaN 1525.81696726787 0.5042995909984708 511.0 5.0 361.0 
262.00047933655907 25823.0 NaN 1528.9752839011364 0.5058289114701844 507.0 7.0 360.0 
264.0004290227294 25782.0 NaN 1528.9672678690727 0.5047918718228627 510.0 7.0 360.0 
266.00047933655907 25770.0 NaN 1544.3233132932546 0.5052183999657847 505.0 9.0 363.0 
268.00047933655907 25727.0 NaN 1544.3794255177 0.5063010976285874 499.0 14.0 358.0 
270.00047933655907 25724.0 NaN 1541.3012692050752 0.5059563366039674 500.0 14.0 357.0 
272.00047933655907 25661.0 NaN 1538.1509686038728 0.5050117640965782 502.0 11.0 359.0 
274.0004290227294 25625.0 NaN 1535.155644622579 0.5039697711829237 503.0 9.0 360.0 
276.00047933655907 25652.0 NaN 1538.1963927855727 0.5051159620693347 504.0 9.0 361.0 
278.00047933655907 25638.0 NaN 1541.3173012692066 0.5044021816410457 506.0 6.0 365.0 
280.00047933655907 25648.0 NaN 1541.2130928523727 0.5058289110217435 508.0 6.0 365.0 
282.00047933655907 25664.0 NaN 1541.2211088844365 0.5080852421102919 508.0 8.0 363.0 
284.0004290227294 25623.0 NaN 1535.0193720774885 0.5053921656968843 505.0 10.0 359.0 
286.00047933655907 25656.0 NaN 1535.139612558452 0.505917366502171 504.0 10.0 359.0 
288.00047933655907 25634.0 NaN 1535.0567802271205 0.506875878745573 502.0 12.0 357.0 
290.00047933655907 25604.0 NaN 1531.9038076152299 0.5090741673600876 500.0 10.0 358.0 
292.00047933655907 25592.0 NaN 1532.0 0.5080538193445265 501.0 10.0 358.0 
294.0004290227294 25553.0 NaN 1538.1616566466273 0.5053489620306537 502.0 9.0 361.0 
296.00047933655907 25571.0 NaN 1538.1803607214433 0.505588923222737 501.0 10.0 360.0 
298.00047933655907 25567.0 NaN 1538.132264529057 0.5056798831293521 501.0 10.0 360.0 
300.00047933655907 25537.0 NaN 1541.173012692052 0.5048716950465427 500.0 10.0 361.0 
302.00047933655907 25524.0 NaN 1538.1215764863066 0.5077477784565799 501.0 10.0 360.0 
304.0004290227294 25503.0 NaN 1538.215096860388 0.5059283162144617 499.0 11.0 359.0 
306.00047933655907 25513.0 NaN 1535.1182364729455 0.5053783762678397 501.0 11.0 358.0 
308.00047933655907 25479.0 NaN 1532.0614562458272 0.5098753632210957 498.0 11.0 357.0 
310.00047933655907 25458.0 NaN 1532.0881763527066 0.5056633586286929 498.0 10.0 358.0 
312.00047933655907 25436.0 NaN 1535.1369405477635 0.5058066808051619 501.0 8.0 361.0 
314.0004290227294 25413.0 NaN 1535.0487641950544 0.5047863342812968 502.0 8.0 361.0 
316.00047933655907 25421.0 NaN 1532.016032064127 0.5072721322004035 503.0 8.0 360.0 
318.00047933655907 25377.0 NaN 1535.2010688042753 0.505602774296574 504.0 7.0 362.0 
320.00047933655907 25375.0 NaN 1534.9712758851028 0.5050172085014557 501.0 8.0 361.0 
322.00047933655907 25376.0 NaN 1532.016032064127 0.5073919220746049 500.0 9.0 359.0 
324.0004290227294 25339.0 NaN 1532.053440213761 0.5041085658983446 501.0 8.0 360.0 
326.00047933655907 25318.0 NaN 1532.0106880427522 0.5077819177799078 502.0 7.0 361.0 
328.00047933655907 25306.0 NaN 1535.0915163660636 0.5039258172557288 501.0 9.0 360.0 
330.00047933655907 25322.0 NaN 1528.9058116232454 0.5044940768181029 496.0 12.0 355.0 
332.00047933655907 25326.0 NaN 1528.830995323982 0.5047975269612461 498.0 10.0 357.0 
334.0004290227294 25288.0 NaN 1535.1396125584515 0.503473996349471 499.0 9.0 360.0 
336.00047933655907 25305.0 NaN 1525.8543754175005 0.5054008484334276 501.0 8.0 358.0 
338.00047933655907 25299.0 NaN 1525.857047428191 0.5036384259232023 495.0 14.0 352.0 
340.00047933655907 25306.0 NaN 1525.8463593854362 0.5037971595486074 497.0 13.0 353.0 
342.00047933655907 25305.0 NaN 1525.8810955243816 0.5070977389142389 496.0 13.0 353.0 
344.0004290227294 25286.0 NaN 1528.7428189712753 0.5064175368998938 498.0 14.0 353.0 
346.00047933655907 25316.0 NaN 1535.0621242484974 0.5054568867788158 504.0 12.0 357.0 
348.00047933655907 25297.0 NaN 1531.885103540415 0.5044245452067655 497.0 17.0 351.0 
350.00047933655907 25303.0 NaN 1525.710086840346 0.5039778160226955 499.0 15.0 351.0 
352.00047933655907 25307.0 NaN 1525.8036072144278 0.5056687242671452 501.0 15.0 351.0 
354.0004290227294 25276.0 NaN 1525.7448229792908 0.5034369880446785 506.0 10.0 356.0 
356.00047933655907 25274.0 NaN 1525.6219104876425 0.5041872277992548 498.0 16.0 350.0 
358.00047933655907 25259.0 NaN 1525.7822311289249 0.5048566550522503 500.0 15.0 351.0 
360.00047933655907 25253.0 NaN 1525.6459585838356 0.5048540019889087 499.0 15.0 351.0 
362.00047933655907 25261.0 NaN 1525.6539746158994 0.509810868778772 508.0 10.0 356.0 
364.0004290227294 25225.0 NaN 1525.742150968603 0.5033216079982274 499.0 16.0 350.0 
366.00047933655907 25228.0 NaN 1516.5023380093526 0.504611901225743 499.0 17.0 346.0 
368.00047933655907 25222.0 NaN 1510.3807615230455 0.5037275144511573 499.0 16.0 345.0 
370.00047933655907 25200.0 NaN 1504.1816967267875 0.5053222988622599 506.0 12.0 347.0 
372.00047933655907 25189.0 NaN 1510.4048096192373 0.5085635433942882 499.0 17.0 344.0 
374.0004290227294 25131.0 NaN 1507.2464929859725 0.5016282739123782 503.0 15.0 345.0 
376.00047933655907 25144.0 NaN 1507.2411489645967 0.5044648205725283 503.0 14.0 346.0 
378.00047933655907 25146.0 NaN 1507.2839011356034 0.503922996644495 509.0 10.0 350.0 
380.00047933655907 25119.0 NaN 1507.1636606546433 0.5062267191786993 504.0 16.0 344.0 
382.00047933655907 25107.0 NaN 1510.3567134268544 0.5068364172383 503.0 15.0 346.0 
384.0004290227294 25038.0 NaN 1510.3032732130919 0.501871972965414 503.0 13.0 348.0 
386.00047933655907 25073.0 NaN 1516.4301937207736 0.5020866765071202 512.0 8.0 355.0 
388.00047933655907 25078.0 NaN 1516.4569138276547 0.5020179688598466 510.0 8.0 355.0 
390.00047933655907 25080.0 NaN 1510.4181696726794 0.5036400446914941 512.0 8.0 353.0 
392.00047933655907 25068.0 NaN 1510.3112892451566 0.5069067393125527 509.0 8.0 353.0 
394.0004290227294 24995.0 NaN 1510.420841683366 0.501807332287498 509.0 8.0 353.0 
396.00047933655907 25008.0 NaN 1513.5123580494333 0.5080865100430686 508.0 10.0 352.0 
398.00047933655907 25005.0 NaN 1507.2571810287247 0.5056919116892343 511.0 10.0 350.0 
400.00047933655907 24989.0 NaN 1504.2672010688032 0.5031306086576385 509.0 9.0 350.0 
402.00047933655907 24981.0 NaN 1510.3994655978631 0.5039133780076073 515.0 7.0 354.0 
404.0004290227294 24934.0 NaN 1507.2812291249174 0.5020567283166049 513.0 6.0 354.0 
406.00047933655907 24960.0 NaN 1510.442217768872 0.501955550571786 518.0 5.0 356.0 
408.00047933655907 24965.0 NaN 1513.466933867736 0.5037815772639832 513.0 7.0 355.0 
410.00047933655907 24963.0 NaN 1516.5210420841693 0.5044285234032699 515.0 6.0 357.0 
412.00047933655907 24945.0 NaN 1522.8136272545091 0.5032083243749667 516.0 4.0 361.0 
414.0004290227294 24899.0 NaN 1525.8623914495643 0.5039751940006371 517.0 6.0 360.0 
416.00047933655907 24907.0 NaN 1519.5965263861062 0.5023912332149828 516.0 8.0 356.0 
418.00047933655907 24907.0 NaN 1513.509686038745 0.5015487368830497 517.0 5.0 357.0 
420.00047933655907 24892.0 NaN 1507.3266533066121 0.5030589822301512 513.0 6.0 354.0 
422.00047933655907 24872.0 NaN 1510.4716098864387 0.5020301526159325 510.0 5.0 356.0 
424.0004290227294 24836.0 NaN 1510.546426185706 0.5029557032594164 512.0 4.0 357.0 
426.00047933655907 24857.0 NaN 1507.3346693386782 0.5016105671453587 512.0 4.0 356.0 
428.00047933655907 24843.0 NaN 1513.4696058784243 0.5017180325221373 513.0 4.0 358.0 
430.00047933655907 24851.0 NaN 1507.30260521042 0.5022652316790603 518.0 4.0 356.0 
432.00047933655907 24830.0 NaN 1513.4642618570465 0.5028037707885828 520.0 5.0 357.0 
434.0004290227294 24815.0 NaN 1519.5965263861062 0.5027925959705111 521.0 5.0 359.0 
436.00047933655907 24823.0 NaN 1522.725450901803 0.5015451260980827 520.0 5.0 360.0 
438.00047933655907 24813.0 NaN 1525.7849031396122 0.5015647776082158 521.0 5.0 361.0 
440.00047933655907 24829.0 NaN 1528.812291249164 0.5047968071064945 522.0 5.0 362.0 
442.00047933655907 24823.0 NaN 1528.8630594522367 0.5019918243390131 522.0 7.0 360.0 
444.0004290227294 24813.0 NaN 1525.8089512358063 0.5022244596628896 520.0 7.0 359.0 
446.00047933655907 24829.0 NaN 1522.6987307949244 0.5007543725245335 522.0 6.0 359.0 
448.00047933655907 24827.0 NaN 1531.9946559786242 0.5027749053824808 520.0 5.0 363.0 
450.00047933655907 24857.0 NaN 1547.372077488309 0.5037937855372847 524.0 5.0 368.0 
452.00047933655907 24862.0 NaN 1550.3967935871729 0.5034069848309712 522.0 5.0 369.0 
454.0004290227294 24835.0 NaN 1550.4769539078156 0.5014264209403813 522.0 5.0 369.0 
456.00047933655907 24843.0 NaN 1550.4074816299274 0.5044455125058961 521.0 5.0 369.0 
458.00047933655907 24833.0 NaN 1550.3246492985975 0.5015727871318789 519.0 6.0 368.0 
460.00047933655907 24850.0 NaN 1547.2785571142272 0.5020922241839247 519.0 8.0 365.0 
462.00047933655907 24866.0 NaN 1544.3152972611906 0.5053147930136924 515.0 8.0 364.0 
464.0004290227294 24839.0 NaN 1544.1870407481638 0.5064720276262953 518.0 6.0 366.0 
466.00047933655907 24843.0 NaN 1544.2378089512365 0.5046658737775573 521.0 5.0 367.0 
468.00047933655907 24826.0 NaN 1544.1549766199066 0.5042585242488848 520.0 5.0 367.0 
470.00047933655907 24828.0 NaN 1544.2618570474274 0.5039876372066242 520.0 6.0 366.0 
472.00047933655907 24833.0 NaN 1541.1783567134273 0.5047995485839569 520.0 6.0 365.0 
474.0004290227294 24835.0 NaN 1531.895791583166 0.5055056055115437 515.0 7.0 361.0 
476.00047933655907 24833.0 NaN 1522.6239144956576 0.5051640167299141 514.0 7.0 358.0 
478.00047933655907 24835.0 NaN 1522.677354709418 0.5048492491043668 515.0 7.0 358.0 
480.00047933655907 24856.0 NaN 1525.763527054109 0.5048374376537699 513.0 8.0 358.0 
482.00047933655907 24845.0 NaN 1525.710086840346 0.5073587780865977 515.0 6.0 360.0 
484.0004290227294 24834.0 NaN 1525.7902471609905 0.5030797318789784 515.0 6.0 360.0 
486.00047933655907 24904.0 NaN 1513.4696058784245 0.5043896267949624 511.0 7.0 355.0 
488.00047933655907 24888.0 NaN 1510.4502338009363 0.5049764888572706 510.0 7.0 354.0 
490.00047933655907 24885.0 NaN 1491.9919839679362 0.5050978694053596 509.0 7.0 348.0 
492.00047933655907 24864.0 NaN 1491.9706078824304 0.5057754753754733 507.0 7.0 348.0 
494.0004290227294 24859.0 NaN 1495.0514362057454 0.503709725281649 506.0 6.0 350.0 
496.00047933655907 24902.0 NaN 1495.0327321309278 0.5048441113884293 502.0 6.0 350.0 
498.00047933655907 24899.0 NaN 1491.9465597862384 0.5042247653665489 501.0 6.0 349.0 
500.00047933655907 24904.0 NaN 1488.8336673346698 0.5086828029373116 504.0 6.0 348.0 
502.00047933655907 24881.0 NaN 1482.8483633934543 0.5069213222445361 508.0 6.0 346.0 
504.0004290227294 24858.0 NaN 1485.8410153640625 0.5043907921696724 506.0 5.0 348.0 
506.00047933655907 24915.0 NaN 1491.9625918503664 0.5048653896315266 510.0 5.0 350.0 
508.00047933655907 24903.0 NaN 1485.8917835671352 0.5045836545130229 509.0 4.0 349.0 
510.00047933655907 24890.0 NaN 1492.04008016032 0.5035533079677913 507.0 4.0 351.0 
512.000479336559 24941.0 NaN 1491.9385437541737 0.505531409440158 509.0 6.0 349.0 
514.0004290227293 24922.0 NaN 1482.736138944555 0.5050479160556494 504.0 9.0 343.0 
516.000479336559 24968.0 NaN 1476.6145624582489 0.5049745477644915 503.0 10.0 340.0 
518.000479336559 24955.0 NaN 1464.3179692718759 0.504721486034706 501.0 11.0 335.0 
520.000479336559 24962.0 NaN 1461.3360053440206 0.5035925020022003 500.0 11.0 334.0 
522.000479336559 24982.0 NaN 1461.2558450233807 0.506294390354283 499.0 11.0 334.0 
524.0004290227293 24970.0 NaN 1461.2665330661334 0.5035005128102612 496.0 11.0 334.0 
526.000479336559 24996.0 NaN 1455.1716766867073 0.5081258697552389 495.0 11.0 332.0 
528.000479336559 24996.0 NaN 1452.0668002672003 0.505339974023622 493.0 11.0 331.0 
530.000479336559 25028.0 NaN 1452.0160320641278 0.5045576295325949 494.0 11.0 331.0 
532.000479336559 24991.0 NaN 1461.3039412157643 0.5031265974752733 496.0 10.0 335.0 
534.0004290227293 24997.0 NaN 1461.3841015364067 0.5043138021087148 493.0 11.0 334.0 
536.000479336559 25000.0 NaN 1458.2418169672671 0.5036979960489985 493.0 13.0 331.0 
538.000479336559 24993.0 NaN 1461.3680694722786 0.5071782755623253 493.0 13.0 332.0 
540.000479336559 24983.0 NaN 1461.2264529058111 0.5042541621447159 493.0 13.0 332.0 
542.000479336559 24960.0 NaN 1470.5838343353369 0.5043884614073028 494.0 12.0 336.0 
544.0004290227293 24943.0 NaN 1473.5951903807622 0.5027335560551344 501.0 10.0 339.0 
546.000479336559 24965.0 NaN 1470.4422177688716 0.5042607015865991 501.0 10.0 338.0 
548.000479336559 24939.0 NaN 1464.2698730794916 0.5039748597462067 501.0 10.0 336.0 
550.000479336559 24942.0 NaN 1467.3720774883095 0.5018845512498443 502.0 10.0 337.0 
552.000479336559 24966.0 NaN 1467.281229124917 0.5032410882420999 501.0 10.0 337.0 
554.0004290227293 24958.0 NaN 1467.3854375417507 0.5020504589623788 501.0 10.0 337.0 
556.000479336559 24992.0 NaN 1467.393453573815 0.5054646034856533 502.0 10.0 337.0 
558.000479336559 24965.0 NaN 1467.3346693386777 0.5025112660863826 503.0 10.0 337.0 
560.000479336559 24982.0 NaN 1458.121576486306 0.5035776635435872 498.0 10.0 334.0 
562.000479336559 24978.0 NaN 1458.0788243152972 0.5035113642201554 497.0 10.0 334.0 
564.0004290227293 24985.0 NaN 1454.9899799599195 0.5045401314026111 497.0 10.0 333.0 
566.000479336559 25016.0 NaN 1461.2050768203078 0.5061197444150635 496.0 10.0 335.0 
568.000479336559 24989.0 NaN 1482.768203072812 0.506217503794662 499.0 10.0 342.0 
570.000479336559 24986.0 NaN 1482.7254509018032 0.5047427973921561 501.0 9.0 343.0 
572.000479336559 24966.0 NaN 1479.7007348029385 0.5055629839965378 501.0 9.0 342.0 
574.0004290227293 24974.0 NaN 1476.6920507682028 0.5030321217533829 498.0 10.0 340.0 
576.000479336559 25031.0 NaN 1479.5911823647286 0.5049121285721765 498.0 10.0 341.0 
578.000479336559 24998.0 NaN 1479.7434869739475 0.5029344102420698 498.0 10.0 341.0 
580.000479336559 25022.0 NaN 1485.8142952571816 0.5055062529114002 500.0 10.0 343.0 
582.000479336559 24997.0 NaN 1485.9318637274546 0.5051399390306143 502.0 10.0 343.0 
584.0004290227293 24995.0 NaN 1485.8570474281905 0.5039769907406765 500.0 10.0 343.0 
586.000479336559 25063.0 NaN 1485.862391449565 0.5017428791180862 503.0 10.0 343.0 
588.000479336559 25084.0 NaN 1485.784903139612 0.501931946897343 508.0 10.0 343.0 
590.000479336559 25103.0 NaN 1488.9058116232457 0.5033866502347707 511.0 10.0 344.0 
592.000479336559 25079.0 NaN 1488.9058116232457 0.503143689341221 512.0 10.0 344.0 
594.0004290227293 25086.0 NaN 1491.8931195724788 0.5029160091830804 514.0 10.0 345.0 
596.000479336559 25105.0 NaN 1488.8657314629263 0.5033053514474896 519.0 10.0 344.0 
598.000479336559 25071.0 NaN 1491.9412157648637 0.5030137886757473 517.0 10.0 345.0 
600.000479336559 25097.0 NaN 1491.9144956579821 0.5025261381634838 518.0 10.0 345.0 
602.000479336559 25121.0 NaN 1501.183700734802 0.5018247098062025 520.0 10.0 348.0 
604.0004290227293 25146.0 NaN 1498.0253841015365 0.5027640375668254 519.0 10.0 347.0 
606.000479336559 25171.0 NaN 1501.1730126920515 0.5070478895702881 519.0 10.0 348.0 
608.000479336559 25150.0 NaN 1507.265197060789 0.5047433275512921 516.0 10.0 350.0 
610.000479336559 25188.0 NaN 1513.4615898463605 0.5039164041573652 516.0 10.0 352.0 
612.000479336559 25217.0 NaN 1510.3299933199726 0.5064948125900927 516.0 10.0 351.0 
614.0004290227293 25190.0 NaN 1507.3346693386784 0.5044806289830804 515.0 10.0 350.0 
616.000479336559 25167.0 NaN 1507.2705410821636 0.503820417636595 516.0 10.0 350.0 
618.000479336559 25124.0 NaN 1504.1870407481638 0.5008781368356925 516.0 10.0 349.0 
620.000479336559 25172.0 NaN 1510.3567134268546 0.5061303427237747 516.0 10.0 351.0 
622.000479336559 25200.0 NaN 1525.7715430861729 0.50549627675669 517.0 10.0 356.0 
624.0004290227293 25178.0 NaN 1522.59452237809 0.504020069186295 515.0 10.0 355.0 
626.000479336559 25195.0 NaN 1525.7849031396122 0.5040821583914373 515.0 10.0 356.0 
628.000479336559 25130.0 NaN 1525.7341349365395 0.5027219267022246 516.0 10.0 356.0 
630.000479336559 25146.0 NaN 1519.6259185036733 0.5022384979320389 515.0 9.0 355.0 
632.000479336559 25133.0 NaN 1522.6853707414816 0.5057127429971858 511.0 10.0 355.0 
634.0004290227293 25113.0 NaN 1519.6312625250514 0.5001025850229953 511.0 10.0 354.0 
636.000479336559 25197.0 NaN 1522.6853707414818 0.5040396666896346 517.0 10.0 355.0 
638.000479336559 25144.0 NaN 1519.690046760188 0.5026321659106475 519.0 10.0 354.0 
640.000479336559 25145.0 NaN 1519.6766867067463 0.5035506160963666 518.0 10.0 354.0 
642.000479336559 25122.0 NaN 1525.7849031396122 0.5035648731664402 519.0 10.0 356.0 
644.0004290227293 25119.0 NaN 1522.7388109552444 0.504784465607302 521.0 10.0 355.0 
646.000479336559 25158.0 NaN 1522.8002672010696 0.504145810469715 519.0 10.0 355.0 
648.000479336559 25118.0 NaN 1525.8223112892456 0.5034288424993488 516.0 10.0 356.0 
650.000479336559 25116.0 NaN 1522.7174348697383 0.504778717657585 512.0 10.0 355.0 
652.000479336559 25114.0 NaN 1525.7608550434193 0.5044353215495875 511.0 10.0 356.0 
654.0004290227293 25100.0 NaN 1525.7715430861729 0.5036232747600894 510.0 10.0 356.0 
656.000479336559 25104.0 NaN 1535.0460921843696 0.5062313938595225 509.0 10.0 359.0 
658.000479336559 25054.0 NaN 1544.2698730794918 0.5040456184049181 508.0 10.0 362.0 
660.000479336559 25049.0 NaN 1544.2137608550445 0.5043733219954324 508.0 10.0 362.0 
662.000479336559 25046.0 NaN 1544.3500334001342 0.5063901526933082 506.0 10.0 362.0 
664.0004290227293 24991.0 NaN 1541.183700734802 0.5026735020302261 505.0 10.0 361.0 
#####################################################################
# End of data export. Simulation finished at: 2019-03-07T01:46+0000 #
#####################################################################
