#####################################################################
# Alchemist log file - simulation started at: 2019-03-05T12:22+0000 #
#####################################################################
# seed = 3.0, bandwidth = 4216.965034285822, propagationDelay = 0.1, baserange = 56.234132519034915
#
# The columns have the following meaning: 
# time neighbor_count[Sum] <value>@neighbor_count[Sum] packet_size[Mean] mean_delay[Mean] crowd[Sum] overcrowded[Sum] risk[Sum] 
0.0 NaN NaN NaN NaN NaN NaN NaN 
2.0005923698108097 1530.0 NaN 4988.7080828323315 0.19565787165106732 1497.0 0.0 1497.0 
4.000284909761571 6162.0 NaN 4996.553106212425 1.1942071634335896 1497.0 0.0 1497.0 
6.000084666035003 6162.0 NaN 4996.010688042752 1.19510433017293 1493.0 4.0 1493.0 
8.000284909761572 6168.0 NaN 4995.094188376754 1.1968943664314624 1488.0 9.0 1488.0 
10.00033353340315 6170.0 NaN 4994.848363393454 1.1973286365851419 1472.0 25.0 1472.0 
12.000284909761572 6174.0 NaN 4993.704742818972 1.1991921926656997 1477.0 20.0 1477.0 
14.00059236981081 6176.0 NaN 4993.629926519706 1.1991885425050446 1477.0 20.0 1477.0 
16.000084666035004 6188.0 NaN 4993.51503006012 1.202119880013102 1478.0 19.0 1478.0 
18.00059236981081 6189.0 NaN 4993.170340681363 1.2057921272395646 1479.0 18.0 1479.0 
20.00021582179313 6191.0 NaN 4993.162324649298 1.2101778554960794 1479.0 18.0 1479.0 
22.00021582179313 6198.0 NaN 4992.844355377421 1.2157190683299353 1477.0 20.0 1477.0 
24.00028490976157 6199.0 NaN 4993.279893119572 1.2230121846581365 1479.0 18.0 1479.0 
26.000084666035004 6213.0 NaN 4992.921843687374 1.228432224339935 1479.0 18.0 1479.0 
28.00028490976157 6223.0 NaN 4992.892451569806 1.238647906068798 1478.0 19.0 1478.0 
30.00033353340315 6227.0 NaN 4993.130260521042 1.2514664645874152 1479.0 18.0 1479.0 
32.00021582179313 6242.0 NaN 4992.6813627254505 1.2648163927677505 1478.0 19.0 1478.0 
34.00021582179313 6245.0 NaN 4993.050100200401 1.27840156846972 1478.0 19.0 1478.0 
36.00008466603501 6260.0 NaN 4993.111556446226 1.277348666100498 1478.0 19.0 1478.0 
38.00059236981081 6264.0 NaN 4992.806947227789 1.2929789586296916 1478.0 19.0 1478.0 
40.00033353340315 6269.0 NaN 4993.10621242485 1.3108298638171867 1476.0 21.0 1476.0 
42.00059236981081 6276.0 NaN 4992.879091516366 1.3293904292515821 1476.0 21.0 1476.0 
44.00059236981081 6292.0 NaN 4993.018036072144 1.310652193767823 1476.0 21.0 1476.0 
46.00008466603501 6340.0 NaN 4992.945891783567 1.3198361556000215 1476.0 21.0 1476.0 
48.00021582179313 6346.0 NaN 4992.948563794255 1.3281816601551806 1476.0 21.0 1476.0 
50.00021582179313 6365.0 NaN 4992.879091516366 1.3490060565781308 1477.0 20.0 1477.0 
52.00021582179313 6377.0 NaN 4992.7321309285235 1.3341156356371269 1478.0 19.0 1478.0 
54.00021582179313 6385.0 NaN 4992.868403473614 1.336069016671623 1478.0 19.0 1478.0 
56.00008466603501 6412.0 NaN 4992.857715430861 1.3322438416210585 1478.0 19.0 1478.0 
58.00059236981081 6425.0 NaN 4992.782899131596 1.3319672320279599 1478.0 19.0 1478.0 
60.00033353340315 6448.0 NaN 4992.991315965264 1.3630871281612442 1477.0 20.0 1477.0 
62.00059236981081 6462.0 NaN 1525.3066132264541 1.0789428289893257 779.0 15.0 351.0 
64.00059236981082 6461.0 NaN 1525.007348029391 1.0133311543708352 629.0 20.0 346.0 
66.00008466603501 6487.0 NaN 1525.0313961255845 1.035394815527345 563.0 22.0 344.0 
68.00059236981082 6496.0 NaN 1525.028724114897 1.0536349401090759 544.0 20.0 346.0 
70.00033353340315 6516.0 NaN 1527.9786239144967 1.0739531543891572 522.0 20.0 347.0 
72.00059236981082 6538.0 NaN 1528.0454241816974 1.1067629230238645 516.0 21.0 346.0 
74.00059236981082 6527.0 NaN 1527.9091516366066 1.1099949781537968 511.0 21.0 346.0 
76.00008466603501 6534.0 NaN 1527.8931195724788 1.1329713652448878 510.0 21.0 346.0 
78.00059236981082 6562.0 NaN 1534.1082164328639 1.1429283770070806 512.0 21.0 348.0 
80.00033353340315 6562.0 NaN 1537.0955243820977 1.153440635596873 510.0 20.0 350.0 
82.00059236981082 6569.0 NaN 1537.1169004676003 1.1854295995124824 512.0 19.0 351.0 
84.00059236981082 6531.0 NaN 1537.0955243820977 1.1847952909822765 508.0 21.0 349.0 
86.00008466603501 6509.0 NaN 1537.028724114897 1.1854840899941905 501.0 25.0 345.0 
88.00059236981082 6509.0 NaN 1537.0875083500337 1.1599987493479453 506.0 21.0 349.0 
90.00033353340315 6502.0 NaN 1537.047428189712 1.1495360570700588 506.0 21.0 349.0 
92.00059236981082 6510.0 NaN 1537.0394121576483 1.1901379798276877 506.0 20.0 350.0 
94.00059236981082 6488.0 NaN 1536.9619238476937 1.208734569897822 508.0 19.0 351.0 
96.00008466603501 6479.0 NaN 1540.0587842351363 1.2076455617116753 505.0 21.0 350.0 
98.00059236981082 6504.0 NaN 1540.0908483633934 1.224086573296749 506.0 21.0 350.0 
100.00033353340315 6502.0 NaN 1540.0881763527061 1.218678100672347 506.0 21.0 350.0 
102.00059236981082 6512.0 NaN 1540.0374081496334 1.261762551541847 506.0 21.0 350.0 
104.00059236981082 6508.0 NaN 1540.0293921175696 1.3005471881759945 506.0 20.0 351.0 
106.00008466603501 6487.0 NaN 1540.0480961923843 1.1927769729978739 508.0 19.0 352.0 
108.00059236981082 6492.0 NaN 1540.0347361389454 1.1948208050690654 505.0 21.0 350.0 
110.00033353340315 6499.0 NaN 1540.0507682030725 1.2166123429528326 505.0 21.0 350.0 
112.00059236981082 6497.0 NaN 1539.9786239144967 1.131534691528715 505.0 21.0 350.0 
114.00059236981082 6497.0 NaN 1539.9652638610546 1.163109335217716 505.0 22.0 349.0 
116.00008466603501 6468.0 NaN 1546.1670006680026 1.0869649171450626 504.0 22.0 351.0 
118.00059236981082 6508.0 NaN 1549.2211088844365 1.1029427260040183 508.0 21.0 353.0 
120.00033353340315 6498.0 NaN 1552.3233132932544 1.0951520569596973 506.0 23.0 352.0 
122.00059236981082 6515.0 NaN 1552.2965931863728 1.1094997253858683 505.0 24.0 351.0 
124.00059236981082 6516.0 NaN 1552.2511690046754 1.1509811773426368 508.0 21.0 354.0 
126.00008466603501 6521.0 NaN 1552.2458249832998 1.1741221817774488 508.0 21.0 354.0 
128.00059236981082 6550.0 NaN 1549.2879091516363 1.1997469226402535 508.0 20.0 354.0 
130.00033353340314 6559.0 NaN 1549.285237140948 1.2058316838157033 508.0 21.0 353.0 
132.00059236981082 6570.0 NaN 1549.250501002003 1.2447212211658811 505.0 24.0 350.0 
134.00059236981082 6568.0 NaN 1549.250501002003 1.2971545090186796 506.0 23.0 351.0 
136.000084666035 6562.0 NaN 1549.2959251836999 1.2711787865388546 506.0 22.0 352.0 
138.00059236981082 6595.0 NaN 1549.2157648630607 1.2371148287771823 503.0 23.0 351.0 
140.00033353340314 6613.0 NaN 1549.3012692050756 1.2755403041539881 507.0 20.0 354.0 
142.00059236981082 6635.0 NaN 1552.3473613894453 1.3076591777843931 505.0 22.0 353.0 
144.00059236981082 6630.0 NaN 1552.3580494322 1.3199871318293777 501.0 27.0 348.0 
146.000084666035 6614.0 NaN 1546.2471609886452 1.266071169232635 497.0 30.0 343.0 
148.00059236981082 6607.0 NaN 1546.2284569138271 1.2855050190995663 506.0 21.0 352.0 
150.00033353340314 6609.0 NaN 1546.2471609886452 1.3093731217884288 506.0 21.0 352.0 
152.00059236981082 6626.0 NaN 1546.268537074148 1.3397094516872383 501.0 25.0 348.0 
154.00059236981082 6621.0 NaN 1540.0267201068814 1.393725253152464 501.0 27.0 344.0 
156.000084666035 6571.0 NaN 1540.0133600534396 1.3570252880896543 504.0 26.0 345.0 
158.00059236981082 6571.0 NaN 1546.2338009352031 1.3880754842206295 500.0 28.0 345.0 
160.00033353340314 6561.0 NaN 1543.152972611891 1.3804794146027985 499.0 26.0 346.0 
162.00059236981082 6568.0 NaN 1543.1102204408817 1.38521896140237 500.0 24.0 348.0 
164.00059236981082 6562.0 NaN 1543.0995323981274 1.4464374567423535 499.0 24.0 348.0 
166.000084666035 6522.0 NaN 1549.2611890447545 1.4086971240057062 500.0 24.0 350.0 
168.00059236981082 6538.0 NaN 1552.3206412825637 1.4382952789456074 498.0 25.0 350.0 
170.00033353340314 6546.0 NaN 1552.3714094856364 1.406657515099199 498.0 27.0 348.0 
172.00059236981082 6558.0 NaN 1552.3794255177 1.3927954872194848 501.0 23.0 352.0 
174.00059236981082 6549.0 NaN 1552.3286573146272 1.4335429788187484 501.0 23.0 352.0 
176.000084666035 6534.0 NaN 1546.126920507682 1.3082003454774813 500.0 23.0 350.0 
178.00059236981082 6536.0 NaN 1543.1022044088184 1.3272808945352368 499.0 25.0 347.0 
180.00033353340314 6528.0 NaN 1549.277221108884 1.2639879232296158 498.0 26.0 348.0 
182.00059236981082 6536.0 NaN 1546.2204408817638 1.2871444969078234 494.0 29.0 344.0 
184.00059236981082 6514.0 NaN 1546.2364729458907 1.2689235850042535 497.0 26.0 347.0 
186.000084666035 6499.0 NaN 1543.1369405477637 1.2580984612832404 496.0 27.0 345.0 
188.00059236981082 6492.0 NaN 1543.1289245157002 1.2723188818313482 487.0 34.0 338.0 
190.00033353340314 6496.0 NaN 1543.1957247829 1.2809670371120565 486.0 33.0 339.0 
192.00059236981082 6502.0 NaN 1540.0774883099546 1.3200238946236742 483.0 36.0 335.0 
194.00059236981082 6491.0 NaN 1540.0908483633934 1.3571736129947038 481.0 38.0 333.0 
196.000084666035 6481.0 NaN 1540.0855043420183 1.3808015782541463 484.0 35.0 336.0 
198.00059236981082 6471.0 NaN 1540.0347361389454 1.3981853793056536 486.0 33.0 338.0 
200.00033353340314 6465.0 NaN 1543.1289245157 1.386035214999992 490.0 30.0 342.0 
202.00059236981082 6473.0 NaN 1543.1743486973937 1.3952563083249203 493.0 29.0 343.0 
204.00059236981082 6461.0 NaN 1543.1235804943208 1.4181049208772016 490.0 31.0 341.0 
206.000084666035 6437.0 NaN 1543.1369405477635 1.3332255641524993 488.0 33.0 339.0 
208.00059236981082 6424.0 NaN 1543.1182364729455 1.3483582546289634 491.0 30.0 342.0 
210.00033353340314 6432.0 NaN 1540.0988643954572 1.345660063446673 492.0 31.0 340.0 
212.00059236981082 6442.0 NaN 1536.9806279225118 1.3724130258721994 490.0 32.0 338.0 
214.00059236981082 6442.0 NaN 1533.7929191716757 1.4102057780577053 490.0 31.0 338.0 
216.000084666035 6436.0 NaN 1533.8623914495638 1.4289230103422894 487.0 31.0 338.0 
218.00059236981082 6418.0 NaN 1530.8082832331334 1.4306455444721962 484.0 34.0 334.0 
220.00033353340314 6417.0 NaN 1530.835003340012 1.4627374239996789 493.0 25.0 343.0 
222.00059236981082 6413.0 NaN 1530.7414829659301 1.448009460586316 492.0 27.0 341.0 
224.00059236981082 6404.0 NaN 1530.749498997997 1.4588081256640804 497.0 22.0 346.0 
226.000084666035 6386.0 NaN 1530.725450901803 1.4586423347161424 504.0 16.0 352.0 
228.00059236981082 6390.0 NaN 1533.8704074816299 1.4833379778121938 502.0 18.0 351.0 
230.00033353340314 6385.0 NaN 1533.8704074816299 1.5057129168760257 501.0 20.0 349.0 
232.00059236981082 6386.0 NaN 1536.9485637942544 1.5177823869464493 502.0 19.0 351.0 
234.00059236981082 6373.0 NaN 1536.9004676018726 1.4854232119156314 502.0 19.0 351.0 
236.000084666035 6350.0 NaN 1539.9225116900454 1.46757366266992 503.0 18.0 353.0 
238.00059236981082 6327.0 NaN 1536.9138276553092 1.3554360021864675 504.0 18.0 352.0 
240.00033353340314 6317.0 NaN 1530.8376753507002 1.3322083716484627 500.0 20.0 348.0 
242.00059236981082 6320.0 NaN 1533.859719438879 1.3539308122790759 497.0 22.0 347.0 
244.00059236981082 6320.0 NaN 1533.8329993319974 1.3931217673223748 500.0 19.0 350.0 
246.000084666035 6313.0 NaN 1533.7875751503 1.4159077671772269 503.0 18.0 351.0 
248.00059236981082 6310.0 NaN 1530.7601870407482 1.453229415949795 501.0 20.0 348.0 
250.00033353340314 6297.0 NaN 1530.8109552438207 1.443141356426564 500.0 22.0 346.0 
252.00059236981082 6284.0 NaN 1530.8162992651974 1.4673540641875717 497.0 23.0 345.0 
254.00059236981082 6277.0 NaN 1527.6873747495001 1.5022035143023362 498.0 23.0 344.0 
256.00008466603504 6256.0 NaN 1524.676018704073 1.4138770046987597 496.0 27.0 339.0 
258.0005923698108 6246.0 NaN 1524.6145624582489 1.4112359571011264 496.0 26.0 340.0 
260.00033353340314 6244.0 NaN 1524.627922511691 1.4429167929196989 494.0 28.0 338.0 
262.0005923698108 6238.0 NaN 1527.655310621243 1.4235198162006197 497.0 25.0 342.0 
264.0005923698108 6234.0 NaN 1530.7067468269881 1.4119352693743163 496.0 26.0 342.0 
266.00008466603504 6231.0 NaN 1530.746826987309 1.438805770133874 490.0 31.0 337.0 
268.0005923698108 6228.0 NaN 1539.927855711424 1.4973572716988854 492.0 27.0 344.0 
270.00033353340314 6233.0 NaN 1536.8657314629272 1.5731489774478529 490.0 27.0 343.0 
272.0005923698108 6245.0 NaN 1533.8089512358063 1.6520907406211602 491.0 25.0 344.0 
274.0005923698108 6242.0 NaN 1533.811623246491 1.6179597954681826 494.0 22.0 347.0 
276.00008466603504 6230.0 NaN 1533.8276553106207 1.59856403965325 490.0 26.0 343.0 
278.0005923698108 6199.0 NaN 1539.9786239144967 1.546948972730885 489.0 29.0 342.0 
280.00033353340314 6184.0 NaN 1543.0327321309273 1.5863052127448232 488.0 29.0 343.0 
282.0005923698108 6168.0 NaN 1542.9445557782246 1.5539698725350573 488.0 28.0 344.0 
284.0005923698108 6190.0 NaN 1539.895791583166 1.5828728815342177 491.0 24.0 347.0 
286.00008466603504 6193.0 NaN 1539.9091516366068 1.594371018559505 494.0 21.0 350.0 
288.0005923698108 6178.0 NaN 1539.8984635938546 1.5784320875971916 494.0 23.0 348.0 
290.00033353340314 6172.0 NaN 1546.124248496993 1.5614335569976385 492.0 25.0 348.0 
292.0005923698108 6158.0 NaN 1545.995991983966 1.5883317933746897 491.0 25.0 348.0 
294.0005923698108 6153.0 NaN 1546.0334001335998 1.56404331956609 486.0 25.0 348.0 
296.00008466603504 6144.0 NaN 1546.0467601870387 1.548154588389042 485.0 23.0 350.0 
298.0005923698108 6129.0 NaN 1546.0494321977274 1.4840094210914117 491.0 20.0 353.0 
300.00033353340314 6122.0 NaN 1543.035404141618 1.5076223427465953 489.0 22.0 350.0 
302.0005923698108 6113.0 NaN 1543.0300601202389 1.5615194900510407 486.0 25.0 347.0 
304.0005923698108 6128.0 NaN 1543.043420173682 1.6258079770001301 485.0 25.0 347.0 
306.00008466603504 6108.0 NaN 1536.8764195056792 1.605287959401745 485.0 25.0 345.0 
308.0005923698108 6093.0 NaN 1543.0487641950547 1.6482129345963676 486.0 23.0 349.0 
310.00033353340314 6066.0 NaN 1536.817635270543 1.635866488027955 490.0 20.0 350.0 
312.0005923698108 6057.0 NaN 1533.7875751503 1.662583879401111 488.0 22.0 347.0 
314.0005923698108 6052.0 NaN 1533.7849031396117 1.7221902094935595 485.0 25.0 344.0 
316.00008466603504 6032.0 NaN 1536.873747494991 1.5709288236176584 484.0 25.0 345.0 
318.0005923698108 6007.0 NaN 1539.9625918503662 1.5517867164004646 485.0 25.0 346.0 
320.00033353340314 5998.0 NaN 1539.9492317969275 1.577972983476751 486.0 23.0 348.0 
322.0005923698108 6007.0 NaN 1539.9358717434884 1.618324208036555 489.0 20.0 351.0 
324.0005923698108 5998.0 NaN 1539.9198396793572 1.58091815572761 486.0 22.0 349.0 
326.00008466603504 5994.0 NaN 1539.9331997328002 1.5387447551276403 484.0 25.0 346.0 
328.0005923698108 5986.0 NaN 1536.8630594522365 1.4993222875042471 483.0 25.0 345.0 
330.00033353340314 5982.0 NaN 1539.8931195724792 1.4344590046970513 483.0 25.0 346.0 
332.0005923698108 5994.0 NaN 1539.8663994656 1.4326421168115868 484.0 23.0 348.0 
334.0005923698108 5989.0 NaN 1539.8396793587183 1.3407689289840612 489.0 20.0 351.0 
336.00008466603504 6008.0 NaN 1539.8690714762845 1.381166165704949 486.0 22.0 349.0 
338.0005923698108 5998.0 NaN 1539.9625918503662 1.3400174559038003 484.0 25.0 346.0 
340.00033353340314 6008.0 NaN 1533.7849031396122 1.342017006258126 484.0 25.0 344.0 
342.0005923698108 6010.0 NaN 1533.736806947227 1.3466979144035667 484.0 25.0 344.0 
344.0005923698108 6023.0 NaN 1536.8122912491638 1.362720752317675 485.0 23.0 347.0 
346.00008466603504 6022.0 NaN 1536.753507014027 1.3284992970048493 489.0 20.0 350.0 
348.0005923698108 6005.0 NaN 1530.677354709418 1.3207021753849295 487.0 22.0 346.0 
350.00033353340314 6000.0 NaN 1527.6873747495001 1.3430265562277703 485.0 25.0 342.0 
352.0005923698108 6006.0 NaN 1524.5050100200394 1.339988939598203 490.0 25.0 341.0 
354.0005923698108 6005.0 NaN 1524.480961923846 1.3679523650380165 491.0 25.0 341.0 
356.00008466603504 6014.0 NaN 1524.4916499666 1.3682460242733843 491.0 23.0 343.0 
358.0005923698108 6010.0 NaN 1524.5156980627914 1.4177875729299902 493.0 20.0 346.0 
360.00033353340314 5995.0 NaN 1527.623246492985 1.4238687999929043 493.0 22.0 345.0 
362.0005923698108 6006.0 NaN 1527.5831663326642 1.4791508799523458 491.0 25.0 342.0 
364.0005923698108 6013.0 NaN 1524.5290581162333 1.5166436153572274 490.0 25.0 341.0 
366.00008466603504 6042.0 NaN 1512.2164328657304 1.4926037653629438 490.0 25.0 337.0 
368.0005923698108 6015.0 NaN 1506.1135604542424 1.4574112617457486 492.0 23.0 337.0 
370.00033353340314 6001.0 NaN 1512.2217768871083 1.449369170313281 495.0 20.0 342.0 
372.0005923698108 6011.0 NaN 1515.2972611890455 1.4476256974416475 494.0 22.0 341.0 
374.0005923698108 6019.0 NaN 1515.3132932531726 1.4314740892369544 492.0 25.0 338.0 
376.00008466603504 6026.0 NaN 1515.2945891783554 1.4473535511405482 493.0 24.0 339.0 
378.0005923698108 6029.0 NaN 1515.2438209752827 1.4367589405692256 494.0 24.0 339.0 
380.00033353340314 6038.0 NaN 1515.3587174348704 1.488012034525164 495.0 22.0 341.0 
382.0005923698108 6049.0 NaN 1515.3319973279902 1.548583801994685 498.0 19.0 344.0 
384.0005923698108 6040.0 NaN 1518.3486973947904 1.5774981216352608 498.0 21.0 343.0 
386.00008466603504 6033.0 NaN 1527.6392785571152 1.5443931106023774 496.0 25.0 342.0 
388.0005923698108 6029.0 NaN 1518.3994655978634 1.5999003186493639 494.0 25.0 339.0 
390.00033353340314 6027.0 NaN 1512.2805611222454 1.574950102014907 493.0 25.0 337.0 
392.0005923698108 6036.0 NaN 1518.4235136940545 1.5870206040518047 495.0 23.0 341.0 
394.0005923698108 6036.0 NaN 1518.3059452237817 1.5925289354008265 500.0 20.0 344.0 
396.00008466603504 6039.0 NaN 1518.3727454909817 1.6342197440409907 501.0 22.0 342.0 
398.0005923698108 6042.0 NaN 1515.3079492317975 1.6912807972257697 498.0 25.0 338.0 
400.00033353340314 6055.0 NaN 1518.3727454909817 1.7197902971442631 497.0 25.0 339.0 
402.0005923698108 6061.0 NaN 1518.3754175016702 1.743370064300731 497.0 25.0 339.0 
404.0005923698108 6049.0 NaN 1524.5504342017364 1.684090898402618 499.0 23.0 343.0 
406.00008466603504 6068.0 NaN 1527.6045424181702 1.7260255131569373 506.0 19.0 348.0 
408.0005923698108 6067.0 NaN 1533.7849031396122 1.5859404181408197 505.0 21.0 348.0 
410.00033353340314 6078.0 NaN 1533.750167000667 1.6642371848012794 501.0 25.0 344.0 
412.0005923698108 6080.0 NaN 1539.9545758183026 1.6485101537256936 500.0 25.0 346.0 
414.0005923698108 6073.0 NaN 1539.9171676686724 1.6859315724766568 498.0 29.0 342.0 
416.00008466603504 6077.0 NaN 1539.9331997328002 1.646682428834193 502.0 27.0 344.0 
418.0005923698108 6064.0 NaN 1539.8797595190367 1.517385627837697 506.0 24.0 347.0 
420.00033353340314 6063.0 NaN 1527.644622578491 1.540101283361995 499.0 32.0 335.0 
422.0005923698108 6079.0 NaN 1521.5898463593849 1.5926251650168222 494.0 36.0 329.0 
424.0005923698108 6066.0 NaN 1515.3132932531726 1.598956573883753 496.0 31.0 332.0 
426.00008466603504 6081.0 NaN 1527.6259185036733 1.7058249055816574 497.0 24.0 343.0 
428.0005923698108 6074.0 NaN 1515.3400133600544 1.7334676595609075 497.0 23.0 340.0 
430.00033353340314 6086.0 NaN 1515.3507014028062 1.7678445170730075 503.0 20.0 343.0 
432.0005923698108 6103.0 NaN 1512.2378089512365 1.7614442972412345 493.0 29.0 333.0 
434.0005923698108 6094.0 NaN 1515.2999331997335 1.8223414445200425 491.0 31.0 332.0 
436.00008466603504 6100.0 NaN 1527.615230460921 1.8029792291144608 489.0 35.0 332.0 
438.0005923698108 6113.0 NaN 1530.6239144956576 1.855053927754698 496.0 29.0 339.0 
440.00033353340314 6092.0 NaN 1533.7341349365392 1.8587238354037834 497.0 28.0 341.0 
442.0005923698108 6096.0 NaN 1533.7154308617244 1.863678550508898 501.0 25.0 344.0 
444.0005923698108 6090.0 NaN 1530.6826987307938 1.8601927725022873 496.0 32.0 336.0 
446.00008466603504 6051.0 NaN 1539.9171676686722 1.8228230633885754 497.0 35.0 336.0 
448.0005923698108 6044.0 NaN 1539.871743486973 1.7920437011373371 504.0 29.0 342.0 
450.00033353340314 6036.0 NaN 1542.8937875751515 1.725598161256264 505.0 28.0 344.0 
452.0005923698108 6052.0 NaN 1555.2144288577156 1.7011277708886896 509.0 24.0 352.0 
454.0005923698108 6053.0 NaN 1555.1716766867069 1.6632992045533985 509.0 23.0 353.0 
456.00008466603504 6037.0 NaN 1558.2952571810274 1.6395463150424108 506.0 27.0 350.0 
458.0005923698108 6033.0 NaN 1555.2277889111544 1.6405219737359624 504.0 30.0 346.0 
460.00033353340314 6029.0 NaN 1555.198396793588 1.6364489065795265 502.0 30.0 346.0 
462.0005923698108 6035.0 NaN 1555.198396793588 1.6280490120571631 503.0 30.0 346.0 
464.0005923698108 6030.0 NaN 1555.1503006012022 1.5876401664556707 505.0 28.0 348.0 
466.00008466603504 6028.0 NaN 1552.0908483633934 1.611113710185488 514.0 20.0 355.0 
468.0005923698108 6021.0 NaN 1552.0400801603205 1.5448078866123627 512.0 22.0 353.0 
470.00033353340314 6018.0 NaN 1555.1503006012022 1.5411009151659958 508.0 25.0 351.0 
472.0005923698108 6029.0 NaN 1548.9886439545753 1.609633224192519 505.0 25.0 349.0 
474.0005923698108 6025.0 NaN 1539.8156312625272 1.6094328011079455 501.0 25.0 346.0 
476.00008466603504 6027.0 NaN 1536.7134268537086 1.5188012320587374 500.0 23.0 347.0 
478.0005923698108 6018.0 NaN 1530.5784903139618 1.4535906386340454 504.0 20.0 348.0 
480.00033353340314 6016.0 NaN 1533.710086840346 1.4717469505757215 503.0 22.0 347.0 
482.0005923698108 6026.0 NaN 1533.7528390113548 1.4546691095371302 500.0 25.0 344.0 
484.0005923698108 6028.0 NaN 1524.5103540414175 1.4747493542649381 499.0 25.0 341.0 
486.00008466603504 6033.0 NaN 1521.4188376753516 1.5137094754056146 498.0 25.0 340.0 
488.0005923698108 6019.0 NaN 1515.318637274548 1.5347645441590123 495.0 23.0 340.0 
490.00033353340314 5989.0 NaN 1512.219104876419 1.459096727350702 499.0 21.0 341.0 
492.0005923698108 5992.0 NaN 1506.1108884435544 1.4468980883126743 498.0 23.0 337.0 
494.0005923698108 5990.0 NaN 1509.1917167668664 1.5055724192652489 495.0 25.0 336.0 
496.00008466603504 5976.0 NaN 1506.100200400801 1.4606741260585305 491.0 25.0 335.0 
498.0005923698108 5974.0 NaN 1503.0300601202393 1.497380023334038 492.0 25.0 334.0 
500.00033353340314 5968.0 NaN 1503.0434201736816 1.5530462686969597 488.0 23.0 336.0 
502.0005923698108 5977.0 NaN 1499.9545758183024 1.5921255434259522 493.0 21.0 337.0 
504.0005923698108 5977.0 NaN 1499.9946559786245 1.6365008500442388 494.0 23.0 335.0 
506.00008466603504 5979.0 NaN 1509.2772211088839 1.6671952525327696 487.0 29.0 332.0 
508.0005923698108 5957.0 NaN 1512.2511690046751 1.6352546630353872 489.0 29.0 333.0 
510.00033353340314 5920.0 NaN 1515.3961255845006 1.5956865442069101 495.0 26.0 337.0 
512.0005923698109 5930.0 NaN 1518.3647294589182 1.6633698272720852 491.0 28.0 336.0 
514.0005923698109 5927.0 NaN 1515.3026052104206 1.6735861791186415 494.0 26.0 337.0 
516.000084666035 5918.0 NaN 1506.0814963259847 1.641909269056158 493.0 28.0 332.0 
518.0005923698109 5909.0 NaN 1496.8977955911816 1.6241438176115692 486.0 31.0 326.0 
520.0003335334031 5914.0 NaN 1493.8009352037398 1.6647684432493164 486.0 30.0 326.0 
522.0005923698109 5930.0 NaN 1487.6740146960576 1.5484664354086275 487.0 30.0 324.0 
524.0005923698109 5945.0 NaN 1484.5718102872424 1.6116399720002645 485.0 27.0 326.0 
526.000084666035 5945.0 NaN 1469.221108884436 1.4486801458674161 493.0 20.0 328.0 
528.0005923698109 5939.0 NaN 1472.301937207748 1.4082310198020744 490.0 22.0 327.0 
530.0003335334031 5937.0 NaN 1475.3907815631271 1.3990675944703737 485.0 25.0 325.0 
532.0005923698109 5951.0 NaN 1475.3640614562453 1.4289428028226456 492.0 25.0 325.0 
534.0005923698109 5967.0 NaN 1481.5123580494333 1.501036897830447 488.0 30.0 322.0 
536.000084666035 5984.0 NaN 1484.6118904475625 1.5058557503820555 494.0 24.0 329.0 
538.0005923698109 5996.0 NaN 1484.5691382765538 1.4821406552415144 499.0 20.0 333.0 
540.0003335334031 5983.0 NaN 1484.577154308618 1.4157680818162746 498.0 22.0 331.0 
542.0005923698109 5990.0 NaN 1484.5931863727455 1.4675242714420897 494.0 26.0 327.0 
544.0005923698109 5997.0 NaN 1487.647294589179 1.5087342582216903 492.0 26.0 328.0 
546.000084666035 5997.0 NaN 1493.696726786908 1.5420406263051682 493.0 26.0 330.0 
548.0005923698109 5982.0 NaN 1493.849031396126 1.5180685691270503 497.0 23.0 333.0 
550.0003335334031 5964.0 NaN 1490.7174348697388 1.531860718025445 502.0 20.0 335.0 
552.0005923698109 5969.0 NaN 1490.7094188376745 1.5516811902701455 504.0 22.0 333.0 
554.0005923698109 6006.0 NaN 1496.8951235804936 1.5862099453231078 504.0 26.0 331.0 
556.000084666035 6008.0 NaN 1496.8790915163654 1.5682419416624944 501.0 28.0 329.0 
558.0005923698109 6010.0 NaN 1496.8122912491642 1.5092826143983817 497.0 32.0 325.0 
560.0003335334031 5998.0 NaN 1484.5450901803613 1.4727078852348348 499.0 28.0 325.0 
562.0005923698109 6001.0 NaN 1487.5297261189057 1.528663600067488 498.0 25.0 329.0 
564.0005923698109 6009.0 NaN 1487.5724782899122 1.5201287950733862 504.0 22.0 332.0 
566.000084666035 6029.0 NaN 1490.6826987307943 1.4745556313034347 497.0 29.0 326.0 
568.0005923698109 6036.0 NaN 1493.7608550434195 1.4518214714891566 492.0 33.0 323.0 
570.0003335334031 6039.0 NaN 1493.7768871075477 1.4294159803953106 494.0 33.0 323.0 
572.0005923698109 6043.0 NaN 1493.7287909151637 1.484640276329347 498.0 29.0 327.0 
574.0005923698109 6063.0 NaN 1493.7555110220446 1.556190942603438 501.0 26.0 330.0 
576.000084666035 6059.0 NaN 1506.0921843687365 1.5100404780308512 503.0 27.0 333.0 
578.0005923698109 6072.0 NaN 1503.0354041416172 1.5604657366624972 500.0 33.0 326.0 
580.0003335334031 6080.0 NaN 1502.9819639278546 1.5700150338023733 497.0 32.0 327.0 
582.0005923698109 6079.0 NaN 1499.887775551101 1.6084567159782646 498.0 32.0 326.0 
584.0005923698109 6088.0 NaN 1496.7828991315969 1.5790835599400779 508.0 23.0 334.0 
586.000084666035 6113.0 NaN 1496.7935871743475 1.6702720213544413 511.0 25.0 332.0 
588.0005923698109 6131.0 NaN 1496.822979291918 1.7745021391489026 508.0 28.0 329.0 
590.0003335334031 6144.0 NaN 1499.9492317969275 1.817739533702039 500.0 33.0 325.0 
592.0005923698109 6123.0 NaN 1506.0654642618563 1.8090374143798422 498.0 34.0 326.0 
594.0005923698109 6080.0 NaN 1509.1062124248485 1.8066576298834707 502.0 33.0 328.0 
596.000084666035 6092.0 NaN 1503.0140280561109 1.876110628869743 506.0 28.0 331.0 
598.0005923698109 6097.0 NaN 1493.81696726787 1.9565371220827152 510.0 25.0 331.0 
600.0003335334031 6124.0 NaN 1496.9271877087517 1.988924278177347 510.0 27.0 330.0 
602.0005923698109 6094.0 NaN 1490.7575150300606 1.9247429652266872 502.0 33.0 322.0 
604.0005923698109 6103.0 NaN 1490.8269873079485 1.9236554308770408 505.0 28.0 327.0 
606.000084666035 6124.0 NaN 1493.8677354709425 1.9391506483916867 503.0 32.0 324.0 
608.0005923698109 6139.0 NaN 1503.0728122912483 1.858859447224012 512.0 22.0 337.0 
610.0003335334031 6136.0 NaN 1509.1489645958575 1.8302845356115611 517.0 19.0 342.0 
612.0005923698109 6095.0 NaN 1506.1536406145635 1.7581526680880113 515.0 21.0 339.0 
614.0005923698109 6100.0 NaN 1506.1322645290575 1.7320994879924416 510.0 27.0 333.0 
616.000084666035 6107.0 NaN 1503.038076152306 1.6969885550173203 508.0 27.0 332.0 
618.0005923698109 6110.0 NaN 1499.9706078824304 1.665847803608217 508.0 27.0 331.0 
620.0003335334031 6171.0 NaN 1503.0728122912483 1.689766481131676 514.0 22.0 337.0 
622.0005923698109 6200.0 NaN 1509.2398129592525 1.663873040817807 513.0 23.0 338.0 
624.0005923698109 6180.0 NaN 1515.486973947897 1.6277765886119409 506.0 29.0 334.0 
626.000084666035 6179.0 NaN 1518.5597862391458 1.595919167934078 498.0 37.0 327.0 
628.0005923698109 6199.0 NaN 1518.5197060788253 1.5902455543754048 507.0 32.0 332.0 
630.0003335334031 6242.0 NaN 1518.5250501002 1.578083776239159 507.0 33.0 331.0 
632.0005923698109 6260.0 NaN 1521.6165664662644 1.6185413799416943 506.0 31.0 334.0 
634.0005923698109 6252.0 NaN 1530.8376753507007 1.63465980848629 510.0 30.0 338.0 
636.000084666035 6244.0 NaN 1530.736138944555 1.638120869984272 512.0 33.0 335.0 
638.0005923698109 6261.0 NaN 1536.9405477621908 1.6768609120138491 508.0 37.0 333.0 
640.0003335334031 6286.0 NaN 1533.7795591182362 1.7347345440790973 505.0 38.0 331.0 
642.0005923698109 6299.0 NaN 1536.8176352705425 1.742339589891096 503.0 39.0 331.0 
644.0005923698109 6304.0 NaN 1530.7094188376748 1.6520699451495915 506.0 34.0 334.0 
646.000084666035 6307.0 NaN 1530.688042752172 1.6614801224316482 505.0 34.0 334.0 
648.0005923698109 6288.0 NaN 1533.808951235806 1.6702936341161738 502.0 38.0 331.0 
650.0003335334031 6318.0 NaN 1530.7601870407475 1.6904132429655487 491.0 45.0 323.0 
652.0005923698109 6314.0 NaN 1530.7147628590524 1.7039862750707422 492.0 40.0 328.0 
654.0005923698109 6307.0 NaN 1530.746826987309 1.7401015952573182 494.0 39.0 329.0 
656.000084666035 6306.0 NaN 1530.7147628590524 1.7894443768450827 503.0 30.0 338.0 
658.0005923698109 6275.0 NaN 1533.7394789579164 1.7834641834688236 514.0 21.0 348.0 
660.0003335334031 6235.0 NaN 1543.0835003340007 1.7433540638098055 515.0 22.0 350.0 
662.0005923698109 6249.0 NaN 1546.0574482297918 1.8206890583396655 504.0 28.0 345.0 
664.0005923698109 6252.0 NaN 1546.0814963259845 1.879629278169096 503.0 26.0 347.0 
#####################################################################
# End of data export. Simulation finished at: 2019-03-05T12:28+0000 #
#####################################################################
