#####################################################################
# Alchemist log file - simulation started at: 2019-03-06T16:41+0000 #
#####################################################################
# seed = 4.0, bandwidth = 316227.76601683797, propagationDelay = 0.001, baserange = 100.0
#
# The columns have the following meaning: 
# time neighbor_count[Sum] <value>@neighbor_count[Sum] packet_size[Mean] mean_delay[Mean] crowd[Sum] overcrowded[Sum] risk[Sum] 
0.0 NaN NaN NaN NaN NaN NaN NaN 
2.000251233884813 13123.0 NaN 4996.483633934536 0.5007577905774145 1497.0 0.0 1497.0 
4.000276532106095 13126.0 NaN 4998.837675350702 0.5011472724692022 1492.0 5.0 1492.0 
6.000251233884813 13126.0 NaN 4996.125584502338 0.5011631173369498 1493.0 4.0 1493.0 
8.000276532106096 13126.0 NaN 4996.969939879759 0.5011524199436423 1489.0 8.0 1489.0 
10.000251233884812 13127.0 NaN 4995.991983967936 0.5012176463658373 1490.0 7.0 1490.0 
12.000276532106094 13125.0 NaN 4996.275217100869 0.5013343572701437 1488.0 9.0 1488.0 
14.000251233884812 13124.0 NaN 4995.674014696059 0.5011556646878612 1493.0 4.0 1493.0 
16.000276532106096 13143.0 NaN 4996.403473613895 0.5017778539820851 1493.0 4.0 1493.0 
18.000276532106096 13140.0 NaN 4995.393453573814 0.5015634116652434 1492.0 5.0 1492.0 
20.000276532106096 13143.0 NaN 4996.181696726787 0.5038974083023493 1494.0 3.0 1494.0 
22.000276532106096 13141.0 NaN 4995.628590514362 0.5013540633920952 1493.0 4.0 1493.0 
24.000276532106096 13140.0 NaN 4995.847695390781 0.5014066221337962 1493.0 4.0 1493.0 
26.000276532106096 13171.0 NaN 4995.185036740147 0.5025269671710579 1492.0 5.0 1492.0 
28.000276532106096 13178.0 NaN 4996.144288577154 0.5016340806398578 1491.0 6.0 1491.0 
30.000276532106096 13184.0 NaN 4995.054108216433 0.5010353255455322 1491.0 6.0 1491.0 
32.00027653210609 13187.0 NaN 4995.893119572478 0.5013497985371194 1494.0 3.0 1494.0 
34.00027653210609 13182.0 NaN 4995.160988643955 0.5009688454774401 1493.0 4.0 1493.0 
36.00027653210609 13216.0 NaN 4995.623246492986 0.5019507710001115 1492.0 5.0 1492.0 
38.00027653210609 13214.0 NaN 4995.040748162993 0.5037981797414324 1493.0 4.0 1493.0 
40.00027653210609 13201.0 NaN 4995.954575818303 0.5014136981191785 1493.0 4.0 1493.0 
42.00027653210609 13202.0 NaN 4994.784235136941 0.5014519008802799 1488.0 9.0 1488.0 
44.00027653210609 13205.0 NaN 4995.641950567802 0.5012789868901972 1487.0 10.0 1487.0 
46.00027653210609 13247.0 NaN 4995.20908483634 0.5029894660203059 1490.0 7.0 1490.0 
48.00027653210609 13247.0 NaN 4995.553774215097 0.5038467751242031 1488.0 9.0 1488.0 
50.00027653210609 13256.0 NaN 4994.957915831664 0.5045591291746627 1488.0 9.0 1488.0 
52.00027653210609 13253.0 NaN 4995.879759519038 0.5042924494168024 1489.0 8.0 1489.0 
54.00027653210609 13253.0 NaN 4994.864395457582 0.5009965000825247 1491.0 6.0 1491.0 
56.00027653210609 13293.0 NaN 4995.572478289913 0.5033573959393716 1491.0 6.0 1491.0 
58.00027653210609 13270.0 NaN 4995.12625250501 0.5028127414549675 1491.0 6.0 1491.0 
60.00027653210609 13251.0 NaN 4995.468269873079 0.5033472914225158 1492.0 5.0 1492.0 
62.00047933655907 13241.0 NaN 1523.3239812959268 0.5069622397767493 769.0 4.0 361.0 
64.00042902272939 13229.0 NaN 1523.1583166332662 0.5022601920269979 609.0 9.0 356.0 
66.00047933655907 13250.0 NaN 1525.8036072144278 0.5033424779107374 574.0 11.0 355.0 
68.00047933655907 13235.0 NaN 1525.9478957915821 0.5026210211154174 539.0 10.0 356.0 
70.00047933655907 13241.0 NaN 1525.9585838343364 0.5018847133516987 525.0 7.0 359.0 
72.00047933655907 13259.0 NaN 1529.0260521042092 0.5048612661598908 523.0 8.0 359.0 
74.00042902272939 13254.0 NaN 1531.9706078824302 0.5017531262971306 524.0 5.0 363.0 
76.00047933655907 13282.0 NaN 1532.0801603206426 0.5020194186432781 526.0 3.0 365.0 
78.00047933655907 13300.0 NaN 1535.0193720774882 0.5033780871652151 523.0 5.0 364.0 
80.00047933655907 13301.0 NaN 1538.1616566466275 0.5023491463497015 522.0 5.0 365.0 
82.00047933655907 13306.0 NaN 1538.0227120908482 0.5077283924698405 524.0 3.0 367.0 
84.00042902272939 13291.0 NaN 1538.0521042084179 0.5035675736256757 527.0 3.0 367.0 
86.00047933655907 13293.0 NaN 1537.9559118236457 0.5031951848700122 528.0 0.0 370.0 
88.00047933655907 13303.0 NaN 1538.150968603873 0.5064223698031036 526.0 2.0 368.0 
90.00047933655907 13305.0 NaN 1537.8650634602548 0.5029556499726059 525.0 3.0 367.0 
92.00047933655907 13287.0 NaN 1538.1189044756184 0.5086459365866892 526.0 2.0 368.0 
94.00042902272939 13238.0 NaN 1537.9505678022724 0.504104557649953 524.0 4.0 366.0 
96.00047933655907 13253.0 NaN 1538.0440881763543 0.5060047839620854 526.0 2.0 368.0 
98.00047933655907 13244.0 NaN 1537.8971275885092 0.5050209413022245 528.0 0.0 370.0 
100.00047933655907 13240.0 NaN 1541.1462925851704 0.5035002924043895 524.0 4.0 367.0 
102.00047933655907 13225.0 NaN 1540.929859719439 0.5070153818212265 526.0 2.0 369.0 
104.00042902272939 13207.0 NaN 1541.060788243154 0.5025209069521739 525.0 3.0 368.0 
106.00047933655907 13227.0 NaN 1540.9031396125577 0.5067728488163618 523.0 5.0 366.0 
108.00047933655907 13249.0 NaN 1540.9619238476937 0.5046996889920522 523.0 5.0 366.0 
110.00047933655907 13264.0 NaN 1540.9405477621908 0.5039393551446517 528.0 0.0 371.0 
112.00047933655907 13257.0 NaN 1541.1462925851706 0.506057429853055 525.0 3.0 368.0 
114.00042902272939 13246.0 NaN 1540.9405477621908 0.5032330940657768 522.0 6.0 365.0 
116.00047933655907 13245.0 NaN 1541.0501002003998 0.5049017368292735 524.0 5.0 366.0 
118.00047933655907 13274.0 NaN 1547.1449565798275 0.5062208941379194 525.0 5.0 368.0 
120.00047933655907 13293.0 NaN 1550.257849031397 0.5071727504698265 527.0 3.0 371.0 
122.00047933655907 13270.0 NaN 1550.209752839009 0.5036403432260966 528.0 2.0 372.0 
124.00042902272939 13263.0 NaN 1550.3406813627273 0.5025020451727822 528.0 2.0 372.0 
126.00047933655907 13282.0 NaN 1550.140280561121 0.5030800467280149 528.0 2.0 372.0 
128.00047933655907 13294.0 NaN 1547.2037408149638 0.5043036762799898 528.0 2.0 371.0 
130.00047933655907 13280.0 NaN 1547.1422845691366 0.5044919534215909 527.0 2.0 371.0 
132.00047933655907 13271.0 NaN 1544.1843687374726 0.5055063696147798 524.0 3.0 369.0 
134.0004290227294 13239.0 NaN 1540.9779559118244 0.5032349083660611 525.0 2.0 369.0 
136.00047933655907 13240.0 NaN 1541.1917167668669 0.5025896702010895 521.0 5.0 366.0 
138.00047933655907 13233.0 NaN 1543.9545758183028 0.5018906964008142 517.0 8.0 364.0 
140.00047933655907 13274.0 NaN 1541.098196392785 0.5027258375350241 520.0 4.0 367.0 
142.00047933655907 13275.0 NaN 1547.2304609218452 0.5046328436923523 520.0 4.0 369.0 
144.0004290227294 13250.0 NaN 1550.3700734802937 0.5028873011853898 524.0 2.0 372.0 
146.00047933655907 13245.0 NaN 1547.1422845691366 0.5045158431926151 522.0 3.0 370.0 
148.00047933655907 13235.0 NaN 1553.5577822311272 0.5039651974087737 518.0 6.0 369.0 
150.00047933655907 13258.0 NaN 1553.3253173012697 0.5057697633617668 519.0 4.0 371.0 
152.00047933655907 13227.0 NaN 1550.3486973947909 0.5089433430396454 519.0 5.0 369.0 
154.0004290227294 13203.0 NaN 1544.181696726788 0.5044923496315573 513.0 8.0 364.0 
156.00047933655907 13216.0 NaN 1544.2645290581183 0.502238492837539 514.0 6.0 366.0 
158.00047933655907 13203.0 NaN 1544.1549766199062 0.5056518607080279 513.0 8.0 364.0 
160.00047933655907 13219.0 NaN 1544.269873079491 0.5037907461861991 514.0 7.0 365.0 
162.00047933655907 13189.0 NaN 1544.0053440213758 0.5053014224589778 516.0 4.0 368.0 
164.0004290227294 13173.0 NaN 1544.2137608550454 0.5034884625469583 509.0 10.0 362.0 
166.00047933655907 13173.0 NaN 1544.1336005344 0.5025939866290131 508.0 10.0 362.0 
168.00047933655907 13167.0 NaN 1544.1816967267878 0.5045920930601915 514.0 5.0 367.0 
170.00047933655907 13174.0 NaN 1544.106880427521 0.5036207312302887 513.0 6.0 366.0 
172.00047933655907 13146.0 NaN 1544.3072812291252 0.503700956218603 512.0 8.0 364.0 
174.0004290227294 13121.0 NaN 1537.8864395457572 0.5033329731350915 509.0 9.0 361.0 
176.00047933655907 13116.0 NaN 1541.1436205744817 0.5034094895579845 509.0 10.0 361.0 
178.00047933655907 13110.0 NaN 1541.0073480293909 0.5060475847685929 513.0 6.0 365.0 
180.00047933655907 13125.0 NaN 1541.1516366065453 0.5031283114948503 515.0 5.0 366.0 
182.00047933655907 13107.0 NaN 1538.0200400801612 0.5055845099996426 512.0 7.0 363.0 
184.0004290227294 13078.0 NaN 1538.1189044756184 0.503138284750383 511.0 7.0 363.0 
186.00047933655907 13071.0 NaN 1540.956579826318 0.5020034944009032 512.0 6.0 365.0 
188.00047933655907 13072.0 NaN 1538.0334001335998 0.5044760308792199 507.0 11.0 359.0 
190.00047933655907 13097.0 NaN 1534.8884435537727 0.5026258615268194 507.0 10.0 359.0 
192.00047933655907 13088.0 NaN 1537.9665998664002 0.5020554210032966 508.0 9.0 361.0 
194.0004290227294 13074.0 NaN 1537.9318637274544 0.5021229219457489 508.0 10.0 360.0 
196.00047933655907 13071.0 NaN 1538.0334001335998 0.5042032101100333 508.0 10.0 360.0 
198.00047933655907 13061.0 NaN 1537.8517034068154 0.5063040638904812 508.0 10.0 360.0 
200.00047933655907 13065.0 NaN 1537.9639278557092 0.5068094235961743 508.0 10.0 360.0 
202.00047933655907 13040.0 NaN 1544.2297929191727 0.5094122743721895 510.0 9.0 363.0 
204.0004290227294 12993.0 NaN 1547.2758851035392 0.5094767933301728 511.0 9.0 364.0 
206.00047933655907 13005.0 NaN 1544.2004008016024 0.509596450112464 510.0 9.0 363.0 
208.00047933655907 12983.0 NaN 1538.0814963259847 0.5061072345105665 510.0 9.0 361.0 
210.00047933655907 12985.0 NaN 1537.9826319305273 0.5078266485942055 509.0 8.0 362.0 
212.00047933655907 12953.0 NaN 1538.0708082832339 0.5052426085519856 509.0 9.0 361.0 
214.0004290227294 12924.0 NaN 1541.036740146961 0.5034587584517821 507.0 11.0 360.0 
216.00047933655907 12939.0 NaN 1537.902471609888 0.5079573135810742 510.0 7.0 363.0 
218.00047933655907 12898.0 NaN 1537.9425517702089 0.5067210618040195 510.0 4.0 366.0 
220.00047933655907 12891.0 NaN 1538.0681362725456 0.507276270186382 509.0 5.0 365.0 
222.00047933655907 12866.0 NaN 1534.8911155644635 0.5043532872215494 511.0 3.0 366.0 
224.0004290227294 12843.0 NaN 1534.8697394789574 0.5039154002324107 511.0 3.0 366.0 
226.00047933655907 12864.0 NaN 1537.9425517702089 0.5041179704637228 509.0 5.0 365.0 
228.00047933655907 12874.0 NaN 1544.0587842351363 0.5069674450033745 511.0 5.0 367.0 
230.00047933655907 12858.0 NaN 1544.0908483633934 0.5050905471389051 510.0 6.0 366.0 
232.00047933655907 12837.0 NaN 1544.221776887109 0.5058330263016437 508.0 7.0 365.0 
234.0004290227294 12820.0 NaN 1547.083500334 0.5040874215835883 509.0 6.0 367.0 
236.00047933655907 12829.0 NaN 1541.0501002003998 0.5063344311382514 509.0 5.0 366.0 
238.00047933655907 12821.0 NaN 1540.9352037408157 0.5089285553457683 509.0 5.0 366.0 
240.00047933655907 12799.0 NaN 1537.9372077488301 0.5107980663902788 510.0 4.0 366.0 
242.00047933655907 12779.0 NaN 1534.7628590514364 0.5061403451326889 507.0 6.0 363.0 
244.0004290227294 12753.0 NaN 1534.86706746827 0.5052792929254054 508.0 7.0 362.0 
246.00047933655907 12761.0 NaN 1534.7014028056092 0.5064279097711023 510.0 5.0 364.0 
248.00047933655907 12740.0 NaN 1534.8537074148294 0.5059171213014054 509.0 5.0 364.0 
250.00047933655907 12745.0 NaN 1534.8483633934547 0.504527918049332 508.0 7.0 362.0 
252.00047933655907 12733.0 NaN 1531.6847027388094 0.5081870987216663 506.0 7.0 361.0 
254.0004290227294 12689.0 NaN 1528.633266533066 0.5030935351447688 508.0 5.0 362.0 
256.00047933655907 12720.0 NaN 1528.6653306613216 0.5045848034690156 510.0 5.0 362.0 
258.00047933655907 12714.0 NaN 1528.5477621910482 0.5082196011213902 511.0 4.0 363.0 
260.00047933655907 12707.0 NaN 1528.6893787575154 0.5036506198204559 511.0 5.0 362.0 
262.00047933655907 12723.0 NaN 1528.6680026720094 0.5067646018665555 509.0 7.0 360.0 
264.0004290227294 12700.0 NaN 1528.5183700734817 0.5035811795673194 513.0 3.0 364.0 
266.00047933655907 12722.0 NaN 1544.048096192384 0.5055998822774519 509.0 5.0 367.0 
268.00047933655907 12707.0 NaN 1544.0748162992638 0.5072839197501754 508.0 6.0 366.0 
270.00047933655907 12708.0 NaN 1540.988643954575 0.5121987798147576 511.0 3.0 368.0 
272.00047933655907 12696.0 NaN 1534.717434869739 0.5115499219339731 510.0 3.0 366.0 
274.0004290227294 12661.0 NaN 1534.7922511690058 0.5089284091037991 507.0 5.0 364.0 
276.00047933655907 12670.0 NaN 1537.8623914495638 0.5089125719557795 511.0 3.0 367.0 
278.00047933655907 12628.0 NaN 1540.9485637942544 0.5048323066758438 508.0 5.0 366.0 
280.00047933655907 12622.0 NaN 1540.9699398797611 0.5088445051627971 511.0 4.0 367.0 
282.00047933655907 12618.0 NaN 1540.7882431529729 0.5091431052585598 514.0 3.0 368.0 
284.0004290227294 12592.0 NaN 1534.7014028056092 0.5058250406213902 512.0 4.0 365.0 
286.00047933655907 12608.0 NaN 1534.7548430193729 0.5074086447595726 511.0 4.0 365.0 
288.00047933655907 12583.0 NaN 1534.677354709418 0.5065112461662311 511.0 3.0 366.0 
290.00047933655907 12552.0 NaN 1531.644622578491 0.5085247769279321 506.0 5.0 363.0 
292.00047933655907 12545.0 NaN 1531.6820307281246 0.5077028305826002 506.0 6.0 362.0 
294.0004290227294 12509.0 NaN 1537.7314629258524 0.5056048620802999 504.0 8.0 362.0 
296.00047933655907 12522.0 NaN 1537.851703406816 0.5078789008921852 503.0 9.0 361.0 
298.00047933655907 12503.0 NaN 1540.8764195056795 0.5076442286904848 507.0 5.0 366.0 
300.00047933655907 12488.0 NaN 1540.8684034736157 0.506284398791794 501.0 10.0 361.0 
302.00047933655907 12472.0 NaN 1537.7955911823633 0.5070730514317467 507.0 4.0 366.0 
304.0004290227294 12449.0 NaN 1537.7795591182362 0.5091282345886438 500.0 9.0 361.0 
306.00047933655907 12464.0 NaN 1534.7521710086817 0.5066514304434185 507.0 3.0 366.0 
308.00047933655907 12436.0 NaN 1531.7461589846364 0.5086858321043682 500.0 9.0 359.0 
310.00047933655907 12438.0 NaN 1531.7221108884453 0.5044329661710495 505.0 4.0 364.0 
312.00047933655907 12442.0 NaN 1534.7441549766183 0.5067235323938124 501.0 8.0 361.0 
314.0004290227294 12440.0 NaN 1534.8189712758842 0.503981120631872 503.0 8.0 361.0 
316.00047933655907 12448.0 NaN 1534.8537074148294 0.5073900446781672 497.0 15.0 354.0 
318.00047933655907 12418.0 NaN 1534.8670674682703 0.5050455705103271 504.0 7.0 362.0 
320.00047933655907 12433.0 NaN 1534.6559786239154 0.5042340357212934 499.0 12.0 357.0 
322.00047933655907 12431.0 NaN 1531.7862391449548 0.5065983649814292 502.0 8.0 360.0 
324.0004290227294 12407.0 NaN 1531.660654642618 0.5038411937212712 498.0 12.0 356.0 
326.00047933655907 12423.0 NaN 1531.7194388777543 0.5070003476476267 501.0 9.0 359.0 
328.00047933655907 12407.0 NaN 1534.6720106880427 0.5104343525155647 496.0 14.0 355.0 
330.00047933655907 12410.0 NaN 1528.6653306613216 0.5053748722017185 501.0 7.0 360.0 
332.00047933655907 12404.0 NaN 1528.6118904475634 0.5070830588890265 499.0 9.0 358.0 
334.0004290227294 12380.0 NaN 1534.8510354041425 0.5040234954934745 502.0 8.0 361.0 
336.00047933655907 12407.0 NaN 1525.5123580494333 0.5045355449259245 502.0 8.0 358.0 
338.00047933655907 12398.0 NaN 1525.560454241818 0.5057814940257577 501.0 9.0 357.0 
340.00047933655907 12426.0 NaN 1525.4909819639272 0.5073719242687089 501.0 10.0 356.0 
342.00047933655907 12432.0 NaN 1525.5577822311277 0.5056598184628764 505.0 8.0 358.0 
344.0004290227294 12420.0 NaN 1531.5591182364726 0.5063551996727186 503.0 13.0 355.0 
346.00047933655907 12426.0 NaN 1534.859051436206 0.5054292330342226 507.0 9.0 360.0 
348.00047933655907 12416.0 NaN 1531.596526386106 0.5036348449589589 501.0 14.0 354.0 
350.00047933655907 12447.0 NaN 1525.5845023380089 0.5053223480818414 505.0 8.0 358.0 
352.00047933655907 12460.0 NaN 1525.469605878424 0.5105181256595664 503.0 13.0 353.0 
354.0004290227294 12419.0 NaN 1525.4749498998 0.5059366655045003 507.0 8.0 358.0 
356.00047933655907 12435.0 NaN 1525.4749498998 0.506836306711552 500.0 14.0 352.0 
358.00047933655907 12423.0 NaN 1525.552438209754 0.5046289933786637 504.0 10.0 356.0 
360.00047933655907 12421.0 NaN 1525.333333333334 0.5081982082602631 501.0 13.0 353.0 
362.00047933655907 12421.0 NaN 1525.4215096860385 0.5138070637763994 508.0 8.0 358.0 
364.0004290227294 12398.0 NaN 1525.4188376753514 0.5083554625552003 499.0 16.0 350.0 
366.00047933655907 12409.0 NaN 1516.31529726119 0.5066118490569104 507.0 8.0 355.0 
368.00047933655907 12405.0 NaN 1510.0975283901125 0.5059401388463705 501.0 14.0 347.0 
370.00047933655907 12394.0 NaN 1507.0567802271205 0.5099574259566485 509.0 8.0 352.0 
372.00047933655907 12379.0 NaN 1510.0708082832339 0.510688032502286 500.0 16.0 345.0 
374.0004290227294 12328.0 NaN 1506.9472277889101 0.5091879233249067 509.0 9.0 351.0 
376.00047933655907 12343.0 NaN 1506.899131596527 0.5075255709541314 502.0 15.0 345.0 
378.00047933655907 12304.0 NaN 1506.901803607215 0.504235836957951 512.0 7.0 353.0 
380.00047933655907 12322.0 NaN 1506.8456913827647 0.5072679623892854 505.0 15.0 345.0 
382.00047933655907 12334.0 NaN 1510.0227120908478 0.5108629761439133 510.0 8.0 353.0 
384.0004290227294 12298.0 NaN 1513.031396125584 0.5044804663327209 503.0 15.0 347.0 
386.00047933655907 12312.0 NaN 1516.168336673346 0.5088012807963499 510.0 10.0 353.0 
388.00047933655907 12285.0 NaN 1516.1736806947242 0.5090074622282523 505.0 15.0 348.0 
390.00047933655907 12295.0 NaN 1510.0895123580485 0.5110946924638723 513.0 8.0 353.0 
392.00047933655907 12308.0 NaN 1510.0521042084176 0.5127659410277834 505.0 14.0 347.0 
394.0004290227294 12264.0 NaN 1510.1135604542426 0.5034088032144755 509.0 9.0 352.0 
396.00047933655907 12293.0 NaN 1513.0848363393457 0.5066856269416379 504.0 15.0 347.0 
398.00047933655907 12288.0 NaN 1507.0033400133607 0.5046935488436628 513.0 8.0 352.0 
400.00047933655907 12281.0 NaN 1503.8904475617908 0.5042534113096085 504.0 16.0 343.0 
402.00047933655907 12291.0 NaN 1510.1670006680024 0.5077229875183851 512.0 9.0 352.0 
404.0004290227294 12266.0 NaN 1506.8964595858372 0.502727180379016 505.0 16.0 344.0 
406.00047933655907 12293.0 NaN 1510.196392785572 0.5062000236392462 511.0 11.0 350.0 
408.00047933655907 12279.0 NaN 1513.213092852372 0.5077144653076079 508.0 14.0 348.0 
410.00047933655907 12305.0 NaN 1516.288577154309 0.5042237264751537 513.0 9.0 354.0 
412.00047933655907 12311.0 NaN 1522.4555778223098 0.5109550908329975 511.0 11.0 354.0 
414.0004290227294 12280.0 NaN 1522.535738142954 0.5037488699453042 513.0 9.0 356.0 
416.00047933655907 12302.0 NaN 1519.2812291249174 0.5033591698689183 513.0 11.0 353.0 
418.00047933655907 12295.0 NaN 1513.2264529058114 0.503620135282882 509.0 10.0 352.0 
420.00047933655907 12302.0 NaN 1510.0601202404816 0.5059212422170473 507.0 9.0 352.0 
422.00047933655907 12311.0 NaN 1513.2398129592523 0.5086970862374546 505.0 12.0 350.0 
424.0004290227294 12291.0 NaN 1510.076152304609 0.501010423689099 509.0 10.0 351.0 
426.00047933655907 12325.0 NaN 1510.0975283901123 0.5052728409457151 505.0 11.0 350.0 
428.00047933655907 12312.0 NaN 1512.9859719438887 0.504070833020766 507.0 10.0 352.0 
430.00047933655907 12331.0 NaN 1507.0888443553788 0.5083515832427487 516.0 8.0 352.0 
432.00047933655907 12333.0 NaN 1513.108884435537 0.5110537798287801 514.0 10.0 352.0 
434.0004290227294 12308.0 NaN 1519.401469605879 0.5035104084738026 516.0 10.0 354.0 
436.00047933655907 12326.0 NaN 1522.45557782231 0.5079457540384544 509.0 16.0 349.0 
438.00047933655907 12308.0 NaN 1525.5257181028728 0.5065295838017801 515.0 11.0 355.0 
440.00047933655907 12311.0 NaN 1528.513026052103 0.5082495260678787 513.0 14.0 353.0 
442.00047933655907 12288.0 NaN 1528.598530394121 0.507584957646735 519.0 9.0 358.0 
444.0004290227294 12260.0 NaN 1525.3092852371426 0.5032296082585991 515.0 12.0 354.0 
446.00047933655907 12277.0 NaN 1519.289245156982 0.5071786408387667 517.0 9.0 355.0 
448.00047933655907 12254.0 NaN 1537.6726786907152 0.5105684582300443 516.0 10.0 360.0 
450.00047933655907 12264.0 NaN 1547.0915163660638 0.5045718297901585 519.0 9.0 364.0 
452.00047933655907 12276.0 NaN 1549.9746158984635 0.5111840881165889 516.0 11.0 363.0 
454.0004290227294 12240.0 NaN 1550.18303273213 0.5056638876509625 518.0 9.0 365.0 
456.00047933655907 12259.0 NaN 1549.9879759519029 0.5053241857268047 516.0 9.0 365.0 
458.00047933655907 12247.0 NaN 1550.076152304609 0.5045232926833527 517.0 8.0 366.0 
460.00047933655907 12258.0 NaN 1546.9392117568457 0.5069840876357335 513.0 11.0 362.0 
462.00047933655907 12251.0 NaN 1543.893119572479 0.5114037282233316 514.0 8.0 364.0 
464.0004290227294 12218.0 NaN 1543.8129592518362 0.5071693683695101 512.0 11.0 361.0 
466.00047933655907 12259.0 NaN 1543.9278557114237 0.5056455591999434 516.0 9.0 363.0 
468.00047933655907 12248.0 NaN 1543.6927187708748 0.5087632133176985 515.0 9.0 363.0 
470.00047933655907 12246.0 NaN 1543.9171676686724 0.5058167102235235 516.0 9.0 363.0 
472.00047933655907 12217.0 NaN 1540.705410821645 0.5060696614255352 516.0 9.0 362.0 
474.0004290227294 12213.0 NaN 1531.5591182364726 0.5041618139814658 513.0 8.0 360.0 
476.00047933655907 12233.0 NaN 1522.2017368069462 0.5062958046908309 510.0 10.0 355.0 
478.00047933655907 12211.0 NaN 1522.3567134268546 0.5081543713569089 514.0 7.0 358.0 
480.00047933655907 12214.0 NaN 1525.2130928523723 0.5064810898551413 510.0 10.0 356.0 
482.00047933655907 12215.0 NaN 1525.410821643288 0.5092207338917845 511.0 9.0 357.0 
484.0004290227294 12191.0 NaN 1525.3012692050756 0.5087186877008417 508.0 11.0 355.0 
486.00047933655907 12200.0 NaN 1513.1275885103548 0.5124462614808387 508.0 9.0 353.0 
488.00047933655907 12168.0 NaN 1506.8483633934543 0.5047196538572286 506.0 10.0 350.0 
490.00047933655907 12180.0 NaN 1491.690046760188 0.5082510573193787 506.0 9.0 346.0 
492.00047933655907 12160.0 NaN 1491.5404141616557 0.506077799513069 501.0 11.0 344.0 
494.0004290227294 12155.0 NaN 1494.7067468269881 0.5042417607336326 502.0 8.0 348.0 
496.00047933655907 12202.0 NaN 1494.5838343353366 0.5070061070672767 498.0 9.0 347.0 
498.00047933655907 12186.0 NaN 1491.5591182364726 0.5074887460959903 498.0 9.0 346.0 
500.00047933655907 12203.0 NaN 1482.3193052772203 0.5041049076082919 501.0 11.0 341.0 
502.00047933655907 12182.0 NaN 1482.3780895123573 0.5075054651872929 501.0 11.0 341.0 
504.0004290227294 12187.0 NaN 1485.2852371409479 0.5072003212124646 502.0 10.0 343.0 
506.00047933655907 12226.0 NaN 1494.7147628590524 0.5048870712225414 505.0 9.0 347.0 
508.00047933655907 12218.0 NaN 1485.3653974615904 0.5113937351633043 500.0 11.0 342.0 
510.00047933655907 12221.0 NaN 1491.660654642618 0.5038054946564007 502.0 10.0 345.0 
512.000479336559 12202.0 NaN 1491.5323981295917 0.507688218532736 502.0 10.0 345.0 
514.0004290227293 12199.0 NaN 1479.3747494989989 0.5053239936313653 503.0 8.0 343.0 
516.000479336559 12222.0 NaN 1476.093520374082 0.5076180870434063 499.0 10.0 340.0 
518.000479336559 12220.0 NaN 1460.9111556446214 0.5023543487533482 498.0 9.0 336.0 
520.000479336559 12244.0 NaN 1460.7615230460915 0.5037839943290675 498.0 9.0 336.0 
522.000479336559 12266.0 NaN 1460.7054108216444 0.5040050390424519 497.0 8.0 337.0 
524.0004290227293 12270.0 NaN 1463.7595190380755 0.502827515650899 493.0 9.0 337.0 
526.000479336559 12332.0 NaN 1454.7548430193726 0.5058670128889435 494.0 7.0 336.0 
528.000479336559 12320.0 NaN 1451.4869739478968 0.5093201149366182 490.0 9.0 333.0 
530.000479336559 12335.0 NaN 1451.5965263861062 0.5050381806771645 492.0 9.0 333.0 
532.000479336559 12334.0 NaN 1460.7989311957253 0.5048379763726529 491.0 10.0 335.0 
534.0004290227293 12345.0 NaN 1460.8283233132927 0.5053216964218442 489.0 9.0 336.0 
536.000479336559 12385.0 NaN 1457.7448229792915 0.5101878934592156 492.0 9.0 335.0 
538.000479336559 12370.0 NaN 1460.9458917835664 0.5101643256679637 492.0 9.0 336.0 
540.000479336559 12370.0 NaN 1463.893119572479 0.5076598493656298 492.0 11.0 335.0 
542.000479336559 12337.0 NaN 1470.1402805611212 0.5119453243806961 493.0 11.0 337.0 
544.0004290227293 12316.0 NaN 1473.1222444889784 0.5106734091194757 498.0 9.0 340.0 
546.000479336559 12332.0 NaN 1470.0334001336 0.5080619288959156 496.0 11.0 337.0 
548.000479336559 12311.0 NaN 1466.901803607215 0.5101739432335957 498.0 10.0 337.0 
550.000479336559 12308.0 NaN 1467.0781563126259 0.51003628389268 498.0 11.0 336.0 
552.000479336559 12291.0 NaN 1466.901803607215 0.5117717959957603 498.0 9.0 338.0 
554.0004290227293 12297.0 NaN 1467.0273881095532 0.5046880337777985 496.0 11.0 336.0 
556.000479336559 12334.0 NaN 1466.9365397461584 0.5104455236717464 497.0 11.0 336.0 
558.000479336559 12294.0 NaN 1466.9766199064804 0.50737000261613 500.0 9.0 338.0 
560.000479336559 12306.0 NaN 1457.7234468937875 0.5082209044361915 489.0 13.0 331.0 
562.000479336559 12323.0 NaN 1457.8329993319971 0.5079501478883677 489.0 14.0 330.0 
564.0004290227293 12350.0 NaN 1454.60788243153 0.5068103941579647 486.0 16.0 327.0 
566.000479336559 12368.0 NaN 1460.903139612559 0.5088284982968312 489.0 15.0 330.0 
568.000479336559 12352.0 NaN 1482.3593854375422 0.5086183316421764 491.0 15.0 337.0 
570.000479336559 12342.0 NaN 1482.4983299933192 0.5085715863023859 491.0 15.0 337.0 
572.000479336559 12339.0 NaN 1479.286573146292 0.5077188973713016 492.0 14.0 337.0 
574.0004290227293 12342.0 NaN 1476.3072812291252 0.5073358753854833 496.0 8.0 342.0 
576.000479336559 12367.0 NaN 1482.354041416165 0.512842118331356 494.0 10.0 342.0 
578.000479336559 12332.0 NaN 1479.4068136272545 0.5085233681483972 492.0 14.0 337.0 
580.000479336559 12330.0 NaN 1485.4509018036078 0.5104616577009274 483.0 24.0 329.0 
582.000479336559 12307.0 NaN 1485.6432865731458 0.5088654367213964 485.0 23.0 330.0 
584.0004290227293 12315.0 NaN 1488.5130260521032 0.5110512187159512 494.0 14.0 340.0 
586.000479336559 12375.0 NaN 1485.6352705410818 0.5114195690936403 506.0 9.0 344.0 
588.000479336559 12340.0 NaN 1485.4161656646634 0.5057141421467363 507.0 11.0 342.0 
590.000479336559 12362.0 NaN 1488.6573146292576 0.5080382413859207 506.0 14.0 340.0 
592.000479336559 12341.0 NaN 1488.598530394121 0.5067998554858396 504.0 17.0 337.0 
594.0004290227293 12346.0 NaN 1491.6953907815637 0.5059556006432757 507.0 16.0 339.0 
596.000479336559 12378.0 NaN 1488.5183700734808 0.5072214248523895 512.0 16.0 338.0 
598.000479336559 12351.0 NaN 1488.601202404809 0.5038070118423194 518.0 10.0 344.0 
600.000479336559 12356.0 NaN 1491.6125584502345 0.5123000417872786 519.0 9.0 346.0 
602.000479336559 12360.0 NaN 1500.8977955911816 0.5108667290338536 517.0 13.0 345.0 
604.0004290227293 12375.0 NaN 1497.8116232464922 0.5084792228305332 512.0 17.0 340.0 
606.000479336559 12390.0 NaN 1500.9004676018715 0.5058290256123117 510.0 17.0 341.0 
608.000479336559 12378.0 NaN 1507.019372077489 0.5050013580713301 511.0 14.0 346.0 
610.000479336559 12437.0 NaN 1513.2505010020031 0.5073031609872134 514.0 11.0 351.0 
612.000479336559 12481.0 NaN 1510.121576486307 0.507107241037216 511.0 15.0 346.0 
614.0004290227293 12474.0 NaN 1506.9365397461581 0.5050413573188974 512.0 14.0 346.0 
616.000479336559 12477.0 NaN 1507.040748162992 0.506464307909914 515.0 11.0 349.0 
618.000479336559 12470.0 NaN 1504.0160320641273 0.5072764939047717 511.0 15.0 344.0 
620.000479336559 12507.0 NaN 1513.1649966599878 0.5043172170460125 505.0 21.0 341.0 
622.000479336559 12521.0 NaN 1525.6619906479636 0.5086634825231606 515.0 12.0 354.0 
624.0004290227293 12486.0 NaN 1522.3486973947902 0.5043454335836285 511.0 13.0 352.0 
626.000479336559 12507.0 NaN 1525.5711422845698 0.5106359717722615 512.0 13.0 353.0 
628.000479336559 12484.0 NaN 1525.4001336005356 0.5071024670091194 515.0 10.0 356.0 
630.000479336559 12495.0 NaN 1519.4362057448243 0.5069587966189663 507.0 15.0 349.0 
632.000479336559 12481.0 NaN 1522.3754175016704 0.507456772529634 502.0 19.0 346.0 
634.0004290227293 12452.0 NaN 1519.4415497662 0.5068801528695955 509.0 12.0 352.0 
636.000479336559 12484.0 NaN 1522.3727454909817 0.5083525911971675 510.0 17.0 348.0 
638.000479336559 12435.0 NaN 1519.3373413493648 0.5026694233098322 504.0 26.0 338.0 
640.000479336559 12458.0 NaN 1522.3861055444213 0.5058924718003143 513.0 17.0 348.0 
642.000479336559 12465.0 NaN 1525.6138944555785 0.506886955564437 509.0 22.0 344.0 
644.0004290227293 12425.0 NaN 1522.2792251169 0.5042699788358229 503.0 27.0 338.0 
646.000479336559 12451.0 NaN 1519.486973947897 0.5097088716260335 510.0 17.0 347.0 
648.000479336559 12406.0 NaN 1525.4402137608542 0.5043144620629247 513.0 11.0 355.0 
650.000479336559 12426.0 NaN 1522.5891783567122 0.5096868387297518 505.0 15.0 350.0 
652.000479336559 12423.0 NaN 1525.6032064128262 0.5134829201108967 509.0 12.0 354.0 
654.0004290227293 12362.0 NaN 1525.5444221776897 0.5037911065607605 505.0 15.0 351.0 
656.000479336559 12406.0 NaN 1534.682698730794 0.5106698419289053 498.0 21.0 348.0 
658.000479336559 12375.0 NaN 1544.1790247161 0.501890052769459 508.0 10.0 362.0 
660.000479336559 12390.0 NaN 1544.0106880427527 0.5052347296542554 508.0 9.0 363.0 
662.000479336559 12399.0 NaN 1544.04008016032 0.5079506037999062 508.0 8.0 364.0 
664.0004290227293 12370.0 NaN 1540.9245156980637 0.5048503797480505 506.0 9.0 362.0 
#####################################################################
# End of data export. Simulation finished at: 2019-03-06T16:51+0000 #
#####################################################################
