#####################################################################
# Alchemist log file - simulation started at: 2019-03-02T02:27+0000 #
#####################################################################
# seed = 0.0, bandwidth = 74989.42093324558, propagationDelay = 0.0031622776601683794, baserange = 562.341325190349
#
# The columns have the following meaning: 
# time neighbor_count[Sum] <value>@neighbor_count[Sum] packet_size[Mean] mean_delay[Mean] crowd[Sum] overcrowded[Sum] risk[Sum] 
0.0 NaN NaN NaN NaN NaN NaN NaN 
10.000088706975577 98210.0 NaN 4995.639278557114 0.4999177224511731 1496.0 1.0 1496.0 
20.00024872954744 98265.0 NaN 4995.730126920507 0.5007980652292388 1497.0 0.0 1497.0 
30.000088706975582 98352.0 NaN 4996.269873079493 0.5024935649846413 1497.0 0.0 1497.0 
40.00024872954744 98448.0 NaN 4996.165664662659 0.5014110464601275 1497.0 0.0 1497.0 
50.000088706975575 98493.0 NaN 4995.7541750167 0.5037880438398981 1495.0 2.0 1495.0 
60.000088706975575 98612.0 NaN 4996.069472277889 0.5021959140038154 1497.0 0.0 1497.0 
70.00008870697559 98674.0 NaN 1528.8871075484296 0.5028241387616036 533.0 2.0 365.0 
80.00011696608226 98717.0 NaN 1537.750167000667 0.501552870170044 528.0 0.0 370.0 
90.0000353661183 98751.0 NaN 1538.0681362725456 0.5013186603441667 528.0 0.0 370.0 
100.00011696608226 98753.0 NaN 1540.8897795591183 0.5010111914923153 526.0 1.0 370.0 
110.00011696608226 98716.0 NaN 1541.0153640614549 0.5006049507947716 528.0 0.0 371.0 
120.00008870697559 98809.0 NaN 1540.8764195056788 0.5017235062466389 530.0 0.0 371.0 
130.0001169660823 98811.0 NaN 1537.8650634602548 0.5014093454324443 526.0 2.0 368.0 
140.0001169660823 98792.0 NaN 1531.8583834335336 0.5013363086204112 524.0 0.0 368.0 
150.0001169660823 98786.0 NaN 1534.7254509018032 0.5013381905725124 523.0 1.0 368.0 
160.0001169660823 98810.0 NaN 1531.85036740147 0.5021212720031364 520.0 2.0 366.0 
170.0001169660823 98778.0 NaN 1537.9345357381428 0.5011803003309443 522.0 0.0 370.0 
180.0001169660823 98739.0 NaN 1531.9946559786247 0.5012568255464078 520.0 2.0 366.0 
190.0001169660823 98664.0 NaN 1534.7682030728117 0.5022157519239369 519.0 0.0 369.0 
200.0001169660823 98583.0 NaN 1538.0654642618572 0.502725303046019 519.0 2.0 368.0 
210.0001169660823 98506.0 NaN 1528.7882431529729 0.5023422144656403 515.0 1.0 366.0 
220.0001169660823 98456.0 NaN 1528.7962591850362 0.5032238940948894 515.0 1.0 366.0 
230.0001169660823 98440.0 NaN 1531.7301269205088 0.5028758804636351 514.0 0.0 368.0 
240.0001169660823 98337.0 NaN 1528.7348029392117 0.5028245577320398 513.0 1.0 366.0 
250.0001169660823 98219.0 NaN 1525.6833667334663 0.5030791935948893 515.0 0.0 366.0 
260.00011696608226 98053.0 NaN 1525.5150300601185 0.5033506615399868 513.0 2.0 364.0 
270.00011696608226 97869.0 NaN 1531.9385437541728 0.5040857116624071 512.0 2.0 366.0 
280.00011696608226 97729.0 NaN 1537.7982631930543 0.5024528353698293 516.0 0.0 370.0 
290.00011696608226 97580.0 NaN 1531.767535070139 0.5036059378594718 510.0 1.0 367.0 
300.00011696608226 97414.0 NaN 1534.7494989979975 0.5033020576722995 510.0 0.0 369.0 
310.00011696608226 97217.0 NaN 1531.8076152304614 0.5034166936168103 507.0 1.0 367.0 
320.00011696608226 96980.0 NaN 1537.9398797595181 0.5054085629795191 510.0 0.0 370.0 
330.00011696608226 96781.0 NaN 1537.9425517702089 0.5038542532374016 507.0 2.0 368.0 
340.00011696608226 96552.0 NaN 1531.8209752838998 0.5044471522478766 512.0 0.0 368.0 
350.00011696608226 96360.0 NaN 1528.5931863727455 0.5039085899174706 515.0 2.0 365.0 
360.00011696608226 96203.0 NaN 1525.694054776218 0.5037877690607175 516.0 0.0 366.0 
370.00011696608226 96069.0 NaN 1507.0968603874421 0.5042749786198079 517.0 1.0 359.0 
380.00011696608226 95914.0 NaN 1510.2498329993327 0.5050356627955558 517.0 2.0 359.0 
390.00011696608226 95790.0 NaN 1510.145624582499 0.5038012232028205 517.0 1.0 360.0 
400.00011696608226 95678.0 NaN 1507.2171008684031 0.5037877221260068 520.0 0.0 360.0 
410.00011696608226 95506.0 NaN 1519.4762859051448 0.5068466307032123 522.0 2.0 362.0 
420.00011696608226 95378.0 NaN 1510.2685370741476 0.504678355182542 514.0 1.0 360.0 
430.00011696608226 95318.0 NaN 1510.175016700066 0.5043724284548575 515.0 1.0 360.0 
440.00011696608226 95216.0 NaN 1516.2324649298605 0.5046894345778614 525.0 0.0 363.0 
450.00011696608226 95137.0 NaN 1540.9699398797607 0.5052278293266073 530.0 1.0 370.0 
460.00011696608226 95105.0 NaN 1540.825651302606 0.5038344474016989 525.0 0.0 371.0 
470.00011696608226 95091.0 NaN 1531.633934535737 0.5044201372094841 520.0 0.0 368.0 
480.00011696608226 95104.0 NaN 1522.4342017368083 0.5031953678302151 516.0 0.0 365.0 
490.00011696608226 95170.0 NaN 1497.875751503007 0.5050669270764979 513.0 0.0 357.0 
500.00011696608226 95138.0 NaN 1491.690046760188 0.502704109151969 509.0 0.0 355.0 
510.00011696608226 95096.0 NaN 1497.8971275885099 0.5042713835397192 511.0 0.0 357.0 
520.0001169660824 95111.0 NaN 1464.048096192384 0.5043246428884299 508.0 0.0 346.0 
530.0001169660824 95198.0 NaN 1445.5818303273209 0.50342020104326 506.0 0.0 340.0 
540.0001169660824 95334.0 NaN 1467.2678690714756 0.504241028507486 507.0 0.0 347.0 
550.0001169660824 95389.0 NaN 1467.1262525050095 0.5042370479872575 510.0 1.0 346.0 
560.0001169660824 95600.0 NaN 1460.967267869072 0.5037680959737445 509.0 2.0 343.0 
570.0001169660824 95591.0 NaN 1473.3547094188373 0.5050397151600112 511.0 0.0 349.0 
580.0001169660824 95464.0 NaN 1476.4355377421514 0.5047761149077289 513.0 0.0 350.0 
590.0001169660824 95454.0 NaN 1476.4248496993994 0.5043096134498501 518.0 0.0 350.0 
600.0001169660824 95441.0 NaN 1488.6412825651294 0.5030094831351914 526.0 0.0 354.0 
610.0001169660824 95514.0 NaN 1494.832331329326 0.5042232392261762 528.0 0.0 356.0 
620.0001169660824 95533.0 NaN 1501.002004008017 0.5025698935887307 526.0 0.0 358.0 
630.0001169660824 95516.0 NaN 1507.243820975283 0.5039370458559388 522.0 0.0 360.0 
640.0001169660824 95406.0 NaN 1507.1369405477626 0.5056116432366057 523.0 3.0 357.0 
650.0001169660824 95291.0 NaN 1522.6265865063453 0.504355541502957 521.0 0.0 365.0 
660.0001169660824 95357.0 NaN 1531.8183032732122 0.5044872599308193 515.0 2.0 366.0 
#####################################################################
# End of data export. Simulation finished at: 2019-03-02T02:59+0000 #
#####################################################################
