#####################################################################
# Alchemist log file - simulation started at: 2019-03-08T21:37+0000 #
#####################################################################
# seed = 2.0, bandwidth = 74989.42093324558, propagationDelay = 0.31622776601683794, baserange = 100.0
#
# The columns have the following meaning: 
# time neighbor_count[Sum] <value>@neighbor_count[Sum] packet_size[Mean] mean_delay[Mean] crowd[Sum] overcrowded[Sum] risk[Sum] 
0.0 NaN NaN NaN NaN NaN NaN NaN 
2.0005829790527505 12302.0 NaN 4992.780227120908 0.4683762861703391 1497.0 0.0 1497.0 
4.0005829790527505 13126.0 NaN 4995.088844355378 0.49974539937449686 1487.0 10.0 1487.0 
6.0005829790527505 13130.0 NaN 4997.002004008016 0.500003216877513 1489.0 8.0 1489.0 
8.000582979052751 13130.0 NaN 4996.558450233801 0.5002737889877041 1480.0 17.0 1480.0 
10.000582979052751 13130.0 NaN 4995.633934535738 0.5005946143773504 1493.0 4.0 1493.0 
12.000582979052751 13124.0 NaN 4996.090848363394 0.49979098779075715 1484.0 13.0 1484.0 
14.000582979052751 13124.0 NaN 4995.214428857716 0.49980580341026737 1484.0 13.0 1484.0 
16.00058297905275 13124.0 NaN 4995.842351369405 0.5000744471391896 1484.0 13.0 1484.0 
18.00058297905275 13127.0 NaN 4995.524382097528 0.5015971473885528 1478.0 19.0 1478.0 
20.00058297905275 13129.0 NaN 4995.211756847028 0.5046303145755038 1476.0 21.0 1476.0 
22.00058297905275 13146.0 NaN 4995.388109552438 0.5077031056421076 1482.0 15.0 1482.0 
24.00058297905275 13152.0 NaN 4995.460253841015 0.5025769056451291 1478.0 19.0 1478.0 
26.00058297905275 13157.0 NaN 4995.019372077489 0.501572779306489 1479.0 18.0 1479.0 
28.00058297905275 13162.0 NaN 4995.406813627254 0.5008348255451709 1481.0 16.0 1481.0 
30.00058297905275 13162.0 NaN 4995.436205744823 0.5015660635396817 1480.0 17.0 1480.0 
32.00058297905275 13199.0 NaN 4995.211756847028 0.5028614588155145 1480.0 17.0 1480.0 
34.00058297905275 13205.0 NaN 4995.3346693386775 0.5073469597340771 1477.0 20.0 1477.0 
36.00058297905275 13210.0 NaN 4995.3159652638615 0.5118055011635649 1479.0 18.0 1479.0 
38.00058297905275 13194.0 NaN 4995.24916499666 0.5006399964746201 1481.0 16.0 1481.0 
40.00058297905275 13208.0 NaN 4995.486973947895 0.5013663120467996 1479.0 18.0 1479.0 
42.00058297905275 13250.0 NaN 4995.3453573814295 0.502989090303148 1476.0 21.0 1476.0 
44.00058297905275 13260.0 NaN 4995.09953239813 0.510026870865969 1476.0 21.0 1476.0 
46.00058297905275 13274.0 NaN 4995.299933199733 0.5169663545300767 1484.0 13.0 1484.0 
48.00058297905275 13257.0 NaN 4995.484301937207 0.5015018000965706 1477.0 20.0 1477.0 
50.00058297905275 13261.0 NaN 4995.048764195057 0.5025851930492844 1482.0 15.0 1482.0 
52.00058297905275 13297.0 NaN 4995.2651970607885 0.5036420875607484 1482.0 15.0 1482.0 
54.00058297905275 13290.0 NaN 4995.3694054776215 0.5129040354427383 1482.0 15.0 1482.0 
56.00058297905275 13295.0 NaN 4994.981963927856 0.5231712264975219 1479.0 18.0 1479.0 
58.00058297905275 13273.0 NaN 4995.227788911156 0.5081064427964914 1477.0 20.0 1477.0 
60.00058297905275 13281.0 NaN 4992.173680694723 0.51326736783729 1476.0 20.0 1476.0 
62.00057782311269 13299.0 NaN 1516.9485637942544 0.5100317552944137 796.0 12.0 351.0 
64.00057782311269 13288.0 NaN 1519.7568470273884 0.510843260402105 634.0 19.0 345.0 
66.00057782311268 13282.0 NaN 1519.8076152304611 0.5158128176369534 570.0 26.0 338.0 
68.00057782311268 13263.0 NaN 1519.6392785571152 0.5090493888497926 541.0 25.0 339.0 
70.00057782311268 13273.0 NaN 1519.6045424181702 0.5073368241813278 520.0 24.0 340.0 
72.00057782311268 13325.0 NaN 1519.5511022044093 0.5106577935210606 515.0 23.0 341.0 
74.00057782311268 13327.0 NaN 1525.5711422845698 0.5139007925260017 511.0 20.0 346.0 
76.00057782311268 13321.0 NaN 1525.7207748831 0.50954288514392 510.0 23.0 343.0 
78.00057782311268 13319.0 NaN 1525.6432865731454 0.5067751919232759 510.0 21.0 345.0 
80.00057782311268 13353.0 NaN 1528.630594522379 0.5145046308498876 507.0 22.0 345.0 
82.00057782311268 13348.0 NaN 1528.6546426185728 0.5148981423152631 508.0 21.0 346.0 
84.00057782311268 13346.0 NaN 1531.8022712090844 0.5147996556896404 507.0 24.0 344.0 
86.00057782311268 13324.0 NaN 1531.7488309953244 0.5144017680073529 503.0 24.0 344.0 
88.00057782311268 13342.0 NaN 1531.7541750167002 0.5265848942149743 505.0 23.0 345.0 
90.00057782311268 13343.0 NaN 1531.7541750167002 0.5230478707649722 501.0 26.0 342.0 
92.00057782311268 13329.0 NaN 1531.6499665998665 0.5262326005231701 503.0 24.0 344.0 
94.00057782311268 13303.0 NaN 1531.7167668670666 0.5316915966470879 506.0 19.0 349.0 
96.00057782311268 13274.0 NaN 1531.7621910487635 0.5133016927628464 506.0 19.0 349.0 
98.00057782311268 13283.0 NaN 1531.6339345357364 0.5196333967852529 507.0 18.0 350.0 
100.00057782311268 13284.0 NaN 1531.692718770875 0.509299409005962 506.0 19.0 349.0 
102.00057782311268 13265.0 NaN 1534.7655310621246 0.5115311148486732 501.0 24.0 345.0 
104.00057782311268 13258.0 NaN 1534.7227788911155 0.5152024942547774 501.0 23.0 346.0 
106.00057782311268 13253.0 NaN 1534.8323313293272 0.5041797686190341 499.0 24.0 345.0 
108.00057782311268 13288.0 NaN 1537.8810955243816 0.508283257274939 498.0 25.0 345.0 
110.00057782311268 13292.0 NaN 1537.7474949899815 0.5094241432597526 502.0 21.0 349.0 
112.00057782311268 13282.0 NaN 1537.8410153640634 0.5082645759794903 504.0 21.0 349.0 
114.00057782311268 13301.0 NaN 1537.8329993319974 0.5172197082325103 504.0 22.0 348.0 
116.00057782311268 13292.0 NaN 1540.921843687373 0.5171673631650996 505.0 22.0 349.0 
118.00057782311268 13311.0 NaN 1547.0167000667998 0.5124158311280652 506.0 20.0 353.0 
120.00057782311268 13327.0 NaN 1547.0621242484974 0.5111305256620838 505.0 22.0 351.0 
122.00057782311268 13335.0 NaN 1546.8964595858365 0.5139806837301197 504.0 22.0 351.0 
124.00057782311268 13325.0 NaN 1547.0407481629911 0.5175413922342272 506.0 21.0 352.0 
126.00057782311268 13317.0 NaN 1547.0808283233118 0.5135444865874389 504.0 22.0 351.0 
128.00057782311268 13324.0 NaN 1547.000668002673 0.5160798930319643 504.0 23.0 350.0 
130.0005778231127 13352.0 NaN 1547.0273881095545 0.5131560301889436 507.0 20.0 353.0 
132.0005778231127 13322.0 NaN 1544.0587842351363 0.5147383667211463 504.0 23.0 349.0 
134.0005778231127 13336.0 NaN 1543.9572478289908 0.5132111172532796 501.0 26.0 346.0 
136.0005778231127 13316.0 NaN 1547.1770207080817 0.512085430537308 503.0 24.0 349.0 
138.0005778231127 13291.0 NaN 1544.0480961923845 0.5076115370985381 497.0 25.0 347.0 
140.0005778231127 13305.0 NaN 1547.1022044088184 0.5101503795136942 497.0 23.0 350.0 
142.0005778231127 13302.0 NaN 1550.2845691382759 0.5072943074058095 497.0 23.0 351.0 
144.0005778231127 13335.0 NaN 1550.2658650634605 0.509615087121146 493.0 26.0 348.0 
146.0005778231127 13321.0 NaN 1550.276553106212 0.5113047556196963 485.0 34.0 340.0 
148.0005778231127 13309.0 NaN 1547.1850367401457 0.516358383411527 494.0 28.0 345.0 
150.0005778231127 13302.0 NaN 1544.1416165664664 0.5166869039531214 492.0 30.0 342.0 
152.0005778231127 13275.0 NaN 1540.956579826318 0.5145091095880243 489.0 32.0 339.0 
154.0005778231127 13279.0 NaN 1541.0153640614546 0.5214955314409706 490.0 25.0 346.0 
156.0005778231127 13251.0 NaN 1541.074148296591 0.5184316576413244 491.0 25.0 346.0 
158.0005778231127 13255.0 NaN 1540.9699398797607 0.5261485225538136 495.0 22.0 349.0 
160.0005778231127 13239.0 NaN 1540.9699398797607 0.5126246452485628 493.0 26.0 345.0 
162.0005778231127 13246.0 NaN 1541.0073480293909 0.5125877958279836 493.0 25.0 346.0 
164.0005778231127 13244.0 NaN 1543.9893119572478 0.5094541291301845 494.0 24.0 348.0 
166.0005778231127 13226.0 NaN 1550.2925851703392 0.5098318459039717 494.0 23.0 351.0 
168.0005778231127 13217.0 NaN 1550.2311289245158 0.5127214394146887 487.0 33.0 341.0 
170.0005778231127 13208.0 NaN 1547.0754843019363 0.5177424216274071 491.0 28.0 345.0 
172.0005778231127 13189.0 NaN 1544.0614562458272 0.5081424581468945 494.0 26.0 346.0 
174.0005778231127 13209.0 NaN 1544.0774883099543 0.509016861774054 497.0 23.0 349.0 
176.0005778231127 13201.0 NaN 1544.1202404809635 0.5122294313214324 492.0 26.0 346.0 
178.0005778231127 13188.0 NaN 1540.993987975952 0.5143854499443271 495.0 22.0 349.0 
180.0005778231127 13164.0 NaN 1537.8650634602548 0.5103326115296476 491.0 26.0 344.0 
182.0005778231127 13142.0 NaN 1540.9432197728793 0.5088082160533968 495.0 22.0 349.0 
184.0005778231127 13141.0 NaN 1541.0180360721456 0.5141243242252509 490.0 27.0 344.0 
186.0005778231127 13114.0 NaN 1541.122244488979 0.5210171112743752 487.0 29.0 342.0 
188.0005778231127 13132.0 NaN 1540.9245156980637 0.5208565709434754 485.0 31.0 340.0 
190.0005778231127 13118.0 NaN 1540.9886439545753 0.5137665819345144 489.0 27.0 344.0 
192.0005778231127 13108.0 NaN 1540.993987975952 0.5130342612066213 489.0 27.0 344.0 
194.0005778231127 13111.0 NaN 1540.8871075484299 0.5133624842359087 494.0 22.0 349.0 
196.0005778231127 13105.0 NaN 1541.0875083500339 0.5178551201920064 490.0 26.0 345.0 
198.0005778231127 13096.0 NaN 1544.109552438209 0.515663489173134 488.0 29.0 343.0 
200.0005778231127 13077.0 NaN 1544.0133600534393 0.521646955536115 486.0 32.0 340.0 
202.0005778231127 13060.0 NaN 1544.0534402137612 0.5152757316192144 492.0 27.0 345.0 
204.0005778231127 13065.0 NaN 1547.217100868403 0.5288702852627821 484.0 35.0 338.0 
206.0005778231127 13059.0 NaN 1544.0374081496336 0.548945284774651 489.0 30.0 342.0 
208.0005778231127 13050.0 NaN 1544.1255845023366 0.5331453630182298 489.0 28.0 344.0 
210.0005778231127 13022.0 NaN 1537.873079492318 0.5207135338639897 480.0 33.0 337.0 
212.0005778231127 13018.0 NaN 1540.9191716766882 0.5166547868334848 478.0 35.0 336.0 
214.0005778231127 13003.0 NaN 1544.0454241816974 0.5150590139021579 483.0 31.0 341.0 
216.0005778231127 12974.0 NaN 1544.0801603206428 0.516512506009537 481.0 32.0 340.0 
218.0005778231127 12968.0 NaN 1537.8249832999336 0.5157809978670138 486.0 30.0 340.0 
220.0005778231127 12939.0 NaN 1540.9832999332002 0.5075658844656814 482.0 33.0 338.0 
222.0005778231127 12926.0 NaN 1540.9378757515026 0.5118392335246531 481.0 35.0 336.0 
224.0005778231127 12939.0 NaN 1540.8577154308634 0.5177980759818176 477.0 38.0 333.0 
226.0005778231127 12926.0 NaN 1540.9191716766882 0.51462469105733 484.0 32.0 339.0 
228.0005778231127 12923.0 NaN 1540.9539078156301 0.514242397534838 483.0 32.0 339.0 
230.0005778231127 12918.0 NaN 1537.7955911823635 0.5188814403737972 482.0 30.0 340.0 
232.0005778231127 12891.0 NaN 1541.0153640614546 0.5159478826343307 482.0 30.0 341.0 
234.0005778231127 12904.0 NaN 1540.9325317301273 0.5233382550600221 482.0 30.0 341.0 
236.0005778231127 12875.0 NaN 1544.0320641282547 0.5269339426199711 484.0 29.0 343.0 
238.0005778231127 12881.0 NaN 1543.978623914497 0.5344061521675876 485.0 28.0 344.0 
240.0005778231127 12863.0 NaN 1540.8817635270545 0.5278076249680463 485.0 28.0 343.0 
242.0005778231127 12843.0 NaN 1540.844355377421 0.5263736844093989 487.0 28.0 343.0 
244.0005778231127 12841.0 NaN 1540.8684034736152 0.5202520387083426 487.0 28.0 343.0 
246.0005778231127 12817.0 NaN 1537.88376753507 0.5251606167182877 486.0 29.0 341.0 
248.0005778231127 12794.0 NaN 1540.9111556446207 0.5249678191219227 486.0 29.0 342.0 
250.0005778231127 12779.0 NaN 1537.766199064797 0.5266446826499139 486.0 28.0 342.0 
252.0005778231127 12779.0 NaN 1534.7441549766183 0.513225257331526 483.0 28.0 341.0 
254.0005778231127 12790.0 NaN 1534.7067468269881 0.5128008888237862 484.0 28.0 341.0 
256.0005778231127 12775.0 NaN 1531.6205744822998 0.5139908797261604 485.0 27.0 341.0 
258.0005778231127 12765.0 NaN 1531.6847027388094 0.5180042403545387 485.0 28.0 340.0 
260.0005778231127 12760.0 NaN 1531.5350701402817 0.5144404213101972 486.0 27.0 341.0 
262.0005778231127 12768.0 NaN 1525.5364061456248 0.5194494173844486 489.0 25.0 341.0 
264.0005778231127 12788.0 NaN 1528.5851703406818 0.5295894763564399 482.0 30.0 337.0 
266.0005778231127 12747.0 NaN 1528.6252505010004 0.5296207447600976 488.0 25.0 342.0 
268.0005778231127 12725.0 NaN 1537.8276553106205 0.5201281075206101 489.0 24.0 346.0 
270.0005778231127 12712.0 NaN 1540.9405477621908 0.526989624816894 488.0 25.0 346.0 
272.0005778231127 12705.0 NaN 1540.7882431529729 0.5359079714278773 487.0 26.0 345.0 
274.0005778231127 12744.0 NaN 1543.8824315297275 0.5251637884121878 483.0 29.0 343.0 
276.0005778231127 12725.0 NaN 1540.8897795591183 0.53293035880196 486.0 26.0 345.0 
278.0005778231127 12694.0 NaN 1540.7187708750819 0.521074758465268 486.0 26.0 345.0 
280.0005778231127 12679.0 NaN 1537.7154308617248 0.5283464108648956 490.0 24.0 346.0 
282.0005778231127 12679.0 NaN 1537.6325985303931 0.530223459774192 487.0 26.0 344.0 
284.0005778231127 12670.0 NaN 1537.736806947227 0.5190069721708231 484.0 30.0 340.0 
286.0005778231127 12638.0 NaN 1537.7661990647975 0.519475572116739 484.0 28.0 342.0 
288.0005778231127 12644.0 NaN 1537.7207748831001 0.5210754457442806 483.0 28.0 342.0 
290.0005778231127 12627.0 NaN 1537.6887107548434 0.515677091291035 483.0 28.0 342.0 
292.0005778231127 12630.0 NaN 1537.7394789579164 0.5250150126960509 483.0 28.0 342.0 
294.0005778231127 12614.0 NaN 1531.5778223112907 0.5181146493476861 483.0 28.0 340.0 
296.0005778231127 12576.0 NaN 1531.6152304609207 0.5203923818810924 483.0 28.0 340.0 
298.0005778231127 12561.0 NaN 1531.5537742150975 0.5212017234440292 481.0 29.0 339.0 
300.0005778231127 12539.0 NaN 1534.661322645291 0.5135797797761006 478.0 29.0 340.0 
302.0005778231127 12543.0 NaN 1528.5023380093521 0.5186611018244411 479.0 28.0 339.0 
304.0005778231127 12541.0 NaN 1531.5511022044093 0.5221019411961859 479.0 28.0 340.0 
306.0005778231127 12494.0 NaN 1531.6232464929847 0.5183859971575763 479.0 28.0 340.0 
308.0005778231127 12499.0 NaN 1531.5404141616546 0.5288113823219005 478.0 28.0 340.0 
310.0005778231127 12489.0 NaN 1534.6132264529067 0.5308606673516431 477.0 28.0 341.0 
312.0005778231127 12472.0 NaN 1534.6800267201093 0.5191793912894024 477.0 28.0 341.0 
314.0005778231127 12482.0 NaN 1531.5430861723455 0.517095881162487 478.0 28.0 340.0 
316.0005778231127 12474.0 NaN 1528.510354041418 0.5224160834314402 478.0 28.0 339.0 
318.0005778231127 12452.0 NaN 1528.6012024048089 0.5200940183864196 479.0 27.0 340.0 
320.0005778231127 12447.0 NaN 1531.6018704074818 0.510546859575883 479.0 27.0 341.0 
322.0005778231127 12456.0 NaN 1531.6018704074818 0.5164123724925223 479.0 28.0 340.0 
324.0005778231127 12472.0 NaN 1534.6025384101547 0.516387701993696 478.0 28.0 341.0 
326.0005778231127 12458.0 NaN 1531.655310621243 0.5227280418367388 479.0 27.0 341.0 
328.0005778231127 12452.0 NaN 1531.5644622578482 0.5284039333326329 479.0 27.0 341.0 
330.0005778231127 12437.0 NaN 1531.561790247161 0.5224553882136372 480.0 27.0 341.0 
332.0005778231127 12442.0 NaN 1528.4408817635274 0.5184806436897749 482.0 27.0 340.0 
334.0005778231127 12434.0 NaN 1531.5457581830335 0.5205117963909216 482.0 26.0 342.0 
336.0005778231127 12424.0 NaN 1531.6419505678 0.5205891441131335 481.0 27.0 341.0 
338.0005778231127 12420.0 NaN 1528.4355377421516 0.5158317606219599 481.0 26.0 341.0 
340.0005778231127 12412.0 NaN 1525.5070140280548 0.5105891984235446 481.0 26.0 340.0 
342.0005778231127 12439.0 NaN 1531.5190380761544 0.5092143059663641 481.0 27.0 341.0 
344.0005778231127 12442.0 NaN 1531.6312625250516 0.5195865639530661 484.0 26.0 342.0 
346.0005778231127 12446.0 NaN 1528.5584502338 0.5288775274211511 484.0 27.0 340.0 
348.0005778231127 12422.0 NaN 1525.4268537074151 0.5135718221635696 484.0 26.0 340.0 
350.0005778231127 12427.0 NaN 1525.3413493653975 0.5137636055539506 483.0 27.0 339.0 
352.0005778231127 12453.0 NaN 1525.3680694722789 0.512282380478057 485.0 26.0 340.0 
354.0005778231127 12476.0 NaN 1522.3727454909817 0.5137646075798334 483.0 27.0 338.0 
356.0005778231127 12481.0 NaN 1522.3700734802933 0.5212843868137741 484.0 26.0 339.0 
358.0005778231127 12455.0 NaN 1522.3994655978634 0.5205837188192396 483.0 27.0 338.0 
360.0005778231127 12456.0 NaN 1522.247160988645 0.5254105387036867 482.0 27.0 338.0 
362.0005778231127 12473.0 NaN 1522.2979291917177 0.5285779289896374 483.0 27.0 338.0 
364.0005778231127 12472.0 NaN 1522.305945223782 0.5161214256800479 483.0 27.0 338.0 
366.0005778231127 12477.0 NaN 1522.4368737474938 0.5289388209762813 485.0 27.0 338.0 
368.0005778231127 12452.0 NaN 1503.82364729459 0.5351745736405277 484.0 27.0 332.0 
370.0005778231127 12440.0 NaN 1497.7261189044748 0.5305785626052614 484.0 27.0 330.0 
372.0005778231127 12417.0 NaN 1500.6706746826992 0.5340800826456445 485.0 27.0 331.0 
374.0005778231127 12408.0 NaN 1506.9445557782242 0.5234940259372827 486.0 27.0 333.0 
376.0005778231127 12401.0 NaN 1503.8770875083485 0.53033171629464 486.0 27.0 332.0 
378.0005778231127 12366.0 NaN 1503.8183032732122 0.5273002230944775 486.0 27.0 332.0 
380.0005778231127 12361.0 NaN 1500.6653306613218 0.5360692769281339 488.0 26.0 332.0 
382.0005778231127 12362.0 NaN 1497.7100868403465 0.5317867628716233 488.0 26.0 331.0 
384.0005778231127 12359.0 NaN 1500.6733466933877 0.523003194537243 495.0 19.0 339.0 
386.0005778231127 12365.0 NaN 1507.0434201736819 0.5421511233979555 495.0 20.0 340.0 
388.0005778231127 12349.0 NaN 1506.8643954575818 0.5392207517083863 495.0 20.0 340.0 
390.0005778231127 12328.0 NaN 1500.7615230460915 0.5273946810856759 494.0 20.0 338.0 
392.0005778231127 12341.0 NaN 1509.969271877088 0.5357301560344605 493.0 21.0 340.0 
394.0005778231127 12343.0 NaN 1506.8350033400122 0.5217442691667985 494.0 21.0 339.0 
396.0005778231127 12322.0 NaN 1510.012024048097 0.5240425539603568 496.0 20.0 341.0 
398.0005778231127 12325.0 NaN 1509.9906479625909 0.5225436333017442 494.0 22.0 339.0 
400.0005778231127 12319.0 NaN 1506.8617234468932 0.5089006888603131 496.0 22.0 338.0 
402.0005778231127 12331.0 NaN 1509.9425517702084 0.5114688455993758 500.0 19.0 342.0 
404.0005778231127 12339.0 NaN 1519.1796927187722 0.5148103093943591 500.0 19.0 345.0 
406.0005778231127 12338.0 NaN 1519.4014696058787 0.5289010065767131 502.0 19.0 345.0 
408.0005778231127 12325.0 NaN 1522.2150968603878 0.5257894675859892 501.0 19.0 346.0 
410.0005778231127 12326.0 NaN 1531.4843019372088 0.5390411605871036 501.0 19.0 349.0 
412.0005778231127 12332.0 NaN 1531.4415497662003 0.5315143399581774 502.0 19.0 349.0 
414.0005778231127 12323.0 NaN 1534.5758183032726 0.5103126861220119 501.0 19.0 350.0 
416.0005778231127 12329.0 NaN 1531.7488309953246 0.5192358967668291 503.0 19.0 349.0 
418.0005778231127 12339.0 NaN 1519.241148964597 0.5162016190291769 503.0 19.0 345.0 
420.0005778231127 12337.0 NaN 1519.1342685370732 0.529465168434083 502.0 20.0 344.0 
422.0005778231127 12343.0 NaN 1516.0694722778903 0.5269770983364365 501.0 19.0 344.0 
424.0005778231127 12353.0 NaN 1513.1115564462266 0.5215292757771063 498.0 20.0 342.0 
426.0005778231127 12364.0 NaN 1519.3159652638615 0.5321466586338789 496.0 20.0 344.0 
428.0005778231127 12366.0 NaN 1519.1476285905153 0.52759460177008 497.0 20.0 344.0 
430.0005778231127 12334.0 NaN 1516.1389445557788 0.5176820806544559 495.0 21.0 342.0 
432.0005778231127 12329.0 NaN 1512.9458917835664 0.521190362314167 494.0 22.0 340.0 
434.0005778231127 12337.0 NaN 1516.1282565130268 0.5205163815303888 496.0 23.0 340.0 
436.0005778231127 12343.0 NaN 1531.4976619906479 0.5313043448150663 501.0 23.0 345.0 
438.0005778231127 12334.0 NaN 1528.4248496994 0.5199168969613306 502.0 24.0 343.0 
440.0005778231127 12327.0 NaN 1528.3847695390791 0.5189504119981977 505.0 20.0 347.0 
442.0005778231127 12311.0 NaN 1531.4362057448243 0.5214222451507139 504.0 20.0 348.0 
444.0005778231127 12306.0 NaN 1531.4843019372088 0.5286856736838491 504.0 20.0 348.0 
446.0005778231127 12317.0 NaN 1537.6192384769547 0.5391153822995218 506.0 21.0 349.0 
448.0005778231127 12316.0 NaN 1543.7595190380757 0.5435954198534717 506.0 23.0 349.0 
450.0005778231127 12277.0 NaN 1540.6546426185726 0.5142195434667275 507.0 20.0 351.0 
452.0005778231127 12261.0 NaN 1543.6873747495001 0.5154804896920098 507.0 20.0 352.0 
454.0005778231127 12273.0 NaN 1543.895791583166 0.5266710656070315 506.0 20.0 352.0 
456.0005778231127 12284.0 NaN 1553.0073480293909 0.5335168517309655 506.0 20.0 355.0 
458.0005778231127 12272.0 NaN 1552.8924515698066 0.543448605475086 505.0 20.0 355.0 
460.0005778231127 12273.0 NaN 1549.8864395457574 0.5243173074950684 503.0 20.0 354.0 
462.0005778231127 12261.0 NaN 1546.8376753507002 0.515301970510056 503.0 21.0 352.0 
464.0005778231127 12288.0 NaN 1540.780227120909 0.5149717043446015 501.0 21.0 350.0 
466.0005778231127 12292.0 NaN 1543.8637274549092 0.5291636966862585 502.0 21.0 351.0 
468.0005778231127 12291.0 NaN 1543.7515030060115 0.539396396527065 502.0 21.0 351.0 
470.0005778231127 12270.0 NaN 1537.5577822311275 0.5161458924020675 501.0 21.0 349.0 
472.0005778231127 12259.0 NaN 1534.4983299933185 0.5152389087971582 499.0 21.0 348.0 
474.0005778231127 12271.0 NaN 1525.3493653974629 0.5187367600023328 498.0 21.0 345.0 
476.0005778231127 12265.0 NaN 1516.1042084168344 0.523536468657313 496.0 21.0 342.0 
478.0005778231127 12259.0 NaN 1516.0347361389454 0.5294038359048537 493.0 21.0 342.0 
480.0005778231127 12263.0 NaN 1516.0160320641273 0.5277081155064447 494.0 21.0 342.0 
482.0005778231127 12232.0 NaN 1509.8623914495647 0.5135513977436723 494.0 21.0 340.0 
484.0005778231127 12251.0 NaN 1509.9853039412164 0.5206844543135735 490.0 22.0 339.0 
486.0005778231127 12247.0 NaN 1510.0334001335998 0.5298643184649796 491.0 21.0 340.0 
488.0005778231127 12250.0 NaN 1500.69739478958 0.540781526856188 489.0 21.0 337.0 
490.0005778231127 12231.0 NaN 1497.547094188376 0.5370332508474076 489.0 21.0 336.0 
492.0005778231127 12200.0 NaN 1494.5437541750173 0.5364277275245414 489.0 21.0 335.0 
494.0005778231127 12191.0 NaN 1491.4175016700074 0.5249771500966678 489.0 21.0 334.0 
496.0005778231127 12203.0 NaN 1491.5778223112898 0.5235003115283718 487.0 21.0 334.0 
498.0005778231127 12205.0 NaN 1488.4034736138938 0.5246162386121349 486.0 21.0 333.0 
500.0005778231127 12211.0 NaN 1488.363393453573 0.5339256872059385 484.0 21.0 333.0 
502.0005778231127 12206.0 NaN 1491.436205744824 0.5320488697867106 487.0 21.0 334.0 
504.0005778231127 12192.0 NaN 1491.529726118906 0.5137725592848235 489.0 21.0 334.0 
506.0005778231127 12225.0 NaN 1494.621242484971 0.5218077329638635 490.0 21.0 335.0 
508.0005778231127 12237.0 NaN 1491.4762859051446 0.5221492681412049 491.0 21.0 334.0 
510.0005778231127 12226.0 NaN 1497.5845023380089 0.5149047542287524 491.0 21.0 336.0 
512.0005778231127 12239.0 NaN 1497.5818303273204 0.5195473379782278 491.0 21.0 336.0 
514.0005778231127 12237.0 NaN 1491.3854375417511 0.5230364280687101 492.0 21.0 334.0 
516.0005778231127 12270.0 NaN 1479.2117568470271 0.5278618841257672 488.0 21.0 330.0 
518.0005778231127 12274.0 NaN 1472.9832999332 0.523690898180177 485.0 21.0 328.0 
520.0005778231127 12283.0 NaN 1469.8223112892456 0.5104826247387423 484.0 21.0 327.0 
522.0005778231127 12275.0 NaN 1469.8623914495647 0.5118778220866603 486.0 21.0 327.0 
524.0005778231127 12308.0 NaN 1457.587174348698 0.5227500371546883 482.0 21.0 323.0 
526.0005778231127 12325.0 NaN 1454.5971943887785 0.5251986669231319 482.0 21.0 322.0 
528.0005778231127 12337.0 NaN 1454.4395457581825 0.5306489968949658 482.0 21.0 322.0 
530.0005778231127 12342.0 NaN 1454.5116900467608 0.514054722196878 484.0 21.0 322.0 
532.0005778231127 12349.0 NaN 1454.452905811624 0.5172840492635405 483.0 21.0 322.0 
534.0005778231127 12367.0 NaN 1460.7027388109548 0.5131675761595704 483.0 22.0 323.0 
536.0005778231127 12400.0 NaN 1457.7742150968609 0.5149596793644035 483.0 21.0 323.0 
538.0005778231127 12416.0 NaN 1457.6299265197065 0.529731533414203 485.0 22.0 322.0 
540.0005778231127 12408.0 NaN 1457.6138944555785 0.5413571601430691 487.0 21.0 323.0 
542.0005778231127 12395.0 NaN 1460.651970607882 0.5469515796633276 486.0 22.0 323.0 
544.0005778231127 12387.0 NaN 1460.6546426185714 0.5284080257026912 490.0 21.0 324.0 
546.0005778231127 12372.0 NaN 1460.7641950567806 0.5325006854108727 489.0 22.0 323.0 
548.0005778231127 12364.0 NaN 1460.7107548430188 0.5334192199377363 493.0 21.0 324.0 
550.0005778231127 12341.0 NaN 1460.6546426185714 0.526210603506925 492.0 22.0 323.0 
552.0005778231127 12359.0 NaN 1460.6386105544425 0.5407047928016241 492.0 21.0 324.0 
554.0005778231127 12356.0 NaN 1466.845691382765 0.5209506012945564 491.0 22.0 325.0 
556.0005778231127 12364.0 NaN 1470.0627922511694 0.5352582994028733 488.0 23.0 325.0 
558.0005778231127 12362.0 NaN 1457.7314629258517 0.5301044779936647 484.0 22.0 322.0 
560.0005778231127 12365.0 NaN 1451.593854375418 0.5158408539715201 482.0 23.0 319.0 
562.0005778231127 12362.0 NaN 1454.519706078824 0.51914411469272 476.0 22.0 321.0 
564.0005778231127 12374.0 NaN 1460.8283233132936 0.5165714114378221 475.0 24.0 321.0 
566.0005778231127 12403.0 NaN 1470.1456245824988 0.5238110614746131 478.0 25.0 323.0 
568.0005778231127 12415.0 NaN 1470.0146960587842 0.5332513279886435 479.0 25.0 323.0 
570.0005778231127 12395.0 NaN 1476.1683366733462 0.5277048357199864 486.0 24.0 326.0 
572.0005778231127 12372.0 NaN 1479.1503006012022 0.5263000072353947 488.0 23.0 328.0 
574.0005778231127 12362.0 NaN 1482.3032732130923 0.5254086685008006 488.0 22.0 330.0 
576.0005778231127 12372.0 NaN 1485.4402137608545 0.5330359463800286 488.0 22.0 331.0 
578.0005778231127 12409.0 NaN 1482.3380093520368 0.5321943938221321 491.0 21.0 331.0 
580.0005778231127 12396.0 NaN 1485.3360053440206 0.5279078912569439 492.0 20.0 333.0 
582.0005778231127 12367.0 NaN 1485.341349365398 0.5368160999462273 496.0 20.0 333.0 
584.0005778231127 12361.0 NaN 1482.3112892451566 0.5264176933506957 496.0 20.0 332.0 
586.0005778231127 12410.0 NaN 1491.5617902471618 0.5364724739265463 498.0 21.0 334.0 
588.0005778231127 12406.0 NaN 1491.4736138944547 0.5362640810150227 500.0 21.0 334.0 
590.0005778231127 12388.0 NaN 1491.478957915831 0.5212016771982718 499.0 21.0 334.0 
592.0005778231127 12382.0 NaN 1491.5110220440888 0.5323327818424618 502.0 21.0 334.0 
594.0005778231127 12398.0 NaN 1491.4468937875745 0.5387435875854819 501.0 22.0 333.0 
596.0005778231127 12430.0 NaN 1494.6452905811627 0.5311893000951119 504.0 21.0 335.0 
598.0005778231127 12422.0 NaN 1488.4969939879752 0.5243616834066179 504.0 21.0 333.0 
600.0005778231127 12397.0 NaN 1488.3259853039422 0.5318332140296613 508.0 20.0 334.0 
602.0005778231127 12380.0 NaN 1491.5804943219784 0.5340639869468896 506.0 21.0 334.0 
604.0005778231127 12429.0 NaN 1491.5537742150977 0.5373678094445881 505.0 21.0 334.0 
606.0005778231127 12463.0 NaN 1497.7929191716757 0.5469944155893921 502.0 22.0 335.0 
608.0005778231127 12464.0 NaN 1497.7581830327333 0.5302190329732187 506.0 19.0 338.0 
610.0005778231127 12464.0 NaN 1494.5517702070817 0.521550782762596 505.0 21.0 335.0 
612.0005778231127 12484.0 NaN 1494.6559786239154 0.5291462926665498 498.0 23.0 333.0 
614.0005778231127 12510.0 NaN 1494.7147628590526 0.5291615974775641 501.0 20.0 336.0 
616.0005778231127 12532.0 NaN 1497.7608550434193 0.5358174924859264 502.0 19.0 338.0 
618.0005778231127 12584.0 NaN 1497.811623246492 0.5464470950072723 503.0 20.0 337.0 
620.0005778231127 12556.0 NaN 1494.546426185706 0.5317667264980896 500.0 21.0 335.0 
622.0005778231127 12536.0 NaN 1500.871075484301 0.5361860585201427 498.0 22.0 336.0 
624.0005778231127 12530.0 NaN 1503.845023380093 0.5344114236421349 495.0 23.0 336.0 
626.0005778231127 12555.0 NaN 1507.0701402805619 0.5472744235191153 492.0 26.0 334.0 
628.0005778231127 12581.0 NaN 1506.9686038744162 0.5483805934464897 492.0 25.0 335.0 
630.0005778231127 12559.0 NaN 1506.9979959919829 0.5326167531840849 490.0 26.0 334.0 
632.0005778231127 12516.0 NaN 1507.1128924515708 0.5273745319030189 493.0 23.0 337.0 
634.0005778231127 12496.0 NaN 1516.2832331329334 0.5214039948905717 491.0 26.0 337.0 
636.0005778231127 12539.0 NaN 1513.2905811623252 0.5321901624076185 489.0 34.0 328.0 
638.0005778231127 12563.0 NaN 1516.2378089512365 0.5378120186836516 496.0 29.0 334.0 
640.0005778231127 12538.0 NaN 1513.1409485637937 0.5263340780324678 491.0 33.0 329.0 
642.0005778231127 12498.0 NaN 1510.1295925183708 0.5282272694909069 491.0 33.0 328.0 
644.0005778231127 12461.0 NaN 1507.0033400133607 0.5233594817015393 494.0 31.0 329.0 
646.0005778231127 12482.0 NaN 1507.219772879091 0.5289836783280121 492.0 32.0 328.0 
648.0005778231127 12493.0 NaN 1513.181028724116 0.5295785773984123 488.0 34.0 328.0 
650.0005778231127 12488.0 NaN 1519.3239812959262 0.5366889746504995 489.0 31.0 333.0 
652.0005778231127 12447.0 NaN 1519.356045424182 0.5307457816476052 492.0 24.0 340.0 
654.0005778231127 12452.0 NaN 1519.5190380761535 0.5349351917301886 487.0 28.0 336.0 
656.0005778231127 12500.0 NaN 1522.5624582498333 0.5450634408331829 488.0 26.0 339.0 
658.0005778231127 12501.0 NaN 1531.7034068136272 0.5349126661192684 490.0 24.0 344.0 
660.0005778231127 12488.0 NaN 1534.6693386773545 0.521887998023913 490.0 23.0 346.0 
662.0005778231127 12448.0 NaN 1534.70140280561 0.5182280290752493 492.0 21.0 348.0 
664.0005778231127 12436.0 NaN 1534.8029392117555 0.5215378523843888 493.0 21.0 348.0 
#####################################################################
# End of data export. Simulation finished at: 2019-03-08T21:45+0000 #
#####################################################################
