#####################################################################
# Alchemist log file - simulation started at: 2019-03-03T18:22+0000 #
#####################################################################
# seed = 1.0, bandwidth = 2.3713737056616552E7, propagationDelay = 0.1, baserange = 10.0
#
# The columns have the following meaning: 
# time neighbor_count[Sum] <value>@neighbor_count[Sum] packet_size[Mean] mean_delay[Mean] crowd[Sum] overcrowded[Sum] risk[Sum] 
0.0 NaN NaN NaN NaN NaN NaN NaN 
10.00003306189938 487.0 NaN 4989.645958583835 0.498371341311187 1497.0 0.0 1497.0 
20.000033061899384 490.0 NaN 4989.536406145625 0.49948858078711705 1497.0 0.0 1497.0 
30.000033061899384 499.0 NaN 4989.509686038744 0.5049011689108954 1497.0 0.0 1497.0 
40.00003306189938 501.0 NaN 4989.555110220441 0.5110342903251772 1497.0 0.0 1497.0 
50.00003306189938 504.0 NaN 4989.587174348698 0.5037753827811703 1497.0 0.0 1497.0 
60.00003306189938 501.0 NaN 4989.632598530394 0.5135604182491451 1497.0 0.0 1497.0 
70.00031248372898 495.0 NaN 596.5370741482959 0.5048012470882425 246.0 0.0 64.0 
80.00031248372898 484.0 NaN 605.6940547762185 0.5151359539523143 146.0 0.0 67.0 
90.00031248372898 487.0 NaN 602.5891783567138 0.5191346180834296 135.0 0.0 66.0 
100.00031248372898 479.0 NaN 602.5758183032726 0.5135656273717975 129.0 0.0 66.0 
110.00031248372898 490.0 NaN 596.456913827655 0.5261564661164762 122.0 0.0 64.0 
120.00031248372898 478.0 NaN 590.338009352037 0.5157155523596683 122.0 0.0 62.0 
130.00031248372898 505.0 NaN 605.7314629258518 0.5157593870562376 128.0 0.0 67.0 
140.00031248372898 500.0 NaN 605.6833667334668 0.519136712411929 129.0 0.0 67.0 
150.00031248372898 504.0 NaN 617.9719438877756 0.5105316616953396 126.0 0.0 71.0 
160.00031248372898 499.0 NaN 608.7962591850363 0.5320403286196022 125.0 0.0 68.0 
170.00031248372898 499.0 NaN 605.7261189044757 0.5404168046844939 125.0 0.0 67.0 
180.00031248372898 495.0 NaN 605.7581830327317 0.5517302131576803 126.0 0.0 67.0 
190.00031248372898 487.0 NaN 624.171008684035 0.508525450593062 125.0 0.0 73.0 
200.00031248372898 506.0 NaN 618.0066800267202 0.5155757112241948 123.0 0.0 71.0 
210.00031248372898 507.0 NaN 627.2518370073482 0.5255947766916915 125.0 0.0 74.0 
220.00031248372898 491.0 NaN 617.9959919839682 0.5054407712206097 124.0 0.0 71.0 
230.00031248372898 492.0 NaN 621.076820307282 0.524811079734329 125.0 0.0 72.0 
240.00031248372898 502.0 NaN 614.9632598530392 0.5133802584532141 118.0 0.0 70.0 
250.00031248372898 507.0 NaN 627.2197728790908 0.5279418816923358 121.0 0.0 74.0 
260.00031248372903 495.0 NaN 630.305945223782 0.5337269712947204 123.0 0.0 75.0 
270.00031248372903 504.0 NaN 624.1175684702727 0.5366234766452714 125.0 0.0 73.0 
280.00031248372903 498.0 NaN 614.9178356713428 0.5274228708311489 117.0 0.0 70.0 
290.00031248372903 493.0 NaN 599.5323981295926 0.5264755615607062 116.0 0.0 65.0 
300.00031248372903 487.0 NaN 602.6426185704744 0.5379765030423314 115.0 0.0 66.0 
310.00031248372903 478.0 NaN 605.6940547762181 0.5396209339803809 112.0 0.0 67.0 
320.00031248372903 466.0 NaN 584.1923847695388 0.5307790589552986 111.0 0.0 60.0 
330.00031248372903 468.0 NaN 581.1195724782906 0.5105575027479076 106.0 0.0 59.0 
340.00031248372903 487.0 NaN 593.4188376753503 0.5145680821793024 108.0 0.0 63.0 
350.00031248372903 479.0 NaN 590.3299933199726 0.5153545585777933 110.0 0.0 62.0 
360.00031248372903 476.0 NaN 584.1790247160998 0.5028722205459688 109.0 0.0 60.0 
370.00031248372903 479.0 NaN 571.9251837007349 0.5032934426617438 105.0 0.0 56.0 
380.00031248372903 474.0 NaN 584.2511690046757 0.5031639658481791 103.0 0.0 60.0 
390.00031248372903 462.0 NaN 587.3106212424848 0.5223620348037868 103.0 0.0 61.0 
400.00031248372903 478.0 NaN 602.6826987307956 0.533050075957601 111.0 0.0 66.0 
410.00031248372903 478.0 NaN 614.9124916499667 0.5146831702904104 117.0 0.0 70.0 
420.00031248372903 504.0 NaN 630.2899131596528 0.5106881254181351 125.0 0.0 75.0 
430.00031248372903 485.0 NaN 636.4195056780227 0.5123834441585662 130.0 0.0 77.0 
440.00031248372903 482.0 NaN 636.3553774215089 0.5172532677412263 129.0 0.0 77.0 
450.00031248372903 486.0 NaN 645.5925183700725 0.5144248433832868 129.0 0.0 80.0 
460.00031248372903 477.0 NaN 642.5223780895125 0.5315847582862916 129.0 0.0 79.0 
470.00031248372903 480.0 NaN 639.4228456913817 0.5395362647962758 125.0 0.0 78.0 
480.00031248372903 466.0 NaN 630.1883767535084 0.5084518035436294 124.0 0.0 75.0 
490.00031248372903 464.0 NaN 620.9832999332001 0.5005767624039257 123.0 0.0 72.0 
500.00031248372903 469.0 NaN 611.831663326653 0.5210827417703899 121.0 0.0 69.0 
510.00031248372903 466.0 NaN 584.1496325985305 0.5082013261800097 112.0 0.0 60.0 
520.000312483729 466.0 NaN 571.8904475617902 0.5038357921409273 110.0 0.0 56.0 
530.000312483729 470.0 NaN 574.9979959919841 0.5078458237931895 112.0 0.0 57.0 
540.000312483729 461.0 NaN 571.9412157648632 0.5147093338063741 100.0 0.0 56.0 
550.000312483729 466.0 NaN 571.9786239144955 0.5109859927684642 99.0 0.0 56.0 
560.000312483729 465.0 NaN 578.0921843687374 0.4988725019588221 99.0 0.0 58.0 
570.000312483729 454.0 NaN 581.2424849699397 0.514454435086131 101.0 0.0 59.0 
580.000312483729 451.0 NaN 584.2324649298598 0.5120755813458342 103.0 0.0 60.0 
590.000312483729 461.0 NaN 587.3667334669341 0.5200123557878606 108.0 0.0 61.0 
600.000312483729 463.0 NaN 584.1790247160991 0.5033098791128715 103.0 0.0 60.0 
610.000312483729 469.0 NaN 596.51837007348 0.48160498570095944 109.0 0.0 64.0 
620.000312483729 493.0 NaN 596.5210420841681 0.5022638133857301 113.0 0.0 64.0 
630.000312483729 468.0 NaN 611.8423513694049 0.5446038566383742 121.0 0.0 69.0 
640.000312483729 471.0 NaN 614.8857715430864 0.5261698193466219 123.0 0.0 70.0 
650.000312483729 468.0 NaN 611.8102872411492 0.5042922017986409 128.0 0.0 69.0 
660.000312483729 471.0 NaN 614.8456913827658 0.5259360715000145 131.0 0.0 70.0 
#####################################################################
# End of data export. Simulation finished at: 2019-03-03T18:25+0000 #
#####################################################################
