#####################################################################
# Alchemist log file - simulation started at: 2019-03-07T14:27+0000 #
#####################################################################
# seed = 5.0, bandwidth = 74989.42093324558, propagationDelay = 10.0, baserange = 562.341325190349
#
# The columns have the following meaning: 
# time neighbor_count[Sum] <value>@neighbor_count[Sum] packet_size[Mean] mean_delay[Mean] crowd[Sum] overcrowded[Sum] risk[Sum] 
0.0 NaN NaN NaN NaN NaN NaN NaN 
2.000101793669918 NaN NaN 4988.0 NaN 1497.0 0.0 1497.0 
4.000101793669918 NaN NaN 4988.0 NaN 1497.0 0.0 1497.0 
6.000101793669918 NaN NaN 4988.0 NaN 1497.0 0.0 1497.0 
8.000101793669918 NaN NaN 4988.0 NaN 1497.0 0.0 1497.0 
10.000101793669918 NaN NaN 4988.0 NaN 1497.0 0.0 1497.0 
12.000101793669918 98080.0 NaN 4995.070140280561 0.9348731426469608 1497.0 0.0 1497.0 
14.000101793669918 98226.0 NaN 4996.352705410822 2.934252842489694 1497.0 0.0 1497.0 
16.00010179366992 98226.0 NaN 4996.352705410822 4.934252842489694 1497.0 0.0 1497.0 
18.00010179366992 98226.0 NaN 4996.352705410822 6.934252842489694 1497.0 0.0 1497.0 
20.00010179366992 98226.0 NaN 4996.350033400134 8.934252842489693 1497.0 0.0 1497.0 
22.00010179366992 98253.0 NaN 4996.344689378758 6.157876222124645 1497.0 0.0 1497.0 
24.00010179366992 98297.0 NaN 4995.551102204408 1.9401162261726228 1497.0 0.0 1497.0 
26.00010179366992 98297.0 NaN 4994.663994655979 3.9401162261726226 1497.0 0.0 1497.0 
28.00010179366992 98297.0 NaN 4994.663994655979 5.940116226172623 1497.0 0.0 1497.0 
30.00010179366992 98297.0 NaN 4994.680026720107 7.940116226172623 1497.0 0.0 1497.0 
32.00010179366992 98297.0 NaN 4994.680026720107 9.940116226172623 1497.0 0.0 1497.0 
34.00010179366992 98402.0 NaN 4995.014028056112 0.9707291065680965 1497.0 0.0 1497.0 
36.00010179366992 98400.0 NaN 4995.906479625918 2.9537854945105018 1497.0 0.0 1497.0 
38.00010179366992 98392.0 NaN 4995.906479625918 4.9467321313598775 1497.0 0.0 1497.0 
40.00010179366992 98392.0 NaN 4995.906479625918 6.9467321313598775 1497.0 0.0 1497.0 
42.00010179366992 98392.0 NaN 4995.906479625918 8.946732131359877 1497.0 0.0 1497.0 
44.00010179366992 98447.0 NaN 4995.906479625918 6.169801221546955 1496.0 1.0 1496.0 
46.00010179366992 98515.0 NaN 4995.700734802939 1.9741949534212269 1497.0 0.0 1497.0 
48.00010179366992 98484.0 NaN 4994.797595190381 3.9535101009499005 1497.0 0.0 1497.0 
50.00010179366992 98484.0 NaN 4994.813627254509 5.9535101009499005 1497.0 0.0 1497.0 
52.00010179366992 98484.0 NaN 4994.813627254509 7.9535101009499005 1497.0 0.0 1497.0 
54.00010179366992 98484.0 NaN 4994.816299265197 9.9535101009499 1497.0 0.0 1497.0 
56.00010179366992 98659.0 NaN 4995.163660654643 0.9970243652611356 1497.0 0.0 1497.0 
58.00010179366992 98653.0 NaN 4996.045424181697 2.982112432980541 1497.0 0.0 1497.0 
60.00010179366992 98588.0 NaN 4992.964595858383 4.951983488898219 1496.0 0.0 1496.0 
62.00010179366992 98588.0 NaN 1520.1656646626575 6.951983488898219 840.0 0.0 364.0 
64.00010179366993 98588.0 NaN 1520.1656646626575 8.95198348889822 840.0 0.0 364.0 
66.00010179366993 98651.0 NaN 1520.1736806947245 6.1848026985441145 771.0 1.0 363.0 
68.00010179366993 98747.0 NaN 1522.7842351369395 1.9936537627454072 668.0 0.0 365.0 
70.00010179366993 98663.0 NaN 1522.5437541750177 3.960061884531675 668.0 0.0 365.0 
72.00010179366993 98663.0 NaN 1522.5277221108886 5.960061884531675 670.0 0.0 365.0 
74.00010179366993 98663.0 NaN 1522.5437541750177 7.960061884531675 670.0 0.0 365.0 
76.00010179366993 98663.0 NaN 1522.5464261857062 9.960061884531676 670.0 0.0 365.0 
78.00010179366993 98860.0 NaN 1531.9171676686724 1.0539829956243671 607.0 1.0 367.0 
80.00010179366993 98850.0 NaN 1532.1042084168337 3.0466956797075984 607.0 1.0 367.0 
82.00010179366993 98786.0 NaN 1532.1042084168337 5.004765873361374 606.0 1.0 367.0 
84.00010179366993 98786.0 NaN 1532.1042084168337 7.004765873361374 606.0 1.0 367.0 
86.00010179366993 98786.0 NaN 1532.1042084168337 9.004765873361373 606.0 1.0 367.0 
88.00010179366993 98848.0 NaN 1535.238476953909 5.708654095297773 589.0 4.0 365.0 
90.00010179366993 98915.0 NaN 1534.9311957247817 2.043289603725175 579.0 4.0 365.0 
92.00010179366993 98814.0 NaN 1534.6693386773545 3.996981026239456 580.0 4.0 365.0 
94.00010179366993 98809.0 NaN 1534.6693386773545 5.995800868159676 580.0 4.0 365.0 
96.00010179366993 98809.0 NaN 1534.6693386773545 7.995800868159676 580.0 4.0 365.0 
98.00010179366993 98809.0 NaN 1537.7528390113548 9.995800868159677 580.0 4.0 366.0 
100.00010179366993 98966.0 NaN 1538.014696058784 1.0461702968857527 556.0 2.0 368.0 
102.00010179366993 98942.0 NaN 1538.2017368069457 3.0314974822772665 555.0 2.0 368.0 
104.00010179366993 98864.0 NaN 1541.282565130261 5.011814293013287 555.0 2.0 369.0 
106.00010179366993 98864.0 NaN 1541.2665330661334 7.011814293013287 555.0 2.0 369.0 
108.00010179366993 98864.0 NaN 1541.2505010020031 9.011814293013288 555.0 2.0 369.0 
110.00010179366993 98944.0 NaN 1541.282565130261 5.720392516060285 550.0 3.0 368.0 
112.00010179366993 99038.0 NaN 1541.1356045424182 2.052650245971669 541.0 6.0 365.0 
114.00010179366993 98866.0 NaN 1540.9058116232454 3.9968363308735255 541.0 6.0 365.0 
116.00010179366993 98845.0 NaN 1540.8977955911816 5.992703036164234 541.0 6.0 365.0 
118.00010179366993 98845.0 NaN 1540.8871075484299 7.992703036164234 542.0 6.0 365.0 
120.00010179366993 98845.0 NaN 1540.8871075484299 9.992703036164233 542.0 6.0 365.0 
122.00010179366993 98993.0 NaN 1544.1336005344003 1.028249819031555 535.0 5.0 367.0 
124.00010179366993 98972.0 NaN 1544.2778891115547 3.0171335148183536 535.0 5.0 367.0 
126.00010179366993 98894.0 NaN 1541.2157648630607 4.998055279284845 535.0 5.0 366.0 
128.00010179366993 98894.0 NaN 1541.205076820309 6.998055279284845 535.0 5.0 366.0 
130.00010179366993 98894.0 NaN 1541.2157648630607 8.998055279284845 535.0 5.0 366.0 
132.00010179366993 98928.0 NaN 1541.2531730126907 5.702720945523606 535.0 4.0 367.0 
134.00010179366993 98966.0 NaN 1544.2137608550452 2.025196709772833 532.0 7.0 365.0 
136.00010179366993 98866.0 NaN 1544.0053440213758 3.9929694941792713 532.0 7.0 365.0 
138.00010179366993 98862.0 NaN 1531.7301269205088 5.992406837815334 530.0 7.0 361.0 
140.00010179366993 98862.0 NaN 1531.732798931197 7.992406837815334 530.0 7.0 361.0 
142.00010179366993 98862.0 NaN 1531.7381429525728 9.992406837815334 530.0 7.0 361.0 
144.00010179366993 98974.0 NaN 1538.094856379427 1.0271629025456281 533.0 5.0 365.0 
146.00010179366993 98957.0 NaN 1538.2177688710756 3.017953980404158 533.0 5.0 365.0 
148.00010179366993 98884.0 NaN 1535.147628590515 4.997932868718804 533.0 5.0 364.0 
150.00010179366993 98884.0 NaN 1532.0587842351363 6.997932868718804 533.0 5.0 363.0 
152.00010179366993 98884.0 NaN 1528.972611890446 8.997932868718804 533.0 5.0 362.0 
154.00010179366993 98936.0 NaN 1528.9913159652635 5.702068191483279 532.0 4.0 363.0 
156.00010179366993 98992.0 NaN 1535.038076152306 2.03182209225213 527.0 7.0 362.0 
158.00010179366993 98874.0 NaN 1528.6840347361392 3.998814452704313 527.0 7.0 360.0 
160.00010179366993 98865.0 NaN 1528.6680026720094 5.996427507620974 527.0 7.0 360.0 
162.00010179366993 98865.0 NaN 1528.6680026720094 7.996427507620974 527.0 7.0 360.0 
164.00010179366993 98865.0 NaN 1528.6680026720094 9.996427507620973 527.0 7.0 360.0 
166.00010179366993 98981.0 NaN 1538.1242484969935 1.0282824003188318 530.0 6.0 364.0 
168.00010179366993 98958.0 NaN 1538.2311289245158 3.0177016880568615 530.0 6.0 364.0 
170.00010179366993 98879.0 NaN 1535.1663326653302 4.9911508854849 530.0 6.0 363.0 
172.00010179366993 98879.0 NaN 1532.1015364061454 6.9911508854849 530.0 6.0 362.0 
174.00010179366993 98879.0 NaN 1532.1015364061454 8.9911508854849 530.0 6.0 362.0 
176.00010179366993 98922.0 NaN 1529.0501002003998 5.690854523910459 530.0 4.0 363.0 
178.00010179366993 98977.0 NaN 1534.9926519706091 2.019190344220064 525.0 7.0 362.0 
180.00010179366993 98870.0 NaN 1534.757515030061 3.998513333496021 525.0 7.0 362.0 
182.00010179366993 98862.0 NaN 1531.6793587174363 5.997277674471974 525.0 7.0 361.0 
184.00010179366993 98862.0 NaN 1531.6847027388092 7.997277674471974 525.0 7.0 361.0 
186.00010179366993 98862.0 NaN 1528.6225784903156 9.997277674471974 524.0 7.0 360.0 
188.00010179366993 98975.0 NaN 1534.947227788909 1.0416070648152218 527.0 6.0 363.0 
190.00010179366993 98948.0 NaN 1531.9732798931182 3.030773598496346 527.0 6.0 362.0 
192.00010179366993 98814.0 NaN 1528.9004676018728 5.006006713566509 527.0 6.0 361.0 
194.00010179366993 98814.0 NaN 1531.983967935873 7.006006713566509 527.0 6.0 362.0 
196.00010179366993 98814.0 NaN 1531.9732798931182 9.00600671356651 527.0 6.0 362.0 
198.00010179366993 98847.0 NaN 1535.0968603874426 5.7219213543914025 528.0 5.0 364.0 
200.00010179366993 98885.0 NaN 1541.0901803607208 2.0541995379732696 525.0 8.0 363.0 
202.00010179366993 98660.0 NaN 1537.8276553106207 4.005738581754875 525.0 8.0 362.0 
204.00010179366993 98648.0 NaN 1537.8089512358063 6.004153062310315 524.0 8.0 362.0 
206.00010179366993 98648.0 NaN 1537.8036072144273 8.004153062310314 524.0 8.0 362.0 
208.00010179366993 98648.0 NaN 1534.7334669338663 10.004153062310314 524.0 8.0 361.0 
210.00010179366993 98780.0 NaN 1534.8777555110212 1.0617641542980245 530.0 6.0 363.0 
212.00010179366993 98733.0 NaN 1534.9579158316637 3.045252671963378 529.0 6.0 363.0 
214.00010179366993 98575.0 NaN 1528.8203072812273 5.00918506443976 529.0 6.0 361.0 
216.00010179366993 98575.0 NaN 1525.7555110220453 7.00918506443976 529.0 6.0 360.0 
218.00010179366993 98575.0 NaN 1522.6960587842361 9.009185064439759 529.0 6.0 359.0 
220.00010179366993 98619.0 NaN 1525.814295257182 5.726971514357394 528.0 4.0 362.0 
222.00010179366993 98665.0 NaN 1531.807615230461 2.0620474494163257 522.0 6.0 362.0 
224.00010179366993 98515.0 NaN 1531.5938543754182 4.008647648999108 522.0 6.0 362.0 
226.00010179366993 98505.0 NaN 1525.448229792918 6.005853142918127 521.0 6.0 360.0 
228.00010179366993 98505.0 NaN 1525.4669338677363 8.005853142918127 521.0 6.0 360.0 
230.00010179366993 98505.0 NaN 1528.5744822979273 10.005853142918127 522.0 6.0 361.0 
232.00010179366993 98705.0 NaN 1534.9018036072152 1.0633888792124615 519.0 7.0 362.0 
234.00010179366993 98673.0 NaN 1534.9231796927181 3.053614882249411 519.0 7.0 362.0 
236.00010179366993 98539.0 NaN 1531.842351369406 5.0094464193507635 519.0 7.0 361.0 
238.00010179366993 98539.0 NaN 1528.7775551102184 7.0094464193507635 519.0 7.0 360.0 
240.00010179366993 98539.0 NaN 1531.8557114228454 9.009446419350764 520.0 7.0 361.0 
242.00010179366993 98599.0 NaN 1531.8877755511 5.72716513478552 521.0 4.0 364.0 
244.00010179366993 98665.0 NaN 1531.7408149632608 2.062986624599474 517.0 6.0 362.0 
246.00010179366993 98475.0 NaN 1528.4836339345366 4.00860233949068 517.0 6.0 361.0 
248.00010179366993 98463.0 NaN 1525.4188376753516 6.006724318722165 516.0 6.0 360.0 
250.00010179366993 98463.0 NaN 1525.3974615898455 8.006724318722165 516.0 6.0 360.0 
252.00010179366993 98463.0 NaN 1525.3867735470935 10.006724318722165 516.0 6.0 360.0 
254.00010179366993 98555.0 NaN 1528.6973947895792 1.0745443106188788 514.0 6.0 361.0 
256.00010179366996 98514.0 NaN 1528.6332665330663 3.0583533573949824 515.0 6.0 361.0 
258.00010179366996 98350.0 NaN 1522.4903139612547 5.017364090035315 515.0 6.0 359.0 
260.00010179366996 98350.0 NaN 1522.4956579826335 7.017364090035315 515.0 6.0 359.0 
262.00010179366996 98350.0 NaN 1519.433533734136 9.017364090035315 515.0 6.0 358.0 
264.00010179366996 98389.0 NaN 1522.551770207082 5.743897612712491 518.0 4.0 361.0 
266.00010179366996 98433.0 NaN 1531.9118236472937 2.0859177817421464 515.0 6.0 362.0 
268.00010179366996 98154.0 NaN 1531.695390781564 4.0158625295835595 515.0 6.0 362.0 
270.00010179366996 98138.0 NaN 1525.528390113561 6.013621418328302 514.0 6.0 360.0 
272.00010179366996 98138.0 NaN 1525.5123580494335 8.013621418328302 514.0 6.0 360.0 
274.00010179366996 98138.0 NaN 1525.4909819639272 10.013621418328302 514.0 6.0 360.0 
276.00010179366996 98268.0 NaN 1534.8830995324 1.0839612476782914 508.0 8.0 361.0 
278.00010179366996 98223.0 NaN 1537.8517034068157 3.0711436846137383 510.0 8.0 362.0 
280.00010179366996 97976.0 NaN 1534.7788911155635 5.01332200686514 510.0 8.0 361.0 
282.00010179366996 97976.0 NaN 1531.7007348029388 7.01332200686514 510.0 8.0 360.0 
284.00010179366996 97976.0 NaN 1531.7034068136272 9.01332200686514 510.0 8.0 360.0 
286.00010179366996 98027.0 NaN 1534.8350033400118 5.728489260769615 512.0 5.0 364.0 
288.00010179366996 98083.0 NaN 1537.9185036740157 2.0750260040942337 510.0 7.0 363.0 
290.00010179366996 97822.0 NaN 1534.6158984635933 4.015778543551354 510.0 7.0 362.0 
292.00010179366996 97814.0 NaN 1531.5430861723455 6.0143753936841735 510.0 7.0 361.0 
294.00010179366996 97814.0 NaN 1528.4649298597183 8.014375393684173 509.0 7.0 360.0 
296.00010179366996 97814.0 NaN 1528.472945891782 10.014375393684173 508.0 7.0 360.0 
298.00010179366996 97933.0 NaN 1537.9131596526363 1.092231908236068 507.0 8.0 362.0 
300.00010179366996 97895.0 NaN 1537.905143620573 3.078759153501624 507.0 8.0 362.0 
302.00010179366996 97646.0 NaN 1522.5811623246484 5.025697662806487 508.0 7.0 358.0 
304.00010179366996 97646.0 NaN 1522.6052104208425 7.025697662806487 508.0 7.0 358.0 
306.00010179366996 97646.0 NaN 1525.6806947227794 9.025697662806488 508.0 7.0 359.0 
308.00010179366996 97700.0 NaN 1528.7748830995333 5.749638579597766 509.0 5.0 362.0 
310.00010179366996 97766.0 NaN 1531.7782231128913 2.100804379845286 505.0 6.0 362.0 
312.00010179366996 97438.0 NaN 1531.615230460921 4.016177873513318 505.0 6.0 362.0 
314.00010179366996 97430.0 NaN 1522.3834335337363 6.0148917311612635 506.0 5.0 360.0 
316.00010179366996 97430.0 NaN 1519.3213092852363 8.014891731161264 505.0 5.0 359.0 
318.00010179366996 97430.0 NaN 1519.3266533066121 10.014891731161264 505.0 5.0 359.0 
320.00010179366996 97530.0 NaN 1525.5791583166338 1.0950318803188688 509.0 3.0 363.0 
322.00010179366996 97473.0 NaN 1528.6092184368727 3.0785734777800506 509.0 3.0 364.0 
324.00010179366996 97188.0 NaN 1525.5257181028728 5.022861487673696 509.0 3.0 363.0 
326.00010179366996 97188.0 NaN 1525.5310621242481 7.022861487673696 508.0 3.0 363.0 
328.00010179366996 97188.0 NaN 1525.5177020708093 9.022861487673696 509.0 3.0 363.0 
330.00010179366996 97228.0 NaN 1525.560454241818 5.759171414606578 507.0 4.0 362.0 
332.00010179366996 97277.0 NaN 1525.5337341349364 2.109575642100935 505.0 6.0 360.0 
334.00010179366996 96927.0 NaN 1525.3493653974633 4.031632648031251 505.0 6.0 360.0 
336.00010179366996 96909.0 NaN 1522.2551770207092 6.027524266252479 505.0 6.0 359.0 
338.00010179366996 96909.0 NaN 1522.2551770207092 8.02752426625248 504.0 6.0 359.0 
340.00010179366996 96909.0 NaN 1522.2551770207092 10.02752426625248 504.0 6.0 359.0 
342.00010179366996 96991.0 NaN 1525.413493653973 1.1095075871228042 507.0 3.0 363.0 
344.00010179366996 96938.0 NaN 1525.402805611221 3.07974577174424 508.0 3.0 363.0 
346.00010179366996 96692.0 NaN 1516.2004008016024 5.013571789305743 507.0 3.0 360.0 
348.00010179366996 96692.0 NaN 1516.1870407481638 7.013571789305743 505.0 3.0 360.0 
350.00010179366996 96692.0 NaN 1522.3353373413486 9.013571789305743 506.0 3.0 362.0 
352.00010179366996 96753.0 NaN 1519.3293253173006 5.73897840967075 502.0 7.0 357.0 
354.00010179366996 96820.0 NaN 1522.4956579826332 2.0869596663438608 506.0 8.0 357.0 
356.00010179366996 96535.0 NaN 1519.230460921845 4.026249091675755 506.0 8.0 356.0 
358.00010179366996 96518.0 NaN 1516.1496325985297 6.023120515252625 505.0 8.0 355.0 
360.00010179366996 96518.0 NaN 1516.1496325985297 8.023120515252625 505.0 8.0 355.0 
362.00010179366996 96518.0 NaN 1516.1496325985297 10.023120515252625 505.0 8.0 355.0 
364.00010179366996 96696.0 NaN 1519.2625250501 1.1152488622641763 510.0 4.0 360.0 
366.00010179366996 96623.0 NaN 1519.104876419506 3.0959091489659327 510.0 4.0 360.0 
368.00010179366996 96350.0 NaN 1506.8109552438202 5.028934087459194 510.0 4.0 356.0 
370.00010179366996 96350.0 NaN 1509.8810955243816 7.028934087459194 510.0 4.0 357.0 
372.00010179366996 96350.0 NaN 1509.8650634602545 9.028934087459193 510.0 4.0 357.0 
374.00010179366996 96448.0 NaN 1513.0367401469612 5.760871623831842 507.0 9.0 353.0 
376.00010179366996 96553.0 NaN 1516.2511690046751 2.1193604930398138 507.0 10.0 353.0 
378.00010179366996 96202.0 NaN 1509.9104876419515 4.038594351785437 507.0 10.0 351.0 
380.00010179366996 96176.0 NaN 1503.7889111556453 6.028336835802121 506.0 10.0 349.0 
382.00010179366996 96176.0 NaN 1500.7641950567809 8.028336835802122 507.0 10.0 348.0 
384.00010179366996 96176.0 NaN 1497.7127588510361 10.02833683580212 508.0 9.0 348.0 
386.00010179366996 96341.0 NaN 1497.7955911823638 1.11127966950903 511.0 7.0 350.0 
388.00010179366996 96275.0 NaN 1497.6432865731456 3.094494246288558 511.0 7.0 350.0 
390.00010179366996 96011.0 NaN 1500.7294589178364 5.012111694087242 511.0 7.0 351.0 
392.00010179366996 96011.0 NaN 1503.8450233800932 7.012111694087242 512.0 7.0 352.0 
394.00010179366996 96011.0 NaN 1503.8343353373425 9.012111694087242 512.0 7.0 352.0 
396.00010179366996 96080.0 NaN 1510.0440881763539 5.73298657338257 508.0 11.0 350.0 
398.00010179366996 96158.0 NaN 1516.2645290581177 2.0772571660885837 511.0 11.0 352.0 
400.00010179366996 95892.0 NaN 1509.9585838343362 4.019737549805486 510.0 11.0 350.0 
402.00010179366996 95871.0 NaN 1509.9585838343362 6.015321809327463 509.0 12.0 349.0 
404.00010179366996 95871.0 NaN 1516.104208416834 8.015321809327462 511.0 12.0 351.0 
406.00010179366996 95871.0 NaN 1516.0908483633932 10.015321809327462 511.0 12.0 351.0 
408.00010179366996 96041.0 NaN 1528.627922511691 1.1027062402914578 516.0 8.0 359.0 
410.00010179366996 95985.0 NaN 1528.4649298597187 3.0874007335333644 515.0 8.0 359.0 
412.00010179366996 95743.0 NaN 1525.3787575150295 5.032200124518206 515.0 8.0 358.0 
414.00010179366996 95743.0 NaN 1528.4221776887096 7.032200124518206 515.0 8.0 359.0 
416.00010179366996 95743.0 NaN 1528.376753507015 9.032200124518205 515.0 8.0 359.0 
418.00010179366996 95846.0 NaN 1528.4488977955907 5.774820014784161 513.0 11.0 356.0 
420.00010179366996 95952.0 NaN 1528.537074148297 2.135059501735343 519.0 11.0 356.0 
422.00010179366996 95588.0 NaN 1503.7942551770204 4.0388294514532435 516.0 11.0 348.0 
424.00010179366996 95568.0 NaN 1497.6486305945218 6.034056565204985 515.0 12.0 345.0 
426.00010179366996 95568.0 NaN 1497.6272545090183 8.034056565204985 515.0 12.0 345.0 
428.00010179366996 95568.0 NaN 1497.6272545090183 10.034056565204985 515.0 12.0 345.0 
430.00010179366996 95770.0 NaN 1510.0788243152974 1.128950365228898 512.0 10.0 351.0 
432.00010179366996 95705.0 NaN 1512.9886439545753 3.1099107873828604 512.0 10.0 352.0 
434.00010179366996 95441.0 NaN 1506.859051436206 5.022200927118651 512.0 10.0 350.0 
436.00010179366996 95441.0 NaN 1506.8430193720785 7.022200927118651 513.0 10.0 350.0 
438.00010179366996 95441.0 NaN 1506.8430193720785 9.02220092711865 513.0 10.0 350.0 
440.00010179366996 95518.0 NaN 1513.0634602538419 5.751755622416543 515.0 9.0 353.0 
442.00010179366996 95605.0 NaN 1537.8891115564454 2.111308138089578 516.0 12.0 358.0 
444.00010179366996 95354.0 NaN 1537.6887107548432 4.037726718218879 518.0 10.0 360.0 
446.00010179366996 95337.0 NaN 1534.589178356712 6.031932083301255 518.0 10.0 359.0 
448.00010179366996 95337.0 NaN 1537.6833667334663 8.031932083301255 518.0 10.0 360.0 
450.00010179366996 95337.0 NaN 1537.7234468937884 10.031932083301255 518.0 10.0 360.0 
452.00010179366996 95508.0 NaN 1553.1382765531066 1.1176843946567234 527.0 7.0 368.0 
454.00010179366996 95457.0 NaN 1552.9592518370087 3.096597584993456 527.0 7.0 368.0 
456.00010179366996 95218.0 NaN 1549.8917835671361 5.013015674535909 526.0 7.0 367.0 
458.00010179366996 95218.0 NaN 1546.7975951903818 7.013015674535909 524.0 7.0 366.0 
460.00010179366996 95218.0 NaN 1546.7895791583178 9.01301567453591 523.0 7.0 366.0 
462.00010179366996 95319.0 NaN 1549.9131596526365 5.730022823602363 524.0 6.0 368.0 
464.00010179366996 95435.0 NaN 1553.119572478291 2.0772931896967166 523.0 8.0 367.0 
466.00010179366996 95224.0 NaN 1546.8243152972614 4.01655909831793 522.0 8.0 365.0 
468.00010179366996 95219.0 NaN 1546.8430193720787 6.014482420958526 523.0 8.0 365.0 
470.00010179366996 95219.0 NaN 1549.9291917167661 8.014482420958526 524.0 8.0 366.0 
472.00010179366996 95219.0 NaN 1546.845691382764 10.014482420958526 522.0 8.0 365.0 
474.00010179366996 95416.0 NaN 1540.8550434201727 1.0950520578758223 522.0 6.0 365.0 
476.00010179366996 95356.0 NaN 1540.6199064796272 3.0716285974090534 522.0 6.0 365.0 
478.00010179366996 95193.0 NaN 1534.506346025382 5.024377322720013 519.0 6.0 363.0 
480.00010179366996 95193.0 NaN 1534.503674014697 7.024377322720013 521.0 6.0 363.0 
482.00010179366996 95193.0 NaN 1531.4655978623907 9.024377322720012 519.0 6.0 362.0 
484.00010179366996 95321.0 NaN 1522.316633266534 5.7445029053194805 517.0 4.0 361.0 
486.00010179366996 95460.0 NaN 1519.1850367401462 2.0904387080521625 513.0 6.0 358.0 
488.00010179366996 95254.0 NaN 1506.7094188376748 4.007216418761691 512.0 6.0 354.0 
490.00010179366996 95238.0 NaN 1506.7174348697386 6.004327681524511 514.0 6.0 354.0 
492.00010179366996 95238.0 NaN 1500.5798263193062 8.004327681524511 514.0 6.0 352.0 
494.00010179366996 95238.0 NaN 1500.5798263193062 10.004327681524511 513.0 6.0 352.0 
496.00010179366996 95476.0 NaN 1503.9519038076162 1.0768758322339456 516.0 5.0 354.0 
498.00010179366996 95442.0 NaN 1503.8343353373425 3.061435755058561 517.0 5.0 354.0 
500.00010179366996 95304.0 NaN 1494.6559786239154 5.026356532857363 516.0 5.0 351.0 
502.00010179366996 95304.0 NaN 1497.7234468937886 7.026356532857363 517.0 5.0 352.0 
504.00010179366996 95304.0 NaN 1503.8904475617908 9.026356532857363 519.0 5.0 354.0 
506.00010179366996 95391.0 NaN 1507.0006680026727 5.747742798530347 521.0 3.0 357.0 
508.00010179366996 95492.0 NaN 1516.2939211756839 2.0976053809659394 518.0 6.0 357.0 
510.00010179366996 95252.0 NaN 1509.9719438877748 4.012325252047232 518.0 6.0 355.0 
512.00010179367 95239.0 NaN 1494.5998663994646 6.008198361159008 519.0 5.0 351.0 
514.00010179367 95239.0 NaN 1491.5511022044093 8.008198361159007 519.0 5.0 350.0 
516.00010179367 95239.0 NaN 1485.421509686038 10.008198361159007 518.0 5.0 348.0 
518.00010179367 95447.0 NaN 1488.617234468937 1.0742459027775202 512.0 4.0 350.0 
520.00010179367 95396.0 NaN 1485.44555778223 3.056702826049507 512.0 4.0 349.0 
522.00010179367 95246.0 NaN 1470.0734802939203 5.017649365655239 512.0 4.0 344.0 
524.00010179367 95246.0 NaN 1467.0060120240473 7.017649365655239 511.0 4.0 343.0 
526.00010179367 95246.0 NaN 1467.003340013361 9.01764936565524 510.0 4.0 343.0 
528.00010179367 95374.0 NaN 1473.226452905811 5.744180905654089 509.0 4.0 345.0 
530.00010179367 95537.0 NaN 1473.3173012692062 2.104846857004388 507.0 5.0 344.0 
532.00010179367 95355.0 NaN 1467.0060120240475 4.04210459702569 508.0 5.0 342.0 
534.00010179367 95340.0 NaN 1454.7361389445553 6.0392043747610975 507.0 5.0 338.0 
536.00010179367 95340.0 NaN 1454.7254509018032 8.039204374761097 507.0 5.0 338.0 
538.00010179367 95340.0 NaN 1457.8089512358056 10.039204374761097 508.0 5.0 339.0 
540.00010179367 95606.0 NaN 1467.0647962591843 1.1328730921991297 508.0 2.0 345.0 
542.00010179367 95571.0 NaN 1470.0654642618567 3.111609698781882 510.0 2.0 346.0 
544.00010179367 95421.0 NaN 1473.1142284569146 5.018572277244194 509.0 2.0 347.0 
546.00010179367 95421.0 NaN 1473.1115564462264 7.018572277244194 509.0 2.0 347.0 
548.00010179367 95421.0 NaN 1476.184368737474 9.018572277244195 509.0 2.0 348.0 
550.00010179367 95540.0 NaN 1476.235136940547 5.727619415787388 509.0 5.0 345.0 
552.00010179367 95660.0 NaN 1479.470941883767 2.0847068775667243 509.0 6.0 345.0 
554.00010179367 95512.0 NaN 1479.3132932531726 4.018543888522208 510.0 6.0 345.0 
556.00010179367 95499.0 NaN 1467.035404141617 6.013582653227816 509.0 6.0 341.0 
558.00010179367 95499.0 NaN 1463.970607882431 8.013582653227816 508.0 6.0 340.0 
560.00010179367 95499.0 NaN 1467.0514362057454 10.013582653227816 508.0 6.0 341.0 
562.00010179367 95836.0 NaN 1473.1382765531068 1.0756607107028104 509.0 3.0 346.0 
564.00010179367 95812.0 NaN 1473.0100200400805 3.057862334086832 510.0 3.0 346.0 
566.00010179367 95703.0 NaN 1463.826319305277 5.010437716370088 508.0 3.0 343.0 
568.00010179367 95703.0 NaN 1466.8884435537736 7.010437716370088 508.0 3.0 344.0 
570.00010179367 95703.0 NaN 1469.9826319305273 9.010437716370088 509.0 3.0 345.0 
572.00010179367 95836.0 NaN 1476.1790247160995 5.726869693293309 508.0 6.0 344.0 
574.00010179367 95976.0 NaN 1485.5470941883761 2.091662308505378 510.0 6.0 347.0 
576.00010179367 95779.0 NaN 1482.2979291917175 4.040095804811596 510.0 6.0 346.0 
578.00010179367 95755.0 NaN 1476.1816967267873 6.035873764567222 510.0 6.0 344.0 
580.00010179367 95755.0 NaN 1479.2732130928532 8.035873764567222 511.0 6.0 345.0 
582.00010179367 95755.0 NaN 1479.305277221109 10.035873764567222 512.0 6.0 345.0 
584.00010179367 96069.0 NaN 1488.638610554443 1.1343846561051736 518.0 4.0 350.0 
586.00010179367 95964.0 NaN 1488.4943219772886 3.1026808610990804 518.0 4.0 350.0 
588.00010179367 95629.0 NaN 1473.162324649299 5.028411290934398 517.0 4.0 345.0 
590.00010179367 95629.0 NaN 1476.2271209084831 7.028411290934398 518.0 4.0 346.0 
592.00010179367 95629.0 NaN 1479.2571810287245 9.028411290934397 518.0 4.0 347.0 
594.00010179367 95747.0 NaN 1482.3727454909817 5.748609869544172 520.0 7.0 345.0 
596.00010179367 95881.0 NaN 1485.5764863059455 2.117914085323893 525.0 7.0 346.0 
598.00010179367 95633.0 NaN 1488.4969939879752 4.041187792801193 526.0 7.0 347.0 
600.00010179367 95617.0 NaN 1491.5671342685366 6.033554018844976 526.0 7.0 348.0 
602.00010179367 95617.0 NaN 1488.4702738810945 8.033554018844976 526.0 7.0 347.0 
604.00010179367 95617.0 NaN 1494.621242484971 10.033554018844976 526.0 7.0 349.0 
606.00010179367 95927.0 NaN 1503.9839679358724 1.1240645376947918 529.0 5.0 354.0 
608.00010179367 95872.0 NaN 1503.788911155645 3.104999108601138 531.0 5.0 354.0 
610.00010179367 95623.0 NaN 1500.7374749499 5.0187294844094 530.0 5.0 353.0 
612.00010179367 95623.0 NaN 1497.6780227120908 7.0187294844094 529.0 5.0 352.0 
614.00010179367 95623.0 NaN 1497.6619906479634 9.0187294844094 530.0 5.0 352.0 
616.00010179367 95766.0 NaN 1497.704742818972 5.729664116185403 524.0 8.0 349.0 
618.00010179367 95924.0 NaN 1500.855043420173 2.0934893825238707 527.0 6.0 352.0 
620.00010179367 95692.0 NaN 1500.7374749499 4.029061313859988 527.0 6.0 352.0 
622.00010179367 95672.0 NaN 1500.7855711422837 6.023485125182319 526.0 6.0 352.0 
624.00010179367 95672.0 NaN 1500.7989311957256 8.023485125182319 527.0 6.0 352.0 
626.00010179367 95672.0 NaN 1500.8203072812285 10.023485125182319 528.0 6.0 352.0 
628.00010179367 95910.0 NaN 1513.3894455577818 1.0911253908423901 526.0 6.0 356.0 
630.00010179367 95871.0 NaN 1510.1589846359375 3.078620425321073 527.0 6.0 355.0 
632.00010179367 95691.0 NaN 1510.191048764194 5.013048699608976 527.0 6.0 355.0 
634.00010179367 95691.0 NaN 1507.1102204408817 7.013048699608976 525.0 6.0 354.0 
636.00010179367 95691.0 NaN 1507.0941883767543 9.013048699608976 525.0 6.0 354.0 
638.00010179367 95775.0 NaN 1513.2611890447556 5.734021147262417 523.0 9.0 353.0 
640.00010179367 95860.0 NaN 1516.2725450901808 2.0965057740785515 522.0 8.0 355.0 
642.00010179367 95655.0 NaN 1513.0848363393457 4.039640633864392 522.0 8.0 354.0 
644.00010179367 95640.0 NaN 1510.0200400801614 6.036362902842618 522.0 8.0 353.0 
646.00010179367 95640.0 NaN 1513.1035404141626 8.036362902842619 522.0 8.0 354.0 
648.00010179367 95640.0 NaN 1516.1897127588518 10.036362902842619 522.0 8.0 355.0 
650.00010179367 95828.0 NaN 1516.3981295925182 1.1417713772780678 525.0 5.0 358.0 
652.00010179367 95753.0 NaN 1519.369405477621 3.114578471628928 526.0 5.0 359.0 
654.00010179367 95485.0 NaN 1519.3587174348709 5.033186660964549 526.0 5.0 359.0 
656.00010179367 95485.0 NaN 1519.3640614562453 7.033186660964549 526.0 5.0 359.0 
658.00010179367 95485.0 NaN 1519.3961255845013 9.033186660964548 526.0 5.0 359.0 
660.00010179367 95626.0 NaN 1531.772879091517 5.759735821708704 515.0 8.0 360.0 
662.00010179367 95779.0 NaN 1534.8269873079485 2.1217927973827853 514.0 7.0 362.0 
664.00010179367 95450.0 NaN 1537.7234468937886 4.032749150108879 515.0 7.0 363.0 
#####################################################################
# End of data export. Simulation finished at: 2019-03-07T14:47+0000 #
#####################################################################
