#####################################################################
# Alchemist log file - simulation started at: 2019-03-07T10:51+0000 #
#####################################################################
# seed = 5.0, bandwidth = 17782.79410038923, propagationDelay = 0.1, baserange = 562.341325190349
#
# The columns have the following meaning: 
# time neighbor_count[Sum] <value>@neighbor_count[Sum] packet_size[Mean] mean_delay[Mean] crowd[Sum] overcrowded[Sum] risk[Sum] 
0.0 NaN NaN NaN NaN NaN NaN NaN 
2.000070993418408 91637.0 NaN 4992.558450233801 0.46924123313852195 1497.0 0.0 1497.0 
4.000101793669918 98210.0 NaN 4993.605878423514 0.5016741677908002 1496.0 1.0 1496.0 
6.000101793669918 98210.0 NaN 4996.02672010688 0.5017774763909941 1496.0 1.0 1496.0 
8.000070993418408 98214.0 NaN 4994.188376753507 0.5016751505397182 1495.0 2.0 1495.0 
10.000101793669918 98226.0 NaN 4994.864395457582 0.5017013571416303 1495.0 2.0 1495.0 
12.000101793669918 98226.0 NaN 4996.216432865732 0.5017670087243012 1497.0 0.0 1497.0 
14.000070993418408 98226.0 NaN 4994.0334001336005 0.5016948771585716 1496.0 1.0 1496.0 
16.00010179366992 98228.0 NaN 4994.514362057448 0.5017430791218296 1495.0 2.0 1495.0 
18.00010179366992 98236.0 NaN 4996.261857047428 0.5020492511002749 1496.0 1.0 1496.0 
20.000070993418408 98296.0 NaN 4994.450233800935 0.5028801127413385 1495.0 2.0 1495.0 
22.00010179366992 98297.0 NaN 4994.615898463594 0.5039424276231199 1496.0 1.0 1496.0 
24.00010179366992 98298.0 NaN 4996.034736138945 0.5050708637804977 1497.0 0.0 1497.0 
26.000070993418408 98302.0 NaN 4994.113560454241 0.5060567824409212 1495.0 2.0 1495.0 
28.00010179366992 98319.0 NaN 4994.688042752171 0.5071260668176534 1495.0 2.0 1495.0 
30.00010179366992 98371.0 NaN 4996.494321977288 0.5095856792523592 1497.0 0.0 1497.0 
32.00007099341841 98385.0 NaN 4994.231128924515 0.511966120170444 1496.0 1.0 1496.0 
34.00010179366992 98402.0 NaN 4994.490313961256 0.5147992007342768 1496.0 1.0 1496.0 
36.00010179366992 98416.0 NaN 4996.133600534402 0.5177474207439485 1496.0 1.0 1496.0 
38.00007099341841 98428.0 NaN 4994.281897127588 0.5214800066028982 1495.0 2.0 1495.0 
40.00010179366992 98480.0 NaN 4994.931195724783 0.5188990627100019 1495.0 2.0 1495.0 
42.00010179366992 98491.0 NaN 4996.253841015364 0.51945141688135 1497.0 0.0 1497.0 
44.00007099341841 98514.0 NaN 4994.070808283233 0.5244429793124553 1496.0 1.0 1496.0 
46.00010179366992 98524.0 NaN 4994.509018036072 0.5293597366707739 1495.0 2.0 1495.0 
48.00010179366992 98534.0 NaN 4996.227120908484 0.5349845191892926 1496.0 1.0 1496.0 
50.00007099341841 98557.0 NaN 4994.466265865063 0.534070689020037 1495.0 2.0 1495.0 
52.00010179366992 98587.0 NaN 4994.60788243153 0.5295162500307513 1496.0 1.0 1496.0 
54.00010179366992 98660.0 NaN 4996.005344021376 0.5339571558706254 1497.0 0.0 1497.0 
56.00007099341841 98659.0 NaN 4994.1189044756175 0.5355351121345687 1495.0 2.0 1495.0 
58.00010179366992 98670.0 NaN 4994.677354709419 0.541058006529098 1495.0 2.0 1495.0 
60.00010179366992 98703.0 NaN 4993.338677354709 0.535327021339243 1496.0 0.0 1496.0 
62.00010179366992 98751.0 NaN 1522.4475617902458 0.5239298357613571 796.0 0.0 365.0 
64.00010179366993 98742.0 NaN 1522.4742818971272 0.5407663305088081 632.0 2.0 363.0 
66.00010179366993 98727.0 NaN 1522.5784903139615 0.5414251419427966 583.0 3.0 362.0 
68.00010179366993 98778.0 NaN 1525.5657982631913 0.5463825133880206 555.0 3.0 363.0 
70.00010179366993 98812.0 NaN 1525.5310621242481 0.5493373001674091 535.0 3.0 363.0 
72.00010179366993 98829.0 NaN 1525.6138944555787 0.5469133271016908 532.0 3.0 363.0 
74.00010179366993 98853.0 NaN 1528.5985303941213 0.5486133626063316 530.0 3.0 364.0 
76.00010179366993 98834.0 NaN 1528.6466265865065 0.5489802687598592 529.0 3.0 364.0 
78.00010179366993 98859.0 NaN 1531.85036740147 0.5559113588487437 528.0 3.0 365.0 
80.00010179366993 98883.0 NaN 1534.7815631262542 0.5407948525780107 527.0 3.0 366.0 
82.00010179366993 98889.0 NaN 1534.8002672010698 0.5448675674332628 526.0 3.0 366.0 
84.00010179366993 98900.0 NaN 1534.8911155644635 0.5452093320950592 526.0 3.0 366.0 
86.00010179366993 98896.0 NaN 1534.8082832331334 0.5444678723402127 524.0 3.0 366.0 
88.00010179366993 98919.0 NaN 1534.8162992651974 0.550269168936422 523.0 3.0 366.0 
90.00010179366993 98925.0 NaN 1534.907147628591 0.5385238443363818 524.0 3.0 366.0 
92.00010179366993 98918.0 NaN 1534.7441549766183 0.5314427946430373 525.0 3.0 366.0 
94.00010179366993 98932.0 NaN 1534.7682030728117 0.5271806428075694 525.0 3.0 366.0 
96.00010179366993 98927.0 NaN 1534.880427521709 0.5298747631124583 525.0 3.0 366.0 
98.00010179366993 98946.0 NaN 1537.859719438879 0.5344304000336416 525.0 3.0 367.0 
100.00010179366993 98964.0 NaN 1537.8543754175003 0.539403294538478 525.0 3.0 367.0 
102.00010179366993 98981.0 NaN 1537.9692718770877 0.5363943020617876 524.0 3.0 367.0 
104.00010179366993 98990.0 NaN 1540.9164996659997 0.5403621585661461 524.0 3.0 368.0 
106.00010179366993 98982.0 NaN 1540.9672678690724 0.5430970418463391 524.0 3.0 368.0 
108.00010179366993 99037.0 NaN 1541.0420841683363 0.5476178216391314 524.0 3.0 368.0 
110.00010179366993 99041.0 NaN 1540.9004676018724 0.5498845210789924 524.0 3.0 368.0 
112.00010179366993 99074.0 NaN 1540.8977955911816 0.5446896610931099 525.0 3.0 368.0 
114.00010179366993 99086.0 NaN 1541.007348029391 0.5500511760137836 525.0 3.0 368.0 
116.00010179366993 99069.0 NaN 1540.8924515698066 0.5472263483487577 526.0 3.0 368.0 
118.00010179366993 99064.0 NaN 1540.9245156980637 0.5495619973398571 527.0 3.0 368.0 
120.00010179366993 99000.0 NaN 1540.9752839011364 0.535485876310427 527.0 3.0 368.0 
122.00010179366993 98995.0 NaN 1540.8844355377428 0.5292301373602736 527.0 3.0 368.0 
124.00010179366993 98988.0 NaN 1543.981295925182 0.5299761941400601 527.0 3.0 369.0 
126.00010179366993 98970.0 NaN 1544.1202404809635 0.5302024791171053 527.0 3.0 369.0 
128.00010179366993 98969.0 NaN 1540.8897795591183 0.5342185662843273 527.0 3.0 368.0 
130.00010179366993 98968.0 NaN 1540.9138276553092 0.5350068151236296 526.0 3.0 368.0 
132.00010179366993 98968.0 NaN 1537.923847695391 0.5294265845240654 525.0 3.0 367.0 
134.00010179366993 98972.0 NaN 1537.8303273213091 0.531877572283139 526.0 3.0 367.0 
136.00010179366993 98958.0 NaN 1534.7869071476275 0.5295310890169116 523.0 3.0 366.0 
138.00010179366993 98956.0 NaN 1534.9151636606543 0.5313847840078703 521.0 3.0 366.0 
140.00010179366993 99000.0 NaN 1534.7601870407482 0.5301225425394336 523.0 3.0 366.0 
142.00010179366993 98984.0 NaN 1537.87040748163 0.5260217831044289 522.0 3.0 367.0 
144.00010179366993 98973.0 NaN 1537.9665998664002 0.5293332026024361 521.0 3.0 367.0 
146.00010179366993 98967.0 NaN 1537.8944555778212 0.5313637654046072 520.0 3.0 367.0 
148.00010179366993 98978.0 NaN 1534.8189712758845 0.535620152702464 520.0 3.0 366.0 
150.00010179366993 99024.0 NaN 1534.9044756179023 0.5386226193146606 519.0 4.0 365.0 
152.00010179366993 99009.0 NaN 1528.6118904475634 0.5352694376238104 518.0 5.0 362.0 
154.00010179366993 98991.0 NaN 1528.649298597194 0.5364449569216968 515.0 5.0 362.0 
156.00010179366993 98974.0 NaN 1531.8370073480276 0.5330662150311113 514.0 5.0 363.0 
158.00010179366993 98991.0 NaN 1534.8056112224456 0.5341585588100145 518.0 5.0 364.0 
160.00010179366993 98985.0 NaN 1534.8029392117546 0.5327381356420591 518.0 5.0 364.0 
162.00010179366993 98984.0 NaN 1534.907147628591 0.5270284623638871 519.0 4.0 365.0 
164.00010179366993 98990.0 NaN 1537.873079492318 0.5292392146161368 520.0 3.0 367.0 
166.00010179366993 98971.0 NaN 1537.9291917167664 0.5285395027120973 520.0 3.0 367.0 
168.00010179366993 98994.0 NaN 1531.8851035404152 0.53259567697215 519.0 3.0 365.0 
170.00010179366993 98969.0 NaN 1534.8350033400118 0.5336695617452594 521.0 3.0 366.0 
172.00010179366993 98961.0 NaN 1534.8269873079482 0.531459707978599 520.0 3.0 366.0 
174.00010179366993 98950.0 NaN 1538.0307281229118 0.525394897556741 518.0 3.0 367.0 
176.00010179366993 98956.0 NaN 1534.8189712758842 0.52489992431209 515.0 3.0 366.0 
178.00010179366993 98983.0 NaN 1534.8617234468934 0.5278839257114616 516.0 3.0 366.0 
180.00010179366993 98965.0 NaN 1534.9231796927181 0.5273421277110085 517.0 3.0 366.0 
182.00010179366993 98969.0 NaN 1534.7735470941884 0.5272535372373496 518.0 3.0 366.0 
184.00010179366993 98963.0 NaN 1537.8837675350703 0.530342590074082 518.0 3.0 367.0 
186.00010179366993 98953.0 NaN 1534.9525718102882 0.5305646105877291 517.0 3.0 366.0 
188.00010179366993 98965.0 NaN 1537.8864395457572 0.5363701979550856 516.0 3.0 367.0 
190.00010179366993 98916.0 NaN 1531.730126920509 0.5339917299411866 516.0 3.0 365.0 
192.00010179366993 98937.0 NaN 1531.8049432197727 0.5398630325427268 516.0 3.0 365.0 
194.00010179366993 98931.0 NaN 1534.7815631262545 0.5448062540808594 516.0 3.0 366.0 
196.00010179366993 98908.0 NaN 1534.8216432865727 0.5457191061699326 516.0 3.0 366.0 
198.00010179366993 98895.0 NaN 1538.030728122912 0.5469517877341425 517.0 3.0 367.0 
200.00010179366993 98849.0 NaN 1540.9405477621908 0.545079819665305 518.0 3.0 368.0 
202.00010179366993 98866.0 NaN 1540.9672678690727 0.543819039814833 518.0 3.0 368.0 
204.00010179366993 98888.0 NaN 1541.0661322645274 0.5512626729081077 517.0 3.0 368.0 
206.00010179366993 98858.0 NaN 1537.9398797595181 0.5497398443088879 517.0 3.0 367.0 
208.00010179366993 98831.0 NaN 1534.8483633934547 0.5495891224859663 518.0 3.0 366.0 
210.00010179366993 98766.0 NaN 1531.85036740147 0.5447539291308584 519.0 3.0 365.0 
212.00010179366993 98770.0 NaN 1531.690046760188 0.550568346928026 516.0 3.0 365.0 
214.00010179366993 98784.0 NaN 1534.789579158318 0.5568619357167987 516.0 3.0 366.0 
216.00010179366993 98761.0 NaN 1528.7722110888456 0.5632369940738051 516.0 3.0 364.0 
218.00010179366993 98737.0 NaN 1528.6680026720094 0.5645207390325936 514.0 3.0 364.0 
220.00010179366993 98667.0 NaN 1531.7060788243157 0.5541464410221915 513.0 3.0 365.0 
222.00010179366993 98712.0 NaN 1534.9151636606543 0.5585856478198777 513.0 3.0 366.0 
224.00010179366993 98756.0 NaN 1534.8056112224456 0.5630102181563141 514.0 3.0 366.0 
226.00010179366993 98745.0 NaN 1531.7541750167002 0.561454299625094 513.0 3.0 365.0 
228.00010179366993 98735.0 NaN 1538.0173680694727 0.5606894640237698 513.0 3.0 367.0 
230.00010179366993 98706.0 NaN 1537.88376753507 0.5584881503382366 512.0 3.0 367.0 
232.00010179366993 98718.0 NaN 1541.002004008018 0.5556400677055575 512.0 3.0 368.0 
234.00010179366993 98726.0 NaN 1541.0821643286572 0.5592810382819801 513.0 3.0 368.0 
236.00010179366993 98706.0 NaN 1537.8810955243816 0.5458835018231467 512.0 3.0 367.0 
238.00010179366993 98710.0 NaN 1534.7975951903818 0.5514173721262292 513.0 3.0 366.0 
240.00010179366993 98674.0 NaN 1534.8643954575818 0.5520696943892436 512.0 3.0 366.0 
242.00010179366993 98657.0 NaN 1534.7361389445546 0.5560889453409303 512.0 3.0 366.0 
244.00010179366993 98642.0 NaN 1534.7815631262542 0.560051274681548 514.0 3.0 366.0 
246.00010179366993 98611.0 NaN 1534.9178356713428 0.5559219561223514 514.0 3.0 366.0 
248.00010179366993 98616.0 NaN 1528.6412825651298 0.5633183362652415 513.0 3.0 364.0 
250.00010179366993 98581.0 NaN 1531.7488309953246 0.5537892743524592 511.0 3.0 365.0 
252.00010179366993 98570.0 NaN 1528.7454909819635 0.559360886435825 512.0 3.0 364.0 
254.00010179366993 98535.0 NaN 1531.711422845691 0.5618503019909716 512.0 3.0 365.0 
256.00010179366996 98494.0 NaN 1528.6813627254517 0.5584660191805064 514.0 3.0 364.0 
258.00010179366996 98496.0 NaN 1528.7748830995333 0.5654977593227988 514.0 3.0 364.0 
260.00010179366996 98476.0 NaN 1528.633266533066 0.5689699505277114 514.0 3.0 364.0 
262.00010179366996 98459.0 NaN 1525.5818303273209 0.5688900172484652 514.0 3.0 363.0 
264.00010179366996 98437.0 NaN 1534.9151636606543 0.5699463758964027 514.0 3.0 366.0 
266.00010179366996 98378.0 NaN 1534.8109552438207 0.5563232001662045 512.0 3.0 366.0 
268.00010179366996 98370.0 NaN 1534.8216432865727 0.5629537357167439 512.0 3.0 366.0 
270.00010179366996 98392.0 NaN 1531.8343353373427 0.5689607181586207 510.0 3.0 365.0 
272.00010179366996 98345.0 NaN 1531.6847027388092 0.5712499159341662 511.0 3.0 365.0 
274.00010179366996 98306.0 NaN 1531.7274549098183 0.5696132804824576 511.0 3.0 365.0 
276.00010179366996 98244.0 NaN 1537.9612558450247 0.5675846504317743 508.0 3.0 367.0 
278.00010179366996 98223.0 NaN 1537.819639278557 0.5710578706945947 512.0 3.0 367.0 
280.00010179366996 98166.0 NaN 1534.7094188376752 0.5700127346521384 512.0 3.0 366.0 
282.00010179366996 98130.0 NaN 1531.7381429525728 0.5728484374147621 511.0 3.0 365.0 
284.00010179366996 98132.0 NaN 1534.7307949231817 0.5788826394705179 512.0 3.0 366.0 
286.00010179366996 98081.0 NaN 1534.7895791583182 0.5683251594644948 511.0 3.0 366.0 
288.00010179366996 98079.0 NaN 1534.8243152972616 0.573643617081874 511.0 3.0 366.0 
290.00010179366996 98010.0 NaN 1534.7201068804272 0.5577856340389447 511.0 3.0 366.0 
292.00010179366996 97963.0 NaN 1534.7361389445546 0.5568693050482745 511.0 3.0 366.0 
294.00010179366996 97994.0 NaN 1531.740814963261 0.5660298372099835 510.0 3.0 365.0 
296.00010179366996 97943.0 NaN 1531.6740146960572 0.5684581312869562 510.0 3.0 365.0 
298.00010179366996 97931.0 NaN 1540.9619238476932 0.5757178840323474 509.0 3.0 368.0 
300.00010179366996 97858.0 NaN 1540.9939879759522 0.5649358580600634 508.0 3.0 368.0 
302.00010179366996 97820.0 NaN 1531.7167668670663 0.5692817027424438 507.0 3.0 365.0 
304.00010179366996 97840.0 NaN 1534.8189712758845 0.5773505000638814 506.0 3.0 366.0 
306.00010179366996 97786.0 NaN 1537.9959919839664 0.5799352930882183 507.0 3.0 367.0 
308.00010179366996 97778.0 NaN 1537.8997995992 0.5826177270267685 507.0 3.0 367.0 
310.00010179366996 97722.0 NaN 1537.905143620573 0.5750348317197228 505.0 3.0 367.0 
312.00010179366996 97687.0 NaN 1531.7702070808273 0.5769668944249824 505.0 3.0 365.0 
314.00010179366996 97668.0 NaN 1531.72478289913 0.5827264444550937 504.0 3.0 365.0 
316.00010179366996 97611.0 NaN 1531.7461589846364 0.5682201420674073 504.0 4.0 364.0 
318.00010179366996 97589.0 NaN 1531.8476953907818 0.5711747556675358 504.0 4.0 364.0 
320.00010179366996 97519.0 NaN 1531.7221108884453 0.5683727027970984 505.0 4.0 364.0 
322.00010179366996 97487.0 NaN 1534.843019372079 0.5719545535092924 505.0 4.0 365.0 
324.00010179366996 97480.0 NaN 1531.7995991983976 0.5797077731914415 504.0 4.0 364.0 
326.00010179366996 97395.0 NaN 1531.7568470273884 0.5748346038813302 503.0 4.0 364.0 
328.00010179366996 97351.0 NaN 1531.7461589846364 0.5743818854947301 505.0 4.0 364.0 
330.00010179366996 97296.0 NaN 1531.7889111556456 0.5789266426427974 505.0 4.0 364.0 
332.00010179366996 97267.0 NaN 1531.7007348029388 0.5889228963223746 505.0 4.0 364.0 
334.00010179366996 97248.0 NaN 1528.6653306613216 0.6015292099271298 504.0 4.0 363.0 
336.00010179366996 97149.0 NaN 1528.684034736139 0.5977159654487441 504.0 4.0 363.0 
338.00010179366996 97121.0 NaN 1528.643954575818 0.5968578490267065 506.0 4.0 363.0 
340.00010179366996 97041.0 NaN 1525.6005344021366 0.593347864282644 506.0 4.0 362.0 
342.00010179366996 96994.0 NaN 1525.6726786907152 0.5856923969619149 506.0 4.0 362.0 
344.00010179366996 96986.0 NaN 1528.638610554443 0.592160816609619 506.0 4.0 363.0 
346.00010179366996 96937.0 NaN 1519.4896459585823 0.5952645447810936 505.0 4.0 360.0 
348.00010179366996 96912.0 NaN 1519.561790247161 0.6004348040950496 504.0 4.0 360.0 
350.00010179366996 96847.0 NaN 1525.6299265197065 0.5813190849146129 504.0 4.0 362.0 
352.00010179366996 96830.0 NaN 1522.503674014697 0.57321423704509 507.0 4.0 361.0 
354.00010179366996 96825.0 NaN 1519.524382097527 0.5755896508387882 509.0 4.0 360.0 
356.00010179366996 96734.0 NaN 1519.4896459585823 0.5676384024436756 509.0 4.0 360.0 
358.00010179366996 96758.0 NaN 1519.4602538410159 0.5785544725816416 507.0 4.0 360.0 
360.00010179366996 96733.0 NaN 1516.3981295925182 0.5804728183015204 508.0 4.0 359.0 
362.00010179366996 96717.0 NaN 1513.277221108884 0.5824739478382505 509.0 4.0 358.0 
364.00010179366996 96692.0 NaN 1507.1048764195061 0.5829057820316218 509.0 4.0 356.0 
366.00010179366996 96605.0 NaN 1504.1202404809626 0.5746750276528872 509.0 4.0 355.0 
368.00010179366996 96632.0 NaN 1500.9111556446214 0.5877703648254748 510.0 4.0 354.0 
370.00010179366996 96590.0 NaN 1507.1262525050092 0.5920927026787021 510.0 4.0 356.0 
372.00010179366996 96591.0 NaN 1507.1102204408817 0.5913220906169451 509.0 4.0 356.0 
374.00010179366996 96563.0 NaN 1503.9812959251826 0.5906556643429446 512.0 4.0 355.0 
376.00010179366996 96513.0 NaN 1500.9325317301273 0.5946553082267658 512.0 4.0 354.0 
378.00010179366996 96528.0 NaN 1497.9372077488304 0.605835104779163 511.0 4.0 353.0 
380.00010179366996 96490.0 NaN 1500.8897795591183 0.6015973395443656 508.0 5.0 353.0 
382.00010179366996 96474.0 NaN 1497.854375417501 0.6024086065032055 511.0 5.0 352.0 
384.00010179366996 96441.0 NaN 1497.8971275885099 0.6072023106513776 513.0 5.0 352.0 
386.00010179366996 96355.0 NaN 1494.7655310621249 0.5941532932351054 512.0 5.0 351.0 
388.00010179366996 96374.0 NaN 1494.7628590514364 0.5876268042634841 510.0 5.0 351.0 
390.00010179366996 96321.0 NaN 1497.9051436205739 0.5829772856500626 510.0 5.0 352.0 
392.00010179366996 96260.0 NaN 1503.9572478289908 0.577917735875778 514.0 5.0 354.0 
394.00010179366996 96208.0 NaN 1507.0888443553788 0.5758725061398035 516.0 5.0 355.0 
396.00010179366996 96155.0 NaN 1507.1342685370735 0.569267799547615 516.0 5.0 355.0 
398.00010179366996 96160.0 NaN 1503.9946559786245 0.5762512587378501 517.0 5.0 354.0 
400.00010179366996 96082.0 NaN 1500.91382765531 0.5621428377122264 516.0 5.0 353.0 
402.00010179366996 96081.0 NaN 1504.0614562458263 0.5660544407509943 514.0 6.0 353.0 
404.00010179366996 96053.0 NaN 1507.0460921843696 0.5665743591937178 514.0 6.0 354.0 
406.00010179366996 96029.0 NaN 1513.2451569806274 0.571741921729926 515.0 6.0 356.0 
408.00010179366996 96048.0 NaN 1522.5170340681366 0.5825984092336344 520.0 6.0 359.0 
410.00010179366996 96016.0 NaN 1525.547094188376 0.5840109387567591 520.0 6.0 360.0 
412.00010179366996 96021.0 NaN 1522.4555778223098 0.5938931822014768 522.0 6.0 359.0 
414.00010179366996 96014.0 NaN 1519.3774215096848 0.5978303037158893 523.0 5.0 359.0 
416.00010179366996 95963.0 NaN 1510.049432197728 0.6038499437988132 521.0 7.0 354.0 
418.00010179366996 95970.0 NaN 1513.1703406813635 0.6140342153819713 520.0 8.0 354.0 
420.00010179366996 95970.0 NaN 1507.0701402805614 0.617035925619676 518.0 8.0 352.0 
422.00010179366996 95932.0 NaN 1497.7608550434195 0.6187646469061467 514.0 7.0 350.0 
424.00010179366996 95881.0 NaN 1500.8657314629263 0.6068947460667021 512.0 7.0 351.0 
426.00010179366996 95829.0 NaN 1507.0861723446899 0.6092594028160632 514.0 6.0 354.0 
428.00010179366996 95829.0 NaN 1507.0354041416172 0.6147633821525528 514.0 6.0 354.0 
430.00010179366996 95782.0 NaN 1500.9058116232459 0.6011768139223927 516.0 4.0 354.0 
432.00010179366996 95737.0 NaN 1519.356045424182 0.5855763086382567 520.0 3.0 361.0 
434.00010179366996 95687.0 NaN 1519.30260521042 0.5755173447846507 525.0 3.0 361.0 
436.00010179366996 95640.0 NaN 1519.2892451569817 0.5780159641089551 525.0 3.0 361.0 
438.00010179366996 95647.0 NaN 1522.5116900467606 0.5877958671456835 524.0 3.0 362.0 
440.00010179366996 95616.0 NaN 1525.4562458249827 0.5922492126687009 525.0 3.0 363.0 
442.00010179366996 95601.0 NaN 1534.6933867735463 0.5842403098506181 526.0 3.0 366.0 
444.00010179366996 95567.0 NaN 1534.7334669338666 0.582095230511878 527.0 3.0 366.0 
446.00010179366996 95556.0 NaN 1540.8710754843005 0.5896605492912425 531.0 3.0 368.0 
448.00010179366996 95567.0 NaN 1540.876419505679 0.60132864643711 531.0 3.0 368.0 
450.00010179366996 95556.0 NaN 1544.0454241816974 0.6053068324820907 530.0 3.0 369.0 
452.00010179366996 95513.0 NaN 1540.857715430863 0.5952278688811995 528.0 3.0 368.0 
454.00010179366996 95498.0 NaN 1543.9812959251824 0.5700459213864748 528.0 3.0 369.0 
456.00010179366996 95487.0 NaN 1547.0888443553788 0.5690276969034433 526.0 3.0 370.0 
458.00010179366996 95495.0 NaN 1547.0407481629913 0.5761957872998086 525.0 3.0 370.0 
460.00010179366996 95485.0 NaN 1546.9953239812971 0.574330940289438 524.0 3.0 370.0 
462.00010179366996 95447.0 NaN 1547.0460921843696 0.5684034974073691 524.0 3.0 370.0 
464.00010179366996 95441.0 NaN 1543.8824315297272 0.570220526632054 526.0 3.0 369.0 
466.00010179366996 95426.0 NaN 1543.9198396793577 0.5678868394352082 523.0 3.0 369.0 
468.00010179366996 95433.0 NaN 1540.9378757515026 0.5720045287098408 522.0 3.0 368.0 
470.00010179366996 95428.0 NaN 1540.8871075484296 0.5726414216555922 520.0 3.0 368.0 
472.00010179366996 95410.0 NaN 1534.6559786239154 0.5725586496155828 519.0 3.0 366.0 
474.00010179366996 95451.0 NaN 1528.6332665330658 0.5793492543963031 518.0 3.0 364.0 
476.00010179366996 95437.0 NaN 1528.547762191048 0.5724206106008518 519.0 3.0 364.0 
478.00010179366996 95448.0 NaN 1528.555778223112 0.5782723285958681 518.0 3.0 364.0 
480.00010179366996 95443.0 NaN 1525.5871743486978 0.5807601396116723 518.0 3.0 363.0 
482.00010179366996 95416.0 NaN 1522.458249833 0.5784965410953666 517.0 3.0 362.0 
484.00010179366996 95435.0 NaN 1507.0487641950554 0.5781906749104225 513.0 3.0 357.0 
486.00010179366996 95448.0 NaN 1500.9512358049444 0.5771979807141394 511.0 3.0 355.0 
488.00010179366996 95472.0 NaN 1497.7635270541089 0.5862506872973576 510.0 3.0 354.0 
490.00010179366996 95472.0 NaN 1497.8436873747485 0.5619170826369714 512.0 3.0 354.0 
492.00010179366996 95458.0 NaN 1491.756847027389 0.5569374642365802 512.0 3.0 352.0 
494.00010179366996 95487.0 NaN 1485.5577822311284 0.560577530549757 506.0 3.0 350.0 
496.00010179366996 95477.0 NaN 1485.493653974617 0.5597947128599744 506.0 3.0 350.0 
498.00010179366996 95473.0 NaN 1485.5764863059455 0.5647638191565973 506.0 3.0 350.0 
500.00010179366996 95480.0 NaN 1488.5905143620566 0.568804559101851 507.0 3.0 351.0 
502.00010179366996 95487.0 NaN 1491.6927187708745 0.575149693489746 508.0 3.0 352.0 
504.00010179366996 95501.0 NaN 1485.5738142952564 0.5807922195467061 508.0 3.0 350.0 
506.00010179366996 95491.0 NaN 1494.7254509018028 0.5832461913963375 509.0 3.0 353.0 
508.00010179366996 95496.0 NaN 1497.7929191716757 0.5852813158332367 512.0 4.0 353.0 
510.00010179366996 95483.0 NaN 1494.8697394789574 0.5802781564080038 509.0 4.0 352.0 
512.00010179367 95467.0 NaN 1488.5878423513705 0.5746294113873149 508.0 4.0 350.0 
514.00010179367 95468.0 NaN 1482.4849699398806 0.5760955403439246 507.0 4.0 348.0 
516.00010179367 95438.0 NaN 1479.422845691382 0.5653978543258191 504.0 4.0 347.0 
518.00010179367 95445.0 NaN 1476.2725450901812 0.5665320861823374 505.0 5.0 345.0 
520.00010179367 95486.0 NaN 1463.9919839679362 0.5635246047014294 504.0 6.0 340.0 
522.00010179367 95491.0 NaN 1460.996659986639 0.5656118378963056 500.0 6.0 339.0 
524.00010179367 95477.0 NaN 1464.0053440213753 0.5710384967096033 499.0 6.0 340.0 
526.00010179367 95462.0 NaN 1460.961923847694 0.5746412785343799 500.0 6.0 339.0 
528.00010179367 95524.0 NaN 1464.0801603206423 0.5831612476717584 502.0 6.0 340.0 
530.00010179367 95543.0 NaN 1451.7381429525722 0.5757562518892 501.0 6.0 336.0 
532.00010179367 95547.0 NaN 1451.7541750167002 0.5783390592044153 501.0 6.0 336.0 
534.00010179367 95541.0 NaN 1451.8370073480285 0.5814149361335731 501.0 6.0 336.0 
536.00010179367 95536.0 NaN 1454.8056112224453 0.5886488495972806 499.0 6.0 337.0 
538.00010179367 95555.0 NaN 1461.0100200400807 0.5995690190024178 501.0 6.0 339.0 
540.00010179367 95616.0 NaN 1461.031396125584 0.5955329784571028 502.0 5.0 340.0 
542.00010179367 95621.0 NaN 1467.1422845691375 0.5946396244847886 503.0 5.0 342.0 
544.00010179367 95614.0 NaN 1470.2124248496998 0.5925110260872447 503.0 5.0 343.0 
546.00010179367 95617.0 NaN 1467.1983967935878 0.5906112533143156 505.0 5.0 342.0 
548.00010179367 95610.0 NaN 1470.140280561122 0.6008967977815889 505.0 5.0 343.0 
550.00010179367 95664.0 NaN 1464.0400801603203 0.5764221614191034 504.0 5.0 341.0 
552.00010179367 95685.0 NaN 1464.0801603206419 0.5794561711636549 504.0 5.0 341.0 
554.00010179367 95690.0 NaN 1467.1048764195061 0.5787990979316213 505.0 5.0 342.0 
556.00010179367 95683.0 NaN 1457.886439545758 0.5741787760057061 502.0 5.0 339.0 
558.00010179367 95665.0 NaN 1454.8697394789583 0.5741443772760053 501.0 5.0 338.0 
560.00010179367 95786.0 NaN 1454.75751503006 0.5664779265228084 500.0 4.0 339.0 
562.00010179367 95857.0 NaN 1457.8410153640623 0.5647607226804473 501.0 4.0 340.0 
564.00010179367 95880.0 NaN 1460.9993319973273 0.5634683753319032 503.0 4.0 341.0 
566.00010179367 95872.0 NaN 1454.8109552438214 0.5540677656790547 501.0 4.0 339.0 
568.00010179367 95875.0 NaN 1460.9592518370075 0.5592459770274995 504.0 4.0 341.0 
570.00010179367 95923.0 NaN 1467.1743486973949 0.5643388465625276 506.0 4.0 343.0 
572.00010179367 95984.0 NaN 1476.3099532398128 0.5701735607766816 506.0 4.0 346.0 
574.00010179367 95976.0 NaN 1479.4228456913822 0.5715646693554882 505.0 4.0 347.0 
576.00010179367 95992.0 NaN 1476.3874415497662 0.5733095448201828 505.0 4.0 346.0 
578.00010179367 95995.0 NaN 1473.2985971943895 0.5831114274015583 506.0 3.0 346.0 
580.00010179367 96044.0 NaN 1473.221108884436 0.5933362669125457 508.0 3.0 346.0 
582.00010179367 96095.0 NaN 1476.411489645958 0.5968096309903732 509.0 3.0 347.0 
584.00010179367 96028.0 NaN 1479.3747494989987 0.5983454997843691 515.0 3.0 348.0 
586.00010179367 96017.0 NaN 1476.2832331329332 0.6017033986756526 517.0 3.0 347.0 
588.00010179367 96017.0 NaN 1479.4362057448236 0.6096332547563402 517.0 3.0 348.0 
590.00010179367 96028.0 NaN 1485.4722778891114 0.5996458316738864 518.0 3.0 350.0 
592.00010179367 96014.0 NaN 1485.4776219104879 0.6003791467342826 521.0 3.0 350.0 
594.00010179367 95903.0 NaN 1488.6546426185714 0.5928670443193228 522.0 3.0 351.0 
596.00010179367 95877.0 NaN 1488.5931863727455 0.5888323213582022 522.0 3.0 351.0 
598.00010179367 95904.0 NaN 1491.6686706746823 0.5924380194628629 522.0 3.0 352.0 
600.00010179367 95969.0 NaN 1497.8623914495652 0.5995279181821253 523.0 3.0 354.0 
602.00010179367 95943.0 NaN 1491.6072144288573 0.5933411440304983 522.0 3.0 352.0 
604.00010179367 95934.0 NaN 1503.9866399465604 0.5928539483887453 524.0 3.0 356.0 
606.00010179367 95920.0 NaN 1500.9592518370077 0.5969835215171865 523.0 3.0 355.0 
608.00010179367 95982.0 NaN 1507.035404141617 0.6062391693582484 525.0 3.0 357.0 
610.00010179367 95950.0 NaN 1507.0060120240473 0.5866226585985972 526.0 3.0 357.0 
612.00010179367 95944.0 NaN 1503.9599198396802 0.5914248692767917 525.0 3.0 356.0 
614.00010179367 95932.0 NaN 1503.8824315297272 0.578590709358676 524.0 3.0 356.0 
616.00010179367 95921.0 NaN 1503.9038076152294 0.5764928524156911 522.0 3.0 356.0 
618.00010179367 95940.0 NaN 1507.0915163660648 0.5809864988124451 521.0 3.0 357.0 
620.00010179367 95895.0 NaN 1519.281229124917 0.573921939660807 523.0 3.0 361.0 
622.00010179367 95887.0 NaN 1519.2705410821636 0.5767783061776138 522.0 3.0 361.0 
624.00010179367 95912.0 NaN 1519.3239812959262 0.5824051314569353 523.0 3.0 361.0 
626.00010179367 95899.0 NaN 1519.307949231798 0.5803793378013029 522.0 3.0 361.0 
628.00010179367 95907.0 NaN 1522.4208416833658 0.5739914868614137 522.0 3.0 362.0 
630.00010179367 95886.0 NaN 1519.4201736806938 0.5654670513466276 525.0 3.0 361.0 
632.00010179367 95861.0 NaN 1522.4128256513018 0.559900702203158 525.0 3.0 362.0 
634.00010179367 95878.0 NaN 1522.4235136940545 0.5637241225024188 530.0 3.0 362.0 
636.00010179367 95867.0 NaN 1522.4689378757525 0.5648779447986115 531.0 3.0 362.0 
638.00010179367 95874.0 NaN 1522.3941215764876 0.5715418094837932 531.0 4.0 361.0 
640.00010179367 95864.0 NaN 1516.2965931863728 0.5739798272512149 526.0 4.0 359.0 
642.00010179367 95851.0 NaN 1513.2825651302614 0.5817244044849051 521.0 4.0 358.0 
644.00010179367 95872.0 NaN 1516.2912491649972 0.5898983547787113 519.0 5.0 358.0 
646.00010179367 95860.0 NaN 1516.2832331329334 0.5945473969281385 518.0 5.0 358.0 
648.00010179367 95858.0 NaN 1516.3580494321989 0.5976051992120954 517.0 4.0 359.0 
650.00010179367 95839.0 NaN 1513.2157648630605 0.6063059281629116 520.0 3.0 359.0 
652.00010179367 95791.0 NaN 1528.603874415499 0.609652822229471 521.0 3.0 364.0 
654.00010179367 95802.0 NaN 1528.6653306613216 0.6180206081839017 519.0 3.0 364.0 
656.00010179367 95808.0 NaN 1528.6145624582489 0.6139852847802012 519.0 3.0 364.0 
658.00010179367 95818.0 NaN 1528.6092184368729 0.6150479200783429 517.0 3.0 364.0 
660.00010179367 95792.0 NaN 1534.8697394789574 0.5975875489140987 511.0 3.0 366.0 
662.00010179367 95705.0 NaN 1537.8249832999343 0.578067931667381 513.0 3.0 367.0 
664.00010179367 95726.0 NaN 1537.8597194388788 0.5856829011845555 517.0 3.0 367.0 
#####################################################################
# End of data export. Simulation finished at: 2019-03-07T11:19+0000 #
#####################################################################
