#####################################################################
# Alchemist log file - simulation started at: 2019-03-03T05:56+0000 #
#####################################################################
# seed = 1.0, bandwidth = 74989.42093324558, propagationDelay = 0.1, baserange = 17.78279410038923
#
# The columns have the following meaning: 
# time neighbor_count[Sum] <value>@neighbor_count[Sum] packet_size[Mean] mean_delay[Mean] crowd[Sum] overcrowded[Sum] risk[Sum] 
0.0 NaN NaN NaN NaN NaN NaN NaN 
10.000091852925559 1122.0 NaN 4992.99665998664 0.5042456303320615 1487.0 10.0 1487.0 
20.00009185292556 1120.0 NaN 4992.339345357382 0.5161954635446577 1487.0 10.0 1487.0 
30.000038843655375 1124.0 NaN 4992.179024716099 0.5095468607013293 1487.0 10.0 1487.0 
40.000091852925564 1132.0 NaN 4992.008016032064 0.5235175660715309 1487.0 10.0 1487.0 
50.000038843655375 1143.0 NaN 4991.719438877755 0.5204219378192533 1487.0 10.0 1487.0 
60.000038843655375 1137.0 NaN 4992.042752171009 0.5387140004115384 1487.0 10.0 1487.0 
70.00041737428027 1121.0 NaN 983.6900467601896 0.5466757986038577 340.0 9.0 181.0 
80.00041737428027 1124.0 NaN 980.5718102872441 0.5503914823354081 296.0 9.0 180.0 
90.00041737428027 1119.0 NaN 989.8837675350712 0.5168996316082557 286.0 9.0 183.0 
100.00041737428027 1128.0 NaN 992.8977955911815 0.5571520668127309 282.0 9.0 184.0 
110.00041737428027 1109.0 NaN 995.7808951235819 0.553515428011923 281.0 9.0 185.0 
120.00041737428027 1103.0 NaN 995.8450233800924 0.5622977104200652 274.0 9.0 185.0 
130.0004173742803 1111.0 NaN 980.4595858383457 0.5419166519385498 275.0 9.0 180.0 
140.0004173742803 1121.0 NaN 992.8390113560454 0.5185333654936564 269.0 9.0 184.0 
150.0004173742803 1150.0 NaN 999.0701402805614 0.5551797779711172 271.0 9.0 186.0 
160.0004173742803 1162.0 NaN 986.7869071476273 0.5375626961328249 278.0 9.0 182.0 
170.0004173742803 1156.0 NaN 992.9458917835664 0.5377883836920757 281.0 9.0 184.0 
180.0004173742803 1140.0 NaN 971.3881095524364 0.5465356708537191 274.0 9.0 177.0 
190.0004173742803 1140.0 NaN 974.2899131596545 0.6092044858484034 275.0 9.0 178.0 
200.0004173742803 1151.0 NaN 983.5404141616544 0.5338862506447815 272.0 9.0 181.0 
210.0004173742803 1167.0 NaN 983.5190380761549 0.5907566590761967 278.0 9.0 181.0 
220.0004173742803 1159.0 NaN 986.6025384101548 0.5745563102185504 280.0 9.0 182.0 
230.0004173742803 1152.0 NaN 980.486305945225 0.5593986840608638 272.0 9.0 180.0 
240.0004173742803 1160.0 NaN 971.2945891783544 0.5813325636876464 270.0 9.0 177.0 
250.0004173742803 1140.0 NaN 968.1923847695386 0.5833588402329343 262.0 9.0 176.0 
260.0004173742803 1138.0 NaN 968.1950567802273 0.5529627187935275 265.0 9.0 176.0 
270.0004173742803 1146.0 NaN 971.2625250500998 0.5588031552277405 274.0 9.0 177.0 
280.0004173742803 1114.0 NaN 965.0367401469603 0.5940778661822244 270.0 9.0 175.0 
290.0004173742803 1102.0 NaN 980.3981295925181 0.527853826833124 269.0 9.0 180.0 
300.0004173742803 1117.0 NaN 965.1569806279211 0.5866866647749898 267.0 9.0 175.0 
310.0004173742803 1110.0 NaN 971.2037408149637 0.5940539346702841 274.0 9.0 177.0 
320.0004173742803 1116.0 NaN 980.3847695390791 0.5565283973107605 277.0 9.0 180.0 
330.0004173742803 1124.0 NaN 977.3760855043412 0.5805058489457635 283.0 9.0 179.0 
340.0004173742803 1116.0 NaN 971.1796927187726 0.5864695714516933 277.0 9.0 177.0 
350.0004173742803 1082.0 NaN 955.87708750835 0.5903122141479219 270.0 9.0 172.0 
360.0004173742803 1077.0 NaN 952.8069472277906 0.5486027939119852 265.0 9.0 171.0 
370.0004173742803 1089.0 NaN 934.3193052772218 0.5469585113412465 264.0 9.0 165.0 
380.0004173742803 1081.0 NaN 931.3213092852362 0.5490640512696233 259.0 9.0 164.0 
390.0004173742803 1085.0 NaN 922.2525050100191 0.5736483412481598 251.0 9.0 161.0 
400.0004173742803 1094.0 NaN 925.2317969271871 0.5678948576393967 250.0 9.0 162.0 
410.0004173742803 1080.0 NaN 912.9859719438872 0.547944959387278 243.0 12.0 155.0 
420.0004173742803 1100.0 NaN 916.0320641282548 0.5496635199713591 249.0 9.0 159.0 
430.0004173742803 1086.0 NaN 925.2077488309948 0.6002661553964951 247.0 9.0 162.0 
440.0004173742803 1112.0 NaN 940.6573146292578 0.5768829693256876 245.0 9.0 167.0 
450.0004173742803 1093.0 NaN 949.8223112892456 0.5349120083368182 258.0 9.0 170.0 
460.0004173742803 1104.0 NaN 946.7040748163 0.5490071441315215 245.0 17.0 161.0 
470.0004173742803 1090.0 NaN 949.7181028724118 0.5818516860371776 244.0 17.0 162.0 
480.0004173742803 1066.0 NaN 940.5584502337999 0.5533630057992446 246.0 16.0 160.0 
490.0004173742803 1084.0 NaN 928.2271209084821 0.5895657706190084 254.0 9.0 163.0 
500.0004173742803 1080.0 NaN 915.8423513694046 0.5537912669982543 248.0 9.0 159.0 
510.0004173742803 1077.0 NaN 900.5905143620583 0.5707927143964213 246.0 9.0 154.0 
520.0004173742802 1064.0 NaN 897.4802939211764 0.5647140052105477 239.0 9.0 153.0 
530.0004173742802 1042.0 NaN 885.2264529058119 0.5400704046943889 235.0 9.0 149.0 
540.0004173742802 1059.0 NaN 885.2184368737472 0.5160887829992947 239.0 9.0 149.0 
550.0004173742802 1064.0 NaN 885.2398129592518 0.5522067110748584 243.0 9.0 149.0 
560.0004173742802 1065.0 NaN 894.5143620574485 0.5696547687363145 241.0 9.0 152.0 
570.0004173742802 1073.0 NaN 897.6726786907137 0.5321238612753953 246.0 9.0 153.0 
580.0004173742802 1081.0 NaN 906.9258517034078 0.5819643677430889 247.0 9.0 156.0 
590.0004173742802 1091.0 NaN 906.7815631262533 0.5483747015754963 253.0 9.0 156.0 
600.0004173742802 1087.0 NaN 925.183700734804 0.5909007900750193 257.0 9.0 162.0 
610.0004173742802 1079.0 NaN 915.9946559786235 0.5175374595260653 252.0 9.0 159.0 
620.0004173742802 1096.0 NaN 946.8002672010689 0.5614709160761436 259.0 9.0 169.0 
630.0004173742802 1108.0 NaN 949.9452237808943 0.5671238265399958 262.0 9.0 170.0 
640.0004173742802 1124.0 NaN 946.8082832331323 0.5901213028150684 263.0 9.0 169.0 
650.0004173742802 1118.0 NaN 968.2538410153635 0.5834158614271012 268.0 10.0 175.0 
660.0004173742802 1108.0 NaN 986.7388109552454 0.5466808866943313 274.0 9.0 182.0 
#####################################################################
# End of data export. Simulation finished at: 2019-03-03T06:00+0000 #
#####################################################################
