#####################################################################
# Alchemist log file - simulation started at: 2019-03-11T15:32+0000 #
#####################################################################
# seed = 6.0, bandwidth = 1000.0, propagationDelay = 0.31622776601683794, baserange = 1000.0
#
# The columns have the following meaning: 
# time neighbor_count[Sum] <value>@neighbor_count[Sum] packet_size[Mean] mean_delay[Mean] crowd[Sum] overcrowded[Sum] risk[Sum] 
0.0 NaN NaN NaN NaN NaN NaN NaN 
2.0013042135964882 NaN NaN 4988.0 NaN 1497.0 0.0 1497.0 
4.001304213596488 NaN NaN 4988.0 NaN 1497.0 0.0 1497.0 
6.000430698251439 49496.0 NaN 4988.705410821643 0.17507576200895306 1497.0 0.0 1497.0 
8.001304213596487 210022.0 NaN 4996.117568470274 1.6879529415586148 1497.0 0.0 1497.0 
10.001304213596487 210022.0 NaN 4996.176352705411 3.6879529415586148 1497.0 0.0 1497.0 
12.000135512065906 210026.0 NaN 4996.048096192385 4.254477040416475 1497.0 0.0 1497.0 
14.001304213596487 210041.0 NaN 4993.744822979292 1.6911520636194652 1495.0 2.0 1495.0 
16.001304213596487 210041.0 NaN 4993.670006680027 3.6911520636194655 1495.0 2.0 1495.0 
18.001304213596487 210051.0 NaN 4993.670006680027 4.262785103619796 1495.0 2.0 1495.0 
20.001304213596487 210074.0 NaN 4995.444221776887 1.6919433802326937 1495.0 2.0 1495.0 
22.001304213596487 210074.0 NaN 4995.444221776887 3.6919433802326935 1495.0 2.0 1495.0 
24.00094945480279 210082.0 NaN 4995.444221776887 4.264968446969266 1495.0 2.0 1495.0 
26.001304213596487 210116.0 NaN 4993.664662658651 1.6950501007109169 1495.0 2.0 1495.0 
28.001304213596487 210116.0 NaN 4993.680694722779 3.6950501007109167 1495.0 2.0 1495.0 
30.001304213596487 210140.0 NaN 4993.696726786907 4.268917950415509 1495.0 2.0 1495.0 
32.001304213596484 210192.0 NaN 4995.478957915831 1.701559764161507 1495.0 2.0 1495.0 
34.001304213596484 210192.0 NaN 4995.484301937207 3.701559764161507 1495.0 2.0 1495.0 
36.000949454802786 210229.0 NaN 4995.486973947895 4.2761473450698535 1495.0 2.0 1495.0 
38.001304213596484 210357.0 NaN 4993.712758851036 1.7073233309192892 1495.0 2.0 1495.0 
40.001304213596484 210357.0 NaN 4993.723446893788 3.7073233309192895 1495.0 2.0 1495.0 
42.001304213596484 210363.0 NaN 4993.7207748831 4.280374385201182 1495.0 2.0 1495.0 
44.001304213596484 210382.0 NaN 4995.52171008684 1.7135107187108647 1495.0 2.0 1495.0 
46.001304213596484 210382.0 NaN 4995.489645958583 3.713510718710865 1495.0 2.0 1495.0 
48.000949454802786 210408.0 NaN 4995.489645958583 4.2883620758334615 1495.0 2.0 1495.0 
50.001304213596484 210480.0 NaN 4993.710086840348 1.7223858770755953 1495.0 2.0 1495.0 
52.001304213596484 210480.0 NaN 4993.710086840348 3.7223858770755953 1495.0 2.0 1495.0 
54.001304213596484 210479.0 NaN 4993.710086840348 4.28988019613607 1495.0 2.0 1495.0 
56.001304213596484 210504.0 NaN 4995.473613894455 1.7188671138757756 1495.0 2.0 1495.0 
58.001304213596484 210504.0 NaN 4995.473613894455 3.7188671138757754 1495.0 2.0 1495.0 
60.000949454802786 210529.0 NaN 4995.470941883767 4.293277301845565 1495.0 2.0 1495.0 
62.000041483812446 210578.0 NaN 1522.629258517036 1.0573261547585813 835.0 0.0 365.0 
64.00004148381245 210595.0 NaN 1522.4555778223096 1.7751713345350315 701.0 0.0 365.0 
66.00004148381245 210666.0 NaN 1522.4609218436879 2.0236469431274524 653.0 0.0 365.0 
68.00004148381245 210717.0 NaN 1525.6192384769547 0.8580491983637526 601.0 0.0 366.0 
70.00004148381245 210720.0 NaN 1525.6138944555787 1.3594941214593124 573.0 0.0 366.0 
72.00004148381245 210723.0 NaN 1525.6138944555787 1.5251685920599396 557.0 1.0 365.0 
74.00004148381245 210715.0 NaN 1528.5985303941213 0.8570454242414296 545.0 1.0 366.0 
76.00004148381245 210789.0 NaN 1531.6820307281243 1.3734984320910602 539.0 1.0 367.0 
78.00004148381245 210797.0 NaN 1531.665998663994 1.537192237372925 533.0 2.0 366.0 
80.00004148381245 210783.0 NaN 1531.7621910487635 0.8614555345533745 529.0 2.0 366.0 
82.00004148381245 210813.0 NaN 1531.7621910487635 1.375598126136036 529.0 2.0 366.0 
84.00004148381245 210796.0 NaN 1534.8430193720787 1.542307418897595 529.0 2.0 367.0 
86.00004148381245 210810.0 NaN 1534.752171008682 0.852645202314511 528.0 1.0 368.0 
88.00004148381245 210822.0 NaN 1534.7414829659301 1.365052782106787 528.0 1.0 368.0 
90.00004148381245 210795.0 NaN 1534.7414829659301 1.5287823023726792 530.0 1.0 368.0 
92.00004148381245 210706.0 NaN 1534.835003340012 0.8352450904426386 529.0 1.0 368.0 
94.00004148381245 210694.0 NaN 1534.8296593186362 1.341506569197518 527.0 1.0 368.0 
96.00004148381245 210805.0 NaN 1534.8323313293272 1.5054250696395168 527.0 1.0 368.0 
98.00004148381245 210825.0 NaN 1537.8303273213091 0.8323902022238876 527.0 1.0 369.0 
100.00004148381245 210818.0 NaN 1537.8196392785571 1.3405145908992468 526.0 1.0 369.0 
102.00004148381245 210820.0 NaN 1537.8036072144275 1.5063255163254559 526.0 1.0 369.0 
104.00004148381245 210793.0 NaN 1537.8971275885092 0.8277569621878136 526.0 1.0 369.0 
106.00004148381245 210874.0 NaN 1537.8891115564454 1.3320060989483213 526.0 1.0 369.0 
108.00004148381245 210874.0 NaN 1537.902471609888 1.500432328806807 525.0 1.0 369.0 
110.00004148381245 210909.0 NaN 1540.873747494991 0.8300958343950124 527.0 1.0 370.0 
112.00004148381245 210898.0 NaN 1540.8844355377428 1.3373766851783029 527.0 1.0 370.0 
114.00004148381245 210878.0 NaN 1540.8844355377428 1.4982952633710918 527.0 1.0 370.0 
116.00004148381245 210894.0 NaN 1540.9806279225118 0.8239235461120429 528.0 1.0 370.0 
118.00004148381245 210898.0 NaN 1540.9779559118242 1.3349474870612679 528.0 1.0 370.0 
120.00004148381245 210913.0 NaN 1537.9104876419515 1.5032306330687 528.0 1.0 369.0 
122.00004148381245 210909.0 NaN 1540.9004676018726 0.8320147671377421 529.0 1.0 370.0 
124.00004148381245 210864.0 NaN 1540.8844355377428 1.334423624665516 529.0 1.0 370.0 
126.00004148381245 210874.0 NaN 1540.8817635270545 1.4957426855002014 529.0 1.0 370.0 
128.00004148381245 210876.0 NaN 1540.9886439545753 0.8291525288263457 529.0 1.0 370.0 
130.00004148381248 210892.0 NaN 1540.9886439545753 1.3394970792180128 529.0 1.0 370.0 
132.00004148381248 210909.0 NaN 1537.9291917167664 1.5013228248884833 529.0 1.0 369.0 
134.00004148381248 210896.0 NaN 1537.814295257182 0.8300298369886485 528.0 1.0 369.0 
136.00004148381248 210928.0 NaN 1534.7441549766183 1.3394960425476465 526.0 1.0 368.0 
138.00004148381248 210923.0 NaN 1531.6793587174361 1.4989988027307972 526.0 1.0 367.0 
140.00004148381248 210951.0 NaN 1534.8697394789576 0.8325657534243958 525.0 1.0 368.0 
142.00004148381248 210949.0 NaN 1537.9478957915821 1.3366931500866706 525.0 1.0 369.0 
144.00004148381248 210925.0 NaN 1534.8537074148296 1.493792344223216 523.0 1.0 368.0 
146.00004148381248 210934.0 NaN 1537.8223112892456 0.8315229340121443 521.0 1.0 369.0 
148.00004148381248 210950.0 NaN 1540.9004676018724 1.3334336514266663 521.0 1.0 370.0 
150.00004148381248 210960.0 NaN 1540.8871075484299 1.4934088169388973 522.0 1.0 370.0 
152.00004148381248 210962.0 NaN 1547.1396125584515 0.8353710631455721 524.0 1.0 372.0 
154.00004148381248 210941.0 NaN 1544.061456245827 1.3360129465360047 523.0 1.0 371.0 
156.00004148381248 210954.0 NaN 1537.9532398129606 1.4998772141451473 522.0 1.0 369.0 
158.00004148381248 210971.0 NaN 1537.8249832999336 0.8340551058840272 524.0 1.0 369.0 
160.00004148381248 210982.0 NaN 1537.808951235806 1.3352738665744106 523.0 1.0 369.0 
162.00004148381248 210986.0 NaN 1537.7795591182362 1.4944955410506404 521.0 1.0 369.0 
164.00004148381248 210976.0 NaN 1541.0340681362727 0.8352270901852495 521.0 1.0 370.0 
166.00004148381248 210986.0 NaN 1541.0207080828334 1.3349338102915145 521.0 1.0 370.0 
168.00004148381248 211010.0 NaN 1541.039412157648 1.4977881018849506 521.0 1.0 370.0 
170.00004148381248 211024.0 NaN 1540.8229792919183 0.8436835820760109 522.0 1.0 370.0 
172.00004148381248 211029.0 NaN 1537.7421509686026 1.343629766648408 522.0 1.0 369.0 
174.00004148381248 211022.0 NaN 1534.67468269873 1.4985957949127973 524.0 1.0 368.0 
176.00004148381248 211030.0 NaN 1537.953239812961 0.8452134245128934 524.0 1.0 369.0 
178.00004148381248 211022.0 NaN 1537.953239812961 1.3397077385247351 519.0 1.0 369.0 
180.00004148381248 211032.0 NaN 1537.934535738143 1.4954461122340492 519.0 1.0 369.0 
182.00004148381248 211031.0 NaN 1540.8577154308634 0.8449353928761835 520.0 1.0 370.0 
184.00004148381248 211016.0 NaN 1540.8577154308634 1.3429205271348497 520.0 1.0 370.0 
186.00004148381248 211001.0 NaN 1537.7982631930543 1.4930376097399796 518.0 1.0 369.0 
188.00004148381248 210995.0 NaN 1534.8483633934547 0.8381683435999367 518.0 1.0 368.0 
190.00004148381248 210992.0 NaN 1531.7835671342698 1.3366322796094356 518.0 1.0 367.0 
192.00004148381248 210997.0 NaN 1531.7862391449546 1.4891245379537978 518.0 1.0 367.0 
194.00004148381248 210983.0 NaN 1531.7034068136272 0.8404397622020973 519.0 1.0 367.0 
196.00004148381248 210980.0 NaN 1531.690046760188 1.3323157800024605 520.0 1.0 367.0 
198.00004148381248 210987.0 NaN 1534.7869071476275 1.490074491391915 521.0 0.0 369.0 
200.00004148381248 210984.0 NaN 1537.9372077488301 0.8457556261454959 520.0 0.0 370.0 
202.00004148381248 210994.0 NaN 1537.9318637274544 1.342055582430127 520.0 0.0 370.0 
204.00004148381248 211059.0 NaN 1537.907815631264 1.4976591038011782 519.0 0.0 370.0 
206.00004148381248 211075.0 NaN 1537.859719438879 0.8455514738102012 521.0 0.0 370.0 
208.00004148381248 211072.0 NaN 1537.8517034068154 1.3441432918581047 519.0 0.0 370.0 
210.00004148381248 211073.0 NaN 1534.7922511690058 1.500921584833466 517.0 0.0 369.0 
212.00004148381248 211051.0 NaN 1534.8216432865727 0.8500957251346107 518.0 0.0 369.0 
214.00004148381248 211095.0 NaN 1534.8456913827638 1.3463995574382797 517.0 0.0 369.0 
216.00004148381248 211094.0 NaN 1528.7054108216453 1.5013104899278453 517.0 0.0 367.0 
218.00004148381248 211121.0 NaN 1528.6172344689364 0.8520270408641949 517.0 0.0 367.0 
220.00004148381248 211116.0 NaN 1528.6118904475634 1.3458697934534116 518.0 0.0 367.0 
222.00004148381248 211124.0 NaN 1522.4822979291907 1.5009164260053673 517.0 0.0 365.0 
224.00004148381248 211152.0 NaN 1522.5250501002 0.8568168793440016 518.0 0.0 365.0 
226.00004148381248 211158.0 NaN 1528.662658650636 1.3452186067783751 518.0 0.0 367.0 
228.00004148381248 211180.0 NaN 1531.7541750167002 1.4973901175207487 517.0 0.0 368.0 
230.00004148381248 211204.0 NaN 1534.749498997997 0.8650413647849822 517.0 0.0 369.0 
232.00004148381248 211190.0 NaN 1534.7307949231817 1.3559516769874025 516.0 0.0 369.0 
234.00004148381248 211223.0 NaN 1534.7227788911155 1.5080596285765322 517.0 0.0 369.0 
236.00004148381248 211251.0 NaN 1534.80026720107 0.8711964072046486 517.0 0.0 369.0 
238.00004148381248 211248.0 NaN 1534.8056112224456 1.3580492027075228 517.0 0.0 369.0 
240.00004148381248 211260.0 NaN 1528.6599866399454 1.5122510903798332 515.0 1.0 366.0 
242.00004148381248 211257.0 NaN 1528.5344021376093 0.8679312482676619 514.0 1.0 366.0 
244.00004148381248 211278.0 NaN 1525.432197728791 1.3530092890146332 514.0 1.0 365.0 
246.00004148381248 211290.0 NaN 1522.396793587173 1.4990230158387756 514.0 1.0 364.0 
248.00004148381248 211309.0 NaN 1522.5277221108886 0.8490376023512046 514.0 1.0 364.0 
250.00004148381248 211340.0 NaN 1519.4308617234458 1.3366139984543348 512.0 1.0 363.0 
252.00004148381248 211329.0 NaN 1516.3633934535726 1.4831366392977732 512.0 1.0 362.0 
254.00004148381248 211324.0 NaN 1516.2752171008697 0.8467301164643445 512.0 1.0 362.0 
256.0000414838125 211322.0 NaN 1516.2752171008697 1.3314290462503844 511.0 1.0 362.0 
258.0000414838124 211347.0 NaN 1516.267201068803 1.4799035177221542 514.0 1.0 362.0 
260.0000414838124 211373.0 NaN 1510.1750167000662 0.8506076486523311 514.0 1.0 360.0 
262.0000414838124 211375.0 NaN 1513.2451569806271 1.3305159516365166 514.0 1.0 361.0 
264.0000414838124 211367.0 NaN 1510.180360721443 1.477329289812254 514.0 1.0 360.0 
266.0000414838124 211362.0 NaN 1519.3533734134935 0.8504638121143314 515.0 1.0 363.0 
268.0000414838124 211405.0 NaN 1522.4074816299274 1.3229381360379984 516.0 1.0 364.0 
270.0000414838124 211501.0 NaN 1519.3106212424843 1.4795892345024004 516.0 1.0 363.0 
272.0000414838124 211536.0 NaN 1519.369405477621 0.8508761511280014 513.0 1.0 363.0 
274.0000414838124 211525.0 NaN 1525.5203740814975 1.3276123364187624 512.0 1.0 365.0 
276.0000414838124 211544.0 NaN 1525.5043420173663 1.4882630022700107 511.0 1.0 365.0 
278.0000414838124 211562.0 NaN 1528.5531062124253 0.8559692417274767 512.0 1.0 366.0 
280.0000414838124 211590.0 NaN 1534.7014028056092 1.3321609374946057 511.0 1.0 368.0 
282.0000414838124 211563.0 NaN 1528.5370741482975 1.4919749214231477 512.0 1.0 366.0 
284.0000414838124 211592.0 NaN 1528.5504342017364 0.8659277994392268 512.0 1.0 366.0 
286.0000414838124 211610.0 NaN 1531.6366065464274 1.3331049635713952 513.0 1.0 367.0 
288.0000414838124 211632.0 NaN 1528.5771543086184 1.4965990630348833 512.0 1.0 366.0 
290.0000414838124 211681.0 NaN 1525.44555778223 0.8793753603559415 513.0 1.0 365.0 
292.0000414838124 211654.0 NaN 1525.4402137608542 1.3395595630914559 513.0 1.0 365.0 
294.0000414838124 211658.0 NaN 1522.3834335337365 1.5042079437030997 513.0 1.0 364.0 
296.0000414838124 211666.0 NaN 1522.458249833 0.8787971782239206 512.0 1.0 364.0 
298.0000414838124 211633.0 NaN 1522.458249833 1.3349413795928684 510.0 1.0 364.0 
300.0000414838124 211626.0 NaN 1522.458249833 1.4981616861946132 510.0 1.0 364.0 
302.0000414838124 211605.0 NaN 1525.4241816967274 0.8811207371550187 509.0 1.0 365.0 
304.0000414838124 211624.0 NaN 1525.432197728791 1.3406745931166628 509.0 1.0 365.0 
306.0000414838124 211636.0 NaN 1528.5183700734817 1.5083124782469897 508.0 1.0 366.0 
308.0000414838124 211645.0 NaN 1531.7247828991297 0.8984679295089751 508.0 1.0 367.0 
310.0000414838124 211647.0 NaN 1531.682030728125 1.3613355602875052 508.0 1.0 367.0 
312.0000414838124 211615.0 NaN 1531.682030728125 1.5172385081578672 505.0 2.0 366.0 
314.0000414838124 211628.0 NaN 1534.615898463593 0.891361165559769 506.0 2.0 367.0 
316.0000414838124 211604.0 NaN 1534.647962591852 1.3510723161178935 507.0 2.0 367.0 
318.0000414838124 211610.0 NaN 1528.4943219772886 1.5163585038947416 506.0 2.0 365.0 
320.0000414838124 211618.0 NaN 1531.695390781564 0.8961514171051748 508.0 2.0 366.0 
322.0000414838124 211571.0 NaN 1534.714762859052 1.3514709080479634 507.0 2.0 367.0 
324.0000414838124 211571.0 NaN 1534.706746826988 1.5141573716642438 507.0 2.0 367.0 
326.0000414838124 211563.0 NaN 1540.76686706747 0.8900071032998316 507.0 2.0 369.0 
328.0000414838124 211570.0 NaN 1537.736806947227 1.3623824968986398 507.0 2.0 368.0 
330.0000414838124 211562.0 NaN 1531.596526386106 1.530695520984167 508.0 2.0 366.0 
332.0000414838124 211528.0 NaN 1531.7247828991303 0.8916156439989813 508.0 2.0 366.0 
334.0000414838124 211544.0 NaN 1531.6553106212427 1.357799060685266 508.0 2.0 366.0 
336.0000414838124 211503.0 NaN 1528.5637942551757 1.5095415301604753 508.0 2.0 365.0 
338.0000414838124 211510.0 NaN 1528.4969939879754 0.8857828732775023 509.0 2.0 365.0 
340.0000414838124 211502.0 NaN 1525.4749498998 1.3563449256198075 509.0 2.0 364.0 
342.0000414838124 211462.0 NaN 1522.383433533736 1.513433323134017 508.0 2.0 363.0 
344.0000414838124 211444.0 NaN 1519.3934535738151 0.8792316853043319 507.0 2.0 362.0 
346.0000414838124 211418.0 NaN 1522.4555778223098 1.3448038212182531 508.0 2.0 363.0 
348.0000414838124 211421.0 NaN 1522.431529726118 1.509608555826743 508.0 2.0 363.0 
350.0000414838124 211415.0 NaN 1522.2792251168999 0.887747974238581 507.0 2.0 363.0 
352.0000414838124 211397.0 NaN 1522.3086172344697 1.3492242284296414 510.0 2.0 363.0 
354.0000414838124 211397.0 NaN 1522.3139612558455 1.5062030719174941 511.0 2.0 363.0 
356.0000414838124 211346.0 NaN 1522.4261857047431 0.8844287418003306 512.0 2.0 363.0 
358.0000414838124 211349.0 NaN 1522.3941215764878 1.3438580683844155 510.0 2.0 363.0 
360.0000414838124 211353.0 NaN 1528.5664662658642 1.5029188456063667 511.0 2.0 365.0 
362.0000414838124 211297.0 NaN 1528.513026052103 0.8853315997995275 515.0 2.0 365.0 
364.0000414838124 211283.0 NaN 1528.4996659986634 1.344374527667567 515.0 2.0 365.0 
366.0000414838124 211286.0 NaN 1519.2758851035394 1.4976066776376218 516.0 2.0 362.0 
368.0000414838124 211293.0 NaN 1516.2912491649972 0.8873783731081853 515.0 2.0 361.0 
370.0000414838124 211278.0 NaN 1516.2591850367394 1.3493248020020434 516.0 2.0 361.0 
372.0000414838124 211261.0 NaN 1510.1055444221788 1.4972231556484397 516.0 2.0 359.0 
374.0000414838124 211222.0 NaN 1513.0901803607205 0.8758314148838765 516.0 2.0 360.0 
376.0000414838124 211203.0 NaN 1513.0901803607205 1.3439658620748343 516.0 2.0 360.0 
378.0000414838124 211214.0 NaN 1513.0821643286567 1.4967042942518323 518.0 2.0 360.0 
380.0000414838124 211193.0 NaN 1510.1242484969932 0.8815853259674851 520.0 2.0 359.0 
382.0000414838124 211187.0 NaN 1516.3072812291255 1.351804359178362 519.0 2.0 361.0 
384.0000414838124 211188.0 NaN 1519.3667334669344 1.5015051951164349 521.0 2.0 362.0 
386.0000414838124 211201.0 NaN 1516.157648630594 0.8939610769248265 519.0 2.0 361.0 
388.0000414838124 211204.0 NaN 1516.157648630594 1.3626964704348568 519.0 2.0 361.0 
390.0000414838124 211175.0 NaN 1519.2598530394114 1.5093560453832013 519.0 2.0 362.0 
392.0000414838124 211147.0 NaN 1522.4288577154302 0.9112456428129724 520.0 2.0 363.0 
394.0000414838124 211078.0 NaN 1519.353373413493 1.3780301169565152 519.0 2.0 362.0 
396.0000414838124 211114.0 NaN 1510.1162324649295 1.5189394444933944 522.0 2.0 359.0 
398.0000414838124 211130.0 NaN 1510.0040080160331 0.9170939856176568 523.0 2.0 359.0 
400.0000414838124 211123.0 NaN 1510.0040080160331 1.3850697750852108 523.0 2.0 359.0 
402.0000414838124 211075.0 NaN 1516.157648630594 1.5187297580490868 523.0 2.0 361.0 
404.0000414838124 210914.0 NaN 1525.432197728791 0.9128507231660169 523.0 2.0 364.0 
406.0000414838124 210944.0 NaN 1525.432197728791 1.3915735843965775 522.0 2.0 364.0 
408.0000414838124 210970.0 NaN 1522.4101536406151 1.5265936807687654 522.0 2.0 363.0 
410.0000414838124 210942.0 NaN 1525.3974615898453 0.9272834021659548 523.0 2.0 364.0 
412.0000414838124 210923.0 NaN 1528.4569138276545 1.4044639677666728 523.0 2.0 365.0 
414.0000414838124 210926.0 NaN 1528.4435537742158 1.5347716657100967 523.0 2.0 365.0 
416.0000414838124 210938.0 NaN 1531.6205744822996 0.8998440572905881 524.0 2.0 366.0 
418.0000414838124 210965.0 NaN 1534.6907147628574 1.3827957576666705 524.0 2.0 367.0 
420.0000414838124 210953.0 NaN 1528.553106212425 1.5182712556376468 524.0 2.0 365.0 
422.0000414838124 210888.0 NaN 1528.4729458917825 0.9131056387052472 524.0 2.0 365.0 
424.0000414838124 210883.0 NaN 1519.2304609218447 1.3813857764341395 523.0 2.0 362.0 
426.0000414838124 210889.0 NaN 1519.2758851035394 1.5188412209692967 520.0 2.0 362.0 
428.0000414838124 210873.0 NaN 1516.2538410153636 0.9108708398270875 521.0 2.0 361.0 
430.0000414838124 210869.0 NaN 1516.2404809619243 1.3756520480412917 517.0 2.0 361.0 
432.0000414838124 210814.0 NaN 1513.1863727454909 1.5009275476787793 517.0 2.0 360.0 
434.0000414838124 210717.0 NaN 1516.0988643954568 0.8999884628038703 520.0 1.0 362.0 
436.0000414838124 210744.0 NaN 1522.2257849031387 1.3641387702688286 522.0 1.0 364.0 
438.0000414838124 210755.0 NaN 1519.198396793588 1.4991909875399292 523.0 1.0 363.0 
440.0000414838124 210747.0 NaN 1528.5076820307272 0.9089090490374033 523.0 1.0 366.0 
442.0000414838124 210753.0 NaN 1537.7074148296606 1.3752826991065044 528.0 1.0 369.0 
444.0000414838124 210745.0 NaN 1534.6319305277211 1.5088852656578422 528.0 1.0 368.0 
446.0000414838124 210770.0 NaN 1543.8236472945905 0.9167625066191565 529.0 1.0 371.0 
448.0000414838124 210791.0 NaN 1546.907147628591 1.3889828378466855 528.0 1.0 372.0 
450.0000414838124 210746.0 NaN 1537.6860387441545 1.526337832733775 526.0 1.0 369.0 
452.0000414838124 210704.0 NaN 1546.9659318637273 0.9251870737547752 529.0 1.0 372.0 
454.0000414838124 210702.0 NaN 1546.9338677354726 1.387230449130581 529.0 1.0 372.0 
456.0000414838124 210696.0 NaN 1549.9906479625909 1.5250870091796165 528.0 1.0 373.0 
458.0000414838124 210700.0 NaN 1556.1175684702725 0.9332872293010976 527.0 1.0 375.0 
460.0000414838124 210695.0 NaN 1556.1122244489 1.4011671550211438 528.0 1.0 375.0 
462.0000414838124 210683.0 NaN 1556.136272545091 1.5381404463095991 529.0 1.0 375.0 
464.0000414838124 210688.0 NaN 1550.0040080160334 0.9423017292168863 529.0 1.0 373.0 
466.0000414838124 210682.0 NaN 1546.888443553773 1.4093613277591628 527.0 1.0 372.0 
468.0000414838124 210676.0 NaN 1540.7695390781548 1.5509684812519258 528.0 1.0 370.0 
470.0000414838124 210629.0 NaN 1537.6539746158999 0.9441146134650267 527.0 1.0 369.0 
472.0000414838124 210602.0 NaN 1534.5170340681366 1.398669053793221 526.0 1.0 368.0 
474.0000414838124 210572.0 NaN 1531.4308617234458 1.5250029139862482 526.0 1.0 367.0 
476.0000414838124 210531.0 NaN 1528.4408817635274 0.9221113095654733 523.0 1.0 366.0 
478.0000414838124 210537.0 NaN 1528.4382097528387 1.385585103100702 522.0 1.0 366.0 
480.0000414838124 210516.0 NaN 1525.3787575150295 1.52428844942143 520.0 1.0 365.0 
482.0000414838124 210490.0 NaN 1525.303941215764 0.9314567407215474 519.0 1.0 365.0 
484.0000414838124 210565.0 NaN 1522.2231128924523 1.384154525845235 519.0 1.0 364.0 
486.0000414838124 210550.0 NaN 1509.950567802272 1.5203516895939484 519.0 0.0 361.0 
488.0000414838124 210570.0 NaN 1506.9044756179019 0.9299529581001192 517.0 0.0 360.0 
490.0000414838124 210570.0 NaN 1497.69138276553 1.3838000078776913 515.0 0.0 357.0 
492.0000414838124 210516.0 NaN 1494.637274549099 1.5119749499641755 516.0 0.0 356.0 
494.0000414838124 210496.0 NaN 1491.5404141616557 0.908846631757097 514.0 0.0 355.0 
496.0000414838124 210487.0 NaN 1491.5484301937202 1.3547366184931569 512.0 0.0 355.0 
498.0000414838124 210479.0 NaN 1482.3273213092848 1.4882191400939473 512.0 0.0 352.0 
500.0000414838124 210474.0 NaN 1485.4856379425526 0.9047949121130842 512.0 0.0 353.0 
502.0000414838124 210459.0 NaN 1488.5691382765538 1.3452897319279489 512.0 0.0 354.0 
504.0000414838124 210467.0 NaN 1485.5096860387448 1.4732729093552934 513.0 1.0 352.0 
506.0000414838124 210462.0 NaN 1491.617902471609 0.8975348107992044 514.0 1.0 354.0 
508.0000414838124 210468.0 NaN 1491.5457581830337 1.3401446884915538 514.0 1.0 354.0 
510.0000414838124 210481.0 NaN 1485.4134936539738 1.4808680989399743 514.0 1.0 352.0 
512.0000414838124 210471.0 NaN 1488.5477621910477 0.9038135007580649 518.0 1.0 353.0 
514.0000414838124 210506.0 NaN 1491.5991983967929 1.3474205487224304 517.0 1.0 354.0 
516.0000414838124 210475.0 NaN 1482.4235136940545 1.4843332247287782 516.0 1.0 351.0 
518.0000414838124 210447.0 NaN 1476.2084168336662 0.8973788489215654 514.0 1.0 349.0 
520.0000414838124 210501.0 NaN 1476.1603206412822 1.3456889848502265 513.0 1.0 349.0 
522.0000414838124 210461.0 NaN 1469.9986639946553 1.4777974544456391 516.0 1.0 347.0 
524.0000414838124 210437.0 NaN 1467.0434201736814 0.8859862809374537 515.0 1.0 346.0 
526.0000414838124 210418.0 NaN 1463.9866399465607 1.327359312804543 512.0 1.0 345.0 
528.0000414838124 210437.0 NaN 1473.2291249165 1.4661472003865332 514.0 1.0 348.0 
530.0000414838124 210497.0 NaN 1457.7421509686033 0.8949566525476641 510.0 1.0 343.0 
532.0000414838124 210471.0 NaN 1457.696726786908 1.3399070528755777 510.0 1.0 343.0 
534.0000414838124 210450.0 NaN 1460.774883099533 1.4624696359105853 512.0 1.0 344.0 
536.0000414838124 210483.0 NaN 1460.9378757515024 0.8894391353423782 512.0 1.0 344.0 
538.0000414838124 210494.0 NaN 1460.9325317301273 1.3390108543619268 513.0 1.0 344.0 
540.0000414838124 210523.0 NaN 1464.0133600534393 1.4675732293731725 512.0 1.0 345.0 
542.0000414838124 210505.0 NaN 1466.9632598530388 0.8929085208859621 513.0 1.0 346.0 
544.0000414838124 210510.0 NaN 1470.0066800267193 1.339563823153211 512.0 1.0 347.0 
546.0000414838124 210504.0 NaN 1473.0901803607208 1.4556662518199779 516.0 1.0 348.0 
548.0000414838124 210499.0 NaN 1476.272545090181 0.8917094022816165 515.0 1.0 349.0 
550.0000414838124 210496.0 NaN 1476.2565130260525 1.3400637825426278 514.0 1.0 349.0 
552.0000414838124 210460.0 NaN 1470.126920507682 1.461766088025647 517.0 1.0 347.0 
554.0000414838124 210461.0 NaN 1470.0334001336 0.8957094585499741 518.0 1.0 347.0 
556.0000414838124 210512.0 NaN 1466.9579158316637 1.333732836352297 517.0 1.0 346.0 
558.0000414838124 210527.0 NaN 1460.8256513026056 1.452091154799346 516.0 1.0 344.0 
560.0000414838124 210579.0 NaN 1463.9599198396795 0.8885358465164117 514.0 1.0 345.0 
562.0000414838124 210572.0 NaN 1463.9492317969275 1.3306543569946425 512.0 1.0 345.0 
564.0000414838124 210599.0 NaN 1460.8951235804946 1.4555158756867794 509.0 1.0 344.0 
566.0000414838124 210581.0 NaN 1463.8503674014698 0.8884587619650013 511.0 1.0 345.0 
568.0000414838124 210592.0 NaN 1466.963259853039 1.334124087493106 511.0 1.0 346.0 
570.0000414838124 210634.0 NaN 1470.0467601870405 1.4599062971152128 512.0 2.0 346.0 
572.0000414838124 210612.0 NaN 1473.1837007348029 0.8975378557196096 514.0 2.0 347.0 
574.0000414838124 210638.0 NaN 1479.3400133600542 1.3384714865196752 515.0 2.0 349.0 
576.0000414838124 210652.0 NaN 1479.33199732799 1.4561321230751147 520.0 2.0 349.0 
578.0000414838124 210687.0 NaN 1485.4001336005351 0.9072176094943216 518.0 2.0 351.0 
580.0000414838124 210706.0 NaN 1482.2925851703399 1.3517834877340162 518.0 2.0 350.0 
582.0000414838124 210682.0 NaN 1482.287241148964 1.4662220222709874 516.0 2.0 350.0 
584.0000414838124 210694.0 NaN 1479.323981295926 0.9013387294194669 519.0 2.0 349.0 
586.0000414838124 210706.0 NaN 1482.4235136940545 1.3389135742799654 521.0 2.0 350.0 
588.0000414838124 210731.0 NaN 1488.5931863727455 1.4601663846610244 522.0 2.0 352.0 
590.0000414838124 210754.0 NaN 1482.2872411489639 0.9089491279098316 523.0 2.0 350.0 
592.0000414838124 210737.0 NaN 1485.338677354709 1.3501952850877605 522.0 2.0 351.0 
594.0000414838124 210726.0 NaN 1491.4816299265192 1.461377410047602 522.0 2.0 353.0 
596.0000414838124 210743.0 NaN 1491.5911823647286 0.9019118616205805 522.0 2.0 353.0 
598.0000414838124 210779.0 NaN 1488.5504342017364 1.350862737171791 522.0 2.0 352.0 
600.0000414838124 210790.0 NaN 1488.5317301269195 1.4696098455593762 524.0 2.0 352.0 
602.0000414838124 210743.0 NaN 1494.615898463593 0.9125308615300748 525.0 2.0 354.0 
604.0000414838124 210743.0 NaN 1491.540414161656 1.344233634764931 525.0 2.0 353.0 
606.0000414838124 210774.0 NaN 1491.5564462257842 1.46484767498537 524.0 2.0 353.0 
608.0000414838124 210797.0 NaN 1500.8470273881092 0.9118541031225759 527.0 2.0 356.0 
610.0000414838124 210804.0 NaN 1497.7715430861726 1.3582679956131145 526.0 2.0 355.0 
612.0000414838124 210769.0 NaN 1497.7528390113555 1.4717080316299096 523.0 2.0 355.0 
614.0000414838124 210718.0 NaN 1500.782899131597 0.9064438441215703 522.0 2.0 356.0 
616.0000414838124 210730.0 NaN 1497.7020708082828 1.3435965293213303 522.0 2.0 355.0 
618.0000414838124 210752.0 NaN 1503.839679358718 1.4651518541603066 523.0 2.0 357.0 
620.0000414838124 210753.0 NaN 1500.822979291918 0.9119449107859233 522.0 2.0 356.0 
622.0000414838124 210780.0 NaN 1500.8523714094847 1.3555551538608765 523.0 2.0 356.0 
624.0000414838124 210764.0 NaN 1507.0086840347365 1.4651990399093602 524.0 2.0 358.0 
626.0000414838124 210837.0 NaN 1516.227120908483 0.915292450771001 523.0 2.0 361.0 
628.0000414838124 210858.0 NaN 1513.15965263861 1.3647739819084599 521.0 2.0 360.0 
630.0000414838124 210848.0 NaN 1507.0247160988638 1.4828439353332554 521.0 2.0 358.0 
632.0000414838124 210851.0 NaN 1510.150968603874 0.9326696755172935 519.0 2.0 359.0 
634.0000414838124 210853.0 NaN 1513.221108884436 1.371634631162337 518.0 2.0 360.0 
636.0000414838124 210818.0 NaN 1513.221108884436 1.4781238930294232 519.0 1.0 361.0 
638.0000414838124 210853.0 NaN 1519.30260521042 0.9282964006452699 519.0 1.0 363.0 
640.0000414838124 210870.0 NaN 1519.2705410821636 1.3743147826714097 523.0 1.0 363.0 
642.0000414838124 210876.0 NaN 1516.2110888443547 1.4840211864393849 522.0 1.0 362.0 
644.0000414838124 210838.0 NaN 1516.3126252505 0.9181352024808966 525.0 1.0 362.0 
646.0000414838124 210826.0 NaN 1516.3179692718759 1.3583791817386097 525.0 1.0 362.0 
648.0000414838124 210856.0 NaN 1516.3126252505 1.4771732475529957 524.0 1.0 362.0 
650.0000414838124 210840.0 NaN 1519.2598530394112 0.9163810849285349 520.0 1.0 363.0 
652.0000414838124 210853.0 NaN 1519.225116900467 1.3619870957123155 519.0 1.0 363.0 
654.0000414838124 210855.0 NaN 1519.219772879091 1.4685374061119947 518.0 1.0 363.0 
656.0000414838124 210834.0 NaN 1534.7120908483637 0.9083268813080826 519.0 1.0 368.0 
658.0000414838124 210833.0 NaN 1534.6933867735465 1.3528443713515956 517.0 1.0 368.0 
660.0000414838124 210800.0 NaN 1534.6960587842354 1.4640429551580703 517.0 1.0 368.0 
662.0000414838124 210831.0 NaN 1540.7454909819635 0.8953283224158437 517.0 1.0 370.0 
664.0000414838124 210874.0 NaN 1543.751503006011 1.3504730533140055 515.0 1.0 371.0 
#####################################################################
# End of data export. Simulation finished at: 2019-03-11T16:18+0000 #
#####################################################################
