#####################################################################
# Alchemist log file - simulation started at: 2019-03-06T16:38+0000 #
#####################################################################
# seed = 4.0, bandwidth = 316227.76601683797, propagationDelay = 0.001, baserange = 31.622776601683796
#
# The columns have the following meaning: 
# time neighbor_count[Sum] <value>@neighbor_count[Sum] packet_size[Mean] mean_delay[Mean] crowd[Sum] overcrowded[Sum] risk[Sum] 
0.0 NaN NaN NaN NaN NaN NaN NaN 
2.000251233884813 2783.0 NaN 4996.798931195724 0.49918254287302005 1497.0 0.0 1497.0 
4.000276532106095 2787.0 NaN 4999.665998663994 0.49920757890140194 1490.0 7.0 1490.0 
6.000251233884813 2790.0 NaN 4995.823647294589 0.4992489160047057 1446.0 51.0 1446.0 
8.000276532106096 2790.0 NaN 4996.6279225116905 0.49924787631180795 1416.0 81.0 1416.0 
10.000251233884812 2795.0 NaN 4994.909819639279 0.5007028390839343 1422.0 75.0 1422.0 
12.000276532106094 2790.0 NaN 4995.497661990648 0.5000520818553229 1413.0 84.0 1413.0 
14.000251233884812 2789.0 NaN 4994.533066132264 0.49908275679361563 1406.0 91.0 1406.0 
16.000276532106096 2796.0 NaN 4995.3159652638615 0.5005268745313737 1407.0 90.0 1407.0 
18.000276532106096 2795.0 NaN 4994.175016700066 0.5019633836803983 1398.0 99.0 1398.0 
20.000276532106096 2799.0 NaN 4995.211756847028 0.5007982378128754 1405.0 92.0 1405.0 
22.000276532106096 2794.0 NaN 4993.939879759519 0.501889716161105 1405.0 92.0 1405.0 
24.000276532106096 2792.0 NaN 4995.2598530394125 0.499533606447431 1406.0 91.0 1406.0 
26.000276532106096 2811.0 NaN 4993.883767535071 0.5032447453288527 1409.0 88.0 1409.0 
28.000276532106096 2800.0 NaN 4995.110220440882 0.500101986843557 1403.0 94.0 1403.0 
30.000276532106096 2810.0 NaN 4994.060120240481 0.5029930125055158 1407.0 90.0 1407.0 
32.00027653210609 2807.0 NaN 4995.014028056112 0.5032783844676084 1401.0 96.0 1401.0 
34.00027653210609 2809.0 NaN 4994.0146960587845 0.5000707215529059 1412.0 85.0 1412.0 
36.00027653210609 2830.0 NaN 4994.885771543086 0.5059575014378923 1405.0 92.0 1405.0 
38.00027653210609 2815.0 NaN 4993.891783567135 0.5013508530120451 1412.0 85.0 1412.0 
40.00027653210609 2817.0 NaN 4994.96325985304 0.5017466767899377 1406.0 91.0 1406.0 
42.00027653210609 2816.0 NaN 4993.827655310622 0.5019044884996182 1409.0 88.0 1409.0 
44.00027653210609 2821.0 NaN 4994.848363393454 0.4998147769836443 1396.0 101.0 1396.0 
46.00027653210609 2847.0 NaN 4993.9532398129595 0.5039830071976714 1398.0 99.0 1398.0 
48.00027653210609 2837.0 NaN 4994.821643286573 0.5021441028278105 1393.0 104.0 1393.0 
50.00027653210609 2845.0 NaN 4993.750167000668 0.5063850784772823 1396.0 101.0 1396.0 
52.00027653210609 2840.0 NaN 4994.655978623914 0.5099026583835801 1398.0 99.0 1398.0 
54.00027653210609 2835.0 NaN 4993.918503674015 0.5056224072670704 1397.0 100.0 1397.0 
56.00027653210609 2847.0 NaN 4994.602538410154 0.5061410068463141 1395.0 102.0 1395.0 
58.00027653210609 2821.0 NaN 4993.883767535071 0.5015464406534145 1398.0 99.0 1398.0 
60.00027653210609 2833.0 NaN 4994.680026720107 0.5003272894200598 1400.0 97.0 1400.0 
62.00047933655907 2832.0 NaN 1521.7047428189724 0.5014198875887197 576.0 95.0 270.0 
64.00042902272939 2835.0 NaN 1521.573814295257 0.498846887136584 484.0 94.0 271.0 
66.00047933655907 2855.0 NaN 1524.5771543086182 0.5022542900525034 447.0 94.0 272.0 
68.00047933655907 2847.0 NaN 1524.459585838345 0.5050300415754281 415.0 92.0 274.0 
70.00047933655907 2851.0 NaN 1524.6038744154996 0.5017805345003464 404.0 89.0 277.0 
72.00047933655907 2845.0 NaN 1527.732798931197 0.5031355614112617 398.0 90.0 277.0 
74.00042902272939 2843.0 NaN 1530.6987307949244 0.500255430059057 393.0 94.0 274.0 
76.00047933655907 2860.0 NaN 1530.8376753507002 0.503400926185632 395.0 92.0 276.0 
78.00047933655907 2847.0 NaN 1533.835671342685 0.5050258582972342 391.0 93.0 276.0 
80.00047933655907 2860.0 NaN 1536.9832999332002 0.502955626404033 387.0 95.0 275.0 
82.00047933655907 2846.0 NaN 1536.895123580494 0.5075808773153209 389.0 91.0 279.0 
84.00042902272939 2830.0 NaN 1536.9539078156304 0.500451129494376 383.0 95.0 275.0 
86.00047933655907 2832.0 NaN 1536.919171676688 0.5016760108500964 383.0 93.0 277.0 
88.00047933655907 2821.0 NaN 1536.9111556446212 0.5010414288036165 384.0 90.0 280.0 
90.00047933655907 2832.0 NaN 1537.0233800935184 0.5045254150292897 389.0 85.0 285.0 
92.00047933655907 2808.0 NaN 1536.8710754843003 0.5050307485790637 389.0 85.0 285.0 
94.00042902272939 2798.0 NaN 1536.8122912491638 0.5008436912912517 392.0 80.0 290.0 
96.00047933655907 2805.0 NaN 1536.830995323982 0.5057675869155347 390.0 82.0 288.0 
98.00047933655907 2789.0 NaN 1536.8203072812275 0.49967123902289423 381.0 91.0 279.0 
100.00047933655907 2804.0 NaN 1539.8209752838998 0.5053937690879965 384.0 88.0 283.0 
102.00047933655907 2787.0 NaN 1539.9438877755513 0.505269080956425 389.0 82.0 289.0 
104.00042902272939 2785.0 NaN 1539.8396793587183 0.500799168817133 386.0 85.0 286.0 
106.00047933655907 2804.0 NaN 1539.9225116900457 0.5040985327501131 385.0 86.0 285.0 
108.00047933655907 2798.0 NaN 1539.863727454909 0.5110268819659245 378.0 93.0 278.0 
110.00047933655907 2813.0 NaN 1539.8797595190367 0.5027282897612969 391.0 80.0 291.0 
112.00047933655907 2797.0 NaN 1539.871743486973 0.5004680722353908 390.0 81.0 290.0 
114.00042902272939 2806.0 NaN 1539.8610554442212 0.5008093370075141 390.0 81.0 290.0 
116.00047933655907 2810.0 NaN 1539.7621910487635 0.5049668037850468 392.0 79.0 292.0 
118.00047933655907 2797.0 NaN 1546.0227120908482 0.5067814400358925 390.0 82.0 291.0 
120.00047933655907 2809.0 NaN 1549.2478289913183 0.508977417233399 394.0 81.0 293.0 
122.00047933655907 2783.0 NaN 1548.9886439545753 0.5051180207142428 398.0 76.0 298.0 
124.00042902272939 2787.0 NaN 1549.1008684034728 0.49956944385227975 385.0 88.0 286.0 
126.00047933655907 2794.0 NaN 1549.1623246493 0.5028935180362695 392.0 81.0 293.0 
128.00047933655907 2783.0 NaN 1548.993987975952 0.4998094261768646 390.0 83.0 291.0 
130.00047933655907 2797.0 NaN 1546.1482965931846 0.50701632135818 395.0 77.0 296.0 
132.00047933655907 2773.0 NaN 1542.8510354041425 0.5163555401870698 393.0 75.0 297.0 
134.0004290227294 2758.0 NaN 1542.9953239812971 0.5033687949742426 390.0 78.0 294.0 
136.00047933655907 2772.0 NaN 1539.8663994656 0.5045181673207173 396.0 71.0 300.0 
138.00047933655907 2776.0 NaN 1542.9311957247814 0.5064620633320437 385.0 84.0 288.0 
140.00047933655907 2787.0 NaN 1539.9118236472939 0.504267545135766 381.0 86.0 285.0 
142.00047933655907 2811.0 NaN 1546.0280561122245 0.503541811480252 377.0 90.0 283.0 
144.0004290227294 2807.0 NaN 1549.2451569806271 0.501013264355015 370.0 98.0 276.0 
146.00047933655907 2816.0 NaN 1546.1162324649301 0.5013864011395243 368.0 100.0 273.0 
148.00047933655907 2822.0 NaN 1552.1068804275212 0.5153139059640242 362.0 106.0 269.0 
150.00047933655907 2834.0 NaN 1552.2191048764182 0.5045719748232714 374.0 93.0 282.0 
152.00047933655907 2838.0 NaN 1549.119572478291 0.5028318546355534 374.0 93.0 281.0 
154.0004290227294 2834.0 NaN 1549.2264529058116 0.5000383095150557 368.0 100.0 274.0 
156.00047933655907 2847.0 NaN 1543.0273881095547 0.5025638531411232 380.0 89.0 283.0 
158.00047933655907 2845.0 NaN 1542.9953239812971 0.5027617085030175 371.0 98.0 274.0 
160.00047933655907 2857.0 NaN 1543.0514362057456 0.5101386727065914 371.0 98.0 274.0 
162.00047933655907 2841.0 NaN 1543.0167000667998 0.5102694564054809 376.0 91.0 281.0 
164.0004290227294 2809.0 NaN 1542.9044756179023 0.5052874576296299 370.0 96.0 276.0 
166.00047933655907 2810.0 NaN 1546.1082164328636 0.5066827373795616 372.0 92.0 281.0 
168.00047933655907 2811.0 NaN 1543.0167000667998 0.5114359008952652 372.0 91.0 281.0 
170.00047933655907 2818.0 NaN 1543.0193720774885 0.5084597280532364 381.0 82.0 290.0 
172.00047933655907 2800.0 NaN 1542.9766199064816 0.5101720919377186 375.0 88.0 284.0 
174.0004290227294 2785.0 NaN 1536.9191716766882 0.5037270259486311 378.0 84.0 286.0 
176.00047933655907 2780.0 NaN 1539.8370073480273 0.5074925598564217 383.0 79.0 292.0 
178.00047933655907 2768.0 NaN 1539.8663994656 0.5087796660919844 382.0 81.0 290.0 
180.00047933655907 2787.0 NaN 1539.9251837007362 0.5050700757791461 381.0 84.0 287.0 
182.00047933655907 2776.0 NaN 1539.906479625918 0.5065940895852268 385.0 80.0 291.0 
184.0004290227294 2770.0 NaN 1536.964595858382 0.5081049512307776 373.0 92.0 278.0 
186.00047933655907 2768.0 NaN 1539.9038076152299 0.5128402516537384 372.0 93.0 278.0 
188.00047933655907 2759.0 NaN 1536.8817635270545 0.5044513521804436 370.0 94.0 276.0 
190.00047933655907 2775.0 NaN 1536.8951235804936 0.5101341869105336 374.0 90.0 280.0 
192.00047933655907 2758.0 NaN 1540.104208416834 0.5139610694145866 373.0 93.0 278.0 
194.0004290227294 2752.0 NaN 1539.9572478289908 0.5105137291053049 364.0 99.0 272.0 
196.00047933655907 2764.0 NaN 1540.0374081496336 0.5113281299919071 365.0 98.0 273.0 
198.00047933655907 2774.0 NaN 1539.9599198396795 0.511953728148767 365.0 99.0 272.0 
200.00047933655907 2778.0 NaN 1540.0507682030725 0.5080403302579642 363.0 99.0 272.0 
202.00047933655907 2776.0 NaN 1546.209752839009 0.5090534257407434 368.0 95.0 278.0 
204.0004290227294 2781.0 NaN 1549.25851703407 0.504095115354586 368.0 98.0 276.0 
206.00047933655907 2794.0 NaN 1549.1837007348024 0.5144242876485148 369.0 97.0 277.0 
208.00047933655907 2775.0 NaN 1540.0026720106885 0.5118935536955256 367.0 99.0 272.0 
210.00047933655907 2775.0 NaN 1540.0267201068816 0.5095773528612213 367.0 96.0 275.0 
212.00047933655907 2766.0 NaN 1542.9552438209753 0.522845703027442 365.0 99.0 273.0 
214.0004290227294 2737.0 NaN 1542.9311957247817 0.5090691576870264 355.0 110.0 262.0 
216.00047933655907 2745.0 NaN 1543.035404141618 0.5054080831739448 364.0 101.0 271.0 
218.00047933655907 2755.0 NaN 1539.8744154976634 0.5052266255588613 364.0 100.0 271.0 
220.00047933655907 2771.0 NaN 1539.9358717434882 0.510443018400445 364.0 100.0 271.0 
222.00047933655907 2770.0 NaN 1536.7775551102184 0.5079831357788662 372.0 94.0 276.0 
224.0004290227294 2760.0 NaN 1536.8684034736152 0.5045002048419049 369.0 95.0 275.0 
226.00047933655907 2765.0 NaN 1539.9038076152299 0.5125532496384484 365.0 98.0 273.0 
228.00047933655907 2754.0 NaN 1546.0093520374091 0.516882032176373 363.0 101.0 272.0 
230.00047933655907 2752.0 NaN 1546.1242484969932 0.502984015227991 372.0 91.0 282.0 
232.00047933655907 2755.0 NaN 1546.126920507682 0.5115176891043275 367.0 96.0 277.0 
234.0004290227294 2737.0 NaN 1549.052772211091 0.504886012412668 362.0 100.0 274.0 
236.00047933655907 2747.0 NaN 1546.1108884435546 0.5043490802672014 362.0 97.0 276.0 
238.00047933655907 2745.0 NaN 1543.011356045425 0.5107502521200343 359.0 100.0 272.0 
240.00047933655907 2744.0 NaN 1539.9519038076157 0.5132980609286604 356.0 104.0 267.0 
242.00047933655907 2716.0 NaN 1539.7755511022026 0.5056580531357485 363.0 97.0 274.0 
244.0004290227294 2706.0 NaN 1536.7882431529729 0.501433581499235 357.0 102.0 268.0 
246.00047933655907 2715.0 NaN 1536.8122912491638 0.5032347346332725 366.0 93.0 277.0 
248.00047933655907 2712.0 NaN 1536.7775551102181 0.5010673093193856 358.0 99.0 271.0 
250.00047933655907 2719.0 NaN 1533.7715430861729 0.50225520073672 368.0 90.0 279.0 
252.00047933655907 2701.0 NaN 1530.6506346025367 0.5064552764876432 363.0 94.0 274.0 
254.0004290227294 2697.0 NaN 1527.5885103540425 0.5087398124019203 359.0 97.0 270.0 
256.00047933655907 2726.0 NaN 1527.6098864395453 0.5049293021686323 362.0 95.0 272.0 
258.00047933655907 2726.0 NaN 1527.6045424181702 0.5112188775021365 365.0 94.0 273.0 
260.00047933655907 2712.0 NaN 1527.7007348029388 0.5119348358570092 365.0 95.0 272.0 
262.00047933655907 2702.0 NaN 1527.561790247161 0.5235827885940697 369.0 91.0 276.0 
264.0004290227294 2676.0 NaN 1527.7007348029388 0.5038704337873451 368.0 92.0 275.0 
266.00047933655907 2704.0 NaN 1536.9405477621908 0.5100905706029599 373.0 85.0 285.0 
268.00047933655907 2703.0 NaN 1543.0487641950544 0.5080386463279457 374.0 85.0 287.0 
270.00047933655907 2699.0 NaN 1543.043420173682 0.5129935860511424 380.0 80.0 292.0 
272.00047933655907 2694.0 NaN 1536.9058116232454 0.5226908586994341 377.0 82.0 288.0 
274.0004290227294 2665.0 NaN 1533.81696726787 0.5067155689166182 375.0 83.0 286.0 
276.00047933655907 2670.0 NaN 1536.9058116232454 0.515676632844115 377.0 79.0 291.0 
278.00047933655907 2653.0 NaN 1539.9278557114242 0.5222249208719548 374.0 82.0 289.0 
280.00047933655907 2645.0 NaN 1539.9278557114242 0.5114649175455066 374.0 85.0 286.0 
282.00047933655907 2643.0 NaN 1539.890447561791 0.5178733994692193 383.0 79.0 292.0 
284.0004290227294 2623.0 NaN 1539.9251837007364 0.510288004688942 377.0 84.0 287.0 
286.00047933655907 2630.0 NaN 1533.7448229792908 0.5129561703588693 377.0 82.0 287.0 
288.00047933655907 2610.0 NaN 1533.6539746158999 0.5093860395212139 379.0 78.0 291.0 
290.00047933655907 2621.0 NaN 1533.7875751503 0.5084679540784185 384.0 71.0 298.0 
292.00047933655907 2620.0 NaN 1530.6399465597844 0.5116299302230469 380.0 74.0 294.0 
294.0004290227294 2612.0 NaN 1536.7989311957251 0.505547083762793 380.0 76.0 294.0 
296.00047933655907 2617.0 NaN 1536.7454909819635 0.518006494288255 382.0 75.0 295.0 
298.00047933655907 2611.0 NaN 1539.7942551770204 0.5014856799196914 377.0 81.0 290.0 
300.00047933655907 2625.0 NaN 1539.9572478289908 0.5067776381651165 379.0 80.0 291.0 
302.00047933655907 2631.0 NaN 1539.7675350701388 0.5036370544369143 386.0 74.0 297.0 
304.0004290227294 2629.0 NaN 1536.8951235804936 0.5051493890820268 378.0 79.0 291.0 
306.00047933655907 2639.0 NaN 1533.6993987975936 0.5103041574140074 381.0 76.0 293.0 
308.00047933655907 2624.0 NaN 1533.7608550434181 0.5085596719969155 380.0 77.0 292.0 
310.00047933655907 2624.0 NaN 1530.7682030728115 0.5093681289548491 384.0 72.0 296.0 
312.00047933655907 2616.0 NaN 1533.664662658652 0.5117866362658801 381.0 75.0 294.0 
314.0004290227294 2612.0 NaN 1530.6559786239154 0.5079273083549057 379.0 78.0 290.0 
316.00047933655907 2623.0 NaN 1533.776887107548 0.5053264242401084 382.0 76.0 293.0 
318.00047933655907 2622.0 NaN 1530.706746826988 0.5009752489760448 383.0 75.0 293.0 
320.00047933655907 2626.0 NaN 1530.7281229124908 0.51665178870536 384.0 74.0 294.0 
322.00047933655907 2610.0 NaN 1527.5991983967936 0.5149223642597804 383.0 73.0 294.0 
324.0004290227294 2601.0 NaN 1527.6873747495001 0.5045721947158317 378.0 78.0 289.0 
326.00047933655907 2610.0 NaN 1527.6098864395453 0.5093201797832716 379.0 77.0 290.0 
328.00047933655907 2597.0 NaN 1530.6586506346027 0.5020398288894394 379.0 77.0 291.0 
330.00047933655907 2612.0 NaN 1530.642618570473 0.5179624508687093 385.0 71.0 297.0 
332.00047933655907 2609.0 NaN 1524.5076820307272 0.5069199070393435 383.0 73.0 293.0 
334.0004290227294 2617.0 NaN 1530.661322645291 0.5000719522130598 381.0 75.0 293.0 
336.00047933655907 2634.0 NaN 1524.545090180361 0.5043211778708131 384.0 73.0 293.0 
338.00047933655907 2635.0 NaN 1524.4221776887096 0.5108400901333913 382.0 75.0 291.0 
340.00047933655907 2630.0 NaN 1524.4836339345366 0.508385111724536 380.0 76.0 290.0 
342.00047933655907 2632.0 NaN 1524.3580494321996 0.5143973363585206 385.0 72.0 294.0 
344.0004290227294 2616.0 NaN 1530.6265865063453 0.5080859831753949 382.0 77.0 291.0 
346.00047933655907 2630.0 NaN 1533.605878423512 0.507246818962731 385.0 75.0 294.0 
348.00047933655907 2628.0 NaN 1530.7307949231815 0.5038319318495332 384.0 76.0 292.0 
350.00047933655907 2624.0 NaN 1527.6098864395453 0.5029233695078908 389.0 71.0 296.0 
352.00047933655907 2627.0 NaN 1524.4008016032067 0.5141041665543298 386.0 74.0 292.0 
354.0004290227294 2610.0 NaN 1524.4943219772886 0.5053131587336205 377.0 82.0 284.0 
356.00047933655907 2633.0 NaN 1524.4729458917825 0.5202928472574603 375.0 83.0 283.0 
358.00047933655907 2624.0 NaN 1524.4488977955907 0.5049776816738983 376.0 83.0 283.0 
360.00047933655907 2631.0 NaN 1524.563794255176 0.517727069825198 374.0 84.0 282.0 
362.00047933655907 2616.0 NaN 1527.4335337341358 0.5114696712986814 373.0 86.0 281.0 
364.0004290227294 2616.0 NaN 1527.5885103540422 0.5050012194508164 363.0 95.0 272.0 
366.00047933655907 2640.0 NaN 1527.5136940547757 0.5079209700431804 371.0 87.0 280.0 
368.00047933655907 2624.0 NaN 1521.3520374081486 0.5048234295059457 371.0 88.0 277.0 
370.00047933655907 2630.0 NaN 1518.3861055444213 0.5157002669380568 376.0 83.0 281.0 
372.00047933655907 2629.0 NaN 1515.126252505009 0.5232347156841372 375.0 84.0 279.0 
374.0004290227294 2605.0 NaN 1515.206412825652 0.5061375584593909 373.0 86.0 277.0 
376.00047933655907 2619.0 NaN 1512.0534402137616 0.5090305574841818 375.0 84.0 278.0 
378.00047933655907 2614.0 NaN 1509.100868403473 0.51776599412882 373.0 86.0 275.0 
380.00047933655907 2623.0 NaN 1512.0267201068812 0.505198995634365 373.0 86.0 276.0 
382.00047933655907 2634.0 NaN 1512.0801603206423 0.5137425808188272 379.0 83.0 279.0 
384.0004290227294 2628.0 NaN 1515.2678690714756 0.5032946052376601 379.0 86.0 277.0 
386.00047933655907 2652.0 NaN 1518.3807615230455 0.5061037886745632 380.0 84.0 280.0 
388.00047933655907 2653.0 NaN 1518.3674014696066 0.5186150863842962 380.0 85.0 279.0 
390.00047933655907 2652.0 NaN 1515.3319973279904 0.5119752209939712 381.0 81.0 282.0 
392.00047933655907 2648.0 NaN 1515.4495657982636 0.5284177667561155 381.0 82.0 281.0 
394.0004290227294 2619.0 NaN 1515.2678690714758 0.5049148182866545 378.0 84.0 279.0 
396.00047933655907 2649.0 NaN 1518.3433533734126 0.5117367079109485 381.0 81.0 283.0 
398.00047933655907 2645.0 NaN 1512.1790247161 0.5077530168005316 380.0 84.0 278.0 
400.00047933655907 2659.0 NaN 1512.1950567802273 0.5096471051873214 381.0 83.0 279.0 
402.00047933655907 2647.0 NaN 1515.3293253173003 0.5193694586822276 392.0 74.0 289.0 
404.0004290227294 2632.0 NaN 1515.3159652638612 0.5047927700605759 393.0 75.0 288.0 
406.00047933655907 2655.0 NaN 1515.417501670007 0.5103716600854493 397.0 71.0 292.0 
408.00047933655907 2638.0 NaN 1518.471609886439 0.5121122972624256 405.0 64.0 300.0 
410.00047933655907 2632.0 NaN 1518.4101536406151 0.5088707681664351 411.0 58.0 306.0 
412.00047933655907 2637.0 NaN 1527.7568470273884 0.5143864472761834 411.0 59.0 308.0 
414.0004290227294 2632.0 NaN 1530.7414829659301 0.5171305430843021 407.0 63.0 305.0 
416.00047933655907 2635.0 NaN 1530.781563126254 0.5183212723579468 405.0 66.0 302.0 
418.00047933655907 2609.0 NaN 1518.3460253841004 0.5051767927400168 408.0 63.0 301.0 
420.00047933655907 2629.0 NaN 1518.3380093520366 0.501283556120559 395.0 72.0 292.0 
422.00047933655907 2628.0 NaN 1515.305277221109 0.5168382237788136 402.0 67.0 296.0 
424.0004290227294 2620.0 NaN 1515.2732130928537 0.5016176642237437 400.0 72.0 291.0 
426.00047933655907 2648.0 NaN 1515.2999331997335 0.5135109842047272 398.0 75.0 288.0 
428.00047933655907 2632.0 NaN 1515.2464929859725 0.5163919718337273 393.0 78.0 285.0 
430.00047933655907 2643.0 NaN 1515.2304609218445 0.5121980359385326 401.0 73.0 290.0 
432.00047933655907 2627.0 NaN 1515.3079492317977 0.5300915355990323 401.0 75.0 288.0 
434.0004290227294 2609.0 NaN 1521.4509018036083 0.5050377765014494 402.0 75.0 290.0 
436.00047933655907 2620.0 NaN 1524.4408817635274 0.5206765554870015 402.0 73.0 293.0 
438.00047933655907 2610.0 NaN 1527.679358717436 0.5118300845207485 401.0 72.0 295.0 
440.00047933655907 2637.0 NaN 1527.5671342685364 0.5106766364108802 400.0 76.0 291.0 
442.00047933655907 2641.0 NaN 1533.6887107548432 0.5185832426266822 403.0 72.0 297.0 
444.0004290227294 2632.0 NaN 1530.6907147628574 0.5030481625323782 399.0 75.0 293.0 
446.00047933655907 2633.0 NaN 1527.4949899799608 0.5164367425507655 400.0 73.0 294.0 
448.00047933655907 2607.0 NaN 1539.890447561791 0.5150385583160116 399.0 74.0 297.0 
450.00047933655907 2623.0 NaN 1543.0086840347365 0.5214330146024162 408.0 68.0 304.0 
452.00047933655907 2599.0 NaN 1549.0073480293909 0.5176515570416955 406.0 70.0 304.0 
454.0004290227294 2589.0 NaN 1549.0661322645274 0.5037175814692763 403.0 72.0 302.0 
456.00047933655907 2594.0 NaN 1549.092852371409 0.515773045275725 399.0 75.0 299.0 
458.00047933655907 2578.0 NaN 1549.0607882431543 0.5019640078078272 397.0 77.0 297.0 
460.00047933655907 2599.0 NaN 1549.1356045424182 0.5135476870196448 397.0 78.0 296.0 
462.00047933655907 2589.0 NaN 1546.0093520374091 0.5183707725230963 402.0 73.0 300.0 
464.0004290227294 2572.0 NaN 1542.789579158318 0.5124501469669465 397.0 78.0 294.0 
466.00047933655907 2578.0 NaN 1545.977287909152 0.5160064683947813 398.0 78.0 295.0 
468.00047933655907 2559.0 NaN 1542.7441549766186 0.5083689354518042 396.0 79.0 293.0 
470.00047933655907 2577.0 NaN 1542.8243152972616 0.5217081211043547 402.0 73.0 299.0 
472.00047933655907 2576.0 NaN 1542.8750835003343 0.5148399034138741 401.0 75.0 297.0 
474.0004290227294 2555.0 NaN 1533.507014028055 0.5020878343952114 396.0 78.0 291.0 
476.00047933655907 2571.0 NaN 1527.5323981295915 0.5134268592339731 399.0 77.0 290.0 
478.00047933655907 2557.0 NaN 1521.303941215764 0.5115881548977806 398.0 76.0 289.0 
480.00047933655907 2582.0 NaN 1524.3981295925182 0.5199095543757923 395.0 77.0 289.0 
482.00047933655907 2565.0 NaN 1524.3259853039426 0.5147379546344071 398.0 74.0 292.0 
484.0004290227294 2566.0 NaN 1521.3520374081484 0.5096650336468719 391.0 83.0 282.0 
486.00047933655907 2591.0 NaN 1518.2097528390098 0.5237875120991058 394.0 77.0 287.0 
488.00047933655907 2561.0 NaN 1509.0073480293916 0.49935885272503067 391.0 76.0 285.0 
490.00047933655907 2575.0 NaN 1502.8724114896454 0.5130242314492396 396.0 70.0 289.0 
492.00047933655907 2567.0 NaN 1493.6940547762185 0.5193515384322491 393.0 71.0 285.0 
494.0004290227294 2545.0 NaN 1493.6219104876427 0.5028074677677682 388.0 75.0 281.0 
496.00047933655907 2566.0 NaN 1493.7207748831 0.50494319983314 386.0 73.0 283.0 
498.00047933655907 2555.0 NaN 1493.6138944555787 0.5020812059046681 380.0 75.0 281.0 
500.00047933655907 2568.0 NaN 1484.4622578490303 0.5085645753791892 380.0 76.0 277.0 
502.00047933655907 2562.0 NaN 1481.317301269206 0.5075133550769971 386.0 72.0 280.0 
504.0004290227294 2559.0 NaN 1484.518370073481 0.5009923868110611 379.0 78.0 275.0 
506.00047933655907 2589.0 NaN 1493.6486305945211 0.5151311174321077 377.0 83.0 273.0 
508.00047933655907 2578.0 NaN 1490.6479625918516 0.5138240152973466 373.0 84.0 271.0 
510.00047933655907 2589.0 NaN 1490.5998663994646 0.5071449350103288 376.0 82.0 273.0 
512.000479336559 2585.0 NaN 1490.7067468269881 0.5096379577907907 378.0 80.0 275.0 
514.0004290227293 2570.0 NaN 1484.4569138276547 0.49807902935557785 373.0 82.0 271.0 
516.000479336559 2595.0 NaN 1478.391449565799 0.5143320837425067 373.0 80.0 271.0 
518.000479336559 2566.0 NaN 1466.1563126252513 0.49976448217028147 373.0 79.0 268.0 
520.000479336559 2580.0 NaN 1459.9011356045432 0.5092335255628068 369.0 79.0 266.0 
522.000479336559 2572.0 NaN 1459.8209752839002 0.5152463913828931 370.0 74.0 271.0 
524.0004290227293 2557.0 NaN 1463.0487641950556 0.49951268391287823 360.0 83.0 263.0 
526.000479336559 2572.0 NaN 1456.7107548430185 0.5095516944870363 366.0 78.0 266.0 
528.000479336559 2556.0 NaN 1453.742150968603 0.5071198550556868 367.0 75.0 268.0 
530.000479336559 2568.0 NaN 1450.5811623246486 0.5060008754762908 374.0 68.0 274.0 
532.000479336559 2573.0 NaN 1456.8176352705423 0.51111430869569 373.0 74.0 270.0 
534.0004290227293 2559.0 NaN 1459.8343353373423 0.5065949243080118 370.0 74.0 271.0 
536.000479336559 2587.0 NaN 1459.9679358717442 0.5114811200278608 375.0 73.0 272.0 
538.000479336559 2575.0 NaN 1459.8717434869734 0.5039783089462911 374.0 73.0 272.0 
540.000479336559 2583.0 NaN 1463.1128924515704 0.5037965731737388 371.0 75.0 271.0 
542.000479336559 2576.0 NaN 1469.0501002004003 0.5146738775574128 379.0 69.0 279.0 
544.0004290227293 2562.0 NaN 1469.0848363393457 0.5013300564249303 378.0 73.0 275.0 
546.000479336559 2582.0 NaN 1469.0875083500337 0.5068162143725145 382.0 72.0 276.0 
548.000479336559 2560.0 NaN 1465.9772879091522 0.5091200436605484 379.0 73.0 274.0 
550.000479336559 2556.0 NaN 1466.0975283901128 0.5057939889257184 378.0 75.0 272.0 
552.000479336559 2548.0 NaN 1466.0040080160327 0.4978362311374131 381.0 70.0 277.0 
554.0004290227293 2558.0 NaN 1465.9639278557104 0.5044367640857375 381.0 73.0 274.0 
556.000479336559 2573.0 NaN 1469.082164328657 0.5115700179881428 382.0 72.0 276.0 
558.000479336559 2557.0 NaN 1466.0253841015365 0.5049539734904841 374.0 78.0 269.0 
560.000479336559 2568.0 NaN 1463.0086840347365 0.5123723369679023 367.0 81.0 265.0 
562.000479336559 2563.0 NaN 1459.7808951235809 0.5049284967583827 373.0 76.0 269.0 
564.0004290227293 2567.0 NaN 1456.8363393453574 0.5105506467690342 373.0 79.0 265.0 
566.000479336559 2562.0 NaN 1463.0861723446899 0.5250389278032046 375.0 77.0 269.0 
568.000479336559 2547.0 NaN 1484.5851703406815 0.5057664138523824 374.0 79.0 274.0 
570.000479336559 2553.0 NaN 1484.6252505010013 0.5040274220327732 382.0 72.0 281.0 
572.000479336559 2541.0 NaN 1481.5497661990642 0.5079193909280163 382.0 73.0 279.0 
574.0004290227293 2540.0 NaN 1478.4395457581825 0.5110655121912284 381.0 74.0 277.0 
576.000479336559 2570.0 NaN 1487.7247828991306 0.525551599872489 386.0 70.0 284.0 
578.000479336559 2541.0 NaN 1481.6379425517707 0.5028129823030043 380.0 73.0 279.0 
580.000479336559 2566.0 NaN 1487.639278557115 0.508946272786009 381.0 73.0 281.0 
582.000479336559 2556.0 NaN 1487.735470941883 0.5117136964109844 388.0 66.0 288.0 
584.0004290227293 2564.0 NaN 1490.816299265198 0.5026930489952314 379.0 76.0 279.0 
586.000479336559 2584.0 NaN 1490.725450901803 0.5152052448676171 391.0 69.0 286.0 
588.000479336559 2571.0 NaN 1487.6713426853714 0.5140233603223635 387.0 75.0 279.0 
590.000479336559 2573.0 NaN 1490.7601870407473 0.5168132082909018 397.0 65.0 290.0 
592.000479336559 2557.0 NaN 1490.6639946559799 0.5140795175943128 396.0 66.0 289.0 
594.0004290227293 2569.0 NaN 1493.8276553106202 0.5069656271476345 396.0 69.0 287.0 
596.000479336559 2587.0 NaN 1490.7307949231804 0.5167216202858808 405.0 66.0 289.0 
598.000479336559 2565.0 NaN 1493.6646626586514 0.5031916207707656 400.0 71.0 285.0 
600.000479336559 2584.0 NaN 1490.8376753507011 0.5055068196531807 396.0 75.0 280.0 
602.000479336559 2579.0 NaN 1502.952571810288 0.5091994466175012 398.0 72.0 287.0 
604.0004290227293 2586.0 NaN 1503.0407481629923 0.5168187056076917 394.0 76.0 283.0 
606.000479336559 2593.0 NaN 1502.997995991983 0.5270152776736499 392.0 76.0 283.0 
608.000479336559 2570.0 NaN 1506.054776219106 0.5011189983434282 387.0 78.0 282.0 
610.000479336559 2592.0 NaN 1512.2458249832998 0.5085525357326058 387.0 79.0 283.0 
612.000479336559 2602.0 NaN 1512.1843687374735 0.5139379641083893 387.0 79.0 283.0 
614.0004290227293 2602.0 NaN 1509.1569806279213 0.5108031532032011 381.0 83.0 278.0 
616.000479336559 2622.0 NaN 1509.108884435537 0.5167629213642945 382.0 83.0 278.0 
618.000479336559 2602.0 NaN 1509.0901803607205 0.5040074011565269 390.0 76.0 285.0 
620.000479336559 2628.0 NaN 1518.3273213092848 0.5226484798998501 392.0 76.0 288.0 
622.000479336559 2614.0 NaN 1527.6927187708748 0.519107102913759 395.0 71.0 296.0 
624.0004290227293 2618.0 NaN 1524.6546426185719 0.5037627762864316 382.0 83.0 283.0 
626.000479336559 2647.0 NaN 1527.706078824316 0.5296318125876893 390.0 75.0 292.0 
628.000479336559 2616.0 NaN 1527.6072144288569 0.5111336830273463 381.0 82.0 285.0 
630.000479336559 2642.0 NaN 1521.6486305945211 0.5218301669630097 387.0 75.0 290.0 
632.000479336559 2625.0 NaN 1521.520374081497 0.5214616551075751 381.0 79.0 286.0 
634.0004290227293 2628.0 NaN 1524.780227120909 0.504467387475284 375.0 85.0 281.0 
636.000479336559 2671.0 NaN 1521.600534402137 0.5163518652795679 394.0 70.0 295.0 
638.000479336559 2647.0 NaN 1518.6185704742816 0.5012509385604268 386.0 79.0 285.0 
640.000479336559 2660.0 NaN 1521.5444221776897 0.5235373804088777 388.0 77.0 288.0 
642.000479336559 2644.0 NaN 1521.5577822311284 0.5124674072013865 391.0 75.0 290.0 
644.0004290227293 2638.0 NaN 1524.5130260521032 0.5059153576133517 386.0 81.0 285.0 
646.000479336559 2670.0 NaN 1524.5718102872424 0.5206750732255966 389.0 79.0 287.0 
648.000479336559 2639.0 NaN 1524.7054108216444 0.5076065962717727 383.0 82.0 284.0 
650.000479336559 2634.0 NaN 1521.541750167 0.5254522299644266 380.0 81.0 284.0 
652.000479336559 2592.0 NaN 1524.5450901803617 0.5269309031013655 376.0 83.0 283.0 
654.0004290227293 2600.0 NaN 1524.6412825651294 0.5101570413482494 375.0 83.0 283.0 
656.000479336559 2637.0 NaN 1530.5998663994649 0.5325542678939272 383.0 76.0 292.0 
658.000479336559 2639.0 NaN 1546.2284569138271 0.5037981565365666 383.0 78.0 295.0 
660.000479336559 2648.0 NaN 1545.9826319305273 0.5210051603181362 383.0 78.0 295.0 
662.000479336559 2642.0 NaN 1546.1563126252513 0.5192078639646193 379.0 81.0 292.0 
664.0004290227293 2631.0 NaN 1542.9498997996 0.5105050782685903 373.0 86.0 286.0 
#####################################################################
# End of data export. Simulation finished at: 2019-03-06T16:44+0000 #
#####################################################################
