#####################################################################
# Alchemist log file - simulation started at: 2019-03-07T18:16+0000 #
#####################################################################
# seed = 5.0, bandwidth = 1333521.4321633242, propagationDelay = 0.1, baserange = 31.622776601683796
#
# The columns have the following meaning: 
# time neighbor_count[Sum] <value>@neighbor_count[Sum] packet_size[Mean] mean_delay[Mean] crowd[Sum] overcrowded[Sum] risk[Sum] 
0.0 NaN NaN NaN NaN NaN NaN NaN 
2.000006202741634 2762.0 NaN 4995.492317969271 0.498513116875385 1496.0 1.0 1496.0 
4.000006202741634 2784.0 NaN 4999.703406813627 0.5010999757933093 1487.0 10.0 1487.0 
6.000006202741633 2784.0 NaN 4995.87708750835 0.5011035660107209 1456.0 41.0 1456.0 
8.000006202741634 2789.0 NaN 4996.868403473614 0.5017033526319635 1431.0 66.0 1431.0 
10.000006202741634 2791.0 NaN 4995.2678690714765 0.5010573406324919 1430.0 67.0 1430.0 
12.000006202741634 2792.0 NaN 4995.2598530394125 0.5018984021468902 1413.0 84.0 1413.0 
14.000006202741634 2788.0 NaN 4994.97661990648 0.5015923942029793 1423.0 74.0 1423.0 
16.000006202741634 2789.0 NaN 4994.96325985304 0.5011572458989069 1425.0 72.0 1425.0 
18.000006202741634 2795.0 NaN 4994.570474281897 0.5019616136851461 1427.0 70.0 1427.0 
20.000006202741634 2803.0 NaN 4995.131596526386 0.5061720528608401 1424.0 73.0 1424.0 
22.000006202741634 2800.0 NaN 4993.915831663327 0.5028257669794451 1425.0 72.0 1425.0 
24.000006202741634 2797.0 NaN 4994.909819639279 0.5026103910837155 1423.0 74.0 1423.0 
26.000006202741634 2800.0 NaN 4993.549766199065 0.5034382483140768 1422.0 75.0 1422.0 
28.000006202741634 2799.0 NaN 4995.006012024048 0.503173655058768 1424.0 73.0 1424.0 
30.000006202741634 2807.0 NaN 4994.16967267869 0.5026821775998283 1423.0 74.0 1423.0 
32.00000620274164 2808.0 NaN 4994.26586506346 0.5094432368677342 1426.0 71.0 1426.0 
34.00000620274164 2808.0 NaN 4994.201736806947 0.5043475691470982 1422.0 75.0 1422.0 
36.00000620274164 2812.0 NaN 4994.249832999332 0.5039867577392637 1427.0 70.0 1427.0 
38.00000620274164 2808.0 NaN 4994.14295257181 0.5043959679246691 1426.0 71.0 1426.0 
40.00000620274164 2820.0 NaN 4994.746826987308 0.5050436856555156 1422.0 75.0 1422.0 
42.00000620274164 2817.0 NaN 4993.755511022044 0.5042991149858947 1422.0 75.0 1422.0 
44.00000620274164 2826.0 NaN 4994.685370741483 0.5064361921820402 1425.0 72.0 1425.0 
46.00000620274164 2824.0 NaN 4993.774215096861 0.5037564727838454 1415.0 82.0 1415.0 
48.00000620274164 2831.0 NaN 4994.848363393454 0.5109170912386164 1420.0 77.0 1420.0 
50.00000620274164 2843.0 NaN 4993.742150968604 0.5064808822223852 1421.0 76.0 1421.0 
52.00000620274164 2830.0 NaN 4994.338009352037 0.5015661769050956 1417.0 80.0 1417.0 
54.00000620274164 2847.0 NaN 4994.073480293921 0.5035445375884732 1417.0 80.0 1417.0 
56.00000620274164 2834.0 NaN 4993.9826319305275 0.5041913746441611 1423.0 74.0 1423.0 
58.00000620274164 2840.0 NaN 4994.15631262525 0.5042259425521414 1420.0 77.0 1420.0 
60.00000620274164 2851.0 NaN 4994.615898463594 0.5031880731605743 1427.0 70.0 1427.0 
62.00010179366992 2841.0 NaN 1521.776887107548 0.5040770336823279 606.0 73.0 292.0 
64.00010179366993 2843.0 NaN 1521.739478957916 0.5013958306112124 515.0 77.0 288.0 
66.00010179366993 2845.0 NaN 1521.6406145624576 0.49846054571940374 465.0 76.0 289.0 
68.00010179366993 2855.0 NaN 1524.676018704073 0.5032231136636379 442.0 70.0 296.0 
70.00010179366993 2869.0 NaN 1524.6118904475634 0.5042943493179199 420.0 75.0 291.0 
72.00010179366993 2856.0 NaN 1524.590514362057 0.5024406814058163 414.0 77.0 289.0 
74.00010179366993 2850.0 NaN 1527.6820307281243 0.5004886506260208 419.0 70.0 297.0 
76.00010179366993 2847.0 NaN 1527.655310621243 0.49923958817882447 411.0 76.0 291.0 
78.00010179366993 2876.0 NaN 1533.8436873747485 0.5051812986447168 405.0 79.0 290.0 
80.00010179366993 2851.0 NaN 1533.8009352037398 0.5074971291293073 408.0 73.0 296.0 
82.00010179366993 2839.0 NaN 1533.7715430861729 0.5005861892354584 407.0 75.0 294.0 
84.00010179366993 2842.0 NaN 1533.7875751503 0.504784464712668 403.0 75.0 294.0 
86.00010179366993 2807.0 NaN 1533.8329993319974 0.5021958828885759 409.0 67.0 302.0 
88.00010179366993 2820.0 NaN 1533.873079492318 0.5016525228828308 406.0 70.0 299.0 
90.00010179366993 2810.0 NaN 1533.8463593854362 0.501755601022173 405.0 71.0 298.0 
92.00010179366993 2801.0 NaN 1533.7795591182362 0.49977498216432775 413.0 63.0 306.0 
94.00010179366993 2813.0 NaN 1533.7768871075482 0.5025699514437278 411.0 64.0 305.0 
96.00010179366993 2793.0 NaN 1533.806279225118 0.4976425212659395 411.0 63.0 306.0 
98.00010179366993 2800.0 NaN 1536.8710754843003 0.5049363609304819 412.0 60.0 310.0 
100.00010179366993 2788.0 NaN 1536.7855711422847 0.4979964090746755 407.0 65.0 305.0 
102.00010179366993 2789.0 NaN 1536.7828991315969 0.5059635465762325 403.0 69.0 301.0 
104.00010179366993 2785.0 NaN 1539.9438877755513 0.5002714471185451 405.0 66.0 305.0 
106.00010179366993 2785.0 NaN 1539.9144956579817 0.4959036114650153 401.0 70.0 301.0 
108.00010179366993 2798.0 NaN 1539.9759519038087 0.5003906792566083 401.0 70.0 301.0 
110.00010179366993 2787.0 NaN 1539.890447561791 0.49592639377183606 409.0 62.0 309.0 
112.00010179366993 2796.0 NaN 1539.885103540415 0.5042728429401092 405.0 66.0 305.0 
114.00010179366993 2798.0 NaN 1539.906479625918 0.5019491142370928 404.0 67.0 304.0 
116.00010179366993 2790.0 NaN 1539.885103540415 0.4960060111476675 410.0 63.0 308.0 
118.00010179366993 2827.0 NaN 1539.9492317969275 0.5058138461802029 406.0 67.0 304.0 
120.00010179366993 2815.0 NaN 1539.9144956579817 0.5042592890298863 407.0 68.0 303.0 
122.00010179366993 2814.0 NaN 1542.952571810288 0.5033315291767915 415.0 61.0 311.0 
124.00010179366993 2812.0 NaN 1543.000668002673 0.5066593956406821 408.0 67.0 305.0 
126.00010179366993 2783.0 NaN 1542.9659318637273 0.49698969648064467 409.0 66.0 306.0 
128.00010179366993 2806.0 NaN 1539.9118236472939 0.5107809732902374 413.0 63.0 308.0 
130.00010179366993 2770.0 NaN 1539.8717434869727 0.5088017219079517 404.0 71.0 300.0 
132.00010179366993 2762.0 NaN 1539.8610554442212 0.49768014534779037 402.0 71.0 300.0 
134.00010179366993 2771.0 NaN 1536.716098864397 0.5031098418183213 404.0 68.0 302.0 
136.00010179366993 2767.0 NaN 1539.8770875083485 0.5003891126975308 396.0 73.0 298.0 
138.00010179366993 2803.0 NaN 1533.6700066800274 0.5056720512417291 395.0 73.0 296.0 
140.00010179366993 2791.0 NaN 1533.672678690715 0.5031139867930275 399.0 69.0 300.0 
142.00010179366993 2797.0 NaN 1536.7508350033395 0.5066805489231219 393.0 75.0 295.0 
144.00010179366993 2824.0 NaN 1536.8577154308634 0.5046700237572659 388.0 78.0 292.0 
146.00010179366993 2818.0 NaN 1533.7528390113548 0.5008432851901059 390.0 75.0 294.0 
148.00010179366993 2830.0 NaN 1533.7929191716757 0.5059072462578444 390.0 76.0 293.0 
150.00010179366993 2831.0 NaN 1533.6887107548432 0.5090249233020211 388.0 79.0 290.0 
152.00010179366993 2835.0 NaN 1527.4255177020725 0.5031737859189305 393.0 75.0 292.0 
154.00010179366993 2845.0 NaN 1527.529726118906 0.5046185734213453 388.0 79.0 288.0 
156.00010179366993 2835.0 NaN 1530.639946559785 0.5014139646070566 383.0 82.0 286.0 
158.00010179366993 2851.0 NaN 1533.7261189044755 0.5085990978405828 388.0 79.0 290.0 
160.00010179366993 2831.0 NaN 1533.7635270541093 0.5092493114919289 376.0 91.0 278.0 
162.00010179366993 2814.0 NaN 1533.6646626586517 0.5007164142901951 378.0 89.0 280.0 
164.00010179366993 2831.0 NaN 1536.801603206412 0.5112158262646052 382.0 85.0 285.0 
166.00010179366993 2799.0 NaN 1536.8657314629272 0.4979280490387358 384.0 83.0 287.0 
168.00010179366993 2815.0 NaN 1533.7528390113546 0.5122830756780993 388.0 78.0 291.0 
170.00010179366993 2800.0 NaN 1533.7207748831 0.5036921252403102 397.0 68.0 301.0 
172.00010179366993 2793.0 NaN 1533.7875751503 0.5016157269845646 387.0 74.0 295.0 
174.00010179366993 2817.0 NaN 1536.8764195056792 0.5100726101706613 381.0 79.0 291.0 
176.00010179366993 2780.0 NaN 1533.7528390113546 0.5024682327900756 389.0 71.0 298.0 
178.00010179366993 2793.0 NaN 1536.9512358049458 0.5121286729423211 384.0 78.0 292.0 
180.00010179366993 2771.0 NaN 1533.9158316633275 0.5075315569890008 385.0 78.0 291.0 
182.00010179366993 2765.0 NaN 1533.7795591182362 0.4996718112166238 391.0 72.0 297.0 
184.00010179366993 2796.0 NaN 1537.0474281897116 0.5082989141596478 385.0 79.0 291.0 
186.00010179366993 2770.0 NaN 1533.9585838343364 0.49726087078975584 381.0 82.0 287.0 
188.00010179366993 2786.0 NaN 1539.9519038076157 0.5117264775498112 383.0 81.0 290.0 
190.00010179366993 2763.0 NaN 1537.0688042752186 0.5031731976125134 380.0 85.0 285.0 
192.00010179366993 2768.0 NaN 1533.873079492318 0.5035907654668641 382.0 84.0 285.0 
194.00010179366993 2774.0 NaN 1536.9699398797611 0.5101571102614847 388.0 77.0 293.0 
196.00010179366993 2743.0 NaN 1536.9699398797611 0.5038420777247925 381.0 83.0 287.0 
198.00010179366993 2768.0 NaN 1540.021376085503 0.5085443530319885 381.0 84.0 287.0 
200.00010179366993 2775.0 NaN 1543.0781563126272 0.503689393387057 385.0 80.0 292.0 
202.00010179366993 2776.0 NaN 1543.04609218437 0.5015221184426023 375.0 90.0 282.0 
204.00010179366993 2780.0 NaN 1543.1315965263846 0.5038141637611177 371.0 94.0 278.0 
206.00010179366993 2749.0 NaN 1542.9659318637273 0.5028480169446576 374.0 91.0 281.0 
208.00010179366993 2751.0 NaN 1539.930527722109 0.5085592304721439 370.0 95.0 276.0 
210.00010179366993 2757.0 NaN 1536.8496993987978 0.5070263542023534 368.0 95.0 275.0 
212.00010179366993 2742.0 NaN 1536.7428189712753 0.49884618746505444 373.0 89.0 281.0 
214.00010179366993 2747.0 NaN 1539.9225116900457 0.5040498994410862 373.0 91.0 280.0 
216.00010179366993 2732.0 NaN 1536.8897795591183 0.4956206778707898 376.0 88.0 282.0 
218.00010179366993 2743.0 NaN 1533.6993987975939 0.511832581479978 386.0 78.0 291.0 
220.00010179366993 2746.0 NaN 1536.9913159652635 0.5021278299925536 386.0 77.0 293.0 
222.00010179366993 2764.0 NaN 1539.9144956579817 0.5012387835448726 383.0 79.0 292.0 
224.00010179366993 2774.0 NaN 1540.0053440213755 0.5078529101124416 389.0 74.0 297.0 
226.00010179366993 2751.0 NaN 1536.8871075484299 0.5046422986906862 379.0 82.0 288.0 
228.00010179366993 2748.0 NaN 1542.9819639278544 0.5039702533317258 375.0 88.0 284.0 
230.00010179366993 2752.0 NaN 1543.0567802271207 0.5006926916258312 380.0 83.0 289.0 
232.00010179366993 2758.0 NaN 1546.0227120908478 0.5049852272458517 379.0 82.0 291.0 
234.00010179366993 2741.0 NaN 1546.1509686038728 0.5055045459263249 380.0 82.0 291.0 
236.00010179366993 2718.0 NaN 1543.1128924515704 0.5076589273310115 388.0 73.0 299.0 
238.00010179366993 2712.0 NaN 1539.9545758183026 0.5084466323301614 382.0 79.0 292.0 
240.00010179366993 2714.0 NaN 1539.9572478289908 0.5070927883225507 380.0 81.0 290.0 
242.00010179366993 2717.0 NaN 1539.8476953907818 0.5086048011447564 375.0 83.0 288.0 
244.00010179366993 2711.0 NaN 1539.8770875083483 0.5144479398872644 373.0 87.0 284.0 
246.00010179366993 2701.0 NaN 1539.8824315297275 0.5002551944842649 364.0 93.0 278.0 
248.00010179366993 2699.0 NaN 1536.633266533066 0.5060660896197816 370.0 88.0 282.0 
250.00010179366993 2700.0 NaN 1536.7134268537088 0.505586572070283 368.0 90.0 280.0 
252.00010179366993 2707.0 NaN 1536.718770875082 0.5099497320620341 372.0 83.0 287.0 
254.00010179366993 2703.0 NaN 1533.7421509686028 0.5044155488101626 378.0 78.0 291.0 
256.00010179366996 2697.0 NaN 1530.7281229124908 0.5036640927620367 378.0 79.0 289.0 
258.00010179366996 2699.0 NaN 1530.6025384101545 0.5053269504440773 377.0 81.0 287.0 
260.00010179366996 2711.0 NaN 1530.5758183032726 0.5142658409219152 383.0 75.0 293.0 
262.00010179366996 2718.0 NaN 1527.5404141616548 0.5152555968642787 379.0 79.0 288.0 
264.00010179366996 2704.0 NaN 1536.828323313293 0.513862758491025 383.0 76.0 294.0 
266.00010179366996 2690.0 NaN 1536.873747494991 0.501357667481925 392.0 67.0 303.0 
268.00010179366996 2698.0 NaN 1536.750835003339 0.5036646024729486 391.0 68.0 302.0 
270.00010179366996 2693.0 NaN 1533.7207748831001 0.5132685103090157 390.0 68.0 301.0 
272.00010179366996 2675.0 NaN 1533.6325985303934 0.5052539097692185 396.0 63.0 306.0 
274.00010179366996 2663.0 NaN 1533.7020708082819 0.5116246005375013 393.0 66.0 303.0 
276.00010179366996 2651.0 NaN 1539.9118236472932 0.5134756861694012 391.0 68.0 303.0 
278.00010179366996 2644.0 NaN 1539.7515030060113 0.504092384394022 400.0 64.0 307.0 
280.00010179366996 2654.0 NaN 1539.8931195724795 0.5046806956302393 398.0 68.0 303.0 
282.00010179366996 2660.0 NaN 1536.7160988643975 0.5173704945735644 393.0 71.0 299.0 
284.00010179366996 2638.0 NaN 1533.7661990647975 0.5064405602328353 396.0 66.0 303.0 
286.00010179366996 2629.0 NaN 1533.7234468937884 0.504979041125816 392.0 69.0 300.0 
288.00010179366996 2628.0 NaN 1533.7555110220455 0.510078326550195 388.0 71.0 298.0 
290.00010179366996 2620.0 NaN 1533.7047428189726 0.507103922286432 393.0 65.0 304.0 
292.00010179366996 2616.0 NaN 1533.6566466265879 0.5067877830615526 389.0 69.0 300.0 
294.00010179366996 2608.0 NaN 1530.631930527721 0.5023687211458591 386.0 71.0 297.0 
296.00010179366996 2603.0 NaN 1530.594522378091 0.49853958706263857 392.0 65.0 303.0 
298.00010179366996 2607.0 NaN 1536.6893787575157 0.5051726899065689 388.0 69.0 301.0 
300.00010179366996 2611.0 NaN 1536.6786907147637 0.5003368106559054 390.0 67.0 303.0 
302.00010179366996 2626.0 NaN 1530.5223780895117 0.5039730154522137 398.0 59.0 309.0 
304.00010179366996 2627.0 NaN 1533.6539746158999 0.5087789344566329 392.0 63.0 306.0 
306.00010179366996 2627.0 NaN 1536.884435537743 0.49721345432143105 393.0 64.0 306.0 
308.00010179366996 2630.0 NaN 1536.7695390781548 0.5072175919668064 400.0 58.0 312.0 
310.00010179366996 2626.0 NaN 1536.753507014027 0.5016286594352007 394.0 62.0 308.0 
312.00010179366996 2627.0 NaN 1536.7054108216453 0.509425680115174 391.0 65.0 305.0 
314.00010179366996 2620.0 NaN 1530.5571142284566 0.5079981952534579 396.0 60.0 308.0 
316.00010179366996 2618.0 NaN 1530.6586506346025 0.5019785727512274 396.0 62.0 306.0 
318.00010179366996 2627.0 NaN 1530.5571142284568 0.5106272988582887 394.0 64.0 304.0 
320.00010179366996 2604.0 NaN 1530.6826987307938 0.5023648494494296 400.0 57.0 311.0 
322.00010179366996 2608.0 NaN 1533.6299265197065 0.5053506404911616 396.0 61.0 308.0 
324.00010179366996 2608.0 NaN 1530.6880427521726 0.5117765853839298 393.0 64.0 304.0 
326.00010179366996 2595.0 NaN 1533.7261189044752 0.501425796779254 399.0 57.0 312.0 
328.00010179366996 2603.0 NaN 1530.6132264529065 0.5064738591035024 393.0 61.0 307.0 
330.00010179366996 2607.0 NaN 1530.752171008682 0.5001403553304945 391.0 63.0 305.0 
332.00010179366996 2608.0 NaN 1530.4849699398817 0.5090701750058175 398.0 57.0 311.0 
334.00010179366996 2606.0 NaN 1533.736806947227 0.5108897203282515 392.0 61.0 308.0 
336.00010179366996 2612.0 NaN 1530.5918503674002 0.5052782913523145 392.0 62.0 306.0 
338.00010179366996 2617.0 NaN 1530.6639946559792 0.5007813902806474 398.0 56.0 312.0 
340.00010179366996 2626.0 NaN 1524.582498329993 0.5045471535374348 394.0 61.0 305.0 
342.00010179366996 2627.0 NaN 1524.3286573146274 0.5042831548654443 391.0 64.0 302.0 
344.00010179366996 2625.0 NaN 1527.5671342685362 0.5008789985993851 395.0 61.0 306.0 
346.00010179366996 2623.0 NaN 1524.5317301269183 0.5084324559776272 393.0 62.0 304.0 
348.00010179366996 2620.0 NaN 1518.3941215764878 0.5024209479795338 390.0 64.0 300.0 
350.00010179366996 2649.0 NaN 1524.5851703406818 0.5116664466652759 399.0 58.0 308.0 
352.00010179366996 2626.0 NaN 1521.485637942552 0.5069743773075533 396.0 62.0 303.0 
354.00010179366996 2621.0 NaN 1518.3807615230453 0.5010004921831273 393.0 65.0 299.0 
356.00010179366996 2618.0 NaN 1518.3486973947904 0.506406993855826 396.0 62.0 302.0 
358.00010179366996 2617.0 NaN 1518.431529726118 0.5138245484657911 391.0 66.0 298.0 
360.00010179366996 2629.0 NaN 1515.2651970607885 0.5165744829055054 387.0 69.0 294.0 
362.00010179366996 2621.0 NaN 1512.1202404809628 0.5075527673164058 392.0 63.0 299.0 
364.00010179366996 2615.0 NaN 1505.9559118236464 0.5039281836501761 390.0 66.0 294.0 
366.00010179366996 2627.0 NaN 1505.9959919839669 0.507658457247301 388.0 68.0 292.0 
368.00010179366996 2628.0 NaN 1499.8343353373423 0.5090962947921595 394.0 62.0 296.0 
370.00010179366996 2640.0 NaN 1509.0901803607205 0.5166853989553749 391.0 66.0 295.0 
372.00010179366996 2615.0 NaN 1505.969271877088 0.5237974982298846 389.0 69.0 291.0 
374.00010179366996 2595.0 NaN 1505.9665998664002 0.5026717919606455 395.0 63.0 297.0 
376.00010179366996 2602.0 NaN 1502.891115564463 0.5056883297460087 392.0 66.0 293.0 
378.00010179366996 2614.0 NaN 1499.7862391449555 0.5040726748994226 391.0 68.0 290.0 
380.00010179366996 2628.0 NaN 1499.7488309953249 0.5092161731482028 399.0 59.0 299.0 
382.00010179366996 2628.0 NaN 1496.7588510354033 0.5139045043681251 395.0 64.0 293.0 
384.00010179366996 2644.0 NaN 1499.8183032732122 0.5165545323922579 395.0 66.0 292.0 
386.00010179366996 2609.0 NaN 1496.8069472277898 0.5046803154712979 398.0 60.0 297.0 
388.00010179366996 2626.0 NaN 1496.7241148964606 0.5161525338511933 397.0 63.0 294.0 
390.00010179366996 2634.0 NaN 1503.0006680026727 0.5128751150370074 395.0 64.0 295.0 
392.00010179366996 2640.0 NaN 1502.8189712758842 0.53846640655179 404.0 58.0 301.0 
394.00010179366996 2633.0 NaN 1509.1917167668666 0.5184713980441819 400.0 62.0 299.0 
396.00010179366996 2615.0 NaN 1509.140948563794 0.5040653591963222 397.0 67.0 294.0 
398.00010179366996 2625.0 NaN 1509.1676686706735 0.5068793241830778 409.0 58.0 303.0 
400.00010179366996 2630.0 NaN 1503.0006680026727 0.5077653668438292 407.0 61.0 298.0 
402.00010179366996 2645.0 NaN 1505.9665998664002 0.5237410985848366 405.0 62.0 298.0 
404.00010179366996 2644.0 NaN 1509.1356045424182 0.517098789241503 414.0 53.0 308.0 
406.00010179366996 2636.0 NaN 1515.3239812959266 0.5028787429239352 411.0 58.0 305.0 
408.00010179366996 2651.0 NaN 1521.453573814294 0.5084593757636783 413.0 59.0 306.0 
410.00010179366996 2663.0 NaN 1524.5878423513702 0.5095902707648826 423.0 50.0 316.0 
412.00010179366996 2657.0 NaN 1521.3493653974629 0.5112929105981997 425.0 49.0 316.0 
414.00010179366996 2648.0 NaN 1518.3861055444213 0.5207239530911242 423.0 51.0 313.0 
416.00010179366996 2612.0 NaN 1518.3460253841006 0.50003739925254 423.0 51.0 313.0 
418.00010179366996 2629.0 NaN 1512.157648630594 0.5073784888155964 414.0 59.0 303.0 
420.00010179366996 2638.0 NaN 1506.0440881763536 0.5086918167047365 411.0 58.0 302.0 
422.00010179366996 2642.0 NaN 1496.6519706078818 0.5037556465903635 415.0 52.0 305.0 
424.00010179366996 2657.0 NaN 1502.9231796927181 0.5160074246770289 413.0 55.0 304.0 
426.00010179366996 2626.0 NaN 1506.0868403473623 0.5035948483344311 412.0 57.0 303.0 
428.00010179366996 2621.0 NaN 1506.0120240480965 0.5018811435848347 419.0 51.0 309.0 
430.00010179366996 2620.0 NaN 1503.0380761523052 0.5128999653959644 415.0 55.0 304.0 
432.00010179366996 2614.0 NaN 1518.1776887107544 0.5162703158081908 416.0 58.0 306.0 
434.00010179366996 2605.0 NaN 1518.2738810955252 0.5035562071983265 423.0 54.0 310.0 
436.00010179366996 2620.0 NaN 1518.1963927855718 0.5069906256438971 419.0 59.0 305.0 
438.00010179366996 2628.0 NaN 1518.1482965931848 0.5102597831086619 416.0 61.0 303.0 
440.00010179366996 2620.0 NaN 1524.3607214428848 0.5221589046905984 419.0 58.0 308.0 
442.00010179366996 2616.0 NaN 1536.6412825651296 0.5060350696886777 414.0 62.0 308.0 
444.00010179366996 2620.0 NaN 1536.7348029392115 0.5068172474671625 410.0 68.0 302.0 
446.00010179366996 2621.0 NaN 1539.7969271877091 0.5074321247210951 417.0 63.0 308.0 
448.00010179366996 2620.0 NaN 1539.6659986639938 0.5053358332599678 418.0 62.0 309.0 
450.00010179366996 2610.0 NaN 1542.8857715430852 0.5093916247203801 417.0 64.0 308.0 
452.00010179366996 2604.0 NaN 1545.8062792251178 0.520302513622007 422.0 58.0 315.0 
454.00010179366996 2598.0 NaN 1542.8376753507005 0.5052703977947695 419.0 61.0 311.0 
456.00010179366996 2601.0 NaN 1545.9131596526365 0.5057305823941683 415.0 65.0 308.0 
458.00010179366996 2598.0 NaN 1545.8837675350703 0.5103199749363473 420.0 58.0 315.0 
460.00010179366996 2581.0 NaN 1545.969271877088 0.5116468460456794 416.0 62.0 311.0 
462.00010179366996 2571.0 NaN 1545.8116232464913 0.5039632652048205 414.0 64.0 309.0 
464.00010179366996 2570.0 NaN 1542.8323313293267 0.5008666633418173 421.0 56.0 316.0 
466.00010179366996 2572.0 NaN 1542.8296593186365 0.5060121632210361 415.0 61.0 311.0 
468.00010179366996 2577.0 NaN 1539.7274549098186 0.5096183170322516 414.0 61.0 310.0 
470.00010179366996 2558.0 NaN 1542.907147628591 0.51107474401484 420.0 55.0 317.0 
472.00010179366996 2573.0 NaN 1536.566466265864 0.5141177502972577 413.0 61.0 309.0 
474.00010179366996 2564.0 NaN 1527.4228456913818 0.5026955598894045 409.0 62.0 305.0 
476.00010179366996 2563.0 NaN 1527.369405477621 0.5008997405440175 416.0 55.0 312.0 
478.00010179366996 2570.0 NaN 1527.305277221109 0.5155798052799412 413.0 58.0 309.0 
480.00010179366996 2569.0 NaN 1527.4549098196387 0.5103582368977574 411.0 61.0 306.0 
482.00010179366996 2572.0 NaN 1521.269205076819 0.517337066827287 413.0 59.0 306.0 
484.00010179366996 2573.0 NaN 1508.9405477621908 0.5070468975665767 404.0 66.0 295.0 
486.00010179366996 2569.0 NaN 1499.8316633266538 0.502960653048206 403.0 66.0 292.0 
488.00010179366996 2570.0 NaN 1496.6412825651294 0.5135131452333866 407.0 58.0 299.0 
490.00010179366996 2577.0 NaN 1496.7962591850364 0.5160268154486529 403.0 61.0 296.0 
492.00010179366996 2570.0 NaN 1493.6673346693376 0.5263326142327059 398.0 65.0 291.0 
494.00010179366996 2549.0 NaN 1490.6479625918514 0.505329642592116 400.0 60.0 295.0 
496.00010179366996 2551.0 NaN 1484.467601870408 0.5025341618810465 391.0 66.0 287.0 
498.00010179366996 2552.0 NaN 1484.4569138276547 0.5129038920318991 387.0 68.0 285.0 
500.00010179366996 2566.0 NaN 1484.4382097528385 0.5087827958427962 388.0 63.0 290.0 
502.00010179366996 2571.0 NaN 1490.6666666666658 0.512473210272756 384.0 67.0 288.0 
504.00010179366996 2567.0 NaN 1493.6459585838352 0.5133011851412398 386.0 66.0 290.0 
506.00010179366996 2564.0 NaN 1496.7454909819635 0.5060299745631366 396.0 60.0 297.0 
508.00010179366996 2579.0 NaN 1499.7728790915173 0.5117963465248461 396.0 64.0 294.0 
510.00010179366996 2599.0 NaN 1499.8423513694063 0.510987361242957 390.0 68.0 290.0 
512.00010179367 2601.0 NaN 1493.7635270541089 0.5116979764896777 392.0 64.0 292.0 
514.00010179367 2588.0 NaN 1487.5698062792262 0.5174938900353724 390.0 66.0 288.0 
516.00010179367 2565.0 NaN 1481.4482297929185 0.5059089971001727 387.0 65.0 287.0 
518.00010179367 2581.0 NaN 1481.3734134936547 0.5160272949026504 393.0 59.0 293.0 
520.00010179367 2579.0 NaN 1469.143620574482 0.5065115257354533 388.0 62.0 286.0 
522.00010179367 2574.0 NaN 1466.0280561122252 0.510011076010527 384.0 64.0 283.0 
524.00010179367 2566.0 NaN 1466.140280561121 0.5156741337874757 378.0 67.0 280.0 
526.00010179367 2562.0 NaN 1469.2611890447556 0.5088039506783728 383.0 63.0 285.0 
528.00010179367 2578.0 NaN 1469.1970607882445 0.5034540635076762 387.0 63.0 285.0 
530.00010179367 2586.0 NaN 1466.2418169672667 0.5079453637509624 388.0 62.0 285.0 
532.00010179367 2583.0 NaN 1459.9438877755517 0.5153985459427413 387.0 63.0 282.0 
534.00010179367 2573.0 NaN 1453.9665998664 0.5112006202637681 389.0 62.0 281.0 
536.00010179367 2565.0 NaN 1459.9331997327997 0.501343427411837 390.0 59.0 286.0 
538.00010179367 2583.0 NaN 1463.1048764195061 0.5068232658624164 392.0 60.0 286.0 
540.00010179367 2588.0 NaN 1466.1189044756181 0.5080578011685861 393.0 58.0 289.0 
542.00010179367 2579.0 NaN 1469.3092852371421 0.5213355060373184 395.0 58.0 290.0 
544.00010179367 2562.0 NaN 1475.3346693386782 0.5083916713447418 392.0 62.0 288.0 
546.00010179367 2555.0 NaN 1475.4549098196387 0.5013914894852068 394.0 61.0 289.0 
548.00010179367 2560.0 NaN 1475.3106212424846 0.5180852358484005 393.0 63.0 287.0 
550.00010179367 2560.0 NaN 1472.3313293253177 0.5025429579169359 397.0 58.0 291.0 
552.00010179367 2558.0 NaN 1469.0447561790252 0.5045120885826015 390.0 64.0 284.0 
554.00010179367 2562.0 NaN 1472.184368737474 0.5038764841617384 386.0 69.0 280.0 
556.00010179367 2564.0 NaN 1469.140948563794 0.5022325190338756 391.0 62.0 286.0 
558.00010179367 2567.0 NaN 1465.9425517702077 0.5157106801158153 391.0 65.0 282.0 
560.00010179367 2552.0 NaN 1466.0547762191056 0.4993821664878769 391.0 61.0 286.0 
562.00010179367 2578.0 NaN 1469.0126920507676 0.5185244582936283 392.0 62.0 286.0 
564.00010179367 2578.0 NaN 1472.2030728122909 0.5257264958057178 395.0 62.0 287.0 
566.00010179367 2540.0 NaN 1469.175684702739 0.5074884968066267 394.0 61.0 287.0 
568.00010179367 2543.0 NaN 1472.2271209084831 0.5029919238478251 392.0 64.0 285.0 
570.00010179367 2553.0 NaN 1478.4983299933192 0.5124772312929248 392.0 67.0 284.0 
572.00010179367 2546.0 NaN 1487.6953907815637 0.5243647262415508 396.0 64.0 290.0 
574.00010179367 2553.0 NaN 1490.6853707414823 0.5126602866365457 404.0 60.0 295.0 
576.00010179367 2531.0 NaN 1487.6125584502342 0.5113592006568807 401.0 61.0 293.0 
578.00010179367 2535.0 NaN 1484.448897795591 0.508788980395888 401.0 60.0 293.0 
580.00010179367 2547.0 NaN 1484.6492985971938 0.5192848099855296 406.0 55.0 298.0 
582.00010179367 2555.0 NaN 1487.5965263861062 0.5090445291040926 408.0 55.0 299.0 
584.00010179367 2564.0 NaN 1490.6933867735468 0.5115186679622427 414.0 53.0 302.0 
586.00010179367 2554.0 NaN 1487.5297261189057 0.5037226597174774 415.0 55.0 299.0 
588.00010179367 2579.0 NaN 1487.5136940547757 0.5139678651205724 414.0 55.0 299.0 
590.00010179367 2580.0 NaN 1490.6933867735468 0.5196261776135834 414.0 53.0 302.0 
592.00010179367 2589.0 NaN 1490.5464261857055 0.5176779028868197 416.0 54.0 301.0 
594.00010179367 2587.0 NaN 1493.7608550434195 0.5197258506353702 416.0 55.0 301.0 
596.00010179367 2557.0 NaN 1493.653974615899 0.5102986130796702 409.0 60.0 296.0 
598.00010179367 2574.0 NaN 1496.6332665330656 0.5066982017860607 411.0 61.0 296.0 
600.00010179367 2588.0 NaN 1502.9098196392797 0.5225777027336588 417.0 55.0 304.0 
602.00010179367 2591.0 NaN 1496.5958583834342 0.5175142980024476 410.0 61.0 296.0 
604.00010179367 2583.0 NaN 1509.004676018703 0.5185759997954906 404.0 68.0 293.0 
606.00010179367 2584.0 NaN 1509.1035404141624 0.5009393154688863 400.0 68.0 293.0 
608.00010179367 2598.0 NaN 1509.002004008017 0.5092688663930207 413.0 56.0 305.0 
610.00010179367 2591.0 NaN 1509.1249164996652 0.5204242640858698 407.0 62.0 299.0 
612.00010179367 2575.0 NaN 1512.109552438209 0.5057670196959484 400.0 68.0 294.0 
614.00010179367 2582.0 NaN 1512.0748162992645 0.5099092345020202 404.0 67.0 295.0 
616.00010179367 2581.0 NaN 1509.0394121576476 0.5055945661185519 401.0 65.0 296.0 
618.00010179367 2597.0 NaN 1512.0480961923838 0.5039518770024743 401.0 64.0 298.0 
620.00010179367 2603.0 NaN 1524.4916499666 0.5155319826098794 399.0 66.0 300.0 
622.00010179367 2601.0 NaN 1524.4008016032071 0.5078687353212478 402.0 64.0 302.0 
624.00010179367 2622.0 NaN 1524.5450901803617 0.5185801200788286 404.0 64.0 302.0 
626.00010179367 2621.0 NaN 1521.360053440215 0.505854539384449 404.0 62.0 303.0 
628.00010179367 2649.0 NaN 1521.234468937875 0.5132252550058334 402.0 63.0 302.0 
630.00010179367 2633.0 NaN 1524.4248496993998 0.5114897330234024 403.0 62.0 304.0 
632.00010179367 2625.0 NaN 1524.3981295925182 0.5093791217543758 404.0 63.0 303.0 
634.00010179367 2665.0 NaN 1524.4488977955907 0.5094500470446534 407.0 66.0 300.0 
636.00010179367 2653.0 NaN 1524.3901135604547 0.5079914341830704 403.0 69.0 297.0 
638.00010179367 2659.0 NaN 1524.3714094856375 0.5185600863762292 404.0 68.0 298.0 
640.00010179367 2649.0 NaN 1521.2852371409476 0.5093508209254372 405.0 67.0 298.0 
642.00010179367 2649.0 NaN 1518.1937207748826 0.5088248037914183 393.0 75.0 289.0 
644.00010179367 2643.0 NaN 1518.191048764194 0.5174478506186058 390.0 75.0 289.0 
646.00010179367 2619.0 NaN 1518.1857047428182 0.5154947787817303 395.0 66.0 298.0 
648.00010179367 2623.0 NaN 1518.19906479626 0.5155832769622692 394.0 67.0 297.0 
650.00010179367 2622.0 NaN 1515.2010688042744 0.5116195293224651 396.0 66.0 297.0 
652.00010179367 2631.0 NaN 1527.4228456913818 0.5233647493068825 398.0 66.0 301.0 
654.00010179367 2632.0 NaN 1527.7354709418828 0.5237936296579861 396.0 66.0 301.0 
656.00010179367 2609.0 NaN 1527.5671342685364 0.5240033438363288 394.0 66.0 301.0 
658.00010179367 2615.0 NaN 1527.6713426853717 0.5213197814778088 396.0 64.0 303.0 
660.00010179367 2606.0 NaN 1530.6693386773545 0.5144230183478693 396.0 66.0 302.0 
662.00010179367 2618.0 NaN 1536.7909151636616 0.5158899388038091 401.0 62.0 308.0 
664.00010179367 2599.0 NaN 1536.7374749499 0.5209305344972402 402.0 62.0 308.0 
#####################################################################
# End of data export. Simulation finished at: 2019-03-07T18:21+0000 #
#####################################################################
