#####################################################################
# Alchemist log file - simulation started at: 2019-03-02T04:04+0000 #
#####################################################################
# seed = 0.0, bandwidth = 74989.42093324558, propagationDelay = 1.0, baserange = 562.341325190349
#
# The columns have the following meaning: 
# time neighbor_count[Sum] <value>@neighbor_count[Sum] packet_size[Mean] mean_delay[Mean] crowd[Sum] overcrowded[Sum] risk[Sum] 
0.0 NaN NaN NaN NaN NaN NaN NaN 
10.000405536260626 98210.0 NaN 4993.878423513694 1.0633151058135843 1496.0 1.0 1496.0 
20.000405536260626 98253.0 NaN 4994.297929191716 1.063991178295135 1496.0 1.0 1496.0 
30.000405536260626 98348.0 NaN 4993.87040748163 1.0659970628777546 1496.0 1.0 1496.0 
40.00040553626063 98439.0 NaN 4994.327321309285 1.06526729605034 1496.0 1.0 1496.0 
50.00040553626063 98493.0 NaN 4993.905143620575 1.0677993639186834 1496.0 1.0 1496.0 
60.00040553626063 98592.0 NaN 4991.2839011356045 1.0659404718955174 1495.0 1.0 1495.0 
70.00040553626063 98669.0 NaN 1528.1175684702725 1.0228546180750917 547.0 3.0 364.0 
80.00040553626063 98717.0 NaN 1537.3760855043424 1.0220475764143426 527.0 4.0 366.0 
90.00040553626063 98749.0 NaN 1537.3734134936547 1.0215882242690124 526.0 3.0 367.0 
100.00040553626063 98745.0 NaN 1540.4328657314638 1.02123372242291 523.0 3.0 368.0 
110.00040553626063 98706.0 NaN 1540.4328657314638 1.021144200303848 524.0 3.0 368.0 
120.00040553626063 98808.0 NaN 1540.4301937207729 1.0220416250748976 526.0 3.0 368.0 
130.00040553626064 98818.0 NaN 1537.317301269206 1.0224579919393604 525.0 3.0 367.0 
140.00040553626064 98802.0 NaN 1531.2171008684031 1.0223468758604932 524.0 3.0 365.0 
150.00040553626064 98788.0 NaN 1534.2818971275885 1.021840374065063 520.0 3.0 366.0 
160.00040553626064 98810.0 NaN 1531.265197060788 1.0228757817194662 518.0 4.0 364.0 
170.00040553626064 98788.0 NaN 1537.3547094188366 1.0224674500798263 519.0 3.0 367.0 
180.00040553626064 98734.0 NaN 1531.246492985973 1.0225244945981764 521.0 3.0 365.0 
190.00040553626064 98680.0 NaN 1531.2678690714754 1.0247318148766897 516.0 3.0 365.0 
200.00040553626064 98585.0 NaN 1537.4268537074151 1.0241481632240819 517.0 3.0 367.0 
210.00040553626064 98522.0 NaN 1531.3213092852363 1.024829825835005 512.0 3.0 365.0 
220.00040553626064 98492.0 NaN 1528.2244488977972 1.0251436896681874 512.0 3.0 364.0 
230.00040553626064 98455.0 NaN 1531.2625250501 1.0247814569492377 510.0 3.0 365.0 
240.00040553626064 98371.0 NaN 1528.1816967267878 1.025143297933901 509.0 3.0 364.0 
250.00040553626064 98255.0 NaN 1525.0981963927848 1.0247343424349016 511.0 3.0 363.0 
260.00040553626064 98081.0 NaN 1525.1088844355365 1.0251103666385888 511.0 3.0 363.0 
270.00040553626064 97909.0 NaN 1531.2758851035392 1.0262088475129894 510.0 3.0 365.0 
280.00040553626064 97797.0 NaN 1537.322645290582 1.0264128917241757 512.0 3.0 367.0 
290.00040553626064 97623.0 NaN 1531.2037408149638 1.0264337688391103 508.0 3.0 365.0 
300.00040553626064 97439.0 NaN 1531.2064128256523 1.0262061639480506 506.0 3.0 365.0 
310.00040553626064 97273.0 NaN 1528.141616566466 1.0275792865162652 502.0 4.0 363.0 
320.00040553626064 97038.0 NaN 1534.2498329993332 1.029045640879912 505.0 4.0 365.0 
330.00040553626064 96817.0 NaN 1534.2311289245158 1.0264311883768167 504.0 4.0 365.0 
340.00040553626064 96619.0 NaN 1531.174348697394 1.031004511166016 507.0 4.0 364.0 
350.00040553626064 96393.0 NaN 1531.1636606546429 1.0269131553599682 512.0 4.0 364.0 
360.00040553626064 96247.0 NaN 1525.0073480293913 1.0278762709406826 510.0 4.0 362.0 
370.00040553626064 96095.0 NaN 1506.5891783567124 1.031113142095233 513.0 4.0 356.0 
380.00040553626064 95909.0 NaN 1509.6325985303934 1.0266002630807678 514.0 4.0 357.0 
390.00040553626064 95808.0 NaN 1509.6753507014023 1.026246108902951 513.0 4.0 357.0 
400.00040553626064 95680.0 NaN 1506.6132264529067 1.0260303927787116 515.0 4.0 356.0 
410.00040553626064 95543.0 NaN 1518.9151636606543 1.0304039981726425 520.0 4.0 360.0 
420.00040553626064 95401.0 NaN 1512.7561790247173 1.02835117279781 512.0 4.0 358.0 
430.00040553626064 95317.0 NaN 1500.4088176352714 1.0260554469434653 510.0 3.0 355.0 
440.00040553626064 95220.0 NaN 1512.7508350033393 1.0260463341202426 516.0 3.0 359.0 
450.00040553626064 95134.0 NaN 1534.2471609886452 1.0268417108046424 524.0 3.0 366.0 
460.00040553626064 95104.0 NaN 1540.4248496994 1.0261032427676817 523.0 3.0 368.0 
470.00040553626064 95103.0 NaN 1531.1930527722097 1.0264978862323417 517.0 3.0 365.0 
480.00040553626064 95104.0 NaN 1521.9211756847023 1.024376145110619 513.0 3.0 362.0 
490.00040553626064 95164.0 NaN 1497.3493653974624 1.0263116086688786 509.0 3.0 354.0 
500.00040553626064 95156.0 NaN 1491.1957247828998 1.0246679559173404 504.0 3.0 352.0 
510.00040553626064 95110.0 NaN 1494.30861723447 1.0258913686214037 507.0 4.0 352.0 
520.0004055362606 95129.0 NaN 1475.882431529727 1.027828013672261 506.0 4.0 346.0 
530.0004055362606 95209.0 NaN 1451.286573146292 1.0250303191677155 501.0 4.0 338.0 
540.0004055362606 95341.0 NaN 1466.6773547094183 1.027910441396465 500.0 4.0 343.0 
550.0004055362606 95411.0 NaN 1466.6265865063456 1.025693378891572 505.0 4.0 343.0 
560.0004055362606 95617.0 NaN 1466.6265865063456 1.0252363793931887 505.0 5.0 342.0 
570.0004055362606 95597.0 NaN 1472.8229792919176 1.0264735837541428 504.0 3.0 346.0 
580.0004055362606 95464.0 NaN 1472.828323313293 1.0269545867699028 509.0 4.0 345.0 
590.0004055362606 95417.0 NaN 1469.6967267869077 1.0246088674570055 512.0 4.0 344.0 
600.0004055362606 95445.0 NaN 1488.1202404809624 1.0254677745947827 521.0 4.0 350.0 
610.0004055362606 95503.0 NaN 1497.346693386773 1.0266714957783656 523.0 4.0 353.0 
620.0004055362606 95545.0 NaN 1497.3734134936547 1.0260050937500587 521.0 4.0 353.0 
630.0004055362606 95531.0 NaN 1509.7074148296606 1.0273834795973058 517.0 4.0 357.0 
640.0004055362606 95422.0 NaN 1506.6666666666656 1.0305223772236325 524.0 5.0 355.0 
650.0004055362606 95275.0 NaN 1522.0120240480971 1.0265821379602995 515.0 4.0 361.0 
660.0004055362606 95345.0 NaN 1525.1062124248485 1.028880196676732 514.0 4.0 362.0 
#####################################################################
# End of data export. Simulation finished at: 2019-03-02T04:34+0000 #
#####################################################################
