#####################################################################
# Alchemist log file - simulation started at: 2019-03-01T23:46+0000 #
#####################################################################
# seed = 0.0, bandwidth = 17782.79410038923, propagationDelay = 0.01, baserange = 56.234132519034915
#
# The columns have the following meaning: 
# time neighbor_count[Sum] <value>@neighbor_count[Sum] packet_size[Mean] mean_delay[Mean] crowd[Sum] overcrowded[Sum] risk[Sum] 
0.0 NaN NaN NaN NaN NaN NaN NaN 
10.000405536260626 6170.0 NaN 4995.7541750167 0.5008537749055345 1459.0 38.0 1459.0 
20.000405536260626 6188.0 NaN 4994.642618570474 0.5093520259825127 1457.0 40.0 1457.0 
30.000405536260626 6231.0 NaN 4994.0227120908485 0.5338517588197675 1451.0 46.0 1451.0 
40.00040553626063 6279.0 NaN 4994.268537074148 0.5873546148283946 1458.0 39.0 1458.0 
50.00040553626063 6359.0 NaN 4993.883767535071 0.6022582620133546 1455.0 42.0 1455.0 
60.00040553626063 6446.0 NaN 4991.030060120241 0.6212179192990541 1455.0 41.0 1455.0 
70.00040553626063 6507.0 NaN 1527.8744154976632 0.7095982294647284 496.0 42.0 325.0 
80.00040553626063 6506.0 NaN 1537.1756847027386 0.7440199147767016 485.0 41.0 329.0 
90.00040553626063 6446.0 NaN 1537.0527722110908 0.7044683530579348 489.0 39.0 331.0 
100.00040553626063 6418.0 NaN 1540.1122244488997 0.634323742692386 488.0 38.0 333.0 
110.00040553626063 6422.0 NaN 1540.1309285237153 0.6398644061899876 485.0 43.0 328.0 
120.00040553626063 6471.0 NaN 1543.1583166332664 0.7279833845958515 490.0 39.0 333.0 
130.00040553626064 6499.0 NaN 1540.0988643954572 0.7918929256093445 495.0 35.0 336.0 
140.00040553626064 6497.0 NaN 1530.9338677354726 0.7294065382813554 490.0 36.0 332.0 
150.00040553626064 6512.0 NaN 1530.8697394789579 0.8205277115153772 478.0 48.0 320.0 
160.00040553626064 6478.0 NaN 1530.9472277889092 0.8401145005944936 481.0 43.0 325.0 
170.00040553626064 6474.0 NaN 1540.2004008016024 0.8173153184873956 480.0 40.0 331.0 
180.00040553626064 6455.0 NaN 1540.339345357382 0.7754740480004246 475.0 48.0 323.0 
190.00040553626064 6417.0 NaN 1540.1603206412817 0.8397822016304932 469.0 51.0 320.0 
200.00040553626064 6388.0 NaN 1540.181696726788 0.8288330248239277 479.0 44.0 327.0 
210.00040553626064 6374.0 NaN 1530.9739478957908 0.8655925847894359 476.0 43.0 325.0 
220.00040553626064 6350.0 NaN 1530.9098196392792 0.9236396539030333 481.0 37.0 331.0 
230.00040553626064 6299.0 NaN 1533.8650634602545 0.8811540691028596 473.0 44.0 325.0 
240.00040553626064 6244.0 NaN 1533.9185036740155 0.8900252100115874 472.0 46.0 323.0 
250.00040553626064 6189.0 NaN 1524.585170340682 0.9452083981350314 485.0 33.0 333.0 
260.00040553626064 6163.0 NaN 1524.5637942551757 0.7873771443949282 482.0 37.0 329.0 
270.00040553626064 6151.0 NaN 1536.911155644621 0.922952495418164 483.0 37.0 333.0 
280.00040553626064 6128.0 NaN 1543.0861723446908 1.0180516227938552 482.0 37.0 335.0 
290.00040553626064 6098.0 NaN 1533.774215096861 0.9167844695687805 478.0 37.0 332.0 
300.00040553626064 6058.0 NaN 1540.0534402137614 1.0157567420956641 475.0 36.0 335.0 
310.00040553626064 5986.0 NaN 1533.8757515030068 1.0087832247587303 471.0 38.0 331.0 
320.00040553626064 5937.0 NaN 1533.8677354709428 0.9091584848392883 470.0 40.0 329.0 
330.00040553626064 5950.0 NaN 1537.0207080828336 0.8144949596728566 467.0 43.0 327.0 
340.00040553626064 5953.0 NaN 1533.9211756847026 0.8003694748443148 474.0 37.0 332.0 
350.00008890332737 5984.0 NaN 1527.7434869739477 0.8777148011563618 480.0 36.0 331.0 
360.00008890332737 5971.0 NaN 1524.7134268537086 0.9016747963595384 474.0 42.0 324.0 
370.00008890332737 5981.0 NaN 1512.4462257849025 0.9382587505910852 477.0 40.0 322.0 
380.00008890332737 5979.0 NaN 1518.5811623246484 0.9680248189401793 479.0 40.0 324.0 
390.00008890332737 5984.0 NaN 1515.4388777555098 1.0061087604913637 480.0 40.0 323.0 
400.00008890332737 6009.0 NaN 1512.3633934535726 1.0192075172398376 486.0 36.0 326.0 
410.00008890332737 6028.0 NaN 1527.7515030060115 0.887758893222068 487.0 39.0 328.0 
420.00008890332737 6026.0 NaN 1515.4388777555098 1.0664060286610813 479.0 41.0 322.0 
430.00008890332737 6040.0 NaN 1515.4388777555102 1.1783795479156172 476.0 41.0 322.0 
440.00008890332737 5997.0 NaN 1524.6867067468274 1.1792493662532024 481.0 45.0 321.0 
450.00008890332737 5977.0 NaN 1543.1022044088184 1.0137669566653265 488.0 43.0 329.0 
460.00040553626064 5961.0 NaN 1543.080828323312 0.9279860767463795 488.0 39.0 333.0 
470.00040553626064 5980.0 NaN 1536.7000668002665 0.9176727230786782 486.0 38.0 332.0 
480.00040553626064 5953.0 NaN 1527.591182364728 0.9618297076037545 484.0 36.0 331.0 
490.00040553626064 5938.0 NaN 1512.2618570474274 0.9320665836050406 484.0 36.0 326.0 
500.00040553626064 5901.0 NaN 1503.0968603874423 0.9963202904998183 472.0 42.0 317.0 
510.00040553626064 5864.0 NaN 1496.9458917835664 1.0786020592547787 472.0 43.0 314.0 
520.0004055362606 5872.0 NaN 1466.2685370741474 0.9042622391097062 466.0 43.0 304.0 
530.0004055362606 5904.0 NaN 1450.832331329326 0.8569681706038099 470.0 37.0 305.0 
540.0004055362606 5931.0 NaN 1469.32531730127 0.9452872787923403 471.0 35.0 313.0 
550.0004055362606 5926.0 NaN 1469.290581162325 0.8828852864673876 476.0 35.0 313.0 
560.0004055362606 5952.0 NaN 1466.3700734802935 0.9226529054809728 469.0 42.0 305.0 
570.0004055362606 5996.0 NaN 1475.7408149632602 0.9129908722326698 466.0 46.0 304.0 
580.0004055362606 6035.0 NaN 1475.6285905143625 1.0277778540874813 473.0 41.0 309.0 
590.0004055362606 6052.0 NaN 1487.882431529727 1.202443660480699 477.0 42.0 312.0 
600.0004055362606 6022.0 NaN 1496.9993319973273 1.2687333742288074 486.0 43.0 314.0 
610.0004055362606 6016.0 NaN 1503.1877087508356 1.0922383460987917 496.0 38.0 321.0 
620.0004055362606 6063.0 NaN 1506.5197060788253 1.0212102884143575 494.0 38.0 322.0 
630.0004055362606 6163.0 NaN 1512.5664662658644 1.0135955174692957 487.0 41.0 321.0 
640.0004055362606 6219.0 NaN 1512.3152972611897 1.0515353107644172 488.0 45.0 317.0 
650.0004055362606 6237.0 NaN 1524.7267869071466 1.153650673327243 473.0 49.0 317.0 
660.0004055362606 6163.0 NaN 1534.1135604542426 1.1818616417711745 473.0 48.0 321.0 
#####################################################################
# End of data export. Simulation finished at: 2019-03-01T23:53+0000 #
#####################################################################
