#####################################################################
# Alchemist log file - simulation started at: 2019-03-05T12:20+0000 #
#####################################################################
# seed = 3.0, bandwidth = 4216.965034285822, propagationDelay = 0.1, baserange = 17.78279410038923
#
# The columns have the following meaning: 
# time neighbor_count[Sum] <value>@neighbor_count[Sum] packet_size[Mean] mean_delay[Mean] crowd[Sum] overcrowded[Sum] risk[Sum] 
0.0 NaN NaN NaN NaN NaN NaN NaN 
2.0005923698108097 285.0 NaN 4988.456913827656 0.20235926363836484 1497.0 0.0 1497.0 
4.00059236981081 1118.0 NaN 4995.380093520374 1.2020786320549788 1497.0 0.0 1497.0 
6.000084666035003 1118.0 NaN 4994.74415497662 1.2072187369568035 1497.0 0.0 1497.0 
8.00059236981081 1118.0 NaN 4994.086840347361 1.2130172288736232 1496.0 1.0 1496.0 
10.00033353340315 1120.0 NaN 4992.197728790915 1.2229828290579852 1496.0 1.0 1496.0 
12.00059236981081 1124.0 NaN 4991.799599198397 1.238488064330472 1491.0 6.0 1491.0 
14.00059236981081 1124.0 NaN 4991.438877755511 1.2555635805516947 1490.0 7.0 1490.0 
16.000084666035004 1124.0 NaN 4991.3613894455575 1.2734320173521327 1490.0 7.0 1490.0 
18.00021582179313 1124.0 NaN 4991.019372077489 1.297968780237836 1490.0 7.0 1490.0 
20.00021582179313 1126.0 NaN 4991.064796259185 1.3215516850675657 1490.0 7.0 1490.0 
22.00021582179313 1130.0 NaN 4990.89378757515 1.3430033984185268 1490.0 7.0 1490.0 
24.00021582179313 1130.0 NaN 4991.11289245157 1.3680180891786473 1490.0 7.0 1490.0 
26.000084666035004 1132.0 NaN 4990.85370741483 1.3823501026301401 1490.0 7.0 1490.0 
28.00059236981081 1138.0 NaN 4991.030060120241 1.3847488397601764 1490.0 7.0 1490.0 
30.00033353340315 1138.0 NaN 4990.957915831664 1.4112292976937297 1490.0 7.0 1490.0 
32.00059236981081 1144.0 NaN 4990.981963927856 1.4329455143405372 1490.0 7.0 1490.0 
34.00059236981081 1148.0 NaN 4990.960587842352 1.4677430581163116 1490.0 7.0 1490.0 
36.00008466603501 1143.0 NaN 4991.024716098865 1.4225891315685448 1490.0 7.0 1490.0 
38.00059236981081 1141.0 NaN 4990.888443553774 1.3798044104185188 1490.0 7.0 1490.0 
40.00033353340315 1144.0 NaN 4990.939211756847 1.4000231792256579 1490.0 7.0 1490.0 
42.00059236981081 1156.0 NaN 4990.776219104877 1.448760092308649 1490.0 7.0 1490.0 
44.00059236981081 1156.0 NaN 4990.941883767535 1.4546724831722995 1490.0 7.0 1490.0 
46.00008466603501 1168.0 NaN 4990.891115564462 1.4735262896211636 1490.0 7.0 1490.0 
48.00059236981081 1173.0 NaN 4990.96325985304 1.5241624045875684 1490.0 7.0 1490.0 
50.00033353340315 1176.0 NaN 4990.883099532398 1.5341438304646122 1490.0 7.0 1490.0 
52.00059236981081 1181.0 NaN 4990.818971275885 1.5777819118894505 1490.0 7.0 1490.0 
54.00059236981081 1182.0 NaN 4990.904475617903 1.6591564303784074 1490.0 7.0 1490.0 
56.00008466603501 1194.0 NaN 4990.88042752171 1.7395723913031216 1490.0 7.0 1490.0 
58.00059236981081 1200.0 NaN 4990.875083500334 1.833750366926646 1490.0 7.0 1490.0 
60.00033353340315 1205.0 NaN 4990.947227788911 1.9094917265155977 1490.0 7.0 1490.0 
62.00059236981081 1207.0 NaN 974.7014028056088 1.6454936097989457 494.0 6.0 181.0 
64.00021582179313 1211.0 NaN 980.6092184368725 1.6443348359213508 487.0 6.0 183.0 
66.00008466603501 1217.0 NaN 992.9245156980638 1.7337909094499473 440.0 6.0 187.0 
68.00021582179313 1219.0 NaN 992.8817635270547 1.7057941748588477 398.0 6.0 187.0 
70.00033353340315 1209.0 NaN 992.830995323982 1.5768643066179777 361.0 6.0 187.0 
72.00021582179313 1215.0 NaN 992.7748830995349 1.5659099153012177 342.0 6.0 187.0 
74.00059236981082 1217.0 NaN 992.7000668002651 1.6706965265767715 334.0 6.0 187.0 
76.00008466603501 1218.0 NaN 992.7080828323287 1.7815242102495918 327.0 6.0 187.0 
78.00059236981082 1214.0 NaN 992.7508350033378 1.7525047255022603 320.0 6.0 187.0 
80.00021582179313 1211.0 NaN 992.742818971274 1.778367377298412 313.0 6.0 187.0 
82.00059236981082 1215.0 NaN 992.7214428857727 1.8393881805850278 309.0 6.0 187.0 
84.00021582179313 1212.0 NaN 992.7027388109543 1.8106162086185698 302.0 6.0 187.0 
86.00008466603501 1198.0 NaN 992.7080828323287 1.6676756047245749 300.0 6.0 187.0 
88.00021582179313 1196.0 NaN 992.7668670674716 1.5977556775659891 297.0 6.0 187.0 
90.00033353340315 1198.0 NaN 1001.9505678022729 1.6042068070973432 295.0 6.0 190.0 
92.00021582179313 1207.0 NaN 1005.010020040082 1.6976858462407856 293.0 6.0 191.0 
94.00059236981082 1206.0 NaN 1008.1576486305925 1.6715631950150975 291.0 6.0 192.0 
96.00008466603501 1200.0 NaN 1008.1576486305925 1.6243581971588628 290.0 6.0 192.0 
98.00059236981082 1201.0 NaN 1008.0801603206439 1.7024059371703395 290.0 6.0 192.0 
100.00021582179313 1200.0 NaN 1011.169004676018 1.720783372725308 290.0 6.0 193.0 
102.00059236981082 1208.0 NaN 1011.169004676018 1.8557897622395128 289.0 6.0 193.0 
104.00021582179313 1204.0 NaN 1011.2117568470271 1.8941220478549492 290.0 6.0 193.0 
106.00008466603501 1203.0 NaN 1011.1716766867077 1.9508646997573207 290.0 6.0 193.0 
108.00021582179313 1208.0 NaN 1011.1983967935895 1.8737202886123083 291.0 6.0 193.0 
110.00033353340315 1212.0 NaN 1014.3006012024078 1.9495472396085565 291.0 6.0 194.0 
112.00021582179313 1215.0 NaN 1017.376085504344 1.9200614543942567 291.0 6.0 195.0 
114.00059236981082 1204.0 NaN 1017.3547094188363 1.8952644588547811 290.0 6.0 195.0 
116.00008466603501 1197.0 NaN 1017.3493653974639 1.9544031079213475 289.0 6.0 195.0 
118.00059236981082 1208.0 NaN 1011.2224448897822 1.981508507388403 289.0 6.0 193.0 
120.00021582179313 1212.0 NaN 1014.263193052773 1.865897963720488 288.0 6.0 194.0 
122.00059236981082 1225.0 NaN 1026.5784903139627 1.9535135556662426 289.0 6.0 198.0 
124.00021582179313 1221.0 NaN 1026.5571142284555 1.9178042870629934 292.0 6.0 198.0 
126.00008466603501 1221.0 NaN 1023.5110220440896 1.846623498817272 290.0 6.0 197.0 
128.00021582179312 1228.0 NaN 1020.4515698062806 1.9227942074382316 291.0 6.0 196.0 
130.00033353340314 1228.0 NaN 1017.3947895791558 1.8692227550099758 291.0 6.0 195.0 
132.00021582179312 1230.0 NaN 1023.5858383433547 1.8524382959475 289.0 6.0 197.0 
134.00059236981082 1228.0 NaN 1023.5136940547742 1.9727564801818434 290.0 6.0 197.0 
136.000084666035 1229.0 NaN 1023.5404141616542 2.1189249264494894 289.0 6.0 197.0 
138.00059236981082 1228.0 NaN 1020.4301937207725 2.064851818333446 287.0 6.0 196.0 
140.00021582179312 1214.0 NaN 1020.4836339345366 1.9158883982205595 290.0 6.0 196.0 
142.00059236981082 1227.0 NaN 1020.4996659986635 1.965640505083074 290.0 6.0 196.0 
144.00021582179312 1226.0 NaN 1017.3760855043439 1.9661609547454684 290.0 6.0 195.0 
146.000084666035 1238.0 NaN 1017.3680694722802 1.8582629879510664 290.0 6.0 195.0 
148.00021582179312 1244.0 NaN 1020.4275217100892 1.8135672706297177 292.0 6.0 196.0 
150.00033353340314 1254.0 NaN 1023.591182364727 1.7327299580627045 291.0 6.0 197.0 
152.00021582179312 1271.0 NaN 1023.607214428856 1.8493160002272546 291.0 6.0 197.0 
154.00059236981082 1279.0 NaN 1026.5945223780911 1.9776133828899176 291.0 6.0 198.0 
156.000084666035 1276.0 NaN 1026.5865063460274 1.771818203566444 291.0 6.0 198.0 
158.00059236981082 1274.0 NaN 1026.6105544422182 1.680115788384992 291.0 6.0 198.0 
160.00021582179312 1274.0 NaN 1035.8904475617912 1.6491056809296833 291.0 6.0 201.0 
162.00059236981082 1285.0 NaN 1035.7915831663352 1.6106455830945872 294.0 6.0 201.0 
164.00021582179312 1285.0 NaN 1032.7027388109543 1.6913995152002876 293.0 6.0 200.0 
166.000084666035 1287.0 NaN 1035.7728790915185 1.7625778978278122 294.0 6.0 201.0 
168.00021582179312 1291.0 NaN 1035.8049432197727 1.850046815782251 295.0 6.0 201.0 
170.00033353340314 1287.0 NaN 1038.9311957247814 1.712640131571059 295.0 6.0 202.0 
172.00021582179312 1298.0 NaN 1032.7775551102177 1.761691803988283 295.0 6.0 200.0 
174.00059236981082 1298.0 NaN 1029.632598530392 1.9113735856183756 293.0 6.0 199.0 
176.000084666035 1298.0 NaN 1029.6486305945193 2.0097150418127243 292.0 6.0 199.0 
178.00059236981082 1301.0 NaN 1023.5217100868376 2.04494165788439 291.0 6.0 197.0 
180.00021582179312 1291.0 NaN 1023.6072144288556 2.0067616122167466 290.0 6.0 197.0 
182.00059236981082 1292.0 NaN 1023.5617902471623 2.1639257678808312 290.0 6.0 197.0 
184.00021582179312 1281.0 NaN 1017.3787575150285 2.2064499154489123 290.0 6.0 195.0 
186.000084666035 1273.0 NaN 1014.2712090848363 2.232404416051603 289.0 6.0 194.0 
188.00021582179312 1262.0 NaN 1011.222444889782 2.1444437253799267 288.0 6.0 193.0 
190.00033353340314 1263.0 NaN 1014.3193052772197 2.109706121045557 288.0 6.0 194.0 
192.00021582179312 1262.0 NaN 1011.206412825653 2.1642928320354358 289.0 6.0 193.0 
194.00059236981082 1258.0 NaN 1011.1716766867075 2.2556537463774315 288.0 6.0 193.0 
196.000084666035 1263.0 NaN 1014.2631930527729 2.1394896372905707 287.0 6.0 194.0 
198.00059236981082 1253.0 NaN 1014.2899131596545 2.1089874080542548 289.0 6.0 194.0 
200.00021582179312 1252.0 NaN 1011.2919171676712 1.9363284102029608 290.0 6.0 193.0 
202.00059236981082 1251.0 NaN 1017.3787575150285 1.994736947494277 290.0 6.0 195.0 
204.00021582179312 1258.0 NaN 1017.3386773547089 2.119567889051953 293.0 6.0 195.0 
206.000084666035 1260.0 NaN 1011.257181028726 2.109967969670055 292.0 6.0 193.0 
208.00021582179312 1253.0 NaN 1008.1790247161003 2.0141428108255806 291.0 6.0 192.0 
210.00033353340314 1251.0 NaN 1014.3326653306624 2.005434299852319 291.0 6.0 194.0 
212.00021582179312 1249.0 NaN 1014.321977287909 1.9021770020110735 289.0 6.0 194.0 
214.00059236981082 1249.0 NaN 1011.2331329325287 1.904187766363801 290.0 6.0 193.0 
216.000084666035 1244.0 NaN 1014.3460253841 1.9882737418570855 289.0 7.0 193.0 
218.00059236981082 1245.0 NaN 1014.2551770207094 2.015144224436296 290.0 7.0 193.0 
220.00021582179312 1261.0 NaN 1017.3814295257182 2.0266361304277685 285.0 12.0 189.0 
222.00059236981082 1268.0 NaN 1020.4141616566455 2.1157824973127433 287.0 12.0 190.0 
224.00021582179312 1265.0 NaN 1023.4468937875743 2.2350280860359537 288.0 12.0 191.0 
226.000084666035 1261.0 NaN 1023.3987975951911 2.2865967791794986 289.0 12.0 191.0 
228.00021582179312 1266.0 NaN 1023.4709418837652 2.321531761828853 287.0 12.0 191.0 
230.00033353340314 1275.0 NaN 1029.6619906479639 2.258032726056293 290.0 12.0 193.0 
232.00021582179312 1284.0 NaN 1032.7027388109543 2.3124369069620645 292.0 12.0 194.0 
234.00059236981082 1284.0 NaN 1041.9158316633275 2.2604949302975204 290.0 11.0 198.0 
236.000084666035 1282.0 NaN 1041.918503674017 2.3858788039122634 292.0 11.0 198.0 
238.00059236981082 1283.0 NaN 1035.75684702739 2.422825220107403 295.0 6.0 201.0 
240.00021582179312 1290.0 NaN 1032.820307281227 2.524360403518621 294.0 6.0 200.0 
242.00059236981082 1284.0 NaN 1032.7054108216455 2.5276490141290893 294.0 6.0 200.0 
244.00021582179312 1277.0 NaN 1029.6406145624558 2.563568545917312 294.0 6.0 199.0 
246.000084666035 1277.0 NaN 1029.5818303273193 2.6362707343004743 293.0 6.0 199.0 
248.00021582179312 1264.0 NaN 1026.567802271209 2.600520536525942 292.0 6.0 198.0 
250.00033353340314 1246.0 NaN 1023.4949899799624 2.437542117041066 291.0 6.0 197.0 
252.00021582179312 1247.0 NaN 1023.4308617234454 2.343563134391243 292.0 6.0 197.0 
254.00059236981082 1243.0 NaN 1023.3613894455556 2.418564264015164 293.0 6.0 197.0 
256.00008466603504 1238.0 NaN 1014.1776887107544 2.334422914278811 292.0 6.0 194.0 
258.0005923698108 1229.0 NaN 1014.1643286573169 2.2264668384598374 290.0 6.0 194.0 
260.0002158217932 1230.0 NaN 1017.3012692050738 2.276605114809267 290.0 6.0 195.0 
262.0005923698108 1236.0 NaN 1014.2070808283262 2.363255628761566 289.0 6.0 194.0 
264.0002158217932 1242.0 NaN 1014.2124248497001 2.345814988077098 288.0 6.0 194.0 
266.00008466603504 1240.0 NaN 1008.0561122244468 2.230070018087726 286.0 6.0 192.0 
268.0002158217932 1228.0 NaN 1008.0561122244468 2.0515784727778392 285.0 6.0 192.0 
270.00033353340314 1226.0 NaN 1008.0774883099546 2.052319016372386 286.0 6.0 192.0 
272.0002158217932 1226.0 NaN 1008.0561122244468 2.1363537249213334 287.0 6.0 192.0 
274.0005923698108 1228.0 NaN 1014.1670006680013 2.2918423832624915 289.0 6.0 194.0 
276.00008466603504 1233.0 NaN 1014.1643286573168 2.431831669430678 293.0 6.0 194.0 
278.0005923698108 1224.0 NaN 1017.3226452905819 2.2211639827800673 293.0 6.0 195.0 
280.0002158217932 1224.0 NaN 1017.3520374081465 2.332905844979972 292.0 6.0 195.0 
282.0005923698108 1217.0 NaN 1014.2792251168997 2.312093458054214 291.0 6.0 194.0 
284.0002158217932 1220.0 NaN 1008.1336005343998 2.412018459938552 289.0 6.0 192.0 
286.00008466603504 1220.0 NaN 1011.1716766867077 2.3858734301247 287.0 6.0 193.0 
288.0002158217932 1212.0 NaN 1011.2464929859728 2.339205159235705 286.0 6.0 193.0 
290.00033353340314 1211.0 NaN 1008.069472277891 2.3281413319514495 284.0 6.0 192.0 
292.0002158217932 1206.0 NaN 1004.9779559118255 2.4255547247659215 283.0 6.0 191.0 
294.0005923698108 1209.0 NaN 1017.2798931195729 2.496546198670587 286.0 6.0 195.0 
296.00008466603504 1216.0 NaN 1014.2124248497001 2.5397759727779925 287.0 6.0 194.0 
298.0005923698108 1207.0 NaN 1011.2037408149638 2.388739562131165 286.0 6.0 193.0 
300.0002158217932 1206.0 NaN 1011.1903807615257 2.2546986773540296 286.0 6.0 193.0 
302.0005923698108 1210.0 NaN 1008.109552438209 2.209229171528138 288.0 6.0 192.0 
304.0002158217932 1200.0 NaN 1004.9832999332001 2.1074330261178025 290.0 6.0 191.0 
306.00008466603504 1198.0 NaN 1008.0213760855016 1.973238606638412 288.0 6.0 192.0 
308.0002158217932 1195.0 NaN 1005.0020040080185 1.9997658693935982 287.0 6.0 191.0 
310.00033353340314 1193.0 NaN 1005.0073480293909 1.9258746400796203 289.0 6.0 191.0 
312.0002158217932 1197.0 NaN 1001.9318637274545 1.9256143621546584 285.0 6.0 190.0 
314.0005923698108 1199.0 NaN 1001.9559118236452 2.0700341725278015 284.0 6.0 190.0 
316.00008466603504 1192.0 NaN 998.923179692718 1.9709182139933714 282.0 6.0 189.0 
318.0005923698108 1189.0 NaN 989.7047428189728 1.9997424386933538 283.0 6.0 186.0 
320.0002158217932 1203.0 NaN 989.7047428189728 1.9836860013287654 284.0 6.0 186.0 
322.0005923698108 1213.0 NaN 995.8316633266546 2.0273977649005817 284.0 6.0 188.0 
324.0002158217932 1215.0 NaN 995.7915831663337 2.123477901748642 286.0 6.0 188.0 
326.00008466603504 1215.0 NaN 998.8937875751521 2.0072254860683385 284.0 6.0 189.0 
328.0002158217932 1215.0 NaN 998.9151636606546 2.074457230697207 286.0 6.0 189.0 
330.00033353340314 1210.0 NaN 998.8884435537727 2.0388191097385526 286.0 6.0 189.0 
332.0002158217932 1207.0 NaN 998.8830995324001 1.9420415180877804 287.0 6.0 189.0 
334.0005923698108 1208.0 NaN 1001.9612558450243 2.0583206852444462 287.0 6.0 190.0 
336.00008466603504 1207.0 NaN 1005.0501002003998 2.03272918865623 288.0 6.0 191.0 
338.0005923698108 1196.0 NaN 1001.9452237808944 2.0349515079547964 287.0 6.0 190.0 
340.0002158217932 1203.0 NaN 1008.0828323313272 2.095739161355572 289.0 6.0 192.0 
342.0005923698108 1203.0 NaN 1008.0587842351362 2.2442017900251403 290.0 6.0 192.0 
344.0002158217932 1204.0 NaN 1008.0961923847698 2.3693572135985823 291.0 6.0 192.0 
346.00008466603504 1193.0 NaN 1008.069472277891 2.2260312491070615 290.0 6.0 192.0 
348.0002158217932 1196.0 NaN 1001.9612558450237 2.399432510888015 290.0 6.0 190.0 
350.00033353340314 1200.0 NaN 1005.0794923179693 2.527185089350775 290.0 6.0 191.0 
352.0002158217932 1199.0 NaN 1001.939879759518 2.617558903481302 290.0 6.0 190.0 
354.0005923698108 1193.0 NaN 1001.9478957915818 2.678388268596151 291.0 6.0 190.0 
356.00008466603504 1189.0 NaN 1001.9024716098877 2.6663650565976824 293.0 6.0 190.0 
358.0005923698108 1180.0 NaN 998.8911155644636 2.612604366218509 291.0 6.0 189.0 
360.0002158217932 1166.0 NaN 1001.939879759518 2.3333832925222007 291.0 6.0 190.0 
362.0005923698108 1175.0 NaN 1001.886439545758 2.44559645267902 294.0 6.0 190.0 
364.0002158217932 1176.0 NaN 1001.8891115564453 2.423132764627979 293.0 6.0 190.0 
366.00008466603504 1180.0 NaN 1001.8784235136941 2.4776638829923843 290.0 6.0 190.0 
368.0002158217932 1174.0 NaN 998.8804275217088 2.4484523623859853 289.0 6.0 189.0 
370.00033353340314 1170.0 NaN 1001.9532398129606 2.286958118434355 289.0 6.0 190.0 
372.0002158217932 1172.0 NaN 1004.9832999332001 2.180482657319024 291.0 6.0 191.0 
374.0005923698108 1169.0 NaN 1007.9786239144975 2.1035312568877362 292.0 6.0 192.0 
376.00008466603504 1180.0 NaN 1004.9859719438882 2.121430231465984 292.0 6.0 191.0 
378.0005923698108 1173.0 NaN 1005.007348029391 2.17800622329507 290.0 6.0 191.0 
380.0002158217932 1166.0 NaN 1004.9913159652635 2.0227138693904174 290.0 6.0 191.0 
382.0005923698108 1174.0 NaN 1005.0367401469609 2.0937227525578357 290.0 6.0 191.0 
384.0002158217932 1170.0 NaN 998.8750835003332 1.9560666121141235 288.0 6.0 189.0 
386.00008466603504 1168.0 NaN 998.7708750834998 2.00378111241683 288.0 6.0 189.0 
388.0002158217932 1167.0 NaN 989.6486305945222 1.9823891946495544 285.0 6.0 186.0 
390.00033353340314 1175.0 NaN 977.4268537074145 2.1106886747410214 284.0 6.0 182.0 
392.0002158217932 1183.0 NaN 977.4054776219092 2.209750386696089 284.0 6.0 182.0 
394.00010087903354 1188.0 NaN 974.3246492985962 2.240829398362191 281.0 6.0 181.0 
396.00008466603504 1196.0 NaN 971.259853039413 2.156746208495672 282.0 6.0 180.0 
398.0005923698108 1187.0 NaN 965.1249164996674 2.104707319706196 282.0 6.0 178.0 
400.0002158217932 1185.0 NaN 968.2378089512366 2.216788340254035 281.0 6.0 179.0 
402.0005923698108 1187.0 NaN 968.1923847695399 2.0643650715862614 281.0 6.0 179.0 
404.00010087903354 1202.0 NaN 968.1977287909147 2.1559335266321953 282.0 6.0 179.0 
406.00008466603504 1205.0 NaN 962.070808283233 2.279111000205032 280.0 6.0 177.0 
408.0002158217932 1207.0 NaN 962.0814963259858 2.282562446706719 280.0 6.0 177.0 
410.00033353340314 1214.0 NaN 962.0654642618582 2.2688488178367603 283.0 6.0 177.0 
412.00010087903354 1216.0 NaN 959.014028056112 2.2147039715361436 279.0 6.0 176.0 
414.00010087903354 1203.0 NaN 959.0541082164331 2.181271862552824 278.0 6.0 176.0 
416.00008466603504 1201.0 NaN 946.8456913827636 2.3125869586877186 274.0 7.0 171.0 
418.00010087903354 1191.0 NaN 946.794923179691 2.364334942231144 269.0 11.0 167.0 
420.00010087903354 1193.0 NaN 956.0187040748184 2.281155753224102 264.0 14.0 167.0 
422.00010087903354 1199.0 NaN 956.0187040748183 2.469762717067011 262.0 14.0 167.0 
424.0002158217932 1196.0 NaN 956.0133600534398 2.430775296833632 260.0 14.0 167.0 
426.00008466603504 1198.0 NaN 955.9706078824305 2.3868544365978726 263.0 13.0 168.0 
428.0002158217932 1194.0 NaN 946.754843019373 2.398605940019268 262.0 13.0 165.0 
430.00033353340314 1196.0 NaN 940.6359385437547 2.381535556791867 261.0 13.0 163.0 
432.0002158217932 1207.0 NaN 940.6867067468274 2.3866683667764663 259.0 13.0 163.0 
434.0005923698108 1199.0 NaN 940.5691382765544 2.396122394762032 259.0 13.0 163.0 
436.00008466603504 1196.0 NaN 946.6613226452911 2.4046084129106395 260.0 12.0 166.0 
438.0005923698108 1192.0 NaN 946.6987307949241 2.4244455071187416 259.0 12.0 166.0 
440.0002158217932 1196.0 NaN 952.8550434201725 2.3652672575795592 265.0 8.0 172.0 
442.0005923698108 1221.0 NaN 958.9686038744156 2.461504613149359 268.0 6.0 176.0 
444.0002158217932 1209.0 NaN 958.9712758851028 2.3540142712734964 268.0 6.0 176.0 
446.00008466603504 1210.0 NaN 962.0788243152975 2.5463802044485666 268.0 6.0 177.0 
448.0002158217932 1211.0 NaN 965.2077488309936 2.6006768309599986 271.0 6.0 178.0 
450.00033353340314 1210.0 NaN 965.173012692052 2.632960936060002 273.0 6.0 178.0 
452.0002158217932 1215.0 NaN 965.087508350034 2.468805387077766 274.0 6.0 178.0 
454.0005923698108 1215.0 NaN 965.0794923179701 2.4334705155876994 272.0 6.0 178.0 
456.00008466603504 1220.0 NaN 962.0734802939206 2.495129614863375 271.0 7.0 176.0 
458.0005923698108 1220.0 NaN 962.060120240482 2.5570238714167495 272.0 7.0 176.0 
460.0002158217932 1208.0 NaN 962.0868403473637 2.3495058136370814 264.0 13.0 170.0 
462.0005923698108 1215.0 NaN 962.1215764863067 2.369922306243932 261.0 14.0 169.0 
464.0002158217932 1207.0 NaN 962.0627922511701 2.1787769621843043 259.0 14.0 169.0 
466.00008466603504 1200.0 NaN 961.9879759519025 2.0994643499937924 256.0 14.0 169.0 
468.0002158217932 1201.0 NaN 961.9746158984638 2.2610035652252636 253.0 14.0 169.0 
470.00033353340314 1199.0 NaN 968.1362725450911 2.259348803347582 255.0 14.0 171.0 
472.0002158217932 1199.0 NaN 968.1255845023363 2.3518477288779756 258.0 14.0 171.0 
474.0005923698108 1203.0 NaN 968.0855043420183 2.543261572143338 258.0 14.0 171.0 
476.00008466603504 1195.0 NaN 968.0828323313273 2.5370786981995206 259.0 14.0 171.0 
478.0005923698108 1178.0 NaN 955.871743486973 2.3637822076810093 256.0 14.0 167.0 
480.0002158217932 1180.0 NaN 962.0654642618566 2.3441622477431134 258.0 14.0 169.0 
482.0005923698108 1180.0 NaN 958.9392117568456 2.3457276553095934 259.0 14.0 168.0 
484.0002158217932 1180.0 NaN 955.8423513694065 2.5101699665455226 259.0 14.0 167.0 
486.00008466603504 1179.0 NaN 955.8370073480272 2.5634094920309347 258.0 14.0 167.0 
488.0002158217932 1177.0 NaN 952.8577154308635 2.4106559297895362 255.0 14.0 166.0 
490.00033353340314 1172.0 NaN 955.8851035404156 2.364267482517659 254.0 14.0 167.0 
492.0002158217932 1181.0 NaN 955.890447561791 2.370230329348717 255.0 14.0 167.0 
494.0005923698108 1182.0 NaN 955.847695390782 2.3685358403634154 255.0 14.0 167.0 
496.00008466603504 1180.0 NaN 949.7608550434184 2.4523767233381877 256.0 14.0 165.0 
498.0005923698108 1162.0 NaN 952.836339345357 2.058590206329017 256.0 14.0 166.0 
500.0002158217932 1166.0 NaN 949.7795591182362 2.0481120026861186 255.0 14.0 165.0 
502.0005923698108 1165.0 NaN 946.7014028056092 2.0284482894603384 255.0 14.0 164.0 
504.0002158217932 1164.0 NaN 949.7154308617245 2.10417580929081 256.0 13.0 166.0 
506.00008466603504 1163.0 NaN 949.7100868403455 1.97182044296016 254.0 13.0 166.0 
508.0002158217932 1158.0 NaN 943.5724782899125 2.029064048551172 258.0 8.0 169.0 
510.00033353340314 1144.0 NaN 934.3914495657998 1.9333037206729684 258.0 6.0 168.0 
512.0002158217932 1149.0 NaN 934.3433533734134 1.958960730668377 259.0 6.0 168.0 
514.0005923698109 1153.0 NaN 937.3680694722776 2.134279205538199 259.0 6.0 169.0 
516.000084666035 1148.0 NaN 928.1897127588501 2.074808183149909 257.0 6.0 166.0 
518.0005923698109 1144.0 NaN 919.0060120240496 1.9595163206274806 254.0 6.0 163.0 
520.0002158217931 1134.0 NaN 916.0080160320634 1.7966965081599722 253.0 6.0 162.0 
522.0005923698109 1137.0 NaN 912.8523714094863 1.9812198245711459 251.0 6.0 161.0 
524.0002158217931 1140.0 NaN 909.7795591182363 2.1724003165795733 249.0 6.0 160.0 
526.000084666035 1137.0 NaN 909.7849031396137 2.195070778885342 249.0 6.0 160.0 
528.0002158217931 1134.0 NaN 912.9218436873733 2.1100986526420304 249.0 6.0 161.0 
530.0003335334031 1138.0 NaN 912.9218436873733 2.236445162603407 248.0 6.0 161.0 
532.0002158217931 1137.0 NaN 912.9352037408142 1.9872824348316849 249.0 6.0 161.0 
534.0005923698109 1137.0 NaN 915.9759519038087 2.045816025342602 250.0 6.0 162.0 
536.000084666035 1152.0 NaN 922.1402805611226 2.043819648562771 252.0 6.0 164.0 
538.0005923698109 1150.0 NaN 925.1676686706733 2.063480509075664 252.0 6.0 165.0 
540.0002158217931 1145.0 NaN 922.1563126252502 1.9974181750661437 252.0 6.0 164.0 
542.0005923698109 1149.0 NaN 922.1162324649308 2.1528018626192145 253.0 6.0 164.0 
544.0002158217931 1153.0 NaN 919.0754843019364 2.1840751051456513 252.0 6.0 163.0 
546.000084666035 1148.0 NaN 919.0514362057455 2.2652931573510484 252.0 6.0 163.0 
548.0002158217931 1137.0 NaN 912.9084836339354 2.2680224586893156 249.0 6.0 161.0 
550.0003335334031 1124.0 NaN 912.9432197728784 2.1500717862403933 246.0 6.0 161.0 
552.0002158217931 1128.0 NaN 912.9191716766863 2.097364175124487 249.0 6.0 161.0 
554.0005923698109 1139.0 NaN 906.7361389445559 2.1563032483637605 253.0 6.0 159.0 
556.000084666035 1147.0 NaN 906.7815631262531 2.1447743047423664 252.0 6.0 159.0 
558.0005923698109 1150.0 NaN 903.7087508350032 2.237869722621632 253.0 6.0 158.0 
560.0002158217931 1142.0 NaN 900.6973947895787 2.123264863501851 251.0 6.0 157.0 
562.0005923698109 1152.0 NaN 906.8403473613898 2.0222934676508797 252.0 6.0 159.0 
564.0002158217931 1162.0 NaN 909.8490313961261 2.0334762058593165 254.0 6.0 160.0 
566.000084666035 1170.0 NaN 909.8891115564454 2.2006184803236635 251.0 6.0 160.0 
568.0002158217931 1175.0 NaN 906.8537074148304 2.1896156938528457 253.0 6.0 159.0 
570.0003335334031 1176.0 NaN 912.9752839011364 2.034099048866003 254.0 6.0 161.0 
572.0002158217931 1180.0 NaN 912.9886439545762 2.152645740021448 254.0 6.0 161.0 
574.0005923698109 1200.0 NaN 916.1389445557772 2.2939731730859445 255.0 6.0 162.0 
576.000084666035 1212.0 NaN 913.0607882431535 2.410560637698314 257.0 6.0 161.0 
578.0005923698109 1217.0 NaN 916.0641282565136 2.4314222650576673 258.0 6.0 162.0 
580.0002158217931 1215.0 NaN 916.0561122244501 2.451555755820772 258.0 6.0 162.0 
582.0005923698109 1213.0 NaN 916.0561122244501 2.3780772498112808 259.0 6.0 162.0 
584.0002158217931 1206.0 NaN 919.1877087508357 2.4073528182116077 261.0 6.0 163.0 
586.000084666035 1208.0 NaN 928.3874415497676 2.3961009371371857 262.0 6.0 166.0 
588.0002158217931 1210.0 NaN 928.3633934535726 2.3400987962806195 264.0 6.0 166.0 
590.0003335334031 1210.0 NaN 928.414161656646 2.389697053011712 264.0 6.0 166.0 
592.0002158217931 1204.0 NaN 934.5437541750179 2.3824980724019236 264.0 6.0 168.0 
594.0005923698109 1191.0 NaN 934.4582498330001 2.338590328542441 264.0 6.0 168.0 
596.000084666035 1189.0 NaN 937.5657982631913 2.1888900258593997 260.0 6.0 169.0 
598.0005923698109 1196.0 NaN 940.6466265865051 2.3082793337362584 262.0 6.0 170.0 
600.0002158217931 1208.0 NaN 940.7054108216454 2.37023480158449 265.0 6.0 170.0 
602.0005923698109 1210.0 NaN 940.6332665330677 2.489765549799066 265.0 6.0 170.0 
604.0002158217931 1205.0 NaN 940.6092184368725 2.5405922880292247 265.0 6.0 170.0 
606.000084666035 1216.0 NaN 946.7307949231816 2.6929409909723003 267.0 6.0 172.0 
608.0002158217931 1218.0 NaN 949.8650634602548 2.5328029567928274 269.0 6.0 173.0 
610.0003335334031 1234.0 NaN 959.0915163660637 2.5730942345875922 271.0 6.0 176.0 
612.0002158217931 1229.0 NaN 959.0140280561128 2.4500845949800913 273.0 6.0 176.0 
614.0005923698109 1223.0 NaN 962.1242484969947 2.2678120781885336 274.0 6.0 177.0 
616.000084666035 1223.0 NaN 965.1837007348037 2.3481661245039325 274.0 6.0 178.0 
618.0005923698109 1223.0 NaN 968.1736806947234 2.3750816947601927 273.0 6.0 179.0 
620.0002158217931 1228.0 NaN 968.2351369405454 2.381139599909461 272.0 6.0 179.0 
622.0005923698109 1226.0 NaN 965.156980627922 2.3435934336088784 273.0 6.0 178.0 
624.0002158217931 1226.0 NaN 965.1730126920506 2.476386835708081 273.0 6.0 178.0 
626.000084666035 1236.0 NaN 968.221776887109 2.46460742786921 271.0 6.0 179.0 
628.0002158217931 1238.0 NaN 968.2084168336676 2.605484618628075 269.0 6.0 179.0 
630.0003335334031 1271.0 NaN 968.2939211756855 2.5840804699805346 272.0 6.0 179.0 
632.0002158217931 1276.0 NaN 965.2317969271872 2.3990430857796143 270.0 6.0 178.0 
634.0005923698109 1276.0 NaN 968.2351369405455 2.4713115723358943 268.0 6.0 179.0 
636.000084666035 1280.0 NaN 977.4589178356724 2.559843159060053 263.0 12.0 176.0 
638.0005923698109 1290.0 NaN 986.7174348697399 2.5828954451911046 264.0 14.0 177.0 
640.0002158217931 1294.0 NaN 989.7929191716763 2.5837631218173853 265.0 14.0 178.0 
642.0005923698109 1306.0 NaN 992.8657314629272 2.6492689634904867 266.0 13.0 180.0 
644.0002158217931 1309.0 NaN 986.7067468269873 2.776574677997489 266.0 13.0 178.0 
646.000084666035 1297.0 NaN 992.9111556446213 2.7751138450077644 265.0 13.0 180.0 
648.0002158217931 1307.0 NaN 999.0434201736821 2.748486336756392 267.0 14.0 181.0 
650.0003335334031 1294.0 NaN 999.0380761523063 2.7864076584340496 271.0 14.0 181.0 
652.0002158217931 1313.0 NaN 995.9572478289908 2.881677062903641 272.0 14.0 180.0 
654.0005923698109 1302.0 NaN 998.9525718102881 2.8638365274681203 274.0 14.0 181.0 
656.000084666035 1303.0 NaN 1005.1356045424182 2.950685597554656 274.0 14.0 183.0 
658.0005923698109 1307.0 NaN 1008.200400801602 2.7663562594311895 274.0 14.0 184.0 
660.0002158217931 1314.0 NaN 1005.1756847027384 2.648690727635701 279.0 14.0 183.0 
662.0005923698109 1309.0 NaN 1002.0734802939205 2.675644026593425 279.0 14.0 182.0 
664.0002158217931 1292.0 NaN 1002.0334001335998 2.642057063992346 277.0 14.0 182.0 
#####################################################################
# End of data export. Simulation finished at: 2019-03-05T12:24+0000 #
#####################################################################
