#####################################################################
# Alchemist log file - simulation started at: 2019-03-05T13:20+0000 #
#####################################################################
# seed = 3.0, bandwidth = 4216.965034285822, propagationDelay = 3.1622776601683795, baserange = 1000.0
#
# The columns have the following meaning: 
# time neighbor_count[Sum] <value>@neighbor_count[Sum] packet_size[Mean] mean_delay[Mean] crowd[Sum] overcrowded[Sum] risk[Sum] 
0.0 NaN NaN NaN NaN NaN NaN NaN 
2.0005923698108097 NaN NaN 4988.0 NaN 1497.0 0.0 1497.0 
4.00059236981081 NaN NaN 4988.0 NaN 1497.0 0.0 1497.0 
6.000084666035003 198112.0 NaN 4992.782899131596 0.6823917420345293 1497.0 0.0 1497.0 
8.00059236981081 210022.0 NaN 4995.118236472946 2.6540593955718834 1497.0 0.0 1497.0 
10.000256297748908 210024.0 NaN 4995.110220440882 3.595943198209108 1497.0 0.0 1497.0 
12.00059236981081 210034.0 NaN 4994.843019372078 1.654774093534167 1497.0 0.0 1497.0 
14.00059236981081 210034.0 NaN 4994.340681362725 3.654774093534167 1497.0 0.0 1497.0 
16.000084666035004 210058.0 NaN 4993.386773547094 0.9459119165259062 1497.0 0.0 1497.0 
18.00059236981081 210059.0 NaN 4993.341349365397 2.654103233279644 1497.0 0.0 1497.0 
20.00033353340315 210063.0 NaN 4993.408149632599 3.5973966073021875 1497.0 0.0 1497.0 
22.00059236981081 210078.0 NaN 4995.468269873079 1.6566547850164624 1497.0 0.0 1497.0 
24.00059236981081 210078.0 NaN 4994.939211756847 3.656654785016462 1497.0 0.0 1497.0 
26.000084666035004 210139.0 NaN 4995.147628590515 0.9510302249969459 1497.0 0.0 1497.0 
28.00059236981081 210139.0 NaN 4994.923179692719 2.6602189205146707 1497.0 0.0 1497.0 
30.00033353340315 210153.0 NaN 4995.019372077489 3.604994419677877 1497.0 0.0 1497.0 
32.00059236981081 210202.0 NaN 4993.889111556447 1.66567004755331 1497.0 0.0 1497.0 
34.00059236981081 210202.0 NaN 4993.274549098196 3.66567004755331 1497.0 0.0 1497.0 
36.00008466603501 210275.0 NaN 4993.931863727455 0.9626970800764223 1497.0 0.0 1497.0 
38.00059236981081 210277.0 NaN 4994.60788243153 2.6720112623111905 1497.0 0.0 1497.0 
40.000256297748905 210304.0 NaN 4994.645290581162 3.616074381126029 1497.0 0.0 1497.0 
42.00059236981081 210383.0 NaN 4994.933867735471 1.6786890506495185 1497.0 0.0 1497.0 
44.00059236981081 210383.0 NaN 4994.321977287909 3.6786890506495187 1497.0 0.0 1497.0 
46.00008466603501 210410.0 NaN 4994.372745490982 0.9720190936176408 1497.0 0.0 1497.0 
48.00059236981081 210412.0 NaN 4993.886439545759 2.6792294525322062 1497.0 0.0 1497.0 
50.00033353340315 210434.0 NaN 4993.915831663327 3.6236009589659104 1497.0 0.0 1497.0 
52.00059236981081 210505.0 NaN 4995.4175016700065 1.6784552883160426 1496.0 1.0 1496.0 
54.00059236981081 210505.0 NaN 4994.861723446894 3.6784552883160426 1496.0 1.0 1496.0 
56.00008466603501 210517.0 NaN 4995.3293253173015 0.973934511006326 1495.0 2.0 1495.0 
58.00059236981081 210516.0 NaN 4995.497661990648 2.6827601933173995 1496.0 1.0 1496.0 
60.00033353340315 210531.0 NaN 4995.527054108216 3.627402717033322 1497.0 0.0 1497.0 
62.00059236981081 210588.0 NaN 1522.6078824315296 1.6920519429539953 838.0 0.0 365.0 
64.00059236981082 210600.0 NaN 1522.5170340681366 3.011333888589989 799.0 0.0 365.0 
66.00008466603501 210591.0 NaN 1522.383433533736 1.4850623486111079 666.0 1.0 364.0 
68.00059236981082 210634.0 NaN 1522.2471609886452 2.6807050904299667 654.0 1.0 364.0 
70.00033353340315 210715.0 NaN 1522.2712090848363 2.1586640060372804 597.0 3.0 362.0 
72.00059236981082 210726.0 NaN 1525.4562458249823 2.449347151698883 590.0 5.0 361.0 
74.00059236981082 210745.0 NaN 1525.3653974615909 2.190609803611856 573.0 5.0 361.0 
76.00008466603501 210704.0 NaN 1525.3760855043424 2.267418848888253 573.0 1.0 365.0 
78.00059236981082 210773.0 NaN 1528.2191048764184 1.9336808782036512 553.0 1.0 366.0 
80.00033353340315 210781.0 NaN 1534.3861055444213 2.946405389500278 549.0 3.0 366.0 
82.00059236981082 210768.0 NaN 1534.8911155644635 1.6699347020276865 541.0 5.0 364.0 
84.00059236981082 210779.0 NaN 1534.794923179691 2.9561047321752767 540.0 5.0 364.0 
86.00008466603501 210739.0 NaN 1534.8323313293272 1.4878402377193998 536.0 4.0 365.0 
88.00059236981082 210757.0 NaN 1534.7094188376755 2.6966824076502802 536.0 3.0 366.0 
90.00033353340315 210827.0 NaN 1534.6987307949244 2.166509609337028 534.0 4.0 365.0 
92.00059236981082 210775.0 NaN 1537.8677354709423 2.436805607077721 533.0 5.0 365.0 
94.00059236981082 210778.0 NaN 1537.7555110220453 2.1752339125342215 531.0 5.0 365.0 
96.00008466603501 210709.0 NaN 1540.9672678690724 2.2394568510430912 531.0 4.0 367.0 
98.00059236981082 210801.0 NaN 1540.7882431529729 1.8976546760927897 531.0 3.0 368.0 
100.00033353340315 210785.0 NaN 1540.7989311957247 2.9101687465211015 530.0 4.0 367.0 
102.00059236981082 210804.0 NaN 1540.8149632598543 1.644659542046697 529.0 5.0 366.0 
104.00059236981082 210760.0 NaN 1540.676018704073 2.9216500222186754 529.0 5.0 366.0 
106.00008466603501 210792.0 NaN 1540.8096192384758 1.4605135836763137 528.0 3.0 368.0 
108.00059236981082 210793.0 NaN 1540.6813627254517 2.6614632415498103 529.0 2.0 369.0 
110.00033353340315 210872.0 NaN 1540.6706746826997 2.13118598696632 525.0 4.0 367.0 
112.00059236981082 210870.0 NaN 1541.0260521042092 2.410500726969059 524.0 5.0 366.0 
114.00059236981082 210890.0 NaN 1540.9245156980637 2.146523224723729 524.0 5.0 366.0 
116.00008466603501 210867.0 NaN 1544.016032064127 2.2303375927816766 527.0 3.0 369.0 
118.00059236981082 210902.0 NaN 1549.9318637274544 1.8899861070092998 527.0 2.0 372.0 
120.00033353340315 210875.0 NaN 1549.9372077488304 2.903664950818063 525.0 4.0 370.0 
122.00059236981082 210871.0 NaN 1553.1863727454909 1.6388779376894695 524.0 6.0 369.0 
124.00059236981082 210826.0 NaN 1553.1142284569148 2.9164099779646695 524.0 6.0 369.0 
126.00008466603501 210838.0 NaN 1553.124916499666 1.4615431755704165 524.0 6.0 369.0 
128.00059236981082 210862.0 NaN 1552.8977955911816 2.6594232176575763 525.0 5.0 370.0 
130.00033353340314 210901.0 NaN 1546.7708750835 2.1390764214835607 524.0 6.0 367.0 
132.00059236981082 210902.0 NaN 1547.2064128256518 2.4109388706992343 524.0 6.0 367.0 
134.00059236981082 210910.0 NaN 1547.0995323981274 2.154352425951919 524.0 6.0 367.0 
136.000084666035 210886.0 NaN 1547.1609886439546 2.236340859599798 524.0 6.0 367.0 
138.00059236981082 210931.0 NaN 1546.9686038744153 1.8956776775716033 525.0 5.0 368.0 
140.00033353340314 210916.0 NaN 1546.9846359385454 2.906487931336112 525.0 6.0 367.0 
142.00059236981082 210931.0 NaN 1550.2150968603878 1.6476366315722943 524.0 6.0 368.0 
144.00059236981082 210882.0 NaN 1550.094856379427 2.9148995308831593 524.0 6.0 368.0 
146.000084666035 210907.0 NaN 1550.2899131596544 1.4733975650914182 524.0 6.0 368.0 
148.00059236981082 210903.0 NaN 1550.078824315297 2.6591917521061172 525.0 5.0 369.0 
150.00033353340314 210936.0 NaN 1543.9545758183028 2.1422717417453128 523.0 6.0 366.0 
152.00059236981082 210913.0 NaN 1543.8797595190367 2.4134640488140175 523.0 6.0 366.0 
154.00059236981082 210919.0 NaN 1540.6680026720096 2.155879353590412 523.0 6.0 365.0 
156.000084666035 210916.0 NaN 1540.830995323982 2.2414188969670006 523.0 6.0 365.0 
158.00059236981082 210973.0 NaN 1543.8183032732122 1.8971636279998274 523.0 6.0 366.0 
160.00033353340314 210974.0 NaN 1543.8343353373425 2.897501275099139 522.0 6.0 366.0 
162.00059236981082 210983.0 NaN 1544.0587842351363 1.6505925777897386 519.0 6.0 366.0 
164.00059236981082 210960.0 NaN 1543.983967935873 2.9087051445051615 518.0 6.0 366.0 
166.000084666035 210973.0 NaN 1543.9732798931182 1.4864670745352249 520.0 5.0 367.0 
168.00059236981082 210972.0 NaN 1543.6980627922514 2.659040994010843 521.0 5.0 367.0 
170.00033353340314 211001.0 NaN 1546.7975951903818 2.1488932240724488 518.0 6.0 367.0 
172.00059236981082 210999.0 NaN 1550.215096860388 2.4145359713991446 519.0 6.0 368.0 
174.00059236981082 211004.0 NaN 1547.0487641950547 2.1625031017540857 522.0 6.0 367.0 
176.000084666035 210986.0 NaN 1540.8951235804936 2.2468546109121124 522.0 6.0 365.0 
178.00059236981082 210994.0 NaN 1540.6199064796272 1.9021707642980117 522.0 6.0 365.0 
180.00033353340314 210989.0 NaN 1540.6038744155 2.8961944912818653 522.0 6.0 365.0 
182.00059236981082 211012.0 NaN 1541.0313961255843 1.6634539446503311 521.0 6.0 365.0 
184.00059236981082 210989.0 NaN 1540.9352037408157 2.905936842334464 521.0 6.0 365.0 
186.000084666035 210984.0 NaN 1537.9051436205727 1.4894807132060015 523.0 6.0 364.0 
188.00059236981082 210970.0 NaN 1534.7040748163001 2.6505155984761104 521.0 6.0 363.0 
190.00033353340314 210992.0 NaN 1534.6853707414816 2.1400406830233245 519.0 6.0 363.0 
192.00059236981082 210980.0 NaN 1534.936539746158 2.406533783364392 517.0 6.0 363.0 
194.00059236981082 210988.0 NaN 1534.8456913827638 2.1511448780337155 516.0 6.0 363.0 
196.000084666035 210966.0 NaN 1534.9018036072152 2.243363858005542 516.0 6.0 363.0 
198.00059236981082 210964.0 NaN 1534.6853707414816 1.904434791971672 516.0 6.0 363.0 
200.00033353340314 210947.0 NaN 1534.7040748163001 2.8915559349031192 516.0 6.0 363.0 
202.00059236981082 210968.0 NaN 1540.9806279225118 1.666271728843407 518.0 6.0 365.0 
204.00059236981082 210954.0 NaN 1540.8630594522365 2.9061182896948337 517.0 6.0 365.0 
206.000084666035 210984.0 NaN 1541.0207080828334 1.4985511166453531 516.0 6.0 365.0 
208.00059236981082 211012.0 NaN 1540.8897795591183 2.657330349392488 516.0 6.0 365.0 
210.00033353340314 211051.0 NaN 1531.644622578491 2.1486430618722396 517.0 6.0 362.0 
212.00059236981082 211041.0 NaN 1534.7334669338666 2.421729728246674 519.0 6.0 363.0 
214.00059236981082 211046.0 NaN 1531.572478289912 2.1657206567570646 519.0 6.0 362.0 
216.000084666035 211066.0 NaN 1531.660654642618 2.2517237803530574 516.0 5.0 363.0 
218.00059236981082 211133.0 NaN 1531.4495657982636 1.924538687047317 516.0 5.0 363.0 
220.00033353340314 211121.0 NaN 1528.4061456245818 2.895851945929356 512.0 6.0 361.0 
222.00059236981082 211133.0 NaN 1528.630594522379 1.6857787776585207 512.0 6.0 361.0 
224.00059236981082 211121.0 NaN 1528.5263861055455 2.9095595443890625 513.0 6.0 361.0 
226.000084666035 211149.0 NaN 1528.6012024048089 1.5163414539601594 513.0 6.0 361.0 
228.00059236981082 211155.0 NaN 1531.372077488309 2.6662286970767686 512.0 6.0 362.0 
230.00033353340314 211195.0 NaN 1531.3587174348702 2.161356472947122 513.0 6.0 362.0 
232.00059236981082 211180.0 NaN 1534.9044756179023 2.4337845045184716 511.0 7.0 362.0 
234.00059236981082 211182.0 NaN 1534.835003340012 2.179334879985508 510.0 7.0 362.0 
236.000084666035 211179.0 NaN 1541.036740146961 2.2665657954824523 510.0 8.0 363.0 
238.00059236981082 211229.0 NaN 1534.629258517036 1.9404075023968206 510.0 7.0 362.0 
240.00033353340314 211223.0 NaN 1528.5023380093521 2.901356529371336 511.0 6.0 361.0 
242.00059236981082 211255.0 NaN 1531.695390781564 1.6900496551486694 507.0 7.0 361.0 
244.00059236981082 211225.0 NaN 1531.5778223112907 2.8990879513799137 508.0 7.0 361.0 
246.000084666035 211246.0 NaN 1531.7167668670666 1.5155753600725037 510.0 8.0 360.0 
248.00059236981082 211243.0 NaN 1531.5297261189062 2.6610668135598465 509.0 7.0 361.0 
250.00033353340314 211311.0 NaN 1528.4702738810938 2.149115284297638 510.0 6.0 361.0 
252.00059236981082 211330.0 NaN 1528.5584502338 2.4228090630962744 511.0 7.0 360.0 
254.00059236981082 211329.0 NaN 1525.3466933867728 2.162938067687198 510.0 7.0 359.0 
256.00008466603504 211319.0 NaN 1525.4909819639272 2.247219305434945 512.0 7.0 359.0 
258.0005923698108 211339.0 NaN 1525.2879091516363 1.9187863846132345 510.0 7.0 359.0 
260.00033353340314 211343.0 NaN 1525.3012692050756 2.885697697544781 512.0 6.0 360.0 
262.0005923698108 211365.0 NaN 1525.6566466265874 1.6840572285818876 512.0 6.0 360.0 
264.0005923698108 211324.0 NaN 1525.5444221776904 2.900301932689261 513.0 6.0 360.0 
266.00008466603504 211343.0 NaN 1525.5925183700729 1.5134604934469167 516.0 4.0 362.0 
268.0005923698108 211357.0 NaN 1525.357381429527 2.659968923525707 514.0 5.0 361.0 
270.00033353340314 211478.0 NaN 1534.67468269873 2.1445722025823892 510.0 6.0 363.0 
272.0005923698108 211484.0 NaN 1534.7682030728117 2.426985216504221 510.0 6.0 363.0 
274.0005923698108 211493.0 NaN 1537.6940547762183 2.160549114583532 510.0 6.0 364.0 
276.00008466603504 211497.0 NaN 1531.6152304609209 2.2513522154895647 511.0 4.0 364.0 
278.0005923698108 211557.0 NaN 1537.5551102204388 1.922679702496915 511.0 5.0 365.0 
280.00033353340314 211561.0 NaN 1537.5497661990635 2.883088983579422 510.0 6.0 364.0 
282.0005923698108 211598.0 NaN 1540.841683366734 1.6909747508432225 511.0 6.0 365.0 
284.0005923698108 211561.0 NaN 1540.7722110888456 2.8972431744337737 511.0 6.0 365.0 
286.00008466603504 211583.0 NaN 1534.6880427521726 1.5234487757529165 513.0 4.0 365.0 
288.0005923698108 211575.0 NaN 1534.4849699398817 2.6658742306333636 512.0 5.0 364.0 
290.00033353340314 211618.0 NaN 1531.4201736806933 2.15090307467162 510.0 6.0 362.0 
292.0005923698108 211602.0 NaN 1531.7434869739475 2.430745155966083 510.0 6.0 362.0 
294.0005923698108 211612.0 NaN 1531.6205744823 2.1688228925673787 509.0 6.0 362.0 
296.00008466603504 211583.0 NaN 1531.6820307281248 2.26038305241572 510.0 5.0 363.0 
298.0005923698108 211623.0 NaN 1534.6319305277207 1.9340436825288068 508.0 5.0 364.0 
300.00033353340314 211619.0 NaN 1534.6479625918519 2.895598652776882 507.0 6.0 363.0 
302.0005923698108 211640.0 NaN 1534.6239144956571 1.706136948435635 506.0 6.0 363.0 
304.0005923698108 211579.0 NaN 1534.5143620574477 2.9173868311340945 505.0 6.0 363.0 
306.00008466603504 211583.0 NaN 1531.6419505678 1.5393002047251674 507.0 5.0 363.0 
308.0005923698108 211559.0 NaN 1534.538410153639 2.682775947788576 505.0 5.0 364.0 
310.00033353340314 211603.0 NaN 1528.400801603207 2.1659904298294475 504.0 6.0 361.0 
312.0005923698108 211582.0 NaN 1531.6793587174363 2.450800553558367 503.0 7.0 361.0 
314.0005923698108 211595.0 NaN 1531.5136940547752 2.188222425570601 502.0 7.0 361.0 
316.00008466603504 211541.0 NaN 1531.5350701402817 2.2746995831977492 501.0 7.0 361.0 
318.0005923698108 211584.0 NaN 1531.2999331997335 1.9426419121362828 503.0 6.0 362.0 
320.00033353340314 211563.0 NaN 1531.3026052104208 2.902237453393781 502.0 6.0 362.0 
322.0005923698108 211586.0 NaN 1537.8329993319976 1.7125570386896654 502.0 6.0 364.0 
324.0005923698108 211547.0 NaN 1537.734134936539 2.9229296803851748 501.0 6.0 364.0 
326.00008466603504 211538.0 NaN 1537.7555110220455 1.5480352625087952 504.0 5.0 365.0 
328.0005923698108 211489.0 NaN 1537.5711422845702 2.682842526946482 504.0 5.0 365.0 
330.00033353340314 211525.0 NaN 1537.6112224448912 2.168165994391651 502.0 6.0 364.0 
332.0005923698108 211480.0 NaN 1537.88376753507 2.4414385153294984 501.0 7.0 363.0 
334.0005923698108 211476.0 NaN 1537.7341349365392 2.180259673936813 502.0 7.0 363.0 
336.00008466603504 211459.0 NaN 1528.6332665330663 2.2730146592340734 502.0 7.0 360.0 
338.0005923698108 211506.0 NaN 1528.5050100200394 1.946817517052022 503.0 6.0 361.0 
340.00033353340314 211482.0 NaN 1519.2758851035392 2.8990403088330887 504.0 6.0 358.0 
342.0005923698108 211465.0 NaN 1528.7348029392117 1.7130400743626144 505.0 6.0 361.0 
344.0005923698108 211401.0 NaN 1528.5557782231122 2.911340658167549 505.0 6.0 361.0 
346.00008466603504 211384.0 NaN 1531.772879091518 1.5403763613732526 506.0 5.0 363.0 
348.0005923698108 211362.0 NaN 1528.5718102872424 2.6750012207513723 505.0 5.0 362.0 
350.00033353340314 211392.0 NaN 1525.5150300601188 2.165580930851438 505.0 6.0 360.0 
352.0005923698108 211352.0 NaN 1525.3894455577818 2.4361667820676196 505.0 6.0 360.0 
354.0005923698108 211360.0 NaN 1525.2024048096182 2.185300798997273 510.0 6.0 360.0 
356.00008466603504 211316.0 NaN 1525.4455577822305 2.270374226618385 511.0 5.0 361.0 
358.0005923698108 211354.0 NaN 1525.4054776219095 1.9439409493985353 510.0 5.0 361.0 
360.00033353340314 211345.0 NaN 1522.3540414161644 2.8868614205496126 508.0 6.0 359.0 
362.0005923698108 211348.0 NaN 1525.4615898463605 1.7127121801552199 508.0 6.0 360.0 
364.0005923698108 211296.0 NaN 1522.3032732130916 2.9052213193657384 508.0 6.0 359.0 
366.00008466603504 211269.0 NaN 1522.3406813627266 1.5439223871954375 513.0 3.0 362.0 
368.0005923698108 211229.0 NaN 1512.9939879759522 2.6666501511780902 514.0 3.0 359.0 
370.00033353340314 211258.0 NaN 1506.883099532399 2.1585164246474546 512.0 5.0 355.0 
372.0005923698108 211227.0 NaN 1509.990647962591 2.4373723921941157 510.0 7.0 354.0 
374.0005923698108 211234.0 NaN 1509.9345357381433 2.1808944801745023 507.0 7.0 354.0 
376.00008466603504 211189.0 NaN 1509.9959919839669 2.2809775543116024 511.0 5.0 356.0 
378.0005923698108 211210.0 NaN 1509.7287909151637 1.9462649381757025 515.0 4.0 357.0 
380.00033353340314 211204.0 NaN 1509.7368069472273 2.9022032526975967 514.0 5.0 356.0 
382.0005923698108 211210.0 NaN 1510.0387441549758 1.7245286434343516 512.0 6.0 355.0 
384.0005923698108 211141.0 NaN 1509.9959919839669 2.9174455642024615 510.0 6.0 355.0 
386.00008466603504 211155.0 NaN 1522.3513694054789 1.5640634583582884 513.0 5.0 360.0 
388.0005923698108 211153.0 NaN 1512.8390113560454 2.693619826440423 515.0 4.0 358.0 
390.00033353340314 211181.0 NaN 1506.7040748163 2.1885380838769914 515.0 5.0 355.0 
392.0005923698108 211135.0 NaN 1513.333333333334 2.4630219230712878 512.0 6.0 356.0 
394.0005923698108 211126.0 NaN 1513.2505010020031 2.20800460815059 511.0 6.0 356.0 
396.00008466603504 211043.0 NaN 1513.3119572478279 2.311821924058888 513.0 5.0 357.0 
398.0005923698108 211101.0 NaN 1513.047428189712 1.979759760412227 516.0 4.0 358.0 
400.00033353340314 211113.0 NaN 1513.039412157648 2.9318354941228613 516.0 5.0 357.0 
402.0005923698108 211068.0 NaN 1513.1730126920515 1.7563874226045362 515.0 6.0 356.0 
404.0005923698108 210917.0 NaN 1516.157648630594 2.953010560585028 514.0 6.0 357.0 
406.00008466603504 210901.0 NaN 1522.4074816299274 1.5943005421090453 516.0 5.0 360.0 
408.0005923698108 210913.0 NaN 1522.225784903139 2.697755031546567 519.0 4.0 361.0 
410.00033353340314 210954.0 NaN 1522.2525050100187 2.1829834649400772 518.0 5.0 360.0 
412.0005923698108 210897.0 NaN 1525.4936539746177 2.4527930812140832 518.0 6.0 360.0 
414.0005923698108 210892.0 NaN 1528.5050100200394 2.1929846191802396 516.0 6.0 361.0 
416.00008466603504 210790.0 NaN 1522.3941215764878 2.295691573620647 518.0 6.0 359.0 
418.0005923698108 210875.0 NaN 1525.2344689378751 1.9544098193478687 523.0 4.0 362.0 
420.00033353340314 210874.0 NaN 1519.1182364729455 2.912020638584706 524.0 5.0 359.0 
422.0005923698108 210873.0 NaN 1513.0981963927848 1.735681376922976 522.0 6.0 356.0 
424.0005923698108 210807.0 NaN 1509.9104876419512 2.922674199359216 521.0 6.0 355.0 
426.00008466603504 210834.0 NaN 1506.9258517034077 1.5733928295264261 521.0 5.0 355.0 
428.0005923698108 210788.0 NaN 1512.8603874415492 2.684965277373826 520.0 4.0 358.0 
430.00033353340314 210803.0 NaN 1506.7628590514364 2.1745710344867666 515.0 5.0 355.0 
432.0005923698108 210747.0 NaN 1504.0587842351365 2.4598530183762195 515.0 6.0 353.0 
434.0005923698108 210754.0 NaN 1506.9926519706084 2.1883997397150394 516.0 6.0 354.0 
436.00008466603504 210649.0 NaN 1522.3406813627264 2.296102606467297 520.0 5.0 360.0 
438.0005923698108 210679.0 NaN 1525.2211088844363 1.9578712433740926 523.0 4.0 362.0 
440.00033353340314 210651.0 NaN 1519.1369405477628 2.8979665936818577 522.0 5.0 359.0 
442.0005923698108 210679.0 NaN 1519.4308617234462 1.7337816234583618 523.0 6.0 358.0 
444.0005923698108 210686.0 NaN 1522.3540414161646 2.9146786921101207 522.0 6.0 359.0 
446.00008466603504 210661.0 NaN 1528.5637942551757 1.5776881387539272 521.0 5.0 362.0 
448.0005923698108 210612.0 NaN 1537.5898463593849 2.681710152235787 524.0 4.0 366.0 
450.00033353340314 210646.0 NaN 1540.6840347361388 2.1669303583156982 524.0 5.0 366.0 
452.0005923698108 210630.0 NaN 1550.0013360053451 2.4598153386149537 525.0 5.0 369.0 
454.0005923698108 210671.0 NaN 1549.8784235136936 2.19614392946634 524.0 5.0 369.0 
456.00008466603504 210646.0 NaN 1553.092852371409 2.310577796059206 525.0 3.0 372.0 
458.0005923698108 210663.0 NaN 1552.8577154308634 1.9703996275569167 526.0 3.0 372.0 
460.00033353340314 210633.0 NaN 1549.8436873747485 2.9096195608094906 524.0 5.0 369.0 
462.0005923698108 210636.0 NaN 1550.0921843687363 1.7565372613451642 522.0 5.0 369.0 
464.0005923698108 210623.0 NaN 1549.9265197060793 2.925139987144077 522.0 5.0 369.0 
466.00008466603504 210647.0 NaN 1549.9131596526365 1.611898183655532 525.0 3.0 371.0 
468.0005923698108 210599.0 NaN 1546.6907147628574 2.7042528573965563 524.0 3.0 370.0 
470.00033353340314 210590.0 NaN 1549.7902471609905 2.1972915696426463 524.0 5.0 369.0 
472.0005923698108 210523.0 NaN 1540.8684034736152 2.47526479428228 521.0 5.0 366.0 
474.0005923698108 210555.0 NaN 1534.6132264529067 2.2146308425741656 519.0 5.0 364.0 
476.00008466603504 210459.0 NaN 1531.5457581830335 2.3174988109068098 519.0 3.0 365.0 
478.0005923698108 210488.0 NaN 1531.2518370073478 1.9774332203998228 519.0 3.0 365.0 
480.00033353340314 210440.0 NaN 1528.1816967267878 2.9017619028072197 515.0 5.0 362.0 
482.0005923698108 210436.0 NaN 1525.4615898463608 1.756339437639774 517.0 4.0 362.0 
484.0005923698108 210428.0 NaN 1513.1222444889788 2.9242625245616214 516.0 5.0 357.0 
486.00008466603504 210427.0 NaN 1516.309953239812 1.607637228805545 516.0 2.0 361.0 
488.0005923698108 210391.0 NaN 1512.9993319973273 2.6919165192064476 514.0 3.0 359.0 
490.00033353340314 210486.0 NaN 1500.7535070140275 2.18591201270335 512.0 5.0 353.0 
492.0005923698108 210417.0 NaN 1497.7902471609898 2.4753950560483644 514.0 4.0 353.0 
494.0005923698108 210450.0 NaN 1497.6138944555787 2.1995250173065206 513.0 5.0 352.0 
496.00008466603504 210410.0 NaN 1497.7902471609898 2.3176677780491186 514.0 2.0 355.0 
498.0005923698108 210468.0 NaN 1494.615898463593 1.9699024161364256 513.0 2.0 354.0 
500.00033353340314 210402.0 NaN 1491.535070140281 2.8856595095259916 511.0 4.0 351.0 
502.0005923698108 210375.0 NaN 1491.647294589179 1.751743179339784 511.0 4.0 351.0 
504.0005923698108 210342.0 NaN 1488.3847695390791 2.8981806818556723 509.0 5.0 349.0 
506.00008466603504 210385.0 NaN 1485.4642618570465 1.600168492523714 514.0 2.0 351.0 
508.0005923698108 210353.0 NaN 1488.4114896459578 2.668691967179588 514.0 2.0 352.0 
510.00033353340314 210413.0 NaN 1485.2905811623252 2.158663623005274 515.0 4.0 349.0 
512.0005923698109 210353.0 NaN 1488.5477621910477 2.4638879416982427 513.0 4.0 350.0 
514.0005923698109 210382.0 NaN 1491.580494321979 2.1784129927267317 510.0 5.0 350.0 
516.000084666035 210332.0 NaN 1482.4101536406154 2.3059572486321294 515.0 2.0 350.0 
518.0005923698109 210376.0 NaN 1476.064128256512 1.956489338437832 510.0 3.0 347.0 
520.0003335334031 210344.0 NaN 1466.8082832331336 2.8672141227901022 509.0 5.0 342.0 
522.0005923698109 210342.0 NaN 1463.938543754174 1.75931880236045 507.0 4.0 342.0 
524.0005923698109 210316.0 NaN 1454.7014028056103 2.8882339345026873 506.0 5.0 338.0 
526.000084666035 210375.0 NaN 1451.6259185036733 1.5993037940099435 510.0 1.0 341.0 
528.0005923698109 210336.0 NaN 1451.305277221109 2.675837489261792 507.0 2.0 340.0 
530.0003335334031 210380.0 NaN 1454.3647294589182 2.1564914845632974 504.0 4.0 339.0 
532.0005923698109 210380.0 NaN 1457.9185036740155 2.4858575035226886 503.0 5.0 339.0 
534.0005923698109 210462.0 NaN 1457.8677354709425 2.185906120202626 505.0 5.0 339.0 
536.000084666035 210479.0 NaN 1457.8704074816294 2.322671601266286 511.0 1.0 343.0 
538.0005923698109 210497.0 NaN 1463.7515030060115 1.9682228291644894 511.0 2.0 344.0 
540.0003335334031 210478.0 NaN 1463.7408149632606 2.8749469678144948 508.0 4.0 342.0 
542.0005923698109 210474.0 NaN 1467.206412825652 1.7612358927332203 509.0 5.0 342.0 
544.0005923698109 210458.0 NaN 1470.2471609886445 2.8916458930734437 509.0 5.0 343.0 
546.000084666035 210449.0 NaN 1479.5270541082168 1.599796215223938 511.0 2.0 349.0 
548.0005923698109 210413.0 NaN 1482.354041416165 2.6793737209388273 511.0 3.0 349.0 
550.0003335334031 210424.0 NaN 1476.1950567802273 2.1460227255453344 509.0 5.0 345.0 
552.0005923698109 210405.0 NaN 1476.2431529726111 2.4824432267973693 514.0 4.0 346.0 
554.0005923698109 210455.0 NaN 1479.2224448897807 2.1686306962345485 514.0 4.0 347.0 
556.000084666035 210437.0 NaN 1479.390781563127 2.317996337955516 520.0 1.0 350.0 
558.0005923698109 210502.0 NaN 1482.2845691382759 1.9584210856412054 520.0 1.0 351.0 
560.0003335334031 210484.0 NaN 1470.0093520374087 2.866325063279189 518.0 3.0 345.0 
562.0005923698109 210485.0 NaN 1470.100200400801 1.759182663311738 514.0 4.0 344.0 
564.0005923698109 210468.0 NaN 1473.0928523714092 2.883650888638248 510.0 5.0 344.0 
566.000084666035 210558.0 NaN 1476.224448897796 1.601941389093069 513.0 3.0 347.0 
568.0005923698109 210539.0 NaN 1482.1830327321304 2.685461254560063 513.0 3.0 349.0 
570.0003335334031 210569.0 NaN 1482.2444889779554 2.1465213411613986 515.0 5.0 347.0 
572.0005923698109 210561.0 NaN 1482.338009352037 2.487309159492148 518.0 3.0 349.0 
574.0005923698109 210624.0 NaN 1482.3112892451568 2.1760731961269433 518.0 3.0 349.0 
576.000084666035 210569.0 NaN 1494.570474281898 2.3260533517585484 520.0 1.0 355.0 
578.0005923698109 210605.0 NaN 1491.2171008684031 1.9721597280968717 521.0 1.0 354.0 
580.0003335334031 210558.0 NaN 1491.337341349365 2.8651097538901835 521.0 3.0 352.0 
582.0005923698109 210610.0 NaN 1485.5203740814973 1.7673241729432703 523.0 3.0 350.0 
584.0005923698109 210582.0 NaN 1485.472277889111 2.8858649657964723 523.0 3.0 350.0 
586.000084666035 210662.0 NaN 1485.4749498998 1.6083390132448316 528.0 1.0 352.0 
588.0005923698109 210645.0 NaN 1485.3279893119566 2.6870674635472778 527.0 1.0 352.0 
590.0003335334031 210694.0 NaN 1488.3927855711431 2.1409921568405568 528.0 3.0 351.0 
592.0005923698109 210629.0 NaN 1488.5531062124253 2.4818060857523987 528.0 4.0 350.0 
594.0005923698109 210704.0 NaN 1488.4836339345363 2.1635056745500894 529.0 4.0 350.0 
596.000084666035 210687.0 NaN 1491.6419505678014 2.3278122804025854 531.0 1.0 354.0 
598.0005923698109 210718.0 NaN 1482.1242484969935 1.9697490768821602 533.0 1.0 351.0 
600.0003335334031 210682.0 NaN 1485.2611890447558 2.8656460836334863 529.0 3.0 350.0 
602.0005923698109 210722.0 NaN 1482.2818971275888 1.7652084565603987 529.0 4.0 348.0 
604.0005923698109 210701.0 NaN 1482.1803607214433 2.8879705864858645 527.0 4.0 348.0 
606.000084666035 210746.0 NaN 1488.4676018704079 1.609293281433563 530.0 1.0 353.0 
608.0005923698109 210704.0 NaN 1491.4575818303274 2.6867609659852536 529.0 1.0 354.0 
610.0003335334031 210720.0 NaN 1497.6673346693376 2.142285578344892 527.0 3.0 354.0 
612.0005923698109 210669.0 NaN 1491.5858383433542 2.4773403817122013 524.0 4.0 351.0 
614.0005923698109 210718.0 NaN 1494.5811623246484 2.168706977492174 523.0 4.0 352.0 
616.000084666035 210676.0 NaN 1491.5243820975275 2.3210338447764296 527.0 1.0 354.0 
618.0005923698109 210688.0 NaN 1491.3426853707424 1.9690250842183403 528.0 1.0 354.0 
620.0003335334031 210667.0 NaN 1494.4742818971272 2.8621013013466357 527.0 3.0 353.0 
622.0005923698109 210755.0 NaN 1497.7234468937886 1.7683981417770915 528.0 4.0 353.0 
624.0005923698109 210739.0 NaN 1506.8991315965272 2.885333402534772 526.0 3.0 357.0 
626.000084666035 210770.0 NaN 1510.0013360053445 1.6136747655410357 527.0 1.0 360.0 
628.0005923698109 210734.0 NaN 1509.849031396126 2.6943481416663393 529.0 1.0 360.0 
630.0003335334031 210770.0 NaN 1512.9565798263181 2.153196254733901 530.0 3.0 359.0 
632.0005923698109 210761.0 NaN 1513.1222444889788 2.4963100091445813 529.0 4.0 358.0 
634.0005923698109 210828.0 NaN 1516.1336005344012 2.185995537705839 528.0 4.0 359.0 
636.000084666035 210767.0 NaN 1516.2110888443547 2.334601919996717 531.0 2.0 361.0 
638.0005923698109 210755.0 NaN 1515.9919839679362 1.9707299884875278 534.0 1.0 362.0 
640.0003335334031 210751.0 NaN 1516.0454241816979 2.86366359598495 528.0 3.0 360.0 
642.0005923698109 210801.0 NaN 1519.3400133600544 1.7753328806481738 530.0 4.0 360.0 
644.0005923698109 210762.0 NaN 1510.1322645290572 2.8853733566508137 529.0 4.0 357.0 
646.000084666035 210799.0 NaN 1510.191048764194 1.6080145770617975 529.0 2.0 359.0 
648.0005923698109 210736.0 NaN 1516.0748162992647 2.67238917662649 531.0 1.0 362.0 
650.0003335334031 210783.0 NaN 1516.1042084168346 2.137143616090128 525.0 3.0 360.0 
652.0005923698109 210750.0 NaN 1516.1416165664655 2.4754374855817076 521.0 4.0 359.0 
654.0005923698109 210800.0 NaN 1516.0774883099537 2.1583540793099423 521.0 4.0 359.0 
656.000084666035 210760.0 NaN 1516.221776887108 2.3135848398785113 522.0 2.0 361.0 
658.0005923698109 210776.0 NaN 1522.1803607214435 1.940812734111287 523.0 1.0 364.0 
660.0003335334031 210753.0 NaN 1522.1616566466273 2.8372365427571884 519.0 3.0 362.0 
662.0005923698109 210790.0 NaN 1522.3700734802928 1.7517039985982195 519.0 4.0 361.0 
664.0005923698109 210784.0 NaN 1528.4996659986634 2.865212806279652 520.0 4.0 363.0 
#####################################################################
# End of data export. Simulation finished at: 2019-03-05T13:59+0000 #
#####################################################################
