#####################################################################
# Alchemist log file - simulation started at: 2019-03-07T03:40+0000 #
#####################################################################
# seed = 4.0, bandwidth = 1.0E8, propagationDelay = 0.1, baserange = 31.622776601683796
#
# The columns have the following meaning: 
# time neighbor_count[Sum] <value>@neighbor_count[Sum] packet_size[Mean] mean_delay[Mean] crowd[Sum] overcrowded[Sum] risk[Sum] 
0.0 NaN NaN NaN NaN NaN NaN NaN 
2.000333335474768 2764.0 NaN 4995.636606546426 0.5104115199700013 1497.0 0.0 1497.0 
4.000333335474767 2788.0 NaN 4999.858383433534 0.5124509141150283 1493.0 4.0 1493.0 
6.000333255474768 2790.0 NaN 4995.788911155644 0.5124441894912176 1466.0 31.0 1466.0 
8.000333255474768 2790.0 NaN 4996.951235804943 0.5124441965775809 1432.0 65.0 1432.0 
10.00033333547477 2795.0 NaN 4995.396125584502 0.5141728909260417 1430.0 67.0 1430.0 
12.000333255474768 2789.0 NaN 4995.302605210421 0.5127298599986293 1429.0 68.0 1429.0 
14.000333255474768 2790.0 NaN 4994.594522378089 0.5123422492461525 1426.0 71.0 1426.0 
16.00033325547477 2796.0 NaN 4995.048764195057 0.5136453629386637 1415.0 82.0 1415.0 
18.000333175474772 2795.0 NaN 4994.124248496994 0.5152076809181741 1422.0 75.0 1422.0 
20.000333175474772 2799.0 NaN 4995.136940547763 0.514331545233951 1428.0 69.0 1428.0 
22.000333175474772 2793.0 NaN 4993.587174348698 0.5146782658959077 1420.0 77.0 1420.0 
24.000333175474772 2795.0 NaN 4994.965931863728 0.5126309945955657 1419.0 78.0 1419.0 
26.00033325547477 2811.0 NaN 4993.472277889112 0.5155566295929354 1419.0 78.0 1419.0 
28.000333175474772 2800.0 NaN 4994.933867735471 0.5125534833227839 1419.0 78.0 1419.0 
30.000333175474772 2808.0 NaN 4994.060120240481 0.515433780585282 1419.0 78.0 1419.0 
32.00033325547477 2806.0 NaN 4994.338009352037 0.5163295263246083 1419.0 78.0 1419.0 
34.00033317547477 2810.0 NaN 4993.929191716767 0.5131698128190555 1420.0 77.0 1420.0 
36.00033337547477 2830.0 NaN 4994.340681362725 0.5189128525150088 1425.0 72.0 1425.0 
38.00033305547477 2815.0 NaN 4993.774215096861 0.5147013696736299 1425.0 72.0 1425.0 
40.00033305547477 2818.0 NaN 4994.816299265197 0.5150018581701772 1420.0 77.0 1420.0 
42.00033305547477 2815.0 NaN 4993.376085504342 0.516082989669351 1415.0 82.0 1415.0 
44.00033305547477 2822.0 NaN 4994.490313961256 0.5138764583234582 1414.0 83.0 1414.0 
46.00033305547477 2846.0 NaN 4993.579158316633 0.5177758024487422 1410.0 87.0 1410.0 
48.00033321547477 2837.0 NaN 4994.704074816299 0.5160861055944189 1410.0 87.0 1410.0 
50.00033321547477 2848.0 NaN 4993.755511022044 0.5202391208034591 1410.0 87.0 1410.0 
52.00033321547477 2840.0 NaN 4994.204408817635 0.5218405595061545 1410.0 87.0 1410.0 
54.00033321547477 2837.0 NaN 4993.824983299934 0.5216993949107924 1412.0 85.0 1412.0 
56.00033325547477 2848.0 NaN 4994.124248496994 0.5188738982842791 1411.0 86.0 1411.0 
58.00033337547477 2821.0 NaN 4993.9478957915835 0.5138066434587206 1404.0 93.0 1404.0 
60.00033333547477 2828.0 NaN 4994.549098196393 0.513984904913029 1410.0 87.0 1410.0 
62.00029264227007 2835.0 NaN 1521.7795591182362 0.5162042281378559 597.0 83.0 282.0 
64.00029264227007 2836.0 NaN 1521.5524382097542 0.5124692133632277 505.0 86.0 279.0 
66.00029264227007 2855.0 NaN 1524.5851703406818 0.5154677509045487 462.0 85.0 281.0 
68.00029264227007 2848.0 NaN 1524.6038744154996 0.5198561974802541 437.0 79.0 287.0 
70.00029264227007 2849.0 NaN 1524.566466265864 0.5154825970279217 428.0 76.0 290.0 
72.00029264227007 2846.0 NaN 1527.7568470273884 0.520360369380129 413.0 78.0 289.0 
74.00029264227007 2843.0 NaN 1530.6907147628574 0.5148615144465039 408.0 79.0 289.0 
76.00029264227007 2862.0 NaN 1530.7468269873093 0.5203666929926004 410.0 77.0 291.0 
78.00029264227007 2846.0 NaN 1533.7127588510366 0.5195480112715242 405.0 80.0 289.0 
80.00029264227007 2861.0 NaN 1536.8630594522367 0.5194779143516626 402.0 83.0 287.0 
82.00029264227007 2841.0 NaN 1536.7882431529729 0.522885255805501 400.0 85.0 285.0 
84.00029264227007 2833.0 NaN 1536.7828991315969 0.5165366467833351 397.0 85.0 285.0 
86.00029264227007 2830.0 NaN 1536.830995323982 0.5173437229655196 397.0 81.0 289.0 
88.00029264227007 2819.0 NaN 1536.7882431529729 0.5148792331363378 392.0 84.0 286.0 
90.00029264227007 2832.0 NaN 1536.9031396125577 0.5197955136289565 394.0 80.0 290.0 
92.00029264227007 2808.0 NaN 1536.7775551102184 0.52128596348695 391.0 83.0 287.0 
94.00029264227007 2798.0 NaN 1536.7267869071457 0.5166948210590783 390.0 82.0 288.0 
96.00029264227007 2804.0 NaN 1536.7641950567815 0.5215565101104365 390.0 82.0 288.0 
98.00029264227007 2789.0 NaN 1536.7695390781548 0.5152505820621035 385.0 87.0 283.0 
100.00029264227007 2804.0 NaN 1539.8236472945905 0.5224426278335051 388.0 84.0 287.0 
102.00029264227007 2785.0 NaN 1539.9519038076157 0.5203128859835376 388.0 83.0 288.0 
104.00029264227007 2785.0 NaN 1539.7434869739477 0.5172985983653057 382.0 89.0 282.0 
106.00029264227007 2803.0 NaN 1539.828991315964 0.5198882096944344 390.0 81.0 290.0 
108.00029264227007 2799.0 NaN 1539.8476953907818 0.5278116620205678 391.0 80.0 291.0 
110.00029264227007 2810.0 NaN 1539.885103540415 0.5195803783531938 388.0 83.0 288.0 
112.00029264227007 2797.0 NaN 1539.8476953907818 0.5180138175397561 392.0 79.0 292.0 
114.00029264227007 2803.0 NaN 1539.8663994655997 0.5191431247157811 391.0 80.0 291.0 
116.00029264227007 2809.0 NaN 1539.7247828991303 0.523842362303108 396.0 75.0 296.0 
118.00029264227007 2798.0 NaN 1545.8971275885092 0.5258311707454014 392.0 80.0 293.0 
120.00029264227007 2805.0 NaN 1549.0981963927848 0.5236931245638327 395.0 79.0 295.0 
122.00029264227007 2783.0 NaN 1549.002004008018 0.5193517787418142 396.0 80.0 294.0 
124.00029264227007 2788.0 NaN 1548.9752839011364 0.5141717377493957 397.0 78.0 296.0 
126.00029264227007 2798.0 NaN 1549.090180360721 0.51987663747455 400.0 75.0 299.0 
128.00029264227007 2784.0 NaN 1548.9004676018726 0.514518868595637 398.0 77.0 297.0 
130.00029264227007 2793.0 NaN 1546.0334001335998 0.5230377824718709 396.0 78.0 295.0 
132.00029264227007 2775.0 NaN 1542.86706746827 0.528976123572073 393.0 77.0 295.0 
134.00029264227007 2759.0 NaN 1542.9392117568455 0.5180472217680737 390.0 80.0 292.0 
136.00029264227007 2773.0 NaN 1539.7808951235818 0.5205409222989696 393.0 76.0 295.0 
138.00029264227007 2776.0 NaN 1542.8697394789576 0.5214495683104268 388.0 83.0 289.0 
140.00029264227007 2782.0 NaN 1539.8316633266545 0.517902992219234 390.0 79.0 292.0 
142.00029264227007 2813.0 NaN 1546.0280561122245 0.5210554184631109 377.0 92.0 281.0 
144.00029264227007 2809.0 NaN 1549.1569806279213 0.5156026640823355 374.0 94.0 280.0 
146.00029264227007 2814.0 NaN 1545.9986639946549 0.5148795863325335 378.0 90.0 283.0 
148.00029264227007 2824.0 NaN 1552.0908483633937 0.5289946426970498 379.0 89.0 286.0 
150.00029264227007 2830.0 NaN 1552.1870407481638 0.5172608925362279 381.0 86.0 289.0 
152.00029264227007 2842.0 NaN 1549.0420841683363 0.5175479959030104 379.0 88.0 286.0 
154.00029264227007 2836.0 NaN 1549.1035404141637 0.5128706375866617 383.0 85.0 289.0 
156.00029264227007 2846.0 NaN 1542.9712758851028 0.5153795638876131 387.0 81.0 291.0 
158.00029264227007 2846.0 NaN 1542.8456913827638 0.5155426867232966 379.0 90.0 282.0 
160.00029264227007 2858.0 NaN 1543.0247160988636 0.5218570018576978 383.0 86.0 286.0 
162.00029264227007 2846.0 NaN 1542.9739478957906 0.5244774761501173 373.0 95.0 277.0 
164.00029264227007 2811.0 NaN 1542.9205076820303 0.5192075188694989 370.0 97.0 275.0 
166.00029264227007 2809.0 NaN 1545.9612558450242 0.5192341292510901 375.0 91.0 282.0 
168.00029264227007 2814.0 NaN 1543.0086840347365 0.5273152146406468 372.0 92.0 280.0 
170.00029264227007 2819.0 NaN 1543.0941883767546 0.5227255906023593 377.0 86.0 286.0 
172.00029264227007 2803.0 NaN 1542.9552438209753 0.5272771322300465 372.0 91.0 281.0 
174.00029264227007 2785.0 NaN 1536.9378757515026 0.5208259812535138 376.0 86.0 284.0 
176.00029264227007 2778.0 NaN 1539.8503674014703 0.5213561617852348 380.0 82.0 289.0 
178.00029264227007 2771.0 NaN 1539.895791583166 0.5290270173073459 380.0 83.0 288.0 
180.00029264227007 2783.0 NaN 1540.0374081496338 0.5204221493505864 381.0 84.0 287.0 
182.00029264227007 2779.0 NaN 1540.0400801603203 0.520208299747532 378.0 87.0 284.0 
184.00029264227007 2772.0 NaN 1536.9298597194388 0.520973671951246 374.0 91.0 279.0 
186.00029264227007 2770.0 NaN 1539.9919839679364 0.5257247932089083 377.0 88.0 283.0 
188.00029264227007 2760.0 NaN 1536.916499666 0.5159931719759246 373.0 91.0 279.0 
190.00029264227007 2775.0 NaN 1536.8630594522363 0.5212850313861337 373.0 91.0 279.0 
192.00029264227007 2758.0 NaN 1540.0374081496336 0.526082645528826 375.0 91.0 280.0 
194.00029264227007 2753.0 NaN 1539.8557114228454 0.520423915801796 370.0 93.0 278.0 
196.00029264227007 2763.0 NaN 1539.9679358717453 0.5223053638425135 371.0 92.0 279.0 
198.00029264227007 2775.0 NaN 1539.8610554442212 0.5259820539694268 370.0 94.0 277.0 
200.00029264227007 2779.0 NaN 1539.906479625918 0.5186523745931365 368.0 94.0 277.0 
202.00029264227007 2777.0 NaN 1546.1189044756184 0.5221113150533027 366.0 97.0 276.0 
204.00029264227007 2782.0 NaN 1549.1569806279208 0.5163787489284201 371.0 95.0 279.0 
206.00029264227007 2794.0 NaN 1549.0607882431545 0.5272516772703445 376.0 90.0 284.0 
208.00029264227007 2774.0 NaN 1539.9144956579817 0.5258221965951161 369.0 97.0 274.0 
210.00029264227007 2774.0 NaN 1539.9973279893115 0.521892796528914 367.0 96.0 275.0 
212.00029264227007 2769.0 NaN 1543.0621242484974 0.5377837844448401 365.0 99.0 273.0 
214.00029264227007 2738.0 NaN 1542.9098196392792 0.5228909689821304 361.0 104.0 268.0 
216.00029264227007 2744.0 NaN 1542.9178356713428 0.5188441430765128 373.0 93.0 279.0 
218.00029264227007 2754.0 NaN 1539.8583834335338 0.5198555992216785 369.0 96.0 275.0 
220.00029264227007 2770.0 NaN 1540.024048096191 0.5229885731961595 368.0 96.0 275.0 
222.00029264227007 2772.0 NaN 1536.9138276553092 0.5233681442201935 370.0 96.0 274.0 
224.00029264227007 2760.0 NaN 1536.9271877087517 0.5188470875673792 372.0 92.0 278.0 
226.00029264227007 2763.0 NaN 1539.9198396793574 0.5227490574770602 363.0 99.0 272.0 
228.00029264227007 2757.0 NaN 1546.0120240480976 0.5358973117781002 363.0 100.0 273.0 
230.00029264227007 2751.0 NaN 1546.1162324649297 0.5180207980203834 368.0 95.0 278.0 
232.00029264227007 2758.0 NaN 1546.1002004008 0.5277427144531118 367.0 96.0 277.0 
234.00029264227007 2738.0 NaN 1549.0634602538425 0.5208522401042229 367.0 95.0 279.0 
236.00029264227007 2746.0 NaN 1545.9505678022726 0.5196912451825927 367.0 92.0 281.0 
238.00029264227007 2743.0 NaN 1542.9712758851024 0.5268449153735283 362.0 97.0 275.0 
240.00029264227007 2740.0 NaN 1539.877087508348 0.5255982601190734 366.0 94.0 277.0 
242.00029264227007 2718.0 NaN 1539.8663994656 0.5246484738660709 363.0 96.0 275.0 
244.00029264227007 2706.0 NaN 1536.7054108216453 0.5182812201596942 361.0 99.0 271.0 
246.00029264227007 2714.0 NaN 1536.7160988643973 0.5213963594626085 367.0 92.0 278.0 
248.00029264227007 2713.0 NaN 1536.7588510354028 0.52073603223804 365.0 91.0 279.0 
250.00029264227007 2717.0 NaN 1533.6887107548432 0.5202043754585172 365.0 93.0 276.0 
252.00029264227007 2704.0 NaN 1530.6506346025367 0.5296877215361331 365.0 92.0 276.0 
254.00029264227007 2698.0 NaN 1527.5430861723455 0.5282396052555063 363.0 93.0 274.0 
256.0002926422701 2723.0 NaN 1527.5083500334 0.5240723795316659 364.0 93.0 274.0 
258.0002926422701 2726.0 NaN 1527.5110220440883 0.5291503146264943 368.0 91.0 276.0 
260.0002926422701 2712.0 NaN 1524.5931863727455 0.5301305316493214 371.0 89.0 277.0 
262.0002926422701 2701.0 NaN 1527.5190380761544 0.5411810162071325 367.0 91.0 276.0 
264.0002926422701 2676.0 NaN 1527.489645958582 0.5215683055469916 380.0 80.0 287.0 
266.0002926422701 2702.0 NaN 1536.8577154308634 0.5284041024945978 382.0 76.0 294.0 
268.0002926422701 2702.0 NaN 1542.8670674682705 0.5226699115789823 380.0 79.0 293.0 
270.0002926422701 2699.0 NaN 1542.888443553773 0.5298215992946879 385.0 75.0 297.0 
272.0002926422701 2697.0 NaN 1536.7855711422842 0.5429002298484584 382.0 77.0 293.0 
274.0002926422701 2666.0 NaN 1536.694722778891 0.5233592449553369 378.0 80.0 290.0 
276.0002926422701 2669.0 NaN 1536.7775551102181 0.5308027404479027 379.0 77.0 293.0 
278.0002926422701 2656.0 NaN 1539.8076152304614 0.5437714692359517 376.0 80.0 291.0 
280.0002926422701 2648.0 NaN 1539.8370073480273 0.5283545375463223 376.0 83.0 288.0 
282.0002926422701 2644.0 NaN 1539.7942551770204 0.5371715635639388 381.0 81.0 290.0 
284.0002926422701 2624.0 NaN 1539.7434869739475 0.5276532391747344 385.0 77.0 294.0 
286.0002926422701 2629.0 NaN 1533.6539746158999 0.5275170539687379 382.0 77.0 292.0 
288.0002926422701 2612.0 NaN 1533.621910487643 0.5292650896731125 383.0 73.0 296.0 
290.0002926422701 2622.0 NaN 1533.6245824983296 0.5242266755522816 387.0 68.0 301.0 
292.0002926422701 2619.0 NaN 1530.5998663994637 0.5261488620994804 381.0 73.0 295.0 
294.0002926422701 2612.0 NaN 1536.7641950567818 0.5207379484750063 383.0 73.0 297.0 
296.0002926422701 2616.0 NaN 1536.689378757516 0.5352628821781202 386.0 71.0 299.0 
298.0002926422701 2614.0 NaN 1539.7087508350025 0.5181387598485688 381.0 77.0 294.0 
300.0002926422701 2626.0 NaN 1539.8931195724795 0.522501685737186 388.0 71.0 300.0 
302.0002926422701 2631.0 NaN 1539.7942551770204 0.5190752914993748 385.0 75.0 296.0 
304.0002926422701 2630.0 NaN 1536.8764195056792 0.5204350006348514 378.0 79.0 291.0 
306.0002926422701 2638.0 NaN 1533.6032064128271 0.5237023204481493 383.0 75.0 294.0 
308.0002926422701 2625.0 NaN 1533.7795591182362 0.5227259072767798 382.0 75.0 294.0 
310.0002926422701 2624.0 NaN 1530.6346025384091 0.524328439033741 381.0 75.0 293.0 
312.0002926422701 2616.0 NaN 1533.6486305945207 0.5252509480155196 379.0 77.0 292.0 
314.0002926422701 2613.0 NaN 1530.5838343353362 0.5213716284584498 382.0 75.0 293.0 
316.0002926422701 2623.0 NaN 1533.6780227120908 0.5188377133133171 386.0 72.0 297.0 
318.0002926422701 2622.0 NaN 1530.6372745490999 0.5149792519133892 386.0 72.0 296.0 
320.0002926422701 2622.0 NaN 1530.6372745490999 0.5297697608580295 388.0 70.0 298.0 
322.0002926422701 2611.0 NaN 1527.5110220440881 0.528687753904313 383.0 73.0 294.0 
324.0002926422701 2603.0 NaN 1527.6072144288573 0.5185625108772406 384.0 72.0 295.0 
326.0002926422701 2611.0 NaN 1527.5190380761544 0.5236437764706755 388.0 68.0 299.0 
328.0002926422701 2597.0 NaN 1530.4903139612547 0.5171781267951177 386.0 70.0 298.0 
330.0002926422701 2613.0 NaN 1530.6265865063453 0.5285575260290626 387.0 70.0 298.0 
332.0002926422701 2612.0 NaN 1524.4702738810938 0.5243629673532733 385.0 71.0 295.0 
334.0002926422701 2618.0 NaN 1530.4983299933183 0.5133841003613001 385.0 71.0 297.0 
336.0002926422701 2634.0 NaN 1524.4676018704085 0.5178871058482227 388.0 69.0 297.0 
338.0002926422701 2635.0 NaN 1524.307281229125 0.5249338711240485 387.0 70.0 296.0 
340.0002926422701 2630.0 NaN 1524.4729458917823 0.5215671557890375 387.0 69.0 297.0 
342.0002926422701 2631.0 NaN 1524.334001336006 0.5259420418072939 385.0 71.0 295.0 
344.0002926422701 2617.0 NaN 1530.5090180360728 0.5242033654880487 388.0 71.0 297.0 
346.0002926422701 2627.0 NaN 1533.5818303273209 0.5222199975730785 392.0 68.0 301.0 
348.0002926422701 2628.0 NaN 1530.5170340681366 0.5200575862786023 389.0 71.0 297.0 
350.0002926422701 2626.0 NaN 1527.5217100868394 0.5182596531492477 389.0 71.0 296.0 
352.0002926422701 2628.0 NaN 1524.3072812291252 0.5300970115877487 389.0 71.0 295.0 
354.0002926422701 2612.0 NaN 1524.387441549766 0.5211775918739013 384.0 75.0 291.0 
356.0002926422701 2632.0 NaN 1524.376753507015 0.5354224949625339 379.0 79.0 287.0 
358.0002926422701 2623.0 NaN 1524.4061456245818 0.5201471856705119 377.0 82.0 284.0 
360.0002926422701 2638.0 NaN 1524.408817635272 0.5347514676395873 382.0 76.0 290.0 
362.0002926422701 2616.0 NaN 1527.5110220440883 0.5259850370152809 377.0 82.0 285.0 
364.0002926422701 2618.0 NaN 1527.4121576486298 0.5216154809606339 377.0 81.0 286.0 
366.0002926422701 2638.0 NaN 1527.4335337341358 0.5228070136726805 383.0 75.0 292.0 
368.0002926422701 2626.0 NaN 1521.333333333334 0.5218851056207627 383.0 76.0 289.0 
370.0002926422701 2634.0 NaN 1518.249832999333 0.5317040404056919 383.0 76.0 288.0 
372.0002926422701 2629.0 NaN 1515.107548430193 0.5416661434032198 382.0 77.0 286.0 
374.0002926422701 2603.0 NaN 1515.1048764195061 0.5172242720556395 382.0 77.0 286.0 
376.0002926422701 2622.0 NaN 1512.0293921175696 0.5271463596362211 385.0 74.0 288.0 
378.0002926422701 2615.0 NaN 1509.0180360721454 0.5318164985899833 383.0 76.0 285.0 
380.0002926422701 2622.0 NaN 1512.1122244488993 0.5234723877126103 384.0 76.0 286.0 
382.0002926422701 2634.0 NaN 1512.0026720106887 0.5299943807762938 384.0 78.0 284.0 
384.0002926422701 2631.0 NaN 1515.1877087508358 0.5185451020660541 390.0 75.0 288.0 
386.0002926422701 2653.0 NaN 1518.1883767535085 0.5246733621377855 393.0 71.0 293.0 
388.0002926422701 2651.0 NaN 1518.388777555109 0.5318971720558661 391.0 74.0 290.0 
390.0002926422701 2651.0 NaN 1515.174348697394 0.5268090306286832 387.0 75.0 288.0 
392.0002926422701 2645.0 NaN 1515.3293253173003 0.5393400274169087 385.0 77.0 286.0 
394.0002926422701 2621.0 NaN 1515.2171008684031 0.5238318007202245 388.0 74.0 289.0 
396.0002926422701 2649.0 NaN 1518.231128924516 0.5276512560038786 391.0 71.0 293.0 
398.0002926422701 2645.0 NaN 1512.0801603206423 0.5228527091376373 388.0 76.0 286.0 
400.0002926422701 2655.0 NaN 1512.1790247161 0.5261047249653876 386.0 78.0 284.0 
402.0002926422701 2644.0 NaN 1515.219772879091 0.5365645185315828 394.0 72.0 291.0 
404.0002926422701 2630.0 NaN 1515.2464929859727 0.521401368729638 398.0 70.0 293.0 
406.0002926422701 2655.0 NaN 1515.2224448897814 0.527434730160039 398.0 70.0 293.0 
408.0002926422701 2638.0 NaN 1518.420841683366 0.5305477796612914 400.0 68.0 296.0 
410.0002926422701 2634.0 NaN 1521.349365397463 0.5269096109786362 409.0 60.0 305.0 
412.0002926422701 2636.0 NaN 1527.722110888445 0.5319621758441652 407.0 63.0 304.0 
414.0002926422701 2634.0 NaN 1530.6907147628574 0.5324816107271637 410.0 60.0 308.0 
416.0002926422701 2634.0 NaN 1533.7822311289246 0.5362626796400826 413.0 58.0 311.0 
418.0002926422701 2608.0 NaN 1518.2551770207092 0.518101872985095 407.0 64.0 300.0 
420.0002926422701 2628.0 NaN 1515.3079492317975 0.518527797842536 405.0 62.0 301.0 
422.0002926422701 2624.0 NaN 1515.219772879091 0.5287409783315924 405.0 64.0 299.0 
424.0002926422701 2620.0 NaN 1515.1529726118908 0.5164954539987587 405.0 67.0 296.0 
426.0002926422701 2646.0 NaN 1512.04008016032 0.5288377904483637 408.0 65.0 297.0 
428.0002926422701 2630.0 NaN 1515.2705410821636 0.5320074755142056 406.0 66.0 297.0 
430.0002926422701 2650.0 NaN 1515.1315965263848 0.5303027633667863 408.0 66.0 297.0 
432.0002926422701 2625.0 NaN 1515.2304609218445 0.5460709815795488 405.0 72.0 291.0 
434.0002926422701 2609.0 NaN 1521.2959251837 0.5236755123103961 410.0 67.0 298.0 
436.0002926422701 2620.0 NaN 1524.288577154309 0.535220066482965 407.0 68.0 298.0 
438.0002926422701 2610.0 NaN 1527.5083500334 0.5284804259687117 403.0 71.0 296.0 
440.0002926422701 2644.0 NaN 1527.4575818303274 0.5316369234263828 411.0 66.0 301.0 
442.0002926422701 2638.0 NaN 1533.5551102204392 0.5348947367532184 404.0 72.0 297.0 
444.0002926422701 2636.0 NaN 1530.5090180360728 0.5218681082446194 401.0 74.0 294.0 
446.0002926422701 2633.0 NaN 1527.318637274548 0.5335940338332698 408.0 66.0 301.0 
448.0002926422701 2607.0 NaN 1539.8396793587183 0.5304265190076707 401.0 73.0 298.0 
450.0002926422701 2630.0 NaN 1545.9265197060793 0.540142196593664 405.0 72.0 301.0 
452.0002926422701 2596.0 NaN 1549.0607882431543 0.5333181274335009 408.0 70.0 304.0 
454.0002926422701 2590.0 NaN 1548.9806279225118 0.5176318019807619 404.0 72.0 302.0 
456.0002926422701 2596.0 NaN 1549.0153640614546 0.5279453040245811 399.0 76.0 298.0 
458.0002926422701 2579.0 NaN 1549.0394121576483 0.5149045089641022 404.0 71.0 303.0 
460.0002926422701 2598.0 NaN 1549.0794923179699 0.5270239075568782 401.0 76.0 298.0 
462.0002926422701 2584.0 NaN 1545.9211756847026 0.5312381745009729 402.0 74.0 299.0 
464.0002926422701 2575.0 NaN 1542.8189712758845 0.5247041831544204 406.0 70.0 302.0 
466.0002926422701 2578.0 NaN 1545.849031396127 0.5322105179514027 405.0 72.0 301.0 
468.0002926422701 2561.0 NaN 1542.7922511690056 0.5246607330313664 402.0 75.0 297.0 
470.0002926422701 2574.0 NaN 1542.666666666666 0.5384969044026789 408.0 68.0 304.0 
472.0002926422701 2572.0 NaN 1542.738810955245 0.5310747059216893 404.0 73.0 299.0 
474.0002926422701 2555.0 NaN 1533.3653974615909 0.5215187225515892 399.0 76.0 293.0 
476.0002926422701 2572.0 NaN 1527.273213092854 0.5287914132414554 405.0 72.0 295.0 
478.0002926422701 2558.0 NaN 1521.1356045424182 0.5298322338523684 401.0 74.0 291.0 
480.0002926422701 2582.0 NaN 1524.2965931863728 0.5355796536860787 402.0 71.0 295.0 
482.0002926422701 2565.0 NaN 1524.3446893787568 0.5316423690076502 400.0 73.0 293.0 
484.0002926422701 2568.0 NaN 1521.277221108884 0.5285642755263752 398.0 76.0 289.0 
486.0002926422701 2588.0 NaN 1518.1028724114904 0.5350686450381265 406.0 65.0 299.0 
488.0002926422701 2560.0 NaN 1508.9512358049446 0.5144112867899281 401.0 68.0 293.0 
490.0002926422701 2574.0 NaN 1502.8857715430852 0.5255422946424365 401.0 66.0 293.0 
492.0002926422701 2567.0 NaN 1493.629926519707 0.5343560642413 394.0 71.0 285.0 
494.0002926422701 2545.0 NaN 1493.6165664662647 0.5144657540653815 391.0 74.0 282.0 
496.0002926422701 2566.0 NaN 1493.6406145624574 0.5174242228490602 390.0 71.0 285.0 
498.0002926422701 2554.0 NaN 1493.6352705410818 0.5146327329894845 384.0 72.0 284.0 
500.0002926422701 2568.0 NaN 1487.5430861723453 0.5222116953762951 385.0 72.0 282.0 
502.0002926422701 2560.0 NaN 1481.2184368737467 0.5186199355236255 385.0 74.0 278.0 
504.0002926422701 2557.0 NaN 1481.3493653974624 0.5143782008905141 381.0 77.0 275.0 
506.0002926422701 2588.0 NaN 1490.4048096192373 0.5288642749749952 386.0 75.0 280.0 
508.0002926422701 2577.0 NaN 1490.5651302605202 0.5264168107316622 380.0 78.0 277.0 
510.0002926422701 2592.0 NaN 1490.5384101536395 0.5258932701902619 382.0 77.0 278.0 
512.0002926422701 2583.0 NaN 1490.6052104208427 0.5247648982472024 380.0 79.0 276.0 
514.0002926422701 2571.0 NaN 1487.4575818303274 0.5152413166234758 378.0 78.0 276.0 
516.0002926422701 2598.0 NaN 1478.3273213092846 0.5310832083898488 378.0 76.0 275.0 
518.0002926422701 2566.0 NaN 1466.041416165664 0.5178985205502606 376.0 76.0 271.0 
520.0002926422701 2579.0 NaN 1459.8744154976628 0.527445994742787 378.0 71.0 274.0 
522.0002926422701 2571.0 NaN 1459.8770875083487 0.5341578242437023 372.0 72.0 273.0 
524.0002926422701 2560.0 NaN 1463.072812291248 0.5198495090794587 369.0 74.0 272.0 
526.0002926422701 2572.0 NaN 1456.6573146292576 0.5315268381306634 372.0 73.0 271.0 
528.0002926422701 2554.0 NaN 1453.718102872411 0.5250472456531308 375.0 68.0 275.0 
530.0002926422701 2567.0 NaN 1450.5758183032729 0.5239944709439088 379.0 66.0 276.0 
532.0002926422701 2574.0 NaN 1459.8370073480285 0.5305654889713175 378.0 70.0 275.0 
534.0002926422701 2561.0 NaN 1459.8236472945898 0.5251812179073355 377.0 68.0 277.0 
536.0002926422701 2589.0 NaN 1459.8557114228454 0.5330420868480396 383.0 66.0 279.0 
538.0002926422701 2575.0 NaN 1459.9038076152299 0.5216381271917289 379.0 70.0 275.0 
540.0002926422701 2583.0 NaN 1463.0140280561118 0.5226212815720308 382.0 67.0 279.0 
542.0002926422701 2575.0 NaN 1469.0527722110899 0.5305346310881718 383.0 68.0 280.0 
544.0002926422701 2563.0 NaN 1472.0587842351365 0.5195035661318659 385.0 69.0 280.0 
546.0002926422701 2580.0 NaN 1468.9913159652635 0.5253896865848318 389.0 68.0 280.0 
548.0002926422701 2562.0 NaN 1466.0146960587838 0.5280987922131174 381.0 74.0 273.0 
550.0002926422701 2556.0 NaN 1465.9345357381433 0.5256571501312419 377.0 79.0 268.0 
552.0002926422701 2546.0 NaN 1465.862391449565 0.5139739866435151 382.0 72.0 275.0 
554.0002926422701 2558.0 NaN 1465.9986639946553 0.5217137835264116 383.0 74.0 273.0 
556.0002926422701 2573.0 NaN 1468.9298597194384 0.5306726384690118 388.0 69.0 279.0 
558.0002926422701 2560.0 NaN 1466.0253841015365 0.5251601509183382 379.0 76.0 271.0 
560.0002926422701 2567.0 NaN 1462.8964595858376 0.5291936176952678 373.0 78.0 268.0 
562.0002926422701 2562.0 NaN 1459.7969271877091 0.5250111771173888 375.0 77.0 268.0 
564.0002926422701 2573.0 NaN 1456.7535070140275 0.5348707808220183 379.0 76.0 268.0 
566.0002926422701 2558.0 NaN 1462.901803607214 0.5430269142217893 386.0 69.0 277.0 
568.0002926422701 2549.0 NaN 1484.456913827655 0.5228888420859605 382.0 74.0 279.0 
570.0002926422701 2554.0 NaN 1484.5237140948557 0.5225926682885167 385.0 72.0 281.0 
572.0002926422701 2542.0 NaN 1481.520374081497 0.5266930707445866 383.0 75.0 277.0 
574.0002926422701 2542.0 NaN 1478.415497661991 0.5300551312396177 390.0 68.0 283.0 
576.0002926422701 2566.0 NaN 1487.5564462257842 0.5373796984588224 393.0 66.0 288.0 
578.0002926422701 2543.0 NaN 1481.5070140280557 0.5222341375400908 390.0 66.0 286.0 
580.0002926422701 2564.0 NaN 1487.5110220440888 0.5225159301320856 391.0 66.0 288.0 
582.0002926422701 2556.0 NaN 1487.7274549098192 0.5283681660451515 394.0 66.0 288.0 
584.0002926422701 2568.0 NaN 1490.6773547094183 0.5171571128489323 393.0 66.0 289.0 
586.0002926422701 2583.0 NaN 1490.5758183032729 0.5267803244545759 402.0 61.0 294.0 
588.0002926422701 2573.0 NaN 1487.5511022044093 0.526450394696102 397.0 67.0 287.0 
590.0002926422701 2575.0 NaN 1490.6319305277211 0.531288080862108 405.0 60.0 295.0 
592.0002926422701 2560.0 NaN 1490.5330661322637 0.5269581760973173 403.0 63.0 292.0 
594.0002926422701 2570.0 NaN 1493.6619906479634 0.520683554111104 406.0 62.0 294.0 
596.0002926422701 2581.0 NaN 1490.5758183032729 0.5253288558751664 414.0 60.0 295.0 
598.0002926422701 2566.0 NaN 1493.504342017367 0.5139393171087677 411.0 63.0 293.0 
600.0002926422701 2585.0 NaN 1493.6967267869077 0.515180055734778 407.0 67.0 289.0 
602.0002926422701 2580.0 NaN 1502.8964595858376 0.5213395092184097 408.0 67.0 292.0 
604.0002926422701 2583.0 NaN 1502.8269873079485 0.5233094611798977 404.0 68.0 291.0 
606.0002926422701 2591.0 NaN 1502.837675350701 0.5375573226840384 405.0 66.0 293.0 
608.0002926422701 2571.0 NaN 1505.942551770208 0.5138581616991463 399.0 71.0 289.0 
610.0002926422701 2588.0 NaN 1512.157648630594 0.519904903205029 400.0 70.0 292.0 
612.0002926422701 2604.0 NaN 1512.2084168336667 0.5304915975949307 396.0 74.0 288.0 
614.0002926422701 2602.0 NaN 1509.1302605210424 0.5258308347030769 392.0 75.0 286.0 
616.0002926422701 2620.0 NaN 1509.0367401469614 0.5313859443904735 391.0 77.0 284.0 
618.0002926422701 2602.0 NaN 1509.0821643286567 0.518630091282121 393.0 76.0 285.0 
620.0002926422701 2626.0 NaN 1515.1609886439546 0.5421728446495905 397.0 73.0 290.0 
622.0002926422701 2613.0 NaN 1527.5323981295917 0.5327946344449263 389.0 80.0 287.0 
624.0002926422701 2616.0 NaN 1524.4382097528385 0.5225339352249274 387.0 81.0 285.0 
626.0002926422701 2646.0 NaN 1527.4896459585825 0.5477670282703279 393.0 75.0 292.0 
628.0002926422701 2616.0 NaN 1527.5831663326644 0.5275823668249927 389.0 76.0 291.0 
630.0002926422701 2642.0 NaN 1521.4776219104886 0.5403557793902269 396.0 68.0 297.0 
632.0002926422701 2626.0 NaN 1521.360053440215 0.5414283423864902 395.0 67.0 298.0 
634.0002926422701 2630.0 NaN 1524.6092184368727 0.5224666776161869 392.0 71.0 295.0 
636.0002926422701 2672.0 NaN 1521.450901803608 0.5337160029138154 393.0 74.0 291.0 
638.0002926422701 2647.0 NaN 1518.3406813627262 0.5167391536443222 388.0 80.0 284.0 
640.0002926422701 2661.0 NaN 1518.295257181028 0.5377052039124007 385.0 83.0 281.0 
642.0002926422701 2644.0 NaN 1521.3734134936547 0.5276009845221908 389.0 80.0 285.0 
644.0002926422701 2637.0 NaN 1524.4114896459578 0.5222081643261405 390.0 80.0 286.0 
646.0002926422701 2670.0 NaN 1524.3607214428848 0.5391938883430037 397.0 73.0 293.0 
648.0002926422701 2639.0 NaN 1524.472945891783 0.5234439151735492 392.0 78.0 288.0 
650.0002926422701 2635.0 NaN 1521.3306613226455 0.5473855728300517 395.0 71.0 294.0 
652.0002926422701 2597.0 NaN 1524.379425517701 0.5399704364617839 388.0 75.0 291.0 
654.0002926422701 2599.0 NaN 1524.3607214428848 0.523702871931799 390.0 72.0 294.0 
656.0002926422701 2638.0 NaN 1530.479625918503 0.5511334608752388 393.0 70.0 298.0 
658.0002926422701 2639.0 NaN 1546.1162324649292 0.5213761377552488 393.0 70.0 303.0 
660.0002926422701 2644.0 NaN 1545.9772879091527 0.5361037277560412 392.0 71.0 302.0 
662.0002926422701 2641.0 NaN 1546.0253841015365 0.5303637016446708 385.0 77.0 296.0 
664.0002926422701 2632.0 NaN 1542.845691382765 0.5285678267360184 383.0 78.0 294.0 
#####################################################################
# End of data export. Simulation finished at: 2019-03-07T03:45+0000 #
#####################################################################
