#####################################################################
# Alchemist log file - simulation started at: 2019-03-03T04:35+0000 #
#####################################################################
# seed = 1.0, bandwidth = 74989.42093324558, propagationDelay = 0.001, baserange = 10.0
#
# The columns have the following meaning: 
# time neighbor_count[Sum] <value>@neighbor_count[Sum] packet_size[Mean] mean_delay[Mean] crowd[Sum] overcrowded[Sum] risk[Sum] 
0.0 NaN NaN NaN NaN NaN NaN NaN 
10.000417374280275 487.0 NaN 4989.605878423514 0.49962661516092194 1497.0 0.0 1497.0 
20.000417374280275 492.0 NaN 4989.528390113561 0.5301061296776701 1497.0 0.0 1497.0 
30.000417374280275 501.0 NaN 4989.4749498998 0.5195416938644727 1497.0 0.0 1497.0 
40.000417374280275 504.0 NaN 4989.525718102873 0.5462609205260905 1497.0 0.0 1497.0 
50.000417374280275 507.0 NaN 4989.571142284569 0.5251750347226409 1497.0 0.0 1497.0 
60.000417374280275 503.0 NaN 4989.640614562458 0.53747637332473 1497.0 0.0 1497.0 
70.00041737428027 499.0 NaN 596.5370741482959 0.5443279553677267 240.0 0.0 64.0 
80.00041737428027 488.0 NaN 605.6806947227786 0.5546197556442927 144.0 0.0 67.0 
90.00041737428027 490.0 NaN 605.6539746158986 0.5514061484297441 133.0 0.0 67.0 
100.00041737428027 484.0 NaN 602.5758183032726 0.5449832000249857 130.0 0.0 66.0 
110.00041737428027 492.0 NaN 605.6566466265863 0.5395033657457687 123.0 0.0 67.0 
120.00041737428027 482.0 NaN 590.3486973947895 0.5632330254363092 122.0 0.0 62.0 
130.0004173742803 507.0 NaN 605.74749498998 0.5264646636878897 129.0 0.0 67.0 
140.0004173742803 505.0 NaN 605.6993987975956 0.5555428013566996 130.0 0.0 67.0 
150.0004173742803 519.0 NaN 621.0367401469606 0.639641831499494 131.0 0.0 72.0 
160.0004173742803 507.0 NaN 611.8824315297269 0.5705377870227322 127.0 0.0 69.0 
170.0004173742803 509.0 NaN 611.8557114228454 0.6170830989245831 130.0 0.0 69.0 
180.0004173742803 506.0 NaN 608.8176352705409 0.6497626388961998 130.0 0.0 68.0 
190.0004173742803 496.0 NaN 627.2384769539078 0.5932498171783599 127.0 0.0 74.0 
200.0004173742803 508.0 NaN 624.1362725450905 0.5168579720389338 127.0 0.0 73.0 
210.0004173742803 521.0 NaN 627.2598530394122 0.5824541917715876 126.0 0.0 74.0 
220.0004173742803 500.0 NaN 624.152304609218 0.5388212177428494 124.0 0.0 73.0 
230.0004173742803 497.0 NaN 627.2064128256516 0.5663736646137937 125.0 0.0 74.0 
240.0004173742803 510.0 NaN 621.0794923179683 0.601698016604783 118.0 0.0 72.0 
250.0004173742803 515.0 NaN 627.2892451569805 0.6086466603338473 121.0 0.0 74.0 
260.0004173742803 509.0 NaN 630.308617234468 0.5929865536316695 123.0 0.0 75.0 
270.0004173742803 508.0 NaN 630.2712090848363 0.5575693784628449 127.0 0.0 75.0 
280.0004173742803 505.0 NaN 621.0474281897135 0.5889518840242074 123.0 0.0 72.0 
290.0004173742803 499.0 NaN 599.527054108216 0.5320218187060369 117.0 0.0 65.0 
300.0004173742803 498.0 NaN 602.6292585170345 0.6080466458226628 116.0 0.0 66.0 
310.0004173742803 484.0 NaN 605.6726786907135 0.5636960664576971 111.0 0.0 67.0 
320.0004173742803 480.0 NaN 593.3947895791588 0.6620546221622454 113.0 0.0 63.0 
330.0004173742803 475.0 NaN 581.092852371409 0.5864485193989357 108.0 0.0 59.0 
340.0004173742803 494.0 NaN 593.4054776219108 0.5637179598132155 108.0 0.0 63.0 
350.0004173742803 488.0 NaN 590.3246492985978 0.6202700152600414 110.0 0.0 62.0 
360.0004173742803 483.0 NaN 584.1790247160998 0.5651719771612553 110.0 0.0 60.0 
370.0004173742803 487.0 NaN 581.1195724782905 0.5690221575414374 105.0 0.0 59.0 
380.0004173742803 483.0 NaN 584.2565130260523 0.5892818015112193 104.0 0.0 60.0 
390.0004173742803 473.0 NaN 587.3186372745495 0.6022712251636877 104.0 0.0 61.0 
400.0004173742803 494.0 NaN 602.6746826987317 0.643935372453261 112.0 0.0 66.0 
410.0004173742803 484.0 NaN 614.9392117568469 0.5743814417398785 117.0 0.0 70.0 
420.0004173742803 508.0 NaN 630.3273213092864 0.5413608886109185 125.0 0.0 75.0 
430.0004173742803 506.0 NaN 636.43553774215 0.6161693933072053 131.0 0.0 77.0 
440.0004173742803 486.0 NaN 642.5170340681364 0.5454833045500631 130.0 0.0 79.0 
450.0004173742803 493.0 NaN 654.8109552438212 0.5838352096671575 132.0 0.0 83.0 
460.0004173742803 486.0 NaN 648.6172344689372 0.5927401242917896 130.0 0.0 81.0 
470.0004173742803 484.0 NaN 645.5604542418173 0.5710861083210821 127.0 0.0 80.0 
480.0004173742803 472.0 NaN 636.325985303941 0.5604833673931331 126.0 0.0 77.0 
490.0004173742803 474.0 NaN 633.2505010020047 0.5692962983975651 127.0 0.0 76.0 
500.0004173742803 477.0 NaN 614.8830995323984 0.5923543106632814 121.0 0.0 70.0 
510.0004173742803 470.0 NaN 590.2872411489644 0.5396610705171797 116.0 0.0 62.0 
520.0004173742802 471.0 NaN 581.1115564462258 0.5585159776401996 111.0 0.0 59.0 
530.0004173742802 477.0 NaN 578.0681362725451 0.6004985857384463 114.0 0.0 58.0 
540.0004173742802 468.0 NaN 575.011356045424 0.5875995067726613 105.0 0.0 57.0 
550.0004173742802 471.0 NaN 575.0354041416166 0.5803113754597465 101.0 0.0 57.0 
560.0004173742802 471.0 NaN 584.2217768871076 0.6012390229648321 102.0 0.0 60.0 
570.0004173742802 456.0 NaN 584.3019372077489 0.5400545831745877 103.0 0.0 60.0 
580.0004173742802 468.0 NaN 584.2030728122912 0.6202548925929195 105.0 0.0 60.0 
590.0004173742802 470.0 NaN 587.342685370741 0.5890669799226621 108.0 0.0 61.0 
600.0004173742802 479.0 NaN 584.1656646626589 0.6858405128672893 105.0 0.0 60.0 
610.0004173742802 474.0 NaN 599.5831663326658 0.5374286185999204 110.0 0.0 65.0 
620.0004173742802 498.0 NaN 599.5751503006018 0.5383108427700926 115.0 0.0 65.0 
630.0004173742802 480.0 NaN 614.9445557782227 0.6230997353312306 123.0 0.0 70.0 
640.0004173742802 481.0 NaN 627.1716766867066 0.6049259421531614 125.0 0.0 74.0 
650.0004173742802 477.0 NaN 624.1095524382093 0.5978309545402077 131.0 0.0 73.0 
660.0004173742802 472.0 NaN 617.9398797595188 0.5487477634387111 133.0 0.0 71.0 
#####################################################################
# End of data export. Simulation finished at: 2019-03-03T04:39+0000 #
#####################################################################
