#####################################################################
# Alchemist log file - simulation started at: 2019-03-03T04:27+0000 #
#####################################################################
# seed = 1.0, bandwidth = 17782.79410038923, propagationDelay = 10.0, baserange = 316.2277660168379
#
# The columns have the following meaning: 
# time neighbor_count[Sum] <value>@neighbor_count[Sum] packet_size[Mean] mean_delay[Mean] crowd[Sum] overcrowded[Sum] risk[Sum] 
0.0 NaN NaN NaN NaN NaN NaN NaN 
10.000417374280275 NaN NaN 4988.0 NaN 1497.0 0.0 1497.0 
20.000417374280275 51289.0 NaN 4995.492317969271 8.722081914345095 1497.0 0.0 1497.0 
30.000417374280275 51355.0 NaN 4994.468937875751 7.742127050644838 1497.0 0.0 1497.0 
40.000417374280275 51438.0 NaN 4994.172344689378 6.776124082156385 1497.0 0.0 1497.0 
50.000417374280275 51484.0 NaN 4994.533066132264 5.79010199518902 1496.0 1.0 1496.0 
60.000417374280275 51517.0 NaN 4994.784235136941 4.8311701096309605 1497.0 0.0 1497.0 
70.00041737428027 51641.0 NaN 1525.5497661990635 3.8528112211629266 669.0 1.0 365.0 
80.00041737428027 51692.0 NaN 1534.5410821643275 2.9996585786593175 603.0 4.0 365.0 
90.00041737428027 51696.0 NaN 1534.9044756179023 1.9778236900119193 582.0 2.0 367.0 
100.00041737428027 51692.0 NaN 1537.9612558450242 1.105334472780571 554.0 4.0 366.0 
110.00041737428027 51651.0 NaN 1537.7581830327333 6.362292105113981 548.0 5.0 365.0 
120.00041737428027 51633.0 NaN 1540.7267869071459 9.951448698247217 546.0 2.0 369.0 
130.0004173742803 51623.0 NaN 1537.6780227120908 8.937041754388387 535.0 5.0 365.0 
140.0004173742803 51711.0 NaN 1534.7655310621244 7.985103740081033 534.0 3.0 366.0 
150.0004173742803 51730.0 NaN 1546.8136272545091 7.023374670795414 530.0 7.0 366.0 
160.0004173742803 51663.0 NaN 1540.8496993987976 6.001829848126556 531.0 4.0 367.0 
170.0004173742803 51598.0 NaN 1540.6733466933879 5.022718550529416 530.0 5.0 366.0 
180.0004173742803 51498.0 NaN 1540.9806279225118 4.038314547682875 531.0 5.0 366.0 
190.0004173742803 51315.0 NaN 1540.713426853709 3.03269475631675 533.0 2.0 369.0 
200.0004173742803 51209.0 NaN 1538.0066800267182 2.0380695467130234 532.0 1.0 369.0 
210.0004173742803 51116.0 NaN 1534.928523714094 1.131658231637559 528.0 2.0 367.0 
220.0004173742803 50965.0 NaN 1525.3921175684704 6.374627142073153 525.0 2.0 364.0 
230.0004173742803 50811.0 NaN 1528.3901135604547 9.969367139141726 528.0 2.0 365.0 
240.0004173742803 50798.0 NaN 1531.4094856379427 8.995046520003342 524.0 4.0 364.0 
250.0004173742803 50919.0 NaN 1528.5344021376093 8.074953737329436 518.0 3.0 364.0 
260.0004173742803 50892.0 NaN 1522.2391449565816 7.072717216646451 513.0 7.0 358.0 
270.0004173742803 50780.0 NaN 1528.4916499666 6.014495400642548 515.0 8.0 359.0 
280.0004173742803 50736.0 NaN 1528.232464929861 5.072061381436822 514.0 7.0 360.0 
290.0004173742803 50612.0 NaN 1531.556446225784 4.136633018761605 512.0 8.0 360.0 
300.0004173742803 50309.0 NaN 1534.3780895123568 3.0773889042057663 508.0 8.0 361.0 
310.0004173742803 50122.0 NaN 1540.8951235804936 2.0823411522938575 506.0 8.0 363.0 
320.0004173742803 49917.0 NaN 1534.7227788911157 1.1802272144745924 506.0 8.0 361.0 
330.0004173742803 49708.0 NaN 1537.4696058784245 6.40605050761019 508.0 7.0 363.0 
340.0004173742803 49501.0 NaN 1525.3466933867726 9.97574209539153 504.0 7.0 359.0 
350.0004173742803 49368.0 NaN 1522.1028724114906 8.969209158233715 506.0 7.0 358.0 
360.0004173742803 49455.0 NaN 1516.2725450901812 8.052378928590722 506.0 7.0 356.0 
370.0004173742803 49441.0 NaN 1512.8764195056788 7.103510197427709 510.0 7.0 355.0 
380.0004173742803 49342.0 NaN 1503.7942551770204 6.079995389278637 511.0 8.0 351.0 
390.0004173742803 49230.0 NaN 1509.7261189044748 5.074029046936166 512.0 8.0 353.0 
400.0004173742803 49117.0 NaN 1522.2872411489636 4.083780377047973 514.0 7.0 358.0 
410.0004173742803 49055.0 NaN 1528.2538410153636 3.1253892096787728 516.0 7.0 360.0 
420.0004173742803 48997.0 NaN 1519.4281897127576 2.1424622993978564 513.0 7.0 357.0 
430.0004173742803 48891.0 NaN 1510.2284569138274 1.183139080723594 517.0 7.0 354.0 
440.0004173742803 48750.0 NaN 1516.0828323313283 6.366094649801646 517.0 6.0 357.0 
450.0004173742803 48662.0 NaN 1525.3199732798912 9.968396710362606 520.0 10.0 356.0 
460.0004173742803 48598.0 NaN 1531.4789579158307 8.998968160397721 515.0 11.0 357.0 
470.0004173742803 48648.0 NaN 1534.5330661322637 8.049193089744097 515.0 9.0 360.0 
480.0004173742803 48670.0 NaN 1522.2044088176365 7.052957721945443 512.0 8.0 357.0 
490.0004173742803 48669.0 NaN 1506.7922511690056 6.040555067510233 510.0 9.0 351.0 
500.0004173742803 48762.0 NaN 1482.1803607214433 5.038344748300752 516.0 4.0 348.0 
510.0004173742803 48832.0 NaN 1500.777555110219 4.088442202058154 519.0 6.0 352.0 
520.0004173742802 48868.0 NaN 1485.3493653974626 3.086490912559293 513.0 4.0 349.0 
530.0004173742802 48909.0 NaN 1467.1342685370735 2.074823011817789 514.0 5.0 342.0 
540.0004173742802 48904.0 NaN 1464.061456245826 1.1982116866702284 509.0 5.0 341.0 
550.0004173742802 48833.0 NaN 1473.1543086172353 6.392209980994365 510.0 4.0 345.0 
560.0004173742802 48788.0 NaN 1466.9498997995995 9.970474676524415 514.0 5.0 342.0 
570.0004173742802 48858.0 NaN 1476.2244488977965 8.965588306615366 514.0 4.0 346.0 
580.0004173742802 49037.0 NaN 1485.4161656646634 8.066465363142697 511.0 5.0 348.0 
590.0004173742802 49167.0 NaN 1488.4569138276547 7.1535156999692795 521.0 2.0 352.0 
600.0004173742802 49198.0 NaN 1497.5657982631924 6.092621188681057 528.0 2.0 355.0 
610.0004173742802 49241.0 NaN 1506.8643954575818 5.1179892521007915 533.0 2.0 358.0 
620.0004173742802 49223.0 NaN 1512.959251837008 4.1229111743466715 532.0 3.0 359.0 
630.0004173742802 49168.0 NaN 1516.2645290581172 3.1129755046406538 530.0 3.0 360.0 
640.0004173742802 49134.0 NaN 1522.391449565799 2.119542323001493 527.0 7.0 358.0 
650.0004173742802 49018.0 NaN 1522.4448897795605 1.2245029473740667 530.0 3.0 362.0 
660.0004173742802 48919.0 NaN 1525.4295257181018 6.428458781227447 529.0 3.0 363.0 
#####################################################################
# End of data export. Simulation finished at: 2019-03-03T04:44+0000 #
#####################################################################
