#####################################################################
# Alchemist log file - simulation started at: 2019-03-06T22:35+0000 #
#####################################################################
# seed = 4.0, bandwidth = 5623413.251903491, propagationDelay = 0.03162277660168379, baserange = 1000.0
#
# The columns have the following meaning: 
# time neighbor_count[Sum] <value>@neighbor_count[Sum] packet_size[Mean] mean_delay[Mean] crowd[Sum] overcrowded[Sum] risk[Sum] 
0.0 NaN NaN NaN NaN NaN NaN NaN 
2.0004793365590676 209842.0 NaN 4995.668670674682 0.5000543474394366 1497.0 0.0 1497.0 
4.00042902272939 210022.0 NaN 4994.167000668002 0.5004178429569219 1496.0 1.0 1496.0 
6.000479336559067 210022.0 NaN 4993.921175684703 0.5004177065196852 1495.0 2.0 1495.0 
8.000479336559067 210022.0 NaN 4994.575818303273 0.500417610777478 1495.0 2.0 1495.0 
10.000479336559067 210022.0 NaN 4995.722110888443 0.500417627533605 1495.0 2.0 1495.0 
12.000479336559067 210034.0 NaN 4994.84034736139 0.5004149284466157 1496.0 1.0 1496.0 
14.00042902272939 210034.0 NaN 4994.185704742819 0.5004149021837638 1496.0 1.0 1496.0 
16.000479336559067 210048.0 NaN 4994.305945223781 0.5004437904909127 1497.0 0.0 1497.0 
18.000479336559067 210066.0 NaN 4995.302605210421 0.5006158853244683 1497.0 0.0 1497.0 
20.000479336559067 210069.0 NaN 4996.02672010688 0.5007452552580178 1497.0 0.0 1497.0 
22.000479336559067 210073.0 NaN 4994.869739478958 0.5005050460101435 1497.0 0.0 1497.0 
24.000429022729392 210103.0 NaN 4994.172344689378 0.5009996317530416 1496.0 1.0 1496.0 
26.000479336559067 210125.0 NaN 4994.340681362725 0.5006166989551901 1494.0 3.0 1494.0 
28.000479336559067 210138.0 NaN 4995.3319973279895 0.5009140613221613 1494.0 3.0 1494.0 
30.000479336559067 210118.0 NaN 4996.344689378758 0.5005332451526218 1495.0 2.0 1495.0 
32.00047933655907 210130.0 NaN 4994.901803607215 0.5005321594086235 1495.0 2.0 1495.0 
34.00042902272939 210172.0 NaN 4994.092184368737 0.5006439331626731 1495.0 2.0 1495.0 
36.00047933655907 210214.0 NaN 4994.517034068136 0.5005345897320432 1495.0 2.0 1495.0 
38.00047933655907 210260.0 NaN 4995.230460921844 0.5008344751276352 1495.0 2.0 1495.0 
40.00047933655907 210262.0 NaN 4996.435537742151 0.5008737752469462 1495.0 2.0 1495.0 
42.00047933655907 210259.0 NaN 4995.374749498998 0.5005439776082564 1495.0 2.0 1495.0 
44.00042902272939 210277.0 NaN 4994.150968603874 0.5006222794858824 1495.0 2.0 1495.0 
46.00047933655907 210301.0 NaN 4994.193720774883 0.5005552679556102 1495.0 2.0 1495.0 
48.00047933655907 210340.0 NaN 4995.048764195057 0.5007959115542268 1495.0 2.0 1495.0 
50.00047933655907 210342.0 NaN 4996.061456245825 0.5013765551100597 1495.0 2.0 1495.0 
52.00047933655907 210359.0 NaN 4995.078156312626 0.5011512610836056 1495.0 2.0 1495.0 
54.00042902272939 210327.0 NaN 4994.589178356713 0.5014611294604567 1495.0 2.0 1495.0 
56.00047933655907 210342.0 NaN 4994.696058784235 0.5009357393043146 1495.0 2.0 1495.0 
58.00047933655907 210357.0 NaN 4995.2545090180365 0.5009414216973147 1495.0 2.0 1495.0 
60.00047933655907 210353.0 NaN 4993.007348029392 0.5009953809831224 1495.0 2.0 1494.0 
62.00029589711329 210387.0 NaN 1522.4635938543752 0.5016388233356299 776.0 2.0 363.0 
64.00029589711328 210291.0 NaN 1522.3086172344697 0.5008128155138363 620.0 2.0 363.0 
66.00029589711328 210295.0 NaN 1525.5016700066815 0.5007513710951945 583.0 2.0 364.0 
68.00029589711328 210332.0 NaN 1525.611222444891 0.5010246177929742 548.0 2.0 364.0 
70.00029589711328 210282.0 NaN 1525.699398797594 0.501078918136405 533.0 2.0 364.0 
72.00029589711328 210317.0 NaN 1528.8149632598543 0.5009026844411083 531.0 2.0 365.0 
74.00029589711328 210294.0 NaN 1531.7862391449548 0.5007519458904615 529.0 2.0 366.0 
76.00029589711328 210302.0 NaN 1531.7808951235816 0.5006403131741034 529.0 2.0 366.0 
78.00029589711328 210332.0 NaN 1534.7975951903818 0.5008883999636569 528.0 2.0 367.0 
80.00029589711328 210300.0 NaN 1537.8543754175003 0.5005820030412099 529.0 2.0 368.0 
82.00029589711328 210407.0 NaN 1537.88376753507 0.5009965367895394 529.0 2.0 368.0 
84.00029589711328 210363.0 NaN 1537.9692718770877 0.5005565824355547 529.0 3.0 367.0 
86.00029589711328 210364.0 NaN 1537.9158316633273 0.5005571038257819 524.0 4.0 366.0 
88.00029589711328 210380.0 NaN 1537.9185036740153 0.5007018746030821 525.0 3.0 367.0 
90.00029589711328 210390.0 NaN 1537.9425517702089 0.5005207781169031 526.0 2.0 368.0 
92.00029589711328 210529.0 NaN 1537.7982631930543 0.5009575058415883 525.0 3.0 367.0 
94.00029589711328 210476.0 NaN 1537.7261189044755 0.5004823465126297 525.0 3.0 367.0 
96.00029589711328 210481.0 NaN 1537.7688710754842 0.5006111973049321 525.0 3.0 367.0 
98.00029589711328 210486.0 NaN 1537.8517034068152 0.5006065438331871 525.0 3.0 367.0 
100.00029589711328 210479.0 NaN 1540.9378757515026 0.5005895961249425 524.0 4.0 367.0 
102.00029589711328 210652.0 NaN 1540.9512358049453 0.5007554683177604 524.0 4.0 367.0 
104.00029589711328 210629.0 NaN 1540.9539078156304 0.5005682515503791 524.0 4.0 367.0 
106.00029589711328 210632.0 NaN 1541.0126920507666 0.5006077716323842 524.0 4.0 367.0 
108.00029589711328 210628.0 NaN 1541.124916499666 0.5007330678145878 524.0 4.0 367.0 
110.00029589711328 210604.0 NaN 1541.1436205744817 0.5005025640970074 522.0 6.0 365.0 
112.00029589711328 210689.0 NaN 1541.0260521042092 0.5008132386066086 520.0 7.0 364.0 
114.00029589711328 210660.0 NaN 1540.8149632598543 0.5005007666709359 521.0 6.0 365.0 
116.00029589711328 210672.0 NaN 1540.7000668002668 0.5006107949425206 525.0 3.0 368.0 
118.00029589711328 210692.0 NaN 1546.8911155644635 0.5008652813152045 527.0 3.0 370.0 
120.00029589711328 210666.0 NaN 1550.0601202404819 0.5005533027564061 526.0 4.0 370.0 
122.00029589711328 210670.0 NaN 1550.076152304609 0.5007484516986843 526.0 4.0 370.0 
124.00029589711328 210641.0 NaN 1550.1536406145638 0.5005566949913793 527.0 3.0 371.0 
126.00029589711328 210647.0 NaN 1550.3380093520364 0.5006786394396208 527.0 3.0 371.0 
128.0002958971133 210689.0 NaN 1547.2732130928543 0.5007340220210323 526.0 4.0 369.0 
130.0002958971133 210667.0 NaN 1547.2758851035392 0.5005215635674807 526.0 3.0 370.0 
132.0002958971133 210695.0 NaN 1544.1175684702725 0.5007020315685649 525.0 2.0 370.0 
134.0002958971133 210681.0 NaN 1540.8844355377425 0.5006471769660858 525.0 2.0 369.0 
136.0002958971133 210687.0 NaN 1540.8897795591183 0.5006747853087947 524.0 2.0 369.0 
138.0002958971133 210726.0 NaN 1544.053440213761 0.5010353677944771 523.0 2.0 370.0 
140.0002958971133 210712.0 NaN 1541.0340681362727 0.5004993911496216 522.0 2.0 369.0 
142.0002958971133 210737.0 NaN 1547.174348697394 0.5007246275460407 522.0 2.0 371.0 
144.0002958971133 210712.0 NaN 1550.1830327321302 0.5005041597044195 524.0 2.0 372.0 
146.0002958971133 210721.0 NaN 1547.080828323312 0.5005120470015412 523.0 2.0 371.0 
148.0002958971133 210760.0 NaN 1553.3173012692062 0.500850871355778 522.0 2.0 373.0 
150.0002958971133 210739.0 NaN 1553.338677354709 0.5005425313495262 521.0 2.0 373.0 
152.0002958971133 210759.0 NaN 1550.2204408817638 0.5009620531734248 522.0 2.0 372.0 
154.0002958971133 210730.0 NaN 1544.2217768871092 0.5005975606855779 519.0 2.0 370.0 
156.0002958971133 210746.0 NaN 1544.2538410153636 0.5005657299351046 517.0 3.0 369.0 
158.0002958971133 210771.0 NaN 1544.1736806947245 0.5008857199659531 518.0 3.0 369.0 
160.0002958971133 210728.0 NaN 1544.2030728122909 0.5005381302300037 520.0 2.0 370.0 
162.0002958971133 210748.0 NaN 1544.2645290581181 0.5008666048227646 520.0 2.0 370.0 
164.0002958971133 210728.0 NaN 1544.1816967267878 0.5005653908589954 519.0 2.0 370.0 
166.0002958971133 210737.0 NaN 1544.157648630594 0.5005842168448943 519.0 2.0 370.0 
168.0002958971133 210748.0 NaN 1544.1549766199064 0.5008539098084193 518.0 2.0 370.0 
170.0002958971133 210734.0 NaN 1544.1175684702725 0.5004992127769149 518.0 2.0 370.0 
172.0002958971133 210741.0 NaN 1544.0267201068816 0.500572760145233 518.0 2.0 370.0 
174.0002958971133 210735.0 NaN 1537.8784235136934 0.5006001225850452 517.0 2.0 368.0 
176.0002958971133 210748.0 NaN 1541.0501002003998 0.500573862629482 518.0 2.0 369.0 
178.0002958971133 210753.0 NaN 1541.1863727454909 0.5006431208337927 518.0 2.0 369.0 
180.0002958971133 210727.0 NaN 1541.3146292585184 0.500567614735044 518.0 3.0 368.0 
182.0002958971133 210732.0 NaN 1538.223112892452 0.5006300354744468 515.0 4.0 366.0 
184.0002958971133 210725.0 NaN 1538.1082164328636 0.5005760704526735 516.0 3.0 367.0 
186.0002958971133 210726.0 NaN 1541.082164328657 0.5005162602025583 516.0 2.0 369.0 
188.0002958971133 210748.0 NaN 1537.969271877088 0.5006984326987173 516.0 2.0 368.0 
190.0002958971133 210724.0 NaN 1534.8724114896452 0.500460745909515 516.0 2.0 367.0 
192.0002958971133 210726.0 NaN 1537.9398797595181 0.5007049512671808 515.0 2.0 368.0 
194.0002958971133 210697.0 NaN 1537.9372077488301 0.5007394391066794 516.0 2.0 368.0 
196.0002958971133 210699.0 NaN 1537.9665998664002 0.5005215571338206 516.0 2.0 368.0 
198.0002958971133 210713.0 NaN 1538.092184368736 0.5007857447353287 516.0 2.0 368.0 
200.0002958971133 210798.0 NaN 1538.0895123580483 0.500825330193112 516.0 2.0 368.0 
202.0002958971133 210790.0 NaN 1544.1736806947245 0.500621360811905 517.0 2.0 370.0 
204.0002958971133 210773.0 NaN 1547.2224448897819 0.5004291765254774 518.0 2.0 371.0 
206.0002958971133 210769.0 NaN 1544.1656646626573 0.5004398251027764 517.0 2.0 370.0 
208.0002958971133 210778.0 NaN 1538.0440881763543 0.5005990512810878 517.0 2.0 368.0 
210.0002958971133 210840.0 NaN 1538.105544422179 0.5007824063738975 515.0 2.0 368.0 
212.0002958971133 210841.0 NaN 1538.0467601870391 0.5007062875265663 516.0 2.0 368.0 
214.0002958971133 210818.0 NaN 1541.039412157648 0.5012280941321353 516.0 2.0 369.0 
216.0002958971133 210824.0 NaN 1537.969271877088 0.5004761338908446 515.0 2.0 368.0 
218.0002958971133 210856.0 NaN 1537.8917835671361 0.500894429233824 512.0 2.0 368.0 
220.0002958971133 210857.0 NaN 1537.9318637274544 0.5007975378097733 512.0 2.0 368.0 
222.0002958971133 210842.0 NaN 1534.9018036072152 0.5004814694431255 512.0 2.0 367.0 
224.0002958971133 210839.0 NaN 1534.8537074148294 0.500502191306684 512.0 2.0 367.0 
226.0002958971133 210849.0 NaN 1537.8677354709425 0.5006697841108786 512.0 2.0 368.0 
228.0002958971133 210875.0 NaN 1544.0774883099546 0.5005873880643316 513.0 3.0 369.0 
230.0002958971133 210912.0 NaN 1544.1603206412817 0.5011283129866513 512.0 4.0 368.0 
232.0002958971133 210863.0 NaN 1544.2137608550454 0.5005551609281674 511.0 4.0 368.0 
234.0002958971133 210851.0 NaN 1547.3159652638612 0.5004425687508002 511.0 4.0 369.0 
236.0002958971133 210868.0 NaN 1541.1462925851706 0.5007760677116935 510.0 4.0 367.0 
238.0002958971133 210875.0 NaN 1541.1436205744817 0.5008043683561048 510.0 4.0 367.0 
240.0002958971133 210917.0 NaN 1537.969271877088 0.5007101870135475 510.0 4.0 366.0 
242.0002958971133 210917.0 NaN 1534.7922511690058 0.5004327229273811 509.0 4.0 365.0 
244.0002958971133 210930.0 NaN 1534.7601870407482 0.5002623790111824 511.0 4.0 365.0 
246.0002958971133 210969.0 NaN 1534.8002672010698 0.500413589573855 511.0 4.0 365.0 
248.0002958971133 210972.0 NaN 1534.8590514362063 0.5007701572282051 510.0 4.0 365.0 
250.0002958971133 210985.0 NaN 1534.9311957247817 0.5007275650580465 511.0 4.0 365.0 
252.0002958971133 210946.0 NaN 1531.9225116900457 0.5004801217128262 510.0 4.0 364.0 
254.0002958971133 210933.0 NaN 1528.7775551102184 0.5004588281035218 509.0 4.0 363.0 
256.0002958971133 210964.0 NaN 1528.7214428857728 0.5006466815719975 512.0 3.0 364.0 
258.0002958971133 210974.0 NaN 1528.7348029392117 0.5005759552605539 512.0 3.0 364.0 
260.0002958971133 210987.0 NaN 1525.6566466265874 0.5004691218381345 513.0 3.0 363.0 
262.0002958971133 210986.0 NaN 1528.6893787575154 0.500410376507854 513.0 2.0 365.0 
264.0002958971133 211003.0 NaN 1528.748162992652 0.5007786359026616 513.0 3.0 364.0 
266.0002958971133 211035.0 NaN 1544.221776887109 0.5004228206815692 511.0 3.0 369.0 
268.0002958971133 211063.0 NaN 1544.1656646626568 0.5005305838739831 510.0 4.0 368.0 
270.0002958971133 211180.0 NaN 1541.1249164996655 0.5008534413415302 508.0 6.0 365.0 
272.0002958971133 211147.0 NaN 1534.8563794255183 0.5005293665763074 507.0 6.0 363.0 
274.0002958971133 211150.0 NaN 1534.7655310621246 0.5005440581087217 507.0 5.0 364.0 
276.0002958971133 211152.0 NaN 1537.8116232464909 0.5006025826001406 510.0 4.0 366.0 
278.0002958971133 211141.0 NaN 1540.9138276553092 0.5005271922645409 509.0 4.0 367.0 
280.0002958971133 211148.0 NaN 1541.0073480293909 0.5008872391805793 511.0 4.0 367.0 
282.0002958971133 211149.0 NaN 1541.0073480293909 0.5006134786727011 513.0 4.0 367.0 
284.0002958971133 211138.0 NaN 1534.8323313293272 0.5006834621602323 512.0 4.0 365.0 
286.0002958971133 211155.0 NaN 1534.8991315965272 0.5010534929767 511.0 4.0 365.0 
288.0002958971133 211131.0 NaN 1534.8590514362065 0.5007788089898834 510.0 4.0 365.0 
290.0002958971133 211120.0 NaN 1531.7461589846364 0.5009586695632869 507.0 4.0 364.0 
292.0002958971133 211089.0 NaN 1531.778223112891 0.5007716276368619 508.0 4.0 364.0 
294.0002958971133 211052.0 NaN 1537.9559118236455 0.5009221781352103 507.0 5.0 365.0 
296.0002958971133 211043.0 NaN 1537.907815631264 0.5007062632086418 507.0 5.0 365.0 
298.0002958971133 211034.0 NaN 1540.9138276553092 0.5005366574461837 508.0 4.0 367.0 
300.0002958971133 211046.0 NaN 1540.9485637942544 0.5007469121659344 506.0 5.0 366.0 
302.0002958971133 211052.0 NaN 1537.8303273213091 0.500803875268616 506.0 5.0 365.0 
304.0002958971133 211020.0 NaN 1537.8917835671364 0.5016258667900785 505.0 4.0 366.0 
306.0002958971133 210943.0 NaN 1534.917835671343 0.5008634568189385 506.0 4.0 365.0 
308.0002958971133 210919.0 NaN 1531.834335337343 0.5006614908714339 504.0 5.0 363.0 
310.0002958971133 210968.0 NaN 1531.9038076152297 0.5005272575110832 503.0 6.0 362.0 
312.0002958971133 210996.0 NaN 1535.0167000667998 0.5005685932721217 503.0 6.0 363.0 
314.0002958971133 210995.0 NaN 1534.92050768203 0.5005318266439306 505.0 6.0 363.0 
316.0002958971133 210990.0 NaN 1534.8911155644635 0.5007009850780748 505.0 6.0 363.0 
318.0002958971133 210967.0 NaN 1534.880427521709 0.500767849926984 504.0 6.0 363.0 
320.0002958971133 210981.0 NaN 1534.80026720107 0.5006778590663594 504.0 7.0 362.0 
322.0002958971133 210990.0 NaN 1531.6873747495001 0.5008658594044892 504.0 6.0 362.0 
324.0002958971133 210967.0 NaN 1531.660654642618 0.5010901367373716 504.0 6.0 362.0 
326.0002958971133 210935.0 NaN 1531.644622578491 0.5007365042884349 505.0 5.0 363.0 
328.0002958971133 210921.0 NaN 1534.835003340012 0.50063334907903 507.0 3.0 366.0 
330.0002958971133 210937.0 NaN 1528.716098864397 0.5007280446115159 506.0 2.0 365.0 
332.0002958971133 210930.0 NaN 1528.7775551102184 0.5008246018498563 505.0 3.0 364.0 
334.0002958971133 210866.0 NaN 1534.8830995324 0.500721180076503 506.0 4.0 365.0 
336.0002958971133 210857.0 NaN 1525.6299265197065 0.500836602031829 507.0 3.0 363.0 
338.0002958971133 210801.0 NaN 1525.6325985303936 0.5005727386126061 507.0 3.0 363.0 
340.0002958971133 210827.0 NaN 1525.5631262525062 0.5006646548961556 508.0 3.0 363.0 
342.0002958971133 210797.0 NaN 1525.6219104876425 0.5006848484177707 511.0 2.0 364.0 
344.0002958971133 210767.0 NaN 1531.6980627922514 0.500661315069429 514.0 2.0 366.0 
346.0002958971133 210758.0 NaN 1534.7468269873093 0.5005196036133733 514.0 2.0 367.0 
348.0002958971133 210758.0 NaN 1531.7167668670666 0.5003844769960899 513.0 2.0 366.0 
350.0002958971133 210769.0 NaN 1525.6806947227794 0.5006447824167333 512.0 2.0 364.0 
352.0002958971133 210731.0 NaN 1525.7047428189721 0.500994191950835 514.0 3.0 363.0 
354.0002958971133 210685.0 NaN 1525.6486305945211 0.5003897347096643 512.0 4.0 362.0 
356.0002958971133 210699.0 NaN 1525.5711422845695 0.500605396629858 511.0 4.0 362.0 
358.0002958971133 210709.0 NaN 1525.4989979959907 0.5003409375617748 512.0 3.0 363.0 
360.0002958971133 210744.0 NaN 1525.5390781563121 0.5009015829138442 513.0 2.0 364.0 
362.0002958971133 210707.0 NaN 1525.5444221776902 0.5012712669826368 515.0 2.0 364.0 
364.0002958971133 210600.0 NaN 1525.5818303273206 0.5006273044863112 514.0 2.0 364.0 
366.0002958971133 210613.0 NaN 1516.3927855711431 0.5008679392729367 514.0 2.0 361.0 
368.0002958971133 210587.0 NaN 1510.3406813627264 0.5006262061368715 513.0 3.0 358.0 
370.0002958971133 210596.0 NaN 1507.2705410821636 0.5007373468359904 514.0 4.0 356.0 
372.0002958971133 210522.0 NaN 1510.2525050100191 0.5011262560487373 513.0 4.0 357.0 
374.0002958971133 210370.0 NaN 1507.0968603874423 0.5003967590274174 515.0 4.0 356.0 
376.0002958971133 210380.0 NaN 1507.0460921843694 0.5007906376327393 514.0 4.0 356.0 
378.0002958971133 210369.0 NaN 1507.0941883767543 0.5005061907262633 516.0 4.0 356.0 
380.0002958971133 210381.0 NaN 1507.1396125584513 0.5010514189373599 517.0 4.0 356.0 
382.0002958971133 210300.0 NaN 1510.1910487641942 0.5013145180770803 514.0 4.0 357.0 
384.0002958971133 210175.0 NaN 1513.253173012691 0.5011658192632568 514.0 4.0 358.0 
386.0002958971133 210165.0 NaN 1516.4408817635274 0.5020182634362719 516.0 4.0 359.0 
388.0002958971133 210172.0 NaN 1516.4782899131606 0.5004477329517825 517.0 3.0 360.0 
390.0002958971133 210174.0 NaN 1510.3700734802933 0.5009233715376917 518.0 3.0 358.0 
392.0002958971133 210105.0 NaN 1510.3620574482295 0.5010140626486523 516.0 3.0 358.0 
394.0002958971133 210055.0 NaN 1510.249832999333 0.5005582607815715 516.0 2.0 359.0 
396.0002958971133 210065.0 NaN 1513.3707414829644 0.5007905929004137 516.0 3.0 359.0 
398.0002958971133 210069.0 NaN 1507.2144288577158 0.500515395425869 518.0 3.0 357.0 
400.0002958971133 210143.0 NaN 1504.0828323313283 0.5011702127119305 519.0 2.0 357.0 
402.0002958971133 210133.0 NaN 1510.2177688710751 0.501336423344389 520.0 2.0 359.0 
404.0002958971133 210063.0 NaN 1507.158316633266 0.5006890079528216 519.0 2.0 358.0 
406.0002958971133 210048.0 NaN 1510.3032732130916 0.5008914666723585 519.0 3.0 358.0 
408.0002958971133 210076.0 NaN 1513.4428857715436 0.5006914140665271 519.0 3.0 359.0 
410.0002958971133 210132.0 NaN 1516.4863059452243 0.500910664760963 521.0 2.0 361.0 
412.0002958971133 210081.0 NaN 1522.6239144956576 0.5010183749690863 521.0 2.0 363.0 
414.0002958971133 210019.0 NaN 1525.6806947227794 0.5007913084187806 521.0 2.0 364.0 
416.0002958971133 210030.0 NaN 1519.4762859051448 0.5010311261903422 522.0 3.0 361.0 
418.0002958971133 210013.0 NaN 1513.3707414829644 0.500615158064657 515.0 5.0 357.0 
420.0002958971133 210057.0 NaN 1510.3139612558455 0.5011873010634575 514.0 4.0 357.0 
422.0002958971133 210037.0 NaN 1513.3627254509008 0.5010746494132847 512.0 6.0 356.0 
424.0002958971133 210020.0 NaN 1510.3032732130919 0.5008700633291501 516.0 4.0 357.0 
426.0002958971133 210029.0 NaN 1507.217100868403 0.5011770610275754 513.0 4.0 356.0 
428.0002958971133 209966.0 NaN 1513.2798931195728 0.5010806543292519 514.0 4.0 358.0 
430.0002958971133 209969.0 NaN 1507.0754843019365 0.500912764271181 520.0 5.0 355.0 
432.0002958971133 209987.0 NaN 1513.2291249165 0.5009746040375497 521.0 4.0 358.0 
434.0002958971133 209990.0 NaN 1519.369405477621 0.500535483027776 523.0 4.0 360.0 
436.0002958971133 210023.0 NaN 1522.5704742818978 0.501399608675978 522.0 4.0 361.0 
438.0002958971133 209931.0 NaN 1525.6058784235122 0.5011587894898764 523.0 4.0 362.0 
440.0002958971133 209940.0 NaN 1528.7187708750823 0.5009481224353336 525.0 3.0 364.0 
442.0002958971133 209997.0 NaN 1528.7134268537088 0.5013404508966839 527.0 2.0 365.0 
444.0002958971133 209988.0 NaN 1525.5978623914484 0.5012906566417616 525.0 3.0 363.0 
446.0002958971133 209973.0 NaN 1519.572478289912 0.5014951575782386 523.0 4.0 360.0 
448.0002958971133 209889.0 NaN 1538.0814963259845 0.5013082284043506 523.0 4.0 366.0 
450.0002958971133 209909.0 NaN 1547.219772879091 0.5014140776043144 525.0 4.0 369.0 
452.0002958971133 209932.0 NaN 1550.1295925183701 0.5012708307976015 524.0 4.0 370.0 
454.0002958971133 209902.0 NaN 1550.076152304609 0.5014214245822147 524.0 4.0 370.0 
456.0002958971133 209875.0 NaN 1550.0921843687363 0.501493069121624 523.0 3.0 371.0 
458.0002958971133 209827.0 NaN 1550.2017368069457 0.5008145221046765 523.0 3.0 371.0 
460.0002958971133 209852.0 NaN 1547.2277889111544 0.5012979919357525 521.0 4.0 369.0 
462.0002958971133 209841.0 NaN 1544.0988643954572 0.5011637300928027 519.0 4.0 368.0 
464.0002958971133 209834.0 NaN 1544.1148964595848 0.5010813706892229 520.0 4.0 368.0 
466.0002958971133 209825.0 NaN 1544.0881763527063 0.5015181084245927 522.0 4.0 368.0 
468.0002958971133 209769.0 NaN 1544.1442885771546 0.5017609473271409 521.0 4.0 368.0 
470.0002958971133 209731.0 NaN 1544.1255845023368 0.5014310285552747 522.0 4.0 368.0 
472.0002958971133 209711.0 NaN 1540.9271877087517 0.5015107555803685 522.0 4.0 367.0 
474.0002958971133 209673.0 NaN 1531.7541750167002 0.5014941961444623 518.0 4.0 364.0 
476.0002958971133 209675.0 NaN 1522.5758183032726 0.5015543226232235 517.0 4.0 361.0 
478.0002958971133 209648.0 NaN 1522.5490981963917 0.5016633841793344 519.0 3.0 362.0 
480.0002958971133 209635.0 NaN 1525.611222444891 0.501008380640932 518.0 3.0 363.0 
482.0002958971133 209679.0 NaN 1525.5978623914484 0.5010857402445833 518.0 3.0 363.0 
484.0002958971133 209658.0 NaN 1525.5604542418178 0.5009766466299893 517.0 3.0 363.0 
486.0002958971133 209694.0 NaN 1513.3066132264537 0.5011989316564338 516.0 2.0 360.0 
488.0002958971133 209662.0 NaN 1507.128924515699 0.5011143218899955 515.0 2.0 358.0 
490.0002958971133 209688.0 NaN 1491.8316633266538 0.5010721049938618 513.0 3.0 352.0 
492.0002958971133 209725.0 NaN 1491.8476953907818 0.500980821655379 508.0 5.0 350.0 
494.0002958971133 209744.0 NaN 1494.9205076820301 0.5013801501995363 506.0 5.0 351.0 
496.0002958971133 209721.0 NaN 1494.9659318637273 0.5010544891219706 505.0 3.0 353.0 
498.0002958971133 209705.0 NaN 1491.866399465599 0.5009264102312527 505.0 3.0 352.0 
500.0002958971133 209693.0 NaN 1482.5865063460262 0.5011499589016504 510.0 3.0 349.0 
502.0002958971133 209729.0 NaN 1482.527722110889 0.5011193442935058 508.0 5.0 347.0 
504.0002958971133 209711.0 NaN 1485.6165664662647 0.5011562467489574 508.0 5.0 348.0 
506.0002958971133 209665.0 NaN 1494.8430193720787 0.5009654830792226 510.0 5.0 351.0 
508.0002958971133 209660.0 NaN 1485.5925183700729 0.5011957246628158 508.0 5.0 348.0 
510.0002958971133 209633.0 NaN 1491.7007348029383 0.5008597918603215 507.0 7.0 348.0 
512.0002958971132 209674.0 NaN 1491.780895123581 0.5012520249974891 508.0 6.0 349.0 
514.0002958971132 209685.0 NaN 1479.57782231129 0.5015687844697768 509.0 6.0 345.0 
516.0002958971132 209712.0 NaN 1476.5370741482973 0.5011085439489493 510.0 3.0 347.0 
518.0002958971132 209682.0 NaN 1461.2184368737467 0.5013723551029733 510.0 2.0 343.0 
520.0002958971132 209657.0 NaN 1461.178356713427 0.500944798588948 509.0 2.0 343.0 
522.0002958971132 209688.0 NaN 1461.1062124248485 0.501103059630465 508.0 2.0 343.0 
524.0002958971132 209694.0 NaN 1464.146960587843 0.5011695113253383 505.0 2.0 344.0 
526.0002958971132 209740.0 NaN 1454.9231796927183 0.5013450872782346 504.0 2.0 341.0 
528.0002958971132 209700.0 NaN 1451.8289913159647 0.5016036420275072 502.0 2.0 340.0 
530.0002958971132 209682.0 NaN 1451.8423513694063 0.5008941902194386 504.0 2.0 340.0 
532.0002958971132 209659.0 NaN 1461.1115564462264 0.5011709366290518 503.0 3.0 342.0 
534.0002958971132 209648.0 NaN 1461.151636606546 0.5010747300091993 501.0 2.0 343.0 
536.0002958971132 209701.0 NaN 1458.0654642618567 0.5010757239169622 504.0 2.0 342.0 
538.0002958971132 209667.0 NaN 1461.1249164996655 0.5010650296798207 503.0 2.0 343.0 
540.0002958971132 209640.0 NaN 1464.1683366733462 0.5009857843301656 506.0 2.0 344.0 
542.0002958971132 209757.0 NaN 1470.295257181028 0.5011445837046329 506.0 2.0 346.0 
544.0002958971132 209728.0 NaN 1473.370741482965 0.5009985114655087 508.0 2.0 347.0 
546.0002958971132 209723.0 NaN 1470.2658650634603 0.5010160585028136 509.0 2.0 346.0 
548.0002958971132 209710.0 NaN 1467.233132932531 0.5012808326232648 509.0 3.0 344.0 
550.0002958971132 209679.0 NaN 1467.1930527722104 0.501046603506691 509.0 4.0 343.0 
552.0002958971132 209777.0 NaN 1467.2144288577158 0.5013618872787196 508.0 3.0 344.0 
554.0002958971132 209759.0 NaN 1467.163660654643 0.5012874567793824 507.0 4.0 343.0 
556.0002958971132 209785.0 NaN 1467.1690046760182 0.501271037946482 508.0 4.0 343.0 
558.0002958971132 209766.0 NaN 1467.1850367401464 0.5011087556770732 509.0 4.0 343.0 
560.0002958971132 209748.0 NaN 1457.9612558450233 0.5010087376145366 503.0 3.0 341.0 
562.0002958971132 209815.0 NaN 1457.9853039412155 0.5014500798061784 504.0 2.0 342.0 
564.0002958971132 209805.0 NaN 1454.8670674682699 0.501018896016872 504.0 2.0 341.0 
566.0002958971132 209829.0 NaN 1461.0233800935198 0.501183113487474 506.0 2.0 343.0 
568.0002958971132 209803.0 NaN 1482.661322645291 0.5010081453105641 508.0 2.0 350.0 
570.0002958971132 209793.0 NaN 1482.672010688043 0.5011882697277075 508.0 2.0 350.0 
572.0002958971132 209839.0 NaN 1479.6285905143625 0.5010908995018416 507.0 3.0 348.0 
574.0002958971132 209833.0 NaN 1476.5050100200394 0.5010530911212526 505.0 3.0 347.0 
576.0002958971132 209861.0 NaN 1482.67468269873 0.5011007186514993 505.0 3.0 349.0 
578.0002958971132 209828.0 NaN 1479.615230460921 0.5009641066890512 508.0 2.0 349.0 
580.0002958971132 209861.0 NaN 1485.7795591182362 0.5012327504019496 508.0 2.0 351.0 
582.0002958971132 209887.0 NaN 1485.696726786908 0.5011759675890805 510.0 2.0 351.0 
584.0002958971132 209893.0 NaN 1488.7321309285244 0.5012479227603309 508.0 2.0 352.0 
586.0002958971132 209934.0 NaN 1485.7074148296604 0.5012420912286281 514.0 2.0 351.0 
588.0002958971132 209899.0 NaN 1485.6780227120908 0.5015662690687713 517.0 2.0 351.0 
590.0002958971132 209899.0 NaN 1488.7321309285244 0.5009033605072755 518.0 3.0 351.0 
592.0002958971132 209904.0 NaN 1488.6466265865072 0.5013453398459206 518.0 4.0 350.0 
594.0002958971132 209891.0 NaN 1491.7675350701397 0.5010714103100674 521.0 3.0 352.0 
596.0002958971132 209917.0 NaN 1488.6653306613218 0.5007695706686612 527.0 2.0 352.0 
598.0002958971132 209933.0 NaN 1488.7294589178362 0.5007004857902265 523.0 4.0 350.0 
600.0002958971132 209987.0 NaN 1491.8316633266536 0.5011157609111331 526.0 3.0 352.0 
602.0002958971132 209954.0 NaN 1501.1142284569146 0.5011653221238295 529.0 2.0 356.0 
604.0002958971132 209960.0 NaN 1498.0547762191059 0.5009959232604362 528.0 2.0 355.0 
606.0002958971132 209992.0 NaN 1501.0207080828332 0.5007955705125143 526.0 2.0 356.0 
608.0002958971132 210009.0 NaN 1507.1422845691375 0.5010393908525324 524.0 2.0 358.0 
610.0002958971132 210039.0 NaN 1513.2638610554447 0.501540830498164 525.0 2.0 360.0 
612.0002958971132 209961.0 NaN 1510.1937207748826 0.5015760403915611 525.0 2.0 359.0 
614.0002958971132 209929.0 NaN 1507.1422845691375 0.5013009610630538 525.0 2.0 358.0 
616.0002958971132 209930.0 NaN 1507.128924515699 0.5009941335686035 525.0 2.0 358.0 
618.0002958971132 209918.0 NaN 1504.0961923847706 0.5008880895420272 525.0 2.0 357.0 
620.0002958971132 209978.0 NaN 1513.2905811623252 0.5012304934610151 525.0 2.0 360.0 
622.0002958971132 209955.0 NaN 1525.5738142952566 0.5011637008147126 526.0 2.0 364.0 
624.0002958971132 209949.0 NaN 1522.503674014697 0.5011186644475834 522.0 3.0 362.0 
626.0002958971132 209969.0 NaN 1525.5631262525062 0.5007789651518588 520.0 6.0 360.0 
628.0002958971132 209960.0 NaN 1525.5390781563121 0.5012895268847661 521.0 6.0 360.0 
630.0002958971132 209993.0 NaN 1519.43887775551 0.5009721281143473 520.0 4.0 360.0 
632.0002958971132 209993.0 NaN 1522.4983299933187 0.5012385673294737 519.0 3.0 362.0 
634.0002958971132 209976.0 NaN 1519.4415497662 0.500598514302326 519.0 3.0 361.0 
636.0002958971132 210062.0 NaN 1522.4261857047436 0.5006360192069587 525.0 3.0 362.0 
638.0002958971132 210057.0 NaN 1519.3293253173008 0.5011363546091683 529.0 2.0 362.0 
640.0002958971132 210080.0 NaN 1522.4662658650636 0.5008531653811404 527.0 2.0 363.0 
642.0002958971132 210092.0 NaN 1525.5230460921837 0.5006270968318131 530.0 2.0 364.0 
644.0002958971132 210105.0 NaN 1522.4689378757525 0.5005864433020305 529.0 2.0 363.0 
646.0002958971132 210127.0 NaN 1519.4602538410163 0.5006386945016146 526.0 2.0 362.0 
648.0002958971132 210137.0 NaN 1525.6138944555787 0.500593645431197 522.0 2.0 364.0 
650.0002958971132 210170.0 NaN 1522.5116900467606 0.5009796111238575 519.0 2.0 363.0 
652.0002958971132 210166.0 NaN 1525.5845023380089 0.5009375338998473 519.0 4.0 362.0 
654.0002958971132 210167.0 NaN 1525.6486305945211 0.5005451578814144 519.0 3.0 363.0 
656.0002958971132 210246.0 NaN 1534.8750835003345 0.5009339888327756 518.0 3.0 366.0 
658.0002958971132 210237.0 NaN 1544.1015364061454 0.5011132661110395 517.0 3.0 369.0 
660.0002958971132 210199.0 NaN 1544.0668002671998 0.5007605743669827 517.0 2.0 370.0 
662.0002958971132 210225.0 NaN 1543.973279893119 0.5008906761942402 516.0 2.0 370.0 
664.0002958971132 210241.0 NaN 1540.8550434201727 0.5009507268946078 515.0 2.0 369.0 
#####################################################################
# End of data export. Simulation finished at: 2019-03-06T23:27+0000 #
#####################################################################
