#####################################################################
# Alchemist log file - simulation started at: 2019-03-07T15:25+0000 #
#####################################################################
# seed = 5.0, bandwidth = 316227.76601683797, propagationDelay = 0.03162277660168379, baserange = 31.622776601683796
#
# The columns have the following meaning: 
# time neighbor_count[Sum] <value>@neighbor_count[Sum] packet_size[Mean] mean_delay[Mean] crowd[Sum] overcrowded[Sum] risk[Sum] 
0.0 NaN NaN NaN NaN NaN NaN NaN 
2.000101793669918 2782.0 NaN 4996.240480961924 0.49589515818611135 1496.0 1.0 1496.0 
4.000101793669918 2784.0 NaN 4999.708750835003 0.4960943047510967 1486.0 11.0 1486.0 
6.000101793669918 2784.0 NaN 4995.887775551102 0.4961113833297573 1454.0 43.0 1454.0 
8.000101793669918 2789.0 NaN 4996.769539078156 0.49673477634513113 1427.0 70.0 1427.0 
10.000101793669918 2791.0 NaN 4994.784235136941 0.496098778825433 1425.0 72.0 1425.0 
12.000101793669918 2792.0 NaN 4995.476285905143 0.4970309408977945 1421.0 76.0 1421.0 
14.000101793669918 2788.0 NaN 4994.64796259185 0.49673013854214537 1419.0 78.0 1419.0 
16.00010179366992 2789.0 NaN 4995.072812291249 0.4963150381087505 1420.0 77.0 1420.0 
18.00010179366992 2795.0 NaN 4994.522378089512 0.4971736088885762 1420.0 77.0 1420.0 
20.00010179366992 2803.0 NaN 4995.246492985972 0.5012759028551804 1418.0 79.0 1418.0 
22.00010179366992 2800.0 NaN 4993.9906479625915 0.49776312894918606 1414.0 83.0 1414.0 
24.00010179366992 2797.0 NaN 4995.169004676019 0.49762759314079397 1420.0 77.0 1420.0 
26.00010179366992 2801.0 NaN 4993.686038744155 0.4980943831488778 1415.0 82.0 1415.0 
28.00010179366992 2799.0 NaN 4995.134268537074 0.4980342221133248 1414.0 83.0 1414.0 
30.00010179366992 2807.0 NaN 4994.217768871075 0.49816311135904895 1419.0 78.0 1419.0 
32.00010179366992 2807.0 NaN 4994.728122912492 0.501404981998243 1424.0 73.0 1424.0 
34.00010179366992 2808.0 NaN 4994.193720774883 0.4999582872741892 1418.0 79.0 1418.0 
36.00010179366992 2811.0 NaN 4994.762859051436 0.5001324349172164 1425.0 72.0 1425.0 
38.00010179366992 2808.0 NaN 4994.110888443553 0.5008288523525469 1426.0 71.0 1426.0 
40.00010179366992 2820.0 NaN 4994.904475617903 0.5024987783813186 1417.0 80.0 1417.0 
42.00010179366992 2816.0 NaN 4993.9505678022715 0.501500020620766 1412.0 85.0 1412.0 
44.00010179366992 2826.0 NaN 4994.84034736139 0.5041121651608972 1423.0 74.0 1423.0 
46.00010179366992 2825.0 NaN 4993.862391449566 0.5013977628616856 1409.0 88.0 1409.0 
48.00010179366992 2830.0 NaN 4995.019372077489 0.5068115075464652 1416.0 81.0 1416.0 
50.00010179366992 2844.0 NaN 4993.750167000668 0.5028278314359688 1421.0 76.0 1421.0 
52.00010179366992 2830.0 NaN 4994.64796259185 0.4976431353373501 1418.0 79.0 1418.0 
54.00010179366992 2847.0 NaN 4994.172344689378 0.4998499622769535 1418.0 79.0 1418.0 
56.00010179366992 2834.0 NaN 4994.474281897127 0.4993711773292461 1423.0 74.0 1423.0 
58.00010179366992 2840.0 NaN 4994.15631262525 0.499465730884651 1416.0 81.0 1416.0 
60.00010179366992 2851.0 NaN 4991.735470941884 0.49832906619748796 1424.0 72.0 1424.0 
62.00010179366992 2841.0 NaN 1521.8436873747487 0.5037645503447499 602.0 72.0 293.0 
64.00010179366993 2843.0 NaN 1521.776887107548 0.5015713311002481 511.0 75.0 290.0 
66.00010179366993 2843.0 NaN 1521.6138944555787 0.4988782668129926 461.0 79.0 286.0 
68.00010179366993 2855.0 NaN 1524.684034736139 0.5026901018911141 439.0 72.0 294.0 
70.00010179366993 2870.0 NaN 1524.5718102872424 0.5042640030017295 413.0 81.0 285.0 
72.00010179366993 2855.0 NaN 1524.590514362057 0.5018892998641604 405.0 86.0 280.0 
74.00010179366993 2850.0 NaN 1527.6125584502338 0.5006072589417405 411.0 76.0 291.0 
76.00010179366993 2845.0 NaN 1527.660654642618 0.4990655544530117 399.0 86.0 281.0 
78.00010179366993 2875.0 NaN 1533.9158316633273 0.506299031871624 397.0 87.0 282.0 
80.00010179366993 2851.0 NaN 1533.7929191716757 0.5088823541903547 402.0 79.0 290.0 
82.00010179366993 2839.0 NaN 1533.806279225118 0.5019547404723409 401.0 81.0 288.0 
84.00010179366993 2840.0 NaN 1533.9425517702089 0.505471464236535 400.0 78.0 291.0 
86.00010179366993 2808.0 NaN 1533.857047428191 0.5027420335855665 408.0 68.0 301.0 
88.00010179366993 2820.0 NaN 1533.857047428191 0.502678126221321 399.0 75.0 294.0 
90.00010179366993 2810.0 NaN 1533.88376753507 0.5025384421609005 400.0 74.0 295.0 
92.00010179366993 2801.0 NaN 1533.750167000667 0.5003802471083812 409.0 65.0 304.0 
94.00010179366993 2812.0 NaN 1533.7047428189726 0.5033004028102533 405.0 68.0 301.0 
96.00010179366993 2793.0 NaN 1533.9158316633273 0.4978420295739913 403.0 69.0 300.0 
98.00010179366993 2800.0 NaN 1536.8229792919183 0.5055814118991315 411.0 61.0 309.0 
100.00010179366993 2787.0 NaN 1536.9405477621908 0.49777586604994206 403.0 69.0 301.0 
102.00010179366993 2789.0 NaN 1536.9485637942544 0.5054819249547838 402.0 70.0 300.0 
104.00010179366993 2785.0 NaN 1539.8476953907818 0.5038641209048017 405.0 67.0 304.0 
106.00010179366993 2785.0 NaN 1539.9331997328002 0.4973635070168336 396.0 75.0 296.0 
108.00010179366993 2797.0 NaN 1540.0106880427522 0.5022394207276649 398.0 73.0 298.0 
110.00010179366993 2787.0 NaN 1539.871743486973 0.4976658652716741 407.0 64.0 307.0 
112.00010179366993 2797.0 NaN 1539.9038076152299 0.5061070250938826 400.0 71.0 300.0 
114.00010179366993 2798.0 NaN 1539.9519038076157 0.5032123187258556 401.0 70.0 301.0 
116.00010179366993 2790.0 NaN 1539.935871743488 0.49750478249073843 407.0 66.0 305.0 
118.00010179366993 2826.0 NaN 1539.9652638610546 0.5070542944520251 402.0 71.0 300.0 
120.00010179366993 2815.0 NaN 1539.906479625918 0.5066538401513067 407.0 68.0 303.0 
122.00010179366993 2813.0 NaN 1542.9552438209753 0.5067376496375015 415.0 61.0 311.0 
124.00010179366993 2812.0 NaN 1543.043420173682 0.5080344896039174 405.0 70.0 302.0 
126.00010179366993 2784.0 NaN 1543.0247160988636 0.499871152683636 407.0 69.0 303.0 
128.00010179366993 2804.0 NaN 1539.9625918503666 0.5120037417594946 414.0 62.0 309.0 
130.00010179366993 2771.0 NaN 1539.9492317969275 0.5107395711598325 400.0 76.0 295.0 
132.00010179366993 2761.0 NaN 1540.016032064127 0.4989443582736815 397.0 77.0 294.0 
134.00010179366993 2770.0 NaN 1536.7668670674698 0.5039534907481101 404.0 68.0 302.0 
136.00010179366993 2766.0 NaN 1539.981295925182 0.5019820044815788 393.0 76.0 295.0 
138.00010179366993 2803.0 NaN 1533.750167000667 0.5068498358010116 393.0 75.0 294.0 
140.00010179366993 2793.0 NaN 1533.7849031396124 0.5042262835750542 398.0 70.0 299.0 
142.00010179366993 2795.0 NaN 1536.8283233132931 0.5059161574930885 390.0 78.0 292.0 
144.00010179366993 2824.0 NaN 1536.9245156980637 0.5027840674511311 386.0 80.0 290.0 
146.00010179366993 2819.0 NaN 1533.736806947227 0.4988773831432208 390.0 75.0 294.0 
148.00010179366993 2830.0 NaN 1533.8944555778212 0.5041181646558024 385.0 81.0 288.0 
150.00010179366993 2833.0 NaN 1530.7869071476275 0.5045466024327551 389.0 78.0 290.0 
152.00010179366993 2835.0 NaN 1527.5751503006 0.5011514232071521 395.0 73.0 294.0 
154.00010179366993 2844.0 NaN 1527.5457581830333 0.5025957280987913 384.0 82.0 285.0 
156.00010179366993 2834.0 NaN 1530.714762859052 0.49902025958396073 376.0 89.0 279.0 
158.00010179366993 2851.0 NaN 1533.7100868403456 0.5082334652222558 386.0 81.0 288.0 
160.00010179366993 2831.0 NaN 1533.8356713426847 0.5074326741116417 384.0 83.0 286.0 
162.00010179366993 2814.0 NaN 1533.8249832999336 0.5004047713402592 385.0 82.0 287.0 
164.00010179366993 2827.0 NaN 1536.8737474949912 0.5081920074198748 390.0 77.0 293.0 
166.00010179366993 2799.0 NaN 1536.8657314629272 0.4962084647066368 389.0 78.0 292.0 
168.00010179366993 2816.0 NaN 1539.9732798931182 0.5096341897942832 388.0 78.0 293.0 
170.00010179366993 2801.0 NaN 1536.8550434201725 0.500888693803705 393.0 72.0 298.0 
172.00010179366993 2793.0 NaN 1536.9458917835661 0.49887976301906245 379.0 82.0 288.0 
174.00010179366993 2817.0 NaN 1539.9412157648637 0.5069061480073591 372.0 88.0 283.0 
176.00010179366993 2780.0 NaN 1536.8577154308637 0.49950196644465483 383.0 76.0 294.0 
178.00010179366993 2792.0 NaN 1539.9492317969275 0.511136199212409 375.0 87.0 284.0 
180.00010179366993 2771.0 NaN 1536.9512358049458 0.5063041561809876 379.0 85.0 285.0 
182.00010179366993 2760.0 NaN 1536.777555110218 0.5002860535982389 383.0 81.0 289.0 
184.00010179366993 2798.0 NaN 1540.0614562458275 0.5098827663384431 374.0 90.0 281.0 
186.00010179366993 2771.0 NaN 1536.9672678690727 0.4976886935196085 367.0 96.0 274.0 
188.00010179366993 2787.0 NaN 1543.0327321309273 0.5112729153639162 378.0 86.0 286.0 
190.00010179366993 2764.0 NaN 1540.098864395457 0.5029142229411203 370.0 95.0 276.0 
192.00010179366993 2763.0 NaN 1536.9325317301273 0.5006039663363048 383.0 83.0 287.0 
194.00010179366993 2776.0 NaN 1540.037408149634 0.5096024017592886 391.0 74.0 297.0 
196.00010179366993 2743.0 NaN 1539.9919839679364 0.5031302416533293 380.0 85.0 286.0 
198.00010179366993 2766.0 NaN 1543.0674682698727 0.5052631693362354 377.0 89.0 283.0 
200.00010179366993 2775.0 NaN 1546.046760187039 0.5037944357972591 386.0 80.0 293.0 
202.00010179366993 2774.0 NaN 1546.1295925183704 0.5011500805183483 372.0 94.0 279.0 
204.00010179366993 2782.0 NaN 1546.1883767535091 0.5060512425499268 370.0 96.0 277.0 
206.00010179366993 2749.0 NaN 1546.057448229791 0.5026103907125095 373.0 93.0 280.0 
208.00010179366993 2751.0 NaN 1543.0888443553795 0.508771261449018 367.0 100.0 272.0 
210.00010179366993 2756.0 NaN 1539.9706078824297 0.505595760170339 364.0 99.0 272.0 
212.00010179366993 2741.0 NaN 1539.8156312625274 0.4995042268974763 369.0 93.0 278.0 
214.00010179366993 2746.0 NaN 1542.9686038744157 0.5032313609856216 368.0 96.0 276.0 
216.00010179366993 2732.0 NaN 1539.9385437541728 0.49433078760945126 371.0 93.0 278.0 
218.00010179366993 2745.0 NaN 1536.830995323982 0.5115968788983255 380.0 84.0 286.0 
220.00010179366993 2745.0 NaN 1536.9726118904457 0.49996588675198217 376.0 87.0 283.0 
222.00010179366993 2760.0 NaN 1539.9465597862388 0.4989735128522183 373.0 89.0 282.0 
224.00010179366993 2775.0 NaN 1539.8851035404152 0.5074014402110064 385.0 78.0 293.0 
226.00010179366993 2749.0 NaN 1536.8684034736152 0.5044315594586587 372.0 89.0 281.0 
228.00010179366993 2750.0 NaN 1542.9659318637273 0.5056967507117279 372.0 91.0 281.0 
230.00010179366993 2754.0 NaN 1543.0327321309273 0.5046103174896682 382.0 81.0 291.0 
232.00010179366993 2755.0 NaN 1545.9799599198388 0.5047700636297693 378.0 83.0 290.0 
234.00010179366993 2743.0 NaN 1546.1456245825 0.5068238940382094 379.0 83.0 290.0 
236.00010179366993 2719.0 NaN 1542.9392117568455 0.5078651315492831 385.0 76.0 296.0 
238.00010179366993 2711.0 NaN 1539.8770875083483 0.507621742487909 375.0 86.0 285.0 
240.00010179366993 2717.0 NaN 1539.9625918503664 0.5089948418236118 370.0 91.0 280.0 
242.00010179366993 2718.0 NaN 1539.6820307281246 0.5079570796104996 367.0 91.0 280.0 
244.00010179366993 2712.0 NaN 1539.7969271877091 0.5178082029951789 364.0 96.0 275.0 
246.00010179366993 2701.0 NaN 1539.8209752839 0.5018592049966017 360.0 97.0 274.0 
248.00010179366993 2697.0 NaN 1536.5691382765544 0.507095390562223 369.0 89.0 281.0 
250.00010179366993 2703.0 NaN 1536.70808283233 0.5073449573823877 365.0 93.0 277.0 
252.00010179366993 2706.0 NaN 1536.844355377421 0.5104880748909958 368.0 87.0 283.0 
254.00010179366993 2707.0 NaN 1533.7261189044752 0.5094015066425014 378.0 78.0 291.0 
256.00010179366996 2696.0 NaN 1530.8082832331334 0.5057439758393353 372.0 85.0 283.0 
258.00010179366996 2699.0 NaN 1530.6265865063453 0.5062367324148649 373.0 85.0 283.0 
260.00010179366996 2712.0 NaN 1530.6960587842364 0.515155621096615 382.0 76.0 292.0 
262.00010179366996 2711.0 NaN 1527.5537742150973 0.5151516199398842 374.0 84.0 283.0 
264.00010179366996 2710.0 NaN 1536.844355377421 0.5161994227816064 378.0 81.0 289.0 
266.00010179366996 2689.0 NaN 1536.8897795591183 0.5012648174781236 390.0 69.0 301.0 
268.00010179366996 2700.0 NaN 1536.876419505679 0.5065535310700148 384.0 74.0 296.0 
270.00010179366996 2693.0 NaN 1533.7608550434184 0.5115725526825284 385.0 73.0 296.0 
272.00010179366996 2674.0 NaN 1533.768871075484 0.5056749852335886 392.0 65.0 304.0 
274.00010179366996 2665.0 NaN 1533.7875751503 0.5122563054902302 385.0 72.0 297.0 
276.00010179366996 2650.0 NaN 1540.018704074818 0.5130631474032336 384.0 73.0 298.0 
278.00010179366996 2647.0 NaN 1539.8316633266545 0.5054136332437199 396.0 66.0 305.0 
280.00010179366996 2656.0 NaN 1539.9118236472932 0.5076056833362756 389.0 75.0 296.0 
282.00010179366996 2656.0 NaN 1536.8122912491635 0.5170287565806235 387.0 76.0 294.0 
284.00010179366996 2640.0 NaN 1533.7929191716753 0.5083294711992158 394.0 68.0 301.0 
286.00010179366996 2631.0 NaN 1533.6887107548434 0.5031553868598356 386.0 75.0 294.0 
288.00010179366996 2630.0 NaN 1533.7501670006666 0.510269968406278 384.0 75.0 294.0 
290.00010179366996 2619.0 NaN 1533.7047428189726 0.5042930197877064 390.0 68.0 301.0 
292.00010179366996 2612.0 NaN 1533.6325985303934 0.5058336584391933 383.0 75.0 294.0 
294.00010179366996 2610.0 NaN 1530.6346025384091 0.5031127791913514 382.0 75.0 293.0 
296.00010179366996 2602.0 NaN 1530.5170340681366 0.500931521673969 389.0 68.0 300.0 
298.00010179366996 2604.0 NaN 1536.6733466933883 0.5015537615754347 382.0 75.0 295.0 
300.00010179366996 2612.0 NaN 1536.7054108216453 0.5031241491081081 388.0 69.0 301.0 
302.00010179366996 2616.0 NaN 1530.4822979291907 0.5052237075867667 396.0 61.0 307.0 
304.00010179366996 2628.0 NaN 1533.6673346693365 0.5082274144871951 387.0 68.0 301.0 
306.00010179366996 2626.0 NaN 1536.8684034736154 0.4973305981719612 390.0 67.0 303.0 
308.00010179366996 2630.0 NaN 1536.7855711422844 0.5052722859938293 397.0 61.0 309.0 
310.00010179366996 2627.0 NaN 1536.7588510354026 0.5021487587657937 389.0 67.0 303.0 
312.00010179366996 2625.0 NaN 1536.7134268537088 0.5071561463773432 389.0 67.0 303.0 
314.00010179366996 2625.0 NaN 1530.4796259185027 0.510498962390473 396.0 60.0 308.0 
316.00010179366996 2618.0 NaN 1530.6907147628572 0.4998331987043809 391.0 67.0 301.0 
318.00010179366996 2627.0 NaN 1530.5704742818973 0.5101399208960842 391.0 67.0 301.0 
320.00010179366996 2604.0 NaN 1530.714762859052 0.5005812947904736 398.0 59.0 309.0 
322.00010179366996 2607.0 NaN 1533.659318637273 0.5054541790716753 391.0 66.0 303.0 
324.00010179366996 2609.0 NaN 1530.7040748163001 0.5127007265061246 390.0 67.0 301.0 
326.00010179366996 2596.0 NaN 1533.7421509686026 0.501038412431422 397.0 59.0 310.0 
328.00010179366996 2604.0 NaN 1530.5330661322637 0.506905432846017 388.0 66.0 302.0 
330.00010179366996 2609.0 NaN 1530.7334669338663 0.5014988471994604 388.0 66.0 302.0 
332.00010179366996 2604.0 NaN 1530.5410821643275 0.5061240267863969 396.0 59.0 309.0 
334.00010179366996 2608.0 NaN 1533.6566466265876 0.5130511680530034 387.0 66.0 303.0 
336.00010179366996 2613.0 NaN 1530.5597862391458 0.5052312428857694 389.0 65.0 303.0 
338.00010179366996 2616.0 NaN 1530.5597862391458 0.5010582719537942 396.0 58.0 310.0 
340.00010179366996 2628.0 NaN 1524.6225784903152 0.5048414917397659 389.0 66.0 300.0 
342.00010179366996 2625.0 NaN 1524.3981295925182 0.5022747261046325 388.0 67.0 299.0 
344.00010179366996 2628.0 NaN 1527.5217100868392 0.49973867545768924 393.0 63.0 304.0 
346.00010179366996 2623.0 NaN 1524.4996659986634 0.5047784506126621 388.0 67.0 299.0 
348.00010179366996 2620.0 NaN 1518.3433533734126 0.4990962648154522 387.0 67.0 297.0 
350.00010179366996 2648.0 NaN 1524.545090180361 0.5096725245962248 397.0 60.0 306.0 
352.00010179366996 2626.0 NaN 1521.3440213760848 0.5025605534536577 391.0 67.0 298.0 
354.00010179366996 2622.0 NaN 1518.3593854375424 0.5004782280087114 390.0 68.0 296.0 
356.00010179366996 2618.0 NaN 1518.2845691382759 0.5018951014738486 394.0 64.0 300.0 
358.00010179366996 2618.0 NaN 1518.3593854375424 0.508095548164206 386.0 71.0 293.0 
360.00010179366996 2630.0 NaN 1515.273213092854 0.5084848090649137 384.0 72.0 291.0 
362.00010179366996 2620.0 NaN 1512.146960587843 0.5001889532849595 389.0 66.0 296.0 
364.00010179366996 2616.0 NaN 1505.9772879091524 0.4956327442899988 384.0 72.0 288.0 
366.00010179366996 2626.0 NaN 1506.0253841015365 0.4987865591260554 384.0 72.0 288.0 
368.00010179366996 2629.0 NaN 1499.7915831663333 0.5008349343333673 391.0 65.0 293.0 
370.00010179366996 2638.0 NaN 1509.1035404141628 0.5067943081485463 385.0 72.0 289.0 
372.00010179366996 2614.0 NaN 1506.0093520374091 0.5124277655870851 385.0 73.0 287.0 
374.00010179366996 2596.0 NaN 1505.8944555778212 0.4959861963244391 392.0 66.0 294.0 
376.00010179366996 2598.0 NaN 1502.8269873079485 0.4935341730936217 385.0 73.0 286.0 
378.00010179366996 2614.0 NaN 1499.7835671342696 0.4957993152862504 386.0 73.0 285.0 
380.00010179366996 2630.0 NaN 1499.8236472945898 0.5005415804486888 395.0 63.0 295.0 
382.00010179366996 2625.0 NaN 1496.7214428857726 0.5059405504337758 386.0 72.0 285.0 
384.00010179366996 2643.0 NaN 1499.9171676686717 0.5091072856623009 390.0 71.0 287.0 
386.00010179366996 2609.0 NaN 1496.7615230460917 0.4947212224361864 393.0 65.0 292.0 
388.00010179366996 2628.0 NaN 1496.809619238476 0.5102880467346098 389.0 71.0 286.0 
390.00010179366996 2636.0 NaN 1503.0674682698727 0.5069967689101863 388.0 71.0 288.0 
392.00010179366996 2636.0 NaN 1502.912491649966 0.5238901445596346 401.0 61.0 298.0 
394.00010179366996 2636.0 NaN 1509.1356045424182 0.514876877258544 395.0 67.0 294.0 
396.00010179366996 2615.0 NaN 1509.274549098197 0.498849561632361 397.0 67.0 294.0 
398.00010179366996 2624.0 NaN 1509.140948563794 0.49842252067847637 407.0 60.0 301.0 
400.00010179366996 2632.0 NaN 1502.9766199064807 0.5040402571906268 400.0 68.0 291.0 
402.00010179366996 2643.0 NaN 1505.9345357381433 0.5152435055803005 401.0 66.0 294.0 
404.00010179366996 2646.0 NaN 1509.2050768203085 0.5165859815778797 411.0 57.0 304.0 
406.00010179366996 2636.0 NaN 1515.2758851035394 0.49833207747644565 406.0 63.0 300.0 
408.00010179366996 2650.0 NaN 1521.5337341349364 0.5066226217259399 409.0 63.0 302.0 
410.00010179366996 2663.0 NaN 1524.4355377421516 0.503997683512175 422.0 51.0 315.0 
412.00010179366996 2654.0 NaN 1521.4028056112213 0.5075440715937709 419.0 55.0 310.0 
414.00010179366996 2650.0 NaN 1518.3032732130916 0.5208442397376561 419.0 55.0 309.0 
416.00010179366996 2612.0 NaN 1518.3834335337358 0.49889686354779045 420.0 54.0 310.0 
418.00010179366996 2629.0 NaN 1512.0774883099539 0.5077285326424088 407.0 65.0 297.0 
420.00010179366996 2638.0 NaN 1506.0654642618567 0.505231293356966 407.0 62.0 298.0 
422.00010179366996 2640.0 NaN 1496.7641950567806 0.50256610997848 412.0 55.0 302.0 
424.00010179366996 2655.0 NaN 1502.8643954575818 0.5164437893715947 405.0 62.0 297.0 
426.00010179366996 2626.0 NaN 1506.126920507682 0.5023593294046759 406.0 63.0 297.0 
428.00010179366996 2622.0 NaN 1506.0040080160325 0.5043390872373396 416.0 54.0 306.0 
430.00010179366996 2618.0 NaN 1509.162324649299 0.5080774042430912 407.0 63.0 298.0 
432.00010179366996 2610.0 NaN 1518.3299933199726 0.5117336715935809 411.0 63.0 301.0 
434.00010179366996 2606.0 NaN 1518.2605210420836 0.5029203623041955 420.0 57.0 307.0 
436.00010179366996 2620.0 NaN 1518.1803607214435 0.505451240201245 414.0 64.0 300.0 
438.00010179366996 2628.0 NaN 1518.2257849031387 0.5079224961107955 412.0 65.0 299.0 
440.00010179366996 2619.0 NaN 1524.3179692718759 0.5177881358790375 416.0 61.0 305.0 
442.00010179366996 2616.0 NaN 1536.6760187040734 0.5050868573275521 408.0 68.0 302.0 
444.00010179366996 2617.0 NaN 1536.7454909819635 0.5060721276338959 407.0 71.0 299.0 
446.00010179366996 2620.0 NaN 1539.7381429525726 0.5056818707589169 417.0 63.0 308.0 
448.00010179366996 2619.0 NaN 1539.7140948563797 0.5049860710398918 410.0 70.0 301.0 
450.00010179366996 2608.0 NaN 1539.853039412157 0.5090363485229681 412.0 69.0 302.0 
452.00010179366996 2603.0 NaN 1545.8276553106205 0.5201000141503663 418.0 62.0 311.0 
454.00010179366996 2593.0 NaN 1542.8991315965275 0.5056868886951812 411.0 69.0 303.0 
456.00010179366996 2601.0 NaN 1548.8924515698066 0.5057000371972635 410.0 70.0 304.0 
458.00010179366996 2597.0 NaN 1545.9185036740153 0.5105091798702556 417.0 61.0 312.0 
460.00010179366996 2582.0 NaN 1545.9826319305273 0.5102982718701284 410.0 68.0 305.0 
462.00010179366996 2570.0 NaN 1545.774215096861 0.5010295451114906 409.0 68.0 305.0 
464.00010179366996 2569.0 NaN 1545.923847695391 0.49585449186443636 417.0 59.0 314.0 
466.00010179366996 2575.0 NaN 1542.7628590514364 0.5067243609514775 409.0 67.0 305.0 
468.00010179366996 2573.0 NaN 1539.7755511022028 0.5071367685014039 408.0 66.0 305.0 
470.00010179366996 2558.0 NaN 1542.8403473613905 0.5057611265565818 415.0 60.0 312.0 
472.00010179366996 2573.0 NaN 1536.6359385437547 0.512767327805698 408.0 66.0 304.0 
474.00010179366996 2566.0 NaN 1530.5651302605206 0.5032593596975288 406.0 67.0 301.0 
476.00010179366996 2564.0 NaN 1527.3587174348704 0.49792662665819737 412.0 59.0 308.0 
478.00010179366996 2570.0 NaN 1527.3854375417511 0.5112949691831908 404.0 67.0 300.0 
480.00010179366996 2571.0 NaN 1527.5297261189062 0.5093553023417019 405.0 67.0 300.0 
482.00010179366996 2571.0 NaN 1521.3092852371426 0.5115030128163907 411.0 61.0 304.0 
484.00010179366996 2574.0 NaN 1512.160320641282 0.50530501076683 400.0 70.0 292.0 
486.00010179366996 2568.0 NaN 1502.891115564463 0.4998740374811579 399.0 70.0 289.0 
488.00010179366996 2570.0 NaN 1496.6519706078818 0.5137118926912285 405.0 61.0 296.0 
490.00010179366996 2578.0 NaN 1499.8637274549092 0.5154813096947577 397.0 67.0 291.0 
492.00010179366996 2569.0 NaN 1493.8196392785565 0.5218051929207174 394.0 68.0 288.0 
494.00010179366996 2551.0 NaN 1490.639946559785 0.5041108408580023 400.0 60.0 295.0 
496.00010179366996 2551.0 NaN 1484.4889779559112 0.5000433639070855 385.0 72.0 281.0 
498.00010179366996 2551.0 NaN 1484.4435537742158 0.5095006796975603 383.0 72.0 281.0 
500.00010179366996 2567.0 NaN 1484.4462257849025 0.5056527879728941 385.0 66.0 287.0 
502.00010179366996 2571.0 NaN 1490.67468269873 0.5103056515903835 378.0 73.0 282.0 
504.00010179366996 2566.0 NaN 1493.6780227120908 0.5093487062678773 383.0 70.0 286.0 
506.00010179366996 2564.0 NaN 1496.734802939211 0.5017939048400499 393.0 63.0 294.0 
508.00010179366996 2579.0 NaN 1499.8076152304616 0.5080509509092466 390.0 70.0 288.0 
510.00010179366996 2600.0 NaN 1499.8289913159645 0.5063627310054601 386.0 72.0 286.0 
512.00010179367 2600.0 NaN 1493.7955911823638 0.507255988069568 387.0 68.0 288.0 
514.00010179367 2588.0 NaN 1487.5617902471618 0.5120854249427095 381.0 74.0 280.0 
516.00010179367 2566.0 NaN 1481.5230460921837 0.5011547185929308 381.0 71.0 281.0 
518.00010179367 2582.0 NaN 1478.2685370741474 0.5134765358882891 388.0 64.0 287.0 
520.00010179367 2579.0 NaN 1469.143620574482 0.5033389538036652 380.0 70.0 278.0 
522.00010179367 2573.0 NaN 1466.0895123580485 0.5058021276683007 378.0 70.0 277.0 
524.00010179367 2564.0 NaN 1466.1215764863068 0.5126716363145742 375.0 70.0 277.0 
526.00010179367 2563.0 NaN 1466.0868403473626 0.5076183801122199 378.0 68.0 279.0 
528.00010179367 2578.0 NaN 1466.167000668002 0.5022791322645399 382.0 67.0 280.0 
530.00010179367 2585.0 NaN 1463.1128924515706 0.5068806536298543 383.0 67.0 279.0 
532.00010179367 2583.0 NaN 1456.8897795591183 0.5143614718892779 382.0 68.0 276.0 
534.00010179367 2574.0 NaN 1450.7975951903813 0.5093815449562846 386.0 65.0 277.0 
536.00010179367 2566.0 NaN 1456.8042752171004 0.4994007973399964 387.0 62.0 282.0 
538.00010179367 2583.0 NaN 1459.9305277221101 0.5048190697453652 389.0 63.0 282.0 
540.00010179367 2589.0 NaN 1463.1529726118908 0.5058358778774015 389.0 62.0 284.0 
542.00010179367 2584.0 NaN 1466.148296593185 0.5216439959877303 390.0 63.0 284.0 
544.00010179367 2563.0 NaN 1472.3473613894453 0.5059935649042643 386.0 68.0 281.0 
546.00010179367 2555.0 NaN 1472.384769539079 0.4993190706471089 392.0 63.0 286.0 
548.00010179367 2559.0 NaN 1472.2484969939883 0.5127472242900281 388.0 68.0 281.0 
550.00010179367 2560.0 NaN 1469.2611890447556 0.4986617954319357 392.0 64.0 284.0 
552.00010179367 2558.0 NaN 1466.1215764863064 0.5031298628114272 387.0 68.0 279.0 
554.00010179367 2561.0 NaN 1469.210420841683 0.500628517976906 390.0 65.0 283.0 
556.00010179367 2564.0 NaN 1466.1215764863064 0.4999261594997819 385.0 68.0 279.0 
558.00010179367 2566.0 NaN 1462.9579158316637 0.5122693013391459 387.0 69.0 277.0 
560.00010179367 2553.0 NaN 1462.963259853039 0.496614504572043 385.0 67.0 279.0 
562.00010179367 2577.0 NaN 1465.9665998664 0.5173772186449919 387.0 67.0 280.0 
564.00010179367 2576.0 NaN 1469.2665330661323 0.5220597358524552 387.0 70.0 278.0 
566.00010179367 2542.0 NaN 1466.1963927855716 0.5054966822663729 386.0 69.0 278.0 
568.00010179367 2542.0 NaN 1469.250501002004 0.499409047101812 387.0 70.0 278.0 
570.00010179367 2553.0 NaN 1475.5003340013363 0.5075199089909176 397.0 62.0 288.0 
572.00010179367 2545.0 NaN 1484.7160988643964 0.517364541240156 398.0 62.0 291.0 
574.00010179367 2555.0 NaN 1487.7327989311966 0.5084104668494208 400.0 64.0 290.0 
576.00010179367 2532.0 NaN 1484.6626586506352 0.5069355157436404 399.0 63.0 290.0 
578.00010179367 2533.0 NaN 1481.4615898463603 0.5043606166356643 403.0 58.0 294.0 
580.00010179367 2549.0 NaN 1481.5417501670001 0.5101740769200331 403.0 58.0 294.0 
582.00010179367 2557.0 NaN 1484.6813627254517 0.5060870021352774 406.0 57.0 296.0 
584.00010179367 2563.0 NaN 1487.6526386105547 0.5045743571827961 410.0 57.0 297.0 
586.00010179367 2553.0 NaN 1487.5270541082168 0.4967931969003175 411.0 59.0 295.0 
588.00010179367 2577.0 NaN 1487.6499665998658 0.5066992053868389 412.0 57.0 297.0 
590.00010179367 2581.0 NaN 1490.7388109552442 0.5171385676436986 409.0 58.0 297.0 
592.00010179367 2588.0 NaN 1490.6185704742816 0.51321103355019 411.0 59.0 296.0 
594.00010179367 2587.0 NaN 1493.795591182364 0.5109534421319798 414.0 57.0 299.0 
596.00010179367 2559.0 NaN 1493.7528390113555 0.5063446705353043 411.0 58.0 298.0 
598.00010179367 2573.0 NaN 1496.7348029392112 0.4991093975519156 413.0 59.0 298.0 
600.00010179367 2590.0 NaN 1503.0621242484979 0.5188474063271311 415.0 57.0 302.0 
602.00010179367 2591.0 NaN 1496.7134268537077 0.5107735102156814 413.0 58.0 299.0 
604.00010179367 2583.0 NaN 1509.1035404141624 0.5118940954170288 406.0 66.0 295.0 
606.00010179367 2584.0 NaN 1509.098196392785 0.49615853815040145 403.0 66.0 295.0 
608.00010179367 2598.0 NaN 1509.1142284569146 0.504679295012566 403.0 66.0 295.0 
610.00010179367 2592.0 NaN 1509.1703406813635 0.51626796122167 400.0 69.0 292.0 
612.00010179367 2576.0 NaN 1512.2698730794918 0.502922606748553 395.0 73.0 289.0 
614.00010179367 2583.0 NaN 1512.219104876419 0.5053549602706543 396.0 75.0 287.0 
616.00010179367 2582.0 NaN 1509.1195724782908 0.501983678644005 396.0 70.0 291.0 
618.00010179367 2597.0 NaN 1512.1790247161 0.501772925751276 394.0 71.0 291.0 
620.00010179367 2606.0 NaN 1524.627922511691 0.5135296008407709 393.0 72.0 294.0 
622.00010179367 2601.0 NaN 1524.4008016032071 0.5052087829609714 399.0 67.0 299.0 
624.00010179367 2622.0 NaN 1524.6012024048089 0.5140604557098547 403.0 64.0 302.0 
626.00010179367 2622.0 NaN 1521.2825651302617 0.5034393014560703 403.0 62.0 303.0 
628.00010179367 2648.0 NaN 1521.3440213760848 0.5097377319944236 404.0 62.0 303.0 
630.00010179367 2634.0 NaN 1524.467601870408 0.5084888320023914 394.0 70.0 296.0 
632.00010179367 2625.0 NaN 1524.3954575818293 0.5024197764664508 397.0 69.0 297.0 
634.00010179367 2662.0 NaN 1524.5076820307274 0.5072779486930598 407.0 66.0 300.0 
636.00010179367 2655.0 NaN 1524.5477621910477 0.5060708748704252 406.0 66.0 300.0 
638.00010179367 2656.0 NaN 1524.3660654642626 0.5152440781270086 406.0 66.0 300.0 
640.00010179367 2649.0 NaN 1521.3600534402149 0.5093704937901343 402.0 70.0 295.0 
642.00010179367 2646.0 NaN 1518.1910487641942 0.5042229563562999 399.0 69.0 295.0 
644.00010179367 2641.0 NaN 1518.3112892451563 0.5120755986947776 399.0 66.0 298.0 
646.00010179367 2621.0 NaN 1518.1429525718092 0.5108760533520229 394.0 67.0 297.0 
648.00010179367 2623.0 NaN 1518.2631930527727 0.516093349282535 395.0 66.0 298.0 
650.00010179367 2620.0 NaN 1515.1823647294577 0.5104653378481798 395.0 67.0 296.0 
652.00010179367 2628.0 NaN 1527.5430861723453 0.509422862073404 393.0 70.0 297.0 
654.00010179367 2633.0 NaN 1527.6686706746818 0.5215471037372391 394.0 68.0 299.0 
656.00010179367 2609.0 NaN 1527.6392785571152 0.5169386601904408 394.0 66.0 301.0 
658.00010179367 2614.0 NaN 1527.623246492985 0.5171375740652947 393.0 67.0 300.0 
660.00010179367 2606.0 NaN 1530.9311957247817 0.5095826500367442 396.0 66.0 302.0 
662.00010179367 2618.0 NaN 1536.9832999332 0.513518737116351 397.0 66.0 304.0 
664.00010179367 2598.0 NaN 1536.9325317301273 0.5149592116539478 398.0 66.0 304.0 
#####################################################################
# End of data export. Simulation finished at: 2019-03-07T15:30+0000 #
#####################################################################
