#####################################################################
# Alchemist log file - simulation started at: 2019-03-15T07:06+0000 #
#####################################################################
# seed = 8.0, bandwidth = 17782.79410038923, propagationDelay = 0.0031622776601683794, baserange = 17.78279410038923
#
# The columns have the following meaning: 
# time neighbor_count[Sum] <value>@neighbor_count[Sum] packet_size[Mean] mean_delay[Mean] crowd[Sum] overcrowded[Sum] risk[Sum] 
0.0 NaN NaN NaN NaN NaN NaN NaN 
2.0002780496086556 1073.0 NaN 4991.593854375417 0.4895589785171442 1497.0 0.0 1497.0 
4.000278049608656 1118.0 NaN 4995.951903807615 0.5082140702221772 1496.0 1.0 1496.0 
6.000198348008885 1118.0 NaN 4994.105544422177 0.5083811770649826 1492.0 5.0 1492.0 
8.000278049608657 1118.0 NaN 4992.7374749498995 0.508624069016487 1490.0 7.0 1490.0 
10.000278049608657 1118.0 NaN 4992.828323313293 0.5088076824856096 1490.0 7.0 1490.0 
12.000278049608657 1118.0 NaN 4992.6332665330665 0.5103259566428152 1490.0 7.0 1490.0 
14.000278049608657 1119.0 NaN 4992.307281229125 0.519899776794679 1490.0 7.0 1490.0 
16.000198348008887 1121.0 NaN 4991.98663994656 0.5309374164019511 1490.0 7.0 1490.0 
18.00027804960866 1128.0 NaN 4992.138944555778 0.5466179934857361 1490.0 7.0 1490.0 
20.00027804960866 1128.0 NaN 4992.021376085504 0.5636517550651267 1490.0 7.0 1490.0 
22.00027804960866 1129.0 NaN 4991.820975283901 0.573579751370117 1490.0 7.0 1490.0 
24.00027804960866 1134.0 NaN 4992.13627254509 0.5909961953919669 1490.0 7.0 1490.0 
26.000198348008887 1134.0 NaN 4991.812959251837 0.6138217916588111 1490.0 7.0 1490.0 
28.00027804960866 1137.0 NaN 4991.909151636606 0.6391459120317915 1490.0 7.0 1490.0 
30.00027804960866 1138.0 NaN 4992.005344021376 0.6699476445980921 1490.0 7.0 1490.0 
32.00027804960866 1141.0 NaN 4991.663326653306 0.7051199432178018 1490.0 7.0 1490.0 
34.00027804960865 1146.0 NaN 4991.831663326653 0.6950205117976027 1490.0 7.0 1490.0 
36.00019834800889 1144.0 NaN 4991.893119572478 0.6748314237463484 1490.0 7.0 1490.0 
38.00027804960865 1144.0 NaN 4991.764863059452 0.6996424278321386 1490.0 7.0 1490.0 
40.00027804960865 1143.0 NaN 4991.917167668671 0.6990789338484777 1490.0 7.0 1490.0 
42.00027804960865 1147.0 NaN 4991.954575818303 0.7314211957659047 1490.0 7.0 1490.0 
44.00027804960865 1159.0 NaN 4991.861055444222 0.7280238143203699 1490.0 7.0 1490.0 
46.00019834800889 1160.0 NaN 4991.882431529726 0.7273673452153884 1490.0 7.0 1490.0 
48.00027804960865 1166.0 NaN 4991.911823647295 0.7695150722186691 1490.0 7.0 1490.0 
50.00027804960865 1176.0 NaN 4991.698062792251 0.7541943536682532 1490.0 7.0 1490.0 
52.00027804960865 1190.0 NaN 4991.965263861055 0.7523358713377537 1490.0 7.0 1490.0 
54.00027804960865 1196.0 NaN 4992.088176352705 0.7656301896021904 1490.0 7.0 1490.0 
56.00019834800889 1202.0 NaN 4991.74081496326 0.8121740935485077 1490.0 7.0 1490.0 
58.00027804960865 1202.0 NaN 4991.89044756179 0.8868521231732072 1490.0 7.0 1490.0 
60.00027804960865 1203.0 NaN 4991.981295925184 0.9210713027194589 1490.0 7.0 1490.0 
62.000284055267315 1210.0 NaN 990.0280561122262 0.9859092479674357 488.0 6.0 186.0 
64.00028405526731 1223.0 NaN 992.9672678690729 0.9585999737637614 473.0 6.0 187.0 
66.0001983480089 1224.0 NaN 996.026720106882 1.0172126574140412 422.0 6.0 188.0 
68.00028405526731 1220.0 NaN 996.0534402137624 1.049820764830916 375.0 6.0 188.0 
70.00028405526731 1217.0 NaN 995.9812959251816 1.108669791108704 345.0 6.0 188.0 
72.00028405526731 1218.0 NaN 995.9358717434897 1.1523351761474796 334.0 6.0 188.0 
74.00028405526731 1204.0 NaN 995.9225116900453 1.1528423897624833 329.0 6.0 188.0 
76.0001983480089 1196.0 NaN 995.9091516366078 1.1846666097045726 316.0 6.0 188.0 
78.00028405526731 1195.0 NaN 995.9038076152284 1.260003295872472 306.0 6.0 188.0 
80.00028405526731 1196.0 NaN 995.8744154976639 1.2246205424385064 300.0 6.0 188.0 
82.00028405526731 1200.0 NaN 998.9605878423536 1.1611456011267056 300.0 6.0 189.0 
84.00028405526731 1182.0 NaN 1002.0627922511717 0.9872969381383663 296.0 6.0 190.0 
86.0001983480089 1176.0 NaN 1002.0173680694729 0.9512318487185647 291.0 6.0 190.0 
88.00028405526731 1176.0 NaN 1002.0654642618557 1.0232890908105214 287.0 6.0 190.0 
90.00028405526731 1175.0 NaN 1001.993319973282 1.0229837131072126 287.0 6.0 190.0 
92.00028405526731 1175.0 NaN 1005.0768203072821 1.042087708405932 287.0 6.0 191.0 
94.00028405526731 1178.0 NaN 1011.2812291249184 1.0170737278897601 289.0 6.0 193.0 
96.0001983480089 1177.0 NaN 1011.2625250500998 1.054153938408708 289.0 6.0 193.0 
98.00028405526731 1174.0 NaN 1014.3460253840997 1.0005251777457889 289.0 6.0 194.0 
100.00028405526731 1176.0 NaN 1014.3433533734108 1.051057338691207 287.0 6.0 194.0 
102.00028405526731 1181.0 NaN 1014.338009352036 1.121791409769938 287.0 6.0 194.0 
104.00028405526731 1185.0 NaN 1014.3754175016714 1.1331271937716347 289.0 6.0 194.0 
106.0001983480089 1179.0 NaN 1017.4134936539724 1.1399411800223949 289.0 6.0 195.0 
108.00028405526731 1178.0 NaN 1017.4402137608542 1.1862611666807295 289.0 6.0 195.0 
110.00028405526731 1173.0 NaN 1011.2144288577168 1.1459239458916448 288.0 6.0 193.0 
112.00028405526731 1188.0 NaN 1017.360053440217 1.2117298219997508 288.0 6.0 195.0 
114.00028405526731 1183.0 NaN 1017.3413493653987 1.1284797802849347 288.0 6.0 195.0 
116.0001983480089 1184.0 NaN 1020.4114896459557 1.1247167682898385 287.0 6.0 196.0 
118.00028405526731 1180.0 NaN 1017.2531730126906 1.171743016770904 287.0 6.0 195.0 
120.00028405526731 1188.0 NaN 1020.3607214428831 1.2893237702640223 287.0 6.0 196.0 
122.00028405526731 1192.0 NaN 1020.3740814963274 1.2602370958814355 287.0 6.0 196.0 
124.00028405526731 1191.0 NaN 1017.3253173012714 1.2839159834748965 286.0 6.0 195.0 
126.0001983480089 1191.0 NaN 1023.4415497662003 1.319366259646462 287.0 6.0 197.0 
128.00028405526731 1174.0 NaN 1023.4736138944542 1.222718743589632 287.0 6.0 197.0 
130.00028405526731 1171.0 NaN 1017.277221108883 1.0465215371490566 287.0 6.0 195.0 
132.00028405526731 1185.0 NaN 1020.3847695390804 1.1384208864328087 284.0 6.0 196.0 
134.00028405526731 1190.0 NaN 1020.4141616566453 1.2469606066048944 283.0 6.0 196.0 
136.0001983480089 1176.0 NaN 1014.2364729458907 1.1213638027491517 280.0 6.0 194.0 
138.00028405526731 1185.0 NaN 1017.3653974615912 1.1894809715024677 280.0 6.0 195.0 
140.00028405526731 1188.0 NaN 1017.4615898463621 1.1743197682075726 280.0 6.0 195.0 
142.00028405526731 1193.0 NaN 1020.4969939879742 1.0756865797186408 282.0 6.0 196.0 
144.00028405526731 1207.0 NaN 1017.4642618570452 1.0932597835452282 282.0 6.0 195.0 
146.0001983480089 1218.0 NaN 1020.529058116235 1.123359141170784 282.0 6.0 196.0 
148.00028405526731 1217.0 NaN 1020.6065464261832 1.1219998003192364 282.0 6.0 196.0 
150.00028405526731 1224.0 NaN 1023.5911823647269 1.0450233159278808 283.0 6.0 197.0 
152.00028405526731 1234.0 NaN 1023.612558450235 0.9745703108342249 285.0 6.0 197.0 
154.00028405526731 1235.0 NaN 1023.5270541082184 0.9515172635210947 285.0 6.0 197.0 
156.0001983480089 1242.0 NaN 1023.5323981295907 0.8955239691100726 285.0 6.0 197.0 
158.00028405526731 1243.0 NaN 1023.4949899799623 0.9604309018884374 285.0 6.0 197.0 
160.00028405526731 1247.0 NaN 1023.5163660654634 1.0163230575538544 286.0 6.0 197.0 
162.00028405526731 1260.0 NaN 1023.4843019372092 1.0871596244719302 289.0 6.0 197.0 
164.00028405526731 1254.0 NaN 1020.4328657314638 1.1109453641863516 289.0 6.0 196.0 
166.0001983480089 1260.0 NaN 1014.2631930527729 1.229790679573049 289.0 6.0 194.0 
168.00028405526731 1264.0 NaN 1014.2845691382743 1.3726232666061895 289.0 6.0 194.0 
170.00028405526731 1265.0 NaN 1014.2444889779545 1.331906624798105 290.0 6.0 194.0 
172.00028405526731 1259.0 NaN 1011.2117568470271 1.2994188745824025 288.0 6.0 193.0 
174.00028405526731 1248.0 NaN 1017.3734134936548 1.325141389300284 287.0 6.0 195.0 
176.0001983480089 1245.0 NaN 1014.3273213092835 1.2726465766171915 287.0 6.0 194.0 
178.00028405526731 1253.0 NaN 1011.2598530394106 1.3867254832749267 287.0 6.0 193.0 
180.00028405526731 1258.0 NaN 1011.2358049432182 1.5438706068089967 287.0 6.0 193.0 
182.00028405526731 1246.0 NaN 1008.1496325985286 1.522677911363086 287.0 6.0 192.0 
184.00028405526731 1225.0 NaN 1005.1462925851713 1.2996182287923266 285.0 6.0 191.0 
186.0001983480089 1216.0 NaN 1005.0420841683363 1.3252704548037322 283.0 6.0 191.0 
188.00028405526731 1214.0 NaN 1005.0394121576468 1.2983070298962331 283.0 6.0 191.0 
190.00028405526731 1215.0 NaN 1005.0073480293911 1.3318939753128467 284.0 6.0 191.0 
192.00028405526731 1222.0 NaN 1008.093520374082 1.3173333305703845 286.0 6.0 192.0 
194.00028405526731 1209.0 NaN 1001.9559118236455 1.2423360437739661 286.0 6.0 190.0 
196.0001983480089 1218.0 NaN 998.8697394789563 1.3060931708840797 287.0 6.0 189.0 
198.00028405526731 1214.0 NaN 1005.0313961255832 1.312505828389261 287.0 6.0 191.0 
200.00028405526731 1214.0 NaN 998.9498997996002 1.280223206992399 287.0 6.0 189.0 
202.00028405526731 1215.0 NaN 999.0220440881745 1.1941914012300716 288.0 6.0 189.0 
204.00028405526731 1218.0 NaN 1002.0387441549742 1.1923643825097439 289.0 6.0 190.0 
206.0001983480089 1223.0 NaN 1001.9879759519016 1.2507232132339954 289.0 6.0 190.0 
208.00028405526731 1225.0 NaN 998.9739478957907 1.327834648576385 288.0 6.0 189.0 
210.00028405526731 1227.0 NaN 1002.0467601870379 1.2411449705498585 287.0 6.0 190.0 
212.00028405526731 1232.0 NaN 1005.0821643286558 1.2916884689641854 290.0 6.0 191.0 
214.00028405526731 1229.0 NaN 1005.0741482965907 1.1552005535838084 289.0 6.0 191.0 
216.0001983480089 1230.0 NaN 1008.1309285237166 1.206275270865762 289.0 6.0 192.0 
218.00028405526731 1227.0 NaN 1014.2525050100181 1.1949659532066392 287.0 7.0 193.0 
220.00028405526731 1225.0 NaN 1014.3674014696077 1.1962945324195062 281.0 12.0 188.0 
222.00028405526731 1236.0 NaN 1014.316633266535 1.329879978732364 282.0 12.0 188.0 
224.00028405526731 1233.0 NaN 1014.3032732130908 1.364282072819352 282.0 12.0 188.0 
226.0001983480089 1228.0 NaN 1014.2872411489633 1.365738405013169 280.0 12.0 188.0 
228.00028405526731 1240.0 NaN 1020.4863059452257 1.3608948074661427 282.0 12.0 190.0 
230.00028405526731 1247.0 NaN 1020.59853039412 1.3888427825742662 287.0 9.0 193.0 
232.00028405526731 1242.0 NaN 1014.4235136940545 1.392238279092888 289.0 6.0 194.0 
234.00028405526731 1244.0 NaN 1017.3787575150288 1.4773377818756035 289.0 6.0 195.0 
236.0001983480089 1248.0 NaN 1020.4916499666001 1.4676733860861697 289.0 6.0 196.0 
238.00028405526731 1254.0 NaN 1026.6693386773545 1.569483096437559 289.0 6.0 198.0 
240.00028405526731 1253.0 NaN 1020.6225784903169 1.5179900126122077 287.0 6.0 196.0 
242.00028405526731 1233.0 NaN 1020.5130260521013 1.4624124605896474 286.0 6.0 196.0 
244.00028405526731 1229.0 NaN 1014.3620574482288 1.4030864703889177 286.0 6.0 194.0 
246.0001983480089 1231.0 NaN 1011.249164996662 1.5405539894523619 286.0 6.0 193.0 
248.00028405526731 1231.0 NaN 1002.0360721442893 1.5283427052593173 285.0 6.0 190.0 
250.00028405526731 1234.0 NaN 998.9712758851019 1.6233388862328983 283.0 6.0 189.0 
252.00028405526731 1231.0 NaN 995.8851035404165 1.55880894437234 283.0 6.0 188.0 
254.00028405526731 1220.0 NaN 995.767535070138 1.323493578293183 280.0 6.0 188.0 
256.0001983480089 1224.0 NaN 998.8911155644636 1.4310617363983935 280.0 6.0 189.0 
258.0002840552673 1215.0 NaN 1002.0360721442895 1.4117948544232735 281.0 6.0 190.0 
260.0002840552673 1203.0 NaN 1002.0467601870378 1.283690676646723 280.0 6.0 190.0 
262.0002840552673 1205.0 NaN 1001.9478957915819 1.2152222894031646 282.0 6.0 190.0 
264.0002840552673 1200.0 NaN 998.9124916499651 1.2273706271001803 283.0 6.0 189.0 
266.0001983480089 1204.0 NaN 998.9258517034093 1.2858945901689962 285.0 6.0 189.0 
268.0002840552673 1204.0 NaN 995.7808951235818 1.3109026717498073 287.0 6.0 188.0 
270.0002840552673 1198.0 NaN 995.7702070808269 1.3050593826630776 287.0 6.0 188.0 
272.0002840552673 1198.0 NaN 995.7969271877092 1.3483415594911385 286.0 6.0 188.0 
274.0002840552673 1204.0 NaN 992.7160988643982 1.4185291007709788 287.0 6.0 187.0 
276.0001983480089 1203.0 NaN 989.672678690716 1.5006054157635362 287.0 6.0 186.0 
278.0002840552673 1208.0 NaN 989.640614562457 1.5009013449156734 289.0 6.0 186.0 
280.0002840552673 1206.0 NaN 1001.9799599198378 1.4896482957558341 289.0 6.0 190.0 
282.0002840552673 1203.0 NaN 998.9124916499653 1.5400146359938305 289.0 6.0 189.0 
284.0002840552673 1192.0 NaN 998.8670674682711 1.5006617888327776 288.0 6.0 189.0 
286.0001983480089 1186.0 NaN 998.8937875751529 1.4878892932771153 286.0 6.0 189.0 
288.0002840552673 1194.0 NaN 998.8964595858362 1.590925547958586 285.0 6.0 189.0 
290.0002840552673 1181.0 NaN 995.847695390782 1.5314893612523113 284.0 6.0 188.0 
292.0002840552673 1177.0 NaN 998.8697394789563 1.567431148541583 285.0 6.0 189.0 
294.0002840552673 1174.0 NaN 1001.9799599198383 1.4196990131826468 285.0 6.0 190.0 
296.0001983480089 1183.0 NaN 1002.0040080160345 1.4931581326263534 283.0 6.0 190.0 
298.0002840552673 1177.0 NaN 998.9686038744161 1.323766698208978 281.0 6.0 189.0 
300.0002840552673 1179.0 NaN 1005.1302605210436 1.1488988468538464 284.0 6.0 191.0 
302.0002840552673 1175.0 NaN 1005.0634602538433 1.1537194370271155 282.0 6.0 191.0 
304.0002840552673 1168.0 NaN 998.9311957247816 1.0584785595458175 280.0 6.0 189.0 
306.0001983480089 1176.0 NaN 1002.0200400801617 1.114189972768653 280.0 6.0 190.0 
308.0002840552673 1169.0 NaN 998.9498997996002 1.0299787343807594 280.0 6.0 189.0 
310.0002840552673 1175.0 NaN 998.8991315965275 1.1085966783637746 280.0 6.0 189.0 
312.0002840552673 1172.0 NaN 995.8450233800933 1.1962633002386187 281.0 6.0 188.0 
314.0002840552673 1176.0 NaN 995.7862391449543 1.271003327169864 282.0 6.0 188.0 
316.0001983480089 1184.0 NaN 998.8937875751521 1.3475232150292769 283.0 6.0 189.0 
318.0002840552673 1180.0 NaN 989.6860387441544 1.3564996264876394 282.0 6.0 186.0 
320.0002840552673 1189.0 NaN 989.6887107548433 1.3582049668859415 284.0 6.0 186.0 
322.0002840552673 1188.0 NaN 992.8096192384751 1.2500568750391858 290.0 6.0 187.0 
324.0002840552673 1183.0 NaN 995.8450233800932 1.2087178779392718 291.0 6.0 188.0 
326.0001983480089 1180.0 NaN 995.8183032732114 1.229369169085069 290.0 6.0 188.0 
328.0002840552673 1187.0 NaN 1001.9532398129609 1.240342856459232 291.0 6.0 190.0 
330.0002840552673 1182.0 NaN 1008.1656646626569 1.2393665478861433 291.0 6.0 192.0 
332.0002840552673 1172.0 NaN 1008.1790247161003 1.2110346860606573 290.0 6.0 192.0 
334.0002840552673 1171.0 NaN 1008.0641282565116 1.1832413324512365 291.0 6.0 192.0 
336.0001983480089 1170.0 NaN 1008.0855043420183 1.2203830929676978 291.0 6.0 192.0 
338.0002840552673 1183.0 NaN 1008.0988643954572 1.2806277570621196 292.0 6.0 192.0 
340.0002840552673 1182.0 NaN 1005.0126920507668 1.2610980896064012 292.0 6.0 191.0 
342.0002840552673 1190.0 NaN 995.8931195724781 1.372288844486482 292.0 6.0 188.0 
344.0002840552673 1188.0 NaN 998.9632598530395 1.4121160665045938 292.0 6.0 189.0 
346.0001983480089 1182.0 NaN 998.9285237140944 1.36678300352949 291.0 6.0 189.0 
348.0002840552673 1181.0 NaN 1001.9906479625907 1.5179732013420884 292.0 6.0 190.0 
350.0002840552673 1173.0 NaN 1001.9746158984638 1.557151677030631 292.0 6.0 190.0 
352.0002840552673 1162.0 NaN 995.7915831663328 1.6196017554362327 289.0 6.0 188.0 
354.0002840552673 1164.0 NaN 998.8697394789576 1.6336959181903845 288.0 6.0 189.0 
356.0001983480089 1167.0 NaN 1001.9265197060789 1.6863532511662354 288.0 6.0 190.0 
358.0002840552673 1172.0 NaN 1005.0394121576481 1.747539557561656 289.0 6.0 191.0 
360.0002840552673 1156.0 NaN 1005.0394121576481 1.623773805634604 290.0 6.0 191.0 
362.0002840552673 1152.0 NaN 1001.8971275885092 1.754342938607203 290.0 6.0 190.0 
364.0002840552673 1152.0 NaN 1001.8784235136937 1.5083464978907732 290.0 6.0 190.0 
366.0001983480089 1148.0 NaN 998.8670674682696 1.4395864823521605 289.0 6.0 189.0 
368.0002840552673 1142.0 NaN 995.8102872411492 1.3465425988991804 284.0 6.0 188.0 
370.0002840552673 1142.0 NaN 998.8483633934547 1.3354523628632726 287.0 6.0 189.0 
372.0002840552673 1143.0 NaN 995.7808951235816 1.3151739547393841 289.0 6.0 188.0 
374.0002840552673 1152.0 NaN 995.7915831663336 1.2395561690353618 290.0 6.0 188.0 
376.0001983480089 1150.0 NaN 989.6806947227789 1.1143525837111814 287.0 6.0 186.0 
378.0002840552673 1153.0 NaN 992.777555110218 1.1194536528161478 286.0 6.0 187.0 
380.0002840552673 1149.0 NaN 986.5384101536401 1.0732836933279812 284.0 6.0 185.0 
382.0002840552673 1151.0 NaN 971.2358049432183 1.1545657745683369 281.0 6.0 180.0 
384.0002840552673 1153.0 NaN 974.3299933199725 1.2579705917014843 280.0 6.0 181.0 
386.0001983480089 1154.0 NaN 971.2384769539088 1.3766794444267636 281.0 6.0 180.0 
388.0002840552673 1156.0 NaN 968.205744822978 1.3165842579475613 279.0 6.0 179.0 
390.0002840552673 1165.0 NaN 962.1670006680037 1.2610785930528454 276.0 6.0 177.0 
392.0002840552673 1167.0 NaN 962.094856379427 1.405564680729119 275.0 6.0 177.0 
394.0002840552673 1190.0 NaN 962.0788243152966 1.48433146158225 276.0 6.0 177.0 
396.0001983480089 1177.0 NaN 962.1830327321311 1.5134075835349343 272.0 6.0 177.0 
398.0002840552673 1187.0 NaN 956.0828323313272 1.6269717563011514 271.0 6.0 175.0 
400.0002840552673 1176.0 NaN 949.8757515030057 1.5261177980676301 268.0 6.0 173.0 
402.0002840552673 1187.0 NaN 949.814295257182 1.541459213287261 270.0 6.0 173.0 
404.0002840552673 1181.0 NaN 952.8764195056782 1.4095479437675804 271.0 6.0 174.0 
406.0001983480089 1173.0 NaN 952.8817635270547 1.315472049823442 268.0 6.0 174.0 
408.0002840552673 1187.0 NaN 952.9485637942544 1.3308629508210081 269.0 6.0 174.0 
410.0002840552673 1178.0 NaN 946.8056112224457 1.3695781573231542 270.0 6.0 172.0 
412.0002840552673 1171.0 NaN 943.7942551770217 1.4117365090803113 268.0 8.0 169.0 
414.0002840552673 1174.0 NaN 940.5664662658637 1.4526938264890439 266.0 11.0 165.0 
416.0001983480089 1175.0 NaN 940.6359385437547 1.5019082570341966 263.0 14.0 162.0 
418.0002840552673 1174.0 NaN 934.5010020040095 1.6226299729260598 265.0 12.0 162.0 
420.0002840552673 1169.0 NaN 934.4181696726794 1.5234942307047987 268.0 8.0 166.0 
422.0002840552673 1173.0 NaN 940.6305945223788 1.5654452171824083 265.0 8.0 168.0 
424.0002840552673 1171.0 NaN 934.5544422177695 1.6261830244961142 262.0 11.0 163.0 
426.0001983480089 1161.0 NaN 934.5197060788246 1.6407168997610522 258.0 13.0 161.0 
428.0002840552673 1168.0 NaN 934.4529058116242 1.6974678915949724 257.0 11.0 163.0 
430.0002840552673 1162.0 NaN 934.5250501001998 1.4789663563572981 260.0 8.0 166.0 
432.0002840552673 1160.0 NaN 937.5551102204394 1.3563079764481034 261.0 6.0 169.0 
434.0002840552673 1159.0 NaN 937.5551102204395 1.405180006207389 259.0 6.0 169.0 
436.0001983480089 1156.0 NaN 937.5310621242485 1.4229344901514365 261.0 6.0 169.0 
438.0002840552673 1166.0 NaN 943.65798263193 1.4508873416144479 261.0 6.0 171.0 
440.0002840552673 1163.0 NaN 946.7254509018032 1.357112502344805 259.0 6.0 172.0 
442.0002840552673 1179.0 NaN 965.1756847027387 1.4541078932228255 263.0 6.0 178.0 
444.0002840552673 1185.0 NaN 968.2778891115544 1.540150874717561 265.0 6.0 179.0 
446.0001983480089 1184.0 NaN 968.2458249833 1.446423329477071 264.0 6.0 179.0 
448.0002840552673 1186.0 NaN 971.2785571142273 1.5844084982477584 265.0 6.0 180.0 
450.0002840552673 1181.0 NaN 965.087508350034 1.5499112442290015 264.0 6.0 178.0 
452.0002840552673 1180.0 NaN 962.0227120908479 1.4769256684153447 263.0 6.0 177.0 
454.0002840552673 1185.0 NaN 962.0146960587841 1.4969120606313733 263.0 6.0 177.0 
456.0001983480089 1191.0 NaN 965.0768203072821 1.4091747205173597 265.0 6.0 178.0 
458.0002840552673 1190.0 NaN 962.0494321977275 1.2659533945502863 264.0 9.0 174.0 
460.0002840552673 1188.0 NaN 958.9686038744157 1.25515999970991 263.0 13.0 169.0 
462.0002840552673 1186.0 NaN 958.9739478957908 1.3441911657970647 261.0 14.0 168.0 
464.0002840552673 1185.0 NaN 958.9579158316637 1.4191229051023313 259.0 14.0 168.0 
466.0001983480089 1181.0 NaN 962.0627922511701 1.371255631478907 262.0 14.0 169.0 
468.0002840552673 1181.0 NaN 962.0948563794271 1.4686244187802109 264.0 14.0 169.0 
470.0002840552673 1175.0 NaN 959.0354041416181 1.5378259400673187 265.0 14.0 168.0 
472.0002840552673 1159.0 NaN 955.9251837007362 1.5810429678225746 264.0 14.0 167.0 
474.0002840552673 1153.0 NaN 961.987975951903 1.5528331586447255 262.0 14.0 169.0 
476.0001983480089 1145.0 NaN 955.861055444221 1.5590633678690926 261.0 14.0 167.0 
478.0002840552673 1154.0 NaN 955.8637274549089 1.6331650478836535 257.0 14.0 167.0 
480.0002840552673 1149.0 NaN 955.9278557114244 1.6095782254296036 257.0 14.0 167.0 
482.0002840552673 1135.0 NaN 952.8603874415481 1.4985757168954859 259.0 14.0 166.0 
484.0002840552673 1151.0 NaN 955.9679358717453 1.4287477723197135 258.0 14.0 167.0 
486.0001983480089 1139.0 NaN 955.890447561791 1.3691824885115786 257.0 14.0 167.0 
488.0002840552673 1148.0 NaN 949.7555110220452 1.4359415051362256 255.0 14.0 165.0 
490.0002840552673 1148.0 NaN 949.7261189044754 1.368559673612546 256.0 14.0 165.0 
492.0002840552673 1148.0 NaN 949.7207748831001 1.462613432475727 255.0 14.0 165.0 
494.0002840552673 1148.0 NaN 949.7555110220452 1.4409852248805497 254.0 14.0 165.0 
496.0001983480089 1141.0 NaN 946.6639946559786 1.3574057343221095 254.0 14.0 164.0 
498.0002840552673 1142.0 NaN 946.7014028056092 1.2340270025419262 255.0 14.0 164.0 
500.0002840552673 1127.0 NaN 943.5911823647274 1.0898319684414148 256.0 11.0 166.0 
502.0002840552673 1134.0 NaN 937.3867735470947 1.2040007608824947 261.0 7.0 168.0 
504.0002840552673 1134.0 NaN 937.4402137608544 1.1356657234991825 261.0 6.0 169.0 
506.0001983480089 1128.0 NaN 937.4081496325998 1.0335835597797054 260.0 6.0 169.0 
508.0002840552673 1134.0 NaN 931.3319973279907 1.0924220766211952 259.0 6.0 167.0 
510.0002840552673 1138.0 NaN 928.2805611222457 1.1266288908760875 260.0 6.0 166.0 
512.0002840552673 1136.0 NaN 931.3132932531726 1.1577158721719256 260.0 6.0 167.0 
514.0002840552673 1136.0 NaN 928.229792919173 1.2116476175296353 261.0 6.0 166.0 
516.0001983480089 1129.0 NaN 928.2378089512366 1.237302568235987 261.0 6.0 166.0 
518.0002840552673 1125.0 NaN 925.1623246492998 1.351187054832839 261.0 6.0 165.0 
520.0002840552673 1128.0 NaN 925.1543086172361 1.4217469588860838 261.0 6.0 165.0 
522.0002840552673 1124.0 NaN 922.0440881763543 1.4685204798243938 258.0 6.0 164.0 
524.0002840552673 1129.0 NaN 918.9899799599184 1.5440132984745223 257.0 6.0 163.0 
526.0001983480089 1120.0 NaN 915.9091516366051 1.3670240431466607 256.0 6.0 162.0 
528.0002840552673 1127.0 NaN 912.9164996659997 1.4746661789740085 254.0 6.0 161.0 
530.0002840552673 1128.0 NaN 909.8142952571819 1.461658131729766 250.0 6.0 160.0 
532.0002840552673 1129.0 NaN 906.7227788911142 1.4362999467980941 249.0 6.0 159.0 
534.0002840552673 1133.0 NaN 909.814295257182 1.3232713763387598 250.0 6.0 160.0 
536.0001983480089 1132.0 NaN 906.757515030059 1.33444294160404 249.0 6.0 159.0 
538.0002840552673 1142.0 NaN 916.0 1.4346967597241038 249.0 6.0 162.0 
540.0002840552673 1122.0 NaN 916.0053440213763 1.3560271971187026 247.0 6.0 162.0 
542.0002840552673 1121.0 NaN 903.7114228456908 1.3787365636360633 248.0 6.0 158.0 
544.0002840552673 1122.0 NaN 897.5898463593862 1.4454227147903913 248.0 6.0 156.0 
546.0001983480089 1119.0 NaN 900.6573146292592 1.2263455834902521 248.0 6.0 157.0 
548.0002840552673 1124.0 NaN 903.7087508350033 1.3185755326840805 249.0 6.0 158.0 
550.0002840552673 1115.0 NaN 900.6466265865062 1.3224278646733743 253.0 6.0 157.0 
552.0002840552673 1115.0 NaN 900.566466265865 1.3260347111393784 254.0 6.0 157.0 
554.0002840552673 1116.0 NaN 900.6573146292592 1.3054381630664087 254.0 6.0 157.0 
556.0001983480089 1122.0 NaN 900.5824983299938 1.3128266412055813 255.0 6.0 157.0 
558.0002840552673 1123.0 NaN 900.6573146292592 1.3619429943532273 254.0 6.0 157.0 
560.0002840552673 1125.0 NaN 900.6466265865062 1.4004033453318925 253.0 6.0 157.0 
562.0002840552673 1128.0 NaN 897.5444221776893 1.2962281492768495 253.0 6.0 156.0 
564.0002840552673 1147.0 NaN 900.6412825651305 1.308347584323036 254.0 6.0 157.0 
566.0001983480089 1149.0 NaN 903.7488309953238 1.343730554596883 255.0 6.0 158.0 
568.0002840552673 1155.0 NaN 903.7995991983965 1.4682662525977184 252.0 6.0 158.0 
570.0002840552673 1158.0 NaN 903.8396793587182 1.5317229657366978 252.0 6.0 158.0 
572.0002840552673 1157.0 NaN 903.7595190380773 1.523814729470259 250.0 6.0 158.0 
574.0002840552673 1176.0 NaN 903.8129592518364 1.5860875010704845 250.0 6.0 158.0 
576.0001983480089 1174.0 NaN 910.0253841015362 1.4824172756589866 252.0 6.0 160.0 
578.0002840552673 1166.0 NaN 910.0253841015362 1.3813091854567592 252.0 6.0 160.0 
580.0002840552673 1164.0 NaN 906.9231796927181 1.4552382102907613 251.0 6.0 159.0 
582.0002840552673 1157.0 NaN 906.9338677354715 1.5371954978547628 250.0 6.0 159.0 
584.0002840552673 1161.0 NaN 910.0921843687363 1.4281149424655784 250.0 6.0 160.0 
586.0001983480089 1157.0 NaN 913.1035404141627 1.3937037593067674 254.0 6.0 161.0 
588.0002840552673 1155.0 NaN 919.249164996659 1.4713040619683713 256.0 6.0 163.0 
590.0002840552673 1164.0 NaN 919.2037408149637 1.51144472015459 255.0 6.0 163.0 
592.0002840552673 1165.0 NaN 919.1556446225779 1.5619198266772114 254.0 6.0 163.0 
594.0002840552673 1170.0 NaN 928.3553774215089 1.5751449190068094 259.0 6.0 166.0 
596.0001983480089 1157.0 NaN 928.3340013360046 1.5236700819990052 259.0 6.0 166.0 
598.0002840552673 1159.0 NaN 931.3373413493641 1.5628258303002915 258.0 6.0 167.0 
600.0002840552673 1166.0 NaN 937.5551102204407 1.5502732498364002 262.0 6.0 169.0 
602.0002840552673 1160.0 NaN 937.523046092186 1.479619712135659 261.0 6.0 169.0 
604.0002840552673 1164.0 NaN 931.4468937875765 1.3520081742728276 261.0 6.0 167.0 
606.0001983480089 1163.0 NaN 937.512358049432 1.2139538693371745 264.0 6.0 169.0 
608.0002840552673 1165.0 NaN 934.4422177688723 1.3322369245664718 266.0 6.0 168.0 
610.0002840552673 1168.0 NaN 940.643954575818 1.401680533851784 264.0 6.0 170.0 
612.0002840552673 1165.0 NaN 949.8623914495638 1.4868918639044597 267.0 6.0 173.0 
614.0002840552673 1186.0 NaN 952.9619238476952 1.5554795439029852 269.0 6.0 174.0 
616.0001983480089 1179.0 NaN 949.8383433533726 1.5273450824525288 268.0 6.0 173.0 
618.0002840552673 1178.0 NaN 952.8977955911816 1.5546473370484855 267.0 6.0 174.0 
620.0002840552673 1186.0 NaN 952.8977955911816 1.69129429585835 268.0 6.0 174.0 
622.0002840552673 1190.0 NaN 949.8410153640633 1.7677621461370892 268.0 6.0 173.0 
624.0002840552673 1195.0 NaN 953.0126920507679 1.6365035667603036 267.0 6.0 174.0 
626.0001983480089 1178.0 NaN 953.055444221777 1.461444829859915 269.0 6.0 174.0 
628.0002840552673 1189.0 NaN 959.2144288577144 1.553479561813653 269.0 6.0 176.0 
630.0002840552673 1213.0 NaN 965.3734134936547 1.6546388596246495 270.0 6.0 178.0 
632.0002840552673 1224.0 NaN 965.3814295257182 1.7316740941908408 268.0 6.0 178.0 
634.0002840552673 1247.0 NaN 971.5778223112907 1.6624893089545012 269.0 6.0 180.0 
636.0001983480089 1234.0 NaN 971.4709418837675 1.6910601168867416 270.0 6.0 180.0 
638.0002840552673 1231.0 NaN 965.3627254509003 1.7767623553889298 269.0 6.0 178.0 
640.0002840552673 1241.0 NaN 977.6593186372727 1.7912181668934408 272.0 6.0 182.0 
642.0002840552673 1238.0 NaN 983.7675350701396 1.8051540009194966 274.0 6.0 184.0 
644.0002840552673 1240.0 NaN 983.8583834335334 1.8014108292748212 275.0 7.0 183.0 
646.0001983480089 1225.0 NaN 989.9879759519029 1.597517426400965 276.0 8.0 184.0 
648.0002840552673 1229.0 NaN 993.0313961255841 1.750170177241699 278.0 8.0 185.0 
650.0002840552673 1238.0 NaN 999.16633266533 1.780236440188287 276.0 10.0 185.0 
652.0002840552673 1237.0 NaN 999.1315965263844 1.8737663908787245 276.0 12.0 183.0 
654.0002840552673 1240.0 NaN 996.109552438209 1.8619942418778408 275.0 13.0 181.0 
656.0001983480089 1232.0 NaN 1005.3360053440202 1.7426641869527901 275.0 13.0 184.0 
658.0002840552673 1229.0 NaN 1005.2798931195729 1.7367460159534627 279.0 10.0 187.0 
660.0002840552673 1233.0 NaN 1008.3179692718751 1.6967816412591246 276.0 13.0 185.0 
662.0002840552673 1218.0 NaN 1017.5123580494342 1.49029486765154 276.0 14.0 187.0 
664.0002840552673 1218.0 NaN 1026.7174348697388 1.5666719826362432 278.0 15.0 189.0 
#####################################################################
# End of data export. Simulation finished at: 2019-03-15T07:20+0000 #
#####################################################################
