#####################################################################
# Alchemist log file - simulation started at: 2019-03-17T02:06+0000 #
#####################################################################
# seed = 8.0, bandwidth = 1333521.4321633242, propagationDelay = 10.0, baserange = 562.341325190349
#
# The columns have the following meaning: 
# time neighbor_count[Sum] <value>@neighbor_count[Sum] packet_size[Mean] mean_delay[Mean] crowd[Sum] overcrowded[Sum] risk[Sum] 
0.0 NaN NaN NaN NaN NaN NaN NaN 
2.000927030832833 NaN NaN 4988.0 NaN 1497.0 0.0 1497.0 
4.000927030832833 NaN NaN 4988.0 NaN 1497.0 0.0 1497.0 
6.000198348008885 NaN NaN 4988.0 NaN 1497.0 0.0 1497.0 
8.000927030832834 NaN NaN 4988.0 NaN 1497.0 0.0 1497.0 
10.000927030832834 NaN NaN 4988.0 NaN 1497.0 0.0 1497.0 
12.000927030832834 98211.0 NaN 4995.735470941884 0.9973025330337836 1497.0 0.0 1497.0 
14.000927030832834 98212.0 NaN 4996.7454909819635 2.9972967795283316 1497.0 0.0 1497.0 
16.000198348008887 98212.0 NaN 4996.7374749498995 4.996623832018237 1497.0 0.0 1497.0 
18.000927030832834 98212.0 NaN 4996.7454909819635 6.997296779528331 1497.0 0.0 1497.0 
20.000927030832834 98212.0 NaN 4996.748162992652 8.997296779528332 1497.0 0.0 1497.0 
22.000927030832834 98246.0 NaN 4996.7321309285235 5.527709140632231 1497.0 0.0 1497.0 
24.000927030832834 98283.0 NaN 4995.3480293921175 2.003022482861069 1497.0 0.0 1497.0 
26.000198348008887 98283.0 NaN 4994.313961255845 4.002349535350975 1497.0 0.0 1497.0 
28.000927030832834 98283.0 NaN 4994.321977287909 6.003022482861069 1497.0 0.0 1497.0 
30.000927030832834 98283.0 NaN 4994.321977287909 8.00302248286107 1497.0 0.0 1497.0 
32.000927030832834 98275.0 NaN 4994.338009352037 9.99732785046729 1497.0 0.0 1497.0 
34.000927030832834 98396.0 NaN 4995.692718770875 1.006872211596625 1496.0 1.0 1496.0 
36.00019834800889 98396.0 NaN 4996.6840347361385 3.006073799399152 1496.0 1.0 1496.0 
38.000927030832834 98396.0 NaN 4996.702738810955 5.006746746909246 1496.0 1.0 1496.0 
40.000927030832834 98396.0 NaN 4996.702738810955 7.006746746909246 1496.0 1.0 1496.0 
42.000927030832834 98390.0 NaN 4996.702738810955 9.004684882797212 1496.0 1.0 1496.0 
44.000927030832834 98435.0 NaN 4996.689378757515 5.525606542317757 1496.0 1.0 1496.0 
46.00019834800889 98498.0 NaN 4995.3239812959255 2.0141752014118475 1497.0 0.0 1497.0 
48.000927030832834 98498.0 NaN 4994.311289245157 4.014848148921942 1497.0 0.0 1497.0 
50.000927030832834 98498.0 NaN 4994.313961255845 6.014848148921942 1497.0 0.0 1497.0 
52.000927030832834 98498.0 NaN 4994.305945223781 8.014848148921942 1497.0 0.0 1497.0 
54.000927030832834 98450.0 NaN 4994.327321309285 9.997987850189109 1497.0 0.0 1497.0 
56.00019834800889 98615.0 NaN 4995.706078824315 1.0204470018349348 1496.0 1.0 1496.0 
58.000927030832834 98615.0 NaN 4996.697394789579 3.02099448465765 1496.0 1.0 1496.0 
60.000927030832834 98615.0 NaN 4996.692050768203 5.02099448465765 1496.0 1.0 1496.0 
62.000927030832834 98615.0 NaN 1523.7274549098183 7.02099448465765 838.0 1.0 364.0 
64.00092703083283 98587.0 NaN 1523.7274549098183 9.016712223536615 838.0 1.0 364.0 
66.0001983480089 98589.0 NaN 1523.7194388777543 5.532824641197016 768.0 1.0 364.0 
68.00092703083283 98682.0 NaN 1522.7201068804272 2.0236802613693436 670.0 1.0 364.0 
70.00092703083283 98682.0 NaN 1522.4048096192366 4.023680261369344 670.0 1.0 364.0 
72.00092703083283 98682.0 NaN 1522.3887775551088 6.023680261369344 670.0 1.0 364.0 
74.00092703083283 98682.0 NaN 1522.3887775551088 8.023680261369343 670.0 1.0 364.0 
76.0001983480089 98608.0 NaN 1522.3914495657996 9.997413832308409 670.0 1.0 364.0 
78.00092703083283 98777.0 NaN 1529.3146292585184 1.022417316831285 601.0 4.0 363.0 
80.00092703083283 98777.0 NaN 1529.645958583836 3.0224173168312847 602.0 4.0 363.0 
82.00092703083283 98777.0 NaN 1529.645958583836 5.022417316831285 603.0 4.0 363.0 
84.00092703083283 98777.0 NaN 1532.7267869071457 7.022417316831285 603.0 4.0 364.0 
86.0001983480089 98756.0 NaN 1532.6867067468274 9.013672231928268 603.0 4.0 364.0 
88.00092703083283 98749.0 NaN 1532.7348029392117 5.5031014884472205 594.0 3.0 365.0 
90.00092703083283 98824.0 NaN 1531.9679358717453 2.0155639102369833 579.0 5.0 363.0 
92.00092703083283 98824.0 NaN 1531.6740146960576 4.015563910236983 579.0 5.0 363.0 
94.00092703083283 98824.0 NaN 1531.6766867067456 6.015563910236983 579.0 5.0 363.0 
96.0001983480089 98824.0 NaN 1534.7548430193729 8.01489096272689 579.0 5.0 364.0 
98.00092703083283 98735.0 NaN 1534.7468269873093 10.001064987732653 579.0 5.0 364.0 
100.00092703083283 98881.0 NaN 1535.3319973279906 1.029871796192254 553.0 4.0 365.0 
102.00092703083283 98881.0 NaN 1535.6686706746818 3.0298717961922543 553.0 4.0 365.0 
104.00092703083283 98881.0 NaN 1535.6686706746818 5.029871796192254 553.0 4.0 365.0 
106.0001983480089 98881.0 NaN 1535.660654642618 7.02919884868216 553.0 4.0 365.0 
108.00092703083283 98826.0 NaN 1535.6686706746818 9.023487545579052 552.0 4.0 365.0 
110.00092703083283 98767.0 NaN 1535.6873747495001 5.50444831317983 549.0 3.0 366.0 
112.00092703083283 98846.0 NaN 1538.188376753509 2.0127618919370285 542.0 5.0 365.0 
114.00092703083283 98846.0 NaN 1537.88376753507 4.0127618919370285 541.0 5.0 365.0 
116.0001983480089 98846.0 NaN 1537.8757515030065 6.012088944426934 541.0 5.0 365.0 
118.00092703083283 98846.0 NaN 1537.88376753507 8.012761891937028 542.0 5.0 365.0 
120.00092703083283 98754.0 NaN 1537.8677354709423 10.001677584540053 542.0 5.0 365.0 
122.00092703083283 98867.0 NaN 1547.6098864395453 1.0182172480776415 535.0 4.0 369.0 
124.00092703083283 98867.0 NaN 1547.8557114228454 3.0182172480776415 535.0 4.0 369.0 
126.0001983480089 98867.0 NaN 1544.7802271209093 5.017544300567547 535.0 4.0 368.0 
128.00092703083283 98867.0 NaN 1544.7828991315969 7.018217248077641 535.0 4.0 368.0 
130.00092703083283 98838.0 NaN 1544.7802271209093 9.015047594327191 535.0 4.0 368.0 
132.00092703083283 98811.0 NaN 1544.825651302606 5.505634668756827 535.0 4.0 368.0 
134.00092703083283 98860.0 NaN 1541.205076820309 2.0150199731090552 534.0 4.0 367.0 
136.0001983480089 98860.0 NaN 1537.8543754175003 4.014347025598961 533.0 4.0 366.0 
138.00092703083283 98860.0 NaN 1531.7327989311968 6.015019973109055 533.0 4.0 364.0 
140.00092703083283 98860.0 NaN 1531.7327989311968 8.015019973109055 533.0 4.0 364.0 
142.00092703083283 98757.0 NaN 1534.8323313293272 10.000784682984712 534.0 4.0 365.0 
144.00092703083283 98847.0 NaN 1544.451569806279 1.016625928757388 530.0 6.0 366.0 
146.0001983480089 98847.0 NaN 1544.676018704073 3.015952981247294 530.0 6.0 366.0 
148.00092703083283 98847.0 NaN 1547.7728790915182 5.016625928757388 530.0 6.0 367.0 
150.00092703083283 98847.0 NaN 1547.7621910487635 7.016625928757388 530.0 6.0 367.0 
152.00092703083283 98818.0 NaN 1544.697394789579 9.012773389293782 530.0 6.0 366.0 
154.00092703083283 98780.0 NaN 1544.7374749499 5.50367905562963 529.0 3.0 369.0 
156.0001983480089 98839.0 NaN 1547.3186372745483 2.0125830886937184 530.0 3.0 370.0 
158.00092703083283 98839.0 NaN 1544.024048096191 4.0132560362038125 530.0 3.0 369.0 
160.00092703083283 98839.0 NaN 1537.8891115564454 6.0132560362038125 530.0 3.0 367.0 
162.00092703083283 98839.0 NaN 1537.873079492318 8.013256036203813 530.0 3.0 367.0 
164.00092703083283 98745.0 NaN 1537.8543754175 10.000330782035562 530.0 3.0 367.0 
166.0001983480089 98874.0 NaN 1544.4408817635274 1.015648537887845 532.0 4.0 368.0 
168.00092703083283 98874.0 NaN 1544.5985303941213 3.016321485397939 532.0 4.0 368.0 
170.00092703083283 98874.0 NaN 1541.5337341349364 5.016321485397939 532.0 4.0 367.0 
172.00092703083283 98874.0 NaN 1541.5123580494333 7.016321485397939 532.0 4.0 367.0 
174.00092703083283 98845.0 NaN 1541.5043420173668 9.013270270287851 532.0 4.0 367.0 
176.0001983480089 98772.0 NaN 1544.6546426185726 5.509570286683768 534.0 2.0 370.0 
178.00092703083283 98817.0 NaN 1547.3881095524364 2.015451247507328 532.0 3.0 370.0 
180.00092703083283 98817.0 NaN 1547.1315965263848 4.015451247507328 532.0 3.0 370.0 
182.00092703083283 98817.0 NaN 1540.9672678690729 6.015451247507328 532.0 3.0 368.0 
184.00092703083283 98817.0 NaN 1537.8971275885092 8.015451247507327 532.0 3.0 367.0 
186.0001983480089 98677.0 NaN 1537.8891115564454 10.000180777964307 532.0 3.0 367.0 
188.00092703083283 98794.0 NaN 1541.4081496326 1.0205007311118302 531.0 4.0 367.0 
190.00092703083283 98794.0 NaN 1538.4555778223091 3.02050073111183 530.0 4.0 366.0 
192.00092703083283 98794.0 NaN 1535.3480293921184 5.02050073111183 530.0 4.0 365.0 
194.00092703083283 98794.0 NaN 1535.3426853707426 7.02050073111183 530.0 4.0 365.0 
196.0001983480089 98749.0 NaN 1535.3480293921184 9.0140792384769 530.0 4.0 365.0 
198.00092703083283 98652.0 NaN 1535.4522378089518 5.510445077382584 530.0 2.0 367.0 
200.00092703083283 98697.0 NaN 1535.083500334 2.024882683825519 530.0 4.0 365.0 
202.00092703083283 98697.0 NaN 1534.8269873079482 4.024882683825519 530.0 4.0 365.0 
204.00092703083283 98697.0 NaN 1534.8243152972614 6.024882683825519 530.0 4.0 365.0 
206.0001983480089 98697.0 NaN 1534.8109552438207 8.024210188869231 530.0 4.0 365.0 
208.00092703083283 98492.0 NaN 1531.7541750167002 10.000279204840758 530.0 4.0 364.0 
210.00092703083283 98619.0 NaN 1529.1142284569148 1.0292434931860936 523.0 7.0 360.0 
212.00092703083283 98619.0 NaN 1529.1783567134273 3.0292434931860934 523.0 7.0 360.0 
214.00092703083283 98619.0 NaN 1523.030060120239 5.029243493186094 523.0 7.0 358.0 
216.0001983480089 98619.0 NaN 1523.0220440881756 7.028570998229806 523.0 7.0 358.0 
218.00092703083283 98574.0 NaN 1523.0113560454247 9.021716327307752 523.0 7.0 358.0 
220.00092703083283 98471.0 NaN 1526.1509686038728 5.510479055918041 528.0 2.0 364.0 
222.00092703083283 98520.0 NaN 1525.9372077488301 2.0316819428764923 524.0 4.0 362.0 
224.00092703083283 98520.0 NaN 1516.4782899131606 4.031681942876492 524.0 4.0 359.0 
226.0001983480089 98520.0 NaN 1519.5297261189062 6.031009447920204 523.0 4.0 360.0 
228.00092703083283 98520.0 NaN 1519.5511022044093 8.031681942876492 523.0 4.0 360.0 
230.00092703083283 98327.0 NaN 1522.6105544422182 10.000457512549753 522.0 4.0 361.0 
232.00092703083283 98521.0 NaN 1532.2297929191727 1.0268775894706508 516.0 6.0 362.0 
234.00092703083283 98521.0 NaN 1532.2725450901817 3.0268775894706508 516.0 6.0 362.0 
236.0001983480089 98521.0 NaN 1529.1970607882454 5.026205094514363 515.0 6.0 361.0 
238.00092703083283 98521.0 NaN 1529.1970607882454 7.026877589470651 516.0 6.0 361.0 
240.00092703083283 98464.0 NaN 1526.1242484969935 9.022620667761412 515.0 6.0 360.0 
242.00092703083283 98372.0 NaN 1526.1696726786909 5.509950996512386 517.0 2.0 364.0 
244.00092703083283 98428.0 NaN 1522.8403473613907 2.0282982774542444 514.0 5.0 360.0 
246.0001983480089 98428.0 NaN 1519.4843019372088 4.027625782497957 514.0 5.0 359.0 
248.00092703083283 98428.0 NaN 1519.4602538410156 6.028298277454244 514.0 5.0 359.0 
250.00092703083283 98428.0 NaN 1516.3794255177004 8.028298277454244 513.0 5.0 358.0 
252.00092703083283 98212.0 NaN 1519.4522378089518 10.000411988445185 513.0 5.0 359.0 
254.00092703083283 98297.0 NaN 1519.890447561791 1.0355865779248037 509.0 9.0 355.0 
256.0001983480089 98297.0 NaN 1519.9839679358727 3.0349140829685157 510.0 9.0 355.0 
258.0009270308328 98297.0 NaN 1516.9271877087517 5.035586577924804 511.0 9.0 354.0 
260.0009270308328 98297.0 NaN 1516.9352037408157 7.035586577924804 511.0 9.0 354.0 
262.0009270308328 98226.0 NaN 1513.8971275885094 9.028130450803179 512.0 9.0 353.0 
264.0009270308328 98039.0 NaN 1513.9078156312637 5.514012431573151 514.0 2.0 360.0 
266.0001983480089 98079.0 NaN 1513.5577822311277 2.033404883527965 513.0 5.0 357.0 
268.0009270308328 98079.0 NaN 1516.339345357382 4.034077378484253 513.0 5.0 358.0 
270.0009270308328 98079.0 NaN 1513.2478289913179 6.034077378484253 512.0 5.0 357.0 
272.0009270308328 98079.0 NaN 1516.3126252505 8.034077378484254 513.0 5.0 358.0 
274.0009270308328 97815.0 NaN 1519.3774215096848 10.001526383727711 513.0 5.0 359.0 
276.0001983480089 97946.0 NaN 1532.136272545091 1.0330334127739524 510.0 8.0 360.0 
278.0009270308328 97946.0 NaN 1532.1790247161002 3.03370590773024 510.0 8.0 360.0 
280.0009270308328 97946.0 NaN 1532.1897127588518 5.033705907730241 510.0 8.0 360.0 
282.0009270308328 97946.0 NaN 1532.1977287909156 7.033705907730241 510.0 8.0 360.0 
284.0009270308328 97907.0 NaN 1532.181696726788 9.02676815138597 511.0 7.0 361.0 
286.0001983480089 97721.0 NaN 1538.3754175016702 5.518428512450965 516.0 2.0 368.0 
288.0009270308328 97770.0 NaN 1538.0547762191063 2.031341761098364 514.0 5.0 365.0 
290.0009270308328 97770.0 NaN 1534.7388109552453 4.031341761098364 514.0 5.0 364.0 
292.0009270308328 97770.0 NaN 1528.5878423513702 6.031341761098364 513.0 5.0 362.0 
294.0009270308328 97770.0 NaN 1531.6847027388092 8.031341761098364 513.0 5.0 363.0 
296.0001983480089 97519.0 NaN 1531.6740146960572 9.999455560134537 511.0 5.0 363.0 
298.0009270308328 97640.0 NaN 1535.2037408149638 1.0496135378779368 509.0 6.0 363.0 
300.0009270308328 97640.0 NaN 1535.2064128256523 3.0496135378779368 509.0 6.0 363.0 
302.0009270308328 97640.0 NaN 1535.2117568470271 5.049613537877937 509.0 6.0 363.0 
304.0009270308328 97640.0 NaN 1532.1523046092182 7.049613537877937 509.0 6.0 362.0 
306.0001983480089 97569.0 NaN 1535.2251169004662 9.038151879219019 509.0 6.0 363.0 
308.0009270308328 97353.0 NaN 1541.4375417501662 5.51011993390222 512.0 2.0 369.0 
310.0009270308328 97415.0 NaN 1541.1970607882454 2.0291460290571495 508.0 5.0 366.0 
312.0009270308328 97415.0 NaN 1534.8056112224456 4.0291460290571495 508.0 5.0 364.0 
314.0009270308328 97415.0 NaN 1528.6359385437547 6.0291460290571495 508.0 5.0 362.0 
316.0001983480089 97415.0 NaN 1528.643954575818 8.028473534100861 509.0 5.0 362.0 
318.0009270308328 97139.0 NaN 1528.6519706078818 10.001063476128916 509.0 5.0 362.0 
320.0009270308328 97254.0 NaN 1529.1142284569148 1.0426991229510927 508.0 4.0 363.0 
322.0009270308328 97254.0 NaN 1529.1088844355365 3.0426991229510927 508.0 4.0 363.0 
324.0009270308328 97254.0 NaN 1532.1870407481638 5.042699122951093 507.0 4.0 364.0 
326.0001983480089 97254.0 NaN 1532.1897127588518 7.0420266279948045 508.0 4.0 364.0 
328.0009270308328 97163.0 NaN 1532.2110888443544 9.034024528191042 508.0 4.0 364.0 
330.0009270308328 96895.0 NaN 1532.2404809619245 5.524682268415185 510.0 2.0 366.0 
332.0009270308328 96935.0 NaN 1535.0140280561116 2.044908768540055 508.0 4.0 365.0 
334.0009270308328 96935.0 NaN 1531.7087508350028 4.044908768540055 508.0 4.0 364.0 
336.0001983480089 96935.0 NaN 1519.4228456913818 6.044236273583768 507.0 4.0 360.0 
338.0009270308328 96935.0 NaN 1519.4228456913818 8.044908768540056 507.0 4.0 360.0 
340.0009270308328 96653.0 NaN 1519.433533734136 10.002520183513633 507.0 4.0 360.0 
342.0009270308328 96727.0 NaN 1529.1863727454909 1.0348688342416206 506.0 4.0 363.0 
344.0009270308328 96727.0 NaN 1529.111556446227 3.0348688342416206 507.0 4.0 363.0 
346.0001983480089 96727.0 NaN 1522.960587842352 5.034196339285333 506.0 4.0 361.0 
348.0009270308328 96727.0 NaN 1519.9198396793577 7.034868834241621 506.0 4.0 360.0 
350.0009270308328 96654.0 NaN 1519.9171676686722 9.027801068249053 506.0 4.0 360.0 
352.0009270308328 96466.0 NaN 1519.9759519038084 5.52124272402997 511.0 3.0 361.0 
354.0009270308328 96536.0 NaN 1519.452237808952 2.043510631973892 509.0 4.0 360.0 
356.0001983480089 96536.0 NaN 1516.1603206412817 4.042838137017604 507.0 4.0 359.0 
358.0009270308328 96536.0 NaN 1516.152304609218 6.043510631973892 506.0 4.0 359.0 
360.0009270308328 96536.0 NaN 1516.1496325985297 8.043510631973891 506.0 4.0 359.0 
362.0009270308328 96211.0 NaN 1519.2224448897814 10.001597904187786 507.0 4.0 360.0 
364.0009270308328 96376.0 NaN 1519.8770875083485 1.0533730612190129 511.0 4.0 360.0 
366.0001983480089 96376.0 NaN 1522.9926519706087 3.052700566262725 510.0 4.0 361.0 
368.0009270308328 96376.0 NaN 1498.436873747494 5.053373061219013 509.0 4.0 353.0 
370.0009270308328 96376.0 NaN 1498.4448897795603 7.053373061219013 509.0 4.0 353.0 
372.0009270308328 96285.0 NaN 1498.4555778223103 9.041985016078222 509.0 4.0 353.0 
374.0009270308328 96088.0 NaN 1501.5524382097535 5.522092986983885 510.0 3.0 355.0 
376.0001983480089 96163.0 NaN 1510.2044088176365 2.050676545752652 511.0 4.0 357.0 
378.0009270308328 96163.0 NaN 1509.9772879091522 4.051349493262746 511.0 4.0 357.0 
380.0009270308328 96163.0 NaN 1506.9098196392795 6.051349493262746 510.0 4.0 356.0 
382.0009270308328 96163.0 NaN 1503.8316633266538 8.051349493262746 510.0 4.0 355.0 
384.0009270308328 95783.0 NaN 1506.8964595858372 10.002757785109186 510.0 4.0 356.0 
386.0001983480089 95967.0 NaN 1507.5804943219787 1.027296382662603 513.0 4.0 356.0 
388.0009270308328 95967.0 NaN 1504.646626586507 3.027969330172697 512.0 4.0 355.0 
390.0009270308328 95967.0 NaN 1507.7221108884446 5.027969330172697 513.0 4.0 356.0 
392.0009270308328 95967.0 NaN 1507.7247828991306 7.027969330172697 513.0 4.0 356.0 
394.0009270308328 95892.0 NaN 1507.6847027388098 9.02086801297115 513.0 4.0 356.0 
396.0001983480089 95768.0 NaN 1516.9485637942546 5.522284211292386 513.0 4.0 359.0 
398.0009270308328 95838.0 NaN 1519.6018704074818 2.0327516955947567 516.0 6.0 358.0 
400.0009270308328 95838.0 NaN 1516.2672010688032 4.032751695594756 516.0 6.0 357.0 
402.0009270308328 95838.0 NaN 1510.126920507682 6.032751695594756 517.0 6.0 355.0 
404.0009270308328 95838.0 NaN 1510.126920507682 8.032751695594756 518.0 6.0 355.0 
406.0001983480089 95582.0 NaN 1510.1189044756184 10.001024044854358 518.0 6.0 355.0 
408.0009270308328 95768.0 NaN 1522.9365397461581 1.065458229377212 519.0 4.0 361.0 
410.0009270308328 95768.0 NaN 1526.0895123580485 3.065458229377212 519.0 4.0 362.0 
412.0009270308328 95768.0 NaN 1516.8603874415487 5.065458229377212 520.0 4.0 359.0 
414.0009270308328 95768.0 NaN 1516.8657314629265 7.065458229377212 520.0 4.0 359.0 
416.0001983480089 95672.0 NaN 1513.7715430861729 9.05085197034858 520.0 4.0 358.0 
418.0009270308328 95457.0 NaN 1516.9218436873734 5.5162089602547475 519.0 4.0 359.0 
420.0009270308328 95562.0 NaN 1522.5945223780905 2.0446766630479014 518.0 6.0 359.0 
422.0009270308328 95562.0 NaN 1506.9605878423522 4.044676663047901 519.0 6.0 354.0 
424.0009270308328 95562.0 NaN 1497.7768871075477 6.044676663047901 518.0 6.0 351.0 
426.0001983480089 95562.0 NaN 1497.7635270541089 8.044003715537807 517.0 6.0 351.0 
428.0009270308328 95244.0 NaN 1497.7635270541089 10.000637145123433 518.0 6.0 351.0 
430.0009270308328 95458.0 NaN 1504.4221776887102 1.0363938442170753 518.0 4.0 355.0 
432.0009270308328 95458.0 NaN 1507.620574482299 3.0363938442170753 517.0 4.0 356.0 
434.0009270308328 95458.0 NaN 1504.5504342017364 5.036393844217075 517.0 4.0 355.0 
436.0001983480089 95458.0 NaN 1504.5050100200392 7.035720896706981 517.0 4.0 355.0 
438.0009270308328 95391.0 NaN 1501.429525718102 9.026629588387358 516.0 4.0 354.0 
440.0009270308328 95298.0 NaN 1510.725450901803 5.516737483998117 517.0 2.0 359.0 
442.0009270308328 95388.0 NaN 1525.726118904475 2.053453895197937 522.0 5.0 361.0 
444.0009270308328 95388.0 NaN 1522.394121576488 4.053453895197937 523.0 5.0 360.0 
446.0001983480089 95388.0 NaN 1513.1917167668666 6.052780947687842 523.0 5.0 357.0 
448.0009270308328 95388.0 NaN 1513.2184368737462 8.053453895197936 522.0 5.0 357.0 
450.0009270308328 95081.0 NaN 1516.28590514362 10.002796359967682 522.0 5.0 358.0 
452.0009270308328 95225.0 NaN 1532.152304609218 1.0349696847133385 520.0 6.0 362.0 
454.0009270308328 95225.0 NaN 1538.37541750167 3.0349696847133387 520.0 6.0 364.0 
456.0001983480089 95225.0 NaN 1532.1950567802273 5.034296284039938 520.0 6.0 362.0 
458.0009270308328 95225.0 NaN 1529.1382765531066 7.034969684713339 519.0 6.0 361.0 
460.0009270308328 95162.0 NaN 1529.1382765531066 9.026263589254661 518.0 6.0 361.0 
462.0009270308328 95104.0 NaN 1529.1703406813638 5.506056347125231 520.0 4.0 363.0 
464.0009270308328 95212.0 NaN 1534.9311957247814 2.036265854585169 519.0 6.0 363.0 
466.0001983480089 95212.0 NaN 1534.6666666666663 4.035592907075075 520.0 6.0 363.0 
468.0009270308328 95212.0 NaN 1528.5344021376093 6.036265854585169 520.0 6.0 361.0 
470.0009270308328 95212.0 NaN 1525.4642618570458 8.036265854585169 519.0 6.0 360.0 
472.0009270308328 94989.0 NaN 1525.4295257181025 10.000202006429287 519.0 6.0 360.0 
474.0009270308328 95169.0 NaN 1529.0046760187029 1.0424157828490568 520.0 4.0 363.0 
476.0001983480089 95169.0 NaN 1529.1035404141633 3.041743287892769 519.0 4.0 363.0 
478.0009270308328 95169.0 NaN 1526.0601202404819 5.042415782849057 519.0 4.0 362.0 
480.0009270308328 95169.0 NaN 1526.0681362725456 7.042415782849057 520.0 4.0 362.0 
482.0009270308328 95122.0 NaN 1523.0033400133607 9.034793140122181 519.0 4.0 361.0 
484.0009270308328 95074.0 NaN 1526.11623246493 5.505128360582477 517.0 4.0 362.0 
486.0001983480089 95195.0 NaN 1528.7214428857728 2.0300631323323652 514.0 6.0 361.0 
488.0009270308328 95195.0 NaN 1516.224448897797 4.030736079842459 513.0 6.0 357.0 
490.0009270308328 95195.0 NaN 1510.0895123580485 6.030736079842459 514.0 6.0 355.0 
492.0009270308328 95195.0 NaN 1500.871075484301 8.030736079842459 514.0 6.0 352.0 
494.0009270308328 95017.0 NaN 1497.79024716099 10.000707638941076 513.0 6.0 351.0 
496.0001983480089 95248.0 NaN 1501.3306613226455 1.031521883241131 516.0 3.0 355.0 
498.0009270308328 95248.0 NaN 1504.4996659986634 3.032194830751225 517.0 3.0 356.0 
500.0009270308328 95248.0 NaN 1498.3887775551093 5.032194830751226 518.0 3.0 354.0 
502.0009270308328 95248.0 NaN 1498.3834335337353 7.032194830751226 519.0 3.0 354.0 
504.0009270308328 95201.0 NaN 1498.3887775551093 9.026597704507424 519.0 3.0 354.0 
506.0001983480089 95158.0 NaN 1510.7762191048757 5.520247233776551 520.0 3.0 358.0 
508.0009270308328 95260.0 NaN 1507.1583166332657 2.0364266406475817 519.0 6.0 354.0 
510.0009270308328 95260.0 NaN 1503.82364729459 4.036426640647582 518.0 6.0 353.0 
512.0009270308328 95260.0 NaN 1497.7074148296606 6.036426640647582 517.0 6.0 351.0 
514.0009270308328 95260.0 NaN 1497.7154308617241 8.03642664064758 518.0 5.0 352.0 
516.0001983480089 95041.0 NaN 1497.694054776218 10.000477039800602 518.0 5.0 352.0 
518.0009270308328 95245.0 NaN 1501.3092852371426 1.0416425880703015 517.0 4.0 354.0 
520.0009270308328 95245.0 NaN 1501.4268537074151 3.0416425880703013 516.0 4.0 354.0 
522.0009270308328 95245.0 NaN 1473.7955911823638 5.041642588070301 514.0 4.0 345.0 
524.0009270308328 95245.0 NaN 1467.6659986639938 7.041642588070301 514.0 4.0 343.0 
526.0001983480089 95191.0 NaN 1467.6579826319298 9.032943180165361 514.0 4.0 343.0 
528.0009270308328 95143.0 NaN 1473.8543754175012 5.517205241709185 516.0 2.0 347.0 
530.0009270308328 95294.0 NaN 1485.7688710754837 2.0488957338829366 509.0 5.0 348.0 
532.0009270308328 95294.0 NaN 1479.3587174348704 4.0488957338829366 509.0 5.0 346.0 
534.0009270308328 95294.0 NaN 1464.0053440213755 6.0488957338829366 510.0 5.0 341.0 
536.0001983480089 95294.0 NaN 1467.0621242484976 8.048222786372843 511.0 5.0 342.0 
538.0009270308328 95143.0 NaN 1467.0701402805616 10.003192092454668 514.0 5.0 342.0 
540.0009270308328 95432.0 NaN 1476.7989311957256 1.0370330148734863 513.0 4.0 346.0 
542.0009270308328 95432.0 NaN 1480.002672010689 3.0370330148734865 516.0 4.0 347.0 
544.0009270308328 95432.0 NaN 1473.8677354709425 5.0370330148734865 517.0 4.0 345.0 
546.0001983480089 95432.0 NaN 1473.8597194388785 7.036360067363392 517.0 4.0 345.0 
548.0009270308328 95407.0 NaN 1476.9619238476942 9.029962854215567 516.0 4.0 346.0 
550.0009270308328 95386.0 NaN 1480.0053440213755 5.497671228272477 516.0 3.0 348.0 
552.0009270308328 95497.0 NaN 1491.8957915831656 2.029716769333714 515.0 6.0 349.0 
554.0009270308328 95497.0 NaN 1491.5911823647286 4.029716769333715 516.0 6.0 349.0 
556.0001983480089 95497.0 NaN 1482.3593854375426 6.02904382182362 516.0 6.0 346.0 
558.0009270308328 95497.0 NaN 1485.432197728791 8.029716769333714 517.0 6.0 347.0 
560.0009270308328 95345.0 NaN 1479.3026052104203 10.003366917175283 517.0 6.0 345.0 
562.0009270308328 95717.0 NaN 1482.8697394789574 1.0386361683959386 516.0 4.0 348.0 
564.0009270308328 95717.0 NaN 1483.0567802271205 3.0386361683959384 515.0 5.0 347.0 
566.0001983480089 95717.0 NaN 1473.835671342685 5.037963220885844 515.0 5.0 344.0 
568.0009270308328 95717.0 NaN 1473.862391449565 7.038636168395938 515.0 5.0 344.0 
570.0009270308328 95652.0 NaN 1473.8517034068145 9.026699676061147 519.0 5.0 344.0 
572.0009270308328 95607.0 NaN 1483.1609886439546 5.513056199340469 515.0 2.0 350.0 
574.0009270308328 95731.0 NaN 1482.725450901803 2.055159045620859 512.0 5.0 347.0 
576.0001983480089 95731.0 NaN 1485.5337341349364 4.054486098110765 513.0 5.0 348.0 
578.0009270308328 95731.0 NaN 1482.450233800936 6.055159045620859 513.0 5.0 347.0 
580.0009270308328 95731.0 NaN 1482.463593854375 8.055159045620858 514.0 5.0 347.0 
582.0009270308328 95343.0 NaN 1479.3774215096853 10.004679397517709 514.0 5.0 346.0 
584.0009270308328 95619.0 NaN 1495.2438209752831 1.0482579207734455 519.0 3.0 353.0 
586.0001983480089 95619.0 NaN 1492.2752171008694 3.047584520100045 520.0 3.0 352.0 
588.0009270308328 95619.0 NaN 1489.218436873747 5.0482579207734455 519.0 4.0 350.0 
590.0009270308328 95619.0 NaN 1489.2344689378747 7.0482579207734455 519.0 4.0 350.0 
592.0009270308328 95540.0 NaN 1489.2157648630605 9.036825056361668 520.0 4.0 350.0 
594.0009270308328 95479.0 NaN 1489.2130928523718 5.511637645941377 525.0 3.0 351.0 
596.0001983480089 95646.0 NaN 1491.9011356045435 2.0568452372445405 521.0 7.0 348.0 
598.0009270308328 95646.0 NaN 1494.7815631262533 4.057518637917941 522.0 7.0 349.0 
600.0009270308328 95646.0 NaN 1497.8570474281908 6.057518637917941 523.0 7.0 350.0 
602.0009270308328 95646.0 NaN 1500.94321977288 8.05751863791794 524.0 7.0 351.0 
604.0009270308328 95351.0 NaN 1500.919171676688 10.003907933186943 524.0 7.0 351.0 
606.0001983480089 95665.0 NaN 1504.360721442885 1.0382429007478873 536.0 3.0 356.0 
608.0009270308328 95665.0 NaN 1501.4615898463603 3.038916301421288 535.0 3.0 355.0 
610.0009270308328 95665.0 NaN 1489.1756847027382 5.038916301421287 534.0 3.0 351.0 
612.0009270308328 95665.0 NaN 1492.2458249832998 7.038916301421287 533.0 3.0 352.0 
614.0009270308328 95582.0 NaN 1495.3132932531726 9.02490515151852 535.0 3.0 353.0 
616.0001983480089 95514.0 NaN 1510.7174348697386 5.52062354909373 532.0 3.0 358.0 
618.0009270308328 95629.0 NaN 1516.4328657314636 2.0426705877589257 532.0 4.0 359.0 
620.0009270308328 95629.0 NaN 1510.1028724114901 4.042670587758926 530.0 4.0 357.0 
622.0009270308328 95629.0 NaN 1510.1215764863068 6.042670587758926 529.0 6.0 355.0 
624.0009270308328 95629.0 NaN 1507.032732130928 8.042670587758925 528.0 6.0 354.0 
626.0001983480089 95419.0 NaN 1510.1108884435544 10.00094499102946 529.0 6.0 355.0 
628.0009270308328 95654.0 NaN 1525.9158316633273 1.0327012970983844 532.0 3.0 363.0 
630.0009270308328 95654.0 NaN 1528.9913159652635 3.0327012970983844 534.0 3.0 364.0 
632.0009270308328 95654.0 NaN 1516.7294589178362 5.032701297098384 533.0 3.0 360.0 
634.0009270308328 95654.0 NaN 1516.7054108216441 7.032701297098384 532.0 3.0 360.0 
636.0001983480089 95600.0 NaN 1516.6813627254517 9.024300790781613 532.0 3.0 360.0 
638.0009270308328 95509.0 NaN 1522.9044756179019 5.518204717887556 530.0 4.0 361.0 
640.0009270308328 95589.0 NaN 1522.6158984635929 2.051160356607438 531.0 4.0 361.0 
642.0009270308328 95589.0 NaN 1519.369405477621 4.051160356607438 531.0 4.0 360.0 
644.0009270308328 95589.0 NaN 1519.3480293921182 6.051160356607438 532.0 4.0 360.0 
646.0001983480089 95589.0 NaN 1519.3239812959262 8.050486955934037 532.0 4.0 360.0 
648.0009270308328 95294.0 NaN 1519.3613894455566 10.00166562425634 532.0 4.0 360.0 
650.0009270308328 95505.0 NaN 1525.899799599199 1.0579378857993824 527.0 5.0 361.0 
652.0009270308328 95505.0 NaN 1529.0821643286565 3.057937885799382 527.0 5.0 362.0 
654.0009270308328 95505.0 NaN 1525.9826319305273 5.057937885799382 526.0 5.0 361.0 
656.0001983480089 95505.0 NaN 1525.9665998664002 7.057264938289288 526.0 5.0 361.0 
658.0009270308328 95418.0 NaN 1525.969271877088 9.044536294399554 525.0 5.0 361.0 
660.0009270308328 95276.0 NaN 1532.1362725450908 5.510018783032143 527.0 3.0 365.0 
662.0009270308328 95438.0 NaN 1534.9205076820303 2.042310793406756 523.0 4.0 365.0 
664.0009270308328 95438.0 NaN 1531.6072144288567 4.042310793406756 523.0 4.0 364.0 
#####################################################################
# End of data export. Simulation finished at: 2019-03-17T03:07+0000 #
#####################################################################
