#####################################################################
# Alchemist log file - simulation started at: 2019-03-07T20:53+0000 #
#####################################################################
# seed = 5.0, bandwidth = 5623413.251903491, propagationDelay = 0.1, baserange = 1000.0
#
# The columns have the following meaning: 
# time neighbor_count[Sum] <value>@neighbor_count[Sum] packet_size[Mean] mean_delay[Mean] crowd[Sum] overcrowded[Sum] risk[Sum] 
0.0 NaN NaN NaN NaN NaN NaN NaN 
2.000101793669918 209124.0 NaN 4994.928523714095 0.49967939758724506 1497.0 0.0 1497.0 
4.000101793669918 210022.0 NaN 4993.894455577823 0.5015721702380967 1495.0 2.0 1495.0 
6.000101793669918 210022.0 NaN 4994.121576486306 0.5015720173596708 1496.0 1.0 1496.0 
8.000101793669918 210022.0 NaN 4994.404809619238 0.5015719387901666 1495.0 2.0 1495.0 
10.000101793669918 210024.0 NaN 4995.682030728123 0.5015689308548621 1494.0 3.0 1494.0 
12.000101793669918 210024.0 NaN 4995.3400133600535 0.5015690408096882 1496.0 1.0 1496.0 
14.000101793669918 210034.0 NaN 4994.51169004676 0.5015688596443778 1495.0 2.0 1495.0 
16.00010179366992 210037.0 NaN 4994.455577822311 0.501568411721712 1496.0 1.0 1496.0 
18.00010179366992 210039.0 NaN 4995.246492985972 0.5016629321689782 1497.0 0.0 1497.0 
20.00010179366992 210071.0 NaN 4995.553774215097 0.502008219212781 1495.0 2.0 1495.0 
22.00010179366992 210072.0 NaN 4994.733466933868 0.5017647575440797 1496.0 1.0 1496.0 
24.00010179366992 210076.0 NaN 4994.565130260521 0.501706317067865 1494.0 3.0 1494.0 
26.00010179366992 210075.0 NaN 4994.474281897127 0.5016643926927604 1495.0 2.0 1495.0 
28.00010179366992 210107.0 NaN 4995.302605210421 0.5017725049968892 1496.0 1.0 1496.0 
30.00010179366992 210141.0 NaN 4996.235136940548 0.502347810277903 1496.0 1.0 1496.0 
32.00010179366992 210156.0 NaN 4994.685370741483 0.5019246119675498 1496.0 1.0 1496.0 
34.00010179366992 210174.0 NaN 4994.0146960587845 0.5021206137445665 1495.0 2.0 1495.0 
36.00010179366992 210155.0 NaN 4994.615898463594 0.501871803964934 1496.0 1.0 1496.0 
38.00010179366992 210183.0 NaN 4994.987307949232 0.5017827930638974 1495.0 2.0 1495.0 
40.00010179366992 210216.0 NaN 4996.069472277889 0.5022515794740776 1494.0 3.0 1494.0 
42.00010179366992 210249.0 NaN 4995.655310621242 0.5017758710166151 1496.0 1.0 1496.0 
44.00010179366992 210285.0 NaN 4994.308617234469 0.5017750951563426 1494.0 3.0 1494.0 
46.00010179366992 210292.0 NaN 4994.359385437542 0.5017731897956461 1497.0 0.0 1497.0 
48.00010179366992 210300.0 NaN 4995.139612558451 0.5020479144699425 1496.0 1.0 1496.0 
50.00010179366992 210307.0 NaN 4995.572478289913 0.5025988347759082 1494.0 3.0 1494.0 
52.00010179366992 210330.0 NaN 4994.851035404142 0.5019049321452069 1496.0 1.0 1496.0 
54.00010179366992 210380.0 NaN 4994.63460253841 0.5024905946300049 1494.0 3.0 1494.0 
56.00010179366992 210372.0 NaN 4994.610554442218 0.50196707780416 1496.0 1.0 1496.0 
58.00010179366992 210381.0 NaN 4995.08617234469 0.5022624447873785 1496.0 1.0 1496.0 
60.00010179366992 210407.0 NaN 4993.026052104208 0.5025158217956518 1495.0 1.0 1495.0 
62.00004344939255 210379.0 NaN 1522.6586506346025 0.5020268383366946 792.0 2.0 363.0 
64.00004344939255 210352.0 NaN 1522.4956579826332 0.5020742937991748 632.0 2.0 363.0 
66.00004344939254 210327.0 NaN 1522.567802271209 0.5019604373695016 580.0 5.0 360.0 
68.00004344939254 210376.0 NaN 1525.6165664662637 0.5023190799419831 551.0 4.0 362.0 
70.00004344939254 210348.0 NaN 1525.6700066800274 0.502777929012177 533.0 5.0 361.0 
72.00004344939254 210330.0 NaN 1525.605878423512 0.5018709842504898 531.0 4.0 362.0 
74.00004344939254 210324.0 NaN 1528.6653306613218 0.5022199243973456 528.0 5.0 362.0 
76.00004344939254 210293.0 NaN 1528.6305945223787 0.5017204151483078 529.0 3.0 364.0 
78.00004344939254 210328.0 NaN 1534.8029392117546 0.5018641225408194 529.0 2.0 367.0 
80.00004344939254 210334.0 NaN 1534.835003340012 0.5018391475492213 527.0 3.0 366.0 
82.00004344939254 210338.0 NaN 1534.8617234468936 0.5017562887374707 527.0 2.0 367.0 
84.00004344939254 210335.0 NaN 1534.880427521709 0.5018092218873327 527.0 2.0 367.0 
86.00004344939254 210318.0 NaN 1534.8991315965272 0.5017543757031074 525.0 2.0 367.0 
88.00004344939254 210409.0 NaN 1534.9311957247817 0.5019069151124493 523.0 3.0 366.0 
90.00004344939254 210435.0 NaN 1534.875083500334 0.5020127277709024 524.0 3.0 366.0 
92.00004344939254 210436.0 NaN 1534.8269873079485 0.5017800991484138 526.0 2.0 367.0 
94.00004344939254 210427.0 NaN 1534.8056112224456 0.5017907330800119 525.0 3.0 366.0 
96.00004344939254 210421.0 NaN 1534.810955243821 0.5017169762238655 525.0 3.0 366.0 
98.00004344939254 210575.0 NaN 1537.9158316633273 0.5018043697742742 524.0 4.0 366.0 
100.00004344939254 210601.0 NaN 1537.923847695391 0.5020049922504833 524.0 4.0 366.0 
102.00004344939254 210574.0 NaN 1537.9318637274544 0.5017672088029368 525.0 2.0 368.0 
104.00004344939254 210563.0 NaN 1540.9405477621908 0.5017823109694268 524.0 3.0 368.0 
106.00004344939254 210556.0 NaN 1540.9645958583822 0.5017391768439079 524.0 3.0 368.0 
108.00004344939254 210679.0 NaN 1540.9271877087515 0.5018162586890684 523.0 4.0 367.0 
110.00004344939254 210673.0 NaN 1541.0126920507666 0.5018299642558005 521.0 6.0 365.0 
112.00004344939254 210665.0 NaN 1541.028724114897 0.5019424699408458 523.0 5.0 366.0 
114.00004344939254 210641.0 NaN 1540.9913159652635 0.5018052409906533 522.0 6.0 365.0 
116.00004344939254 210633.0 NaN 1540.9752839011364 0.5018924810886499 523.0 6.0 365.0 
118.00004344939254 210639.0 NaN 1540.873747494991 0.5017693093463411 523.0 7.0 364.0 
120.00004344939254 210664.0 NaN 1540.895123580494 0.5022035580800321 523.0 7.0 364.0 
122.00004344939254 210666.0 NaN 1540.8871075484299 0.5018390685581209 525.0 5.0 366.0 
124.00004344939254 210644.0 NaN 1543.9706078824302 0.5017880721204151 525.0 5.0 367.0 
126.00004344939254 210643.0 NaN 1544.072144288576 0.5017778292444238 525.0 5.0 367.0 
128.00004344939254 210642.0 NaN 1540.9859719438882 0.5018035942197807 523.0 7.0 364.0 
130.00004344939256 210647.0 NaN 1541.0501002003998 0.5020275764443525 522.0 7.0 364.0 
132.00004344939256 210677.0 NaN 1537.9345357381428 0.5019004148902966 523.0 5.0 365.0 
134.00004344939256 210665.0 NaN 1537.835671342685 0.5018413356835125 524.0 5.0 365.0 
136.00004344939256 210668.0 NaN 1537.8971275885092 0.5017108883458288 520.0 6.0 364.0 
138.00004344939256 210671.0 NaN 1534.7788911155635 0.5017461541113741 517.0 8.0 361.0 
140.00004344939256 210698.0 NaN 1534.8350033400122 0.5018283439837548 518.0 8.0 361.0 
142.00004344939256 210706.0 NaN 1537.8757515030063 0.5017495459356809 520.0 5.0 365.0 
144.00004344939256 210694.0 NaN 1537.857047428191 0.5017157142432611 519.0 5.0 365.0 
146.00004344939256 210696.0 NaN 1534.7842351369395 0.5018375615525932 518.0 5.0 364.0 
148.00004344939256 210702.0 NaN 1534.7975951903818 0.5018126298681442 516.0 7.0 362.0 
150.00004344939256 210720.0 NaN 1534.8510354041423 0.5020062951507864 516.0 7.0 362.0 
152.00004344939256 210749.0 NaN 1528.7241148964606 0.5019870376274836 518.0 5.0 362.0 
154.00004344939256 210722.0 NaN 1528.7508350033393 0.5017909967211063 514.0 6.0 361.0 
156.00004344939256 210727.0 NaN 1531.828991315964 0.5018407852173024 513.0 6.0 362.0 
158.00004344939256 210739.0 NaN 1534.8830995324 0.5020147022633853 515.0 8.0 361.0 
160.00004344939256 210739.0 NaN 1534.843019372079 0.5021245609167726 515.0 8.0 361.0 
162.00004344939256 210716.0 NaN 1534.8189712758845 0.501838582642277 517.0 6.0 363.0 
164.00004344939256 210704.0 NaN 1537.8436873747485 0.5018898569404336 518.0 5.0 365.0 
166.00004344939256 210708.0 NaN 1537.9131596526363 0.5017365096388361 518.0 5.0 365.0 
168.00004344939256 210728.0 NaN 1531.8690714762845 0.5018545544376329 516.0 7.0 361.0 
170.00004344939256 210721.0 NaN 1534.960587842352 0.501846144640047 518.0 5.0 364.0 
172.00004344939256 210724.0 NaN 1534.9392117568457 0.501759233182528 517.0 4.0 365.0 
174.00004344939256 210737.0 NaN 1537.934535738143 0.5017220879318711 518.0 2.0 368.0 
176.00004344939256 210752.0 NaN 1534.8911155644637 0.5019670034610629 514.0 4.0 365.0 
178.00004344939256 210747.0 NaN 1534.8724114896452 0.5018885983654408 514.0 5.0 364.0 
180.00004344939256 210744.0 NaN 1534.8750835003343 0.5018319372208333 516.0 5.0 364.0 
182.00004344939256 210765.0 NaN 1534.8937875751521 0.5017680541046557 514.0 7.0 362.0 
184.00004344939256 210747.0 NaN 1537.9211756847023 0.5017865383263479 515.0 5.0 365.0 
186.00004344939256 210741.0 NaN 1534.8697394789572 0.5019009700509626 515.0 4.0 365.0 
188.00004344939256 210727.0 NaN 1540.9859719438884 0.5020410147133115 517.0 2.0 369.0 
190.00004344939256 210710.0 NaN 1534.877755511021 0.5019872241067875 515.0 4.0 365.0 
192.00004344939256 210711.0 NaN 1534.8830995324 0.5017941783491118 514.0 5.0 364.0 
194.00004344939256 210709.0 NaN 1537.942551770209 0.5021581077361839 514.0 5.0 365.0 
196.00004344939256 210709.0 NaN 1538.0414161656636 0.501869887240544 512.0 7.0 363.0 
198.00004344939256 210706.0 NaN 1541.1516366065453 0.5020101218938554 514.0 5.0 366.0 
200.00004344939256 210694.0 NaN 1544.2137608550454 0.5019387765160986 516.0 4.0 368.0 
202.00004344939256 210729.0 NaN 1544.1255845023363 0.5016791314204018 519.0 2.0 370.0 
204.00004344939256 210802.0 NaN 1544.0721442885758 0.502008418799873 516.0 4.0 368.0 
206.00004344939256 210792.0 NaN 1541.0474281897116 0.501837351064014 515.0 5.0 366.0 
208.00004344939256 210783.0 NaN 1537.9532398129609 0.5020202974796233 516.0 5.0 365.0 
210.00004344939256 210789.0 NaN 1534.9098196392792 0.5019807625594167 517.0 6.0 363.0 
212.00004344939256 210811.0 NaN 1534.885771543085 0.5018211703840463 515.0 4.0 365.0 
214.00004344939256 210848.0 NaN 1537.923847695391 0.5021494136115728 516.0 3.0 367.0 
216.00004344939256 210845.0 NaN 1531.8022712090844 0.502135325583219 518.0 2.0 366.0 
218.00004344939256 210848.0 NaN 1528.7748830995333 0.5022749786524061 514.0 4.0 363.0 
220.00004344939256 210839.0 NaN 1531.890447561791 0.5023648864113842 512.0 5.0 363.0 
222.00004344939256 210854.0 NaN 1534.907147628591 0.5018654706673715 512.0 5.0 364.0 
224.00004344939256 210861.0 NaN 1534.8911155644635 0.5020618927826872 512.0 6.0 363.0 
226.00004344939256 210855.0 NaN 1531.818303273212 0.5017346749713424 512.0 4.0 364.0 
228.00004344939256 210859.0 NaN 1534.888443553773 0.5016354706577096 513.0 3.0 366.0 
230.00004344939256 210874.0 NaN 1537.9265197060793 0.5022250106411841 514.0 2.0 368.0 
232.00004344939256 210882.0 NaN 1541.0420841683363 0.5016723518015574 512.0 4.0 367.0 
234.00004344939256 210900.0 NaN 1541.0287241148974 0.5019318751063513 512.0 5.0 366.0 
236.00004344939256 210875.0 NaN 1537.9585838343364 0.5015644529155707 511.0 5.0 365.0 
238.00004344939256 210887.0 NaN 1534.9124916499663 0.5015308657970601 511.0 6.0 363.0 
240.00004344939256 210901.0 NaN 1534.9392117568457 0.5017778925536341 511.0 4.0 365.0 
242.00004344939256 210923.0 NaN 1534.963259853039 0.5015093707121344 512.0 3.0 366.0 
244.00004344939256 210984.0 NaN 1534.7869071476273 0.5017775112180862 516.0 2.0 367.0 
246.00004344939256 210980.0 NaN 1534.8056112224456 0.5017067700857669 514.0 4.0 365.0 
248.00004344939256 210995.0 NaN 1528.6973947895792 0.5019051293228127 511.0 5.0 362.0 
250.00004344939256 210989.0 NaN 1531.7889111556456 0.5021186669214848 509.0 5.0 363.0 
252.00004344939256 210952.0 NaN 1528.6813627254517 0.5017239995341947 509.0 6.0 361.0 
254.00004344939256 210976.0 NaN 1534.7815631262542 0.5018135885745715 510.0 4.0 365.0 
256.00004344939254 210971.0 NaN 1531.772879091518 0.5018977783739851 514.0 2.0 366.0 
258.0000434493926 210997.0 NaN 1531.7461589846364 0.5017178825017345 516.0 1.0 367.0 
260.0000434493926 211017.0 NaN 1531.8022712090844 0.5017495930660666 514.0 3.0 365.0 
262.0000434493926 210993.0 NaN 1525.6673346693367 0.5017554100920849 512.0 5.0 361.0 
264.0000434493926 211045.0 NaN 1537.9559118236455 0.5017518353414788 512.0 5.0 365.0 
266.0000434493926 211047.0 NaN 1537.9826319305273 0.5016660427299879 509.0 6.0 364.0 
268.0000434493926 211080.0 NaN 1534.8590514362063 0.5019129091265654 510.0 4.0 365.0 
270.0000434493926 211201.0 NaN 1534.904475617902 0.5021911477368913 511.0 2.0 367.0 
272.0000434493926 211145.0 NaN 1534.8216432865727 0.5018761141773833 513.0 1.0 368.0 
274.0000434493926 211158.0 NaN 1534.6987307949246 0.5020191495708128 511.0 3.0 366.0 
276.0000434493926 211134.0 NaN 1540.916499666 0.501914183166201 506.0 5.0 366.0 
278.0000434493926 211156.0 NaN 1540.9218436873728 0.5019413796158402 510.0 5.0 366.0 
280.0000434493926 211160.0 NaN 1537.9265197060795 0.5020886775121745 509.0 6.0 364.0 
282.0000434493926 211135.0 NaN 1534.8243152972616 0.5018425650717302 509.0 4.0 365.0 
284.0000434493926 211172.0 NaN 1534.8643954575818 0.5022334609442378 514.0 1.0 368.0 
286.0000434493926 211141.0 NaN 1534.869739478957 0.5020810744052898 513.0 1.0 368.0 
288.0000434493926 211137.0 NaN 1534.8029392117546 0.5023807996976438 511.0 3.0 366.0 
290.0000434493926 211114.0 NaN 1534.7762191048753 0.5024000956015766 510.0 4.0 365.0 
292.0000434493926 211076.0 NaN 1534.7281229124908 0.5018780594607252 510.0 4.0 365.0 
294.0000434493926 211088.0 NaN 1531.6873747495001 0.5018503654566348 508.0 5.0 363.0 
296.0000434493926 211076.0 NaN 1531.7167668670663 0.5018842998851207 509.0 3.0 365.0 
298.0000434493926 211071.0 NaN 1540.9271877087522 0.5020682830039254 511.0 1.0 370.0 
300.0000434493926 211048.0 NaN 1540.9271877087522 0.5022308890846168 510.0 1.0 370.0 
302.0000434493926 210985.0 NaN 1531.767535070139 0.5016487211836889 507.0 3.0 365.0 
304.0000434493926 211016.0 NaN 1534.8510354041427 0.5020477018333454 504.0 5.0 364.0 
306.0000434493926 210995.0 NaN 1538.0200400801612 0.5018960712621509 505.0 5.0 365.0 
308.0000434493926 211007.0 NaN 1538.0360721442908 0.5023749563593143 504.0 6.0 364.0 
310.0000434493926 211000.0 NaN 1537.9452237808935 0.5025201074166122 501.0 6.0 364.0 
312.0000434493926 210959.0 NaN 1531.695390781564 0.5017033930923489 503.0 5.0 363.0 
314.0000434493926 210992.0 NaN 1531.6312625250519 0.5018780655922184 501.0 6.0 362.0 
316.0000434493926 210994.0 NaN 1531.7221108884453 0.501936852071558 501.0 6.0 362.0 
318.0000434493926 210993.0 NaN 1531.7702070808273 0.5022023099568159 501.0 6.0 362.0 
320.0000434493926 210979.0 NaN 1531.8129592518362 0.5018139038499506 502.0 6.0 362.0 
322.0000434493926 210980.0 NaN 1534.9285237140937 0.502079747175603 502.0 6.0 363.0 
324.0000434493926 210999.0 NaN 1531.7969271877091 0.502226145429324 501.0 6.0 362.0 
326.0000434493926 210933.0 NaN 1531.8156312625272 0.501961267811229 501.0 5.0 363.0 
328.0000434493926 210936.0 NaN 1531.7621910487635 0.5022008433511421 503.0 5.0 363.0 
330.0000434493926 210906.0 NaN 1531.7808951235816 0.5019464811328701 503.0 5.0 363.0 
332.0000434493926 210901.0 NaN 1531.778223112891 0.5017926354949437 503.0 5.0 363.0 
334.0000434493926 210924.0 NaN 1531.7862391449548 0.5021773261167733 501.0 6.0 362.0 
336.0000434493926 210832.0 NaN 1531.8476953907818 0.5018062621405665 501.0 6.0 362.0 
338.0000434493926 210824.0 NaN 1528.7722110888458 0.5020813614329469 503.0 6.0 361.0 
340.0000434493926 210812.0 NaN 1525.6967267869088 0.5018499141627387 503.0 6.0 360.0 
342.0000434493926 210802.0 NaN 1525.62458249833 0.501621040310103 503.0 6.0 360.0 
344.0000434493926 210826.0 NaN 1528.7027388109543 0.5019348335966547 504.0 5.0 362.0 
346.0000434493926 210751.0 NaN 1519.4762859051452 0.5016533901563148 503.0 5.0 359.0 
348.0000434493926 210742.0 NaN 1519.5056780227117 0.5016793126584931 502.0 5.0 359.0 
350.0000434493926 210742.0 NaN 1525.6619906479636 0.5019191297837028 503.0 6.0 360.0 
352.0000434493926 210747.0 NaN 1522.629258517036 0.5017308432030669 505.0 6.0 359.0 
354.0000434493926 210770.0 NaN 1519.529726118906 0.5019433752457686 508.0 5.0 359.0 
356.0000434493926 210691.0 NaN 1519.5644622578486 0.5017430398327819 508.0 5.0 359.0 
358.0000434493926 210692.0 NaN 1519.529726118906 0.5015991865647887 506.0 5.0 359.0 
360.0000434493926 210719.0 NaN 1516.4435537742158 0.5017486401338634 507.0 5.0 358.0 
362.0000434493926 210731.0 NaN 1513.317301269206 0.5020885014050688 507.0 5.0 357.0 
364.0000434493926 210732.0 NaN 1507.1182364729455 0.5019902888396554 506.0 6.0 354.0 
366.0000434493926 210676.0 NaN 1504.0774883099539 0.5017031463356607 506.0 6.0 353.0 
368.0000434493926 210676.0 NaN 1500.988643954575 0.5023653111460746 507.0 6.0 352.0 
370.0000434493926 210582.0 NaN 1507.19305277221 0.5021912088842659 507.0 6.0 354.0 
372.0000434493926 210524.0 NaN 1507.2117568470271 0.5019250815942206 507.0 6.0 354.0 
374.0000434493926 210542.0 NaN 1504.1629926519718 0.5020550345184831 510.0 6.0 353.0 
376.0000434493926 210470.0 NaN 1501.0126920507669 0.5018254526125806 510.0 6.0 352.0 
378.0000434493926 210477.0 NaN 1497.9291917167661 0.502611863233447 509.0 6.0 351.0 
380.0000434493926 210302.0 NaN 1501.0073480293916 0.5022560255035935 507.0 6.0 352.0 
382.0000434493926 210281.0 NaN 1497.9639278557102 0.5017145401241836 509.0 7.0 350.0 
384.0000434493926 210289.0 NaN 1497.8917835671352 0.5018844161146431 510.0 7.0 350.0 
386.0000434493926 210242.0 NaN 1494.8537074148292 0.5026666509865697 509.0 7.0 349.0 
388.0000434493926 210253.0 NaN 1494.904475617902 0.5020543103539773 507.0 7.0 349.0 
390.0000434493926 210163.0 NaN 1501.1035404141626 0.5023964528955212 507.0 7.0 351.0 
392.0000434493926 210145.0 NaN 1501.143620574482 0.501263282485427 512.0 6.0 352.0 
394.0000434493926 210159.0 NaN 1507.2678690714756 0.501817778347862 515.0 5.0 355.0 
396.0000434493926 210074.0 NaN 1507.198396793588 0.5015847134919245 515.0 5.0 355.0 
398.0000434493926 210104.0 NaN 1504.0507682030725 0.50216041092062 515.0 6.0 353.0 
400.0000434493926 210093.0 NaN 1500.9645958583828 0.5016342884396502 514.0 6.0 352.0 
402.0000434493926 210153.0 NaN 1504.0668002672 0.5015693753582289 513.0 6.0 353.0 
404.0000434493926 210159.0 NaN 1507.1903807615242 0.5017007869065813 515.0 5.0 355.0 
406.0000434493926 210091.0 NaN 1513.3680694722786 0.5012890605954488 516.0 5.0 357.0 
408.0000434493926 210112.0 NaN 1522.6346025384091 0.5020872486753838 520.0 6.0 359.0 
410.0000434493926 210065.0 NaN 1525.744822979291 0.5020187202811146 520.0 6.0 360.0 
412.0000434493926 210065.0 NaN 1522.5945223780905 0.501508501401772 522.0 6.0 359.0 
414.0000434493926 210095.0 NaN 1519.4068136272545 0.5018283399768602 522.0 6.0 358.0 
416.0000434493926 210041.0 NaN 1510.1670006680022 0.5013353556073881 522.0 6.0 355.0 
418.0000434493926 210059.0 NaN 1513.2798931195728 0.5020688161428228 522.0 4.0 358.0 
420.0000434493926 210051.0 NaN 1507.144956579827 0.5021504213949564 521.0 5.0 355.0 
422.0000434493926 210052.0 NaN 1494.8109552438207 0.5014996265198804 515.0 4.0 352.0 
424.0000434493926 210079.0 NaN 1504.0026720106885 0.5020396544009034 518.0 2.0 357.0 
426.0000434493926 209981.0 NaN 1507.1048764195057 0.5014719303276702 517.0 4.0 356.0 
428.0000434493926 209991.0 NaN 1507.1476285905146 0.5016239167882542 517.0 4.0 356.0 
430.0000434493926 210006.0 NaN 1500.96993987976 0.5019815378969744 517.0 4.0 354.0 
432.0000434493926 210028.0 NaN 1519.3800935203735 0.5016302657582464 521.0 4.0 360.0 
434.0000434493926 210018.0 NaN 1519.3747494989989 0.5020255819781034 524.0 4.0 360.0 
436.0000434493926 209942.0 NaN 1519.3640614562455 0.5017730767849049 524.0 4.0 360.0 
438.0000434493926 209981.0 NaN 1522.5143620574474 0.5017469176504177 524.0 3.0 362.0 
440.0000434493926 210001.0 NaN 1525.5871743486978 0.5020548463297557 526.0 2.0 364.0 
442.0000434493926 209988.0 NaN 1537.8543754175007 0.5017939587612985 527.0 2.0 368.0 
444.0000434493926 209985.0 NaN 1534.7494989979969 0.5025633010613324 528.0 3.0 366.0 
446.0000434493926 209914.0 NaN 1540.9539078156304 0.5022209609028587 531.0 3.0 368.0 
448.0000434493926 209929.0 NaN 1540.9405477621908 0.5028441244016577 531.0 3.0 368.0 
450.0000434493926 209919.0 NaN 1544.0187040748176 0.5025101794800607 529.0 4.0 368.0 
452.0000434493926 209921.0 NaN 1543.941215764864 0.5021678866413527 527.0 4.0 368.0 
454.0000434493926 209924.0 NaN 1543.9305277221094 0.5030420335496772 526.0 5.0 367.0 
456.0000434493926 209813.0 NaN 1546.9739478957908 0.5019460471185128 524.0 5.0 368.0 
458.0000434493926 209825.0 NaN 1547.0220440881756 0.5021145656952427 524.0 4.0 369.0 
460.0000434493926 209855.0 NaN 1547.0647962591843 0.5020733409105099 524.0 3.0 370.0 
462.0000434493926 209863.0 NaN 1547.1182364729455 0.5021257168261014 525.0 2.0 371.0 
464.0000434493926 209861.0 NaN 1544.0454241816974 0.5028242296002452 526.0 3.0 369.0 
466.0000434493926 209724.0 NaN 1543.9812959251824 0.5021307010320539 523.0 3.0 369.0 
468.0000434493926 209729.0 NaN 1540.873747494991 0.5020687927025511 523.0 2.0 369.0 
470.0000434493926 209720.0 NaN 1540.9218436873732 0.5024716818948328 520.0 3.0 368.0 
472.0000434493926 209727.0 NaN 1534.7361389445548 0.502679727806455 519.0 3.0 366.0 
474.0000434493926 209722.0 NaN 1528.5851703406818 0.502715726329996 517.0 4.0 363.0 
476.0000434493926 209652.0 NaN 1528.6252505010007 0.5022286815526943 520.0 3.0 364.0 
478.0000434493926 209692.0 NaN 1528.5851703406818 0.5019990941236805 520.0 1.0 366.0 
480.0000434493926 209669.0 NaN 1525.6085504342007 0.502046709116677 520.0 1.0 365.0 
482.0000434493926 209673.0 NaN 1522.5464261857062 0.5024421217259518 518.0 1.0 364.0 
484.0000434493926 209703.0 NaN 1507.1369405477628 0.5022893035137782 514.0 2.0 358.0 
486.0000434493926 209688.0 NaN 1500.921843687374 0.5018139822093799 511.0 2.0 356.0 
488.0000434493926 209746.0 NaN 1494.773547094189 0.5022285155061991 513.0 1.0 355.0 
490.0000434493926 209710.0 NaN 1497.8917835671352 0.5020084865631919 514.0 1.0 356.0 
492.0000434493926 209704.0 NaN 1491.7461589846364 0.5021905601631153 514.0 1.0 354.0 
494.0000434493926 209722.0 NaN 1485.5444221776895 0.5025687089244272 507.0 2.0 351.0 
496.0000434493926 209683.0 NaN 1485.5310621242477 0.5017140538069658 506.0 2.0 351.0 
498.0000434493926 209722.0 NaN 1485.5684702738815 0.5023718866075739 509.0 1.0 352.0 
500.0000434493926 209672.0 NaN 1488.7321309285244 0.5019957958535416 509.0 1.0 353.0 
502.0000434493926 209681.0 NaN 1491.8129592518364 0.5022144175729426 510.0 1.0 354.0 
504.0000434493926 209676.0 NaN 1485.6459585838352 0.5020787276784847 509.0 2.0 351.0 
506.0000434493926 209652.0 NaN 1494.856379425518 0.5017625385204383 510.0 2.0 354.0 
508.0000434493926 209687.0 NaN 1497.8864395457572 0.5022113293740039 513.0 2.0 355.0 
510.0000434493926 209658.0 NaN 1494.8243152972618 0.5020321245618178 510.0 2.0 354.0 
512.0000434493926 209681.0 NaN 1488.716098864397 0.5021982676267166 509.0 2.0 352.0 
514.0000434493926 209679.0 NaN 1482.546426185706 0.5024480581864491 508.0 2.0 350.0 
516.0000434493926 209647.0 NaN 1479.4442217768883 0.5017780679219028 507.0 1.0 350.0 
518.0000434493926 209674.0 NaN 1476.4141616566458 0.5020406603319384 509.0 1.0 349.0 
520.0000434493926 209656.0 NaN 1464.1336005344012 0.50205703744082 508.0 1.0 345.0 
522.0000434493926 209713.0 NaN 1461.066132264528 0.5024179771824033 505.0 1.0 344.0 
524.0000434493926 209708.0 NaN 1464.1095524382092 0.5026395825852241 504.0 1.0 345.0 
526.0000434493926 209641.0 NaN 1461.0126920507669 0.5015803384904137 506.0 1.0 344.0 
528.0000434493926 209673.0 NaN 1464.1148964595848 0.5019748907618491 507.0 1.0 345.0 
530.0000434493926 209641.0 NaN 1451.85036740147 0.501957826041373 506.0 1.0 341.0 
532.0000434493926 209688.0 NaN 1451.9118236472939 0.5019379536817992 506.0 1.0 341.0 
534.0000434493926 209697.0 NaN 1451.895791583166 0.5021686237482913 506.0 1.0 341.0 
536.0000434493926 209634.0 NaN 1454.963259853039 0.5016763928389519 504.0 1.0 342.0 
538.0000434493926 209657.0 NaN 1461.0768203072817 0.5019124387752705 506.0 1.0 344.0 
540.0000434493926 209791.0 NaN 1461.0607882431536 0.5019884787157491 506.0 1.0 344.0 
542.0000434493926 209788.0 NaN 1467.2384769539083 0.502335453147159 507.0 1.0 346.0 
544.0000434493926 209725.0 NaN 1470.2845691382759 0.5025407633859477 506.0 2.0 346.0 
546.0000434493926 209665.0 NaN 1467.2545090180365 0.5017112635117501 508.0 2.0 345.0 
548.0000434493926 209685.0 NaN 1467.2491649966603 0.5018936923229423 509.0 1.0 346.0 
550.0000434493926 209727.0 NaN 1464.1629926519713 0.5020854077511876 508.0 1.0 345.0 
552.0000434493926 209725.0 NaN 1464.0828323313287 0.5019713311827609 508.0 1.0 345.0 
554.0000434493926 209717.0 NaN 1467.150300601202 0.5027367905670169 508.0 2.0 345.0 
556.0000434493926 209667.0 NaN 1457.9478957915828 0.5016958510278384 505.0 2.0 342.0 
558.0000434493926 209707.0 NaN 1454.8537074148296 0.5017329671663443 504.0 2.0 341.0 
560.0000434493926 209791.0 NaN 1454.856379425518 0.5020913331344176 502.0 2.0 341.0 
562.0000434493926 209768.0 NaN 1457.8810955243816 0.5020219834542037 504.0 1.0 343.0 
564.0000434493926 209750.0 NaN 1460.9966599866407 0.5022328082146793 506.0 1.0 344.0 
566.0000434493926 209732.0 NaN 1454.904475617903 0.5017884537218846 505.0 1.0 342.0 
568.0000434493926 209723.0 NaN 1461.0340681362727 0.5017464619196274 506.0 2.0 343.0 
570.0000434493926 209795.0 NaN 1467.2251169004678 0.5019693307145616 509.0 1.0 346.0 
572.0000434493926 209810.0 NaN 1473.360053440214 0.5018510587876358 509.0 1.0 348.0 
574.0000434493926 209813.0 NaN 1476.4275217100871 0.5017274959260487 508.0 1.0 349.0 
576.0000434493926 209828.0 NaN 1473.37875751503 0.5018357677127909 508.0 1.0 348.0 
578.0000434493926 209854.0 NaN 1470.2578490313965 0.5019165295612175 509.0 1.0 347.0 
580.0000434493926 209914.0 NaN 1470.180360721443 0.5018918520455196 510.0 1.0 347.0 
582.0000434493926 209907.0 NaN 1473.258517034069 0.5022704488930583 510.0 2.0 347.0 
584.0000434493926 209874.0 NaN 1476.3740814963264 0.5018542434316541 516.0 2.0 348.0 
586.0000434493926 209857.0 NaN 1473.3146292585177 0.5017108617160527 518.0 2.0 347.0 
588.0000434493926 209932.0 NaN 1476.419505678022 0.502021097344062 518.0 2.0 348.0 
590.0000434493926 209919.0 NaN 1482.5303941215761 0.5019855891670136 522.0 1.0 351.0 
592.0000434493926 209922.0 NaN 1482.4849699398803 0.5019153995129583 523.0 1.0 351.0 
594.0000434493926 209964.0 NaN 1485.5871743486975 0.501730546017568 524.0 1.0 352.0 
596.0000434493926 209965.0 NaN 1485.6352705410818 0.5016527344674886 523.0 2.0 351.0 
598.0000434493926 210014.0 NaN 1488.7000668002668 0.5022091090025981 522.0 2.0 352.0 
600.0000434493926 210009.0 NaN 1491.764863059453 0.5015532668561987 524.0 2.0 353.0 
602.0000434493926 210043.0 NaN 1488.6867067468274 0.501928615119191 523.0 2.0 352.0 
604.0000434493926 210047.0 NaN 1501.012692050767 0.5018064270370896 528.0 1.0 357.0 
606.0000434493926 210034.0 NaN 1497.9211756847021 0.501722207440539 524.0 2.0 355.0 
608.0000434493926 210078.0 NaN 1504.0641282565123 0.5022436258317955 526.0 2.0 357.0 
610.0000434493926 210003.0 NaN 1504.0320641282558 0.501766228217264 527.0 2.0 357.0 
612.0000434493926 209996.0 NaN 1500.9352037408162 0.5014981101640303 527.0 1.0 357.0 
614.0000434493926 210019.0 NaN 1500.9352037408162 0.501798940654234 526.0 1.0 357.0 
616.0000434493926 210020.0 NaN 1501.004676018703 0.5019331116687569 524.0 1.0 357.0 
618.0000434493926 210054.0 NaN 1504.0694722778899 0.5021062010264105 523.0 1.0 358.0 
620.0000434493926 209997.0 NaN 1516.355377421509 0.5017007791162645 525.0 1.0 362.0 
622.0000434493926 209969.0 NaN 1516.3019372077483 0.5017208502305608 524.0 1.0 362.0 
624.0000434493926 209962.0 NaN 1516.3340013360062 0.5016377422036323 524.0 1.0 362.0 
626.0000434493926 209975.0 NaN 1516.355377421509 0.5016558007370988 524.0 1.0 362.0 
628.0000434493926 210062.0 NaN 1519.4522378089523 0.5023612068891137 524.0 1.0 363.0 
630.0000434493926 210031.0 NaN 1516.4008016032074 0.5020013456355898 527.0 1.0 362.0 
632.0000434493926 210005.0 NaN 1525.6406145624574 0.502262237971847 528.0 1.0 365.0 
634.0000434493926 210021.0 NaN 1522.5410821643281 0.5017264534511424 532.0 1.0 364.0 
636.0000434493926 210024.0 NaN 1522.578490313962 0.5016866982553483 533.0 1.0 364.0 
638.0000434493926 210050.0 NaN 1519.532398129592 0.5018157800694302 534.0 1.0 363.0 
640.0000434493926 210075.0 NaN 1513.3573814295262 0.5016463016000388 527.0 2.0 360.0 
642.0000434493926 210096.0 NaN 1510.2712090848363 0.5016740075202564 525.0 1.0 360.0 
644.0000434493926 210113.0 NaN 1513.3653974615906 0.5015509467934178 524.0 1.0 361.0 
646.0000434493926 210120.0 NaN 1513.338677354709 0.5015705502260664 523.0 1.0 361.0 
648.0000434493926 210159.0 NaN 1513.338677354709 0.5017857446638371 521.0 1.0 361.0 
650.0000434493926 210174.0 NaN 1510.215096860388 0.5017701553698012 522.0 1.0 360.0 
652.0000434493926 210184.0 NaN 1525.608550434201 0.5015120018258882 523.0 1.0 365.0 
654.0000434493926 210220.0 NaN 1525.6032064128262 0.5016371790020103 521.0 1.0 365.0 
656.0000434493926 210250.0 NaN 1525.6486305945211 0.5017346183511748 520.0 1.0 365.0 
658.0000434493926 210258.0 NaN 1525.7020708082828 0.5017779973359636 519.0 1.0 365.0 
660.0000434493926 210303.0 NaN 1534.9472277889101 0.5020383878697585 513.0 1.0 368.0 
662.0000434493926 210287.0 NaN 1537.899799599199 0.5019035407394761 515.0 1.0 369.0 
664.0000434493926 210253.0 NaN 1537.9051436205739 0.5016609144284171 519.0 1.0 369.0 
#####################################################################
# End of data export. Simulation finished at: 2019-03-07T21:46+0000 #
#####################################################################
