#####################################################################
# Alchemist log file - simulation started at: 2019-03-09T15:33+0000 #
#####################################################################
# seed = 2.0, bandwidth = 1333521.4321633242, propagationDelay = 0.03162277660168379, baserange = 31.622776601683796
#
# The columns have the following meaning: 
# time neighbor_count[Sum] <value>@neighbor_count[Sum] packet_size[Mean] mean_delay[Mean] crowd[Sum] overcrowded[Sum] risk[Sum] 
0.0 NaN NaN NaN NaN NaN NaN NaN 
2.000192286427399 2784.0 NaN 4996.6519706078825 0.5040289274861532 1496.0 1.0 1496.0 
4.000192286427398 2786.0 NaN 4999.7541750167 0.5042086529032691 1483.0 14.0 1483.0 
6.000192286427398 2795.0 NaN 4995.700734802939 0.5051937795892243 1452.0 45.0 1452.0 
8.0001922864274 2792.0 NaN 4996.991315965264 0.5046367744153206 1422.0 75.0 1422.0 
10.000192286427398 2792.0 NaN 4995.008684034736 0.5047970803489518 1412.0 85.0 1412.0 
12.000192286427398 2795.0 NaN 4995.444221776887 0.5054584299960335 1414.0 83.0 1414.0 
14.000192286427398 2794.0 NaN 4994.36205744823 0.5046113966482916 1420.0 77.0 1420.0 
16.000192286427396 2802.0 NaN 4995.3694054776215 0.5067294669715222 1409.0 88.0 1409.0 
18.000192286427396 2798.0 NaN 4994.140280561122 0.5044719670370564 1403.0 94.0 1403.0 
20.000192286427396 2803.0 NaN 4995.158316633267 0.5047990565958442 1408.0 89.0 1408.0 
22.000192286427396 2804.0 NaN 4993.934535738143 0.5103062868666406 1410.0 87.0 1410.0 
24.000192286427396 2797.0 NaN 4994.939211756847 0.505501004418345 1412.0 85.0 1412.0 
26.000192286427396 2798.0 NaN 4993.632598530394 0.5091964993756477 1409.0 88.0 1409.0 
28.000192286427396 2801.0 NaN 4994.949899799599 0.5065406752365501 1407.0 90.0 1407.0 
30.000192286427396 2790.0 NaN 4993.832999331998 0.5044197473182057 1409.0 88.0 1409.0 
32.0001922864274 2806.0 NaN 4994.650634602538 0.5059908870065796 1413.0 84.0 1413.0 
34.0001922864274 2810.0 NaN 4993.9746158984635 0.5053865812047035 1412.0 85.0 1412.0 
36.0001922864274 2812.0 NaN 4994.602538410154 0.5066572445591543 1411.0 86.0 1411.0 
38.0001922864274 2817.0 NaN 4993.787575150301 0.505816190591861 1413.0 84.0 1413.0 
40.0001922864274 2810.0 NaN 4994.89378757515 0.5059340531208067 1410.0 87.0 1410.0 
42.0001922864274 2826.0 NaN 4993.555110220441 0.5084587759723486 1405.0 92.0 1405.0 
44.0001922864274 2828.0 NaN 4994.818971275885 0.5055252593372156 1401.0 96.0 1401.0 
46.0001922864274 2828.0 NaN 4993.715430861724 0.5063162011937257 1402.0 95.0 1402.0 
48.0001922864274 2835.0 NaN 4994.74415497662 0.508185894333537 1406.0 91.0 1406.0 
50.0001922864274 2830.0 NaN 4993.7207748831 0.5048827174555516 1408.0 89.0 1408.0 
52.0001922864274 2859.0 NaN 4994.685370741483 0.5168367284813311 1405.0 92.0 1405.0 
54.0001922864274 2849.0 NaN 4993.784903139613 0.5128255439252074 1406.0 91.0 1406.0 
56.0001922864274 2839.0 NaN 4994.383433533734 0.5063475641760196 1405.0 92.0 1405.0 
58.0001922864274 2838.0 NaN 4993.9906479625915 0.5066100547325784 1405.0 92.0 1405.0 
60.0001922864274 2835.0 NaN 4994.557114228457 0.5048304963552716 1405.0 92.0 1405.0 
62.00058297905275 2868.0 NaN 1518.8376753507002 0.5107248861928769 581.0 92.0 272.0 
64.00058297905275 2845.0 NaN 1518.5437541750177 0.5061782510375583 495.0 90.0 274.0 
66.00058297905275 2845.0 NaN 1518.5597862391458 0.506163686866159 442.0 92.0 272.0 
68.00058297905275 2853.0 NaN 1518.514362057448 0.5132276427420503 418.0 91.0 273.0 
70.00058297905275 2845.0 NaN 1518.5170340681366 0.507235813336122 402.0 91.0 273.0 
72.00058297905275 2844.0 NaN 1518.3700734802935 0.5090907227126378 403.0 89.0 275.0 
74.00058297905275 2841.0 NaN 1524.5851703406818 0.5089257606728672 399.0 88.0 278.0 
76.00058297905275 2839.0 NaN 1524.4515698062792 0.5048455271708313 397.0 89.0 277.0 
78.00058297905275 2847.0 NaN 1524.4676018704088 0.5085733599023771 395.0 88.0 278.0 
80.00058297905275 2851.0 NaN 1527.6312625250516 0.5078002402836799 391.0 89.0 278.0 
82.00058297905275 2856.0 NaN 1527.5965263861062 0.5074043785757146 388.0 90.0 277.0 
84.00058297905275 2845.0 NaN 1530.8323313293272 0.5104911780526956 386.0 91.0 277.0 
86.00058297905275 2825.0 NaN 1530.6933867735456 0.5056961025332104 386.0 89.0 279.0 
88.00058297905275 2813.0 NaN 1530.7842351369393 0.5090994647495922 385.0 89.0 279.0 
90.00058297905275 2802.0 NaN 1530.6506346025367 0.5042049482434788 386.0 86.0 282.0 
92.00058297905275 2809.0 NaN 1530.714762859052 0.5061992501651046 386.0 85.0 283.0 
94.00058297905275 2803.0 NaN 1530.7815631262542 0.5077102404174202 385.0 86.0 282.0 
96.00058297905275 2813.0 NaN 1530.5811623246484 0.5076585037080581 389.0 82.0 286.0 
98.00058297905275 2801.0 NaN 1530.7441549766183 0.5055392383565268 391.0 80.0 288.0 
100.00058297905275 2791.0 NaN 1530.677354709418 0.5053176613072324 389.0 82.0 286.0 
102.00058297905275 2794.0 NaN 1533.7181028724115 0.5042374298641946 386.0 85.0 284.0 
104.00058297905275 2797.0 NaN 1533.827655310621 0.5072247665677172 386.0 85.0 284.0 
106.00058297905275 2799.0 NaN 1533.7822311289244 0.5089142315708157 386.0 85.0 284.0 
108.00058297905275 2803.0 NaN 1536.8817635270545 0.5102816994907046 386.0 84.0 286.0 
110.00058297905275 2798.0 NaN 1536.9031396125577 0.5084292858799987 389.0 81.0 289.0 
112.00058297905275 2804.0 NaN 1536.9058116232454 0.5089779274952302 387.0 83.0 287.0 
114.00058297905275 2800.0 NaN 1536.8283233132931 0.5133949204021184 388.0 83.0 287.0 
116.00058297905275 2804.0 NaN 1536.865731462927 0.5141432229041197 392.0 81.0 289.0 
118.00058297905275 2801.0 NaN 1546.0788243152972 0.5130991825740553 392.0 81.0 292.0 
120.00058297905275 2810.0 NaN 1546.076152304609 0.5096622670118308 396.0 77.0 296.0 
122.00058297905275 2806.0 NaN 1546.092184368736 0.5151211943228639 397.0 75.0 298.0 
124.00058297905275 2792.0 NaN 1546.188376753509 0.5085263855672815 395.0 78.0 295.0 
126.00058297905275 2807.0 NaN 1549.0688042752186 0.5082397233482712 398.0 77.0 297.0 
128.00058297905275 2801.0 NaN 1546.1108884435546 0.5173797999040577 399.0 76.0 297.0 
130.00058297905275 2783.0 NaN 1546.052104208418 0.5105245670197927 398.0 77.0 296.0 
132.00058297905275 2775.0 NaN 1545.9879759519029 0.5104765320003298 393.0 78.0 295.0 
134.00058297905275 2763.0 NaN 1543.000668002673 0.5077097348496479 393.0 77.0 295.0 
136.00058297905275 2770.0 NaN 1546.1456245825 0.5094087404184438 394.0 74.0 299.0 
138.00058297905275 2781.0 NaN 1543.0327321309273 0.5109483346719963 387.0 80.0 292.0 
140.00058297905275 2803.0 NaN 1546.0654642618574 0.5057226005589843 381.0 85.0 288.0 
142.00058297905275 2825.0 NaN 1549.098196392785 0.5127147456825495 378.0 87.0 287.0 
144.00058297905275 2836.0 NaN 1549.2451569806271 0.5129242680519063 380.0 84.0 290.0 
146.00058297905275 2832.0 NaN 1549.111556446227 0.5068474108798147 377.0 88.0 286.0 
148.00058297905275 2845.0 NaN 1546.191048764194 0.5132721829204832 377.0 91.0 282.0 
150.00058297905275 2844.0 NaN 1543.0247160988636 0.5111757750098643 380.0 86.0 286.0 
152.00058297905275 2836.0 NaN 1539.9706078824302 0.5120510497374191 380.0 87.0 284.0 
154.00058297905275 2836.0 NaN 1540.0774883099543 0.510502406744552 374.0 91.0 280.0 
156.00058297905275 2824.0 NaN 1539.8797595190365 0.5097930006712682 385.0 82.0 289.0 
158.00058297905275 2841.0 NaN 1540.0374081496334 0.5077078030266287 385.0 81.0 290.0 
160.00058297905275 2843.0 NaN 1539.9545758183028 0.5064088472264561 379.0 87.0 284.0 
162.00058297905275 2849.0 NaN 1539.8102872411484 0.5157932454858701 384.0 82.0 289.0 
164.00058297905275 2821.0 NaN 1543.1957247829 0.5182334200010907 377.0 87.0 285.0 
166.00058297905275 2811.0 NaN 1549.2317969271885 0.5091953572409116 373.0 91.0 283.0 
168.00058297905275 2812.0 NaN 1549.2879091516363 0.5141999848551772 377.0 87.0 287.0 
170.00058297905275 2802.0 NaN 1549.2585170340699 0.5074610116680479 375.0 87.0 287.0 
172.00058297905275 2806.0 NaN 1543.0968603874426 0.5133997449483778 377.0 85.0 287.0 
174.00058297905275 2794.0 NaN 1543.0968603874426 0.5097214257505558 383.0 79.0 293.0 
176.00058297905275 2787.0 NaN 1543.0407481629911 0.5144608973900674 382.0 78.0 294.0 
178.00058297905275 2786.0 NaN 1540.1015364061454 0.514309787906364 379.0 81.0 290.0 
180.00058297905275 2764.0 NaN 1539.97060788243 0.5087712684917851 381.0 81.0 290.0 
182.00058297905275 2764.0 NaN 1540.0400801603203 0.5143050489227768 384.0 79.0 292.0 
184.00058297905275 2781.0 NaN 1543.150300601202 0.5154655610067371 380.0 83.0 289.0 
186.00058297905275 2777.0 NaN 1540.016032064127 0.5127163542525253 381.0 81.0 290.0 
188.00058297905275 2777.0 NaN 1543.2224448897819 0.513398847848396 379.0 83.0 289.0 
190.00058297905275 2764.0 NaN 1539.986639946561 0.5081122420322528 377.0 88.0 283.0 
192.00058297905275 2768.0 NaN 1540.021376085503 0.5206839584780978 376.0 89.0 282.0 
194.00058297905275 2773.0 NaN 1540.1416165664662 0.5177779814778339 366.0 98.0 273.0 
196.00058297905275 2768.0 NaN 1540.0561122244485 0.5167762578603666 364.0 99.0 272.0 
198.00058297905275 2776.0 NaN 1543.088844355379 0.5164503829939607 364.0 99.0 273.0 
200.00058297905275 2767.0 NaN 1543.169004676018 0.5084376904519531 376.0 88.0 284.0 
202.00058297905275 2781.0 NaN 1543.1182364729455 0.5194869216905781 368.0 96.0 276.0 
204.00058297905275 2778.0 NaN 1546.0868403473637 0.518622622831142 366.0 98.0 275.0 
206.00058297905275 2762.0 NaN 1543.1075484301934 0.5105176266974618 367.0 97.0 275.0 
208.00058297905275 2769.0 NaN 1543.1609886439546 0.5212910581467904 362.0 99.0 273.0 
210.00058297905275 2750.0 NaN 1539.9331997328002 0.5101666511839977 355.0 105.0 266.0 
212.00058297905275 2755.0 NaN 1540.0855043420183 0.5204920134779866 358.0 103.0 268.0 
214.00058297905275 2756.0 NaN 1543.209084836339 0.5259474148270868 359.0 103.0 269.0 
216.00058297905275 2738.0 NaN 1543.078156312627 0.5095574511733382 368.0 95.0 277.0 
218.00058297905275 2754.0 NaN 1543.0995323981274 0.5194634577719949 370.0 94.0 278.0 
220.00058297905275 2749.0 NaN 1539.9519038076157 0.5084348650276134 367.0 97.0 274.0 
222.00058297905275 2761.0 NaN 1539.906479625918 0.5191834822737891 369.0 96.0 275.0 
224.00058297905275 2756.0 NaN 1540.1309285237155 0.5116709868232074 368.0 96.0 275.0 
226.00058297905275 2754.0 NaN 1539.981295925182 0.5155614744344114 367.0 95.0 276.0 
228.00058297905275 2752.0 NaN 1539.986639946561 0.5140093628984547 365.0 97.0 274.0 
230.00058297905275 2744.0 NaN 1536.9779559118247 0.5118552386345183 361.0 98.0 272.0 
232.00058297905275 2747.0 NaN 1540.1442885771546 0.5083000715805156 363.0 98.0 273.0 
234.00058297905275 2750.0 NaN 1540.0427521710092 0.5214717586945378 362.0 100.0 271.0 
236.00058297905275 2745.0 NaN 1543.0621242484974 0.5126457613086514 362.0 100.0 272.0 
238.00058297905275 2743.0 NaN 1543.1369405477635 0.5212537849492109 358.0 101.0 271.0 
240.00058297905275 2722.0 NaN 1542.9579158316637 0.5099175592154201 364.0 95.0 277.0 
242.00058297905275 2725.0 NaN 1539.9706078824302 0.5188479582546658 361.0 99.0 272.0 
244.00058297905275 2719.0 NaN 1540.0347361389454 0.5132138056130997 362.0 96.0 275.0 
246.00058297905275 2720.0 NaN 1539.861055444221 0.509919409747899 360.0 97.0 274.0 
248.00058297905275 2713.0 NaN 1540.0828323313274 0.5139615124705958 360.0 97.0 274.0 
250.00058297905275 2703.0 NaN 1539.9331997328002 0.5090388098144139 360.0 98.0 273.0 
252.00058297905275 2702.0 NaN 1533.7955911823635 0.5154666466204608 359.0 98.0 271.0 
254.00058297905275 2707.0 NaN 1533.9986639946546 0.5201122169489665 363.0 94.0 275.0 
256.00058297905275 2699.0 NaN 1530.7548430193729 0.5124982530920111 363.0 93.0 275.0 
258.00058297905275 2704.0 NaN 1530.7361389445546 0.5153050660896668 360.0 96.0 272.0 
260.00058297905275 2698.0 NaN 1530.8109552438207 0.505214550594038 367.0 89.0 279.0 
262.00058297905275 2714.0 NaN 1524.5637942551757 0.5136041568620842 370.0 87.0 279.0 
264.00058297905275 2716.0 NaN 1527.7675350701393 0.5285393461711461 374.0 84.0 283.0 
266.00058297905275 2693.0 NaN 1527.6793587174361 0.5129332897244303 379.0 81.0 286.0 
268.00058297905275 2691.0 NaN 1540.0106880427525 0.5139031703530109 378.0 82.0 289.0 
270.00058297905275 2679.0 NaN 1539.930527722109 0.5053223863751768 379.0 81.0 290.0 
272.00058297905275 2676.0 NaN 1539.9358717434884 0.5260273519899 383.0 78.0 293.0 
274.00058297905275 2664.0 NaN 1543.054108216434 0.5175987258136201 381.0 80.0 292.0 
276.00058297905275 2651.0 NaN 1542.8830995324 0.5054855443858807 387.0 74.0 298.0 
278.00058297905275 2650.0 NaN 1539.962591850366 0.5136713838446595 383.0 78.0 293.0 
280.00058297905275 2647.0 NaN 1539.8049432197727 0.5138035821987085 389.0 74.0 297.0 
282.00058297905275 2648.0 NaN 1536.6680026720092 0.5175831354797771 379.0 84.0 286.0 
284.00058297905275 2639.0 NaN 1536.8790915163656 0.5277755014140069 386.0 76.0 294.0 
286.00058297905275 2630.0 NaN 1536.9058116232454 0.5167170197919942 376.0 83.0 287.0 
288.00058297905275 2618.0 NaN 1536.7561790247182 0.5190432177815538 383.0 75.0 295.0 
290.00058297905275 2619.0 NaN 1536.8550434201727 0.5201314633872802 376.0 81.0 289.0 
292.00058297905275 2616.0 NaN 1536.713426853709 0.5194254621475991 385.0 71.0 299.0 
294.00058297905275 2611.0 NaN 1530.5865063460271 0.5176437268549366 379.0 77.0 291.0 
296.00058297905275 2601.0 NaN 1530.4849699398817 0.5156209770093265 387.0 69.0 299.0 
298.00058297905275 2608.0 NaN 1533.7314629258522 0.5135782851061996 380.0 76.0 293.0 
300.00058297905275 2602.0 NaN 1533.5577822311275 0.5183351591175803 387.0 69.0 300.0 
302.00058297905275 2605.0 NaN 1527.4923179692728 0.515146931757519 378.0 78.0 289.0 
304.00058297905275 2628.0 NaN 1530.6479625918516 0.5123020250421341 383.0 73.0 295.0 
306.00058297905275 2632.0 NaN 1530.5464261857062 0.5186838699303479 376.0 80.0 288.0 
308.00058297905275 2630.0 NaN 1530.6346025384091 0.5184869854982433 380.0 75.0 293.0 
310.00058297905275 2625.0 NaN 1536.798931195725 0.5160847299454489 373.0 80.0 290.0 
312.00058297905275 2621.0 NaN 1536.6867067468274 0.5213686079220478 382.0 72.0 298.0 
314.00058297905275 2609.0 NaN 1533.8276553106205 0.5171884197341802 377.0 78.0 291.0 
316.00058297905275 2596.0 NaN 1527.6205744822998 0.5123268911335729 381.0 72.0 295.0 
318.00058297905275 2606.0 NaN 1527.5804943219791 0.5130194056034043 377.0 76.0 291.0 
320.00058297905275 2603.0 NaN 1530.6693386773545 0.510626970898229 384.0 70.0 298.0 
322.00058297905275 2616.0 NaN 1527.623246492985 0.5181887371326275 380.0 75.0 292.0 
324.00058297905275 2617.0 NaN 1530.7388109552453 0.5193488556061775 387.0 70.0 298.0 
326.00058297905275 2614.0 NaN 1530.7708750835 0.5157249839508606 380.0 76.0 292.0 
328.00058297905275 2610.0 NaN 1530.6185704742816 0.5213996111905879 383.0 72.0 296.0 
330.00058297905275 2595.0 NaN 1530.6933867735456 0.5114350468807182 376.0 78.0 290.0 
332.00058297905275 2602.0 NaN 1527.6339345357364 0.5230072730450174 384.0 70.0 297.0 
334.00058297905275 2608.0 NaN 1530.7628590514364 0.5138677527734172 380.0 76.0 292.0 
336.00058297905275 2608.0 NaN 1530.7120908483637 0.5195164614110837 389.0 67.0 301.0 
338.00058297905275 2625.0 NaN 1527.6285905143634 0.5149601746358967 383.0 75.0 292.0 
340.00058297905275 2618.0 NaN 1524.5263861055455 0.5133594611204936 387.0 70.0 296.0 
342.00058297905275 2633.0 NaN 1530.5918503674004 0.5193768502340175 384.0 75.0 293.0 
344.00058297905275 2631.0 NaN 1533.7955911823635 0.5197120671076609 389.0 71.0 298.0 
346.00058297905275 2625.0 NaN 1530.7441549766186 0.5165632413844463 383.0 77.0 291.0 
348.00058297905275 2619.0 NaN 1530.589178356712 0.5192935406998479 391.0 70.0 298.0 
350.00058297905275 2619.0 NaN 1527.5457581830335 0.5189167574272162 382.0 77.0 290.0 
352.00058297905275 2642.0 NaN 1530.567802271209 0.5261817354069733 388.0 71.0 297.0 
354.00058297905275 2633.0 NaN 1527.5751503006 0.5217350172331956 382.0 77.0 290.0 
356.00058297905275 2638.0 NaN 1524.5076820307272 0.5214775939891967 387.0 72.0 294.0 
358.00058297905275 2630.0 NaN 1524.633266533066 0.5367931481415258 382.0 77.0 289.0 
360.00058297905275 2600.0 NaN 1524.4943219772886 0.520275410155021 376.0 81.0 285.0 
362.00058297905275 2618.0 NaN 1524.5718102872422 0.5258606505795997 371.0 86.0 280.0 
364.00058297905275 2616.0 NaN 1524.5317301269188 0.5174148393277751 379.0 78.0 288.0 
366.00058297905275 2618.0 NaN 1524.4061456245818 0.5211344981812499 367.0 90.0 276.0 
368.00058297905275 2619.0 NaN 1524.4301937207733 0.5142711857594942 373.0 84.0 282.0 
370.00058297905275 2617.0 NaN 1503.0460921843694 0.5247238474990015 370.0 88.0 271.0 
372.00058297905275 2621.0 NaN 1502.8483633934543 0.5263363661739893 375.0 83.0 276.0 
374.00058297905275 2613.0 NaN 1509.1730126920515 0.529760951874741 370.0 89.0 272.0 
376.00058297905275 2604.0 NaN 1509.2398129592523 0.5160002435835024 380.0 80.0 281.0 
378.00058297905275 2613.0 NaN 1506.0895123580488 0.5181577378689775 371.0 89.0 271.0 
380.00058297905275 2615.0 NaN 1506.156312625251 0.5224850975705835 378.0 83.0 277.0 
382.00058297905275 2620.0 NaN 1499.783567134269 0.5333471104000049 373.0 86.0 272.0 
384.00058297905275 2623.0 NaN 1503.0247160988638 0.517755850286054 379.0 80.0 279.0 
386.00058297905275 2626.0 NaN 1509.108884435537 0.5192175031753024 373.0 89.0 272.0 
388.00058297905275 2657.0 NaN 1509.2237808951243 0.5184835004506533 380.0 82.0 279.0 
390.00058297905275 2632.0 NaN 1506.0841683366727 0.5174794034348194 379.0 82.0 278.0 
392.00058297905275 2624.0 NaN 1512.2378089512365 0.5304855957921566 379.0 81.0 281.0 
394.00058297905275 2621.0 NaN 1509.2424849699394 0.530253515920497 372.0 91.0 270.0 
396.00058297905275 2620.0 NaN 1509.092852371409 0.5130969254811072 380.0 80.0 281.0 
398.00058297905275 2637.0 NaN 1509.1890447561796 0.5200553483570287 378.0 81.0 280.0 
400.00058297905275 2624.0 NaN 1509.1783567134273 0.5128755970837421 387.0 76.0 285.0 
402.00058297905275 2637.0 NaN 1505.9746158984635 0.5163598346415713 393.0 73.0 287.0 
404.00058297905275 2650.0 NaN 1518.4154976619911 0.5229109151874065 400.0 66.0 298.0 
406.00058297905275 2650.0 NaN 1518.4769539078156 0.5236133186809759 396.0 71.0 293.0 
408.00058297905275 2662.0 NaN 1521.5390781563121 0.5265753164451498 404.0 63.0 302.0 
410.00058297905275 2640.0 NaN 1527.7408149632606 0.511698117122964 398.0 69.0 298.0 
412.00058297905275 2648.0 NaN 1530.760187040748 0.5192509667396307 404.0 63.0 305.0 
414.00058297905275 2642.0 NaN 1533.862391449564 0.523464757108358 406.0 63.0 306.0 
416.00058297905275 2633.0 NaN 1533.814295257182 0.5157949360542285 414.0 55.0 314.0 
418.00058297905275 2633.0 NaN 1530.8403473613905 0.5237859599904572 405.0 64.0 304.0 
420.00058297905275 2610.0 NaN 1518.3861055444213 0.502446587934927 415.0 57.0 307.0 
422.00058297905275 2637.0 NaN 1515.283901135603 0.5059243397350947 406.0 66.0 297.0 
424.00058297905275 2646.0 NaN 1512.2565130260527 0.5292735351168998 409.0 61.0 301.0 
426.00058297905275 2631.0 NaN 1518.3193052772206 0.5196790605431664 407.0 67.0 297.0 
428.00058297905275 2644.0 NaN 1518.3299933199726 0.5211176451324462 410.0 60.0 304.0 
430.00058297905275 2600.0 NaN 1515.3186372745483 0.5061529397855159 398.0 72.0 291.0 
432.00058297905275 2621.0 NaN 1515.1663326653302 0.511668433493998 402.0 69.0 294.0 
434.00058297905275 2619.0 NaN 1521.4509018036083 0.523527651278158 399.0 75.0 290.0 
436.00058297905275 2612.0 NaN 1527.5110220440883 0.5230549221536931 408.0 68.0 299.0 
438.00058297905275 2634.0 NaN 1527.5350701402815 0.5208095088503745 400.0 72.0 295.0 
440.00058297905275 2623.0 NaN 1527.580494321979 0.5057601320197656 410.0 62.0 305.0 
442.00058297905275 2628.0 NaN 1530.6907147628574 0.5075137913012294 401.0 71.0 297.0 
444.00058297905275 2619.0 NaN 1530.567802271209 0.5154656508237919 409.0 64.0 304.0 
446.00058297905275 2620.0 NaN 1536.9565798263181 0.5152058605491155 401.0 72.0 298.0 
448.00058297905275 2634.0 NaN 1545.9826319305273 0.5148377351609292 411.0 68.0 305.0 
450.00058297905275 2617.0 NaN 1545.982631930527 0.5078317022023654 406.0 73.0 300.0 
452.00058297905275 2619.0 NaN 1542.9124916499661 0.5144792002471923 412.0 65.0 307.0 
454.00058297905275 2590.0 NaN 1542.9044756179023 0.5132496343416593 403.0 73.0 299.0 
456.00058297905275 2596.0 NaN 1552.1336005344 0.5142443503048986 412.0 65.0 310.0 
458.00058297905275 2602.0 NaN 1552.1843687374728 0.5174768164340696 405.0 73.0 302.0 
460.00058297905275 2573.0 NaN 1549.0661322645274 0.5104910121680049 409.0 66.0 308.0 
462.00058297905275 2580.0 NaN 1548.9378757515026 0.5135066732053912 404.0 71.0 303.0 
464.00058297905275 2576.0 NaN 1545.9559118236457 0.510646785093045 412.0 64.0 309.0 
466.00058297905275 2581.0 NaN 1542.9231796927181 0.520224055054846 405.0 71.0 301.0 
468.00058297905275 2573.0 NaN 1545.8997995991997 0.5221364502236479 411.0 65.0 308.0 
470.00058297905275 2569.0 NaN 1542.9178356713428 0.51024087193936 404.0 71.0 301.0 
472.00058297905275 2571.0 NaN 1536.6225784903154 0.5226181147473055 404.0 69.0 301.0 
474.00058297905275 2565.0 NaN 1530.5838343353362 0.5113758228592392 399.0 74.0 294.0 
476.00058297905275 2576.0 NaN 1521.3600534402153 0.5213418254879439 408.0 65.0 300.0 
478.00058297905275 2581.0 NaN 1515.177020708082 0.5177334677877256 403.0 70.0 293.0 
480.00058297905275 2569.0 NaN 1515.2331329325302 0.5062638983307106 408.0 64.0 299.0 
482.00058297905275 2586.0 NaN 1512.0614562458263 0.5262257561449718 393.0 77.0 285.0 
484.00058297905275 2572.0 NaN 1512.2110888443547 0.5101438708982903 398.0 70.0 292.0 
486.00058297905275 2584.0 NaN 1509.0901803607205 0.5184207976152099 397.0 70.0 291.0 
488.00058297905275 2575.0 NaN 1509.18904475618 0.5196411533120232 404.0 62.0 299.0 
490.00058297905275 2568.0 NaN 1499.9278557114237 0.5150835237382808 394.0 70.0 288.0 
492.00058297905275 2565.0 NaN 1499.7301269205084 0.5237498323753867 400.0 63.0 295.0 
494.00058297905275 2558.0 NaN 1496.7775551102193 0.5160571084506165 393.0 69.0 288.0 
496.00058297905275 2559.0 NaN 1490.6052104208427 0.5109619424894546 397.0 64.0 291.0 
498.00058297905275 2566.0 NaN 1493.7555110220449 0.5171740065448083 387.0 70.0 286.0 
500.00058297905275 2553.0 NaN 1490.5758183032729 0.5119494883097672 389.0 64.0 291.0 
502.00058297905275 2550.0 NaN 1493.6726786907154 0.5082561226520331 384.0 71.0 285.0 
504.00058297905275 2559.0 NaN 1493.7314629258526 0.5122462673656276 393.0 64.0 292.0 
506.00058297905275 2573.0 NaN 1502.9686038744162 0.5138517344536968 391.0 70.0 289.0 
508.00058297905275 2588.0 NaN 1503.032732130928 0.5153187808588457 394.0 67.0 292.0 
510.00058297905275 2583.0 NaN 1502.9739478957908 0.5117796743557879 383.0 76.0 283.0 
512.0005829790528 2585.0 NaN 1502.8937875751515 0.5160530216016448 388.0 70.0 289.0 
514.0005829790528 2584.0 NaN 1499.9465597862381 0.5175046751667841 385.0 73.0 285.0 
516.0005829790528 2586.0 NaN 1487.5724782899122 0.5165148223263883 390.0 66.0 288.0 
518.0005829790528 2579.0 NaN 1478.4208416833658 0.5159756189524598 381.0 73.0 278.0 
520.0005829790528 2590.0 NaN 1475.3346693386784 0.5183481909389963 378.0 72.0 278.0 
522.0005829790528 2577.0 NaN 1475.2117568470271 0.5204734981922488 367.0 78.0 272.0 
524.0005829790528 2570.0 NaN 1463.08617234469 0.5135118164999157 372.0 73.0 273.0 
526.0005829790528 2580.0 NaN 1459.9625918503664 0.523632562895272 365.0 79.0 266.0 
528.0005829790528 2574.0 NaN 1456.8577154308625 0.5095075214105426 373.0 71.0 273.0 
530.0005829790528 2580.0 NaN 1459.9171676686715 0.513076296724918 374.0 71.0 274.0 
532.0005829790528 2567.0 NaN 1459.9492317969275 0.5182480109225178 381.0 65.0 280.0 
534.0005829790528 2566.0 NaN 1462.9605878423522 0.51448714570285 378.0 69.0 277.0 
536.0005829790528 2584.0 NaN 1466.2311289245163 0.5098927305954702 386.0 63.0 284.0 
538.0005829790528 2586.0 NaN 1463.1609886439546 0.5083946336662658 382.0 69.0 277.0 
540.0005829790528 2587.0 NaN 1463.1209084836344 0.5155111527912667 393.0 60.0 286.0 
542.0005829790528 2576.0 NaN 1463.0594522378092 0.5202689986609591 385.0 67.0 279.0 
544.0005829790528 2570.0 NaN 1463.1235804943215 0.5171672674733839 388.0 67.0 279.0 
546.0005829790528 2577.0 NaN 1460.0026720106887 0.5140251525629487 386.0 71.0 274.0 
548.0005829790528 2556.0 NaN 1460.1042084168341 0.5142139704500259 391.0 62.0 283.0 
550.0005829790528 2551.0 NaN 1462.9953239812965 0.5104927115341845 384.0 69.0 277.0 
552.0005829790528 2545.0 NaN 1463.0835003340007 0.5207106143854079 381.0 71.0 275.0 
554.0005829790528 2556.0 NaN 1469.1409485637937 0.5130959990616697 387.0 68.0 280.0 
556.0005829790528 2556.0 NaN 1472.430193720774 0.5138516749569146 384.0 72.0 277.0 
558.0005829790528 2555.0 NaN 1466.2631930527727 0.5091628003435295 378.0 77.0 270.0 
560.0005829790528 2573.0 NaN 1457.092852371409 0.5140128530882317 383.0 67.0 277.0 
562.0005829790528 2560.0 NaN 1460.2164328657318 0.530574156687736 372.0 75.0 270.0 
564.0005829790528 2559.0 NaN 1466.2097528390104 0.5339351832075029 386.0 63.0 284.0 
566.0005829790528 2557.0 NaN 1472.6145624582496 0.524022566722626 382.0 66.0 283.0 
568.0005829790528 2543.0 NaN 1472.4114896459585 0.522216705942814 382.0 65.0 284.0 
570.0005829790528 2539.0 NaN 1475.4896459585832 0.5159340852762085 383.0 71.0 279.0 
572.0005829790528 2524.0 NaN 1481.5871743486978 0.5228118980104977 394.0 62.0 290.0 
574.0005829790528 2546.0 NaN 1484.6118904475625 0.5213721513519262 390.0 69.0 284.0 
576.0005829790528 2569.0 NaN 1487.6953907815637 0.5184184572004489 399.0 61.0 293.0 
578.0005829790528 2564.0 NaN 1487.6900467601877 0.5163903578877103 398.0 64.0 290.0 
580.0005829790528 2559.0 NaN 1490.7575150300609 0.511744737984257 404.0 58.0 297.0 
582.0005829790528 2559.0 NaN 1490.7334669338668 0.5118676177649851 401.0 62.0 293.0 
584.0005829790528 2574.0 NaN 1490.6639946559796 0.521616151374725 408.0 56.0 299.0 
586.0005829790528 2579.0 NaN 1499.9866399465607 0.5215788963219937 406.0 64.0 294.0 
588.0005829790528 2570.0 NaN 1499.8370073480285 0.5132485532779509 410.0 60.0 298.0 
590.0005829790528 2570.0 NaN 1496.8871075484292 0.516357336144112 405.0 62.0 295.0 
592.0005829790528 2571.0 NaN 1499.815631262526 0.5180444621032123 412.0 58.0 300.0 
594.0005829790528 2591.0 NaN 1499.815631262526 0.5260806321146831 407.0 64.0 294.0 
596.0005829790528 2578.0 NaN 1502.9365397461581 0.5148905704509327 410.0 62.0 297.0 
598.0005829790528 2578.0 NaN 1499.8316633266536 0.5137956265225375 407.0 64.0 294.0 
600.0005829790528 2581.0 NaN 1493.5577822311286 0.5086742207874099 410.0 63.0 293.0 
602.0005829790528 2585.0 NaN 1496.7722110888453 0.5126863656513017 405.0 70.0 287.0 
604.0005829790528 2611.0 NaN 1496.7962591850362 0.5149831401159362 397.0 72.0 285.0 
606.0005829790528 2608.0 NaN 1503.038076152306 0.5155498899085652 391.0 79.0 280.0 
608.0005829790528 2605.0 NaN 1506.1857047428182 0.5131443197340524 404.0 66.0 294.0 
610.0005829790528 2599.0 NaN 1499.989311957247 0.5126937471413565 394.0 75.0 283.0 
612.0005829790528 2596.0 NaN 1502.8964595858372 0.5132239145385202 400.0 69.0 290.0 
614.0005829790528 2598.0 NaN 1502.9873079492334 0.5226297275606339 396.0 73.0 286.0 
616.0005829790528 2609.0 NaN 1505.9906479625909 0.5116377698909982 397.0 72.0 288.0 
618.0005829790528 2614.0 NaN 1506.0868403473628 0.5231926638300405 397.0 71.0 289.0 
620.0005829790528 2581.0 NaN 1502.9979959919829 0.5106683085137278 399.0 67.0 292.0 
622.0005829790528 2591.0 NaN 1506.1028724114904 0.5166160564238718 387.0 79.0 281.0 
624.0005829790528 2607.0 NaN 1512.1523046092182 0.5180209373141627 393.0 72.0 290.0 
626.0005829790528 2635.0 NaN 1515.3587174348706 0.5184338775499223 381.0 80.0 283.0 
628.0005829790528 2640.0 NaN 1515.3961255845009 0.5192211202285049 388.0 72.0 291.0 
630.0005829790528 2629.0 NaN 1515.4415497662 0.5084135432810805 393.0 68.0 295.0 
632.0005829790528 2640.0 NaN 1515.4575818303274 0.5074455044038806 394.0 67.0 296.0 
634.0005829790528 2679.0 NaN 1521.531062124248 0.5227615321988127 382.0 79.0 286.0 
636.0005829790528 2695.0 NaN 1530.693386773546 0.5183030740380721 396.0 71.0 297.0 
638.0005829790528 2683.0 NaN 1524.627922511691 0.5172866764666519 386.0 82.0 284.0 
640.0005829790528 2666.0 NaN 1521.5711422845698 0.5118192589284964 393.0 74.0 291.0 
642.0005829790528 2668.0 NaN 1515.3346693386784 0.521017955022126 387.0 79.0 284.0 
644.0005829790528 2658.0 NaN 1512.3313293253182 0.5306958114695163 386.0 79.0 283.0 
646.0005829790528 2650.0 NaN 1515.3453573814281 0.514781201010139 381.0 83.0 280.0 
648.0005829790528 2646.0 NaN 1515.2277889111544 0.5244799262949104 386.0 78.0 285.0 
650.0005829790528 2616.0 NaN 1521.5310621242475 0.5196709284130369 376.0 87.0 278.0 
652.0005829790528 2608.0 NaN 1521.4268537074151 0.5237455300313402 389.0 73.0 292.0 
654.0005829790528 2612.0 NaN 1521.5951903807627 0.5228199570563462 386.0 73.0 292.0 
656.0005829790528 2639.0 NaN 1527.8156312625263 0.5128440007719883 393.0 64.0 303.0 
658.0005829790528 2642.0 NaN 1533.9986639946555 0.5204127067009203 394.0 66.0 303.0 
660.0005829790528 2636.0 NaN 1537.1249164996655 0.5123744808324497 396.0 64.0 306.0 
662.0005829790528 2625.0 NaN 1536.9939879759527 0.5207903811612716 392.0 68.0 302.0 
664.0005829790528 2617.0 NaN 1540.0561122244487 0.5194606090195683 396.0 63.0 308.0 
#####################################################################
# End of data export. Simulation finished at: 2019-03-09T15:38+0000 #
#####################################################################
