#####################################################################
# Alchemist log file - simulation started at: 2019-03-15T18:50+0000 #
#####################################################################
# seed = 8.0, bandwidth = 74989.42093324558, propagationDelay = 0.0031622776601683794, baserange = 562.341325190349
#
# The columns have the following meaning: 
# time neighbor_count[Sum] <value>@neighbor_count[Sum] packet_size[Mean] mean_delay[Mean] crowd[Sum] overcrowded[Sum] risk[Sum] 
0.0 NaN NaN NaN NaN NaN NaN NaN 
2.0001655438397337 97972.0 NaN 4995.409485637942 0.503281238368798 1497.0 0.0 1497.0 
4.000165543839734 98210.0 NaN 4994.094856379425 0.5045709536825393 1497.0 0.0 1497.0 
6.000165543839734 98210.0 NaN 4994.0200400801605 0.5045553942949396 1497.0 0.0 1497.0 
8.000165543839733 98210.0 NaN 4994.444889779559 0.5045594287258182 1497.0 0.0 1497.0 
10.000165543839733 98210.0 NaN 4995.65798263193 0.5045703333240508 1495.0 2.0 1495.0 
12.000165543839733 98214.0 NaN 4994.997995991984 0.5045574504060425 1496.0 1.0 1496.0 
14.000165543839733 98212.0 NaN 4994.281897127588 0.5045083180659286 1497.0 0.0 1497.0 
16.00016554383973 98212.0 NaN 4994.303273213093 0.504488336270706 1497.0 0.0 1497.0 
18.000165543839735 98231.0 NaN 4995.203740814964 0.5052375446258183 1497.0 0.0 1497.0 
20.000165543839735 98236.0 NaN 4995.652638610554 0.5060444243859342 1496.0 1.0 1496.0 
22.000165543839735 98259.0 NaN 4994.666666666667 0.5046252787042396 1497.0 0.0 1497.0 
24.000165543839735 98288.0 NaN 4994.378089512358 0.5048800274494526 1497.0 0.0 1497.0 
26.000165543839735 98306.0 NaN 4994.359385437542 0.5050604436117553 1497.0 0.0 1497.0 
28.000165543839735 98344.0 NaN 4995.3186372745495 0.5064033686280017 1495.0 2.0 1495.0 
30.000165543839735 98335.0 NaN 4996.248496993988 0.5064052148405666 1495.0 2.0 1495.0 
32.000165543839735 98353.0 NaN 4994.74415497662 0.504590498055378 1497.0 0.0 1497.0 
34.000165543839735 98379.0 NaN 4993.921175684703 0.5045698452822592 1497.0 0.0 1497.0 
36.000165543839735 98417.0 NaN 4994.378089512358 0.5051604516545751 1497.0 0.0 1497.0 
38.000165543839735 98450.0 NaN 4995.019372077489 0.5074578656206661 1496.0 1.0 1496.0 
40.000165543839735 98428.0 NaN 4996.154976619907 0.5088889280901023 1495.0 2.0 1495.0 
42.000165543839735 98438.0 NaN 4995.49498997996 0.5044296903957689 1496.0 1.0 1496.0 
44.000165543839735 98466.0 NaN 4994.212424849699 0.5046073378325074 1497.0 0.0 1497.0 
46.000165543839735 98490.0 NaN 4994.233800935203 0.5053257650488387 1496.0 1.0 1496.0 
48.000165543839735 98502.0 NaN 4995.006012024048 0.5078939178519207 1497.0 0.0 1497.0 
50.000165543839735 98453.0 NaN 4995.692718770875 0.5071044148449221 1496.0 1.0 1496.0 
52.000165543839735 98443.0 NaN 4994.810955243821 0.5043495622400136 1496.0 1.0 1496.0 
54.000165543839735 98462.0 NaN 4994.517034068136 0.5053143673439369 1497.0 0.0 1497.0 
56.000165543839735 98544.0 NaN 4994.519706078824 0.506358667023382 1496.0 1.0 1496.0 
58.000165543839735 98586.0 NaN 4995.104876419506 0.5077587012295958 1494.0 3.0 1494.0 
60.000165543839735 98611.0 NaN 4996.072144288577 0.5097901667328542 1497.0 0.0 1497.0 
62.000165543839735 98607.0 NaN 1519.4495657982636 0.49752842800546515 781.0 0.0 364.0 
64.00016554383973 98612.0 NaN 1522.4635938543752 0.500679132832343 620.0 0.0 365.0 
66.00016554383973 98637.0 NaN 1522.5651302605206 0.5016757033037803 583.0 0.0 365.0 
68.00016554383973 98652.0 NaN 1522.6105544422182 0.5023828759078163 549.0 0.0 365.0 
70.00016554383973 98678.0 NaN 1525.7474949899815 0.5030286062580055 537.0 0.0 366.0 
72.00016554383973 98667.0 NaN 1525.659318637273 0.5018011859926376 532.0 1.0 365.0 
74.00016554383973 98671.0 NaN 1525.573814295257 0.5020972667362814 531.0 0.0 366.0 
76.0001983480089 98713.0 NaN 1531.6312625250514 0.5005163490180161 531.0 0.0 368.0 
78.00000552126788 98724.0 NaN 1531.6072144288573 0.5010385368430701 528.0 0.0 368.0 
80.00000552126788 98743.0 NaN 1531.6740146960576 0.5017041706406125 526.0 1.0 367.0 
82.00000552126788 98755.0 NaN 1531.708750835003 0.5016164347562367 526.0 1.0 367.0 
84.00000552126788 98753.0 NaN 1534.952571810288 0.5004674785649085 528.0 1.0 368.0 
86.00000552126788 98755.0 NaN 1534.9231796927181 0.5010665033739987 526.0 1.0 368.0 
88.00000552126788 98761.0 NaN 1534.8643954575818 0.5007798015166902 528.0 0.0 369.0 
90.00021888469702 98785.0 NaN 1534.8269873079485 0.5017169442219309 528.0 0.0 369.0 
92.00021888469702 98783.0 NaN 1534.7788911155635 0.5017584831875818 527.0 0.0 369.0 
94.00021888469702 98787.0 NaN 1534.7762191048757 0.5019542089257686 527.0 1.0 368.0 
96.0001983480089 98784.0 NaN 1537.873079492318 0.5018386115330102 527.0 1.0 369.0 
98.00021888469702 98800.0 NaN 1537.907815631264 0.5020091574241673 527.0 1.0 369.0 
100.00000552126788 98819.0 NaN 1537.8196392785571 0.5032478716958415 527.0 1.0 369.0 
102.00000552126788 98786.0 NaN 1537.8383433533727 0.502425978806933 528.0 0.0 370.0 
104.00000552126788 98737.0 NaN 1537.806279225118 0.5003895506246269 527.0 0.0 370.0 
106.00000552126788 98737.0 NaN 1537.8169672678698 0.5002061448562934 528.0 0.0 370.0 
108.00000552126788 98766.0 NaN 1537.945223780894 0.5012248152823754 526.0 1.0 369.0 
110.00000552126788 98812.0 NaN 1537.945223780894 0.5024873767311655 526.0 1.0 369.0 
112.00000552126788 98780.0 NaN 1541.0501002003998 0.5004493416677359 525.0 1.0 370.0 
114.00000552126788 98820.0 NaN 1540.9111556446212 0.5006079904450436 526.0 1.0 370.0 
116.00000552126788 98830.0 NaN 1540.8416833667338 0.5010630897878895 528.0 0.0 371.0 
118.00000552126788 98820.0 NaN 1543.8824315297275 0.50138487777456 530.0 0.0 372.0 
120.00000552126788 98819.0 NaN 1547.0514362057456 0.502009154519673 530.0 0.0 373.0 
122.00000552126788 98796.0 NaN 1547.0915163660636 0.5022434777738902 528.0 1.0 372.0 
124.00000552126788 98795.0 NaN 1544.0400801603205 0.49981061480589056 529.0 1.0 371.0 
126.00000552126788 98806.0 NaN 1544.1710086840362 0.5002436247090855 528.0 1.0 371.0 
128.00000552126787 98809.0 NaN 1544.0374081496334 0.5002745405368353 527.0 1.0 371.0 
130.00000552126787 98811.0 NaN 1540.9432197728788 0.5014139293876885 528.0 0.0 371.0 
132.00000552126787 98797.0 NaN 1540.8416833667336 0.501929245889285 525.0 0.0 371.0 
134.00000552126787 98793.0 NaN 1537.7341349365395 0.5009059551116388 524.0 0.0 370.0 
136.00000552126787 98796.0 NaN 1531.6847027388094 0.5011533206594401 522.0 1.0 367.0 
138.00000552126787 98792.0 NaN 1534.8537074148296 0.5006884256365419 519.0 1.0 368.0 
140.00000552126787 98798.0 NaN 1538.0280561122245 0.5006520319419119 520.0 1.0 369.0 
142.00021888469703 98805.0 NaN 1544.0721442885763 0.5013678134439548 520.0 1.0 371.0 
144.00000552126787 98783.0 NaN 1544.0267201068816 0.5005528922013875 522.0 0.0 372.0 
146.00000552126787 98771.0 NaN 1543.9225116900457 0.5003774405353095 522.0 0.0 372.0 
148.00000552126787 98790.0 NaN 1550.0948563794273 0.5001497311661595 522.0 0.0 374.0 
150.00000552126787 98797.0 NaN 1550.1696726786909 0.5009275512326808 522.0 1.0 373.0 
152.00000552126787 98793.0 NaN 1540.9245156980637 0.5013008197493665 522.0 1.0 370.0 
154.00021888469703 98779.0 NaN 1537.9826319305273 0.5001590322541091 520.0 1.0 369.0 
156.0001983480089 98764.0 NaN 1541.0046760187029 0.5003063766685828 518.0 1.0 370.0 
158.00021888469703 98794.0 NaN 1540.9752839011364 0.5005015298473721 521.0 0.0 371.0 
160.00021888469703 98794.0 NaN 1540.8897795591183 0.5009743516683 522.0 0.0 371.0 
162.00021888469703 98836.0 NaN 1540.9084836339364 0.5020296142980556 520.0 0.0 371.0 
164.00021888469703 98821.0 NaN 1544.0213760855033 0.5011705294175016 520.0 0.0 372.0 
166.0001983480089 98789.0 NaN 1544.0427521710092 0.5008783395608268 520.0 0.0 372.0 
168.00021888469703 98768.0 NaN 1540.9913159652635 0.5000698471868334 520.0 0.0 371.0 
170.00021888469703 98758.0 NaN 1540.8363393453571 0.5001090586868026 521.0 0.0 371.0 
172.00021888469703 98785.0 NaN 1546.963259853039 0.5006884031979755 524.0 0.0 373.0 
174.00000552126787 98776.0 NaN 1546.9712758851028 0.5007373203053551 523.0 0.0 373.0 
176.0001983480089 98740.0 NaN 1544.013360053439 0.5008994564936938 522.0 0.0 372.0 
178.00021888469703 98751.0 NaN 1544.0561122244483 0.5020442690327862 522.0 0.0 372.0 
180.00021888469703 98719.0 NaN 1544.1282565130273 0.5017972831669604 522.0 0.0 372.0 
182.00021888469703 98748.0 NaN 1537.969271877088 0.5017813958937477 521.0 0.0 370.0 
184.00021888469703 98738.0 NaN 1537.894455577821 0.5015885986064207 520.0 0.0 370.0 
186.0001983480089 98676.0 NaN 1537.873079492318 0.5005549972390044 520.0 1.0 369.0 
188.00021888469703 98666.0 NaN 1540.798931195725 0.5004829707670799 520.0 1.0 370.0 
190.00021888469703 98646.0 NaN 1534.714762859052 0.5011263115952896 518.0 1.0 368.0 
192.00021888469703 98662.0 NaN 1534.8082832331336 0.5023769509044035 519.0 1.0 368.0 
194.00021888469703 98642.0 NaN 1538.0040080160336 0.5028089876319503 518.0 2.0 368.0 
196.0001983480089 98568.0 NaN 1538.0975283901118 0.5008443722423187 519.0 1.0 369.0 
198.00021888469703 98542.0 NaN 1534.963259853039 0.5008591397318222 519.0 1.0 368.0 
200.00021888469703 98543.0 NaN 1541.0501002003998 0.5020740332427909 520.0 1.0 370.0 
202.00021888469703 98564.0 NaN 1540.876419505679 0.5023251403533713 522.0 1.0 370.0 
204.00021888469703 98540.0 NaN 1540.865731462927 0.5020529057963107 522.0 1.0 370.0 
206.0001983480089 98501.0 NaN 1540.8790915163659 0.501812394120335 522.0 1.0 370.0 
208.00021888469703 98496.0 NaN 1534.7842351369393 0.5023291931137973 519.0 2.0 367.0 
210.00021888469703 98484.0 NaN 1531.8744154976634 0.5029184357572632 516.0 1.0 367.0 
212.00021888469703 98467.0 NaN 1528.6706746826999 0.5007741388643482 515.0 2.0 365.0 
214.00000552126787 98466.0 NaN 1531.7488309953246 0.5022623051526331 515.0 2.0 366.0 
216.00000552126787 98436.0 NaN 1534.8082832331334 0.5040545120074328 516.0 2.0 367.0 
218.00000552126787 98400.0 NaN 1528.6012024048089 0.5026331410528766 515.0 2.0 365.0 
220.00021888469703 98396.0 NaN 1528.6920507682025 0.5027149537163198 514.0 2.0 365.0 
222.00021888469703 98370.0 NaN 1525.5898463593846 0.5013802938916768 515.0 1.0 365.0 
224.00021888469703 98443.0 NaN 1522.5330661322637 0.5025931067232488 516.0 0.0 365.0 
226.0001983480089 98423.0 NaN 1525.517702070809 0.5026235441781736 516.0 0.0 366.0 
228.00021888469703 98420.0 NaN 1528.590514362057 0.50097849947962 514.0 0.0 367.0 
230.00021888469703 98418.0 NaN 1528.5771543086182 0.5012976779249857 512.0 1.0 366.0 
232.00000552126787 98402.0 NaN 1534.7575150300609 0.5014450384602464 512.0 0.0 369.0 
234.00000552126787 98393.0 NaN 1534.8056112224456 0.5016633117745565 513.0 0.0 369.0 
236.00000552126787 98380.0 NaN 1534.749498997997 0.5022704578287912 513.0 0.0 369.0 
238.00000552126787 98359.0 NaN 1534.8162992651974 0.5021661514557098 513.0 0.0 369.0 
240.00000552126787 98343.0 NaN 1531.6873747495001 0.5027653525679978 512.0 1.0 367.0 
242.00021888469703 98306.0 NaN 1531.625918503673 0.5013955410878683 513.0 0.0 368.0 
244.00021888469703 98292.0 NaN 1525.413493653973 0.5034696657204886 514.0 0.0 366.0 
246.0001983480089 98252.0 NaN 1525.4722778891112 0.503995520811426 514.0 0.0 366.0 
248.00021888469703 98227.0 NaN 1528.6092184368727 0.5014012517518135 514.0 0.0 367.0 
250.00021888469703 98222.0 NaN 1525.5684702738818 0.50131618404122 513.0 1.0 365.0 
252.00021888469703 98213.0 NaN 1525.7047428189724 0.5022918527265274 514.0 0.0 366.0 
254.00000552126787 98158.0 NaN 1525.5203740814973 0.5029479703896313 513.0 0.0 366.0 
256.0000055212679 98100.0 NaN 1525.4909819639272 0.503412450097807 514.0 0.0 366.0 
258.0000055212679 98036.0 NaN 1525.4054776219093 0.5016377881943833 516.0 0.0 366.0 
260.0000055212679 98019.0 NaN 1522.3059452237817 0.5027165613431432 515.0 1.0 364.0 
262.0000055212679 97972.0 NaN 1516.2778891115552 0.5029876514936266 515.0 0.0 363.0 
264.000218884697 97924.0 NaN 1516.419505678021 0.5027132392456072 511.0 2.0 361.0 
266.0001983480089 97913.0 NaN 1516.5263861055455 0.5036585068303939 511.0 1.0 362.0 
268.000218884697 97881.0 NaN 1525.6539746158996 0.502407869030144 513.0 1.0 365.0 
270.000218884697 97866.0 NaN 1531.772879091518 0.5041098909625688 512.0 1.0 367.0 
272.000218884697 97829.0 NaN 1531.5644622578484 0.5029163533690462 513.0 0.0 368.0 
274.000218884697 97802.0 NaN 1534.6960587842364 0.5034093296410647 515.0 0.0 369.0 
276.0000055212679 97777.0 NaN 1534.7174348697388 0.502663747005587 516.0 0.0 369.0 
278.0000055212679 97741.0 NaN 1528.5557782231117 0.503546579487182 515.0 0.0 367.0 
280.0000055212679 97724.0 NaN 1531.7247828991297 0.5052833751862799 514.0 1.0 367.0 
282.0000055212679 97689.0 NaN 1531.6927187708745 0.5022019872192602 514.0 1.0 367.0 
284.000218884697 97662.0 NaN 1531.7434869739475 0.5029762032214413 516.0 1.0 367.0 
286.0001983480089 97613.0 NaN 1531.6472945891794 0.5017225732854537 515.0 1.0 367.0 
288.000218884697 97592.0 NaN 1531.7221108884453 0.5019954772697414 514.0 1.0 367.0 
290.000218884697 97587.0 NaN 1534.7094188376748 0.5041195578638338 513.0 1.0 368.0 
292.000218884697 97535.0 NaN 1534.6880427521726 0.503505803418959 512.0 1.0 368.0 
294.0000055212679 97515.0 NaN 1534.7468269873093 0.5049974702680289 512.0 1.0 368.0 
296.0000055212679 97440.0 NaN 1537.7715430861729 0.5053834375030779 512.0 1.0 369.0 
298.0000055212679 97398.0 NaN 1537.7341349365386 0.5029288192923729 511.0 1.0 369.0 
300.0000055212679 97378.0 NaN 1540.8790915163654 0.5038410445677268 511.0 1.0 370.0 
302.000218884697 97325.0 NaN 1540.8710754843 0.5020146445720406 511.0 1.0 370.0 
304.000218884697 97335.0 NaN 1531.6740146960567 0.5030034074974457 512.0 0.0 368.0 
306.0000055212679 97265.0 NaN 1540.9752839011364 0.5020812706741831 511.0 0.0 371.0 
308.0000055212679 97240.0 NaN 1537.8249832999343 0.5017733447561121 509.0 0.0 370.0 
310.0000055212679 97226.0 NaN 1534.6586506346023 0.50316317270568 509.0 0.0 369.0 
312.0000055212679 97196.0 NaN 1534.6853707414816 0.5043617015338505 509.0 0.0 369.0 
314.0000055212679 97145.0 NaN 1534.6078824315293 0.5051143820786141 511.0 0.0 369.0 
316.0000055212679 97070.0 NaN 1531.5804943219794 0.5047586860535083 511.0 0.0 368.0 
318.0000055212679 97014.0 NaN 1537.763527054109 0.5023227638006833 512.0 0.0 370.0 
320.0000055212679 96990.0 NaN 1531.5938543754182 0.5030299731065436 510.0 0.0 368.0 
322.0000055212679 96935.0 NaN 1531.6152304609209 0.5035470967719069 510.0 0.0 368.0 
324.0000055212679 96896.0 NaN 1537.7608550434181 0.505114408092763 509.0 0.0 370.0 
326.0000055212679 96835.0 NaN 1537.7474949899818 0.5023290392447705 510.0 0.0 370.0 
328.0000055212679 96806.0 NaN 1540.817635270543 0.5032595334584228 510.0 0.0 371.0 
330.0000055212679 96775.0 NaN 1543.9331997328002 0.5063039072582406 511.0 0.0 372.0 
332.0000055212679 96725.0 NaN 1540.817635270543 0.5028466746836723 510.0 0.0 371.0 
334.0000055212679 96693.0 NaN 1537.774215096861 0.5034388958416183 510.0 1.0 369.0 
336.0000055212679 96631.0 NaN 1534.7575150300609 0.5033096065331517 512.0 0.0 369.0 
338.0000055212679 96582.0 NaN 1531.6018704074818 0.5011654906575879 512.0 0.0 368.0 
340.0000055212679 96580.0 NaN 1531.625918503673 0.5027697367372285 511.0 0.0 368.0 
342.0000055212679 96540.0 NaN 1537.774215096861 0.502948569997106 510.0 0.0 370.0 
344.0000055212679 96503.0 NaN 1537.6753507014025 0.5040244592393448 514.0 0.0 370.0 
346.0000055212679 96449.0 NaN 1537.7528390113548 0.5044768420350181 514.0 0.0 370.0 
348.0000055212679 96418.0 NaN 1534.6960587842361 0.5021054653351456 514.0 0.0 369.0 
350.0000055212679 96400.0 NaN 1531.655310621243 0.5036437945009834 514.0 0.0 368.0 
352.0000055212679 96372.0 NaN 1531.5430861723455 0.5034947659384774 516.0 0.0 368.0 
354.0000055212679 96316.0 NaN 1528.5664662658642 0.504344593476639 516.0 0.0 367.0 
356.0000055212679 96289.0 NaN 1528.579826319306 0.5043795431897056 515.0 0.0 367.0 
358.0000055212679 96231.0 NaN 1528.6225784903152 0.5026852411853671 514.0 0.0 367.0 
360.0000055212679 96234.0 NaN 1528.6305945223787 0.5060610749018521 514.0 0.0 367.0 
362.0000055212679 96206.0 NaN 1528.5344021376093 0.5039899471555239 516.0 0.0 367.0 
364.0000055212679 96140.0 NaN 1525.4428857715434 0.504430936781557 518.0 0.0 366.0 
366.0000055212679 96092.0 NaN 1525.333333333334 0.5062799779818162 519.0 0.0 366.0 
368.0000055212679 96070.0 NaN 1509.9772879091524 0.5027151491756626 518.0 0.0 361.0 
370.0000055212679 96044.0 NaN 1506.8750835003345 0.5048594040126307 518.0 0.0 360.0 
372.0000055212679 96047.0 NaN 1510.0895123580488 0.5041376051327332 518.0 0.0 361.0 
374.0000055212679 95976.0 NaN 1513.2237808951243 0.5056970732464225 519.0 0.0 362.0 
376.0001983480089 95910.0 NaN 1519.3640614562453 0.5065750265008322 518.0 0.0 364.0 
378.000218884697 95882.0 NaN 1513.32531730127 0.5020904387813588 518.0 0.0 362.0 
380.000218884697 95863.0 NaN 1513.1356045424182 0.5020332921064402 518.0 0.0 362.0 
382.000218884697 95869.0 NaN 1510.1135604542426 0.5029214655217469 519.0 0.0 361.0 
384.0000055212679 95833.0 NaN 1516.2378089512365 0.5026004018639999 518.0 0.0 363.0 
386.0000055212679 95792.0 NaN 1516.1790247161 0.5023920994753013 519.0 0.0 363.0 
388.0000055212679 95784.0 NaN 1510.0227120908476 0.50163726383859 516.0 1.0 360.0 
390.0000055212679 95766.0 NaN 1510.0654642618567 0.5027167659307907 517.0 1.0 360.0 
392.0000055212679 95762.0 NaN 1510.1696726786909 0.5029604152648663 516.0 1.0 360.0 
394.0000055212679 95733.0 NaN 1513.2104208416824 0.5029543332010816 517.0 1.0 361.0 
396.0000055212679 95684.0 NaN 1513.2264529058114 0.5038898739028792 517.0 1.0 361.0 
398.0000055212679 95659.0 NaN 1510.0627922511699 0.5033528033157643 521.0 1.0 360.0 
400.0000055212679 95639.0 NaN 1507.0460921843696 0.5026103249381964 520.0 1.0 359.0 
402.0000055212679 95626.0 NaN 1507.0674682698727 0.5035553631499777 519.0 1.0 359.0 
404.0000055212679 95598.0 NaN 1513.1917167668666 0.505852573761928 520.0 1.0 361.0 
406.0000055212679 95542.0 NaN 1516.2832331329334 0.5084161467228163 522.0 1.0 362.0 
408.0000055212679 95503.0 NaN 1522.4074816299274 0.5071910598158147 522.0 1.0 364.0 
410.0000055212679 95471.0 NaN 1525.4749498998 0.5064104416608696 522.0 1.0 365.0 
412.0000055212679 95457.0 NaN 1522.3139612558455 0.5036178571086556 523.0 1.0 364.0 
414.0000055212679 95427.0 NaN 1525.5444221776904 0.5034037695466128 523.0 1.0 365.0 
416.0000055212679 95377.0 NaN 1522.3567134268546 0.5051036996886992 523.0 1.0 364.0 
418.0000055212679 95360.0 NaN 1522.3567134268544 0.5055363816466736 524.0 1.0 364.0 
420.0000055212679 95339.0 NaN 1510.0921843687365 0.5016037893119453 525.0 1.0 360.0 
422.0000055212679 95334.0 NaN 1509.9746158984635 0.5027914445863552 524.0 1.0 360.0 
424.0000055212679 95328.0 NaN 1506.925851703408 0.5038521252236938 520.0 1.0 359.0 
426.0000055212679 95253.0 NaN 1506.8937875751512 0.5020157040304414 517.0 1.0 359.0 
428.0000055212679 95265.0 NaN 1506.9579158316637 0.5034807971536991 518.0 1.0 359.0 
430.0000055212679 95273.0 NaN 1500.8363393453565 0.5022640211857144 519.0 0.0 358.0 
432.0000055212679 95254.0 NaN 1513.2291249165 0.5027693927046246 518.0 1.0 361.0 
434.0000055212679 95262.0 NaN 1519.2999331997335 0.5048923787332608 518.0 2.0 362.0 
436.0000055212679 95219.0 NaN 1525.2825651302612 0.5074820562395044 526.0 0.0 366.0 
438.0000055212679 95208.0 NaN 1525.2879091516363 0.5042600508254113 527.0 0.0 366.0 
440.0000055212679 95214.0 NaN 1525.2211088844363 0.5034827081521285 527.0 1.0 365.0 
442.0000055212679 95158.0 NaN 1534.589178356712 0.5021903206448821 526.0 2.0 367.0 
444.0000055212679 95153.0 NaN 1531.5404141616548 0.5026948925046301 528.0 2.0 366.0 
446.0000055212679 95101.0 NaN 1534.6506346025367 0.5014348974385311 527.0 2.0 367.0 
448.0000055212679 95125.0 NaN 1531.6659986639938 0.5029636174172756 525.0 3.0 365.0 
450.0000055212679 95139.0 NaN 1534.7227788911155 0.5041631156856462 525.0 2.0 367.0 
452.0000055212679 95117.0 NaN 1534.6880427521724 0.5034075904143318 526.0 1.0 368.0 
454.0000055212679 95110.0 NaN 1543.8343353373427 0.5029430937410083 526.0 1.0 371.0 
456.0000055212679 95085.0 NaN 1546.907147628591 0.501850685096325 526.0 2.0 371.0 
458.0000055212679 95092.0 NaN 1543.8396793587183 0.5018237599478171 523.0 2.0 370.0 
460.0000055212679 95113.0 NaN 1543.8530394121572 0.5037246869131947 523.0 1.0 371.0 
462.0000055212679 95098.0 NaN 1540.9271877087517 0.5023395441552171 527.0 0.0 371.0 
464.0000055212679 95123.0 NaN 1537.7528390113548 0.503242450686587 525.0 1.0 369.0 
466.0000055212679 95069.0 NaN 1537.7234468937882 0.501803547895454 524.0 1.0 369.0 
468.0000055212679 95063.0 NaN 1537.7207748831 0.5040484450100614 523.0 2.0 368.0 
470.0000055212679 95058.0 NaN 1531.580494321979 0.5076471207586775 522.0 1.0 367.0 
472.0000055212679 95039.0 NaN 1528.5263861055455 0.5019532460612243 521.0 1.0 366.0 
474.0000055212679 95065.0 NaN 1525.4562458249823 0.5022613167339852 519.0 1.0 365.0 
476.0000055212679 95047.0 NaN 1522.3700734802933 0.5018875422887017 518.0 2.0 363.0 
478.0000055212679 95046.0 NaN 1525.349365397463 0.5007287435265737 516.0 3.0 363.0 
480.0000055212679 95101.0 NaN 1528.4782899131606 0.5012831250790039 516.0 2.0 365.0 
482.0000055212679 95100.0 NaN 1519.2972611890455 0.5023864309041078 515.0 2.0 362.0 
484.0000055212679 95128.0 NaN 1519.3213092852363 0.5046803050507948 516.0 2.0 362.0 
486.0000055212679 95099.0 NaN 1513.2050768203085 0.5041206569585532 512.0 2.0 360.0 
488.0000055212679 95099.0 NaN 1507.0086840347365 0.502338252537247 510.0 2.0 358.0 
490.0000055212679 95139.0 NaN 1507.0514362057456 0.5014151551057694 511.0 1.0 359.0 
492.0000055212679 95162.0 NaN 1500.8496993987983 0.5026529498348519 510.0 1.0 357.0 
494.0000055212679 95185.0 NaN 1491.5965263861062 0.5050578108444821 511.0 1.0 354.0 
496.0000055212679 95130.0 NaN 1491.551102204409 0.5032838866829342 508.0 1.0 354.0 
498.0000055212679 95122.0 NaN 1494.682698730794 0.5014813400424933 504.0 3.0 353.0 
500.0000055212679 95159.0 NaN 1494.67468269873 0.5033833444558637 509.0 2.0 354.0 
502.0000055212679 95150.0 NaN 1497.811623246492 0.5040608128714391 511.0 2.0 355.0 
504.0000055212679 95130.0 NaN 1491.7782231128917 0.5035566026363621 512.0 2.0 353.0 
506.0000055212679 95102.0 NaN 1494.7548430193726 0.5021531866272603 512.0 2.0 354.0 
508.0000055212679 95105.0 NaN 1491.6713426853717 0.5030417028319976 516.0 2.0 353.0 
510.0000055212679 95126.0 NaN 1494.6773547094183 0.5023002359428537 514.0 3.0 353.0 
512.0000055212679 95140.0 NaN 1488.510354041417 0.5042087808527989 514.0 3.0 351.0 
514.0000055212679 95129.0 NaN 1488.5290581162335 0.5065620982825835 512.0 3.0 351.0 
516.0000055212679 95076.0 NaN 1488.6225784903152 0.5023248628886505 509.0 3.0 351.0 
518.0000055212679 95107.0 NaN 1482.570474281898 0.5022766637325498 512.0 0.0 352.0 
520.0000055212679 95137.0 NaN 1482.501002004009 0.5030581384204067 510.0 0.0 352.0 
522.0000055212679 95120.0 NaN 1476.4008016032071 0.5032248589769925 510.0 0.0 350.0 
524.0000055212679 95136.0 NaN 1460.9325317301273 0.5049454506071585 508.0 0.0 345.0 
526.0000055212679 95108.0 NaN 1464.0374081496336 0.5032173382070034 504.0 0.0 346.0 
528.0000055212679 95163.0 NaN 1464.0480961923843 0.5052889289448126 502.0 0.0 346.0 
530.0000055212679 95225.0 NaN 1463.9946559786245 0.5059340070667017 500.0 0.0 346.0 
532.0000055212679 95218.0 NaN 1464.0507682030725 0.5017311420344596 505.0 0.0 346.0 
534.0000055212679 95235.0 NaN 1467.1262525050095 0.5044857642343206 506.0 0.0 347.0 
536.0000055212679 95252.0 NaN 1467.1556446225793 0.5044934402472864 507.0 0.0 347.0 
538.0000055212679 95297.0 NaN 1467.139612558451 0.5029359406022665 509.0 0.0 347.0 
540.0000055212679 95340.0 NaN 1467.1930527722104 0.5009014385886534 510.0 0.0 347.0 
542.0000055212679 95363.0 NaN 1467.155644622579 0.5017244117837837 513.0 0.0 347.0 
544.0000055212679 95356.0 NaN 1464.0614562458259 0.5037829456153937 514.0 0.0 346.0 
546.0000055212679 95359.0 NaN 1464.106880427521 0.5050012479528048 514.0 0.0 346.0 
548.0000055212679 95347.0 NaN 1467.0674682698727 0.501074120890613 513.0 1.0 346.0 
550.0000055212679 95383.0 NaN 1463.9946559786245 0.5009552551820595 512.0 1.0 345.0 
552.0000055212679 95401.0 NaN 1476.3286573146286 0.5022819674654716 511.0 1.0 349.0 
554.0000055212679 95434.0 NaN 1476.3473613894453 0.5039768496402013 513.0 1.0 349.0 
556.0000055212679 95472.0 NaN 1473.2718770875088 0.5042979849473757 513.0 1.0 348.0 
558.0000055212679 95474.0 NaN 1470.3112892451568 0.5026550754577493 513.0 1.0 347.0 
560.0000055212679 95570.0 NaN 1467.1850367401464 0.5023353069846559 511.0 1.0 346.0 
562.0000055212679 95598.0 NaN 1467.0647962591847 0.503541257332411 510.0 1.0 346.0 
564.0000055212679 95569.0 NaN 1470.1963927855718 0.5040142126483134 511.0 1.0 347.0 
566.0000055212679 95609.0 NaN 1470.0788243152974 0.5074266401117528 513.0 0.0 348.0 
568.0000055212679 95558.0 NaN 1470.1402805611217 0.5044480875611316 512.0 0.0 348.0 
570.0000055212679 95553.0 NaN 1470.1482965931855 0.50488806635961 515.0 0.0 348.0 
572.0000055212679 95545.0 NaN 1473.2718770875088 0.5068185949096767 514.0 0.0 349.0 
574.0000055212679 95437.0 NaN 1476.3767535070147 0.502783176723922 512.0 0.0 350.0 
576.0000055212679 95476.0 NaN 1476.419505678022 0.5063765639706942 514.0 0.0 350.0 
578.0000055212679 95397.0 NaN 1476.3527054108213 0.504401406037886 514.0 0.0 350.0 
580.0000055212679 95393.0 NaN 1479.428189712758 0.5035014467638671 515.0 0.0 351.0 
582.0000055212679 95431.0 NaN 1476.368737474949 0.5057871796048081 512.0 0.0 350.0 
584.0000055212679 95449.0 NaN 1488.6332665330656 0.5028785910619719 516.0 0.0 354.0 
586.0000055212679 95508.0 NaN 1485.4936539746168 0.5050533078381026 520.0 0.0 353.0 
588.0000055212679 95461.0 NaN 1482.4796259185027 0.5075685904637891 520.0 0.0 352.0 
590.0000055212679 95386.0 NaN 1485.5364061456253 0.5074408871556315 522.0 0.0 353.0 
592.0000055212679 95396.0 NaN 1488.6199064796265 0.5048566224260266 523.0 0.0 354.0 
594.0000055212679 95438.0 NaN 1485.5604542418175 0.5023227382005753 522.0 1.0 352.0 
596.0000055212679 95479.0 NaN 1485.531062124248 0.5054417555413983 518.0 2.0 351.0 
598.0000055212679 95421.0 NaN 1488.5691382765535 0.5045930028214549 522.0 0.0 354.0 
600.0000055212679 95355.0 NaN 1494.7361389445555 0.5024327785276497 529.0 0.0 356.0 
602.0000055212679 95403.0 NaN 1497.8249832999338 0.5015987401787381 528.0 0.0 357.0 
604.0000055212679 95487.0 NaN 1494.6933867735468 0.502923748679852 530.0 0.0 356.0 
606.0000055212679 95526.0 NaN 1494.698730794924 0.5045427907398604 531.0 0.0 356.0 
608.0000055212679 95460.0 NaN 1491.593854375418 0.5034202963841411 531.0 0.0 355.0 
610.0000055212679 95469.0 NaN 1497.7795591182362 0.5033657968703927 529.0 0.0 357.0 
612.0000055212679 95520.0 NaN 1500.9031396125577 0.5041668659138264 524.0 0.0 358.0 
614.0000055212679 95538.0 NaN 1513.1970607882442 0.5039220744217803 526.0 1.0 361.0 
616.0000055212679 95534.0 NaN 1513.247828991317 0.5052590573443501 527.0 1.0 361.0 
618.0000055212679 95472.0 NaN 1510.0895123580488 0.5026441852614151 526.0 1.0 360.0 
620.0000055212679 95474.0 NaN 1506.9605878423522 0.5029080833560867 526.0 0.0 360.0 
622.0000055212679 95493.0 NaN 1510.009352037409 0.5025296122045564 525.0 1.0 360.0 
624.0000055212679 95528.0 NaN 1513.0714762859059 0.5015154883332665 523.0 1.0 361.0 
626.0000055212679 95559.0 NaN 1516.1763527054104 0.5030997307570276 524.0 1.0 362.0 
628.0000055212679 95518.0 NaN 1519.2732130928532 0.5024197512814509 527.0 2.0 362.0 
630.000218884697 95517.0 NaN 1522.4582498329999 0.5037465291995604 529.0 2.0 363.0 
632.000218884697 95516.0 NaN 1519.2945891783559 0.5050052015353175 527.0 3.0 361.0 
634.000218884697 95515.0 NaN 1525.4642618570467 0.5048684580256725 529.0 3.0 363.0 
636.0001983480089 95488.0 NaN 1525.4375417501665 0.5062825329478547 533.0 3.0 363.0 
638.000218884697 95389.0 NaN 1525.386773547093 0.5037694578104095 530.0 3.0 363.0 
640.0000055212679 95392.0 NaN 1519.2277889111547 0.5039993861792288 528.0 3.0 361.0 
642.0000055212679 95385.0 NaN 1519.356045424182 0.5045322855305366 525.0 4.0 360.0 
644.0000055212679 95361.0 NaN 1519.4148296593182 0.506188016818093 525.0 3.0 361.0 
646.0000055212679 95315.0 NaN 1522.4261857047436 0.5084112720186421 525.0 3.0 362.0 
648.0000055212679 95185.0 NaN 1519.3987975951911 0.5021473467943172 525.0 3.0 361.0 
650.0000055212679 95221.0 NaN 1519.3213092852366 0.5033407571170375 522.0 3.0 361.0 
652.0000055212679 95255.0 NaN 1525.5230460921837 0.5041046788816888 523.0 2.0 364.0 
654.0000055212679 95262.0 NaN 1525.5123580494333 0.5024208134282603 521.0 2.0 364.0 
656.0000055212679 95274.0 NaN 1528.4836339345363 0.5041783439198056 521.0 2.0 365.0 
658.0000055212679 95277.0 NaN 1528.5531062124255 0.5037231582207857 518.0 3.0 364.0 
660.0000055212679 95324.0 NaN 1528.5450901803617 0.5051102240918206 520.0 2.0 365.0 
662.0000055212679 95300.0 NaN 1528.6492985971938 0.5042086423974029 520.0 2.0 365.0 
664.0000055212679 95331.0 NaN 1537.832999331998 0.5038574228319619 515.0 2.0 368.0 
#####################################################################
# End of data export. Simulation finished at: 2019-03-15T20:19+0000 #
#####################################################################
