#####################################################################
# Alchemist log file - simulation started at: 2019-03-12T12:35+0000 #
#####################################################################
# seed = 6.0, bandwidth = 17782.79410038923, propagationDelay = 1.0, baserange = 1000.0
#
# The columns have the following meaning: 
# time neighbor_count[Sum] <value>@neighbor_count[Sum] packet_size[Mean] mean_delay[Mean] crowd[Sum] overcrowded[Sum] risk[Sum] 
0.0 NaN NaN NaN NaN NaN NaN NaN 
2.0005429463199724 54162.0 NaN 4988.774883099532 0.18339416586205298 1497.0 0.0 1497.0 
4.00009307325982 210022.0 NaN 4995.788911155644 1.2045397028552152 1497.0 0.0 1497.0 
6.00009307325982 210022.0 NaN 4993.73413493654 1.2046657992142935 1496.0 1.0 1496.0 
8.000093073259821 210023.0 NaN 4995.246492985972 1.2046110079745713 1496.0 1.0 1496.0 
10.000093073259821 210024.0 NaN 4993.675350701403 1.2046476925462166 1496.0 1.0 1496.0 
12.000093073259821 210027.0 NaN 4995.246492985972 1.204600709421226 1496.0 1.0 1496.0 
14.000093073259821 210043.0 NaN 4993.675350701403 1.2051412336352816 1496.0 1.0 1496.0 
16.00009307325982 210065.0 NaN 4995.246492985972 1.2055474497822463 1496.0 1.0 1496.0 
18.000093073259823 210071.0 NaN 4993.675350701403 1.2060988208147563 1496.0 1.0 1496.0 
20.000093073259823 210075.0 NaN 4995.241148964596 1.2066909317130279 1496.0 1.0 1496.0 
22.000093073259823 210081.0 NaN 4993.670006680027 1.2073468434274333 1496.0 1.0 1496.0 
24.000093073259823 210096.0 NaN 4995.241148964596 1.2079795656161147 1496.0 1.0 1496.0 
26.000093073259823 210137.0 NaN 4993.670006680027 1.2094348376234059 1496.0 1.0 1496.0 
28.000093073259823 210187.0 NaN 4995.2571810287245 1.2115730939267246 1496.0 1.0 1496.0 
30.000093073259823 210191.0 NaN 4993.702070808284 1.2138402817468819 1496.0 1.0 1496.0 
32.00009307325982 210194.0 NaN 4995.2785571142285 1.2160329864780726 1496.0 1.0 1496.0 
34.00009307325982 210208.0 NaN 4993.718102872412 1.2183898256267687 1496.0 1.0 1496.0 
36.00009307325982 210282.0 NaN 4995.2892451569805 1.218268032058433 1496.0 1.0 1496.0 
38.00009307325982 210356.0 NaN 4993.718102872412 1.2195345398583202 1496.0 1.0 1496.0 
40.00009307325982 210365.0 NaN 4995.299933199733 1.2211782497303325 1496.0 1.0 1496.0 
42.00009307325982 210371.0 NaN 4993.736806947228 1.2230248507320223 1496.0 1.0 1496.0 
44.00009307325982 210386.0 NaN 4995.3186372745495 1.2265212490758284 1496.0 1.0 1496.0 
46.00009307325982 210439.0 NaN 4993.728790915164 1.2286286901139905 1496.0 1.0 1496.0 
48.00009307325982 210478.0 NaN 4995.2785571142285 1.2306545798132786 1496.0 1.0 1496.0 
50.00009307325982 210439.0 NaN 4993.70741482966 1.2202822165507718 1496.0 1.0 1496.0 
52.00009307325982 210444.0 NaN 4995.246492985972 1.222746536027948 1496.0 1.0 1496.0 
54.00009307325982 210468.0 NaN 4993.723446893788 1.2262493813154502 1496.0 1.0 1496.0 
56.00009307325982 210529.0 NaN 4995.2785571142285 1.2276757171207242 1496.0 1.0 1496.0 
58.00009307325982 210560.0 NaN 4993.739478957916 1.2281909997769345 1496.0 1.0 1496.0 
60.00009307325982 210555.0 NaN 4995.2758851035405 1.2283237160136602 1496.0 1.0 1496.0 
62.000489980958626 210572.0 NaN 1522.586506346027 1.0393298831552658 781.0 0.0 365.0 
64.00059634400196 210604.0 NaN 1525.4909819639272 1.0810070541953893 668.0 1.0 365.0 
66.00059634400196 210672.0 NaN 1525.4989979959907 1.0994405900035806 598.0 1.0 365.0 
68.00059634400196 210698.0 NaN 1528.5397461589844 1.1032958305718394 572.0 1.0 366.0 
70.00059634400196 210689.0 NaN 1528.566466265864 1.1061286432420765 553.0 1.0 366.0 
72.00059634400196 210700.0 NaN 1528.5344021376093 1.1126273955951904 541.0 1.0 366.0 
74.00059634400196 210718.0 NaN 1531.6472945891787 1.1202041717322597 534.0 1.0 367.0 
76.00059634400196 210773.0 NaN 1534.6987307949244 1.1166566416950212 533.0 1.0 368.0 
78.00059634400196 210780.0 NaN 1534.7281229124908 1.1177888478319014 531.0 1.0 368.0 
80.00059634400196 210693.0 NaN 1534.6907147628574 1.1074409947149169 529.0 2.0 367.0 
82.00059634400196 210702.0 NaN 1534.7334669338666 1.107395300855873 530.0 1.0 368.0 
84.00059634400196 210715.0 NaN 1537.7795591182362 1.1097227105717247 526.0 1.0 369.0 
86.00059634400196 210785.0 NaN 1537.806279225118 1.1095184292053726 526.0 1.0 369.0 
88.00059634400196 210738.0 NaN 1537.7581830327333 1.102236373324742 526.0 1.0 369.0 
90.00059634400196 210635.0 NaN 1537.7902471609907 1.0900069700079758 528.0 1.0 369.0 
92.00059634400196 210633.0 NaN 1537.7581830327333 1.0902138698866226 526.0 1.0 369.0 
94.00059634400196 210668.0 NaN 1537.7902471609907 1.0889555980499321 525.0 1.0 369.0 
96.00059634400196 210770.0 NaN 1537.750167000667 1.0902571635156157 525.0 1.0 369.0 
98.00059634400196 210775.0 NaN 1540.8871075484299 1.0882070778923083 525.0 1.0 370.0 
100.00059634400196 210734.0 NaN 1540.873747494991 1.0828568126519216 524.0 1.0 370.0 
102.00059634400196 210739.0 NaN 1540.852371409485 1.0840366899308613 524.0 1.0 370.0 
104.00059634400196 210788.0 NaN 1540.8684034736152 1.0850405186542027 523.0 1.0 370.0 
106.00059634400196 210863.0 NaN 1537.7849031396122 1.083575933130763 523.0 1.0 369.0 
108.00059634400196 210853.0 NaN 1540.8764195056788 1.0814706771375773 524.0 1.0 370.0 
110.00059634400196 210832.0 NaN 1540.8283233132931 1.0802877351054618 525.0 1.0 370.0 
112.00059634400196 210834.0 NaN 1540.844355377421 1.081583212251932 525.0 1.0 370.0 
114.00059634400196 210847.0 NaN 1540.8283233132931 1.0836203035665477 525.0 1.0 370.0 
116.00059634400196 210858.0 NaN 1540.844355377421 1.0843577193242255 526.0 1.0 370.0 
118.00059634400196 210843.0 NaN 1543.9251837007362 1.082906545061955 527.0 1.0 371.0 
120.00059634400196 210834.0 NaN 1540.8470273881092 1.0810397060215096 527.0 1.0 370.0 
122.00059634400196 210838.0 NaN 1540.8684034736152 1.083325187172723 527.0 1.0 370.0 
124.00059634400196 210835.0 NaN 1540.8203072812273 1.084698609972683 527.0 1.0 370.0 
126.00059634400196 210841.0 NaN 1540.8684034736152 1.0861823233226673 527.0 1.0 370.0 
128.00059634400196 210835.0 NaN 1537.7474949899818 1.0858669540397363 527.0 1.0 369.0 
130.00059634400196 210854.0 NaN 1537.7822311289244 1.086535305457154 526.0 1.0 369.0 
132.00059634400196 210858.0 NaN 1537.7608550434184 1.085815009645969 526.0 1.0 369.0 
134.00059634400196 210858.0 NaN 1537.7929191716757 1.0868520682165754 525.0 1.0 369.0 
136.00059634400196 210866.0 NaN 1534.6960587842361 1.0853911951806523 523.0 1.0 368.0 
138.00059634400196 210881.0 NaN 1534.7575150300606 1.086322305405027 520.0 1.0 368.0 
140.00059634400196 210890.0 NaN 1534.7201068804272 1.0844361576747557 518.0 1.0 368.0 
142.00059634400196 210888.0 NaN 1534.7869071476275 1.0829247331848755 519.0 1.0 368.0 
144.00059634400196 210875.0 NaN 1540.8710754843003 1.0843426458630039 519.0 1.0 370.0 
146.00059634400196 210879.0 NaN 1540.9004676018724 1.0854412585728768 518.0 1.0 370.0 
148.00059634400196 210907.0 NaN 1543.938543754173 1.0840474861991147 518.0 1.0 371.0 
150.00059634400196 210915.0 NaN 1543.9706078824304 1.0830938863799136 519.0 1.0 371.0 
152.00059634400196 210910.0 NaN 1547.019372077488 1.083811991565311 519.0 1.0 372.0 
154.00059634400196 210909.0 NaN 1540.9378757515026 1.084676594108943 521.0 1.0 370.0 
156.00059634400196 210919.0 NaN 1540.8897795591183 1.0852038942491677 521.0 2.0 369.0 
158.00059634400196 210937.0 NaN 1537.8650634602548 1.0872592429240118 521.0 3.0 367.0 
160.00059634400196 210932.0 NaN 1537.7742150968609 1.083759688371947 521.0 2.0 368.0 
162.00059634400196 210945.0 NaN 1537.835671342685 1.0862488414972948 521.0 1.0 369.0 
164.00059634400196 210958.0 NaN 1540.844355377421 1.0895629384848238 521.0 1.0 370.0 
166.00059634400196 210959.0 NaN 1537.8410153640632 1.0890297750865987 521.0 1.0 369.0 
168.00059634400196 210985.0 NaN 1537.8089512358063 1.0915768339231073 521.0 1.0 369.0 
170.00059634400196 210973.0 NaN 1540.8951235804936 1.0920847870793449 521.0 1.0 370.0 
172.00059634400196 210962.0 NaN 1537.7875751503 1.0882138379421287 522.0 1.0 369.0 
174.00059634400196 210976.0 NaN 1537.8116232464909 1.0912285865836477 521.0 1.0 369.0 
176.00059634400196 210974.0 NaN 1537.776887107548 1.0914441091026177 521.0 1.0 369.0 
178.00059634400196 210989.0 NaN 1537.8436873747482 1.0920794643756084 520.0 1.0 369.0 
180.00059634400196 210960.0 NaN 1540.8817635270545 1.0885550142136997 520.0 1.0 370.0 
182.00059634400196 210943.0 NaN 1540.9031396125572 1.086644440922543 520.0 1.0 370.0 
184.00059634400196 210953.0 NaN 1540.8710754843 1.0879275594120932 519.0 2.0 369.0 
186.00059634400196 210947.0 NaN 1537.8276553106207 1.0881407202276059 517.0 2.0 368.0 
188.00059634400196 210964.0 NaN 1534.7788911155635 1.0894557863234413 517.0 2.0 367.0 
190.00059634400196 210941.0 NaN 1534.7735470941882 1.0863415330057486 517.0 2.0 367.0 
192.00059634400196 210940.0 NaN 1534.7227788911155 1.0877753658823845 517.0 2.0 367.0 
194.00059634400196 210945.0 NaN 1534.7655310621246 1.0903916300401293 518.0 2.0 367.0 
196.00059634400196 210941.0 NaN 1537.8303273213091 1.0896052349415537 519.0 2.0 368.0 
198.00059634400196 210958.0 NaN 1537.859719438879 1.0933100355625338 519.0 2.0 368.0 
200.00059634400196 210920.0 NaN 1537.8223112892456 1.0910728268337575 519.0 2.0 368.0 
202.00059634400196 210908.0 NaN 1537.8383433533725 1.0921433739804318 519.0 2.0 368.0 
204.00059634400196 210966.0 NaN 1537.8223112892456 1.0953377791492644 519.0 2.0 368.0 
206.00059634400196 211016.0 NaN 1534.8056112224456 1.0941746999222612 518.0 2.0 367.0 
208.00059634400196 211037.0 NaN 1534.725450901803 1.097100465860694 516.0 2.0 367.0 
210.00059634400196 211007.0 NaN 1534.7575150300609 1.0939673777253758 514.0 2.0 367.0 
212.00059634400196 210993.0 NaN 1534.7120908483637 1.0950916538671418 515.0 2.0 367.0 
214.00059634400196 211025.0 NaN 1534.7842351369393 1.0985220607892787 515.0 2.0 367.0 
216.00059634400196 211050.0 NaN 1528.555778223112 1.0971579298157814 515.0 2.0 365.0 
218.00059634400196 211069.0 NaN 1528.5744822979275 1.1006437109062976 516.0 2.0 365.0 
220.00059634400196 211066.0 NaN 1528.537074148297 1.0953277235805594 516.0 2.0 365.0 
222.00059634400196 211065.0 NaN 1522.439545758182 1.0958287574920496 516.0 2.0 363.0 
224.00059634400196 211105.0 NaN 1522.4074816299274 1.1004358413451765 516.0 2.0 363.0 
226.00059634400196 211132.0 NaN 1531.6873747495001 1.1037961615982377 517.0 2.0 366.0 
228.00059634400196 211139.0 NaN 1534.7334669338663 1.1042383290588633 515.0 2.0 367.0 
230.00059634400196 211156.0 NaN 1534.7548430193729 1.1066393898218967 515.0 2.0 367.0 
232.00059634400196 211151.0 NaN 1534.7067468269881 1.1054293966615538 514.0 2.0 367.0 
234.00059634400196 211171.0 NaN 1534.7227788911155 1.1072438295869995 515.0 2.0 367.0 
236.00059634400196 211190.0 NaN 1534.6720106880427 1.1069015549710608 515.0 2.0 367.0 
238.00059634400196 211199.0 NaN 1534.6826987307938 1.1055948525252906 514.0 2.0 367.0 
240.00059634400196 211191.0 NaN 1531.5858383433547 1.101294793164993 514.0 2.0 366.0 
242.00059634400196 211187.0 NaN 1531.6392785571152 1.0964358873891273 514.0 2.0 366.0 
244.00059634400196 211213.0 NaN 1528.537074148297 1.0957636780204758 514.0 2.0 365.0 
246.00059634400196 211231.0 NaN 1525.5016700066817 1.092314645257377 514.0 2.0 364.0 
248.00059634400196 211244.0 NaN 1525.4642618570456 1.0927536973626442 514.0 2.0 364.0 
250.00059634400196 211273.0 NaN 1519.3400133600546 1.0938040992595146 513.0 2.0 362.0 
252.00059634400196 211274.0 NaN 1519.305277221109 1.0942054404911028 510.0 2.0 362.0 
254.00059634400196 211276.0 NaN 1519.3293253173001 1.0951930952357503 510.0 2.0 362.0 
256.00059634400196 211277.0 NaN 1519.294589178355 1.0971277194437072 511.0 2.0 362.0 
258.0005963440019 211273.0 NaN 1519.3640614562453 1.0935580389555255 514.0 2.0 362.0 
260.0005963440019 211291.0 NaN 1516.2565130260525 1.0953484012794348 513.0 2.0 361.0 
262.0005963440019 211275.0 NaN 1516.2859051436203 1.088748423452024 513.0 2.0 361.0 
264.0005963440019 211307.0 NaN 1519.3400133600546 1.090531344970072 514.0 2.0 362.0 
266.0005963440019 211318.0 NaN 1522.4395457581818 1.0924638486224523 515.0 2.0 363.0 
268.0005963440019 211355.0 NaN 1522.3941215764883 1.0922488022373913 515.0 2.0 363.0 
270.0005963440019 211466.0 NaN 1531.644622578491 1.0927762050145198 513.0 2.0 366.0 
272.0005963440019 211456.0 NaN 1531.6045424181707 1.092953148521532 512.0 2.0 366.0 
274.0005963440019 211471.0 NaN 1528.5664662658637 1.0931562971050608 509.0 2.0 365.0 
276.0005963440019 211479.0 NaN 1528.547762191048 1.0946306455564994 511.0 2.0 365.0 
278.0005963440019 211486.0 NaN 1531.6472945891794 1.095052463014662 510.0 2.0 366.0 
280.0005963440019 211508.0 NaN 1534.6506346025365 1.0971802946102596 514.0 2.0 367.0 
282.0005963440019 211517.0 NaN 1534.7147628590524 1.0981405294494964 513.0 2.0 367.0 
284.0005963440019 211547.0 NaN 1534.607882431529 1.1013178324401376 513.0 2.0 367.0 
286.0005963440019 211568.0 NaN 1531.6152304609207 1.1053940998445837 512.0 2.0 366.0 
288.0005963440019 211566.0 NaN 1525.448229792918 1.1079240638190697 511.0 2.0 364.0 
290.0005963440019 211565.0 NaN 1525.4696058784245 1.0999929322641828 512.0 2.0 364.0 
292.0005963440019 211551.0 NaN 1525.450901803609 1.0977830935708868 512.0 2.0 364.0 
294.0005963440019 211573.0 NaN 1522.4235136940545 1.1024655452275967 512.0 2.0 363.0 
296.0005963440019 211564.0 NaN 1522.3967935871729 1.1048243643159619 511.0 2.0 363.0 
298.0005963440019 211533.0 NaN 1531.6633266533072 1.1071830502310482 510.0 2.0 366.0 
300.0005963440019 211525.0 NaN 1534.722778891116 1.1102299057686686 509.0 2.0 367.0 
302.0005963440019 211534.0 NaN 1534.7067468269886 1.1110826846082236 508.0 2.0 367.0 
304.0005963440019 211552.0 NaN 1531.6205744823 1.1144472760653559 508.0 2.0 366.0 
306.0005963440019 211557.0 NaN 1525.501670006682 1.113655732502671 506.0 2.0 364.0 
308.0005963440019 211498.0 NaN 1534.7174348697386 1.1069425121524739 507.0 2.0 367.0 
310.0005963440019 211483.0 NaN 1534.6907147628567 1.1072430262562365 507.0 2.0 367.0 
312.0005963440019 211515.0 NaN 1534.647962591852 1.1103873053018016 506.0 2.0 367.0 
314.0005963440019 211548.0 NaN 1534.6452905811636 1.1139859279958901 506.0 2.0 367.0 
316.0005963440019 211528.0 NaN 1531.532398129591 1.112841685243521 509.0 2.0 366.0 
318.0005963440019 211472.0 NaN 1531.6018704074818 1.1078815887672089 507.0 2.0 366.0 
320.0005963440019 211454.0 NaN 1531.527054108218 1.1090418690931036 507.0 2.0 366.0 
322.0005963440019 211456.0 NaN 1534.6559786239154 1.1135209474752596 507.0 2.0 367.0 
324.0005963440019 211489.0 NaN 1534.6212424849703 1.1178694927709871 507.0 2.0 367.0 
326.0005963440019 211500.0 NaN 1537.7287909151637 1.118902476299855 507.0 2.0 368.0 
328.0005963440019 211468.0 NaN 1537.7421509686028 1.1157009441850354 507.0 2.0 368.0 
330.0005963440019 211407.0 NaN 1534.6639946559792 1.1049329591437977 508.0 2.0 367.0 
332.0005963440019 211399.0 NaN 1534.6185704742816 1.1056602441603716 508.0 2.0 367.0 
334.0005963440019 211431.0 NaN 1534.6586506346025 1.1094574051163077 509.0 2.0 367.0 
336.0005963440019 211430.0 NaN 1525.4054776219093 1.1118165112189404 510.0 2.0 364.0 
338.0005963440019 211405.0 NaN 1531.5911823647275 1.1113233379666718 511.0 2.0 366.0 
340.0005963440019 211347.0 NaN 1525.4348697394792 1.1083946463540268 510.0 2.0 364.0 
342.0005963440019 211328.0 NaN 1522.3674014696066 1.1090747380834425 508.0 2.0 363.0 
344.0005963440019 211333.0 NaN 1519.2651970607885 1.1108317359584545 507.0 2.0 362.0 
346.0005963440019 211336.0 NaN 1519.2972611890455 1.1135415084742544 508.0 2.0 362.0 
348.0005963440019 211298.0 NaN 1522.327321309285 1.1134617518253815 510.0 2.0 363.0 
350.0005963440019 211273.0 NaN 1522.3567134268546 1.110985115998871 512.0 2.0 363.0 
352.0005963440019 211271.0 NaN 1522.3460253841006 1.1077798226488462 511.0 2.0 363.0 
354.0005963440019 211268.0 NaN 1522.3754175016702 1.1084630603923378 511.0 2.0 363.0 
356.0005963440019 211252.0 NaN 1522.3219772879092 1.1085764796974054 511.0 2.0 363.0 
358.0005963440019 211184.0 NaN 1522.3380093520364 1.103046228101333 510.0 2.0 363.0 
360.0005963440019 211183.0 NaN 1528.475617902473 1.1049223390297682 513.0 2.0 365.0 
362.0005963440019 211188.0 NaN 1528.569138276554 1.1084740043522279 515.0 2.0 365.0 
364.0005963440019 211177.0 NaN 1525.4054776219095 1.1078521272977901 516.0 2.0 364.0 
366.0005963440019 211179.0 NaN 1519.2625250501 1.1104168136655097 515.0 2.0 362.0 
368.0005963440019 211146.0 NaN 1516.197728790916 1.1084787323482075 516.0 2.0 361.0 
370.0005963440019 211125.0 NaN 1516.2164328657304 1.1060801201345887 516.0 2.0 361.0 
372.0005963440019 211142.0 NaN 1513.1302605210426 1.1094313139257794 517.0 2.0 360.0 
374.0005963440019 211135.0 NaN 1513.108884435537 1.1119067861623861 517.0 2.0 360.0 
376.0005963440019 211139.0 NaN 1510.0146960587838 1.1157052890438368 516.0 2.0 359.0 
378.0005963440019 211089.0 NaN 1510.0521042084174 1.115019910065322 519.0 2.0 359.0 
380.0005963440019 211088.0 NaN 1510.0494321977283 1.1129902044122144 519.0 2.0 359.0 
382.0005963440019 211105.0 NaN 1513.1516366065457 1.1166446122700588 519.0 2.0 360.0 
384.0005963440019 211087.0 NaN 1522.3780895123575 1.117525416488105 521.0 2.0 363.0 
386.0005963440019 211077.0 NaN 1519.3132932531726 1.12212414555995 520.0 2.0 362.0 
388.0005963440019 210986.0 NaN 1525.4615898463605 1.1221338690019234 520.0 2.0 364.0 
390.0005963440019 210973.0 NaN 1525.4989979959907 1.125174725515377 521.0 2.0 364.0 
392.0005963440019 210982.0 NaN 1522.3674014696066 1.130091856137973 521.0 2.0 363.0 
394.0005963440019 210975.0 NaN 1516.2618570474274 1.133555932737955 521.0 2.0 361.0 
396.0005963440019 211009.0 NaN 1510.0627922511699 1.1401158341517277 522.0 2.0 359.0 
398.0005963440019 210810.0 NaN 1510.076152304609 1.130176889364639 522.0 2.0 359.0 
400.0005963440019 210796.0 NaN 1510.0227120908476 1.1312135751241281 521.0 2.0 359.0 
402.0005963440019 210828.0 NaN 1516.2217768871085 1.1384289429499075 522.0 2.0 361.0 
404.0005963440019 210811.0 NaN 1525.4562458249823 1.1424111739209364 523.0 2.0 364.0 
406.0005963440019 210822.0 NaN 1525.4829659318634 1.1429644463972426 522.0 2.0 364.0 
408.0005963440019 210791.0 NaN 1522.3647294589182 1.136603426022446 522.0 2.0 363.0 
410.0005963440019 210744.0 NaN 1525.464261857046 1.1135707310177028 523.0 2.0 364.0 
412.0005963440019 210756.0 NaN 1528.5076820307272 1.117980679440341 523.0 2.0 365.0 
414.0005963440019 210794.0 NaN 1537.750167000667 1.1206970089480488 524.0 2.0 368.0 
416.0005963440019 210829.0 NaN 1534.6533066132274 1.124372541420576 524.0 2.0 367.0 
418.0005963440019 210808.0 NaN 1528.4836339345366 1.1244287281736616 524.0 2.0 365.0 
420.0005963440019 210792.0 NaN 1531.580494321979 1.1259815126523285 525.0 2.0 366.0 
422.0005963440019 210755.0 NaN 1528.5156980627914 1.129089828210306 526.0 2.0 365.0 
424.0005963440019 210735.0 NaN 1513.1302605210426 1.1244390928157795 528.0 2.0 360.0 
426.0005963440019 210728.0 NaN 1516.2645290581172 1.1242809144386776 524.0 2.0 361.0 
428.0005963440019 210687.0 NaN 1513.1222444889788 1.1205795680320874 518.0 3.0 359.0 
430.0005963440019 210639.0 NaN 1513.15965263861 1.1163173867046947 517.0 2.0 360.0 
432.0005963440019 210603.0 NaN 1510.0467601870396 1.1184285134166232 518.0 2.0 359.0 
434.0005963440019 210581.0 NaN 1513.1302605210424 1.1179964643276492 518.0 2.0 360.0 
436.0005963440019 210611.0 NaN 1522.3433533734126 1.1227460101784095 521.0 2.0 363.0 
438.0005963440019 210606.0 NaN 1534.6933867735459 1.1178172632175625 527.0 2.0 367.0 
440.0005963440019 210607.0 NaN 1534.6452905811634 1.1191525047711957 526.0 2.0 367.0 
442.0005963440019 210626.0 NaN 1531.580494321979 1.1239068060497408 526.0 2.0 366.0 
444.0005963440019 210623.0 NaN 1528.4676018704088 1.122994584425488 526.0 2.0 365.0 
446.0005963440019 210625.0 NaN 1537.7474949899815 1.1247819371183714 528.0 2.0 368.0 
448.0005963440019 210638.0 NaN 1549.9986639946546 1.1262953171508 529.0 2.0 372.0 
450.0005963440019 210587.0 NaN 1543.9091516366066 1.12360243391632 528.0 2.0 370.0 
452.0005963440019 210571.0 NaN 1546.8937875751517 1.127669159336749 527.0 2.0 371.0 
454.0005963440019 210563.0 NaN 1546.9792919171666 1.1278477867009282 528.0 2.0 371.0 
456.0005963440019 210565.0 NaN 1549.9906479625906 1.1309555350947755 526.0 2.0 372.0 
458.0005963440019 210592.0 NaN 1553.1382765531066 1.1339195694216135 526.0 2.0 373.0 
460.0005963440019 210557.0 NaN 1553.1008684034728 1.1366065618193402 528.0 2.0 373.0 
462.0005963440019 210543.0 NaN 1550.0708082832339 1.1411816886193424 528.0 2.0 372.0 
464.0005963440019 210532.0 NaN 1549.934535738143 1.1382104827359063 528.0 2.0 372.0 
466.0005963440019 210556.0 NaN 1546.8830995324 1.1420493451553015 525.0 2.0 371.0 
468.0005963440019 210468.0 NaN 1540.753507014027 1.127773921697245 525.0 2.0 369.0 
470.0005963440019 210400.0 NaN 1537.6940547762183 1.1227900552437395 524.0 2.0 368.0 
472.0005963440019 210397.0 NaN 1534.5651302605206 1.1262904944517467 525.0 1.0 368.0 
474.0005963440019 210426.0 NaN 1531.5323981295912 1.129440020400504 525.0 1.0 367.0 
476.0005963440019 210421.0 NaN 1525.3573814295269 1.1343155037991137 520.0 1.0 365.0 
478.0005963440019 210411.0 NaN 1525.4081496325996 1.1338773156735582 518.0 1.0 365.0 
480.0005963440019 210350.0 NaN 1525.322645290582 1.1312945638061944 519.0 1.0 365.0 
482.0005963440019 210384.0 NaN 1522.3299933199726 1.13442168182711 517.0 1.0 364.0 
484.0005963440019 210449.0 NaN 1522.2177688710751 1.1389719959327547 517.0 1.0 364.0 
486.0005963440019 210447.0 NaN 1516.2217768871085 1.1405564657831315 517.0 1.0 362.0 
488.0005963440019 210428.0 NaN 1509.9612558450244 1.1381213398416254 514.0 1.0 360.0 
490.0005963440019 210338.0 NaN 1500.8443553774205 1.1302507245685416 513.0 1.0 357.0 
492.0005963440019 210330.0 NaN 1500.7294589178364 1.129032454126149 511.0 1.0 357.0 
494.0005963440019 210331.0 NaN 1491.5885103540422 1.1225407046997933 508.0 1.0 354.0 
496.0005963440019 210342.0 NaN 1494.6292585170352 1.122947244071449 507.0 1.0 355.0 
498.0005963440019 210320.0 NaN 1491.644622578491 1.1169368386484964 504.0 1.0 354.0 
500.0005963440019 210283.0 NaN 1491.6125584502345 1.1164387137505443 506.0 1.0 354.0 
502.0005963440019 210332.0 NaN 1497.811623246492 1.1221505756320773 509.0 1.0 356.0 
504.0005963440019 210372.0 NaN 1491.6339345357374 1.12099150672283 511.0 0.0 355.0 
506.0005963440019 210366.0 NaN 1500.9138276553097 1.124852385572076 514.0 1.0 357.0 
508.0005963440019 210364.0 NaN 1500.8122912491642 1.1277417190534411 514.0 1.0 357.0 
510.0005963440019 210322.0 NaN 1494.7441549766193 1.1259585141125976 516.0 1.0 355.0 
512.0005963440019 210320.0 NaN 1494.6426185704734 1.1247275577678144 516.0 1.0 355.0 
514.0005963440019 210347.0 NaN 1494.7094188376748 1.1240008957197787 516.0 1.0 355.0 
516.0005963440019 210348.0 NaN 1482.3754175016709 1.1274083711147003 514.0 1.0 351.0 
518.0005963440019 210319.0 NaN 1479.3587174348706 1.1247037309309342 513.0 1.0 350.0 
520.0005963440019 210264.0 NaN 1482.391449565799 1.1220911604984931 512.0 1.0 351.0 
522.0005963440019 210294.0 NaN 1479.356045424182 1.1227666407208368 513.0 1.0 350.0 
524.0005963440019 210310.0 NaN 1473.1890447561798 1.1238930305644068 510.0 1.0 348.0 
526.0005963440019 210311.0 NaN 1460.9432197728797 1.1265395465438701 509.0 1.0 344.0 
528.0005963440019 210318.0 NaN 1467.0167000667998 1.1265500985368113 510.0 1.0 346.0 
530.0005963440019 210288.0 NaN 1463.965263861055 1.1222586358251894 508.0 1.0 345.0 
532.0005963440019 210315.0 NaN 1467.0006680026725 1.1270269687847962 512.0 1.0 346.0 
534.0005963440019 210303.0 NaN 1470.1108884435544 1.1291429005865525 512.0 1.0 347.0 
536.0005963440019 210330.0 NaN 1467.0167000667998 1.130836058076548 511.0 1.0 346.0 
538.0005963440019 210401.0 NaN 1470.0841683366727 1.1269976985868841 515.0 1.0 347.0 
540.0005963440019 210366.0 NaN 1473.1649966599878 1.118819123500121 513.0 1.0 348.0 
542.0005963440019 210357.0 NaN 1473.1810287241158 1.1194589261511125 514.0 1.0 348.0 
544.0005963440019 210308.0 NaN 1470.0708082832336 1.1182453572898148 514.0 1.0 347.0 
546.0005963440019 210312.0 NaN 1473.1890447561798 1.1199560482852238 516.0 1.0 348.0 
548.0005963440019 210374.0 NaN 1473.1569806279217 1.1242198289459384 518.0 1.0 348.0 
550.0005963440019 210319.0 NaN 1473.1382765531068 1.1187178925546215 518.0 1.0 348.0 
552.0005963440019 210298.0 NaN 1473.1195724782904 1.1185416706449824 519.0 1.0 348.0 
554.0005963440019 210300.0 NaN 1473.1730126920515 1.1177963209710482 519.0 1.0 348.0 
556.0005963440019 210375.0 NaN 1463.9331997327997 1.1213361417885395 517.0 1.0 345.0 
558.0005963440019 210459.0 NaN 1460.9058116232459 1.1229196478204055 514.0 1.0 344.0 
560.0005963440019 210412.0 NaN 1463.9385437541741 1.1190131108587122 514.0 1.0 345.0 
562.0005963440019 210419.0 NaN 1463.9599198396795 1.121721016067221 515.0 1.0 345.0 
564.0005963440019 210440.0 NaN 1460.8416833667336 1.125710702387452 510.0 1.0 344.0 
566.0005963440019 210458.0 NaN 1463.973279893119 1.1258841874417915 511.0 1.0 345.0 
568.0005963440019 210498.0 NaN 1470.113560454242 1.1247270356967123 514.0 1.0 347.0 
570.0005963440019 210453.0 NaN 1473.218436873747 1.1206156245916399 517.0 1.0 348.0 
572.0005963440019 210478.0 NaN 1473.1676686706742 1.1257907948094295 519.0 1.0 348.0 
574.0005963440019 210500.0 NaN 1479.3640614562455 1.1274245881127478 520.0 1.0 350.0 
576.0005963440019 210527.0 NaN 1488.5584502338004 1.1290269592221076 522.0 1.0 353.0 
578.0005963440019 210553.0 NaN 1488.6012024048089 1.1259584673708438 517.0 1.0 353.0 
580.0005963440019 210487.0 NaN 1485.472277889111 1.1209578179439506 519.0 1.0 352.0 
582.0005963440019 210500.0 NaN 1485.5177020708088 1.1203816901989943 519.0 1.0 352.0 
584.0005963440019 210540.0 NaN 1488.5290581162333 1.1233554421854048 521.0 1.0 353.0 
586.0005963440019 210570.0 NaN 1488.5183700734808 1.1264594490830757 522.0 1.0 353.0 
588.0005963440019 210620.0 NaN 1500.8363393453562 1.1238821972984487 522.0 1.0 357.0 
590.0005963440019 210530.0 NaN 1503.9171676686715 1.1173814328489102 523.0 1.0 358.0 
592.0005963440019 210553.0 NaN 1503.8797595190376 1.1222690955262866 522.0 1.0 358.0 
594.0005963440019 210591.0 NaN 1503.906479625918 1.1279024042945138 522.0 1.0 358.0 
596.0005963440019 210621.0 NaN 1500.830995323982 1.1301059549426045 527.0 1.0 357.0 
598.0005963440019 210620.0 NaN 1500.8710754843012 1.1219087240307415 526.0 1.0 357.0 
600.0005963440019 210587.0 NaN 1503.8610554442212 1.120753643517914 527.0 1.0 358.0 
602.0005963440019 210567.0 NaN 1503.882431529727 1.1230560386513286 525.0 1.0 358.0 
604.0005963440019 210605.0 NaN 1500.769539078156 1.1278084654608722 525.0 1.0 357.0 
606.0005963440019 210616.0 NaN 1503.9251837007353 1.1232988420830474 526.0 1.0 358.0 
608.0005963440019 210665.0 NaN 1510.0521042084172 1.1252198034951433 529.0 1.0 360.0 
610.0005963440019 210578.0 NaN 1510.0574482297923 1.1174398920458353 525.0 1.0 360.0 
612.0005963440019 210568.0 NaN 1510.009352037409 1.1202532155065588 523.0 1.0 360.0 
614.0005963440019 210558.0 NaN 1513.1249164996652 1.1189884327359472 523.0 1.0 361.0 
616.0005963440019 210611.0 NaN 1510.0467601870396 1.1215724834242256 523.0 1.0 360.0 
618.0005963440019 210659.0 NaN 1513.1195724782908 1.1219513520735773 524.0 1.0 361.0 
620.0005963440019 210605.0 NaN 1516.1897127588516 1.1193924092366798 522.0 1.0 362.0 
622.0005963440019 210630.0 NaN 1519.3186372745483 1.1248533208562181 523.0 1.0 363.0 
624.0005963440019 210661.0 NaN 1522.3540414161648 1.1287988840256535 525.0 1.0 364.0 
626.0005963440019 210710.0 NaN 1525.4802939211747 1.1334484114797267 523.0 1.0 365.0 
628.0005963440019 210756.0 NaN 1522.3513694054789 1.134249687799982 520.0 1.0 364.0 
630.0005963440019 210655.0 NaN 1522.3967935871738 1.125698088221535 519.0 2.0 363.0 
632.0005963440019 210649.0 NaN 1519.2945891783559 1.1275944385126395 519.0 1.0 363.0 
634.0005963440019 210692.0 NaN 1522.4074816299271 1.132334944725974 518.0 1.0 364.0 
636.0005963440019 210706.0 NaN 1519.3266533066123 1.1343030509422447 518.0 1.0 363.0 
638.0005963440019 210703.0 NaN 1519.3881095524375 1.1283702731012344 522.0 1.0 363.0 
640.0005963440019 210640.0 NaN 1519.3533734134928 1.120605252578753 522.0 2.0 362.0 
642.0005963440019 210647.0 NaN 1513.2317969271887 1.1224491385207644 523.0 2.0 360.0 
644.0005963440019 210678.0 NaN 1516.2672010688034 1.123650279396972 523.0 2.0 361.0 
646.0005963440019 210674.0 NaN 1513.247828991317 1.1224074760840415 524.0 1.0 361.0 
648.0005963440019 210711.0 NaN 1513.218436873747 1.1212219671109827 522.0 1.0 361.0 
650.0005963440019 210686.0 NaN 1513.2291249165 1.1165452589110159 519.0 1.0 361.0 
652.0005963440019 210681.0 NaN 1510.0921843687365 1.1165518964280758 519.0 1.0 360.0 
654.0005963440019 210660.0 NaN 1513.2184368737467 1.1067505867251908 517.0 1.0 361.0 
656.0005963440019 210692.0 NaN 1534.7441549766195 1.109560634833833 518.0 1.0 368.0 
658.0005963440019 210715.0 NaN 1537.7715430861729 1.1084345701270313 518.0 1.0 369.0 
660.0005963440019 210718.0 NaN 1540.7722110888456 1.1082239460077183 518.0 1.0 370.0 
662.0005963440019 210737.0 NaN 1540.8042752171 1.1082349254743638 516.0 1.0 370.0 
664.0005963440019 210756.0 NaN 1540.7775551102193 1.1067934575338887 515.0 1.0 370.0 
#####################################################################
# End of data export. Simulation finished at: 2019-03-12T13:21+0000 #
#####################################################################
