#####################################################################
# Alchemist log file - simulation started at: 2019-03-20T02:46+0000 #
#####################################################################
# seed = 9.0, bandwidth = 74989.42093324558, propagationDelay = 0.31622776601683794, baserange = 10.0
#
# The columns have the following meaning: 
# time neighbor_count[Sum] <value>@neighbor_count[Sum] packet_size[Mean] mean_delay[Mean] crowd[Sum] overcrowded[Sum] risk[Sum] 
0.0 NaN NaN NaN NaN NaN NaN NaN 
2.0003374459614243 448.0 NaN 4989.59786239145 0.47660793074545094 1497.0 0.0 1497.0 
4.000337445961424 486.0 NaN 4992.529058116233 0.5057871545054957 1497.0 0.0 1497.0 
6.000337445961424 486.0 NaN 4990.907147628591 0.5058778369262634 1497.0 0.0 1497.0 
8.000337445961424 486.0 NaN 4990.196392785571 0.5059323009049341 1497.0 0.0 1497.0 
10.000337445961424 486.0 NaN 4989.792919171677 0.5059877694697509 1497.0 0.0 1497.0 
12.000337445961424 486.0 NaN 4989.512358049432 0.5060110231201469 1497.0 0.0 1497.0 
14.000337445961424 486.0 NaN 4989.635270541082 0.5060016499461694 1497.0 0.0 1497.0 
16.000337445961424 488.0 NaN 4989.581830327321 0.5070047512050627 1497.0 0.0 1497.0 
18.000337445961424 492.0 NaN 4989.576486305945 0.5056961340145898 1497.0 0.0 1497.0 
20.000337445961424 492.0 NaN 4989.394789579158 0.5188996546770189 1497.0 0.0 1497.0 
22.000337445961424 492.0 NaN 4989.568470273881 0.5453095420212162 1497.0 0.0 1497.0 
24.000337445961424 490.0 NaN 4989.552438209753 0.531536355641295 1497.0 0.0 1497.0 
26.000337445961424 488.0 NaN 4989.571142284569 0.5053315576321403 1497.0 0.0 1497.0 
28.000337445961424 490.0 NaN 4989.531062124249 0.5108441482938321 1497.0 0.0 1497.0 
30.000337445961424 494.0 NaN 4989.413493653975 0.5199553034816156 1497.0 0.0 1497.0 
32.00033744596142 494.0 NaN 4989.557782231129 0.525416987303294 1497.0 0.0 1497.0 
34.00033744596142 498.0 NaN 4989.571142284569 0.527879008793631 1497.0 0.0 1497.0 
36.00033744596142 502.0 NaN 4989.59786239145 0.5132581471253774 1497.0 0.0 1497.0 
38.00033744596142 502.0 NaN 4989.437541750167 0.5346439079491669 1497.0 0.0 1497.0 
40.00033744596142 502.0 NaN 4989.568470273881 0.5695114344862261 1497.0 0.0 1497.0 
42.00033744596142 504.0 NaN 4989.656646626587 0.6349658985753048 1497.0 0.0 1497.0 
44.00033744596142 503.0 NaN 4989.651302605211 0.5630345799289808 1497.0 0.0 1497.0 
46.00033744596142 507.0 NaN 4989.592518370074 0.5243026393521427 1497.0 0.0 1497.0 
48.00033744596142 513.0 NaN 4989.555110220441 0.5432909311228779 1497.0 0.0 1497.0 
50.00033744596142 517.0 NaN 4989.742150968604 0.5461679720957363 1497.0 0.0 1497.0 
52.00033744596142 521.0 NaN 4989.715430861724 0.5571388209918792 1497.0 0.0 1497.0 
54.00033744596142 522.0 NaN 4989.755511022044 0.5870888788224911 1497.0 0.0 1497.0 
56.00033744596142 523.0 NaN 4989.605878423514 0.5766770551859718 1497.0 0.0 1497.0 
58.00033744596142 528.0 NaN 4989.774215096861 0.60116189450237 1497.0 0.0 1497.0 
60.00033744596142 518.0 NaN 4989.841015364062 0.5744508723306165 1497.0 0.0 1497.0 
62.00002865532742 512.0 NaN 602.8216432865726 0.5595817624940024 311.0 0.0 66.0 
64.00002865532741 510.0 NaN 602.6720106880426 0.6096350310448096 310.0 0.0 66.0 
66.00002865532741 508.0 NaN 605.7261189044759 0.6194369032109474 309.0 0.0 67.0 
68.00002865532741 503.0 NaN 605.7261189044759 0.5774451316670824 305.0 0.0 67.0 
70.00002865532741 511.0 NaN 608.7962591850363 0.655300739223337 289.0 0.0 68.0 
72.00002865532741 503.0 NaN 608.7882431529729 0.6392607567799151 250.0 0.0 68.0 
74.00002865532741 498.0 NaN 608.7535070140275 0.5690674077388567 218.0 0.0 68.0 
76.00002865532741 495.0 NaN 611.8503674014694 0.5324010529510176 191.0 0.0 69.0 
78.00002865532741 497.0 NaN 611.8102872411499 0.5881318457539677 186.0 0.0 69.0 
80.00002865532741 497.0 NaN 611.7755511022046 0.5923551940198091 171.0 0.0 69.0 
82.00002865532741 494.0 NaN 611.7648630594532 0.5541730512948452 161.0 0.0 69.0 
84.00002865532741 491.0 NaN 611.7648630594532 0.5823679758414968 148.0 0.0 69.0 
86.00002865532741 490.0 NaN 611.7648630594532 0.6568310656068804 142.0 0.0 69.0 
88.00002865532741 493.0 NaN 611.7648630594532 0.6120051740013245 144.0 0.0 69.0 
90.00002865532741 487.0 NaN 611.7648630594532 0.5460093840612106 143.0 0.0 69.0 
92.00002865532741 490.0 NaN 608.7000668002681 0.5783328527091981 141.0 0.0 68.0 
94.00002865532741 488.0 NaN 605.6352705410817 0.5382994413122163 134.0 0.0 67.0 
96.00002865532741 488.0 NaN 605.6352705410817 0.5403285730419374 135.0 0.0 67.0 
98.00002865532741 492.0 NaN 608.7000668002681 0.58167708855944 134.0 0.0 68.0 
100.00002865532741 493.0 NaN 611.786239144956 0.5750720541516621 137.0 0.0 69.0 
102.00002865532741 493.0 NaN 611.7702070808274 0.5854959198768345 136.0 0.0 69.0 
104.00002865532741 490.0 NaN 611.7675350701406 0.5476917953080749 134.0 0.0 69.0 
106.00002865532741 484.0 NaN 608.7134268537073 0.5137789448867675 130.0 0.0 68.0 
108.00002865532741 490.0 NaN 608.7134268537073 0.545966986005816 129.0 0.0 68.0 
110.00002865532741 488.0 NaN 608.7027388109549 0.5674135792211262 127.0 0.0 68.0 
112.00002865532741 490.0 NaN 608.7134268537073 0.5996248928908583 128.0 0.0 68.0 
114.00002865532741 486.0 NaN 608.7080828323319 0.5744836961965226 128.0 0.0 68.0 
116.00002865532741 482.0 NaN 608.724114896459 0.5790877415928174 124.0 0.0 68.0 
118.00002865532741 488.0 NaN 602.6185704742818 0.646820663168049 123.0 0.0 66.0 
120.00002865532741 482.0 NaN 596.4996659986638 0.5427925625279588 123.0 0.0 64.0 
122.00002865532741 482.0 NaN 596.5183700734805 0.5328157497840215 122.0 0.0 64.0 
124.00002865532741 486.0 NaN 596.5130260521045 0.5456055634781255 124.0 0.0 64.0 
126.00002865532741 490.0 NaN 599.5698062792254 0.5310945861160394 124.0 0.0 65.0 
128.0000286553274 492.0 NaN 599.5404141616564 0.5568920568590936 124.0 0.0 65.0 
130.00002865532744 501.0 NaN 599.5297261189046 0.5951466213304967 128.0 0.0 65.0 
132.00002865532744 494.0 NaN 599.5297261189046 0.5398016621960986 126.0 0.0 65.0 
134.00002865532744 500.0 NaN 605.6967267869073 0.5090971897777427 128.0 0.0 67.0 
136.00002865532744 504.0 NaN 605.6806947227785 0.5227641046435523 125.0 0.0 67.0 
138.00002865532744 510.0 NaN 605.6646626586504 0.5681505306134681 125.0 0.0 67.0 
140.00002865532744 509.0 NaN 614.8804275217094 0.5660836226875026 125.0 0.0 70.0 
142.00002865532744 509.0 NaN 614.8884435537741 0.5349096785192993 125.0 0.0 70.0 
144.00002865532744 509.0 NaN 611.8209752839001 0.5515181697100177 125.0 0.0 69.0 
146.00002865532744 509.0 NaN 611.8102872411499 0.5465424327083965 124.0 0.0 69.0 
148.00002865532744 514.0 NaN 611.8076152304607 0.5701111606725733 126.0 0.0 69.0 
150.00002865532744 515.0 NaN 608.7374749499 0.5220667241465129 127.0 0.0 68.0 
152.00002865532744 520.0 NaN 611.802271209085 0.585950899323964 129.0 0.0 69.0 
154.00002865532744 525.0 NaN 614.8670674682699 0.6265687763628937 131.0 0.0 70.0 
156.00002865532744 510.0 NaN 614.8563794255183 0.5843587942459785 133.0 0.0 70.0 
158.00002865532744 509.0 NaN 611.8022712090851 0.5694702851990636 135.0 0.0 69.0 
160.00002865532744 509.0 NaN 611.8049432197727 0.5729660990112968 133.0 0.0 69.0 
162.00002865532744 506.0 NaN 608.7641950567805 0.5791323312208714 131.0 0.0 68.0 
164.00002865532744 507.0 NaN 608.7588510354045 0.5730683392041725 131.0 0.0 68.0 
166.00002865532744 500.0 NaN 611.8343353373409 0.5583616221580734 132.0 0.0 69.0 
168.00002865532744 499.0 NaN 608.7695390781565 0.5649530993748402 133.0 0.0 68.0 
170.00002865532744 507.0 NaN 611.8316633266531 0.5962287353651933 136.0 0.0 69.0 
172.00002865532744 505.0 NaN 611.8263193052774 0.591167277988425 136.0 0.0 69.0 
174.00002865532744 508.0 NaN 608.7615230460924 0.6049315670047006 136.0 0.0 68.0 
176.00002865532744 508.0 NaN 611.8450233800937 0.6236967329383822 136.0 0.0 69.0 
178.00002865532744 503.0 NaN 614.8884435537743 0.5849046568479338 135.0 0.0 70.0 
180.00002865532744 501.0 NaN 611.8183032732138 0.6140282509591847 132.0 0.0 69.0 
182.00002865532744 498.0 NaN 611.7969271877092 0.6401684572962862 130.0 0.0 69.0 
184.00002865532744 494.0 NaN 611.8183032732138 0.6454862442704453 130.0 0.0 69.0 
186.00002865532744 486.0 NaN 608.7481629926518 0.5917608335995 126.0 0.0 68.0 
188.00002865532744 487.0 NaN 608.6867067468273 0.6587388110229587 126.0 0.0 68.0 
190.00002865532744 497.0 NaN 624.1122244488984 0.6167684921107142 126.0 0.0 73.0 
192.00002865532744 495.0 NaN 621.092852371409 0.5216333043312747 124.0 0.0 72.0 
194.00002865532744 496.0 NaN 621.0688042752178 0.5108596201888129 123.0 0.0 72.0 
196.00002865532744 507.0 NaN 621.0153640614566 0.514587707681379 125.0 0.0 72.0 
198.00002865532744 510.0 NaN 617.934535738143 0.5505103859846966 125.0 0.0 71.0 
200.00002865532744 515.0 NaN 617.9505678022712 0.5684688192205408 125.0 0.0 71.0 
202.00002865532744 513.0 NaN 617.9398797595187 0.5939462592379176 125.0 0.0 71.0 
204.00002865532744 513.0 NaN 617.9398797595187 0.5935550634037526 125.0 0.0 71.0 
206.00002865532744 519.0 NaN 627.1823647294591 0.5526698472121675 125.0 0.0 74.0 
208.00002865532744 519.0 NaN 627.2010688042755 0.5276346848752445 126.0 0.0 74.0 
210.00002865532744 523.0 NaN 627.2064128256516 0.5833965143288495 125.0 0.0 74.0 
212.00002865532744 527.0 NaN 627.2411489645954 0.6585001019771345 125.0 0.0 74.0 
214.00002865532744 522.0 NaN 624.1336005344017 0.632993378804738 124.0 0.0 73.0 
216.00002865532744 512.0 NaN 624.1549766199063 0.5505735100521486 125.0 0.0 73.0 
218.00002865532744 514.0 NaN 621.0581162324651 0.5516125843230694 124.0 0.0 72.0 
220.00002865532744 510.0 NaN 621.0714762859044 0.5762835785191357 123.0 0.0 72.0 
222.00002865532744 505.0 NaN 621.0394121576486 0.6002886912641522 123.0 0.0 72.0 
224.00002865532744 498.0 NaN 617.9746158984638 0.5659736308874005 120.0 0.0 71.0 
226.00002865532744 493.0 NaN 617.9853039412156 0.569538720268543 121.0 0.0 71.0 
228.00002865532744 499.0 NaN 617.9826319305272 0.6108910206800628 122.0 0.0 71.0 
230.00002865532744 492.0 NaN 617.9665998664002 0.6010942673259124 122.0 0.0 71.0 
232.00002865532744 493.0 NaN 614.8964595858384 0.6354555678908677 119.0 0.0 70.0 
234.00002865532744 495.0 NaN 614.8937875751499 0.6113265370736525 121.0 0.0 70.0 
236.00002865532744 503.0 NaN 617.9799599198391 0.5683575409239114 121.0 0.0 71.0 
238.00002865532744 503.0 NaN 614.936539746159 0.5498196606924383 117.0 0.0 70.0 
240.00002865532744 500.0 NaN 614.931195724782 0.5690079964833689 117.0 0.0 70.0 
242.00002865532744 507.0 NaN 618.0200400801608 0.5781087960976871 118.0 0.0 71.0 
244.00002865532744 510.0 NaN 618.0307281229136 0.6037497644628804 119.0 0.0 71.0 
246.00002865532744 510.0 NaN 624.1790247161001 0.5766197915237797 120.0 0.0 73.0 
248.00002865532744 510.0 NaN 624.1656646626592 0.5935483905704143 121.0 0.0 73.0 
250.00002865532744 512.0 NaN 627.2117568470271 0.599784964749995 122.0 0.0 74.0 
252.00002865532744 506.0 NaN 627.214428857715 0.5506572273436305 123.0 0.0 74.0 
254.00002865532744 512.0 NaN 627.1636606546424 0.5634612614685122 125.0 0.0 74.0 
256.0000286553274 516.0 NaN 627.1716766867058 0.5635271752206927 125.0 0.0 74.0 
258.0000286553274 519.0 NaN 627.214428857715 0.6103174956333831 126.0 0.0 74.0 
260.0000286553274 515.0 NaN 627.2090848363397 0.6424641509771668 125.0 0.0 74.0 
262.0000286553274 503.0 NaN 627.1796927187713 0.6182069482242359 123.0 0.0 74.0 
264.0000286553274 494.0 NaN 627.1770207080817 0.5916763955670188 121.0 0.0 74.0 
266.0000286553274 501.0 NaN 627.1289245156986 0.5952618293935212 124.0 0.0 74.0 
268.0000286553274 507.0 NaN 630.2498329993317 0.5689791354376119 124.0 0.0 75.0 
270.0000286553274 506.0 NaN 630.2284569138271 0.5766410898663963 125.0 0.0 75.0 
272.0000286553274 504.0 NaN 630.2124248497001 0.6209106346567155 123.0 0.0 75.0 
274.0000286553274 503.0 NaN 630.2124248497001 0.580919433442072 121.0 0.0 75.0 
276.0000286553274 500.0 NaN 627.1369405477624 0.578860901530097 121.0 0.0 74.0 
278.0000286553274 505.0 NaN 627.1422845691377 0.5937531294807857 121.0 0.0 74.0 
280.0000286553274 498.0 NaN 624.0774883099531 0.5552362769643671 120.0 0.0 73.0 
282.0000286553274 496.0 NaN 624.0721442885774 0.5588961222218327 120.0 0.0 73.0 
284.0000286553274 494.0 NaN 611.8236472945888 0.5478457744265894 117.0 0.0 69.0 
286.0000286553274 504.0 NaN 611.8183032732139 0.5696169471043653 117.0 0.0 69.0 
288.0000286553274 504.0 NaN 611.8396793587184 0.5729653419998196 120.0 0.0 69.0 
290.0000286553274 506.0 NaN 608.7855711422844 0.5499377793124555 118.0 0.0 68.0 
292.0000286553274 503.0 NaN 608.7695390781564 0.539603722170373 118.0 0.0 68.0 
294.0000286553274 501.0 NaN 605.7234468937882 0.5188568992735457 118.0 0.0 67.0 
296.0000286553274 505.0 NaN 602.6800267201072 0.5794839891120709 119.0 0.0 66.0 
298.0000286553274 506.0 NaN 602.6533066132272 0.5969635196560995 117.0 0.0 66.0 
300.0000286553274 496.0 NaN 602.6319305277226 0.5547798147416145 114.0 0.0 66.0 
302.0000286553274 492.0 NaN 602.605210420841 0.59740854102843 114.0 0.0 66.0 
304.0000286553274 484.0 NaN 602.6212424849701 0.5844241973835882 115.0 0.0 66.0 
306.0000286553274 484.0 NaN 605.7154308617228 0.5415563143807338 115.0 0.0 67.0 
308.0000286553274 484.0 NaN 605.7474949899799 0.5864164771103628 115.0 0.0 67.0 
310.0000286553274 478.0 NaN 605.7501670006683 0.5698686701931533 114.0 0.0 67.0 
312.0000286553274 476.0 NaN 605.7341349365411 0.5471477695562549 113.0 0.0 67.0 
314.0000286553274 475.0 NaN 608.8096192384774 0.5574026050169816 112.0 0.0 68.0 
316.0000286553274 478.0 NaN 608.7401469605879 0.5762366232749004 113.0 0.0 68.0 
318.0000286553274 481.0 NaN 611.8503674014697 0.5798924261713619 115.0 0.0 69.0 
320.0000286553274 476.0 NaN 593.4321977287909 0.5528620094703732 116.0 0.0 63.0 
322.0000286553274 474.0 NaN 590.3380093520364 0.5261586230079027 116.0 0.0 62.0 
324.0000286553274 477.0 NaN 587.2678690714771 0.5432843682567084 117.0 0.0 61.0 
326.0000286553274 484.0 NaN 587.2411489645953 0.5958155549514259 115.0 0.0 61.0 
328.0000286553274 484.0 NaN 587.2518370073478 0.6018659452971256 113.0 0.0 61.0 
330.0000286553274 483.0 NaN 590.3112892451569 0.5968340205826416 111.0 0.0 62.0 
332.0000286553274 484.0 NaN 590.292585170341 0.6273333061651716 111.0 0.0 62.0 
334.0000286553274 481.0 NaN 590.3166332665335 0.5484474867007668 110.0 0.0 62.0 
336.0000286553274 489.0 NaN 590.3166332665335 0.6119275245599869 110.0 0.0 62.0 
338.0000286553274 490.0 NaN 593.4268537074154 0.556319350672421 112.0 0.0 63.0 
340.0000286553274 496.0 NaN 593.4054776219108 0.5582062790206748 112.0 0.0 63.0 
342.0000286553274 494.0 NaN 593.3894455577818 0.574998493416033 112.0 0.0 63.0 
344.0000286553274 492.0 NaN 593.3841015364062 0.5833981919349064 112.0 0.0 63.0 
346.0000286553274 492.0 NaN 593.3921175684704 0.5336017638536057 110.0 0.0 63.0 
348.0000286553274 495.0 NaN 587.275885103541 0.5562787172874628 110.0 0.0 61.0 
350.0000286553274 492.0 NaN 587.2705410821638 0.5828496734732119 110.0 0.0 61.0 
352.0000286553274 488.0 NaN 590.321977287909 0.6056360181025295 110.0 0.0 62.0 
354.0000286553274 485.0 NaN 590.3433533734137 0.6203222838719578 110.0 0.0 62.0 
356.0000286553274 481.0 NaN 593.4028056112228 0.5842358298263387 112.0 0.0 63.0 
358.0000286553274 490.0 NaN 590.3299933199726 0.6014663884051519 115.0 0.0 62.0 
360.0000286553274 484.0 NaN 590.3513694054772 0.5653130734886662 110.0 0.0 62.0 
362.0000286553274 485.0 NaN 593.3947895791588 0.5539835580480224 109.0 0.0 63.0 
364.0000286553274 479.0 NaN 590.3593854375414 0.5317382094178031 108.0 0.0 62.0 
366.0000286553274 481.0 NaN 590.3433533734137 0.5695879632376437 108.0 0.0 62.0 
368.0000286553274 482.0 NaN 584.2084168336673 0.5782286096344681 109.0 0.0 60.0 
370.0000286553274 489.0 NaN 581.1142284569136 0.6285754646746651 109.0 0.0 59.0 
372.0000286553274 482.0 NaN 581.1035404141613 0.5985552435262913 109.0 0.0 59.0 
374.0000286553274 483.0 NaN 584.1629926519704 0.6101117292281395 110.0 0.0 60.0 
376.0000286553274 480.0 NaN 587.2331329325318 0.5531763163280847 108.0 0.0 61.0 
378.0000286553274 484.0 NaN 590.340681362725 0.5986299282648945 109.0 0.0 62.0 
380.0000286553274 483.0 NaN 590.3567134268541 0.603300550242286 110.0 0.0 62.0 
382.0000286553274 479.0 NaN 590.3674014696062 0.6163363574714995 110.0 0.0 62.0 
384.0000286553274 475.0 NaN 593.4402137608544 0.6178590166800649 109.0 0.0 63.0 
386.0000286553274 466.0 NaN 593.4428857715429 0.5399771960068224 108.0 0.0 63.0 
388.0000286553274 475.0 NaN 596.5317301269207 0.5736770203588908 109.0 0.0 64.0 
390.0000286553274 476.0 NaN 596.4996659986635 0.6089970121064789 108.0 0.0 64.0 
392.0000286553274 484.0 NaN 599.6366065464272 0.6423105292055975 109.0 0.0 65.0 
394.0000286553274 478.0 NaN 599.6366065464272 0.571509575979306 109.0 0.0 65.0 
396.0000286553274 488.0 NaN 608.8764195056772 0.5814221518232093 112.0 0.0 68.0 
398.0000286553274 487.0 NaN 608.9164996659985 0.6391395899149693 112.0 0.0 68.0 
400.0000286553274 492.0 NaN 614.9899799599197 0.6455593015670371 111.0 0.0 70.0 
402.0000286553274 487.0 NaN 614.9766199064801 0.5843114507674683 113.0 0.0 70.0 
404.0000286553274 483.0 NaN 614.9178356713427 0.5520069478980072 115.0 0.0 70.0 
406.0000286553274 491.0 NaN 614.9311957247819 0.6269931299830791 115.0 0.0 70.0 
408.0000286553274 487.0 NaN 614.9124916499667 0.5968854475288796 115.0 0.0 70.0 
410.0000286553274 482.0 NaN 614.9098196392788 0.5254333149557964 115.0 0.0 70.0 
412.0000286553274 495.0 NaN 614.923179692718 0.5799796085763961 115.0 0.0 70.0 
414.0000286553274 494.0 NaN 617.998663994656 0.6222104093324593 115.0 0.0 71.0 
416.0000286553274 489.0 NaN 618.0574482297927 0.640569222806541 116.0 0.0 71.0 
418.0000286553274 498.0 NaN 618.0093520374089 0.6449377047471808 116.0 0.0 71.0 
420.0000286553274 491.0 NaN 617.9906479625911 0.5665402324873722 116.0 0.0 71.0 
422.0000286553274 504.0 NaN 624.1015364061454 0.5521521545023886 119.0 0.0 73.0 
424.0000286553274 505.0 NaN 627.1877087508351 0.5900283513557972 122.0 0.0 74.0 
426.0000286553274 503.0 NaN 627.171676686706 0.6202746393993422 123.0 0.0 74.0 
428.0000286553274 502.0 NaN 627.171676686706 0.6404490894064832 125.0 0.0 74.0 
430.0000286553274 501.0 NaN 630.236472945891 0.6718893745583708 126.0 0.0 75.0 
432.0000286553274 499.0 NaN 633.3440213760863 0.6558183976757622 129.0 0.0 76.0 
434.0000286553274 486.0 NaN 633.3092852371409 0.5692863507511852 128.0 0.0 76.0 
436.0000286553274 484.0 NaN 639.4736138944543 0.5998256174532757 129.0 0.0 78.0 
438.0000286553274 487.0 NaN 633.3146292585183 0.6223752936717099 129.0 0.0 76.0 
440.0000286553274 478.0 NaN 633.3253173012682 0.5456187495328092 128.0 0.0 76.0 
442.0000286553274 478.0 NaN 633.2505010020047 0.586678971232291 128.0 0.0 76.0 
444.0000286553274 487.0 NaN 636.3313293253182 0.6428089076686723 130.0 0.0 77.0 
446.0000286553274 485.0 NaN 639.4335337341355 0.6865577092212168 131.0 0.0 78.0 
448.0000286553274 485.0 NaN 642.5036740146958 0.7021141172516485 131.0 0.0 79.0 
450.0000286553274 490.0 NaN 645.6005344021371 0.6553808698784198 131.0 0.0 80.0 
452.0000286553274 484.0 NaN 639.4655978623907 0.6243971585995688 130.0 0.0 78.0 
454.0000286553274 479.0 NaN 639.4281897127589 0.5955213495073342 127.0 0.0 78.0 
456.0000286553274 488.0 NaN 639.4281897127589 0.6248354344368362 129.0 0.0 78.0 
458.0000286553274 486.0 NaN 639.409485637942 0.6507882973396011 128.0 0.0 78.0 
460.0000286553274 491.0 NaN 642.482297929191 0.6177257827874288 128.0 0.0 79.0 
462.0000286553274 493.0 NaN 642.4929859719443 0.5684595304432816 127.0 0.0 79.0 
464.0000286553274 490.0 NaN 642.4662658650636 0.5503102177501994 128.0 0.0 79.0 
466.0000286553274 488.0 NaN 642.4983299933194 0.5802270535273277 128.0 0.0 79.0 
468.0000286553274 491.0 NaN 642.4609218436864 0.6570296409639498 129.0 0.0 79.0 
470.0000286553274 485.0 NaN 642.4395457581829 0.6631417820981088 129.0 0.0 79.0 
472.0000286553274 478.0 NaN 642.4609218436864 0.6322103175943077 128.0 0.0 79.0 
474.0000286553274 464.0 NaN 636.3206412825645 0.5658670965068924 127.0 0.0 77.0 
476.0000286553274 465.0 NaN 630.1723446893783 0.5744301452323605 125.0 0.0 75.0 
478.0000286553274 474.0 NaN 630.1670006680034 0.5947786190718927 126.0 0.0 75.0 
480.0000286553274 473.0 NaN 630.1509686038738 0.6214955045877064 125.0 0.0 75.0 
482.0000286553274 468.0 NaN 630.1616566466274 0.6365697267911117 124.0 0.0 75.0 
484.0000286553274 466.0 NaN 630.1643286573135 0.6524697989777217 125.0 0.0 75.0 
486.0000286553274 460.0 NaN 630.1643286573135 0.5332438035010181 126.0 0.0 75.0 
488.0000286553274 469.0 NaN 630.1670006680034 0.5351264838396144 126.0 0.0 75.0 
490.0000286553274 474.0 NaN 624.0427521710093 0.5807721014555856 127.0 0.0 73.0 
492.0000286553274 477.0 NaN 624.0801603206409 0.6140483247440583 126.0 0.0 73.0 
494.0000286553274 483.0 NaN 621.0233800935196 0.5773049449666732 124.0 0.0 72.0 
496.0000286553274 484.0 NaN 614.8804275217092 0.592939627112636 123.0 0.0 70.0 
498.0000286553274 482.0 NaN 608.7615230460924 0.5961501442815954 121.0 0.0 68.0 
500.0000286553274 479.0 NaN 605.6700066800274 0.5940495352366089 121.0 0.0 67.0 
502.0000286553274 472.0 NaN 605.6806947227788 0.5642583429968007 119.0 0.0 67.0 
504.0000286553274 476.0 NaN 605.6646626586503 0.5928213460825422 118.0 0.0 67.0 
506.0000286553274 477.0 NaN 596.4782899131591 0.6227043524496368 116.0 0.0 64.0 
508.0000286553274 480.0 NaN 593.4134936539749 0.5747982239079149 114.0 0.0 63.0 
510.0000286553274 480.0 NaN 590.3193052772211 0.602687897110322 114.0 0.0 62.0 
512.0000286553275 477.0 NaN 590.3380093520373 0.6272630843476594 113.0 0.0 62.0 
514.0000286553275 475.0 NaN 590.321977287909 0.6040779715205169 113.0 0.0 62.0 
516.0000286553275 473.0 NaN 584.187040748163 0.6169043657739252 111.0 0.0 60.0 
518.0000286553275 475.0 NaN 584.1736806947226 0.660580816410176 109.0 0.0 60.0 
520.0000286553275 472.0 NaN 581.1035404141613 0.6311382741961099 109.0 0.0 59.0 
522.0000286553275 466.0 NaN 581.1382765531062 0.6382891836311689 107.0 0.0 59.0 
524.0000286553275 461.0 NaN 581.1382765531062 0.5552171166666384 107.0 0.0 59.0 
526.0000286553275 463.0 NaN 578.0761523046091 0.5770473608654176 108.0 0.0 58.0 
528.0000286553275 465.0 NaN 578.0654642618568 0.6009782032900083 106.0 0.0 58.0 
530.0000286553275 465.0 NaN 578.0574482297932 0.6373744332699394 104.0 0.0 58.0 
532.0000286553275 470.0 NaN 575.0327321309284 0.6714113492352451 105.0 0.0 57.0 
534.0000286553275 466.0 NaN 578.1002004008016 0.5921706264928148 105.0 0.0 58.0 
536.0000286553275 469.0 NaN 578.1055444221777 0.6327231448529897 105.0 0.0 58.0 
538.0000286553275 468.0 NaN 578.0814963259852 0.6515762226823878 105.0 0.0 58.0 
540.0000286553275 469.0 NaN 581.1596526386105 0.6150392552626917 105.0 0.0 59.0 
542.0000286553275 470.0 NaN 581.1890447561791 0.6071139039594613 105.0 0.0 59.0 
544.0000286553275 470.0 NaN 584.2164328657313 0.5935927693458835 107.0 0.0 60.0 
546.0000286553275 471.0 NaN 584.2110888443556 0.5890095551691793 108.0 0.0 60.0 
548.0000286553275 477.0 NaN 584.2057448229796 0.6362487321957782 110.0 0.0 60.0 
550.0000286553275 477.0 NaN 584.2057448229796 0.6223786435604866 111.0 0.0 60.0 
552.0000286553275 480.0 NaN 584.2271209084836 0.693571698258316 109.0 0.0 60.0 
554.0000286553275 476.0 NaN 584.2110888443556 0.5879963370081686 108.0 0.0 60.0 
556.0000286553275 482.0 NaN 584.2244488977955 0.6269780477974493 107.0 0.0 60.0 
558.0000286553275 476.0 NaN 578.0975283901137 0.6542901986068755 108.0 0.0 58.0 
560.0000286553275 474.0 NaN 578.0334001336004 0.6253581668395228 110.0 0.0 58.0 
562.0000286553275 475.0 NaN 571.9225116900466 0.6511247573017265 111.0 0.0 56.0 
564.0000286553275 478.0 NaN 574.9766199064795 0.6360326168797109 111.0 0.0 57.0 
566.0000286553275 475.0 NaN 574.9846359385436 0.6469809155103643 111.0 0.0 57.0 
568.0000286553275 473.0 NaN 574.9899799599198 0.6531090258837133 111.0 0.0 57.0 
570.0000286553275 475.0 NaN 578.0921843687374 0.6483462343309553 110.0 0.0 58.0 
572.0000286553275 467.0 NaN 578.0921843687374 0.6072831932005295 108.0 0.0 58.0 
574.0000286553275 464.0 NaN 578.0734802939211 0.6160298101848529 107.0 0.0 58.0 
576.0000286553275 462.0 NaN 578.065464261857 0.579843367355754 108.0 0.0 58.0 
578.0000286553275 464.0 NaN 578.046760187041 0.5878241562100478 108.0 0.0 58.0 
580.0000286553275 463.0 NaN 578.065464261857 0.5996364545765841 109.0 0.0 58.0 
582.0000286553275 472.0 NaN 575.0033400133602 0.6428871394789795 111.0 0.0 57.0 
584.0000286553275 466.0 NaN 575.0086840347362 0.5849904200428104 110.0 0.0 57.0 
586.0000286553275 465.0 NaN 575.0113560454239 0.5773598475402922 110.0 0.0 57.0 
588.0000286553275 468.0 NaN 578.0841683366733 0.6397121471566976 110.0 0.0 58.0 
590.0000286553275 474.0 NaN 584.1897127588511 0.6634751847128701 111.0 0.0 60.0 
592.0000286553275 473.0 NaN 584.2191048764194 0.6199817072459655 110.0 0.0 60.0 
594.0000286553275 466.0 NaN 584.1870407481629 0.5626100659021755 109.0 0.0 60.0 
596.0000286553275 462.0 NaN 584.2084168336671 0.5765099413988914 108.0 0.0 60.0 
598.0000286553275 472.0 NaN 584.1897127588511 0.6616279720048789 108.0 0.0 60.0 
600.0000286553275 466.0 NaN 584.1843687374751 0.6184893425907524 108.0 0.0 60.0 
602.0000286553275 477.0 NaN 590.3112892451568 0.6194555926333382 110.0 0.0 62.0 
604.0000286553275 473.0 NaN 590.3112892451568 0.616173392766878 110.0 0.0 62.0 
606.0000286553275 470.0 NaN 593.3974615898464 0.5861628818666954 111.0 0.0 63.0 
608.0000286553275 480.0 NaN 593.4081496325983 0.6373360318178338 111.0 0.0 63.0 
610.0000286553275 479.0 NaN 593.4081496325983 0.6427995743870246 112.0 0.0 63.0 
612.0000286553275 475.0 NaN 599.5564462257846 0.5510739850029098 113.0 0.0 65.0 
614.0000286553275 478.0 NaN 596.4836339345359 0.5934838308694373 113.0 0.0 64.0 
616.0000286553275 483.0 NaN 587.2732130928525 0.5852158891609429 111.0 0.0 61.0 
618.0000286553275 494.0 NaN 590.3433533734137 0.6643844897842336 111.0 0.0 62.0 
620.0000286553275 491.0 NaN 590.3486973947893 0.6423516895419964 109.0 0.0 62.0 
622.0000286553275 490.0 NaN 590.3700734802937 0.6287128015814306 109.0 0.0 62.0 
624.0000286553275 495.0 NaN 590.356713426854 0.6658582642962538 106.0 0.0 62.0 
626.0000286553275 495.0 NaN 596.5076820307276 0.6100893338027076 109.0 0.0 64.0 
628.0000286553275 501.0 NaN 596.4889779559114 0.6132540584055666 115.0 0.0 64.0 
630.0000286553275 503.0 NaN 599.5511022044092 0.6795036047811355 118.0 0.0 65.0 
632.0000286553275 501.0 NaN 605.7341349365406 0.6474281214279419 123.0 0.0 67.0 
634.0000286553275 497.0 NaN 608.7962591850363 0.6020654101254116 123.0 0.0 68.0 
636.0000286553275 498.0 NaN 608.7828991315956 0.6652361010013502 125.0 0.0 68.0 
638.0000286553275 501.0 NaN 605.6646626586504 0.6792099461992314 126.0 0.0 67.0 
640.0000286553275 495.0 NaN 608.798931195725 0.6235468585639248 125.0 0.0 68.0 
642.0000286553275 495.0 NaN 614.9124916499662 0.610294394243215 126.0 0.0 70.0 
644.0000286553275 497.0 NaN 614.8830995323979 0.6241983234310837 128.0 0.0 70.0 
646.0000286553275 492.0 NaN 614.8777555110227 0.6547301546084245 127.0 0.0 70.0 
648.0000286553275 491.0 NaN 617.9291917167662 0.6321194534503024 126.0 0.0 71.0 
650.0000286553275 487.0 NaN 617.9211756847023 0.6430859656878085 129.0 0.0 71.0 
652.0000286553275 489.0 NaN 620.967267869071 0.6162062003477178 132.0 0.0 72.0 
654.0000286553275 489.0 NaN 617.9345357381433 0.560623075022765 133.0 0.0 71.0 
656.0000286553275 490.0 NaN 614.8697394789572 0.6251557811217702 134.0 0.0 70.0 
658.0000286553275 496.0 NaN 614.8777555110224 0.6509283309045691 134.0 0.0 70.0 
660.0000286553275 492.0 NaN 617.9826319305273 0.5925105568616194 134.0 0.0 71.0 
662.0000286553275 490.0 NaN 627.1529726118908 0.5760885622385803 133.0 0.0 74.0 
664.0000286553275 494.0 NaN 624.1015364061454 0.6574177142218955 132.0 0.0 73.0 
#####################################################################
# End of data export. Simulation finished at: 2019-03-20T03:01+0000 #
#####################################################################
