#####################################################################
# Alchemist log file - simulation started at: 2019-03-06T22:41+0000 #
#####################################################################
# seed = 4.0, bandwidth = 5623413.251903491, propagationDelay = 0.1, baserange = 31.622776601683796
#
# The columns have the following meaning: 
# time neighbor_count[Sum] <value>@neighbor_count[Sum] packet_size[Mean] mean_delay[Mean] crowd[Sum] overcrowded[Sum] risk[Sum] 
0.0 NaN NaN NaN NaN NaN NaN NaN 
2.0004793365590676 2764.0 NaN 4995.61790247161 0.5105780540569976 1497.0 0.0 1497.0 
4.00042902272939 2788.0 NaN 4999.853039412158 0.5126144366703682 1493.0 4.0 1493.0 
6.000479336559067 2790.0 NaN 4995.791583166333 0.5126086490069127 1466.0 31.0 1466.0 
8.000479336559067 2790.0 NaN 4996.937875751503 0.5126087776730742 1433.0 64.0 1433.0 
10.000479336559067 2795.0 NaN 4995.404141616566 0.5143378110790812 1428.0 69.0 1428.0 
12.000479336559067 2789.0 NaN 4995.307949231797 0.5128947054722874 1432.0 65.0 1432.0 
14.00042902272939 2790.0 NaN 4994.613226452906 0.5125074907687172 1423.0 74.0 1423.0 
16.000479336559067 2796.0 NaN 4995.051436205745 0.5138102427327066 1415.0 82.0 1415.0 
18.000479336559067 2795.0 NaN 4994.124248496994 0.5153746196060773 1424.0 73.0 1424.0 
20.000479336559067 2799.0 NaN 4995.144956579827 0.5144994707926368 1426.0 71.0 1426.0 
22.000479336559067 2793.0 NaN 4993.587174348698 0.5148452538191043 1420.0 77.0 1420.0 
24.000429022729392 2795.0 NaN 4994.936539746159 0.512797534661101 1420.0 77.0 1420.0 
26.000479336559067 2811.0 NaN 4993.461589846359 0.5157192904218454 1419.0 78.0 1419.0 
28.000479336559067 2800.0 NaN 4994.933867735471 0.512715889474659 1419.0 78.0 1419.0 
30.000479336559067 2808.0 NaN 4994.060120240481 0.5155963333944831 1419.0 78.0 1419.0 
32.00047933655907 2806.0 NaN 4994.338009352037 0.5164934294365331 1419.0 78.0 1419.0 
34.00042902272939 2810.0 NaN 4993.929191716767 0.5133338434697504 1420.0 77.0 1420.0 
36.00047933655907 2830.0 NaN 4994.340681362725 0.5190765237459553 1425.0 72.0 1425.0 
38.00047933655907 2815.0 NaN 4993.774215096861 0.514865650532913 1425.0 72.0 1425.0 
40.00047933655907 2818.0 NaN 4994.816299265197 0.5151655917221363 1420.0 77.0 1420.0 
42.00047933655907 2815.0 NaN 4993.376085504342 0.5162471701622714 1414.0 83.0 1414.0 
44.00042902272939 2822.0 NaN 4994.490313961256 0.514040285651137 1414.0 83.0 1414.0 
46.00047933655907 2846.0 NaN 4993.579158316633 0.5179398366189679 1410.0 87.0 1410.0 
48.00047933655907 2837.0 NaN 4994.704074816299 0.5162513687154895 1410.0 87.0 1410.0 
50.00047933655907 2849.0 NaN 4993.755511022044 0.5211696740813921 1411.0 86.0 1411.0 
52.00047933655907 2838.0 NaN 4994.204408817635 0.5197989053167098 1410.0 87.0 1410.0 
54.00042902272939 2837.0 NaN 4993.824983299934 0.5218310932154383 1412.0 85.0 1412.0 
56.00047933655907 2849.0 NaN 4994.1189044756175 0.5194870777497832 1410.0 87.0 1410.0 
58.00047933655907 2821.0 NaN 4993.9425517702075 0.5139412178836211 1403.0 94.0 1403.0 
60.00047933655907 2828.0 NaN 4991.484301937207 0.514117675344679 1410.0 87.0 1409.0 
62.000359773446476 2835.0 NaN 1521.774215096861 0.5162840674829419 596.0 84.0 281.0 
64.00035977344646 2836.0 NaN 1521.547094188376 0.5125788522494086 504.0 87.0 278.0 
66.00035977344646 2855.0 NaN 1524.5851703406818 0.5155765271720786 462.0 85.0 281.0 
68.00035977344646 2848.0 NaN 1524.6038744154996 0.5199646889506631 436.0 80.0 286.0 
70.00035977344646 2849.0 NaN 1524.566466265864 0.5153888029359944 427.0 77.0 289.0 
72.00035977344646 2847.0 NaN 1527.7568470273884 0.5208024910269377 413.0 78.0 289.0 
74.00035977344646 2843.0 NaN 1530.6907147628574 0.5149686091843789 407.0 80.0 288.0 
76.00035977344646 2861.0 NaN 1530.7468269873093 0.5198667745213363 410.0 77.0 291.0 
78.00035977344646 2846.0 NaN 1533.7127588510366 0.5194518530042879 405.0 80.0 289.0 
80.00035977344646 2861.0 NaN 1536.8630594522367 0.5193814597139229 402.0 83.0 287.0 
82.00035977344646 2841.0 NaN 1536.7882431529729 0.5227888862919042 400.0 85.0 285.0 
84.00035977344646 2833.0 NaN 1536.7828991315969 0.5164414178139415 397.0 85.0 285.0 
86.00035977344646 2830.0 NaN 1536.830995323982 0.5172485082712523 397.0 81.0 289.0 
88.00035977344646 2819.0 NaN 1536.7882431529729 0.5147840973346314 392.0 84.0 286.0 
90.00035977344646 2832.0 NaN 1536.9031396125577 0.5197006142226412 394.0 80.0 290.0 
92.00035977344646 2808.0 NaN 1536.7775551102184 0.5211909976325813 391.0 83.0 287.0 
94.00035977344646 2798.0 NaN 1536.7267869071457 0.5166001961757561 390.0 82.0 288.0 
96.00035977344646 2804.0 NaN 1536.7641950567815 0.5214618394313834 390.0 82.0 288.0 
98.00035977344646 2789.0 NaN 1536.7695390781548 0.5151557843962206 385.0 87.0 283.0 
100.00035977344646 2804.0 NaN 1539.8236472945905 0.5223474656024532 388.0 84.0 287.0 
102.00035977344646 2785.0 NaN 1539.9519038076157 0.5202182583568981 388.0 83.0 288.0 
104.00035977344646 2785.0 NaN 1539.7434869739477 0.5172038432754313 382.0 89.0 282.0 
106.00035977344646 2803.0 NaN 1539.828991315964 0.5197946269059381 390.0 81.0 290.0 
108.00035977344646 2799.0 NaN 1539.8476953907818 0.52771881749866 391.0 80.0 291.0 
110.00035977344646 2810.0 NaN 1539.885103540415 0.5194872821927033 388.0 83.0 288.0 
112.00035977344646 2797.0 NaN 1539.8476953907818 0.5179206545560422 392.0 79.0 292.0 
114.00035977344646 2803.0 NaN 1539.8663994655997 0.5190501148299943 391.0 80.0 291.0 
116.00035977344646 2809.0 NaN 1539.7247828991303 0.5237495507894564 396.0 75.0 296.0 
118.00035977344646 2798.0 NaN 1545.8971275885092 0.5259848630317892 392.0 80.0 293.0 
120.00035977344646 2805.0 NaN 1549.0981963927848 0.523841953757437 395.0 79.0 295.0 
122.00035977344646 2783.0 NaN 1549.002004008018 0.5195013037294275 396.0 80.0 294.0 
124.00035977344646 2788.0 NaN 1548.9752839011364 0.5143235908621954 397.0 78.0 296.0 
126.00035977344646 2798.0 NaN 1549.090180360721 0.5200283371904965 400.0 75.0 299.0 
128.0003597734465 2784.0 NaN 1548.9004676018726 0.5146706901745148 398.0 77.0 297.0 
130.0003597734465 2793.0 NaN 1546.0334001335998 0.5232619542386369 396.0 78.0 295.0 
132.0003597734465 2775.0 NaN 1542.86706746827 0.5292017486380938 393.0 77.0 295.0 
134.0003597734465 2759.0 NaN 1542.9392117568455 0.5182743862790897 390.0 80.0 292.0 
136.0003597734465 2773.0 NaN 1539.7808951235818 0.5207687562570635 393.0 76.0 295.0 
138.0003597734465 2776.0 NaN 1542.8697394789576 0.5216737229963402 388.0 83.0 289.0 
140.0003597734465 2782.0 NaN 1539.8316633266545 0.518161755099404 390.0 79.0 292.0 
142.0003597734465 2813.0 NaN 1546.0280561122245 0.5213136761322584 377.0 92.0 281.0 
144.0003597734465 2809.0 NaN 1549.1569806279213 0.5158618411882184 374.0 94.0 280.0 
146.0003597734465 2814.0 NaN 1545.9986639946549 0.5151371098640437 378.0 90.0 283.0 
148.0003597734465 2824.0 NaN 1552.0908483633937 0.5292513194368604 379.0 89.0 286.0 
150.0003597734465 2830.0 NaN 1552.1870407481638 0.5175186755670358 381.0 86.0 289.0 
152.0003597734465 2842.0 NaN 1549.0420841683363 0.517804865203288 379.0 88.0 286.0 
154.0003597734465 2836.0 NaN 1549.1035404141637 0.513128322981091 383.0 85.0 289.0 
156.0003597734465 2846.0 NaN 1542.9712758851028 0.5156377033818861 387.0 81.0 291.0 
158.0003597734465 2846.0 NaN 1542.8456913827638 0.5158006034785344 379.0 90.0 282.0 
160.0003597734465 2858.0 NaN 1543.0247160988636 0.5221156886210012 383.0 86.0 286.0 
162.0003597734465 2846.0 NaN 1542.9739478957906 0.5247374717062148 373.0 95.0 277.0 
164.0003597734465 2811.0 NaN 1542.9205076820303 0.5194684835511613 370.0 97.0 275.0 
166.0003597734465 2809.0 NaN 1545.9612558450242 0.5194946000287483 375.0 91.0 282.0 
168.0003597734465 2814.0 NaN 1543.0086840347365 0.5275758582332485 372.0 92.0 280.0 
170.0003597734465 2819.0 NaN 1543.0941883767546 0.5229875760292456 377.0 86.0 286.0 
172.0003597734465 2803.0 NaN 1542.9552438209753 0.5275396139049275 372.0 91.0 281.0 
174.0003597734465 2785.0 NaN 1536.9378757515026 0.521091446876993 376.0 86.0 284.0 
176.0003597734465 2778.0 NaN 1539.8503674014703 0.5216193902441766 380.0 82.0 289.0 
178.0003597734465 2771.0 NaN 1539.895791583166 0.5292907974143438 380.0 83.0 288.0 
180.0003597734465 2783.0 NaN 1540.0374081496338 0.5208657238589832 381.0 84.0 287.0 
182.0003597734465 2779.0 NaN 1540.0400801603203 0.5208281020159357 378.0 87.0 284.0 
184.0003597734465 2772.0 NaN 1536.9298597194388 0.5215905400160865 374.0 91.0 279.0 
186.0003597734465 2770.0 NaN 1539.9919839679364 0.5262691143706398 377.0 88.0 283.0 
188.0003597734465 2760.0 NaN 1536.916499666 0.5165365247196463 373.0 91.0 279.0 
190.0003597734465 2775.0 NaN 1536.8630594522363 0.5218334770118874 373.0 91.0 279.0 
192.0003597734465 2758.0 NaN 1540.0374081496336 0.5266609453548143 375.0 91.0 280.0 
194.0003597734465 2753.0 NaN 1539.8557114228454 0.5210035828484191 370.0 93.0 278.0 
196.0003597734465 2763.0 NaN 1539.9679358717453 0.522884442078635 371.0 92.0 279.0 
198.0003597734465 2775.0 NaN 1539.8610554442212 0.5265608019381696 370.0 94.0 277.0 
200.0003597734465 2779.0 NaN 1539.906479625918 0.5189964942471835 368.0 94.0 277.0 
202.0003597734465 2777.0 NaN 1546.1189044756184 0.5224528288529746 366.0 97.0 276.0 
204.0003597734465 2782.0 NaN 1549.1569806279208 0.5167179847683534 371.0 95.0 279.0 
206.0003597734465 2794.0 NaN 1549.0607882431545 0.5275900792124353 376.0 90.0 284.0 
208.0003597734465 2774.0 NaN 1539.9144956579817 0.5261650327773344 369.0 97.0 274.0 
210.0003597734465 2774.0 NaN 1539.9973279893115 0.5222378129919389 367.0 96.0 275.0 
212.0003597734465 2769.0 NaN 1543.0621242484974 0.538146749809568 365.0 99.0 273.0 
214.0003597734465 2738.0 NaN 1542.9098196392792 0.5232562911687202 361.0 104.0 268.0 
216.0003597734465 2744.0 NaN 1542.9178356713428 0.5192076169627621 373.0 93.0 279.0 
218.0003597734465 2754.0 NaN 1539.8583834335338 0.5202185250373607 369.0 96.0 275.0 
220.0003597734465 2770.0 NaN 1540.024048096191 0.5233500290851233 368.0 96.0 275.0 
222.0003597734465 2772.0 NaN 1536.9138276553092 0.5237564287019039 370.0 96.0 274.0 
224.0003597734465 2760.0 NaN 1536.9271877087517 0.5192372533129257 372.0 92.0 278.0 
226.0003597734465 2763.0 NaN 1539.9198396793574 0.5231398369769357 363.0 99.0 272.0 
228.0003597734465 2757.0 NaN 1546.0120240480976 0.5363555094809921 363.0 100.0 273.0 
230.0003597734465 2751.0 NaN 1546.1162324649297 0.5184768082803813 368.0 95.0 278.0 
232.0003597734465 2758.0 NaN 1546.1002004008 0.5281988415844158 367.0 96.0 277.0 
234.0003597734465 2738.0 NaN 1549.0634602538425 0.5213109485569127 367.0 95.0 279.0 
236.0003597734465 2746.0 NaN 1545.9505678022726 0.5201494313135022 367.0 92.0 281.0 
238.0003597734465 2743.0 NaN 1542.9712758851024 0.5273045217642164 362.0 97.0 275.0 
240.0003597734465 2740.0 NaN 1539.877087508348 0.5260593525592526 366.0 94.0 277.0 
242.0003597734465 2718.0 NaN 1539.8663994656 0.5251135163408618 363.0 96.0 275.0 
244.0003597734465 2706.0 NaN 1536.7054108216453 0.5187466135769999 361.0 99.0 271.0 
246.0003597734465 2714.0 NaN 1536.7160988643973 0.5218611753213089 367.0 92.0 278.0 
248.0003597734465 2713.0 NaN 1536.7588510354028 0.5212015597980137 365.0 91.0 279.0 
250.0003597734465 2717.0 NaN 1533.6860387441545 0.5206679259924113 365.0 93.0 276.0 
252.0003597734465 2704.0 NaN 1530.6399465597847 0.5301540476794326 365.0 92.0 276.0 
254.0003597734465 2698.0 NaN 1527.5537742150973 0.5283840943932485 363.0 93.0 274.0 
256.0003597734465 2723.0 NaN 1527.5190380761544 0.5242156618168662 364.0 93.0 274.0 
258.0003597734465 2726.0 NaN 1527.5083500334 0.5292930660651225 368.0 91.0 276.0 
260.0003597734465 2712.0 NaN 1524.5798263193062 0.5302742203450189 371.0 89.0 277.0 
262.0003597734465 2701.0 NaN 1527.5190380761544 0.5413251888259416 367.0 91.0 276.0 
264.0003597734465 2676.0 NaN 1527.5083500334 0.5217112913497902 379.0 81.0 286.0 
266.0003597734465 2702.0 NaN 1536.8897795591183 0.5290164770712361 382.0 76.0 294.0 
268.0003597734465 2702.0 NaN 1542.880427521709 0.5232777630577904 381.0 78.0 294.0 
270.0003597734465 2699.0 NaN 1542.8937875751521 0.5304285036214048 385.0 75.0 297.0 
272.0003597734465 2697.0 NaN 1536.83366733467 0.5435099547166368 383.0 76.0 294.0 
274.0003597734465 2666.0 NaN 1536.7401469605886 0.523939986111791 380.0 78.0 292.0 
276.0003597734465 2669.0 NaN 1536.8096192384753 0.5313850864799081 382.0 74.0 296.0 
278.0003597734465 2656.0 NaN 1539.8129592518362 0.5443540986566773 381.0 75.0 296.0 
280.0003597734465 2648.0 NaN 1539.8450233800932 0.5289369389158235 381.0 78.0 293.0 
282.0003597734465 2644.0 NaN 1539.8156312625274 0.5377532316158188 384.0 78.0 293.0 
284.0003597734465 2624.0 NaN 1539.7488309953249 0.5282364370665913 385.0 77.0 294.0 
286.0003597734465 2629.0 NaN 1533.6593186372727 0.5281003996561942 382.0 77.0 292.0 
288.0003597734465 2612.0 NaN 1533.6272545090183 0.5298517183011479 383.0 73.0 296.0 
290.0003597734465 2622.0 NaN 1533.6192384769547 0.5248159021761107 387.0 68.0 301.0 
292.0003597734465 2619.0 NaN 1530.605210420843 0.5267357856578874 381.0 73.0 295.0 
294.0003597734465 2612.0 NaN 1536.7641950567818 0.5213236651731991 383.0 73.0 297.0 
296.0003597734465 2616.0 NaN 1536.6840347361385 0.5358204600133425 388.0 69.0 301.0 
298.0003597734465 2614.0 NaN 1539.6980627922521 0.5187003178786559 386.0 72.0 299.0 
300.0003597734465 2626.0 NaN 1539.8931195724795 0.523060685168695 388.0 71.0 300.0 
302.0003597734465 2631.0 NaN 1539.7995991983978 0.519631139246018 385.0 75.0 296.0 
304.0003597734465 2630.0 NaN 1536.8817635270545 0.5209924247768511 378.0 79.0 291.0 
306.0003597734465 2638.0 NaN 1533.6085504342002 0.5242574548177108 383.0 75.0 294.0 
308.0003597734465 2625.0 NaN 1533.7795591182362 0.5235139254029991 382.0 75.0 294.0 
310.0003597734465 2624.0 NaN 1530.6346025384091 0.5251227774933162 381.0 75.0 293.0 
312.0003597734465 2616.0 NaN 1533.6539746158999 0.526045134430623 379.0 77.0 292.0 
314.0003597734465 2613.0 NaN 1530.5865063460271 0.5221656066347962 382.0 75.0 293.0 
316.0003597734465 2623.0 NaN 1533.69138276553 0.5196577421522807 386.0 72.0 297.0 
318.0003597734465 2622.0 NaN 1530.6506346025367 0.5157737143311013 386.0 72.0 296.0 
320.0003597734465 2622.0 NaN 1530.6452905811634 0.5303877060418252 388.0 70.0 298.0 
322.0003597734465 2611.0 NaN 1527.5217100868394 0.5293088710130226 383.0 73.0 294.0 
324.0003597734465 2603.0 NaN 1527.5911823647275 0.5191830991862904 384.0 72.0 295.0 
326.0003597734465 2611.0 NaN 1527.497661990648 0.5242624589398844 388.0 68.0 299.0 
328.0003597734465 2597.0 NaN 1530.4956579826335 0.5178011964163629 386.0 70.0 298.0 
330.0003597734465 2613.0 NaN 1530.6212424849703 0.5291759967219982 387.0 70.0 298.0 
332.0003597734465 2612.0 NaN 1524.4595858383452 0.5249846556275298 385.0 71.0 295.0 
334.0003597734465 2618.0 NaN 1530.4983299933183 0.5140065074322879 385.0 71.0 297.0 
336.0003597734465 2634.0 NaN 1524.4649298597185 0.518504511296636 388.0 69.0 297.0 
338.0003597734465 2635.0 NaN 1524.277889111555 0.525552495407413 387.0 70.0 296.0 
340.0003597734465 2630.0 NaN 1524.4168336673358 0.5221852062355428 387.0 69.0 297.0 
342.0003597734465 2631.0 NaN 1524.3500334001337 0.5265588983139234 385.0 71.0 295.0 
344.0003597734465 2617.0 NaN 1530.503674014697 0.5248202966743636 388.0 71.0 297.0 
346.0003597734465 2627.0 NaN 1533.6085504342004 0.5228397457231967 392.0 68.0 301.0 
348.0003597734465 2628.0 NaN 1530.5303941215757 0.520675969066592 389.0 71.0 297.0 
350.0003597734465 2626.0 NaN 1527.529726118906 0.5188801625094015 389.0 71.0 296.0 
352.0003597734465 2628.0 NaN 1524.320641282564 0.5307175685144847 389.0 71.0 295.0 
354.0003597734465 2612.0 NaN 1524.4061456245818 0.5218017762302941 384.0 75.0 291.0 
356.0003597734465 2632.0 NaN 1524.3794255177006 0.5360455627477423 379.0 79.0 287.0 
358.0003597734465 2623.0 NaN 1524.408817635272 0.520769448084073 377.0 82.0 284.0 
360.0003597734465 2638.0 NaN 1524.4061456245818 0.5353762546196646 382.0 76.0 290.0 
362.0003597734465 2616.0 NaN 1527.5564462257844 0.5266098968238611 377.0 82.0 285.0 
364.0003597734465 2618.0 NaN 1527.4602538410159 0.5222401200727806 381.0 77.0 290.0 
366.0003597734465 2638.0 NaN 1527.462925851703 0.5234270170574865 384.0 74.0 293.0 
368.0003597734465 2626.0 NaN 1521.3573814295266 0.5217983657957254 387.0 72.0 293.0 
370.0003597734465 2634.0 NaN 1518.249832999333 0.5316222953702265 384.0 75.0 289.0 
372.0003597734465 2629.0 NaN 1515.107548430193 0.5415840320132805 384.0 75.0 288.0 
374.0003597734465 2603.0 NaN 1515.1022044088184 0.5171446073370847 382.0 77.0 286.0 
376.0003597734465 2622.0 NaN 1511.9893119572473 0.5270662105454469 385.0 74.0 288.0 
378.0003597734465 2615.0 NaN 1508.9752839011362 0.531737395288349 384.0 75.0 286.0 
380.0003597734465 2622.0 NaN 1512.1175684702728 0.5233923913922087 384.0 76.0 286.0 
382.0003597734465 2634.0 NaN 1511.9679358717447 0.529879370164936 385.0 77.0 285.0 
384.0003597734465 2631.0 NaN 1515.171676686707 0.5184291533580857 390.0 75.0 288.0 
386.0003597734465 2653.0 NaN 1518.1563126252513 0.5245535457180313 393.0 71.0 293.0 
388.0003597734465 2651.0 NaN 1518.3620574482295 0.5317761337985888 391.0 74.0 290.0 
390.0003597734465 2651.0 NaN 1515.174348697394 0.5266896333496606 387.0 75.0 288.0 
392.0003597734465 2645.0 NaN 1515.3293253173003 0.5392205360076568 385.0 77.0 286.0 
394.0003597734465 2621.0 NaN 1515.206412825652 0.5237100728137742 388.0 74.0 289.0 
396.0003597734465 2649.0 NaN 1518.231128924516 0.5275288844955538 391.0 71.0 293.0 
398.0003597734465 2645.0 NaN 1512.0801603206423 0.522735068206254 388.0 76.0 286.0 
400.0003597734465 2655.0 NaN 1512.1790247161 0.5259875023457347 386.0 78.0 284.0 
402.0003597734465 2644.0 NaN 1515.219772879091 0.5364442645341085 394.0 72.0 291.0 
404.0003597734465 2630.0 NaN 1515.241148964597 0.5212794622850395 398.0 70.0 293.0 
406.0003597734465 2655.0 NaN 1515.2224448897814 0.5273118862794425 399.0 69.0 294.0 
408.0003597734465 2638.0 NaN 1518.420841683366 0.5304263772623717 400.0 68.0 296.0 
410.0003597734465 2634.0 NaN 1521.349365397463 0.526787780276375 408.0 61.0 304.0 
412.0003597734465 2636.0 NaN 1527.722110888445 0.531838317446992 408.0 62.0 305.0 
414.0003597734465 2634.0 NaN 1530.6853707414816 0.5323568858017121 410.0 60.0 308.0 
416.0003597734465 2634.0 NaN 1533.776887107548 0.5361384926029261 412.0 59.0 310.0 
418.0003597734465 2608.0 NaN 1518.233800935203 0.5179845529094284 408.0 63.0 301.0 
420.0003597734465 2628.0 NaN 1515.3026052104206 0.5184097595071653 405.0 62.0 301.0 
422.0003597734465 2624.0 NaN 1515.219772879091 0.5286216629897617 404.0 65.0 298.0 
424.0003597734465 2620.0 NaN 1515.1529726118908 0.5163736065505855 406.0 66.0 297.0 
426.0003597734465 2646.0 NaN 1512.04008016032 0.5287154499998995 409.0 64.0 298.0 
428.0003597734465 2630.0 NaN 1515.2705410821636 0.531887913803146 405.0 67.0 296.0 
430.0003597734465 2650.0 NaN 1515.1315965263848 0.5301814146409266 408.0 66.0 297.0 
432.0003597734465 2625.0 NaN 1515.2304609218445 0.5459517973254866 406.0 71.0 292.0 
434.0003597734465 2609.0 NaN 1521.2959251837 0.5235543330758914 409.0 68.0 297.0 
436.0003597734465 2620.0 NaN 1524.288577154309 0.5350972606491253 407.0 68.0 298.0 
438.0003597734465 2610.0 NaN 1527.5083500334 0.528840633850748 404.0 70.0 297.0 
440.0003597734465 2644.0 NaN 1527.4575818303274 0.5319947661666778 410.0 67.0 300.0 
442.0003597734465 2638.0 NaN 1533.5551102204392 0.5352529236316828 404.0 72.0 297.0 
444.0003597734465 2636.0 NaN 1530.5090180360728 0.5222266219147401 402.0 73.0 295.0 
446.0003597734465 2633.0 NaN 1527.318637274548 0.5339526123202395 407.0 67.0 300.0 
448.0003597734465 2607.0 NaN 1539.8396793587183 0.5307856488374281 401.0 73.0 298.0 
450.0003597734465 2630.0 NaN 1545.9265197060793 0.5404948355299726 406.0 71.0 302.0 
452.0003597734465 2596.0 NaN 1549.0607882431543 0.5336683974582035 407.0 71.0 303.0 
454.0003597734465 2590.0 NaN 1548.9806279225118 0.5179832333147979 404.0 72.0 302.0 
456.0003597734465 2596.0 NaN 1549.0153640614546 0.5282965114014444 400.0 75.0 299.0 
458.0003597734465 2579.0 NaN 1549.0394121576483 0.5152592943797041 403.0 72.0 302.0 
460.0003597734465 2598.0 NaN 1549.0794923179699 0.527371358947465 401.0 76.0 298.0 
462.0003597734465 2584.0 NaN 1545.9211756847026 0.531587305487754 403.0 73.0 300.0 
464.0003597734465 2575.0 NaN 1542.8189712758845 0.5250535476046289 405.0 71.0 301.0 
466.0003597734465 2578.0 NaN 1545.849031396127 0.5325590861578068 405.0 72.0 301.0 
468.0003597734465 2561.0 NaN 1542.7922511690056 0.5250104461229195 403.0 74.0 298.0 
470.0003597734465 2574.0 NaN 1542.666666666666 0.538847068621116 407.0 69.0 303.0 
472.0003597734465 2572.0 NaN 1542.738810955245 0.5314283568734655 404.0 73.0 299.0 
474.0003597734465 2555.0 NaN 1533.3653974615909 0.521869133615011 400.0 75.0 294.0 
476.0003597734465 2572.0 NaN 1527.273213092854 0.5291414909981043 404.0 73.0 294.0 
478.0003597734465 2558.0 NaN 1521.1356045424182 0.5301822199391065 402.0 73.0 292.0 
480.0003597734465 2582.0 NaN 1524.2965931863728 0.5361656804950888 402.0 71.0 295.0 
482.0003597734465 2565.0 NaN 1524.3446893787568 0.5322327436682548 399.0 74.0 292.0 
484.0003597734465 2568.0 NaN 1521.277221108884 0.5291889737883674 398.0 76.0 289.0 
486.0003597734465 2588.0 NaN 1518.1028724114904 0.535691076768662 406.0 65.0 299.0 
488.0003597734465 2560.0 NaN 1508.9512358049446 0.5150397679833238 401.0 68.0 293.0 
490.0003597734465 2574.0 NaN 1502.8857715430852 0.5261707373333877 401.0 66.0 293.0 
492.0003597734465 2567.0 NaN 1493.629926519707 0.5349918206041302 394.0 71.0 285.0 
494.0003597734465 2545.0 NaN 1493.6165664662647 0.5151070026692126 391.0 74.0 282.0 
496.0003597734465 2566.0 NaN 1493.6406145624574 0.5180622820161639 390.0 71.0 285.0 
498.0003597734465 2554.0 NaN 1493.6352705410818 0.5152726293660147 384.0 72.0 284.0 
500.0003597734465 2568.0 NaN 1487.5430861723453 0.5228520693627323 385.0 72.0 282.0 
502.0003597734465 2560.0 NaN 1481.2184368737467 0.5192616455152619 385.0 74.0 278.0 
504.0003597734465 2557.0 NaN 1481.3493653974624 0.5150168869251208 381.0 77.0 275.0 
506.0003597734465 2588.0 NaN 1490.4048096192373 0.5294963126405333 386.0 75.0 280.0 
508.0003597734465 2577.0 NaN 1490.5651302605202 0.5270529800489171 380.0 78.0 277.0 
510.0003597734465 2592.0 NaN 1490.5384101536395 0.5265282398723744 382.0 77.0 278.0 
512.0003597734465 2583.0 NaN 1490.6052104208427 0.5254024261374896 380.0 79.0 276.0 
514.0003597734465 2571.0 NaN 1487.4575818303274 0.5158819759729474 378.0 78.0 276.0 
516.0003597734465 2598.0 NaN 1478.3273213092846 0.5317240994617881 378.0 76.0 275.0 
518.0003597734465 2566.0 NaN 1466.041416165664 0.5185463944828068 376.0 76.0 271.0 
520.0003597734465 2579.0 NaN 1459.8744154976628 0.5280929357426282 378.0 71.0 274.0 
522.0003597734465 2571.0 NaN 1459.8770875083487 0.534811305257329 372.0 72.0 273.0 
524.0003597734465 2560.0 NaN 1463.072812291248 0.5205063423560441 369.0 74.0 272.0 
526.0003597734465 2572.0 NaN 1456.6573146292576 0.5321761533859757 372.0 73.0 271.0 
528.0003597734465 2554.0 NaN 1453.718102872411 0.5257059231071566 375.0 68.0 275.0 
530.0003597734465 2567.0 NaN 1450.5758183032729 0.524645483341874 379.0 66.0 276.0 
532.0003597734465 2574.0 NaN 1459.8370073480285 0.5312160346746134 378.0 70.0 275.0 
534.0003597734465 2561.0 NaN 1459.8236472945898 0.5258355769257221 377.0 68.0 277.0 
536.0003597734465 2589.0 NaN 1459.8557114228454 0.5336945163611114 383.0 66.0 279.0 
538.0003597734465 2575.0 NaN 1459.9038076152299 0.5215418336952572 379.0 70.0 275.0 
540.0003597734465 2583.0 NaN 1463.0140280561118 0.5225221138270967 382.0 67.0 279.0 
542.0003597734465 2575.0 NaN 1469.0527722110899 0.5304319254280331 383.0 68.0 280.0 
544.0003597734465 2563.0 NaN 1472.0587842351365 0.519400173290373 385.0 69.0 280.0 
546.0003597734465 2580.0 NaN 1468.9913159652635 0.5252852819094589 389.0 68.0 280.0 
548.0003597734465 2562.0 NaN 1466.0146960587838 0.5280003486962476 381.0 74.0 273.0 
550.0003597734465 2556.0 NaN 1465.9345357381433 0.5255915434270872 377.0 79.0 268.0 
552.0003597734465 2546.0 NaN 1465.862391449565 0.513909165858728 382.0 72.0 275.0 
554.0003597734465 2558.0 NaN 1465.9986639946553 0.521647810911462 383.0 74.0 273.0 
556.0003597734465 2573.0 NaN 1468.9298597194384 0.5306062187484447 388.0 69.0 279.0 
558.0003597734465 2560.0 NaN 1466.0253841015365 0.5250984388333299 379.0 76.0 271.0 
560.0003597734465 2567.0 NaN 1462.8964595858376 0.5291321525961107 373.0 78.0 268.0 
562.0003597734465 2562.0 NaN 1459.7969271877091 0.5249496824834333 375.0 77.0 268.0 
564.0003597734465 2573.0 NaN 1456.7535070140275 0.5348067767326604 379.0 76.0 268.0 
566.0003597734465 2558.0 NaN 1462.901803607214 0.5429628679890135 386.0 69.0 277.0 
568.0003597734465 2549.0 NaN 1484.456913827655 0.5228172350951391 382.0 74.0 279.0 
570.0003597734465 2554.0 NaN 1484.5237140948557 0.5225190686118544 385.0 72.0 281.0 
572.0003597734465 2542.0 NaN 1481.520374081497 0.5266201665116832 383.0 75.0 277.0 
574.0003597734465 2542.0 NaN 1478.415497661991 0.5299815318321004 390.0 68.0 283.0 
576.0003597734465 2566.0 NaN 1487.5564462257842 0.5373048879957885 393.0 66.0 288.0 
578.0003597734465 2543.0 NaN 1481.5070140280557 0.5221618235636556 390.0 66.0 286.0 
580.0003597734465 2564.0 NaN 1487.5110220440888 0.5224425657061125 391.0 66.0 288.0 
582.0003597734465 2556.0 NaN 1487.7274549098192 0.5282932389505943 394.0 66.0 288.0 
584.0003597734465 2568.0 NaN 1490.6773547094183 0.5170832433684104 393.0 66.0 289.0 
586.0003597734465 2583.0 NaN 1490.5758183032729 0.5266999039329043 402.0 61.0 294.0 
588.0003597734465 2573.0 NaN 1487.5511022044093 0.5263744141473932 397.0 67.0 287.0 
590.0003597734465 2575.0 NaN 1490.6319305277211 0.5312100726260117 405.0 60.0 295.0 
592.0003597734465 2560.0 NaN 1490.5330661322637 0.5268812214410212 403.0 63.0 292.0 
594.0003597734465 2570.0 NaN 1493.6619906479634 0.52060383718056 406.0 62.0 294.0 
596.0003597734465 2581.0 NaN 1490.5758183032729 0.5252475983733126 414.0 60.0 295.0 
598.0003597734465 2566.0 NaN 1493.504342017367 0.5138598347336989 411.0 63.0 293.0 
600.0003597734465 2585.0 NaN 1493.6967267869077 0.5151007551272317 407.0 67.0 289.0 
602.0003597734465 2580.0 NaN 1502.8964595858376 0.521257984779352 408.0 67.0 292.0 
604.0003597734465 2583.0 NaN 1502.8269873079485 0.523228605018178 404.0 68.0 291.0 
606.0003597734465 2591.0 NaN 1502.837675350701 0.5374769146834022 405.0 66.0 293.0 
608.0003597734465 2571.0 NaN 1505.942551770208 0.5137786974482519 399.0 71.0 289.0 
610.0003597734465 2588.0 NaN 1512.157648630594 0.5198235431973306 400.0 70.0 292.0 
612.0003597734465 2604.0 NaN 1512.2084168336667 0.5304063504606296 396.0 74.0 288.0 
614.0003597734465 2602.0 NaN 1509.1302605210424 0.5257482796513254 392.0 75.0 286.0 
616.0003597734465 2620.0 NaN 1509.0367401469614 0.5313028098378001 391.0 77.0 284.0 
618.0003597734465 2602.0 NaN 1509.0821643286567 0.5185476396469572 393.0 76.0 285.0 
620.0003597734465 2626.0 NaN 1515.1609886439546 0.5420879559711997 397.0 73.0 290.0 
622.0003597734465 2613.0 NaN 1527.5323981295917 0.5327085744343552 389.0 80.0 287.0 
624.0003597734465 2616.0 NaN 1524.4382097528385 0.522445148557441 387.0 81.0 285.0 
626.0003597734465 2646.0 NaN 1527.4896459585825 0.5476779494424214 393.0 75.0 292.0 
628.0003597734465 2616.0 NaN 1527.5831663326644 0.5274954746002305 389.0 76.0 291.0 
630.0003597734465 2642.0 NaN 1521.4776219104886 0.5402707597506062 396.0 68.0 297.0 
632.0003597734465 2626.0 NaN 1521.360053440215 0.5413467428334885 395.0 67.0 298.0 
634.0003597734465 2630.0 NaN 1524.6092184368727 0.5223810972806541 392.0 71.0 295.0 
636.0003597734465 2672.0 NaN 1521.450901803608 0.5336288353447247 393.0 74.0 291.0 
638.0003597734465 2647.0 NaN 1518.3406813627262 0.5166521035069709 388.0 80.0 284.0 
640.0003597734465 2661.0 NaN 1518.295257181028 0.5376184366036469 385.0 83.0 281.0 
642.0003597734465 2644.0 NaN 1521.3734134936547 0.5275131780595658 389.0 80.0 285.0 
644.0003597734465 2637.0 NaN 1524.4114896459578 0.522120044879748 390.0 80.0 286.0 
646.0003597734465 2670.0 NaN 1524.3607214428848 0.5391094910563318 397.0 73.0 293.0 
648.0003597734465 2639.0 NaN 1524.472945891783 0.5233573871602591 392.0 78.0 288.0 
650.0003597734465 2635.0 NaN 1521.3306613226455 0.5472998515872705 395.0 71.0 294.0 
652.0003597734465 2597.0 NaN 1524.379425517701 0.5398858677152474 388.0 75.0 291.0 
654.0003597734465 2599.0 NaN 1524.3607214428848 0.5236196527115206 390.0 72.0 294.0 
656.0003597734465 2638.0 NaN 1530.479625918503 0.5510469925195198 393.0 70.0 298.0 
658.0003597734465 2639.0 NaN 1546.1162324649292 0.521286253526171 393.0 70.0 303.0 
660.0003597734465 2644.0 NaN 1545.9772879091527 0.5360129928447915 392.0 71.0 302.0 
662.0003597734465 2641.0 NaN 1546.0253841015365 0.5302735534684933 385.0 77.0 296.0 
664.0003597734465 2632.0 NaN 1542.845691382765 0.5284778568709037 383.0 78.0 294.0 
#####################################################################
# End of data export. Simulation finished at: 2019-03-06T22:46+0000 #
#####################################################################
