#####################################################################
# Alchemist log file - simulation started at: 2019-03-07T05:30+0000 #
#####################################################################
# seed = 5.0, bandwidth = 1000.0, propagationDelay = 0.01, baserange = 17.78279410038923
#
# The columns have the following meaning: 
# time neighbor_count[Sum] <value>@neighbor_count[Sum] packet_size[Mean] mean_delay[Mean] crowd[Sum] overcrowded[Sum] risk[Sum] 
0.0 NaN NaN NaN NaN NaN NaN NaN 
2.000101793669918 NaN NaN 4988.0 NaN 1497.0 0.0 1497.0 
4.000101793669918 NaN NaN 4988.0 NaN 1497.0 0.0 1497.0 
6.000101793669918 552.0 NaN 4988.785571142284 0.315945567406072 1497.0 0.0 1497.0 
8.000101793669918 1118.0 NaN 4994.455577822311 1.9864476465198848 1497.0 0.0 1497.0 
10.000101793669918 1118.0 NaN 4992.248496993988 3.986447646519885 1497.0 0.0 1497.0 
12.000101793669918 1118.0 NaN 4994.305945223781 3.0766183771979776 1497.0 0.0 1497.0 
14.000101793669918 1118.0 NaN 4992.256513026052 1.9962114664309445 1496.0 1.0 1496.0 
16.00010179366992 1118.0 NaN 4991.054108216433 3.9962114664309443 1496.0 1.0 1496.0 
18.00010179366992 1122.0 NaN 4992.291249164997 3.069512555534531 1495.0 2.0 1495.0 
20.00010179366992 1126.0 NaN 4991.708750835003 2.0853496528827113 1496.0 1.0 1496.0 
22.00010179366992 1126.0 NaN 4990.877755511022 3.998437587443039 1496.0 1.0 1496.0 
24.00010179366992 1127.0 NaN 4991.674014696059 3.165812391536453 1495.0 2.0 1495.0 
26.00010179366992 1128.0 NaN 4991.2678690714765 2.218710966794678 1492.0 5.0 1492.0 
28.00010179366992 1130.0 NaN 4990.554442217769 4.012907205931428 1492.0 5.0 1492.0 
30.00010179366992 1135.0 NaN 4991.000668002672 2.7626064235381955 1491.0 6.0 1491.0 
32.00010179366992 1137.0 NaN 4991.583166332665 2.46495522710852 1490.0 7.0 1490.0 
34.00010179366992 1138.0 NaN 4991.08617234469 3.9941007484549393 1490.0 7.0 1490.0 
36.00010179366992 1138.0 NaN 4991.730126920507 3.034532435477756 1490.0 7.0 1490.0 
38.00010179366992 1141.0 NaN 4990.957915831664 2.6501762096223165 1490.0 7.0 1490.0 
40.00010179366992 1145.0 NaN 4990.522378089512 3.655154496564563 1490.0 7.0 1490.0 
42.00010179366992 1148.0 NaN 4990.778891115565 3.239938741642375 1490.0 7.0 1490.0 
44.00010179366992 1152.0 NaN 4991.559118236473 2.5365906257910122 1490.0 7.0 1490.0 
46.00010179366992 1153.0 NaN 4991.152972611891 3.866473926249638 1490.0 7.0 1490.0 
48.00010179366992 1164.0 NaN 4991.676686706747 3.2864400374209084 1490.0 7.0 1490.0 
50.00010179366992 1169.0 NaN 4991.022044088177 2.1923843269912537 1490.0 7.0 1490.0 
52.00010179366992 1172.0 NaN 4990.637274549098 4.030624351166414 1490.0 7.0 1490.0 
54.00010179366992 1176.0 NaN 4990.979291917168 3.245474606877382 1490.0 7.0 1490.0 
56.00010179366992 1181.0 NaN 4991.401469605878 2.4293607651564595 1490.0 7.0 1490.0 
58.00010179366992 1185.0 NaN 4990.979291917168 4.206402491059136 1490.0 7.0 1490.0 
60.00010179366992 1192.0 NaN 4988.366065464262 2.9506966823876257 1489.0 7.0 1489.0 
62.00010179366992 1195.0 NaN 977.6032064128275 2.3302885290893594 488.0 6.0 182.0 
64.00010179366993 1201.0 NaN 983.8156312625276 3.2263606418882445 486.0 6.0 184.0 
66.00010179366993 1214.0 NaN 996.1389445557805 2.4680426741232764 469.0 6.0 188.0 
68.00010179366993 1219.0 NaN 995.8797595190363 2.1231801265468295 437.0 6.0 188.0 
70.00010179366993 1221.0 NaN 995.8583834335351 2.701990674139597 397.0 6.0 188.0 
72.00010179366993 1219.0 NaN 995.9225116900453 2.5680009130398336 366.0 6.0 188.0 
74.00010179366993 1215.0 NaN 995.951903807617 2.0654375649114 351.0 6.0 188.0 
76.00010179366993 1218.0 NaN 995.9225116900453 2.799816315908662 342.0 6.0 188.0 
78.00010179366993 1216.0 NaN 996.0133600534376 2.6526852447521434 329.0 6.0 188.0 
80.00010179366993 1212.0 NaN 995.8637274549089 2.2628734207245604 326.0 6.0 188.0 
82.00010179366993 1215.0 NaN 995.8797595190363 2.9642886670314534 322.0 6.0 188.0 
84.00010179366993 1203.0 NaN 995.9572478289907 2.5645854872689244 313.0 6.0 188.0 
86.00010179366993 1189.0 NaN 995.8557114228454 2.185509627654818 308.0 6.0 188.0 
88.00010179366993 1189.0 NaN 1001.993319973282 2.5630841750841493 302.0 6.0 190.0 
90.00010179366993 1187.0 NaN 1005.063460253844 2.2871085212966102 300.0 6.0 191.0 
92.00010179366993 1187.0 NaN 1005.031396125583 2.1052797071624085 295.0 6.0 191.0 
94.00010179366993 1188.0 NaN 1008.109552438209 2.529358989689592 290.0 6.0 192.0 
96.00010179366993 1186.0 NaN 1008.109552438209 2.456704261040146 290.0 6.0 192.0 
98.00010179366993 1187.0 NaN 1011.1850367401453 2.156066880041083 288.0 6.0 193.0 
100.00010179366993 1188.0 NaN 1011.1957247829001 2.6554886050201225 288.0 6.0 193.0 
102.00010179366993 1188.0 NaN 1011.2304609218456 2.592016397923643 289.0 6.0 193.0 
104.00010179366993 1181.0 NaN 1014.263193052773 2.093934803929216 288.0 6.0 194.0 
106.00010179366993 1181.0 NaN 1014.2738810955259 2.7523823379242796 288.0 6.0 194.0 
108.00010179366993 1183.0 NaN 1017.349365397464 2.5851206114412766 290.0 6.0 195.0 
110.00010179366993 1179.0 NaN 1017.349365397464 2.1890526579916623 291.0 6.0 195.0 
112.00010179366993 1180.0 NaN 1017.3466933867725 2.862223491504349 291.0 6.0 195.0 
114.00010179366993 1178.0 NaN 1020.4756179024731 2.613171531724175 291.0 6.0 196.0 
116.00010179366993 1185.0 NaN 1020.3687374749464 2.314053613016564 289.0 6.0 196.0 
118.00010179366993 1185.0 NaN 1020.3126252504998 2.9613335009377626 289.0 6.0 196.0 
120.00010179366993 1192.0 NaN 1017.3547094188363 2.6986247870594617 290.0 6.0 195.0 
122.00010179366993 1204.0 NaN 1020.4328657314638 2.503759571187032 291.0 6.0 196.0 
124.00010179366993 1204.0 NaN 1020.3794255176997 2.8781594206739243 290.0 6.0 196.0 
126.00010179366993 1198.0 NaN 1023.5591182364726 2.6890839438362284 288.0 6.0 197.0 
128.00010179366993 1198.0 NaN 1023.4388777555089 2.3879057882720005 287.0 6.0 197.0 
130.00010179366993 1199.0 NaN 1023.4468937875743 2.7677454613747265 286.0 6.0 197.0 
132.00010179366993 1204.0 NaN 1017.349365397464 2.6441870426264664 289.0 6.0 195.0 
134.00010179366993 1201.0 NaN 1020.4756179024731 2.209469386535451 288.0 6.0 196.0 
136.00010179366993 1202.0 NaN 1020.4141616566453 2.728594293742491 288.0 6.0 196.0 
138.00010179366993 1203.0 NaN 1020.4969939879742 2.5569200551130584 287.0 6.0 196.0 
140.00010179366993 1212.0 NaN 1020.3794255176998 2.154796439937289 284.0 6.0 196.0 
142.00010179366993 1216.0 NaN 1017.2985971943912 2.779712442048668 285.0 6.0 195.0 
144.00010179366993 1216.0 NaN 1020.4435537742169 2.5361434498614637 286.0 6.0 196.0 
146.00010179366993 1210.0 NaN 1017.4001336005366 2.2295312001728553 286.0 6.0 195.0 
148.00010179366993 1221.0 NaN 1017.3466933867725 2.726800465401915 287.0 6.0 195.0 
150.00010179366993 1240.0 NaN 1023.5243820975269 2.4311332098710556 289.0 6.0 197.0 
152.00010179366993 1238.0 NaN 1023.4869739478987 2.2445589485459103 288.0 6.0 197.0 
154.00010179366993 1242.0 NaN 1026.5277221108897 2.764403148307128 289.0 6.0 198.0 
156.00010179366993 1252.0 NaN 1026.6185704742816 2.637699623032079 288.0 6.0 198.0 
158.00010179366993 1244.0 NaN 1026.5517702070822 2.3185774286703644 288.0 6.0 198.0 
160.00010179366993 1248.0 NaN 1026.573146292583 2.6801129102352195 290.0 6.0 198.0 
162.00010179366993 1250.0 NaN 1029.7261189044739 2.536651826198047 289.0 6.0 199.0 
164.00010179366993 1245.0 NaN 1023.4896459585816 2.2879395965071256 289.0 6.0 197.0 
166.00010179366993 1249.0 NaN 1023.5163660654634 2.877419225569468 290.0 6.0 197.0 
168.00010179366993 1254.0 NaN 1023.5270541082184 2.6604545703800695 291.0 6.0 197.0 
170.00010179366993 1258.0 NaN 1023.4896459585816 2.454559543671321 291.0 6.0 197.0 
172.00010179366993 1259.0 NaN 1020.4168336673365 2.9063350722809105 292.0 6.0 196.0 
174.00010179366993 1254.0 NaN 1020.5237140948543 2.636755620827884 290.0 6.0 196.0 
176.00010179366993 1263.0 NaN 1020.454241816965 2.5203146730698975 290.0 6.0 196.0 
178.00010179366993 1268.0 NaN 1017.3734134936548 3.048824929913751 290.0 6.0 195.0 
180.00010179366993 1265.0 NaN 1014.338009352036 2.740653318130703 289.0 6.0 194.0 
182.00010179366993 1256.0 NaN 1014.2525050100181 2.6362195138503677 288.0 6.0 194.0 
184.00010179366993 1260.0 NaN 1014.3299933199725 2.987383182687294 286.0 6.0 194.0 
186.00010179366993 1248.0 NaN 1005.1356045424182 2.8348353611674613 285.0 6.0 191.0 
188.00010179366993 1244.0 NaN 1008.152304609218 2.3921180784395726 283.0 6.0 192.0 
190.00010179366993 1243.0 NaN 1008.1229124916531 2.7146127508615208 282.0 6.0 192.0 
192.00010179366993 1236.0 NaN 1008.0748162992636 2.647771150458614 281.0 6.0 192.0 
194.00010179366993 1232.0 NaN 1005.0607882431544 2.3909692262424898 283.0 6.0 191.0 
196.00010179366993 1237.0 NaN 1011.1743486973924 2.9150489563218285 282.0 6.0 193.0 
198.00010179366993 1243.0 NaN 1017.4054776219091 2.6715716700594645 284.0 6.0 195.0 
200.00010179366993 1243.0 NaN 1017.3787575150285 2.4303950919976085 286.0 6.0 195.0 
202.00010179366993 1242.0 NaN 1017.3734134936548 2.909322411129537 285.0 6.0 195.0 
204.00010179366993 1238.0 NaN 998.9899799599182 2.6212037841041704 284.0 6.0 189.0 
206.00010179366993 1236.0 NaN 998.923179692718 2.438384343758023 284.0 6.0 189.0 
208.00010179366993 1243.0 NaN 998.8804275217087 2.9649241471730825 284.0 6.0 189.0 
210.00010179366993 1249.0 NaN 1001.9986639946545 2.691318263786697 284.0 6.0 190.0 
212.00010179366993 1252.0 NaN 1005.007348029391 2.528625373511557 286.0 6.0 191.0 
214.00010179366993 1244.0 NaN 1004.988643954574 2.8363813774492397 287.0 6.0 191.0 
216.00010179366993 1238.0 NaN 1008.0961923847714 2.5633616153780348 286.0 6.0 192.0 
218.00010179366993 1237.0 NaN 1008.0881763527074 2.4064933228241525 287.0 6.0 192.0 
220.00010179366993 1245.0 NaN 1005.0126920507654 2.819938094648138 286.0 6.0 191.0 
222.00010179366993 1244.0 NaN 1008.109552438209 2.6806548018702703 287.0 6.0 192.0 
224.00010179366993 1244.0 NaN 1008.0641282565113 2.471148918649777 288.0 6.0 192.0 
226.00010179366993 1245.0 NaN 1011.1636606546438 3.111973892739828 287.0 6.0 193.0 
228.00010179366993 1242.0 NaN 1011.2197728790907 2.878723444915535 285.0 7.0 192.0 
230.00010179366993 1243.0 NaN 1011.2037408149638 2.66653148070924 280.0 12.0 187.0 
232.00010179366993 1254.0 NaN 1011.1850367401455 3.2244713302082664 278.0 12.0 187.0 
234.00010179366993 1251.0 NaN 1017.3787575150285 3.003220079526907 278.0 12.0 189.0 
236.00010179366993 1257.0 NaN 1017.3520374081468 2.8670815472770848 278.0 12.0 189.0 
238.00010179366993 1259.0 NaN 1011.1716766867077 3.211031734647506 279.0 12.0 187.0 
240.00010179366993 1254.0 NaN 1017.3734134936548 2.8009903922670336 287.0 7.0 194.0 
242.00010179366993 1250.0 NaN 1023.5003340013365 2.73919134580946 287.0 6.0 197.0 
244.00010179366993 1251.0 NaN 1023.4522378089536 3.2480283149158096 287.0 6.0 197.0 
246.00010179366993 1251.0 NaN 1017.3894455577816 3.1523352312605324 286.0 6.0 195.0 
248.00010179366993 1242.0 NaN 1011.2090848363376 2.924104359958278 286.0 6.0 193.0 
250.00010179366993 1236.0 NaN 1011.2277889111543 3.2966645210073 286.0 6.0 193.0 
252.00010179366993 1229.0 NaN 1008.109552438209 3.1176515700035603 287.0 6.0 192.0 
254.00010179366993 1235.0 NaN 1008.0721442885746 2.845937133609343 286.0 6.0 192.0 
256.00010179366996 1231.0 NaN 1008.0828323313272 3.375565069258506 287.0 6.0 192.0 
258.00010179366996 1229.0 NaN 1005.020708082835 3.06401472346665 287.0 6.0 191.0 
260.00010179366996 1231.0 NaN 1001.939879759518 2.7073905884019798 284.0 6.0 190.0 
262.00010179366996 1224.0 NaN 998.8376753506999 3.08583653208691 282.0 6.0 189.0 
264.00010179366996 1225.0 NaN 1005.031396125583 2.8243754972103208 283.0 6.0 191.0 
266.00010179366996 1220.0 NaN 1005.0581162324636 2.5857884843555388 283.0 6.0 191.0 
268.00010179366996 1209.0 NaN 1005.031396125583 3.0362390995910147 282.0 6.0 191.0 
270.00010179366996 1209.0 NaN 1005.0607882431545 2.5936036616353766 284.0 6.0 191.0 
272.00010179366996 1212.0 NaN 1008.093520374082 2.5373222336819214 287.0 6.0 192.0 
274.00010179366996 1219.0 NaN 1020.4355377421532 3.0097664350892734 288.0 6.0 196.0 
276.00010179366996 1216.0 NaN 1017.3440213760832 2.9317398482717616 288.0 6.0 195.0 
278.00010179366996 1214.0 NaN 1017.3039412157636 2.7935428158358313 292.0 6.0 195.0 
280.00010179366996 1214.0 NaN 1017.3653974615912 3.1947432153761666 293.0 6.0 195.0 
282.00010179366996 1212.0 NaN 1017.3413493653986 3.2496394947885516 293.0 6.0 195.0 
284.00010179366996 1211.0 NaN 1011.1716766867074 3.121843521244435 291.0 6.0 193.0 
286.00010179366996 1207.0 NaN 1008.0774883099546 3.643486859422895 291.0 6.0 192.0 
288.00010179366996 1196.0 NaN 1004.9966599866382 3.228897792984349 288.0 6.0 191.0 
290.00010179366996 1191.0 NaN 1005.0714762859074 2.9554006826372228 286.0 6.0 191.0 
292.00010179366996 1192.0 NaN 998.9124916499657 3.2041413196715824 287.0 6.0 189.0 
294.00010179366996 1192.0 NaN 998.9365397461572 2.8436869632616166 284.0 6.0 189.0 
296.00010179366996 1189.0 NaN 1008.1229124916522 2.66963520216985 287.0 6.0 192.0 
298.00010179366996 1196.0 NaN 1008.0721442885754 3.149020396067759 287.0 6.0 192.0 
300.00010179366996 1201.0 NaN 1008.0961923847705 2.8626675825087964 286.0 6.0 192.0 
302.00010179366996 1196.0 NaN 1008.026720106882 2.6154100442760173 286.0 6.0 192.0 
304.00010179366996 1197.0 NaN 1008.0347361389457 3.011951409619981 283.0 6.0 192.0 
306.00010179366996 1191.0 NaN 1001.9559118236454 2.556979217392708 284.0 6.0 190.0 
308.00010179366996 1177.0 NaN 998.8162992651969 2.2035441440564116 283.0 6.0 189.0 
310.00010179366996 1177.0 NaN 992.6867067468274 2.7200017063654425 283.0 6.0 187.0 
312.00010179366996 1182.0 NaN 989.5978623914492 2.559245653618678 282.0 6.0 186.0 
314.00010179366996 1185.0 NaN 995.7969271877092 2.376907839205114 279.0 6.0 188.0 
316.00010179366996 1190.0 NaN 992.6920507682033 2.993444861941949 280.0 6.0 187.0 
318.00010179366996 1184.0 NaN 992.7080828323307 2.8072619944063817 280.0 6.0 187.0 
320.00010179366996 1185.0 NaN 992.7134268537092 2.5255671062187313 284.0 6.0 187.0 
322.00010179366996 1191.0 NaN 992.7241148964602 2.9320536278377918 285.0 6.0 187.0 
324.00010179366996 1192.0 NaN 986.5624582498326 2.6726104210728567 284.0 6.0 185.0 
326.00010179366996 1197.0 NaN 995.7942551770212 2.586299578243938 285.0 6.0 188.0 
328.00010179366996 1196.0 NaN 998.8189712758848 2.8883350353964086 287.0 6.0 189.0 
330.00010179366996 1192.0 NaN 1001.9158316633274 2.598799044605487 287.0 6.0 190.0 
332.00010179366996 1189.0 NaN 1001.9211756847033 2.425003999271072 287.0 6.0 190.0 
334.00010179366996 1186.0 NaN 1001.8463593854364 2.7808386740447917 285.0 6.0 190.0 
336.00010179366996 1175.0 NaN 998.816299265197 2.6330645304801 284.0 6.0 189.0 
338.00010179366996 1183.0 NaN 1001.987975951903 2.5056837048298424 287.0 6.0 190.0 
340.00010179366996 1190.0 NaN 1004.961923847694 3.019268861998376 288.0 6.0 191.0 
342.00010179366996 1186.0 NaN 998.8243152972603 2.7968798166980506 287.0 6.0 189.0 
344.00010179366996 1190.0 NaN 998.8884435537727 2.4990211821821506 288.0 6.0 189.0 
346.00010179366996 1190.0 NaN 998.8964595858363 3.05625074308683 287.0 6.0 189.0 
348.00010179366996 1196.0 NaN 998.869739478958 2.939100492962034 289.0 6.0 189.0 
350.00010179366996 1199.0 NaN 1001.9291917167669 2.757901148237082 290.0 6.0 190.0 
352.00010179366996 1194.0 NaN 995.7515030060129 3.202163936576961 291.0 6.0 188.0 
354.00010179366996 1184.0 NaN 992.7080828323312 3.032678450184388 292.0 6.0 187.0 
356.00010179366996 1177.0 NaN 992.6947227788908 2.9650826447720813 293.0 6.0 187.0 
358.00010179366996 1172.0 NaN 992.6065464261858 3.320387838138183 293.0 6.0 187.0 
360.00010179366996 1180.0 NaN 992.6359385437546 3.052985218792951 293.0 6.0 187.0 
362.00010179366996 1177.0 NaN 995.7327989311963 2.8731831888787953 291.0 6.0 188.0 
364.00010179366996 1184.0 NaN 1001.806279225118 3.338600556450262 291.0 6.0 190.0 
366.00010179366996 1175.0 NaN 1001.8543754175001 3.234914396088601 290.0 6.0 190.0 
368.00010179366996 1167.0 NaN 1001.8436873747488 2.886298894514312 290.0 6.0 190.0 
370.00010179366996 1163.0 NaN 1001.8623914495637 3.1657639257411865 289.0 6.0 190.0 
372.00010179366996 1159.0 NaN 1001.8089512358058 2.971916518013391 289.0 6.0 190.0 
374.00010179366996 1162.0 NaN 1004.9084836339363 2.6988681776692918 288.0 6.0 191.0 
376.00010179366996 1163.0 NaN 1004.9058116232452 3.174178429717055 287.0 6.0 191.0 
378.00010179366996 1159.0 NaN 1001.8436873747488 2.858230634017267 288.0 6.0 190.0 
380.00010179366996 1162.0 NaN 992.6626586506362 2.6145139260121204 287.0 6.0 187.0 
382.00010179366996 1162.0 NaN 977.2184368737456 2.999835282616482 285.0 6.0 182.0 
384.00010179366996 1165.0 NaN 983.4522378089513 2.73631101535521 284.0 6.0 184.0 
386.00010179366996 1158.0 NaN 980.3794255177002 2.592551558300863 283.0 6.0 183.0 
388.00010179366996 1160.0 NaN 983.4415497662002 2.9690951512284705 284.0 6.0 184.0 
390.00010179366996 1156.0 NaN 980.3927855711415 2.599823534093646 283.0 6.0 183.0 
392.00010179366996 1164.0 NaN 965.0714762859052 2.4082036819829655 282.0 6.0 178.0 
394.00010179366996 1176.0 NaN 968.152304609218 2.724162626933743 281.0 6.0 179.0 
396.00010179366996 1169.0 NaN 971.2251169004671 2.677294556876074 279.0 6.0 180.0 
398.00010179366996 1166.0 NaN 974.3006012024058 2.381900827586488 278.0 6.0 181.0 
400.00010179366996 1171.0 NaN 968.1042084168332 2.7692420747124187 277.0 6.0 179.0 
402.00010179366996 1182.0 NaN 958.9311957247816 2.7259748108807047 275.0 6.0 176.0 
404.00010179366996 1193.0 NaN 962.0387441549759 2.630049949193751 278.0 6.0 177.0 
406.00010179366996 1192.0 NaN 962.0120240480967 3.1261601957328127 278.0 6.0 177.0 
408.00010179366996 1194.0 NaN 962.0414161656633 2.9002170714420936 278.0 6.0 177.0 
410.00010179366996 1192.0 NaN 959.0086840347365 2.676254848364916 276.0 6.0 176.0 
412.00010179366996 1194.0 NaN 952.8710754842999 3.1242897781536216 274.0 6.0 174.0 
414.00010179366996 1192.0 NaN 955.9839679358731 2.9252939475343185 275.0 6.0 175.0 
416.00010179366996 1190.0 NaN 955.8984635938546 2.70772680225602 272.0 6.0 175.0 
418.00010179366996 1192.0 NaN 955.9599198396787 3.2019183885670492 270.0 6.0 175.0 
420.00010179366996 1191.0 NaN 952.9084836339365 2.900746588281374 271.0 6.0 174.0 
422.00010179366996 1185.0 NaN 949.8543754174999 2.7280086802597734 270.0 6.0 173.0 
424.00010179366996 1187.0 NaN 940.5931863727454 3.1368328502715195 268.0 6.0 170.0 
426.00010179366996 1183.0 NaN 940.6466265865064 3.101059240614106 267.0 6.0 170.0 
428.00010179366996 1179.0 NaN 937.5283901135609 2.887005741287931 264.0 6.0 169.0 
430.00010179366996 1182.0 NaN 934.4128256513029 3.319476674489904 264.0 6.0 168.0 
432.00010179366996 1171.0 NaN 934.4208416833665 2.969849426346102 264.0 6.0 168.0 
434.00010179366996 1177.0 NaN 937.5337341349364 2.7090296086545895 265.0 6.0 169.0 
436.00010179366996 1191.0 NaN 937.4722778891121 3.2473685274480797 265.0 6.0 169.0 
438.00010179366996 1188.0 NaN 943.7461589846365 3.0498574499930036 266.0 6.0 171.0 
440.00010179366996 1196.0 NaN 959.0167000667998 2.703482038158971 268.0 6.0 176.0 
442.00010179366996 1188.0 NaN 958.9498997996003 2.9309607894769245 267.0 6.0 176.0 
444.00010179366996 1201.0 NaN 965.1997327989296 2.8116798419850153 269.0 6.0 178.0 
446.00010179366996 1207.0 NaN 971.2972611890457 2.754829130020008 269.0 6.0 180.0 
448.00010179366996 1210.0 NaN 968.2484969939886 3.1787886519084863 267.0 6.0 179.0 
450.00010179366996 1216.0 NaN 962.1643286573155 2.8207630440940727 265.0 6.0 177.0 
452.00010179366996 1213.0 NaN 965.2130928523727 2.6225440310748143 265.0 6.0 178.0 
454.00010179366996 1217.0 NaN 965.1703406813639 3.0433333629235575 267.0 6.0 178.0 
456.00010179366996 1221.0 NaN 965.1382765531068 3.026897849290333 266.0 6.0 178.0 
458.00010179366996 1227.0 NaN 965.1756847027386 2.847363679894205 269.0 6.0 178.0 
460.00010179366996 1227.0 NaN 962.0307281229118 3.239796798935121 270.0 6.0 177.0 
462.00010179366996 1230.0 NaN 965.138276553107 3.087145118915731 272.0 6.0 178.0 
464.00010179366996 1228.0 NaN 962.0173680694729 2.9923357058925406 270.0 6.0 177.0 
466.00010179366996 1225.0 NaN 965.1035404141636 3.496173554980872 267.0 6.0 178.0 
468.00010179366996 1215.0 NaN 965.122244488979 3.1171697385745203 267.0 6.0 178.0 
470.00010179366996 1207.0 NaN 965.1088844355365 2.7431877059529612 268.0 6.0 178.0 
472.00010179366996 1191.0 NaN 962.0494321977275 3.0793638012735123 269.0 6.0 177.0 
474.00010179366996 1184.0 NaN 959.0033400133603 2.8867021484690656 270.0 7.0 175.0 
476.00010179366996 1175.0 NaN 959.0033400133603 2.7712270807800765 266.0 11.0 171.0 
478.00010179366996 1181.0 NaN 958.9766199064818 3.2998870548698274 266.0 12.0 170.0 
480.00010179366996 1173.0 NaN 958.9953239812976 3.0504813070904544 265.0 14.0 168.0 
482.00010179366996 1172.0 NaN 958.9712758851024 2.8837843178502314 265.0 14.0 168.0 
484.00010179366996 1175.0 NaN 958.944555778225 3.4019871238668555 264.0 14.0 168.0 
486.00010179366996 1173.0 NaN 959.0113560454253 3.2738948830305623 263.0 14.0 168.0 
488.00010179366996 1166.0 NaN 958.944555778225 2.872601612329138 262.0 14.0 168.0 
490.00010179366996 1166.0 NaN 962.060120240482 3.160892355655836 258.0 14.0 169.0 
492.00010179366996 1169.0 NaN 962.0414161656635 3.084016597929038 259.0 14.0 169.0 
494.00010179366996 1164.0 NaN 962.0387441549749 2.5659223540388423 260.0 15.0 168.0 
496.00010179366996 1162.0 NaN 962.0334001335998 3.1129346059428125 259.0 16.0 167.0 
498.00010179366996 1158.0 NaN 955.8931195724792 2.925445883816434 256.0 16.0 165.0 
500.00010179366996 1158.0 NaN 949.7715430861729 2.5738320306973925 260.0 12.0 167.0 
502.00010179366996 1163.0 NaN 946.6506346025365 3.04875216700458 260.0 11.0 167.0 
504.00010179366996 1160.0 NaN 943.6232464929855 2.6637060708720863 260.0 10.0 167.0 
506.00010179366996 1156.0 NaN 943.6659986639944 2.532931635409201 259.0 8.0 169.0 
508.00010179366996 1153.0 NaN 940.5317301269217 2.8810814398866635 261.0 8.0 168.0 
510.00010179366996 1147.0 NaN 931.372077488309 2.531988801169079 260.0 9.0 164.0 
512.00010179367 1144.0 NaN 931.2945891783545 2.474906674962211 261.0 7.0 166.0 
514.00010179367 1145.0 NaN 928.2324649298594 2.8741879770741567 259.0 7.0 165.0 
516.00010179367 1137.0 NaN 919.0728122912499 2.758319724523287 254.0 9.0 160.0 
518.00010179367 1132.0 NaN 912.8951235804956 2.393312473725093 252.0 9.0 158.0 
520.00010179367 1133.0 NaN 909.8142952571819 2.8387504829542074 251.0 8.0 158.0 
522.00010179367 1130.0 NaN 909.8356713426864 2.6756081263193146 250.0 6.0 160.0 
524.00010179367 1128.0 NaN 912.8844355377415 2.357416107304302 248.0 6.0 161.0 
526.00010179367 1128.0 NaN 909.814295257182 2.875573236128916 246.0 6.0 160.0 
528.00010179367 1129.0 NaN 909.8169672678681 2.794947842880236 247.0 6.0 160.0 
530.00010179367 1125.0 NaN 912.9405477621908 2.5259953791451935 246.0 6.0 161.0 
532.00010179367 1130.0 NaN 912.9298597194404 2.9844284712578344 246.0 6.0 161.0 
534.00010179367 1143.0 NaN 919.0701402805595 2.8016907363399426 249.0 6.0 163.0 
536.00010179367 1147.0 NaN 925.2050768203088 2.5938197334477042 250.0 6.0 165.0 
538.00010179367 1149.0 NaN 922.1402805611226 2.970873941332469 252.0 6.0 164.0 
540.00010179367 1147.0 NaN 922.1670006680039 2.7754893328667665 252.0 6.0 164.0 
542.00010179367 1141.0 NaN 919.0941883767548 2.4545712468306613 252.0 6.0 163.0 
544.00010179367 1140.0 NaN 922.1536406145633 2.7904764935483484 253.0 6.0 164.0 
546.00010179367 1135.0 NaN 916.040080160322 2.785894827886771 253.0 6.0 162.0 
548.00010179367 1129.0 NaN 912.9378757515034 2.4791168433746837 252.0 6.0 161.0 
550.00010179367 1119.0 NaN 906.7949231796924 2.717042026398099 252.0 6.0 159.0 
552.00010179367 1122.0 NaN 906.8002672010682 2.6275777666354747 254.0 6.0 159.0 
554.00010179367 1119.0 NaN 906.7869071476285 2.4430887047165775 253.0 6.0 159.0 
556.00010179367 1117.0 NaN 906.7414829659317 2.8013144024601315 251.0 6.0 159.0 
558.00010179367 1117.0 NaN 903.69806279225 2.560393766697428 251.0 6.0 158.0 
560.00010179367 1126.0 NaN 900.6225784903136 2.222395063482404 252.0 6.0 157.0 
562.00010179367 1137.0 NaN 903.7515030060124 2.611020268350707 251.0 6.0 158.0 
564.00010179367 1153.0 NaN 909.9158316633273 2.5290582471263923 251.0 6.0 160.0 
566.00010179367 1155.0 NaN 912.9084836339355 2.4305286774443933 251.0 6.0 161.0 
568.00010179367 1160.0 NaN 912.9699398797591 2.8961281113064197 251.0 6.0 161.0 
570.00010179367 1164.0 NaN 916.0988643954583 2.559118211764136 252.0 6.0 162.0 
572.00010179367 1171.0 NaN 912.9645958583825 2.5581965042660366 253.0 6.0 161.0 
574.00010179367 1181.0 NaN 909.9211756847037 2.9049856519157267 253.0 6.0 160.0 
576.00010179367 1186.0 NaN 912.9886439545764 2.7871216191791963 255.0 6.0 161.0 
578.00010179367 1186.0 NaN 916.096192384769 2.7298789346906194 256.0 6.0 162.0 
580.00010179367 1195.0 NaN 916.0855043420181 3.156180376806544 256.0 6.0 162.0 
582.00010179367 1202.0 NaN 916.1015364061454 3.058497242090531 257.0 6.0 162.0 
584.00010179367 1213.0 NaN 919.1128924515688 2.8768073153325595 257.0 6.0 163.0 
586.00010179367 1206.0 NaN 922.1883767535085 3.384852081051589 257.0 6.0 164.0 
588.00010179367 1202.0 NaN 919.0915163660643 3.2747880086672176 259.0 6.0 163.0 
590.00010179367 1196.0 NaN 931.4255177020723 2.8378060952368864 259.0 6.0 167.0 
592.00010179367 1198.0 NaN 934.4475617902459 3.3163942323624562 259.0 6.0 168.0 
594.00010179367 1189.0 NaN 934.3807615230454 3.160174450165657 259.0 6.0 168.0 
596.00010179367 1188.0 NaN 940.4863059452227 2.924625967637298 261.0 6.0 170.0 
598.00010179367 1191.0 NaN 940.4542418169681 3.205934215557847 266.0 6.0 170.0 
600.00010179367 1182.0 NaN 937.448229792918 2.9330371246189593 265.0 6.0 169.0 
602.00010179367 1181.0 NaN 940.5023380093504 2.8453451981194635 266.0 6.0 170.0 
604.00010179367 1177.0 NaN 940.5076820307271 3.250298561294613 265.0 6.0 170.0 
606.00010179367 1179.0 NaN 946.6720106880414 3.0653756427304772 265.0 6.0 172.0 
608.00010179367 1180.0 NaN 946.6292585170363 2.7942951630172117 267.0 6.0 172.0 
610.00010179367 1184.0 NaN 943.6125584502323 2.957574687861316 268.0 6.0 171.0 
612.00010179367 1193.0 NaN 949.7742150968597 2.813648435894342 270.0 6.0 173.0 
614.00010179367 1196.0 NaN 952.7641950567814 2.7314838906182444 269.0 6.0 174.0 
616.00010179367 1200.0 NaN 952.774883099532 3.2031582008163304 268.0 6.0 174.0 
618.00010179367 1199.0 NaN 952.7989311957232 2.9898137248661127 268.0 6.0 174.0 
620.00010179367 1195.0 NaN 955.906479625918 2.6792873617390653 266.0 6.0 175.0 
622.00010179367 1197.0 NaN 955.8717434869731 3.1411496873160027 265.0 6.0 175.0 
624.00010179367 1202.0 NaN 962.0013360053453 3.1533918931761664 267.0 6.0 177.0 
626.00010179367 1203.0 NaN 962.0360721442872 3.114864396690663 267.0 6.0 177.0 
628.00010179367 1211.0 NaN 958.9686038744143 3.6038046574182454 265.0 6.0 176.0 
630.00010179367 1217.0 NaN 962.0975283901133 3.304151056835873 269.0 6.0 177.0 
632.00010179367 1216.0 NaN 962.0227120908494 3.0751769699165563 270.0 6.0 177.0 
634.00010179367 1224.0 NaN 958.9819639278544 3.4949002476618376 267.0 6.0 176.0 
636.00010179367 1240.0 NaN 959.064796259186 3.4445271493586453 266.0 6.0 176.0 
638.00010179367 1255.0 NaN 962.1082164328639 3.301376337655795 267.0 6.0 177.0 
640.00010179367 1259.0 NaN 971.4255177020725 3.2885825693229402 268.0 6.0 180.0 
642.00010179367 1263.0 NaN 980.5637942551771 3.1931562863748235 270.0 6.0 183.0 
644.00010179367 1262.0 NaN 974.4101536406137 2.9193861643409673 271.0 6.0 181.0 
646.00010179367 1268.0 NaN 980.6225784903139 3.432649274417932 274.0 6.0 183.0 
648.00010179367 1265.0 NaN 983.6686706746817 3.3123342972590395 274.0 6.0 184.0 
650.00010179367 1268.0 NaN 980.6573146292588 3.1693617457383656 272.0 6.0 183.0 
652.00010179367 1277.0 NaN 974.4582498330001 3.5711637340857765 275.0 6.0 181.0 
654.00010179367 1280.0 NaN 983.6900467601873 3.3871475802938993 279.0 6.0 184.0 
656.00010179367 1273.0 NaN 986.6933867735455 3.435696675290095 279.0 6.0 185.0 
658.00010179367 1272.0 NaN 992.844355377421 3.6262762531112758 280.0 6.0 187.0 
660.00010179367 1272.0 NaN 999.040748162991 3.5182045163307722 281.0 6.0 189.0 
662.00010179367 1272.0 NaN 999.0193720774887 3.3927834261318393 281.0 6.0 189.0 
664.00010179367 1265.0 NaN 1002.0708082832341 3.535038404748521 280.0 6.0 190.0 
#####################################################################
# End of data export. Simulation finished at: 2019-03-07T05:34+0000 #
#####################################################################
