#####################################################################
# Alchemist log file - simulation started at: 2019-03-07T15:06+0000 #
#####################################################################
# seed = 2.0, bandwidth = 1000.0, propagationDelay = 0.31622776601683794, baserange = 177.82794100389228
#
# The columns have the following meaning: 
# time neighbor_count[Sum] <value>@neighbor_count[Sum] packet_size[Mean] mean_delay[Mean] crowd[Sum] overcrowded[Sum] risk[Sum] 
0.0 NaN NaN NaN NaN NaN NaN NaN 
2.0005829790527505 NaN NaN 4988.0 NaN 1497.0 0.0 1497.0 
4.0005829790527505 NaN NaN 4988.0 NaN 1497.0 0.0 1497.0 
6.000475649638626 6020.0 NaN 4988.6706746826985 0.1855792258823908 1497.0 0.0 1497.0 
8.000582979052751 26544.0 NaN 4996.267201068804 1.6929189891886658 1497.0 0.0 1497.0 
10.000582979052751 26544.0 NaN 4996.12291249165 3.692918989188666 1497.0 0.0 1497.0 
12.000013142465916 26546.0 NaN 4996.085504342017 4.25538886296229 1497.0 0.0 1497.0 
14.000582979052751 26554.0 NaN 4993.886439545759 1.6948237608489072 1495.0 2.0 1495.0 
16.00058297905275 26554.0 NaN 4993.640614562458 3.6948237608489074 1495.0 2.0 1495.0 
18.000013142465914 26555.0 NaN 4993.651302605211 4.272878842925879 1495.0 2.0 1495.0 
20.00058297905275 26563.0 NaN 4995.374749498998 1.7072325773284456 1495.0 2.0 1495.0 
22.00058297905275 26563.0 NaN 4995.214428857716 3.707232577328446 1495.0 2.0 1495.0 
24.000013142465914 26568.0 NaN 4995.2785571142285 4.287179434673255 1495.0 2.0 1495.0 
26.00058297905275 26596.0 NaN 4993.742150968604 1.7300653900716008 1493.0 4.0 1493.0 
28.00058297905275 26596.0 NaN 4993.608550434202 3.7300653900716005 1493.0 4.0 1493.0 
30.000013142465914 26602.0 NaN 4993.63794255177 4.310410387030684 1493.0 4.0 1493.0 
32.00058297905275 26614.0 NaN 4995.3613894455575 1.7569722593710813 1493.0 4.0 1493.0 
34.00058297905275 26614.0 NaN 4995.22244488978 3.7569722593710813 1493.0 4.0 1493.0 
36.00001314246592 26626.0 NaN 4995.2892451569805 4.335830275598839 1493.0 4.0 1493.0 
38.00058297905275 26697.0 NaN 4993.774215096861 1.7981716654362103 1493.0 4.0 1493.0 
40.00058297905275 26697.0 NaN 4993.656646626587 3.79817166543621 1493.0 4.0 1493.0 
42.00001314246592 26710.0 NaN 4993.70741482966 4.3559323991114045 1493.0 4.0 1493.0 
44.00058297905275 26751.0 NaN 4995.396125584502 1.7867116005895263 1493.0 4.0 1493.0 
46.00058297905275 26751.0 NaN 4995.246492985972 3.7867116005895265 1493.0 4.0 1493.0 
48.00001314246592 26755.0 NaN 4995.294589178357 4.369584410406704 1493.0 4.0 1493.0 
50.00058297905275 26764.0 NaN 4993.822311289246 1.8068321263755753 1493.0 4.0 1493.0 
52.00058297905275 26764.0 NaN 4993.7207748831 3.8068321263755753 1493.0 4.0 1493.0 
54.00001314246592 26776.0 NaN 4993.744822979292 4.39527859572575 1493.0 4.0 1493.0 
56.00058297905275 26828.0 NaN 4995.3426853707415 1.8376753077550998 1493.0 4.0 1493.0 
58.00058297905275 26828.0 NaN 4995.206412825652 3.8376753077550996 1493.0 4.0 1493.0 
60.00001314246592 26824.0 NaN 4995.2651970607885 4.405475829799654 1493.0 4.0 1493.0 
62.000008231234965 26833.0 NaN 1516.5263861055455 1.1877795931028625 831.0 2.0 361.0 
64.00000823123497 26842.0 NaN 1519.5484301937208 1.954837475517655 702.0 2.0 362.0 
66.00000823123497 26847.0 NaN 1519.5190380761544 2.2384651740038475 657.0 2.0 362.0 
68.00000823123497 26860.0 NaN 1519.660654642618 0.9949891023165591 599.0 3.0 361.0 
70.00000823123497 26882.0 NaN 1519.6179024716089 1.5737504030949332 567.0 3.0 361.0 
72.00000823123497 26937.0 NaN 1519.6179024716089 1.7670280791804431 551.0 4.0 360.0 
74.00000823123497 26984.0 NaN 1522.551770207082 0.9849015963076119 537.0 4.0 361.0 
76.00000823123497 26991.0 NaN 1522.5464261857062 1.5774220917767077 535.0 4.0 361.0 
78.00000823123497 27003.0 NaN 1525.63794255177 1.7957184499959014 534.0 4.0 362.0 
80.00000823123497 26987.0 NaN 1528.8336673346698 0.9879347600431946 531.0 4.0 363.0 
82.00000823123497 26992.0 NaN 1528.8069472277907 1.586714964978507 530.0 4.0 363.0 
84.00000823123497 26988.0 NaN 1531.8931195724788 1.8053929008234 531.0 3.0 365.0 
86.00000823123497 26977.0 NaN 1531.7488309953244 1.0265525917196179 530.0 3.0 365.0 
88.00000823123497 26999.0 NaN 1531.732798931197 1.6293279165233463 529.0 3.0 365.0 
90.00000823123497 27004.0 NaN 1531.732798931197 1.8485222579976381 528.0 3.0 365.0 
92.00000823123497 26993.0 NaN 1531.8557114228454 1.0486857700526957 527.0 3.0 365.0 
94.00000823123497 26995.0 NaN 1531.8450233800936 1.6535455389393674 527.0 3.0 365.0 
96.00000823123497 27005.0 NaN 1531.85036740147 1.8572857791954593 526.0 3.0 365.0 
98.00000823123497 27014.0 NaN 1531.7354709418819 1.0896099601380393 525.0 3.0 365.0 
100.00000823123497 27011.0 NaN 1531.7354709418819 1.6842855847260811 525.0 3.0 365.0 
102.00000823123497 26995.0 NaN 1534.8056112224456 1.8482018813250782 525.0 3.0 366.0 
104.00000823123497 27006.0 NaN 1534.9231796927181 1.1003243625033559 525.0 3.0 366.0 
106.00000823123497 27016.0 NaN 1534.9392117568457 1.6778458181913705 524.0 3.0 366.0 
108.00000823123497 27054.0 NaN 1538.0093520374091 1.848560099663043 524.0 3.0 367.0 
110.00000823123497 27054.0 NaN 1537.8543754175003 1.062936948430851 524.0 3.0 367.0 
112.00000823123497 27059.0 NaN 1537.8543754175003 1.660748296199694 524.0 3.0 367.0 
114.00000823123497 27064.0 NaN 1537.8757515030065 1.8588890077929154 524.0 3.0 367.0 
116.00000823123497 27043.0 NaN 1541.0207080828334 1.05854158747107 527.0 3.0 368.0 
118.00000823123497 27039.0 NaN 1541.0207080828334 1.6207160709759256 527.0 3.0 368.0 
120.00000823123497 27052.0 NaN 1541.0180360721456 1.8229180852793618 527.0 3.0 368.0 
122.00000823123497 27070.0 NaN 1547.1182364729455 1.0543832478065678 528.0 2.0 371.0 
124.00000823123497 27073.0 NaN 1547.0915163660638 1.6400511514185274 528.0 2.0 371.0 
126.00000823123497 27064.0 NaN 1547.1075484301934 1.8340879123256981 528.0 2.0 371.0 
128.00000823123497 27070.0 NaN 1547.1289245157 1.0460404489721733 527.0 3.0 370.0 
130.00000823123497 27073.0 NaN 1547.1342685370728 1.630487038386607 527.0 3.0 370.0 
132.00000823123497 27080.0 NaN 1544.064128256512 1.8254005897768248 527.0 3.0 369.0 
134.00000823123497 27092.0 NaN 1544.0587842351363 1.0351670286172618 528.0 2.0 370.0 
136.00000823123497 27086.0 NaN 1544.053440213761 1.6212855816909741 528.0 2.0 370.0 
138.00000823123497 27098.0 NaN 1544.0668002671998 1.8308554154175833 524.0 2.0 370.0 
140.00000823123497 27063.0 NaN 1544.0748162992636 1.0490384344710513 522.0 2.0 370.0 
142.00000823123497 27076.0 NaN 1541.0046760187029 1.636670323717134 521.0 2.0 369.0 
144.00000823123497 27082.0 NaN 1541.0207080828334 1.8414748586338392 521.0 2.0 369.0 
146.00000823123497 27018.0 NaN 1550.257849031397 1.035311092954598 519.0 3.0 371.0 
148.00000823123497 27030.0 NaN 1553.3039412157636 1.6337220764167022 519.0 3.0 372.0 
150.00000823123497 27020.0 NaN 1547.1422845691366 1.8086025416295763 519.0 3.0 370.0 
152.00000823123497 26990.0 NaN 1541.0126920507666 1.02236561100093 522.0 3.0 368.0 
154.00000823123497 26993.0 NaN 1537.9158316633273 1.5956251166256636 518.0 3.0 367.0 
156.00000823123497 26987.0 NaN 1541.0046760187029 1.7857818653287425 514.0 3.0 368.0 
158.00000823123497 26965.0 NaN 1541.0153640614546 1.0289635168963693 517.0 2.0 369.0 
160.00000823123497 26957.0 NaN 1541.0126920507666 1.613209420322697 517.0 2.0 369.0 
162.00000823123497 26957.0 NaN 1540.999331997327 1.798378729125941 518.0 2.0 369.0 
164.00000823123497 26954.0 NaN 1544.0614562458272 1.0163095790693097 520.0 2.0 370.0 
166.00000823123497 26955.0 NaN 1544.0454241816972 1.5887435495489177 519.0 2.0 370.0 
168.00000823123497 26949.0 NaN 1544.053440213761 1.7886205510404223 519.0 2.0 370.0 
170.00000823123497 26898.0 NaN 1550.225784903139 1.0123418136268436 520.0 2.0 372.0 
172.00000823123497 26908.0 NaN 1547.1609886439546 1.6065255296386225 518.0 2.0 371.0 
174.00000823123497 26912.0 NaN 1547.1422845691366 1.8076341054391063 519.0 2.0 371.0 
176.00000823123497 26892.0 NaN 1544.0828323313276 1.0472917177197303 521.0 2.0 370.0 
178.00000823123497 26918.0 NaN 1540.999331997327 1.627478796991877 521.0 2.0 369.0 
180.00000823123497 26916.0 NaN 1541.0100200400818 1.834489247936185 521.0 2.0 369.0 
182.00000823123497 26894.0 NaN 1541.0100200400818 1.0892668091778503 521.0 2.0 369.0 
184.00000823123497 26907.0 NaN 1540.999331997327 1.6570435446914966 521.0 2.0 369.0 
186.00000823123497 26899.0 NaN 1537.9505678022726 1.842434179595881 520.0 2.0 368.0 
188.00000823123497 26853.0 NaN 1537.923847695391 1.0914320363028067 520.0 2.0 368.0 
190.00000823123497 26842.0 NaN 1537.907815631264 1.6781384384531581 520.0 2.0 368.0 
192.00000823123497 26831.0 NaN 1537.9398797595181 1.8695162240666428 520.0 2.0 368.0 
194.00000823123497 26801.0 NaN 1537.8490313961272 1.069471427704629 520.0 2.0 368.0 
196.00000823123497 26801.0 NaN 1537.8436873747485 1.657111453660553 520.0 2.0 368.0 
198.00000823123497 26797.0 NaN 1540.8897795591183 1.838889978799944 521.0 2.0 369.0 
200.00000823123497 26762.0 NaN 1544.1122244489 1.1100338290541771 521.0 2.0 370.0 
202.00000823123497 26754.0 NaN 1544.0801603206426 1.6848244501168268 521.0 2.0 370.0 
204.00000823123497 26744.0 NaN 1547.1609886439546 1.8695946845658482 522.0 2.0 371.0 
206.00000823123497 26718.0 NaN 1544.0320641282547 1.1410710179062988 523.0 2.0 370.0 
208.00000823123497 26717.0 NaN 1543.9652638610546 1.7533448459835996 523.0 2.0 370.0 
210.00000823123497 26707.0 NaN 1540.8951235804939 1.95881574117431 522.0 2.0 369.0 
212.00000823123497 26663.0 NaN 1541.052772211091 1.225034201772788 519.0 2.0 369.0 
214.00000823123497 26658.0 NaN 1540.999331997327 1.7769660093378827 517.0 2.0 369.0 
216.00000823123497 26650.0 NaN 1544.1175684702725 1.9316229116324821 515.0 2.0 370.0 
218.00000823123497 26626.0 NaN 1544.0 1.1903728231415625 517.0 2.0 370.0 
220.00000823123497 26631.0 NaN 1543.9412157648637 1.7971023339824403 519.0 2.0 370.0 
222.00000823123497 26615.0 NaN 1537.774215096861 1.980381473456755 520.0 2.0 368.0 
224.00000823123497 26584.0 NaN 1540.969939879761 1.2434563506633218 519.0 2.0 369.0 
226.00000823123497 26579.0 NaN 1540.9779559118244 1.834559862410316 520.0 2.0 369.0 
228.00000823123497 26561.0 NaN 1540.9779559118244 2.033414837742733 520.0 2.0 369.0 
230.00000823123497 26525.0 NaN 1537.8303273213091 1.3239055742342989 518.0 2.0 368.0 
232.00000823123497 26522.0 NaN 1540.873747494991 1.90725942188294 517.0 2.0 369.0 
234.00000823123497 26499.0 NaN 1540.830995323982 2.0002949607076337 516.0 2.0 369.0 
236.00000823123497 26469.0 NaN 1540.9352037408155 1.2384714849237874 516.0 2.0 369.0 
238.00000823123497 26467.0 NaN 1540.9084836339362 1.782925256737038 517.0 2.0 369.0 
240.00000823123497 26479.0 NaN 1540.9058116232454 1.9612425858353795 518.0 2.0 369.0 
242.00000823123497 26435.0 NaN 1537.7181028724112 1.2241079535364825 517.0 2.0 368.0 
244.00000823123497 26434.0 NaN 1537.7234468937882 1.730692442668162 515.0 2.0 368.0 
246.00000823123497 26448.0 NaN 1534.6506346025367 1.9243639488433573 514.0 2.0 367.0 
248.00000823123497 26430.0 NaN 1537.8196392785571 1.2014011126622586 518.0 2.0 368.0 
250.00000823123497 26442.0 NaN 1537.8089512358063 1.777510891882412 517.0 2.0 368.0 
252.00000823123497 26448.0 NaN 1537.806279225118 1.9226289629576165 517.0 2.0 368.0 
254.00000823123497 26420.0 NaN 1534.7014028056092 1.1797498108428157 515.0 2.0 367.0 
256.000008231235 26394.0 NaN 1534.6960587842364 1.7220700272239198 515.0 2.0 367.0 
258.0000082312349 26391.0 NaN 1534.6987307949244 1.8898235378359518 516.0 2.0 367.0 
260.0000082312349 26364.0 NaN 1534.7655310621246 1.1680451463190393 517.0 2.0 367.0 
262.0000082312349 26368.0 NaN 1534.7735470941884 1.7590532704997617 517.0 2.0 367.0 
264.0000082312349 26371.0 NaN 1531.7087508350028 1.9349185194756235 517.0 2.0 366.0 
266.0000082312349 26333.0 NaN 1528.5851703406818 1.1632591808315558 518.0 2.0 365.0 
268.0000082312349 26330.0 NaN 1531.6392785571152 1.7221817681441662 517.0 2.0 366.0 
270.0000082312349 26327.0 NaN 1534.6933867735456 1.8942321594460159 516.0 2.0 367.0 
272.0000082312349 26266.0 NaN 1531.6392785571154 1.1690563506573333 517.0 2.0 366.0 
274.0000082312349 26274.0 NaN 1543.9866399465614 1.6929301299409871 517.0 2.0 370.0 
276.0000082312349 26264.0 NaN 1537.8383433533727 1.8600688356776254 516.0 2.0 368.0 
278.0000082312349 26262.0 NaN 1537.7661990647973 1.1331712279015234 514.0 3.0 367.0 
280.0000082312349 26285.0 NaN 1540.8229792919183 1.6951322892841765 514.0 3.0 368.0 
282.0000082312349 26255.0 NaN 1537.7501670006666 1.8710975881815894 513.0 3.0 367.0 
284.0000082312349 26214.0 NaN 1537.8036072144273 1.1529464390065822 515.0 3.0 367.0 
286.0000082312349 26196.0 NaN 1537.8009352037393 1.6983533789150038 514.0 3.0 367.0 
288.0000082312349 26163.0 NaN 1537.8009352037393 1.8459589656884088 514.0 3.0 367.0 
290.0000082312349 26118.0 NaN 1537.7742150968613 1.1226080673502286 514.0 3.0 367.0 
292.0000082312349 26101.0 NaN 1534.7040748163001 1.6767617487598976 514.0 3.0 366.0 
294.0000082312349 26104.0 NaN 1525.5070140280548 1.8614552839482006 513.0 3.0 363.0 
296.0000082312349 26106.0 NaN 1525.5257181028728 1.1502958172746534 513.0 3.0 363.0 
298.0000082312349 26117.0 NaN 1528.6038744155 1.71171305209462 513.0 3.0 364.0 
300.0000082312349 26115.0 NaN 1528.5878423513702 1.8782401830984667 510.0 3.0 364.0 
302.0000082312349 26034.0 NaN 1528.5450901803613 1.1558057753092288 508.0 3.0 364.0 
304.0000082312349 26034.0 NaN 1525.4696058784245 1.6998306534744558 508.0 3.0 363.0 
306.0000082312349 26021.0 NaN 1525.485637942552 1.8811792634851887 506.0 3.0 363.0 
308.0000082312349 25979.0 NaN 1528.5985303941209 1.1489562718987643 506.0 3.0 364.0 
310.0000082312349 25977.0 NaN 1531.6232464929842 1.7137787083810592 507.0 3.0 365.0 
312.0000082312349 25946.0 NaN 1531.6018704074818 1.899503563645635 505.0 3.0 365.0 
314.0000082312349 25896.0 NaN 1531.6339345357362 1.1692326074747197 505.0 3.0 365.0 
316.0000082312349 25896.0 NaN 1528.5584502337997 1.7322570471136167 505.0 3.0 364.0 
318.0000082312349 25837.0 NaN 1519.3426853707426 1.8603559322692755 505.0 3.0 361.0 
320.0000082312349 25800.0 NaN 1522.42885771543 1.1692904843977874 506.0 3.0 362.0 
322.0000082312349 25795.0 NaN 1525.4535738142936 1.7357977296134057 507.0 3.0 363.0 
324.0000082312349 25782.0 NaN 1531.5858383433547 1.9438397650643104 507.0 3.0 365.0 
326.0000082312349 25753.0 NaN 1531.6098864395453 1.2187772494810865 506.0 3.0 365.0 
328.0000082312349 25755.0 NaN 1531.644622578491 1.7742741105675433 505.0 3.0 365.0 
330.0000082312349 25730.0 NaN 1531.6526386105547 1.9559736823111433 506.0 3.0 365.0 
332.0000082312349 25704.0 NaN 1531.6312625250519 1.278406015500215 508.0 3.0 365.0 
334.0000082312349 25723.0 NaN 1528.4782899131608 1.8231721048119969 508.0 3.0 364.0 
336.0000082312349 25711.0 NaN 1528.4996659986634 1.96502560126444 506.0 3.0 364.0 
338.0000082312349 25672.0 NaN 1528.5130260521028 1.225955964965024 506.0 3.0 364.0 
340.0000082312349 25675.0 NaN 1522.3861055444213 1.7754516959111377 505.0 3.0 362.0 
342.0000082312349 25665.0 NaN 1525.4535738142938 1.909554366147496 507.0 3.0 363.0 
344.0000082312349 25668.0 NaN 1525.4562458249823 1.2158349197241387 507.0 3.0 363.0 
346.0000082312349 25665.0 NaN 1525.3814295257182 1.7259028638241511 507.0 3.0 363.0 
348.0000082312349 25649.0 NaN 1522.3380093520364 1.8576919945807766 509.0 3.0 362.0 
350.0000082312349 25613.0 NaN 1522.3754175016702 1.118897998294419 510.0 3.0 362.0 
352.0000082312349 25602.0 NaN 1525.4615898463605 1.6412095130724373 510.0 3.0 363.0 
354.0000082312349 25598.0 NaN 1522.4154976619911 1.814497854410371 509.0 3.0 362.0 
356.0000082312349 25589.0 NaN 1522.4395457581822 1.1059219162992193 509.0 3.0 362.0 
358.0000082312349 25582.0 NaN 1522.3727454909817 1.620216842377679 508.0 3.0 362.0 
360.0000082312349 25587.0 NaN 1519.2999331997332 1.8097627861766794 509.0 3.0 361.0 
362.0000082312349 25599.0 NaN 1519.3533734134933 1.1423617766054048 508.0 3.0 361.0 
364.0000082312349 25593.0 NaN 1519.3293253173006 1.6612485992730432 508.0 3.0 361.0 
366.0000082312349 25583.0 NaN 1519.3266533066121 1.8389425237318566 511.0 3.0 361.0 
368.0000082312349 25554.0 NaN 1510.0574482297918 1.1599514772045552 511.0 3.0 358.0 
370.0000082312349 25568.0 NaN 1503.9091516366072 1.7098236098707194 511.0 3.0 356.0 
372.0000082312349 25560.0 NaN 1494.6907147628579 1.8878184050171072 511.0 3.0 353.0 
374.0000082312349 25562.0 NaN 1503.951903807616 1.191829281475336 511.0 3.0 356.0 
376.0000082312349 25565.0 NaN 1503.909151636607 1.7068412055906352 512.0 3.0 356.0 
378.0000082312349 25553.0 NaN 1503.9492317969275 1.8442050987747307 511.0 3.0 356.0 
380.0000082312349 25528.0 NaN 1503.9946559786245 1.1666682552879775 512.0 4.0 355.0 
382.0000082312349 25515.0 NaN 1500.8817635270545 1.7228620958046477 511.0 4.0 354.0 
384.0000082312349 25525.0 NaN 1497.7875751503 1.8897251964582988 513.0 4.0 353.0 
386.0000082312349 25522.0 NaN 1507.0888443553788 1.2192535445380697 513.0 4.0 356.0 
388.0000082312349 25519.0 NaN 1507.0220440881756 1.7521382397234073 514.0 3.0 357.0 
390.0000082312349 25522.0 NaN 1497.8570474281908 1.9347756958211286 514.0 3.0 354.0 
392.0000082312349 25513.0 NaN 1500.8577154308625 1.2522941862564207 512.0 4.0 354.0 
394.0000082312349 25517.0 NaN 1503.9465597862384 1.7580542655278117 514.0 4.0 355.0 
396.0000082312349 25489.0 NaN 1503.9545758183024 1.9417579645543077 515.0 4.0 355.0 
398.0000082312349 25449.0 NaN 1507.0273881095536 1.2344574636672732 515.0 3.0 357.0 
400.0000082312349 25449.0 NaN 1506.995323981297 1.766960993628911 516.0 3.0 357.0 
402.0000082312349 25426.0 NaN 1507.0434201736819 1.951056701192071 517.0 3.0 357.0 
404.0000082312349 25425.0 NaN 1513.2264529058114 1.258312690164873 520.0 3.0 359.0 
406.0000082312349 25406.0 NaN 1513.2157648630605 1.788796612249097 520.0 3.0 359.0 
408.0000082312349 25388.0 NaN 1516.3019372077486 1.8841987771174278 520.0 3.0 360.0 
410.0000082312349 25378.0 NaN 1525.4562458249823 1.1868515440220282 520.0 3.0 363.0 
412.0000082312349 25364.0 NaN 1525.4188376753516 1.7481338306794816 520.0 3.0 363.0 
414.0000082312349 25358.0 NaN 1522.3380093520364 1.9266520243288676 520.0 3.0 362.0 
416.0000082312349 25353.0 NaN 1522.3861055444213 1.2469160486207589 521.0 3.0 362.0 
418.0000082312349 25354.0 NaN 1522.3567134268546 1.8054586927085892 522.0 3.0 362.0 
420.0000082312349 25343.0 NaN 1506.9579158316637 1.9904565434670067 522.0 3.0 357.0 
422.0000082312349 25302.0 NaN 1510.0521042084176 1.247210155270873 522.0 3.0 358.0 
424.0000082312349 25303.0 NaN 1506.9766199064807 1.7429578423590988 520.0 3.0 357.0 
426.0000082312349 25278.0 NaN 1506.989979959919 1.8964704139536672 515.0 3.0 357.0 
428.0000082312349 25265.0 NaN 1506.973947895791 1.1827460275827668 514.0 3.0 357.0 
430.0000082312349 25253.0 NaN 1503.8637274549092 1.718564375601205 515.0 3.0 356.0 
432.0000082312349 25242.0 NaN 1500.8309953239818 1.9073362490080978 516.0 3.0 355.0 
434.0000082312349 25262.0 NaN 1507.0060120240475 1.1714954941323104 518.0 3.0 357.0 
436.0000082312349 25271.0 NaN 1513.0688042752183 1.7119464769832975 518.0 3.0 359.0 
438.0000082312349 25252.0 NaN 1509.9986639946553 1.8570108263897025 519.0 3.0 358.0 
440.0000082312349 25232.0 NaN 1519.2304609218445 1.1386548551683415 523.0 3.0 361.0 
442.0000082312349 25207.0 NaN 1522.239144956581 1.6807875596953625 522.0 3.0 362.0 
444.0000082312349 25209.0 NaN 1522.252505010019 1.8470344016587976 521.0 4.0 361.0 
446.0000082312349 25216.0 NaN 1531.5430861723455 1.1445375549278158 525.0 3.0 365.0 
448.0000082312349 25214.0 NaN 1531.5003340013366 1.70308265741108 525.0 3.0 365.0 
450.0000082312349 25220.0 NaN 1531.524382097527 1.9011145850152749 523.0 3.0 365.0 
452.0000082312349 25202.0 NaN 1537.7154308617244 1.1792510646806054 525.0 4.0 366.0 
454.0000082312349 25210.0 NaN 1534.6158984635933 1.7231733652886019 524.0 4.0 365.0 
456.0000082312349 25211.0 NaN 1537.702070808282 1.8792333218269215 526.0 3.0 367.0 
458.00058297905275 25199.0 NaN 1549.9959919839666 1.125143688542 524.0 3.0 371.0 
460.00058297905275 25204.0 NaN 1546.8296593186365 1.701219997231121 524.0 3.0 370.0 
462.00058297905275 25195.0 NaN 1543.7461589846364 1.891212529622839 523.0 3.0 369.0 
464.00058297905275 25203.0 NaN 1540.6813627254517 1.1618259015874577 522.0 3.0 368.0 
466.00058297905275 25215.0 NaN 1543.7648630594542 1.7451039369937675 522.0 3.0 369.0 
468.00058297905275 25200.0 NaN 1540.6733466933879 1.906293196427201 523.0 3.0 368.0 
470.00058297905275 25173.0 NaN 1537.6619906479636 1.1752230854555064 522.0 3.0 367.0 
472.00058297905275 25170.0 NaN 1534.5063460253823 1.7338572657358997 521.0 3.0 366.0 
474.00058297905275 25157.0 NaN 1531.4549098196387 1.8674633464853574 521.0 3.0 365.0 
476.00058297905275 25166.0 NaN 1525.333333333334 1.1589900091915817 516.0 3.0 363.0 
478.00058297905275 25170.0 NaN 1522.247160988645 1.7228342417559053 515.0 3.0 362.0 
480.00058297905275 25191.0 NaN 1519.1850367401462 1.9262408519674035 517.0 3.0 361.0 
482.00058297905275 25194.0 NaN 1513.068804275218 1.2184717439669563 515.0 3.0 359.0 
484.00058297905275 25183.0 NaN 1513.0046760187029 1.7702078732503348 514.0 3.0 359.0 
486.00058297905275 25206.0 NaN 1513.0447561790254 1.9836772798854245 513.0 3.0 359.0 
488.00058297905275 25210.0 NaN 1513.0875083500343 1.2049061186499026 512.0 3.0 359.0 
490.00058297905275 25221.0 NaN 1509.969271877088 1.7349734980314548 511.0 3.0 358.0 
492.00058297905275 25213.0 NaN 1494.639946559785 1.9062283070196715 511.0 3.0 353.0 
494.00058297905275 25220.0 NaN 1491.6285905143627 1.1292428592580956 510.0 3.0 352.0 
496.00058297905275 25226.0 NaN 1491.5751503006004 1.6567010546262437 507.0 3.0 352.0 
498.00058297905275 25233.0 NaN 1485.4081496325991 1.8412723819321208 508.0 3.0 350.0 
500.00058297905275 25228.0 NaN 1485.4482297929185 1.1418936386389835 510.0 3.0 350.0 
502.00058297905275 25227.0 NaN 1485.4215096860382 1.6778021262880694 506.0 3.0 350.0 
504.00058297905275 25232.0 NaN 1488.5130260521032 1.839601018873103 509.0 3.0 351.0 
506.00058297905275 25223.0 NaN 1491.6366065464272 1.1301348408596308 510.0 3.0 352.0 
508.00058297905275 25240.0 NaN 1494.6132264529067 1.6731608415073087 510.0 3.0 353.0 
510.00058297905275 25277.0 NaN 1497.6967267869081 1.870505275229402 510.0 3.0 354.0 
512.0005829790528 25281.0 NaN 1494.6693386773545 1.172025918135787 512.0 4.0 352.0 
514.0005829790528 25299.0 NaN 1494.6105544422182 1.6845819738968917 512.0 4.0 352.0 
516.0005829790528 25325.0 NaN 1479.3026052104203 1.8896690418478208 511.0 4.0 347.0 
518.0005829790528 25329.0 NaN 1476.224448897797 1.202796734837642 508.0 3.0 347.0 
520.0005829790528 25338.0 NaN 1473.1356045424182 1.7291339207284366 506.0 3.0 346.0 
522.0005829790528 25332.0 NaN 1470.0921843687365 1.8621366046135057 504.0 3.0 345.0 
524.0005829790528 25331.0 NaN 1467.0674682698727 1.1840343230962196 503.0 3.0 344.0 
526.0005829790528 25334.0 NaN 1463.9465597862386 1.709305978124252 505.0 3.0 343.0 
528.0005829790528 25343.0 NaN 1463.9786239144964 1.8772875779839149 506.0 3.0 343.0 
530.0000082312349 25331.0 NaN 1454.829659318637 1.2126651745394892 505.0 3.0 340.0 
532.0000082312349 25337.0 NaN 1454.7388109552444 1.7269050056228297 504.0 3.0 340.0 
534.0000082312349 25325.0 NaN 1457.846359385437 1.8546381717318876 506.0 3.0 341.0 
536.0000082312349 25316.0 NaN 1460.921843687374 1.191495242792324 506.0 3.0 342.0 
538.0000082312349 25310.0 NaN 1457.838343353373 1.6453239494599856 506.0 3.0 341.0 
540.0000082312349 25305.0 NaN 1460.9218436873741 1.8177415909375108 505.0 3.0 342.0 
542.0000082312349 25288.0 NaN 1467.0541082164334 1.1708075633475425 507.0 3.0 344.0 
544.0000082312349 25293.0 NaN 1466.979291917167 1.705749707920538 509.0 3.0 344.0 
546.0005829790528 25307.0 NaN 1467.0273881095532 1.888415074592354 509.0 3.0 344.0 
548.0005829790528 25321.0 NaN 1470.1108884435541 1.2641319746477224 511.0 3.0 345.0 
550.0005829790528 25326.0 NaN 1473.1329325317297 1.7599870760144987 511.0 3.0 346.0 
552.0005829790528 25321.0 NaN 1466.952571810288 1.8975451988180978 514.0 3.0 344.0 
554.0005829790528 25316.0 NaN 1470.0681362725454 1.2052679205106858 512.0 3.0 345.0 
556.0005829790528 25319.0 NaN 1473.1329325317297 1.717322757610107 510.0 3.0 346.0 
558.0005829790528 25326.0 NaN 1460.8496993987976 1.8513917766354628 506.0 3.0 342.0 
560.0005829790528 25385.0 NaN 1457.7982631930531 1.1797425475162882 506.0 3.0 341.0 
562.0005829790528 25396.0 NaN 1457.750167000668 1.6977043862724601 506.0 3.0 341.0 
564.0005829790528 25395.0 NaN 1463.9358717434866 1.8526304449977733 506.0 3.0 343.0 
566.0005829790528 25387.0 NaN 1467.0060120240482 1.1470920452409834 504.0 3.0 344.0 
568.0005829790528 25394.0 NaN 1467.0033400133598 1.6354883364972532 505.0 3.0 344.0 
570.0005829790528 25392.0 NaN 1473.1863727454909 1.8011135843584993 506.0 3.0 346.0 
572.0005829790528 25404.0 NaN 1479.3373413493648 1.1330186705906378 506.0 3.0 348.0 
574.0005829790528 25396.0 NaN 1482.3914495657987 1.6226573955226722 507.0 3.0 349.0 
576.0005829790528 25427.0 NaN 1485.4829659318634 1.780439314120087 509.0 3.0 350.0 
578.0005829790528 25494.0 NaN 1482.3941215764874 1.152306283272559 510.0 3.0 349.0 
580.0005829790528 25513.0 NaN 1482.3486973947902 1.6887698299644116 509.0 3.0 349.0 
582.0005829790528 25508.0 NaN 1482.354041416165 1.8558758429247915 511.0 3.0 349.0 
584.0005829790528 25499.0 NaN 1482.346025384101 1.1850069254962299 512.0 3.0 349.0 
586.0005829790528 25511.0 NaN 1482.3139612558455 1.7155640290678396 515.0 3.0 349.0 
588.0005829790528 25523.0 NaN 1482.3219772879092 1.8541077648993736 517.0 3.0 349.0 
590.0005829790528 25546.0 NaN 1491.5724782899124 1.2211567880519831 517.0 3.0 352.0 
592.0005829790528 25541.0 NaN 1488.4435537742158 1.7404275376841067 519.0 3.0 351.0 
594.0005829790528 25546.0 NaN 1488.448897795591 1.8956528881337882 519.0 3.0 351.0 
596.0005829790528 25547.0 NaN 1491.5430861723453 1.1882388073481491 524.0 3.0 352.0 
598.0005829790528 25553.0 NaN 1488.4248496993996 1.7003592577055446 523.0 3.0 351.0 
600.0005829790528 25543.0 NaN 1488.416833667335 1.8593084090323444 525.0 3.0 351.0 
602.0005829790528 25510.0 NaN 1488.4782899131603 1.171277692725839 525.0 3.0 351.0 
604.0005829790528 25523.0 NaN 1485.4108216432874 1.6853346787729544 523.0 3.0 350.0 
606.0005829790528 25533.0 NaN 1491.593854375418 1.859374190820632 526.0 3.0 352.0 
608.0005829790528 25578.0 NaN 1497.7020708082828 1.222796896573618 524.0 3.0 354.0 
610.0005829790528 25590.0 NaN 1494.6265865063453 1.7215140229742372 522.0 3.0 353.0 
612.0005829790528 25594.0 NaN 1494.6639946559796 1.8786616906561366 517.0 3.0 353.0 
614.0005829790528 25603.0 NaN 1494.6105544422182 1.2250727570043485 520.0 3.0 353.0 
616.0005829790528 25601.0 NaN 1497.6646626586514 1.7552529030948307 521.0 3.0 354.0 
618.0005829790528 25643.0 NaN 1497.6700066800274 1.9316028427554823 522.0 3.0 354.0 
620.0005829790528 25674.0 NaN 1497.7074148296604 1.2975297823067553 522.0 3.0 354.0 
622.0005829790528 25661.0 NaN 1500.780227120909 1.7861261989185526 522.0 3.0 355.0 
624.0005829790528 25681.0 NaN 1500.7855711422837 1.9772893354927976 520.0 3.0 355.0 
626.0005829790528 25669.0 NaN 1497.7100868403465 1.362003790007286 520.0 3.0 354.0 
628.0005829790528 25697.0 NaN 1503.839679358718 1.858643415093395 517.0 3.0 356.0 
630.0005829790528 25701.0 NaN 1506.9098196392797 2.040722926947047 516.0 3.0 357.0 
632.0005829790528 25708.0 NaN 1510.0627922511699 1.3682855947826802 515.0 3.0 358.0 
634.0005829790528 25718.0 NaN 1516.1870407481636 1.8050504265453315 517.0 3.0 360.0 
636.0005829790528 25723.0 NaN 1516.160320641282 1.9565006115440648 516.0 4.0 359.0 
638.0005829790528 25711.0 NaN 1513.0955243820981 1.3054776440802307 518.0 4.0 358.0 
640.0005829790528 25717.0 NaN 1516.1710086840353 1.7658199786186242 524.0 4.0 359.0 
642.0005829790528 25682.0 NaN 1516.1950567802273 1.9165076696267427 524.0 4.0 359.0 
644.0005829790528 25658.0 NaN 1513.1382765531073 1.279404647347867 524.0 4.0 358.0 
646.0005829790528 25654.0 NaN 1513.1302605210426 1.7861389183950642 523.0 4.0 358.0 
648.0005829790528 25640.0 NaN 1513.0875083500343 1.9476635561157978 523.0 4.0 358.0 
650.0005829790528 25626.0 NaN 1522.346025384101 1.285465598947626 522.0 4.0 361.0 
652.0005829790528 25613.0 NaN 1522.3112892451563 1.7584894699143367 519.0 4.0 361.0 
654.0005829790528 25598.0 NaN 1522.3112892451563 1.9305536169277004 519.0 4.0 361.0 
656.0005829790528 25574.0 NaN 1525.4455577822305 1.3076765179397678 517.0 3.0 363.0 
658.0005829790528 25554.0 NaN 1534.6880427521714 1.772340254536176 515.0 3.0 366.0 
660.0005829790528 25542.0 NaN 1537.6887107548437 1.9666534268797722 514.0 3.0 367.0 
662.0005829790528 25526.0 NaN 1537.6619906479636 1.3466109392990455 514.0 3.0 367.0 
664.0005829790528 25523.0 NaN 1540.7668670674695 1.7765403466746164 514.0 3.0 368.0 
#####################################################################
# End of data export. Simulation finished at: 2019-03-07T15:15+0000 #
#####################################################################
