#####################################################################
# Alchemist log file - simulation started at: 2019-03-05T21:57+0000 #
#####################################################################
# seed = 3.0, bandwidth = 1333521.4321633242, propagationDelay = 0.03162277660168379, baserange = 31.622776601683796
#
# The columns have the following meaning: 
# time neighbor_count[Sum] <value>@neighbor_count[Sum] packet_size[Mean] mean_delay[Mean] crowd[Sum] overcrowded[Sum] risk[Sum] 
0.0 NaN NaN NaN NaN NaN NaN NaN 
2.0005923698108097 2782.0 NaN 4996.5771543086175 0.4974520383065178 1497.0 0.0 1497.0 
4.00059236981081 2786.0 NaN 4999.577822311289 0.4981962723172194 1480.0 17.0 1480.0 
6.000084666035003 2793.0 NaN 4995.991983967936 0.49820331453548783 1435.0 62.0 1435.0 
8.00059236981081 2795.0 NaN 4996.924515698062 0.4993875413456334 1425.0 72.0 1425.0 
10.00033353340315 2796.0 NaN 4995.038076152305 0.49823893211680675 1421.0 76.0 1421.0 
12.00059236981081 2796.0 NaN 4995.556446225785 0.4991201607510583 1420.0 77.0 1420.0 
14.00059236981081 2794.0 NaN 4994.394121576486 0.4989877752062825 1416.0 81.0 1416.0 
16.000084666035004 2796.0 NaN 4995.030060120241 0.5025373596330192 1412.0 85.0 1412.0 
18.00059236981081 2795.0 NaN 4994.0574482297925 0.49977157051237797 1409.0 88.0 1409.0 
20.00033353340315 2793.0 NaN 4994.979291917168 0.4982430096302436 1416.0 81.0 1416.0 
22.00059236981081 2798.0 NaN 4993.899799599199 0.4981130447812746 1416.0 81.0 1416.0 
24.00059236981081 2799.0 NaN 4995.008684034736 0.49895085546030116 1416.0 81.0 1416.0 
26.000084666035004 2804.0 NaN 4993.664662658651 0.4976086082946605 1415.0 82.0 1415.0 
28.00059236981081 2808.0 NaN 4995.008684034736 0.498145459491872 1409.0 88.0 1409.0 
30.00033353340315 2812.0 NaN 4993.854375417502 0.5002398202764685 1411.0 86.0 1411.0 
32.00059236981081 2808.0 NaN 4994.773547094188 0.5007738737010508 1411.0 86.0 1411.0 
34.00059236981081 2805.0 NaN 4993.897127588511 0.501855083566744 1409.0 88.0 1409.0 
36.00008466603501 2816.0 NaN 4994.642618570474 0.4992076767334596 1410.0 87.0 1410.0 
38.00059236981081 2817.0 NaN 4993.768871075485 0.49971848370728406 1410.0 87.0 1410.0 
40.00033353340315 2822.0 NaN 4994.818971275885 0.49789071065297547 1407.0 90.0 1407.0 
42.00059236981081 2823.0 NaN 4993.854375417502 0.4996247124369044 1400.0 97.0 1400.0 
44.00059236981081 2826.0 NaN 4994.682698730795 0.5023043193890676 1402.0 95.0 1402.0 
46.00008466603501 2837.0 NaN 4993.659318637275 0.5010171968813932 1400.0 97.0 1400.0 
48.00059236981081 2838.0 NaN 4994.957915831664 0.5001241635175422 1401.0 96.0 1401.0 
50.00033353340315 2841.0 NaN 4993.568470273881 0.5102975178370925 1407.0 90.0 1407.0 
52.00059236981081 2831.0 NaN 4994.776219104877 0.5040144347562726 1408.0 89.0 1408.0 
54.00059236981081 2835.0 NaN 4993.859719438878 0.5023305158296871 1409.0 88.0 1409.0 
56.00008466603501 2851.0 NaN 4994.284569138276 0.5042427567517251 1409.0 88.0 1409.0 
58.00059236981081 2834.0 NaN 4994.105544422177 0.50107059403788 1409.0 88.0 1409.0 
60.00033353340315 2834.0 NaN 4994.682698730795 0.4992698806565328 1410.0 87.0 1410.0 
62.000024021514875 2835.0 NaN 1521.9158316633273 0.49890621178620403 588.0 84.0 281.0 
64.00002402151488 2837.0 NaN 1521.7234468937882 0.4992678730985273 505.0 82.0 283.0 
66.00002402151488 2848.0 NaN 1521.6058784235122 0.5023624141292322 453.0 84.0 281.0 
68.00002402151488 2845.0 NaN 1521.520374081497 0.5091165783060465 428.0 82.0 283.0 
70.00002402151488 2845.0 NaN 1524.566466265864 0.49899596543594854 412.0 82.0 284.0 
72.00002402151488 2859.0 NaN 1524.5344021376093 0.5037202467329681 409.0 82.0 284.0 
74.00002402151488 2860.0 NaN 1524.5263861055455 0.500106054749448 407.0 82.0 284.0 
76.00002402151488 2860.0 NaN 1524.5958583834338 0.5043701442214759 406.0 82.0 284.0 
78.00002402151488 2877.0 NaN 1533.7795591182362 0.5080612413869747 401.0 83.0 286.0 
80.00002402151488 2860.0 NaN 1533.859719438879 0.5048894345612984 401.0 83.0 286.0 
82.00002402151488 2844.0 NaN 1533.8543754175003 0.5020838529919948 398.0 84.0 285.0 
84.00002402151488 2832.0 NaN 1533.8436873747485 0.5074489533234073 398.0 82.0 287.0 
86.00002402151488 2834.0 NaN 1533.7287909151637 0.5041852000818611 397.0 81.0 288.0 
88.00002402151488 2812.0 NaN 1533.8009352037398 0.5057526244549257 395.0 82.0 287.0 
90.00002402151488 2809.0 NaN 1533.7448229792908 0.502244221056714 396.0 80.0 289.0 
92.00002402151488 2811.0 NaN 1536.8203072812275 0.5036053441767636 396.0 80.0 290.0 
94.00002402151488 2800.0 NaN 1536.8336673346696 0.5066447098758735 394.0 82.0 288.0 
96.00002402151488 2809.0 NaN 1539.9278557114237 0.5048531739840056 396.0 78.0 293.0 
98.00002402151488 2799.0 NaN 1539.8370073480276 0.5061939932538054 401.0 73.0 298.0 
100.00002402151488 2792.0 NaN 1539.8690714762847 0.5054184755535114 397.0 76.0 295.0 
102.00002402151488 2785.0 NaN 1539.871743486973 0.5029218361347694 396.0 77.0 294.0 
104.00002402151488 2783.0 NaN 1539.9599198396795 0.5081744282880811 397.0 76.0 295.0 
106.00002402151488 2789.0 NaN 1539.885103540415 0.5038605758753982 393.0 80.0 291.0 
108.00002402151488 2805.0 NaN 1539.9438877755513 0.5036045257101025 392.0 81.0 290.0 
110.00002402151488 2814.0 NaN 1539.9706078824304 0.5062912700180997 395.0 78.0 293.0 
112.00002402151488 2811.0 NaN 1540.0400801603205 0.5052508475248244 399.0 74.0 297.0 
114.00002402151488 2802.0 NaN 1539.9786239144967 0.5055604719015231 401.0 72.0 299.0 
116.00002402151488 2815.0 NaN 1546.1750167000664 0.5134894094312614 403.0 70.0 303.0 
118.00002402151488 2825.0 NaN 1549.1943887775544 0.5132267629956924 405.0 71.0 303.0 
120.00002402151488 2808.0 NaN 1552.4114896459575 0.5077486253095053 407.0 68.0 307.0 
122.00002402151488 2795.0 NaN 1552.1870407481638 0.5080976619933909 407.0 70.0 305.0 
124.00002402151488 2777.0 NaN 1552.3286573146274 0.499659134956182 402.0 76.0 299.0 
126.00002402151488 2790.0 NaN 1549.2024048096182 0.5051765134088086 407.0 71.0 303.0 
128.00002402151486 2794.0 NaN 1546.094856379427 0.5111550970496647 408.0 70.0 303.0 
130.00002402151486 2780.0 NaN 1546.105544422179 0.5149453425907787 409.0 69.0 304.0 
132.00002402151486 2759.0 NaN 1545.9746158984635 0.5131136132463344 409.0 68.0 305.0 
134.00002402151486 2753.0 NaN 1549.0501002003998 0.5027108058947637 404.0 69.0 305.0 
136.00002402151486 2765.0 NaN 1546.1242484969937 0.5057197413054584 406.0 68.0 305.0 
138.00002402151486 2779.0 NaN 1546.0414161656636 0.5050341510144553 400.0 72.0 301.0 
140.00002402151486 2796.0 NaN 1543.035404141618 0.51087522608658 395.0 77.0 295.0 
142.00002402151486 2797.0 NaN 1549.1649966599878 0.5130859681100768 386.0 85.0 289.0 
144.00002402151486 2794.0 NaN 1552.2297929191727 0.5038300292630705 382.0 88.0 287.0 
146.00002402151486 2823.0 NaN 1543.043420173682 0.5030296167942758 387.0 82.0 290.0 
148.00002402151486 2838.0 NaN 1543.0354041416178 0.5075405284733342 381.0 89.0 283.0 
150.00002402151486 2850.0 NaN 1543.1583166332664 0.5069347153102036 377.0 92.0 280.0 
152.00002402151486 2854.0 NaN 1542.9819639278544 0.5100476379547351 382.0 88.0 284.0 
154.00002402151486 2843.0 NaN 1540.0587842351363 0.5056520410245161 387.0 84.0 287.0 
156.00002402151486 2849.0 NaN 1539.9973279893118 0.5128342443246133 393.0 80.0 291.0 
158.00002402151486 2842.0 NaN 1546.1162324649301 0.5079094741721101 380.0 92.0 281.0 
160.00002402151486 2839.0 NaN 1543.1796927187727 0.508947027714058 387.0 83.0 289.0 
162.00002402151486 2815.0 NaN 1543.080828323312 0.5040442860009778 391.0 78.0 294.0 
164.00002402151486 2812.0 NaN 1543.0167000667998 0.5030152407720534 387.0 82.0 290.0 
166.00002402151486 2824.0 NaN 1546.0574482297911 0.5065524830168044 384.0 85.0 288.0 
168.00002402151486 2829.0 NaN 1549.2077488309942 0.5084209919646292 382.0 86.0 288.0 
170.00002402151486 2828.0 NaN 1549.13293253173 0.5137920229688875 375.0 93.0 281.0 
172.00002402151486 2798.0 NaN 1549.0607882431543 0.5052733713827001 378.0 87.0 287.0 
174.00002402151486 2787.0 NaN 1546.126920507682 0.5020667904354511 386.0 79.0 294.0 
176.00002402151486 2792.0 NaN 1539.8450233800934 0.5074389480468692 385.0 80.0 291.0 
178.00002402151486 2788.0 NaN 1543.0701402805612 0.5032276106897134 385.0 82.0 290.0 
180.00002402151486 2798.0 NaN 1539.9358717434882 0.5114482480135107 387.0 80.0 291.0 
182.00002402151486 2766.0 NaN 1540.0080160320636 0.505674196331345 386.0 81.0 290.0 
184.00002402151486 2758.0 NaN 1536.8630594522365 0.5031419456027427 376.0 91.0 279.0 
186.00002402151486 2766.0 NaN 1537.0100200400818 0.5060796135514856 377.0 91.0 279.0 
188.00002402151486 2776.0 NaN 1536.8871075484299 0.5068359269024441 376.0 92.0 278.0 
190.00002402151486 2774.0 NaN 1540.1469605878428 0.5111534501893822 377.0 89.0 282.0 
192.00002402151486 2758.0 NaN 1536.9672678690727 0.5060268132729265 381.0 85.0 285.0 
194.00002402151486 2752.0 NaN 1537.0821643286572 0.5117678873879967 376.0 91.0 279.0 
196.00002402151486 2751.0 NaN 1537.0207080828334 0.5052067312580397 375.0 92.0 278.0 
198.00002402151486 2763.0 NaN 1536.9913159652635 0.5088760145322134 376.0 90.0 280.0 
200.00002402151486 2778.0 NaN 1540.0480961923845 0.506341235420376 374.0 92.0 279.0 
202.00002402151486 2777.0 NaN 1546.2551770207092 0.5052496386200656 377.0 90.0 283.0 
204.00002402151486 2783.0 NaN 1546.1536406145638 0.5020730311865936 374.0 93.0 280.0 
206.00002402151486 2796.0 NaN 1543.0888443553793 0.5053191148807804 371.0 97.0 275.0 
208.00002402151486 2781.0 NaN 1543.0514362057456 0.5118102353763978 369.0 97.0 275.0 
210.00002402151486 2783.0 NaN 1539.9919839679364 0.5208949199107039 368.0 98.0 273.0 
212.00002402151486 2764.0 NaN 1536.7989311957247 0.512507899786595 371.0 97.0 273.0 
214.00002402151486 2748.0 NaN 1533.7795591182362 0.5053648491827851 365.0 100.0 269.0 
216.00002402151486 2749.0 NaN 1533.659318637273 0.5055847059639978 370.0 95.0 274.0 
218.00002402151486 2762.0 NaN 1536.9806279225118 0.5066618606069877 379.0 88.0 282.0 
220.00002402151486 2768.0 NaN 1533.7822311289246 0.5123622120130767 374.0 90.0 279.0 
222.00002402151486 2770.0 NaN 1533.7875751503 0.5111668986735154 382.0 83.0 286.0 
224.00002402151486 2762.0 NaN 1533.5925183700726 0.5038210892189451 383.0 82.0 287.0 
226.00002402151486 2754.0 NaN 1533.7581830327335 0.5031612686467798 381.0 84.0 285.0 
228.00002402151486 2764.0 NaN 1542.9739478957908 0.5078907473455113 377.0 87.0 285.0 
230.00002402151486 2758.0 NaN 1542.9953239812974 0.5115393415365329 378.0 86.0 286.0 
232.00002402151486 2745.0 NaN 1543.0247160988636 0.5050555178880534 380.0 84.0 288.0 
234.00002402151486 2737.0 NaN 1546.1910487641933 0.5024338530369827 372.0 90.0 283.0 
236.00002402151486 2742.0 NaN 1546.1108884435546 0.5066324554826391 373.0 90.0 283.0 
238.00002402151486 2744.0 NaN 1542.9766199064818 0.5159275854291883 366.0 96.0 276.0 
240.00002402151486 2734.0 NaN 1533.7608550434184 0.513766957769083 367.0 96.0 273.0 
242.00002402151486 2716.0 NaN 1536.844355377421 0.5065792091676766 375.0 87.0 283.0 
244.00002402151486 2707.0 NaN 1536.8390113560454 0.5078683540235069 371.0 90.0 280.0 
246.00002402151486 2706.0 NaN 1536.8603874415483 0.5018788433554644 374.0 85.0 285.0 
248.00002402151486 2718.0 NaN 1533.6406145624574 0.5051863532491631 371.0 88.0 281.0 
250.00002402151486 2704.0 NaN 1527.7595190380757 0.5091018172555652 367.0 92.0 275.0 
252.00002402151486 2714.0 NaN 1524.4889779559117 0.5080614838089641 370.0 88.0 278.0 
254.00002402151486 2691.0 NaN 1524.58784235137 0.4994873179571348 366.0 91.0 275.0 
256.0000240215149 2697.0 NaN 1524.4943219772883 0.5058035015911813 365.0 95.0 271.0 
258.0000240215149 2709.0 NaN 1524.5851703406818 0.5025796533530267 369.0 92.0 274.0 
260.0000240215149 2702.0 NaN 1524.5477621910482 0.5122605625597383 372.0 90.0 276.0 
262.0000240215149 2711.0 NaN 1524.3981295925182 0.5080085601299552 369.0 92.0 274.0 
264.0000240215149 2690.0 NaN 1527.6339345357367 0.5010309826445601 376.0 85.0 282.0 
266.0000240215149 2693.0 NaN 1533.8810955243816 0.5043373189000406 384.0 77.0 292.0 
268.0000240215149 2712.0 NaN 1533.806279225118 0.5104918641712386 385.0 76.0 293.0 
270.0000240215149 2721.0 NaN 1530.835003340012 0.5080423422588315 386.0 73.0 295.0 
272.0000240215149 2710.0 NaN 1530.6452905811634 0.511985025264041 385.0 73.0 295.0 
274.0000240215149 2672.0 NaN 1530.7548430193729 0.5030583286789729 377.0 81.0 287.0 
276.0000240215149 2664.0 NaN 1527.5163660654634 0.5104729936088714 388.0 71.0 296.0 
278.0000240215149 2665.0 NaN 1536.7160988643975 0.5187567406230018 393.0 71.0 299.0 
280.0000240215149 2652.0 NaN 1536.7588510354026 0.5061791090133633 395.0 71.0 299.0 
282.0000240215149 2654.0 NaN 1536.700066800266 0.5059471552206682 393.0 72.0 298.0 
284.0000240215149 2643.0 NaN 1533.7100868403456 0.5069644047078447 390.0 73.0 296.0 
286.0000240215149 2631.0 NaN 1533.6245824983296 0.512809745332765 387.0 74.0 295.0 
288.0000240215149 2620.0 NaN 1533.5711422845702 0.5069378267913817 384.0 75.0 294.0 
290.0000240215149 2621.0 NaN 1533.7421509686026 0.5067702246049703 385.0 75.0 294.0 
292.0000240215149 2619.0 NaN 1533.659318637273 0.5082009894306996 383.0 76.0 293.0 
294.0000240215149 2613.0 NaN 1533.6993987975934 0.5029371694216181 386.0 73.0 296.0 
296.0000240215149 2607.0 NaN 1536.6706746827 0.4980529411150409 390.0 69.0 301.0 
298.0000240215149 2612.0 NaN 1536.7321309285246 0.505734023726644 389.0 70.0 300.0 
300.0000240215149 2631.0 NaN 1536.7000668002663 0.5022338551681477 389.0 69.0 301.0 
302.0000240215149 2628.0 NaN 1536.7294589178364 0.4982008372182923 389.0 69.0 301.0 
304.0000240215149 2629.0 NaN 1533.5016700066817 0.5040068374210759 391.0 70.0 299.0 
306.0000240215149 2621.0 NaN 1530.5971943887791 0.49888654285533174 393.0 69.0 299.0 
308.0000240215149 2622.0 NaN 1536.681362725452 0.5021738001845651 391.0 68.0 302.0 
310.0000240215149 2630.0 NaN 1530.6880427521726 0.49995002111289616 390.0 69.0 299.0 
312.0000240215149 2632.0 NaN 1533.6753507014023 0.5056145140203233 390.0 68.0 301.0 
314.0000240215149 2628.0 NaN 1533.696726786909 0.5048017598292801 390.0 68.0 301.0 
316.0000240215149 2625.0 NaN 1533.7474949899818 0.5021683398418767 388.0 71.0 298.0 
318.0000240215149 2628.0 NaN 1536.76686706747 0.5112443799782513 391.0 69.0 301.0 
320.0000240215149 2617.0 NaN 1536.7294589178366 0.5100447629387141 392.0 69.0 301.0 
322.0000240215149 2602.0 NaN 1539.9171676686726 0.502163579432987 391.0 70.0 301.0 
324.0000240215149 2612.0 NaN 1539.901135604543 0.5095170764535075 392.0 68.0 303.0 
326.0000240215149 2611.0 NaN 1539.8049432197727 0.5012362559590285 392.0 68.0 303.0 
328.0000240215149 2611.0 NaN 1539.8370073480273 0.49982393714267076 391.0 69.0 302.0 
330.0000240215149 2616.0 NaN 1539.8663994656 0.5140002117871105 390.0 69.0 302.0 
332.0000240215149 2617.0 NaN 1539.7595190380755 0.5063415259198529 388.0 71.0 300.0 
334.0000240215149 2612.0 NaN 1539.810287241148 0.5033321443673434 386.0 73.0 298.0 
336.0000240215149 2614.0 NaN 1533.560454241818 0.5029728759533317 386.0 72.0 297.0 
338.0000240215149 2630.0 NaN 1530.6960587842361 0.5000122802011776 385.0 72.0 296.0 
340.0000240215149 2651.0 NaN 1527.5911823647277 0.5013478224524116 384.0 73.0 294.0 
342.0000240215149 2650.0 NaN 1527.4629258517032 0.5076050568909454 387.0 72.0 295.0 
344.0000240215149 2635.0 NaN 1530.6265865063453 0.5059716057703677 387.0 72.0 296.0 
346.0000240215149 2635.0 NaN 1530.706746826988 0.5029567490950608 386.0 73.0 295.0 
348.0000240215149 2621.0 NaN 1527.5537742150973 0.5113977400044313 384.0 73.0 294.0 
350.0000240215149 2613.0 NaN 1527.5217100868394 0.5015739707015439 386.0 72.0 295.0 
352.0000240215149 2625.0 NaN 1521.338677354709 0.5048052752914093 388.0 73.0 292.0 
354.0000240215149 2631.0 NaN 1524.4008016032067 0.5087948480942435 390.0 72.0 294.0 
356.0000240215149 2634.0 NaN 1524.4408817635274 0.5108727525438085 387.0 74.0 292.0 
358.0000240215149 2624.0 NaN 1524.387441549766 0.5154113024622534 384.0 77.0 289.0 
360.0000240215149 2623.0 NaN 1527.5938543754182 0.5140303072381301 383.0 78.0 289.0 
362.0000240215149 2636.0 NaN 1527.5163660654634 0.5206078097219101 382.0 78.0 289.0 
364.0000240215149 2635.0 NaN 1524.3714094856368 0.5042454846811217 379.0 80.0 286.0 
366.0000240215149 2642.0 NaN 1515.2277889111544 0.5032563640288633 381.0 78.0 285.0 
368.0000240215149 2630.0 NaN 1499.7969271877091 0.5189146852686278 383.0 76.0 282.0 
370.0000240215149 2613.0 NaN 1509.108884435537 0.513865250920134 378.0 80.0 281.0 
372.0000240215149 2620.0 NaN 1509.1062124248488 0.5029441394983227 383.0 77.0 284.0 
374.0000240215149 2610.0 NaN 1509.010020040081 0.5008110566836569 383.0 77.0 284.0 
376.0000240215149 2618.0 NaN 1508.892451569807 0.5062787284807967 383.0 79.0 282.0 
378.0000240215149 2610.0 NaN 1509.1035404141628 0.5151412650872506 384.0 78.0 283.0 
380.0000240215149 2609.0 NaN 1508.9779559118244 0.5030803832131623 388.0 74.0 287.0 
382.0000240215149 2623.0 NaN 1505.9853039412162 0.5061243822226744 385.0 76.0 284.0 
384.0000240215149 2628.0 NaN 1512.1763527054102 0.5143218704518262 387.0 78.0 284.0 
386.0000240215149 2635.0 NaN 1524.4996659986634 0.5032460631231016 390.0 76.0 290.0 
388.0000240215149 2629.0 NaN 1512.2805611222454 0.5225763800342379 389.0 77.0 285.0 
390.0000240215149 2626.0 NaN 1509.1569806279215 0.5193743840787113 391.0 75.0 286.0 
392.0000240215149 2626.0 NaN 1512.2591850367394 0.5020064339487188 387.0 77.0 285.0 
394.0000240215149 2626.0 NaN 1512.2404809619243 0.512085545521038 392.0 74.0 288.0 
396.0000240215149 2628.0 NaN 1512.085504342018 0.5130614502246916 392.0 75.0 287.0 
398.0000240215149 2621.0 NaN 1509.1329325317295 0.5142914139264108 388.0 77.0 284.0 
400.0000240215149 2632.0 NaN 1512.109552438209 0.508398616002187 386.0 79.0 283.0 
402.0000240215149 2639.0 NaN 1512.235136940546 0.5101246461506538 394.0 72.0 290.0 
404.0000240215149 2631.0 NaN 1518.4021376085516 0.5156985364016133 392.0 75.0 289.0 
406.0000240215149 2633.0 NaN 1524.475617902473 0.5164188892163589 392.0 77.0 289.0 
408.0000240215149 2629.0 NaN 1521.5150300601188 0.5189979493485511 397.0 72.0 293.0 
410.0000240215149 2649.0 NaN 1527.8263193052755 0.5099040461252322 401.0 69.0 298.0 
412.0000240215149 2663.0 NaN 1530.4876419505667 0.508432353779193 406.0 67.0 301.0 
414.0000240215149 2645.0 NaN 1527.7354709418823 0.5194340025980866 410.0 66.0 301.0 
416.0000240215149 2640.0 NaN 1527.5457581830335 0.5085712416917486 411.0 65.0 302.0 
418.0000240215149 2627.0 NaN 1527.607214428857 0.5056516097092703 406.0 68.0 299.0 
420.0000240215149 2651.0 NaN 1527.7408149632606 0.508675596231239 407.0 67.0 300.0 
422.0000240215149 2664.0 NaN 1512.0133600534393 0.5144496536520211 407.0 67.0 295.0 
424.0000240215149 2639.0 NaN 1506.0040080160327 0.5114848585602346 404.0 68.0 292.0 
426.0000240215149 2651.0 NaN 1518.2364729458911 0.517511629276962 407.0 68.0 296.0 
428.0000240215149 2636.0 NaN 1512.0694722778899 0.5127479977710285 405.0 69.0 293.0 
430.0000240215149 2617.0 NaN 1506.0895123580488 0.530144615925938 403.0 70.0 290.0 
432.0000240215149 2628.0 NaN 1502.8724114896454 0.5066560157608063 404.0 69.0 290.0 
434.0000240215149 2621.0 NaN 1502.9311957247821 0.5051693643449555 401.0 71.0 288.0 
436.0000240215149 2620.0 NaN 1515.2892451569817 0.5158453333097699 403.0 72.0 291.0 
438.0000240215149 2618.0 NaN 1521.4161656646636 0.510814184198776 404.0 71.0 294.0 
440.0000240215149 2623.0 NaN 1521.4268537074154 0.5111781961413802 398.0 78.0 287.0 
442.0000240215149 2645.0 NaN 1521.432197728791 0.5174429244657576 395.0 80.0 285.0 
444.0000240215149 2626.0 NaN 1527.5136940547754 0.5120752762404475 398.0 76.0 291.0 
446.0000240215149 2623.0 NaN 1527.6072144288569 0.5089425994913239 400.0 76.0 291.0 
448.0000240215149 2633.0 NaN 1533.6459585838356 0.5148330730426415 396.0 79.0 290.0 
450.0000240215149 2617.0 NaN 1542.9819639278546 0.5223562614094742 401.0 77.0 295.0 
452.0000240215149 2603.0 NaN 1546.0494321977276 0.5100900933572736 401.0 77.0 296.0 
454.0000240215149 2596.0 NaN 1546.0521042084179 0.5020078789691037 402.0 75.0 298.0 
456.0000240215149 2595.0 NaN 1548.919171676688 0.5030177870612625 402.0 75.0 299.0 
458.0000240215149 2615.0 NaN 1549.0821643286572 0.5149591182999087 400.0 78.0 296.0 
460.0000240215149 2612.0 NaN 1546.044088176354 0.5176910376496957 400.0 78.0 295.0 
462.0000240215149 2605.0 NaN 1545.945223780894 0.5200983576240725 402.0 76.0 297.0 
464.0000240215149 2574.0 NaN 1545.9478957915821 0.5089818461337976 403.0 74.0 299.0 
466.0000240215149 2567.0 NaN 1546.0414161656636 0.5051206248262506 401.0 78.0 295.0 
468.0000240215149 2591.0 NaN 1542.7949231796913 0.5174272538012357 403.0 77.0 295.0 
470.0000240215149 2575.0 NaN 1542.8911155644632 0.5187322860608282 402.0 75.0 297.0 
472.0000240215149 2565.0 NaN 1536.6145624582489 0.507804407313144 398.0 76.0 294.0 
474.0000240215149 2559.0 NaN 1527.4789579158307 0.5093196352069147 402.0 73.0 294.0 
476.0000240215149 2553.0 NaN 1524.3901135604547 0.5061717907421686 401.0 73.0 293.0 
478.0000240215149 2567.0 NaN 1524.4488977955907 0.5108089166385144 403.0 72.0 294.0 
480.0000240215149 2564.0 NaN 1521.3653974615909 0.5204245779500795 404.0 71.0 294.0 
482.0000240215149 2572.0 NaN 1527.5644622578484 0.5153745973858247 401.0 73.0 294.0 
484.0000240215149 2558.0 NaN 1512.2164328657302 0.5090349935222988 402.0 70.0 292.0 
486.0000240215149 2560.0 NaN 1512.1576486305937 0.5026799840523961 403.0 69.0 293.0 
488.0000240215149 2586.0 NaN 1502.861723446893 0.51174553258602 398.0 70.0 289.0 
490.0000240215149 2573.0 NaN 1496.9325317301273 0.5137953510573905 397.0 73.0 284.0 
492.0000240215149 2577.0 NaN 1490.6773547094183 0.5164336442463766 397.0 72.0 283.0 
494.0000240215149 2557.0 NaN 1496.7535070140275 0.5055039300716124 396.0 68.0 289.0 
496.0000240215149 2553.0 NaN 1496.758851035403 0.501585820648662 392.0 69.0 288.0 
498.0000240215149 2565.0 NaN 1493.6593186372736 0.5046774283576205 390.0 68.0 288.0 
500.0000240215149 2560.0 NaN 1493.7100868403465 0.5129240349545421 387.0 68.0 288.0 
502.0000240215149 2572.0 NaN 1493.5524382097535 0.513545655737944 389.0 69.0 287.0 
504.0000240215149 2561.0 NaN 1487.572478289912 0.5053432773719037 391.0 67.0 287.0 
506.0000240215149 2572.0 NaN 1487.5591182364726 0.5015435329170922 390.0 69.0 285.0 
508.0000240215149 2588.0 NaN 1487.620574482299 0.5017218422380837 388.0 71.0 283.0 
510.0000240215149 2589.0 NaN 1490.7388109552444 0.5048330426599605 393.0 67.0 288.0 
512.0000240215148 2593.0 NaN 1493.6993987975939 0.5063369529738685 391.0 67.0 289.0 
514.000024021515 2581.0 NaN 1496.8416833667343 0.504547137266507 391.0 68.0 289.0 
516.000024021515 2585.0 NaN 1490.7521710086826 0.501735265727982 388.0 70.0 285.0 
518.000024021515 2605.0 NaN 1484.4836339345363 0.5074351593568732 379.0 76.0 277.0 
520.000024021515 2592.0 NaN 1478.415497661991 0.5121260089286782 377.0 76.0 275.0 
522.000024021515 2589.0 NaN 1475.1903807615242 0.5142800710477539 377.0 74.0 276.0 
524.000024021515 2568.0 NaN 1462.973947895791 0.5114087075484943 377.0 69.0 277.0 
526.000024021515 2569.0 NaN 1453.6913827655303 0.4993423335643081 381.0 67.0 276.0 
528.000024021515 2586.0 NaN 1456.801603206412 0.5121542555896136 384.0 65.0 279.0 
530.000024021515 2586.0 NaN 1459.9465597862384 0.5214436147204351 382.0 65.0 280.0 
532.000024021515 2591.0 NaN 1462.9525718102882 0.5116835736070785 389.0 66.0 280.0 
534.000024021515 2590.0 NaN 1462.9231796927181 0.507647649072217 388.0 66.0 280.0 
536.000024021515 2584.0 NaN 1465.950567802272 0.5019863160240475 384.0 70.0 277.0 
538.000024021515 2587.0 NaN 1466.1750167000662 0.504199119880942 386.0 70.0 277.0 
540.000024021515 2584.0 NaN 1466.0788243152979 0.5168917781327385 391.0 66.0 281.0 
542.000024021515 2585.0 NaN 1466.0200400801612 0.5124965179456231 392.0 64.0 283.0 
544.000024021515 2579.0 NaN 1472.184368737474 0.510653193567104 394.0 64.0 285.0 
546.000024021515 2567.0 NaN 1475.356045424182 0.5044450861667732 387.0 71.0 279.0 
548.000024021515 2563.0 NaN 1472.2004008016029 0.5059597881068565 394.0 64.0 285.0 
550.000024021515 2555.0 NaN 1469.1676686706742 0.507989844360007 392.0 66.0 282.0 
552.000024021515 2566.0 NaN 1475.214428857716 0.5130015304073945 393.0 68.0 282.0 
554.000024021515 2566.0 NaN 1478.3807615230455 0.515997212354927 396.0 69.0 282.0 
556.000024021515 2548.0 NaN 1478.4208416833662 0.5048967982028877 396.0 68.0 283.0 
558.000024021515 2556.0 NaN 1478.4181696726791 0.5135220401022718 394.0 70.0 281.0 
560.000024021515 2555.0 NaN 1472.1523046092182 0.5331222906979971 387.0 73.0 276.0 
562.000024021515 2567.0 NaN 1469.0634602538414 0.5191929197607879 385.0 74.0 274.0 
564.000024021515 2568.0 NaN 1469.2264529058118 0.5178884451034365 386.0 71.0 277.0 
566.000024021515 2548.0 NaN 1472.184368737474 0.5059976140055659 386.0 71.0 278.0 
568.000024021515 2555.0 NaN 1478.2124248496998 0.5080808397991066 394.0 69.0 282.0 
570.000024021515 2557.0 NaN 1481.4268537074151 0.5157960869843687 395.0 70.0 282.0 
572.000024021515 2548.0 NaN 1481.3440213760848 0.5138363534977182 392.0 72.0 280.0 
574.000024021515 2537.0 NaN 1484.5424181696726 0.5138510458877986 390.0 73.0 280.0 
576.000024021515 2529.0 NaN 1493.7100868403468 0.5063885160247624 397.0 70.0 286.0 
578.000024021515 2544.0 NaN 1490.6265865063453 0.5155231808231987 401.0 66.0 289.0 
580.000024021515 2547.0 NaN 1490.6319305277214 0.5057732133050677 397.0 70.0 285.0 
582.000024021515 2566.0 NaN 1490.5731462925846 0.5099993660571717 401.0 67.0 288.0 
584.000024021515 2571.0 NaN 1487.484301937208 0.5123977072962853 403.0 67.0 287.0 
586.000024021515 2561.0 NaN 1487.4175016700074 0.5067027965376762 405.0 66.0 288.0 
588.000024021515 2570.0 NaN 1493.5951903807622 0.5110185402184707 410.0 61.0 295.0 
590.000024021515 2569.0 NaN 1496.8470273881092 0.510128371692215 406.0 61.0 296.0 
592.000024021515 2582.0 NaN 1499.6499665998656 0.5111243332629809 406.0 63.0 295.0 
594.000024021515 2574.0 NaN 1499.7995991983976 0.5198062148055332 409.0 63.0 295.0 
596.000024021515 2557.0 NaN 1496.7107548430185 0.5079305411985553 409.0 63.0 294.0 
598.000024021515 2563.0 NaN 1487.4709418837672 0.5072358319259755 408.0 63.0 291.0 
600.000024021515 2573.0 NaN 1490.5464261857055 0.5071325805366284 408.0 65.0 290.0 
602.000024021515 2579.0 NaN 1487.4682698730803 0.5097152986522986 401.0 71.0 283.0 
604.000024021515 2574.0 NaN 1487.4335337341354 0.5103696797494358 402.0 70.0 284.0 
606.000024021515 2568.0 NaN 1496.8283233132927 0.5015962983420665 403.0 66.0 291.0 
608.000024021515 2589.0 NaN 1496.6840347361383 0.5060965030496648 403.0 65.0 292.0 
610.000024021515 2592.0 NaN 1499.975951903808 0.5103949645543123 399.0 69.0 289.0 
612.000024021515 2601.0 NaN 1499.778223112892 0.518594227151209 391.0 77.0 281.0 
614.000024021515 2579.0 NaN 1499.893119572479 0.5089517209160724 391.0 78.0 280.0 
616.000024021515 2579.0 NaN 1496.7641950567806 0.5059649227909451 389.0 79.0 278.0 
618.000024021515 2595.0 NaN 1496.6359385437545 0.5052037235545896 393.0 76.0 281.0 
620.000024021515 2626.0 NaN 1505.990647962591 0.5101777675777261 397.0 73.0 287.0 
622.000024021515 2620.0 NaN 1509.1088844355372 0.5276127050360989 402.0 69.0 292.0 
624.000024021515 2586.0 NaN 1509.0073480293918 0.5010489278913624 403.0 66.0 295.0 
626.000024021515 2611.0 NaN 1512.2378089512365 0.511007633130221 402.0 67.0 295.0 
628.000024021515 2629.0 NaN 1515.3987975951911 0.5067514291933509 400.0 70.0 293.0 
630.000024021515 2673.0 NaN 1515.3213092852366 0.5119858936883764 408.0 63.0 300.0 
632.000024021515 2675.0 NaN 1515.3533734134928 0.5148338764596775 399.0 73.0 290.0 
634.000024021515 2660.0 NaN 1518.4689378757525 0.5159420824121612 399.0 72.0 292.0 
636.000024021515 2658.0 NaN 1518.452905811624 0.5102328911585228 402.0 70.0 294.0 
638.000024021515 2669.0 NaN 1518.3567134268544 0.5130127101816166 404.0 69.0 295.0 
640.000024021515 2656.0 NaN 1515.323981295926 0.5197749834672497 402.0 71.0 292.0 
642.000024021515 2647.0 NaN 1518.30861723447 0.5153298256301858 403.0 70.0 294.0 
644.000024021515 2624.0 NaN 1512.1416165664655 0.5061890767498545 395.0 75.0 287.0 
646.000024021515 2616.0 NaN 1512.1362725450908 0.5164133025075022 387.0 75.0 287.0 
648.000024021515 2640.0 NaN 1515.1663326653302 0.5123403580225 384.0 76.0 287.0 
650.000024021515 2633.0 NaN 1521.3440213760846 0.5191945340801992 388.0 74.0 291.0 
652.000024021515 2631.0 NaN 1518.31930527722 0.5312286864973746 385.0 78.0 286.0 
654.000024021515 2600.0 NaN 1518.3059452237815 0.5128150981638732 385.0 77.0 287.0 
656.000024021515 2602.0 NaN 1518.2872411489639 0.5163539332619488 385.0 77.0 287.0 
658.000024021515 2632.0 NaN 1527.6285905143627 0.5153408962477262 383.0 78.0 289.0 
660.000024021515 2637.0 NaN 1533.808951235806 0.515054611226001 386.0 77.0 292.0 
662.000024021515 2636.0 NaN 1533.7688710754837 0.5276867440145327 389.0 75.0 294.0 
664.000024021515 2601.0 NaN 1533.7875751503 0.5239126908937815 395.0 68.0 301.0 
#####################################################################
# End of data export. Simulation finished at: 2019-03-05T22:01+0000 #
#####################################################################
