#####################################################################
# Alchemist log file - simulation started at: 2019-03-07T17:05+0000 #
#####################################################################
# seed = 5.0, bandwidth = 1333521.4321633242, propagationDelay = 0.001, baserange = 10.0
#
# The columns have the following meaning: 
# time neighbor_count[Sum] <value>@neighbor_count[Sum] packet_size[Mean] mean_delay[Mean] crowd[Sum] overcrowded[Sum] risk[Sum] 
0.0 NaN NaN NaN NaN NaN NaN NaN 
2.000101793669918 486.0 NaN 4991.158316633267 0.5054278333748363 1497.0 0.0 1497.0 
4.000101793669918 486.0 NaN 4991.719438877755 0.5054238221907107 1497.0 0.0 1497.0 
6.000101793669918 486.0 NaN 4990.682698730795 0.5054270051583424 1497.0 0.0 1497.0 
8.000101793669918 486.0 NaN 4989.905143620575 0.5054310730844634 1497.0 0.0 1497.0 
10.000101793669918 486.0 NaN 4989.784903139613 0.5054318091472914 1497.0 0.0 1497.0 
12.000101793669918 486.0 NaN 4989.905143620575 0.5054312667238132 1497.0 0.0 1497.0 
14.000101793669918 487.0 NaN 4989.897127588511 0.5038684634944917 1497.0 0.0 1497.0 
16.00010179366992 488.0 NaN 4989.696726786907 0.5040331976628235 1497.0 0.0 1497.0 
18.00010179366992 488.0 NaN 4989.73413493654 0.5040329385631613 1497.0 0.0 1497.0 
20.00010179366992 488.0 NaN 4989.766199064797 0.5139997998470097 1497.0 0.0 1497.0 
22.00010179366992 486.0 NaN 4989.643286573147 0.5040920064748934 1497.0 0.0 1497.0 
24.00010179366992 487.0 NaN 4989.691382765531 0.5167075331611439 1497.0 0.0 1497.0 
26.00010179366992 488.0 NaN 4989.702070808284 0.5020050480963288 1497.0 0.0 1497.0 
28.00010179366992 499.0 NaN 4989.76085504342 0.5120632774320178 1497.0 0.0 1497.0 
30.00010179366992 498.0 NaN 4989.643286573147 0.5028449607352402 1497.0 0.0 1497.0 
32.00010179366992 498.0 NaN 4989.710086840348 0.5127785029865946 1497.0 0.0 1497.0 
34.00010179366992 500.0 NaN 4989.59786239145 0.5038683863607131 1497.0 0.0 1497.0 
36.00010179366992 502.0 NaN 4989.632598530394 0.5151798459449185 1497.0 0.0 1497.0 
38.00010179366992 499.0 NaN 4989.632598530394 0.5109330044717121 1497.0 0.0 1497.0 
40.00010179366992 501.0 NaN 4989.699398797595 0.5317271177387904 1497.0 0.0 1497.0 
42.00010179366992 498.0 NaN 4989.63794255177 0.5029995574922206 1497.0 0.0 1497.0 
44.00010179366992 510.0 NaN 4989.678022712091 0.5115607607425984 1497.0 0.0 1497.0 
46.00010179366992 510.0 NaN 4989.715430861724 0.5166687129578323 1497.0 0.0 1497.0 
48.00010179366992 508.0 NaN 4989.731462925852 0.5251897061908513 1497.0 0.0 1497.0 
50.00010179366992 514.0 NaN 4989.667334669339 0.5197939003668762 1497.0 0.0 1497.0 
52.00010179366992 512.0 NaN 4989.702070808284 0.5189862095726021 1497.0 0.0 1497.0 
54.00010179366992 512.0 NaN 4989.696726786907 0.5221455762269872 1497.0 0.0 1497.0 
56.00010179366992 512.0 NaN 4989.715430861724 0.5095195663508271 1497.0 0.0 1497.0 
58.00010179366992 517.0 NaN 4989.63794255177 0.5093195411670359 1497.0 0.0 1497.0 
60.00010179366992 515.0 NaN 4986.690714762859 0.5272194053743278 1496.0 0.0 1496.0 
62.00010179366992 505.0 NaN 605.8944555778229 0.5305017091613068 310.0 0.0 67.0 
64.00010179366993 504.0 NaN 605.755511022044 0.5243738039343755 308.0 0.0 67.0 
66.00010179366993 501.0 NaN 605.7688710754846 0.5293618406345916 306.0 0.0 67.0 
68.00010179366993 498.0 NaN 605.755511022044 0.527437532344076 287.0 0.0 67.0 
70.00010179366993 492.0 NaN 605.755511022044 0.5193795451910723 240.0 0.0 67.0 
72.00010179366993 494.0 NaN 608.8069472277894 0.5120557698324357 210.0 0.0 68.0 
74.00010179366993 497.0 NaN 614.9311957247818 0.5453602852040248 192.0 0.0 70.0 
76.00010179366993 488.0 NaN 614.923179692718 0.5037220001996503 168.0 0.0 70.0 
78.00010179366993 488.0 NaN 614.9071476285911 0.5192930468965905 154.0 0.0 70.0 
80.00010179366993 483.0 NaN 614.8750835003334 0.5111213941914106 148.0 0.0 70.0 
82.00010179366993 485.0 NaN 617.9425517702076 0.5083786097243446 148.0 0.0 71.0 
84.00010179366993 486.0 NaN 617.9478957915832 0.5517731665098506 142.0 0.0 71.0 
86.00010179366993 474.0 NaN 617.9372077488318 0.5091970408641712 141.0 0.0 71.0 
88.00010179366993 487.0 NaN 614.8670674682697 0.5134027976613192 143.0 0.0 70.0 
90.00010179366993 484.0 NaN 614.8670674682697 0.5144432556549553 141.0 0.0 70.0 
92.00010179366993 482.0 NaN 614.8670674682697 0.5041084138412553 140.0 0.0 70.0 
94.00010179366993 484.0 NaN 614.8724114896453 0.5155653572574846 135.0 0.0 70.0 
96.00010179366993 483.0 NaN 614.8670674682697 0.5096535647880475 133.0 0.0 70.0 
98.00010179366993 486.0 NaN 611.7995991983967 0.5447785051838356 133.0 0.0 69.0 
100.00010179366993 477.0 NaN 611.7942551770212 0.5144477397240297 130.0 0.0 69.0 
102.00010179366993 477.0 NaN 611.7942551770212 0.5049073238028309 127.0 0.0 69.0 
104.00010179366993 488.0 NaN 614.8777555110225 0.50972119040843 126.0 0.0 70.0 
106.00010179366993 486.0 NaN 614.8857715430865 0.5119132861123981 123.0 0.0 70.0 
108.00010179366993 493.0 NaN 614.8804275217092 0.5315089248469375 124.0 0.0 70.0 
110.00010179366993 490.0 NaN 605.6913827655314 0.5230564581572966 123.0 0.0 67.0 
112.00010179366993 488.0 NaN 602.6052104208413 0.5154666098964412 124.0 0.0 66.0 
114.00010179366993 486.0 NaN 599.5457581830324 0.5132528444033408 124.0 0.0 65.0 
116.00010179366993 480.0 NaN 596.4969939879762 0.505056183191976 122.0 0.0 64.0 
118.00010179366993 485.0 NaN 599.6018704074819 0.5301357611908699 122.0 0.0 65.0 
120.00010179366993 480.0 NaN 593.4589178356714 0.5068551767825978 121.0 0.0 63.0 
122.00010179366993 482.0 NaN 593.4615898463591 0.523959400487159 121.0 0.0 63.0 
124.00010179366993 485.0 NaN 596.5611222444892 0.5052281086188793 123.0 0.0 64.0 
126.00010179366993 490.0 NaN 596.5477621910487 0.507769557106937 121.0 0.0 64.0 
128.00010179366993 500.0 NaN 602.6853707414822 0.5385506032164988 123.0 0.0 66.0 
130.00010179366993 496.0 NaN 602.64796259185 0.5226568317901327 126.0 0.0 66.0 
132.00010179366993 499.0 NaN 602.6399465597865 0.5132513326863771 127.0 0.0 66.0 
134.00010179366993 500.0 NaN 599.5644622578495 0.5151022311265874 123.0 0.0 65.0 
136.00010179366993 500.0 NaN 599.5537742150966 0.5048962292665121 123.0 0.0 65.0 
138.00010179366993 506.0 NaN 602.6452905811624 0.531341454129421 125.0 0.0 66.0 
140.00010179366993 501.0 NaN 605.7501670006683 0.5207911612852851 124.0 0.0 67.0 
142.00010179366993 503.0 NaN 605.7234468937877 0.5124569375777503 123.0 0.0 67.0 
144.00010179366993 508.0 NaN 602.6319305277225 0.504221181376208 124.0 0.0 66.0 
146.00010179366993 510.0 NaN 599.5511022044092 0.5171141717685332 123.0 0.0 65.0 
148.00010179366993 517.0 NaN 599.5564462257851 0.5529556294516672 123.0 0.0 65.0 
150.00010179366993 509.0 NaN 596.5050100200405 0.5163446174231955 122.0 0.0 64.0 
152.00010179366993 507.0 NaN 596.4916499666001 0.5133253650426776 122.0 0.0 64.0 
154.00010179366993 507.0 NaN 596.4996659986635 0.518138416142629 123.0 0.0 64.0 
156.00010179366993 502.0 NaN 596.5023380093519 0.5076792957408301 122.0 0.0 64.0 
158.00010179366993 508.0 NaN 599.5591182364726 0.5376843132156609 125.0 0.0 65.0 
160.00010179366993 503.0 NaN 596.4782899131591 0.529024305516208 124.0 0.0 64.0 
162.00010179366993 498.0 NaN 596.4863059452233 0.5186561787716196 123.0 0.0 64.0 
164.00010179366993 496.0 NaN 596.5210420841681 0.5395610492131524 121.0 0.0 64.0 
166.00010179366993 491.0 NaN 599.5778223112891 0.5269675302805521 122.0 0.0 65.0 
168.00010179366993 491.0 NaN 599.5617902471613 0.5411144710712938 128.0 0.0 65.0 
170.00010179366993 494.0 NaN 599.5564462257846 0.5198039347992488 129.0 0.0 65.0 
172.00010179366993 492.0 NaN 596.4916499666001 0.5233553411573069 131.0 0.0 64.0 
174.00010179366993 500.0 NaN 593.4535738142955 0.5155567917590405 132.0 0.0 63.0 
176.00010179366993 497.0 NaN 593.4188376753505 0.5278343144687994 130.0 0.0 63.0 
178.00010179366993 496.0 NaN 593.3947895791587 0.553653380640425 129.0 0.0 63.0 
180.00010179366993 488.0 NaN 599.5511022044092 0.5236488265987772 128.0 0.0 65.0 
182.00010179366993 484.0 NaN 599.5243820975276 0.5238848884414157 128.0 0.0 65.0 
184.00010179366993 488.0 NaN 605.6860387441544 0.5280952867752666 125.0 0.0 67.0 
186.00010179366993 488.0 NaN 608.7802271209089 0.5135511416038756 124.0 0.0 68.0 
188.00010179366993 492.0 NaN 608.8096192384774 0.5313372970817232 124.0 0.0 68.0 
190.00010179366993 494.0 NaN 614.9766199064799 0.5236836462589705 122.0 0.0 70.0 
192.00010179366993 493.0 NaN 614.9605878423515 0.5040824270015704 122.0 0.0 70.0 
194.00010179366993 500.0 NaN 614.9579158316637 0.5203280515503976 123.0 0.0 70.0 
196.00010179366993 496.0 NaN 614.9098196392788 0.5118745432179318 123.0 0.0 70.0 
198.00010179366993 500.0 NaN 611.8236472945887 0.5179088244915576 124.0 0.0 69.0 
200.00010179366993 502.0 NaN 608.7828991315961 0.5207165466150763 124.0 0.0 68.0 
202.00010179366993 496.0 NaN 608.7695390781568 0.5102214923361544 124.0 0.0 68.0 
204.00010179366993 500.0 NaN 617.9959919839682 0.5405069689749014 125.0 0.0 71.0 
206.00010179366993 494.0 NaN 621.0875083500334 0.5046130993347556 121.0 0.0 72.0 
208.00010179366993 500.0 NaN 621.1008684034731 0.5319037004078897 122.0 0.0 72.0 
210.00010179366993 508.0 NaN 621.1062124248501 0.5292154611671998 121.0 0.0 72.0 
212.00010179366993 507.0 NaN 624.1496325985303 0.5089016498527895 124.0 0.0 73.0 
214.00010179366993 505.0 NaN 624.1763527054111 0.5433445386443546 124.0 0.0 73.0 
216.00010179366993 497.0 NaN 624.1309285237136 0.5098320133585018 123.0 0.0 73.0 
218.00010179366993 500.0 NaN 624.1389445557775 0.5176070986437644 123.0 0.0 73.0 
220.00010179366993 501.0 NaN 621.1035404141619 0.5274059399079367 123.0 0.0 72.0 
222.00010179366993 493.0 NaN 621.0794923179683 0.5150399378005068 123.0 0.0 72.0 
224.00010179366993 493.0 NaN 621.0794923179683 0.5235161114683482 123.0 0.0 72.0 
226.00010179366993 492.0 NaN 621.0554442217773 0.5315425953569526 122.0 0.0 72.0 
228.00010179366993 492.0 NaN 624.1282565130259 0.5286516805334213 122.0 0.0 73.0 
230.00010179366993 493.0 NaN 624.1362725450908 0.5506441272831084 120.0 0.0 73.0 
232.00010179366993 483.0 NaN 618.0040080160318 0.5204770291799494 116.0 0.0 71.0 
234.00010179366993 486.0 NaN 617.9879759519044 0.5101653310463782 116.0 0.0 71.0 
236.00010179366993 487.0 NaN 617.9853039412155 0.5049807286337491 116.0 0.0 71.0 
238.00010179366993 492.0 NaN 618.0040080160318 0.5393262087300216 118.0 0.0 71.0 
240.00010179366993 491.0 NaN 614.9285237140955 0.5155983502360256 117.0 0.0 70.0 
242.00010179366993 496.0 NaN 614.9231796927181 0.5124300678704663 119.0 0.0 70.0 
244.00010179366993 502.0 NaN 618.0253841015362 0.5123723043331464 119.0 0.0 71.0 
246.00010179366993 504.0 NaN 614.9311957247819 0.5170245930599991 118.0 0.0 70.0 
248.00010179366993 507.0 NaN 614.9311957247819 0.5046541766330346 120.0 0.0 70.0 
250.00010179366993 512.0 NaN 618.0040080160318 0.5241993458249611 121.0 0.0 71.0 
252.00010179366993 511.0 NaN 621.076820307282 0.5281770879078495 121.0 0.0 72.0 
254.00010179366993 515.0 NaN 621.066132264529 0.5149626464056369 121.0 0.0 72.0 
256.00010179366996 513.0 NaN 624.1122244488986 0.5221797374580907 122.0 0.0 73.0 
258.00010179366996 509.0 NaN 624.1309285237136 0.5177363229515474 123.0 0.0 73.0 
260.00010179366996 507.0 NaN 624.136272545091 0.5200216337610332 123.0 0.0 73.0 
262.00010179366996 502.0 NaN 624.1282565130258 0.5183410080304015 120.0 0.0 73.0 
264.00010179366996 496.0 NaN 621.0581162324652 0.5475264205114788 120.0 0.0 72.0 
266.00010179366996 490.0 NaN 621.0527722110893 0.5095047868114856 120.0 0.0 72.0 
268.00010179366996 497.0 NaN 624.1442885771546 0.5292886350911565 122.0 0.0 73.0 
270.00010179366996 491.0 NaN 624.1416165664667 0.517312548689549 120.0 0.0 73.0 
272.00010179366996 489.0 NaN 624.1389445557772 0.518081310209459 120.0 0.0 73.0 
274.00010179366996 494.0 NaN 624.1202404809621 0.5122537490464463 120.0 0.0 73.0 
276.00010179366996 492.0 NaN 624.0881763527045 0.515999846503983 120.0 0.0 73.0 
278.00010179366996 498.0 NaN 617.9639278557117 0.5309671135683037 119.0 0.0 71.0 
280.00010179366996 500.0 NaN 614.8857715430864 0.5439183791935815 116.0 0.0 70.0 
282.00010179366996 497.0 NaN 605.707414829659 0.5106545550532267 115.0 0.0 67.0 
284.00010179366996 499.0 NaN 608.7615230460927 0.5342821993349687 116.0 0.0 68.0 
286.00010179366996 495.0 NaN 608.7294589178364 0.5118975863116949 116.0 0.0 68.0 
288.00010179366996 507.0 NaN 605.6806947227789 0.5081627045381447 115.0 0.0 67.0 
290.00010179366996 503.0 NaN 602.6212424849701 0.5182092564941337 115.0 0.0 66.0 
292.00010179366996 502.0 NaN 599.5457581830319 0.5087250090071682 116.0 0.0 65.0 
294.00010179366996 502.0 NaN 599.5430861723453 0.5211009197373598 113.0 0.0 65.0 
296.00010179366996 501.0 NaN 599.5671342685365 0.5230937884787474 111.0 0.0 65.0 
298.00010179366996 499.0 NaN 599.5778223112893 0.5516504031425461 110.0 0.0 65.0 
300.00010179366996 480.0 NaN 599.5885103540407 0.520391149659744 110.0 0.0 65.0 
302.00010179366996 480.0 NaN 602.6693386773545 0.5211224848516408 114.0 0.0 66.0 
304.00010179366996 477.0 NaN 602.6987307949227 0.5158464503048897 113.0 0.0 66.0 
306.00010179366996 478.0 NaN 602.7254509018045 0.5243805623325903 113.0 0.0 66.0 
308.00010179366996 474.0 NaN 605.7715430861729 0.5195453176433444 110.0 0.0 67.0 
310.00010179366996 471.0 NaN 605.7047428189711 0.5119123875895449 108.0 0.0 67.0 
312.00010179366996 475.0 NaN 605.7608550434198 0.5046647763504226 108.0 0.0 67.0 
314.00010179366996 477.0 NaN 605.7261189044757 0.5276398394352558 108.0 0.0 67.0 
316.00010179366996 472.0 NaN 602.6533066132272 0.5162010422249237 108.0 0.0 66.0 
318.00010179366996 476.0 NaN 605.7341349365411 0.5308411553738683 107.0 0.0 67.0 
320.00010179366996 472.0 NaN 605.7261189044756 0.5285368618777431 107.0 0.0 67.0 
322.00010179366996 473.0 NaN 596.4916499666001 0.5272840589492684 107.0 0.0 64.0 
324.00010179366996 470.0 NaN 590.3620574482298 0.5266225479861768 107.0 0.0 62.0 
326.00010179366996 468.0 NaN 587.2732130928525 0.5205055537136778 107.0 0.0 61.0 
328.00010179366996 469.0 NaN 587.2785571142291 0.5323542095420344 104.0 0.0 61.0 
330.00010179366996 473.0 NaN 590.3433533734137 0.5131544645596282 105.0 0.0 62.0 
332.00010179366996 475.0 NaN 590.340681362725 0.5259880186411828 106.0 0.0 62.0 
334.00010179366996 474.0 NaN 590.3460253841017 0.504309376257888 103.0 0.0 62.0 
336.00010179366996 481.0 NaN 590.3460253841018 0.5160679761993425 105.0 0.0 62.0 
338.00010179366996 486.0 NaN 590.3513694054772 0.5348940416630678 110.0 0.0 62.0 
340.00010179366996 484.0 NaN 587.2972611890451 0.5343989816708522 111.0 0.0 61.0 
342.00010179366996 483.0 NaN 590.3326653306613 0.517722727844425 111.0 0.0 62.0 
344.00010179366996 481.0 NaN 590.3273213092862 0.5123279495968862 110.0 0.0 62.0 
346.00010179366996 485.0 NaN 590.3620574482298 0.5266502816830176 110.0 0.0 62.0 
348.00010179366996 484.0 NaN 593.4428857715428 0.5276910250360173 110.0 0.0 63.0 
350.00010179366996 479.0 NaN 590.3754175016702 0.5612611222079161 111.0 0.0 62.0 
352.00010179366996 475.0 NaN 590.3433533734137 0.5261733530968724 112.0 0.0 62.0 
354.00010179366996 471.0 NaN 590.3380093520365 0.5259767791941482 111.0 0.0 62.0 
356.00010179366996 475.0 NaN 587.2678690714771 0.5061941032499615 108.0 0.0 61.0 
358.00010179366996 486.0 NaN 587.2678690714771 0.5224871314089203 109.0 0.0 61.0 
360.00010179366996 482.0 NaN 584.2137608550432 0.5229601689602784 107.0 0.0 60.0 
362.00010179366996 476.0 NaN 584.2191048764199 0.5082719071109689 107.0 0.0 60.0 
364.00010179366996 474.0 NaN 584.2137608550432 0.5156900047972077 107.0 0.0 60.0 
366.00010179366996 475.0 NaN 581.1382765531062 0.5174814615929944 107.0 0.0 59.0 
368.00010179366996 474.0 NaN 575.00334001336 0.5287666150482978 106.0 0.0 57.0 
370.00010179366996 475.0 NaN 575.00334001336 0.5471911429025574 106.0 0.0 57.0 
372.00010179366996 471.0 NaN 575.0086840347363 0.5256829216026444 108.0 0.0 57.0 
374.00010179366996 471.0 NaN 578.1082164328659 0.5245995619665345 109.0 0.0 58.0 
376.00010179366996 469.0 NaN 584.2672010688046 0.5072826245328885 106.0 0.0 60.0 
378.00010179366996 473.0 NaN 584.2511690046758 0.5294322547368138 107.0 0.0 60.0 
380.00010179366996 471.0 NaN 587.340013360054 0.5380892365225314 105.0 0.0 61.0 
382.00010179366996 470.0 NaN 587.3132932531727 0.5096799036508918 106.0 0.0 61.0 
384.00010179366996 470.0 NaN 587.321309285237 0.5338523239438391 106.0 0.0 61.0 
386.00010179366996 461.0 NaN 587.340013360054 0.5149757101382647 106.0 0.0 61.0 
388.00010179366996 465.0 NaN 590.4208416833666 0.5161396523476364 107.0 0.0 62.0 
390.00010179366996 467.0 NaN 593.4509018036069 0.5408665218353752 108.0 0.0 63.0 
392.00010179366996 466.0 NaN 593.4402137608545 0.5265057091047579 108.0 0.0 63.0 
394.00010179366996 476.0 NaN 599.6072144288573 0.5072412936647382 109.0 0.0 65.0 
396.00010179366996 477.0 NaN 599.63126252505 0.5148485482577722 112.0 0.0 65.0 
398.00010179366996 481.0 NaN 596.5531062124246 0.5276845315824086 111.0 0.0 64.0 
400.00010179366996 474.0 NaN 599.6152304609226 0.5506420708117853 112.0 0.0 65.0 
402.00010179366996 471.0 NaN 602.685370741482 0.5366597513588977 112.0 0.0 66.0 
404.00010179366996 474.0 NaN 608.8390113560454 0.5172860096342214 113.0 0.0 68.0 
406.00010179366996 478.0 NaN 608.8203072812291 0.5205846004901741 113.0 0.0 68.0 
408.00010179366996 483.0 NaN 608.8016032064133 0.5219255288629816 113.0 0.0 68.0 
410.00010179366996 486.0 NaN 608.7935871743484 0.5117298469906353 113.0 0.0 68.0 
412.00010179366996 488.0 NaN 611.8770875083501 0.5108534337288214 113.0 0.0 69.0 
414.00010179366996 486.0 NaN 611.8770875083501 0.5334536640868247 114.0 0.0 69.0 
416.00010179366996 479.0 NaN 611.8744154976621 0.5195797141210032 115.0 0.0 69.0 
418.00010179366996 490.0 NaN 614.939211756847 0.5198124340192464 115.0 0.0 70.0 
420.00010179366996 488.0 NaN 618.0681362725455 0.5331180767637658 116.0 0.0 71.0 
422.00010179366996 492.0 NaN 618.0093520374089 0.5055115851077479 119.0 0.0 71.0 
424.00010179366996 506.0 NaN 630.2952571810284 0.5324113286910048 124.0 0.0 75.0 
426.00010179366996 503.0 NaN 630.3059452237818 0.5201009265413876 127.0 0.0 75.0 
428.00010179366996 505.0 NaN 630.2818971275877 0.5389280627193208 127.0 0.0 75.0 
430.00010179366996 488.0 NaN 630.273881095524 0.5367760278643193 127.0 0.0 75.0 
432.00010179366996 482.0 NaN 630.2471609886442 0.5148965323024915 124.0 0.0 75.0 
434.00010179366996 483.0 NaN 630.2685370741485 0.5282304426030566 123.0 0.0 75.0 
436.00010179366996 481.0 NaN 633.3520374081501 0.5202367630008116 124.0 0.0 76.0 
438.00010179366996 481.0 NaN 630.260521042085 0.5353925530385695 123.0 0.0 75.0 
440.00010179366996 474.0 NaN 633.3547094188376 0.5354369726125289 124.0 0.0 76.0 
442.00010179366996 472.0 NaN 636.3607214428864 0.5126891303224869 124.0 0.0 77.0 
444.00010179366996 480.0 NaN 639.4629258517045 0.5077721959002898 125.0 0.0 78.0 
446.00010179366996 483.0 NaN 636.4168336673351 0.5426822891196327 126.0 0.0 77.0 
448.00010179366996 476.0 NaN 639.5217100868409 0.5319398823697863 127.0 0.0 78.0 
450.00010179366996 473.0 NaN 639.4682698730785 0.5367573204803373 123.0 0.0 78.0 
452.00010179366996 474.0 NaN 639.5136940547771 0.5286068889165683 124.0 0.0 78.0 
454.00010179366996 485.0 NaN 636.4435537742147 0.5277211769199922 127.0 0.0 77.0 
456.00010179366996 480.0 NaN 636.4248496993989 0.5303997921170358 127.0 0.0 77.0 
458.00010179366996 483.0 NaN 636.3794255177012 0.5152324685929573 128.0 0.0 77.0 
460.00010179366996 490.0 NaN 636.4462257849034 0.5208277646168805 128.0 0.0 77.0 
462.00010179366996 490.0 NaN 636.4515698062785 0.5640493561828771 127.0 0.0 77.0 
464.00010179366996 479.0 NaN 636.4569138276545 0.5030584678123903 126.0 0.0 77.0 
466.00010179366996 480.0 NaN 633.3680694722773 0.5122390815168947 124.0 0.0 76.0 
468.00010179366996 484.0 NaN 633.3493653974624 0.5338985968814995 124.0 0.0 76.0 
470.00010179366996 480.0 NaN 633.303941215765 0.5408229540168644 124.0 0.0 76.0 
472.00010179366996 471.0 NaN 633.2932531730137 0.5328347698037224 122.0 0.0 76.0 
474.00010179366996 466.0 NaN 624.1148964595865 0.5179501527943632 121.0 0.0 73.0 
476.00010179366996 468.0 NaN 624.0774883099533 0.5185337405881093 121.0 0.0 73.0 
478.00010179366996 471.0 NaN 624.0721442885774 0.524704548789511 122.0 0.0 73.0 
480.00010179366996 467.0 NaN 624.093520374082 0.5206355158813112 121.0 0.0 73.0 
482.00010179366996 467.0 NaN 624.0801603206409 0.5433834338694125 122.0 0.0 73.0 
484.00010179366996 462.0 NaN 624.0614562458263 0.515697264433633 121.0 0.0 73.0 
486.00010179366996 457.0 NaN 624.0507682030727 0.5078898305103212 121.0 0.0 73.0 
488.00010179366996 460.0 NaN 617.9158316633274 0.5233791848152908 118.0 0.0 71.0 
490.00010179366996 465.0 NaN 617.9692718770863 0.5050093843133109 119.0 0.0 71.0 
492.00010179366996 480.0 NaN 614.9285237140956 0.5150362771870179 122.0 0.0 70.0 
494.00010179366996 475.0 NaN 614.923179692718 0.5213937486117226 122.0 0.0 70.0 
496.00010179366996 470.0 NaN 611.8423513694047 0.5070848598674941 120.0 0.0 69.0 
498.00010179366996 474.0 NaN 608.7668670674682 0.5137917629354027 120.0 0.0 68.0 
500.00010179366996 479.0 NaN 605.7047428189711 0.5306969526028478 118.0 0.0 67.0 
502.00010179366996 473.0 NaN 605.6940547762184 0.5372487091146113 118.0 0.0 67.0 
504.00010179366996 464.0 NaN 605.6993987975956 0.5032082606443589 117.0 0.0 67.0 
506.00010179366996 466.0 NaN 593.4081496325985 0.5049611351368176 115.0 0.0 63.0 
508.00010179366996 468.0 NaN 587.2518370073477 0.510663093054964 115.0 0.0 61.0 
510.00010179366996 477.0 NaN 590.3246492985976 0.5188363690815556 116.0 0.0 62.0 
512.00010179367 472.0 NaN 590.3139612558452 0.5442514633813886 117.0 0.0 62.0 
514.00010179367 466.0 NaN 587.2545090180364 0.5214617920293415 114.0 0.0 61.0 
516.00010179367 463.0 NaN 584.1843687374751 0.5127271136702729 112.0 0.0 60.0 
518.00010179367 464.0 NaN 581.1356045424182 0.5254698999914015 111.0 0.0 59.0 
520.00010179367 467.0 NaN 584.2084168336671 0.5218620655829586 109.0 0.0 60.0 
522.00010179367 464.0 NaN 578.070808283233 0.5033644759225137 111.0 0.0 58.0 
524.00010179367 464.0 NaN 578.0654642618568 0.5206715321669295 106.0 0.0 58.0 
526.00010179367 461.0 NaN 574.9873079492318 0.5152429218752629 106.0 0.0 57.0 
528.00010179367 460.0 NaN 574.992651970608 0.5196921082236057 104.0 0.0 57.0 
530.00010179367 465.0 NaN 575.0086840347363 0.5227275298097591 106.0 0.0 57.0 
532.00010179367 465.0 NaN 575.0220440881761 0.5249663031699815 107.0 0.0 57.0 
534.00010179367 466.0 NaN 578.1242484969939 0.5229279549334953 104.0 0.0 58.0 
536.00010179367 469.0 NaN 578.137608550434 0.5081701869359453 102.0 0.0 58.0 
538.00010179367 470.0 NaN 578.1456245824983 0.5302283809463425 101.0 0.0 58.0 
540.00010179367 466.0 NaN 578.1135604542419 0.5283595106515483 101.0 0.0 58.0 
542.00010179367 463.0 NaN 578.1322645290579 0.5295678117587136 101.0 0.0 58.0 
544.00010179367 464.0 NaN 578.1269205076819 0.5082426653036798 101.0 0.0 58.0 
546.00010179367 466.0 NaN 578.124248496994 0.5368402185028872 101.0 0.0 58.0 
548.00010179367 461.0 NaN 578.137608550434 0.5121949235883504 101.0 0.0 58.0 
550.00010179367 465.0 NaN 578.137608550434 0.5158970910021148 100.0 0.0 58.0 
552.00010179367 463.0 NaN 575.0487641950568 0.5241260505030197 100.0 0.0 57.0 
554.00010179367 473.0 NaN 578.0975283901137 0.5324569419204609 101.0 0.0 58.0 
556.00010179367 470.0 NaN 578.0975283901137 0.5364725143695834 102.0 0.0 58.0 
558.00010179367 466.0 NaN 578.1028724114898 0.5242972829752132 102.0 0.0 58.0 
560.00010179367 464.0 NaN 578.1108884435538 0.538653505320784 102.0 0.0 58.0 
562.00010179367 461.0 NaN 568.8897795591181 0.5367455642152448 99.0 0.0 55.0 
564.00010179367 463.0 NaN 571.9572478289914 0.5178013790801327 104.0 0.0 56.0 
566.00010179367 457.0 NaN 571.9545758183034 0.5379142198601783 104.0 0.0 56.0 
568.00010179367 457.0 NaN 575.0193720774884 0.5157308770203679 104.0 0.0 57.0 
570.00010179367 461.0 NaN 571.9732798931193 0.5486713727457293 105.0 0.0 56.0 
572.00010179367 459.0 NaN 575.0380761523045 0.5160259318284361 104.0 0.0 57.0 
574.00010179367 461.0 NaN 575.0647962591852 0.5346621519793506 105.0 0.0 57.0 
576.00010179367 456.0 NaN 575.0220440881762 0.5159939266757377 105.0 0.0 57.0 
578.00010179367 454.0 NaN 575.0220440881762 0.5224662811297459 104.0 0.0 57.0 
580.00010179367 462.0 NaN 568.8871075484302 0.5159065758524516 104.0 0.0 55.0 
582.00010179367 465.0 NaN 568.8977955911822 0.5484537863850376 103.0 0.0 55.0 
584.00010179367 464.0 NaN 568.8977955911822 0.5367399339768147 104.0 0.0 55.0 
586.00010179367 463.0 NaN 568.8924515698064 0.5200492717996605 102.0 0.0 55.0 
588.00010179367 464.0 NaN 572.0106880427522 0.5319230199447141 103.0 0.0 56.0 
590.00010179367 461.0 NaN 575.0701402805613 0.5525682821473505 101.0 0.0 57.0 
592.00010179367 453.0 NaN 575.0327321309284 0.5143115441549814 100.0 0.0 57.0 
594.00010179367 466.0 NaN 574.9953239812958 0.5145680446628575 102.0 0.0 57.0 
596.00010179367 466.0 NaN 574.9899799599198 0.5270588279589615 102.0 0.0 57.0 
598.00010179367 467.0 NaN 574.9953239812958 0.5186400145950952 104.0 0.0 57.0 
600.00010179367 477.0 NaN 575.0167000668 0.5630251830677551 104.0 0.0 57.0 
602.00010179367 463.0 NaN 575.000668002672 0.5551510041091989 103.0 0.0 57.0 
604.00010179367 468.0 NaN 578.0948563794253 0.5482801006004357 103.0 0.0 58.0 
606.00010179367 467.0 NaN 578.0895123580497 0.5127924898815255 103.0 0.0 58.0 
608.00010179367 476.0 NaN 578.0895123580497 0.5372328362217844 104.0 0.0 58.0 
610.00010179367 484.0 NaN 587.3346693386773 0.5251004812198283 105.0 0.0 61.0 
612.00010179367 480.0 NaN 587.3613894455577 0.5150334152252498 107.0 0.0 61.0 
614.00010179367 480.0 NaN 584.2698730794923 0.5362326205524065 106.0 0.0 60.0 
616.00010179367 473.0 NaN 584.2404809619236 0.5411892767593453 105.0 0.0 60.0 
618.00010179367 478.0 NaN 584.2324649298598 0.5554327182700413 104.0 0.0 60.0 
620.00010179367 475.0 NaN 584.2271209084839 0.514424899913798 106.0 0.0 60.0 
622.00010179367 471.0 NaN 584.2378089512364 0.5285551205581848 105.0 0.0 60.0 
624.00010179367 473.0 NaN 581.183700734803 0.5367868092269581 105.0 0.0 59.0 
626.00010179367 475.0 NaN 584.2538410153637 0.5221591705978017 106.0 0.0 60.0 
628.00010179367 482.0 NaN 590.4235136940545 0.5485579777105537 107.0 0.0 62.0 
630.00010179367 476.0 NaN 590.4181696726788 0.5500957758799268 110.0 0.0 62.0 
632.00010179367 470.0 NaN 593.5257181028728 0.5248468515270606 113.0 0.0 63.0 
634.00010179367 469.0 NaN 590.3861055444228 0.5272404612816084 110.0 0.0 62.0 
636.00010179367 473.0 NaN 590.3460253841016 0.5338755784560072 111.0 0.0 62.0 
638.00010179367 482.0 NaN 593.4321977287909 0.5397893068208136 113.0 0.0 63.0 
640.00010179367 486.0 NaN 599.5751503006014 0.5177886394724068 116.0 0.0 65.0 
642.00010179367 480.0 NaN 596.5130260521044 0.5335210417864735 115.0 0.0 64.0 
644.00010179367 474.0 NaN 599.588510354041 0.5114859934093496 114.0 0.0 65.0 
646.00010179367 483.0 NaN 605.7020708082831 0.5248735725740905 119.0 0.0 67.0 
648.00010179367 480.0 NaN 605.6753507014025 0.562812591606526 123.0 0.0 67.0 
650.00010179367 469.0 NaN 602.629258517034 0.5415275849634213 122.0 0.0 66.0 
652.00010179367 470.0 NaN 608.7748830995322 0.5090446708772801 122.0 0.0 68.0 
654.00010179367 480.0 NaN 614.9659318637273 0.5323839084618465 121.0 0.0 70.0 
656.00010179367 477.0 NaN 614.9739478957916 0.5469102637364261 122.0 0.0 70.0 
658.00010179367 479.0 NaN 618.0013360053441 0.5131865558577575 122.0 0.0 71.0 
660.00010179367 482.0 NaN 617.9559118236476 0.5236051098775324 127.0 0.0 71.0 
662.00010179367 484.0 NaN 621.0607882431528 0.5524908522791726 127.0 0.0 72.0 
664.00010179367 479.0 NaN 624.152304609218 0.5362386566559365 126.0 0.0 73.0 
#####################################################################
# End of data export. Simulation finished at: 2019-03-07T17:08+0000 #
#####################################################################
