#####################################################################
# Alchemist log file - simulation started at: 2019-03-07T00:51+0000 #
#####################################################################
# seed = 4.0, bandwidth = 2.3713737056616552E7, propagationDelay = 0.03162277660168379, baserange = 31.622776601683796
#
# The columns have the following meaning: 
# time neighbor_count[Sum] <value>@neighbor_count[Sum] packet_size[Mean] mean_delay[Mean] crowd[Sum] overcrowded[Sum] risk[Sum] 
0.0 NaN NaN NaN NaN NaN NaN NaN 
2.000435108152791 2782.0 NaN 4996.606546426186 0.5014532155987382 1496.0 1.0 1496.0 
4.00042902272939 2788.0 NaN 4999.748830995324 0.5015777989048118 1492.0 5.0 1492.0 
6.00043510815279 2790.0 NaN 4995.772879091516 0.5015712848563844 1450.0 47.0 1450.0 
8.00043510815279 2790.0 NaN 4996.8042752171 0.5015712676230266 1415.0 82.0 1415.0 
10.00043510815279 2795.0 NaN 4995.032732130929 0.5030163809639031 1422.0 75.0 1422.0 
12.00043510815279 2790.0 NaN 4995.433533734135 0.5024238002865358 1405.0 92.0 1405.0 
14.00042902272939 2790.0 NaN 4994.63460253841 0.501454823959204 1405.0 92.0 1405.0 
16.000435108152793 2796.0 NaN 4995.2651970607885 0.5028625559558326 1400.0 97.0 1400.0 
18.000435108152793 2795.0 NaN 4994.167000668002 0.5043127744631266 1404.0 93.0 1404.0 
20.000435108152793 2799.0 NaN 4995.182364729459 0.5031817629736547 1404.0 93.0 1404.0 
22.000435108152793 2794.0 NaN 4993.8810955243825 0.5042576814612365 1411.0 86.0 1411.0 
24.000429022729392 2793.0 NaN 4995.203740814964 0.5019192670419678 1406.0 91.0 1406.0 
26.000435108152793 2811.0 NaN 4993.811623246493 0.5054963968666536 1410.0 87.0 1410.0 
28.000435108152793 2800.0 NaN 4995.08617234469 0.5024465740762172 1403.0 94.0 1403.0 
30.000435108152793 2810.0 NaN 4994.0467601870405 0.5052000977587564 1407.0 90.0 1407.0 
32.00043510815279 2807.0 NaN 4994.888443553774 0.5055621123311138 1401.0 96.0 1401.0 
34.00042902272939 2810.0 NaN 4993.9933199732795 0.5023551265170664 1412.0 85.0 1412.0 
36.00043510815279 2830.0 NaN 4994.746826987308 0.5081148678128147 1405.0 92.0 1405.0 
38.00043510815279 2815.0 NaN 4993.894455577823 0.5036056602590724 1412.0 85.0 1412.0 
40.00043510815279 2817.0 NaN 4994.864395457582 0.5040108064813452 1406.0 91.0 1406.0 
42.00043510815279 2816.0 NaN 4993.752839011356 0.504166259965266 1409.0 88.0 1409.0 
44.00042902272939 2823.0 NaN 4994.749498997996 0.5021213307398702 1396.0 101.0 1396.0 
46.00043510815279 2847.0 NaN 4993.83032732131 0.5059391891464804 1398.0 99.0 1398.0 
48.00043510815279 2838.0 NaN 4994.773547094188 0.5047319142980806 1393.0 104.0 1393.0 
50.00043510815279 2845.0 NaN 4993.792919171677 0.5083412552014438 1396.0 101.0 1396.0 
52.00043510815279 2840.0 NaN 4994.594522378089 0.5103326575129451 1398.0 99.0 1398.0 
54.00042902272939 2838.0 NaN 4993.85704742819 0.5100749619971874 1397.0 100.0 1397.0 
56.00043510815279 2847.0 NaN 4994.551770207081 0.5067884346581244 1395.0 102.0 1395.0 
58.00043510815279 2821.0 NaN 4993.873079492318 0.5021097318312906 1398.0 99.0 1398.0 
60.00043510815279 2833.0 NaN 4994.661322645291 0.5008759586721774 1399.0 98.0 1399.0 
62.000241633797025 2832.0 NaN 1521.7314629258522 0.502801859486323 577.0 94.0 271.0 
64.00024163379702 2836.0 NaN 1521.6245824983298 0.4997589728913456 487.0 94.0 271.0 
66.00024163379702 2855.0 NaN 1524.566466265864 0.5026326363813207 447.0 94.0 272.0 
68.00024163379702 2848.0 NaN 1524.4969939879752 0.5071533069564912 415.0 92.0 274.0 
70.00024163379702 2851.0 NaN 1524.6065464261849 0.5019786055916023 404.0 89.0 277.0 
72.00024163379702 2846.0 NaN 1527.7702070808273 0.505455260014894 398.0 90.0 277.0 
74.00024163379702 2844.0 NaN 1530.6907147628574 0.5011260016850329 393.0 94.0 274.0 
76.00024163379702 2859.0 NaN 1530.8243152972614 0.5042375990572939 395.0 92.0 276.0 
78.00024163379702 2847.0 NaN 1533.798263193054 0.5056461956081576 392.0 93.0 276.0 
80.00024163379702 2860.0 NaN 1536.943219772879 0.5038386139519891 390.0 95.0 275.0 
82.00024163379702 2846.0 NaN 1536.8470273881092 0.50851133107433 394.0 91.0 279.0 
84.00024163379702 2832.0 NaN 1536.9164996659997 0.5014230820795671 387.0 95.0 275.0 
86.00024163379702 2831.0 NaN 1536.929859719439 0.5031463677364693 385.0 93.0 277.0 
88.00024163379702 2819.0 NaN 1536.8390113560454 0.5004894862456898 386.0 90.0 280.0 
90.00024163379702 2832.0 NaN 1536.9966599866393 0.5056201233442276 390.0 84.0 286.0 
92.00024163379702 2808.0 NaN 1536.8577154308634 0.5061839985840044 390.0 84.0 286.0 
94.00024163379702 2799.0 NaN 1536.761523046091 0.5020181968557352 392.0 80.0 290.0 
96.00024163379702 2805.0 NaN 1536.8336673346696 0.506623612501556 390.0 82.0 288.0 
98.00024163379702 2789.0 NaN 1536.8470273881092 0.5004455340419296 381.0 91.0 279.0 
100.00024163379702 2804.0 NaN 1539.8049432197727 0.5062029328837844 383.0 89.0 282.0 
102.00024163379702 2787.0 NaN 1539.9438877755513 0.506142991525477 390.0 81.0 290.0 
104.00024163379702 2786.0 NaN 1539.890447561791 0.5017840153454285 387.0 84.0 287.0 
106.00024163379702 2804.0 NaN 1539.9305277221092 0.5048730935225875 385.0 86.0 285.0 
108.00024163379702 2798.0 NaN 1539.8557114228454 0.5122534478849156 379.0 92.0 279.0 
110.00024163379702 2811.0 NaN 1539.8824315297275 0.5041026715968052 393.0 78.0 293.0 
112.00024163379702 2798.0 NaN 1539.8984635938546 0.5027976125813091 392.0 79.0 292.0 
114.00024163379702 2807.0 NaN 1539.9144956579817 0.5025317720171136 391.0 80.0 291.0 
116.00024163379702 2810.0 NaN 1539.7915831663333 0.5068819504089328 393.0 78.0 293.0 
118.00024163379702 2798.0 NaN 1546.020040080161 0.508857105250109 390.0 82.0 291.0 
120.00024163379702 2805.0 NaN 1549.2798931195728 0.5095161056292287 395.0 80.0 294.0 
122.00024163379702 2783.0 NaN 1549.0313961255845 0.5055810083813733 399.0 75.0 299.0 
124.00024163379702 2788.0 NaN 1549.0981963927848 0.4993395553521496 389.0 84.0 290.0 
126.00024163379702 2795.0 NaN 1549.1623246493 0.5030295580822475 393.0 80.0 294.0 
128.000241633797 2783.0 NaN 1549.0100200400818 0.4996895213024132 391.0 82.0 292.0 
130.000241633797 2792.0 NaN 1546.1242484969935 0.5067696222314881 394.0 78.0 295.0 
132.000241633797 2775.0 NaN 1542.8563794255183 0.5167217482132512 394.0 74.0 298.0 
134.000241633797 2759.0 NaN 1543.0113560454245 0.5035764699078803 391.0 77.0 295.0 
136.000241633797 2771.0 NaN 1539.847695390782 0.5046200956374789 396.0 71.0 300.0 
138.000241633797 2776.0 NaN 1542.9418837675362 0.5069579641042745 386.0 83.0 289.0 
140.000241633797 2786.0 NaN 1539.9225116900457 0.5045242658121808 381.0 86.0 285.0 
142.000241633797 2811.0 NaN 1546.0681362725456 0.5037229627948449 374.0 93.0 280.0 
144.000241633797 2808.0 NaN 1549.1997327989302 0.5010750494339209 370.0 98.0 276.0 
146.000241633797 2816.0 NaN 1546.1349365397452 0.5011909094302196 371.0 97.0 276.0 
148.000241633797 2823.0 NaN 1552.0988643954574 0.5153517083338173 371.0 97.0 278.0 
150.000241633797 2831.0 NaN 1552.2030728122909 0.5042768590285512 381.0 86.0 289.0 
152.000241633797 2840.0 NaN 1549.1356045424182 0.5033604604359845 380.0 87.0 287.0 
154.000241633797 2835.0 NaN 1549.202404809618 0.49997901669942063 374.0 94.0 280.0 
156.000241633797 2847.0 NaN 1543.043420173682 0.5022310350586331 380.0 89.0 283.0 
158.000241633797 2845.0 NaN 1543.0167000667998 0.5024444555939046 371.0 98.0 274.0 
160.000241633797 2857.0 NaN 1543.043420173682 0.5097551404556595 371.0 98.0 274.0 
162.000241633797 2843.0 NaN 1543.0327321309273 0.5107538924317588 376.0 92.0 280.0 
164.000241633797 2810.0 NaN 1542.9205076820303 0.5055887059558537 371.0 96.0 276.0 
166.000241633797 2808.0 NaN 1546.1295925183701 0.5064265580444656 374.0 92.0 281.0 
168.000241633797 2812.0 NaN 1543.0220440881756 0.5137854152437318 373.0 91.0 281.0 
170.000241633797 2819.0 NaN 1543.0567802271207 0.5096331317830152 381.0 82.0 290.0 
172.000241633797 2802.0 NaN 1542.9739478957908 0.511651689560008 375.0 88.0 284.0 
174.000241633797 2786.0 NaN 1536.9058116232454 0.5050630964920126 378.0 84.0 286.0 
176.000241633797 2780.0 NaN 1539.8370073480273 0.507040228006403 383.0 79.0 292.0 
178.000241633797 2770.0 NaN 1539.8557114228454 0.5129934809725986 382.0 81.0 290.0 
180.000241633797 2783.0 NaN 1539.8877755510998 0.5050247692320929 381.0 84.0 287.0 
182.000241633797 2779.0 NaN 1539.9438877755517 0.5076278245875481 387.0 78.0 293.0 
184.000241633797 2771.0 NaN 1536.9378757515026 0.5083153430267523 373.0 92.0 278.0 
186.000241633797 2769.0 NaN 1539.8744154976634 0.5128108526768254 372.0 93.0 278.0 
188.000241633797 2759.0 NaN 1536.8764195056792 0.5045706256668849 370.0 94.0 276.0 
190.000241633797 2776.0 NaN 1536.8523714094845 0.5097981213544668 374.0 90.0 280.0 
192.000241633797 2758.0 NaN 1540.0881763527063 0.5146199512704128 373.0 93.0 278.0 
194.000241633797 2753.0 NaN 1539.9679358717453 0.5113394148657626 364.0 99.0 272.0 
196.000241633797 2764.0 NaN 1540.0561122244485 0.5115518536696911 365.0 98.0 273.0 
198.000241633797 2774.0 NaN 1539.975951903809 0.5123608755726563 365.0 99.0 272.0 
200.000241633797 2777.0 NaN 1540.0774883099543 0.5081602673239861 363.0 99.0 272.0 
202.000241633797 2777.0 NaN 1546.2204408817638 0.5114158556247512 368.0 95.0 278.0 
204.000241633797 2783.0 NaN 1549.2344689378751 0.5055930648949634 368.0 98.0 276.0 
206.000241633797 2794.0 NaN 1549.19973279893 0.5156470840070039 369.0 97.0 277.0 
208.000241633797 2774.0 NaN 1539.9465597862388 0.5145954780458659 367.0 99.0 272.0 
210.000241633797 2774.0 NaN 1540.024048096191 0.5097809145570154 367.0 96.0 275.0 
212.000241633797 2770.0 NaN 1542.9926519706091 0.5259138060792462 365.0 99.0 273.0 
214.000241633797 2738.0 NaN 1542.9231796927181 0.5109388931061342 356.0 109.0 263.0 
216.000241633797 2744.0 NaN 1543.035404141618 0.5073604778855983 368.0 97.0 275.0 
218.000241633797 2755.0 NaN 1539.9038076152299 0.5068379833711073 364.0 100.0 271.0 
220.000241633797 2770.0 NaN 1539.9305277221092 0.5115229826024388 364.0 100.0 271.0 
222.000241633797 2772.0 NaN 1536.801603206412 0.510882650561861 372.0 94.0 276.0 
224.000241633797 2761.0 NaN 1536.8710754843 0.5068680299628822 369.0 95.0 275.0 
226.000241633797 2763.0 NaN 1539.8824315297275 0.5107515629390665 365.0 98.0 273.0 
228.000241633797 2755.0 NaN 1545.9799599198388 0.5195378949468394 363.0 101.0 272.0 
230.000241633797 2751.0 NaN 1546.1028724114908 0.5045788939932773 372.0 91.0 282.0 
232.000241633797 2756.0 NaN 1546.094856379427 0.5142918989362607 367.0 96.0 277.0 
234.000241633797 2738.0 NaN 1549.0340681362727 0.5078225879474934 362.0 100.0 274.0 
236.000241633797 2746.0 NaN 1546.1055444221793 0.5072230626834946 362.0 97.0 276.0 
238.000241633797 2743.0 NaN 1542.9953239812976 0.5141061455305974 359.0 100.0 272.0 
240.000241633797 2743.0 NaN 1539.9385437541728 0.5154984843744743 356.0 104.0 267.0 
242.000241633797 2721.0 NaN 1539.8129592518362 0.5117219876546203 363.0 97.0 274.0 
244.000241633797 2707.0 NaN 1536.782899131597 0.5049525991341628 358.0 102.0 268.0 
246.000241633797 2714.0 NaN 1536.8122912491638 0.5069834651970067 366.0 93.0 277.0 
248.000241633797 2712.0 NaN 1536.793587174348 0.5044886552071531 358.0 99.0 271.0 
250.000241633797 2717.0 NaN 1533.7715430861729 0.5050744444834507 368.0 90.0 279.0 
252.000241633797 2703.0 NaN 1530.6666666666663 0.5117032946212202 363.0 94.0 274.0 
254.000241633797 2698.0 NaN 1527.5938543754182 0.5123594084226829 358.0 97.0 270.0 
256.00024163379703 2725.0 NaN 1527.6018704074818 0.5090952709064012 362.0 95.0 272.0 
258.00024163379703 2726.0 NaN 1527.6045424181702 0.5147931693719139 365.0 94.0 273.0 
260.00024163379703 2711.0 NaN 1524.638610554443 0.5151246363921291 365.0 95.0 271.0 
262.00024163379703 2704.0 NaN 1527.5938543754182 0.5276636090307784 367.0 91.0 276.0 
264.00024163379703 2677.0 NaN 1527.711422845691 0.5066498929943667 368.0 92.0 275.0 
266.00024163379703 2703.0 NaN 1536.9672678690727 0.5131781826552808 373.0 85.0 285.0 
268.00024163379703 2702.0 NaN 1543.0033400133611 0.5069233110593186 374.0 85.0 287.0 
270.00024163379703 2698.0 NaN 1543.0167000667998 0.5135765550447146 380.0 80.0 292.0 
272.00024163379703 2698.0 NaN 1536.9058116232454 0.5273979989504723 377.0 82.0 288.0 
274.00024163379703 2666.0 NaN 1533.768871075484 0.5075960541222407 375.0 83.0 286.0 
276.00024163379703 2670.0 NaN 1536.916499666 0.5168408979935621 377.0 79.0 291.0 
278.00024163379703 2653.0 NaN 1539.8717434869727 0.5231231063593522 374.0 82.0 289.0 
280.00024163379703 2647.0 NaN 1539.9492317969275 0.5116380381284218 374.0 85.0 286.0 
282.00024163379703 2644.0 NaN 1539.8797595190365 0.5217000617930015 383.0 79.0 292.0 
284.00024163379703 2623.0 NaN 1539.8797595190365 0.5101121222891173 377.0 84.0 287.0 
286.00024163379703 2630.0 NaN 1533.7528390113546 0.5125594862388302 377.0 82.0 287.0 
288.00024163379703 2610.0 NaN 1533.6432865731454 0.5087087413314884 379.0 78.0 291.0 
290.00024163379703 2621.0 NaN 1533.7875751503 0.5089414201140141 384.0 71.0 298.0 
292.00024163379703 2619.0 NaN 1530.6693386773545 0.5102984550405248 380.0 74.0 294.0 
294.00024163379703 2613.0 NaN 1536.8122912491635 0.5045511488867365 380.0 76.0 294.0 
296.00024163379703 2617.0 NaN 1536.785571142284 0.5163020827523935 382.0 75.0 295.0 
298.00024163379703 2611.0 NaN 1539.810287241148 0.5011768258558138 377.0 81.0 290.0 
300.00024163379703 2624.0 NaN 1539.975951903809 0.5068036820712316 379.0 80.0 291.0 
302.00024163379703 2631.0 NaN 1539.810287241148 0.5032244311721392 386.0 74.0 297.0 
304.00024163379703 2630.0 NaN 1536.8924515698068 0.504715807806712 378.0 79.0 291.0 
306.00024163379703 2639.0 NaN 1533.7020708082819 0.5094086356188205 382.0 76.0 293.0 
308.00024163379703 2624.0 NaN 1533.7875751503 0.5079175090600548 380.0 77.0 292.0 
310.00024163379703 2622.0 NaN 1530.7735470941886 0.5085342316006976 384.0 72.0 296.0 
312.00024163379703 2617.0 NaN 1533.683366733466 0.5116648233785289 381.0 75.0 294.0 
314.00024163379703 2613.0 NaN 1530.6933867735456 0.5081196981624203 379.0 78.0 290.0 
316.00024163379703 2622.0 NaN 1533.7688710754842 0.5037966766268849 382.0 76.0 293.0 
318.00024163379703 2621.0 NaN 1530.7388109552453 0.5011444417375939 383.0 75.0 293.0 
320.00024163379703 2624.0 NaN 1530.7735470941884 0.5164855544907628 384.0 74.0 294.0 
322.00024163379703 2610.0 NaN 1527.580494321979 0.5150212726619952 383.0 73.0 294.0 
324.00024163379703 2602.0 NaN 1527.722110888445 0.5047596640679697 378.0 78.0 289.0 
326.00024163379703 2610.0 NaN 1527.6125584502338 0.5094211465835997 379.0 77.0 290.0 
328.00024163379703 2597.0 NaN 1530.6693386773545 0.5022485159527127 379.0 77.0 291.0 
330.00024163379703 2613.0 NaN 1530.6933867735456 0.5171523842069212 386.0 71.0 297.0 
332.00024163379703 2611.0 NaN 1524.5344021376093 0.5084837356918568 383.0 73.0 293.0 
334.00024163379703 2618.0 NaN 1530.6372745490999 0.5005771390890743 381.0 75.0 293.0 
336.00024163379703 2634.0 NaN 1524.5397461589844 0.5046452925186212 384.0 73.0 293.0 
338.00024163379703 2634.0 NaN 1524.4435537742156 0.5113904016887725 382.0 75.0 291.0 
340.00024163379703 2630.0 NaN 1524.4969939879752 0.5090866581456659 380.0 76.0 290.0 
342.00024163379703 2632.0 NaN 1524.3740814963269 0.5141829740863926 385.0 72.0 294.0 
344.00024163379703 2617.0 NaN 1530.6426185704731 0.5100098676573787 382.0 77.0 291.0 
346.00024163379703 2630.0 NaN 1533.5925183700726 0.5092584249363946 385.0 75.0 294.0 
348.00024163379703 2628.0 NaN 1530.717434869739 0.50596845497654 384.0 76.0 292.0 
350.00024163379703 2625.0 NaN 1527.6205744822996 0.5048263007401096 388.0 72.0 295.0 
352.00024163379703 2627.0 NaN 1524.3981295925182 0.5160765907200543 380.0 80.0 286.0 
354.00024163379703 2612.0 NaN 1524.4622578490303 0.5078764198577935 376.0 83.0 283.0 
356.00024163379703 2633.0 NaN 1524.4542418169667 0.5221697650420949 372.0 86.0 280.0 
358.00024163379703 2623.0 NaN 1524.4462257849025 0.5067464601812389 376.0 83.0 283.0 
360.00024163379703 2636.0 NaN 1524.582498329993 0.5204766166918666 375.0 83.0 283.0 
362.00024163379703 2616.0 NaN 1527.4843019372086 0.5143975567576893 379.0 80.0 287.0 
364.00024163379703 2617.0 NaN 1527.5991983967933 0.5082249732265266 369.0 89.0 278.0 
366.00024163379703 2639.0 NaN 1527.529726118906 0.5099018573010047 377.0 81.0 286.0 
368.00024163379703 2624.0 NaN 1521.4028056112213 0.5072686527929949 377.0 82.0 283.0 
370.00024163379703 2632.0 NaN 1518.3593854375424 0.5196591693179613 382.0 77.0 287.0 
372.00024163379703 2629.0 NaN 1515.1048764195061 0.5265822329631105 381.0 78.0 285.0 
374.00024163379703 2605.0 NaN 1515.1422845691372 0.5087198644243501 379.0 80.0 283.0 
376.00024163379703 2619.0 NaN 1512.0320641282553 0.5121396938414398 381.0 78.0 284.0 
378.00024163379703 2614.0 NaN 1509.0447561790252 0.5199122891014102 379.0 80.0 281.0 
380.00024163379703 2624.0 NaN 1512.0534402137614 0.509964768930313 379.0 80.0 282.0 
382.00024163379703 2634.0 NaN 1512.0187040748174 0.5166228526061677 385.0 77.0 285.0 
384.00024163379703 2629.0 NaN 1515.2464929859727 0.5063912452750714 385.0 80.0 283.0 
386.00024163379703 2652.0 NaN 1518.3593854375424 0.5091688427752113 386.0 78.0 286.0 
388.00024163379703 2653.0 NaN 1518.3647294589182 0.5209938842509836 386.0 79.0 285.0 
390.00024163379703 2653.0 NaN 1515.2919171676697 0.5142817761711254 387.0 75.0 288.0 
392.00024163379703 2646.0 NaN 1515.4629258517032 0.5306363847915287 387.0 76.0 287.0 
394.00024163379703 2620.0 NaN 1515.241148964597 0.5079058997199105 384.0 78.0 285.0 
396.00024163379703 2649.0 NaN 1518.3727454909817 0.5143668105981551 387.0 75.0 289.0 
398.00024163379703 2645.0 NaN 1512.1950567802273 0.510117958775434 385.0 79.0 283.0 
400.00024163379703 2660.0 NaN 1512.2565130260525 0.5135944088099501 381.0 83.0 279.0 
402.00024163379703 2645.0 NaN 1515.3293253173003 0.5212326381405915 392.0 74.0 289.0 
404.00024163379703 2633.0 NaN 1512.323313293254 0.5076725422682697 393.0 75.0 287.0 
406.00024163379703 2656.0 NaN 1515.4442217768878 0.5132689888095702 391.0 77.0 286.0 
408.00024163379703 2638.0 NaN 1518.5437541750177 0.5148265040603156 402.0 67.0 297.0 
410.00024163379703 2633.0 NaN 1521.4909819639272 0.5121560834251604 404.0 65.0 300.0 
412.00024163379703 2636.0 NaN 1527.722110888445 0.5149981775229443 398.0 72.0 295.0 
414.00024163379703 2634.0 NaN 1530.661322645291 0.5219240221807729 399.0 71.0 297.0 
416.00024163379703 2634.0 NaN 1533.7581830327335 0.5202557247143503 403.0 68.0 301.0 
418.00024163379703 2608.0 NaN 1518.2979291917177 0.5048163776013064 394.0 76.0 288.0 
420.00024163379703 2631.0 NaN 1518.3540414161644 0.5042544285091811 394.0 72.0 292.0 
422.00024163379703 2625.0 NaN 1515.2625250501 0.5159522468452794 400.0 68.0 295.0 
424.00024163379703 2620.0 NaN 1515.217100868403 0.5030385269602052 394.0 77.0 286.0 
426.00024163379703 2646.0 NaN 1512.17635270541 0.5152367918380251 392.0 80.0 282.0 
428.00024163379703 2632.0 NaN 1515.219772879091 0.5173872834538968 395.0 76.0 287.0 
430.00024163379703 2649.0 NaN 1515.177020708082 0.514152312830246 401.0 74.0 289.0 
432.00024163379703 2625.0 NaN 1515.2304609218445 0.5304867347676405 399.0 78.0 285.0 
434.00024163379703 2609.0 NaN 1521.4188376753516 0.5082618924841267 402.0 76.0 289.0 
436.00024163379703 2619.0 NaN 1524.384769539079 0.5183611917992756 398.0 77.0 289.0 
438.00024163379703 2610.0 NaN 1527.5858383433545 0.5133240831599261 394.0 79.0 288.0 
440.00024163379703 2638.0 NaN 1527.5965263861062 0.5125843953819087 402.0 74.0 293.0 
442.00024163379703 2639.0 NaN 1533.6726786907152 0.5197461882294537 402.0 73.0 296.0 
444.00024163379703 2634.0 NaN 1530.7094188376752 0.5065920413137791 393.0 81.0 287.0 
446.00024163379703 2632.0 NaN 1527.540414161655 0.5190879253123355 397.0 76.0 291.0 
448.00024163379703 2606.0 NaN 1539.967935871745 0.5176542982737372 395.0 78.0 293.0 
450.00024163379703 2624.0 NaN 1543.0167000667998 0.526143705840148 402.0 74.0 298.0 
452.00024163379703 2594.0 NaN 1549.19973279893 0.5178219478235775 405.0 71.0 303.0 
454.00024163379703 2590.0 NaN 1549.1169004676 0.5073396500850239 399.0 76.0 298.0 
456.00024163379703 2593.0 NaN 1549.1917167668666 0.5159958542162052 394.0 80.0 294.0 
458.00024163379703 2578.0 NaN 1549.1088844355363 0.5036559494631346 396.0 78.0 296.0 
460.00024163379703 2598.0 NaN 1549.2451569806271 0.515435168475906 393.0 82.0 292.0 
462.00024163379703 2586.0 NaN 1545.9959919839666 0.518616681331837 397.0 78.0 295.0 
464.00024163379703 2575.0 NaN 1542.832331329327 0.5147153224793428 396.0 79.0 293.0 
466.00024163379703 2579.0 NaN 1545.985303941216 0.5186153622038187 393.0 83.0 290.0 
468.00024163379703 2559.0 NaN 1542.7575150300609 0.5101718938715286 390.0 85.0 287.0 
470.00024163379703 2576.0 NaN 1542.8483633934545 0.5243778128680437 401.0 74.0 298.0 
472.00024163379703 2573.0 NaN 1542.880427521709 0.516669170934576 397.0 79.0 293.0 
474.00024163379703 2555.0 NaN 1533.4989979959907 0.5060463089093911 390.0 84.0 285.0 
476.00024163379703 2572.0 NaN 1527.5457581830335 0.5166297938561124 399.0 77.0 290.0 
478.00024163379703 2557.0 NaN 1521.303941215764 0.5167464122042734 394.0 80.0 285.0 
480.00024163379703 2582.0 NaN 1524.3954575818295 0.5227257123459189 394.0 78.0 288.0 
482.00024163379703 2565.0 NaN 1524.3580494321996 0.5172874434030487 398.0 74.0 292.0 
484.00024163379703 2569.0 NaN 1521.3547094188368 0.512770727510896 390.0 83.0 282.0 
486.00024163379703 2590.0 NaN 1518.2097528390098 0.525258981508659 393.0 77.0 287.0 
488.00024163379703 2561.0 NaN 1508.9913159652635 0.500802577438241 391.0 76.0 285.0 
490.00024163379703 2575.0 NaN 1502.8456913827647 0.5137413458408602 396.0 70.0 289.0 
492.00024163379703 2568.0 NaN 1493.6459585838352 0.5216683339068092 392.0 72.0 284.0 
494.00024163379703 2546.0 NaN 1493.6432865731458 0.5026395130742485 383.0 80.0 276.0 
496.00024163379703 2566.0 NaN 1493.6646626586517 0.5046216646403087 386.0 73.0 283.0 
498.00024163379703 2555.0 NaN 1493.6058784235122 0.5018023518592701 380.0 75.0 281.0 
500.00024163379703 2569.0 NaN 1484.4408817635274 0.5085721786887546 380.0 76.0 277.0 
502.00024163379703 2562.0 NaN 1481.3092852371424 0.5074122538400391 386.0 72.0 280.0 
504.00024163379703 2558.0 NaN 1481.3947895791573 0.5016676188517925 379.0 78.0 274.0 
506.00024163379703 2589.0 NaN 1493.6593186372736 0.5153148389197039 377.0 83.0 273.0 
508.00024163379703 2578.0 NaN 1490.5303941215755 0.5156928604008114 373.0 84.0 271.0 
510.00024163379703 2589.0 NaN 1490.5998663994646 0.5102892007355154 376.0 82.0 273.0 
512.000241633797 2584.0 NaN 1490.6720106880434 0.5114623069923854 378.0 80.0 275.0 
514.000241633797 2571.0 NaN 1484.419505678021 0.5004657841818433 373.0 82.0 271.0 
516.000241633797 2596.0 NaN 1478.378089512357 0.5168159122890424 373.0 80.0 271.0 
518.000241633797 2566.0 NaN 1466.145624582499 0.5019822781662514 372.0 79.0 268.0 
520.000241633797 2579.0 NaN 1459.885103540415 0.5123565172868332 369.0 79.0 266.0 
522.000241633797 2571.0 NaN 1459.9198396793577 0.5186163721046839 369.0 74.0 271.0 
524.000241633797 2558.0 NaN 1463.0701402805616 0.5042555997319399 360.0 82.0 264.0 
526.000241633797 2572.0 NaN 1456.7962591850364 0.5140707589135967 366.0 78.0 266.0 
528.000241633797 2556.0 NaN 1453.712758851036 0.5123927816635163 367.0 75.0 268.0 
530.000241633797 2567.0 NaN 1450.637274549099 0.5097399524736553 374.0 68.0 274.0 
532.000241633797 2573.0 NaN 1456.7695390781557 0.514923809392028 373.0 74.0 270.0 
534.000241633797 2560.0 NaN 1459.8984635938546 0.509838354535831 366.0 78.0 267.0 
536.000241633797 2588.0 NaN 1460.0053440213755 0.5157825349035841 375.0 73.0 272.0 
538.000241633797 2575.0 NaN 1459.9118236472939 0.5070113657873694 372.0 75.0 270.0 
540.000241633797 2583.0 NaN 1463.1529726118908 0.5082292199468595 371.0 75.0 271.0 
542.000241633797 2576.0 NaN 1469.0981963927848 0.5162122072427671 379.0 69.0 279.0 
544.000241633797 2563.0 NaN 1469.1195724782904 0.5029702446309756 378.0 73.0 275.0 
546.000241633797 2582.0 NaN 1469.1062124248494 0.5083215661549839 382.0 72.0 276.0 
548.000241633797 2560.0 NaN 1466.0360721442896 0.5103880941301482 380.0 72.0 275.0 
550.000241633797 2556.0 NaN 1466.0708082832336 0.5077960342011746 385.0 68.0 279.0 
552.000241633797 2548.0 NaN 1466.0627922511696 0.4993636714314116 382.0 69.0 278.0 
554.000241633797 2558.0 NaN 1465.9826319305275 0.5053043944856016 381.0 73.0 274.0 
556.000241633797 2572.0 NaN 1469.1837007348024 0.5136386065454425 381.0 73.0 275.0 
558.000241633797 2557.0 NaN 1466.0601202404814 0.5079166289813094 373.0 79.0 268.0 
560.000241633797 2567.0 NaN 1463.0514362057454 0.5149313118718792 367.0 81.0 265.0 
562.000241633797 2562.0 NaN 1459.815631262526 0.5108292648963518 373.0 76.0 269.0 
564.000241633797 2570.0 NaN 1456.8630594522374 0.518927386645981 373.0 79.0 265.0 
566.000241633797 2561.0 NaN 1463.1957247828996 0.529682490467073 376.0 76.0 270.0 
568.000241633797 2547.0 NaN 1484.5985303941213 0.5108278753907393 374.0 79.0 274.0 
570.000241633797 2552.0 NaN 1484.651970607882 0.5084155279094658 381.0 73.0 280.0 
572.000241633797 2540.0 NaN 1481.6593186372738 0.5130754805894352 381.0 74.0 278.0 
574.000241633797 2540.0 NaN 1478.4822979291914 0.5171233389481169 381.0 74.0 277.0 
576.000241633797 2568.0 NaN 1487.7434869739473 0.5267423972261919 385.0 71.0 283.0 
578.000241633797 2542.0 NaN 1481.6673346693376 0.5097487366931198 380.0 73.0 279.0 
580.000241633797 2565.0 NaN 1487.6499665998656 0.5096993580812273 381.0 73.0 281.0 
582.000241633797 2558.0 NaN 1487.7034068136272 0.5161684542607281 390.0 67.0 287.0 
584.000241633797 2568.0 NaN 1490.8056112224456 0.5051688577503727 386.0 70.0 285.0 
586.000241633797 2584.0 NaN 1490.7575150300606 0.5144947161678701 391.0 69.0 286.0 
588.000241633797 2571.0 NaN 1487.615230460921 0.5145290030378512 393.0 69.0 285.0 
590.000241633797 2575.0 NaN 1490.7334669338666 0.5175190651926631 397.0 65.0 290.0 
592.000241633797 2560.0 NaN 1490.6052104208427 0.5168027552525953 392.0 70.0 285.0 
594.000241633797 2571.0 NaN 1493.7688710754835 0.5087764826077683 396.0 69.0 287.0 
596.000241633797 2584.0 NaN 1490.7227788911161 0.5161638269104489 405.0 66.0 289.0 
598.000241633797 2565.0 NaN 1493.611222444891 0.5051309104661444 400.0 71.0 285.0 
600.000241633797 2586.0 NaN 1490.752171008683 0.5075647940406839 396.0 75.0 280.0 
602.000241633797 2582.0 NaN 1502.995323981297 0.5112302064225582 399.0 72.0 287.0 
604.000241633797 2587.0 NaN 1502.8911155644626 0.5188358606208618 394.0 76.0 283.0 
606.000241633797 2591.0 NaN 1502.9365397461581 0.5251586795000626 392.0 76.0 283.0 
608.000241633797 2570.0 NaN 1505.9799599198386 0.5037947806290195 388.0 77.0 283.0 
610.000241633797 2592.0 NaN 1512.2004008016022 0.5092652593313459 391.0 75.0 287.0 
612.000241633797 2604.0 NaN 1512.1950567802273 0.5187454667484394 385.0 82.0 280.0 
614.000241633797 2603.0 NaN 1509.1249164996655 0.5119384381885617 378.0 86.0 275.0 
616.000241633797 2622.0 NaN 1508.999331997327 0.5169358909819519 377.0 88.0 273.0 
618.000241633797 2602.0 NaN 1509.0875083500343 0.5047215624249657 384.0 82.0 279.0 
620.000241633797 2626.0 NaN 1515.219772879091 0.5240047841779711 385.0 82.0 281.0 
622.000241633797 2614.0 NaN 1527.5885103540422 0.519185972754973 387.0 79.0 288.0 
624.000241633797 2619.0 NaN 1524.513026052103 0.5047035864429433 383.0 82.0 284.0 
626.000241633797 2647.0 NaN 1527.623246492985 0.5317647614852038 386.0 79.0 288.0 
628.000241633797 2615.0 NaN 1527.486973947897 0.5134454041810175 379.0 84.0 283.0 
630.000241633797 2643.0 NaN 1521.6272545090183 0.5240556636240843 390.0 72.0 293.0 
632.000241633797 2625.0 NaN 1521.4669338677363 0.5231402311152268 385.0 75.0 290.0 
634.000241633797 2631.0 NaN 1524.7321309285244 0.5053908341160477 379.0 81.0 285.0 
636.000241633797 2671.0 NaN 1521.6325985303931 0.5159722997413279 390.0 74.0 291.0 
638.000241633797 2647.0 NaN 1518.6292585170354 0.5004052000372984 386.0 79.0 285.0 
640.000241633797 2663.0 NaN 1521.5791583166342 0.5233172585192077 388.0 77.0 288.0 
642.000241633797 2645.0 NaN 1521.600534402137 0.5128165167934484 386.0 80.0 285.0 
644.000241633797 2639.0 NaN 1524.563794255176 0.5070162536098298 385.0 82.0 284.0 
646.000241633797 2670.0 NaN 1524.5584502338 0.5203007879969069 388.0 80.0 286.0 
648.000241633797 2640.0 NaN 1524.6546426185716 0.5096379550443959 383.0 82.0 284.0 
650.000241633797 2634.0 NaN 1521.5497661990637 0.527275049570414 384.0 77.0 288.0 
652.000241633797 2592.0 NaN 1524.5611222444898 0.5250870832264565 380.0 79.0 287.0 
654.000241633797 2600.0 NaN 1524.6065464261849 0.5094370967109494 377.0 81.0 285.0 
656.000241633797 2638.0 NaN 1530.7147628590526 0.536434567295455 381.0 79.0 289.0 
658.000241633797 2639.0 NaN 1546.3166332665342 0.5047459719080695 378.0 83.0 290.0 
660.000241633797 2645.0 NaN 1546.0334001335998 0.5202396424895979 379.0 82.0 291.0 
662.000241633797 2639.0 NaN 1546.1536406145638 0.5158082363505573 381.0 79.0 294.0 
664.000241633797 2632.0 NaN 1542.9338677354717 0.5114363328766546 376.0 83.0 289.0 
#####################################################################
# End of data export. Simulation finished at: 2019-03-07T00:56+0000 #
#####################################################################
