#####################################################################
# Alchemist log file - simulation started at: 2019-03-06T19:40+0000 #
#####################################################################
# seed = 4.0, bandwidth = 1333521.4321633242, propagationDelay = 0.01, baserange = 100.0
#
# The columns have the following meaning: 
# time neighbor_count[Sum] <value>@neighbor_count[Sum] packet_size[Mean] mean_delay[Mean] crowd[Sum] overcrowded[Sum] risk[Sum] 
0.0 NaN NaN NaN NaN NaN NaN NaN 
2.0004793365590676 13125.0 NaN 4996.523714094857 0.5016749709867206 1497.0 0.0 1497.0 
4.00042902272939 13126.0 NaN 4998.859051436206 0.5020413235875466 1492.0 5.0 1492.0 
6.000479336559067 13126.0 NaN 4996.10955243821 0.5020451033154293 1492.0 5.0 1492.0 
8.000479336559067 13126.0 NaN 4996.959251837007 0.5020425534475259 1490.0 7.0 1490.0 
10.000479336559067 13127.0 NaN 4996.037408149633 0.5021032611176038 1489.0 8.0 1489.0 
12.000479336559067 13125.0 NaN 4996.325985303941 0.5022231775806224 1488.0 9.0 1488.0 
14.00042902272939 13124.0 NaN 4995.676686706747 0.502041281746177 1492.0 5.0 1492.0 
16.000479336559067 13143.0 NaN 4996.350033400134 0.5026668074643871 1492.0 5.0 1492.0 
18.000479336559067 13140.0 NaN 4995.404141616566 0.5024477814581099 1491.0 6.0 1491.0 
20.000479336559067 13143.0 NaN 4996.197728790915 0.5047856691786724 1493.0 4.0 1493.0 
22.000479336559067 13141.0 NaN 4995.599198396793 0.5022375295408875 1493.0 4.0 1493.0 
24.000429022729392 13140.0 NaN 4995.842351369405 0.5022920703163161 1493.0 4.0 1493.0 
26.000479336559067 13171.0 NaN 4995.187708750835 0.5034095376689683 1490.0 7.0 1490.0 
28.000479336559067 13179.0 NaN 4996.162992651971 0.5025300144946273 1487.0 10.0 1487.0 
30.000479336559067 13184.0 NaN 4995.024716098865 0.5019422939311096 1491.0 6.0 1491.0 
32.00047933655907 13186.0 NaN 4995.853039412158 0.5021792629593934 1494.0 3.0 1494.0 
34.00042902272939 13182.0 NaN 4995.163660654643 0.5018507404775321 1493.0 4.0 1493.0 
36.00047933655907 13216.0 NaN 4995.596526386105 0.5028395548619196 1492.0 5.0 1492.0 
38.00047933655907 13214.0 NaN 4994.995323981296 0.5046848076948047 1493.0 4.0 1493.0 
40.00047933655907 13201.0 NaN 4995.930527722111 0.5023039754450094 1491.0 6.0 1491.0 
42.00047933655907 13202.0 NaN 4994.776219104877 0.502337871707602 1487.0 10.0 1487.0 
44.00042902272939 13205.0 NaN 4995.647294589178 0.5022425359008971 1487.0 10.0 1487.0 
46.00047933655907 13248.0 NaN 4995.187708750835 0.5038998931205672 1489.0 8.0 1489.0 
48.00047933655907 13247.0 NaN 4995.489645958583 0.504747245379014 1486.0 11.0 1486.0 
50.00047933655907 13257.0 NaN 4994.98997995992 0.5055208315143729 1489.0 8.0 1489.0 
52.00047933655907 13250.0 NaN 4995.839679358717 0.5051221541166687 1487.0 10.0 1487.0 
54.00042902272939 13253.0 NaN 4994.837675350702 0.5018936748863104 1491.0 6.0 1491.0 
56.00047933655907 13293.0 NaN 4995.553774215097 0.504326295922294 1491.0 6.0 1491.0 
58.00047933655907 13270.0 NaN 4995.131596526386 0.5037096021758881 1491.0 6.0 1491.0 
60.00047933655907 13255.0 NaN 4992.352705410822 0.5044203432594309 1491.0 6.0 1490.0 
62.00047933655907 13241.0 NaN 1523.3373413493641 0.5081154217310561 771.0 4.0 361.0 
64.00042902272939 13229.0 NaN 1523.1983967935878 0.5028717018531752 612.0 9.0 356.0 
66.00047933655907 13250.0 NaN 1525.7929191716757 0.5038748893597113 575.0 10.0 356.0 
68.00047933655907 13235.0 NaN 1525.987975951903 0.5031882385566574 539.0 10.0 356.0 
70.00047933655907 13241.0 NaN 1525.9158316633273 0.5024430971812673 525.0 7.0 359.0 
72.00047933655907 13259.0 NaN 1529.007348029391 0.5054240524130574 523.0 8.0 359.0 
74.00042902272939 13254.0 NaN 1531.925183700736 0.5023370211041825 520.0 9.0 359.0 
76.00047933655907 13281.0 NaN 1532.072144288576 0.5026243991167985 525.0 4.0 364.0 
78.00047933655907 13300.0 NaN 1535.000668002673 0.5038131611941613 524.0 4.0 365.0 
80.00047933655907 13301.0 NaN 1538.1536406145638 0.5027998496793463 525.0 2.0 368.0 
82.00047933655907 13306.0 NaN 1538.0253841015365 0.5081666603783153 525.0 2.0 368.0 
84.00042902272939 13291.0 NaN 1538.0574482297911 0.5039279103224829 521.0 7.0 363.0 
86.00047933655907 13294.0 NaN 1537.9746158984635 0.503928817213944 522.0 4.0 366.0 
88.00047933655907 13302.0 NaN 1538.185704742818 0.5055629832968945 522.0 4.0 366.0 
90.00047933655907 13305.0 NaN 1537.8704074816299 0.5033315746982404 523.0 3.0 367.0 
92.00047933655907 13287.0 NaN 1538.1589846359366 0.5090833056501695 520.0 6.0 364.0 
94.00042902272939 13238.0 NaN 1537.9478957915821 0.5044917153209845 520.0 6.0 364.0 
96.00047933655907 13253.0 NaN 1538.0280561122247 0.5064012048244874 522.0 4.0 366.0 
98.00047933655907 13244.0 NaN 1537.8704074816299 0.5054047519934892 525.0 1.0 369.0 
100.00047933655907 13240.0 NaN 1541.1569806279213 0.5038961435928482 520.0 6.0 365.0 
102.00047933655907 13225.0 NaN 1540.8897795591183 0.506995793940283 527.0 1.0 370.0 
104.00042902272939 13207.0 NaN 1541.0848363393457 0.5024483226701961 522.0 6.0 365.0 
106.00047933655907 13227.0 NaN 1540.8550434201725 0.5066985362441088 522.0 6.0 365.0 
108.00047933655907 13249.0 NaN 1540.9859719438882 0.5046395412203564 523.0 5.0 366.0 
110.00047933655907 13264.0 NaN 1540.921843687373 0.5038875930136092 527.0 1.0 370.0 
112.00047933655907 13257.0 NaN 1541.1569806279213 0.5056015094619355 523.0 5.0 366.0 
114.00042902272939 13246.0 NaN 1540.9672678690724 0.504083487263628 522.0 6.0 365.0 
116.00047933655907 13243.0 NaN 1541.098196392785 0.503026618449489 523.0 5.0 366.0 
118.00047933655907 13274.0 NaN 1547.1503006012022 0.5061750349283203 524.0 5.0 368.0 
120.00047933655907 13294.0 NaN 1550.2818971275885 0.5071666944877506 525.0 4.0 370.0 
122.00047933655907 13270.0 NaN 1550.193720774882 0.5036936464364165 528.0 1.0 373.0 
124.00042902272939 13263.0 NaN 1550.3647294589182 0.50247985144607 527.0 2.0 372.0 
126.00047933655907 13282.0 NaN 1550.1189044756184 0.5030429841678522 528.0 1.0 373.0 
128.00047933655907 13294.0 NaN 1547.2411489645972 0.5042361819396355 527.0 2.0 371.0 
130.00047933655907 13280.0 NaN 1547.126252505009 0.5044262672472639 526.0 2.0 371.0 
132.00047933655907 13271.0 NaN 1544.192384769539 0.5054961661147402 522.0 4.0 368.0 
134.0004290227294 13239.0 NaN 1540.9832999332002 0.5037277158938402 523.0 3.0 368.0 
136.00047933655907 13240.0 NaN 1541.2024048096182 0.503069892438609 523.0 3.0 368.0 
138.00047933655907 13233.0 NaN 1543.8984635938546 0.5023443182917438 523.0 2.0 370.0 
140.00047933655907 13274.0 NaN 1541.092852371409 0.5031744351534199 520.0 4.0 367.0 
142.00047933655907 13275.0 NaN 1547.2010688042753 0.5050458121047845 520.0 3.0 370.0 
144.0004290227294 13250.0 NaN 1550.3406813627273 0.5032783326949163 523.0 3.0 371.0 
146.00047933655907 13245.0 NaN 1547.1983967935878 0.5049004766930686 521.0 4.0 369.0 
148.00047933655907 13236.0 NaN 1553.5604542418182 0.5043626745742452 517.0 7.0 368.0 
150.00047933655907 13258.0 NaN 1553.338677354709 0.5062140331720127 519.0 4.0 371.0 
152.00047933655907 13227.0 NaN 1550.394121576488 0.5093921582122929 519.0 5.0 369.0 
154.0004290227294 13203.0 NaN 1544.176352705409 0.5049032947376556 512.0 9.0 363.0 
156.00047933655907 13216.0 NaN 1544.2618570474272 0.5029182914052194 514.0 6.0 366.0 
158.00047933655907 13204.0 NaN 1544.1870407481638 0.5068132363007872 512.0 9.0 363.0 
160.00047933655907 13219.0 NaN 1544.2752171008697 0.5048841862594887 515.0 6.0 366.0 
162.00047933655907 13189.0 NaN 1544.024048096191 0.5063823491816603 517.0 4.0 368.0 
164.0004290227294 13173.0 NaN 1544.3206412825637 0.5045733843647013 510.0 10.0 362.0 
166.00047933655907 13174.0 NaN 1544.109552438209 0.5039909277293227 513.0 7.0 365.0 
168.00047933655907 13167.0 NaN 1544.2297929191727 0.5056796369668479 515.0 5.0 367.0 
170.00047933655907 13174.0 NaN 1544.1923847695389 0.5047283681657069 513.0 6.0 366.0 
172.00047933655907 13146.0 NaN 1544.2725450901817 0.5048162125385522 514.0 6.0 366.0 
174.0004290227294 13121.0 NaN 1537.8891115564454 0.5045459989189068 509.0 9.0 361.0 
176.00047933655907 13116.0 NaN 1541.2424849699391 0.5037034994096511 509.0 10.0 361.0 
178.00047933655907 13111.0 NaN 1541.0340681362727 0.5086320868217235 514.0 5.0 366.0 
180.00047933655907 13125.0 NaN 1541.1382765531066 0.5034399465098314 513.0 7.0 364.0 
182.00047933655907 13107.0 NaN 1538.0734802939207 0.5058963910382673 514.0 5.0 365.0 
184.0004290227294 13079.0 NaN 1538.0708082832339 0.503444631696554 511.0 7.0 363.0 
186.00047933655907 13071.0 NaN 1540.996659986639 0.5023175799940846 512.0 6.0 365.0 
188.00047933655907 13072.0 NaN 1538.0681362725456 0.5048241625229847 507.0 11.0 359.0 
190.00047933655907 13097.0 NaN 1534.9044756179023 0.5029474799112751 507.0 9.0 360.0 
192.00047933655907 13089.0 NaN 1537.947895791582 0.5024901042979166 507.0 10.0 360.0 
194.0004290227294 13074.0 NaN 1538.0627922511699 0.5024946653235222 510.0 8.0 362.0 
196.00047933655907 13071.0 NaN 1537.9612558450242 0.504566547200641 509.0 9.0 361.0 
198.00047933655907 13061.0 NaN 1537.9398797595181 0.5066742052042658 509.0 9.0 361.0 
200.00047933655907 13065.0 NaN 1537.9665998664002 0.5071895999580454 508.0 10.0 360.0 
202.00047933655907 13040.0 NaN 1544.2618570474272 0.5098169853874738 511.0 8.0 364.0 
204.0004290227294 12993.0 NaN 1547.246492985973 0.5099117525865439 511.0 9.0 364.0 
206.00047933655907 13005.0 NaN 1544.2992651970612 0.5100758440416959 511.0 8.0 364.0 
208.00047933655907 12983.0 NaN 1538.0814963259847 0.5066791803197778 510.0 9.0 361.0 
210.00047933655907 12985.0 NaN 1534.9686038744155 0.5083966727786162 509.0 8.0 361.0 
212.00047933655907 12953.0 NaN 1538.0547762191063 0.5057617475206032 509.0 9.0 361.0 
214.0004290227294 12924.0 NaN 1541.063460253842 0.5039899960965352 510.0 8.0 363.0 
216.00047933655907 12939.0 NaN 1537.8891115564454 0.5086635218062399 508.0 9.0 361.0 
218.00047933655907 12898.0 NaN 1538.0066800267184 0.5074429916008761 511.0 3.0 367.0 
220.00047933655907 12891.0 NaN 1537.977287909152 0.5079565987719431 510.0 4.0 366.0 
222.00047933655907 12867.0 NaN 1534.8670674682703 0.5050822934270995 511.0 3.0 366.0 
224.0004290227294 12843.0 NaN 1534.8670674682703 0.5045988379932089 510.0 4.0 365.0 
226.00047933655907 12864.0 NaN 1537.9318637274544 0.5048624630673887 510.0 4.0 366.0 
228.00047933655907 12874.0 NaN 1544.018704074818 0.5077512317056195 511.0 5.0 367.0 
230.00047933655907 12858.0 NaN 1544.1603206412817 0.5057886495771424 512.0 4.0 368.0 
232.00047933655907 12838.0 NaN 1544.1309285237155 0.5066058517460146 508.0 6.0 366.0 
234.0004290227294 12820.0 NaN 1547.1422845691366 0.5047891708906572 510.0 5.0 368.0 
236.00047933655907 12828.0 NaN 1541.0153640614546 0.5071869685792199 506.0 7.0 364.0 
238.00047933655907 12821.0 NaN 1540.95390781563 0.5096677652089394 510.0 4.0 367.0 
240.00047933655907 12799.0 NaN 1537.8864395457572 0.5115412648821024 510.0 4.0 366.0 
242.00047933655907 12779.0 NaN 1534.8376753507 0.5068967461585547 509.0 4.0 365.0 
244.0004290227294 12753.0 NaN 1534.7628590514364 0.506030645785347 510.0 5.0 364.0 
246.00047933655907 12761.0 NaN 1534.7468269873093 0.5070779655033217 512.0 3.0 366.0 
248.00047933655907 12741.0 NaN 1534.8243152972614 0.5066606414041489 510.0 4.0 365.0 
250.00047933655907 12745.0 NaN 1534.8323313293272 0.5052053675478404 510.0 5.0 364.0 
252.00047933655907 12733.0 NaN 1531.6045424181702 0.5088458678935629 508.0 6.0 362.0 
254.0004290227294 12689.0 NaN 1528.6867067468274 0.5037358484277881 509.0 4.0 363.0 
256.00047933655907 12720.0 NaN 1528.6092184368727 0.5052234436843255 511.0 4.0 363.0 
258.00047933655907 12715.0 NaN 1528.598530394121 0.5085001671918548 512.0 3.0 364.0 
260.00047933655907 12707.0 NaN 1528.6599866399454 0.504282754122771 512.0 4.0 363.0 
262.00047933655907 12723.0 NaN 1528.6733466933879 0.5074039493809847 512.0 4.0 363.0 
264.0004290227294 12700.0 NaN 1528.4969939879754 0.5042200394387885 514.0 2.0 365.0 
266.00047933655907 12722.0 NaN 1544.0988643954568 0.506116644216411 510.0 4.0 368.0 
268.00047933655907 12708.0 NaN 1543.9919839679364 0.5078518420941714 510.0 4.0 368.0 
270.00047933655907 12708.0 NaN 1540.9405477621908 0.5127173543382774 512.0 2.0 369.0 
272.00047933655907 12696.0 NaN 1534.7201068804272 0.5121508303285026 510.0 3.0 366.0 
274.0004290227294 12661.0 NaN 1534.7788911155635 0.5095416549118077 508.0 4.0 365.0 
276.00047933655907 12669.0 NaN 1537.8089512358065 0.5096645947868842 512.0 2.0 368.0 
278.00047933655907 12628.0 NaN 1540.9726118904455 0.5067020320051295 510.0 3.0 368.0 
280.00047933655907 12621.0 NaN 1540.884435537743 0.5084083593481302 512.0 3.0 368.0 
282.00047933655907 12618.0 NaN 1540.7722110888456 0.5101023290980805 516.0 1.0 370.0 
284.0004290227294 12591.0 NaN 1534.647962591852 0.5067538627776136 512.0 4.0 365.0 
286.00047933655907 12609.0 NaN 1534.7147628590521 0.5083478114262722 513.0 2.0 367.0 
288.00047933655907 12583.0 NaN 1534.6185704742818 0.507398224591861 507.0 7.0 362.0 
290.00047933655907 12552.0 NaN 1531.6740146960572 0.509400660766094 509.0 2.0 366.0 
292.00047933655907 12545.0 NaN 1531.5858383433547 0.508588582993837 504.0 8.0 360.0 
294.0004290227294 12508.0 NaN 1537.7127588510366 0.5064877092238723 507.0 5.0 365.0 
296.00047933655907 12521.0 NaN 1537.8089512358067 0.5087664081951008 500.0 12.0 358.0 
298.00047933655907 12503.0 NaN 1540.8256513026065 0.5084294791147412 510.0 2.0 369.0 
300.00047933655907 12488.0 NaN 1540.7828991315973 0.5070782833287601 499.0 12.0 359.0 
302.00047933655907 12472.0 NaN 1537.8116232464909 0.5078555612846382 509.0 2.0 368.0 
304.0004290227294 12449.0 NaN 1537.6993987975936 0.5099041382062025 497.0 12.0 358.0 
306.00047933655907 12464.0 NaN 1534.733466933866 0.5076161545696745 509.0 1.0 368.0 
308.00047933655907 12436.0 NaN 1531.706078824316 0.5096921835129974 497.0 12.0 356.0 
310.00047933655907 12438.0 NaN 1531.644622578491 0.505433036875203 502.0 7.0 361.0 
312.00047933655907 12442.0 NaN 1534.7014028056092 0.5077370580869657 495.0 14.0 355.0 
314.0004290227294 12440.0 NaN 1534.7708750835 0.5049802595118549 503.0 8.0 361.0 
316.00047933655907 12449.0 NaN 1534.749498997997 0.5082720900631803 498.0 14.0 355.0 
318.00047933655907 12418.0 NaN 1534.7975951903818 0.5058621262501054 504.0 7.0 362.0 
320.00047933655907 12433.0 NaN 1534.6479625918516 0.5050407599213762 498.0 13.0 356.0 
322.00047933655907 12431.0 NaN 1531.6980627922514 0.507399613908939 502.0 8.0 360.0 
324.0004290227294 12407.0 NaN 1531.625918503673 0.5046298835241932 497.0 13.0 355.0 
326.00047933655907 12423.0 NaN 1531.7247828991303 0.508248228881766 502.0 8.0 360.0 
328.00047933655907 12406.0 NaN 1534.6105544422182 0.5092224607329895 496.0 14.0 355.0 
330.00047933655907 12410.0 NaN 1528.6225784903152 0.5061658270187238 501.0 7.0 360.0 
332.00047933655907 12403.0 NaN 1528.5958583834338 0.5083385306425976 499.0 9.0 358.0 
334.0004290227294 12380.0 NaN 1534.8002672010698 0.5057408881084656 502.0 8.0 361.0 
336.00047933655907 12407.0 NaN 1525.485637942552 0.5062356229152324 501.0 9.0 357.0 
338.00047933655907 12398.0 NaN 1525.5898463593849 0.5074774233840538 502.0 8.0 358.0 
340.00047933655907 12426.0 NaN 1525.4161656646638 0.5090655142634273 502.0 9.0 357.0 
342.00047933655907 12432.0 NaN 1525.5257181028728 0.5073289715730764 506.0 7.0 359.0 
344.0004290227294 12420.0 NaN 1531.5350701402815 0.5080259095054594 503.0 13.0 355.0 
346.00047933655907 12426.0 NaN 1534.7842351369393 0.507153088010113 508.0 8.0 361.0 
348.00047933655907 12416.0 NaN 1531.5350701402815 0.5054464830743308 503.0 12.0 356.0 
350.00047933655907 12446.0 NaN 1525.6058784235122 0.5068988847049083 505.0 8.0 358.0 
352.00047933655907 12458.0 NaN 1525.4108216432878 0.5110833839119956 503.0 13.0 353.0 
354.0004290227294 12421.0 NaN 1525.4669338677363 0.5077689512551594 508.0 7.0 359.0 
356.00047933655907 12435.0 NaN 1525.4509018036085 0.5076552140006708 501.0 13.0 353.0 
358.00047933655907 12423.0 NaN 1525.5123580494333 0.5054585579172085 506.0 8.0 358.0 
360.00047933655907 12421.0 NaN 1525.317301269206 0.5090253875693587 502.0 12.0 354.0 
362.00047933655907 12421.0 NaN 1525.4375417501667 0.5146507996550979 508.0 8.0 358.0 
364.0004290227294 12398.0 NaN 1525.3573814295266 0.5092273414130721 500.0 15.0 351.0 
366.00047933655907 12410.0 NaN 1516.2484969939887 0.5081209076018629 507.0 8.0 355.0 
368.00047933655907 12405.0 NaN 1510.1055444221786 0.5072841986115318 500.0 15.0 346.0 
370.00047933655907 12395.0 NaN 1507.0140280561116 0.5115085010793037 509.0 8.0 352.0 
372.00047933655907 12379.0 NaN 1510.0334001335998 0.5120851386419388 499.0 17.0 344.0 
374.0004290227294 12328.0 NaN 1506.933867735472 0.5105141374395091 510.0 8.0 352.0 
376.00047933655907 12343.0 NaN 1506.8430193720785 0.5088411229175753 502.0 15.0 345.0 
378.00047933655907 12304.0 NaN 1506.8670674682705 0.5057002380694366 512.0 7.0 353.0 
380.00047933655907 12322.0 NaN 1506.8323313293263 0.5087636381812228 505.0 15.0 345.0 
382.00047933655907 12334.0 NaN 1509.9372077488304 0.5126121581363263 510.0 8.0 353.0 
384.0004290227294 12298.0 NaN 1513.0153640614556 0.5059843937154983 503.0 15.0 347.0 
386.00047933655907 12313.0 NaN 1516.1736806947242 0.5107937245159245 511.0 9.0 354.0 
388.00047933655907 12284.0 NaN 1516.1202404809628 0.5083201456317665 506.0 14.0 349.0 
390.00047933655907 12295.0 NaN 1510.0814963259847 0.5125658460948997 514.0 7.0 354.0 
392.00047933655907 12308.0 NaN 1510.0494321977278 0.5142286070393948 505.0 14.0 347.0 
394.0004290227294 12264.0 NaN 1510.0440881763539 0.5048547300852166 515.0 3.0 358.0 
396.00047933655907 12294.0 NaN 1513.0367401469612 0.5082303196567475 510.0 9.0 353.0 
398.00047933655907 12288.0 NaN 1506.9792919171668 0.5061660609817666 518.0 3.0 357.0 
400.00047933655907 12281.0 NaN 1503.8263193052758 0.505720985699226 511.0 9.0 350.0 
402.00047933655907 12291.0 NaN 1510.1509686038735 0.5091747257229591 519.0 2.0 359.0 
404.0004290227294 12266.0 NaN 1506.8777555110212 0.5042490638615119 512.0 9.0 351.0 
406.00047933655907 12292.0 NaN 1510.1536406145635 0.5074985097407634 519.0 3.0 358.0 
408.00047933655907 12279.0 NaN 1513.1703406813635 0.5092406591667213 513.0 9.0 353.0 
410.00047933655907 12305.0 NaN 1516.2805611222454 0.5057556083358634 519.0 3.0 360.0 
412.00047933655907 12311.0 NaN 1522.3567134268546 0.5124917632517338 518.0 4.0 361.0 
414.0004290227294 12280.0 NaN 1522.4769539078159 0.5054357335129352 521.0 1.0 364.0 
416.00047933655907 12302.0 NaN 1519.2945891783552 0.5046180193308647 513.0 12.0 352.0 
418.00047933655907 12295.0 NaN 1513.1649966599878 0.5051048883623012 514.0 5.0 357.0 
420.00047933655907 12303.0 NaN 1510.0253841015365 0.507484658442527 514.0 2.0 359.0 
422.00047933655907 12311.0 NaN 1513.2398129592523 0.5102807753481535 508.0 10.0 352.0 
424.0004290227294 12291.0 NaN 1509.9879759519029 0.5026041143779795 515.0 4.0 357.0 
426.00047933655907 12324.0 NaN 1506.9953239812971 0.5067755633228076 512.0 5.0 355.0 
428.00047933655907 12312.0 NaN 1512.9752839011362 0.5050285500081773 510.0 8.0 354.0 
430.00047933655907 12334.0 NaN 1507.0247160988638 0.5093752355485417 518.0 6.0 354.0 
432.00047933655907 12333.0 NaN 1513.066132264528 0.5119910028161019 521.0 4.0 358.0 
434.0004290227294 12308.0 NaN 1519.3720774883093 0.5045088800527735 523.0 4.0 360.0 
436.00047933655907 12325.0 NaN 1522.3941215764878 0.5085559914816888 518.0 8.0 357.0 
438.00047933655907 12308.0 NaN 1525.5283901135613 0.507209847791002 522.0 5.0 361.0 
440.00047933655907 12312.0 NaN 1528.5210420841693 0.5089114358787304 520.0 8.0 359.0 
442.00047933655907 12288.0 NaN 1528.590514362057 0.5082787245865769 523.0 6.0 361.0 
444.0004290227294 12259.0 NaN 1525.3066132264541 0.503968722406496 524.0 4.0 362.0 
446.00047933655907 12276.0 NaN 1519.3480293921182 0.5078598365996976 522.0 5.0 359.0 
448.00047933655907 12253.0 NaN 1537.6753507014023 0.5112981473366202 524.0 3.0 367.0 
450.00047933655907 12266.0 NaN 1547.152972611891 0.5053526234007575 525.0 4.0 369.0 
452.00047933655907 12276.0 NaN 1549.9612558450244 0.512007984143811 524.0 4.0 370.0 
454.0004290227294 12241.0 NaN 1550.209752839009 0.5066641381149634 524.0 4.0 370.0 
456.00047933655907 12259.0 NaN 1550.0040080160334 0.5062178557322279 523.0 3.0 371.0 
458.00047933655907 12247.0 NaN 1550.1376085504362 0.5054427551999201 522.0 4.0 370.0 
460.00047933655907 12259.0 NaN 1546.888443553773 0.507948718378731 522.0 3.0 370.0 
462.00047933655907 12251.0 NaN 1543.9118236472937 0.5122467435363038 519.0 4.0 368.0 
464.0004290227294 12218.0 NaN 1543.8263193052755 0.5081417681467284 518.0 6.0 366.0 
466.00047933655907 12258.0 NaN 1543.9519038076157 0.5067857416936353 519.0 7.0 365.0 
468.00047933655907 12248.0 NaN 1543.722110888445 0.5099852615273663 522.0 3.0 369.0 
470.00047933655907 12247.0 NaN 1543.9919839679364 0.5070197134287071 521.0 5.0 367.0 
472.00047933655907 12217.0 NaN 1540.6733466933879 0.507249774166453 523.0 3.0 368.0 
474.0004290227294 12213.0 NaN 1531.615230460921 0.5051099091014332 517.0 5.0 363.0 
476.00047933655907 12232.0 NaN 1522.196392785572 0.5073950713431625 517.0 4.0 361.0 
478.00047933655907 12211.0 NaN 1522.3433533734126 0.5093871374293536 516.0 6.0 359.0 
480.00047933655907 12214.0 NaN 1525.2371409485636 0.5076570050457792 517.0 4.0 362.0 
482.00047933655907 12214.0 NaN 1525.4455577822303 0.5105587855423849 515.0 6.0 360.0 
484.0004290227294 12191.0 NaN 1525.2665330661334 0.5098261551134253 516.0 4.0 362.0 
486.00047933655907 12200.0 NaN 1513.1489645958575 0.5137227009907467 513.0 5.0 357.0 
488.00047933655907 12168.0 NaN 1506.877755511021 0.5058872189611655 513.0 4.0 356.0 
490.00047933655907 12182.0 NaN 1491.6873747494997 0.5095468453897104 510.0 6.0 349.0 
492.00047933655907 12160.0 NaN 1491.5484301937202 0.5076324359755706 510.0 3.0 352.0 
494.0004290227294 12155.0 NaN 1494.7441549766193 0.5061657026389391 508.0 3.0 353.0 
496.00047933655907 12201.0 NaN 1494.5651302605202 0.5087865734991605 505.0 3.0 353.0 
498.00047933655907 12186.0 NaN 1491.593854375418 0.5093711298270984 503.0 5.0 350.0 
500.00047933655907 12203.0 NaN 1482.2899131596535 0.5060152435880836 509.0 4.0 348.0 
502.00047933655907 12182.0 NaN 1482.4021376085516 0.5091724890843955 504.0 9.0 343.0 
504.0004290227294 12188.0 NaN 1485.3066132264537 0.5093702107046794 508.0 4.0 349.0 
506.00047933655907 12226.0 NaN 1494.7708750835 0.5065149418827732 510.0 4.0 352.0 
508.00047933655907 12218.0 NaN 1485.3253173012702 0.5130177985683133 507.0 5.0 348.0 
510.00047933655907 12221.0 NaN 1491.6659986639936 0.5054739928564412 509.0 4.0 351.0 
512.000479336559 12202.0 NaN 1491.5564462257842 0.5088977028681685 507.0 6.0 349.0 
514.0004290227293 12199.0 NaN 1479.390781563127 0.5065907685717955 510.0 4.0 347.0 
516.000479336559 12222.0 NaN 1476.1523046092182 0.5088473866900249 507.0 5.0 345.0 
518.000479336559 12220.0 NaN 1460.9859719438884 0.5034068015505361 506.0 4.0 341.0 
520.000479336559 12244.0 NaN 1460.7882431529729 0.5047834163390915 505.0 5.0 340.0 
522.000479336559 12264.0 NaN 1460.782899131597 0.5049111667994916 505.0 3.0 342.0 
524.0004290227293 12270.0 NaN 1463.7995991983976 0.5038741986366305 500.0 5.0 341.0 
526.000479336559 12331.0 NaN 1454.7735470941889 0.5075609946822499 500.0 4.0 339.0 
528.000479336559 12320.0 NaN 1451.551102204409 0.5109821256593206 497.0 5.0 337.0 
530.000479336559 12334.0 NaN 1451.636606546427 0.5069268850633184 500.0 4.0 338.0 
532.000479336559 12333.0 NaN 1460.817635270542 0.5067920902931172 499.0 5.0 340.0 
534.0004290227293 12344.0 NaN 1460.8790915163656 0.5073059603265117 498.0 3.0 342.0 
536.000479336559 12386.0 NaN 1457.7902471609898 0.5124056335269412 499.0 5.0 339.0 
538.000479336559 12370.0 NaN 1460.9352037408155 0.5122366198811682 499.0 5.0 340.0 
540.000479336559 12370.0 NaN 1463.9759519038082 0.5092733307040037 502.0 4.0 342.0 
542.000479336559 12338.0 NaN 1470.1963927855718 0.5134022336245063 501.0 6.0 342.0 
544.0004290227293 12317.0 NaN 1473.148964595858 0.5135826946570541 505.0 5.0 344.0 
546.000479336559 12332.0 NaN 1470.065464261857 0.5086952250134639 505.0 5.0 343.0 
548.000479336559 12312.0 NaN 1466.8884435537736 0.5108486221636027 506.0 5.0 342.0 
550.000479336559 12308.0 NaN 1467.0354041416172 0.5106604525170266 506.0 6.0 341.0 
552.000479336559 12291.0 NaN 1466.917835671343 0.5124335563758795 505.0 5.0 342.0 
554.0004290227293 12297.0 NaN 1467.0220440881758 0.5054093563409544 504.0 6.0 341.0 
556.000479336559 12334.0 NaN 1466.8430193720783 0.5111839044936437 506.0 5.0 342.0 
558.000479336559 12294.0 NaN 1467.032732130928 0.5081115307957655 508.0 4.0 343.0 
560.000479336559 12306.0 NaN 1457.742150968604 0.5089674979807772 495.0 10.0 334.0 
562.000479336559 12323.0 NaN 1457.8623914495652 0.5084565635964788 496.0 10.0 334.0 
564.0004290227293 12351.0 NaN 1454.6746826987314 0.5072378050087218 495.0 10.0 333.0 
566.000479336559 12368.0 NaN 1460.9832999332 0.5093242236321837 497.0 10.0 335.0 
568.000479336559 12351.0 NaN 1482.3807615230457 0.5092017834059223 499.0 10.0 342.0 
570.000479336559 12342.0 NaN 1482.5731462925849 0.5090728166492505 499.0 10.0 342.0 
572.000479336559 12339.0 NaN 1479.3533734134933 0.5081990517867037 499.0 10.0 341.0 
574.0004290227293 12342.0 NaN 1476.3286573146286 0.5076636838277332 503.0 5.0 345.0 
576.000479336559 12368.0 NaN 1482.4368737474942 0.5132160383539226 502.0 5.0 347.0 
578.000479336559 12332.0 NaN 1479.470941883767 0.5087265579823257 499.0 10.0 341.0 
580.000479336559 12330.0 NaN 1485.4161656646634 0.510688245933369 490.0 19.0 334.0 
582.000479336559 12307.0 NaN 1485.6619906479632 0.5091004760107757 495.0 16.0 337.0 
584.0004290227293 12315.0 NaN 1488.5397461589837 0.5113213317817241 499.0 11.0 343.0 
586.000479336559 12375.0 NaN 1485.6272545090183 0.51177505665192 511.0 5.0 348.0 
588.000479336559 12340.0 NaN 1485.4589178356719 0.5060147466065558 514.0 5.0 348.0 
590.000479336559 12363.0 NaN 1488.6867067468274 0.5084279249170004 512.0 9.0 345.0 
592.000479336559 12341.0 NaN 1488.5878423513705 0.5070480777093858 510.0 12.0 342.0 
594.0004290227293 12346.0 NaN 1491.7247828991306 0.5062100970504553 514.0 10.0 345.0 
596.000479336559 12377.0 NaN 1488.5450901803615 0.5074029099492395 518.0 11.0 343.0 
598.000479336559 12351.0 NaN 1488.5958583834345 0.5039993586364183 524.0 5.0 349.0 
600.000479336559 12357.0 NaN 1491.6472945891787 0.5126831345882507 524.0 5.0 350.0 
602.000479336559 12360.0 NaN 1500.9592518370077 0.51111192181019 522.0 9.0 349.0 
604.0004290227293 12375.0 NaN 1497.7955911823638 0.5086804854740253 519.0 11.0 346.0 
606.000479336559 12390.0 NaN 1500.94321977288 0.5059991433917493 517.0 11.0 347.0 
608.000479336559 12378.0 NaN 1507.05678022712 0.5051689870930766 513.0 12.0 348.0 
610.000479336559 12436.0 NaN 1513.234468937875 0.5075622989000764 518.0 8.0 354.0 
612.000479336559 12481.0 NaN 1510.126920507682 0.5074058251550105 517.0 10.0 351.0 
614.0004290227293 12474.0 NaN 1507.0354041416172 0.5053754540120315 515.0 12.0 348.0 
616.000479336559 12477.0 NaN 1507.0033400133607 0.5067072200153929 518.0 9.0 351.0 
618.000479336559 12470.0 NaN 1504.0587842351363 0.5075462727692971 517.0 10.0 349.0 
620.000479336559 12509.0 NaN 1513.2157648630605 0.5048384733787183 510.0 17.0 345.0 
622.000479336559 12521.0 NaN 1525.6058784235122 0.509005316078177 519.0 9.0 357.0 
624.0004290227293 12486.0 NaN 1522.4101536406151 0.5047152200821239 516.0 9.0 356.0 
626.000479336559 12506.0 NaN 1525.6352705410818 0.510976937561671 515.0 11.0 355.0 
628.000479336559 12484.0 NaN 1525.4081496325991 0.5075149998469853 518.0 8.0 358.0 
630.000479336559 12495.0 NaN 1519.503006012025 0.5074074508470292 513.0 10.0 354.0 
632.000479336559 12481.0 NaN 1522.4074816299274 0.507970313528401 506.0 15.0 350.0 
634.0004290227293 12451.0 NaN 1519.4094856379436 0.5073789784389732 508.0 14.0 350.0 
636.000479336559 12483.0 NaN 1522.3967935871738 0.5089340342356912 516.0 11.0 354.0 
638.000479336559 12435.0 NaN 1519.4228456913818 0.5033337122598527 507.0 24.0 340.0 
640.000479336559 12457.0 NaN 1522.362057448229 0.5062390039153037 511.0 19.0 346.0 
642.000479336559 12467.0 NaN 1525.65130260521 0.5078209969415 515.0 16.0 350.0 
644.0004290227293 12425.0 NaN 1522.3380093520366 0.5047179208625442 508.0 23.0 342.0 
646.000479336559 12451.0 NaN 1519.4682698730805 0.5100108147236245 515.0 13.0 351.0 
648.000479336559 12406.0 NaN 1525.5070140280554 0.5045677343020778 519.0 6.0 360.0 
650.000479336559 12426.0 NaN 1522.6452905811627 0.5099449431626809 511.0 11.0 354.0 
652.000479336559 12423.0 NaN 1525.541750167 0.5136919933408914 517.0 6.0 360.0 
654.0004290227293 12362.0 NaN 1525.565798263192 0.504049636609685 513.0 9.0 357.0 
656.000479336559 12406.0 NaN 1534.7601870407475 0.510961033617626 503.0 18.0 351.0 
658.000479336559 12376.0 NaN 1544.1923847695384 0.5017276659137065 515.0 5.0 367.0 
660.000479336559 12390.0 NaN 1544.0320641282553 0.5055153800994664 517.0 2.0 370.0 
662.000479336559 12399.0 NaN 1544.1122244488993 0.5082435497410864 515.0 3.0 369.0 
664.0004290227293 12370.0 NaN 1540.8844355377432 0.5051089704037275 512.0 5.0 366.0 
#####################################################################
# End of data export. Simulation finished at: 2019-03-06T19:48+0000 #
#####################################################################
