#####################################################################
# Alchemist log file - simulation started at: 2019-03-08T02:01+0000 #
#####################################################################
# seed = 5.0, bandwidth = 1.0E8, propagationDelay = 0.31622776601683794, baserange = 100.0
#
# The columns have the following meaning: 
# time neighbor_count[Sum] <value>@neighbor_count[Sum] packet_size[Mean] mean_delay[Mean] crowd[Sum] overcrowded[Sum] risk[Sum] 
0.0 NaN NaN NaN NaN NaN NaN NaN 
2.000101793669918 12484.0 NaN 4993.199732798931 0.4757930193799888 1497.0 0.0 1497.0 
4.000101793669918 13126.0 NaN 4995.505678022712 0.497423267606431 1486.0 11.0 1486.0 
6.000101793669918 13126.0 NaN 4996.785571142284 0.4974233090832277 1492.0 5.0 1492.0 
8.000101793669918 13127.0 NaN 4997.074148296593 0.4975538989277503 1486.0 11.0 1486.0 
10.000101793669918 13123.0 NaN 4995.452237808951 0.4975178122233242 1489.0 8.0 1489.0 
12.000101793669918 13124.0 NaN 4995.997327989312 0.4974714281807156 1484.0 13.0 1484.0 
14.000101793669918 13124.0 NaN 4995.553774215097 0.4975765764400216 1483.0 14.0 1483.0 
16.00010179366992 13130.0 NaN 4995.962591850367 0.49747944104644026 1486.0 11.0 1486.0 
18.00010179366992 13130.0 NaN 4995.53507014028 0.4979936852075267 1477.0 20.0 1477.0 
20.00010179366992 13148.0 NaN 4995.572478289913 0.5011652544610193 1477.0 20.0 1477.0 
22.00010179366992 13145.0 NaN 4995.377421509686 0.49777675385755676 1474.0 23.0 1474.0 
24.00010179366992 13145.0 NaN 4995.660654642618 0.4977908992115866 1483.0 14.0 1483.0 
26.00010179366992 13157.0 NaN 4995.187708750835 0.4975199196435627 1485.0 12.0 1485.0 
28.00010179366992 13163.0 NaN 4995.4228456913825 0.49810788059658123 1482.0 15.0 1482.0 
30.00010179366992 13183.0 NaN 4995.553774215097 0.499364308731744 1481.0 16.0 1481.0 
32.00010179366992 13176.0 NaN 4995.3373413493655 0.4973855286020317 1484.0 13.0 1484.0 
34.00010179366992 13186.0 NaN 4995.134268537074 0.49914471596543886 1487.0 10.0 1487.0 
36.00010179366992 13188.0 NaN 4995.310621242485 0.49747093106583173 1478.0 19.0 1478.0 
38.00010179366992 13190.0 NaN 4995.185036740147 0.4992671286887168 1478.0 19.0 1478.0 
40.00010179366992 13228.0 NaN 4995.559118236473 0.4980200046672056 1483.0 14.0 1483.0 
42.00010179366992 13218.0 NaN 4994.909819639279 0.49785587476226906 1484.0 13.0 1484.0 
44.00010179366992 13227.0 NaN 4995.297261189045 0.5013606068954115 1480.0 17.0 1480.0 
46.00010179366992 13222.0 NaN 4995.083500334002 0.4968781301003952 1476.0 21.0 1476.0 
48.00010179366992 13232.0 NaN 4995.3453573814295 0.49749346406655026 1476.0 21.0 1476.0 
50.00010179366992 13265.0 NaN 4995.102204408818 0.49800998527957563 1479.0 18.0 1479.0 
52.00010179366992 13252.0 NaN 4995.102204408818 0.4984625921880222 1476.0 21.0 1476.0 
54.00010179366992 13262.0 NaN 4995.123580494322 0.5017555207667164 1475.0 22.0 1475.0 
56.00010179366992 13255.0 NaN 4994.97661990648 0.4964827177493966 1476.0 21.0 1476.0 
58.00010179366992 13266.0 NaN 4995.1957247829 0.4970732318270571 1480.0 17.0 1480.0 
60.00010179366992 13289.0 NaN 4992.171008684035 0.49912308063455757 1475.0 21.0 1475.0 
62.00010179366992 13251.0 NaN 1523.2999331997335 0.49925519050978606 790.0 22.0 343.0 
64.00010179366993 13252.0 NaN 1522.928523714094 0.49902739154725373 622.0 30.0 335.0 
66.00010179366993 13246.0 NaN 1522.7307949231815 0.49931808839284075 564.0 34.0 331.0 
68.00010179366993 13256.0 NaN 1525.7688710754842 0.5011093136316117 534.0 32.0 334.0 
70.00010179366993 13249.0 NaN 1525.8704074816299 0.49666293868018463 520.0 24.0 342.0 
72.00010179366993 13258.0 NaN 1525.7661990647969 0.49680390310890726 514.0 22.0 344.0 
74.00010179366993 13288.0 NaN 1528.9619238476937 0.4981706328136957 511.0 23.0 344.0 
76.00010179366993 13290.0 NaN 1528.8844355377428 0.496302861219035 507.0 26.0 341.0 
78.00010179366993 13325.0 NaN 1531.9225116900457 0.49658155400894727 505.0 29.0 339.0 
80.00010179366993 13303.0 NaN 1535.000668002673 0.5012503375475911 503.0 25.0 344.0 
82.00010179366993 13301.0 NaN 1535.078156312627 0.49648840723583776 501.0 28.0 341.0 
84.00010179366993 13309.0 NaN 1534.928523714094 0.5004509109055254 502.0 24.0 345.0 
86.00010179366993 13298.0 NaN 1535.056780227121 0.4956750887559096 499.0 28.0 341.0 
88.00010179366993 13314.0 NaN 1534.9552438209755 0.49921620677607637 499.0 25.0 344.0 
90.00010179366993 13264.0 NaN 1534.9953239812971 0.5010018859365932 500.0 28.0 341.0 
92.00010179366993 13260.0 NaN 1534.875083500334 0.49703601228975725 503.0 23.0 346.0 
94.00010179366993 13260.0 NaN 1535.0647962591845 0.49821220633232133 498.0 28.0 341.0 
96.00010179366993 13246.0 NaN 1534.8937875751515 0.5007600773995096 497.0 27.0 342.0 
98.00010179366993 13249.0 NaN 1538.097528390112 0.4996436995220491 496.0 29.0 341.0 
100.00010179366993 13219.0 NaN 1537.9559118236457 0.4999468971606879 504.0 21.0 349.0 
102.00010179366993 13222.0 NaN 1538.094856379427 0.4987067451612907 498.0 28.0 342.0 
104.00010179366993 13222.0 NaN 1541.060788243154 0.5006878451413713 498.0 26.0 345.0 
106.00010179366993 13233.0 NaN 1541.282565130261 0.4998389401604275 499.0 26.0 345.0 
108.00010179366993 13246.0 NaN 1541.0207080828332 0.49950838957846877 502.0 22.0 349.0 
110.00010179366993 13230.0 NaN 1541.1462925851704 0.5021221818401911 497.0 29.0 342.0 
112.00010179366993 13269.0 NaN 1541.0313961255845 0.49994496793680737 499.0 26.0 345.0 
114.00010179366993 13280.0 NaN 1541.047428189712 0.4998727090619192 500.0 27.0 344.0 
116.00010179366993 13279.0 NaN 1540.9832999332002 0.4990405109486638 503.0 23.0 348.0 
118.00010179366993 13301.0 NaN 1541.0634602538419 0.5010237907566407 502.0 27.0 344.0 
120.00010179366993 13254.0 NaN 1541.0046760187029 0.5001186007079725 505.0 22.0 349.0 
122.00010179366993 13259.0 NaN 1541.0207080828334 0.5005261105140731 502.0 27.0 344.0 
124.00010179366993 13288.0 NaN 1544.0133600534393 0.5010022280143205 503.0 24.0 348.0 
126.00010179366993 13285.0 NaN 1544.1736806947245 0.498081745421271 502.0 27.0 345.0 
128.00010179366993 13305.0 NaN 1540.9645958583822 0.5005513903183394 500.0 27.0 344.0 
130.00010179366993 13263.0 NaN 1541.0981963927848 0.5020264423179792 502.0 26.0 345.0 
132.00010179366993 13244.0 NaN 1537.87040748163 0.4988809679880428 504.0 24.0 346.0 
134.00010179366993 13282.0 NaN 1538.0601202404819 0.5001836562109089 506.0 23.0 347.0 
136.00010179366993 13252.0 NaN 1534.8964595858365 0.4983493110948175 503.0 25.0 344.0 
138.00010179366993 13272.0 NaN 1534.9445557782242 0.5000656328868599 503.0 23.0 346.0 
140.00010179366993 13233.0 NaN 1534.8697394789576 0.5019424058353502 500.0 25.0 344.0 
142.00010179366993 13223.0 NaN 1537.9559118236457 0.4999131941409949 502.0 22.0 348.0 
144.00010179366993 13280.0 NaN 1537.9719438877755 0.5007116464278365 500.0 25.0 345.0 
146.00010179366993 13266.0 NaN 1538.0253841015365 0.5004008326382692 495.0 27.0 343.0 
148.00010179366993 13272.0 NaN 1534.909819639279 0.5025536741943478 493.0 30.0 339.0 
150.00010179366993 13230.0 NaN 1534.9579158316637 0.5071784045359524 495.0 26.0 343.0 
152.00010179366993 13208.0 NaN 1528.7214428857728 0.5010704972044915 492.0 28.0 339.0 
154.00010179366993 13229.0 NaN 1528.7561790247178 0.5010902326028872 491.0 27.0 340.0 
156.00010179366993 13203.0 NaN 1531.7488309953246 0.5003273071210526 488.0 29.0 339.0 
158.00010179366993 13216.0 NaN 1534.9392117568455 0.5044956652923817 493.0 27.0 342.0 
160.00010179366993 13179.0 NaN 1534.8216432865727 0.5051074739920877 492.0 29.0 340.0 
162.00010179366993 13148.0 NaN 1534.8376753507 0.5006524006768035 494.0 26.0 343.0 
164.00010179366993 13166.0 NaN 1537.8650634602548 0.4988698392630099 492.0 29.0 341.0 
166.00010179366993 13147.0 NaN 1537.9532398129609 0.4981393641027512 497.0 25.0 345.0 
168.00010179366993 13166.0 NaN 1531.7515030060115 0.5002103427002403 493.0 28.0 340.0 
170.00010179366993 13133.0 NaN 1534.9098196392792 0.49940290135946847 499.0 24.0 345.0 
172.00010179366993 13119.0 NaN 1534.7548430193729 0.49895562758081463 497.0 26.0 343.0 
174.00010179366993 13150.0 NaN 1537.9559118236455 0.4993823918386471 493.0 29.0 341.0 
176.00010179366993 13121.0 NaN 1534.92050768203 0.49738744824797126 482.0 33.0 336.0 
178.00010179366993 13137.0 NaN 1534.8029392117544 0.5042858167655139 484.0 32.0 337.0 
180.00010179366993 13087.0 NaN 1534.760187040748 0.5032037177609935 484.0 33.0 336.0 
182.00010179366993 13081.0 NaN 1534.797595190382 0.49759771505510975 480.0 36.0 333.0 
184.00010179366993 13102.0 NaN 1537.942551770209 0.49825101968861446 482.0 34.0 336.0 
186.00010179366993 13071.0 NaN 1534.893787575152 0.49655410593618204 480.0 33.0 336.0 
188.00010179366993 13098.0 NaN 1537.8891115564454 0.4999525525535959 477.0 38.0 332.0 
190.00010179366993 13076.0 NaN 1531.7595190380757 0.5010905354183731 480.0 32.0 336.0 
192.00010179366993 13065.0 NaN 1531.778223112891 0.4978232021304646 478.0 36.0 332.0 
194.00010179366993 13090.0 NaN 1534.8216432865727 0.49978399983655847 478.0 34.0 335.0 
196.00010179366993 13049.0 NaN 1534.8537074148294 0.5002873702077946 475.0 38.0 331.0 
198.00010179366993 13049.0 NaN 1537.9719438877753 0.5053857602762953 481.0 32.0 338.0 
200.00010179366993 13009.0 NaN 1541.0474281897118 0.49955953412064447 480.0 35.0 336.0 
202.00010179366993 12992.0 NaN 1540.9352037408155 0.5008391689789086 485.0 29.0 342.0 
204.00010179366993 13017.0 NaN 1541.0447561790247 0.5042562084834334 481.0 33.0 338.0 
206.00010179366993 12990.0 NaN 1537.9291917167661 0.5001329702486049 481.0 32.0 338.0 
208.00010179366993 13001.0 NaN 1534.8964595858365 0.5024328383035769 480.0 35.0 334.0 
210.00010179366993 12962.0 NaN 1531.7595190380757 0.5028955340024133 479.0 36.0 332.0 
212.00010179366993 12956.0 NaN 1531.692718770875 0.49716058211911796 475.0 37.0 331.0 
214.00010179366993 12978.0 NaN 1534.8002672010698 0.4996370779483324 478.0 34.0 335.0 
216.00010179366993 12922.0 NaN 1528.684034736139 0.4991996665849848 475.0 38.0 329.0 
218.00010179366993 12915.0 NaN 1528.638610554443 0.5008552494365289 475.0 34.0 333.0 
220.00010179366993 12905.0 NaN 1531.735470941882 0.49928168233355397 478.0 32.0 336.0 
222.00010179366993 12885.0 NaN 1534.714762859052 0.5002210470685429 476.0 33.0 336.0 
224.00010179366993 12881.0 NaN 1534.8537074148294 0.5024849904839832 475.0 34.0 335.0 
226.00010179366993 12860.0 NaN 1531.7621910487635 0.49842975238237114 482.0 27.0 341.0 
228.00010179366993 12861.0 NaN 1537.8971275885092 0.4995924636674862 483.0 27.0 343.0 
230.00010179366993 12848.0 NaN 1537.985303941216 0.5020059583893863 481.0 27.0 343.0 
232.00010179366993 12839.0 NaN 1541.0073480293909 0.49837165850069015 481.0 28.0 343.0 
234.00010179366993 12848.0 NaN 1541.0688042752183 0.5051174788486812 482.0 27.0 344.0 
236.00010179366993 12809.0 NaN 1537.8864395457574 0.5002406663221053 479.0 30.0 340.0 
238.00010179366993 12798.0 NaN 1534.8510354041425 0.5034597699913479 478.0 31.0 338.0 
240.00010179366993 12784.0 NaN 1534.9018036072152 0.5037694322831651 478.0 31.0 338.0 
242.00010179366993 12778.0 NaN 1534.7414829659301 0.5008601045913198 478.0 30.0 339.0 
244.00010179366993 12763.0 NaN 1534.7815631262542 0.505643758075548 479.0 32.0 337.0 
246.00010179366993 12720.0 NaN 1534.794923179691 0.5001379037375926 478.0 32.0 337.0 
248.00010179366993 12709.0 NaN 1528.6412825651298 0.5052502991998474 476.0 34.0 333.0 
250.00010179366993 12718.0 NaN 1531.7434869739477 0.5052770236643388 471.0 36.0 332.0 
252.00010179366993 12710.0 NaN 1528.537074148297 0.4999101768717204 477.0 32.0 335.0 
254.00010179366993 12721.0 NaN 1531.732798931197 0.502440344003809 481.0 27.0 341.0 
256.00010179366996 12705.0 NaN 1528.7668670674698 0.5021366898792801 481.0 31.0 336.0 
258.00010179366996 12695.0 NaN 1528.58784235137 0.5043659938702841 482.0 28.0 339.0 
260.00010179366996 12703.0 NaN 1528.6519706078818 0.5017054628388848 482.0 30.0 337.0 
262.00010179366996 12712.0 NaN 1525.4883099532394 0.5022497802701817 479.0 31.0 335.0 
264.00010179366996 12712.0 NaN 1534.7762191048755 0.5032104362270812 484.0 28.0 341.0 
266.00010179366996 12680.0 NaN 1534.888443553773 0.5010195989033324 481.0 27.0 342.0 
268.00010179366996 12678.0 NaN 1534.794923179691 0.5025817983960601 479.0 31.0 338.0 
270.00010179366996 12712.0 NaN 1531.732798931197 0.5106742780567044 480.0 26.0 342.0 
272.00010179366996 12681.0 NaN 1531.6339345357364 0.5011201231104363 480.0 29.0 339.0 
274.00010179366996 12682.0 NaN 1531.6633266533067 0.502270741876103 478.0 29.0 339.0 
276.00010179366996 12662.0 NaN 1537.8062792251183 0.5044874767479717 477.0 29.0 341.0 
278.00010179366996 12639.0 NaN 1537.7154308617248 0.5000712463310125 477.0 31.0 339.0 
280.00010179366996 12632.0 NaN 1534.7281229124908 0.5088046944866318 478.0 32.0 337.0 
282.00010179366996 12615.0 NaN 1531.6873747495001 0.4996284442002798 476.0 31.0 337.0 
284.00010179366996 12622.0 NaN 1534.6586506346023 0.5039125610793449 467.0 43.0 326.0 
286.00010179366996 12594.0 NaN 1534.8537074148292 0.5015855566923808 471.0 36.0 333.0 
288.00010179366996 12558.0 NaN 1534.6586506346023 0.5033754081553239 470.0 38.0 331.0 
290.00010179366996 12546.0 NaN 1534.7975951903818 0.5067270110015571 470.0 36.0 333.0 
292.00010179366996 12538.0 NaN 1534.6853707414816 0.5013163742361892 472.0 36.0 333.0 
294.00010179366996 12523.0 NaN 1531.607214428857 0.505045996610069 474.0 31.0 337.0 
296.00010179366996 12515.0 NaN 1531.72478289913 0.502488483635331 473.0 34.0 334.0 
298.00010179366996 12504.0 NaN 1540.916499666 0.5028788575010156 473.0 31.0 340.0 
300.00010179366996 12489.0 NaN 1540.977955911825 0.5064543998321275 472.0 33.0 338.0 
302.00010179366996 12472.0 NaN 1531.6098864395453 0.5013408172163294 465.0 36.0 332.0 
304.00010179366996 12457.0 NaN 1534.7922511690058 0.5047040604210973 469.0 32.0 337.0 
306.00010179366996 12451.0 NaN 1537.9986639946546 0.5017624409312343 467.0 34.0 336.0 
308.00010179366996 12449.0 NaN 1537.8276553106207 0.5074457755154336 474.0 29.0 341.0 
310.00010179366996 12444.0 NaN 1537.81696726787 0.5046808521826308 472.0 30.0 340.0 
312.00010179366996 12440.0 NaN 1531.5751503006 0.5026319311777302 475.0 27.0 341.0 
314.00010179366996 12431.0 NaN 1531.6793587174363 0.5096593490187604 470.0 31.0 337.0 
316.00010179366996 12411.0 NaN 1531.6339345357364 0.5021739050243513 480.0 23.0 345.0 
318.00010179366996 12420.0 NaN 1531.7488309953246 0.5031016011582131 478.0 27.0 341.0 
320.00010179366996 12427.0 NaN 1531.7408149632606 0.504436908880188 474.0 31.0 337.0 
322.00010179366996 12422.0 NaN 1534.8216432865727 0.502939687808576 478.0 29.0 340.0 
324.00010179366996 12403.0 NaN 1531.7702070808273 0.5036131737720623 475.0 30.0 338.0 
326.00010179366996 12394.0 NaN 1531.890447561791 0.5061475487822248 477.0 26.0 342.0 
328.00010179366996 12420.0 NaN 1531.7060788243157 0.5047077887845405 481.0 26.0 342.0 
330.00010179366996 12410.0 NaN 1531.7327989311973 0.5032921250693401 482.0 24.0 344.0 
332.00010179366996 12400.0 NaN 1531.778223112891 0.5024107953433317 481.0 24.0 344.0 
334.00010179366996 12391.0 NaN 1528.6573146292574 0.5028127406299251 480.0 26.0 341.0 
336.00010179366996 12378.0 NaN 1528.7160988643973 0.5004493961084077 480.0 25.0 342.0 
338.00010179366996 12391.0 NaN 1528.7000668002665 0.49982767120681326 475.0 31.0 336.0 
340.00010179366996 12413.0 NaN 1525.5978623914484 0.5056041275868673 480.0 28.0 338.0 
342.00010179366996 12383.0 NaN 1525.6619906479636 0.5006672707260547 477.0 30.0 336.0 
344.00010179366996 12394.0 NaN 1528.5958583834338 0.5024301515702208 481.0 25.0 342.0 
346.00010179366996 12376.0 NaN 1519.5537742150975 0.502727761746925 481.0 26.0 338.0 
348.00010179366996 12373.0 NaN 1519.356045424182 0.49960641282039087 480.0 25.0 339.0 
350.00010179366996 12421.0 NaN 1525.6646626586514 0.5027195471018538 480.0 25.0 341.0 
352.00010179366996 12423.0 NaN 1522.3727454909817 0.5027532157009228 484.0 26.0 339.0 
354.00010179366996 12416.0 NaN 1519.4281897127576 0.5047545571908396 486.0 25.0 339.0 
356.00010179366996 12399.0 NaN 1519.2358049432187 0.5026379486759646 480.0 30.0 334.0 
358.00010179366996 12413.0 NaN 1519.5003340013366 0.50516557944817 483.0 27.0 337.0 
360.00010179366996 12428.0 NaN 1516.2458249832998 0.5072794516572163 481.0 29.0 334.0 
362.00010179366996 12415.0 NaN 1513.2798931195728 0.5056863832872276 485.0 25.0 337.0 
364.00010179366996 12402.0 NaN 1507.0247160988638 0.5049290658800748 486.0 26.0 334.0 
366.00010179366996 12380.0 NaN 1503.9946559786242 0.5035398087348494 486.0 25.0 334.0 
368.00010179366996 12364.0 NaN 1500.9565798263184 0.5098056600696288 486.0 25.0 333.0 
370.00010179366996 12366.0 NaN 1503.9251837007355 0.5134837067058143 486.0 27.0 332.0 
372.00010179366996 12342.0 NaN 1507.1182364729455 0.5059489000869685 486.0 26.0 334.0 
374.00010179366996 12329.0 NaN 1503.9759519038082 0.5038449329985909 483.0 30.0 329.0 
376.00010179366996 12327.0 NaN 1500.9084836339355 0.5029327648492642 487.0 28.0 330.0 
378.00010179366996 12349.0 NaN 1497.774215096861 0.5070491187101512 482.0 30.0 327.0 
380.00010179366996 12336.0 NaN 1500.91382765531 0.5062614430340409 484.0 25.0 333.0 
382.00010179366996 12327.0 NaN 1497.8223112892456 0.5052538984971272 487.0 28.0 329.0 
384.00010179366996 12321.0 NaN 1497.7555110220446 0.5070687372855192 491.0 24.0 333.0 
386.00010179366996 12293.0 NaN 1494.6826987307943 0.506974868324965 491.0 22.0 334.0 
388.00010179366996 12311.0 NaN 1494.6105544422182 0.5097825868890933 489.0 25.0 331.0 
390.00010179366996 12315.0 NaN 1497.7768871075477 0.5111613147907251 488.0 24.0 333.0 
392.00010179366996 12305.0 NaN 1504.0 0.5059228695069198 488.0 27.0 332.0 
394.00010179366996 12280.0 NaN 1507.0621242484976 0.5063986706953235 495.0 25.0 335.0 
396.00010179366996 12264.0 NaN 1507.0167000667998 0.504674532700096 493.0 27.0 333.0 
398.00010179366996 12272.0 NaN 1503.9706078824304 0.5008091623327227 499.0 21.0 338.0 
400.00010179366996 12293.0 NaN 1500.9966599866393 0.5033942466083237 496.0 25.0 333.0 
402.00010179366996 12284.0 NaN 1503.9625918503666 0.5056974382251644 496.0 23.0 336.0 
404.00010179366996 12276.0 NaN 1507.1128924515704 0.5045599911803165 495.0 24.0 336.0 
406.00010179366996 12272.0 NaN 1513.2879091516363 0.5051147951238183 494.0 28.0 334.0 
408.00010179366996 12271.0 NaN 1519.436205744824 0.5073851665063442 506.0 20.0 344.0 
410.00010179366996 12278.0 NaN 1525.5871743486978 0.5032490092532752 502.0 24.0 342.0 
412.00010179366996 12270.0 NaN 1522.4395457581822 0.5044662777825006 509.0 19.0 346.0 
414.00010179366996 12286.0 NaN 1519.3667334669342 0.5035247086035818 506.0 22.0 342.0 
416.00010179366996 12286.0 NaN 1510.0948563794261 0.5036715484160422 508.0 20.0 341.0 
418.00010179366996 12305.0 NaN 1513.1676686706737 0.5064076506581124 507.0 21.0 341.0 
420.00010179366996 12327.0 NaN 1506.9979959919829 0.5085475747898849 504.0 23.0 337.0 
422.00010179366996 12315.0 NaN 1497.7047428189717 0.5055467781917636 497.0 23.0 334.0 
424.00010179366996 12314.0 NaN 1500.7828991315967 0.5044992059210192 500.0 19.0 339.0 
426.00010179366996 12275.0 NaN 1507.024716098864 0.5058572596259298 500.0 20.0 340.0 
428.00010179366996 12281.0 NaN 1507.014028056112 0.5050725873655123 496.0 24.0 336.0 
430.00010179366996 12307.0 NaN 1500.9512358049442 0.5037405322292342 499.0 21.0 337.0 
432.00010179366996 12327.0 NaN 1519.3453573814284 0.5079291687082454 500.0 23.0 341.0 
434.00010179366996 12324.0 NaN 1519.4655978623907 0.5031700200057018 506.0 21.0 343.0 
436.00010179366996 12297.0 NaN 1519.33199732799 0.5013220641418357 509.0 18.0 346.0 
438.00010179366996 12297.0 NaN 1522.3861055444213 0.5039213841810856 507.0 19.0 346.0 
440.00010179366996 12292.0 NaN 1525.4562458249827 0.5020066369185574 507.0 21.0 345.0 
442.00010179366996 12312.0 NaN 1537.808951235806 0.5075001190726056 503.0 25.0 345.0 
444.00010179366996 12303.0 NaN 1534.672010688043 0.5072163801355319 508.0 22.0 347.0 
446.00010179366996 12259.0 NaN 1540.8924515698068 0.5052786469964814 506.0 27.0 344.0 
448.00010179366996 12254.0 NaN 1540.793587174348 0.5025263799455457 511.0 23.0 348.0 
450.00010179366996 12246.0 NaN 1543.9545758183026 0.5045513784813451 505.0 27.0 345.0 
452.00010179366996 12237.0 NaN 1540.8336673346696 0.5022094886188172 512.0 18.0 353.0 
454.00010179366996 12230.0 NaN 1543.815631262527 0.5035735388024812 512.0 19.0 353.0 
456.00010179366996 12216.0 NaN 1546.8563794255183 0.5069939750117973 512.0 16.0 357.0 
458.00010179366996 12215.0 NaN 1546.880427521709 0.5011530514210899 509.0 19.0 354.0 
460.00010179366996 12221.0 NaN 1546.8269873079482 0.5046269414401091 511.0 15.0 358.0 
462.00010179366996 12243.0 NaN 1546.8884435537732 0.5013917904473485 512.0 15.0 358.0 
464.00010179366996 12244.0 NaN 1543.7782231128913 0.5010153988739453 507.0 21.0 351.0 
466.00010179366996 12219.0 NaN 1543.7942551770207 0.4996495203124578 509.0 18.0 354.0 
468.00010179366996 12228.0 NaN 1540.6573146292576 0.5014226437058333 508.0 17.0 354.0 
470.00010179366996 12247.0 NaN 1540.7000668002665 0.49866691294794674 509.0 14.0 357.0 
472.00010179366996 12241.0 NaN 1534.4555778223096 0.49813079305406627 508.0 14.0 355.0 
474.00010179366996 12248.0 NaN 1528.4462257849025 0.5000984821798141 504.0 17.0 350.0 
476.00010179366996 12226.0 NaN 1528.336673346693 0.49903765199022787 509.0 14.0 353.0 
478.00010179366996 12216.0 NaN 1528.366065464263 0.500042014377472 505.0 16.0 351.0 
480.00010179366996 12224.0 NaN 1525.2879091516363 0.49981741643904376 509.0 13.0 353.0 
482.00010179366996 12218.0 NaN 1522.3112892451566 0.5009908903312109 497.0 23.0 342.0 
484.00010179366996 12224.0 NaN 1507.003340013361 0.5053323411906827 504.0 13.0 347.0 
486.00010179366996 12193.0 NaN 1500.7989311957253 0.5040673611510371 495.0 19.0 339.0 
488.00010179366996 12191.0 NaN 1497.7074148296606 0.49966816697661637 500.0 13.0 344.0 
490.00010179366996 12198.0 NaN 1497.8062792251176 0.5010982473467338 500.0 15.0 342.0 
492.00010179366996 12172.0 NaN 1491.5617902471618 0.502754532719233 503.0 12.0 343.0 
494.00010179366996 12171.0 NaN 1485.5177020708088 0.5033165572476125 495.0 16.0 337.0 
496.00010179366996 12140.0 NaN 1485.4989979959912 0.5020485954756513 498.0 13.0 340.0 
498.00010179366996 12172.0 NaN 1485.4295257181022 0.49869263936836206 493.0 18.0 335.0 
500.00010179366996 12193.0 NaN 1488.4969939879752 0.5026809875720667 489.0 21.0 333.0 
502.00010179366996 12196.0 NaN 1491.6125584502345 0.5066548843073597 494.0 17.0 338.0 
504.00010179366996 12209.0 NaN 1485.5337341349364 0.5018561031290139 492.0 19.0 334.0 
506.00010179366996 12178.0 NaN 1494.7601870407475 0.5010691615160175 495.0 17.0 339.0 
508.00010179366996 12197.0 NaN 1497.7261189044748 0.5014409306288841 500.0 16.0 341.0 
510.00010179366996 12209.0 NaN 1494.6720106880434 0.5014021802938703 497.0 17.0 339.0 
512.00010179367 12212.0 NaN 1488.5744822979284 0.5019280760071423 494.0 20.0 334.0 
514.00010179367 12228.0 NaN 1482.3967935871735 0.5049378614878585 491.0 20.0 332.0 
516.00010179367 12207.0 NaN 1479.2812291249172 0.498170836541433 487.0 21.0 330.0 
518.00010179367 12224.0 NaN 1476.2164328657302 0.4984680423635785 488.0 22.0 328.0 
520.00010179367 12241.0 NaN 1463.938543754174 0.49854719302453704 488.0 22.0 324.0 
522.00010179367 12260.0 NaN 1460.9672678690722 0.5005866359439455 487.0 19.0 326.0 
524.00010179367 12279.0 NaN 1463.8851035404152 0.4989760322885791 484.0 21.0 325.0 
526.00010179367 12284.0 NaN 1460.9378757515024 0.49560098780972256 489.0 17.0 328.0 
528.00010179367 12313.0 NaN 1463.95991983968 0.5005002591799171 492.0 16.0 330.0 
530.00010179367 12325.0 NaN 1451.8316633266538 0.5003770109993931 489.0 18.0 324.0 
532.00010179367 12337.0 NaN 1451.6526386105547 0.499979752143265 486.0 21.0 321.0 
534.00010179367 12370.0 NaN 1451.8049432197727 0.5020493435167678 486.0 21.0 321.0 
536.00010179367 12351.0 NaN 1454.733466933867 0.4983064541649315 483.0 23.0 320.0 
538.00010179367 12362.0 NaN 1460.9565798263186 0.5059562551283897 486.0 22.0 323.0 
540.00010179367 12349.0 NaN 1460.8737474949905 0.502880704888932 487.0 21.0 324.0 
542.00010179367 12334.0 NaN 1467.0888443553781 0.5030248433856028 488.0 21.0 326.0 
544.00010179367 12330.0 NaN 1470.1028724114901 0.5040726537414226 484.0 24.0 324.0 
546.00010179367 12291.0 NaN 1467.0434201736814 0.5040178542656367 487.0 23.0 324.0 
548.00010179367 12307.0 NaN 1466.9926519706084 0.5049333385200844 492.0 19.0 328.0 
550.00010179367 12305.0 NaN 1463.9679358717442 0.5031641138338113 489.0 20.0 326.0 
552.00010179367 12307.0 NaN 1463.9144956579823 0.5081223826723397 487.0 22.0 324.0 
554.00010179367 12314.0 NaN 1466.9953239812967 0.5034935040738507 489.0 21.0 326.0 
556.00010179367 12292.0 NaN 1457.7635270541086 0.49963460116489306 486.0 21.0 323.0 
558.00010179367 12302.0 NaN 1454.6693386773545 0.5027391688104491 485.0 21.0 322.0 
560.00010179367 12297.0 NaN 1454.725450901804 0.5040867143829949 481.0 23.0 320.0 
562.00010179367 12329.0 NaN 1457.750167000668 0.5020663974924019 483.0 22.0 322.0 
564.00010179367 12352.0 NaN 1460.8443553774216 0.5049096690292748 485.0 22.0 323.0 
566.00010179367 12333.0 NaN 1454.6960587842354 0.5017363719152147 484.0 21.0 322.0 
568.00010179367 12335.0 NaN 1460.903139612559 0.5027426508250822 486.0 22.0 323.0 
570.00010179367 12347.0 NaN 1467.0487641950558 0.5059268450246883 489.0 21.0 326.0 
572.00010179367 12349.0 NaN 1476.2404809619238 0.5038341327586708 488.0 22.0 328.0 
574.00010179367 12346.0 NaN 1479.323981295926 0.5055117795184444 488.0 21.0 330.0 
576.00010179367 12327.0 NaN 1476.2618570474278 0.5048143490733166 488.0 21.0 329.0 
578.00010179367 12323.0 NaN 1473.1062124248492 0.5037545700888318 489.0 21.0 328.0 
580.00010179367 12337.0 NaN 1473.1863727454909 0.5042666919280488 491.0 20.0 329.0 
582.00010179367 12360.0 NaN 1476.1790247160995 0.508340191534868 492.0 20.0 330.0 
584.00010179367 12338.0 NaN 1479.4442217768878 0.5086208705454108 495.0 23.0 328.0 
586.00010179367 12319.0 NaN 1476.1095524382092 0.5050682429644527 498.0 23.0 327.0 
588.00010179367 12345.0 NaN 1479.286573146292 0.5043428655567289 499.0 22.0 329.0 
590.00010179367 12344.0 NaN 1485.3921175684704 0.5002005909885252 501.0 23.0 330.0 
592.00010179367 12361.0 NaN 1485.4722778891114 0.504846404806399 500.0 24.0 329.0 
594.00010179367 12346.0 NaN 1488.5290581162328 0.503522861934661 502.0 23.0 331.0 
596.00010179367 12324.0 NaN 1488.5691382765538 0.5004097907435879 503.0 22.0 332.0 
598.00010179367 12340.0 NaN 1491.5751503006006 0.5017327840042427 500.0 24.0 331.0 
600.00010179367 12364.0 NaN 1497.8009352037402 0.50862505662002 502.0 23.0 334.0 
602.00010179367 12378.0 NaN 1491.6392785571145 0.49935706638939115 500.0 24.0 331.0 
604.00010179367 12363.0 NaN 1503.9919839679364 0.49551077415280875 504.0 22.0 337.0 
606.00010179367 12384.0 NaN 1500.9565798263184 0.49933020163286673 501.0 24.0 334.0 
608.00010179367 12411.0 NaN 1507.0754843019365 0.4999138499291656 502.0 25.0 335.0 
610.00010179367 12433.0 NaN 1507.0995323981285 0.5046513214724172 503.0 25.0 335.0 
612.00010179367 12430.0 NaN 1507.1209084836346 0.49809622170099144 505.0 22.0 338.0 
614.00010179367 12441.0 NaN 1507.0220440881756 0.49835745293856587 500.0 26.0 334.0 
616.00010179367 12435.0 NaN 1507.0621242484979 0.5001121291176392 500.0 24.0 336.0 
618.00010179367 12473.0 NaN 1510.1295925183708 0.5006306322881736 499.0 24.0 337.0 
620.00010179367 12487.0 NaN 1522.4021376085516 0.4966398930789101 503.0 22.0 343.0 
622.00010179367 12512.0 NaN 1522.4021376085516 0.49997331995752464 500.0 24.0 341.0 
624.00010179367 12505.0 NaN 1522.482297929191 0.500775966456798 501.0 24.0 341.0 
626.00010179367 12474.0 NaN 1522.4555778223103 0.5014559813189856 499.0 25.0 340.0 
628.00010179367 12486.0 NaN 1525.501670006681 0.5054132958462065 496.0 28.0 338.0 
630.00010179367 12448.0 NaN 1522.5464261857062 0.501147171952878 502.0 25.0 340.0 
632.00010179367 12435.0 NaN 1525.5978623914484 0.4985620379930743 503.0 24.0 342.0 
634.00010179367 12443.0 NaN 1525.517702070809 0.502167808668904 502.0 31.0 335.0 
636.00010179367 12419.0 NaN 1525.5898463593849 0.499787317846118 510.0 23.0 343.0 
638.00010179367 12431.0 NaN 1522.4716098864385 0.500901829296088 503.0 31.0 334.0 
640.00010179367 12432.0 NaN 1516.288577154309 0.5019284959878555 505.0 26.0 337.0 
642.00010179367 12428.0 NaN 1513.3306613226455 0.49845525040307864 497.0 30.0 332.0 
644.00010179367 12428.0 NaN 1516.2404809619245 0.5001089555978333 498.0 26.0 337.0 
646.00010179367 12416.0 NaN 1516.3580494321989 0.5001565144018808 495.0 28.0 335.0 
648.00010179367 12437.0 NaN 1516.1923847695382 0.5036240823394857 494.0 28.0 335.0 
650.00010179367 12415.0 NaN 1513.378757515029 0.5086636623394374 493.0 29.0 333.0 
652.00010179367 12384.0 NaN 1525.5043420173668 0.4995731995382196 495.0 28.0 338.0 
654.00010179367 12405.0 NaN 1525.6619906479634 0.5019793357586295 493.0 28.0 338.0 
656.00010179367 12400.0 NaN 1525.6325985303931 0.5018681777417535 492.0 29.0 337.0 
658.00010179367 12389.0 NaN 1525.6165664662647 0.5016362481104529 488.0 31.0 335.0 
660.00010179367 12400.0 NaN 1531.6072144288567 0.5038619599369174 483.0 30.0 338.0 
662.00010179367 12381.0 NaN 1537.8891115564454 0.5007497296406702 482.0 32.0 338.0 
664.00010179367 12362.0 NaN 1537.8597194388788 0.5026909932189438 488.0 31.0 339.0 
#####################################################################
# End of data export. Simulation finished at: 2019-03-08T02:10+0000 #
#####################################################################
