#####################################################################
# Alchemist log file - simulation started at: 2019-03-14T09:43+0000 #
#####################################################################
# seed = 8.0, bandwidth = 1000.0, propagationDelay = 0.001, baserange = 562.341325190349
#
# The columns have the following meaning: 
# time neighbor_count[Sum] <value>@neighbor_count[Sum] packet_size[Mean] mean_delay[Mean] crowd[Sum] overcrowded[Sum] risk[Sum] 
0.0 NaN NaN NaN NaN NaN NaN NaN 
2.000927030832833 NaN NaN 4988.0 NaN 1497.0 0.0 1497.0 
4.000927030832833 NaN NaN 4988.0 NaN 1497.0 0.0 1497.0 
6.000198348008885 49388.0 NaN 4989.205076820307 0.2582310491467838 1497.0 0.0 1497.0 
8.000927030832834 98210.0 NaN 4994.75751503006 2.004056492120742 1497.0 0.0 1497.0 
10.00013449896187 98210.0 NaN 4994.749498997996 4.003214381739671 1497.0 0.0 1497.0 
12.000927030832834 98214.0 NaN 4994.51169004676 1.0108717767387296 1497.0 0.0 1497.0 
14.000927030832834 98214.0 NaN 4993.9879759519035 3.0108717767387296 1497.0 0.0 1497.0 
16.000198348008887 98214.0 NaN 4993.9799599198395 2.505128798285519 1494.0 3.0 1494.0 
18.000927030832834 98218.0 NaN 4993.9986639946555 2.003544850162204 1494.0 3.0 1494.0 
20.000594042860097 98218.0 NaN 4994.0013360053445 4.002871902652109 1494.0 3.0 1494.0 
22.00047356809906 98257.0 NaN 4994.0040080160325 1.9298081541678884 1495.0 2.0 1495.0 
24.000927030832834 98263.0 NaN 4994.0013360053445 2.570950823894976 1495.0 2.0 1495.0 
26.000198348008887 98283.0 NaN 4994.0093520374085 3.1118292228039395 1495.0 2.0 1495.0 
28.00047356809906 98317.0 NaN 4994.0040080160325 2.304438984892334 1495.0 2.0 1495.0 
30.000594042860097 98332.0 NaN 4993.9933199732795 3.2036583396237868 1495.0 2.0 1495.0 
32.000927030832834 98370.0 NaN 4994.0334001336005 2.2871018242030177 1495.0 2.0 1495.0 
34.00047356809906 98376.0 NaN 4994.0253841015365 2.938584399804158 1495.0 2.0 1495.0 
36.00019834800889 98405.0 NaN 4994.0253841015365 2.384527625520501 1495.0 2.0 1495.0 
38.000927030832834 98442.0 NaN 4994.0360721442885 2.701002205523932 1495.0 2.0 1495.0 
40.00047356809906 98448.0 NaN 4994.0280561122245 3.567243580066036 1495.0 2.0 1495.0 
42.000927030832834 98490.0 NaN 4994.0547762191045 1.5707628795338902 1495.0 2.0 1495.0 
44.000927030832834 98492.0 NaN 4994.0227120908485 3.339088858395339 1495.0 2.0 1495.0 
46.00019834800889 98527.0 NaN 4994.0146960587845 2.751920943675351 1495.0 2.0 1495.0 
48.000927030832834 98567.0 NaN 4994.0013360053445 1.9848656236768192 1495.0 2.0 1495.0 
50.000594042860094 98570.0 NaN 4993.9826319305275 3.9668996992928762 1495.0 2.0 1495.0 
52.00047356809906 98569.0 NaN 4993.9986639946555 1.9352509829120852 1495.0 2.0 1495.0 
54.000927030832834 98575.0 NaN 4994.0227120908485 2.6177206111257894 1495.0 2.0 1495.0 
56.00019834800889 98623.0 NaN 4994.0307281229125 3.151934270020546 1495.0 2.0 1495.0 
58.00047356809906 98678.0 NaN 4994.0093520374085 2.3494694209423423 1495.0 2.0 1495.0 
60.000594042860094 98723.0 NaN 4994.0253841015365 3.245823112314626 1495.0 2.0 1495.0 
62.00089367128746 98775.0 NaN 1521.9906479625909 2.0850149520263668 825.0 0.0 365.0 
64.00047356809905 98792.0 NaN 1521.9906479625909 1.7692876727424152 694.0 0.0 365.0 
66.0001983480089 98812.0 NaN 1521.8971275885092 1.1509701916915602 630.0 3.0 362.0 
68.00089367128747 98837.0 NaN 1521.8543754175003 1.404511553038384 571.0 3.0 362.0 
70.00089367128747 98869.0 NaN 1521.8383433533727 1.2577447539232594 549.0 3.0 362.0 
72.00089367128747 98826.0 NaN 1521.8303273213091 0.9278195461560332 537.0 4.0 361.0 
74.00013449896187 98839.0 NaN 1521.8517034068152 1.4259293037910774 532.0 4.0 361.0 
76.0001983480089 98873.0 NaN 1524.9352037408155 1.2208701953511842 529.0 4.0 362.0 
78.00089367128747 98894.0 NaN 1528.0080160320636 0.9630842718266053 528.0 3.0 364.0 
80.00089367128747 98930.0 NaN 1528.0026720106882 1.4494104247932342 528.0 3.0 364.0 
82.00089367128747 98926.0 NaN 1528.0026720106882 1.1833414317535043 527.0 4.0 363.0 
84.00013449896187 98944.0 NaN 1531.0835003340003 1.0055191124581448 526.0 3.0 365.0 
86.0001983480089 98936.0 NaN 1531.0835003340003 1.4131992461862493 525.0 3.0 365.0 
88.00089367128747 98939.0 NaN 1531.0835003340003 1.202143741854294 527.0 3.0 365.0 
90.00089367128747 98967.0 NaN 1531.080828323312 1.006531010726991 527.0 3.0 365.0 
92.00089367128747 98987.0 NaN 1531.0754843019363 1.3688105601783096 526.0 3.0 365.0 
94.00013449896187 99011.0 NaN 1531.0754843019363 1.24519169990001 525.0 3.0 365.0 
96.0001983480089 99005.0 NaN 1534.1563126252515 0.9620094795826576 525.0 3.0 366.0 
98.00089367128747 99003.0 NaN 1534.150968603873 1.3949432837665776 525.0 3.0 366.0 
100.00089367128747 99032.0 NaN 1534.142952571809 1.26124058903764 525.0 3.0 366.0 
102.00089367128747 99044.0 NaN 1534.150968603873 0.9301597158177428 525.0 3.0 366.0 
104.00013449896187 99046.0 NaN 1534.1563126252515 1.4299013890816086 525.0 3.0 366.0 
106.0001983480089 99036.0 NaN 1534.1536406145638 1.2149754026020174 525.0 3.0 366.0 
108.00089367128747 99039.0 NaN 1534.140280561121 0.9572886660302422 524.0 3.0 366.0 
110.00089367128747 99065.0 NaN 1534.12959251837 1.4444593108743669 524.0 3.0 366.0 
112.00089367128747 99087.0 NaN 1537.2237808951243 1.1832957563678699 524.0 3.0 367.0 
114.00013449896187 99112.0 NaN 1537.2264529058118 1.0018938121063587 524.0 3.0 367.0 
116.0001983480089 99124.0 NaN 1537.2211088844365 1.4110174112227858 524.0 3.0 367.0 
118.00089367128747 99094.0 NaN 1543.3881095524366 1.2148179920913047 526.0 3.0 369.0 
120.00089367128747 99113.0 NaN 1540.3019372077486 1.0285634434119795 526.0 3.0 368.0 
122.00089367128747 99106.0 NaN 1543.3827655310636 1.3812633733039617 527.0 3.0 369.0 
124.00013449896187 99108.0 NaN 1543.3827655310636 1.2473584767360923 527.0 3.0 369.0 
126.0001983480089 99067.0 NaN 1543.3827655310636 0.9650754007868866 527.0 3.0 369.0 
128.00089367128746 99031.0 NaN 1543.3827655310636 1.385113766862359 527.0 3.0 369.0 
130.00089367128749 99036.0 NaN 1543.3800935203726 1.2466033638590857 527.0 3.0 369.0 
132.00089367128749 99029.0 NaN 1543.3854375417511 0.9335704601024108 526.0 3.0 369.0 
134.00013449896187 99029.0 NaN 1540.3313293253182 1.42143384127158 524.0 3.0 368.0 
136.0001983480089 99024.0 NaN 1534.191048764194 1.206599164114013 524.0 3.0 366.0 
138.00089367128749 99007.0 NaN 1534.185704742818 0.9567682319162298 519.0 3.0 366.0 
140.00089367128749 99023.0 NaN 1531.104876419506 1.4261035767469097 518.0 3.0 365.0 
142.00089367128749 99014.0 NaN 1540.3527054108215 1.176868519760478 521.0 3.0 368.0 
144.00013449896187 99015.0 NaN 1540.3313293253184 0.9893086560167189 521.0 3.0 368.0 
146.0001983480089 99025.0 NaN 1540.334001336006 1.3941517675652377 521.0 3.0 368.0 
148.00089367128749 99015.0 NaN 1546.5197060788246 1.1963030168480981 520.0 3.0 370.0 
150.00089367128749 99033.0 NaN 1546.4929859719452 1.0010371366629507 518.0 4.0 369.0 
152.00089367128749 99028.0 NaN 1543.4308617234456 1.3717139087491241 518.0 4.0 368.0 
154.00013449896187 99030.0 NaN 1537.2611890447547 1.2372894458137829 519.0 4.0 366.0 
156.0001983480089 99038.0 NaN 1540.3687374749484 0.9729000862446883 516.0 4.0 367.0 
158.00089367128749 99014.0 NaN 1540.3500334001335 1.3943339964176873 516.0 4.0 367.0 
160.00089367128749 99017.0 NaN 1540.3446893787573 1.2387319894709552 516.0 4.0 367.0 
162.00089367128749 99051.0 NaN 1540.339345357382 0.9385365200311035 517.0 4.0 367.0 
164.00013449896187 99038.0 NaN 1540.3286573146274 1.4166407487996142 516.0 4.0 367.0 
166.0001983480089 99026.0 NaN 1540.3313293253182 1.1940843863798707 517.0 4.0 367.0 
168.00089367128749 99013.0 NaN 1543.4255177020727 0.9541870644158782 517.0 4.0 368.0 
170.00089367128749 99008.0 NaN 1543.41215764863 1.4259942821763913 516.0 4.0 368.0 
172.00089367128749 99031.0 NaN 1540.3286573146274 1.1759739408010352 517.0 3.0 368.0 
174.00013449896187 99033.0 NaN 1546.4956579826335 0.9867905238481414 521.0 3.0 370.0 
176.0001983480089 99020.0 NaN 1546.4956579826335 1.399835385423326 521.0 3.0 370.0 
178.00089367128749 99022.0 NaN 1546.5116900467608 1.197506532764891 522.0 3.0 370.0 
180.00089367128749 99011.0 NaN 1546.4929859719455 1.0004276310329052 521.0 3.0 370.0 
182.00089367128749 99041.0 NaN 1543.428189712757 1.3738520514381438 522.0 3.0 369.0 
184.00013449896187 99040.0 NaN 1540.3313293253182 1.2303252085144605 519.0 3.0 368.0 
186.0001983480089 99033.0 NaN 1540.3259853039428 0.9704412897790354 518.0 3.0 368.0 
188.00089367128749 99025.0 NaN 1540.3099532398116 1.3922321345527673 518.0 3.0 368.0 
190.00089367128749 99019.0 NaN 1534.1696726786909 1.2429656461917151 517.0 3.0 366.0 
192.00089367128749 99000.0 NaN 1534.1723446893793 0.9409538054390801 516.0 3.0 366.0 
194.00013449896187 98985.0 NaN 1534.1670006680026 1.414960822395736 517.0 3.0 366.0 
196.0001983480089 98974.0 NaN 1537.2478289913183 1.203021631591823 517.0 3.0 367.0 
198.00089367128749 98972.0 NaN 1534.1776887107544 0.9798999524953945 517.0 3.0 366.0 
200.00089367128749 98981.0 NaN 1537.2558450233817 1.447767754062734 518.0 3.0 367.0 
202.00089367128749 98975.0 NaN 1537.2264529058116 1.2036041845528864 518.0 3.0 367.0 
204.00013449896187 98974.0 NaN 1540.291249164997 1.0173781145486394 519.0 3.0 368.0 
206.0001983480089 98959.0 NaN 1540.2859051436203 1.408069246801555 520.0 3.0 368.0 
208.00089367128749 98930.0 NaN 1537.2211088844365 1.2187617218354896 520.0 3.0 367.0 
210.00089367128749 98910.0 NaN 1534.1589846359368 1.0250392845778207 515.0 3.0 366.0 
212.00089367128749 98884.0 NaN 1528.0133600534393 1.3883902543553306 514.0 3.0 364.0 
214.00013449896187 98884.0 NaN 1531.1048764195061 1.2475500080833577 513.0 3.0 365.0 
216.0001983480089 98867.0 NaN 1534.1189044756184 0.9940464765094197 514.0 3.0 366.0 
218.00089367128749 98866.0 NaN 1531.0594522378092 1.422213947629214 513.0 3.0 365.0 
220.00089367128749 98832.0 NaN 1527.9812959251822 1.274011859528449 513.0 3.0 364.0 
222.00089367128749 98781.0 NaN 1524.8924515698068 0.9728489686827364 513.0 3.0 363.0 
224.00013449896187 98829.0 NaN 1521.8356713426847 1.4495042311563173 513.0 3.0 362.0 
226.0001983480089 98824.0 NaN 1524.8977955911816 1.2312525544963584 512.0 3.0 363.0 
228.00089367128749 98818.0 NaN 1524.911155644621 0.9962330160564749 512.0 3.0 363.0 
230.00089367128749 98816.0 NaN 1531.0514362057456 1.4693085334875318 510.0 3.0 365.0 
232.00089367128749 98803.0 NaN 1531.0621242484974 1.2281174781927757 512.0 2.0 366.0 
234.00013449896187 98799.0 NaN 1537.2237808951245 1.0321430100276785 511.0 2.0 368.0 
236.0001983480089 98799.0 NaN 1537.1997327989302 1.4297392092267334 512.0 2.0 368.0 
238.00089367128749 98758.0 NaN 1534.126920507682 1.2434322535923141 511.0 2.0 367.0 
240.00089367128749 98732.0 NaN 1531.0701402805612 1.0475601094154285 511.0 2.0 366.0 
242.00089367128749 98726.0 NaN 1531.0594522378092 1.4049004750866831 512.0 2.0 366.0 
244.00013449896187 98710.0 NaN 1527.9946559786245 1.2725817342144818 512.0 2.0 365.0 
246.0001983480089 98696.0 NaN 1527.9839679358727 0.9876437121204061 512.0 2.0 365.0 
248.00089367128749 98677.0 NaN 1527.9706078824302 1.4161235313393032 512.0 2.0 365.0 
250.00089367128749 98668.0 NaN 1521.81696726787 1.286503817560484 511.0 2.0 363.0 
252.00089367128749 98657.0 NaN 1524.9325317301273 0.9710204415818623 510.0 2.0 364.0 
254.00013449896187 98633.0 NaN 1524.911155644621 1.4421705078797107 509.0 2.0 364.0 
256.0001983480089 98604.0 NaN 1524.9218436873732 1.234103680165425 511.0 2.0 364.0 
258.00089367128743 98575.0 NaN 1521.8303273213091 0.9917975155760567 513.0 2.0 363.0 
260.00089367128743 98565.0 NaN 1521.8356713426847 1.472830833000964 513.0 2.0 363.0 
262.00089367128743 98559.0 NaN 1515.71409485638 1.234036956717256 511.0 3.0 360.0 
264.0001344989618 98508.0 NaN 1515.71409485638 1.0252027109616013 509.0 3.0 360.0 
266.0001983480089 98508.0 NaN 1515.7034068136272 1.416061617067693 509.0 3.0 360.0 
268.00089367128743 98473.0 NaN 1524.9565798263181 1.2542122233562505 509.0 3.0 363.0 
270.00089367128743 98466.0 NaN 1521.8463593854362 1.054960243582876 509.0 3.0 362.0 
272.00089367128743 98461.0 NaN 1518.7628590514364 1.4160127811134704 509.0 3.0 361.0 
274.0001344989618 98424.0 NaN 1531.0995323981274 1.2736932603129978 510.0 3.0 365.0 
276.0001983480089 98398.0 NaN 1531.0407481629911 1.0039203444692193 510.0 3.0 365.0 
278.00089367128743 98386.0 NaN 1527.9492317969275 1.4493807438796242 510.0 3.0 364.0 
280.00089367128743 98337.0 NaN 1527.9679358717453 1.2974499951587515 513.0 3.0 364.0 
282.00089367128743 98292.0 NaN 1524.8790915163659 1.0042267580936302 513.0 3.0 363.0 
284.0001344989618 98269.0 NaN 1527.9492317969275 1.470085805930948 512.0 3.0 364.0 
286.0001983480089 98220.0 NaN 1524.847027388109 1.2491287609857709 511.0 3.0 363.0 
288.00089367128743 98162.0 NaN 1524.83366733467 1.01706824476225 511.0 3.0 363.0 
290.00089367128743 98142.0 NaN 1524.8203072812273 1.4723997528639963 511.0 3.0 363.0 
292.00089367128743 98132.0 NaN 1527.8984635938546 1.2380193794578433 511.0 3.0 364.0 
294.0001344989618 98132.0 NaN 1530.9579158316637 1.0502017638657566 510.0 3.0 365.0 
296.0001983480089 98093.0 NaN 1530.9846359385454 1.4222535752740788 509.0 3.0 365.0 
298.00089367128743 98022.0 NaN 1534.0734802939203 1.257969198507467 508.0 3.0 366.0 
300.00089367128743 97982.0 NaN 1534.081496325984 1.0607092164068517 508.0 3.0 366.0 
302.00089367128743 97950.0 NaN 1537.181028724116 1.4122553628805374 508.0 3.0 367.0 
304.0001344989618 97966.0 NaN 1531.0273881095545 1.2971480950562373 508.0 3.0 365.0 
306.0001983480089 97905.0 NaN 1534.0975283901114 1.0118902581528746 508.0 2.0 367.0 
308.00089367128743 97886.0 NaN 1534.0708082832343 1.4366982412884035 508.0 2.0 367.0 
310.00089367128743 97857.0 NaN 1524.8149632598545 1.3017127044047825 506.0 2.0 364.0 
312.00089367128743 97815.0 NaN 1524.7748830995338 1.005095424957849 503.0 4.0 362.0 
314.0001344989618 97813.0 NaN 1524.7695390781548 1.470059139488951 503.0 4.0 362.0 
316.0001983480089 97758.0 NaN 1524.7828991315973 1.2573083722944214 504.0 3.0 363.0 
318.00089367128743 97729.0 NaN 1527.8690714762843 1.0431926487269851 506.0 3.0 364.0 
320.00089367128743 97684.0 NaN 1524.7989311957251 1.481828530497029 506.0 3.0 363.0 
322.00089367128743 97633.0 NaN 1527.9118236472934 1.2510464191572497 505.0 3.0 364.0 
324.0001344989618 97608.0 NaN 1531.000668002673 1.05514346118909 505.0 3.0 365.0 
326.0001983480089 97590.0 NaN 1531.0167000667998 1.419189887522137 506.0 3.0 365.0 
328.00089367128743 97550.0 NaN 1534.0734802939205 1.2714873080374691 506.0 3.0 366.0 
330.00089367128743 97482.0 NaN 1537.1409485637935 1.0780972661099886 506.0 4.0 366.0 
332.00089367128743 97456.0 NaN 1540.2084168336662 1.4210437638218048 505.0 4.0 367.0 
334.0001344989618 97414.0 NaN 1537.122244488979 1.3157018993860636 505.0 4.0 366.0 
336.0001983480089 97352.0 NaN 1534.0734802939207 1.0518706094068384 507.0 4.0 365.0 
338.00089367128743 97310.0 NaN 1534.0387441549756 1.4535270428810867 508.0 4.0 365.0 
340.00089367128743 97252.0 NaN 1530.952571810288 1.3354833937808346 507.0 4.0 364.0 
342.00089367128743 97179.0 NaN 1530.9739478957908 1.0246756169455986 506.0 4.0 364.0 
344.0001344989618 97163.0 NaN 1534.0734802939207 1.4607751055910116 506.0 4.0 365.0 
346.0001983480089 97111.0 NaN 1534.092184368736 1.2836882872198845 506.0 4.0 365.0 
348.00089367128743 97074.0 NaN 1531.043420173682 1.0501246333794574 510.0 4.0 364.0 
350.00089367128743 97033.0 NaN 1530.9953239812971 1.4771719070457938 510.0 4.0 364.0 
352.00089367128743 97017.0 NaN 1527.922511690046 1.255922931514222 509.0 4.0 363.0 
354.0001344989618 96987.0 NaN 1527.9091516366066 1.0727271480898346 510.0 4.0 363.0 
356.0001983480089 96954.0 NaN 1527.9331997328002 1.4320688734853386 510.0 4.0 363.0 
358.00089367128743 96923.0 NaN 1524.8657314629268 1.2618598375402306 510.0 3.0 363.0 
360.00089367128743 96887.0 NaN 1524.8443553774207 1.0698190138850647 511.0 3.0 363.0 
362.00089367128743 96875.0 NaN 1524.8470273881092 1.4054905269740086 512.0 3.0 363.0 
364.0001344989618 96885.0 NaN 1518.7147628590521 1.2865202217208676 515.0 3.0 361.0 
366.0001983480089 96836.0 NaN 1518.7067468269877 1.039669676909732 514.0 3.0 361.0 
368.00089367128743 96819.0 NaN 1512.5718102872422 1.4407932124420015 513.0 3.0 359.0 
370.00089367128743 96773.0 NaN 1506.420841683366 1.313541638871732 514.0 3.0 357.0 
372.00089367128743 96728.0 NaN 1503.3720774883093 1.0324372511140774 512.0 3.0 356.0 
374.0001344989618 96730.0 NaN 1506.4502338009363 1.462032664172155 514.0 3.0 357.0 
376.0001983480089 96690.0 NaN 1512.574482297928 1.2744314576250957 514.0 3.0 359.0 
378.00089367128743 96682.0 NaN 1509.5096860387448 1.0662831027324213 515.0 3.0 358.0 
380.00089367128743 96647.0 NaN 1509.501670006681 1.4933898246792234 515.0 3.0 358.0 
382.00089367128743 96644.0 NaN 1506.4315297261182 1.2676978354228743 515.0 3.0 357.0 
384.0001344989618 96607.0 NaN 1509.5257181028728 1.0942842141787612 512.0 3.0 358.0 
386.0001983480089 96541.0 NaN 1506.4422177688718 1.4461883232832367 516.0 3.0 357.0 
388.00089367128743 96500.0 NaN 1509.531062124248 1.284120765717092 514.0 3.0 358.0 
390.00089367128743 96473.0 NaN 1509.517702070809 1.1114307971270945 514.0 3.0 358.0 
392.00089367128743 96442.0 NaN 1509.5444221776902 1.4361335398714727 514.0 3.0 358.0 
394.0001344989618 96429.0 NaN 1509.541750167 1.297561606937889 513.0 3.0 358.0 
396.0001983480089 96372.0 NaN 1512.6038744154994 1.0457601676803199 516.0 2.0 360.0 
398.00089367128743 96318.0 NaN 1512.6065464261849 1.426923885230828 520.0 2.0 360.0 
400.00089367128743 96286.0 NaN 1512.5905143620569 1.2939173101916925 520.0 2.0 360.0 
402.00089367128743 96213.0 NaN 1509.5283901135613 0.9997043230847505 521.0 2.0 359.0 
404.0001344989618 96191.0 NaN 1512.5985303941213 1.4234204872813594 521.0 2.0 360.0 
406.0001983480089 96168.0 NaN 1512.595858383434 1.2219030632728263 521.0 2.0 360.0 
408.00089367128743 96147.0 NaN 1512.563794255176 1.030735438768075 520.0 2.0 360.0 
410.00089367128743 96139.0 NaN 1521.8249832999338 1.4547281206403553 521.0 2.0 363.0 
412.00089367128743 96139.0 NaN 1521.8383433533727 1.2307804681003602 522.0 2.0 363.0 
414.0001344989618 96138.0 NaN 1521.8436873747487 1.085534944638474 522.0 2.0 363.0 
416.0001983480089 96112.0 NaN 1518.738810955245 1.4349582592524333 522.0 2.0 362.0 
418.00089367128743 96087.0 NaN 1518.7147628590521 1.279860773585842 521.0 2.0 362.0 
420.00089367128743 96080.0 NaN 1521.7822311289249 1.127349977485908 522.0 2.0 363.0 
422.00089367128743 96090.0 NaN 1518.7414829659303 1.450268149675013 523.0 2.0 362.0 
424.0001344989618 96061.0 NaN 1500.28590514362 1.3206580224942492 524.0 2.0 356.0 
426.0001983480089 96024.0 NaN 1503.3667334669344 1.0966997117695854 517.0 2.0 357.0 
428.00089367128743 95996.0 NaN 1506.3941215764874 1.481586922822595 517.0 2.0 358.0 
430.00089367128743 95972.0 NaN 1503.307949231798 1.3381247109788803 517.0 2.0 357.0 
432.00089367128743 95913.0 NaN 1503.3400133600544 1.0720930590688844 517.0 2.0 357.0 
434.0001344989618 95877.0 NaN 1509.501670006681 1.4748917020679315 518.0 2.0 359.0 
436.0001983480089 95836.0 NaN 1515.6205744822992 1.250477208834387 517.0 3.0 360.0 
438.00089367128743 95792.0 NaN 1518.677354709418 1.0657490727128733 517.0 2.0 362.0 
440.00089367128743 95783.0 NaN 1524.8069472277903 1.47116238032598 525.0 2.0 364.0 
442.00089367128743 95762.0 NaN 1530.9819639278544 1.2457600157102855 525.0 2.0 366.0 
444.0001344989618 95735.0 NaN 1530.9552438209753 1.0906266450862985 526.0 2.0 366.0 
446.0001983480089 95679.0 NaN 1534.0734802939207 1.4209685294528824 528.0 2.0 367.0 
448.00089367128743 95682.0 NaN 1530.9124916499661 1.2635861694311856 528.0 2.0 366.0 
450.00089367128743 95650.0 NaN 1530.9231796927181 1.1054318548802629 525.0 2.0 366.0 
452.00089367128743 95656.0 NaN 1530.9498997996 1.4200297310570626 525.0 2.0 366.0 
454.0001344989618 95660.0 NaN 1543.2705410821636 1.2899711725113236 525.0 2.0 370.0 
456.0001983480089 95626.0 NaN 1549.402805611221 1.0779884311357197 526.0 2.0 372.0 
458.00089367128743 95639.0 NaN 1546.2952571810274 1.4553753670148435 525.0 2.0 371.0 
460.00089367128743 95643.0 NaN 1543.2304609218452 1.3169477666682392 524.0 2.0 370.0 
462.00089367128743 95623.0 NaN 1546.3460253841001 1.0726204495265816 525.0 2.0 371.0 
464.0001344989618 95614.0 NaN 1546.3700734802935 1.455470761585764 525.0 2.0 371.0 
466.0001983480089 95546.0 NaN 1546.354041416164 1.2248100662734598 526.0 2.0 371.0 
468.00089367128743 95530.0 NaN 1540.1897127588518 1.0519938094973549 526.0 2.0 369.0 
470.00089367128743 95516.0 NaN 1537.1356045424182 1.460020599217809 525.0 2.0 368.0 
472.00089367128743 95522.0 NaN 1537.1302605210426 1.2302598053915728 523.0 2.0 368.0 
474.0001344989618 95510.0 NaN 1537.092852371409 1.093129257791316 522.0 2.0 368.0 
476.0001983480089 95497.0 NaN 1534.030728122912 1.4338032184780272 522.0 2.0 367.0 
478.00089367128743 95494.0 NaN 1534.0093520374094 1.2389492400769941 522.0 2.0 367.0 
480.00089367128743 95537.0 NaN 1534.0200400801612 1.091917768544134 523.0 2.0 367.0 
482.00089367128743 95534.0 NaN 1530.9873079492336 1.4071029573636167 521.0 2.0 366.0 
484.0001344989618 95552.0 NaN 1527.9331997328002 1.26534805817207 521.0 2.0 365.0 
486.0001983480089 95550.0 NaN 1524.8550434201727 1.0580411193729482 514.0 2.0 364.0 
488.00089367128743 95533.0 NaN 1515.6366065464274 1.4247670647604689 515.0 2.0 361.0 
490.00089367128743 95554.0 NaN 1509.5203740814973 1.2701291323421113 512.0 2.0 359.0 
492.00089367128743 95583.0 NaN 1506.452905811624 1.0353278452211243 513.0 2.0 358.0 
494.0001344989618 95588.0 NaN 1503.3426853707424 1.4491164500418303 513.0 2.0 357.0 
496.0001983480089 95570.0 NaN 1503.3213092852366 1.2005897003159145 513.0 2.0 357.0 
498.00089367128743 95558.0 NaN 1500.2618570474276 1.0244022393863317 512.0 2.0 356.0 
500.00089367128743 95573.0 NaN 1500.2672010688032 1.4244462985551642 513.0 2.0 356.0 
502.00089367128743 95572.0 NaN 1503.369405477621 1.180455300991064 513.0 2.0 357.0 
504.0001344989618 95579.0 NaN 1503.3426853707424 1.060035022607048 514.0 2.0 357.0 
506.0001983480089 95589.0 NaN 1500.2885771543092 1.3937400253513546 516.0 1.0 357.0 
508.00089367128743 95581.0 NaN 1497.1489645958575 1.2213610716747605 517.0 1.0 356.0 
510.00089367128743 95567.0 NaN 1497.1516366065455 1.0885228273989822 516.0 1.0 356.0 
512.0008936712875 95569.0 NaN 1494.0814963259847 1.3717961200530686 519.0 1.0 355.0 
514.0001344989619 95580.0 NaN 1494.1108884435544 1.2300174801156474 517.0 1.0 355.0 
516.0001983480089 95572.0 NaN 1491.0594522378092 1.0360381964944654 515.0 2.0 353.0 
518.0008936712874 95593.0 NaN 1484.9004676018717 1.4003875522615994 511.0 2.0 351.0 
520.0008936712874 95601.0 NaN 1481.81696726787 1.248460810662822 508.0 2.0 350.0 
522.0008936712874 95597.0 NaN 1481.8223112892456 1.014573281934586 508.0 2.0 350.0 
524.0001344989619 95596.0 NaN 1472.6092184368729 1.4237482677520366 509.0 2.0 347.0 
526.0001983480089 95587.0 NaN 1466.503674014697 1.2095154500189422 506.0 2.0 345.0 
528.0008936712874 95610.0 NaN 1466.506346025383 1.0357667224947775 504.0 2.0 345.0 
530.0008936712874 95615.0 NaN 1466.5170340681366 1.4255972287240466 500.0 2.0 345.0 
532.0008936712874 95629.0 NaN 1460.3794255177013 1.1949050195606121 501.0 2.0 343.0 
534.0001344989619 95643.0 NaN 1460.3527054108213 1.0708068384280511 501.0 2.0 343.0 
536.0001983480089 95647.0 NaN 1466.5464261857057 1.4098978118037186 504.0 2.0 345.0 
538.0008936712874 95672.0 NaN 1466.5464261857057 1.2271331905662404 505.0 2.0 345.0 
540.0008936712874 95701.0 NaN 1466.527722110889 1.085418498922908 507.0 2.0 345.0 
542.0008936712874 95689.0 NaN 1469.6032064128262 1.3852938249410185 510.0 2.0 346.0 
544.0001344989619 95700.0 NaN 1463.5056780227117 1.2513149281838374 511.0 2.0 344.0 
546.0001983480089 95696.0 NaN 1466.5838343353369 1.0548276700418433 512.0 2.0 345.0 
548.0008936712874 95695.0 NaN 1469.6406145624576 1.4137706999349755 511.0 2.0 346.0 
550.0008936712874 95720.0 NaN 1469.6112224448905 1.264611686211409 510.0 2.0 346.0 
552.0008936712874 95718.0 NaN 1478.8777555110212 1.0303123776281458 509.0 2.0 349.0 
554.0001344989619 95734.0 NaN 1478.829659318637 1.439496118543987 512.0 2.0 349.0 
556.0001983480089 95768.0 NaN 1478.832331329326 1.219105891700307 512.0 2.0 349.0 
558.0008936712874 95820.0 NaN 1478.8884435537736 1.0296851594098797 513.0 2.0 349.0 
560.0008936712874 95894.0 NaN 1472.7267869071468 1.431629680111 512.0 2.0 347.0 
562.0008936712874 95914.0 NaN 1466.5544422177693 1.1862663013109047 508.0 2.0 345.0 
564.0001344989619 95964.0 NaN 1466.5838343353369 1.0288119516641365 509.0 2.0 345.0 
566.0001983480089 96012.0 NaN 1469.6406145624578 1.3792368530069166 511.0 2.0 346.0 
568.0008936712874 96017.0 NaN 1472.665330661322 1.2206034991139563 511.0 2.0 347.0 
570.0008936712874 96021.0 NaN 1469.597862391449 1.0662178560458135 511.0 2.0 346.0 
572.0008936712874 96023.0 NaN 1472.7214428857721 1.355316500789421 512.0 2.0 347.0 
574.0001344989619 96049.0 NaN 1475.783567134269 1.2439626092138614 510.0 2.0 348.0 
576.0001983480089 96090.0 NaN 1478.84034736139 1.059999646925204 511.0 2.0 349.0 
578.0008936712874 96093.0 NaN 1478.8136272545091 1.4157979884844498 511.0 2.0 349.0 
580.0008936712874 96110.0 NaN 1475.7461589846362 1.2930997522522123 512.0 2.0 348.0 
582.0008936712874 96120.0 NaN 1475.76753507014 1.0388528445531555 512.0 2.0 348.0 
584.0001344989619 96144.0 NaN 1484.9939879759525 1.4369964883818045 511.0 2.0 351.0 
586.0001983480089 96200.0 NaN 1481.8971275885099 1.2689075717148448 513.0 2.0 350.0 
588.0008936712874 96173.0 NaN 1484.975283901136 1.082979413725267 512.0 2.0 351.0 
590.0008936712874 96174.0 NaN 1484.9859719438884 1.4787987046796616 518.0 2.0 351.0 
592.0008936712874 96133.0 NaN 1484.9859719438887 1.242082028834142 521.0 2.0 351.0 
594.0001344989619 96156.0 NaN 1484.9752839011362 1.0982597184336624 521.0 2.0 351.0 
596.0001983480089 96146.0 NaN 1484.961923847694 1.439746553770376 521.0 2.0 351.0 
598.0008936712874 96051.0 NaN 1488.0374081496334 1.2618929206587852 522.0 2.0 352.0 
600.0008936712874 96049.0 NaN 1497.271877087509 1.1144986245477588 521.0 2.0 355.0 
602.0008936712874 96027.0 NaN 1500.339345357382 1.4228897238096836 522.0 2.0 356.0 
604.0001344989619 96078.0 NaN 1500.309953239812 1.272508379527967 524.0 2.0 356.0 
606.0001983480089 96119.0 NaN 1500.3046092184363 1.0843387958454787 525.0 2.0 356.0 
608.0008936712874 96068.0 NaN 1491.1102204408817 1.4359974041268833 525.0 2.0 353.0 
610.0008936712874 96070.0 NaN 1491.1262525050092 1.2950343270598657 524.0 2.0 353.0 
612.0008936712874 96074.0 NaN 1497.2558450233805 1.0720338927111852 524.0 2.0 355.0 
614.0001344989619 96043.0 NaN 1506.4422177688716 1.4533897757508885 524.0 2.0 358.0 
616.0001983480089 96040.0 NaN 1509.547094188376 1.2526020304031453 526.0 2.0 359.0 
618.0008936712874 96046.0 NaN 1515.668670674682 1.0688569630835099 525.0 2.0 361.0 
620.0008936712874 96027.0 NaN 1512.5878423513705 1.4474242861490594 524.0 2.0 360.0 
622.0008936712874 96014.0 NaN 1515.6927187708743 1.2256723258796949 526.0 2.0 361.0 
624.0001344989619 95994.0 NaN 1515.6766867067463 1.0808071620776685 525.0 2.0 361.0 
626.0001983480089 96013.0 NaN 1518.7628590514364 1.405729687404481 526.0 2.0 362.0 
628.0008936712874 95997.0 NaN 1521.8276553106202 1.2335371699245772 525.0 2.0 363.0 
630.0008936712874 95993.0 NaN 1521.8223112892456 1.1003559694461207 526.0 2.0 363.0 
632.0008936712874 95978.0 NaN 1518.7815631262533 1.394418798559437 528.0 2.0 362.0 
634.0001344989619 95985.0 NaN 1521.851703406815 1.2591539458366254 529.0 3.0 362.0 
636.0001983480089 95966.0 NaN 1524.9245156980635 1.0700263538646813 531.0 3.0 363.0 
638.0008936712874 95958.0 NaN 1527.9839679358727 1.40352820981069 528.0 3.0 364.0 
640.0008936712874 95963.0 NaN 1524.9004676018715 1.2699679680462708 529.0 3.0 363.0 
642.0008936712874 95951.0 NaN 1524.9111556446212 1.0662101456642317 527.0 3.0 363.0 
644.0001344989619 95957.0 NaN 1524.937875751502 1.442764727928714 528.0 3.0 363.0 
646.0001983480089 95938.0 NaN 1521.8810955243816 1.251266724827049 527.0 2.0 363.0 
648.0008936712874 95926.0 NaN 1521.8517034068152 1.0894307841576996 527.0 2.0 363.0 
650.0008936712874 95933.0 NaN 1521.8463593854365 1.4552340998633693 526.0 3.0 362.0 
652.0008936712874 95941.0 NaN 1524.9966599866393 1.260469342484095 525.0 3.0 363.0 
654.0001344989619 95989.0 NaN 1528.0160320641273 1.1496766010137969 521.0 3.0 364.0 
656.0001983480089 95969.0 NaN 1531.0594522378092 1.4505246508935765 521.0 3.0 365.0 
658.0008936712874 95973.0 NaN 1531.062124248498 1.283866704632723 518.0 3.0 365.0 
660.0008936712874 95981.0 NaN 1534.07348029392 1.1566898136010946 518.0 4.0 365.0 
662.0008936712874 95950.0 NaN 1537.2157648630605 1.416253791848502 519.0 4.0 366.0 
664.0001344989619 95965.0 NaN 1540.291249164997 1.3112412145239492 518.0 4.0 367.0 
#####################################################################
# End of data export. Simulation finished at: 2019-03-14T11:02+0000 #
#####################################################################
