#####################################################################
# Alchemist log file - simulation started at: 2019-03-06T04:52+0000 #
#####################################################################
# seed = 3.0, bandwidth = 1.0E8, propagationDelay = 0.0031622776601683794, baserange = 316.2277660168379
#
# The columns have the following meaning: 
# time neighbor_count[Sum] <value>@neighbor_count[Sum] packet_size[Mean] mean_delay[Mean] crowd[Sum] overcrowded[Sum] risk[Sum] 
0.0 NaN NaN NaN NaN NaN NaN NaN 
2.0001691770092895 51288.0 NaN 4996.010688042752 0.4995678919466814 1497.0 0.0 1497.0 
4.000169177009289 51288.0 NaN 4994.626586506346 0.4995679300925968 1496.0 1.0 1496.0 
6.000084666035003 51288.0 NaN 4994.0093520374085 0.4995679249680133 1496.0 1.0 1496.0 
8.00016917700929 51289.0 NaN 4994.51169004676 0.4995647849139166 1496.0 1.0 1496.0 
10.00016917700929 51291.0 NaN 4995.380093520374 0.49955246040532375 1497.0 0.0 1497.0 
12.00016917700929 51294.0 NaN 4994.426185704743 0.4996107568947192 1497.0 0.0 1497.0 
14.00016917700929 51292.0 NaN 4994.0066800267205 0.4995843654010692 1497.0 0.0 1497.0 
16.000084666035004 51326.0 NaN 4994.116232464929 0.500450524976908 1496.0 1.0 1496.0 
18.00016917700929 51323.0 NaN 4994.813627254509 0.5005272034346192 1497.0 0.0 1497.0 
20.00016917700929 51325.0 NaN 4995.700734802939 0.5003676701762825 1496.0 1.0 1496.0 
22.00016917700929 51330.0 NaN 4994.741482965932 0.49936171822482 1496.0 1.0 1496.0 
24.00016917700929 51334.0 NaN 4994.26586506346 0.49934471106979783 1497.0 0.0 1497.0 
26.000084666035004 51376.0 NaN 4994.541082164329 0.4993810165160906 1497.0 0.0 1497.0 
28.00016917700929 51389.0 NaN 4995.460253841015 0.5002246154390327 1497.0 0.0 1497.0 
30.00016917700929 51359.0 NaN 4996.165664662659 0.499978568669867 1497.0 0.0 1497.0 
32.00016917700929 51361.0 NaN 4994.973947895792 0.4995114325365402 1497.0 0.0 1497.0 
34.00016917700929 51360.0 NaN 4994.121576486306 0.4994632031794791 1496.0 1.0 1496.0 
36.00008466603501 51393.0 NaN 4994.281897127588 0.49991498291470426 1496.0 1.0 1496.0 
38.00016917700929 51399.0 NaN 4995.080828323314 0.501935012081275 1497.0 0.0 1497.0 
40.00016917700929 51360.0 NaN 4996.227120908484 0.5015175017932227 1497.0 0.0 1497.0 
42.00016917700929 51343.0 NaN 4995.299933199733 0.49949090350097974 1497.0 0.0 1497.0 
44.00016917700929 51338.0 NaN 4994.281897127588 0.5016341620345939 1497.0 0.0 1497.0 
46.00008466603501 51366.0 NaN 4994.180360721443 0.4996008520930508 1496.0 1.0 1496.0 
48.00016917700929 51371.0 NaN 4994.714762859051 0.5006777721259272 1495.0 2.0 1495.0 
50.00016917700929 51353.0 NaN 4995.756847027388 0.4994788547684833 1495.0 2.0 1495.0 
52.00016917700929 51350.0 NaN 4995.147628590515 0.4999478664760263 1496.0 1.0 1496.0 
54.00016917700929 51343.0 NaN 4994.597194388778 0.4999322523622504 1496.0 1.0 1496.0 
56.00008466603501 51361.0 NaN 4994.835003340013 0.5006005790092876 1497.0 0.0 1497.0 
58.00016917700929 51384.0 NaN 4995.094188376754 0.5004576495135358 1497.0 0.0 1497.0 
60.00016917700929 51388.0 NaN 4995.906479625918 0.5013989534598657 1497.0 0.0 1497.0 
62.00012329700929 51376.0 NaN 1522.5303941215757 0.5005289816999671 775.0 1.0 364.0 
64.0001232970093 51369.0 NaN 1522.5945223780907 0.4993912107790629 620.0 1.0 364.0 
66.00008466603501 51408.0 NaN 1522.6025384101545 0.49956661965118665 580.0 1.0 364.0 
68.0001232970093 51494.0 NaN 1522.6372745490996 0.5013852202053906 548.0 1.0 364.0 
70.0001232970093 51462.0 NaN 1525.7127588510366 0.500727695148619 536.0 0.0 366.0 
72.0001232970093 51464.0 NaN 1525.6539746158996 0.5007797020343535 532.0 1.0 365.0 
74.0001232970093 51462.0 NaN 1525.5497661990635 0.5000842099139955 529.0 1.0 365.0 
76.00008466603501 51467.0 NaN 1525.4054776219093 0.5002443591518397 530.0 1.0 365.0 
78.0001232970093 51481.0 NaN 1534.6720106880427 0.5013447657959595 530.0 1.0 368.0 
80.0001232970093 51458.0 NaN 1534.7735470941882 0.5008996924681621 529.0 1.0 368.0 
82.0001232970093 51452.0 NaN 1534.8269873079485 0.5021702941764266 527.0 1.0 368.0 
84.0001232970093 51449.0 NaN 1534.86706746827 0.4999480395970138 527.0 1.0 368.0 
86.00008466603501 51495.0 NaN 1534.8911155644635 0.49991568841991196 526.0 1.0 368.0 
88.0001232970093 51532.0 NaN 1535.0033400133607 0.5000898144137551 527.0 1.0 368.0 
90.0001232970093 51535.0 NaN 1538.0708082832336 0.5008676483796537 527.0 1.0 369.0 
92.0001232970093 51531.0 NaN 1537.9665998664002 0.5013060037989491 525.0 1.0 369.0 
94.0001232970093 51522.0 NaN 1537.8784235136936 0.5002257382114551 525.0 1.0 369.0 
96.00008466603501 51546.0 NaN 1540.921843687373 0.5004515155141425 527.0 0.0 371.0 
98.0001232970093 51546.0 NaN 1540.8550434201725 0.50113276701783 528.0 0.0 371.0 
100.0001232970093 51534.0 NaN 1540.769539078155 0.5002226475556409 528.0 0.0 371.0 
102.0001232970093 51550.0 NaN 1540.9004676018724 0.5014430111079805 527.0 1.0 370.0 
104.0001232970093 51527.0 NaN 1540.8283233132931 0.5002339138926606 527.0 1.0 370.0 
106.00008466603501 51535.0 NaN 1540.9485637942544 0.5010222567570962 527.0 1.0 370.0 
108.0001232970093 51531.0 NaN 1541.1275885103548 0.5018258124598695 526.0 1.0 370.0 
110.0001232970093 51501.0 NaN 1541.1222444889788 0.5003907733027629 526.0 1.0 370.0 
112.0001232970093 51519.0 NaN 1541.1623246492998 0.5002832302688807 526.0 1.0 370.0 
114.0001232970093 51513.0 NaN 1541.098196392785 0.5005066166815487 528.0 0.0 371.0 
116.00008466603501 51523.0 NaN 1550.303273213091 0.5002625348620217 529.0 1.0 373.0 
118.0001232970093 51535.0 NaN 1550.297929191718 0.500426851856416 529.0 1.0 373.0 
120.0001232970093 51530.0 NaN 1553.4054776219093 0.5000837349083069 529.0 1.0 374.0 
122.0001232970093 51542.0 NaN 1553.3547094188366 0.5010493579639018 529.0 1.0 374.0 
124.0001232970093 51519.0 NaN 1553.3760855043424 0.5006713149242249 530.0 0.0 375.0 
126.00008466603501 51525.0 NaN 1547.2277889111542 0.5014436411415171 529.0 1.0 372.0 
128.00012329700928 51503.0 NaN 1547.1422845691366 0.5004617610496822 529.0 1.0 372.0 
130.00012329700928 51475.0 NaN 1547.1289245157 0.5003906561450792 529.0 1.0 372.0 
132.00012329700928 51465.0 NaN 1547.070140280561 0.5006609117974512 529.0 1.0 372.0 
134.00012329700928 51451.0 NaN 1546.936539746158 0.4998140861352224 526.0 1.0 372.0 
136.000084666035 51463.0 NaN 1547.0273881095545 0.5006990989393535 523.0 1.0 372.0 
138.00012329700928 51445.0 NaN 1547.0247160988636 0.5002123469165175 521.0 1.0 372.0 
140.00012329700928 51435.0 NaN 1547.1182364729455 0.500305794474835 525.0 1.0 372.0 
142.00012329700928 51420.0 NaN 1550.2257849031391 0.5003247159266336 525.0 1.0 373.0 
144.00012329700928 51400.0 NaN 1553.4455577822303 0.49961100523716157 525.0 1.0 374.0 
146.000084666035 51421.0 NaN 1544.1683366733457 0.5004429014981877 523.0 1.0 371.0 
148.00012329700928 51401.0 NaN 1544.2565130260523 0.500135384335698 521.0 1.0 371.0 
150.00012329700928 51376.0 NaN 1544.2591850367394 0.5003582072594462 522.0 1.0 371.0 
152.00012329700928 51337.0 NaN 1544.307281229125 0.49991569760391863 521.0 1.0 371.0 
154.00012329700928 51311.0 NaN 1541.2371409485636 0.5000893589026614 523.0 1.0 370.0 
156.000084666035 51328.0 NaN 1541.1382765531064 0.5000163101012419 524.0 1.0 370.0 
158.00012329700928 51317.0 NaN 1547.1342685370728 0.5015822548820174 523.0 1.0 372.0 
160.00012329700928 51265.0 NaN 1544.1389445557788 0.5007624781280338 518.0 1.0 371.0 
162.00012329700928 51261.0 NaN 1544.0614562458272 0.5003666945064482 517.0 2.0 370.0 
164.00012329700928 51210.0 NaN 1544.069472277891 0.5020837974851371 519.0 1.0 371.0 
166.000084666035 51157.0 NaN 1547.0247160988636 0.5009704021231235 521.0 1.0 372.0 
168.00012329700928 51140.0 NaN 1550.1402805611208 0.5012221290686212 520.0 1.0 373.0 
170.00012329700928 51072.0 NaN 1550.1002004008 0.500703795741212 523.0 1.0 373.0 
172.00012329700928 51048.0 NaN 1550.1883767535091 0.5007355899599754 523.0 0.0 374.0 
174.00012329700928 51036.0 NaN 1544.227120908482 0.500965848209558 522.0 1.0 371.0 
176.000084666035 51024.0 NaN 1541.2317969271885 0.5001580117267881 522.0 1.0 370.0 
178.00012329700928 51026.0 NaN 1541.2959251836999 0.501138844103881 522.0 1.0 370.0 
180.00012329700928 50981.0 NaN 1541.357381429527 0.5007817098411794 522.0 0.0 371.0 
182.00012329700928 50943.0 NaN 1538.2338009352027 0.501405490629144 520.0 2.0 368.0 
184.00012329700928 50926.0 NaN 1538.1376085504362 0.5008100534656287 520.0 0.0 370.0 
186.000084666035 50915.0 NaN 1537.9692718770882 0.5016364744842936 519.0 2.0 368.0 
188.00012329700928 50929.0 NaN 1537.9505678022726 0.5003233977334057 518.0 1.0 369.0 
190.00012329700928 50908.0 NaN 1537.8623914495638 0.5016027206980749 518.0 0.0 370.0 
192.00012329700928 50869.0 NaN 1534.7842351369393 0.5001046126597029 518.0 1.0 368.0 
194.00012329700928 50861.0 NaN 1534.7628590514364 0.5001847735841247 517.0 1.0 368.0 
196.000084666035 50863.0 NaN 1534.8376753507002 0.49975689178236016 517.0 1.0 368.0 
198.00012329700928 50859.0 NaN 1534.9311957247814 0.5003102343784227 520.0 0.0 369.0 
200.00012329700928 50840.0 NaN 1538.022712090848 0.501158887948341 519.0 1.0 369.0 
202.00012329700928 50799.0 NaN 1544.1442885771546 0.5003123366048539 518.0 1.0 371.0 
204.00012329700928 50776.0 NaN 1541.1088844355363 0.5002393143822236 518.0 1.0 370.0 
206.000084666035 50789.0 NaN 1541.0447561790247 0.5006224224572615 517.0 1.0 370.0 
208.00012329700928 50776.0 NaN 1541.0073480293909 0.4999744167968186 518.0 1.0 370.0 
210.00012329700928 50765.0 NaN 1531.935871743488 0.5008153502328856 522.0 0.0 368.0 
212.00012329700928 50726.0 NaN 1534.9178356713428 0.5002182342668737 520.0 2.0 367.0 
214.00012329700928 50707.0 NaN 1531.8450233800936 0.5004171745039813 516.0 1.0 367.0 
216.000084666035 50717.0 NaN 1531.8851035404152 0.5023749007383448 515.0 1.0 367.0 
218.00012329700928 50668.0 NaN 1528.7000668002665 0.5013252026047617 515.0 0.0 367.0 
220.00012329700928 50652.0 NaN 1528.705410821645 0.5025659902334124 513.0 1.0 366.0 
222.00012329700928 50603.0 NaN 1528.598530394121 0.5008047794699827 513.0 0.0 367.0 
224.00012329700928 50584.0 NaN 1528.5584502337997 0.5024371240672446 514.0 1.0 366.0 
226.000084666035 50605.0 NaN 1528.5744822979275 0.5057816756323141 514.0 0.0 367.0 
228.00012329700928 50567.0 NaN 1531.7381429525728 0.5007161757644463 513.0 1.0 367.0 
230.00012329700928 50546.0 NaN 1531.7541750167002 0.5013644630467121 514.0 0.0 368.0 
232.00012329700928 50531.0 NaN 1534.9792919171666 0.500536832887065 513.0 1.0 368.0 
234.00012329700928 50524.0 NaN 1538.1616566466275 0.5013948881269211 513.0 0.0 370.0 
236.000084666035 50618.0 NaN 1541.1516366065453 0.5010199599178796 515.0 1.0 370.0 
238.00012329700928 50588.0 NaN 1537.9425517702089 0.5010221407055159 514.0 0.0 370.0 
240.00012329700928 50572.0 NaN 1531.8423513694063 0.5024276032559813 514.0 1.0 367.0 
242.00012329700928 50534.0 NaN 1534.9151636606543 0.5004805782926365 514.0 0.0 369.0 
244.00012329700928 50524.0 NaN 1534.8563794255183 0.5001433206668688 516.0 1.0 368.0 
246.000084666035 50562.0 NaN 1534.7441549766186 0.5000732909190252 516.0 0.0 369.0 
248.00012329700928 50555.0 NaN 1528.627922511691 0.5004479722120891 515.0 1.0 366.0 
250.00012329700928 50514.0 NaN 1528.6466265865065 0.5003967090225712 514.0 0.0 367.0 
252.00012329700928 50489.0 NaN 1525.6459585838359 0.5000459894862843 514.0 1.0 365.0 
254.00012329700928 50472.0 NaN 1525.5123580494335 0.5004770686042098 512.0 0.0 366.0 
256.00008466603504 50494.0 NaN 1525.5871743486975 0.49989192136817723 515.0 1.0 365.0 
258.0001232970093 50492.0 NaN 1525.541750167 0.500971019435793 514.0 1.0 365.0 
260.0001232970093 50475.0 NaN 1525.5257181028728 0.500779978491432 516.0 0.0 366.0 
262.0001232970093 50447.0 NaN 1528.7374749499 0.49990869869494775 517.0 0.0 367.0 
264.0001232970093 50424.0 NaN 1528.8363393453571 0.5012486488911106 516.0 1.0 366.0 
266.00008466603504 50439.0 NaN 1538.1963927855727 0.5010623818795776 513.0 0.0 370.0 
268.0001232970093 50337.0 NaN 1538.1028724114908 0.5021930344991272 513.0 1.0 369.0 
270.0001232970093 50276.0 NaN 1535.083500334 0.5033887718568751 512.0 1.0 368.0 
272.0001232970093 50221.0 NaN 1531.8263193052755 0.5001288413592243 512.0 0.0 368.0 
274.0001232970093 50177.0 NaN 1531.7995991983973 0.4997837543154652 513.0 0.0 368.0 
276.00008466603504 50184.0 NaN 1528.5584502338 0.5002113614020687 512.0 1.0 366.0 
278.0001232970093 50151.0 NaN 1537.726118904475 0.5014250161908044 514.0 0.0 370.0 
280.0001232970093 50115.0 NaN 1537.6192384769547 0.5014579040040782 514.0 1.0 369.0 
282.0001232970093 50088.0 NaN 1534.5597862391458 0.5005371144044841 513.0 1.0 368.0 
284.0001232970093 50039.0 NaN 1534.7040748163001 0.5002125939604578 513.0 0.0 369.0 
286.00008466603504 50015.0 NaN 1534.7975951903818 0.5016151682648015 514.0 0.0 369.0 
288.0001232970093 49981.0 NaN 1534.8189712758842 0.5016178639447381 513.0 1.0 368.0 
290.0001232970093 49929.0 NaN 1534.722778891116 0.5022954171846795 512.0 0.0 369.0 
292.0001232970093 49865.0 NaN 1534.8109552438204 0.5004148063131421 512.0 1.0 368.0 
294.0001232970093 49839.0 NaN 1534.7468269873093 0.5003586770470914 511.0 1.0 368.0 
296.00008466603504 49824.0 NaN 1537.8169672678705 0.5005697740114518 512.0 0.0 370.0 
298.0001232970093 49786.0 NaN 1537.8837675350703 0.502413408156122 512.0 0.0 370.0 
300.0001232970093 49739.0 NaN 1537.9746158984635 0.5035543163916418 508.0 2.0 368.0 
302.0001232970093 49703.0 NaN 1537.9959919839664 0.5001941542539233 508.0 2.0 368.0 
304.0001232970093 49670.0 NaN 1534.8777555110207 0.5001857764550102 507.0 1.0 368.0 
306.00008466603504 49642.0 NaN 1534.8830995324 0.5001639792754908 509.0 1.0 368.0 
308.0001232970093 49620.0 NaN 1531.7274549098183 0.5012493672167058 507.0 2.0 366.0 
310.0001232970093 49590.0 NaN 1534.794923179691 0.5015002944802476 507.0 1.0 368.0 
312.0001232970093 49531.0 NaN 1531.6579826319298 0.5005935860221928 505.0 1.0 367.0 
314.0001232970093 49488.0 NaN 1534.5624582498335 0.5022074807646375 504.0 2.0 367.0 
316.00008466603504 49460.0 NaN 1537.6459585838363 0.500532086039549 509.0 1.0 369.0 
318.0001232970093 49430.0 NaN 1537.6379425517703 0.4999960919072048 509.0 1.0 369.0 
320.0001232970093 49429.0 NaN 1537.7929191716755 0.5007831665313215 506.0 2.0 368.0 
322.0001232970093 49395.0 NaN 1540.9832999332002 0.5010277267351185 507.0 1.0 370.0 
324.0001232970093 49346.0 NaN 1540.996659986639 0.5014096154640081 507.0 0.0 371.0 
326.00008466603504 49313.0 NaN 1540.9405477621908 0.5007197088704721 507.0 1.0 370.0 
328.0001232970093 49286.0 NaN 1537.8329993319976 0.5001300599736763 506.0 1.0 369.0 
330.0001232970093 49289.0 NaN 1540.9832999332002 0.5008884373109992 507.0 0.0 371.0 
332.0001232970093 49257.0 NaN 1540.964595858382 0.49962429246897155 506.0 1.0 370.0 
334.0001232970093 49254.0 NaN 1537.9585838343364 0.5026652475992938 507.0 1.0 369.0 
336.00008466603504 49259.0 NaN 1531.7461589846364 0.5011321454815443 508.0 0.0 368.0 
338.0001232970093 49226.0 NaN 1531.7060788243155 0.5005190016463318 509.0 1.0 367.0 
340.0001232970093 49212.0 NaN 1528.5718102872424 0.5016153784422428 509.0 1.0 366.0 
342.0001232970093 49188.0 NaN 1528.553106212425 0.5001254448330256 510.0 0.0 367.0 
344.0001232970093 49183.0 NaN 1528.627922511691 0.5008860073540219 510.0 0.0 367.0 
346.00008466603504 49171.0 NaN 1531.623246492985 0.5007006764740151 509.0 2.0 366.0 
348.0001232970093 49134.0 NaN 1528.5691382765542 0.5001182209502064 508.0 0.0 367.0 
350.0001232970093 49119.0 NaN 1525.4428857715434 0.5018324261439442 511.0 1.0 365.0 
352.0001232970093 49115.0 NaN 1525.5150300601188 0.5002323351607887 514.0 1.0 365.0 
354.0001232970093 49108.0 NaN 1525.4615898463605 0.5018133725095727 516.0 0.0 366.0 
356.00008466603504 49076.0 NaN 1525.5764863059455 0.5008329674350634 514.0 1.0 365.0 
358.0001232970093 49056.0 NaN 1525.6245824983298 0.5007221526433141 512.0 1.0 365.0 
360.0001232970093 49045.0 NaN 1528.6359385437547 0.5006040947404393 514.0 0.0 367.0 
362.0001232970093 49025.0 NaN 1528.6038744154996 0.5001247374811756 515.0 1.0 366.0 
364.0001232970093 49012.0 NaN 1525.4749498998 0.5004645673455395 514.0 1.0 365.0 
366.00008466603504 49038.0 NaN 1503.906479625918 0.5012534218206312 517.0 0.0 359.0 
368.0001232970093 49029.0 NaN 1500.9031396125579 0.5015209544912888 515.0 0.0 358.0 
370.0001232970093 49009.0 NaN 1510.0547762191059 0.5019586117816406 514.0 1.0 360.0 
372.0001232970093 48969.0 NaN 1510.0440881763536 0.5003155186497813 514.0 0.0 361.0 
374.0001232970093 48943.0 NaN 1510.0521042084174 0.5017732671423869 514.0 1.0 360.0 
376.00008466603504 48943.0 NaN 1510.0654642618567 0.5010957455979981 515.0 1.0 360.0 
378.0001232970093 48927.0 NaN 1510.1108884435544 0.5010938831927148 518.0 0.0 361.0 
380.0001232970093 48906.0 NaN 1510.1242484969932 0.5023742961864532 515.0 1.0 360.0 
382.0001232970093 48860.0 NaN 1506.9579158316637 0.500362300702994 514.0 1.0 359.0 
384.0001232970093 48850.0 NaN 1513.0741482965918 0.4997167013047703 518.0 0.0 362.0 
386.00008466603504 48862.0 NaN 1525.3921175684704 0.5008285555388335 518.0 1.0 365.0 
388.0001232970093 48839.0 NaN 1510.1616566466273 0.5017657886595285 518.0 0.0 361.0 
390.0001232970093 48807.0 NaN 1510.247160988645 0.5007837727176322 514.0 2.0 359.0 
392.0001232970093 48770.0 NaN 1513.317301269206 0.5003916585586938 515.0 1.0 361.0 
394.0001232970093 48750.0 NaN 1513.274549098197 0.4997317330868912 516.0 1.0 361.0 
396.00008466603504 48765.0 NaN 1513.1783567134273 0.5009270698579141 517.0 2.0 360.0 
398.0001232970093 48724.0 NaN 1510.001336005345 0.5028440885310104 519.0 1.0 360.0 
400.0001232970093 48675.0 NaN 1513.0741482965916 0.5023574016215229 519.0 1.0 361.0 
402.0001232970093 48624.0 NaN 1513.0661322645278 0.500344087110061 519.0 2.0 360.0 
404.0001232970093 48622.0 NaN 1519.3640614562453 0.5020395590520845 519.0 1.0 363.0 
406.00008466603504 48617.0 NaN 1522.2925851703394 0.5005819824652958 522.0 0.0 365.0 
408.0001232970093 48623.0 NaN 1522.3941215764878 0.5020046553140946 520.0 1.0 364.0 
410.0001232970093 48601.0 NaN 1525.5257181028728 0.5019006392464971 520.0 1.0 365.0 
412.0001232970093 48580.0 NaN 1525.6192384769547 0.5002236127680288 522.0 0.0 366.0 
414.0001232970093 48567.0 NaN 1525.5257181028728 0.499845112977064 526.0 1.0 365.0 
416.00008466603504 48580.0 NaN 1525.5898463593849 0.5001816039550998 527.0 1.0 365.0 
418.0001232970093 48577.0 NaN 1525.6219104876425 0.5002798899832491 527.0 0.0 366.0 
420.0001232970093 48561.0 NaN 1513.3146292585182 0.5023129475218573 527.0 1.0 361.0 
422.0001232970093 48537.0 NaN 1510.1643286573149 0.500252063036966 526.0 2.0 359.0 
424.0001232970093 48535.0 NaN 1504.026720106881 0.4997080530689699 523.0 0.0 359.0 
426.00008466603504 48554.0 NaN 1513.1356045424182 0.5004475395513835 518.0 1.0 361.0 
428.0001232970093 48554.0 NaN 1503.9412157648635 0.5004364068953031 517.0 1.0 358.0 
430.0001232970093 48566.0 NaN 1503.7167668670668 0.5022654656541573 519.0 0.0 359.0 
432.0001232970093 48526.0 NaN 1500.7828991315967 0.5003544008411921 519.0 1.0 357.0 
434.0001232970093 48503.0 NaN 1503.711422845691 0.500052291937757 521.0 0.0 359.0 
436.00008466603504 48491.0 NaN 1516.106880427521 0.5004117417497415 524.0 2.0 361.0 
438.0001232970093 48502.0 NaN 1519.038076152306 0.4999743193377168 521.0 5.0 359.0 
440.0001232970093 48502.0 NaN 1516.1229124916515 0.5035226035316538 523.0 2.0 361.0 
442.0001232970093 48484.0 NaN 1516.112224448899 0.5006219499787635 526.0 0.0 363.0 
444.0001232970093 48473.0 NaN 1525.496325985303 0.5028187500286079 525.0 1.0 365.0 
446.00008466603504 48450.0 NaN 1528.6680026720098 0.49973156785325945 525.0 4.0 363.0 
448.0001232970093 48461.0 NaN 1534.9098196392792 0.5003384566935253 528.0 2.0 367.0 
450.0001232970093 48453.0 NaN 1544.0454241816974 0.5049960903087578 528.0 2.0 370.0 
452.0001232970093 48425.0 NaN 1547.0086840347365 0.4998896651759715 528.0 2.0 371.0 
454.0001232970093 48432.0 NaN 1546.8243152972614 0.5018038318064278 528.0 1.0 372.0 
456.00008466603504 48399.0 NaN 1549.9398797595181 0.500284737035786 529.0 0.0 374.0 
458.0001232970093 48392.0 NaN 1546.8296593186365 0.49999672994878364 528.0 1.0 372.0 
460.0001232970093 48392.0 NaN 1546.9178356713428 0.5008236015733621 527.0 0.0 373.0 
462.0001232970093 48374.0 NaN 1546.8777555110212 0.5001484576159624 528.0 0.0 373.0 
464.0001232970093 48377.0 NaN 1546.8697394789574 0.5005485735881532 528.0 0.0 373.0 
466.00008466603504 48353.0 NaN 1543.7675350701393 0.5000402302497924 528.0 1.0 371.0 
468.0001232970093 48345.0 NaN 1540.7454909819635 0.5001643988375234 529.0 0.0 371.0 
470.0001232970093 48356.0 NaN 1543.7995991983976 0.5021544773713429 524.0 0.0 372.0 
472.0001232970093 48349.0 NaN 1531.5537742150975 0.49985406263438575 524.0 0.0 368.0 
474.0001232970093 48356.0 NaN 1528.328657314628 0.5000852392945596 521.0 0.0 367.0 
476.00008466603504 48344.0 NaN 1525.4375417501665 0.49981633181585416 519.0 0.0 366.0 
478.0001232970093 48367.0 NaN 1522.3647294589182 0.49948876705941603 520.0 0.0 365.0 
480.0001232970093 48366.0 NaN 1525.5711422845698 0.5010318620306512 519.0 0.0 366.0 
482.0001232970093 48357.0 NaN 1522.4448897795608 0.49949696088806605 519.0 0.0 365.0 
484.0001232970093 48401.0 NaN 1513.255845023381 0.5001151936115968 519.0 0.0 362.0 
486.00008466603504 48411.0 NaN 1510.0387441549756 0.4998527897774603 518.0 0.0 361.0 
488.0001232970093 48430.0 NaN 1497.7768871075475 0.5003915450756985 516.0 0.0 357.0 
490.0001232970093 48429.0 NaN 1497.6780227120908 0.5018365613646018 518.0 0.0 357.0 
492.0001232970093 48425.0 NaN 1491.6366065464272 0.5015589432151973 519.0 0.0 355.0 
494.0001232970093 48427.0 NaN 1497.6486305945211 0.5003855522531687 513.0 0.0 357.0 
496.00008466603504 48485.0 NaN 1494.7254509018028 0.5009109972505625 510.0 1.0 355.0 
498.0001232970093 48505.0 NaN 1494.6212424849707 0.5005097789432739 511.0 1.0 355.0 
500.0001232970093 48499.0 NaN 1494.7414829659303 0.5004790300691895 511.0 0.0 356.0 
502.0001232970093 48502.0 NaN 1488.448897795591 0.49941095804230184 516.0 1.0 353.0 
504.0001232970093 48497.0 NaN 1485.5123580494333 0.5019541872024627 515.0 2.0 351.0 
506.00008466603504 48561.0 NaN 1488.5718102872422 0.49914845172124167 511.0 4.0 350.0 
508.0001232970093 48571.0 NaN 1488.6466265865072 0.5009634486386351 512.0 2.0 352.0 
510.0001232970093 48607.0 NaN 1491.6980627922517 0.500843198653047 511.0 1.0 354.0 
512.0001232970093 48578.0 NaN 1494.7842351369393 0.49979027778318036 510.0 2.0 354.0 
514.0001232970093 48565.0 NaN 1494.765531062125 0.500369550962125 508.0 5.0 351.0 
516.000084666035 48608.0 NaN 1491.8049432197727 0.5001726329257289 511.0 2.0 353.0 
518.0001232970093 48608.0 NaN 1479.5163660654637 0.4993682586197481 507.0 1.0 350.0 
520.0001232970093 48628.0 NaN 1473.429525718102 0.5008926406634089 510.0 2.0 347.0 
522.0001232970093 48616.0 NaN 1473.3734134936547 0.5002100528954211 507.0 5.0 344.0 
524.0001232970093 48591.0 NaN 1457.9131596526374 0.5004604075924349 503.0 2.0 342.0 
526.000084666035 48622.0 NaN 1457.8276553106207 0.5005134815997 503.0 1.0 343.0 
528.0001232970093 48628.0 NaN 1457.9559118236464 0.5008877606558624 503.0 2.0 342.0 
530.0001232970093 48632.0 NaN 1460.9031396125574 0.5012936369763499 502.0 5.0 340.0 
532.0001232970093 48635.0 NaN 1464.130928523715 0.500767567445816 509.0 2.0 344.0 
534.0001232970093 48614.0 NaN 1460.8977955911816 0.502538615759048 508.0 1.0 344.0 
536.000084666035 48634.0 NaN 1467.1449565798268 0.5018718336146393 510.0 2.0 345.0 
538.0001232970093 48638.0 NaN 1467.1556446225793 0.5004084981179203 508.0 4.0 343.0 
540.0001232970093 48631.0 NaN 1467.2598530394116 0.5021521067802659 510.0 1.0 346.0 
542.0001232970093 48647.0 NaN 1467.1796927187715 0.5008741803564137 512.0 0.0 347.0 
544.0001232970093 48604.0 NaN 1473.4428857715436 0.4999810986301072 515.0 0.0 349.0 
546.000084666035 48633.0 NaN 1473.3333333333337 0.500266349072212 514.0 0.0 349.0 
548.0001232970093 48641.0 NaN 1473.394789579158 0.5005238467810684 514.0 0.0 349.0 
550.0001232970093 48648.0 NaN 1467.1690046760182 0.5011841016888842 513.0 0.0 347.0 
552.0001232970093 48663.0 NaN 1473.2424849699391 0.5013940766653552 518.0 1.0 348.0 
554.0001232970093 48617.0 NaN 1476.2752171008692 0.5016653715736868 521.0 0.0 350.0 
556.000084666035 48618.0 NaN 1476.456913827655 0.49926392102789874 521.0 0.0 350.0 
558.0001232970093 48670.0 NaN 1476.336673346693 0.5001614133974458 518.0 0.0 350.0 
560.0001232970093 48694.0 NaN 1464.0908483633934 0.5015054373216412 513.0 0.0 346.0 
562.0001232970093 48717.0 NaN 1463.9706078824313 0.5005378300856006 508.0 1.0 345.0 
564.0001232970093 48705.0 NaN 1467.1930527722104 0.5021432388708319 508.0 2.0 345.0 
566.000084666035 48703.0 NaN 1470.1028724114901 0.5001833614419111 507.0 4.0 344.0 
568.0001232970093 48756.0 NaN 1476.3206412825646 0.5007797848001532 515.0 1.0 349.0 
570.0001232970093 48775.0 NaN 1476.235136940547 0.49964928264909425 519.0 0.0 350.0 
572.0001232970093 48835.0 NaN 1476.2965931863728 0.5030064898467604 517.0 1.0 349.0 
574.0001232970093 48812.0 NaN 1479.4335337341356 0.5008973008156924 515.0 4.0 347.0 
576.000084666035 48744.0 NaN 1488.6893787575154 0.4988460796676024 519.0 3.0 351.0 
578.0001232970093 48774.0 NaN 1485.587174348698 0.4987663367134434 521.0 1.0 352.0 
580.0001232970093 48789.0 NaN 1485.520374081497 0.500060474190692 522.0 2.0 351.0 
582.0001232970093 48788.0 NaN 1485.5417501670001 0.5014137506519466 517.0 5.0 348.0 
584.0001232970093 48771.0 NaN 1482.4502338009358 0.5032634736236428 525.0 2.0 350.0 
586.000084666035 48743.0 NaN 1482.4529058116239 0.4995494025511609 524.0 1.0 351.0 
588.0001232970093 48766.0 NaN 1485.539078156312 0.49932004183545137 523.0 2.0 351.0 
590.0001232970093 48794.0 NaN 1488.6546426185714 0.5012235980910353 521.0 5.0 349.0 
592.0001232970093 48790.0 NaN 1491.6285905143625 0.5003757606036386 525.0 2.0 353.0 
594.0001232970093 48785.0 NaN 1488.5611222444895 0.5009427189000031 528.0 0.0 354.0 
596.000084666035 48752.0 NaN 1488.6359385437547 0.4994470894551146 527.0 2.0 352.0 
598.0001232970093 48790.0 NaN 1479.3319973279897 0.5001189126812179 524.0 5.0 346.0 
600.0001232970093 48813.0 NaN 1485.4562458249827 0.5015139678263845 528.0 2.0 351.0 
602.0001232970093 48817.0 NaN 1482.2792251169 0.49993984855830575 528.0 1.0 351.0 
604.0001232970093 48823.0 NaN 1482.3647294589182 0.500639830626976 526.0 2.0 350.0 
606.000084666035 48773.0 NaN 1488.526386105545 0.5000138133451724 521.0 6.0 348.0 
608.0001232970093 48790.0 NaN 1491.6633266533072 0.49966781283096656 527.0 2.0 353.0 
610.0001232970093 48817.0 NaN 1497.7688710754835 0.500534291959265 527.0 1.0 356.0 
612.0001232970093 48827.0 NaN 1497.7929191716757 0.5000828169908924 528.0 2.0 355.0 
614.0001232970093 48823.0 NaN 1497.7768871075475 0.499674399697291 524.0 5.0 352.0 
616.000084666035 48816.0 NaN 1494.773547094189 0.5003929580216288 527.0 2.0 354.0 
618.0001232970093 48789.0 NaN 1491.5671342685366 0.5026077660941568 527.0 1.0 354.0 
620.0001232970093 48773.0 NaN 1500.876419505679 0.5022568023343248 527.0 2.0 356.0 
622.0001232970093 48750.0 NaN 1500.9031396125574 0.5006161533795819 523.0 5.0 353.0 
624.0001232970093 48731.0 NaN 1504.093520374082 0.5007008743993403 523.0 2.0 357.0 
626.000084666035 48729.0 NaN 1507.1342685370737 0.4997704129730522 526.0 1.0 359.0 
628.0001232970093 48738.0 NaN 1510.2525050100191 0.5010418779676324 528.0 3.0 358.0 
630.0001232970093 48731.0 NaN 1510.2284569138271 0.5006232951635552 524.0 6.0 355.0 
632.0001232970093 48709.0 NaN 1513.183700734802 0.5005954164181422 524.0 3.0 359.0 
634.0001232970093 48683.0 NaN 1516.2191048764191 0.5004987206148896 524.0 2.0 361.0 
636.000084666035 48662.0 NaN 1516.2137608550443 0.49961863024473896 526.0 3.0 360.0 
638.0001232970093 48703.0 NaN 1516.2965931863728 0.5008495820465042 523.0 5.0 358.0 
640.0001232970093 48690.0 NaN 1513.2852371409476 0.5005918122851937 525.0 4.0 358.0 
642.0001232970093 48689.0 NaN 1513.2531730126911 0.5014691005706507 525.0 2.0 360.0 
644.0001232970093 48671.0 NaN 1510.2311289245165 0.5006365717907114 522.0 1.0 360.0 
646.000084666035 48640.0 NaN 1510.121576486307 0.5001414088495993 524.0 1.0 360.0 
648.0001232970093 48648.0 NaN 1516.3687374749486 0.5024940399251508 525.0 1.0 362.0 
650.0001232970093 48616.0 NaN 1519.3400133600544 0.5015804847865427 521.0 2.0 362.0 
652.0001232970093 48614.0 NaN 1516.264529058117 0.5019837517629302 520.0 2.0 361.0 
654.0001232970093 48622.0 NaN 1516.3340013360062 0.5015161308852248 522.0 0.0 363.0 
656.000084666035 48617.0 NaN 1516.4088176352714 0.4991959351294818 519.0 2.0 361.0 
658.0001232970093 48665.0 NaN 1525.6352705410818 0.5008303453701025 518.0 1.0 365.0 
660.0001232970093 48642.0 NaN 1531.8343353373425 0.4996644090437847 513.0 2.0 366.0 
662.0001232970093 48628.0 NaN 1531.7915831663336 0.50117940770862 511.0 5.0 363.0 
664.0001232970093 48605.0 NaN 1531.8824315297272 0.5012039266213414 516.0 2.0 366.0 
#####################################################################
# End of data export. Simulation finished at: 2019-03-06T05:10+0000 #
#####################################################################
