#####################################################################
# Alchemist log file - simulation started at: 2019-03-07T00:29+0000 #
#####################################################################
# seed = 4.0, bandwidth = 2.3713737056616552E7, propagationDelay = 0.01, baserange = 10.0
#
# The columns have the following meaning: 
# time neighbor_count[Sum] <value>@neighbor_count[Sum] packet_size[Mean] mean_delay[Mean] crowd[Sum] overcrowded[Sum] risk[Sum] 
0.0 NaN NaN NaN NaN NaN NaN NaN 
2.0004598768760946 486.0 NaN 4991.152972611891 0.49285759344619867 1497.0 0.0 1497.0 
4.00042902272939 486.0 NaN 4991.687374749499 0.4928573533040967 1497.0 0.0 1497.0 
6.000459876876094 486.0 NaN 4990.688042752171 0.4928575503769296 1497.0 0.0 1497.0 
8.000459876876095 486.0 NaN 4989.902471609887 0.49285776887194455 1497.0 0.0 1497.0 
10.000459876876093 486.0 NaN 4989.750167000668 0.49285783065516736 1497.0 0.0 1497.0 
12.000459876876093 488.0 NaN 4989.795591182365 0.4926816833908141 1497.0 0.0 1497.0 
14.00042902272939 488.0 NaN 4989.73413493654 0.4926816951684285 1497.0 0.0 1497.0 
16.000459876876096 488.0 NaN 4989.595190380762 0.505970771193038 1497.0 0.0 1497.0 
18.000459876876096 483.0 NaN 4989.557782231129 0.4993437273734413 1497.0 0.0 1497.0 
20.000459876876096 482.0 NaN 4989.621910487642 0.492710838053724 1497.0 0.0 1497.0 
22.000459876876096 484.0 NaN 4989.621910487642 0.49269136328431723 1497.0 0.0 1497.0 
24.000429022729392 484.0 NaN 4989.589846359386 0.49269137874652236 1497.0 0.0 1497.0 
26.000459876876096 490.0 NaN 4989.571142284569 0.4933540974189233 1497.0 0.0 1497.0 
28.000459876876096 490.0 NaN 4989.688710754843 0.493354066513131 1497.0 0.0 1497.0 
30.000459876876096 501.0 NaN 4989.643286573147 0.5069336816154002 1497.0 0.0 1497.0 
32.00045987687609 501.0 NaN 4989.758183032732 0.49737516025621775 1497.0 0.0 1497.0 
34.00042902272939 500.0 NaN 4989.58450233801 0.49344478068636743 1497.0 0.0 1497.0 
36.000459876876086 501.0 NaN 4989.680694722779 0.4999293548842991 1497.0 0.0 1497.0 
38.000459876876086 498.0 NaN 4989.680694722779 0.493349027110605 1497.0 0.0 1497.0 
40.000459876876086 504.0 NaN 4989.73413493654 0.5073820426787615 1497.0 0.0 1497.0 
42.000459876876086 504.0 NaN 4989.632598530394 0.510028533796575 1497.0 0.0 1497.0 
44.00042902272939 500.0 NaN 4989.579158316633 0.5017681093078499 1497.0 0.0 1497.0 
46.000459876876086 504.0 NaN 4989.656646626587 0.5000671825385489 1497.0 0.0 1497.0 
48.000459876876086 503.0 NaN 4989.715430861724 0.4897937804601596 1497.0 0.0 1497.0 
50.000459876876086 508.0 NaN 4989.568470273881 0.5054194363630012 1497.0 0.0 1497.0 
52.000459876876086 504.0 NaN 4989.616566466266 0.503135628233404 1497.0 0.0 1497.0 
54.00042902272939 504.0 NaN 4989.62458249833 0.5007160141776278 1497.0 0.0 1497.0 
56.000459876876086 510.0 NaN 4989.758183032732 0.5231113813124788 1497.0 0.0 1497.0 
58.000459876876086 500.0 NaN 4989.603206412826 0.49432759148585526 1497.0 0.0 1497.0 
60.000459876876086 503.0 NaN 4989.731462925852 0.5001767661685494 1497.0 0.0 1497.0 
62.00026640252032 503.0 NaN 599.6820307281226 0.5101522418049644 306.0 0.0 65.0 
64.00026640252032 499.0 NaN 599.6259185036743 0.5100920648830548 306.0 0.0 65.0 
66.00026640252032 495.0 NaN 599.6179024716093 0.5329239320944791 303.0 0.0 65.0 
68.00026640252032 487.0 NaN 599.63126252505 0.5150601605100832 283.0 0.0 65.0 
70.00026640252032 488.0 NaN 602.7094188376755 0.5039460648867856 240.0 0.0 66.0 
72.00026640252032 489.0 NaN 602.645290581162 0.5046127729113214 201.0 0.0 66.0 
74.00026640252032 489.0 NaN 602.6372745490982 0.4913720741501756 184.0 0.0 66.0 
76.00026640252032 490.0 NaN 602.6586506346027 0.5016708943076544 160.0 0.0 66.0 
78.00026640252032 491.0 NaN 602.6693386773545 0.5046984177370178 146.0 0.0 66.0 
80.00026640252032 491.0 NaN 602.6426185704742 0.5106627729117601 144.0 0.0 66.0 
82.00026640252032 488.0 NaN 605.7154308617228 0.5249709374378719 141.0 0.0 67.0 
84.00026640252032 489.0 NaN 608.7802271209089 0.5028671908459549 139.0 0.0 68.0 
86.00026640252032 490.0 NaN 608.7695390781562 0.5039788958678328 135.0 0.0 68.0 
88.00026640252032 488.0 NaN 608.7615230460922 0.49634530187376064 134.0 0.0 68.0 
90.00026640252032 488.0 NaN 608.7481629926517 0.5126989591098416 132.0 0.0 68.0 
92.00026640252032 482.0 NaN 605.6726786907138 0.5196882412867208 132.0 0.0 67.0 
94.00026640252032 478.0 NaN 605.6887107548425 0.4983852566434927 129.0 0.0 67.0 
96.00026640252032 480.0 NaN 602.6319305277224 0.5090168491689395 126.0 0.0 66.0 
98.00026640252032 478.0 NaN 599.5617902471608 0.4965388267450795 127.0 0.0 65.0 
100.00026640252032 484.0 NaN 602.6185704742818 0.5180875967963896 129.0 0.0 66.0 
102.00026640252032 481.0 NaN 602.62124248497 0.495161872693008 127.0 0.0 66.0 
104.00026640252032 481.0 NaN 602.6265865063452 0.5010145413791888 125.0 0.0 66.0 
106.00026640252032 487.0 NaN 605.7020708082831 0.517433666826842 124.0 0.0 67.0 
108.00026640252032 487.0 NaN 605.6967267869072 0.5111887792336365 123.0 0.0 67.0 
110.00026640252032 486.0 NaN 605.6860387441544 0.49248950991207374 123.0 0.0 67.0 
112.00026640252032 486.0 NaN 590.3647294589181 0.4960244437027165 120.0 0.0 62.0 
114.00026640252032 487.0 NaN 596.5477621910486 0.5048943482929146 121.0 0.0 64.0 
116.00026640252032 486.0 NaN 593.4829659318636 0.520600159539128 121.0 0.0 63.0 
118.00026640252032 479.0 NaN 590.4128256513023 0.49847655910863914 123.0 0.0 62.0 
120.00026640252032 480.0 NaN 587.3293253173016 0.5209660875060933 124.0 0.0 61.0 
122.00026640252032 476.0 NaN 590.4181696726788 0.49404319523742024 122.0 0.0 62.0 
124.00026640252032 479.0 NaN 590.4181696726788 0.49788177730631544 122.0 0.0 62.0 
126.00026640252032 490.0 NaN 593.4669338677359 0.5163117648728184 126.0 0.0 63.0 
128.0002664025203 491.0 NaN 596.5183700734805 0.5096264963177847 123.0 0.0 64.0 
130.00026640252028 496.0 NaN 599.6125584502337 0.49513866437778514 122.0 0.0 65.0 
132.00026640252028 504.0 NaN 602.7067468269869 0.5008323298753321 123.0 0.0 66.0 
134.00026640252028 504.0 NaN 605.7849031396133 0.5006181461450369 126.0 0.0 67.0 
136.00026640252028 504.0 NaN 605.7581830327317 0.5188900545857288 125.0 0.0 67.0 
138.00026640252028 500.0 NaN 605.7341349365406 0.5041866980906156 125.0 0.0 67.0 
140.00026640252028 500.0 NaN 605.7555110220442 0.5028890735103659 125.0 0.0 67.0 
142.00026640252028 508.0 NaN 608.8122912491649 0.5015879335427672 127.0 0.0 68.0 
144.00026640252028 512.0 NaN 608.8042752171003 0.5038373969601756 128.0 0.0 68.0 
146.00026640252028 515.0 NaN 605.7234468937877 0.5176350385968385 126.0 0.0 67.0 
148.00026640252028 509.0 NaN 605.7421509686044 0.5012286482341393 127.0 0.0 67.0 
150.00026640252028 514.0 NaN 602.7147628590513 0.5137967001491687 124.0 0.0 66.0 
152.00026640252028 520.0 NaN 605.752839011356 0.5357842242345373 125.0 0.0 67.0 
154.00026640252028 509.0 NaN 608.8390113560454 0.5240337033053226 125.0 0.0 68.0 
156.00026640252028 506.0 NaN 611.8904475617904 0.524819500367138 126.0 0.0 69.0 
158.00026640252028 503.0 NaN 614.9979959919837 0.49856728993566807 129.0 0.0 70.0 
160.00026640252028 508.0 NaN 611.9225116900469 0.5033236145687124 130.0 0.0 69.0 
162.00026640252028 503.0 NaN 605.7207748831 0.5253376035544419 130.0 0.0 67.0 
164.00026640252028 497.0 NaN 605.7020708082832 0.5108493331857288 128.0 0.0 67.0 
166.00026640252028 499.0 NaN 605.7234468937878 0.520591843746874 128.0 0.0 67.0 
168.00026640252028 499.0 NaN 605.7100868403475 0.5132825023439307 128.0 0.0 67.0 
170.00026640252028 500.0 NaN 605.7287909151637 0.535043366158338 126.0 0.0 67.0 
172.00026640252028 491.0 NaN 605.707414829659 0.519868960540206 129.0 0.0 67.0 
174.00026640252028 490.0 NaN 605.7020708082832 0.4986130697065592 128.0 0.0 67.0 
176.00026640252028 490.0 NaN 599.5724782899136 0.507258549659025 126.0 0.0 65.0 
178.00026640252028 488.0 NaN 599.5751503006016 0.5187608037431193 124.0 0.0 65.0 
180.00026640252028 488.0 NaN 602.6025384101541 0.5210102563983878 125.0 0.0 66.0 
182.00026640252028 487.0 NaN 605.6913827655316 0.5201865715225065 125.0 0.0 67.0 
184.00026640252028 485.0 NaN 605.6993987975956 0.5014425152972763 124.0 0.0 67.0 
186.00026640252028 484.0 NaN 605.7020708082833 0.5055608255063146 122.0 0.0 67.0 
188.00026640252028 483.0 NaN 602.6292585170344 0.510649588453631 120.0 0.0 66.0 
190.00026640252028 489.0 NaN 614.9552438209752 0.513095230058968 121.0 0.0 70.0 
192.00026640252028 495.0 NaN 621.1462925851703 0.5054303737633883 123.0 0.0 72.0 
194.00026640252028 495.0 NaN 618.0280561122248 0.5029898207171841 122.0 0.0 71.0 
196.00026640252028 497.0 NaN 618.0040080160318 0.500040444979528 123.0 0.0 71.0 
198.00026640252028 500.0 NaN 617.9933199732798 0.5015123783857127 124.0 0.0 71.0 
200.00026640252028 505.0 NaN 618.0146960587842 0.49914520880060337 125.0 0.0 71.0 
202.00026640252028 505.0 NaN 617.9612558450233 0.5237835262652208 125.0 0.0 71.0 
204.00026640252028 504.0 NaN 621.0153640614566 0.49508879065793865 126.0 0.0 72.0 
206.00026640252028 505.0 NaN 621.0100200400803 0.49948189685519645 126.0 0.0 72.0 
208.00026640252028 512.0 NaN 627.1770207080821 0.500922035937866 127.0 0.0 74.0 
210.00026640252028 520.0 NaN 630.3273213092863 0.5094391092708173 125.0 0.0 75.0 
212.00026640252028 516.0 NaN 627.2331329325318 0.5268399724780676 123.0 0.0 74.0 
214.00026640252028 506.0 NaN 621.0714762859044 0.49352216596064113 123.0 0.0 72.0 
216.00026640252028 508.0 NaN 621.0501002004 0.5111008323975267 125.0 0.0 72.0 
218.00026640252028 504.0 NaN 618.0200400801608 0.4997468529746258 123.0 0.0 71.0 
220.00026640252028 505.0 NaN 618.0307281229136 0.5175677218534044 123.0 0.0 71.0 
222.00026640252028 492.0 NaN 621.0714762859044 0.5134721338822982 123.0 0.0 72.0 
224.00026640252028 487.0 NaN 621.1008684034729 0.5181405246649268 123.0 0.0 72.0 
226.00026640252028 488.0 NaN 621.0554442217773 0.5004379588728385 122.0 0.0 72.0 
228.00026640252028 493.0 NaN 614.9338677354707 0.5256256435189166 116.0 0.0 70.0 
230.00026640252028 492.0 NaN 618.0521042084165 0.5165017636174568 115.0 0.0 71.0 
232.00026640252028 491.0 NaN 618.0440881763527 0.5305676429661657 113.0 0.0 71.0 
234.00026640252028 492.0 NaN 618.0120240480956 0.49844057435224476 115.0 0.0 71.0 
236.00026640252028 491.0 NaN 618.0040080160318 0.506240862661356 115.0 0.0 71.0 
238.00026640252028 493.0 NaN 618.0013360053439 0.5139732188842133 114.0 0.0 71.0 
240.00026640252028 497.0 NaN 618.0521042084165 0.4997356481484134 117.0 0.0 71.0 
242.00026640252028 496.0 NaN 618.0307281229136 0.5082616555532097 115.0 0.0 71.0 
244.00026640252028 500.0 NaN 624.1923847695394 0.5039960693648204 116.0 0.0 73.0 
246.00026640252028 508.0 NaN 627.2438209752831 0.49980214842632237 117.0 0.0 74.0 
248.00026640252028 506.0 NaN 627.2331329325318 0.5162916194954954 116.0 0.0 74.0 
250.00026640252028 516.0 NaN 627.257181028724 0.5138896967864486 119.0 0.0 74.0 
252.00026640252028 512.0 NaN 630.2658650634588 0.5502553275997232 121.0 0.0 75.0 
254.00026640252028 504.0 NaN 630.2498329993317 0.5147796783451329 122.0 0.0 75.0 
256.0002664025203 503.0 NaN 630.2765531062124 0.522696642042144 122.0 0.0 75.0 
258.0002664025203 500.0 NaN 630.2578490313954 0.5027288036337997 121.0 0.0 75.0 
260.0002664025203 496.0 NaN 630.2792251168999 0.5179556313070647 121.0 0.0 75.0 
262.0002664025203 494.0 NaN 630.2712090848363 0.509158976947192 121.0 0.0 75.0 
264.0002664025203 495.0 NaN 630.2231128924511 0.5227743090742477 122.0 0.0 75.0 
266.0002664025203 492.0 NaN 630.2204408817637 0.5180502744785064 121.0 0.0 75.0 
268.0002664025203 486.0 NaN 630.2284569138271 0.4991953166548785 121.0 0.0 75.0 
270.0002664025203 492.0 NaN 630.2391449565806 0.5180295520880858 121.0 0.0 75.0 
272.0002664025203 490.0 NaN 627.1823647294591 0.5035625615055247 121.0 0.0 74.0 
274.0002664025203 489.0 NaN 624.0855043420181 0.5125835442533508 120.0 0.0 73.0 
276.0002664025203 495.0 NaN 627.158316633267 0.5072648899776577 121.0 0.0 74.0 
278.0002664025203 495.0 NaN 624.0828323313287 0.505683858267442 119.0 0.0 73.0 
280.0002664025203 502.0 NaN 621.0233800935199 0.5282484075065522 120.0 0.0 72.0 
282.0002664025203 492.0 NaN 608.7561790247162 0.5142065308587508 117.0 0.0 68.0 
284.0002664025203 489.0 NaN 608.7454909819635 0.5321966039221573 117.0 0.0 68.0 
286.0002664025203 501.0 NaN 611.8316633266527 0.4939301188682459 116.0 0.0 69.0 
288.0002664025203 504.0 NaN 611.8102872411501 0.5044261488061603 117.0 0.0 69.0 
290.0002664025203 503.0 NaN 599.5484301937207 0.5225299959843572 116.0 0.0 65.0 
292.0002664025203 498.0 NaN 599.5511022044092 0.5042694892727397 116.0 0.0 65.0 
294.0002664025203 500.0 NaN 605.6887107548426 0.5030647178446452 117.0 0.0 67.0 
296.0002664025203 502.0 NaN 605.707414829659 0.5123079557235657 115.0 0.0 67.0 
298.0002664025203 491.0 NaN 605.6967267869072 0.4980279619660845 114.0 0.0 67.0 
300.0002664025203 495.0 NaN 605.6993987975956 0.5307906051864725 114.0 0.0 67.0 
302.0002664025203 485.0 NaN 605.707414829659 0.5039463991007402 114.0 0.0 67.0 
304.0002664025203 484.0 NaN 605.7127588510365 0.502477901494575 112.0 0.0 67.0 
306.0002664025203 484.0 NaN 605.7341349365411 0.5107313527467217 111.0 0.0 67.0 
308.0002664025203 480.0 NaN 608.7882431529729 0.4949477589633211 110.0 0.0 68.0 
310.0002664025203 481.0 NaN 608.8122912491652 0.5209383815370763 110.0 0.0 68.0 
312.0002664025203 477.0 NaN 605.7154308617228 0.517474894480244 111.0 0.0 67.0 
314.0002664025203 473.0 NaN 596.4916499666001 0.5050127466716321 112.0 0.0 64.0 
316.0002664025203 474.0 NaN 593.4241816967274 0.4995569165454458 113.0 0.0 63.0 
318.0002664025203 473.0 NaN 593.4134936539748 0.4965375896083534 113.0 0.0 63.0 
320.0002664025203 470.0 NaN 584.2004008016028 0.5176949625789162 110.0 0.0 60.0 
322.0002664025203 472.0 NaN 584.1736806947226 0.5084870697350731 111.0 0.0 60.0 
324.0002664025203 472.0 NaN 584.1790247160998 0.485898407052555 106.0 0.0 60.0 
326.0002664025203 478.0 NaN 584.1790247160998 0.5157273269366992 105.0 0.0 60.0 
328.0002664025203 479.0 NaN 587.2598530394118 0.5075186389729125 105.0 0.0 61.0 
330.0002664025203 482.0 NaN 590.3941215764864 0.5231205198533809 105.0 0.0 62.0 
332.0002664025203 478.0 NaN 590.3593854375414 0.5116345257751093 104.0 0.0 62.0 
334.0002664025203 473.0 NaN 590.3380093520367 0.49168263854846755 104.0 0.0 62.0 
336.0002664025203 480.0 NaN 590.3380093520367 0.4952274426009107 104.0 0.0 62.0 
338.0002664025203 484.0 NaN 590.3380093520367 0.5016282866135326 104.0 0.0 62.0 
340.0002664025203 491.0 NaN 593.4188376753503 0.5105716899681212 105.0 0.0 63.0 
342.0002664025203 492.0 NaN 590.3353373413496 0.5436454473274924 109.0 0.0 62.0 
344.0002664025203 486.0 NaN 590.3326653306613 0.5046544928844737 108.0 0.0 62.0 
346.0002664025203 483.0 NaN 590.3273213092862 0.525118684495508 109.0 0.0 62.0 
348.0002664025203 476.0 NaN 590.3246492985977 0.49317350624610584 110.0 0.0 62.0 
350.0002664025203 478.0 NaN 590.3540414161658 0.49792807596739874 110.0 0.0 62.0 
352.0002664025203 485.0 NaN 590.3486973947892 0.5142915537836904 109.0 0.0 62.0 
354.0002664025203 484.0 NaN 590.3326653306611 0.5192494895582057 112.0 0.0 62.0 
356.0002664025203 481.0 NaN 587.2518370073478 0.5153175983633561 113.0 0.0 61.0 
358.0002664025203 478.0 NaN 587.2518370073478 0.4989838371090193 111.0 0.0 61.0 
360.0002664025203 479.0 NaN 587.275885103541 0.5253375163072539 111.0 0.0 61.0 
362.0002664025203 472.0 NaN 584.2110888443549 0.49900675780811876 107.0 0.0 60.0 
364.0002664025203 472.0 NaN 584.1977287909154 0.5197067879323792 106.0 0.0 60.0 
366.0002664025203 471.0 NaN 581.1275885103546 0.5062385332811685 103.0 0.0 59.0 
368.0002664025203 468.0 NaN 578.0521042084167 0.5058021683714377 103.0 0.0 58.0 
370.0002664025203 476.0 NaN 578.0574482297933 0.5147313331600114 106.0 0.0 58.0 
372.0002664025203 472.0 NaN 574.9873079492318 0.532574109426292 105.0 0.0 57.0 
374.0002664025203 470.0 NaN 581.1703406813627 0.5000068858314237 104.0 0.0 59.0 
376.0002664025203 473.0 NaN 581.1676686706751 0.5223520830187193 106.0 0.0 59.0 
378.0002664025203 466.0 NaN 581.1516366065464 0.49039286139739513 106.0 0.0 59.0 
380.0002664025203 473.0 NaN 590.4074816299268 0.5134146564675987 106.0 0.0 62.0 
382.0002664025203 473.0 NaN 590.4074816299268 0.5029313512055041 107.0 0.0 62.0 
384.0002664025203 475.0 NaN 593.4562458249835 0.4952128903962073 108.0 0.0 63.0 
386.0002664025203 479.0 NaN 593.4669338677361 0.5347291931967608 107.0 0.0 63.0 
388.0002664025203 463.0 NaN 593.4535738142955 0.5119426950251449 107.0 0.0 63.0 
390.0002664025203 466.0 NaN 593.4749498998001 0.5161588391794029 107.0 0.0 63.0 
392.0002664025203 474.0 NaN 599.6045424181699 0.5177165994085724 110.0 0.0 65.0 
394.0002664025203 476.0 NaN 602.6933867735471 0.5079966310161008 111.0 0.0 66.0 
396.0002664025203 479.0 NaN 605.76085504342 0.5108756783725837 111.0 0.0 67.0 
398.0002664025203 474.0 NaN 605.7368069472271 0.5064827293617199 111.0 0.0 67.0 
400.0002664025203 486.0 NaN 614.9659318637272 0.5342731144355333 113.0 0.0 70.0 
402.0002664025203 486.0 NaN 614.9873079492318 0.5257800241307434 113.0 0.0 70.0 
404.0002664025203 481.0 NaN 614.9819639278546 0.5133531133762664 113.0 0.0 70.0 
406.0002664025203 480.0 NaN 611.8663994655982 0.5139963601290829 114.0 0.0 69.0 
408.0002664025203 477.0 NaN 611.8557114228454 0.5139673874719444 114.0 0.0 69.0 
410.0002664025203 479.0 NaN 611.8637274549093 0.5145038850901414 115.0 0.0 69.0 
412.0002664025203 483.0 NaN 618.0414161656638 0.5085283036525631 116.0 0.0 71.0 
414.0002664025203 482.0 NaN 618.0200400801607 0.521344488848134 116.0 0.0 71.0 
416.0002664025203 483.0 NaN 618.0040080160318 0.49693980158947015 116.0 0.0 71.0 
418.0002664025203 482.0 NaN 617.9879759519043 0.5122569002979692 116.0 0.0 71.0 
420.0002664025203 489.0 NaN 621.0661322645288 0.5133732440034432 117.0 0.0 72.0 
422.0002664025203 499.0 NaN 627.1957247828999 0.5293062768393964 124.0 0.0 74.0 
424.0002664025203 491.0 NaN 627.171676686706 0.4934249321570888 126.0 0.0 74.0 
426.0002664025203 502.0 NaN 633.3199732798919 0.5219019955688848 128.0 0.0 76.0 
428.0002664025203 490.0 NaN 633.3226452905817 0.4921622288913043 129.0 0.0 76.0 
430.0002664025203 496.0 NaN 633.3173012692044 0.5116821801209233 130.0 0.0 76.0 
432.0002664025203 490.0 NaN 633.3333333333328 0.5305474591800381 126.0 0.0 76.0 
434.0002664025203 477.0 NaN 633.2985971943899 0.49552388172639056 126.0 0.0 76.0 
436.0002664025203 487.0 NaN 639.4388777555099 0.5320152636613189 126.0 0.0 78.0 
438.0002664025203 477.0 NaN 639.4281897127589 0.5090738772346036 126.0 0.0 78.0 
440.0002664025203 483.0 NaN 639.4415497662002 0.5097247454185064 127.0 0.0 78.0 
442.0002664025203 481.0 NaN 636.4248496993988 0.5236288788204535 128.0 0.0 77.0 
444.0002664025203 473.0 NaN 636.4168336673349 0.5227394261577571 128.0 0.0 77.0 
446.0002664025203 474.0 NaN 636.4248496993988 0.539975234486645 126.0 0.0 77.0 
448.0002664025203 466.0 NaN 639.4495657982637 0.49465208872402555 124.0 0.0 78.0 
450.0002664025203 481.0 NaN 636.3927855711421 0.5304506972576808 124.0 0.0 77.0 
452.0002664025203 472.0 NaN 633.3493653974623 0.536528357941768 125.0 0.0 76.0 
454.0002664025203 466.0 NaN 633.271877087509 0.5185862192387062 124.0 0.0 76.0 
456.0002664025203 476.0 NaN 630.2658650634593 0.5182394545814742 123.0 0.0 75.0 
458.0002664025203 472.0 NaN 630.3086172344683 0.49677475403257115 123.0 0.0 75.0 
460.0002664025203 481.0 NaN 630.273881095524 0.5257553425984902 123.0 0.0 75.0 
462.0002664025203 492.0 NaN 633.3814295257182 0.5259303609321262 124.0 0.0 76.0 
464.0002664025203 486.0 NaN 633.370741482965 0.5035364174053978 123.0 0.0 76.0 
466.0002664025203 488.0 NaN 633.3787575150304 0.5316818733868938 123.0 0.0 76.0 
468.0002664025203 482.0 NaN 633.3199732798922 0.5259336894556567 123.0 0.0 76.0 
470.0002664025203 479.0 NaN 624.1202404809621 0.5277551830634297 119.0 0.0 73.0 
472.0002664025203 471.0 NaN 621.074148296592 0.5311928248079687 118.0 0.0 72.0 
474.0002664025203 457.0 NaN 621.0207080828317 0.5018970060413825 120.0 0.0 72.0 
476.0002664025203 470.0 NaN 621.0073480293922 0.5273485845466397 120.0 0.0 72.0 
478.0002664025203 465.0 NaN 621.0207080828317 0.49105293000566674 120.0 0.0 72.0 
480.0002664025203 467.0 NaN 621.0100200400806 0.5085622870539638 120.0 0.0 72.0 
482.0002664025203 469.0 NaN 620.9993319973272 0.5319684650685912 122.0 0.0 72.0 
484.0002664025203 464.0 NaN 620.9645958583831 0.4950560547143007 121.0 0.0 72.0 
486.0002664025203 474.0 NaN 617.9051436205741 0.5158908515161891 121.0 0.0 71.0 
488.0002664025203 464.0 NaN 617.8944555778228 0.4978184695247372 121.0 0.0 71.0 
490.0002664025203 472.0 NaN 621.0287241148956 0.5133723209405264 121.0 0.0 72.0 
492.0002664025203 483.0 NaN 614.9498997995998 0.5165292394298996 120.0 0.0 70.0 
494.0002664025203 477.0 NaN 602.6533066132268 0.4923081219230382 119.0 0.0 66.0 
496.0002664025203 478.0 NaN 602.6426185704743 0.5271536479771407 119.0 0.0 66.0 
498.0002664025203 468.0 NaN 602.6292585170344 0.4985378940026625 119.0 0.0 66.0 
500.0002664025203 472.0 NaN 602.6399465597865 0.495677025400052 120.0 0.0 66.0 
502.0002664025203 471.0 NaN 593.426853707415 0.5258339278143778 116.0 0.0 63.0 
504.0002664025203 463.0 NaN 593.4321977287909 0.4928069816590773 114.0 0.0 63.0 
506.0002664025203 468.0 NaN 593.389445557782 0.4997865520527975 113.0 0.0 63.0 
508.0002664025203 467.0 NaN 590.3112892451568 0.4925711440614151 112.0 0.0 62.0 
510.0002664025203 474.0 NaN 584.1763527054112 0.5093686045683299 113.0 0.0 60.0 
512.0002664025203 470.0 NaN 581.0981963927856 0.5249281618360025 113.0 0.0 59.0 
514.0002664025203 468.0 NaN 581.0875083500334 0.5081725826040339 113.0 0.0 59.0 
516.0002664025203 470.0 NaN 584.1710086840347 0.5081368731945473 114.0 0.0 60.0 
518.0002664025203 465.0 NaN 581.1222444889779 0.5069992105750495 112.0 0.0 59.0 
520.0002664025203 468.0 NaN 584.2084168336671 0.5029084562863904 111.0 0.0 60.0 
522.0002664025203 466.0 NaN 581.130260521042 0.5005851979582903 111.0 0.0 59.0 
524.0002664025203 465.0 NaN 581.1142284569137 0.5369554631081249 110.0 0.0 59.0 
526.0002664025203 455.0 NaN 581.1035404141614 0.5462544705653525 109.0 0.0 59.0 
528.0002664025203 447.0 NaN 575.000668002672 0.5025866499206312 109.0 0.0 57.0 
530.0002664025203 454.0 NaN 571.9251837007348 0.4995130103966868 107.0 0.0 56.0 
532.0002664025203 462.0 NaN 575.0487641950568 0.5156014863597499 105.0 0.0 57.0 
534.0002664025203 461.0 NaN 575.0327321309284 0.49710091721907956 104.0 0.0 57.0 
536.0002664025203 468.0 NaN 578.0921843687374 0.5071852056168246 104.0 0.0 58.0 
538.0002664025203 466.0 NaN 578.0868403473614 0.5020562739222062 105.0 0.0 58.0 
540.0002664025203 468.0 NaN 578.1108884435538 0.5022457476270252 105.0 0.0 58.0 
542.0002664025203 469.0 NaN 578.0975283901137 0.529852048560779 105.0 0.0 58.0 
544.0002664025203 465.0 NaN 578.0814963259852 0.5135316779876867 105.0 0.0 58.0 
546.0002664025203 468.0 NaN 575.0140280561125 0.5205927863338895 106.0 0.0 57.0 
548.0002664025203 466.0 NaN 575.0033400133602 0.5068549789267437 106.0 0.0 57.0 
550.0002664025203 467.0 NaN 578.0921843687374 0.5010171054617611 107.0 0.0 58.0 
552.0002664025203 468.0 NaN 578.1082164328659 0.5279767088523726 107.0 0.0 58.0 
554.0002664025203 466.0 NaN 575.0033400133602 0.5120567405018238 104.0 0.0 57.0 
556.0002664025203 472.0 NaN 578.0734802939211 0.556007107587337 107.0 0.0 58.0 
558.0002664025203 458.0 NaN 578.0975283901137 0.5129032845312971 108.0 0.0 58.0 
560.0002664025203 456.0 NaN 578.0975283901137 0.5086372486207393 108.0 0.0 58.0 
562.0002664025203 453.0 NaN 571.9572478289914 0.5033985633024483 108.0 0.0 56.0 
564.0002664025203 454.0 NaN 571.9064796259185 0.5272355971964423 106.0 0.0 56.0 
566.0002664025203 450.0 NaN 568.8630594522376 0.5280295650265322 104.0 0.0 55.0 
568.0002664025203 448.0 NaN 568.8657314629261 0.4909273355350537 103.0 0.0 55.0 
570.0002664025203 452.0 NaN 571.9679358717433 0.4948747129169211 103.0 0.0 56.0 
572.0002664025203 456.0 NaN 575.0487641950568 0.5001142948140236 103.0 0.0 57.0 
574.0002664025203 454.0 NaN 575.0460921843686 0.5127478352038988 103.0 0.0 57.0 
576.0002664025203 455.0 NaN 578.0948563794254 0.5110852925800868 101.0 0.0 58.0 
578.0002664025203 457.0 NaN 575.0247160988644 0.4920886922147921 99.0 0.0 57.0 
580.0002664025203 466.0 NaN 578.0895123580497 0.5015904394572379 103.0 0.0 58.0 
582.0002664025203 465.0 NaN 575.0247160988644 0.5060656558225615 106.0 0.0 57.0 
584.0002664025203 463.0 NaN 575.0193720774884 0.5331310357673431 107.0 0.0 57.0 
586.0002664025203 463.0 NaN 575.0193720774884 0.5316885694400699 109.0 0.0 57.0 
588.0002664025203 454.0 NaN 575.0407481629927 0.5101489518184948 108.0 0.0 57.0 
590.0002664025203 457.0 NaN 581.2104208416833 0.5345057619136035 108.0 0.0 59.0 
592.0002664025203 448.0 NaN 581.1863727454909 0.49228235527104247 104.0 0.0 59.0 
594.0002664025203 451.0 NaN 581.1623246492987 0.5031440211159073 102.0 0.0 59.0 
596.0002664025203 464.0 NaN 581.1569806279227 0.5315272437559085 105.0 0.0 59.0 
598.0002664025203 458.0 NaN 581.1649966599863 0.5062518715257374 103.0 0.0 59.0 
600.0002664025203 466.0 NaN 581.1489645958584 0.5200766676235422 103.0 0.0 59.0 
602.0002664025203 462.0 NaN 584.1763527054112 0.5091399701953844 103.0 0.0 60.0 
604.0002664025203 460.0 NaN 584.187040748163 0.5249513338758758 104.0 0.0 60.0 
606.0002664025203 473.0 NaN 593.4428857715432 0.5280706251233153 108.0 0.0 63.0 
608.0002664025203 465.0 NaN 590.367401469606 0.5091087283637933 108.0 0.0 62.0 
610.0002664025203 471.0 NaN 590.3727454909817 0.49332373235456006 109.0 0.0 62.0 
612.0002664025203 485.0 NaN 593.4615898463591 0.5096328439740295 111.0 0.0 63.0 
614.0002664025203 484.0 NaN 593.4134936539748 0.5086111894170372 113.0 0.0 63.0 
616.0002664025203 490.0 NaN 599.5804943219773 0.5393348867421852 112.0 0.0 65.0 
618.0002664025203 478.0 NaN 599.5457581830325 0.5152906022087929 110.0 0.0 65.0 
620.0002664025203 482.0 NaN 599.5484301937206 0.5457605489742268 110.0 0.0 65.0 
622.0002664025203 482.0 NaN 599.6285905143617 0.535063830389819 112.0 0.0 65.0 
624.0002664025203 480.0 NaN 599.5885103540409 0.5134773183067428 114.0 0.0 65.0 
626.0002664025203 481.0 NaN 599.5671342685366 0.5305556030491364 114.0 0.0 65.0 
628.0002664025203 464.0 NaN 599.5724782899138 0.48886920088833197 114.0 0.0 65.0 
630.0002664025203 475.0 NaN 605.6753507014022 0.5280505930070735 117.0 0.0 67.0 
632.0002664025203 472.0 NaN 608.7374749499 0.5214974336258498 121.0 0.0 68.0 
634.0002664025203 468.0 NaN 605.659318637275 0.519714768641523 121.0 0.0 67.0 
636.0002664025203 482.0 NaN 614.9445557782227 0.4973324037287997 121.0 0.0 70.0 
638.0002664025203 483.0 NaN 615.0193720774885 0.4968960967692384 121.0 0.0 70.0 
640.0002664025203 490.0 NaN 611.882431529727 0.5201740353218391 122.0 0.0 69.0 
642.0002664025203 480.0 NaN 608.7668670674682 0.5280527712614104 122.0 0.0 68.0 
644.0002664025203 475.0 NaN 611.8289913159653 0.5027239420084195 124.0 0.0 69.0 
646.0002664025203 479.0 NaN 611.8209752839007 0.5560212581837221 127.0 0.0 69.0 
648.0002664025203 462.0 NaN 611.8049432197727 0.49891709615209967 126.0 0.0 69.0 
650.0002664025203 470.0 NaN 608.7214428857714 0.49642318433804733 128.0 0.0 68.0 
652.0002664025203 475.0 NaN 608.7695390781568 0.5430662967156153 128.0 0.0 68.0 
654.0002664025203 467.0 NaN 608.7882431529728 0.5192030674119413 126.0 0.0 68.0 
656.0002664025203 478.0 NaN 611.8877755511022 0.5410199463943284 129.0 0.0 69.0 
658.0002664025203 470.0 NaN 618.0494321977292 0.49001587945833497 130.0 0.0 71.0 
660.0002664025203 474.0 NaN 618.0200400801609 0.5100110798105556 127.0 0.0 71.0 
662.0002664025203 478.0 NaN 614.9792919171682 0.5268578148920269 124.0 0.0 70.0 
664.0002664025203 477.0 NaN 618.0173680694727 0.5039008836117509 125.0 0.0 71.0 
#####################################################################
# End of data export. Simulation finished at: 2019-03-07T00:33+0000 #
#####################################################################
