#####################################################################
# Alchemist log file - simulation started at: 2019-03-05T16:03+0000 #
#####################################################################
# seed = 3.0, bandwidth = 17782.79410038923, propagationDelay = 10.0, baserange = 316.2277660168379
#
# The columns have the following meaning: 
# time neighbor_count[Sum] <value>@neighbor_count[Sum] packet_size[Mean] mean_delay[Mean] crowd[Sum] overcrowded[Sum] risk[Sum] 
0.0 NaN NaN NaN NaN NaN NaN NaN 
2.0005923698108097 NaN NaN 4988.0 NaN 1497.0 0.0 1497.0 
4.00059236981081 NaN NaN 4988.0 NaN 1497.0 0.0 1497.0 
6.000084666035003 NaN NaN 4988.0 NaN 1497.0 0.0 1497.0 
8.00059236981081 NaN NaN 4988.0 NaN 1497.0 0.0 1497.0 
10.00033353340315 NaN NaN 4988.0 NaN 1497.0 0.0 1497.0 
12.00059236981081 49511.0 NaN 4993.309285237141 0.7367580826245812 1497.0 0.0 1497.0 
14.00059236981081 51292.0 NaN 4995.3213092852375 2.7186551166867106 1497.0 0.0 1497.0 
16.000084666035004 51292.0 NaN 4995.307949231797 4.71796211599371 1497.0 0.0 1497.0 
18.00059236981081 51292.0 NaN 4995.3159652638615 6.718655116686711 1497.0 0.0 1497.0 
20.00033353340315 51292.0 NaN 4995.310621242485 8.71796211599371 1497.0 0.0 1497.0 
22.00059236981081 51312.0 NaN 4995.3400133600535 7.8853938729531485 1497.0 0.0 1497.0 
24.00059236981081 51346.0 NaN 4995.048764195057 1.7403385399629931 1497.0 0.0 1497.0 
26.000084666035004 51346.0 NaN 4994.559786239145 3.73964601918737 1497.0 0.0 1497.0 
28.00059236981081 51346.0 NaN 4994.567802271209 5.740338539962993 1497.0 0.0 1497.0 
30.00033353340315 51346.0 NaN 4994.562458249833 7.7396460191873695 1497.0 0.0 1497.0 
32.00059236981081 51346.0 NaN 4994.575818303273 9.740338539962993 1497.0 0.0 1497.0 
34.00059236981081 51418.0 NaN 4993.645958583835 1.15539142177722 1495.0 2.0 1495.0 
36.00008466603501 51424.0 NaN 4993.755511022044 2.7701460034262246 1494.0 3.0 1494.0 
38.00059236981081 51424.0 NaN 4993.74749498998 4.770837566358452 1494.0 3.0 1494.0 
40.00033353340315 51424.0 NaN 4993.766199064797 6.770146003426225 1494.0 3.0 1494.0 
42.00059236981081 51407.0 NaN 4993.758183032732 8.734401306400672 1494.0 3.0 1494.0 
44.000516797705956 51427.0 NaN 4993.832999331998 7.916717680931573 1495.0 2.0 1495.0 
46.00008466603501 51496.0 NaN 4995.4175016700065 1.794498451295197 1496.0 1.0 1496.0 
48.00059236981081 51496.0 NaN 4994.952571810287 3.7951895362986523 1496.0 1.0 1496.0 
50.00033353340315 51496.0 NaN 4994.955243820976 5.794498451295197 1496.0 1.0 1496.0 
52.00059236981081 51480.0 NaN 4994.941883767535 7.786367894250453 1496.0 1.0 1496.0 
54.00059236981081 51450.0 NaN 4994.941883767535 9.77209753639508 1496.0 1.0 1496.0 
56.00008466603501 51539.0 NaN 4995.014028056112 1.2283826924908718 1497.0 0.0 1497.0 
58.00059236981081 51540.0 NaN 4994.797595190381 2.845094241893962 1497.0 0.0 1497.0 
60.00033353340315 51540.0 NaN 4994.805611222445 4.844404586721549 1497.0 0.0 1497.0 
62.00059236981081 51540.0 NaN 1522.3486973947906 6.845094241893962 838.0 0.0 365.0 
64.00059236981082 51440.0 NaN 1522.3486973947906 8.755899669980149 838.0 0.0 365.0 
66.00008466603501 51473.0 NaN 1522.4048096192366 7.920446769508191 796.0 0.0 365.0 
68.00059236981082 51587.0 NaN 1525.6486305945211 1.8132476987246005 669.0 0.0 366.0 
70.00033353340315 51587.0 NaN 1525.5390781563121 3.812557090989794 669.0 0.0 366.0 
72.00059236981082 51587.0 NaN 1525.5310621242481 5.8132476987246005 669.0 0.0 366.0 
74.00059236981082 51559.0 NaN 1525.5310621242481 7.7998227725774045 669.0 0.0 366.0 
76.00008466603501 51490.0 NaN 1525.5390781563121 9.754781503365837 671.0 0.0 366.0 
78.00059236981082 51646.0 NaN 1534.8563794255183 1.099756955911997 606.0 2.0 367.0 
80.00033353340315 51646.0 NaN 1534.5784903139613 3.002668450496608 606.0 2.0 367.0 
82.00059236981082 51646.0 NaN 1534.549098196391 5.0033581056690215 606.0 2.0 367.0 
84.00059236981082 51646.0 NaN 1534.543754175018 7.0033581056690215 606.0 2.0 367.0 
86.00008466603501 51561.0 NaN 1534.551770207082 8.937917400943627 606.0 2.0 367.0 
88.00059236981082 51617.0 NaN 1534.567802271209 6.381838068172557 587.0 7.0 362.0 
90.00033353340315 51697.0 NaN 1538.0334001335998 1.99465673432052 577.0 7.0 363.0 
92.00059236981082 51697.0 NaN 1537.8650634602548 3.9953468654454336 577.0 7.0 363.0 
94.00059236981082 51697.0 NaN 1537.8810955243816 5.995346865445434 577.0 7.0 363.0 
96.00008466603501 51668.0 NaN 1540.9699398797607 7.97672480581948 577.0 7.0 364.0 
98.00059236981082 51594.0 NaN 1540.9619238476937 9.936065897106722 577.0 7.0 364.0 
100.00033353340315 51679.0 NaN 1541.036740146961 1.0901326767258508 548.0 9.0 362.0 
102.00059236981082 51682.0 NaN 1540.7962591850362 2.990982628504077 548.0 9.0 362.0 
104.00059236981082 51682.0 NaN 1540.7855711422844 4.990982628504077 548.0 9.0 362.0 
106.00008466603501 51682.0 NaN 1540.7962591850362 6.990292497379164 547.0 9.0 362.0 
108.00059236981082 51607.0 NaN 1540.7828991315969 8.934310296727727 547.0 9.0 362.0 
110.00033353340315 51654.0 NaN 1540.8069472277905 6.385387073727056 541.0 10.0 361.0 
112.00059236981082 51738.0 NaN 1540.9806279225118 1.9983082596236286 541.0 6.0 365.0 
114.00059236981082 51738.0 NaN 1540.8149632598543 3.9983082596236286 541.0 6.0 365.0 
116.00008466603501 51738.0 NaN 1543.9091516366066 5.997617651888822 541.0 6.0 366.0 
118.00059236981082 51702.0 NaN 1543.8797595190367 7.9727284177957864 541.0 6.0 366.0 
120.00033353340315 51652.0 NaN 1543.890447561791 9.94796497517896 541.0 6.0 366.0 
122.00059236981082 51802.0 NaN 1553.3146292585184 1.1145777279574711 531.0 7.0 368.0 
124.00059236981082 51803.0 NaN 1553.1062124248483 3.0155271554301386 531.0 7.0 368.0 
126.00008466603501 51803.0 NaN 1550.0467601870391 5.014836547695332 531.0 7.0 367.0 
128.00059236981082 51803.0 NaN 1550.0467601870391 7.015527155430139 531.0 7.0 367.0 
130.00033353340314 51637.0 NaN 1550.0627922511699 8.93555663751837 531.0 7.0 367.0 
132.00059236981082 51685.0 NaN 1550.0708082832336 6.386501121424646 529.0 9.0 365.0 
134.00059236981082 51738.0 NaN 1550.2257849031391 1.999372795059506 532.0 6.0 368.0 
136.000084666035 51738.0 NaN 1547.0033400133607 3.9986821873246994 532.0 6.0 367.0 
138.00059236981082 51738.0 NaN 1543.9251837007364 5.999372795059506 532.0 6.0 366.0 
140.00033353340314 51697.0 NaN 1543.9519038076155 7.973839148462425 533.0 6.0 366.0 
142.00059236981082 51627.0 NaN 1540.8844355377425 9.942215451939562 531.0 6.0 365.0 
144.00059236981082 51726.0 NaN 1553.3253173012697 1.1029144121484389 531.0 6.0 369.0 
146.000084666035 51727.0 NaN 1553.159652638609 3.000941936953926 531.0 6.0 369.0 
148.00059236981082 51727.0 NaN 1543.9572478289908 5.001632544688732 531.0 6.0 366.0 
150.00033353340314 51727.0 NaN 1543.9652638610544 7.000941936953926 531.0 6.0 366.0 
152.00059236981082 51548.0 NaN 1543.938543754173 8.93204846835364 531.0 6.0 366.0 
154.00059236981082 51581.0 NaN 1540.8790915163659 6.372770692530914 529.0 9.0 362.0 
156.000084666035 51632.0 NaN 1543.90380761523 1.9861569097486373 528.0 7.0 365.0 
158.00059236981082 51632.0 NaN 1543.7488309953246 3.9868475174834437 528.0 7.0 365.0 
160.00033353340314 51632.0 NaN 1537.6325985303936 5.986156909748638 528.0 7.0 363.0 
162.00059236981082 51585.0 NaN 1537.62458249833 7.971490168782297 528.0 7.0 363.0 
164.00059236981082 51480.0 NaN 1537.62458249833 9.938564933441453 528.0 7.0 363.0 
166.000084666035 51614.0 NaN 1543.9919839679364 1.1214378815483041 528.0 6.0 366.0 
168.00059236981082 51615.0 NaN 1543.8263193052755 3.022838389882802 529.0 6.0 366.0 
170.00033353340314 51615.0 NaN 1543.8289913159638 5.022147782147996 528.0 7.0 365.0 
172.00059236981082 51615.0 NaN 1543.8209752838998 7.022838389882803 528.0 7.0 365.0 
174.00059236981082 51422.0 NaN 1543.8209752838998 8.96227663580651 528.0 7.0 365.0 
176.000084666035 51458.0 NaN 1546.9686038744157 6.422059468825004 523.0 10.0 363.0 
178.00059236981082 51506.0 NaN 1547.1743486973937 2.0495375655048695 527.0 7.0 366.0 
180.00033353340314 51506.0 NaN 1540.9218436873728 4.048846957770063 528.0 6.0 365.0 
182.00059236981082 51506.0 NaN 1537.8276553106207 6.0495375655048695 528.0 6.0 364.0 
184.00059236981082 51412.0 NaN 1534.7575150300609 8.007858723131928 528.0 6.0 363.0 
186.000084666035 51209.0 NaN 1534.784235136939 9.94436074783375 528.0 6.0 363.0 
188.00059236981082 51322.0 NaN 1537.902471609888 1.1276458136086132 527.0 6.0 364.0 
190.00033353340314 51322.0 NaN 1537.7047428189726 3.028110183279405 527.0 6.0 364.0 
192.00059236981082 51322.0 NaN 1534.6239144956576 5.0288012682828604 527.0 6.0 363.0 
194.00059236981082 51322.0 NaN 1534.6185704742816 7.0288012682828604 527.0 6.0 363.0 
196.000084666035 51088.0 NaN 1534.6292585170363 8.953960487256596 527.0 6.0 363.0 
198.00059236981082 51132.0 NaN 1534.6346025384091 6.403363707332143 526.0 7.0 362.0 
200.00033353340314 51210.0 NaN 1537.9505678022726 2.0363461661056124 527.0 6.0 364.0 
202.00059236981082 51210.0 NaN 1540.9031396125574 4.037037251109068 528.0 6.0 365.0 
204.00059236981082 51210.0 NaN 1540.8977955911816 6.0370372511090675 527.0 6.0 365.0 
206.000084666035 51148.0 NaN 1540.911155644621 8.001709913757685 527.0 6.0 365.0 
208.00059236981082 51002.0 NaN 1540.8977955911816 9.942328687579465 527.0 6.0 365.0 
210.00033353340314 51109.0 NaN 1541.002004008018 1.1089998635844074 525.0 8.0 363.0 
212.00059236981082 51112.0 NaN 1540.6519706078818 3.0113124842689234 525.0 8.0 363.0 
214.00059236981082 51112.0 NaN 1528.3794255177002 5.011312484268924 525.0 8.0 359.0 
216.000084666035 51112.0 NaN 1525.3333333333337 7.010620921336696 524.0 8.0 358.0 
218.00059236981082 50919.0 NaN 1525.3333333333337 8.944370497580175 524.0 8.0 358.0 
220.00033353340314 50946.0 NaN 1525.3841015364067 6.408075060978934 522.0 8.0 358.0 
222.00059236981082 50994.0 NaN 1531.7301269205088 2.0368667034357673 523.0 6.0 362.0 
224.00059236981082 50994.0 NaN 1528.5477621910482 4.036866703435767 523.0 6.0 361.0 
226.000084666035 50994.0 NaN 1528.5771543086184 6.03617514050354 523.0 6.0 361.0 
228.00059236981082 50931.0 NaN 1531.6472945891787 8.009292450168047 523.0 6.0 362.0 
230.00033353340314 50784.0 NaN 1531.6285905143634 9.966070500632618 524.0 6.0 362.0 
232.00059236981082 50931.0 NaN 1534.843019372079 1.195763381625815 520.0 6.0 363.0 
234.00059236981082 50934.0 NaN 1534.5918503674002 3.0999396123216374 520.0 6.0 363.0 
236.000084666035 50934.0 NaN 1534.5838343353362 5.09924804938941 520.0 6.0 363.0 
238.00059236981082 50934.0 NaN 1528.427521710088 7.099939612321637 519.0 6.0 361.0 
240.00033353340314 50729.0 NaN 1522.2738810955248 8.990073005301328 519.0 6.0 359.0 
242.00059236981082 50813.0 NaN 1528.4542418169665 6.453186616631912 517.0 7.0 360.0 
244.00059236981082 50939.0 NaN 1528.6813627254517 2.11956454086701 514.0 6.0 361.0 
246.000084666035 50939.0 NaN 1528.630594522379 4.118873455863555 514.0 6.0 361.0 
248.00059236981082 50939.0 NaN 1525.5364061456246 6.119564540867009 514.0 6.0 360.0 
250.00033353340314 50869.0 NaN 1525.5444221776906 8.072959446392819 513.0 6.0 360.0 
252.00059236981082 50709.0 NaN 1525.539078156312 9.966616383553752 513.0 6.0 360.0 
254.00059236981082 50867.0 NaN 1525.6245824983298 1.1538940303623084 512.0 6.0 360.0 
256.00008466603504 50867.0 NaN 1525.5096860387453 3.055356285992526 514.0 6.0 360.0 
258.0005923698108 50867.0 NaN 1522.4154976619911 5.056048327515017 514.0 6.0 359.0 
260.00033353340314 50867.0 NaN 1522.4101536406154 7.055356285992526 514.0 6.0 359.0 
262.0005923698108 50676.0 NaN 1525.4909819639272 8.942618705202378 514.0 6.0 360.0 
264.0005923698108 50720.0 NaN 1528.590514362057 6.378454413421175 515.0 8.0 359.0 
266.00008466603504 50807.0 NaN 1525.6432865731456 2.0277927334853323 515.0 7.0 359.0 
268.0005923698108 50807.0 NaN 1525.5310621242481 4.028485254260956 514.0 7.0 359.0 
270.00033353340314 50807.0 NaN 1522.468937875752 6.027792733485333 513.0 7.0 358.0 
272.0005923698108 50731.0 NaN 1522.439545758182 8.005382782606052 512.0 7.0 358.0 
274.0005923698108 50585.0 NaN 1525.493653974618 9.961257594619962 512.0 7.0 359.0 
276.00008466603504 50721.0 NaN 1534.8911155644637 1.1808984892069014 510.0 7.0 362.0 
278.0005923698108 50721.0 NaN 1540.7508350033388 3.085007775512784 509.0 8.0 363.0 
280.00033353340314 50721.0 NaN 1534.6132264529065 5.084315254737161 509.0 8.0 361.0 
282.0005923698108 50721.0 NaN 1534.605210420843 7.085007775512785 509.0 8.0 361.0 
284.0005923698108 50530.0 NaN 1534.5918503674002 8.984568560399028 509.0 8.0 361.0 
286.00008466603504 50583.0 NaN 1534.6399465597847 6.44350655257397 510.0 8.0 361.0 
288.0005923698108 50654.0 NaN 1537.867735470943 2.113352880774543 513.0 6.0 364.0 
290.00033353340314 50654.0 NaN 1534.661322645291 4.112660839252051 513.0 6.0 363.0 
292.0005923698108 50654.0 NaN 1525.450901803609 6.113352880774543 512.0 6.0 360.0 
294.0005923698108 50506.0 NaN 1525.450901803609 8.053702916151739 512.0 6.0 360.0 
296.00008466603504 50253.0 NaN 1525.5203740814975 9.968776499558437 510.0 6.0 360.0 
298.0005923698108 50353.0 NaN 1525.648630594521 1.1810194288406262 511.0 5.0 361.0 
300.00033353340314 50354.0 NaN 1528.4996659986634 3.0839718914176077 510.0 6.0 361.0 
302.0005923698108 50354.0 NaN 1525.4348697394794 5.084664892110609 510.0 6.0 360.0 
304.0005923698108 50354.0 NaN 1525.4455577822303 7.084664892110609 510.0 6.0 360.0 
306.00008466603504 50049.0 NaN 1525.4669338677363 8.966629469701827 509.0 6.0 360.0 
308.0005923698108 50085.0 NaN 1525.4348697394794 6.402871987708234 507.0 7.0 359.0 
310.00033353340314 50149.0 NaN 1528.6012024048089 2.0748633346504226 504.0 7.0 360.0 
312.0005923698108 50149.0 NaN 1528.4969939879752 4.075555376172915 504.0 7.0 360.0 
314.0005923698108 50149.0 NaN 1516.2004008016027 6.075555376172914 506.0 5.0 358.0 
316.00008466603504 50045.0 NaN 1516.2084168336667 8.030332303894017 506.0 5.0 358.0 
318.0005923698108 49827.0 NaN 1516.2057448229793 9.963129566486021 506.0 5.0 358.0 
320.00033353340314 49932.0 NaN 1525.573814295257 1.1678257432086991 503.0 7.0 359.0 
322.0005923698108 49933.0 NaN 1525.3413493653973 3.0717275565381676 504.0 7.0 359.0 
324.0005923698108 49933.0 NaN 1525.3760855043424 5.071727556538168 503.0 7.0 359.0 
326.00008466603504 49933.0 NaN 1525.3787575150297 7.0710355150156765 504.0 7.0 359.0 
328.0005923698108 49660.0 NaN 1525.3921175684704 8.968554341333164 504.0 7.0 359.0 
330.00033353340314 49698.0 NaN 1525.4268537074151 6.416235127545893 504.0 6.0 360.0 
332.0005923698108 49769.0 NaN 1525.4241816967274 2.0802047820873377 506.0 4.0 362.0 
334.0005923698108 49769.0 NaN 1522.268537074148 4.080204782087337 506.0 4.0 361.0 
336.00008466603504 49769.0 NaN 1519.209084836339 6.079512740564846 508.0 4.0 360.0 
338.0005923698108 49673.0 NaN 1519.187708750836 8.03829344930586 508.0 4.0 360.0 
340.00033353340314 49489.0 NaN 1516.104208416834 9.966376647961793 507.0 4.0 359.0 
342.0005923698108 49613.0 NaN 1525.5283901135608 1.184091390189927 503.0 7.0 359.0 
344.0005923698108 49616.0 NaN 1525.322645290582 3.0926500313355465 503.0 7.0 359.0 
346.00008466603504 49616.0 NaN 1525.3333333333337 5.091957510559923 504.0 7.0 359.0 
348.0005923698108 49616.0 NaN 1522.249832999333 7.0926500313355465 503.0 7.0 358.0 
350.00033353340314 49351.0 NaN 1525.3306613226455 8.979049016127862 504.0 7.0 359.0 
352.0005923698108 49421.0 NaN 1528.438209752839 6.426154899340693 505.0 6.0 361.0 
354.0005923698108 49525.0 NaN 1528.6466265865065 2.1037156185372172 508.0 4.0 363.0 
356.00008466603504 49525.0 NaN 1528.5771543086184 4.103022617844217 506.0 4.0 363.0 
358.0005923698108 49525.0 NaN 1522.4261857047431 6.103715618537217 506.0 4.0 361.0 
360.00033353340314 49449.0 NaN 1522.4101536406151 8.05527468146217 506.0 4.0 361.0 
362.0005923698108 49297.0 NaN 1522.3967935871733 9.970893379423169 507.0 4.0 361.0 
364.0005923698108 49387.0 NaN 1519.3480293921182 1.1725867829102714 505.0 7.0 357.0 
366.00008466603504 49390.0 NaN 1519.0941883767546 3.0775044025509986 505.0 7.0 357.0 
368.0005923698108 49390.0 NaN 1497.6112224448907 5.078197403243999 505.0 7.0 350.0 
370.00033353340314 49390.0 NaN 1497.6219104876425 7.077504402550998 505.0 7.0 350.0 
372.0005923698108 49183.0 NaN 1497.608550434201 8.958734383882929 505.0 7.0 350.0 
374.0005923698108 49239.0 NaN 1500.6973947895797 6.401446492274339 505.0 6.0 352.0 
376.00008466603504 49321.0 NaN 1503.9572478289908 2.0680144141079952 511.0 4.0 355.0 
378.0005923698108 49321.0 NaN 1503.8503674014705 4.068706934883618 511.0 4.0 355.0 
380.00033353340314 49321.0 NaN 1503.853039412157 6.068014414107995 511.0 4.0 355.0 
382.0005923698108 49251.0 NaN 1503.8450233800932 8.032624847937614 511.0 4.0 355.0 
384.0005923698108 49122.0 NaN 1503.839679358718 9.97358603985735 511.0 4.0 355.0 
386.00008466603504 49264.0 NaN 1519.289245156982 1.1764766647598728 508.0 8.0 356.0 
388.0005923698108 49266.0 NaN 1509.6860387441545 3.0841842858681194 507.0 9.0 352.0 
390.00033353340314 49266.0 NaN 1500.4836339345363 5.083493200864663 508.0 9.0 349.0 
392.0005923698108 49266.0 NaN 1503.5617902471615 7.084184285868119 509.0 8.0 351.0 
394.0005923698108 49049.0 NaN 1503.5404141616555 8.968996918595916 510.0 8.0 351.0 
396.00008466603504 49097.0 NaN 1506.666666666666 6.418393999880607 513.0 7.0 353.0 
398.0005923698108 49161.0 NaN 1510.0681362725456 2.082536764347575 516.0 4.0 357.0 
400.00033353340314 49161.0 NaN 1509.987975951903 4.08184567934412 516.0 4.0 357.0 
402.0005923698108 49161.0 NaN 1506.891115564463 6.082536764347575 517.0 4.0 356.0 
404.0005923698108 49080.0 NaN 1509.9799599198388 8.042663617283415 517.0 4.0 357.0 
406.00008466603504 48937.0 NaN 1509.9799599198388 9.967826334646471 517.0 5.0 356.0 
408.0005923698108 49064.0 NaN 1519.3400133600546 1.1950486151413977 513.0 8.0 356.0 
410.00033353340314 49066.0 NaN 1519.147628590515 3.10283292749287 513.0 8.0 356.0 
412.0005923698108 49066.0 NaN 1509.9265197060795 5.103524490425096 514.0 8.0 353.0 
414.0005923698108 49066.0 NaN 1509.9318637274544 7.103524490425096 513.0 8.0 353.0 
416.00008466603504 48809.0 NaN 1506.8643954575818 9.000975423648423 513.0 8.0 352.0 
418.0005923698108 48863.0 NaN 1509.9585838343362 6.45094243203419 513.0 7.0 354.0 
420.00033353340314 48966.0 NaN 1513.3146292585182 2.140786978552356 517.0 6.0 356.0 
422.0005923698108 48966.0 NaN 1510.1322645290575 4.141478541484583 517.0 6.0 355.0 
424.0005923698108 48966.0 NaN 1491.6953907815637 6.141478541484583 516.0 6.0 349.0 
426.00008466603504 48888.0 NaN 1491.6980627922514 8.075343421120404 518.0 5.0 350.0 
428.0005923698108 48739.0 NaN 1488.609218436873 9.966094307117803 518.0 5.0 349.0 
430.00033353340314 48907.0 NaN 1504.090848363393 1.1609471256404882 507.0 8.0 351.0 
432.0005923698108 48910.0 NaN 1500.7935871743482 3.067536511705432 506.0 7.0 351.0 
434.0005923698108 48910.0 NaN 1494.6479625918512 5.067536511705431 506.0 7.0 349.0 
436.00008466603504 48910.0 NaN 1500.785571142284 7.066843990929808 506.0 7.0 351.0 
438.0005923698108 48680.0 NaN 1503.8503674014705 8.958637538343332 508.0 7.0 352.0 
440.00033353340314 48741.0 NaN 1506.9766199064807 6.3807899897948746 509.0 6.0 354.0 
442.0005923698108 48828.0 NaN 1516.1790247161 2.0579586099449867 523.0 3.0 360.0 
444.0005923698108 48828.0 NaN 1516.0454241816976 4.057958609944986 523.0 3.0 360.0 
446.00008466603504 48828.0 NaN 1503.7595190380757 6.057266089169363 522.0 3.0 356.0 
448.0005923698108 48768.0 NaN 1513.0020040080174 8.027764167852931 522.0 3.0 359.0 
450.00033353340314 48650.0 NaN 1513.0020040080174 9.971831040422133 521.0 3.0 359.0 
452.0005923698108 48798.0 NaN 1531.7381429525726 1.2033360397158714 520.0 6.0 362.0 
454.0005923698108 48800.0 NaN 1528.3687374749486 3.1045960669517045 520.0 6.0 361.0 
456.00008466603504 48800.0 NaN 1528.355377421509 5.103903546176082 518.0 6.0 361.0 
458.0005923698108 48800.0 NaN 1528.3527054108213 7.1045960669517045 518.0 6.0 361.0 
460.00033353340314 48602.0 NaN 1528.3527054108213 8.992207844324918 518.0 6.0 361.0 
462.0005923698108 48639.0 NaN 1525.2879091516363 6.432350713300629 518.0 5.0 361.0 
464.0005923698108 48705.0 NaN 1528.4515698062796 2.1065972675282265 515.0 7.0 360.0 
466.00008466603504 48705.0 NaN 1525.2879091516363 4.105904266835226 516.0 7.0 359.0 
468.0005923698108 48705.0 NaN 1525.2852371409479 6.106597267528227 515.0 7.0 359.0 
470.00033353340314 48635.0 NaN 1528.3740814963267 8.051732273994704 515.0 7.0 360.0 
472.0005923698108 48512.0 NaN 1525.3012692050756 9.961848840975792 514.0 7.0 359.0 
474.0005923698108 48667.0 NaN 1525.4348697394796 1.1604236950142481 514.0 6.0 360.0 
476.00008466603504 48670.0 NaN 1525.1756847027384 3.0615313405537607 514.0 6.0 360.0 
478.0005923698108 48670.0 NaN 1512.9084836339355 5.062225784998206 511.0 6.0 356.0 
480.00033353340314 48670.0 NaN 1516.0053440213755 7.061531340553761 511.0 6.0 357.0 
482.0005923698108 48502.0 NaN 1512.9218436873737 8.959287162996441 511.0 6.0 356.0 
484.0005923698108 48576.0 NaN 1512.9485637942546 6.376379720425763 514.0 5.0 357.0 
486.00008466603504 48702.0 NaN 1516.267201068803 2.0433442554778063 515.0 4.0 359.0 
488.0005923698108 48702.0 NaN 1510.0280561122254 4.044037736753811 513.0 4.0 357.0 
490.00033353340314 48702.0 NaN 1500.825651302606 6.043344255477806 513.0 4.0 354.0 
492.0005923698108 48630.0 NaN 1497.7341349365392 7.998511780014667 513.0 4.0 353.0 
494.0005923698108 48514.0 NaN 1500.8096192384758 9.946784530157156 514.0 4.0 354.0 
496.00008466603504 48746.0 NaN 1506.9953239812971 1.1405802931001923 511.0 8.0 352.0 
498.0005923698108 48749.0 NaN 1506.6800267201081 3.0432786990846323 512.0 8.0 352.0 
500.00033353340314 48749.0 NaN 1494.391449565799 5.0425856983916315 512.0 8.0 348.0 
502.0005923698108 48749.0 NaN 1491.2945891783556 7.043278699084633 512.0 8.0 347.0 
504.0005923698108 48605.0 NaN 1491.2999331997337 8.972854865737022 512.0 8.0 347.0 
506.00008466603504 48717.0 NaN 1497.5230460921837 6.403701015177775 514.0 7.0 350.0 
508.0005923698108 48880.0 NaN 1500.9886439545749 2.0949442681635233 517.0 6.0 352.0 
510.00033353340314 48880.0 NaN 1500.9111556446212 4.094251267470523 517.0 6.0 352.0 
512.0005923698109 48880.0 NaN 1494.7414829659303 6.094944268163523 517.0 6.0 350.0 
514.0005923698109 48818.0 NaN 1494.720106880427 8.048053023287016 517.0 6.0 350.0 
516.000084666035 48712.0 NaN 1491.660654642618 9.97299363768429 517.0 7.0 348.0 
518.0005923698109 48879.0 NaN 1494.7949231796918 1.185218887831655 513.0 5.0 351.0 
520.0003335334031 48880.0 NaN 1494.5330661322637 3.0863997652981734 513.0 5.0 351.0 
522.0005923698109 48880.0 NaN 1476.0828323313283 5.087093246574179 513.0 5.0 345.0 
524.0005923698109 48880.0 NaN 1460.7267869071466 7.087093246574179 513.0 5.0 340.0 
526.000084666035 48729.0 NaN 1466.8991315965268 8.963737955765936 513.0 5.0 342.0 
528.0005923698109 48806.0 NaN 1469.9639278557102 6.373417636656419 512.0 6.0 342.0 
530.0003335334031 48922.0 NaN 1479.5056780227112 2.069039889169212 509.0 8.0 343.0 
532.0005923698109 48922.0 NaN 1473.2879091516363 4.069734333613656 510.0 8.0 341.0 
534.0005923698109 48922.0 NaN 1460.9832999332 6.069734333613656 509.0 8.0 337.0 
536.000084666035 48864.0 NaN 1464.0828323313285 8.027437425811337 510.0 8.0 338.0 
538.0005923698109 48781.0 NaN 1467.1182364729455 9.973156822296659 511.0 8.0 339.0 
540.0003335334031 48924.0 NaN 1473.2985971943897 1.1940412044707793 511.0 5.0 344.0 
542.0005923698109 48929.0 NaN 1476.0828323313285 3.1039678071697114 512.0 5.0 345.0 
544.0005923698109 48929.0 NaN 1476.0855043420179 5.103967807169711 514.0 5.0 345.0 
546.000084666035 48929.0 NaN 1476.0881763527063 7.103273362725266 513.0 5.0 345.0 
548.0005923698109 48762.0 NaN 1479.1823647294577 8.991479087108193 513.0 5.0 346.0 
550.0003335334031 48831.0 NaN 1488.4408817635274 6.388829464886149 510.0 5.0 349.0 
552.0005923698109 48942.0 NaN 1491.6179024716093 2.110198796636795 520.0 2.0 353.0 
554.0005923698109 48942.0 NaN 1494.5597862391455 4.110198796636794 520.0 2.0 354.0 
556.000084666035 48942.0 NaN 1482.287241148964 6.109505795943795 521.0 2.0 350.0 
558.0005923698109 48880.0 NaN 1482.2899131596535 8.052796982847786 522.0 2.0 350.0 
560.0003335334031 48789.0 NaN 1476.1576486305937 9.965150442078247 520.0 2.0 348.0 
562.0005923698109 49046.0 NaN 1482.5170340681366 1.161014892607924 517.0 3.0 349.0 
564.0005923698109 49051.0 NaN 1482.233800935203 3.0686437684317536 516.0 3.0 349.0 
566.000084666035 49051.0 NaN 1479.147628590515 5.067951726909262 515.0 4.0 347.0 
568.0005923698109 49051.0 NaN 1482.2391449565805 7.068643768431754 515.0 4.0 348.0 
570.0003335334031 48894.0 NaN 1482.233800935203 8.970905579921968 514.0 4.0 348.0 
572.0005923698109 48990.0 NaN 1482.2685370741476 6.382303502634934 515.0 5.0 347.0 
574.0005923698109 49150.0 NaN 1485.600534402137 2.111207034883709 518.0 3.0 350.0 
576.000084666035 49150.0 NaN 1494.7014028056103 4.110515471951483 517.0 3.0 353.0 
578.0005923698109 49150.0 NaN 1491.6205744822987 6.1112070348837095 518.0 3.0 352.0 
580.0003335334031 49056.0 NaN 1491.647294589179 8.061528064876786 517.0 3.0 352.0 
582.0005923698109 48934.0 NaN 1491.6579826319296 10.00416976005319 517.0 3.0 352.0 
584.0005923698109 49162.0 NaN 1491.7969271877091 1.2492068188447283 525.0 4.0 351.0 
586.000084666035 49168.0 NaN 1491.6259185036736 3.1601870961472587 526.0 4.0 351.0 
588.0005923698109 49168.0 NaN 1482.4342017368076 5.1608786590794855 525.0 4.0 348.0 
590.0003335334031 49168.0 NaN 1482.4529058116239 7.160187096147259 524.0 4.0 348.0 
592.0005923698109 48997.0 NaN 1485.5337341349364 8.979914416792166 525.0 4.0 349.0 
594.0005923698109 49081.0 NaN 1485.5230460921841 6.379281236315271 528.0 4.0 349.0 
596.000084666035 49204.0 NaN 1491.6579826319298 2.090871035478475 530.0 3.0 352.0 
598.0005923698109 49204.0 NaN 1485.3814295257182 4.091564516754481 530.0 3.0 350.0 
600.0003335334031 49204.0 NaN 1485.413493653974 6.090871035478475 531.0 3.0 350.0 
602.0005923698109 49092.0 NaN 1482.3246492985977 8.0497055001049 531.0 3.0 349.0 
604.0005923698109 48910.0 NaN 1482.3299933199728 9.966444262272 531.0 3.0 349.0 
606.000084666035 49166.0 NaN 1491.7301269205082 1.1779554299197217 524.0 5.0 350.0 
608.0005923698109 49170.0 NaN 1494.6773547094183 3.084980002512802 524.0 5.0 351.0 
610.0003335334031 49170.0 NaN 1488.537074148297 5.084286039986778 524.0 5.0 349.0 
612.0005923698109 49170.0 NaN 1482.3647294589182 7.084980002512801 523.0 5.0 347.0 
614.0005923698109 48965.0 NaN 1482.3433533734126 8.980908404471975 523.0 5.0 347.0 
616.000084666035 49055.0 NaN 1482.3887775551095 6.3962548286723635 526.0 4.0 348.0 
618.0005923698109 49203.0 NaN 1482.412825651302 2.107942268212666 526.0 3.0 349.0 
620.0003335334031 49203.0 NaN 1485.3841015364071 4.1072483056866425 527.0 3.0 350.0 
622.0005923698109 49203.0 NaN 1485.3600534402149 6.107942268212666 528.0 3.0 350.0 
624.0005923698109 49119.0 NaN 1482.2952571810283 8.058852046347353 528.0 2.0 350.0 
626.000084666035 48972.0 NaN 1485.3841015364071 9.974758750062048 529.0 2.0 351.0 
628.0005923698109 49157.0 NaN 1507.0995323981283 1.204209035035813 533.0 2.0 358.0 
630.0003335334031 49162.0 NaN 1506.9873079492334 3.107423824665545 532.0 3.0 357.0 
632.0005923698109 49162.0 NaN 1503.9331997328 5.108118269109989 532.0 3.0 356.0 
634.0005923698109 49162.0 NaN 1503.9118236472937 7.10811826910999 531.0 3.0 356.0 
636.000084666035 48913.0 NaN 1503.9038076152294 8.985117621894082 531.0 3.0 356.0 
638.0005923698109 48985.0 NaN 1513.1489645958575 6.402375142871983 530.0 4.0 358.0 
640.0003335334031 49102.0 NaN 1522.5277221108893 2.112111306487873 524.0 4.0 361.0 
642.0005923698109 49102.0 NaN 1522.4315297261182 4.112805750932317 524.0 4.0 361.0 
644.0005923698109 49102.0 NaN 1513.231796927189 6.112805750932317 524.0 4.0 358.0 
646.000084666035 49027.0 NaN 1513.253173012691 8.057620304464724 524.0 4.0 358.0 
648.0005923698109 48880.0 NaN 1516.3473613894453 9.971134404589462 526.0 4.0 359.0 
650.0003335334031 49046.0 NaN 1522.5410821643281 1.1940177820788231 525.0 4.0 361.0 
652.0005923698109 49048.0 NaN 1522.2979291917172 3.0984098932245034 524.0 4.0 361.0 
654.0005923698109 49048.0 NaN 1522.2925851703394 5.098409893224503 525.0 4.0 361.0 
656.000084666035 49048.0 NaN 1522.2845691382756 7.0977154487800584 525.0 4.0 361.0 
658.0005923698109 48829.0 NaN 1528.4622578490303 8.986131554249939 527.0 4.0 363.0 
660.0003335334031 48936.0 NaN 1531.529726118906 6.413556207451895 525.0 4.0 364.0 
662.0005923698109 49086.0 NaN 1537.8303273213091 2.1121183438138105 522.0 3.0 367.0 
664.0005923698109 49086.0 NaN 1534.661322645291 4.112118343813811 523.0 3.0 366.0 
#####################################################################
# End of data export. Simulation finished at: 2019-03-05T16:16+0000 #
#####################################################################
