#####################################################################
# Alchemist log file - simulation started at: 2019-03-07T00:09+0000 #
#####################################################################
# seed = 4.0, bandwidth = 2.3713737056616552E7, propagationDelay = 0.001, baserange = 177.82794100389228
#
# The columns have the following meaning: 
# time neighbor_count[Sum] <value>@neighbor_count[Sum] packet_size[Mean] mean_delay[Mean] crowd[Sum] overcrowded[Sum] risk[Sum] 
0.0 NaN NaN NaN NaN NaN NaN NaN 
2.0004793365590676 26546.0 NaN 4996.066800267201 0.5001938342333787 1496.0 1.0 1496.0 
4.00042902272939 26548.0 NaN 4995.022044088177 0.5001929662308933 1496.0 1.0 1496.0 
6.000479336559067 26548.0 NaN 4994.102872411489 0.5001929706190444 1496.0 1.0 1496.0 
8.000479336559067 26552.0 NaN 4994.613226452906 0.5001944497123538 1495.0 2.0 1495.0 
10.000479336559067 26556.0 NaN 4995.139612558451 0.5002232905440922 1496.0 1.0 1496.0 
12.000479336559067 26558.0 NaN 4994.522378089512 0.5003056292179346 1496.0 1.0 1496.0 
14.00042902272939 26554.0 NaN 4994.078824315297 0.5001985921931802 1497.0 0.0 1497.0 
16.000479336559067 26568.0 NaN 4994.359385437542 0.5005237836908727 1497.0 0.0 1497.0 
18.000479336559067 26572.0 NaN 4994.73079492318 0.5010332483351544 1497.0 0.0 1497.0 
20.000479336559067 26576.0 NaN 4995.604542418169 0.5026799631190563 1497.0 0.0 1497.0 
22.000479336559067 26567.0 NaN 4994.733466933868 0.4999871371572764 1496.0 1.0 1496.0 
24.000429022729392 26566.0 NaN 4994.583834335337 0.4999222192537726 1496.0 1.0 1496.0 
26.000479336559067 26609.0 NaN 4994.666666666667 0.5016143950243356 1496.0 1.0 1496.0 
28.000479336559067 26607.0 NaN 4995.551102204408 0.5010536459891658 1496.0 1.0 1496.0 
30.000479336559067 26605.0 NaN 4995.727454909819 0.5000722741919489 1496.0 1.0 1496.0 
32.00047933655907 26614.0 NaN 4995.104876419506 0.5025998434067382 1497.0 0.0 1497.0 
34.00042902272939 26609.0 NaN 4994.338009352037 0.5021043722449041 1497.0 0.0 1497.0 
36.00047933655907 26645.0 NaN 4994.71743486974 0.501476722028925 1496.0 1.0 1496.0 
38.00047933655907 26630.0 NaN 4995.056780227121 0.5013094101016745 1495.0 2.0 1495.0 
40.00047933655907 26632.0 NaN 4996.101536406146 0.501003671640659 1496.0 1.0 1496.0 
42.00047933655907 26625.0 NaN 4995.238476953908 0.5011026038926589 1496.0 1.0 1496.0 
44.00042902272939 26625.0 NaN 4994.810955243821 0.5026326732178495 1495.0 2.0 1495.0 
46.00047933655907 26668.0 NaN 4994.602538410154 0.5012908778765951 1496.0 1.0 1496.0 
48.00047933655907 26672.0 NaN 4995.185036740147 0.5017543255771509 1496.0 1.0 1496.0 
50.00047933655907 26664.0 NaN 4995.74081496326 0.5012949280935621 1494.0 3.0 1494.0 
52.00047933655907 26647.0 NaN 4995.246492985972 0.5031061501679117 1495.0 2.0 1495.0 
54.00042902272939 26640.0 NaN 4994.567802271209 0.5000421624666845 1494.0 3.0 1494.0 
56.00047933655907 26664.0 NaN 4995.040748162993 0.5011528061369601 1496.0 1.0 1496.0 
58.00047933655907 26650.0 NaN 4995.08617234469 0.5016679045964243 1497.0 0.0 1497.0 
60.00047933655907 26648.0 NaN 4992.6466265865065 0.5012470415576614 1497.0 0.0 1496.0 
62.00047933655907 26647.0 NaN 1522.3139612558455 0.5009967302789735 773.0 0.0 365.0 
64.00042902272939 26647.0 NaN 1522.5303941215757 0.49895481708546896 618.0 1.0 364.0 
66.00047933655907 26692.0 NaN 1525.3947895791575 0.49966858003181225 582.0 3.0 363.0 
68.00047933655907 26715.0 NaN 1525.6513026052094 0.4998633687698212 546.0 3.0 363.0 
70.00047933655907 26728.0 NaN 1525.485637942552 0.5008369535277618 526.0 8.0 358.0 
72.00047933655907 26757.0 NaN 1528.753507014027 0.5019871305269182 528.0 3.0 364.0 
74.00042902272939 26750.0 NaN 1531.7167668670666 0.49921285745683774 526.0 2.0 366.0 
76.00047933655907 26769.0 NaN 1531.7488309953246 0.499542589750355 527.0 4.0 364.0 
78.00047933655907 26787.0 NaN 1534.8430193720787 0.5003598863788334 525.0 4.0 365.0 
80.00047933655907 26785.0 NaN 1537.8944555778212 0.5008403598626634 524.0 4.0 366.0 
82.00047933655907 26789.0 NaN 1537.9104876419515 0.5037359602276612 526.0 3.0 367.0 
84.00042902272939 26772.0 NaN 1538.0387441549758 0.5025932491655962 525.0 4.0 366.0 
86.00047933655907 26770.0 NaN 1538.012024048097 0.4996126160762924 525.0 3.0 367.0 
88.00047933655907 26777.0 NaN 1538.1482965931848 0.49998775376931626 523.0 4.0 366.0 
90.00047933655907 26797.0 NaN 1538.1349365397452 0.49988071540177736 524.0 4.0 366.0 
92.00047933655907 26800.0 NaN 1538.0227120908482 0.505066689139685 527.0 1.0 369.0 
94.00042902272939 26743.0 NaN 1537.8944555778212 0.49995223263337374 527.0 1.0 369.0 
96.00047933655907 26751.0 NaN 1537.9345357381428 0.4996972106220421 525.0 3.0 367.0 
98.00047933655907 26764.0 NaN 1537.763527054109 0.5003723630214537 524.0 4.0 366.0 
100.00047933655907 26764.0 NaN 1540.825651302606 0.49986183827641373 524.0 3.0 368.0 
102.00047933655907 26754.0 NaN 1540.8042752171 0.5031558308193935 524.0 4.0 367.0 
104.00042902272939 26716.0 NaN 1540.7775551102184 0.49970179463628533 525.0 2.0 369.0 
106.00047933655907 26746.0 NaN 1540.9325317301273 0.5011620036894332 526.0 1.0 370.0 
108.00047933655907 26793.0 NaN 1541.098196392785 0.500745482864001 524.0 4.0 367.0 
110.00047933655907 26807.0 NaN 1541.1008684034728 0.5006787323220613 525.0 2.0 369.0 
112.00047933655907 26770.0 NaN 1541.1810287241155 0.5039365414020462 524.0 4.0 367.0 
114.00042902272939 26746.0 NaN 1541.0581162324638 0.50088506488063 527.0 1.0 370.0 
116.00047933655907 26747.0 NaN 1541.0955243820977 0.5006050866199683 526.0 2.0 369.0 
118.00047933655907 26758.0 NaN 1547.1903807615245 0.5014970100132079 524.0 4.0 369.0 
120.00047933655907 26759.0 NaN 1550.3112892451568 0.5021875375362559 524.0 6.0 368.0 
122.00047933655907 26703.0 NaN 1550.1108884435546 0.5021938255856422 525.0 5.0 369.0 
124.00042902272939 26674.0 NaN 1550.1616566466275 0.5001865719115663 527.0 3.0 371.0 
126.00047933655907 26691.0 NaN 1550.1322645290575 0.5010638964103654 527.0 3.0 371.0 
128.00047933655907 26683.0 NaN 1547.0781563126272 0.5026647199008752 527.0 3.0 370.0 
130.00047933655907 26672.0 NaN 1547.1315965263848 0.50154919734619 525.0 3.0 370.0 
132.00047933655907 26670.0 NaN 1544.1015364061454 0.5018968426399827 520.0 6.0 366.0 
134.0004290227294 26656.0 NaN 1540.9485637942544 0.5012426545729888 524.0 3.0 368.0 
136.00047933655907 26658.0 NaN 1541.0955243820974 0.5011062398488634 524.0 2.0 369.0 
138.00047933655907 26638.0 NaN 1544.2084168336667 0.5003365002521002 522.0 2.0 370.0 
140.00047933655907 26668.0 NaN 1541.2130928523725 0.5023883519463241 519.0 4.0 367.0 
142.00047933655907 26676.0 NaN 1547.4014696058787 0.5026284334070649 521.0 2.0 371.0 
144.0004290227294 26647.0 NaN 1550.4849699398817 0.5002940533784294 525.0 0.0 374.0 
146.00047933655907 26632.0 NaN 1547.436205744824 0.5003338813082648 525.0 0.0 373.0 
148.00047933655907 26639.0 NaN 1553.613894455579 0.5005057006630886 523.0 1.0 374.0 
150.00047933655907 26658.0 NaN 1553.5390781563121 0.500586739085656 522.0 1.0 374.0 
152.00047933655907 26651.0 NaN 1550.4529058116243 0.5009183338150478 521.0 3.0 371.0 
154.0004290227294 26637.0 NaN 1544.2137608550454 0.5006820502211324 519.0 2.0 370.0 
156.00047933655907 26636.0 NaN 1544.2511690046756 0.5025223191740876 518.0 2.0 370.0 
158.00047933655907 26614.0 NaN 1544.1442885771546 0.5022346369096767 520.0 1.0 371.0 
160.00047933655907 26641.0 NaN 1544.0988643954574 0.5019452717747303 521.0 1.0 371.0 
162.00047933655907 26606.0 NaN 1544.0561122244485 0.5031338497038397 517.0 4.0 368.0 
164.0004290227294 26546.0 NaN 1544.1416165664664 0.5019297465891044 517.0 3.0 369.0 
166.00047933655907 26548.0 NaN 1544.1897127588516 0.5013024499908443 517.0 2.0 370.0 
168.00047933655907 26544.0 NaN 1544.2645290581181 0.5025106991888184 519.0 0.0 372.0 
170.00047933655907 26559.0 NaN 1544.2137608550452 0.5012108844831028 518.0 2.0 370.0 
172.00047933655907 26527.0 NaN 1544.2351369405455 0.5024138566846539 516.0 4.0 368.0 
174.0004290227294 26507.0 NaN 1538.0066800267182 0.5005231697416848 514.0 4.0 366.0 
176.00047933655907 26514.0 NaN 1541.1756847027384 0.5007543082260589 516.0 4.0 367.0 
178.00047933655907 26513.0 NaN 1541.0875083500339 0.5027744101774482 514.0 6.0 365.0 
180.00047933655907 26514.0 NaN 1541.074148296591 0.5016275832206099 515.0 6.0 365.0 
182.00047933655907 26472.0 NaN 1537.947895791582 0.5039589769975933 513.0 5.0 365.0 
184.0004290227294 26439.0 NaN 1537.9024716098882 0.5037955851161707 513.0 6.0 364.0 
186.00047933655907 26439.0 NaN 1541.0100200400818 0.5013542530346157 510.0 8.0 363.0 
188.00047933655907 26438.0 NaN 1537.9372077488301 0.5031521833094972 513.0 5.0 365.0 
190.00047933655907 26440.0 NaN 1534.8617234468934 0.5013882651910193 511.0 7.0 362.0 
192.00047933655907 26410.0 NaN 1538.0601202404819 0.5015392220484726 511.0 6.0 364.0 
194.0004290227294 26377.0 NaN 1538.0173680694727 0.5055612893597345 511.0 6.0 364.0 
196.00047933655907 26363.0 NaN 1538.0734802939207 0.5021567704820601 511.0 7.0 363.0 
198.00047933655907 26351.0 NaN 1538.0040080160334 0.5017583205196763 509.0 8.0 362.0 
200.00047933655907 26349.0 NaN 1538.030728122912 0.5046752101710346 512.0 6.0 364.0 
202.00047933655907 26315.0 NaN 1544.0587842351363 0.5007286374277187 512.0 6.0 366.0 
204.0004290227294 26298.0 NaN 1547.1903807615245 0.5005044210719505 512.0 8.0 365.0 
206.00047933655907 26304.0 NaN 1544.0400801603203 0.5052056690200571 513.0 5.0 367.0 
208.00047933655907 26284.0 NaN 1537.985303941216 0.5022679303748842 514.0 5.0 365.0 
210.00047933655907 26262.0 NaN 1534.7815631262545 0.5049675703061942 511.0 5.0 364.0 
212.00047933655907 26232.0 NaN 1538.022712090848 0.5015238145409984 513.0 5.0 365.0 
214.0004290227294 26208.0 NaN 1540.911155644621 0.505512777417135 512.0 5.0 366.0 
216.00047933655907 26215.0 NaN 1538.0627922511699 0.5051050273732515 512.0 5.0 365.0 
218.00047933655907 26188.0 NaN 1537.969271877088 0.502368779831988 507.0 6.0 364.0 
220.00047933655907 26181.0 NaN 1538.0093520374091 0.5043419055748557 506.0 8.0 362.0 
222.00047933655907 26140.0 NaN 1534.8857715430852 0.5027143851989867 506.0 7.0 362.0 
224.0004290227294 26104.0 NaN 1534.835003340012 0.5038555986073469 506.0 8.0 361.0 
226.00047933655907 26098.0 NaN 1537.8303273213091 0.5013610295624835 507.0 6.0 364.0 
228.00047933655907 26079.0 NaN 1544.0641282565118 0.5013862869321726 510.0 6.0 366.0 
230.00047933655907 26062.0 NaN 1544.0347361389454 0.5034000855855818 507.0 8.0 364.0 
232.00047933655907 26035.0 NaN 1544.2725450901817 0.5026624316917468 509.0 6.0 366.0 
234.0004290227294 26013.0 NaN 1547.2251169004662 0.5014479404031512 507.0 7.0 366.0 
236.00047933655907 26017.0 NaN 1541.173012692052 0.501909422942919 508.0 6.0 365.0 
238.00047933655907 25998.0 NaN 1541.0714762859066 0.5013963358054158 507.0 6.0 365.0 
240.00047933655907 26038.0 NaN 1538.030728122912 0.5100397237420763 510.0 4.0 366.0 
242.00047933655907 26005.0 NaN 1534.8617234468934 0.501941307441114 507.0 5.0 364.0 
244.0004290227294 25972.0 NaN 1534.8911155644635 0.5009265756217649 510.0 5.0 364.0 
246.00047933655907 25985.0 NaN 1534.888443553773 0.5023353855544689 509.0 5.0 364.0 
248.00047933655907 25965.0 NaN 1534.9044756179023 0.5045790095542284 509.0 5.0 364.0 
250.00047933655907 25943.0 NaN 1534.8590514362063 0.5019593948757084 508.0 6.0 363.0 
252.00047933655907 25923.0 NaN 1531.7835671342698 0.5027877792305111 508.0 6.0 362.0 
254.0004290227294 25895.0 NaN 1528.6492985971938 0.5009924915459825 504.0 8.0 359.0 
256.00047933655907 25898.0 NaN 1528.7855711422844 0.5030190947481271 510.0 5.0 362.0 
258.00047933655907 25848.0 NaN 1528.7535070140273 0.503576040786204 507.0 7.0 360.0 
260.00047933655907 25822.0 NaN 1528.7962591850362 0.5015718158952224 511.0 5.0 362.0 
262.00047933655907 25814.0 NaN 1528.8203072812275 0.5029906220415806 509.0 6.0 361.0 
264.0004290227294 25777.0 NaN 1528.8550434201727 0.5015439846835884 509.0 7.0 360.0 
266.00047933655907 25782.0 NaN 1544.1897127588522 0.5028025528428532 504.0 9.0 363.0 
268.00047933655907 25726.0 NaN 1544.1843687374726 0.5032413260521765 504.0 10.0 362.0 
270.00047933655907 25726.0 NaN 1541.0634602538423 0.5037234462419282 506.0 7.0 364.0 
272.00047933655907 25656.0 NaN 1534.885771543085 0.5025807691789296 505.0 8.0 361.0 
274.0004290227294 25625.0 NaN 1534.8109552438207 0.5010723109951206 504.0 7.0 362.0 
276.00047933655907 25655.0 NaN 1538.0200400801612 0.5027280812663677 507.0 7.0 363.0 
278.00047933655907 25638.0 NaN 1540.9298597194386 0.5016591265879357 507.0 5.0 366.0 
280.00047933655907 25645.0 NaN 1540.8790915163656 0.5032220084583418 510.0 5.0 366.0 
282.00047933655907 25662.0 NaN 1540.7401469605886 0.5047700999876508 511.0 5.0 366.0 
284.0004290227294 25624.0 NaN 1534.7067468269884 0.5012052228498983 511.0 5.0 364.0 
286.00047933655907 25662.0 NaN 1534.7975951903818 0.5026829821793324 509.0 5.0 364.0 
288.00047933655907 25624.0 NaN 1534.904475617902 0.502344657654131 508.0 6.0 363.0 
290.00047933655907 25603.0 NaN 1531.78356713427 0.5051934862018507 504.0 6.0 362.0 
292.00047933655907 25592.0 NaN 1531.7862391449548 0.5042355453604457 506.0 6.0 362.0 
294.0004290227294 25548.0 NaN 1537.9024716098884 0.5011444112047847 505.0 6.0 364.0 
296.00047933655907 25580.0 NaN 1537.9853039412162 0.5012524676448664 506.0 6.0 364.0 
298.00047933655907 25561.0 NaN 1540.9512358049456 0.501349335869975 503.0 8.0 363.0 
300.00047933655907 25536.0 NaN 1541.0126920507662 0.5006506933164537 501.0 10.0 361.0 
302.00047933655907 25529.0 NaN 1537.93720774883 0.5027660785965913 503.0 7.0 363.0 
304.0004290227294 25505.0 NaN 1537.9265197060793 0.5025998378511211 504.0 5.0 365.0 
306.00047933655907 25516.0 NaN 1534.925851703409 0.5023695680213532 504.0 5.0 364.0 
308.00047933655907 25475.0 NaN 1531.8503674014703 0.5042960386120781 504.0 5.0 363.0 
310.00047933655907 25457.0 NaN 1531.7087508350025 0.5021560256140518 502.0 5.0 363.0 
312.00047933655907 25434.0 NaN 1534.8456913827638 0.5020351520740349 507.0 2.0 367.0 
314.0004290227294 25415.0 NaN 1534.7521710086817 0.5023446480996305 509.0 2.0 367.0 
316.00047933655907 25420.0 NaN 1534.8029392117546 0.5045219226929921 510.0 2.0 367.0 
318.00047933655907 25375.0 NaN 1534.8323313293272 0.502150008016422 508.0 3.0 366.0 
320.00047933655907 25379.0 NaN 1534.8403473613907 0.5023945098219433 507.0 4.0 365.0 
322.00047933655907 25368.0 NaN 1531.8610554442212 0.5025623578564287 505.0 5.0 363.0 
324.0004290227294 25339.0 NaN 1531.7915831663333 0.5022240314286152 507.0 3.0 365.0 
326.00047933655907 25326.0 NaN 1531.7969271877091 0.5059554357377393 506.0 4.0 364.0 
328.00047933655907 25310.0 NaN 1534.8296593186362 0.501715291639973 509.0 1.0 368.0 
330.00047933655907 25319.0 NaN 1528.7454909819635 0.5012836331373436 506.0 2.0 365.0 
332.00047933655907 25319.0 NaN 1528.6519706078816 0.5006959333052102 503.0 5.0 362.0 
334.0004290227294 25289.0 NaN 1534.8082832331334 0.4995714572202009 506.0 4.0 365.0 
336.00047933655907 25306.0 NaN 1525.6005344021366 0.5013669106843488 509.0 1.0 365.0 
338.00047933655907 25301.0 NaN 1525.5631262525062 0.5019733951069417 509.0 1.0 365.0 
340.00047933655907 25307.0 NaN 1525.573814295257 0.5004667427390012 511.0 0.0 366.0 
342.00047933655907 25301.0 NaN 1525.573814295257 0.5025232578275359 512.0 1.0 365.0 
344.0004290227294 25285.0 NaN 1531.6793587174361 0.5025253366773537 516.0 0.0 368.0 
346.00047933655907 25322.0 NaN 1534.8697394789576 0.503019910323763 515.0 1.0 368.0 
348.00047933655907 25299.0 NaN 1531.7408149632606 0.5022514965908659 514.0 1.0 367.0 
350.00047933655907 25303.0 NaN 1525.6032064128267 0.5010751066171367 513.0 1.0 365.0 
352.00047933655907 25300.0 NaN 1525.541750167 0.5020638717016864 516.0 1.0 365.0 
354.0004290227294 25274.0 NaN 1525.6352705410818 0.5019653819478767 513.0 3.0 363.0 
356.00047933655907 25281.0 NaN 1525.694054776218 0.5016841832323921 514.0 1.0 365.0 
358.00047933655907 25255.0 NaN 1525.750167000667 0.5011386960716012 513.0 2.0 364.0 
360.00047933655907 25257.0 NaN 1525.552438209754 0.5032137701199444 515.0 0.0 366.0 
362.00047933655907 25257.0 NaN 1525.5444221776902 0.502513352639556 515.0 2.0 364.0 
364.0004290227294 25226.0 NaN 1525.4589178356723 0.5030614735326268 513.0 3.0 363.0 
366.00047933655907 25231.0 NaN 1516.224448897797 0.5023724756547251 515.0 1.0 362.0 
368.00047933655907 25222.0 NaN 1510.1135604542424 0.5017963913409227 516.0 0.0 361.0 
370.00047933655907 25202.0 NaN 1506.9819639278546 0.5030093631380331 517.0 1.0 359.0 
372.00047933655907 25187.0 NaN 1510.1242484969932 0.5056944214829069 516.0 1.0 360.0 
374.0004290227294 25130.0 NaN 1507.0567802271205 0.5024882107762974 517.0 2.0 358.0 
376.00047933655907 25146.0 NaN 1507.0541082164334 0.5037459420124776 517.0 1.0 359.0 
378.00047933655907 25145.0 NaN 1507.177020708082 0.5022651407812051 518.0 2.0 358.0 
380.00047933655907 25122.0 NaN 1507.0193720774887 0.505210869390205 520.0 1.0 359.0 
382.00047933655907 25111.0 NaN 1510.1189044756184 0.5059997576583406 517.0 1.0 360.0 
384.0004290227294 25041.0 NaN 1513.0447561790252 0.5009261142892052 517.0 1.0 361.0 
386.00047933655907 25073.0 NaN 1516.2778891115554 0.5012850928682125 518.0 2.0 361.0 
388.00047933655907 25078.0 NaN 1516.2645290581174 0.5008311010173354 519.0 1.0 362.0 
390.00047933655907 25078.0 NaN 1510.257849031397 0.5025199760387119 519.0 2.0 359.0 
392.00047933655907 25061.0 NaN 1510.2952571810279 0.5065753844730629 518.0 1.0 360.0 
394.0004290227294 24993.0 NaN 1510.2952571810279 0.5017119409027945 516.0 2.0 359.0 
396.00047933655907 25009.0 NaN 1513.4856379425523 0.5077983342635335 517.0 2.0 360.0 
398.00047933655907 25006.0 NaN 1507.2919171676697 0.5051661356347529 520.0 1.0 359.0 
400.00047933655907 24994.0 NaN 1504.0828323313283 0.5030778611378205 520.0 1.0 358.0 
402.00047933655907 24983.0 NaN 1510.2765531062116 0.5045456576229695 520.0 2.0 359.0 
404.0004290227294 24929.0 NaN 1510.1857047428182 0.5022517649297059 522.0 0.0 361.0 
406.00047933655907 24961.0 NaN 1510.231128924516 0.5031414535209476 522.0 1.0 360.0 
408.00047933655907 24963.0 NaN 1513.277221108884 0.5040076017950219 523.0 0.0 362.0 
410.00047933655907 24963.0 NaN 1516.4008016032067 0.503425572913735 521.0 2.0 361.0 
412.00047933655907 24952.0 NaN 1522.5971943887787 0.5055307795968564 523.0 0.0 365.0 
414.0004290227294 24896.0 NaN 1522.5490981963915 0.5027073855341624 522.0 1.0 364.0 
416.00047933655907 24905.0 NaN 1519.5644622578484 0.5024721049165732 523.0 2.0 362.0 
418.00047933655907 24903.0 NaN 1513.338677354709 0.5015063936972631 517.0 3.0 359.0 
420.00047933655907 24886.0 NaN 1510.3967935871735 0.5027091406740931 513.0 4.0 357.0 
422.00047933655907 24877.0 NaN 1513.3787575150293 0.502377015259167 514.0 4.0 358.0 
424.0004290227294 24837.0 NaN 1510.3486973947902 0.5033247891799321 517.0 3.0 358.0 
426.00047933655907 24858.0 NaN 1510.3967935871738 0.502005357450029 513.0 4.0 357.0 
428.00047933655907 24846.0 NaN 1513.378757515029 0.5008918007866034 515.0 3.0 359.0 
430.00047933655907 24851.0 NaN 1507.2304609218443 0.5018319353526566 523.0 2.0 358.0 
432.00047933655907 24836.0 NaN 1513.384101536407 0.5031232303008218 525.0 0.0 362.0 
434.0004290227294 24809.0 NaN 1519.3453573814281 0.5032279828396771 527.0 0.0 364.0 
436.00047933655907 24822.0 NaN 1522.4983299933187 0.5008106489155769 526.0 0.0 365.0 
438.00047933655907 24823.0 NaN 1525.5257181028728 0.502169504954873 526.0 1.0 365.0 
440.00047933655907 24819.0 NaN 1528.582498329993 0.5045067111541397 528.0 0.0 367.0 
442.00047933655907 24818.0 NaN 1525.4883099532392 0.5019291899080774 529.0 0.0 366.0 
444.0004290227294 24812.0 NaN 1525.584502338009 0.5024970281756438 528.0 0.0 366.0 
446.00047933655907 24830.0 NaN 1519.3987975951911 0.5015419230321002 526.0 1.0 363.0 
448.00047933655907 24825.0 NaN 1537.9505678022724 0.5028617865391801 523.0 4.0 366.0 
450.00047933655907 24852.0 NaN 1547.1877087508362 0.5043537065211746 528.0 1.0 372.0 
452.00047933655907 24865.0 NaN 1550.1990647962602 0.5037692147166728 525.0 3.0 371.0 
454.0004290227294 24835.0 NaN 1550.142952571809 0.5013606930910495 525.0 3.0 371.0 
456.00047933655907 24846.0 NaN 1550.1589846359366 0.5042177763064695 525.0 1.0 373.0 
458.00047933655907 24838.0 NaN 1550.1563126252515 0.5023615101151756 525.0 1.0 373.0 
460.00047933655907 24859.0 NaN 1547.0567802271207 0.5019849352418864 523.0 2.0 371.0 
462.00047933655907 24868.0 NaN 1543.9839679358727 0.5039855770833456 523.0 0.0 372.0 
464.0004290227294 24842.0 NaN 1544.0374081496336 0.5059296628970724 524.0 0.0 372.0 
466.00047933655907 24847.0 NaN 1544.0561122244485 0.5033156961560965 525.0 1.0 371.0 
468.00047933655907 24831.0 NaN 1544.061456245827 0.5034276281493375 522.0 3.0 369.0 
470.00047933655907 24831.0 NaN 1543.9973279893115 0.5011705229232056 525.0 1.0 371.0 
472.00047933655907 24834.0 NaN 1540.8523714094847 0.5024593626722038 524.0 2.0 369.0 
474.0004290227294 24835.0 NaN 1531.5190380761542 0.5014832854134132 518.0 4.0 364.0 
476.00047933655907 24837.0 NaN 1522.3112892451566 0.5023903216000482 519.0 2.0 363.0 
478.00047933655907 24835.0 NaN 1522.2845691382756 0.502015327864681 522.0 0.0 365.0 
480.00047933655907 24859.0 NaN 1525.5043420173665 0.5019824625595615 520.0 1.0 365.0 
482.00047933655907 24843.0 NaN 1525.4615898463608 0.5040288289600843 520.0 1.0 365.0 
484.0004290227294 24844.0 NaN 1525.541750167 0.5012825281647965 519.0 1.0 365.0 
486.00047933655907 24909.0 NaN 1513.1810287241158 0.5024118412613809 516.0 2.0 360.0 
488.00047933655907 24890.0 NaN 1507.1262525050092 0.5027884760952537 517.0 0.0 360.0 
490.00047933655907 24885.0 NaN 1491.6579826319296 0.5023210551656583 515.0 1.0 354.0 
492.00047933655907 24868.0 NaN 1491.7381429525724 0.5029001837142577 511.0 2.0 353.0 
494.0004290227294 24857.0 NaN 1494.8136272545091 0.5020838446025943 511.0 0.0 356.0 
496.00047933655907 24898.0 NaN 1494.8350033400122 0.5020705737160084 508.0 0.0 356.0 
498.00047933655907 24898.0 NaN 1491.7461589846364 0.5017940049576515 508.0 0.0 355.0 
500.00047933655907 24902.0 NaN 1482.7067468269881 0.5044873406817941 513.0 0.0 352.0 
502.00047933655907 24880.0 NaN 1482.5116900467608 0.5038597677794445 512.0 1.0 351.0 
504.0004290227294 24859.0 NaN 1485.7421509686028 0.5017559134559451 512.0 1.0 352.0 
506.00047933655907 24909.0 NaN 1494.899131596527 0.5017536045970055 510.0 5.0 351.0 
508.00047933655907 24902.0 NaN 1485.6726786907154 0.5029092095566031 511.0 2.0 351.0 
510.00047933655907 24894.0 NaN 1491.7381429525724 0.5015198388043599 514.0 0.0 355.0 
512.000479336559 24939.0 NaN 1491.7488309953249 0.5037707743987776 512.0 2.0 353.0 
514.0004290227293 24920.0 NaN 1479.4255177020718 0.5033180801518597 514.0 1.0 350.0 
516.000479336559 24962.0 NaN 1476.355377421509 0.5024729305330714 512.0 1.0 349.0 
518.000479336559 24953.0 NaN 1460.9913159652635 0.5045452332371939 511.0 1.0 344.0 
520.000479336559 24964.0 NaN 1461.087508350034 0.5024650546584272 512.0 0.0 345.0 
522.000479336559 24977.0 NaN 1461.002004008017 0.5042550942305899 508.0 2.0 343.0 
524.0004290227293 24969.0 NaN 1464.211088844355 0.5041167787660921 503.0 4.0 342.0 
526.000479336559 24991.0 NaN 1454.9044756179019 0.5055584910071916 502.0 4.0 339.0 
528.000479336559 24993.0 NaN 1451.9519038076157 0.5034357221536303 501.0 3.0 339.0 
530.000479336559 25027.0 NaN 1451.885103540415 0.5027302773451937 506.0 0.0 342.0 
532.000479336559 25003.0 NaN 1461.1462925851708 0.5028886151639624 505.0 1.0 344.0 
534.0004290227293 24993.0 NaN 1461.031396125584 0.502438847864354 502.0 1.0 344.0 
536.000479336559 25004.0 NaN 1458.012024048097 0.5019170747303426 503.0 3.0 341.0 
538.000479336559 24991.0 NaN 1461.0981963927848 0.5054795657304435 502.0 4.0 341.0 
540.000479336559 24980.0 NaN 1464.1790247160995 0.5029747788485095 504.0 4.0 342.0 
542.000479336559 24960.0 NaN 1470.287241148964 0.5037012530831726 503.0 5.0 343.0 
544.0004290227293 24943.0 NaN 1473.2959251837003 0.5021293651594029 507.0 3.0 346.0 
546.000479336559 24967.0 NaN 1470.1857047428186 0.5036817932949318 509.0 1.0 347.0 
548.000479336559 24939.0 NaN 1467.1796927187715 0.5023240833079625 511.0 1.0 346.0 
550.000479336559 24943.0 NaN 1467.2171008684031 0.5007574502335864 512.0 1.0 346.0 
552.000479336559 24963.0 NaN 1467.2705410821638 0.5026784980115939 509.0 2.0 345.0 
554.0004290227293 24964.0 NaN 1467.3587174348702 0.5014356922287772 510.0 1.0 346.0 
556.000479336559 24991.0 NaN 1467.342685370742 0.5038868196366362 509.0 3.0 344.0 
558.000479336559 24963.0 NaN 1467.398797595191 0.5018363325104344 508.0 4.0 343.0 
560.000479336559 24985.0 NaN 1458.2044088176362 0.5027160969146244 502.0 4.0 340.0 
562.000479336559 24982.0 NaN 1458.0040080160322 0.5027217315211934 502.0 5.0 339.0 
564.0004290227293 24985.0 NaN 1458.0280561122242 0.5031724665448164 505.0 1.0 343.0 
566.000479336559 25015.0 NaN 1461.0554442217772 0.5051481899169177 505.0 3.0 342.0 
568.000479336559 24992.0 NaN 1482.6052104208422 0.5049190938463094 510.0 0.0 352.0 
570.000479336559 24980.0 NaN 1482.5784903139615 0.5045492401309659 508.0 2.0 350.0 
572.000479336559 24963.0 NaN 1479.4682698730805 0.5047716560663288 508.0 2.0 349.0 
574.0004290227293 24977.0 NaN 1476.3580494321986 0.5044285475384023 505.0 3.0 347.0 
576.000479336559 25025.0 NaN 1482.5330661322641 0.504020037613642 506.0 1.0 351.0 
578.000479336559 24988.0 NaN 1479.593854375418 0.502781337762621 509.0 1.0 350.0 
580.000479336559 25012.0 NaN 1485.6272545090183 0.5036875676306566 507.0 3.0 350.0 
582.000479336559 25004.0 NaN 1485.7688710754837 0.505521556030452 505.0 3.0 350.0 
584.0004290227293 24994.0 NaN 1488.7401469605886 0.5028318146154829 507.0 1.0 353.0 
586.000479336559 25065.0 NaN 1485.645958583835 0.5015861474697504 515.0 1.0 352.0 
588.000479336559 25079.0 NaN 1485.7287909151637 0.5020291552163009 519.0 0.0 353.0 
590.000479336559 25096.0 NaN 1488.7855711422837 0.5031483658615842 521.0 0.0 354.0 
592.000479336559 25082.0 NaN 1488.7748830995333 0.5042778138472436 522.0 0.0 354.0 
594.0004290227293 25084.0 NaN 1491.7702070808275 0.5029062359256977 524.0 0.0 355.0 
596.000479336559 25100.0 NaN 1488.8016032064122 0.5034210883509584 529.0 0.0 354.0 
598.000479336559 25073.0 NaN 1488.7374749499 0.5038943355936057 527.0 0.0 354.0 
600.000479336559 25096.0 NaN 1491.828991315965 0.5026019076830185 528.0 1.0 354.0 
602.000479336559 25123.0 NaN 1500.9752839011362 0.5031702355930264 530.0 1.0 357.0 
604.0004290227293 25142.0 NaN 1497.9078156312635 0.5022918941946451 529.0 1.0 356.0 
606.000479336559 25172.0 NaN 1500.9111556446214 0.5064060248674814 527.0 1.0 357.0 
608.000479336559 25155.0 NaN 1507.1636606546438 0.5044616588475797 525.0 1.0 359.0 
610.000479336559 25189.0 NaN 1513.2558450233807 0.5057109201767974 525.0 1.0 361.0 
612.000479336559 25217.0 NaN 1510.2257849031384 0.5042491822984682 526.0 1.0 360.0 
614.0004290227293 25190.0 NaN 1507.1636606546435 0.5052298269608777 526.0 1.0 359.0 
616.000479336559 25168.0 NaN 1507.0941883767546 0.5040286865032082 526.0 1.0 359.0 
618.000479336559 25126.0 NaN 1504.133600534401 0.5012371736657194 526.0 1.0 358.0 
620.000479336559 25172.0 NaN 1513.3947895791575 0.5050208762724638 523.0 4.0 358.0 
622.000479336559 25193.0 NaN 1525.6219104876425 0.5049910806996901 528.0 0.0 366.0 
624.0004290227293 25179.0 NaN 1522.5784903139618 0.5034930978190616 525.0 0.0 365.0 
626.000479336559 25201.0 NaN 1525.7261189044748 0.5052121199796858 526.0 0.0 366.0 
628.000479336559 25129.0 NaN 1525.6726786907152 0.5036030495213881 527.0 0.0 366.0 
630.000479336559 25150.0 NaN 1519.4896459585827 0.5037412608160325 523.0 0.0 364.0 
632.000479336559 25138.0 NaN 1522.5090180360728 0.5062715516165498 521.0 1.0 364.0 
634.0004290227293 25109.0 NaN 1519.3426853707424 0.5009814599095709 521.0 1.0 363.0 
636.000479336559 25194.0 NaN 1522.4956579826332 0.5043599361760078 527.0 1.0 364.0 
638.000479336559 25144.0 NaN 1519.3827655310627 0.5034861142548068 529.0 2.0 362.0 
640.000479336559 25151.0 NaN 1522.4983299933192 0.5041768118352129 529.0 1.0 364.0 
642.000479336559 25122.0 NaN 1525.5791583166342 0.5039255178734883 531.0 1.0 365.0 
644.0004290227293 25116.0 NaN 1522.5036740146968 0.5032874581305516 528.0 1.0 364.0 
646.000479336559 25158.0 NaN 1519.529726118906 0.5028958077640504 526.0 1.0 363.0 
648.000479336559 25116.0 NaN 1525.7822311289253 0.5017775806303018 524.0 1.0 365.0 
650.000479336559 25118.0 NaN 1522.6907147628576 0.5040864824636835 517.0 5.0 360.0 
652.000479336559 25115.0 NaN 1525.6726786907152 0.5023459226734993 520.0 3.0 363.0 
654.0004290227293 25098.0 NaN 1525.5283901135615 0.5031530137727322 520.0 2.0 364.0 
656.000479336559 25102.0 NaN 1534.7895791583173 0.5043620716796584 521.0 0.0 369.0 
658.000479336559 25051.0 NaN 1544.0668002671998 0.5011625427560142 518.0 2.0 370.0 
660.000479336559 25056.0 NaN 1544.1416165664657 0.5040082524440187 519.0 0.0 372.0 
662.000479336559 25043.0 NaN 1544.2378089512365 0.5044038306763263 518.0 0.0 372.0 
664.0004290227293 24986.0 NaN 1541.0714762859059 0.5005913341569836 515.0 2.0 369.0 
#####################################################################
# End of data export. Simulation finished at: 2019-03-07T00:23+0000 #
#####################################################################
