#####################################################################
# Alchemist log file - simulation started at: 2019-03-21T19:18+0000 #
#####################################################################
# seed = 9.0, bandwidth = 2.3713737056616552E7, propagationDelay = 0.0031622776601683794, baserange = 316.2277660168379
#
# The columns have the following meaning: 
# time neighbor_count[Sum] <value>@neighbor_count[Sum] packet_size[Mean] mean_delay[Mean] crowd[Sum] overcrowded[Sum] risk[Sum] 
0.0 NaN NaN NaN NaN NaN NaN NaN 
2.0003374459614243 51288.0 NaN 4995.967935871743 0.49941916899217076 1497.0 0.0 1497.0 
4.000337445961424 51288.0 NaN 4994.458249832999 0.4994193360129562 1497.0 0.0 1497.0 
6.000337445961424 51288.0 NaN 4993.9532398129595 0.499419310837695 1496.0 1.0 1496.0 
8.000337445961424 51288.0 NaN 4994.300601202405 0.49941928601596136 1496.0 1.0 1496.0 
10.000337445961424 51290.0 NaN 4995.230460921844 0.49943606895537523 1496.0 1.0 1496.0 
12.000337445961424 51290.0 NaN 4994.284569138276 0.49943608638231207 1497.0 0.0 1497.0 
14.000337445961424 51291.0 NaN 4993.9719438877755 0.4994365164744357 1497.0 0.0 1497.0 
16.000337445961424 51297.0 NaN 4994.060120240481 0.49993509843818046 1497.0 0.0 1497.0 
18.000337445961424 51298.0 NaN 4994.917835671343 0.5015601775604674 1497.0 0.0 1497.0 
20.000337445961424 51322.0 NaN 4995.735470941884 0.4997252625751825 1497.0 0.0 1497.0 
22.000337445961424 51328.0 NaN 4994.859051436206 0.499633926026206 1497.0 0.0 1497.0 
24.000337445961424 51325.0 NaN 4994.228456913827 0.4996098127966359 1497.0 0.0 1497.0 
26.000337445961424 51334.0 NaN 4994.482297929192 0.49943706154315926 1496.0 1.0 1496.0 
28.000337445961424 51343.0 NaN 4995.169004676019 0.49999305748282763 1496.0 1.0 1496.0 
30.000337445961424 51384.0 NaN 4995.97327989312 0.49941935243117586 1497.0 0.0 1497.0 
32.00033744596142 51394.0 NaN 4994.591850367401 0.4998170473977933 1497.0 0.0 1497.0 
34.00033744596142 51371.0 NaN 4993.814295257181 0.49998988792549787 1497.0 0.0 1497.0 
36.00033744596142 51358.0 NaN 4994.137608550434 0.4995587830279409 1496.0 1.0 1496.0 
38.00033744596142 51357.0 NaN 4994.939211756847 0.5026526776432941 1496.0 1.0 1496.0 
40.00033744596142 51383.0 NaN 4996.080160320641 0.4998638147729718 1496.0 1.0 1496.0 
42.00033744596142 51377.0 NaN 4995.2919171676685 0.49997759839371775 1497.0 0.0 1497.0 
44.00033744596142 51354.0 NaN 4994.450233800935 0.5000177772963103 1497.0 0.0 1497.0 
46.00033744596142 51350.0 NaN 4994.380761523046 0.4993876525270224 1497.0 0.0 1497.0 
48.00033744596142 51362.0 NaN 4994.98997995992 0.5000153595707798 1496.0 1.0 1496.0 
50.00033744596142 51384.0 NaN 4996.192384769539 0.5016584153825564 1496.0 1.0 1496.0 
52.00033744596142 51376.0 NaN 4995.2785571142285 0.501553413697167 1497.0 0.0 1497.0 
54.00033744596142 51351.0 NaN 4994.637274549098 0.4997133507651543 1497.0 0.0 1497.0 
56.00033744596142 51351.0 NaN 4994.776219104877 0.4997457208063818 1496.0 1.0 1496.0 
58.00033744596142 51371.0 NaN 4995.144956579827 0.5005030063583039 1497.0 0.0 1497.0 
60.00033744596142 51398.0 NaN 4995.850367401469 0.5002187787748674 1496.0 1.0 1496.0 
62.0002219556907 51432.0 NaN 1522.4048096192369 0.5012241179304936 766.0 3.0 362.0 
64.0002219556907 51441.0 NaN 1522.4128256513027 0.49989163044701923 622.0 6.0 359.0 
66.0002219556907 51448.0 NaN 1522.4448897795608 0.4995275901994424 575.0 7.0 358.0 
68.0002219556907 51463.0 NaN 1525.6325985303936 0.5008465629002808 544.0 4.0 362.0 
70.0002219556907 51473.0 NaN 1525.5390781563121 0.49967853520669697 531.0 5.0 361.0 
72.0002219556907 51475.0 NaN 1525.5818303273209 0.5005620752464248 526.0 7.0 359.0 
74.0002219556907 51473.0 NaN 1531.7995991983973 0.5002032662674398 522.0 8.0 360.0 
76.0002219556907 51460.0 NaN 1534.7548430193729 0.5010668972449309 526.0 7.0 362.0 
78.0002219556907 51469.0 NaN 1534.7922511690058 0.49958822039625456 523.0 8.0 361.0 
80.0002219556907 51461.0 NaN 1534.6960587842364 0.4997902461102657 521.0 8.0 361.0 
82.0002219556907 51464.0 NaN 1534.7040748163001 0.5003108123052331 521.0 8.0 361.0 
84.0002219556907 51453.0 NaN 1537.6993987975939 0.49911049465163115 521.0 8.0 362.0 
86.0002219556907 51492.0 NaN 1537.7581830327333 0.49914087105469235 518.0 9.0 361.0 
88.0002219556907 51538.0 NaN 1537.8036072144275 0.4992709237148409 520.0 8.0 362.0 
90.0002219556907 51542.0 NaN 1537.8971275885092 0.49971760826458456 521.0 7.0 363.0 
92.0002219556907 51527.0 NaN 1537.8223112892456 0.4998019050576167 520.0 8.0 362.0 
94.0002219556907 51516.0 NaN 1537.7661990647969 0.4993268231369989 519.0 9.0 361.0 
96.0002219556907 51542.0 NaN 1537.731462925852 0.5000090330422543 519.0 8.0 362.0 
98.0002219556907 51549.0 NaN 1537.6539746158996 0.49981273727164843 520.0 7.0 363.0 
100.0002219556907 51529.0 NaN 1537.7100868403456 0.5014279701700157 521.0 7.0 363.0 
102.0002219556907 51495.0 NaN 1540.9164996659997 0.5001475221313741 521.0 7.0 364.0 
104.0002219556907 51484.0 NaN 1541.0527722110905 0.49929858810971056 519.0 8.0 363.0 
106.0002219556907 51506.0 NaN 1541.0447561790247 0.49925992916814516 519.0 8.0 363.0 
108.0002219556907 51514.0 NaN 1541.1890447561793 0.49987680564111536 516.0 10.0 361.0 
110.0002219556907 51494.0 NaN 1541.1382765531064 0.5010443949137426 520.0 7.0 364.0 
112.0002219556907 51471.0 NaN 1541.0634602538419 0.49965230342820527 519.0 8.0 363.0 
114.0002219556907 51496.0 NaN 1540.9886439545753 0.49959769537389076 520.0 7.0 364.0 
116.0002219556907 51528.0 NaN 1546.9792919171666 0.5006349473846792 521.0 8.0 365.0 
118.0002219556907 51527.0 NaN 1550.0574482297911 0.4999385810306219 522.0 7.0 367.0 
120.0002219556907 51510.0 NaN 1550.0654642618572 0.49994183122628205 521.0 8.0 366.0 
122.0002219556907 51508.0 NaN 1550.1616566466275 0.5011418795370965 523.0 7.0 367.0 
124.0002219556907 51502.0 NaN 1550.2872411489634 0.499773978456833 522.0 8.0 366.0 
126.0002219556907 51529.0 NaN 1547.337341349364 0.5005258679961923 522.0 8.0 365.0 
128.0002219556907 51501.0 NaN 1547.2224448897819 0.5006081329268344 522.0 8.0 365.0 
130.0002219556907 51461.0 NaN 1544.109552438209 0.5004798182357298 523.0 7.0 365.0 
132.0002219556907 51456.0 NaN 1544.0774883099546 0.4998191329797438 522.0 8.0 364.0 
134.0002219556907 51464.0 NaN 1540.9352037408153 0.49989262292193604 522.0 7.0 364.0 
136.0002219556907 51479.0 NaN 1543.9893119572478 0.5000717113190165 516.0 8.0 364.0 
138.0002219556907 51473.0 NaN 1543.9973279893118 0.500950617558437 519.0 7.0 365.0 
140.0002219556907 51437.0 NaN 1543.9679358717453 0.5008864890941538 518.0 8.0 364.0 
142.0002219556907 51418.0 NaN 1540.9512358049453 0.500647207889806 517.0 7.0 364.0 
144.0002219556907 51407.0 NaN 1540.921843687373 0.500036982623128 516.0 8.0 363.0 
146.0002219556907 51399.0 NaN 1544.069472277891 0.5002026274440662 516.0 7.0 365.0 
148.0002219556907 51389.0 NaN 1543.9572478289908 0.5009499529579146 514.0 9.0 363.0 
150.0002219556907 51342.0 NaN 1537.9318637274544 0.5011167754731529 516.0 7.0 363.0 
152.0002219556907 51343.0 NaN 1537.8864395457576 0.5000957142701946 516.0 7.0 363.0 
154.0002219556907 51350.0 NaN 1537.9425517702089 0.5002893890340823 517.0 7.0 363.0 
156.0002219556907 51322.0 NaN 1534.8937875751517 0.50039771809313 518.0 7.0 362.0 
158.0002219556907 51290.0 NaN 1534.8697394789576 0.5009462313432036 514.0 7.0 362.0 
160.0002219556907 51241.0 NaN 1534.8911155644637 0.5006235331650577 514.0 7.0 362.0 
162.0002219556907 51252.0 NaN 1534.909819639279 0.500250265388854 514.0 7.0 362.0 
164.0002219556907 51231.0 NaN 1541.0100200400818 0.5007428655301424 514.0 7.0 364.0 
166.0002219556907 51185.0 NaN 1540.847027388109 0.5009933446406272 514.0 7.0 364.0 
168.0002219556907 51159.0 NaN 1543.9492317969275 0.5018136368031253 514.0 8.0 364.0 
170.0002219556907 51097.0 NaN 1543.9358717434882 0.5007378928351337 515.0 8.0 364.0 
172.0002219556907 51089.0 NaN 1540.9832999332002 0.5006211854697209 517.0 6.0 365.0 
174.0002219556907 51061.0 NaN 1538.0494321977274 0.5012596952918117 517.0 6.0 364.0 
176.0002219556907 51004.0 NaN 1538.1563126252518 0.5002086831094937 517.0 6.0 364.0 
178.0002219556907 51001.0 NaN 1541.3119572478274 0.5008166150637505 517.0 6.0 365.0 
180.0002219556907 50964.0 NaN 1535.1823647294573 0.5000797896578207 517.0 6.0 363.0 
182.0002219556907 50969.0 NaN 1532.0908483633934 0.5008648235610784 515.0 6.0 362.0 
184.0002219556907 50968.0 NaN 1535.000668002673 0.5006932252881418 513.0 6.0 363.0 
186.0002219556907 50923.0 NaN 1531.8663994656 0.50058018154518 513.0 6.0 362.0 
188.0002219556907 50904.0 NaN 1528.5958583834338 0.501165078737657 513.0 6.0 361.0 
190.0002219556907 50895.0 NaN 1528.5344021376093 0.5012182839612062 513.0 6.0 361.0 
192.0002219556907 50891.0 NaN 1531.5965263861062 0.5008478071055011 513.0 6.0 362.0 
194.0002219556907 50882.0 NaN 1531.6392785571152 0.5006181218798204 513.0 6.0 362.0 
196.0002219556907 50845.0 NaN 1531.700734802939 0.5003619366118958 513.0 6.0 362.0 
198.0002219556907 50840.0 NaN 1531.890447561791 0.500173664119736 514.0 6.0 362.0 
200.0002219556907 50824.0 NaN 1534.9498997996002 0.5002661617901709 514.0 7.0 362.0 
202.0002219556907 50813.0 NaN 1538.017368069473 0.5014903555900798 513.0 8.0 362.0 
204.0002219556907 50786.0 NaN 1537.9986639946546 0.500645815675111 511.0 9.0 361.0 
206.0002219556907 50748.0 NaN 1537.977287909152 0.49992471429416263 512.0 8.0 362.0 
208.0002219556907 50753.0 NaN 1537.9104876419517 0.49959516234657403 508.0 9.0 361.0 
210.0002219556907 50748.0 NaN 1537.9345357381428 0.49917954737881304 508.0 9.0 361.0 
212.0002219556907 50758.0 NaN 1534.7922511690058 0.5010459334890324 510.0 9.0 360.0 
214.0002219556907 50720.0 NaN 1534.8750835003343 0.4993552755130695 511.0 8.0 361.0 
216.0002219556907 50691.0 NaN 1534.714762859052 0.49905300739099934 507.0 9.0 360.0 
218.0002219556907 50688.0 NaN 1534.7094188376752 0.501386102450387 509.0 8.0 361.0 
220.0002219556907 50651.0 NaN 1537.6806947227792 0.5015735106828876 510.0 8.0 362.0 
222.0002219556907 50631.0 NaN 1534.5945223780907 0.49978951273165784 512.0 7.0 362.0 
224.0002219556907 50623.0 NaN 1534.4822979291907 0.4995528540197895 509.0 8.0 361.0 
226.0002219556907 50606.0 NaN 1534.6212424849703 0.502693780588364 511.0 7.0 362.0 
228.0002219556907 50586.0 NaN 1534.6506346025367 0.5012259190065462 508.0 8.0 361.0 
230.0002219556907 50554.0 NaN 1534.888443553773 0.5008086298388708 507.0 8.0 361.0 
232.0002219556907 50607.0 NaN 1537.9986639946546 0.5008098401013459 505.0 9.0 361.0 
234.0002219556907 50581.0 NaN 1541.2585170340699 0.501063977297107 508.0 7.0 364.0 
236.0002219556907 50545.0 NaN 1541.0901803607208 0.4995566857477574 507.0 8.0 363.0 
238.0002219556907 50564.0 NaN 1541.0527722110908 0.49984625357984186 508.0 7.0 364.0 
240.0002219556907 50566.0 NaN 1531.7087508350028 0.5027732771112361 509.0 8.0 360.0 
242.0002219556907 50564.0 NaN 1531.6553106212427 0.5003130527069578 509.0 7.0 361.0 
244.0002219556907 50574.0 NaN 1531.5484301937208 0.5003550436134825 507.0 9.0 359.0 
246.0002219556907 50527.0 NaN 1531.5938543754182 0.4990726934156312 508.0 8.0 360.0 
248.0002219556907 50545.0 NaN 1531.572478289912 0.500303264615007 508.0 8.0 360.0 
250.0002219556907 50513.0 NaN 1531.6766867067456 0.499347441846329 509.0 7.0 361.0 
252.0002219556907 50514.0 NaN 1534.7762191048755 0.4995115880240228 508.0 8.0 361.0 
254.0002219556907 50529.0 NaN 1534.8056112224456 0.5000384243733983 510.0 7.0 362.0 
256.00022195569073 50508.0 NaN 1531.6152304609209 0.4994752017268034 509.0 8.0 360.0 
258.00022195569073 50512.0 NaN 1531.6152304609209 0.5017960037419607 511.0 7.0 361.0 
260.00022195569073 50465.0 NaN 1528.4649298597183 0.5012441879097099 508.0 8.0 359.0 
262.00022195569073 50421.0 NaN 1531.5030060120246 0.5003598044461062 509.0 7.0 361.0 
264.00022195569073 50419.0 NaN 1534.5090180360728 0.5009095653750786 508.0 8.0 361.0 
266.00022195569073 50374.0 NaN 1537.5604542418182 0.5006360711289337 509.0 8.0 362.0 
268.00022195569073 50361.0 NaN 1534.5410821643275 0.5016668428521541 510.0 7.0 362.0 
270.00022195569073 50324.0 NaN 1528.4969939879754 0.5039680859374427 508.0 8.0 359.0 
272.00022195569073 50218.0 NaN 1540.6840347361388 0.5006394221143273 509.0 8.0 363.0 
274.00022195569073 50204.0 NaN 1537.6112224448912 0.5014999421688563 512.0 7.0 363.0 
276.00022195569073 50141.0 NaN 1540.6038744154998 0.5008243965073415 512.0 7.0 364.0 
278.00022195569073 50128.0 NaN 1540.6840347361385 0.5005001937375991 511.0 7.0 364.0 
280.00022195569073 50103.0 NaN 1537.5497661990635 0.5014863799597631 511.0 7.0 363.0 
282.00022195569073 50086.0 NaN 1537.6993987975934 0.5010550124227523 510.0 7.0 363.0 
284.00022195569073 50066.0 NaN 1537.6700066800274 0.5013023141091422 509.0 7.0 363.0 
286.00022195569073 50014.0 NaN 1537.8089512358067 0.5006984626057174 508.0 7.0 363.0 
288.00022195569073 49984.0 NaN 1534.6399465597844 0.5023211425121868 508.0 7.0 362.0 
290.00022195569073 49944.0 NaN 1531.649966599866 0.5016275360274033 507.0 7.0 361.0 
292.00022195569073 49884.0 NaN 1531.4175016700071 0.5011089276759544 506.0 8.0 360.0 
294.00022195569073 49865.0 NaN 1531.452237808952 0.5021444500178467 505.0 8.0 360.0 
296.00022195569073 49810.0 NaN 1531.3480293921184 0.5010655983826982 505.0 8.0 360.0 
298.00022195569073 49777.0 NaN 1534.5731462925844 0.5014246646370281 505.0 8.0 361.0 
300.00022195569073 49751.0 NaN 1531.5484301937206 0.5008675516927964 505.0 7.0 361.0 
302.00022195569073 49698.0 NaN 1528.6252505010002 0.5008302133114163 504.0 7.0 360.0 
304.00022195569073 49694.0 NaN 1528.561122244491 0.5013998864743767 504.0 7.0 360.0 
306.00022195569073 49646.0 NaN 1531.828991315964 0.501209294828506 503.0 7.0 361.0 
308.00022195569073 49604.0 NaN 1534.936539746158 0.5010163178912989 503.0 7.0 362.0 
310.00022195569073 49583.0 NaN 1531.8557114228454 0.5020907871843427 502.0 7.0 361.0 
312.00022195569073 49554.0 NaN 1525.6806947227792 0.5001474095402417 501.0 7.0 359.0 
314.00022195569073 49538.0 NaN 1528.705410821645 0.5014125156036948 503.0 7.0 360.0 
316.00022195569073 49495.0 NaN 1528.4408817635274 0.5010783958135767 502.0 7.0 360.0 
318.00022195569073 49446.0 NaN 1528.4114896459578 0.501047663048682 503.0 7.0 360.0 
320.00022195569073 49408.0 NaN 1534.5277221108886 0.5015394292568506 503.0 7.0 362.0 
322.00022195569073 49359.0 NaN 1534.444889779561 0.5008110434306269 502.0 7.0 362.0 
324.00022195569073 49350.0 NaN 1531.3667334669337 0.5012163949411249 503.0 7.0 361.0 
326.00022195569073 49327.0 NaN 1531.417501670007 0.5011884540539165 503.0 7.0 361.0 
328.00022195569073 49292.0 NaN 1531.4655978623907 0.5015645409858449 502.0 7.0 361.0 
330.00022195569073 49257.0 NaN 1531.5591182364726 0.5024611954086459 501.0 7.0 361.0 
332.00022195569073 49263.0 NaN 1531.4495657982636 0.4998530988011631 501.0 7.0 361.0 
334.00022195569073 49279.0 NaN 1531.4736138944545 0.5022387900482367 500.0 8.0 360.0 
336.00022195569073 49261.0 NaN 1531.438877755509 0.5014715026042565 502.0 7.0 361.0 
338.00022195569073 49234.0 NaN 1534.749498997997 0.502283084662717 503.0 7.0 362.0 
340.00022195569073 49199.0 NaN 1537.7074148296608 0.5024147895485468 505.0 7.0 363.0 
342.00022195569073 49167.0 NaN 1534.8483633934547 0.5002636942838921 506.0 6.0 363.0 
344.00022195569073 49175.0 NaN 1531.6793587174361 0.5009813768563174 506.0 6.0 362.0 
346.00022195569073 49179.0 NaN 1525.4375417501667 0.5005492612294149 504.0 6.0 360.0 
348.00022195569073 49199.0 NaN 1528.366065464263 0.5025689748354359 508.0 6.0 361.0 
350.00022195569073 49156.0 NaN 1531.4923179692728 0.5012498997298717 510.0 6.0 362.0 
352.00022195569073 49125.0 NaN 1531.409485637943 0.4999737963064105 510.0 6.0 362.0 
354.00022195569073 49124.0 NaN 1525.3974615898455 0.5013226515433099 508.0 7.0 359.0 
356.00022195569073 49086.0 NaN 1528.5103540414177 0.5009506407979406 507.0 7.0 360.0 
358.00022195569073 49094.0 NaN 1528.5851703406818 0.5015246499252939 510.0 6.0 361.0 
360.00022195569073 49073.0 NaN 1528.6519706078818 0.5023536755552908 511.0 6.0 361.0 
362.00022195569073 49053.0 NaN 1528.790915163661 0.5005491242969206 512.0 6.0 361.0 
364.00022195569073 49055.0 NaN 1528.6012024048089 0.5010102505968704 512.0 6.0 361.0 
366.00022195569073 49042.0 NaN 1525.541750167 0.5011570075141766 513.0 6.0 360.0 
368.00022195569073 49027.0 NaN 1522.2792251168999 0.5018291328688591 512.0 6.0 359.0 
370.00022195569073 48989.0 NaN 1516.1015364061454 0.5002746251898933 509.0 6.0 357.0 
372.00022195569073 48975.0 NaN 1510.0841683366727 0.50045284658383 510.0 6.0 355.0 
374.00022195569073 48972.0 NaN 1510.1509686038737 0.5004779376680454 510.0 6.0 355.0 
376.00022195569073 48977.0 NaN 1513.092852371409 0.5001313040603834 511.0 6.0 356.0 
378.00022195569073 48961.0 NaN 1513.1837007348022 0.5030905679870574 514.0 5.0 357.0 
380.00022195569073 48898.0 NaN 1510.0841683366727 0.5009658335433503 514.0 6.0 355.0 
382.00022195569073 48872.0 NaN 1510.217768871075 0.5007117882316271 515.0 6.0 355.0 
384.00022195569073 48864.0 NaN 1510.1563126252513 0.5003619814866253 519.0 1.0 360.0 
386.00022195569073 48863.0 NaN 1513.1275885103546 0.5008439219549315 513.0 6.0 356.0 
388.00022195569073 48837.0 NaN 1516.0614562458263 0.5017048223508757 520.0 1.0 362.0 
390.00022195569073 48797.0 NaN 1522.3032732130916 0.5016258297723996 514.0 8.0 357.0 
392.00022195569073 48786.0 NaN 1516.160320641282 0.500819474953563 516.0 5.0 358.0 
394.00022195569073 48779.0 NaN 1516.2057448229796 0.5015632516455297 516.0 6.0 357.0 
396.00022195569073 48770.0 NaN 1519.2892451569817 0.5015000818006431 514.0 7.0 357.0 
398.00022195569073 48718.0 NaN 1516.1629926519722 0.5042548667484517 515.0 6.0 357.0 
400.00022195569073 48668.0 NaN 1513.0741482965916 0.502310752504572 514.0 6.0 356.0 
402.00022195569073 48647.0 NaN 1513.058116232464 0.5003305802981483 515.0 6.0 356.0 
404.00022195569073 48638.0 NaN 1509.9559118236461 0.5018992533221657 516.0 6.0 355.0 
406.00022195569073 48618.0 NaN 1519.1877087508358 0.5009038642645565 516.0 6.0 358.0 
408.00022195569073 48603.0 NaN 1519.169004676018 0.5030721521471125 517.0 6.0 358.0 
410.00022195569073 48586.0 NaN 1522.420841683366 0.5016164932564147 518.0 6.0 359.0 
412.00022195569073 48595.0 NaN 1525.5738142952569 0.500898680581975 518.0 6.0 360.0 
414.00022195569073 48609.0 NaN 1528.7748830995333 0.5009759612570509 519.0 6.0 361.0 
416.00022195569073 48598.0 NaN 1522.6292585170359 0.5009648662625743 517.0 7.0 358.0 
418.00022195569073 48578.0 NaN 1522.5197060788248 0.5018140144043193 514.0 7.0 358.0 
420.00022195569073 48545.0 NaN 1513.2451569806271 0.5006174020746245 513.0 6.0 356.0 
422.00022195569073 48543.0 NaN 1519.3507014028062 0.5003762665280441 512.0 6.0 358.0 
424.00022195569073 48573.0 NaN 1510.1215764863068 0.5029177590440292 515.0 6.0 355.0 
426.00022195569073 48537.0 NaN 1513.18904475618 0.5006979519511079 515.0 6.0 356.0 
428.00022195569073 48545.0 NaN 1531.599198396793 0.5013978852202725 517.0 6.0 362.0 
430.00022195569073 48540.0 NaN 1534.6239144956576 0.5007381172780481 520.0 6.0 363.0 
432.00022195569073 48534.0 NaN 1534.677354709418 0.501181023031508 521.0 6.0 363.0 
434.00022195569073 48549.0 NaN 1531.8076152304614 0.5017173152479758 521.0 6.0 362.0 
436.00022195569073 48519.0 NaN 1531.732798931197 0.5011987721592639 521.0 6.0 362.0 
438.00022195569073 48523.0 NaN 1531.7782231128915 0.5032631888880031 522.0 6.0 362.0 
440.00022195569073 48504.0 NaN 1534.8189712758845 0.5039725791141415 523.0 6.0 363.0 
442.00022195569073 48502.0 NaN 1544.032064128255 0.5004670132164862 524.0 6.0 366.0 
444.00022195569073 48515.0 NaN 1544.085504342018 0.5016803724523897 524.0 6.0 366.0 
446.00022195569073 48479.0 NaN 1534.8483633934545 0.501763846191902 525.0 6.0 363.0 
448.00022195569073 48449.0 NaN 1540.9111556446212 0.5041985505447746 525.0 6.0 365.0 
450.00022195569073 48437.0 NaN 1543.9599198396795 0.5009829589297851 525.0 6.0 366.0 
452.00022195569073 48434.0 NaN 1546.9819639278544 0.501034588430299 523.0 7.0 366.0 
454.00022195569073 48445.0 NaN 1553.205076820309 0.5027637428383601 523.0 7.0 368.0 
456.00022195569073 48418.0 NaN 1549.9291917167661 0.5016766931054012 524.0 7.0 367.0 
458.00022195569073 48384.0 NaN 1549.9078156312637 0.5020169648729366 521.0 8.0 366.0 
460.00022195569073 48359.0 NaN 1552.8951235804939 0.5009059633279347 521.0 7.0 368.0 
462.00022195569073 48369.0 NaN 1553.0046760187029 0.5012371734856396 522.0 7.0 368.0 
464.00022195569073 48367.0 NaN 1553.095524382098 0.5018763109529161 525.0 7.0 368.0 
466.00022195569073 48377.0 NaN 1556.1763527054095 0.5010614938500971 525.0 7.0 369.0 
468.00022195569073 48379.0 NaN 1547.0273881095543 0.5015373887502586 524.0 7.0 366.0 
470.00022195569073 48349.0 NaN 1543.9519038076157 0.5016847084490067 520.0 8.0 364.0 
472.00022195569073 48353.0 NaN 1540.9058116232454 0.5003347209966965 520.0 8.0 363.0 
474.00022195569073 48376.0 NaN 1528.547762191048 0.5014662140643357 516.0 8.0 359.0 
476.00022195569073 48357.0 NaN 1528.5504342017364 0.5009497058470112 516.0 5.0 362.0 
478.00022195569073 48372.0 NaN 1528.4702738810938 0.5011035853130047 517.0 2.0 365.0 
480.00022195569073 48360.0 NaN 1528.400801603207 0.5002297109623866 517.0 2.0 365.0 
482.00022195569073 48370.0 NaN 1528.6118904475632 0.5001795220816259 517.0 2.0 365.0 
484.00022195569073 48406.0 NaN 1522.5170340681366 0.5015278893995582 513.0 6.0 359.0 
486.00022195569073 48396.0 NaN 1516.4328657314636 0.5005524031305808 514.0 3.0 360.0 
488.00022195569073 48443.0 NaN 1507.144956579827 0.5011588652640797 514.0 2.0 358.0 
490.00022195569073 48441.0 NaN 1504.0347361389452 0.5006051216140245 514.0 2.0 357.0 
492.00022195569073 48455.0 NaN 1503.935871743488 0.5009346759975611 509.0 3.0 356.0 
494.00022195569073 48495.0 NaN 1500.9432197728797 0.5030260899527946 510.0 3.0 355.0 
496.00022195569073 48463.0 NaN 1497.873079492318 0.5010688734051397 511.0 4.0 353.0 
498.00022195569073 48504.0 NaN 1491.7488309953249 0.5030660746692979 508.0 6.0 349.0 
500.00022195569073 48502.0 NaN 1491.8370073480285 0.5024727279215945 504.0 9.0 346.0 
502.00022195569073 48491.0 NaN 1488.6786907147634 0.5007130514812315 506.0 8.0 346.0 
504.00022195569073 48528.0 NaN 1491.8663994655992 0.5010502460881291 508.0 9.0 346.0 
506.00022195569073 48534.0 NaN 1494.928523714094 0.5017812948684199 506.0 9.0 347.0 
508.00022195569073 48577.0 NaN 1497.93720774883 0.5018993936216942 503.0 10.0 347.0 
510.00022195569073 48578.0 NaN 1501.0447561790254 0.5007843971448364 504.0 9.0 349.0 
512.0002219556907 48584.0 NaN 1494.7628590514364 0.5011394821821501 503.0 7.0 349.0 
514.0002219556907 48607.0 NaN 1494.7548430193726 0.5016208739429334 504.0 6.0 350.0 
516.0002219556907 48595.0 NaN 1494.7441549766193 0.5033076919589553 504.0 6.0 350.0 
518.0002219556907 48596.0 NaN 1485.5257181028728 0.5021691872066841 504.0 6.0 347.0 
520.0002219556907 48579.0 NaN 1482.503674014697 0.5013561653040615 502.0 7.0 345.0 
522.0002219556907 48578.0 NaN 1476.4008016032071 0.5010889408734321 502.0 7.0 343.0 
524.0002219556907 48597.0 NaN 1476.3927855711431 0.5017254502160693 502.0 7.0 343.0 
526.0002219556907 48601.0 NaN 1470.1429525718095 0.5020814931751488 498.0 7.0 341.0 
528.0002219556907 48616.0 NaN 1463.997327989311 0.5013386956838742 503.0 8.0 338.0 
530.0002219556907 48607.0 NaN 1463.8904475617908 0.5007130511993018 506.0 8.0 338.0 
532.0002219556907 48613.0 NaN 1473.0527722110899 0.5004080976808446 507.0 8.0 341.0 
534.0002219556907 48633.0 NaN 1473.1516366065457 0.501817471680176 507.0 8.0 341.0 
536.0002219556907 48616.0 NaN 1473.1302605210426 0.5027855517099705 506.0 7.0 342.0 
538.0002219556907 48612.0 NaN 1470.207080828324 0.5038972565234737 506.0 7.0 341.0 
540.0002219556907 48611.0 NaN 1470.207080828324 0.5013933519808698 506.0 8.0 340.0 
542.0002219556907 48638.0 NaN 1470.3674014696066 0.501268444451024 505.0 8.0 340.0 
544.0002219556907 48625.0 NaN 1467.318637274548 0.5034777450527642 506.0 7.0 340.0 
546.0002219556907 48592.0 NaN 1467.3613894455568 0.501316434630026 505.0 7.0 340.0 
548.0002219556907 48618.0 NaN 1470.2845691382754 0.5015025835777555 508.0 7.0 341.0 
550.0002219556907 48623.0 NaN 1470.3273213092846 0.5006786522100307 508.0 7.0 341.0 
552.0002219556907 48644.0 NaN 1470.2311289245163 0.503065942914048 509.0 7.0 341.0 
554.0002219556907 48604.0 NaN 1467.219772879091 0.5015940646369539 509.0 7.0 340.0 
556.0002219556907 48615.0 NaN 1464.1629926519715 0.5011906501045741 507.0 7.0 339.0 
558.0002219556907 48626.0 NaN 1467.2037408149636 0.50097444435394 506.0 7.0 340.0 
560.0002219556907 48632.0 NaN 1457.9318637274546 0.5003380322985556 504.0 7.0 337.0 
562.0002219556907 48675.0 NaN 1460.9084836339352 0.5016516904246422 500.0 7.0 338.0 
564.0002219556907 48695.0 NaN 1463.9839679358722 0.5004123888689117 504.0 7.0 339.0 
566.0002219556907 48718.0 NaN 1463.9545758183028 0.5014417302001744 505.0 7.0 339.0 
568.0002219556907 48721.0 NaN 1473.0661322645283 0.5015188578209936 507.0 7.0 342.0 
570.0002219556907 48744.0 NaN 1476.1629926519713 0.5012376224073486 506.0 7.0 343.0 
572.0002219556907 48809.0 NaN 1485.4909819639272 0.5022215892943284 509.0 5.0 348.0 
574.0002219556907 48794.0 NaN 1488.6279225116907 0.5006911182567095 511.0 5.0 349.0 
576.0002219556907 48791.0 NaN 1488.6813627254517 0.5043745455538364 513.0 5.0 349.0 
578.0002219556907 48731.0 NaN 1485.5738142952564 0.5013678543675574 511.0 5.0 348.0 
580.0002219556907 48721.0 NaN 1488.5691382765535 0.501797194758237 510.0 5.0 349.0 
582.0002219556907 48770.0 NaN 1488.5424181696726 0.501863359724198 510.0 6.0 348.0 
584.0002219556907 48738.0 NaN 1485.4909819639272 0.500344560977586 511.0 5.0 348.0 
586.0002219556907 48774.0 NaN 1488.5557782231122 0.5013157880920269 512.0 5.0 349.0 
588.0002219556907 48762.0 NaN 1488.467601870408 0.5011287696055431 513.0 5.0 349.0 
590.0002219556907 48743.0 NaN 1491.5751503006 0.5012823955412237 515.0 5.0 350.0 
592.0002219556907 48775.0 NaN 1497.7394789579166 0.5014460378265054 518.0 5.0 352.0 
594.0002219556907 48781.0 NaN 1488.6573146292578 0.5016556282672665 519.0 5.0 349.0 
596.0002219556907 48786.0 NaN 1485.6646626586514 0.501508631790641 518.0 5.0 348.0 
598.0002219556907 48753.0 NaN 1485.6406145624576 0.5013500826203426 518.0 5.0 348.0 
600.0002219556907 48754.0 NaN 1488.5424181696726 0.5015191863902458 518.0 5.0 349.0 
602.0002219556907 48777.0 NaN 1497.672678690715 0.5009989657699635 520.0 5.0 352.0 
604.0002219556907 48772.0 NaN 1494.6185704742816 0.5000359357997198 518.0 6.0 350.0 
606.0002219556907 48797.0 NaN 1494.6933867735465 0.5010985631092644 521.0 5.0 351.0 
608.0002219556907 48796.0 NaN 1494.7094188376745 0.5006968385330907 517.0 5.0 351.0 
610.0002219556907 48778.0 NaN 1494.7628590514364 0.5018160296568354 517.0 5.0 351.0 
612.0002219556907 48798.0 NaN 1497.878423513693 0.5005633647218684 517.0 5.0 352.0 
614.0002219556907 48800.0 NaN 1501.0527722110899 0.5002043444351477 519.0 5.0 353.0 
616.0002219556907 48836.0 NaN 1507.222444889781 0.5011497983786617 521.0 5.0 355.0 
618.0002219556907 48849.0 NaN 1516.358049432199 0.5035465886666888 519.0 5.0 358.0 
620.0002219556907 48755.0 NaN 1516.2645290581172 0.5044865017829044 519.0 5.0 358.0 
622.0002219556907 48711.0 NaN 1513.108884435537 0.5000264630832374 519.0 6.0 356.0 
624.0002219556907 48709.0 NaN 1516.2431529726111 0.5006327538936391 518.0 6.0 357.0 
626.0002219556907 48711.0 NaN 1522.4609218436879 0.4997714770965118 516.0 7.0 358.0 
628.0002219556907 48737.0 NaN 1522.5170340681366 0.5016169372911388 514.0 6.0 359.0 
630.0002219556907 48688.0 NaN 1522.5464261857062 0.5011276329595376 518.0 6.0 359.0 
632.0002219556907 48706.0 NaN 1522.484969939881 0.5008056553327302 517.0 6.0 359.0 
634.0002219556907 48680.0 NaN 1519.4709418837667 0.5004362477493274 521.0 6.0 358.0 
636.0002219556907 48677.0 NaN 1519.3881095524373 0.49992362186978867 522.0 6.0 358.0 
638.0002219556907 48695.0 NaN 1519.2518370073476 0.5015663709934952 523.0 6.0 358.0 
640.0002219556907 48654.0 NaN 1516.1389445557788 0.5003328756274417 521.0 6.0 357.0 
642.0002219556907 48651.0 NaN 1519.2464929859727 0.5006901429910047 521.0 6.0 358.0 
644.0002219556907 48630.0 NaN 1522.5116900467606 0.5016260761748343 518.0 8.0 357.0 
646.0002219556907 48636.0 NaN 1519.532398129592 0.4998803317491875 521.0 6.0 358.0 
648.0002219556907 48653.0 NaN 1519.5457581830335 0.5029233160335473 519.0 6.0 358.0 
650.0002219556907 48602.0 NaN 1519.623246492985 0.500985490899752 517.0 6.0 358.0 
652.0002219556907 48589.0 NaN 1516.488977955911 0.4994407114219434 516.0 6.0 357.0 
654.0002219556907 48604.0 NaN 1519.5511022044093 0.5019567702189678 514.0 6.0 358.0 
656.0002219556907 48634.0 NaN 1528.6573146292576 0.5014118912684511 512.0 6.0 361.0 
658.0002219556907 48642.0 NaN 1531.6980627922514 0.5022229025535986 510.0 6.0 362.0 
660.0002219556907 48623.0 NaN 1531.6499665998658 0.500198189715873 510.0 6.0 362.0 
662.0002219556907 48614.0 NaN 1537.8276553106202 0.4999764152188105 509.0 6.0 364.0 
664.0002219556907 48592.0 NaN 1537.7875751503 0.5002996708874725 510.0 6.0 364.0 
#####################################################################
# End of data export. Simulation finished at: 2019-03-21T20:22+0000 #
#####################################################################
