#####################################################################
# Alchemist log file - simulation started at: 2019-03-14T23:29+0000 #
#####################################################################
# seed = 8.0, bandwidth = 4216.965034285822, propagationDelay = 0.03162277660168379, baserange = 562.341325190349
#
# The columns have the following meaning: 
# time neighbor_count[Sum] <value>@neighbor_count[Sum] packet_size[Mean] mean_delay[Mean] crowd[Sum] overcrowded[Sum] risk[Sum] 
0.0 NaN NaN NaN NaN NaN NaN NaN 
2.0000937400655205 30139.0 NaN 4988.833667334669 0.20351022373543814 1497.0 0.0 1497.0 
4.0001517704722565 98210.0 NaN 4995.639278557114 1.177790852400789 1497.0 0.0 1497.0 
6.000151770472257 98210.0 NaN 4993.736806947228 1.1784210586044428 1495.0 2.0 1495.0 
8.000151770472257 98210.0 NaN 4994.997995991984 1.1783839347792715 1495.0 2.0 1495.0 
10.000151770472256 98210.0 NaN 4993.688710754843 1.1785065134638277 1495.0 2.0 1495.0 
12.000151770472256 98212.0 NaN 4994.997995991984 1.178444392036589 1495.0 2.0 1495.0 
14.000151770472256 98214.0 NaN 4993.688710754843 1.1785859064812134 1495.0 2.0 1495.0 
16.000151770472257 98218.0 NaN 4994.997995991984 1.1787318218116294 1495.0 2.0 1495.0 
18.000151770472254 98229.0 NaN 4993.688710754843 1.1796443350249533 1495.0 2.0 1495.0 
20.000151770472254 98237.0 NaN 4995.008684034736 1.1804471203801443 1495.0 2.0 1495.0 
22.000151770472254 98255.0 NaN 4993.699398797595 1.1813194744320736 1495.0 2.0 1495.0 
24.000151770472254 98290.0 NaN 4995.022044088177 1.1824868911041162 1495.0 2.0 1495.0 
26.000151770472254 98308.0 NaN 4993.688710754843 1.183950284436261 1495.0 2.0 1495.0 
28.000151770472254 98351.0 NaN 4994.992651970608 1.1862813939794512 1495.0 2.0 1495.0 
30.000151770472254 98357.0 NaN 4993.667334669339 1.188757352198464 1495.0 2.0 1495.0 
32.00015177047226 98376.0 NaN 4994.992651970608 1.191070482680736 1495.0 2.0 1495.0 
34.00015177047226 98399.0 NaN 4993.683366733467 1.1932170616223574 1495.0 2.0 1495.0 
36.00015177047226 98428.0 NaN 4994.992651970608 1.195773353241879 1495.0 2.0 1495.0 
38.00015177047226 98483.0 NaN 4993.696726786907 1.1998401589642675 1495.0 2.0 1495.0 
40.00015177047226 98484.0 NaN 4995.006012024048 1.2043033944007815 1495.0 2.0 1495.0 
42.00015177047226 98495.0 NaN 4993.699398797595 1.2092758999053936 1495.0 2.0 1495.0 
44.00015177047226 98522.0 NaN 4994.997995991984 1.2109664771634845 1495.0 2.0 1495.0 
46.00015177047226 98546.0 NaN 4993.704742818972 1.2104361562716748 1495.0 2.0 1495.0 
48.00015177047226 98581.0 NaN 4995.014028056112 1.2146273411866617 1495.0 2.0 1495.0 
50.00015177047226 98586.0 NaN 4993.704742818972 1.2206009976964272 1495.0 2.0 1495.0 
52.00015177047226 98592.0 NaN 4994.997995991984 1.2249808900793482 1495.0 2.0 1495.0 
54.00015177047226 98596.0 NaN 4993.704742818972 1.2266808261430184 1495.0 2.0 1495.0 
56.00015177047226 98640.0 NaN 4995.014028056112 1.2229158663235427 1495.0 2.0 1495.0 
58.00015177047226 98727.0 NaN 4993.704742818972 1.2293395708300319 1495.0 2.0 1495.0 
60.00015177047226 98783.0 NaN 4995.035404141617 1.23831160439324 1495.0 2.0 1495.0 
62.00076397037406 98806.0 NaN 1519.3533734134935 0.8325400469831872 797.0 1.0 363.0 
64.00076397037405 98818.0 NaN 1522.3086172344697 0.7539505898809657 625.0 3.0 362.0 
66.0001983480089 98823.0 NaN 1522.2818971275888 0.7355619571509003 587.0 2.0 363.0 
68.00076397037405 98858.0 NaN 1522.2792251169 0.742579520920036 559.0 2.0 363.0 
70.00076397037405 98881.0 NaN 1522.2712090848363 0.7499701132440857 537.0 2.0 363.0 
72.00076397037405 98891.0 NaN 1525.360053440215 0.7592167341284157 531.0 2.0 364.0 
74.00076397037405 98888.0 NaN 1525.3547094188366 0.7612057111751624 531.0 2.0 364.0 
76.0001983480089 98882.0 NaN 1531.5163660654637 0.7480754832074584 531.0 2.0 366.0 
78.00076397037405 98908.0 NaN 1531.5110220440881 0.7552694117358372 527.0 3.0 365.0 
80.00076397037405 98930.0 NaN 1531.5083500334 0.7614373282948802 527.0 2.0 366.0 
82.00076397037405 98955.0 NaN 1531.5163660654637 0.7611688914545139 528.0 2.0 366.0 
84.00076397037405 98972.0 NaN 1534.5945223780907 0.7667541736205884 527.0 2.0 367.0 
86.0001983480089 98947.0 NaN 1534.5998663994637 0.7404454011213152 525.0 2.0 367.0 
88.00076397037405 98950.0 NaN 1534.5998663994637 0.7421268355469806 526.0 2.0 367.0 
90.00076397037405 98975.0 NaN 1534.597194388779 0.7494226743482881 526.0 2.0 367.0 
92.00076397037405 98992.0 NaN 1534.5918503674002 0.7521984776707324 526.0 2.0 367.0 
94.00076397037405 99015.0 NaN 1534.589178356712 0.7508221200379128 526.0 2.0 367.0 
96.0001983480089 99007.0 NaN 1537.6619906479636 0.7423588217050995 526.0 2.0 368.0 
98.00076397037405 99015.0 NaN 1537.63794255177 0.742893047044666 526.0 2.0 368.0 
100.00076397037405 99032.0 NaN 1537.6325985303936 0.7397290275053053 526.0 2.0 368.0 
102.00076397037405 99042.0 NaN 1537.6352705410818 0.7408393740363703 526.0 2.0 368.0 
104.00076397037405 99058.0 NaN 1537.6406145624576 0.7474304948774231 525.0 2.0 368.0 
106.0001983480089 99041.0 NaN 1537.6406145624576 0.7467567630270278 526.0 2.0 368.0 
108.00076397037405 99061.0 NaN 1537.6406145624576 0.7443935319617504 525.0 2.0 368.0 
110.00076397037405 99089.0 NaN 1537.62458249833 0.7464439482298065 525.0 2.0 368.0 
112.00076397037405 99098.0 NaN 1540.7374749499 0.7468806037284066 525.0 2.0 369.0 
114.00076397037405 99134.0 NaN 1540.705410821645 0.7531401991116459 525.0 2.0 369.0 
116.0001983480089 99151.0 NaN 1540.7374749499 0.7547572906334853 525.0 2.0 369.0 
118.00076397037405 99116.0 NaN 1543.8102872411484 0.7530211439206956 527.0 2.0 370.0 
120.00076397037405 99115.0 NaN 1543.8263193052755 0.7525512611365999 528.0 2.0 370.0 
122.00076397037405 99105.0 NaN 1546.875083500334 0.7476619096421914 528.0 2.0 371.0 
124.00076397037405 99118.0 NaN 1543.8263193052755 0.7491440710736227 528.0 2.0 370.0 
126.0001983480089 99096.0 NaN 1543.7915831663333 0.7409409565426439 528.0 2.0 370.0 
128.00076397037404 99038.0 NaN 1543.8183032732122 0.7305234283767621 526.0 2.0 370.0 
130.00076397037407 99037.0 NaN 1543.7889111556456 0.7305593622584476 526.0 2.0 370.0 
132.00076397037407 99041.0 NaN 1540.7267869071454 0.7349614572890281 526.0 2.0 369.0 
134.00076397037407 99052.0 NaN 1537.6299265197063 0.7402430935540381 525.0 2.0 368.0 
136.0001983480089 99034.0 NaN 1531.529726118906 0.7350158628449187 524.0 2.0 366.0 
138.00076397037407 99011.0 NaN 1531.4923179692728 0.7291779838114675 520.0 2.0 366.0 
140.00076397037407 99031.0 NaN 1537.6700066800274 0.7335685528338082 518.0 2.0 368.0 
142.00076397037407 99023.0 NaN 1540.7054108216453 0.7335632986107791 520.0 2.0 369.0 
144.00076397037407 99024.0 NaN 1543.8102872411484 0.7348541932848278 520.0 2.0 370.0 
146.0001983480089 99025.0 NaN 1543.772879091518 0.7362360910766156 519.0 3.0 369.0 
148.00076397037407 99031.0 NaN 1549.9986639946546 0.7300136543026906 519.0 3.0 371.0 
150.00076397037407 99047.0 NaN 1549.9131596526363 0.7292916896209723 520.0 3.0 371.0 
152.00076397037407 99039.0 NaN 1540.7428189712755 0.7320652624248959 520.0 3.0 368.0 
154.00076397037407 99039.0 NaN 1537.6646626586517 0.73603450922472 517.0 3.0 367.0 
156.0001983480089 99034.0 NaN 1540.7401469605882 0.7382392721651805 516.0 3.0 368.0 
158.00076397037407 99038.0 NaN 1540.7214428857728 0.7329259653745033 517.0 3.0 368.0 
160.00076397037407 99030.0 NaN 1540.7508350033393 0.7300739758103252 519.0 3.0 368.0 
162.00076397037407 99063.0 NaN 1540.7080828323303 0.7282060808821718 517.0 3.0 368.0 
164.00076397037407 99059.0 NaN 1543.8396793587183 0.7274635160224324 517.0 3.0 369.0 
166.0001983480089 99061.0 NaN 1543.7995991983973 0.7310984895344259 518.0 2.0 370.0 
168.00076397037407 99056.0 NaN 1540.756179024718 0.7265922217165156 518.0 2.0 369.0 
170.00076397037407 99017.0 NaN 1540.7267869071457 0.7225601481846681 519.0 2.0 369.0 
172.00076397037407 99036.0 NaN 1540.7321309285242 0.7251834659765155 519.0 2.0 369.0 
174.00076397037407 99038.0 NaN 1546.880427521709 0.729208487187213 520.0 2.0 371.0 
176.0001983480089 99027.0 NaN 1543.8343353373427 0.7340296730126362 520.0 2.0 370.0 
178.00076397037407 99037.0 NaN 1543.7969271877091 0.7245965666233611 520.0 2.0 370.0 
180.00076397037407 99022.0 NaN 1543.8343353373427 0.7260717094677648 521.0 2.0 370.0 
182.00076397037407 99050.0 NaN 1537.6379425517703 0.7312848831370958 520.0 2.0 368.0 
184.00076397037407 99062.0 NaN 1537.6566466265876 0.7334550264944363 518.0 2.0 368.0 
186.0001983480089 99044.0 NaN 1537.6032064128271 0.7368549340442505 519.0 2.0 368.0 
188.00076397037407 99041.0 NaN 1540.7160988643975 0.7331070188553626 519.0 2.0 369.0 
190.00076397037407 99022.0 NaN 1534.5597862391458 0.7322482624916876 517.0 2.0 367.0 
192.00076397037407 99026.0 NaN 1534.567802271209 0.732188943079021 517.0 2.0 367.0 
194.00076397037407 99001.0 NaN 1537.6165664662635 0.7353012208300486 518.0 2.0 368.0 
196.0001983480089 98998.0 NaN 1540.7668670674698 0.7424580542938984 518.0 2.0 369.0 
198.00076397037407 98999.0 NaN 1537.6539746158999 0.7494035600927927 518.0 2.0 368.0 
200.00076397037407 98992.0 NaN 1540.7722110888458 0.753001232720995 519.0 2.0 369.0 
202.00076397037407 98999.0 NaN 1540.7000668002665 0.7571310760932152 520.0 2.0 369.0 
204.00076397037407 98983.0 NaN 1540.7348029392117 0.7581508909583766 521.0 2.0 369.0 
206.0001983480089 98964.0 NaN 1540.6786907147637 0.7531491884640589 521.0 2.0 369.0 
208.00076397037407 98967.0 NaN 1534.6078824315296 0.7526218738759898 518.0 2.0 367.0 
210.00076397037407 98942.0 NaN 1531.5110220440883 0.7553488770829528 515.0 2.0 366.0 
212.00076397037407 98906.0 NaN 1531.5404141616548 0.7557568316010271 515.0 2.0 366.0 
214.00076397037407 98903.0 NaN 1531.524382097527 0.7634309098913759 515.0 2.0 366.0 
216.0001983480089 98888.0 NaN 1534.6185704742818 0.7698915456318424 516.0 2.0 367.0 
218.00076397037407 98894.0 NaN 1528.4221776887093 0.7700836725530277 516.0 2.0 365.0 
220.00076397037407 98857.0 NaN 1528.4542418169665 0.7716016618971296 514.0 2.0 365.0 
222.00076397037407 98799.0 NaN 1525.3146292585182 0.7683415897611918 514.0 2.0 364.0 
224.00076397037407 98848.0 NaN 1522.3059452237817 0.773243632014425 514.0 2.0 363.0 
226.0001983480089 98857.0 NaN 1525.333333333334 0.7782344178359035 514.0 2.0 364.0 
228.00076397037407 98854.0 NaN 1528.4328657314638 0.7773042591774083 512.0 2.0 365.0 
230.00076397037407 98829.0 NaN 1528.4221776887093 0.7790589827299275 511.0 2.0 365.0 
232.00076397037407 98811.0 NaN 1531.5537742150973 0.7815863801845552 511.0 2.0 366.0 
234.00076397037407 98814.0 NaN 1531.4762859051452 0.7801139716236343 511.0 2.0 366.0 
236.0001983480089 98813.0 NaN 1531.5003340013366 0.7763924462806588 511.0 2.0 366.0 
238.00076397037407 98795.0 NaN 1534.5090180360728 0.7791081038695686 511.0 2.0 367.0 
240.00076397037407 98774.0 NaN 1531.486973947897 0.7852366778180121 511.0 2.0 366.0 
242.00076397037407 98750.0 NaN 1531.4495657982636 0.7836447514357755 512.0 2.0 366.0 
244.00076397037407 98730.0 NaN 1528.3901135604547 0.7740762759348999 512.0 2.0 365.0 
246.0001983480089 98715.0 NaN 1525.282565130261 0.7707474749018894 512.0 2.0 364.0 
248.00076397037407 98700.0 NaN 1525.327989311957 0.7700194747065157 512.0 2.0 364.0 
250.00076397037407 98687.0 NaN 1525.3066132264541 0.7769992834927288 512.0 2.0 364.0 
252.00076397037407 98665.0 NaN 1525.322645290582 0.7721140490359962 511.0 2.0 364.0 
254.00076397037407 98641.0 NaN 1525.274549098197 0.7693001734723248 511.0 2.0 364.0 
256.0001983480089 98634.0 NaN 1525.2905811623248 0.776136741917272 512.0 2.0 364.0 
258.00076397037407 98615.0 NaN 1525.3066132264541 0.7776150385593681 514.0 2.0 364.0 
260.00076397037407 98576.0 NaN 1525.2959251837 0.7821823861180406 514.0 2.0 364.0 
262.00076397037407 98562.0 NaN 1519.171676686707 0.7865162646394486 513.0 2.0 362.0 
264.00076397037407 98536.0 NaN 1516.0908483633932 0.785837216531573 511.0 2.0 361.0 
266.0001983480089 98539.0 NaN 1516.0801603206426 0.7808695134413546 510.0 2.0 361.0 
268.00076397037407 98519.0 NaN 1525.3092852371426 0.7890453957993894 512.0 2.0 364.0 
270.00076397037407 98478.0 NaN 1528.374081496327 0.7886008934982064 511.0 2.0 365.0 
272.00076397037407 98471.0 NaN 1531.3934535738153 0.7934563855963526 511.0 2.0 366.0 
274.00076397037407 98448.0 NaN 1534.471609886439 0.7835486441931743 513.0 2.0 367.0 
276.0001983480089 98455.0 NaN 1534.4742818971272 0.7920673061445541 514.0 2.0 367.0 
278.00076397037407 98430.0 NaN 1528.3072812291252 0.7965244873373699 513.0 2.0 365.0 
280.00076397037407 98368.0 NaN 1534.5036740146975 0.7989100649179245 513.0 2.0 367.0 
282.00076397037407 98306.0 NaN 1531.3747494989998 0.7926587329431324 513.0 2.0 366.0 
284.00076397037407 98287.0 NaN 1531.3800935203726 0.7961215513453485 515.0 2.0 366.0 
286.0001983480089 98251.0 NaN 1531.3346693386789 0.7960182454209902 514.0 2.0 366.0 
288.00076397037407 98207.0 NaN 1531.3907815631273 0.791919484589142 513.0 2.0 366.0 
290.00076397037407 98166.0 NaN 1534.4422177688725 0.7943526761333335 512.0 2.0 367.0 
292.00076397037407 98140.0 NaN 1534.487641950566 0.7967095081050475 511.0 2.0 367.0 
294.00076397037407 98154.0 NaN 1534.4395457581818 0.791743108596566 511.0 2.0 367.0 
296.0001983480089 98114.0 NaN 1537.563126252507 0.792284382603877 511.0 2.0 368.0 
298.00076397037407 98071.0 NaN 1537.5337341349364 0.792950229732484 510.0 2.0 368.0 
300.00076397037407 98027.0 NaN 1537.5577822311272 0.794350195024361 510.0 2.0 368.0 
302.00076397037407 97962.0 NaN 1540.6359385437547 0.7916136514100743 510.0 2.0 369.0 
304.00076397037407 97981.0 NaN 1540.6840347361383 0.8016388578091225 510.0 2.0 369.0 
306.0001983480089 97945.0 NaN 1537.568470273882 0.7865862659249626 510.0 1.0 369.0 
308.00076397037407 97929.0 NaN 1537.5925183700726 0.7927004369699948 506.0 3.0 367.0 
310.00076397037407 97884.0 NaN 1534.4395457581818 0.7932816065189061 507.0 3.0 366.0 
312.00076397037407 97848.0 NaN 1534.4448897795614 0.7953493928375948 506.0 3.0 366.0 
314.00076397037407 97853.0 NaN 1534.4422177688728 0.810250902706452 506.0 3.0 366.0 
316.0001983480089 97810.0 NaN 1531.3827655310636 0.8096784100820689 508.0 3.0 365.0 
318.00076397037407 97779.0 NaN 1531.3640614562453 0.8123555289354195 509.0 3.0 365.0 
320.00076397037407 97721.0 NaN 1528.3527054108213 0.8150535820464674 506.0 3.0 364.0 
322.00076397037407 97660.0 NaN 1528.3313293253182 0.8085145312047253 506.0 3.0 364.0 
324.00076397037407 97651.0 NaN 1531.4522378089518 0.7998191741450537 505.0 3.0 365.0 
326.0001983480089 97617.0 NaN 1534.4849699398817 0.7967473864032598 506.0 3.0 366.0 
328.00076397037407 97593.0 NaN 1537.6299265197065 0.8042426066114124 506.0 3.0 367.0 
330.00076397037407 97526.0 NaN 1537.5310621242481 0.8060033471069802 507.0 3.0 367.0 
332.00076397037407 97466.0 NaN 1537.573814295257 0.8074181094252787 507.0 3.0 367.0 
334.00076397037407 97445.0 NaN 1531.3907815631273 0.818884072268236 506.0 3.0 365.0 
336.0001983480089 97408.0 NaN 1528.3607214428848 0.8280354478843327 508.0 3.0 364.0 
338.00076397037407 97355.0 NaN 1528.299265197061 0.8253741436175115 508.0 3.0 364.0 
340.00076397037407 97280.0 NaN 1528.3527054108213 0.8223775022742568 508.0 3.0 364.0 
342.00076397037407 97215.0 NaN 1534.4956579826335 0.8103922387491037 507.0 3.0 366.0 
344.00076397037407 97197.0 NaN 1534.479625918503 0.811779919752795 509.0 3.0 366.0 
346.0001983480089 97153.0 NaN 1534.431529726118 0.8145218345574753 511.0 3.0 366.0 
348.00076397037407 97116.0 NaN 1531.4308617234458 0.8175154908869587 511.0 3.0 365.0 
350.00076397037407 97065.0 NaN 1528.3259853039424 0.8100357777324294 511.0 3.0 364.0 
352.00076397037407 97035.0 NaN 1528.309953239812 0.8049913440641561 512.0 3.0 364.0 
354.00076397037407 97022.0 NaN 1525.1730126920515 0.8155564999519874 513.0 3.0 363.0 
356.0001983480089 96994.0 NaN 1525.2104208416824 0.8057554625708897 512.0 3.0 363.0 
358.00076397037407 96973.0 NaN 1525.2024048096182 0.7985128516881412 511.0 3.0 363.0 
360.00076397037407 96924.0 NaN 1525.2371409485636 0.799088141606439 511.0 3.0 363.0 
362.00076397037407 96914.0 NaN 1525.2050768203085 0.7983397465655746 513.0 3.0 363.0 
364.00076397037407 96924.0 NaN 1522.158984635937 0.8028606758846638 515.0 3.0 362.0 
366.0001983480089 96877.0 NaN 1522.1402805611212 0.8073695297998221 516.0 3.0 362.0 
368.00076397037407 96864.0 NaN 1519.107548430193 0.8182460989180319 515.0 3.0 361.0 
370.00076397037407 96813.0 NaN 1503.727454909819 0.8211414957974362 515.0 3.0 356.0 
372.00076397037407 96770.0 NaN 1506.7895791583173 0.8141752517590842 515.0 3.0 357.0 
374.00076397037407 96775.0 NaN 1509.8196392785567 0.8241162483349367 516.0 3.0 358.0 
376.0001983480089 96723.0 NaN 1516.0106880427527 0.8247704677187643 515.0 3.0 360.0 
378.00076397037407 96738.0 NaN 1515.9706078824304 0.834545187615682 515.0 3.0 360.0 
380.00076397037407 96701.0 NaN 1512.9432197728797 0.8346523626887747 515.0 3.0 359.0 
382.00076397037407 96679.0 NaN 1509.8436873747487 0.8368383521898576 517.0 3.0 358.0 
384.00076397037407 96679.0 NaN 1512.9512358049446 0.8460676072737562 515.0 3.0 359.0 
386.0001983480089 96611.0 NaN 1515.9732798931188 0.8409996115137187 516.0 3.0 360.0 
388.00076397037407 96540.0 NaN 1512.9645958583826 0.8343890657973744 515.0 3.0 359.0 
390.00076397037407 96508.0 NaN 1509.8784235136934 0.8418553525482312 515.0 3.0 358.0 
392.00076397037407 96470.0 NaN 1509.9104876419515 0.8324222113093183 514.0 3.0 358.0 
394.00076397037407 96459.0 NaN 1512.9245156980637 0.8207708684402406 514.0 3.0 359.0 
396.0001983480089 96418.0 NaN 1512.9245156980637 0.8147733536346586 515.0 3.0 359.0 
398.00076397037407 96364.0 NaN 1512.9031396125577 0.8085448958651831 519.0 3.0 359.0 
400.00076397037407 96308.0 NaN 1506.8189712758842 0.8070208778734705 519.0 3.0 357.0 
402.00076397037407 96243.0 NaN 1506.786907147628 0.781266488761586 518.0 3.0 357.0 
404.00076397037407 96217.0 NaN 1509.8837675350703 0.7748914404529273 518.0 3.0 358.0 
406.0001983480089 96210.0 NaN 1512.9432197728795 0.7838579638202524 520.0 3.0 359.0 
408.00076397037407 96193.0 NaN 1519.1503006012022 0.7872451874029462 520.0 3.0 361.0 
410.00076397037407 96173.0 NaN 1522.1696726786909 0.796062337038977 520.0 3.0 362.0 
412.00076397037407 96170.0 NaN 1519.0968603874423 0.7973920797375799 521.0 3.0 361.0 
414.00076397037407 96174.0 NaN 1522.1456245824995 0.8108513921739722 521.0 3.0 362.0 
416.0001983480089 96164.0 NaN 1519.091516366064 0.8212840833186889 521.0 3.0 361.0 
418.00076397037407 96132.0 NaN 1519.0434201736819 0.8275872573647848 521.0 3.0 361.0 
420.00076397037407 96129.0 NaN 1509.8704074816294 0.8395384595396469 524.0 3.0 358.0 
422.00076397037407 96129.0 NaN 1506.7307949231808 0.8473541720703074 523.0 3.0 357.0 
424.00076397037407 96105.0 NaN 1497.547094188376 0.8460133646595026 518.0 3.0 354.0 
426.0001983480089 96077.0 NaN 1503.6766867067463 0.8580340763870836 515.0 3.0 356.0 
428.00076397037407 96052.0 NaN 1503.7007348029385 0.8625317620646384 515.0 4.0 355.0 
430.00076397037407 96020.0 NaN 1497.5283901135613 0.8621819365059011 517.0 2.0 355.0 
432.00076397037407 95961.0 NaN 1500.5958583834342 0.8522341119578344 517.0 2.0 356.0 
434.00076397037407 95921.0 NaN 1515.9732798931188 0.8357182721827511 518.0 2.0 361.0 
436.0001983480089 95870.0 NaN 1522.1349365397455 0.8128174704484705 524.0 2.0 363.0 
438.00076397037407 95844.0 NaN 1522.086840347363 0.8151311281823411 525.0 2.0 363.0 
440.00076397037407 95833.0 NaN 1522.1028724114904 0.8219323624643915 526.0 2.0 363.0 
442.00076397037407 95806.0 NaN 1528.2484969939885 0.8173942478677606 526.0 2.0 365.0 
444.00076397037407 95770.0 NaN 1528.291249164997 0.8163867719524166 527.0 2.0 365.0 
446.0001983480089 95720.0 NaN 1531.3293253173001 0.8045238110931537 527.0 2.0 366.0 
448.00076397037407 95725.0 NaN 1528.267201068803 0.8149478061387438 526.0 2.0 365.0 
450.00076397037407 95681.0 NaN 1528.2538410153636 0.8096190234569214 526.0 2.0 365.0 
452.00076397037407 95683.0 NaN 1531.3319973279906 0.8189221866060109 525.0 2.0 366.0 
454.00076397037407 95687.0 NaN 1540.5156980627912 0.8174104538601009 525.0 2.0 369.0 
456.0001983480089 95662.0 NaN 1543.6179024716089 0.8190559962791709 526.0 2.0 370.0 
458.00076397037407 95674.0 NaN 1537.4642618570456 0.8200453129140758 523.0 2.0 368.0 
460.00076397037407 95672.0 NaN 1540.5718102872424 0.8295705447282169 523.0 2.0 369.0 
462.00076397037407 95648.0 NaN 1540.5611222444907 0.8215554994368062 525.0 2.0 369.0 
464.00076397037407 95646.0 NaN 1537.5177020708093 0.7936219777770286 525.0 2.0 368.0 
466.0001983480089 95594.0 NaN 1534.3887775551088 0.7867673604071338 523.0 2.0 367.0 
468.00076397037407 95568.0 NaN 1534.4288577154302 0.7893924447053188 523.0 2.0 367.0 
470.00076397037407 95531.0 NaN 1531.3346693386784 0.7907817004092187 522.0 2.0 366.0 
472.00076397037407 95537.0 NaN 1525.2157648630607 0.7998258241880656 520.0 2.0 364.0 
474.00076397037407 95553.0 NaN 1525.1436205744817 0.8054985063051615 518.0 2.0 364.0 
476.0001983480089 95544.0 NaN 1525.1943887775544 0.8039228049151604 518.0 2.0 364.0 
478.00076397037407 95533.0 NaN 1525.1516366065453 0.7958186736442687 518.0 2.0 364.0 
480.00076397037407 95566.0 NaN 1525.1569806279213 0.7939025403369305 518.0 2.0 364.0 
482.00076397037407 95554.0 NaN 1525.1810287241158 0.7946120283765387 516.0 2.0 364.0 
484.00076397037407 95581.0 NaN 1519.0754843019363 0.8015815111243889 515.0 2.0 362.0 
486.0001983480089 95588.0 NaN 1512.8977955911816 0.803612397570018 511.0 2.0 360.0 
488.00076397037407 95589.0 NaN 1506.7762191048755 0.797314873733335 510.0 2.0 358.0 
490.00076397037407 95586.0 NaN 1506.7628590514364 0.7956797286136554 510.0 2.0 358.0 
492.00076397037407 95599.0 NaN 1500.643954575818 0.7981936917416893 510.0 2.0 356.0 
494.00076397037407 95614.0 NaN 1494.4555778223103 0.8063207465992088 510.0 2.0 354.0 
496.0001983480089 95590.0 NaN 1491.4281897127578 0.7717539608327572 506.0 2.0 353.0 
498.00076397037407 95591.0 NaN 1494.4689378757523 0.7719193613497194 506.0 2.0 354.0 
500.00076397037407 95593.0 NaN 1494.4742818971272 0.7713496613900465 506.0 2.0 354.0 
502.00076397037407 95588.0 NaN 1497.5150300601194 0.7744203661220576 511.0 2.0 355.0 
504.00076397037407 95597.0 NaN 1494.4716098864387 0.7818304796813452 513.0 1.0 355.0 
506.0001983480089 95608.0 NaN 1494.4903139612552 0.7881487714393843 513.0 1.0 355.0 
508.00076397037407 95610.0 NaN 1491.4121576486295 0.7939819900635774 515.0 3.0 352.0 
510.00076397037407 95593.0 NaN 1494.4422177688718 0.7861708926031733 513.0 3.0 353.0 
512.0007639703741 95584.0 NaN 1488.3633934535728 0.7800915094348008 514.0 3.0 351.0 
514.0007639703741 95596.0 NaN 1491.4068136272545 0.7817004811122275 513.0 3.0 352.0 
516.0001983480089 95590.0 NaN 1488.3847695390791 0.7852584998217415 511.0 3.0 351.0 
518.0007639703741 95637.0 NaN 1482.191048764194 0.7950920948817737 509.0 3.0 349.0 
520.0007639703741 95617.0 NaN 1482.1963927855718 0.7876920171989752 505.0 3.0 349.0 
522.0007639703741 95608.0 NaN 1479.0968603874426 0.7875961196041418 507.0 3.0 348.0 
524.0007639703741 95616.0 NaN 1469.9478957915826 0.7909797456014324 505.0 3.0 345.0 
526.0001983480089 95605.0 NaN 1463.7969271877091 0.7914113780159341 502.0 3.0 343.0 
528.0007639703741 95638.0 NaN 1463.8343353373423 0.787358272587054 500.0 3.0 343.0 
530.0007639703741 95661.0 NaN 1469.9559118236466 0.7924615254036411 497.0 3.0 345.0 
532.0007639703741 95658.0 NaN 1463.8663994655988 0.7994824457827049 501.0 3.0 343.0 
534.0007639703741 95659.0 NaN 1466.8804275217094 0.8025886688189972 503.0 3.0 344.0 
536.0001983480089 95667.0 NaN 1466.9018036072152 0.8108993705196742 504.0 3.0 344.0 
538.0007639703741 95702.0 NaN 1466.8670674682708 0.814459532994014 505.0 3.0 344.0 
540.0007639703741 95720.0 NaN 1466.8964595858376 0.8097959904407742 507.0 3.0 344.0 
542.0007639703741 95716.0 NaN 1466.901803607215 0.8021886455356056 510.0 3.0 344.0 
544.0007639703741 95718.0 NaN 1463.8717434869734 0.8081633891626889 511.0 3.0 343.0 
546.0001983480089 95708.0 NaN 1463.8904475617908 0.8152388009896107 511.0 3.0 343.0 
548.0007639703741 95707.0 NaN 1466.912491649966 0.8131880220706945 510.0 3.0 344.0 
550.0007639703741 95727.0 NaN 1463.8236472945898 0.802728099459765 509.0 3.0 343.0 
552.0007639703741 95733.0 NaN 1473.0501002004005 0.8068138660307284 509.0 3.0 346.0 
554.0007639703741 95767.0 NaN 1469.9265197060793 0.809003838966037 510.0 3.0 345.0 
556.0001983480089 95805.0 NaN 1469.934535738143 0.7831279959972959 510.0 3.0 345.0 
558.0007639703741 95834.0 NaN 1469.923847695391 0.78522718359861 511.0 3.0 345.0 
560.0007639703741 95937.0 NaN 1463.788911155645 0.791063712209358 508.0 3.0 343.0 
562.0007639703741 95972.0 NaN 1463.7568470273884 0.7727022786599008 507.0 3.0 343.0 
564.0007639703741 95989.0 NaN 1463.810287241149 0.7641080878363132 508.0 3.0 343.0 
566.0001983480089 96033.0 NaN 1466.851035404142 0.7739509071418904 505.0 3.0 344.0 
568.0007639703741 96029.0 NaN 1469.9291917167666 0.7839438104444374 509.0 3.0 345.0 
570.0007639703741 96049.0 NaN 1466.84034736139 0.788793319763013 512.0 3.0 344.0 
572.0007639703741 96050.0 NaN 1469.9452237808948 0.7768036330916733 511.0 3.0 345.0 
574.0007639703741 96064.0 NaN 1472.993987975952 0.7862657457767126 509.0 3.0 346.0 
576.0001983480089 96115.0 NaN 1476.0480961923843 0.8029457875396568 511.0 3.0 347.0 
578.0007639703741 96112.0 NaN 1472.9779559118242 0.813462259758081 511.0 3.0 346.0 
580.0007639703741 96137.0 NaN 1476.0908483633932 0.82010710224082 511.0 3.0 347.0 
582.0007639703741 96146.0 NaN 1472.9886439545755 0.8124721564019166 510.0 3.0 346.0 
584.0007639703741 96174.0 NaN 1485.3119572478286 0.8118130636494895 510.0 3.0 350.0 
586.0001983480089 96237.0 NaN 1482.1857047428186 0.8219092965741841 517.0 3.0 349.0 
588.0007639703741 96198.0 NaN 1482.1857047428186 0.8314172554206852 517.0 3.0 349.0 
590.0007639703741 96195.0 NaN 1482.207080828324 0.8233854164157416 519.0 3.0 349.0 
592.0007639703741 96176.0 NaN 1482.1937207748826 0.8266404246269368 519.0 3.0 349.0 
594.0007639703741 96200.0 NaN 1482.1402805611212 0.828871286573696 520.0 3.0 349.0 
596.0001983480089 96208.0 NaN 1482.1723446893795 0.8291320671656969 518.0 3.0 349.0 
598.0007639703741 96091.0 NaN 1482.1295925183708 0.8222065473053685 518.0 3.0 349.0 
600.0007639703741 96067.0 NaN 1491.3640614562455 0.8286041841092792 524.0 3.0 352.0 
602.0007639703741 96048.0 NaN 1494.4101536406151 0.8256244357426937 526.0 3.0 353.0 
604.0007639703741 96098.0 NaN 1491.3453573814286 0.818138671963933 524.0 3.0 352.0 
606.0001983480089 96137.0 NaN 1488.2538410153636 0.8208901252465043 527.0 3.0 351.0 
608.0007639703741 96089.0 NaN 1485.1917167668669 0.8206761205254895 527.0 3.0 350.0 
610.0007639703741 96103.0 NaN 1497.517702070809 0.8288944995097705 525.0 3.0 354.0 
612.0007639703741 96111.0 NaN 1500.5958583834347 0.8320460050085638 522.0 3.0 355.0 
614.0007639703741 96094.0 NaN 1509.7795591182362 0.828762780141425 522.0 3.0 358.0 
616.0001983480089 96061.0 NaN 1515.9225116900463 0.8064418549880737 527.0 3.0 360.0 
618.0007639703741 96052.0 NaN 1515.890447561791 0.7979943035559554 524.0 3.0 360.0 
620.0007639703741 96058.0 NaN 1512.8577154308623 0.8065759944968931 524.0 3.0 359.0 
622.0007639703741 96046.0 NaN 1515.9091516366072 0.7989977209417123 525.0 3.0 360.0 
624.0007639703741 96025.0 NaN 1519.0300601202393 0.7892493520964577 524.0 3.0 361.0 
626.0001983480089 96026.0 NaN 1522.0654642618563 0.7829938913457771 524.0 3.0 362.0 
628.0007639703741 96032.0 NaN 1522.100200400801 0.7917425459664361 526.0 4.0 361.0 
630.0007639703741 96028.0 NaN 1522.0841683366727 0.7972479874237786 528.0 4.0 361.0 
632.0007639703741 96011.0 NaN 1522.1322645290575 0.793022571471372 528.0 4.0 361.0 
634.0007639703741 96004.0 NaN 1525.1596526386102 0.7879182697904715 528.0 4.0 362.0 
636.0001983480089 95995.0 NaN 1528.2618570474274 0.7894644257889156 534.0 4.0 363.0 
638.0007639703741 95989.0 NaN 1528.2378089512365 0.7960376462147593 531.0 4.0 363.0 
640.0007639703741 95986.0 NaN 1525.1783567134273 0.7940978158982235 530.0 4.0 362.0 
642.0007639703741 95966.0 NaN 1525.1436205744817 0.7932518635302285 527.0 4.0 362.0 
644.0007639703741 95969.0 NaN 1522.126920507682 0.7974070886500098 525.0 4.0 361.0 
646.0001983480089 95958.0 NaN 1525.1302605210426 0.7985763741640008 525.0 3.0 363.0 
648.0007639703741 95946.0 NaN 1522.1349365397455 0.8023469865547088 525.0 3.0 362.0 
650.0007639703741 95968.0 NaN 1522.116232464929 0.8177892309847455 524.0 3.0 362.0 
652.0007639703741 95992.0 NaN 1525.2398129592527 0.8266897008759889 522.0 3.0 363.0 
654.0007639703741 96010.0 NaN 1528.2458249832998 0.8338602172523909 520.0 3.0 364.0 
656.0001983480089 96013.0 NaN 1531.2999331997335 0.8406990002308957 520.0 3.0 365.0 
658.0007639703741 96010.0 NaN 1531.2919171676697 0.8416416431749838 518.0 3.0 365.0 
660.0007639703741 96046.0 NaN 1534.3914495657987 0.8410712618728791 518.0 3.0 366.0 
662.0007639703741 96008.0 NaN 1537.43486973948 0.8318833900931538 519.0 3.0 367.0 
664.0007639703741 96015.0 NaN 1540.5450901803617 0.8283281266505317 517.0 3.0 368.0 
#####################################################################
# End of data export. Simulation finished at: 2019-03-15T01:01+0000 #
#####################################################################
