#####################################################################
# Alchemist log file - simulation started at: 2019-03-09T19:20+0000 #
#####################################################################
# seed = 2.0, bandwidth = 1333521.4321633242, propagationDelay = 1.0, baserange = 100.0
#
# The columns have the following meaning: 
# time neighbor_count[Sum] <value>@neighbor_count[Sum] packet_size[Mean] mean_delay[Mean] crowd[Sum] overcrowded[Sum] risk[Sum] 
0.0 NaN NaN NaN NaN NaN NaN NaN 
2.0005829790527505 6499.0 NaN 4989.186372745491 0.26561415695220625 1497.0 0.0 1497.0 
4.0005829790527505 13126.0 NaN 4995.019372077489 1.0062761825996904 1496.0 1.0 1496.0 
6.0005829790527505 13128.0 NaN 4994.939211756847 1.006358259105498 1494.0 3.0 1494.0 
8.000582979052751 13124.0 NaN 4994.105544422177 1.0062636573985597 1494.0 3.0 1494.0 
10.000582979052751 13124.0 NaN 4994.0547762191045 1.006263919257698 1493.0 4.0 1493.0 
12.000582979052751 13124.0 NaN 4994.108216432865 1.0062641791958846 1493.0 4.0 1493.0 
14.000582979052751 13124.0 NaN 4993.867735470942 1.0063168660085704 1493.0 4.0 1493.0 
16.00058297905275 13122.0 NaN 4993.937207748831 1.0064061568623481 1493.0 4.0 1493.0 
18.00058297905275 13120.0 NaN 4993.899799599199 1.0073432014961583 1493.0 4.0 1493.0 
20.00058297905275 13115.0 NaN 4993.894455577823 1.007787769309758 1493.0 4.0 1493.0 
22.00058297905275 13128.0 NaN 4993.905143620575 1.0057239600207069 1493.0 4.0 1493.0 
24.00058297905275 13147.0 NaN 4993.921175684703 1.00611567490521 1493.0 4.0 1493.0 
26.00058297905275 13151.0 NaN 4993.824983299934 1.0062722683834076 1493.0 4.0 1493.0 
28.00058297905275 13152.0 NaN 4993.84368737475 1.0062531596237465 1493.0 4.0 1493.0 
30.00058297905275 13152.0 NaN 4993.822311289246 1.006226041327162 1493.0 4.0 1493.0 
32.00058297905275 13174.0 NaN 4993.811623246493 1.0069999541937869 1493.0 4.0 1493.0 
34.00058297905275 13180.0 NaN 4993.873079492318 1.0060676201765761 1493.0 4.0 1493.0 
36.00058297905275 13185.0 NaN 4993.9959919839675 1.006020594859133 1493.0 4.0 1493.0 
38.00058297905275 13186.0 NaN 4993.899799599199 1.0067410110036203 1493.0 4.0 1493.0 
40.00058297905275 13192.0 NaN 4993.9505678022715 1.0066390382553971 1493.0 4.0 1493.0 
42.00058297905275 13222.0 NaN 4993.9665998663995 1.0087790006581443 1490.0 7.0 1490.0 
44.00058297905275 13219.0 NaN 4993.9452237808955 1.0073316026834536 1488.0 9.0 1488.0 
46.00058297905275 13226.0 NaN 4993.9692718770875 1.0080801450808483 1488.0 9.0 1488.0 
48.00058297905275 13236.0 NaN 4993.9879759519035 1.0081036335465559 1488.0 9.0 1488.0 
50.00058297905275 13240.0 NaN 4993.902471609887 1.0079833071091173 1488.0 9.0 1488.0 
52.00058297905275 13263.0 NaN 4993.9452237808955 1.0108651452020971 1488.0 9.0 1488.0 
54.00058297905275 13245.0 NaN 4993.915831663327 1.007402931976236 1488.0 9.0 1488.0 
56.00058297905275 13246.0 NaN 4993.886439545759 1.0069540401435846 1491.0 6.0 1491.0 
58.00058297905275 13246.0 NaN 4993.915831663327 1.0089253401445126 1493.0 4.0 1493.0 
60.00058297905275 13225.0 NaN 4990.89378757515 1.0087384572757343 1492.0 4.0 1492.0 
62.00058297905275 13251.0 NaN 1519.486973947897 1.0058368198015775 780.0 2.0 362.0 
64.00058297905275 13232.0 NaN 1522.5731462925849 1.0039918259022451 656.0 6.0 359.0 
66.00058297905275 13232.0 NaN 1522.492985971945 1.0039584477070727 590.0 10.0 355.0 
68.00058297905275 13239.0 NaN 1522.426185704743 1.00420668538631 558.0 9.0 356.0 
70.00058297905275 13237.0 NaN 1522.3139612558455 1.0046715337216672 539.0 11.0 354.0 
72.00058297905275 13273.0 NaN 1522.2658650634605 1.0044955743681652 528.0 10.0 355.0 
74.00058297905275 13284.0 NaN 1528.3981295925182 1.0036399466678487 524.0 11.0 356.0 
76.00058297905275 13292.0 NaN 1528.3607214428848 1.0051735218975917 523.0 12.0 355.0 
78.00058297905275 13292.0 NaN 1528.307281229125 1.0056745645063327 521.0 13.0 354.0 
80.00058297905275 13300.0 NaN 1531.4148296593182 1.005002842406516 520.0 12.0 356.0 
82.00058297905275 13297.0 NaN 1531.3747494989998 1.0045146617395264 518.0 13.0 355.0 
84.00058297905275 13303.0 NaN 1534.4716098864392 1.0070149625109563 518.0 13.0 356.0 
86.00058297905275 13300.0 NaN 1534.458249833 1.0044055053922303 517.0 12.0 357.0 
88.00058297905275 13297.0 NaN 1534.4422177688725 1.0055567435955288 517.0 13.0 356.0 
90.00058297905275 13298.0 NaN 1534.4288577154302 1.0085111360939336 517.0 13.0 356.0 
92.00058297905275 13250.0 NaN 1534.4475617902458 1.0046708244766356 518.0 12.0 357.0 
94.00058297905275 13248.0 NaN 1534.4208416833662 1.0062374194359274 516.0 12.0 357.0 
96.00058297905275 13244.0 NaN 1534.394121576488 1.0031608516145105 517.0 11.0 358.0 
98.00058297905275 13245.0 NaN 1534.4048096192366 1.0023419540100993 521.0 7.0 362.0 
100.00058297905275 13242.0 NaN 1534.3994655978636 1.004757326415399 520.0 8.0 361.0 
102.00058297905275 13209.0 NaN 1537.4829659318634 1.0038199284556963 520.0 8.0 362.0 
104.00058297905275 13215.0 NaN 1537.5070140280548 1.0021831767887106 521.0 7.0 363.0 
106.00058297905275 13221.0 NaN 1537.5364061456246 1.0025723520410026 519.0 8.0 362.0 
108.00058297905275 13230.0 NaN 1540.58784235137 1.001277906138598 520.0 8.0 363.0 
110.00058297905275 13242.0 NaN 1540.6145624582489 1.001832246264079 521.0 7.0 364.0 
112.00058297905275 13244.0 NaN 1540.5931863727455 1.0033622278178054 520.0 8.0 363.0 
114.00058297905275 13249.0 NaN 1540.5156980627912 1.0046082547935096 518.0 10.0 361.0 
116.00058297905275 13247.0 NaN 1543.6740146960576 1.0029632662168233 519.0 11.0 361.0 
118.00058297905275 13257.0 NaN 1549.8517034068152 1.002952763094649 521.0 9.0 365.0 
120.00058297905275 13268.0 NaN 1546.7414829659301 1.005821092069489 520.0 10.0 363.0 
122.00058297905275 13264.0 NaN 1546.749498997997 1.004405955412475 521.0 9.0 364.0 
124.00058297905275 13265.0 NaN 1546.725450901803 1.004887393103554 522.0 8.0 365.0 
126.00058297905275 13263.0 NaN 1546.6826987307938 1.0043850886414614 521.0 9.0 364.0 
128.00058297905275 13259.0 NaN 1546.7762191048755 1.0048978131029844 521.0 9.0 364.0 
130.00058297905275 13277.0 NaN 1546.7468269873093 1.0040597387001504 522.0 8.0 365.0 
132.00058297905275 13268.0 NaN 1543.6499665998665 1.004248342188552 521.0 9.0 363.0 
134.00058297905275 13251.0 NaN 1543.6686706746818 1.0012971322799962 520.0 10.0 362.0 
136.00058297905275 13245.0 NaN 1546.730794923182 1.0026081827857825 521.0 9.0 364.0 
138.00058297905275 13224.0 NaN 1543.6472945891787 1.0026823077738753 518.0 9.0 363.0 
140.00058297905275 13248.0 NaN 1546.7548430193729 1.0026671570203591 514.0 10.0 363.0 
142.00058297905275 13263.0 NaN 1549.8329993319971 1.0025223558461933 514.0 9.0 365.0 
144.00058297905275 13275.0 NaN 1549.8463593854362 1.004449351280449 514.0 9.0 365.0 
146.00058297905275 13269.0 NaN 1549.8490313961272 1.0047256763384773 512.0 10.0 364.0 
148.00058297905275 13241.0 NaN 1546.7494989979969 1.004834251771923 516.0 9.0 364.0 
150.00058297905275 13233.0 NaN 1543.6419505678 1.006026524805351 514.0 11.0 361.0 
152.00058297905275 13209.0 NaN 1540.6065464261849 1.0047939794548502 511.0 11.0 360.0 
154.00058297905275 13206.0 NaN 1540.5878423513698 1.005571937194578 507.0 13.0 358.0 
156.00058297905275 13189.0 NaN 1540.5664662658637 1.0045020015137107 507.0 10.0 361.0 
158.00058297905275 13184.0 NaN 1540.5878423513698 1.0037134615507404 508.0 11.0 360.0 
160.00058297905275 13180.0 NaN 1540.5958583834336 1.0036908858415954 511.0 10.0 361.0 
162.00058297905275 13176.0 NaN 1540.6012024048089 1.0040298021788816 510.0 12.0 359.0 
164.00058297905275 13167.0 NaN 1543.65798263193 1.0015420516185167 509.0 12.0 360.0 
166.00058297905275 13167.0 NaN 1543.690046760188 1.0056602870210591 512.0 10.0 362.0 
168.00058297905275 13150.0 NaN 1549.790247160991 1.0053340512520752 512.0 10.0 364.0 
170.00058297905275 13143.0 NaN 1546.749498997997 1.0040529763664594 511.0 11.0 362.0 
172.00058297905275 13138.0 NaN 1543.6793587174361 1.0040491925132327 513.0 10.0 362.0 
174.00058297905275 13149.0 NaN 1543.6232464929847 1.0060258686813937 513.0 10.0 362.0 
176.00058297905275 13128.0 NaN 1543.6686706746818 1.004170029053975 511.0 11.0 361.0 
178.00058297905275 13115.0 NaN 1537.5230460921844 1.0040726006375393 512.0 10.0 360.0 
180.00058297905275 13106.0 NaN 1540.5718102872427 1.0043622051661616 513.0 10.0 361.0 
182.00058297905275 13074.0 NaN 1540.6012024048089 1.0041853527315365 513.0 11.0 360.0 
184.00058297905275 13067.0 NaN 1540.5985303941209 1.0074830781110928 511.0 10.0 361.0 
186.00058297905275 13062.0 NaN 1540.5504342017364 1.0024929520851336 510.0 10.0 361.0 
188.00058297905275 13069.0 NaN 1537.5604542418182 1.0039667364028464 508.0 11.0 359.0 
190.00058297905275 13061.0 NaN 1540.5691382765544 1.0032209552398799 510.0 9.0 362.0 
192.00058297905275 13064.0 NaN 1540.6065464261847 1.004209474980802 509.0 10.0 361.0 
194.00058297905275 13046.0 NaN 1540.5931863727455 1.005729172120397 508.0 11.0 360.0 
196.00058297905275 13010.0 NaN 1540.6092184368727 1.0070376467273376 509.0 10.0 361.0 
198.00058297905275 13023.0 NaN 1540.5637942551757 1.0069512513654328 510.0 10.0 361.0 
200.00058297905275 13003.0 NaN 1543.692718770875 1.005384249838122 511.0 11.0 361.0 
202.00058297905275 12998.0 NaN 1543.6740146960574 1.009660006217365 511.0 11.0 361.0 
204.00058297905275 12985.0 NaN 1546.7227788911155 1.0098818959464617 511.0 11.0 362.0 
206.00058297905275 12969.0 NaN 1543.7034068136272 1.0045839595336294 510.0 12.0 360.0 
208.00058297905275 12979.0 NaN 1543.6472945891787 1.004402373156108 510.0 11.0 361.0 
210.00058297905275 12947.0 NaN 1537.5096860387453 1.0031428778330054 508.0 11.0 359.0 
212.00058297905275 12935.0 NaN 1540.5637942551755 1.0043244139579215 504.0 12.0 359.0 
214.00058297905275 12926.0 NaN 1543.6339345357364 1.00482832538217 506.0 11.0 361.0 
216.00058297905275 12898.0 NaN 1543.6312625250519 1.0014860981268396 505.0 11.0 361.0 
218.00058297905275 12906.0 NaN 1540.582498329993 1.0009010668529612 506.0 12.0 359.0 
220.00058297905275 12904.0 NaN 1540.5691382765544 1.0024115119565835 508.0 11.0 360.0 
222.00058297905275 12877.0 NaN 1540.5744822979273 1.0034131220129696 508.0 11.0 360.0 
224.00058297905275 12860.0 NaN 1540.582498329993 1.001156707798868 508.0 10.0 361.0 
226.00058297905275 12853.0 NaN 1540.545090180361 1.001732730039215 510.0 9.0 362.0 
228.00058297905275 12851.0 NaN 1540.5076820307272 1.002175697079643 510.0 9.0 362.0 
230.00058297905275 12854.0 NaN 1537.4909819639272 1.001754453344224 505.0 10.0 360.0 
232.00058297905275 12832.0 NaN 1540.5931863727455 1.0032315820424764 506.0 9.0 362.0 
234.00058297905275 12815.0 NaN 1540.5050100200392 1.0045025732204709 505.0 10.0 361.0 
236.00058297905275 12779.0 NaN 1543.647294589179 1.0016171844110646 504.0 11.0 361.0 
238.00058297905275 12778.0 NaN 1543.6312625250519 1.0022610182910683 505.0 10.0 362.0 
240.00058297905275 12778.0 NaN 1540.5237140948545 1.000459381765102 505.0 10.0 361.0 
242.00058297905275 12763.0 NaN 1540.5050100200392 1.0039130484861665 504.0 11.0 360.0 
244.00058297905275 12748.0 NaN 1540.4943219772883 1.0042474902326943 508.0 9.0 362.0 
246.00058297905275 12723.0 NaN 1537.432197728791 1.00739172794048 508.0 10.0 360.0 
248.00058297905275 12717.0 NaN 1540.5103540414182 1.0021140057926965 507.0 11.0 360.0 
250.00058297905275 12720.0 NaN 1537.405477621909 1.0038860121172142 507.0 10.0 360.0 
252.00058297905275 12711.0 NaN 1534.3433533734124 1.0031741270442487 503.0 10.0 359.0 
254.00058297905275 12717.0 NaN 1534.3834335337363 1.0043710193977637 503.0 11.0 358.0 
256.00058297905275 12697.0 NaN 1531.326653306612 1.0020056387144127 505.0 10.0 358.0 
258.00058297905275 12688.0 NaN 1531.2598530394116 1.0001808299128312 506.0 10.0 358.0 
260.00058297905275 12707.0 NaN 1531.3026052104208 1.003714852219299 505.0 11.0 357.0 
262.00058297905275 12682.0 NaN 1525.1943887775544 1.0032370297489073 506.0 11.0 355.0 
264.00058297905275 12695.0 NaN 1525.1516366065455 1.0032997524778007 507.0 10.0 356.0 
266.00058297905275 12655.0 NaN 1528.2244488977972 1.001626709855924 505.0 11.0 356.0 
268.00058297905275 12647.0 NaN 1537.4428857715434 1.0064563976954222 506.0 10.0 360.0 
270.00058297905275 12648.0 NaN 1540.4622578490298 1.002812205732964 506.0 10.0 361.0 
272.00058297905275 12630.0 NaN 1540.5023380093523 1.0020667284444609 505.0 11.0 360.0 
274.00058297905275 12659.0 NaN 1543.5831663326637 1.0051507658655372 506.0 10.0 362.0 
276.00058297905275 12623.0 NaN 1540.5050100200388 1.0008415071717731 505.0 10.0 361.0 
278.00058297905275 12629.0 NaN 1540.5130260521023 1.0030312730195705 504.0 11.0 360.0 
280.00058297905275 12621.0 NaN 1540.5023380093523 1.0026962570138096 507.0 10.0 361.0 
282.00058297905275 12598.0 NaN 1537.4348697394796 1.0002772633488 507.0 10.0 360.0 
284.00058297905275 12604.0 NaN 1537.4535738142933 1.0040598750183019 507.0 10.0 360.0 
286.00058297905275 12566.0 NaN 1537.4589178356728 0.9999143606209578 508.0 9.0 361.0 
288.00058297905275 12574.0 NaN 1537.4028056112206 1.0036861645205026 508.0 9.0 361.0 
290.00058297905275 12557.0 NaN 1537.4402137608542 1.001924532105018 506.0 10.0 360.0 
292.00058297905275 12530.0 NaN 1537.448229792918 1.000229301746155 505.0 9.0 361.0 
294.00058297905275 12535.0 NaN 1531.3159652638612 1.0025971583440374 506.0 9.0 359.0 
296.00058297905275 12492.0 NaN 1531.3239812959273 1.0007536817804732 504.0 10.0 358.0 
298.00058297905275 12496.0 NaN 1531.342685370743 1.0011713771990929 505.0 9.0 359.0 
300.00058297905275 12494.0 NaN 1534.4048096192364 1.0024738221841651 503.0 9.0 360.0 
302.00058297905275 12471.0 NaN 1528.269873079491 1.0024843070820422 501.0 10.0 357.0 
304.00058297905275 12464.0 NaN 1528.301937207748 1.0031171348423193 500.0 9.0 358.0 
306.00058297905275 12439.0 NaN 1531.318637274548 1.0021833161627818 500.0 9.0 359.0 
308.00058297905275 12434.0 NaN 1528.2484969939885 1.0020334345462578 499.0 10.0 357.0 
310.00058297905275 12421.0 NaN 1531.2785571142272 1.0014229461555617 501.0 9.0 359.0 
312.00058297905275 12422.0 NaN 1531.2732130928546 1.000080277139915 500.0 9.0 359.0 
314.00058297905275 12423.0 NaN 1528.1977287909158 1.0030452373797982 499.0 10.0 357.0 
316.00058297905275 12401.0 NaN 1525.092852371409 1.0008655733157787 499.0 9.0 357.0 
318.00058297905275 12399.0 NaN 1525.1516366065453 1.0003164252717116 500.0 10.0 356.0 
320.00058297905275 12399.0 NaN 1528.2805611222457 1.000956067113817 500.0 9.0 358.0 
322.00058297905275 12406.0 NaN 1528.2297929191727 1.0001938996998345 500.0 10.0 357.0 
324.00058297905275 12425.0 NaN 1531.2999331997335 1.0040092264222766 501.0 9.0 359.0 
326.00058297905275 12410.0 NaN 1531.318637274548 1.0016980926271901 499.0 10.0 358.0 
328.00058297905275 12409.0 NaN 1531.3293253173001 1.0007935796590415 500.0 9.0 359.0 
330.00058297905275 12388.0 NaN 1531.2945891783547 1.0014006285442476 500.0 10.0 358.0 
332.00058297905275 12377.0 NaN 1528.2698730794912 1.0021302020852136 502.0 9.0 358.0 
334.00058297905275 12370.0 NaN 1531.2865731462912 1.0025884030658503 501.0 10.0 358.0 
336.00058297905275 12361.0 NaN 1534.4074816299274 1.0001356508118715 502.0 9.0 360.0 
338.00058297905275 12373.0 NaN 1534.340681362727 1.0004818349316154 502.0 10.0 359.0 
340.00058297905275 12376.0 NaN 1528.1790247161002 1.001192019569249 503.0 9.0 358.0 
342.00058297905275 12400.0 NaN 1534.3246492985975 1.0040383562207007 507.0 10.0 359.0 
344.00058297905275 12385.0 NaN 1534.3567134268546 1.0040706512720028 505.0 9.0 360.0 
346.00058297905275 12369.0 NaN 1531.283901135603 1.0020301685962094 504.0 10.0 358.0 
348.00058297905275 12388.0 NaN 1528.1763527054097 1.0014196573831842 506.0 9.0 358.0 
350.00058297905275 12390.0 NaN 1528.2324649298605 1.0004933280892958 507.0 10.0 357.0 
352.00058297905275 12409.0 NaN 1528.1870407481638 1.002605482635015 507.0 9.0 358.0 
354.00058297905275 12414.0 NaN 1528.2538410153636 1.0037500927447727 507.0 10.0 357.0 
356.00058297905275 12413.0 NaN 1525.1623246492995 1.0014025775739208 507.0 9.0 357.0 
358.00058297905275 12419.0 NaN 1525.1436205744817 1.0030344876778177 505.0 10.0 356.0 
360.00058297905275 12401.0 NaN 1525.1062124248485 1.0023668065324853 506.0 9.0 357.0 
362.00058297905275 12416.0 NaN 1525.1436205744817 1.0041612288864235 506.0 10.0 356.0 
364.00058297905275 12413.0 NaN 1525.0554442217758 1.0039909856002331 508.0 9.0 357.0 
366.00058297905275 12405.0 NaN 1525.082164328657 1.0049311289886886 507.0 10.0 356.0 
368.00058297905275 12381.0 NaN 1506.6586506346023 1.0053643410479938 506.0 9.0 351.0 
370.00058297905275 12359.0 NaN 1500.5183700734808 1.0039190048613897 505.0 10.0 348.0 
372.00058297905275 12356.0 NaN 1506.6586506346023 1.0057405630168372 506.0 9.0 351.0 
374.00058297905275 12322.0 NaN 1509.8249832999338 1.001738046460194 508.0 9.0 352.0 
376.00058297905275 12302.0 NaN 1506.6880427521717 1.004456352586522 510.0 9.0 351.0 
378.00058297905275 12307.0 NaN 1506.6853707414818 1.0087893520146478 510.0 9.0 351.0 
380.00058297905275 12293.0 NaN 1503.5778223112898 1.0036101274728704 509.0 9.0 350.0 
382.00058297905275 12308.0 NaN 1500.5050100200397 1.0031447408724448 509.0 9.0 349.0 
384.00058297905275 12288.0 NaN 1503.5751503006002 1.0084548887652116 511.0 8.0 351.0 
386.00058297905275 12263.0 NaN 1509.7795591182362 1.0027913789312044 509.0 10.0 351.0 
388.00058297905275 12286.0 NaN 1509.6646626586514 1.0050569425887779 510.0 9.0 352.0 
390.00058297905275 12281.0 NaN 1503.5644622578486 1.007073426748817 508.0 10.0 349.0 
392.00058297905275 12266.0 NaN 1512.801603206412 1.0035524111195517 509.0 9.0 353.0 
394.00058297905275 12253.0 NaN 1512.7962591850362 1.0029324345958819 510.0 10.0 352.0 
396.00058297905275 12251.0 NaN 1509.7314629258524 1.0038829365724686 510.0 9.0 352.0 
398.00058297905275 12275.0 NaN 1509.7982631930538 1.000810111267161 509.0 10.0 351.0 
400.00058297905275 12286.0 NaN 1506.6239144956576 1.0010943868151068 512.0 9.0 351.0 
402.00058297905275 12293.0 NaN 1509.6967267869084 1.0035521152975877 512.0 10.0 351.0 
404.00058297905275 12267.0 NaN 1518.955243820975 1.0047663109100347 514.0 9.0 355.0 
406.00058297905275 12257.0 NaN 1518.9338677354722 1.0042456587958817 514.0 9.0 355.0 
408.00058297905275 12271.0 NaN 1521.9933199732814 1.0026159282628826 515.0 8.0 357.0 
410.00058297905275 12260.0 NaN 1531.2117568470271 1.00337657020971 515.0 9.0 359.0 
412.00058297905275 12272.0 NaN 1531.2705410821634 1.0019618634936214 515.0 9.0 359.0 
414.00058297905275 12266.0 NaN 1534.3380093520364 1.0030485472150883 514.0 9.0 360.0 
416.00058297905275 12267.0 NaN 1534.3380093520364 1.003317057585213 515.0 8.0 361.0 
418.00058297905275 12292.0 NaN 1519.0033400133607 1.009300061044434 517.0 8.0 356.0 
420.00058297905275 12283.0 NaN 1518.9018036072152 1.0024116946110824 516.0 8.0 356.0 
422.00058297905275 12292.0 NaN 1515.853039412157 1.0038707127469253 514.0 8.0 355.0 
424.00058297905275 12290.0 NaN 1512.7722110888453 1.0063153614529696 512.0 8.0 354.0 
426.00058297905275 12268.0 NaN 1515.8557114228454 1.0045517215504636 509.0 8.0 355.0 
428.00058297905275 12296.0 NaN 1515.8183032732122 1.0086365970409144 511.0 8.0 355.0 
430.00058297905275 12284.0 NaN 1515.8343353373425 1.0068353236012002 510.0 9.0 354.0 
432.00058297905275 12297.0 NaN 1512.7695390781555 1.0067201931876881 509.0 11.0 351.0 
434.00058297905275 12293.0 NaN 1521.9906479625909 1.0080715343862612 515.0 9.0 356.0 
436.00058297905275 12277.0 NaN 1528.109552438209 1.0076366487064268 518.0 8.0 359.0 
438.00058297905275 12283.0 NaN 1528.160320641282 1.0086311702201636 519.0 8.0 359.0 
440.00058297905275 12269.0 NaN 1528.093520374082 1.009856508939476 519.0 8.0 359.0 
442.00058297905275 12265.0 NaN 1531.0915163660638 1.010153540526487 518.0 9.0 359.0 
444.00058297905275 12238.0 NaN 1531.1503006012022 1.0128424894190016 519.0 8.0 360.0 
446.00058297905275 12219.0 NaN 1537.3921175684704 1.0094465280392522 523.0 8.0 362.0 
448.00058297905275 12240.0 NaN 1543.4682698730817 1.0077982835415977 525.0 8.0 364.0 
450.00058297905275 12231.0 NaN 1540.3420173680702 1.0091125431683463 522.0 8.0 363.0 
452.00058297905275 12214.0 NaN 1540.3794255177002 1.0083444133788901 522.0 8.0 363.0 
454.00058297905275 12199.0 NaN 1543.4228456913818 1.01073028278141 521.0 8.0 364.0 
456.00058297905275 12211.0 NaN 1552.7027388109543 1.0094806542324677 521.0 8.0 367.0 
458.00058297905275 12227.0 NaN 1552.7775551102181 1.0041246340971535 519.0 8.0 367.0 
460.00058297905275 12228.0 NaN 1549.5524382097544 1.0055785372101202 517.0 9.0 365.0 
462.00058297905275 12228.0 NaN 1546.4769539078156 1.0061244893239194 516.0 10.0 363.0 
464.00058297905275 12241.0 NaN 1540.4088176352723 1.0091413573015275 516.0 9.0 362.0 
466.00058297905275 12236.0 NaN 1543.4923179692728 1.0084754434560907 515.0 10.0 362.0 
468.00058297905275 12235.0 NaN 1543.4255177020725 1.007259932709107 516.0 10.0 362.0 
470.00058297905275 12219.0 NaN 1540.3500334001337 1.0080874747915183 515.0 10.0 361.0 
472.00058297905275 12219.0 NaN 1534.1723446893793 1.0075483799182994 513.0 10.0 359.0 
474.00058297905275 12208.0 NaN 1524.9779559118244 1.0064590980469617 512.0 10.0 356.0 
476.00058297905275 12212.0 NaN 1515.7648630594538 1.0087836481134493 510.0 10.0 353.0 
478.00058297905275 12189.0 NaN 1515.7782231128917 1.0049351403781286 507.0 10.0 353.0 
480.00058297905275 12190.0 NaN 1515.7515030060113 1.0042052927974374 510.0 10.0 353.0 
482.00058297905275 12197.0 NaN 1509.565798263192 1.0039778214823791 508.0 10.0 351.0 
484.00058297905275 12190.0 NaN 1509.5631262525062 1.0064352923235207 506.0 10.0 351.0 
486.00058297905275 12172.0 NaN 1509.5791583166342 1.0082280607918255 505.0 10.0 351.0 
488.00058297905275 12168.0 NaN 1500.4622578490303 1.00937994620742 504.0 10.0 348.0 
490.00058297905275 12146.0 NaN 1497.2585170340697 1.0030022572544512 503.0 10.0 347.0 
492.00058297905275 12148.0 NaN 1494.2044088176362 1.005955214020963 503.0 10.0 346.0 
494.00058297905275 12142.0 NaN 1491.174348697394 1.0040317447626772 502.0 10.0 345.0 
496.00058297905275 12142.0 NaN 1491.1663326653302 1.0047664076937453 502.0 10.0 345.0 
498.00058297905275 12158.0 NaN 1488.1362725450906 1.0079988283106274 501.0 10.0 344.0 
500.00058297905275 12141.0 NaN 1488.114896459585 1.0062691923550646 499.0 10.0 344.0 
502.00058297905275 12150.0 NaN 1488.0561122244483 1.0035936596209478 500.0 11.0 343.0 
504.00058297905275 12165.0 NaN 1491.2064128256523 1.0064032886498993 503.0 10.0 345.0 
506.00058297905275 12172.0 NaN 1497.4054776219098 1.0030050163306896 506.0 10.0 347.0 
508.00058297905275 12190.0 NaN 1491.283901135603 1.0049068200356581 505.0 10.0 345.0 
510.00058297905275 12186.0 NaN 1497.3146292585182 1.0054183324320958 504.0 11.0 346.0 
512.0005829790528 12200.0 NaN 1497.338677354709 1.0059838191543649 504.0 11.0 346.0 
514.0005829790528 12207.0 NaN 1491.1877087508356 1.0077712755817283 505.0 11.0 344.0 
516.0005829790528 12208.0 NaN 1478.973947895791 1.0022725848929221 502.0 11.0 340.0 
518.0005829790528 12212.0 NaN 1472.8443553774207 1.0020717931752927 498.0 11.0 338.0 
520.0005829790528 12234.0 NaN 1466.6426185704736 1.0043090015653597 498.0 11.0 336.0 
522.0005829790528 12253.0 NaN 1469.683366733466 1.0026753245173476 499.0 11.0 337.0 
524.0005829790528 12268.0 NaN 1457.4669338677359 1.0044043522470991 495.0 11.0 333.0 
526.0005829790528 12271.0 NaN 1451.2945891783559 1.0039085793161446 495.0 11.0 331.0 
528.0005829790528 12282.0 NaN 1454.3887775551095 1.0022354503089907 495.0 11.0 332.0 
530.0005829790528 12292.0 NaN 1454.3967935871735 1.0028986657847863 496.0 10.0 333.0 
532.0005829790528 12302.0 NaN 1454.3299933199728 1.0020097109813753 498.0 10.0 333.0 
534.0005829790528 12326.0 NaN 1460.5023380093526 0.9999412807440742 499.0 10.0 335.0 
536.0005829790528 12334.0 NaN 1457.4829659318634 1.0039044208011232 497.0 10.0 334.0 
538.0005829790528 12341.0 NaN 1457.477621910488 1.0064305226170878 499.0 10.0 334.0 
540.0005829790528 12324.0 NaN 1457.4883099532394 1.0049609023976005 500.0 10.0 334.0 
542.0005829790528 12308.0 NaN 1460.534402137609 1.006341901002203 500.0 10.0 335.0 
544.0005829790528 12301.0 NaN 1460.4729458917832 1.0056188761280707 503.0 10.0 335.0 
546.0005829790528 12291.0 NaN 1460.4809619238467 1.0043832509529365 503.0 10.0 335.0 
548.0005829790528 12291.0 NaN 1457.4215096860387 1.006039549373192 506.0 10.0 334.0 
550.0005829790528 12294.0 NaN 1460.446225784903 1.0021805242623631 506.0 10.0 335.0 
552.0005829790528 12289.0 NaN 1460.438209752839 1.0040384314828417 506.0 10.0 335.0 
554.0005829790528 12290.0 NaN 1466.6078824315293 1.0070752055461927 505.0 10.0 337.0 
556.0005829790528 12291.0 NaN 1469.6379425517705 1.0054859645130718 503.0 10.0 338.0 
558.0005829790528 12287.0 NaN 1454.2979291917172 1.0028762460521548 499.0 10.0 333.0 
560.0005829790528 12299.0 NaN 1451.2518370073485 1.00435426400041 498.0 10.0 332.0 
562.0005829790528 12298.0 NaN 1454.340681362726 1.0039763276884062 493.0 11.0 332.0 
564.0005829790528 12317.0 NaN 1460.5851703406818 1.006427324336646 486.0 16.0 329.0 
566.0005829790528 12313.0 NaN 1466.789579158317 1.0044426796275039 488.0 17.0 330.0 
568.0005829790528 12317.0 NaN 1469.750167000668 1.0030393967271958 493.0 13.0 335.0 
570.0005829790528 12313.0 NaN 1475.9251837007353 1.0042628886387714 502.0 12.0 338.0 
572.0005829790528 12274.0 NaN 1479.0273881095532 1.0037256075566419 501.0 12.0 339.0 
574.0005829790528 12291.0 NaN 1482.0601202404814 1.006900471901137 502.0 10.0 342.0 
576.0005829790528 12301.0 NaN 1488.221776887108 1.0055225957450564 502.0 10.0 344.0 
578.0005829790528 12315.0 NaN 1482.1108884435541 1.0044299870675804 502.0 10.0 342.0 
580.0005829790528 12303.0 NaN 1485.098196392785 1.0049416599921333 504.0 9.0 344.0 
582.0005829790528 12281.0 NaN 1485.0794923179697 1.004678244750506 508.0 9.0 344.0 
584.0005829790528 12278.0 NaN 1485.0501002004003 1.0074942989883329 509.0 9.0 344.0 
586.0005829790528 12314.0 NaN 1491.1609886439546 1.0036594595797945 513.0 9.0 346.0 
588.0005829790528 12337.0 NaN 1491.2518370073474 1.003988868961788 514.0 9.0 346.0 
590.0005829790528 12340.0 NaN 1491.2625250501 1.0059473217018489 514.0 9.0 346.0 
592.0005829790528 12339.0 NaN 1491.219772879091 1.0056082876646038 518.0 9.0 346.0 
594.0005829790528 12341.0 NaN 1491.257181028725 1.004511711363039 516.0 9.0 346.0 
596.0005829790528 12334.0 NaN 1494.3353373413486 1.0054216466923964 518.0 9.0 347.0 
598.0005829790528 12343.0 NaN 1491.2625250501 1.004757042832071 518.0 9.0 346.0 
600.0005829790528 12326.0 NaN 1488.1042084168344 1.006309032966867 518.0 10.0 344.0 
602.0005829790528 12328.0 NaN 1491.2758851035394 1.0085105938872538 519.0 10.0 345.0 
604.0005829790528 12331.0 NaN 1491.2598530394112 1.0046121291818189 518.0 10.0 345.0 
606.0005829790528 12365.0 NaN 1497.4108216432878 1.0040753856902151 519.0 9.0 348.0 
608.0005829790528 12380.0 NaN 1497.413493653974 1.0048217386246283 516.0 9.0 348.0 
610.0005829790528 12408.0 NaN 1494.3353373413486 1.0036124814630305 515.0 9.0 347.0 
612.0005829790528 12441.0 NaN 1494.3299933199726 1.0059201041901484 514.0 9.0 347.0 
614.0005829790528 12462.0 NaN 1494.3727454909817 1.010741211368537 513.0 9.0 347.0 
616.0005829790528 12434.0 NaN 1497.4028056112213 1.0071907420644821 514.0 9.0 348.0 
618.0005829790528 12455.0 NaN 1497.3814295257184 1.0056395353326137 515.0 9.0 348.0 
620.0005829790528 12462.0 NaN 1494.3647294589182 1.0063729213522217 515.0 9.0 347.0 
622.0005829790528 12462.0 NaN 1500.4809619238463 1.0055266973963635 513.0 9.0 349.0 
624.0005829790528 12459.0 NaN 1503.617902471609 1.0103844165707752 510.0 10.0 349.0 
626.0005829790528 12450.0 NaN 1503.6820307281243 1.0063513843186405 511.0 9.0 350.0 
628.0005829790528 12465.0 NaN 1506.7682030728113 1.005149356791942 508.0 10.0 350.0 
630.0005829790528 12449.0 NaN 1506.7441549766193 1.0036257889193807 509.0 9.0 351.0 
632.0005829790528 12447.0 NaN 1506.6960587842357 1.0031449837489677 507.0 9.0 351.0 
634.0005829790528 12452.0 NaN 1515.9385437541737 1.0101264528342415 508.0 10.0 353.0 
636.0005829790528 12434.0 NaN 1512.8737474949908 1.005038060121802 505.0 17.0 345.0 
638.0005829790528 12439.0 NaN 1515.9973279893109 1.0064517366710233 511.0 15.0 348.0 
640.0005829790528 12414.0 NaN 1515.9465597862381 1.0039198660099804 505.0 22.0 341.0 
642.0005829790528 12427.0 NaN 1509.7715430861729 1.007412062043981 516.0 11.0 350.0 
644.0005829790528 12404.0 NaN 1506.7575150300609 1.0074481368726886 514.0 13.0 347.0 
646.0005829790528 12396.0 NaN 1509.8383433533727 1.006316206658399 514.0 11.0 350.0 
648.0005829790528 12383.0 NaN 1512.9352037408162 1.0042449522630863 512.0 11.0 351.0 
650.0005829790528 12383.0 NaN 1519.080828323312 1.004505654616918 500.0 21.0 343.0 
652.0005829790528 12387.0 NaN 1522.0948563794261 1.006274424339853 498.0 21.0 344.0 
654.0005829790528 12369.0 NaN 1522.1857047428182 1.0067324085054103 499.0 19.0 346.0 
656.0005829790528 12373.0 NaN 1525.253173012691 1.0025236367356043 500.0 16.0 350.0 
658.0005829790528 12363.0 NaN 1534.45557782231 1.002473064294894 501.0 13.0 356.0 
660.0005829790528 12372.0 NaN 1534.3674014696069 1.0023223432540294 504.0 11.0 358.0 
662.0005829790528 12372.0 NaN 1534.391449565799 1.0045035086843246 506.0 9.0 360.0 
664.0005829790528 12342.0 NaN 1537.4134936539738 1.0049095405229884 508.0 10.0 360.0 
#####################################################################
# End of data export. Simulation finished at: 2019-03-09T19:28+0000 #
#####################################################################
