#####################################################################
# Alchemist log file - simulation started at: 2019-03-05T21:22+0000 #
#####################################################################
# seed = 3.0, bandwidth = 1333521.4321633242, propagationDelay = 0.0031622776601683794, baserange = 17.78279410038923
#
# The columns have the following meaning: 
# time neighbor_count[Sum] <value>@neighbor_count[Sum] packet_size[Mean] mean_delay[Mean] crowd[Sum] overcrowded[Sum] risk[Sum] 
0.0 NaN NaN NaN NaN NaN NaN NaN 
2.0005788949835357 1118.0 NaN 4993.9505678022715 0.4991679795444883 1497.0 0.0 1497.0 
4.000578894983536 1118.0 NaN 4995.692718770875 0.49916264824625084 1497.0 0.0 1497.0 
6.000084666035003 1118.0 NaN 4993.285237140949 0.5006993574805362 1496.0 1.0 1496.0 
8.000577071411222 1117.0 NaN 4992.836339345357 0.5064868083899956 1488.0 9.0 1488.0 
10.00033353340315 1118.0 NaN 4992.972611890447 0.5041929155419428 1487.0 10.0 1487.0 
12.000577071411222 1114.0 NaN 4992.216432865732 0.4986089013783778 1487.0 10.0 1487.0 
14.000577071411222 1114.0 NaN 4992.7321309285235 0.49860817080716446 1487.0 10.0 1487.0 
16.000084666035004 1114.0 NaN 4992.243152972612 0.5047560222660967 1487.0 10.0 1487.0 
18.00057707141122 1113.0 NaN 4992.261857047428 0.4983267570733274 1487.0 10.0 1487.0 
20.00033353340315 1118.0 NaN 4992.269873079493 0.49876792458034674 1487.0 10.0 1487.0 
22.00057707141122 1117.0 NaN 4992.061456245825 0.500002845923312 1487.0 10.0 1487.0 
24.00057707141122 1116.0 NaN 4992.240480961924 0.4985148449414877 1487.0 10.0 1487.0 
26.000084666035004 1122.0 NaN 4992.024048096192 0.5002920506336545 1487.0 10.0 1487.0 
28.00057707141122 1123.0 NaN 4992.09619238477 0.5013923763315864 1487.0 10.0 1487.0 
30.00033353340315 1124.0 NaN 4992.104208416834 0.4989990903955863 1487.0 10.0 1487.0 
32.00057707141122 1128.0 NaN 4992.082832331329 0.5025123655229576 1487.0 10.0 1487.0 
34.00057707141122 1126.0 NaN 4991.965263861055 0.5004674817225374 1487.0 10.0 1487.0 
36.00008466603501 1125.0 NaN 4991.933199732799 0.5041009809445157 1487.0 10.0 1487.0 
38.00057707141122 1129.0 NaN 4991.882431529726 0.5010801695397323 1487.0 10.0 1487.0 
40.00033353340315 1132.0 NaN 4992.002672010688 0.5135581141381493 1487.0 10.0 1487.0 
42.00057707141122 1130.0 NaN 4991.850367401469 0.518188864100249 1487.0 10.0 1487.0 
44.00057707141122 1128.0 NaN 4991.724782899131 0.5057976322566035 1487.0 10.0 1487.0 
46.00008466603501 1132.0 NaN 4991.906479625918 0.4986024405402375 1487.0 10.0 1487.0 
48.00057707141122 1140.0 NaN 4992.032064128257 0.5058341765963887 1487.0 10.0 1487.0 
50.00033353340315 1145.0 NaN 4991.706078824315 0.5124299947267277 1487.0 10.0 1487.0 
52.00057707141122 1136.0 NaN 4992.024048096192 0.5075173690034687 1487.0 10.0 1487.0 
54.00057707141122 1132.0 NaN 4991.89044756179 0.5078083977777573 1487.0 10.0 1487.0 
56.00008466603501 1137.0 NaN 4991.660654642618 0.5129137295652063 1487.0 10.0 1487.0 
58.00057707141122 1138.0 NaN 4992.240480961924 0.523314262492647 1487.0 10.0 1487.0 
60.00033353340315 1126.0 NaN 4991.874415497662 0.5068269570270708 1487.0 10.0 1487.0 
62.00041925469302 1124.0 NaN 974.7521710086816 0.5046714143242972 484.0 9.0 178.0 
64.00041925469303 1126.0 NaN 983.8129592518362 0.5045653103777837 471.0 9.0 181.0 
66.00008466603501 1132.0 NaN 986.8804275217088 0.5065025426031206 412.0 9.0 182.0 
68.00041925469303 1132.0 NaN 986.9472277889089 0.5121809261259395 368.0 9.0 182.0 
70.00033353340315 1129.0 NaN 983.7114228456907 0.5015014833238571 339.0 9.0 181.0 
72.00041925469303 1131.0 NaN 983.7221108884456 0.5062986681059354 326.0 9.0 181.0 
74.00041925469303 1130.0 NaN 983.6659986639921 0.5071167231834574 318.0 9.0 181.0 
76.00008466603501 1125.0 NaN 983.6419505677997 0.5023187967898932 308.0 9.0 181.0 
78.00041925469303 1123.0 NaN 983.7675350701376 0.5106711121057381 297.0 9.0 181.0 
80.00033353340315 1129.0 NaN 983.6740146960557 0.5164302420585191 293.0 9.0 181.0 
82.00041925469303 1124.0 NaN 983.5751503006 0.5090202057390054 290.0 9.0 181.0 
84.00041925469303 1126.0 NaN 983.5724782899104 0.5158851662642785 287.0 9.0 181.0 
86.00008466603501 1113.0 NaN 983.6259185036727 0.5085366365578977 282.0 9.0 181.0 
88.00041925469303 1114.0 NaN 983.6125584502352 0.511121974879257 282.0 9.0 181.0 
90.00033353340315 1127.0 NaN 992.868403473617 0.5165266853702605 283.0 9.0 184.0 
92.00041925469303 1123.0 NaN 989.747494989982 0.504217586016195 284.0 9.0 183.0 
94.00041925469303 1124.0 NaN 992.7481629926529 0.5040414044991498 283.0 9.0 184.0 
96.00008466603501 1121.0 NaN 992.7134268537092 0.512673537190276 283.0 9.0 184.0 
98.00041925469303 1116.0 NaN 992.830995323982 0.517171766018785 283.0 9.0 184.0 
100.00033353340315 1115.0 NaN 995.8851035404166 0.5127095097072573 282.0 9.0 185.0 
102.00041925469303 1110.0 NaN 992.8042752170999 0.5124677514379251 281.0 9.0 184.0 
104.00041925469303 1103.0 NaN 992.7321309285255 0.5080182219360502 280.0 9.0 184.0 
106.00008466603501 1099.0 NaN 992.7054108216457 0.4970125189795025 280.0 9.0 184.0 
108.00041925469303 1114.0 NaN 992.6733466933892 0.5056171351792899 281.0 9.0 184.0 
110.00033353340315 1118.0 NaN 992.7107548430181 0.5127126655197012 280.0 9.0 184.0 
112.00041925469303 1106.0 NaN 992.7321309285255 0.5168847080392973 280.0 9.0 184.0 
114.00041925469303 1086.0 NaN 992.6706746827001 0.5101158371513612 280.0 9.0 184.0 
116.00008466603501 1084.0 NaN 992.6386105544439 0.5141005420997138 278.0 9.0 184.0 
118.00041925469303 1103.0 NaN 986.6666666666653 0.5088413623716974 276.0 9.0 182.0 
120.00033353340315 1106.0 NaN 986.6800267201094 0.5188810913686571 272.0 9.0 182.0 
122.00041925469303 1100.0 NaN 986.6907147628561 0.502678673385141 274.0 9.0 182.0 
124.00041925469303 1103.0 NaN 983.5404141616543 0.49911736821356545 274.0 9.0 181.0 
126.00008466603501 1111.0 NaN 983.5377421509705 0.5033270726739495 274.0 9.0 181.0 
128.000419254693 1127.0 NaN 983.5564462257839 0.5221365997585083 276.0 9.0 181.0 
130.00033353340314 1125.0 NaN 989.6593186372726 0.5150941826517473 274.0 9.0 183.0 
132.000419254693 1118.0 NaN 986.6239144956573 0.5124707291107735 273.0 9.0 182.0 
134.000419254693 1116.0 NaN 989.6325985303936 0.5042176051716247 272.0 9.0 183.0 
136.000084666035 1116.0 NaN 989.6833667334663 0.5101058364483065 272.0 9.0 183.0 
138.000419254693 1123.0 NaN 989.7047428189727 0.5144647073072259 274.0 9.0 183.0 
140.00033353340314 1126.0 NaN 992.8149632598545 0.5240787964363329 275.0 9.0 184.0 
142.000419254693 1116.0 NaN 989.7608550434181 0.5100811072585851 272.0 9.0 183.0 
144.000419254693 1122.0 NaN 989.750167000666 0.503764132160812 272.0 9.0 183.0 
146.000084666035 1145.0 NaN 992.879091516366 0.5003528020437831 273.0 9.0 184.0 
148.000419254693 1157.0 NaN 996.0320641282544 0.50714889077123 272.0 9.0 185.0 
150.00033353340314 1171.0 NaN 993.0153640614546 0.5125684413621283 272.0 9.0 184.0 
152.000419254693 1171.0 NaN 996.0748162992636 0.5129082178685481 271.0 9.0 185.0 
154.000419254693 1164.0 NaN 1002.1402805611202 0.5042529069452245 270.0 9.0 187.0 
156.000084666035 1170.0 NaN 999.0941883767548 0.5193127245546931 275.0 9.0 186.0 
158.000419254693 1162.0 NaN 989.8543754175 0.5119621531986626 277.0 9.0 183.0 
160.00033353340314 1158.0 NaN 996.0400801603206 0.5252287918232684 277.0 9.0 185.0 
162.000419254693 1155.0 NaN 992.8977955911815 0.5107276866154509 277.0 9.0 184.0 
164.000419254693 1143.0 NaN 989.7287909151637 0.5080736479343239 276.0 9.0 183.0 
166.000084666035 1148.0 NaN 986.7067468269885 0.5063861070175915 278.0 9.0 182.0 
168.000419254693 1152.0 NaN 992.9111556446203 0.5096239767814619 278.0 9.0 184.0 
170.00033353340314 1159.0 NaN 995.917167668673 0.5231898235796485 279.0 9.0 185.0 
172.000419254693 1140.0 NaN 995.9786239144976 0.5112566373342098 277.0 9.0 185.0 
174.000419254693 1131.0 NaN 989.8356713426843 0.5090253626899273 276.0 9.0 183.0 
176.000084666035 1131.0 NaN 989.8036072144273 0.5029998758459876 277.0 9.0 183.0 
178.000419254693 1143.0 NaN 989.8730794923183 0.5142909648248334 276.0 9.0 183.0 
180.00033353340314 1141.0 NaN 983.6793587174362 0.52220269925639 276.0 9.0 181.0 
182.000419254693 1127.0 NaN 977.5551102204391 0.50931205200597 273.0 9.0 179.0 
184.000419254693 1120.0 NaN 977.3841015364063 0.5187125441828646 271.0 9.0 179.0 
186.000084666035 1117.0 NaN 977.450901803609 0.5031223924231845 271.0 9.0 179.0 
188.000419254693 1120.0 NaN 977.4295257181027 0.5123707622909031 272.0 9.0 179.0 
190.00033353340314 1130.0 NaN 983.4816299265183 0.5070055030186718 276.0 9.0 181.0 
192.000419254693 1127.0 NaN 983.4789579158302 0.5083914023871884 274.0 9.0 181.0 
194.000419254693 1126.0 NaN 986.5384101536389 0.4999259315613601 272.0 9.0 182.0 
196.000084666035 1138.0 NaN 986.5891783567116 0.5101711722214614 271.0 9.0 182.0 
198.000419254693 1140.0 NaN 986.6586506346024 0.5090001647706387 274.0 9.0 182.0 
200.00033353340314 1146.0 NaN 986.6533066132275 0.5183492819954716 273.0 9.0 182.0 
202.000419254693 1143.0 NaN 986.6319305277206 0.509570950465918 273.0 9.0 182.0 
204.000419254693 1151.0 NaN 989.675350701402 0.5116441399942393 273.0 9.0 183.0 
206.000084666035 1153.0 NaN 989.718102872411 0.5092627203995738 273.0 9.0 183.0 
208.000419254693 1153.0 NaN 989.7047428189727 0.5166991518541366 273.0 9.0 183.0 
210.00033353340314 1150.0 NaN 995.8583834335346 0.5220265304953433 271.0 9.0 185.0 
212.000419254693 1154.0 NaN 992.8176352705435 0.5135397297845368 270.0 9.0 184.0 
214.000419254693 1148.0 NaN 989.678022712091 0.5104152480053769 269.0 9.0 183.0 
216.000084666035 1148.0 NaN 986.6426185704728 0.506914917750473 269.0 9.0 182.0 
218.000419254693 1156.0 NaN 986.6372745491 0.5174104797562997 274.0 9.0 182.0 
220.00033353340314 1161.0 NaN 989.7368069472271 0.523671778058818 276.0 9.0 183.0 
222.000419254693 1141.0 NaN 986.7120908483637 0.5337880588175076 275.0 9.0 182.0 
224.000419254693 1137.0 NaN 986.6372745490999 0.5064303753465694 275.0 9.0 182.0 
226.000084666035 1134.0 NaN 983.5938543754185 0.5030180497759711 275.0 9.0 181.0 
228.000419254693 1148.0 NaN 980.4943219772885 0.5206052314424439 279.0 9.0 180.0 
230.00033353340314 1153.0 NaN 977.4562458249819 0.5257473115043415 275.0 9.0 179.0 
232.000419254693 1148.0 NaN 980.5317301269206 0.5042576134858584 273.0 9.0 180.0 
234.000419254693 1159.0 NaN 983.5778223112909 0.5122722292867681 272.0 9.0 181.0 
236.000084666035 1152.0 NaN 983.6232464929838 0.507265218498357 272.0 9.0 181.0 
238.000419254693 1163.0 NaN 980.5931863727454 0.5251292963620756 271.0 9.0 180.0 
240.00033353340314 1158.0 NaN 977.5738142952567 0.5344362229238399 266.0 9.0 179.0 
242.000419254693 1141.0 NaN 977.4562458249818 0.5124942541979536 263.0 9.0 179.0 
244.000419254693 1131.0 NaN 977.4348697394796 0.5011848528121604 263.0 9.0 179.0 
246.000084666035 1131.0 NaN 977.5177020708093 0.5006771362118546 264.0 9.0 179.0 
248.000419254693 1133.0 NaN 971.3400133600549 0.5109294290187191 261.0 9.0 177.0 
250.00033353340314 1127.0 NaN 971.2785571142273 0.5085627359101416 261.0 9.0 177.0 
252.000419254693 1127.0 NaN 971.2277889111543 0.5149073460680373 265.0 9.0 177.0 
254.000419254693 1117.0 NaN 971.1770207080816 0.5074854376963085 266.0 9.0 177.0 
256.00008466603504 1116.0 NaN 968.152304609218 0.5132619577921814 266.0 9.0 176.0 
258.00041925469304 1118.0 NaN 965.0821643286572 0.5187092239964834 265.0 9.0 175.0 
260.00033353340314 1116.0 NaN 961.9585838343365 0.5305102348652481 263.0 9.0 174.0 
262.00041925469304 1119.0 NaN 962.0975283901118 0.5085287128418992 262.0 9.0 174.0 
264.00041925469304 1124.0 NaN 962.0547762191063 0.5086229824971469 263.0 9.0 174.0 
266.00008466603504 1111.0 NaN 958.9338677354726 0.4976011049365318 263.0 9.0 173.0 
268.00041925469304 1121.0 NaN 955.8877755510999 0.5123055391710888 263.0 9.0 172.0 
270.00033353340314 1123.0 NaN 949.7421509686036 0.5244231804579895 263.0 9.0 170.0 
272.00041925469304 1112.0 NaN 949.7181028724124 0.5123499231066654 265.0 9.0 170.0 
274.00041925469304 1110.0 NaN 955.7835671342688 0.5240213649689592 270.0 9.0 172.0 
276.00008466603504 1109.0 NaN 968.1816967267879 0.5080192101712406 267.0 9.0 176.0 
278.00041925469304 1110.0 NaN 968.1763527054092 0.5135618930230048 267.0 9.0 176.0 
280.00033353340314 1106.0 NaN 968.1950567802273 0.509902342682336 265.0 9.0 176.0 
282.00041925469304 1105.0 NaN 962.0200400801612 0.5187444911681854 264.0 9.0 174.0 
284.00041925469304 1102.0 NaN 958.8777555110212 0.5124493966199257 264.0 9.0 173.0 
286.00008466603504 1099.0 NaN 961.9772879091514 0.5084834268351096 261.0 9.0 174.0 
288.00041925469304 1103.0 NaN 965.004676018703 0.5092768797185895 262.0 9.0 175.0 
290.00033353340314 1099.0 NaN 965.0367401469609 0.5127621755469438 262.0 9.0 175.0 
292.00041925469304 1091.0 NaN 955.8530394121582 0.504748517846102 260.0 9.0 172.0 
294.00041925469304 1106.0 NaN 971.1903807615236 0.5092971901957101 265.0 9.0 177.0 
296.00008466603504 1105.0 NaN 971.3266533066125 0.5084780519577905 266.0 9.0 177.0 
298.00041925469304 1106.0 NaN 968.2912491649965 0.5096715610505039 266.0 9.0 176.0 
300.00033353340314 1115.0 NaN 968.2084168336673 0.5079667133965452 265.0 9.0 176.0 
302.00041925469304 1113.0 NaN 962.0814963259855 0.5151323614397525 266.0 9.0 174.0 
304.00041925469304 1105.0 NaN 958.9205076820314 0.521828894575142 265.0 9.0 173.0 
306.00008466603504 1099.0 NaN 958.9605878423508 0.5090896229397177 264.0 9.0 173.0 
308.00041925469304 1096.0 NaN 962.092184368736 0.5167124555595171 263.0 9.0 174.0 
310.00033353340314 1093.0 NaN 962.0040080160323 0.5176803088910834 263.0 9.0 174.0 
312.00041925469304 1089.0 NaN 955.8984635938546 0.5093649983373625 263.0 9.0 172.0 
314.00041925469304 1087.0 NaN 952.8016032064136 0.5029779616714413 264.0 9.0 171.0 
316.00008466603504 1089.0 NaN 952.7481629926502 0.5173548809031215 264.0 9.0 171.0 
318.00041925469304 1090.0 NaN 961.9372077488315 0.5190249254928567 265.0 9.0 174.0 
320.00033353340314 1108.0 NaN 968.1710086840365 0.5050178608863912 267.0 9.0 176.0 
322.00041925469304 1113.0 NaN 965.1302605210415 0.5078189866320462 269.0 9.0 175.0 
324.00041925469304 1116.0 NaN 955.8637274549089 0.5129811370521083 269.0 9.0 172.0 
326.00008466603504 1117.0 NaN 958.955243820977 0.5163476966296467 270.0 9.0 173.0 
328.00041925469304 1112.0 NaN 958.9766199064817 0.5148315613324173 266.0 9.0 173.0 
330.00033353340314 1108.0 NaN 962.0307281229136 0.5344242155218661 266.0 9.0 174.0 
332.00041925469304 1094.0 NaN 952.8096192384774 0.532968278591816 267.0 9.0 171.0 
334.00041925469304 1097.0 NaN 958.907147628591 0.5012901617233212 270.0 9.0 173.0 
336.00008466603504 1098.0 NaN 958.9205076820319 0.5097856109587269 270.0 9.0 173.0 
338.00041925469304 1099.0 NaN 958.9178356713415 0.5191607900313415 270.0 9.0 173.0 
340.00033353340314 1098.0 NaN 955.863727454909 0.518744952819927 267.0 9.0 172.0 
342.00041925469304 1089.0 NaN 952.7855711422854 0.5209115049137374 267.0 9.0 171.0 
344.00041925469304 1085.0 NaN 952.7321309285226 0.5274600222245635 268.0 9.0 171.0 
346.00008466603504 1073.0 NaN 952.7454909819635 0.5160739867528744 266.0 9.0 171.0 
348.00041925469304 1070.0 NaN 958.9338677354721 0.5072895110025157 264.0 9.0 173.0 
350.00033353340314 1073.0 NaN 952.7668670674682 0.5248529452463138 265.0 9.0 171.0 
352.00041925469304 1060.0 NaN 952.8363393453584 0.5029948166256069 265.0 9.0 171.0 
354.00041925469304 1064.0 NaN 952.7294589178365 0.5119601086919489 266.0 9.0 171.0 
356.00008466603504 1065.0 NaN 949.7742150968596 0.5079815880771061 264.0 9.0 170.0 
358.00041925469304 1063.0 NaN 943.6285905143628 0.5255397191725966 262.0 9.0 168.0 
360.00033353340314 1053.0 NaN 943.5617902471598 0.5029515596055457 258.0 9.0 168.0 
362.00041925469304 1062.0 NaN 934.3807615230454 0.5023511127814538 258.0 9.0 165.0 
364.00041925469304 1070.0 NaN 928.2191048764189 0.5079766583064508 260.0 9.0 163.0 
366.00008466603504 1075.0 NaN 928.2217768871084 0.5108808540407003 258.0 9.0 163.0 
368.00041925469304 1076.0 NaN 925.1008684034726 0.5228564239640764 259.0 9.0 162.0 
370.00033353340314 1071.0 NaN 928.2244488977954 0.5090257085145419 258.0 9.0 163.0 
372.00041925469304 1072.0 NaN 928.2351369405462 0.515738088932208 257.0 9.0 163.0 
374.00041925469304 1069.0 NaN 934.2712090848363 0.5156542876355159 261.0 9.0 165.0 
376.00008466603504 1082.0 NaN 937.4455577822317 0.501459795749342 260.0 9.0 166.0 
378.00041925469304 1078.0 NaN 937.4589178356721 0.5078995857377909 258.0 9.0 166.0 
380.00033353340314 1077.0 NaN 928.2084168336684 0.5153774350273393 256.0 9.0 163.0 
382.00041925469304 1080.0 NaN 931.3319973279904 0.5176683393207702 258.0 9.0 164.0 
384.00041925469304 1077.0 NaN 931.2999331997318 0.5175883436041614 255.0 9.0 164.0 
386.00008466603504 1079.0 NaN 928.2191048764186 0.5197366806026251 251.0 9.0 163.0 
388.00041925469304 1062.0 NaN 925.1997327989318 0.5181150545001797 251.0 9.0 162.0 
390.00033353340314 1066.0 NaN 919.0674682698726 0.5142699174891783 248.0 9.0 160.0 
392.00041925469304 1070.0 NaN 919.1449565798274 0.5143268699198367 246.0 9.0 160.0 
394.00041925469304 1064.0 NaN 919.0354041416173 0.5064860559339566 247.0 9.0 160.0 
396.00008466603504 1077.0 NaN 919.0354041416172 0.5157723289448024 248.0 9.0 160.0 
398.00041925469304 1072.0 NaN 922.1670006680037 0.5100020882494147 248.0 9.0 161.0 
400.00033353340314 1071.0 NaN 925.2798931195729 0.526503009767049 248.0 9.0 162.0 
402.00041925469304 1077.0 NaN 916.0641282565135 0.5054402012544321 247.0 9.0 159.0 
404.00041925469304 1084.0 NaN 915.938543754173 0.5087029230598016 249.0 9.0 159.0 
406.00008466603504 1089.0 NaN 912.9619238476951 0.5339261106798877 249.0 9.0 158.0 
408.00041925469304 1081.0 NaN 912.9672678690724 0.5167936741048168 247.0 9.0 158.0 
410.00033353340314 1088.0 NaN 919.123580494322 0.5171608936887396 250.0 9.0 160.0 
412.00041925469304 1085.0 NaN 919.1663326653312 0.5216079845837049 251.0 9.0 160.0 
414.00041925469304 1078.0 NaN 919.0861723446907 0.5243446045760151 248.0 9.0 160.0 
416.00008466603504 1072.0 NaN 915.9492317969273 0.5125800819619086 248.0 9.0 159.0 
418.00041925469304 1061.0 NaN 915.9358717434868 0.5025574256561258 248.0 9.0 159.0 
420.00033353340314 1086.0 NaN 925.2451569806271 0.509028649930158 249.0 9.0 162.0 
422.00041925469304 1084.0 NaN 925.2718770875092 0.522271275658218 250.0 9.0 162.0 
424.00041925469304 1074.0 NaN 925.1462925851695 0.5168388749503189 246.0 9.0 162.0 
426.00008466603504 1079.0 NaN 925.1756847027397 0.5180839208301314 244.0 9.0 162.0 
428.00041925469304 1076.0 NaN 925.2104208416821 0.5060585308862428 244.0 9.0 162.0 
430.00033353340314 1083.0 NaN 919.0247160988635 0.5150978989094221 243.0 9.0 160.0 
432.00041925469304 1085.0 NaN 922.1696726786911 0.5297145652678706 245.0 9.0 161.0 
434.00041925469304 1068.0 NaN 915.9652638610543 0.5183899116693031 241.0 9.0 159.0 
436.00008466603504 1075.0 NaN 922.0681362725456 0.5246280061709538 243.0 9.0 161.0 
438.00041925469304 1081.0 NaN 925.1569806279225 0.5140373178905424 243.0 9.0 162.0 
440.00033353340314 1087.0 NaN 928.2511690046764 0.5167977656835158 245.0 9.0 163.0 
442.00041925469304 1104.0 NaN 934.4448897795595 0.522265350846139 245.0 9.0 165.0 
444.00041925469304 1091.0 NaN 934.3433533734134 0.5010284853207387 244.0 9.0 165.0 
446.00008466603504 1098.0 NaN 937.4776219104874 0.5080598435081415 244.0 9.0 166.0 
448.00041925469304 1104.0 NaN 937.4615898463596 0.5291586419148319 248.0 9.0 166.0 
450.00033353340314 1096.0 NaN 940.5691382765542 0.5290973741573782 249.0 9.0 167.0 
452.00041925469304 1094.0 NaN 934.4288577154311 0.5229318460237051 248.0 9.0 165.0 
454.00041925469304 1079.0 NaN 937.4348697394785 0.5067025114907022 249.0 9.0 166.0 
456.00008466603504 1089.0 NaN 937.4375417501669 0.510838692220446 249.0 10.0 165.0 
458.00041925469304 1089.0 NaN 937.4776219104875 0.5278294706843487 244.0 15.0 160.0 
460.00033353340314 1089.0 NaN 937.5096860387451 0.5201031449467703 243.0 17.0 158.0 
462.00041925469304 1093.0 NaN 934.4742818971272 0.5269492503664435 244.0 17.0 157.0 
464.00041925469304 1075.0 NaN 934.2899131596541 0.5008766027293092 241.0 17.0 157.0 
466.00008466603504 1074.0 NaN 934.3406813627269 0.5183649218416377 240.0 17.0 157.0 
468.00041925469304 1072.0 NaN 934.3299933199726 0.5170821155355916 237.0 17.0 157.0 
470.00033353340314 1071.0 NaN 931.2705410821635 0.5344701406905132 240.0 17.0 156.0 
472.00041925469304 1062.0 NaN 931.3132932531726 0.5184462837530062 239.0 17.0 156.0 
474.00041925469304 1057.0 NaN 928.2752171008684 0.5069600017650356 239.0 17.0 155.0 
476.00008466603504 1057.0 NaN 925.197060788245 0.5149808142062589 240.0 17.0 154.0 
478.00041925469304 1064.0 NaN 928.2645290581179 0.5261012206140392 243.0 17.0 155.0 
480.00033353340314 1065.0 NaN 931.3507014028048 0.5239768363469861 244.0 15.0 158.0 
482.00041925469304 1065.0 NaN 931.3507014028048 0.5257622074835122 246.0 10.0 163.0 
484.00041925469304 1047.0 NaN 919.0541082164318 0.49849005274931224 245.0 9.0 160.0 
486.00008466603504 1051.0 NaN 919.099532398131 0.5001644154467937 245.0 9.0 160.0 
488.00041925469304 1064.0 NaN 922.0494321977277 0.5110667836780672 242.0 9.0 161.0 
490.00033353340314 1077.0 NaN 922.1215764863051 0.5360878122375454 243.0 9.0 161.0 
492.00041925469304 1068.0 NaN 919.0220440881772 0.5190980350673179 243.0 9.0 160.0 
494.00041925469304 1058.0 NaN 915.847695390782 0.49419534901928697 244.0 9.0 159.0 
496.00008466603504 1063.0 NaN 918.9205076820317 0.5026976218772559 245.0 9.0 160.0 
498.00041925469304 1071.0 NaN 918.9525718102865 0.509402895828071 248.0 9.0 160.0 
500.00033353340314 1073.0 NaN 918.9579158316637 0.5105753343046986 248.0 9.0 160.0 
502.00041925469304 1068.0 NaN 918.9472277889093 0.5153599006869376 246.0 9.0 160.0 
504.00041925469304 1065.0 NaN 918.9392117568458 0.5278728368708867 243.0 9.0 160.0 
506.00008466603504 1060.0 NaN 915.9331997328002 0.4993524620573473 243.0 9.0 159.0 
508.00041925469304 1067.0 NaN 909.7982631930541 0.51621012020632 244.0 9.0 157.0 
510.00033353340314 1070.0 NaN 906.6853707414816 0.5101227196216462 242.0 9.0 156.0 
512.000419254693 1069.0 NaN 903.6766867067461 0.516036029013591 242.0 9.0 155.0 
514.000419254693 1059.0 NaN 903.6686706746817 0.5027034920895596 239.0 9.0 155.0 
516.000084666035 1061.0 NaN 897.5096860387447 0.5017925902423774 240.0 9.0 153.0 
518.000419254693 1067.0 NaN 897.4802939211764 0.5192947864954721 240.0 9.0 153.0 
520.0003335334031 1059.0 NaN 900.5798263193045 0.5149955797765796 242.0 9.0 154.0 
522.000419254693 1047.0 NaN 891.4068136272547 0.5305804910111551 238.0 9.0 151.0 
524.000419254693 1035.0 NaN 888.2992651970604 0.5095271918319394 234.0 9.0 150.0 
526.000084666035 1030.0 NaN 882.1910487641956 0.5035453477529785 235.0 9.0 148.0 
528.000419254693 1041.0 NaN 879.1182364729455 0.517857127751003 235.0 9.0 147.0 
530.0003335334031 1038.0 NaN 869.9452237808955 0.5162316165882423 232.0 9.0 144.0 
532.000419254693 1038.0 NaN 876.0668002672002 0.5242358388569809 234.0 9.0 146.0 
534.000419254693 1032.0 NaN 875.9812959251836 0.5079933976537301 236.0 9.0 146.0 
536.000084666035 1039.0 NaN 888.323313293253 0.503731008119505 237.0 9.0 150.0 
538.000419254693 1046.0 NaN 888.3099532398135 0.5047464995911833 238.0 9.0 150.0 
540.0003335334031 1049.0 NaN 888.2992651970609 0.5156265549727087 238.0 9.0 150.0 
542.000419254693 1049.0 NaN 888.3420173680696 0.5157609941486925 239.0 9.0 150.0 
544.000419254693 1046.0 NaN 888.3019372077498 0.5014623668731477 237.0 9.0 150.0 
546.000084666035 1048.0 NaN 888.3446893787575 0.4997164816954469 236.0 9.0 150.0 
548.000419254693 1048.0 NaN 888.283233132932 0.5050074571642033 236.0 9.0 150.0 
550.0003335334031 1052.0 NaN 885.25584502338 0.512032257644312 237.0 9.0 149.0 
552.000419254693 1057.0 NaN 885.2478289913163 0.5177632991230742 244.0 9.0 149.0 
554.000419254693 1062.0 NaN 888.3152972611892 0.5223218972203275 246.0 9.0 150.0 
556.000084666035 1056.0 NaN 888.3820975283908 0.5069772854212712 244.0 9.0 150.0 
558.000419254693 1056.0 NaN 888.3633934535729 0.526044362617259 244.0 9.0 150.0 
560.0003335334031 1055.0 NaN 891.4736138944546 0.5219561455805688 243.0 9.0 151.0 
562.000419254693 1069.0 NaN 888.5370741482956 0.5156069673955924 245.0 9.0 150.0 
564.000419254693 1071.0 NaN 888.4382097528394 0.5287051399010848 244.0 9.0 150.0 
566.000084666035 1055.0 NaN 891.4949899799593 0.5099972178420735 245.0 9.0 151.0 
568.000419254693 1057.0 NaN 891.4682698730788 0.5333274847674915 246.0 9.0 151.0 
570.0003335334031 1056.0 NaN 894.5437541750167 0.5174272903097648 244.0 9.0 152.0 
572.000419254693 1055.0 NaN 897.7100868403468 0.5064313823038723 243.0 9.0 153.0 
574.000419254693 1068.0 NaN 897.6513026052103 0.5119206567793883 243.0 9.0 153.0 
576.000084666035 1070.0 NaN 903.7675350701409 0.501336897287589 245.0 9.0 155.0 
578.000419254693 1086.0 NaN 903.8343353373409 0.507644040519683 245.0 9.0 155.0 
580.0003335334031 1085.0 NaN 894.5971943887772 0.5211848595160027 241.0 9.0 152.0 
582.000419254693 1081.0 NaN 888.4168336673347 0.5117064013136506 244.0 9.0 150.0 
584.000419254693 1078.0 NaN 891.5136940547771 0.5317063932528925 244.0 9.0 151.0 
586.000084666035 1069.0 NaN 894.5651302605214 0.5096885282364204 245.0 9.0 152.0 
588.000419254693 1068.0 NaN 897.640614562459 0.5098864348425439 248.0 9.0 153.0 
590.0003335334031 1070.0 NaN 900.7214428857716 0.518197869145709 249.0 9.0 154.0 
592.000419254693 1068.0 NaN 900.7454909819635 0.5123216225588944 249.0 9.0 154.0 
594.000419254693 1064.0 NaN 900.6092184368728 0.5092475775704658 245.0 9.0 154.0 
596.000084666035 1055.0 NaN 900.6199064796263 0.5090991526415075 244.0 9.0 154.0 
598.000419254693 1064.0 NaN 903.7488309953236 0.509254639620415 244.0 9.0 155.0 
600.0003335334031 1072.0 NaN 906.8430193720772 0.5123996535587022 246.0 9.0 156.0 
602.000419254693 1077.0 NaN 906.9311957247818 0.5300362778150257 246.0 9.0 156.0 
604.000419254693 1060.0 NaN 906.9124916499674 0.5243164864584148 246.0 9.0 156.0 
606.000084666035 1056.0 NaN 906.8724114896454 0.5049664376097601 250.0 9.0 156.0 
608.000419254693 1073.0 NaN 912.996659986641 0.5148966219659074 253.0 9.0 158.0 
610.0003335334031 1090.0 NaN 925.3814295257182 0.5181132390224735 255.0 9.0 162.0 
612.000419254693 1091.0 NaN 931.4709418837682 0.5396244698368673 257.0 9.0 164.0 
614.000419254693 1076.0 NaN 931.5377421509681 0.5055900194357575 255.0 9.0 164.0 
616.000084666035 1080.0 NaN 937.6085504342004 0.5214579665911007 255.0 9.0 166.0 
618.000419254693 1083.0 NaN 934.5330661322635 0.5084411390011543 255.0 9.0 165.0 
620.0003335334031 1091.0 NaN 934.5704742818958 0.5242654468516711 257.0 9.0 165.0 
622.000419254693 1079.0 NaN 931.5457581830317 0.5218821739635806 257.0 9.0 164.0 
624.000419254693 1072.0 NaN 934.5410821643276 0.5067211052134503 257.0 9.0 165.0 
626.000084666035 1079.0 NaN 940.6199064796269 0.5235733138608744 257.0 9.0 167.0 
628.000419254693 1086.0 NaN 940.7668670674685 0.5096757980652264 255.0 9.0 167.0 
630.0003335334031 1121.0 NaN 943.8690714762859 0.5394553436110108 259.0 9.0 168.0 
632.000419254693 1115.0 NaN 943.7862391449546 0.5220850532428479 259.0 9.0 168.0 
634.000419254693 1099.0 NaN 940.6386105544416 0.5195315301117737 255.0 9.0 167.0 
636.000084666035 1099.0 NaN 946.8216432865726 0.5291988241516017 256.0 9.0 169.0 
638.000419254693 1104.0 NaN 949.9104876419502 0.5198978371423995 256.0 9.0 170.0 
640.0003335334031 1105.0 NaN 956.0828323313275 0.539242529722688 260.0 9.0 172.0 
642.000419254693 1101.0 NaN 956.1416165664671 0.5411436426014272 254.0 15.0 166.0 
644.000419254693 1084.0 NaN 965.2932531730122 0.4974311564062023 259.0 9.0 175.0 
646.000084666035 1088.0 NaN 968.3473613894455 0.5062216931756064 258.0 9.0 176.0 
648.000419254693 1119.0 NaN 974.4983299933183 0.5287960856788944 264.0 9.0 178.0 
650.0003335334031 1096.0 NaN 971.4014696058789 0.5272448939535301 268.0 9.0 177.0 
652.000419254693 1094.0 NaN 974.4261857047425 0.5329400178948129 268.0 9.0 178.0 
654.000419254693 1085.0 NaN 977.4562458249819 0.5152455734894907 269.0 9.0 179.0 
656.000084666035 1085.0 NaN 980.6172344689364 0.5014223110460843 267.0 9.0 180.0 
658.000419254693 1115.0 NaN 983.692718770875 0.5148741790504676 270.0 9.0 181.0 
660.0003335334031 1118.0 NaN 983.6285905143635 0.5315640679638245 274.0 9.0 181.0 
662.000419254693 1100.0 NaN 980.5023380093519 0.5299554394660635 271.0 9.0 180.0 
664.000419254693 1080.0 NaN 980.3981295925181 0.5219240084034685 268.0 9.0 180.0 
#####################################################################
# End of data export. Simulation finished at: 2019-03-05T21:25+0000 #
#####################################################################
