#####################################################################
# Alchemist log file - simulation started at: 2019-03-03T13:37+0000 #
#####################################################################
# seed = 1.0, bandwidth = 1333521.4321633242, propagationDelay = 10.0, baserange = 17.78279410038923
#
# The columns have the following meaning: 
# time neighbor_count[Sum] <value>@neighbor_count[Sum] packet_size[Mean] mean_delay[Mean] crowd[Sum] overcrowded[Sum] risk[Sum] 
0.0 NaN NaN NaN NaN NaN NaN NaN 
10.000417374280275 NaN NaN 4988.0 NaN 1497.0 0.0 1497.0 
20.000417374280275 1113.0 NaN 4992.211088844356 8.995370295136908 1497.0 0.0 1497.0 
30.000417374280275 1120.0 NaN 4991.062124248497 8.05751188467189 1496.0 1.0 1496.0 
40.000417374280275 1134.0 NaN 4990.909819639279 7.076934743689215 1495.0 2.0 1495.0 
50.000417374280275 1144.0 NaN 4990.733466933868 6.280154172347557 1491.0 6.0 1491.0 
60.000417374280275 1159.0 NaN 4991.190380761523 5.266964320215189 1490.0 7.0 1490.0 
70.00041737428027 1150.0 NaN 971.3854375417525 4.3410205060083324 484.0 6.0 180.0 
80.00041737428027 1132.0 NaN 974.3406813627273 3.2125187034042675 469.0 6.0 181.0 
90.00041737428027 1139.0 NaN 980.5504342017363 2.228613365891282 409.0 6.0 183.0 
100.00041737428027 1150.0 NaN 1002.2712090848363 1.4814149716846428 378.0 6.0 190.0 
110.00041737428027 1120.0 NaN 995.9091516366076 5.693162540093273 367.0 6.0 188.0 
120.00041737428027 1094.0 NaN 992.7989311957256 9.999364166778127 353.0 6.0 187.0 
130.0004173742803 1122.0 NaN 995.8690714762832 9.331767200603123 335.0 6.0 188.0 
140.0004173742803 1127.0 NaN 983.5564462257845 8.287804797433767 326.0 6.0 184.0 
150.0004173742803 1158.0 NaN 995.8343353373432 7.239241909863504 322.0 6.0 188.0 
160.0004173742803 1189.0 NaN 999.0327321309271 6.365835039799635 319.0 6.0 189.0 
170.0004173742803 1185.0 NaN 983.6125584502339 5.493601813289559 312.0 6.0 184.0 
180.0004173742803 1171.0 NaN 989.7100868403455 4.42687348706186 300.0 6.0 186.0 
190.0004173742803 1158.0 NaN 971.3186372745486 3.436471413247696 295.0 6.0 180.0 
200.0004173742803 1169.0 NaN 980.5691382765544 2.3780824207219227 299.0 6.0 183.0 
210.0004173742803 1184.0 NaN 989.8971275885092 1.4546338084993125 299.0 6.0 186.0 
220.0004173742803 1160.0 NaN 992.825651302607 5.778342319894239 294.0 6.0 187.0 
230.0004173742803 1129.0 NaN 986.6346025384089 10.043640539722427 293.0 6.0 185.0 
240.0004173742803 1156.0 NaN 971.2197728790908 9.386709245436242 289.0 6.0 180.0 
250.0004173742803 1174.0 NaN 968.192384769539 8.53211488792695 277.0 6.0 179.0 
260.0004173742803 1155.0 NaN 971.2598530394115 7.414223713303954 272.0 6.0 180.0 
270.0004173742803 1152.0 NaN 965.1115564462273 6.402440874690729 274.0 6.0 178.0 
280.0004173742803 1153.0 NaN 952.8096192384761 5.5223010252694245 273.0 6.0 174.0 
290.0004173742803 1129.0 NaN 971.3026052104219 4.5833369613166886 278.0 6.0 180.0 
300.0004173742803 1110.0 NaN 971.2598530394129 3.18442819164074 274.0 6.0 180.0 
310.0004173742803 1139.0 NaN 977.4883099532401 2.5169446172696173 274.0 6.0 182.0 
320.0004173742803 1128.0 NaN 980.6038744154971 1.367729445956095 281.0 6.0 183.0 
330.0004173742803 1113.0 NaN 977.4028056112213 5.656690749149008 282.0 6.0 182.0 
340.0004173742803 1103.0 NaN 971.2839011356044 10.013160464727164 282.0 6.0 180.0 
350.0004173742803 1125.0 NaN 965.1062124248501 9.50258171246794 285.0 6.0 178.0 
360.0004173742803 1109.0 NaN 961.9933199732816 8.683727486131241 279.0 6.0 177.0 
370.0004173742803 1092.0 NaN 946.6800267201085 7.376435710562531 278.0 6.0 172.0 
380.0004173742803 1100.0 NaN 922.1162324649305 6.3697249155224664 274.0 6.0 164.0 
390.0004173742803 1088.0 NaN 912.9031396125591 5.391557754372557 266.0 6.0 161.0 
400.0004173742803 1120.0 NaN 915.9973279893125 4.5547286463414665 265.0 6.0 162.0 
410.0004173742803 1113.0 NaN 909.8410153640631 3.7138690432266586 259.0 6.0 160.0 
420.0004173742803 1116.0 NaN 919.120908483633 2.2838114368811535 261.0 6.0 163.0 
430.0004173742803 1110.0 NaN 922.2525050100185 1.6022299704503435 261.0 6.0 164.0 
440.0004173742803 1089.0 NaN 934.4983299933184 5.685961448842062 262.0 6.0 168.0 
450.0004173742803 1088.0 NaN 934.4502338009366 10.041451593745267 260.0 6.0 168.0 
460.0004173742803 1124.0 NaN 943.5511022044092 9.402878507407777 263.0 6.0 171.0 
470.0004173742803 1124.0 NaN 937.413493653973 8.5626846412928 267.0 6.0 169.0 
480.0004173742803 1088.0 NaN 937.3306613226455 7.651813851159784 260.0 7.0 168.0 
490.0004173742803 1087.0 NaN 934.3861055444221 6.33022273994536 259.0 6.0 168.0 
500.0004173742803 1093.0 NaN 925.1382765531052 5.3585485411186635 258.0 6.0 165.0 
510.0004173742803 1102.0 NaN 912.8977955911816 4.463278256274235 258.0 6.0 161.0 
520.0004173742802 1088.0 NaN 900.5851703406819 3.404754355667556 253.0 6.0 157.0 
530.0004173742802 1080.0 NaN 891.4255177020715 2.523394478148495 249.0 6.0 154.0 
540.0004173742802 1084.0 NaN 900.8042752171 1.4943040032846762 250.0 6.0 157.0 
550.0004173742802 1062.0 NaN 876.0480961923847 5.707712231150019 242.0 6.0 149.0 
560.0004173742802 1042.0 NaN 882.1830327321316 10.014558315371444 243.0 6.0 151.0 
570.0004173742802 1079.0 NaN 891.4602538410154 9.396416793319814 247.0 6.0 154.0 
580.0004173742802 1097.0 NaN 897.6513026052104 8.532978595861914 249.0 6.0 156.0 
590.0004173742802 1110.0 NaN 906.7869071476283 7.603457943119609 256.0 6.0 159.0 
600.0004173742802 1114.0 NaN 909.8383433533727 6.451448985376671 256.0 6.0 160.0 
610.0004173742802 1114.0 NaN 912.9432197728783 5.650344997595957 253.0 6.0 161.0 
620.0004173742802 1109.0 NaN 925.1649966599863 4.555761777541327 259.0 6.0 165.0 
630.0004173742802 1134.0 NaN 940.61456245825 3.5178746178477076 262.0 6.0 170.0 
640.0004173742802 1162.0 NaN 949.8650634602546 2.737251240610279 266.0 6.0 173.0 
650.0004173742802 1153.0 NaN 968.5557782231123 1.6706733417238282 269.0 6.0 179.0 
660.0004173742802 1104.0 NaN 980.6573146292573 5.717158862868591 270.0 6.0 183.0 
#####################################################################
# End of data export. Simulation finished at: 2019-03-03T13:41+0000 #
#####################################################################
