#####################################################################
# Alchemist log file - simulation started at: 2019-03-07T20:28+0000 #
#####################################################################
# seed = 5.0, bandwidth = 5623413.251903491, propagationDelay = 0.03162277660168379, baserange = 100.0
#
# The columns have the following meaning: 
# time neighbor_count[Sum] <value>@neighbor_count[Sum] packet_size[Mean] mean_delay[Mean] crowd[Sum] overcrowded[Sum] risk[Sum] 
0.0 NaN NaN NaN NaN NaN NaN NaN 
2.000101793669918 13122.0 NaN 4996.35537742151 0.5062327436445062 1496.0 1.0 1496.0 
4.000101793669918 13126.0 NaN 4998.677354709419 0.5063324194623722 1489.0 8.0 1489.0 
6.000101793669918 13126.0 NaN 4996.093520374082 0.5063332498904075 1492.0 5.0 1492.0 
8.000101793669918 13127.0 NaN 4996.985971943888 0.5064468619670864 1482.0 15.0 1482.0 
10.000101793669918 13123.0 NaN 4995.810287241149 0.5063978666453361 1485.0 12.0 1485.0 
12.000101793669918 13124.0 NaN 4996.700066800267 0.5063353349955056 1481.0 16.0 1481.0 
14.000101793669918 13124.0 NaN 4995.452237808951 0.5064408074086626 1477.0 20.0 1477.0 
16.00010179366992 13130.0 NaN 4996.224448897796 0.5063008815631869 1481.0 16.0 1481.0 
18.00010179366992 13130.0 NaN 4995.2812291249165 0.5066621230324742 1484.0 13.0 1484.0 
20.00010179366992 13146.0 NaN 4995.866399465598 0.5094541376859668 1480.0 17.0 1480.0 
22.00010179366992 13144.0 NaN 4994.98997995992 0.5067931324401811 1476.0 21.0 1476.0 
24.00010179366992 13145.0 NaN 4995.625918503674 0.5070267584409485 1482.0 15.0 1482.0 
26.00010179366992 13156.0 NaN 4994.765531062124 0.5067091883527777 1480.0 17.0 1480.0 
28.00010179366992 13163.0 NaN 4995.735470941884 0.5064350740131435 1480.0 17.0 1480.0 
30.00010179366992 13183.0 NaN 4994.738810955244 0.5087354886240492 1481.0 16.0 1481.0 
32.00010179366992 13180.0 NaN 4995.52171008684 0.5066289464725448 1476.0 21.0 1476.0 
34.00010179366992 13185.0 NaN 4994.907147628591 0.5076942454228066 1480.0 17.0 1480.0 
36.00010179366992 13189.0 NaN 4995.4228456913825 0.506481564414629 1481.0 16.0 1481.0 
38.00010179366992 13190.0 NaN 4994.765531062124 0.5075012745906673 1478.0 19.0 1478.0 
40.00010179366992 13229.0 NaN 4995.489645958583 0.5095435787949513 1480.0 17.0 1480.0 
42.00010179366992 13217.0 NaN 4994.637274549098 0.507449491995663 1476.0 21.0 1476.0 
44.00010179366992 13223.0 NaN 4995.438877755511 0.509085397599856 1481.0 16.0 1481.0 
46.00010179366992 13223.0 NaN 4994.637274549098 0.507806882554203 1481.0 16.0 1481.0 
48.00010179366992 13235.0 NaN 4995.297261189045 0.5073020459565616 1480.0 17.0 1480.0 
50.00010179366992 13263.0 NaN 4994.623914495658 0.5075150751751918 1477.0 20.0 1477.0 
52.00010179366992 13247.0 NaN 4995.302605210421 0.5084308728636234 1480.0 17.0 1480.0 
54.00010179366992 13266.0 NaN 4994.460921843687 0.5105883187658161 1478.0 19.0 1478.0 
56.00010179366992 13255.0 NaN 4995.3346693386775 0.5074526165575952 1479.0 18.0 1479.0 
58.00010179366992 13266.0 NaN 4994.626586506346 0.507788115188085 1479.0 18.0 1479.0 
60.00010179366992 13289.0 NaN 4992.120240480962 0.5102735347504478 1478.0 18.0 1478.0 
62.00010179366992 13249.0 NaN 1522.9472277889095 0.5087822323818101 764.0 17.0 348.0 
64.00010179366993 13254.0 NaN 1522.6960587842361 0.5088110439185173 613.0 14.0 351.0 
66.00010179366993 13247.0 NaN 1522.6052104208425 0.5092159891050005 572.0 12.0 353.0 
68.00010179366993 13253.0 NaN 1525.7047428189724 0.5098349288443507 542.0 10.0 356.0 
70.00010179366993 13249.0 NaN 1525.5524382097542 0.5068248954612646 524.0 10.0 356.0 
72.00010179366993 13266.0 NaN 1525.6112224448912 0.5075026294640421 521.0 11.0 355.0 
74.00010179366993 13289.0 NaN 1528.643954575818 0.5089137977075682 517.0 12.0 355.0 
76.00010179366993 13281.0 NaN 1528.6038744154996 0.5063280623466048 517.0 11.0 356.0 
78.00010179366993 13328.0 NaN 1534.7975951903818 0.5077075426051726 516.0 13.0 356.0 
80.00010179366993 13300.0 NaN 1534.810955243821 0.5125938230074625 508.0 20.0 349.0 
82.00010179366993 13305.0 NaN 1534.7334669338666 0.5101213430051726 511.0 16.0 353.0 
84.00010179366993 13309.0 NaN 1534.7441549766183 0.5114158464348295 504.0 23.0 346.0 
86.00010179366993 13292.0 NaN 1534.7735470941882 0.5070028088225736 506.0 18.0 351.0 
88.00010179366993 13319.0 NaN 1534.7708750835 0.5112978396630217 505.0 18.0 351.0 
90.00010179366993 13261.0 NaN 1534.7601870407482 0.5126609130819888 509.0 16.0 353.0 
92.00010179366993 13261.0 NaN 1534.7494989979969 0.5083708713292762 509.0 16.0 353.0 
94.00010179366993 13262.0 NaN 1534.6185704742816 0.5093250899684847 513.0 13.0 356.0 
96.00010179366993 13241.0 NaN 1534.6586506346027 0.5101680566205009 509.0 16.0 353.0 
98.00010179366993 13251.0 NaN 1537.731462925852 0.5108936783287172 512.0 14.0 356.0 
100.00010179366993 13222.0 NaN 1537.7528390113548 0.5104309316362459 509.0 19.0 351.0 
102.00010179366993 13222.0 NaN 1537.736806947227 0.5077177977703771 506.0 21.0 349.0 
104.00010179366993 13223.0 NaN 1540.8764195056788 0.5091920674904433 507.0 20.0 351.0 
106.00010179366993 13224.0 NaN 1540.8817635270545 0.5076924021468422 504.0 23.0 348.0 
108.00010179366993 13251.0 NaN 1540.8764195056788 0.5084490922726352 500.0 27.0 344.0 
110.00010179366993 13226.0 NaN 1540.8283233132931 0.5105418640894879 505.0 22.0 349.0 
112.00010179366993 13272.0 NaN 1540.8390113560454 0.5078468167195145 509.0 17.0 354.0 
114.00010179366993 13285.0 NaN 1540.9111556446212 0.5085454039501959 507.0 18.0 353.0 
116.00010179366993 13268.0 NaN 1540.8790915163659 0.506773316459174 508.0 20.0 351.0 
118.00010179366993 13306.0 NaN 1540.8630594522367 0.5091885564762649 513.0 14.0 357.0 
120.00010179366993 13257.0 NaN 1540.852371409485 0.5097311730015895 511.0 18.0 353.0 
122.00010179366993 13260.0 NaN 1540.9378757515026 0.5104865019037342 511.0 16.0 355.0 
124.00010179366993 13285.0 NaN 1543.9251837007362 0.5100897022323181 512.0 17.0 355.0 
126.00010179366993 13277.0 NaN 1543.9519038076155 0.5067716760265687 512.0 15.0 357.0 
128.00010179366993 13310.0 NaN 1540.921843687373 0.5096979306421713 510.0 19.0 352.0 
130.00010179366993 13259.0 NaN 1540.929859719439 0.5113812582520778 513.0 13.0 358.0 
132.00010179366993 13243.0 NaN 1537.8410153640634 0.5082566949791125 515.0 11.0 359.0 
134.00010179366993 13281.0 NaN 1537.835671342685 0.5093478383886545 513.0 14.0 356.0 
136.00010179366993 13249.0 NaN 1537.763527054109 0.507393865638622 511.0 12.0 358.0 
138.00010179366993 13276.0 NaN 1534.7788911155635 0.5095808146351958 512.0 11.0 358.0 
140.00010179366993 13232.0 NaN 1534.7281229124908 0.510703972862728 510.0 13.0 356.0 
142.00010179366993 13223.0 NaN 1537.7955911823633 0.5076891595304299 513.0 10.0 360.0 
144.00010179366993 13281.0 NaN 1537.8891115564454 0.5085123113674604 508.0 13.0 357.0 
146.00010179366993 13259.0 NaN 1534.8857715430852 0.507531891830441 509.0 12.0 357.0 
148.00010179366993 13283.0 NaN 1534.7414829659303 0.5113898778506029 507.0 13.0 356.0 
150.00010179366993 13226.0 NaN 1531.700734802939 0.5126582037155336 510.0 11.0 357.0 
152.00010179366993 13208.0 NaN 1528.684034736139 0.5089745794550848 503.0 16.0 351.0 
154.00010179366993 13228.0 NaN 1528.6733466933879 0.5082569037597516 506.0 11.0 356.0 
156.00010179366993 13202.0 NaN 1531.7247828991303 0.5073714886884836 498.0 18.0 350.0 
158.00010179366993 13219.0 NaN 1534.8323313293272 0.5129769857346035 510.0 11.0 358.0 
160.00010179366993 13174.0 NaN 1534.7281229124908 0.5128617284255008 508.0 12.0 357.0 
162.00010179366993 13142.0 NaN 1534.7842351369393 0.5100986425814595 510.0 11.0 358.0 
164.00010179366993 13177.0 NaN 1537.8677354709425 0.5088432597912881 506.0 14.0 356.0 
166.00010179366993 13146.0 NaN 1537.8543754175 0.507383494017124 509.0 11.0 359.0 
168.00010179366993 13168.0 NaN 1537.8356713426845 0.5099407568117249 506.0 15.0 355.0 
170.00010179366993 13129.0 NaN 1537.93720774883 0.5078897574415694 502.0 21.0 349.0 
172.00010179366993 13117.0 NaN 1537.7875751503 0.5082594967405487 497.0 21.0 349.0 
174.00010179366993 13152.0 NaN 1540.9031396125572 0.5086747133771331 498.0 18.0 353.0 
176.00010179366993 13119.0 NaN 1537.8944555778205 0.5077549291557022 497.0 19.0 351.0 
178.00010179366993 13135.0 NaN 1537.8704074816296 0.5120005731088064 497.0 20.0 350.0 
180.00010179366993 13081.0 NaN 1537.8410153640637 0.5121910008588323 502.0 17.0 353.0 
182.00010179366993 13079.0 NaN 1537.8356713426842 0.5083763445674411 500.0 19.0 351.0 
184.00010179366993 13108.0 NaN 1540.8443553774205 0.5091300013509864 500.0 19.0 352.0 
186.00010179366993 13074.0 NaN 1537.9265197060795 0.5068177333002392 496.0 22.0 348.0 
188.00010179366993 13098.0 NaN 1543.9679358717456 0.5103392887939899 498.0 18.0 354.0 
190.00010179366993 13073.0 NaN 1537.8891115564454 0.5103716179739786 495.0 22.0 348.0 
192.00010179366993 13065.0 NaN 1537.8329993319976 0.5076770868408157 497.0 19.0 351.0 
194.00010179366993 13096.0 NaN 1541.1302605210428 0.5098287945246766 497.0 19.0 352.0 
196.00010179366993 13045.0 NaN 1540.820307281227 0.5080971734454357 498.0 19.0 352.0 
198.00010179366993 13053.0 NaN 1544.0534402137614 0.5191301915000561 496.0 21.0 351.0 
200.00010179366993 13010.0 NaN 1547.0781563126272 0.5097540016997345 498.0 20.0 353.0 
202.00010179366993 12986.0 NaN 1547.0888443553793 0.5095403458995961 497.0 22.0 351.0 
204.00010179366993 13020.0 NaN 1546.8697394789572 0.5143118153587605 498.0 19.0 354.0 
206.00010179366993 12992.0 NaN 1544.0080160320636 0.5097068676613999 498.0 19.0 353.0 
208.00010179366993 13001.0 NaN 1540.7054108216455 0.5110196806558438 501.0 19.0 352.0 
210.00010179366993 12962.0 NaN 1537.8009352037395 0.5100365980592844 500.0 20.0 350.0 
212.00010179366993 12952.0 NaN 1537.6593186372727 0.5066294411342608 498.0 19.0 351.0 
214.00010179366993 12981.0 NaN 1540.8042752171 0.5091164148172704 498.0 20.0 351.0 
216.00010179366993 12923.0 NaN 1534.4956579826335 0.5084955529265731 498.0 19.0 350.0 
218.00010179366993 12919.0 NaN 1531.6980627922517 0.5099801347925595 494.0 21.0 347.0 
220.00010179366993 12901.0 NaN 1531.3987975951911 0.5067728348547069 495.0 20.0 348.0 
222.00010179366993 12880.0 NaN 1534.5811623246484 0.5075140079240139 495.0 19.0 350.0 
224.00010179366993 12884.0 NaN 1534.6132264529065 0.5107871436336984 496.0 19.0 350.0 
226.00010179366993 12861.0 NaN 1531.6098864395453 0.5064736486039325 494.0 21.0 347.0 
228.00010179366993 12865.0 NaN 1534.5330661322637 0.5083958312671392 497.0 17.0 352.0 
230.00010179366993 12848.0 NaN 1537.7955911823633 0.5090459315879999 495.0 18.0 352.0 
232.00010179366993 12837.0 NaN 1540.7348029392117 0.5046015545003962 494.0 20.0 351.0 
234.00010179366993 12855.0 NaN 1540.959251837009 0.5112296509446607 494.0 19.0 352.0 
236.00010179366993 12816.0 NaN 1537.694054776218 0.5066181447683515 495.0 18.0 352.0 
238.00010179366993 12796.0 NaN 1534.6826987307938 0.50787944552791 494.0 20.0 349.0 
240.00010179366993 12787.0 NaN 1534.5998663994637 0.5113748715516765 495.0 17.0 352.0 
242.00010179366993 12769.0 NaN 1534.7575150300609 0.5058594632742717 495.0 18.0 351.0 
244.00010179366993 12778.0 NaN 1534.543754175018 0.5104314354062573 494.0 22.0 347.0 
246.00010179366993 12725.0 NaN 1534.6826987307938 0.5062743001117378 493.0 21.0 348.0 
248.00010179366993 12711.0 NaN 1528.4408817635274 0.5099362271005723 495.0 18.0 349.0 
250.00010179366993 12715.0 NaN 1531.6740146960574 0.5117126359247246 493.0 20.0 348.0 
252.00010179366993 12704.0 NaN 1528.3152972611908 0.5055948109637672 491.0 21.0 346.0 
254.00010179366993 12721.0 NaN 1534.7201068804272 0.5073103448719347 492.0 20.0 349.0 
256.00010179366996 12709.0 NaN 1531.4362057448243 0.5095249739390572 498.0 17.0 351.0 
258.00010179366996 12699.0 NaN 1531.6152304609209 0.5092529073167651 494.0 20.0 348.0 
260.00010179366996 12707.0 NaN 1531.5217100868392 0.506698149620714 494.0 20.0 348.0 
262.00010179366996 12717.0 NaN 1525.5257181028728 0.5080102933640736 496.0 18.0 348.0 
264.00010179366996 12712.0 NaN 1537.6860387441545 0.5082162858813228 495.0 18.0 352.0 
266.00010179366996 12679.0 NaN 1537.7955911823635 0.5063487097919745 493.0 19.0 351.0 
268.00010179366996 12681.0 NaN 1534.55444221777 0.509817738865583 494.0 17.0 352.0 
270.00010179366996 12709.0 NaN 1534.661322645291 0.5143205939517994 490.0 20.0 349.0 
272.00010179366996 12680.0 NaN 1534.5197060788248 0.5090111512302467 492.0 18.0 351.0 
274.00010179366996 12676.0 NaN 1534.6933867735456 0.5103681110090779 491.0 18.0 351.0 
276.00010179366996 12663.0 NaN 1540.7160988643975 0.5115471197826712 490.0 18.0 353.0 
278.00010179366996 12641.0 NaN 1540.7722110888458 0.5083022410659813 492.0 20.0 351.0 
280.00010179366996 12629.0 NaN 1537.664662658652 0.5137622992056362 495.0 17.0 353.0 
282.00010179366996 12606.0 NaN 1534.6132264529067 0.5066826782666859 493.0 19.0 350.0 
284.00010179366996 12618.0 NaN 1534.4929859719455 0.5101047965003398 495.0 18.0 351.0 
286.00010179366996 12593.0 NaN 1534.5704742818978 0.5091451087932021 494.0 18.0 351.0 
288.00010179366996 12559.0 NaN 1534.511690046761 0.50898510219226 494.0 18.0 351.0 
290.00010179366996 12546.0 NaN 1534.5758183032726 0.5117916019374735 494.0 18.0 351.0 
292.00010179366996 12532.0 NaN 1534.4716098864387 0.5071673619875025 495.0 17.0 352.0 
294.00010179366996 12530.0 NaN 1531.5083500334 0.5107612197284321 492.0 19.0 349.0 
296.00010179366996 12510.0 NaN 1531.5056780227117 0.5093261401327819 493.0 18.0 350.0 
298.00010179366996 12502.0 NaN 1540.7321309285248 0.5075650976347018 493.0 17.0 354.0 
300.00010179366996 12482.0 NaN 1540.7882431529729 0.5101249650786507 491.0 18.0 353.0 
302.00010179366996 12470.0 NaN 1531.4575818303274 0.5069403005066916 489.0 19.0 349.0 
304.00010179366996 12456.0 NaN 1534.7040748163001 0.5106339904784915 489.0 18.0 351.0 
306.00010179366996 12447.0 NaN 1537.7955911823633 0.5081499754987293 489.0 19.0 351.0 
308.00010179366996 12454.0 NaN 1537.6619906479636 0.5113101708600857 489.0 18.0 352.0 
310.00010179366996 12445.0 NaN 1537.7795591182362 0.5109968246386244 487.0 19.0 351.0 
312.00010179366996 12433.0 NaN 1531.5858383433547 0.5064353200581981 486.0 19.0 349.0 
314.00010179366996 12430.0 NaN 1531.5457581830337 0.5122736674452287 483.0 22.0 346.0 
316.00010179366996 12404.0 NaN 1531.6659986639936 0.5065982676692389 489.0 17.0 351.0 
318.00010179366996 12428.0 NaN 1531.625918503673 0.5071024037171373 487.0 19.0 349.0 
320.00010179366996 12424.0 NaN 1531.6847027388094 0.508350195386888 489.0 18.0 350.0 
322.00010179366996 12422.0 NaN 1534.7575150300609 0.506669777441239 490.0 17.0 352.0 
324.00010179366996 12413.0 NaN 1531.7194388777543 0.510639251861936 488.0 18.0 350.0 
326.00010179366996 12392.0 NaN 1531.6312625250516 0.508573208639831 486.0 19.0 349.0 
328.00010179366996 12421.0 NaN 1531.7515030060115 0.5091401694224313 490.0 17.0 351.0 
330.00010179366996 12408.0 NaN 1531.5564462257844 0.5091962648575233 489.0 18.0 350.0 
332.00010179366996 12397.0 NaN 1531.6232464929847 0.5079773819703977 489.0 18.0 350.0 
334.00010179366996 12394.0 NaN 1531.5804943219791 0.5090258513157101 488.0 18.0 350.0 
336.00010179366996 12381.0 NaN 1531.7515030060115 0.5065469105287539 488.0 18.0 350.0 
338.00010179366996 12391.0 NaN 1528.676018704073 0.5092503797477054 490.0 18.0 349.0 
340.00010179366996 12407.0 NaN 1525.3921175684704 0.5108234768587654 491.0 17.0 349.0 
342.00010179366996 12379.0 NaN 1525.4669338677363 0.5070995776711139 489.0 19.0 347.0 
344.00010179366996 12399.0 NaN 1528.4943219772883 0.5085115020035995 490.0 18.0 349.0 
346.00010179366996 12376.0 NaN 1519.2491649966607 0.5083035335407958 490.0 17.0 347.0 
348.00010179366996 12381.0 NaN 1519.3533734134935 0.5052631367954346 488.0 18.0 346.0 
350.00010179366996 12418.0 NaN 1525.4241816967274 0.5080698716373214 489.0 19.0 347.0 
352.00010179366996 12414.0 NaN 1522.3567134268546 0.5073067450988928 493.0 17.0 348.0 
354.00010179366996 12414.0 NaN 1519.3266533066121 0.5115723755817733 494.0 18.0 346.0 
356.00010179366996 12396.0 NaN 1519.2491649966605 0.5069832490187952 494.0 18.0 346.0 
358.00010179366996 12416.0 NaN 1519.2491649966605 0.5101862065960607 492.0 18.0 346.0 
360.00010179366996 12428.0 NaN 1516.2645290581177 0.5113904371921519 493.0 18.0 345.0 
362.00010179366996 12409.0 NaN 1513.047428189712 0.5102930949498213 493.0 18.0 344.0 
364.00010179366996 12396.0 NaN 1507.0354041416174 0.5103994938765838 494.0 17.0 343.0 
366.00010179366996 12383.0 NaN 1503.8637274549092 0.5088350535983036 492.0 19.0 340.0 
368.00010179366996 12365.0 NaN 1500.8416833667343 0.5146537791028184 493.0 19.0 339.0 
370.00010179366996 12363.0 NaN 1506.9792919171668 0.5145488948399946 495.0 17.0 343.0 
372.00010179366996 12338.0 NaN 1506.9098196392795 0.5093582079113205 493.0 19.0 341.0 
374.00010179366996 12331.0 NaN 1503.8744154976628 0.5121655076730373 496.0 19.0 340.0 
376.00010179366996 12333.0 NaN 1500.8309953239818 0.5075237208459499 498.0 17.0 341.0 
378.00010179366996 12348.0 NaN 1497.6459585838352 0.5131329669779104 495.0 19.0 338.0 
380.00010179366996 12337.0 NaN 1500.7615230460917 0.5118683149847127 492.0 20.0 338.0 
382.00010179366996 12327.0 NaN 1497.7314629258524 0.510619332633275 496.0 19.0 338.0 
384.00010179366996 12327.0 NaN 1497.7127588510361 0.5153810151068001 497.0 19.0 338.0 
386.00010179366996 12291.0 NaN 1494.7468269873089 0.5142970088669754 494.0 21.0 335.0 
388.00010179366996 12306.0 NaN 1494.6346025384094 0.5150351323639808 493.0 20.0 336.0 
390.00010179366996 12307.0 NaN 1500.8737474949908 0.5147789551765258 490.0 23.0 335.0 
392.00010179366996 12301.0 NaN 1500.9325317301273 0.5151475573246422 500.0 17.0 341.0 
394.00010179366996 12276.0 NaN 1507.0888443553788 0.5132362280582691 502.0 17.0 343.0 
396.00010179366996 12262.0 NaN 1506.9498997996 0.5128818500781753 501.0 18.0 342.0 
398.00010179366996 12273.0 NaN 1503.9171676686717 0.5104990124949687 499.0 21.0 338.0 
400.00010179366996 12291.0 NaN 1500.825651302606 0.5098785887668285 499.0 20.0 338.0 
402.00010179366996 12287.0 NaN 1503.909151636607 0.5143553867849903 500.0 18.0 341.0 
404.00010179366996 12274.0 NaN 1506.9712758851028 0.5121431084817518 500.0 19.0 341.0 
406.00010179366996 12269.0 NaN 1513.066132264528 0.5115485609531416 502.0 18.0 344.0 
408.00010179366996 12270.0 NaN 1522.3861055444213 0.5157612341560952 506.0 19.0 346.0 
410.00010179366996 12280.0 NaN 1525.4509018036083 0.5082130662921568 507.0 18.0 348.0 
412.00010179366996 12269.0 NaN 1522.2818971275888 0.5089915116409603 510.0 17.0 348.0 
414.00010179366996 12282.0 NaN 1519.2732130928537 0.5098383385799966 507.0 20.0 344.0 
416.00010179366996 12287.0 NaN 1509.9639278557102 0.5092334584512334 506.0 21.0 340.0 
418.00010179366996 12309.0 NaN 1513.1302605210424 0.5107611371238185 506.0 19.0 343.0 
420.00010179366996 12331.0 NaN 1506.8162992651976 0.5157598605663578 507.0 18.0 342.0 
422.00010179366996 12317.0 NaN 1494.629258517035 0.5128382408346662 497.0 21.0 335.0 
424.00010179366996 12307.0 NaN 1503.8129592518364 0.5127762931554178 494.0 23.0 336.0 
426.00010179366996 12286.0 NaN 1506.9205076820308 0.5129041228883726 496.0 24.0 336.0 
428.00010179366996 12283.0 NaN 1506.9018036072148 0.5122247345770516 502.0 18.0 342.0 
430.00010179366996 12306.0 NaN 1503.8183032732127 0.5114829837389961 503.0 17.0 342.0 
432.00010179366996 12322.0 NaN 1519.1503006012017 0.5137467132037082 506.0 18.0 346.0 
434.00010179366996 12322.0 NaN 1519.2464929859727 0.5129272543581951 510.0 17.0 347.0 
436.00010179366996 12301.0 NaN 1519.1128924515706 0.5098614143637303 510.0 17.0 347.0 
438.00010179366996 12297.0 NaN 1522.2284569138271 0.5108600198377498 507.0 19.0 346.0 
440.00010179366996 12291.0 NaN 1525.3306613226455 0.509067391520874 504.0 23.0 343.0 
442.00010179366996 12314.0 NaN 1537.6325985303934 0.515856417753184 509.0 19.0 351.0 
444.00010179366996 12301.0 NaN 1534.4956579826332 0.51480872623278 508.0 22.0 347.0 
446.00010179366996 12265.0 NaN 1540.716098864397 0.5155580725994134 513.0 20.0 351.0 
448.00010179366996 12256.0 NaN 1540.6867067468274 0.5114392684411699 512.0 21.0 350.0 
450.00010179366996 12247.0 NaN 1543.869071476285 0.5119340235698641 513.0 19.0 353.0 
452.00010179366996 12241.0 NaN 1543.7167668670668 0.5109861231098975 511.0 19.0 353.0 
454.00010179366996 12228.0 NaN 1543.7541750167002 0.5128372253919771 512.0 18.0 354.0 
456.00010179366996 12220.0 NaN 1546.7815631262542 0.5163546890504139 510.0 18.0 355.0 
458.00010179366996 12217.0 NaN 1546.859051436206 0.5120906949301942 510.0 17.0 356.0 
460.00010179366996 12224.0 NaN 1546.8911155644635 0.512312665106087 509.0 17.0 356.0 
462.00010179366996 12248.0 NaN 1546.8483633934545 0.5149379295792489 507.0 18.0 355.0 
464.00010179366996 12242.0 NaN 1543.815631262527 0.5147441871154306 509.0 18.0 354.0 
466.00010179366996 12228.0 NaN 1543.8076152304611 0.5135650682190993 509.0 16.0 356.0 
468.00010179366996 12229.0 NaN 1540.6145624582489 0.5130174671334696 506.0 18.0 353.0 
470.00010179366996 12245.0 NaN 1540.6546426185723 0.5105398081883931 504.0 18.0 353.0 
472.00010179366996 12242.0 NaN 1534.5918503674002 0.5104590737404859 504.0 17.0 352.0 
474.00010179366996 12246.0 NaN 1528.387441549766 0.511524000123926 503.0 17.0 350.0 
476.00010179366996 12231.0 NaN 1528.3152972611904 0.5103676619413628 504.0 18.0 349.0 
478.00010179366996 12218.0 NaN 1528.350033400134 0.510324901134869 503.0 17.0 350.0 
480.00010179366996 12217.0 NaN 1525.2959251837 0.5113537348801946 501.0 19.0 347.0 
482.00010179366996 12214.0 NaN 1522.3273213092848 0.5124835740635153 500.0 18.0 347.0 
484.00010179366996 12219.0 NaN 1506.8350033400122 0.5160797637669109 497.0 18.0 342.0 
486.00010179366996 12198.0 NaN 1500.7882431529729 0.5159406046311223 493.0 19.0 339.0 
488.00010179366996 12192.0 NaN 1494.5731462925846 0.5104329489682474 492.0 19.0 337.0 
490.00010179366996 12192.0 NaN 1500.782899131597 0.5131957447022071 496.0 16.0 342.0 
492.00010179366996 12174.0 NaN 1491.532398129592 0.5166881009289626 493.0 19.0 336.0 
494.00010179366996 12171.0 NaN 1485.3600534402149 0.5128403507011361 491.0 18.0 335.0 
496.00010179366996 12155.0 NaN 1485.4161656646634 0.5144627548042262 489.0 18.0 335.0 
498.00010179366996 12174.0 NaN 1485.5150300601194 0.5078802872685471 491.0 17.0 336.0 
500.00010179366996 12192.0 NaN 1488.448897795591 0.5121159659849058 488.0 20.0 334.0 
502.00010179366996 12193.0 NaN 1491.5965263861062 0.515519953929526 490.0 19.0 336.0 
504.00010179366996 12212.0 NaN 1488.6305945223792 0.5113518575091144 488.0 20.0 334.0 
506.00010179366996 12188.0 NaN 1494.6479625918514 0.5096983465880666 494.0 17.0 339.0 
508.00010179366996 12196.0 NaN 1497.7715430861729 0.5113037702445429 496.0 18.0 339.0 
510.00010179366996 12208.0 NaN 1494.6907147628574 0.5101823181639201 491.0 20.0 336.0 
512.00010179367 12212.0 NaN 1488.5878423513705 0.5111800068177067 488.0 22.0 332.0 
514.00010179367 12221.0 NaN 1482.4609218436883 0.5148232459462957 489.0 20.0 332.0 
516.00010179367 12206.0 NaN 1476.2324649298607 0.5086697849207313 486.0 20.0 330.0 
518.00010179367 12225.0 NaN 1476.224448897797 0.5078217906397665 489.0 19.0 331.0 
520.00010179367 12239.0 NaN 1464.0320641282556 0.5104769447631387 488.0 19.0 327.0 
522.00010179367 12258.0 NaN 1460.9512358049444 0.5121420135178073 484.0 20.0 325.0 
524.00010179367 12281.0 NaN 1463.8476953907818 0.5099273886167193 484.0 19.0 327.0 
526.00010179367 12281.0 NaN 1460.8416833667343 0.5092802596509742 486.0 19.0 326.0 
528.00010179367 12314.0 NaN 1464.0694722778899 0.5105245689819061 486.0 20.0 326.0 
530.00010179367 12326.0 NaN 1451.71409485638 0.5117215437761462 485.0 20.0 322.0 
532.00010179367 12334.0 NaN 1451.6526386105547 0.5122672323342478 486.0 19.0 323.0 
534.00010179367 12372.0 NaN 1451.6472945891785 0.5131603171246727 487.0 18.0 324.0 
536.00010179367 12350.0 NaN 1454.752171008683 0.5088837462925226 485.0 18.0 325.0 
538.00010179367 12364.0 NaN 1460.975283901136 0.5146717052936377 489.0 16.0 329.0 
540.00010179367 12351.0 NaN 1460.9512358049442 0.51346882290526 486.0 19.0 326.0 
542.00010179367 12334.0 NaN 1467.0808283233125 0.5109583289865253 488.0 18.0 329.0 
544.00010179367 12332.0 NaN 1470.100200400801 0.5165305957629404 488.0 18.0 330.0 
546.00010179367 12293.0 NaN 1467.0380761523056 0.5117515006840307 491.0 17.0 330.0 
548.00010179367 12310.0 NaN 1466.9445557782233 0.5134485699703144 489.0 19.0 328.0 
550.00010179367 12304.0 NaN 1463.9438877755513 0.5128682675607961 490.0 17.0 329.0 
552.00010179367 12309.0 NaN 1463.8877755511012 0.5190822007097604 488.0 19.0 327.0 
554.00010179367 12319.0 NaN 1467.0086840347365 0.5137391492324501 491.0 17.0 330.0 
556.00010179367 12293.0 NaN 1457.739478957916 0.5093578402280738 486.0 19.0 325.0 
558.00010179367 12305.0 NaN 1454.7094188376755 0.5121685073419704 486.0 18.0 325.0 
560.00010179367 12298.0 NaN 1454.6185704742818 0.5125271250211882 483.0 19.0 324.0 
562.00010179367 12324.0 NaN 1457.7635270541089 0.5103766307694547 487.0 16.0 328.0 
564.00010179367 12349.0 NaN 1460.8470273881092 0.5121224421936126 486.0 19.0 326.0 
566.00010179367 12334.0 NaN 1454.7575150300593 0.5090910142218088 486.0 18.0 325.0 
568.00010179367 12340.0 NaN 1460.9699398797593 0.5103302274754044 488.0 18.0 327.0 
570.00010179367 12345.0 NaN 1467.0674682698727 0.5131890077775828 493.0 16.0 331.0 
572.00010179367 12348.0 NaN 1473.2398129592518 0.5126739405756884 491.0 18.0 331.0 
574.00010179367 12351.0 NaN 1476.2565130260523 0.5128082738461343 492.0 16.0 334.0 
576.00010179367 12326.0 NaN 1473.1943887775547 0.5144638456803576 490.0 18.0 331.0 
578.00010179367 12329.0 NaN 1470.204408817636 0.5140189938846011 494.0 16.0 332.0 
580.00010179367 12338.0 NaN 1470.1189044756181 0.5127100692716187 493.0 17.0 331.0 
582.00010179367 12359.0 NaN 1473.2264529058114 0.514735808958738 494.0 17.0 332.0 
584.00010179367 12341.0 NaN 1476.2458249832998 0.5137795360666882 498.0 19.0 331.0 
586.00010179367 12324.0 NaN 1473.15965263861 0.5137610326185645 504.0 15.0 334.0 
588.00010179367 12346.0 NaN 1476.1923847695389 0.5111984190829278 501.0 18.0 332.0 
590.00010179367 12343.0 NaN 1482.3246492985975 0.5078210482772861 505.0 17.0 335.0 
592.00010179367 12354.0 NaN 1482.4395457581825 0.5122107196530923 507.0 17.0 335.0 
594.00010179367 12348.0 NaN 1485.5577822311284 0.512255481374907 509.0 16.0 337.0 
596.00010179367 12320.0 NaN 1485.4241816967271 0.5086606105444326 507.0 18.0 335.0 
598.00010179367 12335.0 NaN 1488.595858383434 0.5137842677303087 507.0 16.0 338.0 
600.00010179367 12365.0 NaN 1491.6018704074818 0.5182586163022295 507.0 18.0 337.0 
602.00010179367 12372.0 NaN 1488.4809619238467 0.5116739069317077 508.0 16.0 338.0 
604.00010179367 12368.0 NaN 1500.9138276553101 0.5098010393261467 510.0 17.0 341.0 
606.00010179367 12382.0 NaN 1497.7448229792913 0.5107312179334268 509.0 17.0 340.0 
608.00010179367 12406.0 NaN 1503.9038076152294 0.5117675460387863 509.0 18.0 341.0 
610.00010179367 12433.0 NaN 1503.9225116900463 0.5141849595737471 513.0 15.0 344.0 
612.00010179367 12432.0 NaN 1500.9004676018715 0.5102072946946583 509.0 18.0 340.0 
614.00010179367 12438.0 NaN 1500.7321309285244 0.5105768731420085 509.0 17.0 341.0 
616.00010179367 12432.0 NaN 1500.9245156980635 0.5105675989484939 507.0 17.0 341.0 
618.00010179367 12470.0 NaN 1503.9412157648637 0.5100651118118852 507.0 16.0 343.0 
620.00010179367 12492.0 NaN 1516.1629926519715 0.508049399035558 507.0 18.0 345.0 
622.00010179367 12507.0 NaN 1516.2191048764191 0.5104488671620083 508.0 16.0 347.0 
624.00010179367 12505.0 NaN 1516.2191048764191 0.5110411504432151 506.0 18.0 345.0 
626.00010179367 12477.0 NaN 1516.1656646626577 0.5109512349801286 507.0 17.0 346.0 
628.00010179367 12490.0 NaN 1519.3720774883093 0.5156594277094662 505.0 18.0 346.0 
630.00010179367 12455.0 NaN 1516.2859051436199 0.5115098843518179 508.0 18.0 345.0 
632.00010179367 12436.0 NaN 1525.5657982631922 0.5103632613509046 507.0 20.0 346.0 
634.00010179367 12441.0 NaN 1522.503674014697 0.5103354721632692 515.0 17.0 348.0 
636.00010179367 12421.0 NaN 1522.452905811624 0.5080211756020218 512.0 20.0 345.0 
638.00010179367 12428.0 NaN 1519.2464929859725 0.5087618886273417 513.0 20.0 344.0 
640.00010179367 12439.0 NaN 1513.1569806279215 0.5101770330526711 507.0 20.0 342.0 
642.00010179367 12428.0 NaN 1510.0280561122254 0.5072792100049763 502.0 21.0 340.0 
644.00010179367 12438.0 NaN 1513.15965263861 0.5098435265916363 500.0 22.0 340.0 
646.00010179367 12417.0 NaN 1513.0501002004 0.5083821324249027 498.0 23.0 339.0 
648.00010179367 12437.0 NaN 1513.205076820308 0.5121149739244538 497.0 22.0 340.0 
650.00010179367 12415.0 NaN 1510.0681362725454 0.5131647789687406 498.0 22.0 339.0 
652.00010179367 12375.0 NaN 1525.5577822311284 0.5099962590344558 498.0 23.0 343.0 
654.00010179367 12397.0 NaN 1525.4936539746172 0.5091320636447783 493.0 26.0 340.0 
656.00010179367 12399.0 NaN 1525.4589178356719 0.5105493324987784 494.0 24.0 342.0 
658.00010179367 12390.0 NaN 1525.517702070809 0.5112023888003938 498.0 19.0 347.0 
660.00010179367 12399.0 NaN 1534.7388109552444 0.5128868344169206 491.0 20.0 349.0 
662.00010179367 12376.0 NaN 1537.8891115564454 0.5082741594290341 494.0 20.0 350.0 
664.00010179367 12361.0 NaN 1537.9746158984635 0.5119970912262487 497.0 19.0 351.0 
#####################################################################
# End of data export. Simulation finished at: 2019-03-07T20:36+0000 #
#####################################################################
