#####################################################################
# Alchemist log file - simulation started at: 2019-03-12T13:32+0000 #
#####################################################################
# seed = 6.0, bandwidth = 17782.79410038923, propagationDelay = 3.1622776601683795, baserange = 562.341325190349
#
# The columns have the following meaning: 
# time neighbor_count[Sum] <value>@neighbor_count[Sum] packet_size[Mean] mean_delay[Mean] crowd[Sum] overcrowded[Sum] risk[Sum] 
0.0 NaN NaN NaN NaN NaN NaN NaN 
2.0013042135964882 NaN NaN 4988.0 NaN 1497.0 0.0 1497.0 
4.001304213596488 14931.0 NaN 4988.529058116233 0.14485980228853002 1497.0 0.0 1497.0 
6.001304213596488 98210.0 NaN 4996.424849699399 1.5613517996462805 1497.0 0.0 1497.0 
8.001304213596487 98215.0 NaN 4996.523714094857 2.9264294843239282 1497.0 0.0 1497.0 
10.001304213596487 98226.0 NaN 4993.322645290581 1.5615874993559171 1496.0 1.0 1496.0 
12.000037235221313 98226.0 NaN 4993.221108884435 2.92798123194155 1496.0 1.0 1496.0 
14.001304213596487 98226.0 NaN 4995.914495657983 1.5627571644923435 1496.0 1.0 1496.0 
16.000037235221313 98234.0 NaN 4995.914495657983 2.929356251840152 1496.0 1.0 1496.0 
18.001304213596487 98256.0 NaN 4993.221108884435 1.5648411983115569 1496.0 1.0 1496.0 
20.00003723522131 98264.0 NaN 4993.231796927188 2.9313788414083732 1496.0 1.0 1496.0 
22.001304213596487 98298.0 NaN 4995.895791583166 1.5668186709381353 1496.0 1.0 1496.0 
24.00003723522131 98299.0 NaN 4995.901135604542 2.9334966285300452 1496.0 1.0 1496.0 
26.001304213596487 98319.0 NaN 4993.253173012692 1.570639890826186 1496.0 1.0 1496.0 
28.00003723522131 98336.0 NaN 4993.247828991316 2.9373321778087775 1496.0 1.0 1496.0 
30.001304213596487 98391.0 NaN 4995.893119572478 1.5755958594818638 1496.0 1.0 1496.0 
32.00003723522131 98391.0 NaN 4995.898463593854 2.94305032553661 1496.0 1.0 1496.0 
34.001304213596484 98400.0 NaN 4993.263861055444 1.579468504877697 1496.0 1.0 1496.0 
36.000037235221306 98411.0 NaN 4993.263861055444 2.949055043520928 1496.0 1.0 1496.0 
38.001304213596484 98484.0 NaN 4995.909151636606 1.5848596183552812 1496.0 1.0 1496.0 
40.000037235221306 98489.0 NaN 4995.919839679359 2.9523266058077287 1496.0 1.0 1496.0 
42.001304213596484 98510.0 NaN 4993.301269205077 1.587134345131167 1496.0 1.0 1496.0 
44.000037235221306 98511.0 NaN 4993.298597194389 2.9573438544662225 1496.0 1.0 1496.0 
46.001304213596484 98540.0 NaN 4995.906479625918 1.5974079167070627 1496.0 1.0 1496.0 
48.000037235221306 98550.0 NaN 4995.906479625918 2.968662905180803 1496.0 1.0 1496.0 
50.001304213596484 98576.0 NaN 4993.306613226453 1.6011454269736252 1496.0 1.0 1496.0 
52.000037235221306 98577.0 NaN 4993.298597194389 2.9723169915656067 1496.0 1.0 1496.0 
54.001304213596484 98590.0 NaN 4995.89044756179 1.6046793185316197 1496.0 1.0 1496.0 
56.000037235221306 98610.0 NaN 4995.906479625918 2.9783226516828467 1496.0 1.0 1496.0 
58.001304213596484 98703.0 NaN 4993.309285237141 1.6149189618252155 1496.0 1.0 1496.0 
60.000037235221306 98712.0 NaN 4993.309285237141 2.9891395297194463 1496.0 1.0 1496.0 
62.001304213596484 98733.0 NaN 1522.9819639278544 1.60587487968002 839.0 0.0 365.0 
64.00003723522131 98744.0 NaN 1522.9792919171668 2.5995526111246874 791.0 0.0 365.0 
66.00130421359648 98801.0 NaN 1522.5464261857062 1.7769188792680275 668.0 1.0 364.0 
68.00003723522131 98818.0 NaN 1522.4662658650636 2.637174972400535 647.0 1.0 364.0 
70.00130421359648 98828.0 NaN 1525.849031396127 1.8145682326329744 602.0 3.0 363.0 
72.00003723522131 98834.0 NaN 1525.8436873747485 2.661572683040774 593.0 3.0 363.0 
74.00130421359648 98796.0 NaN 1528.6519706078818 1.8020735573793782 577.0 3.0 364.0 
76.00003723522131 98831.0 NaN 1531.7301269205088 2.6501394654436217 570.0 3.0 365.0 
78.00130421359648 98894.0 NaN 1532.0080160320636 1.818505791824776 552.0 3.0 365.0 
80.00003723522131 98902.0 NaN 1531.9893119572478 2.668021666750717 550.0 3.0 365.0 
82.00130421359648 98869.0 NaN 1531.695390781564 1.8040924386572061 542.0 3.0 365.0 
84.00003723522131 98885.0 NaN 1534.7735470941882 2.6482810629185796 538.0 3.0 366.0 
86.00130421359648 98913.0 NaN 1535.080828323312 1.8109533856287896 536.0 2.0 367.0 
88.00003723522131 98927.0 NaN 1535.0754843019363 2.6605608468372774 535.0 2.0 367.0 
90.00130421359648 98936.0 NaN 1534.7682030728117 1.8233540888892643 536.0 2.0 367.0 
92.00003723522131 98955.0 NaN 1534.7628590514364 2.6732599890351145 535.0 2.0 367.0 
94.00130421359648 98959.0 NaN 1535.0674682698727 1.7933127106081979 533.0 2.0 367.0 
96.00003723522131 98979.0 NaN 1535.070140280561 2.643376712160336 533.0 2.0 367.0 
98.00130421359648 98991.0 NaN 1537.859719438879 1.8023212152461499 531.0 2.0 368.0 
100.00003723522131 98997.0 NaN 1537.849031396127 2.6540277097221474 530.0 2.0 368.0 
102.00130421359648 98984.0 NaN 1538.1670006680026 1.798757762335322 530.0 2.0 368.0 
104.00003723522131 99002.0 NaN 1538.1456245824997 2.6496272160351158 529.0 2.0 368.0 
106.00130421359648 99030.0 NaN 1540.8710754843003 1.805681053176827 526.0 2.0 369.0 
108.00003723522131 99044.0 NaN 1540.8844355377428 2.6574785605804805 525.0 2.0 369.0 
110.00130421359648 99083.0 NaN 1541.2237808951243 1.815833630500509 524.0 2.0 369.0 
112.00003723522131 99101.0 NaN 1541.2344689378754 2.6696029922439735 524.0 2.0 369.0 
114.00130421359648 99067.0 NaN 1540.8817635270545 1.8087332657653536 524.0 2.0 369.0 
116.00003723522131 99078.0 NaN 1540.8844355377428 2.6616560375872216 524.0 2.0 369.0 
118.00130421359648 99085.0 NaN 1544.3233132932544 1.8184239168675518 526.0 2.0 370.0 
120.00003723522131 99092.0 NaN 1541.2558450233817 2.671316679380439 526.0 2.0 369.0 
122.00130421359648 99028.0 NaN 1540.911155644621 1.803342429888175 526.0 2.0 369.0 
124.00003723522131 99034.0 NaN 1540.8897795591183 2.6568574741621553 526.0 2.0 369.0 
126.00130421359648 98991.0 NaN 1541.2130928523725 1.7947787814062246 526.0 2.0 369.0 
128.00003723522133 99003.0 NaN 1538.1456245824997 2.6476006729651336 526.0 2.0 368.0 
130.00130421359648 98994.0 NaN 1537.8543754175003 1.7987945309146058 526.0 2.0 368.0 
132.0000372352213 99004.0 NaN 1537.8436873747485 2.6521737487769053 526.0 2.0 368.0 
134.00130421359648 98986.0 NaN 1538.142952571809 1.7931350004498396 526.0 2.0 368.0 
136.0000372352213 98994.0 NaN 1535.078156312627 2.6458948057939877 525.0 2.0 367.0 
138.00130421359648 98981.0 NaN 1534.8056112224456 1.7900435902782748 524.0 2.0 367.0 
140.0000372352213 99000.0 NaN 1534.8056112224456 2.6424883852027627 523.0 2.0 367.0 
142.00130421359648 98997.0 NaN 1535.1289245156997 1.7862477669677868 523.0 2.0 367.0 
144.0000372352213 99000.0 NaN 1535.1182364729455 2.637655095016198 523.0 2.0 367.0 
146.00130421359648 98986.0 NaN 1540.943219772879 1.7920034584308475 521.0 2.0 369.0 
148.0000372352213 99010.0 NaN 1540.9271877087515 2.644701556878723 521.0 2.0 369.0 
150.00130421359648 99054.0 NaN 1544.3286573146274 1.7971683036352948 524.0 2.0 370.0 
152.0000372352213 99056.0 NaN 1547.4094856379425 2.6520033227833544 524.0 2.0 371.0 
154.00130421359648 99028.0 NaN 1547.0728122912485 1.797629886436149 525.0 2.0 371.0 
156.0000372352213 99040.0 NaN 1540.9004676018724 2.6524659834225357 525.0 3.0 368.0 
158.00130421359648 99022.0 NaN 1541.2638610554452 1.7964020316600384 525.0 4.0 367.0 
160.0000372352213 99037.0 NaN 1538.1990647962602 2.6501853263041117 525.0 4.0 366.0 
162.00130421359648 99019.0 NaN 1537.811623246491 1.7888155061587405 525.0 4.0 366.0 
164.0000372352213 99023.0 NaN 1537.808951235806 2.641628488790932 522.0 4.0 366.0 
166.00130421359648 99002.0 NaN 1541.293253173012 1.7903696180945652 522.0 3.0 368.0 
168.0000372352213 99013.0 NaN 1535.155644622579 2.643515147316173 522.0 3.0 366.0 
170.00130421359648 99023.0 NaN 1540.8977955911816 1.7955050494394758 523.0 3.0 368.0 
172.0000372352213 99026.0 NaN 1537.784903139612 2.64967855321279 522.0 3.0 367.0 
174.00130421359648 98977.0 NaN 1541.2531730126907 1.793621116740532 525.0 3.0 368.0 
176.0000372352213 98995.0 NaN 1538.1830327321297 2.64811916508784 525.0 3.0 367.0 
178.00130421359648 98999.0 NaN 1537.8089512358065 1.7908569766765754 525.0 3.0 367.0 
180.0000372352213 99014.0 NaN 1537.7955911823633 2.6442182114061175 525.0 3.0 367.0 
182.00130421359648 99011.0 NaN 1541.2344689378751 1.7898239694189448 524.0 3.0 368.0 
184.0000372352213 99016.0 NaN 1541.2050768203092 2.6437330573256936 521.0 3.0 368.0 
186.00130421359648 98972.0 NaN 1540.8951235804936 1.792036939667881 521.0 3.0 368.0 
188.0000372352213 98990.0 NaN 1540.9111556446207 2.646486411369345 520.0 3.0 368.0 
190.00130421359648 98994.0 NaN 1535.1422845691366 1.799228680710647 520.0 3.0 366.0 
192.0000372352213 99001.0 NaN 1535.1048764195061 2.6537857161443257 518.0 3.0 366.0 
194.00130421359648 98955.0 NaN 1534.794923179691 1.8068118928382269 520.0 3.0 366.0 
196.0000372352213 98967.0 NaN 1534.789579158318 2.6609847159499007 521.0 3.0 366.0 
198.00130421359648 98930.0 NaN 1538.1670006680026 1.809623100128762 521.0 3.0 367.0 
200.0000372352213 98941.0 NaN 1538.1589846359366 2.6646970005039425 518.0 3.0 367.0 
202.00130421359648 98919.0 NaN 1537.849031396127 1.8142099550578314 521.0 3.0 367.0 
204.0000372352213 98932.0 NaN 1537.8650634602548 2.669411829320037 520.0 3.0 367.0 
206.00130421359648 98883.0 NaN 1538.150968603873 1.8156567049020473 521.0 3.0 367.0 
208.0000372352213 98889.0 NaN 1535.0861723446908 2.6715305923111456 517.0 3.0 366.0 
210.00130421359648 98869.0 NaN 1534.8082832331334 1.8178128927198816 518.0 3.0 366.0 
212.0000372352213 98872.0 NaN 1534.7682030728117 2.6740527015085926 518.0 3.0 366.0 
214.00130421359648 98817.0 NaN 1538.1670006680026 1.8254961357584423 517.0 3.0 367.0 
216.0000372352213 98829.0 NaN 1528.9539078156301 2.6817429085183413 514.0 3.0 364.0 
218.00130421359648 98752.0 NaN 1528.6092184368727 1.8195295519518582 518.0 3.0 364.0 
220.0000372352213 98761.0 NaN 1528.5477621910482 2.674500506827934 518.0 3.0 364.0 
222.00130421359648 98717.0 NaN 1522.749498997997 1.8322635466561117 518.0 3.0 362.0 
224.0000372352213 98759.0 NaN 1522.749498997997 2.6859320523591736 515.0 3.0 362.0 
226.00130421359648 98763.0 NaN 1528.5771543086182 1.8404019871169213 518.0 3.0 364.0 
228.0000372352213 98783.0 NaN 1528.5851703406818 2.6953939439710135 518.0 3.0 364.0 
230.00130421359648 98756.0 NaN 1535.1396125584517 1.8338612529102036 517.0 3.0 366.0 
232.0000372352213 98764.0 NaN 1535.0968603874426 2.690249571101626 513.0 3.0 366.0 
234.00130421359648 98729.0 NaN 1534.7040748163001 1.8314192539601148 517.0 3.0 366.0 
236.0000372352213 98740.0 NaN 1534.6933867735454 2.687732068626998 517.0 3.0 366.0 
238.00130421359648 98721.0 NaN 1535.0407481629911 1.8370274344403188 516.0 3.0 366.0 
240.0000372352213 98731.0 NaN 1531.9572478289908 2.693113846039604 512.0 3.0 365.0 
242.00130421359648 98675.0 NaN 1531.6472945891787 1.8238020963709114 516.0 3.0 365.0 
244.0000372352213 98681.0 NaN 1528.5771543086184 2.6784847597128745 516.0 3.0 364.0 
246.00130421359648 98637.0 NaN 1528.943219772879 1.821807142555205 516.0 3.0 364.0 
248.0000372352213 98655.0 NaN 1522.789579158318 2.6760927157939385 513.0 3.0 362.0 
250.00130421359648 98610.0 NaN 1516.3126252504999 1.820041173534286 515.0 3.0 360.0 
252.0000372352213 98614.0 NaN 1516.304609218436 2.6715491259161013 514.0 3.0 360.0 
254.00130421359648 98539.0 NaN 1516.6038744154996 1.8194915477263278 512.0 3.0 360.0 
256.0000372352213 98553.0 NaN 1516.6038744154996 2.6709050682523565 509.0 3.0 360.0 
258.0013042135965 98532.0 NaN 1516.2698730794912 1.8337802539612442 516.0 3.0 360.0 
260.0000372352213 98541.0 NaN 1513.1943887775544 2.6864543603351674 515.0 3.0 359.0 
262.0013042135965 98478.0 NaN 1513.531062124248 1.837089003106936 515.0 3.0 359.0 
264.0000372352213 98475.0 NaN 1510.4502338009365 2.6881511686200605 512.0 3.0 358.0 
266.0013042135965 98435.0 NaN 1519.3907815631273 1.8492173687083238 515.0 3.0 361.0 
268.0000372352213 98453.0 NaN 1519.3774215096846 2.7023549472513637 515.0 3.0 361.0 
270.0013042135965 98412.0 NaN 1528.9218436873728 1.8528483189682867 513.0 3.0 364.0 
272.0000372352213 98418.0 NaN 1528.9111556446207 2.705301684709536 512.0 3.0 364.0 
274.0013042135965 98351.0 NaN 1525.5390781563117 1.8432999915311232 511.0 3.0 363.0 
276.0000372352213 98361.0 NaN 1525.5070140280548 2.696187329134305 511.0 3.0 363.0 
278.0013042135965 98308.0 NaN 1528.8550434201725 1.8493062388786519 510.0 3.0 364.0 
280.0000372352213 98317.0 NaN 1534.9873079492343 2.7019295476845047 514.0 3.0 366.0 
282.0013042135965 98229.0 NaN 1537.7715430861729 1.8567599809726878 514.0 3.0 367.0 
284.0000372352213 98235.0 NaN 1531.5831663326637 2.7109956604535084 513.0 3.0 365.0 
286.0013042135965 98162.0 NaN 1528.7775551102181 1.8577595117049892 513.0 3.0 364.0 
288.0000372352213 98175.0 NaN 1528.7935871743477 2.7105297972842246 513.0 3.0 364.0 
290.0013042135965 98101.0 NaN 1525.5444221776906 1.8586265652887435 513.0 3.0 363.0 
292.0000372352213 98112.0 NaN 1525.5150300601183 2.707223086859617 513.0 3.0 363.0 
294.0013042135965 97992.0 NaN 1522.6853707414816 1.840604576942368 513.0 3.0 362.0 
296.0000372352213 98002.0 NaN 1522.6800267201093 2.6923345816729274 513.0 3.0 362.0 
298.0013042135965 97938.0 NaN 1528.5771543086184 1.845818707592403 511.0 3.0 364.0 
300.0000372352213 97944.0 NaN 1528.563794255175 2.696870314611835 511.0 3.0 364.0 
302.0013042135965 97889.0 NaN 1531.8984635938546 1.8326855382294507 509.0 3.0 365.0 
304.0000372352213 97905.0 NaN 1528.8256513026065 2.68557002733085 508.0 3.0 364.0 
306.0013042135965 97832.0 NaN 1528.5450901803613 1.8416593802731427 507.0 3.0 364.0 
308.0000372352213 97842.0 NaN 1525.4829659318634 2.694040916565622 507.0 3.0 363.0 
310.0013042135965 97803.0 NaN 1531.9385437541728 1.8510821017655927 507.0 3.0 365.0 
312.0000372352213 97814.0 NaN 1531.9144956579817 2.7055617745214358 507.0 3.0 365.0 
314.0013042135965 97714.0 NaN 1531.644622578491 1.85390111168875 507.0 3.0 365.0 
316.0000372352213 97721.0 NaN 1528.561122244491 2.708447046398255 507.0 3.0 364.0 
318.0013042135965 97680.0 NaN 1528.8122912491638 1.870807450221111 507.0 3.0 364.0 
320.0000372352213 97681.0 NaN 1528.790915163661 2.7257237320884267 508.0 3.0 364.0 
322.0013042135965 97526.0 NaN 1531.6205744822998 1.8590304556896686 506.0 3.0 365.0 
324.0000372352213 97537.0 NaN 1531.6205744822998 2.713463263311451 506.0 3.0 365.0 
326.0013042135965 97489.0 NaN 1537.9933199732818 1.8550256046092948 505.0 3.0 367.0 
328.0000372352213 97500.0 NaN 1534.936539746158 2.7105440657789885 504.0 3.0 366.0 
330.0013042135965 97417.0 NaN 1534.752171008682 1.864840713196935 507.0 3.0 366.0 
332.0000372352213 97421.0 NaN 1531.6820307281243 2.7206325628868413 507.0 3.0 365.0 
334.0013042135965 97300.0 NaN 1531.8984635938546 1.8669239780135587 508.0 3.0 365.0 
336.0000372352213 97309.0 NaN 1525.742150968603 2.7235673544014314 508.0 3.0 363.0 
338.0013042135965 97226.0 NaN 1531.6366065464276 1.8775028124938902 510.0 3.0 365.0 
340.0000372352213 97231.0 NaN 1525.4589178356723 2.734218464851253 509.0 3.0 363.0 
342.0013042135965 97056.0 NaN 1525.7127588510366 1.854928787876078 507.0 3.0 363.0 
344.0000372352213 97073.0 NaN 1522.6479625918514 2.7085527966796095 507.0 3.0 362.0 
346.0013042135965 97026.0 NaN 1525.496325985303 1.870513592626585 507.0 3.0 363.0 
348.0000372352213 97036.0 NaN 1525.4615898463605 2.722634908821957 507.0 3.0 363.0 
350.0013042135965 96969.0 NaN 1525.7581830327333 1.869628235339476 511.0 3.0 363.0 
352.0000372352213 96980.0 NaN 1525.752839011355 2.7210636889655704 511.0 3.0 363.0 
354.0013042135965 96881.0 NaN 1525.4509018036085 1.8629467339100212 510.0 3.0 363.0 
356.0000372352213 96895.0 NaN 1525.432197728791 2.713473958149323 511.0 3.0 363.0 
358.0013042135965 96839.0 NaN 1525.7688710754842 1.8726897574544379 509.0 3.0 363.0 
360.0000372352213 96851.0 NaN 1528.8577154308632 2.724676129250604 510.0 3.0 364.0 
362.0013042135965 96752.0 NaN 1528.590514362057 1.8514502452220356 514.0 3.0 364.0 
364.0000372352213 96773.0 NaN 1525.5016700066813 2.701664444352261 514.0 3.0 363.0 
366.0013042135965 96742.0 NaN 1522.7040748163 1.8647149593880854 514.0 3.0 362.0 
368.0000372352213 96749.0 NaN 1513.472277889111 2.716716659258108 514.0 3.0 359.0 
370.0013042135965 96677.0 NaN 1516.1870407481636 1.8731626044275405 515.0 3.0 360.0 
372.0000372352213 96701.0 NaN 1510.0334001336 2.724343241593779 516.0 3.0 358.0 
374.0013042135965 96664.0 NaN 1513.4054776219098 1.876320240996618 516.0 3.0 359.0 
376.0000372352213 96674.0 NaN 1510.3486973947902 2.7257535688453247 515.0 3.0 358.0 
378.0013042135965 96607.0 NaN 1510.0387441549758 1.8865191930055534 516.0 3.0 358.0 
380.0000372352213 96629.0 NaN 1510.0627922511696 2.736141146834763 516.0 3.0 358.0 
382.0013042135965 96549.0 NaN 1513.4696058784243 1.8824055084569484 518.0 3.0 359.0 
384.0000372352213 96563.0 NaN 1513.4562458249827 2.73151683862442 520.0 3.0 359.0 
386.0013042135965 96514.0 NaN 1519.353373413493 1.8888561843427132 518.0 3.0 361.0 
388.0000372352213 96521.0 NaN 1519.3453573814281 2.738930250957242 519.0 3.0 361.0 
390.0013042135965 96404.0 NaN 1525.8142952571818 1.881901496235443 521.0 2.0 364.0 
392.0000372352213 96414.0 NaN 1522.725450901803 2.7309467550552644 521.0 2.0 363.0 
394.0013042135965 96340.0 NaN 1519.3480293921182 1.8580634467078874 520.0 2.0 362.0 
396.0000372352213 96352.0 NaN 1510.1189044756184 2.70594905524762 522.0 2.0 359.0 
398.0013042135965 96278.0 NaN 1510.4315297261182 1.8616825104295123 523.0 2.0 359.0 
400.0000372352213 96294.0 NaN 1510.3914495657991 2.7049828840319017 523.0 2.0 359.0 
402.0013042135965 96164.0 NaN 1513.108884435537 1.8436113591883292 523.0 2.0 360.0 
404.0000372352213 96177.0 NaN 1519.2545090180365 2.6868567495225726 524.0 2.0 362.0 
406.0013042135965 96123.0 NaN 1522.6987307949241 1.8416775367384235 522.0 2.0 363.0 
408.0000372352213 96135.0 NaN 1519.6098864395453 2.6899511850120015 521.0 2.0 362.0 
410.0013042135965 96083.0 NaN 1522.4128256513025 1.852633028728784 523.0 2.0 363.0 
412.0000372352213 96093.0 NaN 1528.523714094855 2.702262150668042 523.0 2.0 365.0 
414.0013042135965 96043.0 NaN 1538.0066800267184 1.8732778943832276 524.0 2.0 368.0 
416.0000372352213 96073.0 NaN 1534.9205076820303 2.7248607166815626 524.0 2.0 367.0 
418.0013042135965 96087.0 NaN 1531.5751503006 1.8876384185505872 524.0 2.0 366.0 
420.0000372352213 96105.0 NaN 1531.5778223112904 2.738416370181145 525.0 2.0 366.0 
422.0013042135965 96016.0 NaN 1531.8183032732122 1.9026568083115274 526.0 2.0 366.0 
424.0000372352213 96031.0 NaN 1510.3193052772203 2.754013732621361 524.0 2.0 359.0 
426.0013042135965 95966.0 NaN 1516.2378089512365 1.9168370215803177 528.0 2.0 361.0 
428.0000372352213 95982.0 NaN 1513.1676686706737 2.7650552277917058 525.0 2.0 360.0 
430.0013042135965 95957.0 NaN 1513.3974615898458 1.9109012948873325 522.0 2.0 360.0 
432.0000372352213 95964.0 NaN 1510.3353373413486 2.7591259392542846 520.0 2.0 359.0 
434.0013042135965 95786.0 NaN 1513.0981963927848 1.8768214991146894 519.0 2.0 360.0 
436.0000372352213 95807.0 NaN 1513.1062124248485 2.722922006236558 523.0 2.0 360.0 
438.0013042135965 95761.0 NaN 1534.9124916499663 1.8725809444048724 527.0 2.0 367.0 
440.0000372352213 95774.0 NaN 1534.8964595858367 2.7202785859878733 528.0 2.0 367.0 
442.0013042135965 95698.0 NaN 1534.661322645291 1.8754904265023236 528.0 2.0 367.0 
444.0000372352213 95710.0 NaN 1528.5156980627912 2.723175948279935 528.0 2.0 365.0 
446.0013042135965 95616.0 NaN 1534.877755511021 1.868984962940821 528.0 2.0 367.0 
448.0000372352213 95637.0 NaN 1541.0420841683363 2.71841931656728 529.0 2.0 369.0 
450.0013042135965 95645.0 NaN 1546.9873079492336 1.8861378555322197 528.0 2.0 371.0 
452.0000372352213 95658.0 NaN 1546.9926519706091 2.740344153703038 527.0 2.0 371.0 
454.0013042135965 95602.0 NaN 1547.1636606546429 1.880942036285821 528.0 2.0 371.0 
456.0000372352213 95627.0 NaN 1550.2765531062116 2.7340228423876027 526.0 2.0 372.0 
458.0013042135965 95601.0 NaN 1553.1356045424182 1.853604026914425 526.0 2.0 373.0 
460.0000372352213 95610.0 NaN 1553.1436205744817 2.7067381656328116 528.0 2.0 373.0 
462.0013042135965 95487.0 NaN 1550.3460253841001 1.836277567554896 528.0 2.0 372.0 
464.0000372352213 95503.0 NaN 1550.2925851703392 2.68637740766255 528.0 2.0 372.0 
466.0013042135965 95512.0 NaN 1546.947227788909 1.8494200205195281 525.0 2.0 371.0 
468.0000372352213 95524.0 NaN 1543.8717434869727 2.7033050582521008 525.0 2.0 370.0 
470.0013042135965 95501.0 NaN 1541.0260521042092 1.8607016334611712 525.0 2.0 369.0 
472.0000372352213 95519.0 NaN 1534.8670674682703 2.7141026757748237 524.0 2.0 367.0 
474.0013042135965 95494.0 NaN 1531.5911823647277 1.8597221777879327 524.0 2.0 366.0 
476.0000372352213 95520.0 NaN 1525.4535738142938 2.7104657434469224 521.0 2.0 364.0 
478.0013042135965 95485.0 NaN 1525.6219104876425 1.8537831756240224 518.0 2.0 364.0 
480.0000372352213 95491.0 NaN 1525.579158316634 2.7016785596507 518.0 2.0 364.0 
482.0013042135965 95436.0 NaN 1525.4081496325996 1.8530778778949615 518.0 2.0 364.0 
484.0000372352213 95476.0 NaN 1519.2464929859727 2.700429435827829 518.0 2.0 362.0 
486.0013042135965 95545.0 NaN 1516.4034736138938 1.865087456905215 519.0 2.0 361.0 
488.0000372352213 95571.0 NaN 1510.263193052773 2.713046840033397 517.0 2.0 359.0 
490.0013042135965 95561.0 NaN 1510.0440881763536 1.8659145939027448 513.0 2.0 359.0 
492.0000372352213 95576.0 NaN 1500.8096192384758 2.7146852694546504 514.0 2.0 356.0 
494.0013042135965 95502.0 NaN 1494.907147628591 1.8340690259572328 512.0 2.0 354.0 
496.0000372352213 95521.0 NaN 1491.8503674014705 2.680256821145535 511.0 2.0 353.0 
498.0013042135965 95529.0 NaN 1491.6499665998658 1.8425715038446826 510.0 2.0 353.0 
500.0000372352213 95540.0 NaN 1491.6633266533072 2.6892368701656615 510.0 2.0 353.0 
502.0013042135965 95483.0 NaN 1494.9819639278548 1.8409048818135598 513.0 2.0 354.0 
504.0000372352213 95514.0 NaN 1491.9278557114237 2.687143245326823 514.0 1.0 354.0 
506.0013042135965 95521.0 NaN 1500.8737474949908 1.8563494990993883 515.0 1.0 357.0 
508.0000372352213 95548.0 NaN 1497.784903139612 2.7031715179927556 515.0 1.0 356.0 
510.0013042135965 95541.0 NaN 1501.0955243820981 1.8531749433805336 517.0 3.0 355.0 
512.0000372352214 95565.0 NaN 1491.8877755511007 2.7014132799479182 517.0 3.0 352.0 
514.0013042135965 95523.0 NaN 1494.7174348697386 1.8588715712210366 516.0 3.0 353.0 
516.0000372352213 95548.0 NaN 1479.3480293921182 2.7045986315083703 515.0 3.0 348.0 
518.0013042135965 95547.0 NaN 1479.6179024716093 1.8561060938305982 514.0 3.0 348.0 
520.0000372352213 95566.0 NaN 1476.518370073481 2.700271431915121 513.0 3.0 347.0 
522.0013042135965 95526.0 NaN 1476.3072812291257 1.846399904952449 513.0 3.0 347.0 
524.0000372352213 95554.0 NaN 1473.2050768203082 2.6899331406845106 515.0 3.0 346.0 
526.0013042135965 95562.0 NaN 1461.2024048096187 1.8581335300651245 514.0 3.0 342.0 
528.0000372352213 95593.0 NaN 1464.2752171008694 2.701933618462826 513.0 3.0 343.0 
530.0013042135965 95601.0 NaN 1460.8550434201732 1.865649706947738 506.0 3.0 342.0 
532.0000372352213 95613.0 NaN 1460.8309953239818 2.7099313281565194 506.0 3.0 342.0 
534.0013042135965 95593.0 NaN 1467.305277221109 1.8843126754421902 511.0 3.0 344.0 
536.0000372352213 95628.0 NaN 1467.286573146292 2.726394490546269 511.0 3.0 344.0 
538.0013042135965 95635.0 NaN 1467.0594522378092 1.878870873527522 512.0 3.0 344.0 
540.0000372352213 95649.0 NaN 1467.0380761523058 2.7231563674780674 511.0 3.0 344.0 
542.0013042135965 95626.0 NaN 1470.3967935871738 1.8807732819692258 510.0 3.0 345.0 
544.0000372352213 95645.0 NaN 1470.3807615230455 2.7265197080323973 510.0 3.0 345.0 
546.0013042135965 95621.0 NaN 1466.9899799599193 1.8705842810358744 512.0 3.0 344.0 
548.0000372352213 95645.0 NaN 1470.0948563794261 2.714410587957737 513.0 3.0 345.0 
550.0013042135965 95642.0 NaN 1470.3887775551095 1.8669277066249466 516.0 3.0 345.0 
552.0000372352213 95663.0 NaN 1470.3754175016704 2.7121526733352175 517.0 3.0 345.0 
554.0013042135965 95679.0 NaN 1470.0814963259847 1.8567129612802018 516.0 3.0 345.0 
556.0000372352213 95727.0 NaN 1463.9438877755513 2.7008251410576984 514.0 3.0 343.0 
558.0013042135965 95798.0 NaN 1458.0814963259852 1.8520154925879766 514.0 3.0 341.0 
560.0000372352213 95818.0 NaN 1464.2378089512365 2.693367154181714 513.0 3.0 343.0 
562.0013042135965 95850.0 NaN 1463.9331997327997 1.8578474272111714 514.0 3.0 343.0 
564.0000372352213 95871.0 NaN 1460.876419505678 2.7000854396470486 511.0 3.0 342.0 
566.0013042135965 95892.0 NaN 1464.2057448229793 1.8402171626372275 511.0 3.0 343.0 
568.0000372352213 95927.0 NaN 1467.3186372745488 2.6815250019904138 510.0 3.0 344.0 
570.0013042135965 95959.0 NaN 1476.264529058117 1.8355052997721195 515.0 2.0 348.0 
572.0000372352213 95979.0 NaN 1473.181028724115 2.681767588788726 515.0 2.0 347.0 
574.0013042135965 95968.0 NaN 1479.6179024716096 1.845383416751062 519.0 2.0 349.0 
576.0000372352213 95995.0 NaN 1479.6125584502342 2.6924348027164937 521.0 2.0 349.0 
578.0013042135965 96016.0 NaN 1485.5337341349364 1.8621798235756335 518.0 2.0 351.0 
580.0000372352213 96052.0 NaN 1479.3533734134933 2.7093240886120746 517.0 2.0 349.0 
582.0013042135965 96074.0 NaN 1482.6933867735468 1.8692062166249224 519.0 2.0 350.0 
584.0000372352213 96104.0 NaN 1479.5911823647286 2.716225248604438 518.0 2.0 349.0 
586.0013042135965 96103.0 NaN 1482.3887775551095 1.8877928355516662 523.0 2.0 350.0 
588.0000372352213 96123.0 NaN 1488.5584502338002 2.7393596407417538 523.0 2.0 352.0 
590.0013042135965 96060.0 NaN 1495.006012024047 1.9015610019898042 526.0 2.0 354.0 
592.0000372352213 96093.0 NaN 1494.9899799599193 2.754139433232253 525.0 2.0 354.0 
594.0013042135965 96070.0 NaN 1494.6933867735468 1.9079712073401813 526.0 2.0 354.0 
596.0000372352213 96096.0 NaN 1491.6179024716093 2.760379150607902 526.0 2.0 353.0 
598.0013042135965 95944.0 NaN 1488.852371409485 1.8786857268562656 529.0 2.0 352.0 
600.0000372352213 95961.0 NaN 1488.8122912491647 2.729148847248534 529.0 2.0 352.0 
602.0013042135965 95938.0 NaN 1491.615230460921 1.8816934512575318 525.0 2.0 353.0 
604.0000372352213 95972.0 NaN 1488.5076820307277 2.732670083902733 524.0 2.0 352.0 
606.0013042135965 95974.0 NaN 1491.9278557114235 1.8877010133198504 525.0 2.0 353.0 
608.0000372352213 96010.0 NaN 1501.1569806279215 2.7354211395077965 527.0 2.0 356.0 
610.0013042135965 95973.0 NaN 1503.973279893119 1.8766533224998 527.0 2.0 357.0 
612.0000372352213 95990.0 NaN 1503.9412157648637 2.7288551684542197 525.0 2.0 357.0 
614.0013042135965 95951.0 NaN 1504.1282565130264 1.8599749549895215 523.0 2.0 357.0 
616.0000372352213 95981.0 NaN 1501.074148296592 2.7112289901944573 522.0 2.0 356.0 
618.0013042135965 96003.0 NaN 1503.9465597862381 1.8660897411910797 523.0 2.0 357.0 
620.0000372352213 96016.0 NaN 1500.8523714094847 2.7189246956911015 522.0 2.0 356.0 
622.0013042135965 95921.0 NaN 1507.2491649966607 1.8477887930698995 522.0 3.0 357.0 
624.0000372352213 95948.0 NaN 1510.3139612558455 2.6972733680022736 523.0 3.0 358.0 
626.0013042135965 95939.0 NaN 1516.299265197062 1.845268576297883 521.0 3.0 360.0 
628.0000372352213 95960.0 NaN 1510.150968603874 2.6984552606627896 519.0 3.0 358.0 
630.0013042135965 95940.0 NaN 1513.4455577822303 1.8491139633589488 518.0 3.0 359.0 
632.0000372352213 95958.0 NaN 1510.3754175016707 2.7045447752324168 517.0 3.0 358.0 
634.0013042135965 95919.0 NaN 1513.2692050768194 1.8537284949206791 515.0 3.0 359.0 
636.0000372352213 95940.0 NaN 1513.2692050768194 2.708571818035263 516.0 3.0 359.0 
638.0013042135965 95906.0 NaN 1519.615230460921 1.8540530204196057 515.0 3.0 361.0 
640.0000372352213 95925.0 NaN 1516.5344021376093 2.7111478465347227 514.0 3.0 360.0 
642.0013042135965 95879.0 NaN 1516.3446893787566 1.8624189378637435 525.0 3.0 360.0 
644.0000372352213 95898.0 NaN 1516.3633934535728 2.719665905477929 526.0 3.0 360.0 
646.0013042135965 95882.0 NaN 1516.5076820307274 1.8706082824054204 524.0 3.0 360.0 
648.0000372352213 95901.0 NaN 1510.3380093520368 2.7297159242612326 523.0 3.0 358.0 
650.0013042135965 95861.0 NaN 1516.3500334001344 1.8856587990794793 521.0 3.0 360.0 
652.0000372352213 95886.0 NaN 1513.2505010020034 2.746940708969909 521.0 3.0 359.0 
654.0013042135965 95873.0 NaN 1516.4782899131603 1.892748959398825 518.0 2.0 361.0 
656.0000372352213 95912.0 NaN 1528.7882431529729 2.753784485644231 517.0 2.0 365.0 
658.0013042135965 95887.0 NaN 1534.7441549766195 1.9000330196641766 516.0 2.0 367.0 
660.0000372352213 95910.0 NaN 1537.808951235806 2.764779439259222 516.0 2.0 368.0 
662.0013042135965 95829.0 NaN 1541.0688042752183 1.8955997118273529 514.0 2.0 369.0 
664.0000372352213 95856.0 NaN 1537.987975951903 2.759326775743582 514.0 2.0 368.0 
#####################################################################
# End of data export. Simulation finished at: 2019-03-12T14:02+0000 #
#####################################################################
