#####################################################################
# Alchemist log file - simulation started at: 2019-03-07T05:01+0000 #
#####################################################################
# seed = 5.0, bandwidth = 1000.0, propagationDelay = 0.001, baserange = 17.78279410038923
#
# The columns have the following meaning: 
# time neighbor_count[Sum] <value>@neighbor_count[Sum] packet_size[Mean] mean_delay[Mean] crowd[Sum] overcrowded[Sum] risk[Sum] 
0.0 NaN NaN NaN NaN NaN NaN NaN 
2.000101793669918 NaN NaN 4988.0 NaN 1497.0 0.0 1497.0 
4.000101793669918 NaN NaN 4988.0 NaN 1497.0 0.0 1497.0 
6.000101793669918 565.0 NaN 4988.76419505678 0.3148527370606075 1497.0 0.0 1497.0 
8.000101793669918 1118.0 NaN 4994.0387441549765 1.9954476465198847 1497.0 0.0 1497.0 
10.000101793669918 1118.0 NaN 4991.853039412158 3.9954476465198847 1497.0 0.0 1497.0 
12.000101793669918 1118.0 NaN 4994.907147628591 1.0171354090413893 1496.0 1.0 1496.0 
14.000101793669918 1118.0 NaN 4990.754843019372 3.0171354090413893 1496.0 1.0 1496.0 
16.00010179366992 1121.0 NaN 4991.751503006012 2.5840498702703294 1495.0 2.0 1495.0 
18.00010179366992 1125.0 NaN 4991.396125584502 2.038146002761042 1495.0 2.0 1495.0 
20.00010179366992 1125.0 NaN 4990.778891115565 4.038146002761041 1495.0 2.0 1495.0 
22.00010179366992 1127.0 NaN 4991.201068804276 3.015230225145698 1493.0 4.0 1493.0 
24.00010179366992 1128.0 NaN 4990.818971275885 2.174382145422912 1491.0 6.0 1491.0 
26.00010179366992 1128.0 NaN 4990.49832999332 3.990819967995704 1491.0 6.0 1491.0 
28.00010179366992 1132.0 NaN 4990.856379425518 2.6916328465982806 1492.0 5.0 1492.0 
30.00010179366992 1133.0 NaN 4990.885771543086 2.643432863776376 1490.0 7.0 1490.0 
32.00010179366992 1136.0 NaN 4990.768203072812 3.5924942983595884 1490.0 7.0 1490.0 
34.00010179366992 1138.0 NaN 4991.032732130929 2.9224354962910484 1490.0 7.0 1490.0 
36.00010179366992 1138.0 NaN 4990.615898463594 2.903911466254259 1490.0 7.0 1490.0 
38.00010179366992 1139.0 NaN 4990.578490313961 3.2087861508099853 1490.0 7.0 1490.0 
40.00010179366992 1146.0 NaN 4990.704074816299 3.3526884238474874 1490.0 7.0 1490.0 
42.00010179366992 1148.0 NaN 4990.698730794923 2.417044004802905 1490.0 7.0 1490.0 
44.00010179366992 1151.0 NaN 4990.650634602538 3.475416671588706 1490.0 7.0 1490.0 
46.00010179366992 1158.0 NaN 4990.663994655979 3.471081619756832 1490.0 7.0 1490.0 
48.00010179366992 1168.0 NaN 4990.712090848363 2.1307420612319583 1490.0 7.0 1490.0 
50.00010179366992 1170.0 NaN 4990.688042752171 3.8680028284166283 1490.0 7.0 1490.0 
52.00010179366992 1174.0 NaN 4990.762859051436 3.11845257973752 1490.0 7.0 1490.0 
54.00010179366992 1181.0 NaN 4990.71743486974 2.501722323591275 1490.0 7.0 1490.0 
56.00010179366992 1184.0 NaN 4990.714762859051 4.228514086993145 1490.0 7.0 1490.0 
58.00010179366992 1192.0 NaN 4990.778891115565 2.9385554159922656 1490.0 7.0 1490.0 
60.00010179366992 1195.0 NaN 4987.633934535738 2.9635971851263285 1489.0 7.0 1489.0 
62.00010179366992 1194.0 NaN 974.6052104208442 3.8819908589714687 487.0 6.0 181.0 
64.00010179366993 1204.0 NaN 986.9579158316637 2.9353530445740437 489.0 6.0 185.0 
66.00010179366993 1216.0 NaN 995.951903807617 2.1016647413694542 468.0 6.0 188.0 
68.00010179366993 1217.0 NaN 995.8343353373442 2.548591469662395 422.0 6.0 188.0 
70.00010179366993 1218.0 NaN 995.8931195724805 2.5365062312724915 386.0 6.0 188.0 
72.00010179366993 1213.0 NaN 995.9492317969273 1.990326138384586 366.0 6.0 188.0 
74.00010179366993 1214.0 NaN 995.869071476283 2.6404342854259633 351.0 6.0 188.0 
76.00010179366993 1214.0 NaN 995.9759519038092 2.4912413087099785 335.0 6.0 188.0 
78.00010179366993 1210.0 NaN 995.9251837007365 2.1918117478202075 330.0 6.0 188.0 
80.00010179366993 1214.0 NaN 995.8156312625276 2.8811451887086004 323.0 6.0 188.0 
82.00010179366993 1209.0 NaN 995.8877755510997 2.500421041128347 316.0 6.0 188.0 
84.00010179366993 1197.0 NaN 995.8557114228454 2.1952986097641167 310.0 6.0 188.0 
86.00010179366993 1195.0 NaN 995.8423513694078 2.701342963576523 304.0 6.0 188.0 
88.00010179366993 1190.0 NaN 995.8717434869727 2.2683427545022146 301.0 6.0 188.0 
90.00010179366993 1190.0 NaN 998.9311957247814 2.1586133090634947 298.0 6.0 189.0 
92.00010179366993 1190.0 NaN 1005.1115564462275 2.4966285077461183 294.0 6.0 191.0 
94.00010179366993 1185.0 NaN 1008.2244488977988 2.25901957685292 290.0 6.0 192.0 
96.00010179366993 1183.0 NaN 1008.1950567802273 2.043183235994765 290.0 6.0 192.0 
98.00010179366993 1184.0 NaN 1008.162992651973 2.5066429492260958 289.0 6.0 192.0 
100.00010179366993 1190.0 NaN 1011.2384769539093 2.4946548077314032 289.0 6.0 193.0 
102.00010179366993 1185.0 NaN 1014.263193052773 2.159662061227053 289.0 6.0 194.0 
104.00010179366993 1183.0 NaN 1014.2605210420832 2.7643423396026146 288.0 6.0 194.0 
106.00010179366993 1179.0 NaN 1014.3086172344714 2.58865753624326 288.0 6.0 194.0 
108.00010179366993 1181.0 NaN 1014.2471609886456 2.1893669880427047 291.0 6.0 194.0 
110.00010179366993 1181.0 NaN 1014.2391449565821 2.8542893773140303 291.0 6.0 194.0 
112.00010179366993 1184.0 NaN 1017.4134936539724 2.4616405150334297 291.0 6.0 195.0 
114.00010179366993 1180.0 NaN 1017.2825651302624 2.2586442401477815 291.0 6.0 195.0 
116.00010179366993 1176.0 NaN 1017.3012692050739 2.788807114666431 290.0 6.0 195.0 
118.00010179366993 1184.0 NaN 1023.4549098196376 2.5448768383908287 289.0 6.0 197.0 
120.00010179366993 1190.0 NaN 1017.2852371409467 2.513957223524175 289.0 6.0 195.0 
122.00010179366993 1197.0 NaN 1023.4629258517014 2.860410988322738 290.0 6.0 197.0 
124.00010179366993 1197.0 NaN 1023.5003340013366 2.482610044465076 288.0 6.0 197.0 
126.00010179366993 1196.0 NaN 1023.4228456913816 2.383892018791287 287.0 6.0 197.0 
128.00010179366993 1203.0 NaN 1026.5651302605195 2.691882979421752 287.0 6.0 198.0 
130.00010179366993 1206.0 NaN 1020.398129592518 2.5369128856507372 288.0 6.0 196.0 
132.00010179366993 1205.0 NaN 1017.3466933867725 2.3804878002736425 288.0 6.0 195.0 
134.00010179366993 1209.0 NaN 1020.4355377421531 2.857898769073929 289.0 6.0 196.0 
136.00010179366993 1203.0 NaN 1020.4515698062804 2.565985388612886 288.0 6.0 196.0 
138.00010179366993 1206.0 NaN 1020.4435537742168 2.2885843778700354 288.0 6.0 196.0 
140.00010179366993 1217.0 NaN 1020.422177688709 2.8175230611640805 283.0 6.0 196.0 
142.00010179366993 1210.0 NaN 1017.4295257181014 2.323274761391221 284.0 6.0 195.0 
144.00010179366993 1211.0 NaN 1020.464929859718 2.1943573954732307 284.0 6.0 196.0 
146.00010179366993 1215.0 NaN 1017.3440213760833 2.741464284511252 284.0 6.0 195.0 
148.00010179366993 1219.0 NaN 1020.4702738810983 2.391356253296222 287.0 6.0 196.0 
150.00010179366993 1233.0 NaN 1023.5110220440896 2.2381663059150667 288.0 6.0 197.0 
152.00010179366993 1236.0 NaN 1020.4061456245815 2.6928463465185453 288.0 6.0 196.0 
154.00010179366993 1238.0 NaN 1023.5617902471623 2.5113295622723752 288.0 6.0 197.0 
156.00010179366993 1244.0 NaN 1023.5003340013365 2.41971588439435 289.0 6.0 197.0 
158.00010179366993 1240.0 NaN 1023.492317969273 2.689930123646633 288.0 6.0 197.0 
160.00010179366993 1248.0 NaN 1023.4896459585816 2.4061104421293567 290.0 6.0 197.0 
162.00010179366993 1250.0 NaN 1023.446893787574 2.271113150157656 290.0 6.0 197.0 
164.00010179366993 1239.0 NaN 1020.4034736138924 2.6337157360613004 290.0 6.0 196.0 
166.00010179366993 1250.0 NaN 1023.4843019372092 2.5151853526466303 290.0 6.0 197.0 
168.00010179366993 1256.0 NaN 1023.446893787574 2.3844318981309 291.0 6.0 197.0 
170.00010179366993 1257.0 NaN 1017.2905811623259 2.9266381288159073 293.0 6.0 195.0 
172.00010179366993 1257.0 NaN 1017.3386773547089 2.565292310806561 293.0 6.0 195.0 
174.00010179366993 1259.0 NaN 1020.4221776887089 2.5332093388614907 292.0 6.0 196.0 
176.00010179366993 1262.0 NaN 1020.4248496994 2.940044878262225 291.0 6.0 196.0 
178.00010179366993 1264.0 NaN 1020.3954575818285 2.7303218529250675 291.0 6.0 196.0 
180.00010179366993 1259.0 NaN 1020.4034736138924 2.5853152405632263 290.0 6.0 196.0 
182.00010179366993 1256.0 NaN 1014.2818971275896 2.9896376611598643 290.0 6.0 194.0 
184.00010179366993 1258.0 NaN 1014.343353373411 2.8228514443584416 289.0 6.0 194.0 
186.00010179366993 1251.0 NaN 1008.1736806947258 2.6021620067556097 287.0 6.0 192.0 
188.00010179366993 1244.0 NaN 1011.2224448897821 2.7970062120059977 285.0 6.0 193.0 
190.00010179366993 1237.0 NaN 1008.1469605878441 2.594387266665924 282.0 6.0 192.0 
192.00010179366993 1241.0 NaN 1008.1202404809636 2.3772718273464895 283.0 6.0 192.0 
194.00010179366993 1233.0 NaN 1011.2117568470271 2.8360480925766316 285.0 6.0 193.0 
196.00010179366993 1232.0 NaN 1011.2064128256534 2.6322903621359144 284.0 6.0 193.0 
198.00010179366993 1238.0 NaN 1014.2444889779547 2.3794045997673514 285.0 6.0 194.0 
200.00010179366993 1241.0 NaN 1017.3520374081469 2.9122174422185574 286.0 6.0 195.0 
202.00010179366993 1241.0 NaN 1008.1015364061454 2.553610463308236 286.0 6.0 192.0 
204.00010179366993 1239.0 NaN 1005.0313961255835 2.4812064939900766 284.0 6.0 191.0 
206.00010179366993 1239.0 NaN 1008.0908483633924 2.9026913440319966 285.0 6.0 192.0 
208.00010179366993 1243.0 NaN 1001.9826319305271 2.649232721756972 286.0 6.0 190.0 
210.00010179366993 1248.0 NaN 1001.937207748829 2.596502738323317 286.0 6.0 190.0 
212.00010179366993 1248.0 NaN 1005.0501002003998 2.854687975323127 288.0 6.0 191.0 
214.00010179366993 1245.0 NaN 1005.0794923179711 2.67322354177872 288.0 6.0 191.0 
216.00010179366993 1240.0 NaN 1008.1923847695379 2.4112215953696747 289.0 6.0 192.0 
218.00010179366993 1238.0 NaN 1008.1843687374726 2.7491285219088244 289.0 6.0 192.0 
220.00010179366993 1237.0 NaN 1005.1275885103547 2.594197344152002 289.0 6.0 191.0 
222.00010179366993 1242.0 NaN 1008.1496325985291 2.3227904715544865 291.0 6.0 192.0 
224.00010179366993 1244.0 NaN 1008.1496325985291 2.8461261351055804 290.0 6.0 192.0 
226.00010179366993 1244.0 NaN 1008.1336005344 2.815384212895626 287.0 6.0 192.0 
228.00010179366993 1245.0 NaN 1008.1629926519728 2.6471062562175827 285.0 7.0 191.0 
230.00010179366993 1246.0 NaN 1008.130928523716 3.2600779770568407 283.0 7.0 191.0 
232.00010179366993 1258.0 NaN 1011.2171008684018 2.995858499021712 278.0 11.0 188.0 
234.00010179366993 1259.0 NaN 1014.2738810955259 2.8965984736851644 276.0 12.0 188.0 
236.00010179366993 1260.0 NaN 1017.3814295257182 3.3359277440343194 276.0 12.0 189.0 
238.00010179366993 1257.0 NaN 1011.2251169004651 2.945380113868948 280.0 12.0 187.0 
240.00010179366993 1253.0 NaN 1017.3974615898452 2.649608489965509 284.0 11.0 190.0 
242.00010179366993 1247.0 NaN 1020.4301937207726 3.050571721152521 283.0 11.0 191.0 
244.00010179366993 1253.0 NaN 1020.4676018704092 3.0452506021959764 288.0 6.0 196.0 
246.00010179366993 1254.0 NaN 1017.3734134936548 2.9713268325971436 287.0 6.0 195.0 
248.00010179366993 1244.0 NaN 1011.2224448897821 3.2487549061999905 287.0 6.0 193.0 
250.00010179366993 1237.0 NaN 1011.1823647294558 3.1757069519324017 287.0 6.0 193.0 
252.00010179366993 1228.0 NaN 1011.2010688042741 2.7991819471238033 287.0 6.0 193.0 
254.00010179366993 1237.0 NaN 1008.1362725450911 3.252316263511377 288.0 6.0 192.0 
256.00010179366996 1231.0 NaN 1008.1122244489002 3.0605842217811032 289.0 6.0 192.0 
258.00010179366996 1229.0 NaN 1004.9913159652635 2.7558205774940614 286.0 6.0 191.0 
260.00010179366996 1229.0 NaN 1001.9585838343365 3.1459499153003185 285.0 6.0 190.0 
262.00010179366996 1227.0 NaN 998.8964595858363 2.777817014115449 284.0 6.0 189.0 
264.00010179366996 1230.0 NaN 1002.0040080160352 2.668584951571736 284.0 6.0 190.0 
266.00010179366996 1227.0 NaN 1002.0040080160352 3.046578931773771 284.0 6.0 190.0 
268.00010179366996 1217.0 NaN 1005.0581162324636 2.73639637815994 284.0 6.0 191.0 
270.00010179366996 1215.0 NaN 1005.0741482965907 2.539827735769672 284.0 6.0 191.0 
272.00010179366996 1212.0 NaN 1008.098864395456 2.8616510196086438 285.0 6.0 192.0 
274.00010179366996 1215.0 NaN 1020.4488977955907 2.763126294316589 288.0 6.0 196.0 
276.00010179366996 1216.0 NaN 1020.3927855711443 2.670897449428037 288.0 6.0 196.0 
278.00010179366996 1217.0 NaN 1020.3927855711443 3.081055995415036 291.0 6.0 196.0 
280.00010179366996 1216.0 NaN 1017.3814295257182 3.001621014035482 293.0 6.0 195.0 
282.00010179366996 1219.0 NaN 1017.3360053440194 2.9423097041989967 292.0 6.0 195.0 
284.00010179366996 1217.0 NaN 1011.1315965263833 3.5369185384774546 291.0 6.0 193.0 
286.00010179366996 1209.0 NaN 1011.1690046760181 3.422099423058241 291.0 6.0 193.0 
288.00010179366996 1202.0 NaN 1011.1503006012014 3.0417070529804637 289.0 6.0 193.0 
290.00010179366996 1201.0 NaN 1011.1315965263833 3.433802472458214 286.0 6.0 193.0 
292.00010179366996 1193.0 NaN 1005.0848363393454 2.871885921432226 286.0 6.0 191.0 
294.00010179366996 1196.0 NaN 998.9258517034093 2.7302443771480243 284.0 6.0 189.0 
296.00010179366996 1196.0 NaN 1008.1469605878435 3.165612016765361 287.0 6.0 192.0 
298.00010179366996 1204.0 NaN 1014.2551770207093 2.966552425898832 287.0 6.0 194.0 
300.00010179366996 1199.0 NaN 1011.1690046760181 2.759343045121042 286.0 6.0 193.0 
302.00010179366996 1197.0 NaN 1007.9973279893111 3.027359666880652 287.0 6.0 192.0 
304.00010179366996 1196.0 NaN 1008.0347361389457 2.8474611163267345 285.0 6.0 192.0 
306.00010179366996 1188.0 NaN 1001.9372077488296 2.4301021432584813 285.0 6.0 190.0 
308.00010179366996 1175.0 NaN 992.6840347361394 2.5199637596005395 281.0 6.0 187.0 
310.00010179366996 1182.0 NaN 989.6700066800275 2.522563903123641 282.0 6.0 186.0 
312.00010179366996 1178.0 NaN 989.6299265197058 2.2938989352438806 280.0 6.0 186.0 
314.00010179366996 1187.0 NaN 995.8316633266546 2.820070187846967 278.0 6.0 188.0 
316.00010179366996 1185.0 NaN 992.7107548430181 2.7412419907458294 279.0 6.0 187.0 
318.00010179366996 1180.0 NaN 989.6432865731452 2.48251291459842 280.0 6.0 186.0 
320.00010179366996 1182.0 NaN 992.7615230460908 2.9841706294276347 283.0 6.0 187.0 
322.00010179366996 1190.0 NaN 992.7374749499 2.7129083947995483 284.0 6.0 187.0 
324.00010179366996 1198.0 NaN 995.8209752838997 2.6212474570401008 283.0 6.0 188.0 
326.00010179366996 1199.0 NaN 998.8456913827634 3.003939742224667 285.0 6.0 189.0 
328.00010179366996 1195.0 NaN 995.7728790915183 2.576019289411012 285.0 6.0 188.0 
330.00010179366996 1189.0 NaN 995.7568470273875 2.4721145385469128 286.0 6.0 188.0 
332.00010179366996 1183.0 NaN 995.7034068136272 2.7886757197600067 286.0 6.0 188.0 
334.00010179366996 1185.0 NaN 995.7995991983967 2.6735522563638794 284.0 6.0 188.0 
336.00010179366996 1179.0 NaN 995.7515030060125 2.4347668332679966 284.0 6.0 188.0 
338.00010179366996 1184.0 NaN 1001.8944555778216 2.8686286946934723 286.0 6.0 190.0 
340.00010179366996 1185.0 NaN 998.8029392117544 2.7899981651510326 286.0 6.0 189.0 
342.00010179366996 1184.0 NaN 995.7007348029401 2.502913419842685 286.0 6.0 188.0 
344.00010179366996 1187.0 NaN 995.7755511022038 2.882749185104348 288.0 6.0 188.0 
346.00010179366996 1187.0 NaN 995.7247828991311 2.7656186305857844 289.0 6.0 188.0 
348.00010179366996 1193.0 NaN 998.8296593186361 2.625315314635454 289.0 6.0 189.0 
350.00010179366996 1198.0 NaN 998.8082832331327 3.149134450797267 290.0 6.0 189.0 
352.00010179366996 1190.0 NaN 992.6706746827 2.9278436369705663 290.0 6.0 187.0 
354.00010179366996 1182.0 NaN 992.7107548430182 2.8300031346416605 292.0 6.0 187.0 
356.00010179366996 1178.0 NaN 992.6786907147638 3.2842810324231264 293.0 6.0 187.0 
358.00010179366996 1172.0 NaN 992.6786907147638 3.043305751586274 293.0 6.0 187.0 
360.00010179366996 1182.0 NaN 992.6626586506363 2.8865982268459045 291.0 6.0 187.0 
362.00010179366996 1175.0 NaN 989.6005344021364 3.1770692346702507 288.0 6.0 186.0 
364.00010179366996 1184.0 NaN 998.773547094188 3.15186766008935 288.0 6.0 189.0 
366.00010179366996 1178.0 NaN 998.7174348697392 2.9845874957907212 289.0 6.0 189.0 
368.00010179366996 1169.0 NaN 998.7628590514364 3.1951563319224903 289.0 6.0 189.0 
370.00010179366996 1164.0 NaN 998.773547094188 2.9765644043309263 289.0 6.0 189.0 
372.00010179366996 1160.0 NaN 998.7014028056091 2.697689823566943 289.0 6.0 189.0 
374.00010179366996 1163.0 NaN 1001.8276553106209 3.091237339678509 289.0 6.0 190.0 
376.00010179366996 1166.0 NaN 995.6392785571148 2.9416229297451273 291.0 6.0 188.0 
378.00010179366996 1160.0 NaN 995.6205744823001 2.6910081630561007 289.0 6.0 188.0 
380.00010179366996 1165.0 NaN 995.6766867067455 3.1747786918084855 291.0 6.0 188.0 
382.00010179366996 1163.0 NaN 980.269873079491 2.746453347073141 289.0 6.0 183.0 
384.00010179366996 1164.0 NaN 983.4415497662002 2.5229539901385354 286.0 6.0 184.0 
386.00010179366996 1156.0 NaN 980.3233132932543 2.890750265338962 284.0 6.0 183.0 
388.00010179366996 1160.0 NaN 983.3961255845038 2.7061793618024743 285.0 6.0 184.0 
390.00010179366996 1163.0 NaN 971.1957247829001 2.426221479238305 283.0 6.0 180.0 
392.00010179366996 1168.0 NaN 968.1122244489001 2.7956654823963145 282.0 6.0 179.0 
394.00010179366996 1177.0 NaN 971.2304609218454 2.652010520884224 280.0 6.0 180.0 
396.00010179366996 1177.0 NaN 971.201068804276 2.5469740109071726 278.0 6.0 180.0 
398.00010179366996 1173.0 NaN 974.3006012024058 2.822151713775654 276.0 6.0 181.0 
400.00010179366996 1171.0 NaN 965.1142284569147 2.681564892249343 276.0 6.0 178.0 
402.00010179366996 1181.0 NaN 962.0013360053454 2.507136957368902 275.0 6.0 177.0 
404.00010179366996 1185.0 NaN 962.0414161656633 3.0735206938311372 278.0 6.0 177.0 
406.00010179366996 1189.0 NaN 962.0173680694728 2.960444245586289 279.0 6.0 177.0 
408.00010179366996 1194.0 NaN 965.1302605210426 2.6483874146895654 279.0 6.0 178.0 
410.00010179366996 1189.0 NaN 959.0300601202399 3.136302018967074 278.0 6.0 176.0 
412.00010179366996 1191.0 NaN 952.8390113560454 2.8176801375712697 278.0 6.0 174.0 
414.00010179366996 1192.0 NaN 955.930527722109 2.687234138099653 277.0 6.0 175.0 
416.00010179366996 1192.0 NaN 952.8577154308638 3.1242852782552353 272.0 6.0 174.0 
418.00010179366996 1188.0 NaN 952.8737474949912 2.955940227031587 271.0 6.0 174.0 
420.00010179366996 1188.0 NaN 949.7982631930546 2.755221366632881 271.0 6.0 173.0 
422.00010179366996 1186.0 NaN 949.8490313961273 3.0561815535801133 268.0 6.0 173.0 
424.00010179366996 1186.0 NaN 943.7327989311974 2.9468591868162397 268.0 6.0 171.0 
426.00010179366996 1184.0 NaN 940.5905143620572 2.8940583851610984 266.0 6.0 170.0 
428.00010179366996 1185.0 NaN 937.5390781563121 3.302173787065823 264.0 6.0 169.0 
430.00010179366996 1177.0 NaN 934.4635938543756 3.1931062468820732 264.0 6.0 168.0 
432.00010179366996 1169.0 NaN 934.436873747494 2.734774664643625 264.0 6.0 168.0 
434.00010179366996 1178.0 NaN 937.5551102204391 3.128268841507758 265.0 6.0 169.0 
436.00010179366996 1192.0 NaN 937.5684702738821 2.9722350397966832 266.0 6.0 169.0 
438.00010179366996 1195.0 NaN 940.6225784903149 2.811605417151798 266.0 6.0 170.0 
440.00010179366996 1198.0 NaN 959.0380761523065 3.1293659814661603 268.0 6.0 176.0 
442.00010179366996 1186.0 NaN 959.0594522378092 2.6380176133232287 267.0 6.0 176.0 
444.00010179366996 1193.0 NaN 962.1429525718091 2.651380991403 269.0 6.0 177.0 
446.00010179366996 1204.0 NaN 968.2511690046747 3.1346003442189345 268.0 6.0 179.0 
448.00010179366996 1209.0 NaN 968.2538410153635 2.9839539834366566 268.0 6.0 179.0 
450.00010179366996 1211.0 NaN 968.3019372077479 2.7452774729262344 268.0 6.0 179.0 
452.00010179366996 1211.0 NaN 971.2919171676706 3.002640317433392 267.0 6.0 180.0 
454.00010179366996 1213.0 NaN 965.1543086172364 2.9102307524869784 269.0 6.0 178.0 
456.00010179366996 1217.0 NaN 965.0955243820977 2.7738697935694314 271.0 6.0 178.0 
458.00010179366996 1220.0 NaN 965.1115564462273 3.1446271143751736 272.0 6.0 178.0 
460.00010179366996 1224.0 NaN 968.2484969939889 3.0394501088821295 270.0 6.0 179.0 
462.00010179366996 1230.0 NaN 965.1676686706728 2.8568733417974013 272.0 6.0 178.0 
464.00010179366996 1225.0 NaN 962.1162324649296 3.3810076360012062 268.0 6.0 177.0 
466.00010179366996 1224.0 NaN 962.1028724114908 3.266319800245719 267.0 6.0 177.0 
468.00010179366996 1213.0 NaN 958.9819639278543 2.8717453210703683 267.0 6.0 176.0 
470.00010179366996 1205.0 NaN 958.9926519706089 3.15961302682314 269.0 6.0 176.0 
472.00010179366996 1192.0 NaN 959.0006680026729 2.857187250441412 271.0 6.0 176.0 
474.00010179366996 1180.0 NaN 962.1616566466274 2.6335217291248085 270.0 7.0 176.0 
476.00010179366996 1174.0 NaN 962.0734802939209 3.079574591560071 270.0 7.0 176.0 
478.00010179366996 1180.0 NaN 965.1997327989297 2.9722611282115206 272.0 7.0 177.0 
480.00010179366996 1179.0 NaN 962.0414161656635 2.93984055098626 267.0 12.0 171.0 
482.00010179366996 1181.0 NaN 958.9712758851024 3.3819943394267566 267.0 12.0 170.0 
484.00010179366996 1177.0 NaN 959.0300601202388 3.3017305439303737 264.0 14.0 168.0 
486.00010179366996 1171.0 NaN 958.9365397461571 3.0569335113786433 262.0 14.0 168.0 
488.00010179366996 1165.0 NaN 962.057448229791 3.19314478726311 262.0 14.0 169.0 
490.00010179366996 1165.0 NaN 962.0253841015362 3.031973404940595 261.0 14.0 169.0 
492.00010179366996 1162.0 NaN 961.9959919839658 2.771775636034306 259.0 14.0 169.0 
494.00010179366996 1167.0 NaN 965.1302605210436 3.00516247944128 261.0 14.0 170.0 
496.00010179366996 1165.0 NaN 965.1302605210436 2.9639549644528533 261.0 14.0 170.0 
498.00010179366996 1159.0 NaN 959.0006680026729 2.6584479175253337 258.0 14.0 168.0 
500.00010179366996 1160.0 NaN 952.8309953239819 3.0464992666419723 258.0 14.0 166.0 
502.00010179366996 1160.0 NaN 949.7955911823634 2.8317130070615963 257.0 14.0 165.0 
504.00010179366996 1158.0 NaN 946.6853707414815 2.4418059000550967 258.0 13.0 165.0 
506.00010179366996 1159.0 NaN 946.6479625918515 2.90233129573269 257.0 13.0 165.0 
508.00010179366996 1152.0 NaN 943.6419505677999 2.6753056162914755 257.0 13.0 164.0 
510.00010179366996 1146.0 NaN 934.4181696726778 2.395104596876022 261.0 8.0 166.0 
512.00010179367 1144.0 NaN 931.3132932531726 2.8027276850961877 260.0 8.0 165.0 
514.00010179367 1142.0 NaN 928.2217768871091 2.698741007232358 259.0 6.0 166.0 
516.00010179367 1139.0 NaN 922.1002004008 2.5709381315081927 257.0 6.0 164.0 
518.00010179367 1136.0 NaN 909.7955911823634 2.827140958792055 254.0 6.0 160.0 
520.00010179367 1128.0 NaN 909.7608550434186 2.6999582865473783 252.0 6.0 160.0 
522.00010179367 1133.0 NaN 909.7581830327318 2.4361881809859613 250.0 6.0 160.0 
524.00010179367 1127.0 NaN 912.8229792919184 2.7762677980238712 247.0 6.0 161.0 
526.00010179367 1127.0 NaN 909.7795591182362 2.673688425881763 246.0 6.0 160.0 
528.00010179367 1120.0 NaN 909.7661990647954 2.3830977631687373 246.0 6.0 160.0 
530.00010179367 1122.0 NaN 906.7307949231814 2.9692936997754913 245.0 6.0 159.0 
532.00010179367 1128.0 NaN 906.7174348697404 2.729842470094996 246.0 6.0 159.0 
534.00010179367 1140.0 NaN 919.0033400133591 2.590924063268695 249.0 6.0 163.0 
536.00010179367 1148.0 NaN 925.1676686706729 2.902498863155399 250.0 6.0 165.0 
538.00010179367 1149.0 NaN 922.0547762191047 2.7411854976104055 252.0 6.0 164.0 
540.00010179367 1148.0 NaN 922.0868403473635 2.6430897747711803 252.0 6.0 164.0 
542.00010179367 1138.0 NaN 915.9305277221097 2.6791473786052875 252.0 6.0 162.0 
544.00010179367 1138.0 NaN 919.0033400133591 2.6760454700292975 253.0 6.0 163.0 
546.00010179367 1131.0 NaN 912.9298597194402 2.4087770015188887 253.0 6.0 161.0 
548.00010179367 1131.0 NaN 909.8410153640623 2.755953096681784 251.0 6.0 160.0 
550.00010179367 1118.0 NaN 903.7194388777546 2.610925547339241 253.0 6.0 158.0 
552.00010179367 1121.0 NaN 906.7548430193727 2.465754229449015 255.0 6.0 159.0 
554.00010179367 1122.0 NaN 906.7468269873092 2.8965051364271703 254.0 6.0 159.0 
556.00010179367 1121.0 NaN 906.7601870407487 2.6679036333337414 253.0 6.0 159.0 
558.00010179367 1121.0 NaN 903.6766867067466 2.3202526980390203 253.0 6.0 158.0 
560.00010179367 1126.0 NaN 903.6553106212422 2.6856868000846457 254.0 6.0 158.0 
562.00010179367 1138.0 NaN 903.63126252505 2.399111222254579 252.0 6.0 158.0 
564.00010179367 1148.0 NaN 906.8376753507009 2.3679582964914454 251.0 6.0 159.0 
566.00010179367 1157.0 NaN 909.8917835671353 2.730180780596232 249.0 6.0 160.0 
568.00010179367 1164.0 NaN 909.8837675350692 2.6565120375583375 248.0 6.0 160.0 
570.00010179367 1163.0 NaN 912.9832999332001 2.516483526830776 250.0 6.0 161.0 
572.00010179367 1172.0 NaN 912.9164996659993 2.824941081530332 251.0 6.0 161.0 
574.00010179367 1182.0 NaN 909.8837675350692 2.7047704767647724 253.0 6.0 160.0 
576.00010179367 1180.0 NaN 912.9164996659991 2.5561115034604365 254.0 6.0 161.0 
578.00010179367 1184.0 NaN 916.0026720106872 2.9258236798136594 255.0 6.0 162.0 
580.00010179367 1197.0 NaN 915.9973279893128 3.039408871004753 256.0 6.0 162.0 
582.00010179367 1202.0 NaN 916.0026720106872 2.8158911629051344 257.0 6.0 162.0 
584.00010179367 1211.0 NaN 919.0621242484962 3.2245771167484425 257.0 6.0 163.0 
586.00010179367 1205.0 NaN 919.0487641950552 3.1649128170293266 259.0 6.0 163.0 
588.00010179367 1201.0 NaN 919.0380761523045 2.999034926661407 258.0 6.0 163.0 
590.00010179367 1200.0 NaN 931.3694054776228 3.2984702481071597 259.0 6.0 167.0 
592.00010179367 1192.0 NaN 934.3593854375409 3.107248016572353 259.0 6.0 168.0 
594.00010179367 1188.0 NaN 934.4181696726778 2.942406288636628 259.0 6.0 168.0 
596.00010179367 1184.0 NaN 940.5504342017363 3.225826023598794 261.0 6.0 170.0 
598.00010179367 1187.0 NaN 940.4863059452227 2.957836328130919 266.0 6.0 170.0 
600.00010179367 1191.0 NaN 940.5664662658639 2.9177956868632746 265.0 6.0 170.0 
602.00010179367 1178.0 NaN 940.475617902473 3.1216132238967913 266.0 6.0 170.0 
604.00010179367 1174.0 NaN 940.472945891782 3.0508113451668994 265.0 6.0 170.0 
606.00010179367 1179.0 NaN 946.6399465597862 2.882760139927775 265.0 6.0 172.0 
608.00010179367 1178.0 NaN 943.5110220440869 3.0019544089746697 267.0 6.0 171.0 
610.00010179367 1190.0 NaN 949.7608550434185 2.883384537497772 267.0 6.0 173.0 
612.00010179367 1197.0 NaN 949.694054776218 2.6349007082271845 270.0 6.0 173.0 
614.00010179367 1199.0 NaN 949.723446893787 3.0333798366735487 269.0 6.0 173.0 
616.00010179367 1200.0 NaN 949.7207748831001 3.0497174567198466 270.0 6.0 173.0 
618.00010179367 1202.0 NaN 949.7047428189725 2.7549233330693914 269.0 6.0 173.0 
620.00010179367 1195.0 NaN 952.7962591850363 3.1087644647224506 266.0 6.0 174.0 
622.00010179367 1198.0 NaN 952.7722110888457 2.9857694043053358 265.0 6.0 174.0 
624.00010179367 1205.0 NaN 959.0060120240494 2.992396473776637 267.0 6.0 176.0 
626.00010179367 1202.0 NaN 958.9311957247817 3.467928387226188 267.0 6.0 176.0 
628.00010179367 1215.0 NaN 958.9846359385452 3.333660388865022 265.0 6.0 176.0 
630.00010179367 1212.0 NaN 959.0113560454233 3.201075318882567 267.0 6.0 176.0 
632.00010179367 1217.0 NaN 962.0601202404819 3.4178692477423396 268.0 6.0 177.0 
634.00010179367 1227.0 NaN 959.0140280561133 3.271523362306012 268.0 6.0 176.0 
636.00010179367 1241.0 NaN 959.0033400133591 3.2527949635448787 266.0 6.0 176.0 
638.00010179367 1253.0 NaN 962.0494321977275 3.517560181877724 267.0 6.0 177.0 
640.00010179367 1260.0 NaN 971.380093520373 3.245348871572644 268.0 6.0 180.0 
642.00010179367 1273.0 NaN 980.5584502337999 3.1003551237525144 271.0 6.0 183.0 
644.00010179367 1265.0 NaN 974.4048096192366 3.266374864968369 270.0 6.0 181.0 
646.00010179367 1264.0 NaN 983.6366065464274 3.207606025725305 273.0 6.0 184.0 
648.00010179367 1266.0 NaN 983.6045424181691 3.076265285670083 273.0 6.0 184.0 
650.00010179367 1267.0 NaN 980.5851703406819 3.557052153040122 272.0 6.0 183.0 
652.00010179367 1273.0 NaN 977.5390781563127 3.3702756844687807 275.0 6.0 182.0 
654.00010179367 1276.0 NaN 983.6847027388093 3.20475778416892 277.0 6.0 184.0 
656.00010179367 1279.0 NaN 986.6826987307944 3.7507899107952025 279.0 6.0 185.0 
658.00010179367 1273.0 NaN 992.8790915163664 3.3829141401502953 280.0 6.0 187.0 
660.00010179367 1266.0 NaN 992.8309953239819 3.3935439504308027 280.0 6.0 187.0 
662.00010179367 1274.0 NaN 995.9305277221092 3.568501119068212 281.0 6.0 188.0 
664.00010179367 1269.0 NaN 999.0033400133607 3.3620880790670395 280.0 6.0 189.0 
#####################################################################
# End of data export. Simulation finished at: 2019-03-07T05:04+0000 #
#####################################################################
