#####################################################################
# Alchemist log file - simulation started at: 2019-03-05T15:25+0000 #
#####################################################################
# seed = 3.0, bandwidth = 17782.79410038923, propagationDelay = 1.0, baserange = 31.622776601683796
#
# The columns have the following meaning: 
# time neighbor_count[Sum] <value>@neighbor_count[Sum] packet_size[Mean] mean_delay[Mean] crowd[Sum] overcrowded[Sum] risk[Sum] 
0.0 NaN NaN NaN NaN NaN NaN NaN 
2.0005923698108097 689.0 NaN 4988.7160988643955 0.203215748943934 1497.0 0.0 1497.0 
4.00059236981081 2784.0 NaN 4998.583834335337 1.224323873546161 1497.0 0.0 1497.0 
6.000084666035003 2788.0 NaN 4997.456245824983 1.227733496509782 1486.0 11.0 1486.0 
8.00059236981081 2796.0 NaN 4995.4228456913825 1.2271038524851476 1470.0 27.0 1470.0 
10.00033353340315 2798.0 NaN 4995.024716098865 1.228403851696443 1467.0 30.0 1467.0 
12.000291861175878 2800.0 NaN 4993.327989311957 1.2311204481097058 1439.0 58.0 1439.0 
14.000291861175878 2800.0 NaN 4993.661990647963 1.2335517319942177 1435.0 62.0 1435.0 
16.000084666035004 2800.0 NaN 4993.301269205077 1.2366326411963056 1422.0 75.0 1422.0 
18.000291861175878 2806.0 NaN 4992.6786907147625 1.2458107359262458 1417.0 80.0 1417.0 
20.000291861175878 2807.0 NaN 4992.932531730127 1.2561725232388865 1421.0 76.0 1421.0 
22.000291861175878 2816.0 NaN 4992.154976619907 1.268723256475704 1416.0 81.0 1416.0 
24.000291861175878 2817.0 NaN 4992.99665998664 1.2800049435410736 1412.0 85.0 1412.0 
26.000084666035004 2822.0 NaN 4992.553106212425 1.2827974271663038 1417.0 80.0 1417.0 
28.000291861175878 2827.0 NaN 4992.416833667335 1.293947600444491 1413.0 84.0 1413.0 
30.000291861175878 2825.0 NaN 4992.892451569806 1.2930310261124756 1409.0 88.0 1409.0 
32.000291861175874 2830.0 NaN 4991.850367401469 1.3039966229159923 1417.0 80.0 1417.0 
34.000291861175874 2832.0 NaN 4992.76419505678 1.312290330827986 1416.0 81.0 1416.0 
36.00008466603501 2842.0 NaN 4992.617234468938 1.3294178108293162 1412.0 85.0 1412.0 
38.000291861175874 2853.0 NaN 4992.040080160321 1.3516237607375514 1417.0 80.0 1417.0 
40.000291861175874 2853.0 NaN 4992.6546426185705 1.3154673884447778 1415.0 82.0 1415.0 
42.000291861175874 2860.0 NaN 4991.834335337341 1.3229889998818805 1410.0 87.0 1410.0 
44.000291861175874 2860.0 NaN 4992.6332665330665 1.3376701926226444 1415.0 82.0 1415.0 
46.00008466603501 2888.0 NaN 4992.467601870408 1.3630875320703026 1414.0 83.0 1414.0 
48.000291861175874 2892.0 NaN 4992.213760855044 1.3930215892355045 1403.0 94.0 1403.0 
50.000291861175874 2903.0 NaN 4992.456913827656 1.4287250294952343 1411.0 86.0 1411.0 
52.000291861175874 2910.0 NaN 4991.949231796927 1.451323567653638 1412.0 85.0 1412.0 
54.000291861175874 2908.0 NaN 4992.5718102872415 1.4643996755510962 1406.0 91.0 1406.0 
56.00008466603501 2925.0 NaN 4992.440881763527 1.4491344269822017 1417.0 80.0 1417.0 
58.000291861175874 2947.0 NaN 4992.213760855044 1.4979096855122405 1420.0 77.0 1420.0 
60.000291861175874 2942.0 NaN 4992.6412825651305 1.4966144788997329 1414.0 83.0 1414.0 
62.00059236981081 2942.0 NaN 1524.7454909819635 1.417839222357233 595.0 80.0 286.0 
64.00059236981082 2939.0 NaN 1524.6172344689367 1.4706164616115187 542.0 80.0 286.0 
66.00008466603501 2949.0 NaN 1524.4782899131606 1.5174124868217749 478.0 85.0 281.0 
68.00059236981082 2952.0 NaN 1524.4916499666 1.5230951672501953 454.0 78.0 288.0 
70.00033353340315 2961.0 NaN 1527.5163660654637 1.55514129860898 439.0 74.0 293.0 
72.00059236981082 2958.0 NaN 1527.4308617234458 1.4738548054445364 424.0 76.0 291.0 
74.00059236981082 2959.0 NaN 1527.4575818303274 1.4365014405986207 420.0 74.0 293.0 
76.00008466603501 2966.0 NaN 1527.417501670007 1.458104307720259 418.0 75.0 292.0 
78.00059236981082 2977.0 NaN 1533.603206412827 1.4350610538414685 412.0 78.0 291.0 
80.00033353340315 2964.0 NaN 1536.694722778891 1.4125851133630882 413.0 75.0 295.0 
82.00059236981082 2959.0 NaN 1536.662658650636 1.4436609567213952 417.0 72.0 298.0 
84.00059236981082 2956.0 NaN 1536.662658650636 1.4980272217633765 412.0 74.0 296.0 
86.00008466603501 2958.0 NaN 1536.6359385437547 1.5511057209326102 411.0 74.0 296.0 
88.00059236981082 2964.0 NaN 1536.649298597194 1.582391930982024 414.0 70.0 300.0 
90.00033353340315 2954.0 NaN 1536.58784235137 1.5205127633661149 408.0 73.0 297.0 
92.00059236981082 2960.0 NaN 1536.6519706078818 1.5346325585197103 410.0 69.0 301.0 
94.0005608824301 2955.0 NaN 1536.6038744154998 1.5703902190593422 408.0 70.0 300.0 
96.00008466603501 2954.0 NaN 1539.6472945891787 1.6042937119059466 408.0 69.0 302.0 
98.0005608824301 2958.0 NaN 1539.6633266533067 1.5631031532526056 410.0 67.0 304.0 
100.00033353340315 2941.0 NaN 1539.6766867067456 1.5797556908692911 410.0 66.0 305.0 
102.00059236981082 2925.0 NaN 1539.6873747495001 1.5255075401706537 406.0 70.0 301.0 
104.00059236981082 2918.0 NaN 1539.7327989311968 1.5214306556084896 406.0 70.0 301.0 
106.00008466603501 2905.0 NaN 1539.690046760188 1.5200983403613868 405.0 71.0 300.0 
108.00059236981082 2913.0 NaN 1539.6980627922514 1.5726733852633723 404.0 72.0 299.0 
110.00033353340315 2906.0 NaN 1539.695390781564 1.5280866736190821 407.0 69.0 302.0 
112.00059236981082 2911.0 NaN 1539.6873747495001 1.5066064022300092 405.0 71.0 300.0 
114.00059236981082 2916.0 NaN 1539.695390781564 1.5556069579062515 408.0 68.0 303.0 
116.00008466603501 2920.0 NaN 1545.857047428191 1.5370252177209127 407.0 68.0 305.0 
118.00059236981082 2945.0 NaN 1548.9806279225118 1.5552998534113305 411.0 67.0 307.0 
120.00033353340315 2939.0 NaN 1552.018704074818 1.5658517259015183 410.0 69.0 306.0 
122.00059236981082 2945.0 NaN 1551.981295925182 1.5473586478285792 413.0 66.0 309.0 
124.00059236981082 2939.0 NaN 1552.018704074818 1.573291787675596 415.0 64.0 311.0 
126.00008466603501 2948.0 NaN 1551.9545758183028 1.621860268001036 418.0 61.0 314.0 
128.00059236981082 2962.0 NaN 1548.9405477621908 1.652017527122272 419.0 60.0 314.0 
130.00033353340314 2970.0 NaN 1548.9245156980637 1.700082588003281 417.0 63.0 311.0 
132.00059236981082 2965.0 NaN 1548.8657314629272 1.7457181031631868 419.0 61.0 313.0 
134.00059236981082 2956.0 NaN 1548.8176352705427 1.8152519283468591 420.0 60.0 314.0 
136.000084666035 2962.0 NaN 1551.9118236472939 1.9067221538851213 420.0 61.0 314.0 
138.00059236981082 2969.0 NaN 1552.0080160320636 1.8925633242274127 420.0 62.0 313.0 
140.00033353340314 2961.0 NaN 1551.9251837007362 1.8468868511788168 417.0 63.0 312.0 
142.00059236981082 2965.0 NaN 1558.0841683366727 1.8011235370546406 416.0 63.0 314.0 
144.00059236981082 2949.0 NaN 1558.073480293921 1.80330571376755 416.0 63.0 314.0 
146.000084666035 2959.0 NaN 1561.1516366065453 1.8032881228139896 412.0 67.0 311.0 
148.00059236981082 2988.0 NaN 1558.1536406145638 1.860610958717594 415.0 66.0 311.0 
150.00033353340314 2985.0 NaN 1552.053440213761 1.7647332373503661 413.0 67.0 308.0 
152.00059236981082 2991.0 NaN 1552.0374081496334 1.7365756819447 408.0 71.0 304.0 
154.00059236981082 2958.0 NaN 1548.9325317301273 1.6314181529241076 409.0 71.0 303.0 
156.000084666035 2971.0 NaN 1545.8356713426847 1.5779749660067401 406.0 73.0 300.0 
158.00059236981082 2978.0 NaN 1542.7361389445546 1.5939585597953778 406.0 73.0 299.0 
160.00033353340314 2977.0 NaN 1542.789579158318 1.623388768514843 407.0 71.0 301.0 
162.00059236981082 2977.0 NaN 1542.7655310621244 1.6615336316750942 401.0 73.0 299.0 
164.00059236981082 2965.0 NaN 1542.752171008682 1.577300963257408 396.0 78.0 294.0 
166.000084666035 2976.0 NaN 1545.8677354709425 1.6155404397627307 393.0 81.0 292.0 
168.00059236981082 2994.0 NaN 1548.993987975952 1.653384686024565 388.0 86.0 288.0 
170.00033353340314 3000.0 NaN 1548.9405477621908 1.6683394541843009 385.0 88.0 286.0 
172.00059236981082 2998.0 NaN 1548.9405477621908 1.7173630838399565 389.0 83.0 291.0 
174.00059236981082 2989.0 NaN 1548.9352037408157 1.7479193954048002 390.0 82.0 292.0 
176.000084666035 2993.0 NaN 1542.7494989979973 1.7532675554723536 388.0 81.0 291.0 
178.00059236981082 2994.0 NaN 1542.7735470941886 1.749654159133842 392.0 77.0 295.0 
180.00033353340314 2991.0 NaN 1548.9432197728795 1.7119488144058095 389.0 80.0 294.0 
182.00059236981082 2993.0 NaN 1548.9752839011364 1.6870056206880295 386.0 82.0 292.0 
184.00059236981082 2968.0 NaN 1548.959251837009 1.6837884432127759 385.0 84.0 290.0 
186.000084666035 2979.0 NaN 1545.8810955243816 1.749522795752728 385.0 84.0 289.0 
188.00059236981082 2994.0 NaN 1545.9024716098884 1.7446514656751988 384.0 84.0 289.0 
190.00033353340314 2992.0 NaN 1545.9559118236455 1.7490053555190692 385.0 84.0 289.0 
192.00059236981082 2969.0 NaN 1545.9158316633275 1.6657541956077944 386.0 83.0 290.0 
194.00059236981082 2944.0 NaN 1545.8757515030068 1.6354010308187557 390.0 79.0 294.0 
196.000084666035 2948.0 NaN 1542.8403473613907 1.7160420886442271 392.0 78.0 294.0 
198.00059236981082 2955.0 NaN 1542.8483633934547 1.7153448278832395 389.0 81.0 291.0 
200.00033353340314 2966.0 NaN 1545.9211756847026 1.7224362516824723 389.0 82.0 291.0 
202.00059236981082 2965.0 NaN 1545.9746158984635 1.7482966526357064 388.0 84.0 289.0 
204.00059236981082 2943.0 NaN 1552.0614562458272 1.7168784214290302 383.0 89.0 286.0 
206.000084666035 2954.0 NaN 1548.9779559118247 1.7720560710155846 382.0 90.0 284.0 
208.00059236981082 2960.0 NaN 1549.0340681362727 1.7832558906568579 382.0 90.0 284.0 
210.00033353340314 2954.0 NaN 1548.964595858382 1.7788067182386407 389.0 84.0 290.0 
212.00059236981082 2940.0 NaN 1548.9191716766884 1.7394157519979077 390.0 83.0 291.0 
214.00059236981082 2928.0 NaN 1545.8757515030065 1.7389558693631113 378.0 91.0 282.0 
216.000084666035 2929.0 NaN 1545.905143620573 1.7570620621188477 378.0 90.0 283.0 
218.00059236981082 2937.0 NaN 1545.8810955243816 1.756089634940887 379.0 90.0 283.0 
220.00033353340314 2942.0 NaN 1549.0100200400818 1.7612253500787332 383.0 87.0 287.0 
222.00059236981082 2932.0 NaN 1548.916499666 1.7090466004611806 382.0 86.0 288.0 
224.00059236981082 2940.0 NaN 1548.9191716766884 1.7876324717608338 382.0 86.0 288.0 
226.000084666035 2939.0 NaN 1548.9191716766884 1.8550507191704462 382.0 87.0 287.0 
228.00059236981082 2942.0 NaN 1555.0701402805614 1.8991644574631372 382.0 86.0 290.0 
230.00033353340314 2926.0 NaN 1555.2064128256525 1.8535615238436938 385.0 82.0 294.0 
232.00059236981082 2921.0 NaN 1555.0728122912478 1.855154237152075 381.0 85.0 291.0 
234.00059236981082 2907.0 NaN 1551.95991983968 1.7859605777679022 385.0 82.0 293.0 
236.000084666035 2901.0 NaN 1551.911823647293 1.798026317594766 387.0 81.0 294.0 
238.00059236981082 2899.0 NaN 1548.8710754843 1.7667009289557392 386.0 82.0 292.0 
240.00033353340314 2889.0 NaN 1542.7548430193729 1.760383045965835 388.0 81.0 291.0 
242.00059236981082 2888.0 NaN 1542.672010688043 1.7635514600675115 388.0 81.0 291.0 
244.00059236981082 2883.0 NaN 1542.7494989979973 1.8188323360227805 389.0 80.0 292.0 
246.000084666035 2876.0 NaN 1542.7040748163001 1.8340189995315543 388.0 80.0 292.0 
248.00059236981082 2868.0 NaN 1536.6012024048089 1.8514075256262474 388.0 79.0 291.0 
250.00033353340314 2860.0 NaN 1536.673346693388 1.8199844386158148 386.0 80.0 290.0 
252.00059236981082 2849.0 NaN 1536.6386105544427 1.8290252160113663 388.0 76.0 294.0 
254.00059236981082 2854.0 NaN 1533.4642618570458 1.8745490562946545 385.0 79.0 290.0 
256.00008466603504 2852.0 NaN 1536.6145624582489 1.8845048610223452 386.0 78.0 292.0 
258.0005923698108 2857.0 NaN 1536.582498329993 1.8291687001924832 388.0 77.0 293.0 
260.00033353340314 2850.0 NaN 1536.681362725452 1.7605812418371969 391.0 76.0 294.0 
262.0005923698108 2837.0 NaN 1536.627922511691 1.7523219817790898 390.0 77.0 293.0 
264.0005923698108 2840.0 NaN 1536.6172344689364 1.7216329520095026 397.0 70.0 300.0 
266.00008466603504 2849.0 NaN 1530.4448897795608 1.7474769210782828 396.0 71.0 297.0 
268.0005923698108 2858.0 NaN 1539.7541750167002 1.7724082923780111 399.0 67.0 304.0 
270.00033353340314 2873.0 NaN 1536.6599866399454 1.7642869788395203 393.0 70.0 300.0 
272.0005923698108 2868.0 NaN 1536.6546426185726 1.7522373486741654 393.0 70.0 300.0 
274.0005923698108 2868.0 NaN 1539.7140948563797 1.7716721424973942 393.0 70.0 301.0 
276.00008466603504 2852.0 NaN 1542.7468269873093 1.776518411661326 395.0 69.0 303.0 
278.0005923698108 2855.0 NaN 1548.8523714094845 1.8343238919676597 399.0 69.0 305.0 
280.00033353340314 2861.0 NaN 1555.0140280561116 1.8478670045145673 405.0 65.0 311.0 
282.0005923698108 2871.0 NaN 1554.9819639278544 1.9099334450829426 404.0 67.0 309.0 
284.0005923698108 2863.0 NaN 1554.9205076820301 1.893471741314769 401.0 69.0 307.0 
286.00008466603504 2843.0 NaN 1554.9231796927181 1.9282686070027224 396.0 70.0 306.0 
288.0005923698108 2831.0 NaN 1554.9659318637273 1.9592401102017998 397.0 69.0 307.0 
290.00033353340314 2838.0 NaN 1561.1008684034725 2.00662508812169 398.0 68.0 310.0 
292.0005923698108 2839.0 NaN 1561.0607882431545 2.0680787144382555 398.0 68.0 310.0 
294.0005923698108 2828.0 NaN 1558.0227120908476 2.081629918070572 398.0 68.0 309.0 
296.00008466603504 2804.0 NaN 1554.8964595858365 2.093525376087178 398.0 68.0 308.0 
298.0005923698108 2796.0 NaN 1554.9418837675362 2.080262219928885 398.0 66.0 310.0 
300.00033353340314 2797.0 NaN 1555.0167000667998 2.0523648710322004 398.0 66.0 310.0 
302.0005923698108 2785.0 NaN 1554.92050768203 1.9407290477795232 398.0 66.0 310.0 
304.0005923698108 2775.0 NaN 1554.925851703409 1.9630510593392696 400.0 65.0 311.0 
306.00008466603504 2765.0 NaN 1545.7394789579164 1.9135350211454594 400.0 65.0 308.0 
308.0005923698108 2751.0 NaN 1545.763527054109 1.7998844029717953 401.0 64.0 309.0 
310.00033353340314 2753.0 NaN 1545.7528390113546 1.7165995569183652 399.0 64.0 309.0 
312.0005923698108 2744.0 NaN 1545.7528390113546 1.6956440095014182 405.0 59.0 314.0 
314.0005923698108 2730.0 NaN 1548.7828991315973 1.610653410516121 404.0 59.0 315.0 
316.00008466603504 2728.0 NaN 1548.7454909819635 1.6555587745660199 401.0 59.0 315.0 
318.0005923698108 2726.0 NaN 1548.836339345357 1.6923577450979344 402.0 59.0 315.0 
320.00033353340314 2735.0 NaN 1548.849699398798 1.7111780489965533 406.0 59.0 315.0 
322.0005923698108 2733.0 NaN 1548.8657314629272 1.7400184300002608 406.0 58.0 316.0 
324.0005923698108 2725.0 NaN 1548.916499666 1.6825312179364114 406.0 57.0 317.0 
326.00008466603504 2729.0 NaN 1548.9325317301273 1.7462780472031247 403.0 59.0 315.0 
328.0005923698108 2725.0 NaN 1548.9298597194388 1.6707859226943205 399.0 64.0 310.0 
330.00033353340314 2721.0 NaN 1548.8657314629272 1.6734279056993733 402.0 62.0 312.0 
332.0005923698108 2729.0 NaN 1545.7154308617248 1.6700679431071779 407.0 57.0 316.0 
334.0005923698108 2731.0 NaN 1542.7120908483637 1.6875929016734466 407.0 57.0 315.0 
336.00008466603504 2725.0 NaN 1539.7221108884453 1.7039928889872724 406.0 57.0 314.0 
338.0005923698108 2744.0 NaN 1539.6740146960572 1.7608072555767489 406.0 57.0 314.0 
340.00033353340314 2761.0 NaN 1536.6653306613216 1.7286708502344033 406.0 57.0 313.0 
342.0005923698108 2751.0 NaN 1533.5818303273209 1.6746735728989888 405.0 57.0 312.0 
344.0005923698108 2737.0 NaN 1536.5851703406818 1.6684550552085984 406.0 57.0 313.0 
346.00008466603504 2738.0 NaN 1539.7221108884455 1.6765795257530647 406.0 57.0 314.0 
348.0005923698108 2744.0 NaN 1533.5310621242481 1.7240981542259297 403.0 57.0 312.0 
350.00033353340314 2747.0 NaN 1533.5070140280548 1.7341007538011488 403.0 58.0 311.0 
352.0005923698108 2748.0 NaN 1530.4235136940545 1.6738988088369657 402.0 59.0 309.0 
354.0005923698108 2752.0 NaN 1533.5043420173665 1.6393352065617637 403.0 59.0 310.0 
356.00008466603504 2766.0 NaN 1533.4749498998 1.6831585601240522 403.0 60.0 309.0 
358.0005923698108 2762.0 NaN 1530.4448897795608 1.71941842296338 399.0 63.0 305.0 
360.00033353340314 2759.0 NaN 1530.4555778223096 1.685723649299081 399.0 63.0 305.0 
362.0005923698108 2774.0 NaN 1530.4101536406151 1.7334046998404922 395.0 66.0 302.0 
364.0005923698108 2777.0 NaN 1527.3774215096848 1.7743547982193015 397.0 64.0 303.0 
366.00008466603504 2787.0 NaN 1521.2585170340697 1.8101967223249422 394.0 66.0 299.0 
368.0005923698108 2781.0 NaN 1524.2885771543092 1.8032505422509306 394.0 66.0 300.0 
370.00033353340314 2775.0 NaN 1530.396793587173 1.883670924252515 396.0 65.0 303.0 
372.0005923698108 2781.0 NaN 1533.4829659318634 1.9321123180503716 396.0 65.0 304.0 
374.0005923698108 2780.0 NaN 1533.3653974615909 1.9922269162498936 397.0 66.0 303.0 
376.00008466603504 2773.0 NaN 1533.4188376753516 1.9930238816419985 397.0 66.0 303.0 
378.0005923698108 2775.0 NaN 1533.413493653973 2.0271167243044 396.0 66.0 303.0 
380.00033353340314 2775.0 NaN 1533.4509018036088 2.055730560943652 397.0 65.0 304.0 
382.0005923698108 2778.0 NaN 1533.4989979959907 1.9992149638150254 396.0 67.0 302.0 
384.0005923698108 2779.0 NaN 1533.4215096860385 1.905073007408021 395.0 68.0 301.0 
386.00008466603504 2794.0 NaN 1542.7307949231815 1.8774549987172073 400.0 67.0 305.0 
388.0005923698108 2796.0 NaN 1530.3674014696066 1.8937984105979533 401.0 68.0 300.0 
390.00033353340314 2808.0 NaN 1515.0487641950551 1.9627852763589186 400.0 68.0 295.0 
392.0005923698108 2800.0 NaN 1518.1349365397455 1.8329103111625293 402.0 65.0 299.0 
394.0005923698108 2807.0 NaN 1521.1863727454909 1.8765878009954167 406.0 64.0 301.0 
396.00008466603504 2800.0 NaN 1518.0601202404819 1.852287011869995 405.0 64.0 300.0 
398.0005923698108 2802.0 NaN 1515.0140280561116 1.9339711570299505 407.0 63.0 300.0 
400.00033353340314 2815.0 NaN 1518.0734802939205 1.9641833316044535 408.0 63.0 301.0 
402.0005608824301 2835.0 NaN 1521.1356045424182 1.9524803905894508 408.0 63.0 302.0 
404.0005608824301 2835.0 NaN 1521.1062124248485 2.0150628257127385 408.0 63.0 302.0 
406.00008466603504 2820.0 NaN 1524.2030728122909 2.037156050377582 408.0 65.0 301.0 
408.0005608824301 2824.0 NaN 1530.3620574482297 2.121081203180369 409.0 65.0 303.0 
410.00033353340314 2842.0 NaN 1530.3540414161641 2.173197727414487 414.0 61.0 307.0 
412.0005608824301 2842.0 NaN 1536.5050100200394 2.0675248705842177 418.0 59.0 311.0 
414.0005923698108 2830.0 NaN 1536.5183700734813 2.047977340756056 415.0 60.0 310.0 
416.00008466603504 2830.0 NaN 1536.4863059452243 2.0766375892686346 422.0 55.0 315.0 
418.0005923698108 2820.0 NaN 1536.5985303941213 2.0376567919232866 420.0 57.0 313.0 
420.00033353340314 2835.0 NaN 1536.5450901803613 2.0534854631459667 420.0 57.0 313.0 
422.0005923698108 2842.0 NaN 1533.4856379425523 2.0629391874786815 420.0 56.0 313.0 
424.0005923698108 2821.0 NaN 1533.4455577822303 2.074018182561526 425.0 52.0 317.0 
426.00008466603504 2830.0 NaN 1539.6579826319298 2.0996267705269056 420.0 57.0 314.0 
428.0005923698108 2827.0 NaN 1542.6853707414818 2.0223779022776998 424.0 55.0 317.0 
430.00033353340314 2829.0 NaN 1542.728122912491 1.9259578955315326 421.0 60.0 312.0 
432.0005923698108 2843.0 NaN 1539.5778223112902 1.9995660918755374 423.0 58.0 313.0 
434.0005923698108 2833.0 NaN 1536.4836339345363 1.9724961230207716 419.0 62.0 308.0 
436.00008466603504 2824.0 NaN 1548.8710754843005 2.00010037741702 420.0 63.0 311.0 
438.0005923698108 2812.0 NaN 1551.890447561791 1.9494017796022407 418.0 66.0 309.0 
440.00033353340314 2812.0 NaN 1552.0213760855036 1.977143910245002 419.0 63.0 312.0 
442.0005923698108 2836.0 NaN 1545.8704074816296 2.0797624864846362 415.0 65.0 308.0 
444.0005923698108 2818.0 NaN 1545.7982631930538 2.0924736123901755 416.0 63.0 310.0 
446.00008466603504 2816.0 NaN 1548.8897795591183 2.097966112061107 423.0 61.0 313.0 
448.0005923698108 2815.0 NaN 1558.126920507682 2.088523158714837 426.0 59.0 318.0 
450.00033353340314 2805.0 NaN 1555.0220440881756 2.009027615892801 425.0 61.0 315.0 
452.0005923698108 2789.0 NaN 1564.192384769539 2.007088718870328 432.0 58.0 321.0 
454.0005923698108 2780.0 NaN 1561.1756847027386 1.9488870254990582 430.0 60.0 318.0 
456.00008466603504 2777.0 NaN 1567.2625250501 1.991281906618047 429.0 61.0 319.0 
458.0005923698108 2788.0 NaN 1567.2251169004667 2.0067858272282058 429.0 61.0 319.0 
460.00033353340314 2794.0 NaN 1567.315965263861 1.9245127780780333 431.0 58.0 322.0 
462.0005923698108 2802.0 NaN 1564.2030728122909 2.00056555089369 427.0 61.0 318.0 
464.0005923698108 2785.0 NaN 1564.1923847695389 2.053599378260655 430.0 58.0 321.0 
466.00008466603504 2774.0 NaN 1564.1977287909156 2.0201429491935063 429.0 60.0 319.0 
468.0005923698108 2772.0 NaN 1564.2191048764182 2.0162274609105393 431.0 57.0 322.0 
470.00033353340314 2785.0 NaN 1567.169004676018 1.993689841053991 427.0 61.0 319.0 
472.0005923698108 2768.0 NaN 1561.0073480293909 1.9223488776436495 427.0 59.0 319.0 
474.0005923698108 2737.0 NaN 1557.9265197060793 1.9027761985388223 426.0 60.0 317.0 
476.00008466603504 2731.0 NaN 1554.7788911155635 1.9479543670087205 426.0 59.0 317.0 
478.0005923698108 2737.0 NaN 1554.8483633934547 2.0740239082962932 423.0 61.0 315.0 
480.00033353340314 2749.0 NaN 1551.7835671342698 2.0871878035407287 428.0 57.0 318.0 
482.0005923698108 2760.0 NaN 1557.9532398129609 2.057601637238422 424.0 61.0 316.0 
484.0005923698108 2736.0 NaN 1545.6993987975939 2.0286379612488443 426.0 58.0 315.0 
486.00008466603504 2727.0 NaN 1548.7321309285244 1.9562080550862044 421.0 62.0 312.0 
488.0005923698108 2726.0 NaN 1545.736806947227 1.9465208145610868 422.0 60.0 313.0 
490.00033353340314 2731.0 NaN 1539.5804943219791 1.9595761043565223 419.0 63.0 308.0 
492.0005923698108 2718.0 NaN 1533.4535738142938 1.8575463256000273 418.0 61.0 308.0 
494.0005923698108 2712.0 NaN 1533.4562458249825 1.8529899800727887 409.0 66.0 303.0 
496.00008466603504 2702.0 NaN 1527.2197728790907 1.8665474717286819 415.0 60.0 307.0 
498.0005923698108 2699.0 NaN 1527.2812291249174 1.8865136094986685 414.0 61.0 306.0 
500.00033353340314 2690.0 NaN 1527.235804943219 1.8677163147667617 417.0 58.0 309.0 
502.0005923698108 2687.0 NaN 1527.2331329325302 1.8120183462646706 413.0 63.0 304.0 
504.0005923698108 2676.0 NaN 1524.2538410153636 1.7304920450282018 421.0 55.0 311.0 
506.00008466603504 2681.0 NaN 1530.3353373413483 1.7295360373017654 414.0 62.0 306.0 
508.0005923698108 2698.0 NaN 1527.3266533066121 1.7243264584791045 417.0 59.0 308.0 
510.00033353340314 2705.0 NaN 1521.1783567134273 1.734516534439417 409.0 65.0 300.0 
512.0002918611759 2701.0 NaN 1521.071476285906 1.7190951896478166 409.0 63.0 302.0 
514.0002918611759 2702.0 NaN 1527.2197728790907 1.6946551444242226 408.0 64.0 303.0 
516.000084666035 2689.0 NaN 1527.198396793588 1.620069813440987 410.0 60.0 307.0 
518.0002918611759 2695.0 NaN 1515.0380761523063 1.6340172464546596 406.0 63.0 300.0 
520.0002918611759 2710.0 NaN 1511.9759519038084 1.696036445389906 410.0 58.0 304.0 
522.0002918611759 2701.0 NaN 1505.8837675350708 1.6663547681227644 405.0 61.0 299.0 
524.0002918611759 2691.0 NaN 1499.644622578491 1.6704608608023916 404.0 58.0 300.0 
526.000084666035 2689.0 NaN 1484.2912491649972 1.6542085469080003 404.0 58.0 295.0 
528.0002918611759 2708.0 NaN 1487.369405477621 1.7496238013437384 409.0 53.0 301.0 
530.0002918611759 2723.0 NaN 1484.2965931863728 1.739835034716431 402.0 58.0 295.0 
532.0002918611759 2732.0 NaN 1487.3400133600546 1.7185679341964553 405.0 55.0 299.0 
534.0002918611759 2736.0 NaN 1490.4315297261182 1.7536765568580603 407.0 58.0 297.0 
536.000084666035 2745.0 NaN 1493.4883099532394 1.8586940752127752 410.0 55.0 301.0 
538.0002918611759 2757.0 NaN 1493.539078156312 1.971820483470119 403.0 60.0 296.0 
540.0002918611759 2755.0 NaN 1490.4288577154302 1.9209099941262051 402.0 63.0 292.0 
542.0002918611759 2753.0 NaN 1490.4101536406154 1.9445021339642599 399.0 65.0 290.0 
544.0002918611759 2751.0 NaN 1490.3780895123573 1.9836654346085212 407.0 57.0 298.0 
546.000084666035 2740.0 NaN 1493.4642618570467 1.9780608779392908 401.0 66.0 290.0 
548.0002918611759 2741.0 NaN 1493.480293921175 1.9912842039931078 406.0 63.0 293.0 
550.0002918611759 2733.0 NaN 1490.4529058116239 1.9946704798362302 401.0 66.0 289.0 
552.0002918611759 2735.0 NaN 1490.4849699398803 1.9045876077345412 403.0 64.0 291.0 
554.0002918611759 2734.0 NaN 1493.5283901135613 1.9090216654977568 405.0 66.0 290.0 
556.000084666035 2727.0 NaN 1490.4342017368078 1.9329490013229098 411.0 62.0 293.0 
558.0002918611759 2715.0 NaN 1490.5090180360728 1.9357243593588431 411.0 65.0 290.0 
560.0002918611759 2723.0 NaN 1484.264529058117 2.0217187931772944 413.0 61.0 292.0 
562.0002918611759 2740.0 NaN 1487.348029392118 2.03503167244925 411.0 65.0 289.0 
564.0002918611759 2747.0 NaN 1490.4529058116239 1.9487141927114475 414.0 62.0 293.0 
566.000084666035 2756.0 NaN 1490.4929859719446 1.94624480910203 411.0 62.0 293.0 
568.0002918611759 2754.0 NaN 1493.536406145625 1.97221440598385 413.0 59.0 297.0 
570.0002918611759 2761.0 NaN 1496.6118904475625 2.0536188693089414 411.0 62.0 295.0 
572.0002918611759 2752.0 NaN 1496.614562458249 2.1162599491579783 413.0 61.0 296.0 
574.0002918611759 2757.0 NaN 1496.638610554443 2.168629719034614 413.0 62.0 295.0 
576.000084666035 2758.0 NaN 1512.1042084168346 2.172759790322647 422.0 58.0 304.0 
578.0002918611759 2760.0 NaN 1511.9866399465607 2.2306942622212915 421.0 61.0 301.0 
580.0003335334031 2769.0 NaN 1512.0454241816979 2.2628293320957176 419.0 61.0 301.0 
582.0002918611759 2762.0 NaN 1512.0320641282556 2.133946325721581 413.0 67.0 295.0 
584.0002918611759 2765.0 NaN 1508.8977955911816 2.101278967538734 418.0 64.0 297.0 
586.000084666035 2754.0 NaN 1508.868403473615 2.0651854439143715 420.0 62.0 299.0 
588.0002918611759 2738.0 NaN 1508.8603874415485 2.029605388624688 416.0 66.0 295.0 
590.0002918611759 2747.0 NaN 1515.0167000667998 1.9986685335553938 411.0 69.0 294.0 
592.0002918611759 2743.0 NaN 1518.142952571809 1.9605951013776377 413.0 68.0 296.0 
594.0002918611759 2756.0 NaN 1527.3587174348709 2.0593355665348168 414.0 69.0 298.0 
596.000084666035 2751.0 NaN 1527.305277221109 2.036396071656851 419.0 65.0 302.0 
598.0002918611759 2738.0 NaN 1521.3039412157646 2.001130112819461 412.0 71.0 294.0 
600.0002918611759 2754.0 NaN 1524.304609218436 2.0031848682177893 414.0 69.0 297.0 
602.0002918611759 2756.0 NaN 1518.0334001335998 2.0480717425212305 409.0 72.0 292.0 
604.0002918611759 2765.0 NaN 1518.0334001335998 2.119431706320177 413.0 66.0 298.0 
606.000084666035 2768.0 NaN 1527.33199732799 2.1791532423095625 407.0 73.0 294.0 
608.0002918611759 2769.0 NaN 1530.4876419505667 2.1230399938760525 414.0 65.0 303.0 
610.0002918611759 2774.0 NaN 1533.6593186372736 2.1066997613393093 407.0 72.0 297.0 
612.0002918611759 2773.0 NaN 1530.4716098864387 2.0438590412062076 402.0 76.0 292.0 
614.0002918611759 2783.0 NaN 1533.6352705410818 2.086347208018499 398.0 81.0 288.0 
616.000084666035 2765.0 NaN 1527.350701402806 2.0847050921111694 402.0 76.0 291.0 
618.0002918611759 2763.0 NaN 1530.567802271209 1.9893174356224543 405.0 73.0 295.0 
620.0002918611759 2768.0 NaN 1533.5230460921841 1.9512265104460051 405.0 74.0 295.0 
622.0002918611759 2786.0 NaN 1539.7194388777543 1.902625313506841 401.0 79.0 292.0 
624.0002918611759 2797.0 NaN 1545.9398797595181 2.0014178037815604 411.0 68.0 305.0 
626.000084666035 2795.0 NaN 1542.7922511690058 2.0218058833087893 410.0 70.0 302.0 
628.0002918611759 2824.0 NaN 1545.9826319305273 1.934747790796896 409.0 69.0 304.0 
630.0002918611759 2876.0 NaN 1545.9879759519029 1.9607228223745967 408.0 72.0 301.0 
632.0002918611759 2897.0 NaN 1549.0100200400814 1.9394396762678288 419.0 62.0 312.0 
634.0002918611759 2904.0 NaN 1548.9378757515024 2.016239979145821 412.0 69.0 305.0 
636.000084666035 2892.0 NaN 1551.9652638610546 1.9489144814545676 413.0 70.0 305.0 
638.0002918611759 2916.0 NaN 1551.893119572479 1.9919769885325074 413.0 72.0 303.0 
640.0002918611759 2932.0 NaN 1548.7775551102186 2.0312877871605908 418.0 68.0 306.0 
642.0002918611759 2937.0 NaN 1551.8476953907818 2.1301724565038045 417.0 69.0 306.0 
644.0002918611759 2909.0 NaN 1548.801603206412 2.136069327313109 420.0 66.0 308.0 
646.000084666035 2889.0 NaN 1545.742150968603 2.0365900282630682 411.0 72.0 301.0 
648.0002918611759 2910.0 NaN 1545.7768871075477 2.173313085534031 418.0 67.0 306.0 
650.0002918611759 2913.0 NaN 1539.7034068136272 2.0766471924229895 411.0 68.0 303.0 
652.0002918611759 2909.0 NaN 1536.5824983299926 2.143543149335539 418.0 62.0 308.0 
654.0002918611759 2893.0 NaN 1533.5925183700729 2.1913334428960276 415.0 65.0 304.0 
656.000084666035 2876.0 NaN 1533.5364061456253 2.2122746645452294 417.0 62.0 307.0 
658.0002918611759 2887.0 NaN 1539.772879091517 2.3001875877852545 411.0 65.0 306.0 
660.0003335334031 2902.0 NaN 1549.0875083500343 2.232151399148774 413.0 62.0 312.0 
662.0005923698109 2870.0 NaN 1549.1302605210424 2.0777173012701287 408.0 66.0 308.0 
664.0005923698109 2856.0 NaN 1549.0981963927848 2.0753274712803407 412.0 63.0 311.0 
#####################################################################
# End of data export. Simulation finished at: 2019-03-05T15:29+0000 #
#####################################################################
