#####################################################################
# Alchemist log file - simulation started at: 2019-03-03T19:59+0000 #
#####################################################################
# seed = 1.0, bandwidth = 2.3713737056616552E7, propagationDelay = 10.0, baserange = 100.0
#
# The columns have the following meaning: 
# time neighbor_count[Sum] <value>@neighbor_count[Sum] packet_size[Mean] mean_delay[Mean] crowd[Sum] overcrowded[Sum] risk[Sum] 
0.0 NaN NaN NaN NaN NaN NaN NaN 
10.000417374280275 NaN NaN 4988.0 NaN 1497.0 0.0 1497.0 
20.000417374280275 13124.0 NaN 4996.138944555778 8.997612674874885 1497.0 0.0 1497.0 
30.000417374280275 13162.0 NaN 4993.068804275217 8.02360332419097 1490.0 7.0 1490.0 
40.000417374280275 13194.0 NaN 4995.452237808951 7.030280160429787 1489.0 8.0 1489.0 
50.000417374280275 13256.0 NaN 4993.421509686039 6.03111583377614 1480.0 17.0 1480.0 
60.000417374280275 13315.0 NaN 4994.754843019372 5.091491609996433 1482.0 15.0 1482.0 
70.00041737428027 13361.0 NaN 1525.3734134936547 4.091521658806139 651.0 18.0 348.0 
80.00041737428027 13363.0 NaN 1534.7014028056094 3.065566379387294 582.0 24.0 345.0 
90.00041737428027 13386.0 NaN 1534.6158984635936 2.115561462330289 559.0 24.0 345.0 
100.00041737428027 13324.0 NaN 1538.020040080161 1.0971952021335545 541.0 16.0 354.0 
110.00041737428027 13273.0 NaN 1537.8196392785571 5.559595252970727 542.0 9.0 361.0 
120.00041737428027 13223.0 NaN 1540.5183700734815 9.997679523118633 528.0 19.0 352.0 
130.0004173742803 13326.0 NaN 1537.6566466265874 9.054026708800828 524.0 14.0 356.0 
140.0004173742803 13397.0 NaN 1534.2792251169 8.098635065559892 519.0 16.0 353.0 
150.0004173742803 13382.0 NaN 1546.9498997996002 7.053814722509938 520.0 15.0 358.0 
160.0004173742803 13379.0 NaN 1540.4408817635274 6.129709900811998 509.0 23.0 348.0 
170.0004173742803 13283.0 NaN 1540.718770875082 5.099273900482539 516.0 16.0 355.0 
180.0004173742803 13238.0 NaN 1537.4108216432883 4.054015400161475 518.0 15.0 355.0 
190.0004173742803 13217.0 NaN 1540.7348029392115 3.1251295224536912 522.0 9.0 362.0 
200.0004173742803 13159.0 NaN 1537.5337341349364 2.1142162701952882 513.0 17.0 353.0 
210.0004173742803 13137.0 NaN 1534.8002672010698 1.1585934338091068 508.0 19.0 350.0 
220.0004173742803 13006.0 NaN 1528.6706746826999 5.588250323985803 518.0 10.0 357.0 
230.0004173742803 12839.0 NaN 1528.0668002671998 9.996663111781503 507.0 21.0 346.0 
240.0004173742803 12886.0 NaN 1531.446893787575 9.062081852597696 510.0 15.0 353.0 
250.0004173742803 12925.0 NaN 1528.0374081496334 8.16012456534655 500.0 19.0 348.0 
260.0004173742803 12859.0 NaN 1519.0835003340003 7.121090372260059 505.0 12.0 352.0 
270.0004173742803 12849.0 NaN 1528.1523046092182 6.150393236953795 503.0 19.0 348.0 
280.0004173742803 12835.0 NaN 1528.232464929861 5.201638582898753 504.0 15.0 352.0 
290.0004173742803 12732.0 NaN 1531.2037408149638 4.172407278164594 499.0 19.0 349.0 
300.0004173742803 12646.0 NaN 1534.4181696726796 3.1306352789101997 500.0 14.0 355.0 
310.0004173742803 12553.0 NaN 1540.5210420841695 2.180764783493999 492.0 21.0 350.0 
320.0004173742803 12514.0 NaN 1534.7735470941884 1.1007431427496635 497.0 15.0 354.0 
330.0004173742803 12446.0 NaN 1540.6813627254521 5.585357799202471 504.0 10.0 361.0 
340.0004173742803 12363.0 NaN 1528.0213760855033 9.99784302670701 488.0 22.0 345.0 
350.0004173742803 12424.0 NaN 1522.2284569138271 9.044283861220755 494.0 17.0 348.0 
360.0004173742803 12517.0 NaN 1515.615230460921 8.114807791476043 490.0 22.0 341.0 
370.0004173742803 12534.0 NaN 1515.9492317969275 7.165462135431481 499.0 18.0 345.0 
380.0004173742803 12505.0 NaN 1506.5063460253828 6.193252447824408 495.0 22.0 338.0 
390.0004173742803 12427.0 NaN 1509.7341349365392 5.23372063006956 501.0 17.0 344.0 
400.0004173742803 12392.0 NaN 1518.8162992651976 4.160714983257506 498.0 22.0 342.0 
410.0004173742803 12380.0 NaN 1528.267201068803 3.1449708066400226 502.0 18.0 349.0 
420.0004173742803 12396.0 NaN 1518.8911155644632 2.1238929263033564 492.0 26.0 338.0 
430.0004173742803 12432.0 NaN 1513.1062124248485 1.1626525366979705 501.0 20.0 342.0 
440.0004173742803 12346.0 NaN 1519.1850367401462 5.5707680744150485 508.0 14.0 350.0 
450.0004173742803 12251.0 NaN 1524.8897795591183 10.001239373909659 503.0 25.0 341.0 
460.0004173742803 12286.0 NaN 1531.305277221109 9.066396116918273 506.0 17.0 351.0 
470.0004173742803 12342.0 NaN 1534.1456245824997 8.20453047599113 497.0 25.0 344.0 
480.0004173742803 12325.0 NaN 1521.9505678022722 7.152755469196055 500.0 17.0 348.0 
490.0004173742803 12296.0 NaN 1506.412825651302 6.131465882120357 494.0 23.0 337.0 
500.0004173742803 12305.0 NaN 1488.1816967267878 5.160395361135954 501.0 16.0 338.0 
510.0004173742803 12298.0 NaN 1497.2291249165 4.2143508792336535 500.0 23.0 334.0 
520.0004173742802 12312.0 NaN 1488.2484969939887 3.105685673636343 501.0 16.0 338.0 
530.0004173742802 12406.0 NaN 1469.7047428189721 2.12716804969476 497.0 23.0 325.0 
540.0004173742802 12468.0 NaN 1463.9118236472937 1.1898883951465 501.0 12.0 334.0 
550.0004173742802 12375.0 NaN 1473.0367401469612 5.603040310143763 507.0 7.0 342.0 
560.0004173742802 12264.0 NaN 1463.4495657982636 10.000274108671718 499.0 19.0 327.0 
570.0004173742802 12354.0 NaN 1476.0 9.08099882304878 499.0 17.0 333.0 
580.0004173742802 12484.0 NaN 1485.026052104209 8.200081230292152 491.0 27.0 326.0 
590.0004173742802 12494.0 NaN 1491.3907815631271 7.2689718249252655 505.0 16.0 339.0 
600.0004173742802 12474.0 NaN 1500.291249164997 6.208282029622067 504.0 26.0 332.0 
610.0004173742802 12543.0 NaN 1509.68069472278 5.184911465914933 522.0 15.0 346.0 
620.0004173742802 12595.0 NaN 1515.727454909819 4.181654943208757 513.0 23.0 340.0 
630.0004173742802 12590.0 NaN 1515.9732798931188 3.229876273558223 508.0 25.0 338.0 
640.0004173742802 12608.0 NaN 1528.251169004675 2.172862825014515 501.0 35.0 332.0 
650.0004173742802 12604.0 NaN 1522.388777555109 1.165256142991945 509.0 19.0 346.0 
660.0004173742802 12455.0 NaN 1525.3627254509013 5.582961047186406 514.0 15.0 351.0 
#####################################################################
# End of data export. Simulation finished at: 2019-03-03T20:08+0000 #
#####################################################################
