#####################################################################
# Alchemist log file - simulation started at: 2019-03-08T05:13+0000 #
#####################################################################
# seed = 2.0, bandwidth = 17782.79410038923, propagationDelay = 0.001, baserange = 100.0
#
# The columns have the following meaning: 
# time neighbor_count[Sum] <value>@neighbor_count[Sum] packet_size[Mean] mean_delay[Mean] crowd[Sum] overcrowded[Sum] risk[Sum] 
0.0 NaN NaN NaN NaN NaN NaN NaN 
2.0003594375082554 12717.0 NaN 4993.851703406814 0.48507111929434543 1497.0 0.0 1497.0 
4.0005829790527505 13126.0 NaN 4996.152304609219 0.5007381181731225 1488.0 9.0 1488.0 
6.0005829790527505 13130.0 NaN 4996.855043420173 0.5012485857236423 1488.0 9.0 1488.0 
8.000582979052751 13130.0 NaN 4996.833667334669 0.5018180846261652 1482.0 15.0 1482.0 
10.000359437508255 13130.0 NaN 4995.796927187709 0.5016510197234679 1486.0 11.0 1486.0 
12.000359437508255 13130.0 NaN 4996.173680694723 0.5020795326412578 1478.0 19.0 1478.0 
14.000582979052751 13130.0 NaN 4995.310621242485 0.5024981148923053 1479.0 18.0 1479.0 
16.000359437508255 13130.0 NaN 4995.901135604542 0.5028896177977266 1485.0 12.0 1485.0 
18.00035943750826 13133.0 NaN 4995.382765531062 0.50493320878 1481.0 16.0 1481.0 
20.000213394730995 13138.0 NaN 4995.4121576486305 0.5089004164318698 1483.0 14.0 1483.0 
22.000213394730995 13158.0 NaN 4995.4255177020705 0.5134413891040857 1488.0 9.0 1488.0 
24.00035943750826 13173.0 NaN 4995.524382097528 0.5180369082025559 1482.0 15.0 1482.0 
26.00058297905275 13179.0 NaN 4995.006012024048 0.5228679664024758 1482.0 15.0 1482.0 
28.00035943750826 13181.0 NaN 4995.532398129592 0.5244685343688003 1480.0 17.0 1480.0 
30.00058297905275 13181.0 NaN 4995.305277221109 0.5296487814449656 1486.0 11.0 1486.0 
32.00058297905275 13223.0 NaN 4995.3319973279895 0.5361521775573964 1482.0 15.0 1482.0 
34.00021339473099 13235.0 NaN 4995.297261189045 0.5459295843458029 1487.0 10.0 1487.0 
36.00058297905275 13240.0 NaN 4995.4228456913825 0.5548464222134525 1482.0 15.0 1482.0 
38.00058297905275 13244.0 NaN 4995.008684034736 0.5620718720825157 1486.0 11.0 1486.0 
40.00021339473099 13246.0 NaN 4995.524382097528 0.5463527761355479 1484.0 13.0 1484.0 
42.00058297905275 13295.0 NaN 4995.006012024048 0.5387336280031829 1489.0 8.0 1489.0 
44.00058297905275 13306.0 NaN 4995.2678690714765 0.5485722819568993 1483.0 14.0 1483.0 
46.00021339473099 13324.0 NaN 4995.072812291249 0.5613615694784514 1484.0 13.0 1484.0 
48.00058297905275 13337.0 NaN 4995.484301937207 0.5703918731671433 1481.0 16.0 1481.0 
50.00058297905275 13340.0 NaN 4994.869739478958 0.58145295459115 1486.0 11.0 1486.0 
52.00021339473099 13385.0 NaN 4995.393453573814 0.5942777120394472 1481.0 16.0 1481.0 
54.00058297905275 13365.0 NaN 4995.024716098865 0.5676105170904886 1486.0 11.0 1486.0 
56.00058297905275 13379.0 NaN 4995.096860387442 0.5859174898480007 1484.0 13.0 1484.0 
58.00058297905275 13391.0 NaN 4995.102204408818 0.6071648084964318 1484.0 13.0 1484.0 
60.00058297905275 13394.0 NaN 4992.317969271877 0.6301882263958739 1482.0 14.0 1482.0 
62.00058297905275 13450.0 NaN 1520.093520374082 0.6442596386978298 777.0 7.0 357.0 
64.00058297905275 13419.0 NaN 1522.928523714094 0.6212076087249698 602.0 21.0 344.0 
66.00058297905275 13425.0 NaN 1522.6853707414816 0.6467096857347691 555.0 21.0 344.0 
68.00058297905275 13437.0 NaN 1522.6853707414816 0.6649050751187319 527.0 22.0 343.0 
70.00058297905275 13440.0 NaN 1522.7601870407482 0.6774495116369559 514.0 20.0 345.0 
72.00058297905275 13491.0 NaN 1522.7040748163001 0.6973958600532928 505.0 28.0 337.0 
74.00058297905275 13479.0 NaN 1525.7822311289244 0.6465696446137238 509.0 21.0 345.0 
76.00035943750825 13482.0 NaN 1525.766199064797 0.6377949253114088 505.0 26.0 340.0 
78.00035943750825 13489.0 NaN 1525.766199064797 0.6508073752961905 500.0 29.0 337.0 
80.00058297905275 13486.0 NaN 1528.7828991315969 0.6153976185023763 497.0 29.0 338.0 
82.00035943750825 13497.0 NaN 1528.8176352705425 0.627425828770791 502.0 26.0 341.0 
84.00058297905275 13466.0 NaN 1531.9438877755515 0.6108097705673442 497.0 30.0 338.0 
86.00035943750825 13468.0 NaN 1531.9545758183028 0.6197796393124924 494.0 31.0 337.0 
88.00035943750825 13481.0 NaN 1531.7862391449548 0.6440711170802484 497.0 28.0 340.0 
90.00058297905275 13486.0 NaN 1531.9572478289908 0.6654070993751122 494.0 31.0 337.0 
92.00035943750825 13488.0 NaN 1531.807615230461 0.6970188591255742 495.0 31.0 337.0 
94.00058297905275 13470.0 NaN 1531.8984635938546 0.6872327935013538 499.0 26.0 342.0 
96.00035943750825 13479.0 NaN 1531.863727454909 0.7255618322254829 493.0 32.0 336.0 
98.00035943750825 13478.0 NaN 1531.8744154976634 0.7441779991868251 495.0 30.0 338.0 
100.00058297905275 13470.0 NaN 1531.8022712090844 0.7476519580362001 496.0 29.0 339.0 
102.00035943750825 13448.0 NaN 1534.9739478957908 0.7474617221007089 495.0 30.0 339.0 
104.00035943750825 13449.0 NaN 1534.8643954575818 0.7762952742060258 494.0 31.0 338.0 
106.00035943750825 13459.0 NaN 1534.9472277889092 0.740871899722425 497.0 27.0 342.0 
108.00035943750825 13476.0 NaN 1537.923847695391 0.7542694430475485 492.0 32.0 338.0 
110.00058297905275 13485.0 NaN 1537.9665998664002 0.7299165023878007 496.0 29.0 341.0 
112.00035943750825 13437.0 NaN 1537.905143620573 0.6515048822148728 499.0 26.0 344.0 
114.00035943750825 13455.0 NaN 1537.9559118236457 0.6606212019279212 497.0 29.0 341.0 
116.00035943750825 13458.0 NaN 1540.9619238476937 0.6189514241705909 497.0 29.0 342.0 
118.00035943750825 13480.0 NaN 1547.1930527722093 0.6272885725644102 502.0 25.0 348.0 
120.00058297905275 13502.0 NaN 1547.1930527722093 0.6473639608045707 503.0 25.0 348.0 
122.00035943750825 13500.0 NaN 1547.169004676018 0.6392692589075014 503.0 25.0 348.0 
124.00035943750825 13514.0 NaN 1547.169004676018 0.65568204139707 502.0 26.0 347.0 
126.00035943750825 13523.0 NaN 1547.3079492317975 0.6769556677542995 504.0 25.0 348.0 
128.00035943750825 13511.0 NaN 1547.2090848363391 0.676576018975444 504.0 25.0 348.0 
130.00058297905275 13534.0 NaN 1547.315965263861 0.6988515346347999 507.0 22.0 351.0 
132.00058297905275 13529.0 NaN 1544.2110888443544 0.6989254764512179 500.0 26.0 346.0 
134.00035943750825 13543.0 NaN 1544.1710086840362 0.6897168710735597 504.0 22.0 350.0 
136.00035943750825 13535.0 NaN 1547.302605210421 0.6808949518632678 502.0 22.0 351.0 
138.00035943750825 13537.0 NaN 1544.2511690046756 0.6944162088868154 499.0 23.0 349.0 
140.00058297905275 13540.0 NaN 1547.3266533066121 0.6977100825603704 499.0 23.0 350.0 
142.00058297905275 13543.0 NaN 1550.418169672679 0.6683295021136884 504.0 18.0 356.0 
144.00058297905275 13566.0 NaN 1550.3914495657998 0.6676687100154528 497.0 24.0 350.0 
146.00058297905275 13559.0 NaN 1550.3861055444213 0.6566221167312163 501.0 20.0 354.0 
148.00035943750825 13540.0 NaN 1547.2090848363391 0.660696029063597 503.0 19.0 354.0 
150.00058297905275 13530.0 NaN 1544.267201068803 0.6538382693457614 502.0 20.0 352.0 
152.00058297905275 13508.0 NaN 1541.074148296591 0.6479439353082069 498.0 21.0 350.0 
154.00035943750825 13491.0 NaN 1541.1302605210424 0.6402053963768063 497.0 19.0 352.0 
156.00035943750825 13479.0 NaN 1541.0821643286574 0.6591944032307481 497.0 21.0 350.0 
158.00035943750825 13475.0 NaN 1541.1142284569148 0.6749274912334792 499.0 20.0 351.0 
160.00058297905275 13484.0 NaN 1541.0688042752186 0.6935468130488919 501.0 19.0 352.0 
162.00035943750825 13490.0 NaN 1541.1783567134273 0.7135241239898825 497.0 23.0 348.0 
164.00035943750825 13499.0 NaN 1544.1229124916515 0.737074966729951 496.0 22.0 350.0 
166.00035943750825 13486.0 NaN 1550.3647294589182 0.732661875968569 500.0 18.0 356.0 
168.00058297905275 13472.0 NaN 1550.2845691382756 0.7415368080837607 500.0 20.0 354.0 
170.00058297905275 13452.0 NaN 1547.3026052104208 0.7447333617552273 503.0 18.0 355.0 
172.00058297905275 13429.0 NaN 1544.1282565130273 0.713731129095332 505.0 17.0 355.0 
174.00058297905275 13440.0 NaN 1544.2404809619245 0.7126000067719435 503.0 19.0 353.0 
176.00058297905275 13421.0 NaN 1544.2030728122909 0.6637934430242014 498.0 21.0 351.0 
178.00058297905275 13414.0 NaN 1538.0841683366725 0.654526086938566 502.0 16.0 354.0 
180.00058297905275 13399.0 NaN 1537.9986639946546 0.6438202709542651 500.0 19.0 351.0 
182.00058297905275 13377.0 NaN 1541.039412157648 0.647226452637329 503.0 16.0 355.0 
184.00058297905275 13365.0 NaN 1541.0501002003998 0.6503217507560022 501.0 17.0 354.0 
186.00058297905275 13362.0 NaN 1541.210420841682 0.6737004175283657 494.0 24.0 347.0 
188.00058297905275 13372.0 NaN 1541.0821643286572 0.6550746423561234 494.0 24.0 347.0 
190.00058297905275 13359.0 NaN 1541.1756847027386 0.6597531352003518 497.0 21.0 350.0 
192.00058297905275 13356.0 NaN 1541.092852371409 0.6774325876751965 492.0 26.0 345.0 
194.00058297905275 13352.0 NaN 1541.1382765531064 0.6957176644402321 494.0 24.0 347.0 
196.00058297905275 13329.0 NaN 1541.0688042752186 0.6803749722642191 495.0 23.0 348.0 
198.00058297905275 13341.0 NaN 1544.1870407481638 0.6972179556206575 494.0 25.0 347.0 
200.00058297905275 13327.0 NaN 1544.1229124916517 0.7167013113733356 495.0 26.0 346.0 
202.00058297905275 13305.0 NaN 1544.2244488977972 0.738824967021143 498.0 23.0 349.0 
204.00058297905275 13314.0 NaN 1547.1583166332662 0.7727101155018492 492.0 29.0 344.0 
206.00058297905275 13304.0 NaN 1544.2191048764184 0.7253937169071395 492.0 29.0 343.0 
208.00058297905275 13317.0 NaN 1544.0748162992638 0.7637929293562237 492.0 27.0 345.0 
210.00058297905275 13305.0 NaN 1538.0868403473637 0.7828207778720352 484.0 31.0 339.0 
212.00058297905275 13301.0 NaN 1541.0207080828334 0.8244098782489316 483.0 32.0 339.0 
214.00058297905275 13301.0 NaN 1544.0855043420183 0.8605024695669137 489.0 27.0 345.0 
216.00058297905275 13256.0 NaN 1544.1015364061454 0.8571033577425194 481.0 34.0 338.0 
218.00058297905275 13260.0 NaN 1537.894455577821 0.8419376291078549 492.0 26.0 344.0 
220.00058297905275 13232.0 NaN 1540.9298597194388 0.8606283821479571 494.0 23.0 348.0 
222.00058297905275 13215.0 NaN 1541.0794923179699 0.9005850504900788 490.0 27.0 344.0 
224.00058297905275 13206.0 NaN 1540.9458917835664 0.8148502074864153 494.0 23.0 348.0 
226.00058297905275 13165.0 NaN 1541.0046760187029 0.7194688389684086 496.0 21.0 350.0 
228.00058297905275 13182.0 NaN 1540.9619238476937 0.7029613077507665 493.0 24.0 347.0 
230.00058297905275 13145.0 NaN 1537.969271877088 0.6826942504427257 490.0 24.0 346.0 
232.00058297905275 13133.0 NaN 1541.0527722110908 0.6909227193664581 492.0 22.0 349.0 
234.00058297905275 13124.0 NaN 1541.0501002003998 0.7002261921701763 489.0 25.0 346.0 
236.00058297905275 13099.0 NaN 1544.0347361389454 0.6988716000460033 494.0 21.0 351.0 
238.00058297905275 13125.0 NaN 1544.1148964595845 0.7091961774751052 492.0 22.0 350.0 
240.00058297905275 13145.0 NaN 1540.9271877087517 0.743511902651687 491.0 21.0 350.0 
242.00058297905275 13142.0 NaN 1541.0340681362727 0.751986303873147 493.0 23.0 348.0 
244.00058297905275 13118.0 NaN 1540.9084836339362 0.7591390834107485 493.0 21.0 350.0 
246.00058297905275 13107.0 NaN 1537.9879759519026 0.7899045661813019 492.0 23.0 347.0 
248.00058297905275 13100.0 NaN 1540.9084836339364 0.8027831125976969 495.0 20.0 351.0 
250.00058297905275 13100.0 NaN 1537.9452237808937 0.8135822078601405 496.0 19.0 351.0 
252.00058297905275 13084.0 NaN 1534.7788911155635 0.8288045129964331 482.0 27.0 342.0 
254.00058297905275 13082.0 NaN 1534.9605878423517 0.8275594319857839 491.0 22.0 347.0 
256.00058297905275 13049.0 NaN 1531.7060788243157 0.7937453809914355 496.0 16.0 352.0 
258.00058297905275 13048.0 NaN 1531.8851035404152 0.7862262161002971 495.0 19.0 349.0 
260.00058297905275 13048.0 NaN 1528.673346693388 0.7569229220941124 495.0 18.0 349.0 
262.00058297905275 13037.0 NaN 1525.6619906479636 0.7615872705174177 500.0 16.0 350.0 
264.00058297905275 13036.0 NaN 1528.718770875082 0.7500977695336616 491.0 21.0 346.0 
266.00058297905275 13007.0 NaN 1528.7454909819635 0.7449821725317953 493.0 21.0 346.0 
268.00058297905275 13000.0 NaN 1537.8463593854362 0.7227285725508622 496.0 17.0 353.0 
270.00058297905275 13013.0 NaN 1541.1115564462273 0.7342100571607411 495.0 19.0 352.0 
272.00058297905275 13000.0 NaN 1540.8203072812273 0.7579387829550102 496.0 18.0 353.0 
274.00058297905275 13031.0 NaN 1544.0988643954568 0.7911630192645815 497.0 15.0 357.0 
276.00058297905275 13009.0 NaN 1540.903139612557 0.7921421171310997 488.0 26.0 345.0 
278.00058297905275 12995.0 NaN 1540.9806279225113 0.8218301335832395 494.0 18.0 353.0 
280.00058297905275 13011.0 NaN 1537.6566466265879 0.873608123136135 496.0 18.0 352.0 
282.00058297905275 12962.0 NaN 1537.9104876419522 0.8657882563882041 493.0 20.0 350.0 
284.00058297905275 12960.0 NaN 1537.824983299934 0.8744220261062067 487.0 28.0 342.0 
286.00058297905275 12910.0 NaN 1537.9024716098884 0.8546090347249101 493.0 19.0 351.0 
288.00058297905275 12919.0 NaN 1537.7688710754837 0.8964643044070039 486.0 24.0 346.0 
290.00058297905275 12923.0 NaN 1537.8169672678705 0.8415851464903209 489.0 21.0 349.0 
292.00058297905275 12909.0 NaN 1537.758183032734 0.8644409317935139 486.0 26.0 344.0 
294.00058297905275 12907.0 NaN 1531.8289913159638 0.8634792921285398 489.0 22.0 346.0 
296.00058297905275 12858.0 NaN 1531.6366065464274 0.8163802516247157 488.0 23.0 345.0 
298.00058297905275 12860.0 NaN 1531.7034068136272 0.8270654289518132 491.0 19.0 349.0 
300.00058297905275 12840.0 NaN 1534.717434869739 0.7759901420095499 480.0 29.0 340.0 
302.00058297905275 12811.0 NaN 1528.676018704073 0.761496319863914 487.0 20.0 347.0 
304.00058297905275 12817.0 NaN 1531.660654642618 0.7715798758675892 487.0 20.0 348.0 
306.00058297905275 12779.0 NaN 1531.8049432197727 0.7463811182734954 486.0 21.0 347.0 
308.00058297905275 12786.0 NaN 1531.660654642618 0.7833331582871031 484.0 23.0 345.0 
310.00058297905275 12764.0 NaN 1537.93720774883 0.7541762589682955 487.0 18.0 352.0 
312.00058297905275 12723.0 NaN 1534.7521710086817 0.7574447274859241 484.0 20.0 349.0 
314.00058297905275 12736.0 NaN 1531.7889111556456 0.7790189685121116 489.0 18.0 350.0 
316.00058297905275 12704.0 NaN 1528.537074148297 0.7799943520568139 487.0 20.0 347.0 
318.00058297905275 12697.0 NaN 1528.6466265865065 0.7954234945574616 481.0 26.0 341.0 
320.00058297905275 12699.0 NaN 1531.6419505678002 0.8052655613102785 485.0 21.0 347.0 
322.00058297905275 12687.0 NaN 1528.8122912491638 0.8131805019853511 482.0 26.0 341.0 
324.00058297905275 12689.0 NaN 1531.7648630594545 0.8187129746353345 482.0 25.0 343.0 
326.00058297905275 12666.0 NaN 1528.649298597194 0.7961802516199971 490.0 17.0 350.0 
328.00058297905275 12652.0 NaN 1528.5905143620573 0.782582491989846 491.0 16.0 351.0 
330.00058297905275 12622.0 NaN 1528.7855711422847 0.7417936207792943 490.0 18.0 349.0 
332.00058297905275 12626.0 NaN 1525.603206412827 0.7452537231942611 492.0 18.0 348.0 
334.00058297905275 12619.0 NaN 1528.694722778891 0.7450401056748392 494.0 15.0 352.0 
336.00058297905275 12603.0 NaN 1528.5718102872424 0.7092578020818262 490.0 19.0 348.0 
338.00058297905275 12616.0 NaN 1525.6513026052094 0.7321001764800928 491.0 17.0 349.0 
340.00058297905275 12603.0 NaN 1522.439545758182 0.7407899941827852 492.0 16.0 349.0 
342.00058297905275 12621.0 NaN 1528.7214428857728 0.7565991146502735 492.0 18.0 349.0 
344.00058297905275 12621.0 NaN 1531.7221108884453 0.7790230764320786 492.0 18.0 350.0 
346.00021339473096 12617.0 NaN 1528.756179024718 0.7319733998470127 497.0 15.0 352.0 
348.00058297905275 12626.0 NaN 1525.5230460921844 0.7206373485900164 492.0 19.0 347.0 
350.00058297905275 12608.0 NaN 1525.5551102204392 0.7147841585901026 494.0 17.0 349.0 
352.00058297905275 12623.0 NaN 1525.4642618570458 0.713284451825633 495.0 16.0 350.0 
354.00058297905275 12634.0 NaN 1522.5838343353362 0.6995773233011444 492.0 18.0 347.0 
356.00058297905275 12624.0 NaN 1522.4101536406151 0.6790617097698077 492.0 18.0 347.0 
358.00058297905275 12636.0 NaN 1522.4956579826332 0.6944645414949021 495.0 15.0 350.0 
360.00058297905275 12634.0 NaN 1522.431529726118 0.7226909567088672 490.0 19.0 346.0 
362.00058297905275 12666.0 NaN 1522.492985971945 0.7594593975302183 493.0 17.0 348.0 
364.00058297905275 12654.0 NaN 1522.3807615230453 0.7358786264223697 494.0 16.0 349.0 
366.00058297905275 12641.0 NaN 1522.514362057448 0.7323048584956076 494.0 18.0 347.0 
368.00058297905275 12648.0 NaN 1503.9278557114237 0.7514495227930882 493.0 18.0 341.0 
370.00058297905275 12640.0 NaN 1497.9318637274546 0.7653204348466359 496.0 15.0 342.0 
372.00058297905275 12655.0 NaN 1500.8390113560454 0.8128939158724356 493.0 19.0 339.0 
374.00021339473096 12638.0 NaN 1507.08617234469 0.8138092592447523 496.0 17.0 343.0 
376.00058297905275 12624.0 NaN 1503.9465597862384 0.8284048352099104 497.0 16.0 343.0 
378.00058297905275 12638.0 NaN 1503.9866399465607 0.8593015796822928 495.0 18.0 341.0 
380.00058297905275 12624.0 NaN 1500.8470273881092 0.8741934753531477 497.0 17.0 341.0 
382.00058297905275 12639.0 NaN 1497.7955911823638 0.8996341704855535 505.0 10.0 347.0 
384.00058297905275 12632.0 NaN 1500.8764195056788 0.9229641788506704 499.0 17.0 341.0 
386.00058297905275 12620.0 NaN 1507.038076152306 0.9014643177929637 504.0 12.0 348.0 
388.00058297905275 12615.0 NaN 1507.0086840347365 0.9195745780501805 505.0 11.0 349.0 
390.00058297905275 12601.0 NaN 1500.91382765531 0.8962020078764924 502.0 13.0 345.0 
392.00058297905275 12606.0 NaN 1510.0521042084174 0.904827819560248 502.0 13.0 348.0 
394.00021339473096 12578.0 NaN 1507.150300601202 0.8888446009070329 503.0 13.0 347.0 
396.00058297905275 12563.0 NaN 1510.180360721443 0.8996821238076064 495.0 22.0 339.0 
398.00058297905275 12581.0 NaN 1510.191048764194 0.9032485329975773 504.0 15.0 346.0 
400.00058297905275 12562.0 NaN 1507.0033400133607 0.8256847709580104 503.0 18.0 342.0 
402.00058297905275 12565.0 NaN 1510.257849031397 0.8385819469240589 504.0 18.0 343.0 
404.00058297905275 12547.0 NaN 1519.3319973279904 0.84098677827259 500.0 22.0 342.0 
406.00058297905275 12512.0 NaN 1519.3587174348702 0.7638282237355261 508.0 13.0 351.0 
408.00058297905275 12540.0 NaN 1522.3967935871733 0.7649290381232202 497.0 25.0 340.0 
410.0003594375083 12532.0 NaN 1531.6820307281243 0.7901321773099362 503.0 19.0 349.0 
412.0003594375083 12531.0 NaN 1531.583166332664 0.7531901342398347 511.0 11.0 357.0 
414.00058297905275 12516.0 NaN 1534.6933867735459 0.7611093894005438 508.0 13.0 356.0 
416.00058297905275 12511.0 NaN 1531.5270541082177 0.760921747728058 510.0 13.0 355.0 
418.00058297905275 12543.0 NaN 1519.273213092854 0.7493402061736598 513.0 10.0 354.0 
420.0003594375083 12534.0 NaN 1519.2037408149638 0.7854406804543347 507.0 15.0 349.0 
422.0003594375083 12552.0 NaN 1516.1897127588518 0.8142196691564768 504.0 16.0 347.0 
424.00058297905275 12538.0 NaN 1513.0768203072819 0.8243759433610502 499.0 18.0 344.0 
426.00058297905275 12547.0 NaN 1519.3533734134933 0.8307203963465457 500.0 17.0 347.0 
428.00058297905275 12561.0 NaN 1519.2732130928537 0.8116912541411574 496.0 22.0 342.0 
430.0003594375083 12538.0 NaN 1516.293921175684 0.7956329968632582 505.0 12.0 351.0 
432.0003594375083 12543.0 NaN 1513.0901803607205 0.7869395659531631 500.0 17.0 345.0 
434.00058297905275 12532.0 NaN 1519.2678690714756 0.7908039350474548 506.0 15.0 349.0 
436.00058297905275 12533.0 NaN 1528.4649298597185 0.8215748478784248 506.0 20.0 347.0 
438.00058297905275 12546.0 NaN 1528.6492985971938 0.8529678764332604 506.0 19.0 348.0 
440.0003594375083 12522.0 NaN 1528.387441549766 0.7705252028429198 506.0 19.0 348.0 
442.0003594375083 12524.0 NaN 1531.6499665998663 0.786874614820609 501.0 24.0 344.0 
444.00058297905275 12505.0 NaN 1531.4682698730815 0.7744797650606262 503.0 22.0 346.0 
446.00058297905275 12484.0 NaN 1537.857047428191 0.7430701072998147 511.0 17.0 353.0 
448.00058297905275 12509.0 NaN 1543.9519038076157 0.7726400702692896 511.0 20.0 352.0 
450.0003594375083 12486.0 NaN 1540.8229792919183 0.7729934460474682 509.0 19.0 352.0 
452.0003594375083 12494.0 NaN 1543.895791583166 0.8226542342293741 510.0 18.0 354.0 
454.00058297905275 12496.0 NaN 1543.9144956579817 0.8185451325222004 509.0 19.0 353.0 
456.00058297905275 12507.0 NaN 1553.1275885103548 0.8150837310015003 508.0 19.0 356.0 
458.00058297905275 12523.0 NaN 1553.1997327989302 0.8454384459818578 511.0 15.0 360.0 
460.0003594375083 12504.0 NaN 1550.0494321977274 0.8594869065514767 505.0 20.0 354.0 
462.0003594375083 12505.0 NaN 1547.0006680026727 0.8931637680025616 506.0 19.0 354.0 
464.00058297905275 12509.0 NaN 1540.7668670674698 0.8914595448639655 505.0 18.0 353.0 
466.00058297905275 12483.0 NaN 1544.0240480961913 0.8423151979707708 507.0 18.0 354.0 
468.00058297905275 12481.0 NaN 1543.8476953907818 0.8480718447540145 506.0 18.0 354.0 
470.00058297905275 12459.0 NaN 1537.7902471609907 0.8705330523101843 503.0 20.0 350.0 
472.00058297905275 12462.0 NaN 1534.551770207082 0.8838154354978597 506.0 15.0 354.0 
474.00058297905275 12452.0 NaN 1528.6546426185723 0.8884255805516106 500.0 21.0 346.0 
476.00058297905275 12443.0 NaN 1519.2892451569817 0.823794840876758 501.0 16.0 348.0 
478.00058297905275 12443.0 NaN 1519.3239812959266 0.7788792408574324 498.0 16.0 348.0 
480.00058297905275 12444.0 NaN 1519.1556446225795 0.7585474692084128 498.0 18.0 346.0 
482.00058297905275 12443.0 NaN 1513.213092852372 0.7876276916218837 496.0 20.0 342.0 
484.00058297905275 12449.0 NaN 1513.0741482965918 0.798458601275817 498.0 15.0 347.0 
486.00058297905275 12446.0 NaN 1513.2050768203082 0.7423804849777345 494.0 19.0 343.0 
488.00058297905275 12446.0 NaN 1503.7702070808275 0.7428902733915201 495.0 17.0 342.0 
490.00058297905275 12441.0 NaN 1500.9245156980635 0.7713121302718563 495.0 18.0 340.0 
492.00058297905275 12440.0 NaN 1497.6726786907154 0.8022973314856476 492.0 18.0 339.0 
494.00058297905275 12433.0 NaN 1494.7628590514364 0.8237280030971698 491.0 18.0 338.0 
496.00058297905275 12445.0 NaN 1494.6346025384094 0.8319970845296293 493.0 14.0 342.0 
498.00058297905275 12428.0 NaN 1491.7969271877091 0.8011589789348964 488.0 21.0 334.0 
500.00058297905275 12428.0 NaN 1491.6419505678011 0.834098992728795 491.0 16.0 339.0 
502.00058297905275 12450.0 NaN 1494.7307949231806 0.8813987187792504 494.0 16.0 340.0 
504.00058297905275 12449.0 NaN 1494.7388109552444 0.9068524607833918 494.0 17.0 339.0 
506.00058297905275 12442.0 NaN 1497.9265197060797 0.8958219648681184 490.0 24.0 333.0 
508.00058297905275 12436.0 NaN 1494.682698730794 0.8481990798879924 494.0 20.0 336.0 
510.00058297905275 12410.0 NaN 1500.9592518370082 0.7943264021325726 492.0 22.0 336.0 
512.000213394731 12422.0 NaN 1500.801603206412 0.8002038457657087 489.0 25.0 333.0 
514.000213394731 12421.0 NaN 1494.7922511690056 0.7988369732970948 500.0 13.0 343.0 
516.0005829790528 12433.0 NaN 1479.3640614562455 0.8059143808697447 492.0 20.0 331.0 
518.0005829790528 12433.0 NaN 1473.2291249165 0.8053546817158654 488.0 20.0 329.0 
520.0005829790528 12431.0 NaN 1467.0167000668 0.7723307641075178 492.0 15.0 332.0 
522.0005829790528 12442.0 NaN 1470.0948563794261 0.7397524417049398 488.0 18.0 330.0 
524.0005829790528 12460.0 NaN 1457.8410153640625 0.7622450715440368 482.0 23.0 321.0 
526.0005829790528 12464.0 NaN 1451.7034068136272 0.7460073145259687 487.0 18.0 324.0 
528.0005829790528 12480.0 NaN 1454.7655310621249 0.7754407601461892 488.0 16.0 327.0 
530.0005829790528 12485.0 NaN 1454.8697394789574 0.7671028759023178 490.0 17.0 326.0 
532.0005829790528 12502.0 NaN 1454.7227788911161 0.7793062742378573 492.0 15.0 328.0 
534.0005829790528 12532.0 NaN 1460.8977955911819 0.7479433459601678 488.0 18.0 327.0 
536.0005829790528 12546.0 NaN 1457.961255845024 0.7180779643177898 488.0 18.0 326.0 
538.0005829790528 12553.0 NaN 1457.961255845024 0.7409425137805623 483.0 25.0 319.0 
540.0005829790528 12567.0 NaN 1457.9051436205739 0.783146799064631 490.0 19.0 325.0 
542.0005829790528 12573.0 NaN 1460.9886439545755 0.779600302130571 491.0 19.0 326.0 
544.0005829790528 12592.0 NaN 1460.9191716766873 0.7944279483788697 497.0 14.0 331.0 
546.0005829790528 12593.0 NaN 1461.0340681362727 0.7888418522892714 491.0 21.0 324.0 
548.0005829790528 12599.0 NaN 1461.0420841683363 0.8178891084206453 485.0 28.0 317.0 
550.0005829790528 12593.0 NaN 1460.9993319973275 0.8523874551454341 489.0 24.0 321.0 
552.0005829790528 12604.0 NaN 1460.8977955911819 0.8836108048332717 485.0 28.0 317.0 
554.0005829790528 12632.0 NaN 1467.1770207080824 0.9335949199563771 480.0 31.0 316.0 
556.0005829790528 12630.0 NaN 1470.2899131596535 0.9591269054691226 475.0 35.0 313.0 
558.0005829790528 12630.0 NaN 1457.958583834336 0.9680867916403428 468.0 35.0 309.0 
560.0005829790528 12616.0 NaN 1451.7541750167002 0.9231516178844029 467.0 36.0 306.0 
562.0005829790528 12597.0 NaN 1454.7842351369409 0.9218339197417813 462.0 34.0 309.0 
564.0005829790528 12605.0 NaN 1461.1008684034732 0.8951120972448294 462.0 34.0 311.0 
566.0005829790528 12615.0 NaN 1470.319305277221 0.8618543864486098 462.0 39.0 309.0 
568.0005829790528 12627.0 NaN 1470.2338009352038 0.8797929705807781 474.0 29.0 319.0 
570.0005829790528 12623.0 NaN 1476.3794255177013 0.8112829436250505 481.0 29.0 321.0 
572.0005829790528 12613.0 NaN 1479.4495657982634 0.8347236392784793 481.0 28.0 323.0 
574.0005829790528 12632.0 NaN 1482.5971943887782 0.8431826082924507 478.0 31.0 321.0 
576.0005829790528 12645.0 NaN 1485.600534402137 0.8019949140248758 484.0 26.0 327.0 
578.0005829790528 12677.0 NaN 1482.567802271209 0.8088047056154324 486.0 27.0 325.0 
580.0005829790528 12686.0 NaN 1485.587174348698 0.829429589213479 483.0 29.0 324.0 
582.0005829790528 12664.0 NaN 1485.6085504342013 0.8575228231845919 490.0 27.0 326.0 
584.0005829790528 12697.0 NaN 1482.5223780895117 0.8836230711310489 490.0 26.0 326.0 
586.0005829790528 12724.0 NaN 1491.842351369406 0.8767971696662935 493.0 25.0 330.0 
588.0005829790528 12727.0 NaN 1491.6285905143625 0.8964836923617442 490.0 29.0 326.0 
590.0005829790528 12714.0 NaN 1491.7621910487635 0.9184400204222535 490.0 30.0 325.0 
592.0005829790528 12666.0 NaN 1491.6980627922514 0.9316995853063275 495.0 28.0 327.0 
594.0005829790528 12690.0 NaN 1491.7461589846364 0.9521419248478006 488.0 34.0 321.0 
596.0005829790528 12707.0 NaN 1494.7174348697383 0.9573195556297655 492.0 33.0 323.0 
598.0005829790528 12691.0 NaN 1488.670674682699 0.9480742220485381 495.0 29.0 325.0 
600.0005829790528 12662.0 NaN 1488.5504342017364 0.9568706344464774 499.0 29.0 325.0 
602.0005829790528 12630.0 NaN 1491.7808951235809 0.9262914205054417 495.0 31.0 324.0 
604.0005829790528 12676.0 NaN 1491.711422845691 0.9448610205544088 497.0 28.0 327.0 
606.0005829790528 12696.0 NaN 1497.873079492318 0.8859727143860205 489.0 33.0 324.0 
608.0005829790528 12717.0 NaN 1497.8463593854365 0.8962171953253534 496.0 28.0 329.0 
610.0005829790528 12745.0 NaN 1494.8964595858376 0.9198257059072994 498.0 27.0 329.0 
612.0005829790528 12763.0 NaN 1494.7361389445555 0.8884035349272279 490.0 29.0 327.0 
614.0005829790528 12800.0 NaN 1494.9151636606543 0.8882757423590186 488.0 32.0 324.0 
616.0005829790528 12780.0 NaN 1497.8329993319983 0.9035059432037462 488.0 31.0 326.0 
618.0005829790528 12834.0 NaN 1497.9772879091527 0.9157489295968996 491.0 32.0 325.0 
620.0005829790528 12820.0 NaN 1494.7468269873089 0.9273448968850591 486.0 33.0 323.0 
622.0005829790528 12819.0 NaN 1501.0313961255838 0.9320032334570875 489.0 31.0 327.0 
624.0005829790528 12830.0 NaN 1504.0587842351363 0.8930379314618058 477.0 39.0 320.0 
626.0005829790528 12835.0 NaN 1507.2972611890455 0.8709002693063488 482.0 36.0 324.0 
628.0005829790528 12876.0 NaN 1507.078156312626 0.8882453536889886 478.0 37.0 323.0 
630.0005829790528 12849.0 NaN 1507.2545090180365 0.8576677587693364 479.0 37.0 323.0 
632.0005829790528 12855.0 NaN 1507.1877087508356 0.885953990771205 474.0 38.0 322.0 
634.0005829790528 12873.0 NaN 1516.4889779559112 0.9265246433754462 482.0 35.0 328.0 
636.0005829790528 12864.0 NaN 1513.3760855043424 0.9229216558273922 488.0 34.0 328.0 
638.0005829790528 12890.0 NaN 1516.5263861055453 0.9387296531594693 494.0 31.0 332.0 
640.000213394731 12849.0 NaN 1513.3841015364071 0.9421231773717311 483.0 40.0 322.0 
642.000213394731 12847.0 NaN 1510.4048096192375 0.9288144480879548 478.0 46.0 315.0 
644.000213394731 12834.0 NaN 1507.2945891783556 0.9495702573680043 477.0 46.0 314.0 
646.000213394731 12822.0 NaN 1507.4255177020716 0.8967729518991134 477.0 45.0 315.0 
648.000213394731 12819.0 NaN 1513.4428857715438 0.8445933709864375 478.0 42.0 320.0 
650.000213394731 12784.0 NaN 1519.6419505678011 0.8277928663678203 488.0 32.0 332.0 
652.0005829790528 12784.0 NaN 1519.6419505678011 0.834106029294878 477.0 37.0 327.0 
654.0005829790528 12807.0 NaN 1519.6472945891787 0.8818181874976935 478.0 36.0 328.0 
656.0005829790528 12820.0 NaN 1522.7120908483637 0.8508341110751395 472.0 38.0 327.0 
658.0005829790528 12827.0 NaN 1532.0 0.8516656329510476 478.0 35.0 333.0 
660.000213394731 12795.0 NaN 1534.818971275884 0.8373750886444965 476.0 34.0 335.0 
662.000213394731 12807.0 NaN 1535.0006680026727 0.8836816780769348 487.0 28.0 341.0 
664.000213394731 12803.0 NaN 1534.8857715430852 0.8680405327402922 480.0 34.0 335.0 
#####################################################################
# End of data export. Simulation finished at: 2019-03-08T05:21+0000 #
#####################################################################
