#####################################################################
# Alchemist log file - simulation started at: 2019-03-21T10:59+0000 #
#####################################################################
# seed = 9.0, bandwidth = 5623413.251903491, propagationDelay = 0.03162277660168379, baserange = 562.341325190349
#
# The columns have the following meaning: 
# time neighbor_count[Sum] <value>@neighbor_count[Sum] packet_size[Mean] mean_delay[Mean] crowd[Sum] overcrowded[Sum] risk[Sum] 
0.0 NaN NaN NaN NaN NaN NaN NaN 
2.0003374459614243 98131.0 NaN 4995.746158984636 0.5000221647325509 1497.0 0.0 1497.0 
4.000337445961424 98210.0 NaN 4994.199064796259 0.5003343589916707 1496.0 1.0 1496.0 
6.000337445961424 98210.0 NaN 4993.841015364062 0.5003342185295743 1496.0 1.0 1496.0 
8.000337445961424 98210.0 NaN 4994.287241148964 0.5003341118319075 1496.0 1.0 1496.0 
10.000337445961424 98219.0 NaN 4995.39879759519 0.500312459801572 1497.0 0.0 1497.0 
12.000337445961424 98228.0 NaN 4994.468937875751 0.5003614684855153 1496.0 1.0 1496.0 
14.000337445961424 98230.0 NaN 4993.9692718770875 0.5003654898978438 1497.0 0.0 1497.0 
16.000337445961424 98229.0 NaN 4994.116232464929 0.5004345202759312 1496.0 1.0 1496.0 
18.000337445961424 98235.0 NaN 4995.000668002672 0.5009117283170127 1496.0 1.0 1496.0 
20.000337445961424 98281.0 NaN 4995.911823647295 0.5003619699558887 1497.0 0.0 1497.0 
22.000337445961424 98292.0 NaN 4994.88042752171 0.5003847873245271 1496.0 1.0 1496.0 
24.000337445961424 98295.0 NaN 4994.201736806947 0.5003779323955718 1496.0 1.0 1496.0 
26.000337445961424 98297.0 NaN 4994.327321309285 0.5004269635557036 1496.0 1.0 1496.0 
28.000337445961424 98314.0 NaN 4995.233132932532 0.5011325078582013 1496.0 1.0 1496.0 
30.000337445961424 98359.0 NaN 4996.130928523714 0.5008464317479131 1497.0 0.0 1497.0 
32.00033744596142 98376.0 NaN 4994.562458249833 0.5012189273107368 1497.0 0.0 1497.0 
34.00033744596142 98374.0 NaN 4993.696726786907 0.5003452923084629 1496.0 1.0 1496.0 
36.00033744596142 98369.0 NaN 4994.065464261857 0.5001381814084459 1496.0 1.0 1496.0 
38.00033744596142 98387.0 NaN 4994.928523714095 0.500637606383318 1497.0 0.0 1497.0 
40.00033744596142 98432.0 NaN 4996.248496993988 0.5000235068411975 1497.0 0.0 1497.0 
42.00033744596142 98468.0 NaN 4995.3560454241815 0.500707803230415 1497.0 0.0 1497.0 
44.00033744596142 98446.0 NaN 4994.29258517034 0.5005689145292042 1496.0 1.0 1496.0 
46.00033744596142 98422.0 NaN 4994.148296593186 0.5004758871492477 1496.0 1.0 1496.0 
48.00033744596142 98434.0 NaN 4994.837675350702 0.5006413823336375 1496.0 1.0 1496.0 
50.00033744596142 98460.0 NaN 4995.86372745491 0.5005390417211305 1497.0 0.0 1497.0 
52.00033744596142 98527.0 NaN 4994.84034736139 0.5010228648545937 1496.0 1.0 1496.0 
54.00033744596142 98504.0 NaN 4994.231128924515 0.5004446796628056 1496.0 1.0 1496.0 
56.00033744596142 98498.0 NaN 4994.436873747495 0.500213743228541 1496.0 1.0 1496.0 
58.00033744596142 98535.0 NaN 4995.027388109553 0.5001086681540555 1496.0 1.0 1496.0 
60.00033744596142 98597.0 NaN 4996.005344021376 0.5015260139309865 1497.0 0.0 1497.0 
62.00027887578017 98609.0 NaN 1522.388777555109 0.5008906854001008 772.0 1.0 364.0 
64.00027887578015 98592.0 NaN 1522.3727454909817 0.5001809900666557 629.0 3.0 362.0 
66.00027887578015 98608.0 NaN 1522.4662658650636 0.5003474951101502 579.0 3.0 362.0 
68.00027887578015 98631.0 NaN 1525.5978623914484 0.5011892780904297 549.0 3.0 363.0 
70.00027887578015 98657.0 NaN 1525.6913827655303 0.5005002921627499 535.0 3.0 363.0 
72.00027887578015 98684.0 NaN 1525.5898463593849 0.5009336048154813 528.0 5.0 361.0 
74.00027887578015 98673.0 NaN 1531.623246492985 0.5002062297548124 524.0 6.0 362.0 
76.00027887578015 98697.0 NaN 1534.661322645291 0.5000906915400264 528.0 5.0 364.0 
78.00027887578015 98696.0 NaN 1534.7628590514364 0.5002537816380014 526.0 5.0 364.0 
80.00027887578015 98709.0 NaN 1534.7682030728117 0.5003090592401556 524.0 5.0 364.0 
82.00027887578015 98713.0 NaN 1534.725450901803 0.5003351799217991 526.0 3.0 366.0 
84.00027887578015 98702.0 NaN 1537.88376753507 0.500262475274158 526.0 3.0 367.0 
86.00027887578015 98730.0 NaN 1537.857047428191 0.500073595482532 525.0 2.0 368.0 
88.00027887578015 98744.0 NaN 1537.8463593854362 0.5001542848901128 525.0 3.0 367.0 
90.00027887578015 98757.0 NaN 1537.8196392785571 0.5013272244390244 524.0 4.0 366.0 
92.00027887578015 98708.0 NaN 1537.7875751503 0.5004276087053149 523.0 5.0 365.0 
94.00027887578015 98702.0 NaN 1537.8036072144275 0.4999708709488222 523.0 5.0 365.0 
96.00027887578015 98767.0 NaN 1537.8864395457574 0.5003226966328101 524.0 4.0 366.0 
98.00027887578015 98769.0 NaN 1537.8436873747485 0.5010819022851225 525.0 3.0 367.0 
100.00027887578015 98739.0 NaN 1537.8329993319974 0.5011399710416015 524.0 4.0 366.0 
102.00027887578015 98673.0 NaN 1540.9271877087515 0.5004433408384911 525.0 3.0 368.0 
104.00027887578015 98663.0 NaN 1540.9405477621908 0.5000648083436151 524.0 3.0 368.0 
106.00027887578015 98710.0 NaN 1540.9271877087515 0.5002480103852768 524.0 3.0 368.0 
108.00027887578015 98737.0 NaN 1540.9592518370087 0.5000754913512818 523.0 3.0 368.0 
110.00027887578015 98772.0 NaN 1540.9859719438882 0.5004638447752443 523.0 4.0 367.0 
112.00027887578015 98792.0 NaN 1540.9592518370087 0.500821807349982 522.0 5.0 366.0 
114.00027887578015 98777.0 NaN 1540.9592518370087 0.5000696259236282 521.0 6.0 365.0 
116.00027887578015 98796.0 NaN 1546.9899799599184 0.500158731323038 525.0 4.0 369.0 
118.00027887578015 98792.0 NaN 1549.9933199732816 0.5004866940484001 526.0 3.0 371.0 
120.00027887578015 98786.0 NaN 1550.0868403473635 0.5006613139894401 525.0 4.0 370.0 
122.00027887578015 98797.0 NaN 1550.1002004008 0.5003824128373504 527.0 3.0 371.0 
124.00027887578015 98790.0 NaN 1550.185704742818 0.499973763588998 526.0 4.0 370.0 
126.00027887578015 98800.0 NaN 1547.2144288577153 0.5001365952986215 526.0 4.0 369.0 
128.00027887578017 98788.0 NaN 1547.0754843019363 0.5002623026710649 527.0 3.0 370.0 
130.00027887578017 98774.0 NaN 1544.0133600534393 0.5005195479318068 526.0 4.0 368.0 
132.00027887578017 98785.0 NaN 1543.981295925182 0.5004823760690293 525.0 5.0 367.0 
134.00027887578017 98776.0 NaN 1540.8443553774212 0.5003843648253494 524.0 5.0 366.0 
136.00027887578017 98774.0 NaN 1544.0080160320636 0.5003332878278727 520.0 4.0 368.0 
138.00027887578017 98758.0 NaN 1543.9732798931182 0.5003943881893502 522.0 4.0 368.0 
140.00027887578017 98763.0 NaN 1543.9519038076155 0.5006482388948911 522.0 4.0 368.0 
142.00027887578017 98782.0 NaN 1540.7508350033395 0.5002113120367896 521.0 3.0 368.0 
144.00027887578017 98775.0 NaN 1540.7962591850362 0.499957552866668 519.0 5.0 366.0 
146.00027887578017 98781.0 NaN 1543.890447561791 0.5000131863616342 520.0 3.0 369.0 
148.00027887578017 98784.0 NaN 1543.9438877755515 0.5003427261258604 520.0 3.0 369.0 
150.00027887578017 98788.0 NaN 1537.9505678022724 0.5002897433736601 519.0 4.0 366.0 
152.00027887578017 98796.0 NaN 1537.9158316633275 0.5004899840118072 518.0 5.0 365.0 
154.00027887578017 98779.0 NaN 1538.0040080160334 0.5002312502633506 520.0 4.0 366.0 
156.00027887578017 98773.0 NaN 1534.9418837675364 0.5001332990388924 521.0 5.0 364.0 
158.00027887578017 98780.0 NaN 1534.8964595858363 0.5005353577119678 517.0 4.0 365.0 
160.00027887578017 98773.0 NaN 1534.8403473613907 0.5004124795220293 517.0 4.0 365.0 
162.00027887578017 98800.0 NaN 1534.8002672010698 0.5003554201342065 517.0 4.0 365.0 
164.00027887578017 98783.0 NaN 1540.8871075484299 0.5003572839779228 516.0 5.0 366.0 
166.00027887578017 98763.0 NaN 1540.929859719439 0.5001505445780465 516.0 6.0 365.0 
168.00027887578017 98757.0 NaN 1544.0855043420183 0.5004654920006368 520.0 3.0 369.0 
170.00027887578017 98736.0 NaN 1544.0400801603205 0.5001616097084343 522.0 3.0 369.0 
172.00027887578017 98747.0 NaN 1540.964595858382 0.5003405336433997 521.0 3.0 368.0 
174.00027887578017 98728.0 NaN 1537.873079492318 0.5003791528922773 519.0 4.0 366.0 
176.00027887578017 98696.0 NaN 1537.9425517702089 0.5001593885908076 520.0 3.0 367.0 
178.00027887578017 98696.0 NaN 1541.0340681362727 0.5004539481842438 520.0 3.0 368.0 
180.00027887578017 98687.0 NaN 1534.9873079492338 0.500845449312946 519.0 4.0 365.0 
182.00027887578017 98711.0 NaN 1531.8557114228454 0.5006015567807397 518.0 3.0 365.0 
184.00027887578017 98686.0 NaN 1534.7815631262545 0.5005929280669196 515.0 4.0 365.0 
186.00027887578017 98659.0 NaN 1531.6820307281243 0.5003164795149906 515.0 4.0 364.0 
188.00027887578017 98661.0 NaN 1528.5183700734817 0.500442525412644 515.0 4.0 363.0 
190.00027887578017 98639.0 NaN 1528.6118904475634 0.500789746231443 516.0 3.0 364.0 
192.00027887578017 98606.0 NaN 1531.7140948563795 0.5007109220919449 516.0 3.0 365.0 
194.00027887578017 98572.0 NaN 1531.772879091518 0.5009885260619344 515.0 4.0 364.0 
196.00027887578017 98534.0 NaN 1531.8370073480273 0.5002138468287896 515.0 4.0 364.0 
198.00027887578017 98533.0 NaN 1531.807615230461 0.5011767416423175 517.0 3.0 365.0 
200.00027887578017 98491.0 NaN 1534.8697394789574 0.5006618729903946 518.0 3.0 366.0 
202.00027887578017 98509.0 NaN 1537.873079492318 0.50061452396821 517.0 4.0 366.0 
204.00027887578017 98496.0 NaN 1537.8971275885092 0.5005722054803837 516.0 4.0 366.0 
206.00027887578017 98484.0 NaN 1537.902471609888 0.5004795233837412 515.0 5.0 365.0 
208.00027887578017 98484.0 NaN 1537.8650634602548 0.5010909323293532 514.0 3.0 367.0 
210.00027887578017 98455.0 NaN 1538.022712090848 0.5012140859791352 514.0 3.0 367.0 
212.00027887578017 98471.0 NaN 1534.7655310621246 0.5008588235051462 516.0 3.0 366.0 
214.00027887578017 98445.0 NaN 1534.7708750835 0.5005161985849541 515.0 4.0 365.0 
216.00027887578017 98401.0 NaN 1534.7388109552453 0.5002666883898185 512.0 4.0 365.0 
218.00027887578017 98407.0 NaN 1534.7869071476275 0.5004794639185018 513.0 4.0 365.0 
220.00027887578017 98384.0 NaN 1537.8891115564454 0.5008249709769061 514.0 4.0 366.0 
222.00027887578017 98425.0 NaN 1534.794923179691 0.5009889499571323 515.0 4.0 365.0 
224.00027887578017 98385.0 NaN 1534.760187040748 0.5003840432967419 513.0 4.0 365.0 
226.00027887578017 98375.0 NaN 1534.760187040748 0.5003558918119471 515.0 3.0 366.0 
228.00027887578017 98387.0 NaN 1534.7307949231815 0.5003495092761219 513.0 3.0 366.0 
230.00027887578017 98375.0 NaN 1534.752171008682 0.5001956617879775 511.0 4.0 365.0 
232.00027887578017 98396.0 NaN 1537.8517034068154 0.5006434597264218 511.0 3.0 367.0 
234.00027887578017 98362.0 NaN 1540.9512358049456 0.5003228633041386 511.0 4.0 367.0 
236.00027887578017 98352.0 NaN 1540.9592518370089 0.5000401872442551 511.0 4.0 367.0 
238.00027887578017 98349.0 NaN 1540.956579826318 0.5008414343232315 512.0 3.0 368.0 
240.00027887578017 98316.0 NaN 1531.7381429525726 0.5009380533944965 514.0 3.0 365.0 
242.00027887578017 98289.0 NaN 1531.6553106212427 0.5008924592059318 514.0 2.0 366.0 
244.00027887578017 98245.0 NaN 1531.6098864395453 0.5008251775555237 513.0 3.0 365.0 
246.00027887578017 98210.0 NaN 1531.6873747495001 0.5002878767312924 514.0 2.0 366.0 
248.00027887578017 98202.0 NaN 1531.7034068136272 0.5008890096918113 514.0 2.0 366.0 
250.00027887578017 98169.0 NaN 1531.692718770875 0.5010769585853707 514.0 2.0 366.0 
252.00027887578017 98137.0 NaN 1534.7441549766183 0.5010625434308351 514.0 2.0 367.0 
254.00027887578017 98099.0 NaN 1534.7014028056092 0.5009977568229033 515.0 2.0 367.0 
256.00027887578017 98033.0 NaN 1531.572478289912 0.5004498565229513 515.0 2.0 366.0 
258.00027887578017 98024.0 NaN 1531.583166332664 0.5013936720257863 515.0 3.0 365.0 
260.00027887578017 97975.0 NaN 1528.638610554443 0.5011576123090172 512.0 4.0 363.0 
262.00027887578017 97930.0 NaN 1531.6980627922517 0.500864583413202 514.0 2.0 366.0 
264.00027887578017 97909.0 NaN 1534.8082832331334 0.5009128768587733 514.0 2.0 367.0 
266.00027887578017 97846.0 NaN 1537.8971275885092 0.500611540597542 515.0 2.0 368.0 
268.00027887578017 97838.0 NaN 1534.789579158318 0.5014807554691074 515.0 2.0 367.0 
270.00027887578017 97810.0 NaN 1528.590514362057 0.5031704619453113 513.0 3.0 364.0 
272.00027887578017 97766.0 NaN 1540.7828991315973 0.50093157574916 514.0 3.0 368.0 
274.00027887578017 97755.0 NaN 1537.6753507014023 0.5016461241869354 516.0 3.0 367.0 
276.00027887578017 97700.0 NaN 1540.7401469605886 0.501093322999145 516.0 3.0 368.0 
278.00027887578017 97702.0 NaN 1540.8149632598545 0.5014067905445398 514.0 4.0 367.0 
280.00027887578017 97668.0 NaN 1537.8410153640634 0.5011114307648219 515.0 3.0 367.0 
282.00027887578017 97647.0 NaN 1537.792919171675 0.5010025800818235 513.0 4.0 366.0 
284.00027887578017 97627.0 NaN 1537.8169672678705 0.5013158012312667 511.0 5.0 365.0 
286.00027887578017 97585.0 NaN 1537.8463593854362 0.5012005507010595 510.0 5.0 365.0 
288.00027887578017 97568.0 NaN 1534.7227788911157 0.501576301413569 510.0 5.0 364.0 
290.00027887578017 97533.0 NaN 1531.7221108884453 0.5013548899742464 510.0 4.0 364.0 
292.00027887578017 97472.0 NaN 1531.6766867067454 0.5023900554975184 509.0 5.0 363.0 
294.00027887578017 97436.0 NaN 1531.5511022044093 0.5015668739890973 508.0 5.0 363.0 
296.00027887578017 97360.0 NaN 1531.5056780227117 0.5011014907622873 508.0 5.0 363.0 
298.00027887578017 97359.0 NaN 1534.6078824315293 0.5011876861028008 508.0 5.0 364.0 
300.00027887578017 97349.0 NaN 1531.5564462257842 0.5029279217468325 508.0 4.0 364.0 
302.00027887578017 97292.0 NaN 1528.5263861055455 0.5014570871210576 508.0 3.0 364.0 
304.00027887578017 97268.0 NaN 1528.5263861055455 0.5018859910653763 507.0 4.0 363.0 
306.00027887578017 97203.0 NaN 1531.607214428857 0.5016381474334213 505.0 5.0 363.0 
308.00027887578017 97169.0 NaN 1534.760187040748 0.5010868683142043 505.0 5.0 364.0 
310.00027887578017 97186.0 NaN 1531.615230460921 0.5017516453752726 504.0 5.0 363.0 
312.00027887578017 97125.0 NaN 1525.4348697394792 0.5014261447963531 504.0 4.0 362.0 
314.00027887578017 97094.0 NaN 1528.4408817635274 0.5023497109326106 504.0 6.0 361.0 
316.00027887578017 96992.0 NaN 1528.4622578490303 0.5016695224731815 504.0 5.0 362.0 
318.00027887578017 96958.0 NaN 1528.430193720773 0.5016603198346719 507.0 3.0 364.0 
320.00027887578017 96922.0 NaN 1534.6960587842364 0.5022511722915791 507.0 3.0 366.0 
322.00027887578017 96884.0 NaN 1534.7334669338663 0.5018182281378355 505.0 4.0 365.0 
324.00027887578017 96846.0 NaN 1531.5885103540425 0.5020104452631863 505.0 5.0 363.0 
326.00027887578017 96770.0 NaN 1531.5991983967936 0.5017439705728085 505.0 5.0 363.0 
328.00027887578017 96758.0 NaN 1531.6659986639938 0.5020647934819064 505.0 4.0 364.0 
330.00027887578017 96711.0 NaN 1531.6366065464274 0.5026339909014819 504.0 4.0 364.0 
332.00027887578017 96648.0 NaN 1531.5831663326637 0.501198973608929 503.0 5.0 363.0 
334.00027887578017 96639.0 NaN 1531.6285905143634 0.5020911542214803 505.0 3.0 365.0 
336.00027887578017 96559.0 NaN 1531.6152304609209 0.5017860319640861 506.0 3.0 365.0 
338.00027887578017 96528.0 NaN 1534.7334669338666 0.5015515522320726 507.0 3.0 366.0 
340.00027887578017 96488.0 NaN 1537.8650634602548 0.5023438325487224 508.0 4.0 366.0 
342.00027887578017 96435.0 NaN 1534.7575150300609 0.5010197359832774 507.0 5.0 364.0 
344.00027887578017 96456.0 NaN 1531.6392785571152 0.5018703293513083 507.0 5.0 363.0 
346.00027887578017 96386.0 NaN 1525.432197728791 0.5017459724323112 505.0 5.0 361.0 
348.00027887578017 96344.0 NaN 1528.4889779559117 0.5020821056062306 509.0 5.0 362.0 
350.00027887578017 96342.0 NaN 1531.6366065464274 0.5024675133430672 510.0 6.0 362.0 
352.00027887578017 96280.0 NaN 1531.7167668670666 0.5014984833894054 513.0 3.0 365.0 
354.00027887578017 96255.0 NaN 1525.5150300601188 0.5019158903757358 512.0 3.0 363.0 
356.00027887578017 96203.0 NaN 1528.6252505010004 0.5015703446385754 511.0 3.0 364.0 
358.00027887578017 96215.0 NaN 1528.5317301269188 0.50216796845691 513.0 3.0 364.0 
360.00027887578017 96167.0 NaN 1528.5290581162333 0.502248176439521 513.0 4.0 363.0 
362.00027887578017 96121.0 NaN 1528.470273881094 0.5015287459819545 514.0 4.0 363.0 
364.00027887578017 96112.0 NaN 1528.4622578490303 0.5022271626740041 514.0 4.0 363.0 
366.00027887578017 96067.0 NaN 1525.4028056112213 0.5024692430013898 515.0 4.0 362.0 
368.00027887578017 96061.0 NaN 1522.3219772879092 0.5018632715023379 513.0 5.0 360.0 
370.00027887578017 95990.0 NaN 1516.2378089512365 0.502646434049609 512.0 3.0 360.0 
372.00027887578017 95894.0 NaN 1510.1830327321302 0.5014013656622652 513.0 3.0 358.0 
374.00027887578017 95887.0 NaN 1510.1963927855718 0.5015937307027045 513.0 3.0 358.0 
376.00027887578017 95891.0 NaN 1513.2291249165 0.5014714979153638 514.0 3.0 359.0 
378.00027887578017 95882.0 NaN 1513.2024048096184 0.5021596885656294 515.0 4.0 358.0 
380.00027887578017 95823.0 NaN 1510.1189044756184 0.5019171050601741 516.0 4.0 357.0 
382.00027887578017 95773.0 NaN 1510.1670006680022 0.5010814562338511 517.0 4.0 357.0 
384.00027887578017 95784.0 NaN 1510.0921843687365 0.5014883471836079 516.0 4.0 357.0 
386.00027887578017 95753.0 NaN 1513.1890447561798 0.5014747372659618 514.0 5.0 357.0 
388.00027887578017 95729.0 NaN 1516.219104876419 0.5016790555456705 518.0 3.0 360.0 
390.00027887578017 95692.0 NaN 1522.415497661991 0.5010806342385559 519.0 3.0 362.0 
392.00027887578017 95670.0 NaN 1516.4195056780213 0.5012243710130561 519.0 3.0 360.0 
394.00027887578017 95665.0 NaN 1516.4301937207736 0.5015251046861352 519.0 3.0 360.0 
396.00027887578017 95634.0 NaN 1519.425517702072 0.501301718442846 517.0 4.0 360.0 
398.00027887578017 95632.0 NaN 1516.2618570474274 0.5022628340365752 516.0 5.0 358.0 
400.00027887578017 95592.0 NaN 1513.2130928523723 0.5018485118779473 515.0 5.0 357.0 
402.00027887578017 95537.0 NaN 1513.1810287241155 0.5021040010468688 517.0 4.0 358.0 
404.00027887578017 95524.0 NaN 1510.1750167000662 0.5016279611563537 516.0 6.0 355.0 
406.00027887578017 95486.0 NaN 1519.4121576486298 0.5012673368670183 517.0 5.0 359.0 
408.00027887578017 95455.0 NaN 1519.4041416165658 0.5023970903665169 519.0 4.0 360.0 
410.00027887578017 95402.0 NaN 1519.4923179692728 0.5017468837077206 520.0 4.0 360.0 
412.00027887578017 95359.0 NaN 1525.6940547762183 0.500874309468703 520.0 4.0 362.0 
414.00027887578017 95374.0 NaN 1528.7027388109545 0.501817169659011 521.0 4.0 363.0 
416.00027887578017 95349.0 NaN 1522.458249833 0.5007210793254173 519.0 5.0 360.0 
418.00027887578017 95348.0 NaN 1522.460921843688 0.5016994503139428 516.0 5.0 360.0 
420.00027887578017 95318.0 NaN 1513.2798931195728 0.5010731798157226 513.0 6.0 356.0 
422.00027887578017 95276.0 NaN 1519.5136940547754 0.500551905777196 512.0 6.0 358.0 
424.00027887578017 95303.0 NaN 1510.2738810955254 0.5010810279106714 516.0 5.0 356.0 
426.00027887578017 95290.0 NaN 1513.2905811623252 0.5006728200835748 517.0 4.0 358.0 
428.00027887578017 95281.0 NaN 1531.727454909819 0.5029940029558791 518.0 4.0 364.0 
430.00027887578017 95242.0 NaN 1534.6800267201083 0.5020632021946838 522.0 4.0 365.0 
432.00027887578017 95186.0 NaN 1534.7201068804272 0.5008696412694914 522.0 5.0 364.0 
434.00027887578017 95210.0 NaN 1534.8456913827645 0.5011776593774431 522.0 5.0 364.0 
436.00027887578017 95198.0 NaN 1531.8156312625267 0.5012210103681886 522.0 5.0 363.0 
438.00027887578017 95161.0 NaN 1531.775551102203 0.5017620186131381 523.0 5.0 363.0 
440.00027887578017 95119.0 NaN 1534.8296593186365 0.5009238904105139 523.0 6.0 363.0 
442.00027887578017 95096.0 NaN 1544.109552438209 0.5020313859960728 523.0 7.0 365.0 
444.00027887578017 95095.0 NaN 1544.106880427521 0.5010268601745375 524.0 6.0 366.0 
446.00027887578017 95086.0 NaN 1534.8991315965272 0.5013975662609834 525.0 6.0 363.0 
448.00027887578017 95072.0 NaN 1541.007348029391 0.5013212886247412 526.0 5.0 366.0 
450.00027887578017 95056.0 NaN 1543.9893119572475 0.5007897769907327 527.0 4.0 368.0 
452.00027887578017 95067.0 NaN 1547.0407481629913 0.5016810015787436 525.0 5.0 368.0 
454.00027887578017 95092.0 NaN 1553.2451569806271 0.5013478135642948 524.0 6.0 369.0 
456.00027887578017 95076.0 NaN 1550.105544422179 0.5013124870970848 525.0 6.0 368.0 
458.00027887578017 95075.0 NaN 1550.0921843687363 0.5013885534588802 524.0 5.0 369.0 
460.00027887578017 95078.0 NaN 1553.2371409485636 0.5019789832556302 524.0 4.0 371.0 
462.00027887578017 95064.0 NaN 1553.3333333333337 0.5006846464621555 524.0 5.0 370.0 
464.00027887578017 95063.0 NaN 1553.370741482964 0.5007814049776339 528.0 4.0 371.0 
466.00027887578017 95041.0 NaN 1556.430193720773 0.5008778344599493 528.0 4.0 372.0 
468.00027887578017 95052.0 NaN 1547.1289245156997 0.5014321842818853 527.0 4.0 369.0 
470.00027887578017 95020.0 NaN 1544.024048096191 0.5007964301604009 524.0 4.0 368.0 
472.00027887578017 95006.0 NaN 1540.8790915163659 0.5013691591620841 525.0 3.0 368.0 
474.00027887578017 95006.0 NaN 1528.5718102872424 0.5007296837838707 520.0 4.0 363.0 
476.00027887578017 95001.0 NaN 1528.6332665330658 0.500929412019226 516.0 5.0 362.0 
478.00027887578017 95034.0 NaN 1528.6680026720096 0.5009910430147205 516.0 3.0 364.0 
480.00027887578017 95031.0 NaN 1528.6252505010007 0.5009790746215466 516.0 3.0 364.0 
482.00027887578017 95038.0 NaN 1528.555778223112 0.5002160863363555 516.0 3.0 364.0 
484.00027887578017 95095.0 NaN 1522.4529058116243 0.5011906938200617 517.0 2.0 363.0 
486.00027887578017 95082.0 NaN 1516.3340013360062 0.5013314541788677 515.0 2.0 361.0 
488.00027887578017 95099.0 NaN 1507.1422845691375 0.501882327909804 513.0 3.0 357.0 
490.00027887578017 95056.0 NaN 1504.0908483633928 0.5009600456589843 513.0 3.0 356.0 
492.00027887578017 95057.0 NaN 1504.0080160320638 0.5006131136810558 508.0 4.0 355.0 
494.00027887578017 95100.0 NaN 1500.9485637942546 0.5010371841129617 508.0 5.0 353.0 
496.00027887578017 95069.0 NaN 1497.899799599199 0.5009080694534346 512.0 3.0 354.0 
498.00027887578017 95088.0 NaN 1491.7247828991306 0.5016028746778494 512.0 2.0 353.0 
500.00027887578017 95056.0 NaN 1491.7221108884444 0.5007127738098627 511.0 2.0 353.0 
502.00027887578017 95058.0 NaN 1488.6412825651294 0.5005392476542916 510.0 4.0 350.0 
504.00027887578017 95097.0 NaN 1491.7675350701393 0.5009647799127689 514.0 3.0 352.0 
506.00027887578017 95086.0 NaN 1494.8884435537734 0.5016842909724201 512.0 4.0 352.0 
508.00027887578017 95055.0 NaN 1497.9639278557102 0.5027830061807361 511.0 4.0 353.0 
510.00027887578017 95014.0 NaN 1501.0794923179699 0.5005931021821127 511.0 3.0 355.0 
512.00027887578 95030.0 NaN 1494.8376753507007 0.5004215232255413 508.0 4.0 352.0 
514.00027887578 95058.0 NaN 1494.7922511690056 0.5007593905243252 509.0 3.0 353.0 
516.00027887578 95079.0 NaN 1494.7682030728113 0.5009143265991779 509.0 3.0 353.0 
518.00027887578 95089.0 NaN 1485.5738142952564 0.5031684804112104 509.0 3.0 350.0 
520.00027887578 95069.0 NaN 1482.5624582498338 0.5017220168404863 508.0 3.0 349.0 
522.00027887578 95098.0 NaN 1476.2965931863728 0.5002950013953082 508.0 3.0 347.0 
524.00027887578 95112.0 NaN 1476.2939211756836 0.5007756846489219 509.0 3.0 347.0 
526.00027887578 95109.0 NaN 1470.217768871075 0.5011890949935922 504.0 3.0 345.0 
528.00027887578 95151.0 NaN 1464.0881763527063 0.5014795997636765 510.0 3.0 343.0 
530.00027887578 95185.0 NaN 1464.0721442885763 0.5005509247255507 511.0 5.0 341.0 
532.00027887578 95211.0 NaN 1473.346693386773 0.5004034584099748 511.0 5.0 344.0 
534.00027887578 95241.0 NaN 1473.2772211088839 0.5012271184996696 513.0 3.0 346.0 
536.00027887578 95255.0 NaN 1473.3066132264535 0.50130223348319 511.0 3.0 346.0 
538.00027887578 95249.0 NaN 1470.1589846359377 0.5019712042971499 512.0 2.0 346.0 
540.00027887578 95262.0 NaN 1470.1696726786909 0.500430405698246 513.0 2.0 346.0 
542.00027887578 95299.0 NaN 1470.1456245824988 0.5003588640230006 511.0 3.0 345.0 
544.00027887578 95314.0 NaN 1467.1636606546435 0.5005891690012609 509.0 5.0 342.0 
546.00027887578 95321.0 NaN 1467.1903807615242 0.501052593286421 508.0 5.0 342.0 
548.00027887578 95338.0 NaN 1470.2231128924523 0.5010839170987719 510.0 6.0 342.0 
550.00027887578 95357.0 NaN 1470.2498329993327 0.5001003692502939 511.0 5.0 343.0 
552.00027887578 95380.0 NaN 1470.1162324649292 0.5005066512675747 513.0 4.0 344.0 
554.00027887578 95396.0 NaN 1467.019372077489 0.5005227073362499 514.0 3.0 344.0 
556.00027887578 95412.0 NaN 1464.034736138945 0.5004479424279125 512.0 3.0 343.0 
558.00027887578 95435.0 NaN 1467.1102204408817 0.5006814310581013 510.0 4.0 343.0 
560.00027887578 95466.0 NaN 1458.028056112225 0.5000182026617462 508.0 4.0 340.0 
562.00027887578 95556.0 NaN 1461.0420841683363 0.5008987656039284 504.0 4.0 341.0 
564.00027887578 95479.0 NaN 1464.0855043420179 0.5005064551888083 508.0 4.0 342.0 
566.00027887578 95515.0 NaN 1464.0641282565125 0.5002589665700538 510.0 3.0 343.0 
568.00027887578 95528.0 NaN 1473.319973279892 0.5023764431373838 512.0 3.0 346.0 
570.00027887578 95469.0 NaN 1476.4034736138938 0.5000891005972682 511.0 3.0 347.0 
572.00027887578 95478.0 NaN 1485.6486305945214 0.5015050804488596 511.0 4.0 349.0 
574.00027887578 95343.0 NaN 1488.742818971275 0.5009012498053372 512.0 4.0 350.0 
576.00027887578 95384.0 NaN 1488.7428189712748 0.5006321855561516 514.0 4.0 350.0 
578.00027887578 95404.0 NaN 1485.6085504342013 0.5007568883197595 512.0 4.0 349.0 
580.00027887578 95370.0 NaN 1488.643954575818 0.5004679992998154 512.0 3.0 351.0 
582.00027887578 95400.0 NaN 1488.66800267201 0.5024753028235969 513.0 3.0 351.0 
584.00027887578 95313.0 NaN 1485.6486305945214 0.5009879880106809 513.0 3.0 350.0 
586.00027887578 95354.0 NaN 1488.774883099533 0.5005039519184654 516.0 4.0 350.0 
588.00027887578 95390.0 NaN 1488.7214428857728 0.5008159499868895 515.0 4.0 350.0 
590.00027887578 95360.0 NaN 1491.7648630594533 0.5009185624960911 516.0 4.0 351.0 
592.00027887578 95381.0 NaN 1497.9131596526374 0.5022552387343681 519.0 4.0 353.0 
594.00027887578 95298.0 NaN 1488.5958583834347 0.4998621220082721 521.0 3.0 351.0 
596.00027887578 95319.0 NaN 1485.563126252506 0.5001310544837129 520.0 3.0 350.0 
598.00027887578 95372.0 NaN 1485.6165664662649 0.5001856331704757 520.0 3.0 350.0 
600.00027887578 95366.0 NaN 1488.6546426185714 0.5007275369819058 520.0 3.0 351.0 
602.00027887578 95398.0 NaN 1497.8517034068152 0.5003226591587641 522.0 3.0 354.0 
604.00027887578 95389.0 NaN 1497.8383433533727 0.5006063129082768 521.0 3.0 354.0 
606.00027887578 95411.0 NaN 1494.7975951903818 0.5001395126515268 523.0 3.0 353.0 
608.00027887578 95483.0 NaN 1494.789579158317 0.5006951885923668 519.0 3.0 353.0 
610.00027887578 95466.0 NaN 1494.8109552438198 0.5009846765683633 518.0 4.0 352.0 
612.00027887578 95459.0 NaN 1497.8142952571818 0.5010505951683732 516.0 6.0 351.0 
614.00027887578 95450.0 NaN 1501.0207080828332 0.4999522073584581 518.0 6.0 352.0 
616.00027887578 95486.0 NaN 1507.2464929859727 0.5004139853247481 522.0 4.0 356.0 
618.00027887578 95504.0 NaN 1516.358049432199 0.5008478462520355 521.0 3.0 360.0 
620.00027887578 95483.0 NaN 1516.2618570474274 0.5006480342721806 520.0 4.0 359.0 
622.00027887578 95494.0 NaN 1513.098196392785 0.4999863316062817 522.0 3.0 359.0 
624.00027887578 95500.0 NaN 1516.2057448229798 0.4999758273292288 520.0 5.0 358.0 
626.00027887578 95522.0 NaN 1522.4154976619911 0.5008063903982989 520.0 4.0 361.0 
628.00027887578 95501.0 NaN 1522.4742818971272 0.5011153118252955 517.0 4.0 361.0 
630.00027887578 95446.0 NaN 1522.442217768872 0.5013463063668921 522.0 3.0 362.0 
632.00027887578 95424.0 NaN 1522.388777555109 0.5004615967136147 521.0 3.0 362.0 
634.00027887578 95416.0 NaN 1519.4415497662 0.500519842206606 525.0 3.0 361.0 
636.00027887578 95406.0 NaN 1519.3881095524373 0.5017852806537851 526.0 3.0 361.0 
638.00027887578 95357.0 NaN 1519.353373413493 0.5016657606812805 527.0 3.0 361.0 
640.00027887578 95251.0 NaN 1516.2725450901812 0.5012180630034895 524.0 4.0 359.0 
642.00027887578 95202.0 NaN 1519.3480293921184 0.500008258686183 524.0 3.0 361.0 
644.00027887578 95211.0 NaN 1522.5250501002 0.501684324582329 524.0 3.0 362.0 
646.00027887578 95212.0 NaN 1519.4762859051446 0.5009644744170041 525.0 3.0 361.0 
648.00027887578 95219.0 NaN 1519.4575818303274 0.5013323951197285 524.0 3.0 361.0 
650.00027887578 95194.0 NaN 1519.4468937875745 0.5025121499805558 521.0 3.0 361.0 
652.00027887578 95200.0 NaN 1516.3473613894453 0.5003280681186669 520.0 3.0 360.0 
654.00027887578 95213.0 NaN 1519.4308617234462 0.5004061311886944 518.0 3.0 361.0 
656.00027887578 95288.0 NaN 1528.6118904475627 0.5009481700224679 516.0 3.0 364.0 
658.00027887578 95298.0 NaN 1531.7835671342696 0.5013763749213002 513.0 4.0 364.0 
660.00027887578 95233.0 NaN 1531.7675350701395 0.5011767083126419 514.0 3.0 365.0 
662.00027887578 95219.0 NaN 1537.9265197060797 0.5004229368852923 513.0 3.0 367.0 
664.00027887578 95217.0 NaN 1537.8223112892456 0.5008529166805604 514.0 3.0 367.0 
#####################################################################
# End of data export. Simulation finished at: 2019-03-21T12:33+0000 #
#####################################################################
