#####################################################################
# Alchemist log file - simulation started at: 2019-03-06T16:37+0000 #
#####################################################################
# seed = 4.0, bandwidth = 316227.76601683797, propagationDelay = 0.001, baserange = 17.78279410038923
#
# The columns have the following meaning: 
# time neighbor_count[Sum] <value>@neighbor_count[Sum] packet_size[Mean] mean_delay[Mean] crowd[Sum] overcrowded[Sum] risk[Sum] 
0.0 NaN NaN NaN NaN NaN NaN NaN 
2.000175339220969 1117.0 NaN 4993.795591182365 0.4983938517650277 1497.0 0.0 1497.0 
4.000175339220969 1118.0 NaN 4995.772879091516 0.49879784829729884 1496.0 1.0 1496.0 
6.00017533922097 1118.0 NaN 4993.50167000668 0.4988085589821338 1493.0 4.0 1493.0 
8.00017533922097 1118.0 NaN 4993.164996659987 0.4988230803721937 1488.0 9.0 1488.0 
10.000175339220968 1118.0 NaN 4993.287909151637 0.5005241009785841 1487.0 10.0 1487.0 
12.000175339220968 1118.0 NaN 4992.36873747495 0.5102883713677754 1487.0 10.0 1487.0 
14.000175339220968 1112.0 NaN 4992.809619238477 0.49686856134445595 1487.0 10.0 1487.0 
16.00017533922097 1118.0 NaN 4992.467601870408 0.5018666196242255 1487.0 10.0 1487.0 
18.00017533922097 1113.0 NaN 4992.237808951236 0.5005314539270372 1487.0 10.0 1487.0 
20.00017533922097 1112.0 NaN 4992.390113560455 0.4964773396423104 1487.0 10.0 1487.0 
22.00017533922097 1112.0 NaN 4992.125584502338 0.4964803302038938 1487.0 10.0 1487.0 
24.00017533922097 1114.0 NaN 4992.240480961924 0.49603264931857804 1487.0 10.0 1487.0 
26.00017533922097 1120.0 NaN 4991.898463593854 0.5024605530754166 1487.0 10.0 1487.0 
28.00017533922097 1114.0 NaN 4992.192384769539 0.49632246076388153 1487.0 10.0 1487.0 
30.00017533922097 1120.0 NaN 4992.256513026052 0.49963335356551264 1487.0 10.0 1487.0 
32.00017533922097 1120.0 NaN 4991.98663994656 0.5016565282789318 1487.0 10.0 1487.0 
34.00017533922097 1118.0 NaN 4992.066800267201 0.49572310155045346 1487.0 10.0 1487.0 
36.00017533922097 1124.0 NaN 4992.002672010688 0.5057796886896749 1487.0 10.0 1487.0 
38.00017533922097 1122.0 NaN 4992.114896459586 0.49634089109443547 1487.0 10.0 1487.0 
40.00017533922097 1125.0 NaN 4992.301937207749 0.4962585618583952 1487.0 10.0 1487.0 
42.00017533922097 1127.0 NaN 4991.922511690047 0.5019796463772056 1487.0 10.0 1487.0 
44.00017533922097 1127.0 NaN 4991.919839679359 0.5013918213195282 1487.0 10.0 1487.0 
46.00017533922097 1140.0 NaN 4992.192384769539 0.5088889974816837 1487.0 10.0 1487.0 
48.00017533922097 1135.0 NaN 4992.352705410822 0.4990721316636299 1487.0 10.0 1487.0 
50.00017533922097 1139.0 NaN 4992.018704074816 0.50209370078604 1487.0 10.0 1487.0 
52.00017533922097 1138.0 NaN 4992.261857047428 0.50742870248987 1487.0 10.0 1487.0 
54.00017533922097 1135.0 NaN 4992.240480961924 0.5094454684189296 1487.0 10.0 1487.0 
56.00017533922097 1138.0 NaN 4991.885103540414 0.5183799328731633 1487.0 10.0 1487.0 
58.00017533922097 1124.0 NaN 4992.411489645959 0.502120462874979 1487.0 10.0 1487.0 
60.00017533922097 1129.0 NaN 4992.296593186373 0.5072996178864697 1487.0 10.0 1487.0 
62.00011295095059 1123.0 NaN 974.7414829659347 0.5090642552758452 484.0 9.0 178.0 
64.00042902272939 1126.0 NaN 977.6245824983286 0.5062081455613473 472.0 9.0 179.0 
66.00047933655907 1130.0 NaN 980.6626586506363 0.5207626164808532 418.0 9.0 180.0 
68.00047933655907 1118.0 NaN 980.625250501 0.5105086398571929 366.0 9.0 180.0 
70.00047933655907 1121.0 NaN 980.5584502337998 0.501715407113584 341.0 9.0 180.0 
72.00047933655907 1121.0 NaN 977.5043420173652 0.509981036373257 325.0 9.0 179.0 
74.00042902272939 1122.0 NaN 977.4455577822289 0.5013003533449321 319.0 9.0 179.0 
76.00047933655907 1128.0 NaN 977.4642618570455 0.5044637273292675 308.0 9.0 179.0 
78.00047933655907 1126.0 NaN 977.4696058784257 0.5049339865993345 298.0 9.0 179.0 
80.00047933655907 1123.0 NaN 977.4295257181013 0.5074037016801989 293.0 9.0 179.0 
82.00047933655907 1121.0 NaN 977.4215096860378 0.5233176701240385 291.0 9.0 179.0 
84.00042902272939 1114.0 NaN 977.4856379425531 0.5070689259086487 287.0 9.0 179.0 
86.00047933655907 1118.0 NaN 983.6873747495002 0.5059090982769512 284.0 9.0 181.0 
88.00047933655907 1116.0 NaN 980.601202404809 0.5027070895091418 281.0 9.0 180.0 
90.00047933655907 1120.0 NaN 983.6793587174365 0.5087705408691411 283.0 9.0 181.0 
92.00047933655907 1114.0 NaN 980.6760187040726 0.5064549738025379 282.0 9.0 180.0 
94.00042902272939 1110.0 NaN 980.6519706078817 0.5106347209950519 281.0 9.0 180.0 
96.00047933655907 1118.0 NaN 986.7227788911163 0.5119447659339476 280.0 9.0 182.0 
98.00047933655907 1111.0 NaN 986.8002672010708 0.5089660079995395 281.0 9.0 182.0 
100.00047933655907 1108.0 NaN 989.8837675350709 0.5146501686578808 281.0 9.0 183.0 
102.00047933655907 1098.0 NaN 989.8329993319983 0.5167272874814319 278.0 9.0 183.0 
104.00042902272939 1096.0 NaN 989.7368069472271 0.49862646940423067 278.0 9.0 183.0 
106.00047933655907 1104.0 NaN 989.830327321309 0.5119358605977112 279.0 9.0 183.0 
108.00047933655907 1095.0 NaN 989.7287909151637 0.5166454618566165 279.0 9.0 183.0 
110.00047933655907 1103.0 NaN 992.7107548430181 0.5067491169738935 280.0 9.0 184.0 
112.00047933655907 1098.0 NaN 989.6967267869093 0.5028082559533316 279.0 9.0 183.0 
114.00042902272939 1100.0 NaN 983.5457581830342 0.5092110472300968 276.0 9.0 181.0 
116.00047933655907 1099.0 NaN 980.5290581162344 0.5152980055418468 275.0 9.0 180.0 
118.00047933655907 1090.0 NaN 983.6125584502346 0.5093671554448037 272.0 9.0 181.0 
120.00047933655907 1094.0 NaN 986.6666666666652 0.511319084882403 272.0 9.0 182.0 
122.00047933655907 1089.0 NaN 983.6873747495002 0.5020745814467573 271.0 9.0 181.0 
124.00042902272939 1097.0 NaN 983.5804943219802 0.5028230157928704 268.0 9.0 181.0 
126.00047933655907 1100.0 NaN 983.5885103540437 0.514033698854704 271.0 9.0 181.0 
128.00047933655907 1101.0 NaN 977.4936539746184 0.5069596734602917 269.0 9.0 179.0 
130.00047933655907 1112.0 NaN 983.6152304609209 0.518070508651228 272.0 9.0 181.0 
132.00047933655907 1117.0 NaN 983.6045424181701 0.5123698687996086 267.0 9.0 181.0 
134.0004290227294 1116.0 NaN 992.8416833667338 0.5055204529265186 267.0 9.0 184.0 
136.00047933655907 1121.0 NaN 995.9706078824297 0.5073382544581428 270.0 9.0 185.0 
138.00047933655907 1122.0 NaN 995.9144956579817 0.5142337758267876 273.0 9.0 185.0 
140.00047933655907 1129.0 NaN 1002.0440881763545 0.513947488028964 274.0 9.0 187.0 
142.00047933655907 1135.0 NaN 1002.1937207748819 0.5062639539038369 276.0 9.0 187.0 
144.0004290227294 1133.0 NaN 1002.1830327321296 0.5087977828561072 277.0 9.0 187.0 
146.00011295095058 1130.0 NaN 989.859719438879 0.5074455160379171 277.0 9.0 183.0 
148.00011295095058 1128.0 NaN 989.7875751502999 0.5167415780351173 277.0 9.0 183.0 
150.00011295095058 1135.0 NaN 989.8436873747482 0.5106312388313848 273.0 9.0 183.0 
152.00011295095058 1142.0 NaN 989.9024716098883 0.5207892159028216 270.0 9.0 183.0 
154.00011295095058 1140.0 NaN 992.927187708752 0.5033237486962289 270.0 9.0 184.0 
156.00011295095058 1154.0 NaN 996.0427521710093 0.51003615113797 269.0 9.0 185.0 
158.00011295095058 1146.0 NaN 996.0961923847705 0.5085067172415982 269.0 9.0 185.0 
160.00011295095058 1151.0 NaN 989.9024716098884 0.5109469949697203 270.0 9.0 183.0 
162.00011295095058 1159.0 NaN 989.8784235136934 0.5203101851916554 272.0 9.0 183.0 
164.00011295095058 1143.0 NaN 992.8470273881089 0.5109434889482675 274.0 9.0 184.0 
166.00011295095058 1146.0 NaN 992.8924515698068 0.5090678773360646 278.0 9.0 184.0 
168.00011295095058 1147.0 NaN 989.814295257182 0.5092024970156979 277.0 9.0 183.0 
170.00011295095058 1155.0 NaN 989.8410153640638 0.5105962626970353 278.0 9.0 183.0 
172.00011295095058 1158.0 NaN 992.9458917835659 0.5235120208540113 280.0 9.0 184.0 
174.00011295095058 1146.0 NaN 986.7575150300611 0.5122352711177436 277.0 9.0 182.0 
176.00011295095058 1140.0 NaN 986.7869071476274 0.5148430026912677 278.0 9.0 182.0 
178.00011295095058 1135.0 NaN 992.8817635270547 0.5064798846829208 276.0 9.0 184.0 
180.00011295095058 1141.0 NaN 989.7849031396117 0.5162175261483519 276.0 9.0 183.0 
182.00011295095058 1130.0 NaN 974.5036740146973 0.5054663860205569 275.0 9.0 178.0 
184.00011295095058 1128.0 NaN 974.3834335337364 0.5045383305406055 275.0 9.0 178.0 
186.00011295095058 1131.0 NaN 974.3914495657998 0.5224686232777122 274.0 9.0 178.0 
188.00011295095058 1125.0 NaN 974.303273213091 0.5129101876816233 275.0 9.0 178.0 
190.00011295095058 1142.0 NaN 977.4108216432883 0.5097258345298947 277.0 9.0 179.0 
192.00011295095058 1139.0 NaN 977.4108216432883 0.5071651962691968 273.0 9.0 179.0 
194.00011295095058 1136.0 NaN 977.352037408148 0.5067300483986817 274.0 9.0 179.0 
196.00011295095058 1129.0 NaN 980.4729458917819 0.5096235500326994 274.0 9.0 180.0 
198.00011295095058 1135.0 NaN 980.4542418169661 0.5130525967705919 274.0 9.0 180.0 
200.00011295095058 1147.0 NaN 980.4488977955907 0.5061909821361357 274.0 9.0 180.0 
202.00011295095058 1155.0 NaN 983.5698062792272 0.5346068957901287 276.0 9.0 181.0 
204.00011295095058 1138.0 NaN 983.5083500333999 0.5142562400094141 276.0 9.0 181.0 
206.00011295095058 1139.0 NaN 983.5804943219797 0.5051156071812839 272.0 9.0 181.0 
208.00011295095058 1141.0 NaN 983.5484301937202 0.5102416531833427 267.0 9.0 181.0 
210.00011295095058 1155.0 NaN 989.7448229792907 0.5160213418909386 269.0 9.0 183.0 
212.00011295095058 1149.0 NaN 986.6666666666656 0.5198755075105423 267.0 10.0 181.0 
214.00011295095058 1148.0 NaN 986.6372745490999 0.49920770066571896 263.0 14.0 177.0 
216.00011295095058 1157.0 NaN 989.7207748831001 0.5100650377443374 269.0 9.0 183.0 
218.00011295095058 1152.0 NaN 989.7421509686023 0.5165396341788304 270.0 9.0 183.0 
220.00011295095058 1156.0 NaN 989.7955911823634 0.5085429494611867 274.0 9.0 183.0 
222.00011295095058 1154.0 NaN 983.6285905143635 0.5238842918131761 277.0 9.0 181.0 
224.00011295095058 1147.0 NaN 977.4215096860386 0.5045919885210474 277.0 9.0 179.0 
226.00011295095058 1149.0 NaN 980.5557782231112 0.5344316484885193 277.0 9.0 180.0 
228.00011295095058 1144.0 NaN 980.5290581162342 0.5124830711699337 275.0 9.0 180.0 
230.00011295095058 1148.0 NaN 980.4996659986635 0.5144330651621558 275.0 9.0 180.0 
232.00011295095058 1142.0 NaN 977.4722778891112 0.5339064386849164 272.0 9.0 179.0 
234.00011295095058 1137.0 NaN 977.3841015364069 0.5264920690321327 269.0 9.0 179.0 
236.00011295095058 1137.0 NaN 974.415497661991 0.5058007722311357 265.0 9.0 178.0 
238.00011295095058 1142.0 NaN 974.4555778223089 0.528681711740633 265.0 9.0 178.0 
240.00011295095058 1147.0 NaN 971.3453573814271 0.5056981813655828 263.0 9.0 177.0 
242.00011295095058 1144.0 NaN 968.2645290581182 0.5280721378133852 264.0 9.0 176.0 
244.00011295095058 1127.0 NaN 968.2191048764182 0.5077082117627469 264.0 9.0 176.0 
246.00011295095058 1133.0 NaN 968.2351369405453 0.5096819389993318 262.0 9.0 176.0 
248.00011295095058 1130.0 NaN 968.152304609218 0.511861197580429 262.0 9.0 176.0 
250.00011295095058 1132.0 NaN 968.1923847695386 0.523569903345324 263.0 9.0 176.0 
252.00011295095058 1120.0 NaN 962.0627922511701 0.5212042010121485 262.0 9.0 174.0 
254.00011295095058 1112.0 NaN 962.0066800267182 0.5077567137719858 263.0 9.0 174.0 
256.0001129509506 1129.0 NaN 962.0494321977274 0.5146270949479499 266.0 9.0 174.0 
258.0001129509506 1131.0 NaN 965.1088844355364 0.5253179399755606 266.0 9.0 175.0 
260.0001129509506 1124.0 NaN 965.1730126920521 0.5178943705776813 266.0 9.0 175.0 
262.0001129509506 1124.0 NaN 968.2297929191731 0.5296407558449902 265.0 9.0 176.0 
264.0001129509506 1123.0 NaN 968.2752171008698 0.5098431997462508 265.0 9.0 176.0 
266.0001129509506 1124.0 NaN 971.326653306612 0.5094167443979706 270.0 9.0 177.0 
268.0001129509506 1120.0 NaN 971.2251169004666 0.5092797354348783 270.0 9.0 177.0 
270.0001129509506 1118.0 NaN 971.2571810287245 0.5121597389268472 271.0 9.0 177.0 
272.0001129509506 1114.0 NaN 965.1783567134274 0.5246572415186387 271.0 9.0 175.0 
274.0001129509506 1103.0 NaN 965.020708082833 0.5127433567162253 271.0 9.0 175.0 
276.0001129509506 1116.0 NaN 977.4161656646638 0.5136698606933233 270.0 9.0 179.0 
278.0001129509506 1116.0 NaN 980.4595858383456 0.5282846814885307 271.0 9.0 180.0 
280.0001129509506 1109.0 NaN 980.4515698062793 0.5230651939593478 271.0 9.0 180.0 
282.0001129509506 1100.0 NaN 971.2358049432182 0.5236449959996831 267.0 9.0 177.0 
284.0001129509506 1096.0 NaN 971.1476285905156 0.5089072938563579 266.0 9.0 177.0 
286.0001129509506 1099.0 NaN 968.1469605878428 0.511728690047564 265.0 9.0 176.0 
288.0001129509506 1097.0 NaN 971.1583166332662 0.5041391173291998 266.0 9.0 177.0 
290.0001129509506 1098.0 NaN 968.0774883099546 0.5145704880296126 266.0 9.0 176.0 
292.0001129509506 1097.0 NaN 965.0741482965907 0.5174811088607543 265.0 9.0 175.0 
294.0001129509506 1100.0 NaN 974.2818971275877 0.5031658397836102 265.0 9.0 178.0 
296.0001129509506 1109.0 NaN 977.4108216432878 0.5090210355342257 267.0 9.0 179.0 
298.0001129509506 1106.0 NaN 971.3132932531726 0.5153065421183727 266.0 9.0 177.0 
300.0001129509506 1107.0 NaN 971.2491649966603 0.5176136059438075 264.0 9.0 177.0 
302.0001129509506 1103.0 NaN 965.0875083500331 0.5138102131236658 267.0 9.0 175.0 
304.0001129509506 1106.0 NaN 965.0447561790239 0.507787550091752 266.0 9.0 175.0 
306.0001129509506 1112.0 NaN 968.1629926519729 0.5216605120611707 270.0 9.0 176.0 
308.0001129509506 1098.0 NaN 965.1088844355364 0.5099778565006702 271.0 9.0 175.0 
310.0001129509506 1091.0 NaN 955.8824315297276 0.5240477589056316 271.0 9.0 172.0 
312.0001129509506 1087.0 NaN 962.0307281229133 0.5075902390977628 270.0 9.0 174.0 
314.0001129509506 1086.0 NaN 961.9746158984638 0.5106192566484489 271.0 9.0 174.0 
316.0001129509506 1100.0 NaN 974.3246492985968 0.514838844375449 277.0 9.0 178.0 
318.0001129509506 1104.0 NaN 974.2658650634601 0.5022096298839582 277.0 9.0 178.0 
320.0001129509506 1117.0 NaN 980.5664662658637 0.5192207726031178 277.0 9.0 180.0 
322.0001129509506 1110.0 NaN 974.4235136940545 0.5224953628685933 275.0 9.0 178.0 
324.0001129509506 1107.0 NaN 971.2812291249181 0.5068995552047938 275.0 9.0 177.0 
326.0001129509506 1111.0 NaN 974.3486973947909 0.5126694047374425 275.0 9.0 178.0 
328.0001129509506 1105.0 NaN 962.0708082832322 0.5168429357755753 272.0 9.0 174.0 
330.0001129509506 1108.0 NaN 959.0247160988635 0.5225968156508795 272.0 9.0 173.0 
332.0001129509506 1101.0 NaN 965.138276553105 0.5213778674162988 272.0 9.0 175.0 
334.0001129509506 1096.0 NaN 965.0634602538411 0.5023251406408603 273.0 9.0 175.0 
336.0001129509506 1107.0 NaN 965.1249164996676 0.5099991159305112 273.0 9.0 175.0 
338.0001129509506 1105.0 NaN 965.1008684034726 0.5158172838263669 271.0 9.0 175.0 
340.0001129509506 1100.0 NaN 958.9659318637272 0.5201337063033454 270.0 9.0 173.0 
342.0001129509506 1100.0 NaN 962.0708082832324 0.5351387447048581 270.0 9.0 174.0 
344.0001129509506 1083.0 NaN 958.9338677354717 0.5162067879370886 268.0 9.0 173.0 
346.0001129509506 1089.0 NaN 962.0280561122233 0.5342175818613438 270.0 9.0 174.0 
348.0001129509506 1070.0 NaN 959.0781563126266 0.5030090675645523 271.0 9.0 173.0 
350.0001129509506 1073.0 NaN 959.0193720774869 0.5176886083024477 269.0 9.0 173.0 
352.0001129509506 1066.0 NaN 962.1830327321318 0.5101951293507726 266.0 9.0 174.0 
354.0001129509506 1060.0 NaN 962.0173680694728 0.5126413259929333 264.0 9.0 174.0 
356.0001129509506 1066.0 NaN 962.0521042084177 0.5208473338959825 267.0 9.0 174.0 
358.0001129509506 1062.0 NaN 943.63126252505 0.504925324098948 262.0 9.0 168.0 
360.0001129509506 1068.0 NaN 943.6285905143627 0.523863336419218 259.0 9.0 168.0 
362.0001129509506 1068.0 NaN 943.6232464929865 0.5066607370215177 258.0 9.0 168.0 
364.0001129509506 1066.0 NaN 943.5831663326645 0.5033892192923317 260.0 9.0 168.0 
366.0001129509506 1068.0 NaN 934.3941215764864 0.5070341208313501 262.0 9.0 165.0 
368.0001129509506 1062.0 NaN 934.3807615230454 0.5083523847760621 262.0 9.0 165.0 
370.0001129509506 1070.0 NaN 931.3266533066137 0.5188086985147375 262.0 9.0 164.0 
372.0001129509506 1066.0 NaN 934.3326653306601 0.5253362761138048 260.0 9.0 165.0 
374.0001129509506 1054.0 NaN 934.3967935871734 0.4973306097749412 258.0 9.0 165.0 
376.0001129509506 1072.0 NaN 937.5257181028728 0.5067854896354652 261.0 9.0 166.0 
378.0001129509506 1074.0 NaN 931.3266533066135 0.5058146592740793 260.0 9.0 164.0 
380.0001129509506 1081.0 NaN 934.3620574482311 0.5069969206520766 260.0 9.0 165.0 
382.0001129509506 1082.0 NaN 922.1776887107544 0.5195372944357104 256.0 9.0 161.0 
384.0001129509506 1076.0 NaN 919.0487641950552 0.5114596259453126 254.0 9.0 160.0 
386.0001129509506 1084.0 NaN 919.1182364729453 0.5226698887957407 250.0 9.0 160.0 
388.0001129509506 1069.0 NaN 919.1262525050089 0.5129105963673304 250.0 9.0 160.0 
390.0001129509506 1086.0 NaN 922.2471609886447 0.5190524193092718 249.0 9.0 161.0 
392.0001129509506 1080.0 NaN 925.3386773547089 0.5414438619911844 249.0 9.0 162.0 
394.0001129509506 1072.0 NaN 928.3954575818311 0.5000893182734956 247.0 9.0 163.0 
396.0001129509506 1089.0 NaN 931.5003340013365 0.5131228128931246 248.0 9.0 164.0 
398.0001129509506 1077.0 NaN 928.3553774215089 0.5124250430023412 248.0 9.0 163.0 
400.0001129509506 1085.0 NaN 928.3687374749497 0.5207567918507954 248.0 9.0 163.0 
402.0001129509506 1084.0 NaN 928.4301937207732 0.5377136613840202 249.0 9.0 163.0 
404.0001129509506 1077.0 NaN 922.2364729458907 0.528006933300852 249.0 9.0 161.0 
406.0001129509506 1079.0 NaN 919.1235804943224 0.5118164179869735 248.0 10.0 159.0 
408.0001129509506 1079.0 NaN 919.1155644622581 0.5196311629538113 244.0 12.0 157.0 
410.0001129509506 1082.0 NaN 912.9832999332001 0.5326630988232808 242.0 15.0 152.0 
412.0001129509506 1083.0 NaN 922.2017368069457 0.5175159481060448 247.0 13.0 157.0 
414.0001129509506 1079.0 NaN 922.2498329993329 0.5160276864406408 247.0 11.0 159.0 
416.0001129509506 1087.0 NaN 928.4061456245817 0.5121294797890185 253.0 9.0 163.0 
418.0001129509506 1084.0 NaN 931.4335337341362 0.5216180414811129 253.0 9.0 164.0 
420.0001129509506 1082.0 NaN 931.3907815631275 0.5157365099399334 251.0 9.0 164.0 
422.0001129509506 1080.0 NaN 934.4502338009366 0.5379665978720792 252.0 9.0 165.0 
424.0001129509506 1074.0 NaN 934.3674014696064 0.5030366654046722 250.0 9.0 165.0 
426.0001129509506 1080.0 NaN 934.4876419505667 0.5160905357985323 249.0 9.0 165.0 
428.0001129509506 1074.0 NaN 931.3293253173003 0.5102635207224455 247.0 9.0 164.0 
430.0001129509506 1082.0 NaN 925.1062124248492 0.5094466348899744 248.0 9.0 162.0 
432.0001129509506 1086.0 NaN 922.1883767535088 0.5300888366945892 245.0 9.0 161.0 
434.0001129509506 1079.0 NaN 922.1670006680035 0.49776486400381453 247.0 9.0 161.0 
436.0001129509506 1100.0 NaN 928.323313293254 0.5313707739369837 251.0 9.0 163.0 
438.0001129509506 1085.0 NaN 931.3667334669328 0.5288371953130947 247.0 9.0 164.0 
440.0001129509506 1091.0 NaN 934.4395457581824 0.506629881721143 247.0 9.0 165.0 
442.0001129509506 1093.0 NaN 937.5951903807633 0.5174970195956617 248.0 9.0 166.0 
444.0001129509506 1086.0 NaN 937.4909819639271 0.5039221805739507 249.0 9.0 166.0 
446.0001129509506 1093.0 NaN 943.7221108884452 0.5153015992924993 249.0 9.0 168.0 
448.0001129509506 1091.0 NaN 946.7521710086821 0.5150508541872414 247.0 9.0 169.0 
450.0001129509506 1103.0 NaN 946.7094188376758 0.5254259398943416 251.0 9.0 169.0 
452.0001129509506 1097.0 NaN 943.6686706746817 0.5175529627529848 249.0 10.0 167.0 
454.0001129509506 1090.0 NaN 943.6072144288573 0.5210854495713827 245.0 15.0 162.0 
456.0001129509506 1090.0 NaN 940.5905143620577 0.5218828932552501 242.0 18.0 158.0 
458.0001129509506 1090.0 NaN 940.5744822979275 0.5056199305856726 240.0 20.0 156.0 
460.0001129509506 1099.0 NaN 940.4702738810963 0.5261996705964747 242.0 20.0 156.0 
462.0001129509506 1093.0 NaN 931.3640614562454 0.5138237239967643 241.0 19.0 154.0 
464.0001129509506 1088.0 NaN 931.3159652638599 0.5041946497959545 238.0 19.0 154.0 
466.0001129509506 1097.0 NaN 934.4502338009364 0.5175180876059862 239.0 20.0 154.0 
468.0001129509506 1088.0 NaN 934.4048096192367 0.526774703951415 238.0 20.0 154.0 
470.0001129509506 1084.0 NaN 931.3186372745497 0.5281993115305538 236.0 21.0 152.0 
472.0001129509506 1066.0 NaN 928.2297929191728 0.5198728184864427 235.0 21.0 151.0 
474.0001129509506 1056.0 NaN 925.2184368737459 0.5053506394435061 237.0 18.0 153.0 
476.0001129509506 1057.0 NaN 925.2264529058128 0.5358961687016894 244.0 12.0 159.0 
478.0001129509506 1042.0 NaN 922.1670006680039 0.5064922694356407 240.0 12.0 158.0 
480.0001129509506 1063.0 NaN 931.3907815631273 0.5161350386384512 241.0 12.0 161.0 
482.0001129509506 1070.0 NaN 925.2798931195729 0.5063761098055811 243.0 11.0 160.0 
484.0001129509506 1063.0 NaN 925.2424849699407 0.5069529456378163 243.0 11.0 160.0 
486.0001129509506 1074.0 NaN 925.2371409485636 0.5161303810426865 242.0 12.0 159.0 
488.0001129509506 1056.0 NaN 922.0627922511683 0.4984371725838566 244.0 10.0 160.0 
490.0001129509506 1068.0 NaN 922.1349365397454 0.5233205193820026 244.0 9.0 161.0 
492.0001129509506 1063.0 NaN 915.9706078824319 0.5240037822502361 242.0 9.0 159.0 
494.0001129509506 1054.0 NaN 915.8423513694045 0.5014553891278678 243.0 9.0 159.0 
496.0001129509506 1063.0 NaN 912.8764195056773 0.5275596894012085 243.0 9.0 158.0 
498.0001129509506 1055.0 NaN 912.814963259854 0.5014669698569887 243.0 9.0 158.0 
500.0001129509506 1077.0 NaN 912.8309953239819 0.5096504940382609 241.0 9.0 158.0 
502.0001129509506 1076.0 NaN 903.6953907815638 0.5254643182789983 240.0 10.0 154.0 
504.0001129509506 1061.0 NaN 903.604542418169 0.5003169726762139 239.0 11.0 153.0 
506.0001129509506 1073.0 NaN 903.7060788243144 0.5163225754682113 242.0 9.0 155.0 
508.0001129509506 1066.0 NaN 900.6092184368725 0.5024761942947673 238.0 9.0 154.0 
510.0001129509506 1077.0 NaN 894.4181696726782 0.5279394470625183 238.0 9.0 152.0 
512.0001129509506 1065.0 NaN 891.3961255845032 0.5191192487066681 238.0 9.0 151.0 
514.0001129509506 1061.0 NaN 894.4395457581828 0.5011311802892626 239.0 9.0 152.0 
516.0001129509506 1067.0 NaN 894.4208416833674 0.521999755127946 239.0 9.0 152.0 
518.0001129509506 1053.0 NaN 894.5010020040093 0.5086544781666957 239.0 9.0 152.0 
520.0001129509506 1058.0 NaN 894.4929859719446 0.5213889493922341 238.0 9.0 152.0 
522.0001129509506 1048.0 NaN 894.4716098864401 0.526319100943548 236.0 9.0 152.0 
524.0001129509506 1039.0 NaN 894.4689378757508 0.5070119354772807 236.0 9.0 152.0 
526.0001129509506 1040.0 NaN 891.4495657982637 0.5305714062823148 234.0 9.0 151.0 
528.0001129509506 1026.0 NaN 879.1422845691382 0.5108414134653834 234.0 9.0 147.0 
530.0001129509506 1026.0 NaN 879.1155644622575 0.5155413885503439 234.0 9.0 147.0 
532.0001129509506 1026.0 NaN 879.1609886439546 0.5118011348484085 232.0 9.0 147.0 
534.0001129509506 1024.0 NaN 879.136940547762 0.5010342423521768 233.0 9.0 147.0 
536.0001129509506 1045.0 NaN 888.4114896459591 0.5043477179486379 238.0 9.0 150.0 
538.0001129509506 1051.0 NaN 888.3927855711424 0.5083720098817099 237.0 9.0 150.0 
540.0001129509506 1053.0 NaN 888.4008016032062 0.5048926941315169 237.0 9.0 150.0 
542.0001129509506 1056.0 NaN 888.3633934535728 0.5088564877722406 239.0 9.0 150.0 
544.0001129509506 1053.0 NaN 888.4114896459591 0.5156051787940307 241.0 9.0 150.0 
546.0001129509506 1059.0 NaN 891.519038076153 0.5247873378338863 244.0 9.0 151.0 
548.0001129509506 1047.0 NaN 885.3333333333334 0.5070481800721967 244.0 9.0 149.0 
550.0001129509506 1052.0 NaN 891.433533734135 0.5059745620414274 244.0 9.0 151.0 
552.0001129509506 1057.0 NaN 891.4575818303272 0.5152422219849382 244.0 9.0 151.0 
554.0001129509506 1058.0 NaN 891.4575818303272 0.5243999157005986 240.0 9.0 151.0 
556.0001129509506 1062.0 NaN 897.707414829659 0.5292902830941558 240.0 9.0 153.0 
558.0001129509506 1049.0 NaN 897.7501670006683 0.509203009387077 239.0 9.0 153.0 
560.0001129509506 1053.0 NaN 897.6700066800274 0.506227121502594 239.0 9.0 153.0 
562.0001129509506 1056.0 NaN 894.6265865063453 0.5104807143413704 239.0 9.0 152.0 
564.0001129509506 1063.0 NaN 894.5918503674013 0.5301906032502716 242.0 9.0 152.0 
566.0001129509506 1064.0 NaN 897.6887107548425 0.5217978227081688 246.0 9.0 153.0 
568.0001129509506 1056.0 NaN 891.4629258517044 0.5079495087032344 244.0 9.0 151.0 
570.0001129509506 1064.0 NaN 894.5250501002 0.5073815014121972 247.0 9.0 152.0 
572.0001129509506 1069.0 NaN 900.8069472277894 0.5167078584354895 246.0 9.0 154.0 
574.0001129509506 1071.0 NaN 903.9198396793591 0.5170508661093829 247.0 9.0 155.0 
576.0001129509506 1069.0 NaN 903.94388777555 0.5283168609251071 246.0 9.0 155.0 
578.0001129509506 1059.0 NaN 903.871743486974 0.5197986748397719 244.0 9.0 155.0 
580.0001129509506 1066.0 NaN 906.9953239812953 0.522838254900146 244.0 9.0 156.0 
582.0001129509506 1063.0 NaN 900.7160988643955 0.5232819900238134 241.0 9.0 154.0 
584.0001129509506 1057.0 NaN 897.6593186372742 0.5275252565893382 242.0 9.0 153.0 
586.0001129509506 1069.0 NaN 900.7989311957243 0.5120486512916739 245.0 9.0 154.0 
588.0001129509506 1067.0 NaN 900.6626586506349 0.5062820006408622 247.0 9.0 154.0 
590.0001129509506 1071.0 NaN 900.7080828323319 0.5212381448315534 249.0 9.0 154.0 
592.0001129509506 1062.0 NaN 903.7969271877091 0.5223410347737552 249.0 9.0 155.0 
594.0001129509506 1060.0 NaN 903.8183032732138 0.5114433883664272 248.0 9.0 155.0 
596.0001129509506 1083.0 NaN 919.2358049432189 0.5271278942051675 247.0 9.0 160.0 
598.0001129509506 1063.0 NaN 919.2117568470272 0.49544551137622483 248.0 9.0 160.0 
600.0001129509506 1078.0 NaN 916.1389445557772 0.5105348864494544 247.0 9.0 159.0 
602.0001129509506 1078.0 NaN 916.1389445557774 0.5075086369225617 246.0 9.0 159.0 
604.0001129509506 1076.0 NaN 913.0394121576489 0.5254798159334534 246.0 9.0 158.0 
606.0001129509506 1079.0 NaN 916.1977287909145 0.5396449773550658 247.0 9.0 159.0 
608.0001129509506 1059.0 NaN 909.9986639946553 0.5004498021993361 251.0 9.0 157.0 
610.0001129509506 1077.0 NaN 919.1663326653319 0.5091240505081066 254.0 9.0 160.0 
612.0001129509506 1094.0 NaN 934.6185704742818 0.51066005661996 258.0 9.0 165.0 
614.0001129509506 1092.0 NaN 931.6045424181688 0.5141252166693976 259.0 9.0 164.0 
616.0001129509506 1094.0 NaN 928.4676018704085 0.5245116789365232 259.0 9.0 163.0 
618.0001129509506 1075.0 NaN 928.4008016032052 0.5113726784352614 254.0 9.0 163.0 
620.0001129509506 1080.0 NaN 934.4635938543767 0.5183459428196033 254.0 9.0 165.0 
622.0001129509506 1081.0 NaN 931.5270541082176 0.5203915442479593 254.0 9.0 164.0 
624.0001129509506 1078.0 NaN 928.3660654642631 0.5065303379277595 256.0 9.0 163.0 
626.0001129509506 1085.0 NaN 934.5116900467593 0.5311984708406481 257.0 9.0 165.0 
628.0001129509506 1061.0 NaN 934.57849031396 0.5130831591870135 257.0 9.0 165.0 
630.0001129509506 1084.0 NaN 946.875083500333 0.5229342255923223 259.0 9.0 169.0 
632.0001129509506 1072.0 NaN 950.0681362725455 0.5247502429980689 259.0 9.0 170.0 
634.0001129509506 1072.0 NaN 950.0681362725455 0.5204474971138773 259.0 9.0 170.0 
636.0001129509506 1107.0 NaN 953.0634602538414 0.5203917958438773 261.0 9.0 171.0 
638.0001129509506 1103.0 NaN 956.1977287909147 0.504039363909542 262.0 9.0 172.0 
640.0001129509506 1120.0 NaN 956.216432865731 0.5289235203769771 265.0 9.0 172.0 
642.000479336559 1101.0 NaN 962.321977287909 0.5419842425229686 266.0 9.0 174.0 
644.0004290227293 1098.0 NaN 959.2491649966598 0.5066370672046092 265.0 9.0 173.0 
646.000479336559 1108.0 NaN 968.4782899131606 0.5540489045872773 266.0 9.0 176.0 
648.000479336559 1078.0 NaN 971.4923179692728 0.5064413600466795 266.0 9.0 177.0 
650.000479336559 1074.0 NaN 971.4762859051453 0.5225774164198786 266.0 9.0 177.0 
652.000479336559 1070.0 NaN 971.4308617234456 0.5384795544474519 268.0 9.0 177.0 
654.0004290227293 1069.0 NaN 971.4335337341363 0.5186077119804424 268.0 9.0 177.0 
656.000479336559 1084.0 NaN 971.3881095524364 0.5344187317727963 271.0 9.0 177.0 
658.000479336559 1088.0 NaN 977.4936539746182 0.504774919715311 272.0 9.0 179.0 
660.000479336559 1099.0 NaN 977.5177020708092 0.5201886588560666 275.0 9.0 179.0 
662.000479336559 1100.0 NaN 980.6199064796272 0.5269908614619023 275.0 9.0 180.0 
664.0004290227293 1099.0 NaN 980.601202404809 0.5305090086139312 276.0 9.0 180.0 
#####################################################################
# End of data export. Simulation finished at: 2019-03-06T16:41+0000 #
#####################################################################
