#####################################################################
# Alchemist log file - simulation started at: 2019-03-02T22:20+0000 #
#####################################################################
# seed = 1.0, bandwidth = 1000.0, propagationDelay = 10.0, baserange = 100.0
#
# The columns have the following meaning: 
# time neighbor_count[Sum] <value>@neighbor_count[Sum] packet_size[Mean] mean_delay[Mean] crowd[Sum] overcrowded[Sum] risk[Sum] 
0.0 NaN NaN NaN NaN NaN NaN NaN 
10.000417374280275 NaN NaN 4988.0 NaN 1497.0 0.0 1497.0 
20.000417374280275 13134.0 NaN 4995.3426853707415 4.001273477626401 1497.0 0.0 1497.0 
30.000417374280275 13134.0 NaN 4995.380093520374 14.000828571551676 1497.0 0.0 1497.0 
40.000417374280275 13209.0 NaN 4993.357381429526 9.07299643692172 1496.0 1.0 1496.0 
50.000417374280275 13299.0 NaN 4994.669338677355 4.0605811281571045 1490.0 7.0 1490.0 
60.000417374280275 13299.0 NaN 4994.688042752171 14.060137209838075 1491.0 6.0 1491.0 
70.00041737428027 13390.0 NaN 1525.6299265197065 8.61441960879894 819.0 5.0 361.0 
80.00041737428027 13357.0 NaN 1531.7034068136272 5.813049194998931 627.0 9.0 359.0 
90.00041737428027 13430.0 NaN 1534.6720106880427 8.784170659936873 584.0 9.0 360.0 
100.00041737428027 13436.0 NaN 1537.8784235136936 6.179996820942782 559.0 10.0 360.0 
110.00041737428027 13391.0 NaN 1538.094856379427 5.178070174207642 526.0 16.0 354.0 
120.00041737428027 13423.0 NaN 1547.0460921843696 6.321966798503092 520.0 16.0 357.0 
130.0004173742803 13448.0 NaN 1541.0153640614549 4.288568744664382 517.0 17.0 354.0 
140.0004173742803 13420.0 NaN 1534.9124916499663 6.198914213951569 515.0 17.0 352.0 
150.0004173742803 13465.0 NaN 1547.0647962591845 5.86669245745859 524.0 9.0 364.0 
160.0004173742803 13406.0 NaN 1537.9772879091518 4.818312400929638 523.0 9.0 361.0 
170.00018759282878 13381.0 NaN 1537.9665998664002 9.562840053099103 522.0 8.0 362.0 
180.0004173742803 13315.0 NaN 1540.8764195056792 8.378366878042062 524.0 9.0 362.0 
190.0004173742803 13240.0 NaN 1541.031396125584 6.807918628808365 522.0 11.0 360.0 
200.0004173742803 13279.0 NaN 1528.6332665330663 7.8594771938241985 508.0 20.0 347.0 
210.0004173742803 13228.0 NaN 1531.7835671342698 6.086139419854744 510.0 17.0 351.0 
220.0004173742803 13150.0 NaN 1528.6599866399451 7.263931513268681 515.0 12.0 355.0 
230.0004173742803 13138.0 NaN 1528.561122244491 5.727279602035826 516.0 12.0 355.0 
240.0004173742803 13037.0 NaN 1531.6125584502338 4.331537104081486 501.0 18.0 350.0 
250.0004173742803 13002.0 NaN 1528.5664662658637 6.280531940732648 503.0 14.0 353.0 
260.0004173742803 12963.0 NaN 1528.4355377421516 5.2020423789469845 508.0 11.0 356.0 
270.0004173742803 12916.0 NaN 1525.4615898463608 5.5317382946862175 508.0 10.0 356.0 
280.00018759282875 12914.0 NaN 1522.3674014696064 9.194031412183044 508.0 10.0 355.0 
290.0004173742803 12852.0 NaN 1534.549098196391 7.756392674948718 505.0 11.0 358.0 
300.0004173742803 12724.0 NaN 1531.521710086839 8.949654675964114 507.0 11.0 357.0 
310.0004173742803 12717.0 NaN 1540.761523046091 7.628530154925159 501.0 13.0 358.0 
320.0004173742803 12607.0 NaN 1531.6232464929842 5.384526201193987 498.0 12.0 356.0 
330.0004173742803 12573.0 NaN 1534.6506346025365 7.321378856993514 500.0 12.0 357.0 
340.0004173742803 12562.0 NaN 1534.5704742818975 5.351657646114615 501.0 10.0 359.0 
350.0004173742803 12547.0 NaN 1537.6993987975939 4.26391520146939 503.0 9.0 361.0 
360.0004173742803 12558.0 NaN 1528.384769539079 5.992287500874559 504.0 9.0 358.0 
370.0004173742803 12593.0 NaN 1525.333333333334 4.974312242076131 507.0 10.0 356.0 
380.0004173742803 12544.0 NaN 1525.3039412157639 6.9996593679257435 509.0 10.0 356.0 
390.00018759282875 12531.0 NaN 1513.0180360721454 8.993966545640259 511.0 10.0 352.0 
400.0004173742803 12469.0 NaN 1522.2525050100187 7.463685881570807 510.0 10.0 355.0 
410.0004173742803 12437.0 NaN 1522.2872411489634 8.658085178915615 512.0 9.0 356.0 
420.0004173742803 12466.0 NaN 1519.201068804275 7.347000177788724 510.0 9.0 355.0 
430.0004173742803 12476.0 NaN 1519.2171008684031 5.794392314109515 508.0 10.0 354.0 
440.0004173742803 12496.0 NaN 1528.4542418169665 6.664091174014046 511.0 13.0 354.0 
450.0004173742803 12471.0 NaN 1534.567802271209 5.211847055087329 520.0 9.0 360.0 
460.0004173742803 12392.0 NaN 1534.460921843688 6.182566662935015 519.0 9.0 360.0 
470.0004173742803 12409.0 NaN 1534.492985971945 5.379858904881966 516.0 11.0 358.0 
480.0004173742803 12385.0 NaN 1525.2371409485636 4.84970166681977 513.0 12.0 354.0 
490.0004173742803 12380.0 NaN 1519.0701402805614 7.177606308275775 510.0 11.0 353.0 
500.00018759282875 12361.0 NaN 1500.6573146292576 8.176336188546413 510.0 11.0 347.0 
510.0004173742803 12352.0 NaN 1503.7515030060113 7.909119561817168 510.0 11.0 348.0 
520.0004173742802 12350.0 NaN 1488.3794255177008 8.388739739382354 514.0 10.0 344.0 
530.0004173742802 12428.0 NaN 1494.634602538409 6.558099914016919 509.0 11.0 345.0 
540.0004173742802 12477.0 NaN 1485.43486973948 7.545658099123698 508.0 11.0 342.0 
550.0004173742802 12533.0 NaN 1476.1095524382092 6.413109233364737 513.0 10.0 340.0 
560.0004173742802 12526.0 NaN 1488.4435537742158 4.69538281305382 510.0 10.0 344.0 
570.0004173742802 12518.0 NaN 1494.5116900467608 6.48911044841283 512.0 10.0 346.0 
580.0004173742802 12571.0 NaN 1497.5925183700729 5.058349932632703 511.0 9.0 348.0 
590.0004173742802 12595.0 NaN 1506.9231796927181 4.936571032358184 516.0 9.0 351.0 
600.0004173742802 12577.0 NaN 1509.92651970608 7.208211972178275 524.0 9.0 352.0 
610.0001875928288 12556.0 NaN 1516.0988643954568 7.925582508577162 532.0 9.0 354.0 
620.0004173742802 12661.0 NaN 1516.1229124916515 9.098154940613512 528.0 9.0 354.0 
630.0004173742802 12716.0 NaN 1516.162992651972 8.321375377276679 529.0 9.0 354.0 
640.0004173742802 12757.0 NaN 1516.17635270541 6.490918585631451 526.0 10.0 353.0 
650.0004173742802 12697.0 NaN 1522.4154976619911 7.641049555997708 524.0 9.0 356.0 
660.0004173742802 12680.0 NaN 1522.281897127589 6.257576082129199 524.0 9.0 356.0 
#####################################################################
# End of data export. Simulation finished at: 2019-03-02T22:28+0000 #
#####################################################################
