#####################################################################
# Alchemist log file - simulation started at: 2019-03-18T04:55+0000 #
#####################################################################
# seed = 8.0, bandwidth = 1.0E8, propagationDelay = 0.03162277660168379, baserange = 56.234132519034915
#
# The columns have the following meaning: 
# time neighbor_count[Sum] <value>@neighbor_count[Sum] packet_size[Mean] mean_delay[Mean] crowd[Sum] overcrowded[Sum] risk[Sum] 
0.0 NaN NaN NaN NaN NaN NaN NaN 
2.000927030832833 6160.0 NaN 4996.12291249165 0.5026937317440503 1497.0 0.0 1497.0 
4.000927030832833 6162.0 NaN 4998.466265865063 0.5027853473212062 1492.0 5.0 1492.0 
6.000198348008885 6162.0 NaN 4995.732798931196 0.5027853954944873 1473.0 24.0 1473.0 
8.000927030832834 6162.0 NaN 4996.45156980628 0.5030152591655548 1468.0 29.0 1468.0 
10.000927030832834 6161.0 NaN 4994.909819639279 0.5030644720510326 1450.0 47.0 1450.0 
12.000927030832834 6164.0 NaN 4995.486973947895 0.502328306155716 1454.0 43.0 1454.0 
14.000927030832834 6168.0 NaN 4994.316633266533 0.5025882554724964 1446.0 51.0 1446.0 
16.000198348008887 6170.0 NaN 4995.102204408818 0.5024630384667869 1455.0 42.0 1455.0 
18.000927030832834 6172.0 NaN 4993.8810955243825 0.5024762482841771 1450.0 47.0 1450.0 
20.000927030832834 6178.0 NaN 4994.813627254509 0.5024797259332106 1450.0 47.0 1450.0 
22.000927030832834 6187.0 NaN 4993.691382765531 0.5039238371792303 1448.0 49.0 1448.0 
24.000927030832834 6190.0 NaN 4994.696058784235 0.5064778557328546 1453.0 44.0 1453.0 
26.000198348008887 6191.0 NaN 4993.563126252505 0.5058181182453331 1449.0 48.0 1449.0 
28.000927030832834 6192.0 NaN 4994.589178356713 0.5035016918245002 1449.0 48.0 1449.0 
30.000927030832834 6196.0 NaN 4993.581830327321 0.5038951646957905 1449.0 48.0 1449.0 
32.000927030832834 6213.0 NaN 4994.583834335337 0.5044976470375391 1455.0 42.0 1455.0 
34.000927030832834 6233.0 NaN 4993.688710754843 0.5054905713921405 1452.0 45.0 1452.0 
36.00019834800889 6222.0 NaN 4994.482297929192 0.5026285470619605 1452.0 45.0 1452.0 
38.000927030832834 6222.0 NaN 4993.656646626587 0.5025254777992362 1450.0 47.0 1450.0 
40.000927030832834 6228.0 NaN 4994.613226452906 0.5029414751116209 1454.0 43.0 1454.0 
42.000927030832834 6245.0 NaN 4993.691382765531 0.5041520773724676 1450.0 47.0 1450.0 
44.000927030832834 6254.0 NaN 4994.594522378089 0.5070504005890364 1451.0 46.0 1451.0 
46.00019834800889 6241.0 NaN 4993.774215096861 0.5030441811792322 1450.0 47.0 1450.0 
48.000927030832834 6236.0 NaN 4994.530394121576 0.5022510084105777 1454.0 43.0 1454.0 
50.000927030832834 6248.0 NaN 4993.712758851036 0.5024406366813761 1450.0 47.0 1450.0 
52.000927030832834 6292.0 NaN 4994.62124248497 0.505995581077856 1449.0 48.0 1449.0 
54.000927030832834 6275.0 NaN 4993.718102872412 0.5073029821339712 1451.0 46.0 1451.0 
56.00019834800889 6257.0 NaN 4994.541082164329 0.5033617845542235 1450.0 47.0 1450.0 
58.000927030832834 6256.0 NaN 4993.691382765531 0.50420125307358 1451.0 46.0 1451.0 
60.000927030832834 6257.0 NaN 4994.605210420842 0.5037621639247266 1447.0 50.0 1447.0 
62.000927030832834 6272.0 NaN 1519.1957247829 0.5060444340448196 732.0 48.0 316.0 
64.00092703083283 6285.0 NaN 1522.0040080160334 0.5087569858240131 564.0 54.0 311.0 
66.0001983480089 6267.0 NaN 1521.766199064797 0.5033765125758274 532.0 50.0 315.0 
68.00092703083283 6276.0 NaN 1521.7822311289246 0.5053255451655612 499.0 51.0 314.0 
70.00092703083283 6276.0 NaN 1524.7989311957247 0.5037918036125333 491.0 44.0 322.0 
72.00092703083283 6289.0 NaN 1524.758851035403 0.505375203465346 485.0 46.0 320.0 
74.00092703083283 6292.0 NaN 1524.6706746826997 0.5063696958565013 485.0 46.0 320.0 
76.0001983480089 6303.0 NaN 1530.875083500334 0.5088204899202997 487.0 44.0 324.0 
78.00092703083283 6283.0 NaN 1530.7922511690056 0.5091343462507056 482.0 44.0 324.0 
80.00092703083283 6279.0 NaN 1530.7494989979969 0.5035493819358215 478.0 47.0 321.0 
82.00092703083283 6281.0 NaN 1530.7388109552453 0.5046627707132847 480.0 46.0 322.0 
84.00092703083283 6272.0 NaN 1533.7742150968609 0.504780541269016 479.0 47.0 322.0 
86.0001983480089 6256.0 NaN 1533.8410153640634 0.5064335450556293 479.0 46.0 323.0 
88.00092703083283 6248.0 NaN 1533.8383433533727 0.502885396442133 471.0 54.0 315.0 
90.00092703083283 6256.0 NaN 1533.8329993319974 0.5057072291749868 476.0 50.0 319.0 
92.00092703083283 6263.0 NaN 1533.8303273213091 0.5043494865527978 473.0 53.0 316.0 
94.00092703083283 6266.0 NaN 1533.8196392785574 0.506435081082704 478.0 48.0 321.0 
96.0001983480089 6255.0 NaN 1536.9111556446212 0.5054390773943968 474.0 51.0 319.0 
98.00092703083283 6251.0 NaN 1536.9164996659997 0.5034779165518305 477.0 49.0 321.0 
100.00092703083283 6254.0 NaN 1536.9352037408155 0.5031739333242471 475.0 51.0 319.0 
102.00092703083283 6265.0 NaN 1536.9592518370087 0.5034485579307394 478.0 48.0 322.0 
104.00092703083283 6277.0 NaN 1536.9084836339362 0.5059507910689283 476.0 50.0 320.0 
106.0001983480089 6261.0 NaN 1536.9111556446212 0.5069242051932308 476.0 50.0 320.0 
108.00092703083283 6251.0 NaN 1536.873747494991 0.5070402041319155 474.0 51.0 319.0 
110.00092703083283 6234.0 NaN 1536.9164996659997 0.5064947352912967 481.0 44.0 326.0 
112.00092703083283 6252.0 NaN 1539.9759519038087 0.5041081593781678 481.0 44.0 327.0 
114.00092703083283 6262.0 NaN 1540.0507682030725 0.5078728993691705 483.0 42.0 329.0 
116.0001983480089 6232.0 NaN 1539.9893119572478 0.5071853812575752 483.0 43.0 328.0 
118.00092703083283 6254.0 NaN 1543.070140280561 0.5059637195040645 485.0 43.0 329.0 
120.00092703083283 6251.0 NaN 1546.1082164328636 0.5032520044108909 482.0 46.0 327.0 
122.00092703083283 6272.0 NaN 1546.140280561121 0.503619391361269 488.0 40.0 333.0 
124.00092703083283 6286.0 NaN 1543.0247160988636 0.5043378022899755 488.0 40.0 332.0 
126.0001983480089 6279.0 NaN 1543.0273881095545 0.5031904326319845 489.0 39.0 333.0 
128.00092703083283 6282.0 NaN 1542.997995991982 0.5050042714724433 486.0 40.0 332.0 
130.00092703083283 6286.0 NaN 1539.9706078824302 0.5125904259320978 487.0 39.0 332.0 
132.00092703083283 6280.0 NaN 1539.9545758183028 0.5054925581039567 485.0 39.0 332.0 
134.00092703083283 6288.0 NaN 1536.9084836339362 0.5075040335108251 485.0 37.0 333.0 
136.0001983480089 6272.0 NaN 1530.7468269873093 0.5085056506785013 484.0 38.0 330.0 
138.00092703083283 6269.0 NaN 1533.8597194388788 0.5041986959796784 483.0 36.0 333.0 
140.00092703083283 6278.0 NaN 1536.8737474949912 0.5093228880354391 482.0 37.0 333.0 
142.00092703083283 6275.0 NaN 1543.1075484301937 0.5052557502941917 483.0 37.0 335.0 
144.00092703083283 6292.0 NaN 1543.0514362057456 0.5101966368421765 474.0 46.0 326.0 
146.0001983480089 6277.0 NaN 1542.9873079492334 0.5040038264565674 481.0 39.0 333.0 
148.00092703083283 6281.0 NaN 1549.189044756179 0.5056181123698889 478.0 42.0 332.0 
150.00092703083283 6276.0 NaN 1549.1436205744817 0.5120694736739784 479.0 42.0 332.0 
152.00092703083283 6270.0 NaN 1540.0213760855033 0.5074431133616047 480.0 42.0 329.0 
154.00092703083283 6262.0 NaN 1536.9004676018726 0.5072426444310948 479.0 40.0 330.0 
156.0001983480089 6252.0 NaN 1539.9385437541728 0.5074840416450161 474.0 43.0 328.0 
158.00092703083283 6258.0 NaN 1539.9225116900457 0.5084984249872307 477.0 42.0 329.0 
160.00092703083283 6241.0 NaN 1539.8957915831666 0.5073348805201237 477.0 43.0 328.0 
162.00092703083283 6240.0 NaN 1539.9278557114237 0.5069228747403504 474.0 44.0 327.0 
164.00092703083283 6241.0 NaN 1542.971275885103 0.5069998384284273 475.0 43.0 329.0 
166.0001983480089 6222.0 NaN 1542.9392117568457 0.5056534230242057 479.0 39.0 333.0 
168.00092703083283 6224.0 NaN 1542.9899799599182 0.5066197754033606 478.0 40.0 332.0 
170.00092703083283 6231.0 NaN 1539.890447561791 0.5106763479443325 480.0 39.0 332.0 
172.00092703083283 6225.0 NaN 1546.0414161656636 0.5079826802475569 482.0 40.0 333.0 
174.00092703083283 6221.0 NaN 1546.0440881763545 0.5062846006108328 484.0 39.0 334.0 
176.0001983480089 6207.0 NaN 1542.9819639278544 0.5092997440288167 481.0 40.0 332.0 
178.00092703083283 6197.0 NaN 1546.0734802939207 0.5044733926846686 480.0 40.0 333.0 
180.00092703083283 6200.0 NaN 1546.11623246493 0.5106495413397987 481.0 39.0 334.0 
182.00092703083283 6194.0 NaN 1539.9091516366066 0.5132786590567704 480.0 39.0 332.0 
184.00092703083283 6158.0 NaN 1539.9038076152299 0.5070478405583411 477.0 42.0 329.0 
186.0001983480089 6153.0 NaN 1539.8503674014703 0.5046462751910918 478.0 41.0 330.0 
188.00092703083283 6162.0 NaN 1539.8744154976637 0.5041846001070157 477.0 43.0 328.0 
190.00092703083283 6179.0 NaN 1533.7688710754842 0.5087385470213517 475.0 43.0 326.0 
192.00092703083283 6175.0 NaN 1533.7154308617246 0.5086500495310005 482.0 37.0 332.0 
194.00092703083283 6163.0 NaN 1536.8042752171 0.5070676092154118 483.0 36.0 334.0 
196.0001983480089 6138.0 NaN 1536.8550434201725 0.5070283660405799 481.0 38.0 332.0 
198.00092703083283 6140.0 NaN 1533.8677354709425 0.5093438339181444 483.0 36.0 333.0 
200.00092703083283 6133.0 NaN 1539.9465597862388 0.510926625222562 481.0 39.0 332.0 
202.00092703083283 6126.0 NaN 1539.983967935873 0.5130695279931571 484.0 38.0 333.0 
204.00092703083283 6099.0 NaN 1539.9038076152299 0.5082527065219811 482.0 40.0 331.0 
206.0001983480089 6090.0 NaN 1539.9545758183026 0.5065466937953499 483.0 39.0 332.0 
208.00092703083283 6113.0 NaN 1536.8844355377428 0.5044571143200881 478.0 40.0 330.0 
210.00092703083283 6120.0 NaN 1530.6853707414816 0.5104268906550757 475.0 39.0 329.0 
212.00092703083283 6099.0 NaN 1527.6018704074818 0.5100279887279943 474.0 41.0 326.0 
214.00092703083283 6099.0 NaN 1530.680026720109 0.5072917557488773 476.0 39.0 329.0 
216.0001983480089 6084.0 NaN 1533.7341349365392 0.5048193528536408 475.0 41.0 328.0 
218.00092703083283 6097.0 NaN 1527.6793587174361 0.5105403622111755 476.0 40.0 327.0 
220.00092703083283 6067.0 NaN 1527.6366065464274 0.505582480743432 473.0 41.0 326.0 
222.00092703083283 6061.0 NaN 1524.590514362057 0.5085215113574815 474.0 40.0 326.0 
224.00092703083283 6034.0 NaN 1521.4589178356723 0.50712028021504 478.0 36.0 329.0 
226.0001983480089 6031.0 NaN 1524.5744822979275 0.5051822472221408 477.0 37.0 329.0 
228.00092703083283 6042.0 NaN 1527.5511022044093 0.5104288338280093 478.0 36.0 331.0 
230.00092703083283 6015.0 NaN 1527.7167668670666 0.5098925761142129 475.0 37.0 330.0 
232.00092703083283 6004.0 NaN 1533.7955911823635 0.5107586754915453 473.0 38.0 331.0 
234.00092703083283 5987.0 NaN 1533.849031396127 0.5088341957211955 472.0 40.0 329.0 
236.0001983480089 5987.0 NaN 1533.766199064797 0.5061294797969953 469.0 43.0 326.0 
238.00092703083283 5998.0 NaN 1533.7929191716757 0.5132903695588318 471.0 41.0 328.0 
240.00092703083283 5991.0 NaN 1530.7040748163 0.5110169939959017 468.0 44.0 324.0 
242.00092703083283 5989.0 NaN 1530.672010688043 0.5070561966518965 470.0 42.0 326.0 
244.00092703083283 5979.0 NaN 1524.4462257849027 0.5075189372111802 468.0 44.0 322.0 
246.0001983480089 5981.0 NaN 1524.513026052103 0.50552823971283 468.0 44.0 322.0 
248.00092703083283 6001.0 NaN 1527.5965263861062 0.5096301079721328 470.0 42.0 325.0 
250.00092703083283 5978.0 NaN 1524.5771543086182 0.5139467647293844 471.0 41.0 325.0 
252.00092703083283 5945.0 NaN 1524.638610554443 0.5119919834464787 470.0 44.0 322.0 
254.00092703083283 5939.0 NaN 1524.5611222444907 0.5122753766130622 469.0 42.0 324.0 
256.0001983480089 5920.0 NaN 1524.590514362057 0.5054123126503639 470.0 42.0 324.0 
258.0009270308328 5937.0 NaN 1524.5504342017364 0.5074900653641802 474.0 40.0 326.0 
260.0009270308328 5943.0 NaN 1521.496325985303 0.5072655607362403 472.0 42.0 323.0 
262.0009270308328 5930.0 NaN 1515.3213092852363 0.5117189092804861 472.0 41.0 322.0 
264.0009270308328 5909.0 NaN 1515.4068136272545 0.509437219911535 469.0 42.0 321.0 
266.0001983480089 5913.0 NaN 1515.3480293921182 0.5060419113767705 470.0 41.0 322.0 
268.0009270308328 5916.0 NaN 1524.6038744154996 0.5137846214262517 470.0 42.0 324.0 
270.0009270308328 5902.0 NaN 1533.8036072144275 0.5096672379521088 471.0 41.0 328.0 
272.0009270308328 5885.0 NaN 1530.7334669338663 0.5096405768190334 470.0 42.0 326.0 
274.0009270308328 5875.0 NaN 1533.8329993319976 0.5127610424173302 473.0 41.0 328.0 
276.0001983480089 5865.0 NaN 1530.749498997997 0.5053778361037888 473.0 42.0 326.0 
278.0009270308328 5879.0 NaN 1530.714762859052 0.5121885780574095 472.0 41.0 327.0 
280.0009270308328 5882.0 NaN 1530.7521710086817 0.5069015777105467 473.0 40.0 328.0 
282.0009270308328 5873.0 NaN 1530.7307949231817 0.5139615818130351 476.0 37.0 331.0 
284.0009270308328 5859.0 NaN 1530.6586506346023 0.5116077861550852 477.0 38.0 330.0 
286.0001983480089 5842.0 NaN 1530.6265865063453 0.5085674949794263 477.0 37.0 331.0 
288.0009270308328 5843.0 NaN 1530.6025384101545 0.5137901632009919 475.0 38.0 330.0 
290.0009270308328 5835.0 NaN 1533.7795591182362 0.5158190418531569 475.0 37.0 332.0 
292.0009270308328 5815.0 NaN 1533.6833667334658 0.5141572042333329 473.0 38.0 331.0 
294.0009270308328 5810.0 NaN 1533.8036072144273 0.5121185258591854 474.0 37.0 332.0 
296.0001983480089 5804.0 NaN 1536.7775551102181 0.5130406246998955 473.0 38.0 332.0 
298.0009270308328 5790.0 NaN 1536.8016032064113 0.5095876995824468 473.0 37.0 333.0 
300.0009270308328 5805.0 NaN 1539.9251837007364 0.5119438024849776 472.0 38.0 333.0 
302.0009270308328 5790.0 NaN 1539.9091516366072 0.5174234116415242 473.0 37.0 334.0 
304.0009270308328 5775.0 NaN 1530.6880427521726 0.5185109012687277 472.0 38.0 330.0 
306.0001983480089 5758.0 NaN 1536.8256513026065 0.5043074031841418 472.0 37.0 333.0 
308.0009270308328 5777.0 NaN 1536.8096192384749 0.5117329210465181 469.0 38.0 332.0 
310.0009270308328 5766.0 NaN 1533.758183032734 0.5124568135177257 470.0 37.0 332.0 
312.0009270308328 5764.0 NaN 1533.6860387441545 0.5109884649401799 469.0 38.0 331.0 
314.0009270308328 5764.0 NaN 1533.6138944555794 0.5092549126498107 472.0 37.0 332.0 
316.0001983480089 5764.0 NaN 1530.5330661322635 0.5089133670004617 472.0 38.0 330.0 
318.0009270308328 5781.0 NaN 1536.8122912491635 0.5125400905121185 473.0 37.0 333.0 
320.0009270308328 5768.0 NaN 1530.6025384101545 0.5152489091042908 470.0 38.0 330.0 
322.0009270308328 5756.0 NaN 1530.567802271209 0.5108249544026334 471.0 37.0 331.0 
324.0009270308328 5760.0 NaN 1536.8149632598545 0.5079264516458237 469.0 38.0 332.0 
326.0001983480089 5761.0 NaN 1536.6867067468274 0.5043288255028878 471.0 37.0 333.0 
328.0009270308328 5790.0 NaN 1539.8396793587183 0.5079699803331933 469.0 39.0 332.0 
330.0009270308328 5772.0 NaN 1542.9311957247817 0.5106108943266636 472.0 37.0 335.0 
332.0009270308328 5767.0 NaN 1539.730126920509 0.5115124510570641 470.0 39.0 332.0 
334.0009270308328 5757.0 NaN 1536.7454909819635 0.5163096598376944 472.0 37.0 333.0 
336.0001983480089 5738.0 NaN 1536.6519706078818 0.5078451377598319 472.0 38.0 332.0 
338.0009270308328 5762.0 NaN 1530.6239144956576 0.5119804133085305 473.0 37.0 331.0 
340.0009270308328 5774.0 NaN 1530.5250501002 0.5129031157603612 471.0 38.0 330.0 
342.0009270308328 5778.0 NaN 1536.8122912491638 0.5125609503368962 471.0 37.0 333.0 
344.0009270308328 5787.0 NaN 1536.7508350033393 0.5204171034936168 474.0 38.0 332.0 
346.0001983480089 5770.0 NaN 1536.6680026720094 0.5095841525753334 474.0 37.0 333.0 
348.0009270308328 5778.0 NaN 1533.5978623914484 0.511928011735974 474.0 38.0 331.0 
350.0009270308328 5775.0 NaN 1530.551770207082 0.5135693424117568 475.0 37.0 331.0 
352.0009270308328 5790.0 NaN 1530.506346025382 0.5114700480089875 476.0 38.0 330.0 
354.0009270308328 5788.0 NaN 1527.4949899799606 0.5138506493694482 477.0 37.0 330.0 
356.0001983480089 5766.0 NaN 1527.4923179692728 0.5096832906850942 474.0 38.0 329.0 
358.0009270308328 5760.0 NaN 1527.5350701402815 0.5121091395097401 475.0 37.0 330.0 
360.0009270308328 5735.0 NaN 1527.3987975951911 0.5106159183076193 474.0 38.0 329.0 
362.0009270308328 5738.0 NaN 1527.3881095524368 0.5104524457271243 477.0 38.0 329.0 
364.0009270308328 5759.0 NaN 1524.3660654642633 0.5132592931620069 472.0 43.0 323.0 
366.0001983480089 5745.0 NaN 1524.3820975283911 0.51170766529771 473.0 42.0 324.0 
368.0009270308328 5757.0 NaN 1509.0180360721454 0.508206892296068 470.0 44.0 317.0 
370.0009270308328 5753.0 NaN 1505.8917835671352 0.5061275005011382 472.0 42.0 318.0 
372.0009270308328 5753.0 NaN 1508.9779559118244 0.5136940365325028 472.0 43.0 318.0 
374.0009270308328 5768.0 NaN 1512.0240480961918 0.511330804839927 476.0 41.0 321.0 
376.0001983480089 5747.0 NaN 1518.1803607214433 0.5072280250518466 475.0 41.0 323.0 
378.0009270308328 5748.0 NaN 1512.154976619907 0.5040988472344318 475.0 41.0 321.0 
380.0009270308328 5778.0 NaN 1512.1790247161 0.5083661750997353 474.0 41.0 321.0 
382.0009270308328 5778.0 NaN 1509.047428189712 0.5137639883789235 481.0 37.0 324.0 
384.0009270308328 5795.0 NaN 1515.2919171676697 0.5119763684959502 475.0 41.0 322.0 
386.0001983480089 5756.0 NaN 1515.2010688042749 0.5123768805342032 479.0 38.0 325.0 
388.0009270308328 5755.0 NaN 1509.1810287241158 0.5017596143499398 472.0 43.0 318.0 
390.0009270308328 5769.0 NaN 1509.2130928523723 0.5089520339882945 473.0 43.0 318.0 
392.0009270308328 5769.0 NaN 1509.1917167668666 0.5040438354054629 473.0 42.0 319.0 
394.0009270308328 5790.0 NaN 1512.2324649298605 0.5068838020567676 475.0 41.0 321.0 
396.0001983480089 5762.0 NaN 1512.2324649298605 0.5063741361010752 476.0 40.0 322.0 
398.0009270308328 5804.0 NaN 1509.1730126920515 0.5047671688614278 479.0 41.0 320.0 
400.0009270308328 5812.0 NaN 1506.054776219106 0.5082058032388201 481.0 38.0 322.0 
402.0009270308328 5813.0 NaN 1505.987975951903 0.5043726471705483 480.0 38.0 322.0 
404.0009270308328 5832.0 NaN 1512.1710086840358 0.515371299839997 481.0 38.0 324.0 
406.0001983480089 5784.0 NaN 1515.2171008684031 0.5066526574852905 485.0 37.0 326.0 
408.0009270308328 5802.0 NaN 1521.464261857046 0.5037135080205012 484.0 37.0 328.0 
410.0009270308328 5828.0 NaN 1524.5557782231122 0.5048036070331665 484.0 37.0 329.0 
412.0009270308328 5829.0 NaN 1521.4615898463605 0.5094017232813282 483.0 38.0 327.0 
414.0009270308328 5819.0 NaN 1524.5050100200394 0.5129546508358711 485.0 37.0 329.0 
416.0001983480089 5782.0 NaN 1521.4402137608542 0.5062750666672472 484.0 38.0 327.0 
418.0009270308328 5780.0 NaN 1521.4215096860385 0.5200751371874446 486.0 37.0 328.0 
420.0009270308328 5755.0 NaN 1509.1863727454909 0.5190762112103532 486.0 38.0 323.0 
422.0009270308328 5722.0 NaN 1509.071476285906 0.5094998789045567 486.0 38.0 323.0 
424.0009270308328 5731.0 NaN 1506.0681362725454 0.5112654697905731 481.0 38.0 322.0 
426.0001983480089 5712.0 NaN 1506.0948563794261 0.5045467488203853 480.0 37.0 323.0 
428.0009270308328 5739.0 NaN 1506.0440881763534 0.5183887720851877 479.0 38.0 322.0 
430.0009270308328 5751.0 NaN 1499.885103540415 0.5119654315201281 480.0 37.0 321.0 
432.0009270308328 5739.0 NaN 1512.2912491649972 0.5071535453537 478.0 39.0 323.0 
434.0009270308328 5744.0 NaN 1518.3941215764878 0.5096158795916416 479.0 39.0 325.0 
436.0001983480089 5741.0 NaN 1524.4595858383448 0.5025134908071953 484.0 41.0 325.0 
438.0009270308328 5771.0 NaN 1524.5344021376093 0.5142267106570632 486.0 39.0 327.0 
440.0009270308328 5759.0 NaN 1524.6012024048089 0.5101320101860861 484.0 42.0 324.0 
442.0009270308328 5745.0 NaN 1533.7020708082819 0.5061006555803043 483.0 43.0 326.0 
444.0009270308328 5755.0 NaN 1530.760187040748 0.5136544184146232 484.0 44.0 324.0 
446.0001983480089 5749.0 NaN 1533.6539746158999 0.5079808727191187 485.0 43.0 326.0 
448.0009270308328 5767.0 NaN 1533.7742150968609 0.5107017198781792 482.0 45.0 324.0 
450.0009270308328 5762.0 NaN 1533.7154308617244 0.5097675141040262 484.0 42.0 327.0 
452.0009270308328 5737.0 NaN 1533.7849031396122 0.5070558765253361 482.0 43.0 326.0 
454.0009270308328 5759.0 NaN 1542.8403473613907 0.5126593662485109 484.0 41.0 331.0 
456.0001983480089 5743.0 NaN 1546.052104208418 0.508842096448238 482.0 44.0 329.0 
458.0009270308328 5756.0 NaN 1542.9338677354726 0.5090982089172352 482.0 41.0 331.0 
460.0009270308328 5755.0 NaN 1543.0460921843699 0.5078360031449818 479.0 43.0 329.0 
462.0009270308328 5729.0 NaN 1542.9124916499661 0.506537781740813 481.0 43.0 329.0 
464.0009270308328 5741.0 NaN 1536.790915163661 0.5113513735082494 484.0 40.0 330.0 
466.0001983480089 5735.0 NaN 1536.6225784903152 0.508062281294813 482.0 43.0 327.0 
468.0009270308328 5751.0 NaN 1536.748162992652 0.5089395284594301 479.0 44.0 326.0 
470.0009270308328 5743.0 NaN 1530.5330661322637 0.5061470747617243 481.0 41.0 327.0 
472.0009270308328 5733.0 NaN 1527.5350701402815 0.5052730491312173 477.0 42.0 325.0 
474.0009270308328 5741.0 NaN 1524.350033400134 0.5142633318417094 477.0 41.0 325.0 
476.0001983480089 5714.0 NaN 1521.3493653974629 0.5059857034582786 476.0 41.0 324.0 
478.0009270308328 5738.0 NaN 1524.427521710088 0.514478093763053 476.0 41.0 325.0 
480.0009270308328 5735.0 NaN 1527.540414161655 0.5104828593645465 474.0 42.0 325.0 
482.0009270308328 5720.0 NaN 1518.3193052772203 0.5084264047274324 475.0 40.0 324.0 
484.0009270308328 5727.0 NaN 1518.3086172344697 0.5153412141837684 475.0 41.0 323.0 
486.0001983480089 5697.0 NaN 1515.2518370073478 0.5079433203201017 473.0 39.0 324.0 
488.0009270308328 5700.0 NaN 1506.1189044756184 0.5112739433286059 469.0 41.0 319.0 
490.0009270308328 5703.0 NaN 1506.030728122912 0.5054196649194617 470.0 40.0 320.0 
492.0009270308328 5701.0 NaN 1499.9866399465607 0.5115693199579343 467.0 41.0 317.0 
494.0009270308328 5706.0 NaN 1490.7441549766193 0.5122408661570468 470.0 40.0 315.0 
496.0001983480089 5686.0 NaN 1490.7174348697386 0.5062186896108821 466.0 41.0 314.0 
498.0009270308328 5695.0 NaN 1493.7608550434193 0.5106061530766077 466.0 39.0 317.0 
500.0009270308328 5696.0 NaN 1493.8196392785565 0.517213623875611 469.0 40.0 316.0 
502.0009270308328 5694.0 NaN 1493.80093520374 0.5029683546421274 471.0 39.0 317.0 
504.0009270308328 5709.0 NaN 1490.7682030728113 0.5105345383959617 472.0 40.0 315.0 
506.0001983480089 5692.0 NaN 1493.7394789579164 0.5055666013880208 472.0 39.0 317.0 
508.0009270308328 5709.0 NaN 1490.7575150300609 0.5093494888234131 476.0 40.0 315.0 
510.0009270308328 5700.0 NaN 1493.7394789579164 0.5041081318225143 476.0 39.0 317.0 
512.0009270308328 5701.0 NaN 1487.6980627922517 0.5099429054029705 474.0 40.0 314.0 
514.0009270308328 5712.0 NaN 1487.5991983967929 0.512237804819231 474.0 39.0 315.0 
516.0001983480089 5698.0 NaN 1484.6760187040738 0.5049490741187754 472.0 39.0 314.0 
518.0009270308328 5706.0 NaN 1478.479625918503 0.5076033296725453 467.0 42.0 309.0 
520.0009270308328 5700.0 NaN 1478.4422177688716 0.5083309797906317 466.0 41.0 310.0 
522.0009270308328 5690.0 NaN 1475.3132932531726 0.5074540413231454 460.0 45.0 305.0 
524.0009270308328 5698.0 NaN 1459.9946559786247 0.5085157939918978 464.0 41.0 304.0 
526.0001983480089 5702.0 NaN 1462.9552438209746 0.5096492906555138 459.0 43.0 303.0 
528.0009270308328 5712.0 NaN 1463.1048764195061 0.5081296198425885 459.0 41.0 305.0 
530.0009270308328 5719.0 NaN 1462.997995991983 0.5129833406559602 458.0 40.0 306.0 
532.0009270308328 5703.0 NaN 1463.1048764195061 0.5080381502620629 463.0 40.0 306.0 
534.0009270308328 5695.0 NaN 1466.076152304609 0.505922311891916 466.0 38.0 309.0 
536.0001983480089 5695.0 NaN 1466.0975283901125 0.5058248358036007 466.0 39.0 308.0 
538.0009270308328 5706.0 NaN 1466.0494321977283 0.5047787317509599 468.0 39.0 308.0 
540.0009270308328 5717.0 NaN 1466.1108884435541 0.5118466307250547 470.0 38.0 309.0 
542.0009270308328 5712.0 NaN 1469.106212424849 0.5060764405318386 473.0 38.0 310.0 
544.0009270308328 5716.0 NaN 1462.9926519706084 0.5154221031217299 474.0 38.0 308.0 
546.0001983480089 5705.0 NaN 1462.979291917167 0.5048344297020119 474.0 38.0 308.0 
548.0009270308328 5718.0 NaN 1466.161656646627 0.5052332529250182 474.0 38.0 309.0 
550.0009270308328 5715.0 NaN 1463.0300601202396 0.5198566191912815 472.0 39.0 307.0 
552.0009270308328 5693.0 NaN 1472.280561122245 0.5107646812194738 472.0 39.0 310.0 
554.0009270308328 5727.0 NaN 1472.2698730794916 0.510249267106522 474.0 38.0 311.0 
556.0001983480089 5708.0 NaN 1469.213092852372 0.5094019210766872 474.0 38.0 310.0 
558.0009270308328 5708.0 NaN 1466.1482965931857 0.5036366267164432 474.0 38.0 309.0 
560.0009270308328 5723.0 NaN 1463.0781563126259 0.5111060610411324 472.0 38.0 308.0 
562.0009270308328 5718.0 NaN 1463.0086840347365 0.5132070445250959 465.0 43.0 303.0 
564.0009270308328 5771.0 NaN 1466.1162324649297 0.5133370780889438 466.0 44.0 303.0 
566.0001983480089 5740.0 NaN 1466.081496325985 0.5144645089769364 468.0 43.0 304.0 
568.0009270308328 5727.0 NaN 1466.1189044756181 0.5052886730463656 466.0 44.0 303.0 
570.0009270308328 5735.0 NaN 1469.21576486306 0.5124983987678466 470.0 43.0 305.0 
572.0009270308328 5737.0 NaN 1478.5010020040088 0.5167909005251438 468.0 44.0 307.0 
574.0009270308328 5742.0 NaN 1481.600534402137 0.5343180593247844 465.0 45.0 307.0 
576.0001983480089 5680.0 NaN 1481.600534402137 0.5095841253017047 474.0 38.0 314.0 
578.0009270308328 5688.0 NaN 1481.5417501670001 0.5091551900524308 474.0 38.0 314.0 
580.0009270308328 5700.0 NaN 1484.6386105544432 0.5129220572012952 476.0 39.0 314.0 
582.0009270308328 5699.0 NaN 1481.5417501670001 0.5132921760567352 474.0 37.0 315.0 
584.0009270308328 5725.0 NaN 1493.923847695391 0.5300102916498229 478.0 37.0 319.0 
586.0001983480089 5683.0 NaN 1490.7307949231806 0.5152354198859788 481.0 37.0 318.0 
588.0009270308328 5658.0 NaN 1487.668670674682 0.5035651770055558 480.0 38.0 316.0 
590.0009270308328 5685.0 NaN 1490.6479625918514 0.5116858046308065 483.0 37.0 318.0 
592.0009270308328 5686.0 NaN 1493.832999331998 0.5129382281629286 483.0 37.0 319.0 
594.0009270308328 5715.0 NaN 1490.7014028056103 0.5192396299726618 484.0 37.0 318.0 
596.0001983480089 5682.0 NaN 1490.7441549766195 0.5186847847607103 481.0 38.0 317.0 
598.0009270308328 5650.0 NaN 1493.7474949899806 0.5116958730540893 482.0 38.0 318.0 
600.0009270308328 5666.0 NaN 1499.919839679358 0.5112461646091985 490.0 37.0 321.0 
602.0009270308328 5675.0 NaN 1499.815631262526 0.5197845645462885 489.0 37.0 321.0 
604.0009270308328 5735.0 NaN 1499.951903807616 0.5229903493361587 492.0 37.0 321.0 
606.0001983480089 5710.0 NaN 1499.7648630594533 0.5076323455401427 491.0 38.0 320.0 
608.0009270308328 5703.0 NaN 1496.8122912491647 0.503838803139963 488.0 41.0 316.0 
610.0009270308328 5723.0 NaN 1502.952571810288 0.5111098455736994 488.0 41.0 318.0 
612.0009270308328 5715.0 NaN 1506.0681362725456 0.5151886504821834 477.0 49.0 311.0 
614.0009270308328 5761.0 NaN 1518.4021376085514 0.5199920375922179 479.0 46.0 318.0 
616.0001983480089 5743.0 NaN 1518.5036740146968 0.5105467539609015 483.0 45.0 319.0 
618.0009270308328 5761.0 NaN 1515.281229124917 0.5052656106857162 478.0 47.0 316.0 
620.0009270308328 5813.0 NaN 1512.2672010688032 0.5115925537320488 476.0 48.0 314.0 
622.0009270308328 5825.0 NaN 1515.2064128256525 0.5070328751066492 477.0 47.0 316.0 
624.0009270308328 5882.0 NaN 1518.434201736808 0.5186835000100061 477.0 46.0 318.0 
626.0001983480089 5848.0 NaN 1518.3059452237817 0.5076885655735291 475.0 47.0 317.0 
628.0009270308328 5861.0 NaN 1524.6359385437547 0.5123598617171197 476.0 49.0 317.0 
630.0009270308328 5858.0 NaN 1527.6152304609209 0.517592473821699 487.0 42.0 325.0 
632.0009270308328 5813.0 NaN 1521.5123580494333 0.508638067152344 487.0 42.0 323.0 
634.0009270308328 5857.0 NaN 1524.488977955911 0.5215042833911305 486.0 46.0 320.0 
636.0001983480089 5799.0 NaN 1524.5450901803617 0.5060802150536331 488.0 48.0 318.0 
638.0009270308328 5815.0 NaN 1524.510354041417 0.5040867746819766 486.0 48.0 318.0 
640.0009270308328 5847.0 NaN 1518.399465597863 0.5070941857903397 485.0 46.0 318.0 
642.0009270308328 5840.0 NaN 1518.3139612558455 0.5095031023349484 482.0 45.0 319.0 
644.0009270308328 5859.0 NaN 1518.4315297261182 0.5195601880805697 481.0 45.0 319.0 
646.0001983480089 5825.0 NaN 1521.4188376753516 0.505395126554131 483.0 43.0 322.0 
648.0009270308328 5830.0 NaN 1521.4241816967271 0.5078462465406289 482.0 44.0 321.0 
650.0009270308328 5854.0 NaN 1518.3219772879092 0.5111197599596723 481.0 45.0 319.0 
652.0009270308328 5824.0 NaN 1524.4996659986634 0.5051668859412645 484.0 39.0 327.0 
654.0009270308328 5845.0 NaN 1524.4916499666 0.5133059864298916 485.0 37.0 329.0 
656.0001983480089 5811.0 NaN 1527.5885103540422 0.5052989328877325 484.0 37.0 330.0 
658.0009270308328 5821.0 NaN 1527.5644622578484 0.5079640707543193 483.0 37.0 330.0 
660.0009270308328 5849.0 NaN 1530.5971943887787 0.5190466656908808 483.0 37.0 331.0 
662.0009270308328 5792.0 NaN 1530.5811623246484 0.5094686772023366 482.0 38.0 330.0 
664.0009270308328 5831.0 NaN 1542.931195724782 0.5175536077499552 476.0 41.0 331.0 
#####################################################################
# End of data export. Simulation finished at: 2019-03-18T05:16+0000 #
#####################################################################
