#####################################################################
# Alchemist log file - simulation started at: 2019-03-10T08:01+0000 #
#####################################################################
# seed = 2.0, bandwidth = 5623413.251903491, propagationDelay = 10.0, baserange = 1000.0
#
# The columns have the following meaning: 
# time neighbor_count[Sum] <value>@neighbor_count[Sum] packet_size[Mean] mean_delay[Mean] crowd[Sum] overcrowded[Sum] risk[Sum] 
0.0 NaN NaN NaN NaN NaN NaN NaN 
2.0005829790527505 NaN NaN 4988.0 NaN 1497.0 0.0 1497.0 
4.0005829790527505 NaN NaN 4988.0 NaN 1497.0 0.0 1497.0 
6.0005829790527505 NaN NaN 4988.0 NaN 1497.0 0.0 1497.0 
8.000582979052751 NaN NaN 4988.0 NaN 1497.0 0.0 1497.0 
10.000582979052751 NaN NaN 4988.0 NaN 1497.0 0.0 1497.0 
12.000582979052751 210032.0 NaN 4995.802271209085 0.9994339564138696 1497.0 0.0 1497.0 
14.000582979052751 210032.0 NaN 4996.753507014028 2.9994339564138697 1497.0 0.0 1497.0 
16.00058297905275 210032.0 NaN 4996.75083500334 4.99943395641387 1497.0 0.0 1497.0 
18.00058297905275 210032.0 NaN 4996.756179024716 6.99943395641387 1497.0 0.0 1497.0 
20.00058297905275 210032.0 NaN 4996.756179024716 8.999433956413869 1497.0 0.0 1497.0 
22.000015877771894 210055.0 NaN 4996.756179024716 5.51055537541372 1497.0 0.0 1497.0 
24.00058297905275 210079.0 NaN 4995.470941883767 2.002718299919283 1497.0 0.0 1497.0 
26.00058297905275 210079.0 NaN 4994.418169672679 4.002718299919283 1497.0 0.0 1497.0 
28.00058297905275 210079.0 NaN 4994.40213760855 6.002718299919283 1497.0 0.0 1497.0 
30.00058297905275 210079.0 NaN 4994.40213760855 8.002718299919284 1497.0 0.0 1497.0 
32.00058297905275 210067.0 NaN 4994.420841683367 9.999363047358253 1497.0 0.0 1497.0 
34.00058297905275 210220.0 NaN 4995.74081496326 1.0098970123828763 1496.0 1.0 1496.0 
36.00058297905275 210220.0 NaN 4996.79091516366 3.009897012382876 1496.0 1.0 1496.0 
38.00058297905275 210220.0 NaN 4996.785571142284 5.0098970123828765 1496.0 1.0 1496.0 
40.00058297905275 210220.0 NaN 4996.785571142284 7.0098970123828765 1496.0 1.0 1496.0 
42.00058297905275 210187.0 NaN 4996.785571142284 9.007323676802645 1496.0 1.0 1496.0 
44.000015877771894 210235.0 NaN 4996.785571142284 5.509709614091794 1497.0 0.0 1497.0 
46.00058297905275 210331.0 NaN 4995.492317969271 2.00662102500535 1497.0 0.0 1497.0 
48.00058297905275 210331.0 NaN 4994.450233800935 4.00662102500535 1497.0 0.0 1497.0 
50.00058297905275 210331.0 NaN 4994.450233800935 6.00662102500535 1497.0 0.0 1497.0 
52.00058297905275 210331.0 NaN 4994.434201736807 8.00662102500535 1497.0 0.0 1497.0 
54.00058297905275 210274.0 NaN 4994.434201736807 9.999412089984888 1497.0 0.0 1497.0 
56.00058297905275 210456.0 NaN 4995.700734802939 1.0177563916384207 1496.0 1.0 1496.0 
58.00058297905275 210456.0 NaN 4996.753507014028 3.0177563916384207 1496.0 1.0 1496.0 
60.00058297905275 210456.0 NaN 4993.688710754843 5.017756391638421 1495.0 1.0 1495.0 
62.00058297905275 210456.0 NaN 1517.5978623914484 7.017756391638421 840.0 0.0 363.0 
64.00058297905275 210418.0 NaN 1520.6813627254517 9.009063481711802 840.0 0.0 364.0 
66.00001587777189 210456.0 NaN 1520.6706746826997 5.514760439028912 768.0 0.0 364.0 
68.00058297905275 210547.0 NaN 1519.7434869739477 2.015347055952987 669.0 0.0 364.0 
70.00058297905275 210547.0 NaN 1519.4281897127576 4.0153470559529865 669.0 0.0 364.0 
72.00058297905275 210547.0 NaN 1519.4281897127576 6.0153470559529865 670.0 0.0 364.0 
74.00058297905275 210547.0 NaN 1519.4148296593182 8.015347055952986 670.0 0.0 364.0 
76.00058297905275 210312.0 NaN 1519.4388777555093 9.999556252966844 671.0 0.0 364.0 
78.00058297905275 210522.0 NaN 1526.2658650634608 1.0193919660106656 603.0 4.0 362.0 
80.00058297905275 210522.0 NaN 1529.6539746158999 3.0193919660106654 603.0 4.0 363.0 
82.00058297905275 210522.0 NaN 1529.6459585838363 5.019391966010666 603.0 4.0 363.0 
84.00058297905275 210522.0 NaN 1529.6352705410818 7.019391966010666 604.0 4.0 363.0 
86.00058297905275 210424.0 NaN 1529.6352705410818 9.012573516549605 604.0 4.0 363.0 
88.00001587777189 210380.0 NaN 1529.6352705410818 5.5021995503447 596.0 0.0 367.0 
90.00058297905275 210469.0 NaN 1532.1710086840362 2.007472896456492 583.0 1.0 367.0 
92.00058297905275 210469.0 NaN 1531.8717434869727 4.007472896456492 583.0 1.0 367.0 
94.00058297905275 210469.0 NaN 1531.8717434869727 6.007472896456492 583.0 1.0 367.0 
96.00058297905275 210469.0 NaN 1531.8717434869727 8.007472896456491 583.0 1.0 367.0 
98.00058297905275 210368.0 NaN 1531.8557114228454 10.000096758940254 583.0 1.0 367.0 
100.00058297905275 210715.0 NaN 1535.4736138944545 1.0064315957963375 555.0 4.0 365.0 
102.00058297905275 210715.0 NaN 1538.8724114896452 3.0064315957963377 555.0 4.0 366.0 
104.00058297905275 210715.0 NaN 1538.8617234468936 5.006431595796338 555.0 4.0 366.0 
106.00058297905275 210715.0 NaN 1538.8617234468936 7.006431595796338 554.0 4.0 366.0 
108.00058297905275 210668.0 NaN 1538.8617234468936 9.00412482358063 554.0 4.0 366.0 
110.00001587777189 210670.0 NaN 1538.8617234468936 5.502145923553038 553.0 0.0 370.0 
112.00058297905275 210732.0 NaN 1538.2284569138271 2.004670542456209 548.0 0.0 370.0 
114.00058297905275 210732.0 NaN 1537.902471609888 4.004670542456209 547.0 0.0 370.0 
116.00058297905275 210732.0 NaN 1540.9886439545753 6.004670542456209 548.0 0.0 371.0 
118.00058297905275 210732.0 NaN 1541.002004008018 8.004670542456209 548.0 0.0 371.0 
120.00058297905275 210660.0 NaN 1541.0100200400816 10.000256512555913 548.0 0.0 371.0 
122.00058297905275 210740.0 NaN 1547.7515030060117 1.006787109382076 537.0 3.0 370.0 
124.00058297905275 210740.0 NaN 1548.0080160320636 3.006787109382076 537.0 3.0 370.0 
126.00058297905275 210740.0 NaN 1544.943219772879 5.006787109382076 537.0 3.0 369.0 
128.00058297905275 210740.0 NaN 1544.943219772879 7.006787109382076 537.0 3.0 369.0 
130.00058297905275 210700.0 NaN 1544.943219772879 9.003868628621651 537.0 3.0 369.0 
132.0000158777719 210688.0 NaN 1548.0213760855033 5.502500210949557 539.0 0.0 373.0 
134.00058297905275 210736.0 NaN 1547.4682698730817 2.006579323770501 538.0 0.0 373.0 
136.00058297905275 210736.0 NaN 1547.1903807615245 4.006579323770501 538.0 0.0 373.0 
138.00058297905275 210736.0 NaN 1541.0607882431543 6.006579323770501 537.0 0.0 371.0 
140.00058297905275 210736.0 NaN 1541.0794923179697 8.0065793237705 538.0 0.0 371.0 
142.00058297905275 210644.0 NaN 1538.0066800267182 10.00008961735066 538.0 0.0 370.0 
144.00058297905275 210773.0 NaN 1550.8670674682699 1.0079598054461454 531.0 3.0 371.0 
146.00058297905275 210773.0 NaN 1551.1022044088184 3.0079598054461454 531.0 3.0 371.0 
148.00058297905275 210773.0 NaN 1548.0293921175696 5.007959805446145 531.0 3.0 370.0 
150.00058297905275 210773.0 NaN 1548.016032064127 7.007959805446145 531.0 3.0 370.0 
152.00058297905275 210725.0 NaN 1544.9458917835666 9.003567023614304 531.0 3.0 369.0 
154.0000158777719 210753.0 NaN 1544.9512358049453 5.502784281108308 532.0 0.0 372.0 
156.00058297905275 210826.0 NaN 1544.339345357382 2.0099060560603452 532.0 0.0 372.0 
158.00058297905275 210826.0 NaN 1544.0855043420183 4.009906056060346 532.0 0.0 372.0 
160.00058297905275 210826.0 NaN 1541.0126920507666 6.009906056060346 532.0 0.0 371.0 
162.00058297905275 210826.0 NaN 1541.0180360721456 8.009906056060345 532.0 0.0 371.0 
164.00058297905275 210710.0 NaN 1541.0180360721456 10.000329883961344 532.0 0.0 371.0 
166.00058297905275 210832.0 NaN 1550.8189712758845 1.0081688303282643 533.0 3.0 371.0 
168.00058297905275 210832.0 NaN 1551.0273881095545 3.0081688303282643 533.0 3.0 371.0 
170.00058297905275 210832.0 NaN 1547.9625918503664 5.008168830328264 533.0 3.0 370.0 
172.00058297905275 210832.0 NaN 1547.9465597862388 7.008168830328264 533.0 3.0 370.0 
174.00058297905275 210785.0 NaN 1547.9331997328002 9.004641909167223 533.0 3.0 370.0 
176.0000158777719 210776.0 NaN 1547.9412157648637 5.502378263507944 537.0 0.0 373.0 
178.00058297905275 210837.0 NaN 1544.2939211756843 2.008843802708634 534.0 0.0 372.0 
180.00058297905275 210837.0 NaN 1540.9913159652635 4.008843802708634 534.0 0.0 371.0 
182.00058297905275 210837.0 NaN 1537.9131596526363 6.008843802708634 534.0 0.0 370.0 
184.00058297905275 210837.0 NaN 1537.907815631264 8.008843802708634 534.0 0.0 370.0 
186.00058297905275 210734.0 NaN 1534.843019372079 10.000174885266818 534.0 0.0 369.0 
188.00058297905275 210865.0 NaN 1544.5718102872427 1.0099015050092082 532.0 3.0 369.0 
190.00058297905275 210865.0 NaN 1544.7722110888458 3.0099015050092084 532.0 3.0 369.0 
192.00058297905275 210865.0 NaN 1538.6479625918516 5.009901505009208 531.0 3.0 367.0 
194.00058297905275 210865.0 NaN 1538.6639946559792 7.009901505009208 531.0 3.0 367.0 
196.00058297905275 210806.0 NaN 1538.6800267201093 9.005951986676095 531.0 3.0 367.0 
198.0000158777719 210768.0 NaN 1541.7555110220453 5.50585462833731 534.0 0.0 371.0 
200.00058297905275 210807.0 NaN 1544.4943219772883 2.013642707332876 533.0 0.0 372.0 
202.00058297905275 210807.0 NaN 1544.2164328657302 4.013642707332877 533.0 0.0 372.0 
204.00058297905275 210807.0 NaN 1544.2004008016027 6.013642707332877 532.0 0.0 372.0 
206.00058297905275 210807.0 NaN 1541.13293253173 8.013642707332876 532.0 0.0 371.0 
208.00058297905275 210699.0 NaN 1541.1275885103548 10.000065446860967 532.0 0.0 371.0 
210.00058297905275 210902.0 NaN 1544.6092184368727 1.010592885226264 526.0 3.0 369.0 
212.00058297905275 210902.0 NaN 1544.830995323982 3.010592885226264 526.0 3.0 369.0 
214.00058297905275 210902.0 NaN 1538.6880427521726 5.010592885226264 526.0 3.0 367.0 
216.00058297905275 210902.0 NaN 1538.6880427521726 7.010592885226264 524.0 3.0 367.0 
218.00058297905275 210851.0 NaN 1538.6853707414816 9.005448075717872 524.0 3.0 367.0 
220.0000158777719 210869.0 NaN 1538.6826987307936 5.509972429860517 528.0 1.0 369.0 
222.00058297905275 210951.0 NaN 1544.3286573146272 2.0201112362008398 530.0 0.0 372.0 
224.00058297905275 210951.0 NaN 1540.9859719438884 4.02011123620084 530.0 0.0 371.0 
226.00058297905275 210951.0 NaN 1537.9372077488301 6.02011123620084 530.0 0.0 370.0 
228.00058297905275 210951.0 NaN 1537.9372077488301 8.02011123620084 530.0 0.0 370.0 
230.00058297905275 210818.0 NaN 1531.8022712090844 10.000320363704837 528.0 0.0 368.0 
232.00058297905275 211008.0 NaN 1538.426185704743 1.0122994146210769 518.0 4.0 366.0 
234.00058297905275 211008.0 NaN 1538.6132264529062 3.012299414621077 518.0 4.0 366.0 
236.00058297905275 211008.0 NaN 1538.6132264529062 5.012299414621077 518.0 4.0 366.0 
238.00058297905275 211008.0 NaN 1538.6132264529062 7.012299414621077 518.0 4.0 366.0 
240.00058297905275 210948.0 NaN 1538.6078824315296 9.00657384002023 519.0 4.0 366.0 
242.0000158777719 210966.0 NaN 1535.532398129591 5.504795179785914 519.0 1.0 368.0 
244.00058297905275 211055.0 NaN 1535.126252505009 2.0110545124446797 519.0 1.0 368.0 
246.00058297905275 211055.0 NaN 1531.8263193052755 4.011054512444679 519.0 1.0 367.0 
248.00058297905275 211055.0 NaN 1528.7668670674698 6.011054512444679 519.0 1.0 366.0 
250.00058297905275 211055.0 NaN 1528.7695390781548 8.01105451244468 519.0 1.0 366.0 
252.00058297905275 210888.0 NaN 1528.7695390781548 10.000175623039844 519.0 1.0 366.0 
254.00058297905275 211102.0 NaN 1532.1950567802273 1.015460193803941 516.0 4.0 364.0 
256.00058297905275 211102.0 NaN 1532.3286573146274 3.015460193803941 516.0 4.0 364.0 
258.00058297905275 211102.0 NaN 1529.2665330661334 5.015460193803941 517.0 4.0 363.0 
260.00058297905275 211102.0 NaN 1526.2097528390095 7.015460193803941 517.0 4.0 362.0 
262.00058297905275 211013.0 NaN 1523.169004676018 9.009148287232412 517.0 4.0 361.0 
264.0000158777719 211034.0 NaN 1523.1903807615245 5.499742345684931 519.0 1.0 364.0 
266.00058297905275 211154.0 NaN 1525.9051436205732 2.009319970950591 520.0 1.0 365.0 
268.00058297905275 211154.0 NaN 1525.6619906479636 4.009319970950592 521.0 1.0 365.0 
270.00058297905275 211154.0 NaN 1525.6566466265874 6.009319970950592 521.0 1.0 365.0 
272.00058297905275 211154.0 NaN 1525.645958583836 8.00931997095059 521.0 1.0 365.0 
274.00058297905275 211046.0 NaN 1528.710754843018 10.000323065104096 522.0 1.0 366.0 
276.00058297905275 211329.0 NaN 1538.3540414161637 1.012516376472242 515.0 3.0 367.0 
278.00058297905275 211329.0 NaN 1538.4769539078159 3.012516376472242 515.0 3.0 367.0 
280.00058297905275 211329.0 NaN 1535.41215764863 5.0125163764722425 517.0 3.0 366.0 
282.00058297905275 211329.0 NaN 1535.3827655310636 7.0125163764722425 517.0 3.0 366.0 
284.00058297905275 211233.0 NaN 1535.3854375417513 9.007590805390857 516.0 3.0 366.0 
286.0000158777719 211217.0 NaN 1535.3987975951911 5.506175147776977 519.0 0.0 369.0 
288.00058297905275 211319.0 NaN 1535.030060120239 2.0175988437911503 518.0 1.0 368.0 
290.00058297905275 211319.0 NaN 1531.695390781564 4.01759884379115 518.0 1.0 367.0 
292.00058297905275 211319.0 NaN 1528.6225784903154 6.01759884379115 518.0 1.0 366.0 
294.00058297905275 211319.0 NaN 1525.5524382097542 8.01759884379115 516.0 1.0 365.0 
296.00058297905275 211086.0 NaN 1522.4769539078156 10.000515421592167 514.0 1.0 364.0 
298.00058297905275 211309.0 NaN 1529.1249164996657 1.0205447613818774 514.0 3.0 364.0 
300.00058297905275 211309.0 NaN 1529.2050768203092 3.020544761381877 513.0 3.0 364.0 
302.00058297905275 211309.0 NaN 1523.0808283233116 5.020544761381878 513.0 3.0 362.0 
304.00058297905275 211309.0 NaN 1523.0861723446908 7.020544761381878 513.0 3.0 362.0 
306.00058297905275 211194.0 NaN 1523.083500334 9.0126484177794 512.0 3.0 362.0 
308.0000158777719 211152.0 NaN 1523.1182364729455 5.508617778559726 516.0 0.0 365.0 
310.00058297905275 211263.0 NaN 1528.8523714094845 2.021509066388134 512.0 1.0 366.0 
312.00058297905275 211263.0 NaN 1528.5878423513702 4.021509066388134 511.0 1.0 366.0 
314.00058297905275 211263.0 NaN 1522.4448897795614 6.021509066388134 512.0 1.0 364.0 
316.00058297905275 211263.0 NaN 1522.4235136940545 8.021509066388134 511.0 1.0 364.0 
318.00058297905275 210964.0 NaN 1519.3400133600546 10.000547099272328 510.0 1.0 363.0 
320.00058297905275 211175.0 NaN 1526.0200400801612 1.0131666804659034 510.0 4.0 362.0 
322.00058297905275 211175.0 NaN 1526.2070808283247 3.013166680465903 510.0 4.0 362.0 
324.00058297905275 211175.0 NaN 1523.1476285905155 5.013166680465903 510.0 4.0 361.0 
326.00058297905275 211175.0 NaN 1523.1102204408817 7.013166680465903 509.0 4.0 361.0 
328.00058297905275 211076.0 NaN 1523.0968603874428 9.006767337065057 508.0 4.0 361.0 
330.0000158777719 211075.0 NaN 1523.115564462257 5.508160098635364 512.0 1.0 364.0 
332.00058297905275 211186.0 NaN 1525.8303273213091 2.0211078553419424 512.0 1.0 365.0 
334.00058297905275 211186.0 NaN 1522.4849699398817 4.021107855341943 511.0 1.0 364.0 
336.00058297905275 211186.0 NaN 1519.41215764863 6.021107855341943 510.0 1.0 363.0 
338.00058297905275 211186.0 NaN 1519.4041416165662 8.021107855341942 509.0 1.0 363.0 
340.00058297905275 210870.0 NaN 1516.3527054108213 10.000338414211775 508.0 1.0 362.0 
342.00058297905275 211063.0 NaN 1525.979959919839 1.0164405597975057 507.0 3.0 363.0 
344.00058297905275 211063.0 NaN 1526.1830327321302 3.016440559797506 506.0 3.0 363.0 
346.00058297905275 211063.0 NaN 1520.0454241816974 5.0164405597975055 505.0 3.0 361.0 
348.00058297905275 211063.0 NaN 1520.061456245827 7.0164405597975055 505.0 3.0 361.0 
350.00058297905275 210932.0 NaN 1520.064128256512 9.008432776046932 505.0 3.0 361.0 
352.0000158777719 210853.0 NaN 1529.3119572478276 5.50525115129923 511.0 0.0 367.0 
354.00058297905275 210938.0 NaN 1525.8677354709423 2.0159787433890757 511.0 1.0 365.0 
356.00058297905275 210938.0 NaN 1519.4148296593182 4.015978743389076 509.0 1.0 363.0 
358.00058297905275 210938.0 NaN 1516.3179692718757 6.015978743389076 509.0 1.0 362.0 
360.00058297905275 210938.0 NaN 1516.304609218436 8.015978743389075 509.0 1.0 362.0 
362.00058297905275 210687.0 NaN 1516.2939211756843 10.000457715293695 510.0 1.0 362.0 
364.00058297905275 210945.0 NaN 1519.8503674014703 1.0232970892640836 508.0 4.0 360.0 
366.00058297905275 210945.0 NaN 1520.0587842351363 3.0232970892640836 509.0 4.0 360.0 
368.00058297905275 210945.0 NaN 1504.7000668002665 5.023297089264084 509.0 4.0 355.0 
370.00058297905275 210945.0 NaN 1501.6138944555785 7.023297089264084 509.0 4.0 354.0 
372.00058297905275 210780.0 NaN 1501.6032064128262 9.013108847560398 509.0 4.0 354.0 
374.0000158777719 210680.0 NaN 1504.6840347361385 5.507761369729627 514.0 1.0 358.0 
376.00058297905275 210786.0 NaN 1507.3159652638615 2.0226384521268783 515.0 1.0 359.0 
378.00058297905275 210786.0 NaN 1507.0728122912485 4.022638452126879 515.0 1.0 359.0 
380.00058297905275 210786.0 NaN 1503.9732798931188 6.022638452126879 515.0 1.0 358.0 
382.00058297905275 210786.0 NaN 1500.9111556446214 8.022638452126879 514.0 1.0 357.0 
384.00058297905275 210347.0 NaN 1500.8897795591183 10.00045056856844 514.0 1.0 357.0 
386.00058297905275 210547.0 NaN 1510.615898463593 1.0325666236277453 514.0 4.0 357.0 
388.00058297905275 210547.0 NaN 1507.6740146960576 3.032566623627745 514.0 4.0 356.0 
390.00058297905275 210547.0 NaN 1498.4742818971272 5.032566623627745 513.0 4.0 353.0 
392.00058297905275 210547.0 NaN 1501.5604542418175 7.032566623627745 513.0 4.0 354.0 
394.00058297905275 210367.0 NaN 1504.643954575818 9.023884898921283 514.0 4.0 355.0 
396.0000158777719 210235.0 NaN 1513.8677354709425 5.509944874545565 517.0 1.0 361.0 
398.00058297905275 210357.0 NaN 1513.4642618570463 2.0255855765485973 518.0 2.0 360.0 
400.00058297905275 210357.0 NaN 1510.1028724114904 4.025585576548598 518.0 2.0 359.0 
402.00058297905275 210357.0 NaN 1503.9946559786242 6.025585576548598 519.0 2.0 357.0 
404.00058297905275 210357.0 NaN 1507.0888443553788 8.025585576548597 520.0 2.0 358.0 
406.00058297905275 209958.0 NaN 1510.1670006680022 10.0005115487787 520.0 2.0 359.0 
408.00058297905275 210402.0 NaN 1516.7454909819635 1.0241664972438274 519.0 3.0 360.0 
410.00058297905275 210402.0 NaN 1523.0167000667998 3.0241664972438276 519.0 3.0 362.0 
412.00058297905275 210402.0 NaN 1519.9412157648637 5.024166497243828 519.0 3.0 361.0 
414.00058297905275 210402.0 NaN 1519.9225116900461 7.024166497243828 518.0 3.0 361.0 
416.00058297905275 210239.0 NaN 1516.847027388109 9.014162536980564 519.0 3.0 360.0 
418.0000158777719 210208.0 NaN 1516.8897795591183 5.505709483525466 524.0 0.0 363.0 
420.00058297905275 210392.0 NaN 1522.639946559785 2.0213371583584543 524.0 1.0 364.0 
422.00058297905275 210392.0 NaN 1510.0601202404816 4.021337158358454 523.0 1.0 360.0 
424.00058297905275 210392.0 NaN 1500.8764195056788 6.021337158358454 522.0 1.0 357.0 
426.00058297905275 210392.0 NaN 1500.852371409485 8.021337158358454 521.0 1.0 357.0 
428.00058297905275 210063.0 NaN 1497.7742150968613 10.000465785465234 521.0 1.0 356.0 
430.00058297905275 210302.0 NaN 1510.570474281898 1.0242812534704149 515.0 3.0 358.0 
432.00058297905275 210302.0 NaN 1513.8356713426847 3.0242812534704147 514.0 3.0 359.0 
434.00058297905275 210302.0 NaN 1507.6980627922517 5.024281253470415 513.0 3.0 357.0 
436.00058297905275 210302.0 NaN 1513.8383433533727 7.024281253470415 514.0 3.0 359.0 
438.00058297905275 210148.0 NaN 1513.8223112892456 9.014592786630299 515.0 3.0 359.0 
440.0000158777719 210094.0 NaN 1519.9919839679362 5.503656296074899 524.0 1.0 363.0 
442.00058297905275 210240.0 NaN 1528.801603206412 2.0241246767583423 526.0 1.0 366.0 
444.00058297905275 210240.0 NaN 1528.5397461589841 4.024124676758342 526.0 1.0 366.0 
446.00058297905275 210240.0 NaN 1525.4589178356723 6.024124676758342 527.0 1.0 365.0 
448.00058297905275 210240.0 NaN 1525.4562458249823 8.024124676758342 527.0 1.0 365.0 
450.00058297905275 209924.0 NaN 1528.5183700734815 10.00049558671525 527.0 1.0 366.0 
452.00058297905275 210238.0 NaN 1541.370741482964 1.0355749036060193 526.0 3.0 368.0 
454.00058297905275 210238.0 NaN 1538.4609218436879 3.0355749036060193 525.0 3.0 367.0 
456.00058297905275 210238.0 NaN 1538.4502338009365 5.035574903606019 525.0 3.0 367.0 
458.00058297905275 210238.0 NaN 1538.431529726118 7.035574903606019 524.0 3.0 367.0 
460.00058297905275 210043.0 NaN 1535.361389445557 9.020547106485738 524.0 3.0 366.0 
462.0000158777719 209957.0 NaN 1541.5230460921844 5.503237719007024 525.0 1.0 370.0 
464.00058297905275 210108.0 NaN 1544.1148964595848 2.0259573830905393 525.0 1.0 371.0 
466.00058297905275 210108.0 NaN 1543.8797595190367 4.02595738309054 524.0 1.0 371.0 
468.00058297905275 210108.0 NaN 1540.7909151636613 6.02595738309054 525.0 1.0 370.0 
470.00058297905275 210108.0 NaN 1537.6993987975939 8.025957383090539 523.0 1.0 369.0 
472.00058297905275 209747.0 NaN 1534.6239144956576 10.000573853427047 522.0 1.0 368.0 
474.00058297905275 210039.0 NaN 1535.0647962591843 1.0372683609242273 522.0 2.0 367.0 
476.00058297905275 210039.0 NaN 1535.2438209752822 3.037268360924227 521.0 2.0 367.0 
478.00058297905275 210039.0 NaN 1526.030728122912 5.0372683609242275 521.0 2.0 364.0 
480.00058297905275 210039.0 NaN 1526.0066800267186 7.0372683609242275 521.0 2.0 364.0 
482.00058297905275 209850.0 NaN 1522.9311957247817 9.020006384341537 521.0 2.0 363.0 
484.0000158777719 209777.0 NaN 1522.9472277889097 5.505061395096667 521.0 0.0 365.0 
486.00058297905275 209928.0 NaN 1522.6533066132274 2.024066071061799 517.0 2.0 363.0 
488.00058297905275 209928.0 NaN 1519.3132932531726 4.024066071061799 518.0 2.0 362.0 
490.00058297905275 209928.0 NaN 1507.0033400133607 6.024066071061799 517.0 2.0 358.0 
492.00058297905275 209928.0 NaN 1503.9331997328 8.0240660710618 517.0 2.0 357.0 
494.00058297905275 209618.0 NaN 1503.9331997328 10.000309924849835 518.0 2.0 357.0 
496.00058297905275 209938.0 NaN 1507.4335337341356 1.0249833986269683 517.0 2.0 358.0 
498.00058297905275 209938.0 NaN 1507.556446225784 3.0249833986269685 518.0 2.0 358.0 
500.00058297905275 209938.0 NaN 1495.2839011356032 5.0249833986269685 518.0 2.0 354.0 
502.00058297905275 209938.0 NaN 1495.2919171676697 7.0249833986269685 518.0 2.0 354.0 
504.00058297905275 209812.0 NaN 1501.4562458249827 9.015427525603195 520.0 2.0 356.0 
506.0000158777719 209804.0 NaN 1504.5504342017364 5.505090505357765 524.0 0.0 359.0 
508.00058297905275 209988.0 NaN 1510.388777555109 2.0218816110572 524.0 2.0 359.0 
510.00058297905275 209988.0 NaN 1507.0567802271203 4.0218816110572 523.0 2.0 358.0 
512.0005829790528 209988.0 NaN 1503.9919839679364 6.0218816110572 523.0 1.0 358.0 
514.0005829790528 209988.0 NaN 1503.9732798931188 8.021881611057202 524.0 1.0 358.0 
516.0005829790528 209659.0 NaN 1500.9031396125577 10.000273380054926 524.0 1.0 357.0 
518.0005829790528 209933.0 NaN 1498.1563126252513 1.02943279994204 519.0 1.0 356.0 
520.0005829790528 209933.0 NaN 1492.2271209084827 3.02943279994204 519.0 1.0 354.0 
522.0005829790528 209933.0 NaN 1476.8737474949908 5.02943279994204 517.0 1.0 349.0 
524.0005829790528 209933.0 NaN 1467.6633266533072 7.02943279994204 516.0 1.0 346.0 
526.0005829790528 209775.0 NaN 1467.644622578491 9.017781359207715 516.0 1.0 346.0 
528.0000158777718 209751.0 NaN 1476.9004676018717 5.506340052379794 518.0 0.0 350.0 
530.0005829790528 209919.0 NaN 1482.7628590514364 2.027886605877778 514.0 1.0 351.0 
532.0005829790528 209919.0 NaN 1476.3927855711431 4.027886605877778 514.0 1.0 349.0 
534.0005829790528 209919.0 NaN 1470.249832999333 6.027886605877778 515.0 1.0 347.0 
536.0005829790528 209919.0 NaN 1470.2391449565807 8.027886605877779 515.0 1.0 347.0 
538.0005829790528 209583.0 NaN 1470.2391449565807 10.00051011016453 515.0 1.0 347.0 
540.0005829790528 209997.0 NaN 1476.630594522379 1.0237363057005793 514.0 1.0 349.0 
542.0005829790528 209997.0 NaN 1479.8289913159647 3.0237363057005795 513.0 1.0 350.0 
544.0005829790528 209997.0 NaN 1473.696726786908 5.023736305700579 515.0 1.0 348.0 
546.0005829790528 209997.0 NaN 1467.5617902471613 7.023736305700579 515.0 1.0 346.0 
548.0005829790528 209866.0 NaN 1467.5457581830335 9.012789572644957 516.0 1.0 346.0 
550.0000158777718 209851.0 NaN 1470.6346025384096 5.508730181673793 519.0 0.0 348.0 
552.0005829790528 210004.0 NaN 1476.5370741482968 2.0262161449724467 521.0 0.0 350.0 
554.0005829790528 210004.0 NaN 1479.377421509685 4.026216144972446 521.0 0.0 351.0 
556.0005829790528 210004.0 NaN 1476.2912491649972 6.026216144972446 521.0 0.0 350.0 
558.0005829790528 210004.0 NaN 1470.1456245824988 8.026216144972446 520.0 0.0 348.0 
560.0005829790528 209671.0 NaN 1467.0754843019367 10.001020916648482 521.0 0.0 347.0 
562.0005829790528 210076.0 NaN 1473.5898463593853 1.0290246982121876 516.0 0.0 349.0 
564.0005829790528 210076.0 NaN 1476.8042752171004 3.029024698212188 516.0 0.0 350.0 
566.0005829790528 210076.0 NaN 1467.593854375418 5.029024698212187 515.0 0.0 347.0 
568.0005829790528 210076.0 NaN 1467.572478289913 7.029024698212187 516.0 0.0 347.0 
570.0005829790528 209919.0 NaN 1470.6559786239145 9.017811366346608 516.0 0.0 348.0 
572.0000158777718 209880.0 NaN 1473.731462925852 5.506134121129275 515.0 0.0 349.0 
574.0005829790528 210089.0 NaN 1485.776887107548 2.0239374581288767 512.0 2.0 351.0 
576.0005829790528 210089.0 NaN 1485.5711422845698 4.023937458128877 513.0 2.0 351.0 
578.0005829790528 210089.0 NaN 1482.463593854375 6.023937458128877 514.0 2.0 350.0 
580.0005829790528 210089.0 NaN 1479.3961255845013 8.023937458128877 514.0 2.0 349.0 
582.0005829790528 209725.0 NaN 1482.4716098864387 10.00033188903686 516.0 2.0 350.0 
584.0005829790528 210153.0 NaN 1488.8737474949908 1.0242614282365545 520.0 1.0 353.0 
586.0005829790528 210153.0 NaN 1485.9452237808941 3.0242614282365547 521.0 1.0 352.0 
588.0005829790528 210153.0 NaN 1482.8857715430854 5.024261428236555 520.0 1.0 351.0 
590.0005829790528 210153.0 NaN 1485.9665998664 7.024261428236555 521.0 1.0 352.0 
592.0005829790528 210006.0 NaN 1485.9505678022717 9.014259571093074 521.0 1.0 352.0 
594.0000158777718 210008.0 NaN 1495.2037408149638 5.505418221831929 527.0 0.0 356.0 
596.0005829790528 210198.0 NaN 1504.1095524382092 2.026052422821295 530.0 1.0 358.0 
598.0005829790528 210198.0 NaN 1494.6559786239152 4.026052422821295 530.0 1.0 355.0 
600.0005829790528 210198.0 NaN 1494.6720106880437 6.026052422821295 532.0 1.0 355.0 
602.0005829790528 210198.0 NaN 1494.6720106880437 8.026052422821294 532.0 1.0 355.0 
604.0005829790528 209880.0 NaN 1488.5183700734808 10.000355254969918 530.0 1.0 353.0 
606.0005829790528 210278.0 NaN 1498.0280561122254 1.0221131346303671 531.0 3.0 354.0 
608.0005829790528 210278.0 NaN 1501.2505010020031 3.0221131346303673 532.0 3.0 355.0 
610.0005829790528 210278.0 NaN 1492.0293921175696 5.022113134630367 532.0 3.0 352.0 
612.0005829790528 210278.0 NaN 1492.026720106881 7.022113134630367 530.0 3.0 352.0 
614.0005829790528 210150.0 NaN 1492.0133600534393 9.01322356037571 530.0 3.0 352.0 
616.0000158777718 210159.0 NaN 1495.1102204408817 5.510560625259675 533.0 1.0 355.0 
618.0005829790528 210331.0 NaN 1497.9051436205739 2.030965309032623 530.0 1.0 356.0 
620.0005829790528 210331.0 NaN 1494.6452905811627 4.030965309032623 530.0 1.0 355.0 
622.0005829790528 210331.0 NaN 1494.6586506346018 6.030965309032623 530.0 1.0 355.0 
624.0005829790528 210331.0 NaN 1494.6506346025376 8.030965309032624 530.0 1.0 355.0 
626.0005829790528 209911.0 NaN 1494.6880427521717 10.000213995376267 530.0 1.0 355.0 
628.0005829790528 210288.0 NaN 1510.4101536406151 1.0286303926850693 525.0 2.0 359.0 
630.0005829790528 210288.0 NaN 1510.399465597863 3.028630392685069 525.0 2.0 359.0 
632.0005829790528 210288.0 NaN 1510.3967935871738 5.028630392685069 525.0 2.0 359.0 
634.0005829790528 210288.0 NaN 1513.4615898463605 7.028630392685069 526.0 2.0 360.0 
636.0005829790528 210130.0 NaN 1513.4776219104886 9.016870952027716 525.0 2.0 360.0 
638.0000158777718 210109.0 NaN 1519.6927187708745 5.5057982459491095 529.0 1.0 363.0 
640.0005829790528 210283.0 NaN 1528.6492985971938 2.0227248450234323 526.0 2.0 365.0 
642.0005829790528 210283.0 NaN 1519.283901135603 4.022724845023433 525.0 2.0 362.0 
644.0005829790528 210283.0 NaN 1513.1489645958575 6.022724845023433 525.0 2.0 360.0 
646.0005829790528 210283.0 NaN 1513.162324649299 8.022724845023433 525.0 2.0 360.0 
648.0005829790528 209988.0 NaN 1513.1543086172353 10.000188705243508 526.0 2.0 360.0 
650.0005829790528 210329.0 NaN 1525.6887107548437 1.0147490786846072 528.0 1.0 365.0 
652.0005829790528 210329.0 NaN 1525.6192384769547 3.0147490786846074 528.0 1.0 365.0 
654.0005829790528 210329.0 NaN 1522.5490981963922 5.014749078684607 527.0 1.0 364.0 
656.0005829790528 210329.0 NaN 1519.4549098196383 7.014749078684607 527.0 1.0 363.0 
658.0005829790528 210238.0 NaN 1522.5330661322637 9.008205207780714 527.0 1.0 364.0 
660.0000158777718 210302.0 NaN 1531.9198396793577 5.5050533951053415 522.0 1.0 367.0 
662.0005829790528 210483.0 NaN 1537.9051436205739 2.0200978046015834 521.0 1.0 369.0 
664.0005829790528 210483.0 NaN 1537.6913827655303 4.020097804601583 522.0 1.0 369.0 
#####################################################################
# End of data export. Simulation finished at: 2019-03-10T08:39+0000 #
#####################################################################
