#####################################################################
# Alchemist log file - simulation started at: 2019-03-07T04:26+0000 #
#####################################################################
# seed = 4.0, bandwidth = 1.0E8, propagationDelay = 3.1622776601683795, baserange = 10.0
#
# The columns have the following meaning: 
# time neighbor_count[Sum] <value>@neighbor_count[Sum] packet_size[Mean] mean_delay[Mean] crowd[Sum] overcrowded[Sum] risk[Sum] 
0.0 NaN NaN NaN NaN NaN NaN NaN 
2.0004793365590676 NaN NaN 4988.0 NaN 1497.0 0.0 1497.0 
4.000370464175388 164.0 NaN 4988.261857047428 0.2554154789281192 1497.0 0.0 1497.0 
6.000479336559067 486.0 NaN 4991.898463593854 1.831102027859715 1497.0 0.0 1497.0 
8.000370384175389 486.0 NaN 4991.187708750835 2.562435364217493 1497.0 0.0 1497.0 
10.000479336559067 486.0 NaN 4990.506346025384 1.831101989899715 1497.0 0.0 1497.0 
12.00037038417539 487.0 NaN 4989.9505678022715 2.5631058037759944 1497.0 0.0 1497.0 
14.00042902272939 488.0 NaN 4989.899799599199 1.8292966787248597 1497.0 0.0 1497.0 
16.000370384175387 488.0 NaN 4989.750167000668 2.5847784240249707 1497.0 0.0 1497.0 
18.000479336559067 486.0 NaN 4989.573814295257 1.8666854410986617 1497.0 0.0 1497.0 
20.000370384175387 482.0 NaN 4989.517702070808 2.56545405511864 1497.0 0.0 1497.0 
22.000479336559067 483.0 NaN 4989.59786239145 1.8284984941427074 1497.0 0.0 1497.0 
24.000370384175387 484.0 NaN 4989.613894455578 2.5606022095211722 1497.0 0.0 1497.0 
26.000479336559067 484.0 NaN 4989.608550434202 1.8292688791211722 1497.0 0.0 1497.0 
28.000370384175387 487.0 NaN 4989.648630594523 2.552910649915576 1497.0 0.0 1497.0 
30.000479336559067 490.0 NaN 4989.670006680027 1.8283508316424784 1497.0 0.0 1497.0 
32.00037038417539 497.0 NaN 4989.744822979292 2.5644142617077703 1497.0 0.0 1497.0 
34.00042902272939 506.0 NaN 4989.613894455578 1.8867798958786615 1497.0 0.0 1497.0 
36.00037038417538 501.0 NaN 4989.648630594523 2.5680387001977305 1497.0 0.0 1497.0 
38.00047933655907 502.0 NaN 4989.712758851036 1.849085458725421 1497.0 0.0 1497.0 
40.00037038417538 501.0 NaN 4989.758183032732 2.556286049150874 1497.0 0.0 1497.0 
42.00047933655907 503.0 NaN 4989.648630594523 1.8739021868404218 1497.0 0.0 1497.0 
44.00037038417538 501.0 NaN 4989.675350701403 2.572839262544447 1497.0 0.0 1497.0 
46.00047933655907 503.0 NaN 4989.651302605211 1.8894254246385034 1497.0 0.0 1497.0 
48.00037038417538 502.0 NaN 4989.73413493654 2.5358397351114372 1497.0 0.0 1497.0 
50.00047933655907 509.0 NaN 4989.565798263193 1.8614132746313683 1497.0 0.0 1497.0 
52.00037038417538 510.0 NaN 4989.549766199065 2.5794334594989676 1497.0 0.0 1497.0 
54.00042902272939 514.0 NaN 4989.688710754843 1.9019482193781454 1497.0 0.0 1497.0 
56.00037038417538 503.0 NaN 4989.73413493654 2.5685815151366227 1497.0 0.0 1497.0 
58.00047933655907 513.0 NaN 4989.742150968604 1.9201895893228573 1497.0 0.0 1497.0 
60.00037038417538 502.0 NaN 4989.803607214429 2.570765140834636 1497.0 0.0 1497.0 
62.00047933655907 506.0 NaN 599.6259185036743 1.8793181141383652 307.0 0.0 65.0 
64.0003703841754 501.0 NaN 599.6793587174349 2.588336815767772 305.0 0.0 65.0 
66.00047933655907 502.0 NaN 599.5965263861048 1.9539590228118793 306.0 0.0 65.0 
68.0003245041754 490.0 NaN 599.5751503006015 2.5989178345884616 298.0 0.0 65.0 
70.00047933655907 488.0 NaN 599.561790247161 1.897629501458395 297.0 0.0 65.0 
72.0003245041754 487.0 NaN 599.5831663326655 2.585446021748973 295.0 0.0 65.0 
74.00042902272939 491.0 NaN 602.6185704742818 1.8685742782735693 293.0 0.0 66.0 
76.0003245041754 488.0 NaN 602.6185704742818 2.5716287695736626 291.0 0.0 66.0 
78.00047933655907 490.0 NaN 602.605210420841 1.8617582774172745 291.0 0.0 66.0 
80.0003245041754 490.0 NaN 602.6372745490982 2.610235394773982 283.0 0.0 66.0 
82.00047933655907 493.0 NaN 605.6806947227785 1.9590295737765022 261.0 0.0 67.0 
84.0003245041754 485.0 NaN 605.6860387441544 2.5514368888035337 249.0 0.0 67.0 
86.00047933655907 489.0 NaN 608.7374749499002 1.8718541590758362 221.0 0.0 68.0 
88.0003245041754 487.0 NaN 608.7668670674682 2.55469805852203 209.0 0.0 68.0 
90.00047933655907 490.0 NaN 608.7401469605876 1.8718425394485125 196.0 0.0 68.0 
92.0003245041754 487.0 NaN 608.7321309285229 2.582848050515373 194.0 0.0 68.0 
94.00042902272939 490.0 NaN 605.6806947227784 1.9468742245118549 190.0 0.0 67.0 
96.0003245041754 480.0 NaN 605.6860387441544 2.564792758110834 182.0 0.0 67.0 
98.00047933655907 481.0 NaN 602.6132264529059 1.8844706096309953 174.0 0.0 66.0 
100.0003245041754 478.0 NaN 599.5591182364726 2.539503161913875 169.0 0.0 65.0 
102.00047933655907 483.0 NaN 602.613226452906 1.8932612079589122 165.0 0.0 66.0 
104.0003245041754 478.0 NaN 602.6346025384092 2.521118270364414 161.0 0.0 66.0 
106.00047933655907 485.0 NaN 602.6105544422184 1.8628460320876181 151.0 0.0 66.0 
108.0003245041754 488.0 NaN 605.6993987975956 2.5532674313407644 152.0 0.0 67.0 
110.00047933655907 493.0 NaN 605.6860387441544 1.9441530586681002 148.0 0.0 67.0 
112.0003245041754 484.0 NaN 605.7100868403472 2.541555401416561 145.0 0.0 67.0 
114.00042902272939 486.0 NaN 590.3513694054774 1.8510688230260905 142.0 0.0 62.0 
116.0003245041754 484.0 NaN 590.3620574482296 2.5821633173233343 142.0 0.0 62.0 
118.00047933655907 485.0 NaN 590.3647294589181 1.8965525031115391 141.0 0.0 62.0 
120.0003245041754 477.0 NaN 587.3266533066135 2.5827518340598035 138.0 0.0 61.0 
122.00047933655907 478.0 NaN 584.2378089512362 1.8709585601802317 134.0 0.0 60.0 
124.0003245041754 476.0 NaN 584.2538410153638 2.550232882255451 131.0 0.0 60.0 
126.00047933655907 483.0 NaN 587.3186372745494 1.8480807331253448 133.0 0.0 61.0 
128.00032450417538 486.0 NaN 587.3346693386773 2.5409488852183557 136.0 0.0 61.0 
130.00047933655907 492.0 NaN 593.4428857715428 1.862880788950734 135.0 0.0 63.0 
132.00032450417538 494.0 NaN 596.5290581162322 2.54582693361605 133.0 0.0 64.0 
134.0004290227294 502.0 NaN 599.5991983967937 1.8350588037489233 136.0 0.0 65.0 
136.00032450417538 503.0 NaN 599.6125584502338 2.5649369355619 138.0 0.0 65.0 
138.00047933655907 507.0 NaN 602.6559786239142 1.9120972022087124 136.0 0.0 66.0 
140.00032450417538 501.0 NaN 608.8390113560454 2.564875829471345 134.0 0.0 68.0 
142.00047933655907 508.0 NaN 608.7454909819635 1.8834716782142547 137.0 0.0 68.0 
144.00032450417538 508.0 NaN 605.6993987975956 2.5482268511607074 138.0 0.0 67.0 
146.00047933655907 515.0 NaN 602.6559786239139 1.8538420502843496 138.0 0.0 66.0 
148.00032450417538 514.0 NaN 602.6533066132271 2.568476192653118 135.0 0.0 66.0 
150.00047933655907 517.0 NaN 599.5671342685367 1.8923266630382858 136.0 0.0 65.0 
152.00032450417538 516.0 NaN 599.5885103540407 2.587862933956983 137.0 0.0 65.0 
154.0004290227294 528.0 NaN 602.6693386773545 1.9736082060857822 138.0 0.0 66.0 
156.00032450417538 506.0 NaN 608.8416833667333 2.5935242300227617 135.0 0.0 68.0 
158.00047933655907 513.0 NaN 608.7748830995317 1.9335274965460427 135.0 0.0 68.0 
160.00032450417538 502.0 NaN 608.8042752171006 2.5727377517841568 133.0 0.0 68.0 
162.00047933655907 507.0 NaN 608.7909151636605 1.8719664715775706 136.0 0.0 68.0 
164.00032450417538 500.0 NaN 602.6746826987311 2.6116641262400724 136.0 0.0 66.0 
166.00047933655907 505.0 NaN 602.6292585170341 1.9314480840959332 136.0 0.0 66.0 
168.00032450417538 498.0 NaN 605.7261189044757 2.628952912024309 133.0 0.0 67.0 
170.00047933655907 502.0 NaN 605.7127588510358 1.9439491860393618 130.0 0.0 67.0 
172.00032450417538 492.0 NaN 605.7154308617232 2.6083332017371075 130.0 0.0 67.0 
174.0004290227294 498.0 NaN 605.6940547762188 1.9168983525323007 129.0 0.0 67.0 
176.00032450417538 491.0 NaN 605.7261189044757 2.5906460790062447 131.0 0.0 67.0 
178.00047933655907 491.0 NaN 599.5511022044092 1.8942891841698675 130.0 0.0 65.0 
180.00032450417538 488.0 NaN 599.5617902471612 2.6208919330205513 129.0 0.0 65.0 
182.00047933655907 496.0 NaN 605.6940547762185 1.982335223948651 131.0 0.0 67.0 
184.00032450417538 484.0 NaN 605.7100868403475 2.591398303258103 131.0 0.0 67.0 
186.00047933655907 487.0 NaN 605.6887107548429 1.8555002591826704 131.0 0.0 67.0 
188.00032450417538 485.0 NaN 605.6860387441544 2.5938786653529338 130.0 0.0 67.0 
190.00047933655907 485.0 NaN 602.602538410154 1.8977884410408559 129.0 0.0 66.0 
192.00032450417538 488.0 NaN 608.8176352705409 2.5757136495568744 131.0 0.0 68.0 
194.0004290227294 502.0 NaN 621.076820307282 1.9289926668806219 132.0 0.0 72.0 
196.00032450417538 497.0 NaN 621.0821643286571 2.5539337739206314 133.0 0.0 72.0 
198.00047933655907 500.0 NaN 618.0360721442885 1.8862393099292702 132.0 0.0 71.0 
200.00032450417538 502.0 NaN 618.046760187041 2.566379904204308 133.0 0.0 71.0 
202.00047933655907 509.0 NaN 618.0253841015362 1.9190397600390765 133.0 0.0 71.0 
204.00032450417538 499.0 NaN 618.0307281229132 2.550238910409735 131.0 0.0 71.0 
206.00047933655907 505.0 NaN 621.076820307282 1.867098494422699 130.0 0.0 72.0 
208.00032450417538 507.0 NaN 624.1656646626592 2.5461499302027493 131.0 0.0 73.0 
210.00047933655907 514.0 NaN 630.321977287909 1.8590561774865504 130.0 0.0 75.0 
212.00032450417538 516.0 NaN 630.292585170341 2.5984346855324536 129.0 0.0 75.0 
214.0004290227294 522.0 NaN 630.2952571810288 1.9454707552635429 129.0 0.0 75.0 
216.00032450417538 507.0 NaN 627.2331329325318 2.59428127254716 128.0 0.0 74.0 
218.00047933655907 506.0 NaN 618.0414161656637 1.876267733099982 125.0 0.0 71.0 
220.00032450417538 502.0 NaN 618.049432197729 2.6063873574232646 123.0 0.0 71.0 
222.00047933655907 503.0 NaN 618.00668002672 1.9229482191850575 125.0 0.0 71.0 
224.00032450417538 491.0 NaN 618.0227120908484 2.609824706296894 124.0 0.0 71.0 
226.00047933655907 495.0 NaN 617.9986639946562 1.9284200470499395 123.0 0.0 71.0 
228.00032450417538 488.0 NaN 618.0093520374089 2.604894924707832 122.0 0.0 71.0 
230.00047933655907 496.0 NaN 611.8957915831661 1.919108318386749 121.0 0.0 69.0 
232.00032450417538 489.0 NaN 611.8957915831661 2.598110586451362 117.0 0.0 69.0 
234.0004290227294 497.0 NaN 611.8984635938546 1.9202528695696663 119.0 0.0 69.0 
236.00032450417538 491.0 NaN 611.882431529727 2.5891684071739456 118.0 0.0 69.0 
238.00047933655907 495.0 NaN 611.8797595190385 1.8850486987023303 118.0 0.0 69.0 
240.00032450417538 494.0 NaN 611.8797595190385 2.573242080346944 118.0 0.0 69.0 
242.00047933655907 500.0 NaN 611.8717434869745 1.9013728640834267 119.0 0.0 69.0 
244.00032450417538 493.0 NaN 611.8904475617907 2.5646443074514815 120.0 0.0 69.0 
246.00047933655907 499.0 NaN 617.990647962591 1.8457583538887372 121.0 0.0 71.0 
248.00032450417538 502.0 NaN 617.9772879091516 2.5769840963841575 121.0 0.0 71.0 
250.00047933655907 509.0 NaN 624.1816967267862 1.888701701585136 118.0 0.0 73.0 
252.00032450417538 509.0 NaN 624.1683366733469 2.630003498798308 118.0 0.0 73.0 
254.0004290227294 516.0 NaN 627.2331329325318 1.981946831670296 118.0 0.0 74.0 
256.0003245041754 501.0 NaN 627.2438209752831 2.5827174626616323 121.0 0.0 74.0 
258.00047933655907 508.0 NaN 627.1796927187713 1.9521454582557145 123.0 0.0 74.0 
260.0003245041754 498.0 NaN 627.1957247829 2.5855140671677086 121.0 0.0 74.0 
262.00047933655907 500.0 NaN 627.166332665332 1.9089553263067587 121.0 0.0 74.0 
264.0003245041754 491.0 NaN 627.1903807615226 2.603336076432748 120.0 0.0 74.0 
266.00047933655907 495.0 NaN 627.1609886439546 1.9261268881504878 120.0 0.0 74.0 
268.0003245041754 490.0 NaN 627.1877087508351 2.5839986912264328 120.0 0.0 74.0 
270.00047933655907 489.0 NaN 627.1609886439546 1.9031930510402109 121.0 0.0 74.0 
272.0003245041754 484.0 NaN 627.1903807615226 2.5489514488901106 122.0 0.0 74.0 
274.0004290227294 495.0 NaN 621.0554442217773 1.8935987387120923 121.0 0.0 72.0 
276.0003245041754 491.0 NaN 624.1496325985304 2.5713855820419864 121.0 0.0 73.0 
278.00047933655907 496.0 NaN 621.063460253841 1.8864226813569882 120.0 0.0 72.0 
280.0003245041754 494.0 NaN 621.1142284569136 2.601217853760404 120.0 0.0 72.0 
282.00047933655907 500.0 NaN 611.8450233800936 1.9566463172365933 120.0 0.0 69.0 
284.0003245041754 486.0 NaN 608.8096192384774 2.615421847847896 116.0 0.0 68.0 
286.00047933655907 491.0 NaN 608.7401469605883 1.9178432920364452 117.0 0.0 68.0 
288.0003245041754 491.0 NaN 611.8343353373408 2.5798446450601826 118.0 0.0 69.0 
290.00047933655907 504.0 NaN 605.680694722779 1.873562547471754 116.0 0.0 67.0 
292.0003245041754 499.0 NaN 605.7100868403473 2.588611701188575 115.0 0.0 67.0 
294.0004290227294 503.0 NaN 599.5591182364726 1.932908315764976 116.0 0.0 65.0 
296.0003245041754 498.0 NaN 605.7581830327317 2.5889726478241593 118.0 0.0 67.0 
298.00047933655907 500.0 NaN 605.7020708082835 1.8874205423544164 116.0 0.0 67.0 
300.0003245041754 490.0 NaN 605.7661990647955 2.609338163383628 116.0 0.0 67.0 
302.00047933655907 495.0 NaN 605.76085504342 1.959150317874512 117.0 0.0 67.0 
304.0003245041754 483.0 NaN 605.7661990647955 2.588482286976688 117.0 0.0 67.0 
306.00047933655907 484.0 NaN 605.707414829659 1.8778655952430694 116.0 0.0 67.0 
308.0003245041754 480.0 NaN 605.7581830327317 2.579789903144276 115.0 0.0 67.0 
310.00047933655907 487.0 NaN 608.8176352705409 1.908713500999639 114.0 0.0 68.0 
312.0003245041754 480.0 NaN 608.8390113560454 2.584003973875262 114.0 0.0 68.0 
314.0004290227294 482.0 NaN 596.4889779559118 1.9387803025949792 114.0 0.0 64.0 
316.0003245041754 474.0 NaN 596.5076820307276 2.575869483281783 113.0 0.0 64.0 
318.00047933655907 477.0 NaN 593.4188376753502 1.8906412566287636 113.0 0.0 63.0 
320.0003245041754 471.0 NaN 593.4669338677361 2.5614795837563453 113.0 0.0 63.0 
322.00047933655907 474.0 NaN 584.2057448229795 1.9305033457417227 113.0 0.0 60.0 
324.0003245041754 470.0 NaN 584.2324649298594 2.5543015785058922 115.0 0.0 60.0 
326.00047933655907 478.0 NaN 584.2030728122908 1.8548518493118207 115.0 0.0 60.0 
328.0003245041754 480.0 NaN 587.3159652638612 2.587827922963594 114.0 0.0 61.0 
330.00047933655907 485.0 NaN 587.28924515698 1.948950344308551 115.0 0.0 61.0 
332.0003245041754 478.0 NaN 587.3186372745498 2.5548163747078867 115.0 0.0 61.0 
334.0004290227294 481.0 NaN 590.3620574482296 1.9177747541364456 115.0 0.0 62.0 
336.0003245041754 477.0 NaN 590.3700734802937 2.5088693851230475 116.0 0.0 62.0 
338.00047933655907 482.0 NaN 590.3353373413496 1.8551000978950458 116.0 0.0 62.0 
340.0003245041754 485.0 NaN 596.5664662658653 2.55436675647954 115.0 0.0 64.0 
342.00047933655907 500.0 NaN 593.4428857715428 1.9988920710014457 114.0 0.0 63.0 
344.0003245041754 485.0 NaN 590.4181696726789 2.5909063591978962 112.0 0.0 62.0 
346.00047933655907 491.0 NaN 590.3433533734137 1.9589821241876584 113.0 0.0 62.0 
348.0003245041754 479.0 NaN 590.3914495657978 2.5990574052027955 111.0 0.0 62.0 
350.00047933655907 480.0 NaN 587.2678690714769 1.8696893377079695 111.0 0.0 61.0 
352.0003245041754 480.0 NaN 593.4402137608545 2.5867059842206093 113.0 0.0 63.0 
354.0004290227294 485.0 NaN 590.3620574482298 1.8936229820932213 112.0 0.0 62.0 
356.0003245041754 483.0 NaN 590.3647294589183 2.6094888325150727 113.0 0.0 62.0 
358.00047933655907 486.0 NaN 587.2678690714771 1.9269798479989946 115.0 0.0 61.0 
360.0003245041754 480.0 NaN 587.3026052104207 2.6032025097098126 114.0 0.0 61.0 
362.00047933655907 482.0 NaN 584.2110888443549 1.9503339854930737 114.0 0.0 60.0 
364.0003245041754 470.0 NaN 584.227120908484 2.5992478386470177 113.0 0.0 60.0 
366.00047933655907 472.0 NaN 581.1409485637938 1.9272434085714063 112.0 0.0 59.0 
368.0003245041754 467.0 NaN 581.183700734803 2.571528587566908 107.0 0.0 59.0 
370.00047933655907 467.0 NaN 578.0841683366734 1.841947056248462 109.0 0.0 58.0 
372.0003245041754 474.0 NaN 578.1002004008016 2.598747182274526 112.0 0.0 58.0 
374.0004290227294 486.0 NaN 578.0708082832333 1.9708906189283124 110.0 0.0 58.0 
376.0003245041754 471.0 NaN 581.1917167668673 2.5947588534616974 111.0 0.0 59.0 
378.00047933655907 474.0 NaN 581.1783567134272 1.9183614018623854 112.0 0.0 59.0 
380.0003245041754 468.0 NaN 584.2778891115568 2.6205902823998515 109.0 0.0 60.0 
382.00047933655907 476.0 NaN 590.3967935871743 1.918165397045828 110.0 0.0 62.0 
384.0003245041754 470.0 NaN 590.4315297261187 2.5754423740791927 112.0 0.0 62.0 
386.00047933655907 477.0 NaN 593.4989979959911 1.8972942041064245 109.0 0.0 63.0 
388.0003245041754 471.0 NaN 593.5043420173682 2.621185000305737 105.0 0.0 63.0 
390.00047933655907 470.0 NaN 593.4963259853043 1.9443804308623143 106.0 0.0 63.0 
392.0003245041754 466.0 NaN 596.6065464261861 2.59791760926493 108.0 0.0 64.0 
394.0004290227294 483.0 NaN 602.7094188376755 1.970052072978612 110.0 0.0 66.0 
396.0003245041754 471.0 NaN 602.6853707414817 2.6299272767566495 109.0 0.0 66.0 
398.00047933655907 477.0 NaN 605.7207748831001 1.8768590418018938 111.0 0.0 67.0 
400.0003245041754 476.0 NaN 605.7448229792909 2.6489179585395974 111.0 0.0 67.0 
402.00047933655907 492.0 NaN 614.9525718102866 1.9515886281842134 113.0 0.0 70.0 
404.0003245041754 481.0 NaN 614.936539746159 2.6575825009287066 111.0 0.0 70.0 
406.00047933655907 484.0 NaN 611.8877755511018 1.9082441008739794 113.0 0.0 69.0 
408.0003245041754 479.0 NaN 611.9118236472953 2.6537539669240933 113.0 0.0 69.0 
410.00047933655907 481.0 NaN 611.8877755511018 1.919007501519529 114.0 0.0 69.0 
412.0003245041754 481.0 NaN 615.0086840347365 2.5929164952046215 115.0 0.0 70.0 
414.0004290227294 493.0 NaN 618.0788243152973 1.9141840943412503 116.0 0.0 71.0 
416.0003245041754 482.0 NaN 618.1002004008014 2.5939519760073786 116.0 0.0 71.0 
418.00047933655907 488.0 NaN 618.046760187041 1.8839500650500551 116.0 0.0 71.0 
420.0003245041754 486.0 NaN 621.1543086172345 2.6140515106793756 117.0 0.0 72.0 
422.00047933655907 494.0 NaN 624.1282565130257 1.942315775684889 118.0 0.0 73.0 
424.0003245041754 488.0 NaN 624.152304609218 2.6208314386932683 121.0 0.0 73.0 
426.00047933655907 494.0 NaN 627.2251169004684 1.90468750896368 126.0 0.0 74.0 
428.0003245041754 490.0 NaN 630.3406813627262 2.5954760975776296 127.0 0.0 75.0 
430.00047933655907 495.0 NaN 633.3734134936548 1.8845685017513651 128.0 0.0 76.0 
432.0003245041754 492.0 NaN 633.3787575150308 2.6315005609407636 130.0 0.0 76.0 
434.0004290227294 494.0 NaN 633.3466933867727 1.9492855509393041 130.0 0.0 76.0 
436.0003245041754 481.0 NaN 636.43820975284 2.633624916303647 128.0 0.0 77.0 
438.00047933655907 487.0 NaN 639.4629258517045 1.9447664315882303 128.0 0.0 78.0 
440.0003245041754 480.0 NaN 639.4896459585826 2.6343261111308673 129.0 0.0 78.0 
442.00047933655907 489.0 NaN 633.3493653974625 1.9428503283340053 130.0 0.0 76.0 
444.0003245041754 475.0 NaN 633.3600534402135 2.630558437010898 130.0 0.0 76.0 
446.00047933655907 476.0 NaN 633.365397461591 1.9399658512847446 130.0 0.0 76.0 
448.0003245041754 471.0 NaN 633.3787575150305 2.6059923867493384 128.0 0.0 76.0 
450.00047933655907 478.0 NaN 633.3279893119579 1.9274656083307122 128.0 0.0 76.0 
452.0003245041754 474.0 NaN 630.2872411489635 2.602145739017098 128.0 0.0 75.0 
454.0004290227294 484.0 NaN 627.1609886439546 1.9728175125519214 129.0 0.0 74.0 
456.0003245041754 468.0 NaN 630.2364729458911 2.6243527259478885 127.0 0.0 75.0 
458.00047933655907 479.0 NaN 630.2818971275879 1.9294195817593365 127.0 0.0 75.0 
460.0003245041754 475.0 NaN 630.2899131596531 2.641979730591378 127.0 0.0 75.0 
462.00047933655907 491.0 NaN 636.400801603206 1.9506132012771698 126.0 0.0 77.0 
464.0003245041754 486.0 NaN 633.3253173012682 2.612625021836165 123.0 0.0 76.0 
466.00047933655907 489.0 NaN 633.3547094188376 1.9151036088763465 123.0 0.0 76.0 
468.0003245041754 483.0 NaN 633.3413493653969 2.6205921133241303 123.0 0.0 76.0 
470.00047933655907 485.0 NaN 633.3493653974623 1.9490080653237767 123.0 0.0 76.0 
472.0003245041754 476.0 NaN 633.3627254509014 2.6381520868144555 122.0 0.0 76.0 
474.0004290227294 476.0 NaN 621.0527722110896 1.9989926881547575 121.0 0.0 72.0 
476.0003245041754 462.0 NaN 621.074148296592 2.5733879307622645 120.0 0.0 72.0 
478.00047933655907 470.0 NaN 621.0207080828317 1.8928560146428042 120.0 0.0 72.0 
480.0003245041754 466.0 NaN 621.0260521042092 2.570102301481719 120.0 0.0 72.0 
482.00047933655907 467.0 NaN 621.0046760187047 1.890426656113017 120.0 0.0 72.0 
484.0003245041754 465.0 NaN 621.0367401469604 2.5743302165565978 122.0 0.0 72.0 
486.00047933655907 471.0 NaN 620.988643954576 1.9014414468598757 122.0 0.0 72.0 
488.0003245041754 465.0 NaN 621.0207080828317 2.574435234297309 121.0 0.0 72.0 
490.00047933655907 467.0 NaN 617.923847695391 1.8668232227744133 121.0 0.0 71.0 
492.0003245041754 472.0 NaN 617.9559118236468 2.5669129711713667 122.0 0.0 71.0 
494.0004290227294 486.0 NaN 605.678022712091 1.914821190531454 119.0 0.0 67.0 
496.0003245041754 476.0 NaN 602.6399465597865 2.6224774067351815 118.0 0.0 66.0 
498.00047933655907 476.0 NaN 599.5404141616567 1.912152291383648 119.0 0.0 65.0 
500.0003245041754 469.0 NaN 599.5724782899138 2.59904634620595 120.0 0.0 65.0 
502.00047933655907 473.0 NaN 590.3433533734137 1.9016542849581846 119.0 0.0 62.0 
504.0003245041754 463.0 NaN 590.3593854375418 2.586786705829553 118.0 0.0 62.0 
506.00047933655907 467.0 NaN 590.3006012024044 1.8647898276964425 117.0 0.0 62.0 
508.0003245041754 464.0 NaN 590.3086172344688 2.5846848270984473 117.0 0.0 62.0 
510.00047933655907 467.0 NaN 587.2758851035406 1.8446948345201695 118.0 0.0 61.0 
512.0003245041754 469.0 NaN 587.2732130928523 2.6234018576032376 117.0 0.0 61.0 
514.0004290227293 470.0 NaN 578.0307281229125 1.9236150661388325 117.0 0.0 58.0 
516.0003245041754 464.0 NaN 578.052104208417 2.608947206850064 116.0 0.0 58.0 
518.000479336559 472.0 NaN 578.0334001336003 1.9101595432900744 115.0 0.0 58.0 
520.0003245041754 467.0 NaN 578.0601202404807 2.620476577595626 113.0 0.0 58.0 
522.000479336559 469.0 NaN 581.1142284569137 1.8892547259528727 114.0 0.0 59.0 
524.0003245041754 465.0 NaN 581.130260521042 2.6398780892156553 114.0 0.0 59.0 
526.000479336559 466.0 NaN 578.0414161656648 2.011226930139868 114.0 0.0 58.0 
528.0003245041754 451.0 NaN 578.0494321977287 2.6220710606316295 114.0 0.0 58.0 
530.000479336559 452.0 NaN 571.9064796259185 1.8997242315399518 112.0 0.0 56.0 
532.0003245041754 454.0 NaN 571.935871743487 2.5997664467401926 112.0 0.0 56.0 
534.0004290227293 463.0 NaN 571.946559786239 1.9042140349282142 113.0 0.0 56.0 
536.0003245041754 458.0 NaN 571.9572478289913 2.5764258349794282 112.0 0.0 56.0 
538.000479336559 470.0 NaN 574.9979959919841 1.873814252329551 113.0 0.0 57.0 
540.0003245041754 469.0 NaN 575.0300601202405 2.5975943595073834 112.0 0.0 57.0 
542.000479336559 473.0 NaN 575.0193720774884 1.9450012937595802 114.0 0.0 57.0 
544.0003245041754 467.0 NaN 575.0140280561125 2.607857772760495 112.0 0.0 57.0 
546.000479336559 470.0 NaN 571.9278557114227 1.9313303510019189 111.0 0.0 56.0 
548.0003245041754 466.0 NaN 571.9492317969273 2.592211711348112 111.0 0.0 56.0 
550.000479336559 472.0 NaN 571.9331997327988 1.9159453556089538 111.0 0.0 56.0 
552.0003245041754 466.0 NaN 575.0273881095522 2.629005662410849 109.0 0.0 57.0 
554.0004290227293 470.0 NaN 575.0086840347363 1.9368341776785871 107.0 0.0 57.0 
556.0003245041754 467.0 NaN 571.9545758183034 2.627148049706229 109.0 0.0 56.0 
558.000479336559 472.0 NaN 574.9766199064795 2.0060283023115257 109.0 0.0 57.0 
560.0003245041754 457.0 NaN 574.9873079492318 2.5604265192618985 111.0 0.0 57.0 
562.000479336559 458.0 NaN 571.938543754175 1.9201865848553 111.0 0.0 56.0 
564.0003245041754 451.0 NaN 568.8630594522376 2.5711172621595546 112.0 0.0 55.0 
566.000479336559 455.0 NaN 568.86038744155 1.9496333114846363 110.0 0.0 55.0 
568.0003245041754 448.0 NaN 568.8737474949899 2.5572646048439456 107.0 0.0 55.0 
570.000479336559 454.0 NaN 571.935871743487 1.869038707619141 107.0 0.0 56.0 
572.0003245041754 452.0 NaN 571.9412157648633 2.5390467916550077 107.0 0.0 56.0 
574.0004290227293 455.0 NaN 575.0060120240481 1.8730052302875124 106.0 0.0 57.0 
576.0003245041754 452.0 NaN 575.0247160988644 2.5577381795643994 105.0 0.0 57.0 
578.000479336559 456.0 NaN 575.0273881095522 1.8911134121155193 103.0 0.0 57.0 
580.0003245041754 458.0 NaN 578.124248496994 2.533945617347403 105.0 0.0 58.0 
582.000479336559 470.0 NaN 575.0300601202405 1.8726332615023258 106.0 0.0 57.0 
584.0003245041754 465.0 NaN 575.0407481629927 2.5911666041046497 106.0 0.0 57.0 
586.000479336559 467.0 NaN 575.0220440881762 1.9407988323610939 108.0 0.0 57.0 
588.0003245041754 456.0 NaN 575.0407481629927 2.6245423589789945 107.0 0.0 57.0 
590.000479336559 455.0 NaN 575.0086840347363 1.944340622575773 106.0 0.0 57.0 
592.0003245041754 448.0 NaN 575.0220440881762 2.5762175715736184 103.0 0.0 57.0 
594.0004290227293 454.0 NaN 581.1569806279227 1.8640543913285148 105.0 0.0 59.0 
596.0003245041754 455.0 NaN 581.1489645958584 2.5790497702836364 106.0 0.0 59.0 
598.000479336559 465.0 NaN 581.1329325317298 1.9246539538345964 106.0 0.0 59.0 
600.0003245041754 461.0 NaN 581.1489645958584 2.612823440784987 103.0 0.0 59.0 
602.000479336559 467.0 NaN 581.143620574482 1.9210919723240067 104.0 0.0 59.0 
604.0003245041754 461.0 NaN 584.2137608550432 2.6465009354064613 104.0 0.0 60.0 
606.000479336559 468.0 NaN 584.1897127588509 1.9415770527648726 106.0 0.0 60.0 
608.0003245041754 465.0 NaN 590.3727454909817 2.6493982336376822 107.0 0.0 62.0 
610.000479336559 475.0 NaN 590.3486973947895 1.937003954887641 108.0 0.0 62.0 
612.0003245041754 473.0 NaN 590.3406813627253 2.590835002334889 109.0 0.0 62.0 
614.0004290227293 488.0 NaN 593.4268537074151 1.888408710572355 111.0 0.0 63.0 
616.0003245041754 487.0 NaN 596.5023380093521 2.618838196846721 112.0 0.0 64.0 
618.000479336559 493.0 NaN 599.5724782899135 1.98069969143479 113.0 0.0 65.0 
620.0003245041754 484.0 NaN 599.5831663326658 2.6363724405336617 113.0 0.0 65.0 
622.000479336559 491.0 NaN 596.4969939879755 2.0513495768681937 113.0 0.0 64.0 
624.0003245041754 478.0 NaN 596.4889779559115 2.6140675274402767 113.0 0.0 64.0 
626.000479336559 487.0 NaN 599.527054108216 1.977250851977334 115.0 0.0 65.0 
628.0003245041754 476.0 NaN 599.5671342685366 2.596641213726821 117.0 0.0 65.0 
630.000479336559 480.0 NaN 602.5784903139614 1.9157840495231888 117.0 0.0 66.0 
632.0003245041754 471.0 NaN 602.6025384101541 2.607619853303061 118.0 0.0 66.0 
634.0004290227293 480.0 NaN 602.5811623246495 1.9829097238749605 120.0 0.0 66.0 
636.0003245041754 472.0 NaN 605.6860387441545 2.5644161365685165 119.0 0.0 67.0 
638.000479336559 485.0 NaN 611.8610554442224 1.9102693096749153 121.0 0.0 69.0 
640.0003245041754 484.0 NaN 614.9605878423519 2.6191277928172485 121.0 0.0 70.0 
642.000479336559 490.0 NaN 611.8316633266526 1.9762583919843417 123.0 0.0 69.0 
644.0003245041754 472.0 NaN 611.8343353373409 2.5905390377033592 124.0 0.0 69.0 
646.000479336559 478.0 NaN 614.8804275217096 1.877584722004633 126.0 0.0 70.0 
648.0003245041754 476.0 NaN 614.8857715430864 2.6509030562210336 128.0 0.0 70.0 
650.000479336559 476.0 NaN 614.8590514362063 1.992609914900874 128.0 0.0 70.0 
652.0003245041754 465.0 NaN 614.8937875751499 2.6078340093777888 130.0 0.0 70.0 
654.0004290227293 474.0 NaN 611.8289913159653 1.960406315650276 131.0 0.0 69.0 
656.0003245041754 467.0 NaN 614.8991315965267 2.6280494420195866 129.0 0.0 70.0 
658.000479336559 480.0 NaN 617.9933199732797 1.9435940394114073 131.0 0.0 71.0 
660.0003245041754 473.0 NaN 621.068804275218 2.6046861306258418 131.0 0.0 72.0 
662.000479336559 475.0 NaN 621.0367401469609 1.8916429885299133 131.0 0.0 72.0 
664.0003245041754 475.0 NaN 624.1282565130256 2.6224894005007644 131.0 0.0 73.0 
#####################################################################
# End of data export. Simulation finished at: 2019-03-07T04:29+0000 #
#####################################################################
