#####################################################################
# Alchemist log file - simulation started at: 2019-03-10T08:51+0000 #
#####################################################################
# seed = 2.0, bandwidth = 2.3713737056616552E7, propagationDelay = 0.001, baserange = 562.341325190349
#
# The columns have the following meaning: 
# time neighbor_count[Sum] <value>@neighbor_count[Sum] packet_size[Mean] mean_delay[Mean] crowd[Sum] overcrowded[Sum] risk[Sum] 
0.0 NaN NaN NaN NaN NaN NaN NaN 
2.0003359584191007 98210.0 NaN 4996.016032064128 0.49973701076027094 1497.0 0.0 1497.0 
4.000335958419101 98210.0 NaN 4994.426185704743 0.49973717719731153 1497.0 0.0 1497.0 
6.000335958419101 98210.0 NaN 4993.8810955243825 0.4997371532038522 1495.0 2.0 1495.0 
8.0003359584191 98210.0 NaN 4994.37541750167 0.4997371287211519 1495.0 2.0 1495.0 
10.0003359584191 98210.0 NaN 4995.4121576486305 0.49973712894710065 1495.0 2.0 1495.0 
12.0003359584191 98210.0 NaN 4994.295257181028 0.49973715069819385 1496.0 1.0 1496.0 
14.0003359584191 98228.0 NaN 4993.742150968604 0.4997313262954079 1496.0 1.0 1496.0 
16.000335115026093 98232.0 NaN 4993.913159652639 0.4997485812370915 1497.0 0.0 1497.0 
18.000335452383297 98235.0 NaN 4994.781563126253 0.49987748541991966 1497.0 0.0 1497.0 
20.000335452383297 98232.0 NaN 4995.735470941884 0.5005354458723585 1497.0 0.0 1497.0 
22.000335452383297 98260.0 NaN 4994.738810955244 0.4997454655569901 1497.0 0.0 1497.0 
24.000335452383297 98292.0 NaN 4994.150968603874 0.4997713942642932 1496.0 1.0 1496.0 
26.000335452383297 98311.0 NaN 4994.645290581162 0.4997533990919252 1497.0 0.0 1497.0 
28.000335452383297 98319.0 NaN 4995.465597862391 0.4998708396109091 1496.0 1.0 1496.0 
30.000335452383297 98321.0 NaN 4996.243152972612 0.5010163969752824 1496.0 1.0 1496.0 
32.00033528370469 98346.0 NaN 4994.826987307949 0.49982560640400947 1497.0 0.0 1497.0 
34.00033595841909 98398.0 NaN 4993.9719438877755 0.500231739352237 1497.0 0.0 1497.0 
36.00033595841909 98400.0 NaN 4994.271209084836 0.4998063431665913 1497.0 0.0 1497.0 
38.00033595841909 98410.0 NaN 4995.067468269873 0.501030833793664 1497.0 0.0 1497.0 
40.00033595841909 98400.0 NaN 4996.424849699399 0.49998951903257005 1497.0 0.0 1497.0 
42.00033595841909 98435.0 NaN 4995.3667334669335 0.5001206575956851 1497.0 0.0 1497.0 
44.00033595841909 98444.0 NaN 4994.316633266533 0.5007573750985937 1497.0 0.0 1497.0 
46.00033595841909 98429.0 NaN 4994.172344689378 0.4998569011206343 1496.0 1.0 1496.0 
48.00033595841909 98442.0 NaN 4994.778891115565 0.5003084396916399 1496.0 1.0 1496.0 
50.00033511502609 98440.0 NaN 4995.823647294589 0.5008007327513629 1496.0 1.0 1496.0 
52.00033545238329 98487.0 NaN 4994.760187040748 0.5001782716935348 1497.0 0.0 1497.0 
54.00033545238329 98531.0 NaN 4994.126920507682 0.5006460370521362 1497.0 0.0 1497.0 
56.00033545238329 98514.0 NaN 4994.514362057448 0.4999307237222196 1496.0 1.0 1496.0 
58.00033545238329 98529.0 NaN 4995.091516366066 0.5016205429527364 1497.0 0.0 1497.0 
60.00033545238329 98566.0 NaN 4995.909151636606 0.5001182530034785 1497.0 0.0 1497.0 
62.000188446315455 98581.0 NaN 1516.2484969939885 0.5001187895245846 782.0 0.0 363.0 
64.00018844631546 98596.0 NaN 1519.4281897127576 0.5006145740368336 616.0 2.0 362.0 
66.00018844631546 98596.0 NaN 1519.5190380761544 0.5004490821328912 575.0 1.0 363.0 
68.00018844631546 98656.0 NaN 1519.655310621243 0.5011939768773049 549.0 0.0 364.0 
70.00018844631546 98662.0 NaN 1519.6072144288573 0.5005518363865397 533.0 1.0 363.0 
72.00018844631546 98686.0 NaN 1519.4976619906479 0.5002206668712229 531.0 2.0 362.0 
74.00018844631546 98710.0 NaN 1525.541750167 0.5004681297503951 531.0 0.0 366.0 
76.00018844631546 98695.0 NaN 1525.4883099532394 0.5009628476658189 532.0 0.0 366.0 
78.00018844631546 98716.0 NaN 1525.4428857715432 0.500663019161422 530.0 0.0 366.0 
80.00018844631546 98721.0 NaN 1528.4649298597183 0.5000176543522648 527.0 1.0 366.0 
82.00018844631546 98741.0 NaN 1528.4996659986634 0.49986240593624764 529.0 0.0 367.0 
84.00018844631546 98758.0 NaN 1531.6312625250516 0.5001280023277621 530.0 0.0 368.0 
86.00018844631546 98743.0 NaN 1531.7808951235816 0.5002499971750167 528.0 0.0 368.0 
88.00018844631546 98756.0 NaN 1531.778223112891 0.500391134253661 527.0 1.0 367.0 
90.00018844631546 98768.0 NaN 1531.8824315297275 0.5006290845973933 528.0 0.0 368.0 
92.00018844631546 98755.0 NaN 1531.7969271877091 0.5002689199939404 528.0 0.0 368.0 
94.00018844631546 98776.0 NaN 1531.7247828991303 0.5011368562449192 528.0 0.0 368.0 
96.00018844631546 98733.0 NaN 1531.5858383433547 0.5003829986222076 528.0 0.0 368.0 
98.00018844631546 98755.0 NaN 1531.5671342685362 0.5002311141584658 528.0 0.0 368.0 
100.00018844631546 98760.0 NaN 1531.580494321979 0.5007507139295669 527.0 1.0 367.0 
102.00018844631546 98710.0 NaN 1534.7014028056094 0.4999185226752147 528.0 0.0 369.0 
104.00018844631546 98716.0 NaN 1534.8243152972614 0.5007723753344329 527.0 1.0 368.0 
106.00018844631546 98668.0 NaN 1534.952571810288 0.4999106948034817 526.0 1.0 368.0 
108.00018844631546 98707.0 NaN 1538.0654642618572 0.5000265869269274 527.0 0.0 370.0 
110.00018844631546 98765.0 NaN 1537.9585838343364 0.49994686381144954 527.0 1.0 369.0 
112.00018844631546 98775.0 NaN 1537.8784235136936 0.5002330017433387 527.0 1.0 369.0 
114.00018844631546 98804.0 NaN 1537.7661990647969 0.5003278253258974 529.0 0.0 370.0 
116.00018844631546 98804.0 NaN 1540.825651302606 0.5001266860662104 530.0 0.0 371.0 
118.00018844631546 98809.0 NaN 1546.9659318637273 0.5008860004809557 529.0 1.0 372.0 
120.00018844631546 98777.0 NaN 1546.9846359385454 0.5000886220489408 530.0 0.0 373.0 
122.00018844631546 98769.0 NaN 1547.006012024048 0.5000596650648402 530.0 0.0 373.0 
124.00018844631546 98787.0 NaN 1547.0541082164334 0.5000124245916391 529.0 1.0 372.0 
126.00018844631546 98789.0 NaN 1547.1957247829 0.49994422993735516 530.0 0.0 373.0 
128.00018844631543 98792.0 NaN 1547.1636606546429 0.5007008510462443 530.0 0.0 373.0 
130.00018844631546 98762.0 NaN 1547.1449565798275 0.4999400804510231 529.0 1.0 372.0 
132.00018844631546 98767.0 NaN 1544.0801603206426 0.500125014352085 527.0 0.0 372.0 
134.00018844631546 98799.0 NaN 1544.016032064127 0.5006450268308461 527.0 0.0 372.0 
136.0003354523833 98769.0 NaN 1547.1342685370726 0.5000590503386274 525.0 0.0 373.0 
138.0003352837047 98772.0 NaN 1544.0293921175698 0.5003424768819955 522.0 1.0 371.0 
140.0003359584191 98755.0 NaN 1547.1102204408817 0.49998215050568784 523.0 0.0 373.0 
142.0003359584191 98752.0 NaN 1550.1803607214426 0.49986321368204245 523.0 0.0 374.0 
144.0003359584191 98798.0 NaN 1550.263193052773 0.5001247442540951 522.0 0.0 374.0 
146.0003359584191 98776.0 NaN 1550.209752839009 0.4999811163196802 522.0 0.0 374.0 
148.0003359584191 98783.0 NaN 1547.0941883767546 0.5002915956739561 522.0 1.0 372.0 
150.0003359584191 98774.0 NaN 1544.1122244489 0.49991148145206604 521.0 2.0 370.0 
152.0003359584191 98763.0 NaN 1540.9966599866395 0.5000531119902603 519.0 1.0 370.0 
154.0003359584191 98808.0 NaN 1540.9619238476937 0.5003357743882845 517.0 0.0 371.0 
156.00033511502608 98798.0 NaN 1541.0073480293909 0.5001613933542138 519.0 0.0 371.0 
158.0003354523833 98801.0 NaN 1541.0447561790245 0.5006881190605637 520.0 0.0 371.0 
160.0003354523833 98784.0 NaN 1541.092852371409 0.49991097946198326 520.0 1.0 370.0 
162.0003354523833 98783.0 NaN 1541.0447561790245 0.5000767017156132 521.0 0.0 371.0 
164.0003354523833 98809.0 NaN 1544.0347361389456 0.5003320983627834 519.0 0.0 372.0 
166.0003354523833 98773.0 NaN 1550.1616566466275 0.4998182217631923 520.0 0.0 374.0 
168.0003354523833 98769.0 NaN 1550.1456245825 0.5004041328253398 521.0 1.0 373.0 
170.0003354523833 98741.0 NaN 1547.1396125584515 0.4998544505256835 521.0 1.0 372.0 
172.0003352837047 98746.0 NaN 1544.098864395457 0.5001189172661594 521.0 2.0 370.0 
174.0003359584191 98755.0 NaN 1544.2538410153636 0.5006201748231098 522.0 0.0 372.0 
176.0003359584191 98713.0 NaN 1544.1870407481638 0.49993676164966283 519.0 0.0 372.0 
178.0003359584191 98722.0 NaN 1538.1242484969935 0.5008026542043826 519.0 0.0 370.0 
180.0003359584191 98678.0 NaN 1541.1783567134273 0.5001008610747398 520.0 0.0 371.0 
182.0003359584191 98663.0 NaN 1541.0821643286572 0.5002570132987896 520.0 1.0 370.0 
184.0003359584191 98690.0 NaN 1540.8657314629272 0.5006241930286656 518.0 1.0 370.0 
186.0003359584191 98662.0 NaN 1540.7561790247182 0.5006160334418149 519.0 0.0 371.0 
188.0003359584191 98654.0 NaN 1540.782899131597 0.5016689706061208 519.0 0.0 371.0 
190.00033511502608 98567.0 NaN 1540.7641950567818 0.50022122774255 518.0 1.0 370.0 
192.0003354523833 98568.0 NaN 1540.8897795591183 0.500312780311398 519.0 0.0 371.0 
194.0003354523833 98569.0 NaN 1540.9913159652635 0.5004618405857425 519.0 0.0 371.0 
196.0003354523833 98535.0 NaN 1541.164996659988 0.5003660452047443 518.0 1.0 370.0 
198.0003354523833 98534.0 NaN 1544.3179692718754 0.501639660437105 518.0 2.0 370.0 
200.0003354523833 98485.0 NaN 1544.3019372077483 0.500565736999144 521.0 1.0 371.0 
202.0003354523833 98491.0 NaN 1544.2458249832998 0.500819880122047 522.0 0.0 372.0 
204.0003354523833 98491.0 NaN 1547.1636606546429 0.5007728329570891 522.0 0.0 373.0 
206.0003352837047 98479.0 NaN 1544.0614562458272 0.5009606867111923 522.0 0.0 372.0 
208.0003359584191 98481.0 NaN 1541.0607882431543 0.5013444039772804 520.0 0.0 371.0 
210.0003359584191 98450.0 NaN 1538.0440881763545 0.5005647853493216 515.0 1.0 369.0 
212.0003359584191 98451.0 NaN 1541.1275885103548 0.5005349797988139 516.0 0.0 371.0 
214.0003359584191 98440.0 NaN 1544.136272545091 0.5011885462024254 515.0 2.0 370.0 
216.0003359584191 98407.0 NaN 1544.2084168336664 0.5008867520265796 516.0 0.0 372.0 
218.0003359584191 98416.0 NaN 1537.9826319305273 0.500996352877949 518.0 1.0 369.0 
220.0003359584191 98382.0 NaN 1540.9886439545753 0.5001302213070579 518.0 0.0 371.0 
222.0003359584191 98379.0 NaN 1540.8256513026063 0.5005504475696276 519.0 0.0 371.0 
224.00033511502608 98369.0 NaN 1540.828323313293 0.5012333966570715 518.0 0.0 371.0 
226.0003354523833 98381.0 NaN 1540.7641950567815 0.5012893659511847 518.0 0.0 371.0 
228.0003354523833 98403.0 NaN 1540.7401469605884 0.5008499652370572 517.0 1.0 370.0 
230.0003354523833 98393.0 NaN 1537.7100868403456 0.5004050908615212 515.0 0.0 370.0 
232.0003354523833 98396.0 NaN 1540.8924515698066 0.5003927099466993 514.0 1.0 370.0 
234.0003354523833 98382.0 NaN 1541.0153640614546 0.5010182251216535 516.0 0.0 371.0 
236.0003354523833 98325.0 NaN 1540.9592518370089 0.5007040193183896 516.0 0.0 371.0 
238.0003354523833 98319.0 NaN 1541.0126920507664 0.5004856617065355 516.0 0.0 371.0 
240.0003352837047 98311.0 NaN 1537.985303941216 0.5006401563637349 516.0 0.0 370.0 
242.0003359584191 98307.0 NaN 1538.0040080160334 0.5004260481476313 518.0 0.0 370.0 
244.0003359584191 98282.0 NaN 1537.8543754175003 0.501463529066497 518.0 0.0 370.0 
246.0003359584191 98218.0 NaN 1534.8911155644637 0.5012168762291944 518.0 0.0 369.0 
248.0003359584191 98191.0 NaN 1537.9639278557092 0.5004231594777625 518.0 0.0 370.0 
250.0003359584191 98193.0 NaN 1534.8697394789574 0.5007690611782435 517.0 0.0 369.0 
252.0003359584191 98151.0 NaN 1531.7381429525726 0.5007353570138336 513.0 0.0 368.0 
254.0003359584191 98120.0 NaN 1534.717434869739 0.50168893601497 515.0 0.0 369.0 
256.00033595841904 98016.0 NaN 1531.561790247161 0.5007619844094676 513.0 2.0 366.0 
258.0003351150261 98001.0 NaN 1531.5190380761544 0.5006985153650254 516.0 0.0 368.0 
260.00033545238324 97981.0 NaN 1528.4836339345363 0.5009055010790283 515.0 1.0 366.0 
262.00033545238324 97951.0 NaN 1525.5364061456248 0.5005248252231278 517.0 0.0 366.0 
264.00033545238324 97931.0 NaN 1528.7241148964608 0.5015514152046711 515.0 0.0 367.0 
266.00033545238324 97845.0 NaN 1528.7321309285244 0.5004887202654011 516.0 0.0 367.0 
268.00033545238324 97824.0 NaN 1538.06279225117 0.5015501827813975 516.0 0.0 370.0 
270.00033545238324 97816.0 NaN 1541.148964595857 0.5010235140704017 514.0 2.0 369.0 
272.00033545238324 97773.0 NaN 1541.0100200400818 0.5005655621878358 516.0 0.0 371.0 
274.00033528370466 97809.0 NaN 1543.9706078824295 0.501748076329366 514.0 1.0 371.0 
276.00018844631546 97698.0 NaN 1540.9218436873728 0.5002388297292075 514.0 1.0 370.0 
278.00018844631546 97699.0 NaN 1540.945891783566 0.5013136694697503 515.0 0.0 371.0 
280.00018844631546 97703.0 NaN 1537.9024716098886 0.5004329948472055 517.0 0.0 370.0 
282.00018844631546 97686.0 NaN 1537.9078156312637 0.5003079843176854 516.0 0.0 370.0 
284.00018844631546 97687.0 NaN 1537.8677354709432 0.5009462966930087 514.0 1.0 369.0 
286.00018844631546 97586.0 NaN 1537.8543754175 0.5003199819833326 514.0 1.0 369.0 
288.00018844631546 97558.0 NaN 1537.824983299934 0.5010626354046316 514.0 0.0 370.0 
290.00018844631546 97527.0 NaN 1537.8223112892456 0.5006640392833305 514.0 0.0 370.0 
292.00018844631546 97500.0 NaN 1537.7742150968613 0.5003093141190448 512.0 2.0 368.0 
294.00018844631546 97505.0 NaN 1531.5991983967933 0.5019570358351498 514.0 0.0 368.0 
296.00018844631546 97398.0 NaN 1531.5617902471613 0.5005320304241158 514.0 0.0 368.0 
298.00018844631546 97361.0 NaN 1531.5804943219794 0.500410787271202 512.0 1.0 367.0 
300.00018844631546 97327.0 NaN 1534.6987307949246 0.5005582933828439 510.0 0.0 369.0 
302.00018844631546 97298.0 NaN 1528.553106212425 0.500401814201754 510.0 0.0 367.0 
304.00018844631546 97305.0 NaN 1531.660654642618 0.5012369413046718 510.0 0.0 368.0 
306.00018844631546 97210.0 NaN 1531.7942551770207 0.5005497573919795 510.0 0.0 368.0 
308.00018844631546 97194.0 NaN 1531.8503674014703 0.5007578520040186 509.0 0.0 368.0 
310.00018844631546 97151.0 NaN 1537.8597194388792 0.5005380033893588 507.0 1.0 369.0 
312.00018844631546 97127.0 NaN 1534.6746826987298 0.5002683108113017 507.0 1.0 368.0 
314.00018844631546 97118.0 NaN 1531.4736138944545 0.5021657154913749 509.0 0.0 368.0 
316.00018844631546 96979.0 NaN 1528.4141616566453 0.5006673986392348 508.0 1.0 366.0 
318.00018844631546 96928.0 NaN 1528.5611222444907 0.5009206775675076 508.0 1.0 366.0 
320.00018844631546 96889.0 NaN 1531.692718770875 0.5007681694311733 509.0 0.0 368.0 
322.00018844631546 96864.0 NaN 1528.6332665330663 0.50032550979383 510.0 0.0 367.0 
324.00018844631546 96873.0 NaN 1531.7381429525728 0.5010751360338892 509.0 0.0 368.0 
326.00018844631546 96776.0 NaN 1528.7241148964608 0.5015128949056119 509.0 0.0 367.0 
328.00018844631546 96718.0 NaN 1528.756179024718 0.5004949172445352 508.0 1.0 366.0 
330.00018844631546 96687.0 NaN 1528.7695390781548 0.500639065897443 510.0 0.0 367.0 
332.00018844631546 96671.0 NaN 1525.603206412827 0.5003413892925134 512.0 0.0 366.0 
334.00018844631546 96666.0 NaN 1528.6973947895792 0.5024904476200198 511.0 0.0 367.0 
336.00018844631546 96545.0 NaN 1531.8583834335338 0.5003642594812461 511.0 0.0 368.0 
338.00018844631546 96505.0 NaN 1528.8069472277905 0.5002541976347822 512.0 1.0 366.0 
340.00018844631546 96477.0 NaN 1525.6272545090183 0.5004612430355403 511.0 1.0 365.0 
342.00018844631546 96461.0 NaN 1531.7488309953246 0.5002257544080724 516.0 0.0 368.0 
344.00018844631546 96471.0 NaN 1534.7628590514364 0.5019422944019422 514.0 0.0 369.0 
346.00018844631546 96371.0 NaN 1531.5190380761542 0.5005705616099846 514.0 0.0 368.0 
348.00018844631546 96324.0 NaN 1528.3794255177004 0.5004831734324167 517.0 0.0 367.0 
350.00018844631546 96292.0 NaN 1528.4301937207733 0.5004816502787183 517.0 0.0 367.0 
352.00018844631546 96289.0 NaN 1528.4542418169665 0.5001854521334061 517.0 0.0 367.0 
354.00018844631546 96289.0 NaN 1525.5043420173668 0.5020542739561763 517.0 0.0 366.0 
356.00018844631546 96173.0 NaN 1525.4776219104883 0.5007576216883802 515.0 1.0 365.0 
358.00018844631546 96170.0 NaN 1525.4402137608542 0.500623111089759 513.0 1.0 365.0 
360.00018844631546 96147.0 NaN 1525.4028056112213 0.5006759511334469 515.0 0.0 366.0 
362.00018844631546 96113.0 NaN 1525.3092852371426 0.5005569620686182 516.0 0.0 366.0 
364.00018844631546 96065.0 NaN 1525.2905811623248 0.5021912160481385 517.0 0.0 366.0 
366.00018844631546 95970.0 NaN 1525.2692050768187 0.5008344550624529 519.0 0.0 366.0 
368.00018844631546 95968.0 NaN 1507.0033400133605 0.5012569332616293 514.0 0.0 360.0 
370.00018844631546 95944.0 NaN 1500.967267869072 0.5015478721293548 515.0 1.0 357.0 
372.00018844631546 95887.0 NaN 1507.2678690714758 0.5002180459774063 517.0 0.0 360.0 
374.00018844631546 95882.0 NaN 1510.3620574482295 0.5013341347715192 519.0 0.0 361.0 
376.00018844631546 95814.0 NaN 1507.3026052104203 0.5007154204226226 518.0 1.0 359.0 
378.00018844631546 95831.0 NaN 1507.3747494989989 0.5003082482329104 515.0 2.0 358.0 
380.00018844631546 95822.0 NaN 1504.1870407481636 0.5009595650852783 518.0 0.0 359.0 
382.00018844631546 95795.0 NaN 1500.9458917835668 0.5004934032636634 517.0 1.0 357.0 
384.00018844631546 95773.0 NaN 1503.9492317969275 0.5006745160533259 519.0 0.0 359.0 
386.00018844631546 95726.0 NaN 1510.0948563794263 0.5004358414394442 519.0 0.0 361.0 
388.00018844631546 95729.0 NaN 1509.990647962591 0.5003373017507615 519.0 0.0 361.0 
390.00018844631546 95699.0 NaN 1503.8984635938546 0.5004851273339498 518.0 0.0 359.0 
392.00018844631546 95684.0 NaN 1513.1035404141628 0.5000503511007486 518.0 0.0 362.0 
394.00018844631546 95683.0 NaN 1510.0708082832339 0.5008702136473256 518.0 1.0 360.0 
396.00018844631546 95636.0 NaN 1510.0708082832339 0.5010456144632843 518.0 1.0 360.0 
398.00018844631546 95618.0 NaN 1510.0975283901123 0.5006008936250265 520.0 0.0 361.0 
400.00018844631546 95590.0 NaN 1507.1209084836344 0.5007459304879177 520.0 1.0 359.0 
402.00018844631546 95568.0 NaN 1510.191048764194 0.5009331333024769 522.0 0.0 361.0 
404.00018844631546 95534.0 NaN 1516.355377421509 0.5025923392930824 523.0 0.0 363.0 
406.00018844631546 95471.0 NaN 1519.4549098196387 0.5014112181502008 524.0 0.0 364.0 
408.00018844631546 95440.0 NaN 1522.5490981963915 0.5017203497617486 523.0 0.0 365.0 
410.00018844631546 95403.0 NaN 1531.847695390782 0.501361709849679 523.0 1.0 367.0 
412.00018844631546 95352.0 NaN 1531.9331997328004 0.5011616742620191 524.0 0.0 368.0 
414.00018844631546 95324.0 NaN 1535.0835003340003 0.5013287122873664 523.0 0.0 369.0 
416.00018844631546 95295.0 NaN 1535.0487641950547 0.5018958301086077 523.0 1.0 368.0 
418.00018844631546 95305.0 NaN 1519.486973947897 0.5004990519207473 523.0 2.0 362.0 
420.00018844631546 95288.0 NaN 1516.339345357382 0.500300645570393 524.0 0.0 363.0 
422.00018844631546 95295.0 NaN 1516.3233132932542 0.5008231996853212 522.0 0.0 363.0 
424.00018844631546 95264.0 NaN 1513.2157648630605 0.5012332190568726 518.0 1.0 361.0 
426.00018844631546 95217.0 NaN 1516.2271209084824 0.5008305294498295 520.0 0.0 363.0 
428.00018844631546 95249.0 NaN 1519.2277889111547 0.500620814412205 519.0 0.0 364.0 
430.00018844631546 95222.0 NaN 1515.9812959251828 0.5010955148063975 518.0 1.0 362.0 
432.00018844631546 95210.0 NaN 1512.919171676688 0.5010415800697792 519.0 1.0 361.0 
434.00018844631546 95193.0 NaN 1522.1002004008008 0.5029127774442094 524.0 0.0 365.0 
436.00018844631546 95167.0 NaN 1528.366065464263 0.5007346524835783 528.0 0.0 367.0 
438.00018844631546 95181.0 NaN 1528.4221776887096 0.5010478223981484 526.0 0.0 367.0 
440.00018844631546 95122.0 NaN 1528.5718102872424 0.5010504518240824 527.0 0.0 367.0 
442.00018844631546 95084.0 NaN 1531.625918503673 0.5011472788509914 526.0 1.0 367.0 
444.00018844631546 95079.0 NaN 1531.6686706746818 0.500825036052751 527.0 0.0 368.0 
446.00018844631546 95077.0 NaN 1534.8777555110212 0.501138041479004 531.0 0.0 369.0 
448.00018844631546 95087.0 NaN 1543.935871743488 0.5008103435595115 533.0 0.0 372.0 
450.00018844631546 95065.0 NaN 1540.8924515698066 0.5010559033500483 530.0 0.0 371.0 
452.00018844631546 95059.0 NaN 1543.893119572479 0.5011679499988246 530.0 0.0 372.0 
454.00018844631546 95082.0 NaN 1543.8236472945905 0.5013138343502025 528.0 1.0 371.0 
456.00018844631546 95053.0 NaN 1553.1409485637937 0.5008002484646505 529.0 0.0 375.0 
458.00018844631546 95073.0 NaN 1553.1676686706728 0.5007833892486113 528.0 0.0 375.0 
460.00018844631546 95050.0 NaN 1550.2311289245158 0.5009186848928161 525.0 1.0 373.0 
462.00018844631546 95046.0 NaN 1547.1155644622572 0.5010300162995946 525.0 1.0 372.0 
464.00018844631546 95039.0 NaN 1544.0213760855033 0.500882594188512 527.0 0.0 372.0 
466.00018844631546 95023.0 NaN 1547.0434201736819 0.5006606417668897 527.0 1.0 372.0 
468.00018844631546 95028.0 NaN 1547.0273881095543 0.5023743916036816 528.0 0.0 373.0 
470.00018844631546 94993.0 NaN 1540.9164996659997 0.5008808271966619 527.0 0.0 371.0 
472.00018844631546 94983.0 NaN 1537.768871075484 0.5007819944631476 525.0 0.0 370.0 
474.00018844631546 95003.0 NaN 1522.3620574482295 0.5009401794043731 521.0 0.0 365.0 
476.00018844631546 95020.0 NaN 1516.1416165664657 0.5004269417276581 519.0 0.0 363.0 
478.00018844631546 95040.0 NaN 1516.1255845023372 0.5006742318432722 517.0 0.0 363.0 
480.00018844631546 95033.0 NaN 1516.160320641282 0.501192357872496 517.0 1.0 362.0 
482.00018844631546 95022.0 NaN 1510.0654642618565 0.5010081294426895 516.0 1.0 360.0 
484.00018844631546 95035.0 NaN 1510.124248496993 0.5004628180988351 514.0 1.0 360.0 
486.00018844631546 95094.0 NaN 1507.0968603874426 0.5007616863677118 515.0 0.0 360.0 
488.00018844631546 95118.0 NaN 1497.8490313961263 0.5004704061192514 513.0 0.0 357.0 
490.00018844631546 95107.0 NaN 1497.69138276553 0.5015477934788255 513.0 0.0 357.0 
492.00018844631546 95092.0 NaN 1494.5223780895114 0.5009138746804235 511.0 0.0 356.0 
494.00018844631546 95101.0 NaN 1491.4255177020716 0.501572492990804 510.0 0.0 355.0 
496.00018844631546 95090.0 NaN 1491.4629258517027 0.50052847258756 508.0 0.0 355.0 
498.00018844631546 95107.0 NaN 1488.5317301269195 0.500624918377166 509.0 0.0 354.0 
500.00018844631546 95091.0 NaN 1488.537074148297 0.5006861327488179 508.0 0.0 354.0 
502.00018844631546 95097.0 NaN 1491.7167668670666 0.5015556832839431 511.0 0.0 355.0 
504.00018844631546 95078.0 NaN 1491.7942551770202 0.5014190182798117 512.0 1.0 354.0 
506.00018844631546 95063.0 NaN 1498.006680026719 0.5007264572076702 516.0 0.0 357.0 
508.00018844631546 95075.0 NaN 1491.8370073480282 0.5005701876576172 514.0 1.0 354.0 
510.00018844631546 95067.0 NaN 1497.9746158984635 0.5008340802150486 515.0 0.0 357.0 
512.0001884463155 95084.0 NaN 1498.0200400801614 0.5022020548087023 515.0 0.0 357.0 
514.0001884463155 95081.0 NaN 1491.7702070808275 0.5020956614386686 516.0 0.0 355.0 
516.0001884463155 95048.0 NaN 1479.4682698730805 0.500512454992138 513.0 0.0 351.0 
518.0001884463155 95076.0 NaN 1473.2291249165 0.5002994461547846 508.0 1.0 348.0 
520.0001884463155 95093.0 NaN 1467.0647962591843 0.501419962413973 506.0 2.0 345.0 
522.0001884463155 95098.0 NaN 1470.0814963259845 0.5021839689550059 506.0 0.0 348.0 
524.0001884463155 95145.0 NaN 1451.655310621243 0.5016226829807571 506.0 0.0 342.0 
526.0001884463155 95111.0 NaN 1451.6259185036733 0.5001428596759239 504.0 2.0 340.0 
528.0001884463155 95147.0 NaN 1454.717434869739 0.5019033780488606 505.0 1.0 342.0 
530.0001884463155 95204.0 NaN 1454.736138944555 0.5014898952690052 509.0 0.0 343.0 
532.0001884463155 95206.0 NaN 1454.7494989979969 0.501944291015177 508.0 0.0 343.0 
534.0001884463155 95264.0 NaN 1460.9806279225113 0.5009548622362751 507.0 0.0 345.0 
536.0001884463155 95269.0 NaN 1454.8162992651974 0.5015765578137088 508.0 0.0 343.0 
538.0001884463155 95318.0 NaN 1457.9906479625913 0.5007100362784269 509.0 0.0 344.0 
540.0001884463155 95311.0 NaN 1458.0360721442896 0.5020465196184866 510.0 0.0 344.0 
542.0001884463155 95305.0 NaN 1461.0207080828327 0.500788993219542 510.0 0.0 345.0 
544.0001884463155 95324.0 NaN 1460.9565798263186 0.5014289818690582 512.0 1.0 344.0 
546.0001884463155 95308.0 NaN 1457.9265197060793 0.5008190894726913 513.0 0.0 344.0 
548.0001884463155 95339.0 NaN 1457.958583834336 0.500748053496543 516.0 0.0 344.0 
550.0001884463155 95346.0 NaN 1460.993987975952 0.5016503819253884 515.0 1.0 344.0 
552.0001884463155 95363.0 NaN 1461.036740146961 0.5010559595728572 515.0 0.0 345.0 
554.0003359584191 95433.0 NaN 1467.1850367401464 0.5015770588203247 514.0 1.0 346.0 
556.0003359584191 95412.0 NaN 1470.1189044756181 0.5010197475620457 513.0 0.0 348.0 
558.0003359584191 95475.0 NaN 1454.6960587842354 0.5008613615603039 509.0 0.0 343.0 
560.0003359584191 95471.0 NaN 1451.5617902471606 0.501299022872442 505.0 1.0 341.0 
562.0003359584191 95486.0 NaN 1454.6506346025378 0.5017559036843728 501.0 0.0 343.0 
564.000335115026 95516.0 NaN 1460.7241148964592 0.5014609697084179 502.0 0.0 345.0 
566.0003354523833 95505.0 NaN 1470.0227120908485 0.5015986325541728 504.0 1.0 347.0 
568.0003354523833 95436.0 NaN 1470.0921843687368 0.5018260911042941 504.0 2.0 346.0 
570.0003354523833 95387.0 NaN 1476.467601870408 0.5006750335810963 514.0 0.0 350.0 
572.0003354523833 95390.0 NaN 1479.593854375418 0.5015529858256412 512.0 1.0 350.0 
574.0003354523833 95388.0 NaN 1482.645290581163 0.5015754941626925 512.0 0.0 352.0 
576.0003354523833 95350.0 NaN 1488.828323313293 0.5019750779781111 511.0 1.0 353.0 
578.0003354523833 95352.0 NaN 1482.6639946559792 0.5019230704353108 513.0 1.0 351.0 
580.0003352837047 95351.0 NaN 1485.6887107548437 0.501031786497625 514.0 0.0 353.0 
582.0003359584191 95378.0 NaN 1485.6566466265872 0.5015733332433471 518.0 0.0 353.0 
584.0003359584191 95391.0 NaN 1482.5410821643281 0.5016434042758051 516.0 1.0 351.0 
586.0003359584191 95374.0 NaN 1491.7327989311968 0.5013321502967693 520.0 0.0 355.0 
588.0003359584191 95379.0 NaN 1488.6279225116907 0.5037375008869085 520.0 0.0 354.0 
590.0003359584191 95327.0 NaN 1491.660654642618 0.5002972649019117 522.0 0.0 355.0 
592.0003359584191 95384.0 NaN 1491.7060788243164 0.500588420745982 524.0 1.0 354.0 
594.0003359584191 95398.0 NaN 1491.751503006011 0.5012058302139547 525.0 0.0 355.0 
596.0003359584191 95373.0 NaN 1494.816299265198 0.5007395502947432 527.0 0.0 356.0 
598.000335115026 95403.0 NaN 1488.5878423513702 0.5012139984807459 527.0 0.0 354.0 
600.0003354523833 95351.0 NaN 1485.3627254509013 0.5012241345771842 529.0 0.0 353.0 
602.0003354523833 95341.0 NaN 1491.5484301937202 0.5017036994425768 529.0 0.0 355.0 
604.0003354523833 95381.0 NaN 1491.593854375418 0.5013221952424759 526.0 2.0 353.0 
606.0003354523833 95398.0 NaN 1497.8891115564456 0.5016004949999948 525.0 0.0 357.0 
608.0003354523833 95453.0 NaN 1497.8891115564456 0.5017256259515102 524.0 1.0 356.0 
610.0003354523833 95441.0 NaN 1494.8029392117558 0.5012863751199943 524.0 2.0 354.0 
612.0003354523833 95423.0 NaN 1494.8724114896452 0.5012232713138158 520.0 2.0 354.0 
614.0003352837047 95461.0 NaN 1494.7975951903816 0.5016257935986999 522.0 0.0 356.0 
616.0003359584191 95451.0 NaN 1497.8410153640625 0.5012358625527455 523.0 0.0 357.0 
618.0003359584191 95471.0 NaN 1497.8597194388788 0.500978668698708 525.0 0.0 357.0 
620.0003359584191 95482.0 NaN 1494.8082832331336 0.5009150231407371 523.0 0.0 356.0 
622.0003359584191 95471.0 NaN 1500.9539078156304 0.5006915609432167 521.0 1.0 357.0 
624.0003359584191 95517.0 NaN 1504.0908483633928 0.5013301542444162 519.0 0.0 359.0 
626.0003359584191 95493.0 NaN 1507.0915163660648 0.5011945513042045 520.0 0.0 360.0 
628.0003359584191 95501.0 NaN 1507.05678022712 0.5010641054392673 519.0 0.0 360.0 
630.0003359584191 95481.0 NaN 1507.0514362057454 0.501616350165893 517.0 0.0 360.0 
632.000335115026 95422.0 NaN 1507.0728122912483 0.5007283096341074 516.0 0.0 360.0 
634.0003354523833 95452.0 NaN 1513.2611890447556 0.5013677082773106 519.0 0.0 362.0 
636.0003354523833 95399.0 NaN 1516.3740814963264 0.5039902264830578 526.0 0.0 363.0 
638.0003354523833 95349.0 NaN 1516.4488977955907 0.5016974563704032 527.0 0.0 363.0 
640.0003354523833 95313.0 NaN 1513.4134936539738 0.5012803052710723 526.0 0.0 362.0 
642.0003354523833 95287.0 NaN 1510.4315297261182 0.5018501112543127 527.0 0.0 361.0 
644.0003354523833 95287.0 NaN 1507.2972611890455 0.5015900468614632 527.0 0.0 360.0 
646.0003354523833 95238.0 NaN 1510.3647294589182 0.5024600496430888 523.0 1.0 360.0 
648.0003352837047 95189.0 NaN 1513.3814295257184 0.5009066169433116 524.0 1.0 361.0 
650.0003359584191 95196.0 NaN 1519.5698062792262 0.501533229124616 521.0 0.0 364.0 
652.0003359584191 95175.0 NaN 1522.5410821643281 0.5006058122602624 519.0 0.0 365.0 
654.0003359584191 95216.0 NaN 1519.3480293921182 0.501819965604964 517.0 1.0 363.0 
656.0003359584191 95219.0 NaN 1525.5043420173668 0.501452349886826 517.0 0.0 366.0 
658.0003359584191 95253.0 NaN 1534.8724114896452 0.502247214575077 516.0 0.0 369.0 
660.0003359584191 95233.0 NaN 1534.907147628591 0.5016676708564636 516.0 0.0 369.0 
662.0003359584191 95206.0 NaN 1534.818971275884 0.5012823560794378 516.0 0.0 369.0 
664.0003359584191 95236.0 NaN 1537.9318637274544 0.5015177354248962 518.0 0.0 370.0 
#####################################################################
# End of data export. Simulation finished at: 2019-03-10T09:28+0000 #
#####################################################################
