#####################################################################
# Alchemist log file - simulation started at: 2019-03-06T13:59+0000 #
#####################################################################
# seed = 1.0, bandwidth = 1.0E8, accessPointCount = 2000.0, baserange = 316.2277660168379
#
# The columns have the following meaning: 
# time neighbor_count[Sum] <value>@neighbor_count[Sum] packet_size[Mean] mean_delay[Mean] crowd[Sum] overcrowded[Sum] risk[Sum] 
0.0 NaN NaN NaN NaN NaN NaN NaN 
10.000417374280275 21710.0 15731.0 4981.763797540749 0.5594941499447557 1496.0 1.0 1496.0 
20.000417374280275 21276.0 15527.0 4982.13668859022 0.49997708582950107 1489.0 8.0 1489.0 
30.000417374280275 21286.0 15526.0 4981.738633114097 0.49926117546195414 1486.0 11.0 1486.0 
40.000417374280275 21295.0 15527.0 4982.085215899342 0.500086513165131 1487.0 10.0 1487.0 
50.000417374280275 21305.0 15529.0 4981.562482127538 0.49900564286734483 1486.0 11.0 1486.0 
60.000417374280275 21294.0 15530.0 4981.906777237632 0.5005468215523605 1488.0 9.0 1488.0 
70.00041737428027 21266.0 15529.0 830.1424077781128 0.49887940742063747 482.0 10.0 317.0 
80.00041737428027 21304.0 15530.0 835.367457820979 0.49963123477636956 467.0 1.0 330.0 
90.00041737428027 21247.0 15529.0 835.3239919931469 0.499207587863141 459.0 2.0 329.0 
100.00041737428027 21255.0 15530.0 835.2473548756269 0.49944473535986667 449.0 10.0 321.0 
110.00041737428027 21308.0 15531.0 835.2610809265021 0.49961297049252906 457.0 2.0 329.0 
120.00041737428027 21248.0 15531.0 836.5684872748044 0.5012089791500559 460.0 0.0 332.0 
130.0004173742803 21240.0 15530.0 836.6153846153913 0.5000767279722974 461.0 1.0 331.0 
140.0004173742803 21285.0 15532.0 839.2839576780098 0.5008778860557552 456.0 1.0 333.0 
150.0004173742803 21268.0 15534.0 841.9090649127746 0.5009882627954148 454.0 7.0 329.0 
160.0004173742803 21240.0 15533.0 839.2816700028679 0.5002917214335745 458.0 1.0 333.0 
170.0004173742803 21242.0 15531.0 839.2953960537428 0.4992154850271702 458.0 1.0 333.0 
180.0004173742803 21221.0 15531.0 836.6931655704827 0.4997699993546347 457.0 0.0 332.0 
190.0004173742803 21271.0 15533.0 841.9456677151987 0.5014319386996392 454.0 1.0 335.0 
200.0004173742803 21344.0 15534.0 840.5925078638837 0.5003274940577314 441.0 8.0 327.0 
210.0004173742803 21312.0 15532.0 840.6039462396167 0.5000744415913433 438.0 16.0 319.0 
220.0004173742803 21241.0 15534.0 839.266800114376 0.5010509933822288 451.0 8.0 326.0 
230.0004173742803 21132.0 15532.0 840.5604804117887 0.49992110404377965 445.0 8.0 327.0 
240.0004173742803 21174.0 15535.0 837.965112953974 0.5022932750573311 443.0 8.0 325.0 
250.0004173742803 21172.0 15533.0 836.6371175293247 0.5005319009198171 443.0 8.0 324.0 
260.0004173742803 21145.0 15536.0 837.9102087503456 0.5019199281276556 447.0 8.0 325.0 
270.0004173742803 21140.0 15533.0 832.6885902201988 0.500843601714642 453.0 0.0 329.0 
280.0004173742803 21059.0 15535.0 835.2736631398477 0.5009645799597601 457.0 1.0 330.0 
290.0004173742803 21043.0 15540.0 840.5181584215059 0.5041447475602038 449.0 1.0 334.0 
300.0004173742803 20989.0 15537.0 839.2622247640726 0.5002715666923849 440.0 8.0 326.0 
310.0004173742803 21036.0 15537.0 836.6005147269008 0.4997697140959461 434.0 9.0 323.0 
320.0004173742803 21046.0 15537.0 832.6348298541665 0.501475253055793 437.0 9.0 320.0 
330.0004173742803 20990.0 15537.0 833.9422362024691 0.4993471543874811 439.0 8.0 322.0 
340.0004173742803 21055.0 15539.0 832.6428367171827 0.5003670457451179 434.0 8.0 321.0 
350.0004173742803 21037.0 15539.0 832.6622819559753 0.5024369389919612 431.0 10.0 319.0 
360.0004173742803 21006.0 15534.0 832.6416928796124 0.5000126333536327 427.0 9.0 320.0 
370.0004173742803 21073.0 15540.0 828.690877895341 0.5033764008401135 421.0 18.0 308.0 
380.0004173742803 20997.0 15534.0 826.040606233926 0.5014976809519953 429.0 11.0 313.0 
390.0004173742803 20949.0 15537.0 823.4486702888274 0.5014294877994447 443.0 0.0 322.0 
400.0004173742803 21014.0 15537.0 832.616528452963 0.502353586231343 445.0 6.0 323.0 
410.0004173742803 20958.0 15528.0 835.2622247640725 0.5002999160068525 448.0 10.0 321.0 
420.0004173742803 21002.0 15527.0 829.9319416642652 0.49919868283183844 450.0 9.0 318.0 
430.0004173742803 21009.0 15534.0 830.0245925078643 0.5015227146375695 452.0 4.0 323.0 
440.0004173742803 20918.0 15531.0 837.9330855018527 0.5008756053619013 451.0 2.0 331.0 
450.0004173742803 20875.0 15532.0 840.5799256505376 0.50125250386832 459.0 0.0 335.0 
460.0004173742803 20911.0 15536.0 841.8770374606785 0.5013016933718508 460.0 1.0 335.0 
470.0004173742803 20877.0 15537.0 835.2942522161712 0.5009068790858417 447.0 1.0 330.0 
480.0004173742803 20910.0 15542.0 830.013154132131 0.5044481834923505 440.0 0.0 327.0 
490.0004173742803 20810.0 15538.0 823.4360880754821 0.5009957250000566 443.0 1.0 321.0 
500.0004173742803 20781.0 15538.0 818.1412639405253 0.5014517159765067 437.0 1.0 317.0 
510.0004173742803 20743.0 15538.0 822.1092364884043 0.5006860460397599 446.0 0.0 321.0 
520.0004173742802 20767.0 15539.0 815.5230197312047 0.49931718351150084 445.0 1.0 315.0 
530.0004173742802 20722.0 15540.0 812.8921933085417 0.5016493328402032 462.0 1.0 313.0 
540.0004173742802 20745.0 15537.0 816.8773234200917 0.49945528652454796 455.0 0.0 317.0 
550.0004173742802 20737.0 15537.0 818.1172433514473 0.49905112327581286 455.0 1.0 317.0 
560.0004173742802 20762.0 15542.0 811.5939376608673 0.5025106328644077 451.0 1.0 312.0 
570.0004173742802 20720.0 15542.0 820.8086931655894 0.5024881840375578 459.0 0.0 320.0 
580.0004173742802 20752.0 15538.0 828.7309122104783 0.5000451278569243 463.0 1.0 325.0 
590.0004173742802 20840.0 15543.0 826.1435516156846 0.5022040874638845 462.0 1.0 323.0 
600.0004173742802 20802.0 15538.0 830.0371747212101 0.49955597782161726 458.0 0.0 327.0 
610.0004173742802 20867.0 15541.0 833.9902773806235 0.5017477046748956 453.0 1.0 329.0 
620.0004173742802 20871.0 15539.0 831.3125536173753 0.5012103462300536 451.0 1.0 327.0 
630.0004173742802 20944.0 15541.0 826.0943665999558 0.5033332243250122 448.0 0.0 324.0 
640.0004173742802 20891.0 15537.0 823.4955676294113 0.4994344746962025 454.0 3.0 319.0 
650.0004173742802 20963.0 15541.0 830.0520446096559 0.5022832677195578 451.0 1.0 326.0 
660.0004173742802 20948.0 15541.0 831.3663139834048 0.5014665913214716 446.0 0.0 328.0 
#####################################################################
# End of data export. Simulation finished at: 2019-03-06T14:49+0000 #
#####################################################################
