#####################################################################
# Alchemist log file - simulation started at: 2019-03-07T14:25+0000 #
#####################################################################
# seed = 7.0, bandwidth = 4216.965034285822, accessPointCount = 19.39227447486858, baserange = 177.82794100389228
#
# The columns have the following meaning: 
# time neighbor_count[Sum] <value>@neighbor_count[Sum] packet_size[Mean] mean_delay[Mean] crowd[Sum] overcrowded[Sum] risk[Sum] 
0.0 NaN NaN NaN NaN NaN NaN NaN 
2.0002458590828063 3.0 NaN 4987.699208443271 0.28261553308884285 1497.0 0.0 1497.0 
4.000798617819165 15.0 7.0 4987.7018469657 0.7094228566162122 1497.0 0.0 1497.0 
6.000297418119471 43.0 13.0 4987.76253298153 1.230413827099678 1497.0 0.0 1497.0 
8.000798617819164 54.0 15.0 4987.757255936675 1.9477012393678934 1497.0 0.0 1497.0 
10.000798617819164 71.0 19.0 4987.8073878627965 2.322165936668692 1497.0 0.0 1497.0 
12.000798617819164 74.0 19.0 4987.78364116095 2.753069386657594 1497.0 0.0 1497.0 
14.000798617819164 76.0 19.0 4987.815303430079 2.5797243224891733 1497.0 0.0 1497.0 
16.000297418119473 76.0 19.0 4987.820580474934 3.1759912901564276 1497.0 0.0 1497.0 
18.000798617819164 78.0 19.0 4987.815303430079 1.9984401793838973 1497.0 0.0 1497.0 
20.000798617819164 78.0 19.0 4987.781002638522 2.961440116361518 1497.0 0.0 1497.0 
22.000798617819164 78.0 19.0 4987.817941952507 2.670148235450892 1497.0 0.0 1497.0 
24.000798617819164 78.0 19.0 4987.817941952507 3.3492186569582723 1497.0 0.0 1497.0 
26.000297418119473 78.0 19.0 4987.765171503957 2.0264120412865383 1497.0 0.0 1497.0 
28.000798617819164 78.0 19.0 4987.765171503957 2.959745374619872 1497.0 0.0 1497.0 
30.000798617819164 138.0 21.0 4987.828496042216 1.8237936224033215 1497.0 0.0 1497.0 
32.000798617819164 642.0 44.0 4988.131926121372 2.4279556806996894 1497.0 0.0 1497.0 
34.000798617819164 642.0 44.0 4988.094986807388 2.6480365411476328 1497.0 0.0 1497.0 
36.00029741811947 772.0 53.0 4988.126649076517 3.029598254508959 1497.0 0.0 1497.0 
38.000798617819164 1210.0 74.0 4988.469656992084 3.7382240653299874 1497.0 0.0 1497.0 
40.000798617819164 1210.0 74.0 4988.459102902375 5.26690615800768 1497.0 0.0 1497.0 
42.000798617819164 1210.0 74.0 4988.459102902375 6.18307051407882 1497.0 0.0 1497.0 
44.000798617819164 1210.0 74.0 4988.459102902375 7.7214299647087365 1497.0 0.0 1497.0 
46.00029741811947 1210.0 74.0 4988.453825857519 8.896295651445811 1497.0 0.0 1497.0 
48.000798617819164 1211.0 74.0 4988.453825857519 10.415983722424865 1497.0 0.0 1497.0 
50.000798617819164 1212.0 74.0 4988.453825857519 11.338944852349664 1497.0 0.0 1497.0 
52.000798617819164 1212.0 74.0 4988.453825857519 12.870566669282542 1497.0 0.0 1497.0 
54.000798617819164 1212.0 74.0 4988.459102902375 14.037222043693468 1497.0 0.0 1497.0 
56.00029741811947 1212.0 74.0 4988.453825857519 15.556269662741085 1497.0 0.0 1497.0 
58.000798617819164 1212.0 74.0 4988.453825857519 16.52928553575696 1497.0 0.0 1497.0 
60.000798617819164 1212.0 74.0 4988.453825857519 17.041849214764735 1497.0 0.0 1497.0 
62.000418815792834 1216.0 75.0 500.2981530343009 9.798604734879884 62.0 1.0 32.0 
64.00041881579283 1216.0 75.0 500.2559366754619 10.874159712684227 60.0 1.0 32.0 
66.00029741811947 1096.0 66.0 500.24538258575205 11.588843691810478 59.0 1.0 32.0 
68.00041881579284 677.0 48.0 500.2005277044856 3.0455165996414557 46.0 1.0 32.0 
70.00041881579284 1220.0 75.0 500.16622691292895 3.0114502642718435 58.0 1.0 32.0 
72.00041881579284 1238.0 76.0 500.2137203166227 3.9085621201230887 59.0 1.0 32.0 
74.00041881579284 1249.0 76.0 500.2137203166227 4.522600179184389 60.0 1.0 32.0 
76.00029741811947 1249.0 76.0 500.2137203166227 5.082447463956888 60.0 1.0 32.0 
78.00041881579284 1249.0 76.0 500.2137203166227 5.958056728664679 60.0 1.0 32.0 
80.00041881579284 1248.0 76.0 500.2137203166227 6.711920260131376 60.0 1.0 32.0 
82.00041881579284 1248.0 76.0 500.2137203166227 7.4364864901934595 59.0 1.0 32.0 
84.00041881579284 1250.0 76.0 500.2137203166227 8.105100447656639 59.0 1.0 32.0 
86.00029741811947 1251.0 76.0 500.2137203166227 8.893233797999915 59.0 1.0 32.0 
88.00041881579284 1251.0 76.0 500.2137203166227 9.69430903414719 59.0 1.0 32.0 
90.00041881579284 1243.0 76.0 500.2295514511873 9.91787114533477 57.0 3.0 30.0 
92.00041881579284 1268.0 76.0 500.2559366754619 5.134228333695089 59.0 1.0 32.0 
94.00041881579284 1268.0 76.0 500.250659630607 5.86412885316857 59.0 1.0 32.0 
96.00029741811947 1268.0 76.0 500.250659630607 6.831966033924193 59.0 1.0 32.0 
98.00041881579284 1295.0 77.0 500.250659630607 7.545671853574323 59.0 1.0 32.0 
100.00041881579284 1026.0 65.0 500.2849604221636 3.355180417285846 51.0 1.0 32.0 
102.00041881579284 1229.0 74.0 500.24274406332455 3.8410953784914894 57.0 1.0 32.0 
104.00041881579284 1292.0 77.0 500.26385224274395 4.614237933216698 59.0 1.0 32.0 
106.00029741811947 1292.0 77.0 500.2532981530343 5.344288766628127 59.0 1.0 32.0 
108.00041881579284 1292.0 77.0 500.2532981530343 5.988071799348177 59.0 1.0 32.0 
110.00041881579284 1281.0 76.0 500.2532981530343 6.238561698143058 59.0 1.0 32.0 
112.00041881579284 1280.0 76.0 500.2532981530343 6.728385711803863 59.0 1.0 32.0 
114.00041881579284 1281.0 76.0 500.2585751978891 7.5335972076678335 59.0 1.0 32.0 
116.00029741811947 1283.0 76.0 500.2532981530343 7.938723810731724 59.0 1.0 32.0 
118.00041881579284 1286.0 77.0 500.2532981530343 8.655365082938104 59.0 1.0 32.0 
120.00041881579284 1248.0 76.0 500.2585751978891 9.341405110274879 59.0 0.0 33.0 
122.00041881579284 1137.0 71.0 500.2189973614776 4.455651706385152 60.0 1.0 32.0 
124.00041881579284 1302.0 77.0 503.30870712401054 4.815898010806707 59.0 2.0 32.0 
126.00029741811947 1302.0 77.0 503.3007915567281 5.681733437243319 59.0 2.0 32.0 
128.00041881579284 1303.0 77.0 503.29551451187336 6.576719579172573 59.0 2.0 32.0 
130.00041881579284 1303.0 77.0 503.29551451187336 7.138416065823408 59.0 2.0 32.0 
132.00041881579284 1102.0 68.0 503.23218997361494 4.767474672989 55.0 2.0 32.0 
134.00041881579284 1212.0 73.0 503.29551451187336 3.7833391687964193 56.0 2.0 32.0 
136.0002974181195 1303.0 77.0 503.2981530343009 4.306454413221054 59.0 2.0 32.0 
138.00041881579284 1305.0 78.0 503.29287598944603 5.132384786563094 59.0 2.0 32.0 
140.00041881579284 1305.0 78.0 503.29287598944603 5.881282033199934 59.0 2.0 32.0 
142.00041881579284 1305.0 78.0 503.29287598944603 6.470447267634215 59.0 2.0 32.0 
144.00041881579284 1305.0 78.0 503.29287598944603 7.406664650925696 59.0 2.0 32.0 
146.0002974181195 1303.0 77.0 503.2981530343009 7.9091846151105 59.0 2.0 32.0 
148.00041881579284 1303.0 77.0 503.29287598944603 8.398608453771995 59.0 2.0 32.0 
150.00041881579284 1303.0 77.0 503.29287598944603 9.258996918097477 59.0 2.0 32.0 
152.00041881579284 1063.0 67.0 503.3192612137203 7.814794410039496 59.0 1.0 33.0 
154.00041881579284 1068.0 70.0 503.2005277044856 4.426036307426436 59.0 0.0 34.0 
156.0002974181195 1282.0 77.0 503.26121372031656 4.642783924535814 61.0 0.0 34.0 
158.00041881579284 1306.0 78.0 503.24538258575205 5.405276140226774 61.0 0.0 34.0 
160.00041881579284 1306.0 78.0 503.24538258575205 6.018870229704865 61.0 0.0 34.0 
162.00041881579284 1304.0 78.0 503.24538258575205 6.830327741154741 61.0 0.0 34.0 
164.00041881579284 1130.0 70.0 503.2295514511873 5.187699578651746 58.0 0.0 34.0 
166.0002974181195 1201.0 74.0 503.269129287599 3.2345600626102415 57.0 0.0 34.0 
168.00041881579284 1261.0 76.0 503.24802110817944 4.017775309491826 59.0 0.0 34.0 
170.00041881579284 1306.0 78.0 503.2427440633246 4.741199284189889 59.0 0.0 34.0 
172.00041881579284 1306.0 78.0 503.2427440633246 5.219961912993823 59.0 0.0 34.0 
174.00041881579284 1306.0 78.0 503.24802110817944 6.063110980235983 58.0 0.0 34.0 
176.0002974181195 1306.0 78.0 503.24802110817944 6.915559943202747 58.0 0.0 34.0 
178.00041881579284 1306.0 78.0 503.2427440633246 7.457634975619811 58.0 0.0 34.0 
180.00041881579284 1306.0 78.0 503.2427440633246 8.225877675820772 58.0 0.0 34.0 
182.00041881579284 1306.0 78.0 503.2427440633246 9.018401545154576 58.0 0.0 34.0 
184.00041881579284 1128.0 70.0 503.2981530343009 8.239937272096675 57.0 0.0 34.0 
186.0002974181195 941.0 63.0 503.1899736147757 5.071081459496125 55.0 0.0 34.0 
188.00041881579284 1275.0 77.0 503.29551451187336 4.582942277016758 58.0 0.0 34.0 
190.00041881579284 1299.0 78.0 503.29551451187336 5.156716769079682 58.0 0.0 34.0 
192.00041881579284 1304.0 78.0 503.29551451187336 6.1002801201970716 58.0 0.0 34.0 
194.00041881579284 1302.0 78.0 503.29551451187336 6.908009687233959 58.0 0.0 34.0 
196.0002974181195 1142.0 70.0 503.2744063324539 5.286634759477641 55.0 0.0 34.0 
198.00041881579284 1200.0 74.0 503.2823218997361 4.338078887437084 56.0 0.0 34.0 
200.00041881579284 1233.0 75.0 503.25329815303434 4.280497830525321 56.0 0.0 34.0 
202.00041881579284 1301.0 78.0 503.2295514511873 4.7151791267498355 58.0 0.0 34.0 
204.00041881579284 1301.0 78.0 503.240105540897 5.521310055417305 58.0 0.0 34.0 
206.0002974181195 1301.0 78.0 503.24538258575205 6.358190724499266 58.0 0.0 34.0 
208.00041881579284 1301.0 78.0 503.240105540897 7.019335933003118 58.0 0.0 34.0 
210.00041881579284 1301.0 78.0 503.240105540897 7.891009932831635 58.0 0.0 34.0 
212.00041881579284 1300.0 78.0 503.240105540897 8.646415631055506 58.0 0.0 34.0 
214.00041881579284 1299.0 77.0 503.240105540897 8.740676977282826 58.0 0.0 34.0 
216.0002974181195 1259.0 76.0 503.24538258575205 9.44991186818712 58.0 0.0 34.0 
218.00041881579284 913.0 61.0 503.2849604221636 5.180831220944269 56.0 0.0 34.0 
220.00041881579284 1085.0 68.0 503.150395778364 4.360141969479159 57.0 0.0 34.0 
222.00041881579284 1276.0 76.0 503.211081794195 4.944188949010988 58.0 0.0 34.0 
224.00041881579284 1305.0 78.0 506.21635883905 5.720019006974737 59.0 0.0 35.0 
226.0002974181195 1303.0 78.0 506.22163588390504 6.282521386560988 59.0 0.0 35.0 
228.00041881579284 1187.0 72.0 506.22163588390504 5.591800266160855 56.0 0.0 35.0 
230.00041881579284 1155.0 72.0 506.25857519788906 4.746652853849231 58.0 0.0 35.0 
232.00041881579284 1222.0 75.0 506.2823218997361 3.556645753949246 57.0 0.0 35.0 
234.00041881579284 1269.0 77.0 506.28759894459097 4.29358084157685 59.0 0.0 35.0 
236.0002974181195 1307.0 78.0 506.27176781002646 4.992406831062153 59.0 0.0 35.0 
238.00041881579284 1307.0 78.0 506.2664907651716 5.585757432724584 59.0 0.0 35.0 
240.00041881579284 1307.0 78.0 506.2664907651716 6.50601097276928 59.0 0.0 35.0 
242.00041881579284 1307.0 78.0 506.2664907651716 7.314942619408953 59.0 0.0 35.0 
244.00041881579284 1307.0 78.0 506.2664907651716 7.851475039253201 59.0 0.0 35.0 
246.0002974181195 1307.0 78.0 506.27176781002646 8.73006191263123 59.0 0.0 35.0 
248.00041881579284 1295.0 78.0 506.2664907651716 9.577101365226799 59.0 0.0 35.0 
250.00041881579284 1108.0 70.0 506.28759894459097 8.602753979095025 58.0 0.0 35.0 
252.00041881579284 983.0 65.0 506.23746701846966 5.489878912031059 57.0 0.0 35.0 
254.00041881579284 1256.0 76.0 506.2823218997361 4.789602674686155 59.0 0.0 35.0 
256.0002974181195 1303.0 78.0 506.27176781002646 5.436751405237575 61.0 0.0 35.0 
258.0004188157928 1307.0 78.0 506.26121372031656 6.311398673905129 61.0 0.0 35.0 
260.0004188157928 1263.0 75.0 506.2532981530343 6.641664065556183 58.0 0.0 35.0 
262.0004188157928 1157.0 71.0 506.25593667546195 4.965131064891485 60.0 0.0 35.0 
264.0004188157928 1235.0 75.0 506.25593667546195 4.491509286233627 59.0 0.0 35.0 
266.0002974181195 1248.0 75.0 506.250659630607 4.5916263658905025 60.0 0.0 35.0 
268.0004188157928 1310.0 78.0 506.24538258575205 5.0557942108414835 61.0 0.0 35.0 
270.0004188157928 1310.0 78.0 506.24538258575205 5.9812962392985884 61.0 0.0 35.0 
272.0004188157928 1308.0 78.0 506.24538258575205 6.753933442596472 61.0 0.0 35.0 
274.0004188157928 1308.0 78.0 506.24538258575205 7.372582378768176 61.0 0.0 35.0 
276.0002974181195 1308.0 78.0 506.250659630607 8.225676879148747 61.0 0.0 35.0 
278.0004188157928 1308.0 78.0 506.24538258575205 9.12159414903843 61.0 0.0 35.0 
280.0004188157928 1299.0 78.0 506.24538258575205 9.770061412007943 61.0 0.0 35.0 
282.0004188157928 1228.0 75.0 506.24802110817944 9.749259309961449 61.0 0.0 35.0 
284.0004188157928 980.0 64.0 506.33245382585756 5.900558948750924 59.0 1.0 34.0 
286.0002974181195 1079.0 67.0 506.30870712401054 4.879042848764366 58.0 2.0 33.0 
288.0004188157928 1270.0 76.0 506.2770448548813 5.484868855798573 54.0 7.0 28.0 
290.0004188157928 1298.0 77.0 506.26121372031656 6.2717775424088655 54.0 7.0 28.0 
292.0004188157928 1269.0 75.0 506.2532981530343 6.469965944807856 51.0 7.0 28.0 
294.0004188157928 1177.0 71.0 506.24802110817944 5.364431954788538 53.0 7.0 28.0 
296.0002974181195 1156.0 72.0 506.2242744063324 4.893504570609741 53.0 7.0 28.0 
298.0004188157928 1215.0 73.0 506.27968337730863 3.784226019631329 52.0 7.0 28.0 
300.0004188157928 1261.0 75.0 506.2849604221636 4.52579962905491 54.0 7.0 28.0 
302.0004188157928 1288.0 76.0 503.25593667546195 5.381349039702796 54.0 7.0 27.0 
304.0004188157928 1288.0 76.0 503.250659630607 6.06951253278342 54.0 7.0 27.0 
306.0002974181195 1289.0 76.0 503.250659630607 6.982122021380556 54.0 7.0 27.0 
308.0004188157928 1289.0 76.0 503.250659630607 7.799593172704166 54.0 7.0 27.0 
310.0004188157928 1289.0 76.0 503.250659630607 8.424856429856241 54.0 7.0 27.0 
312.0004188157928 1280.0 76.0 503.250659630607 9.368068425785028 54.0 7.0 27.0 
314.0004188157928 1238.0 75.0 503.25329815303434 9.50801213382526 55.0 6.0 28.0 
316.0002974181195 1161.0 73.0 503.28759894459097 8.107288823862534 54.0 6.0 28.0 
318.0004188157928 1152.0 71.0 503.27176781002646 5.459401341005003 55.0 4.0 30.0 
320.0004188157928 1267.0 76.0 503.27176781002646 5.688307996952365 56.0 4.0 30.0 
322.0004188157928 1299.0 78.0 503.27176781002646 6.142206026744069 58.0 4.0 30.0 
324.0004188157928 1270.0 76.0 506.30079155672803 6.637037680586824 55.0 4.0 31.0 
326.0002974181195 1263.0 75.0 506.30079155672803 6.27898274521488 57.0 4.0 31.0 
328.0004188157928 1154.0 71.0 506.282321899736 4.935695855959619 58.0 4.0 31.0 
330.0004188157928 1221.0 74.0 506.2664907651716 4.21137990340153 56.0 4.0 31.0 
332.0004188157928 1236.0 74.0 509.3746701846967 4.331328303539857 57.0 4.0 32.0 
334.0004188157928 1298.0 77.0 509.36411609498697 4.927193252593471 58.0 4.0 32.0 
336.0002974181195 1298.0 77.0 509.36411609498697 5.884920294757028 58.0 4.0 32.0 
338.0004188157928 1298.0 77.0 509.36411609498697 6.521280038976289 58.0 4.0 32.0 
340.0004188157928 1300.0 78.0 509.36411609498697 6.9372742790784745 57.0 4.0 32.0 
342.0004188157928 1301.0 78.0 509.3746701846967 7.819433939627338 57.0 4.0 32.0 
344.0004188157928 1290.0 78.0 509.36411609498697 8.462124437185002 56.0 4.0 32.0 
346.0002974181195 1258.0 76.0 509.37203166226897 8.234008452813846 56.0 4.0 32.0 
348.0004188157928 1173.0 73.0 512.4089709762533 6.272833764307715 57.0 3.0 34.0 
350.0004188157928 1304.0 78.0 512.419525065963 4.839016148575226 57.0 3.0 34.0 
352.0004188157928 1303.0 78.0 512.4089709762533 5.294739685409164 56.0 4.0 33.0 
354.0004188157928 1302.0 78.0 506.311345646438 5.9939585590443745 56.0 4.0 31.0 
356.0002974181195 1273.0 76.0 506.311345646438 6.17669444877676 54.0 4.0 31.0 
358.0004188157928 1294.0 77.0 506.30079155672803 6.350356456045975 56.0 4.0 31.0 
360.0004188157928 1218.0 74.0 506.3087071240107 5.583317622844561 57.0 4.0 31.0 
362.0004188157928 1226.0 75.0 506.2717678100263 5.193599137050765 56.0 4.0 31.0 
364.0004188157928 1258.0 76.0 506.232189973615 4.186669413369866 55.0 4.0 31.0 
366.0002974181195 1304.0 78.0 506.232189973615 4.973305374873186 58.0 4.0 31.0 
368.0004188157928 1331.0 79.0 506.26385224274395 5.804735227714702 58.0 4.0 31.0 
370.0004188157928 1331.0 79.0 506.26385224274395 6.379180071783037 58.0 4.0 31.0 
372.0004188157928 1331.0 79.0 506.26385224274395 7.009319621879289 58.0 4.0 31.0 
374.0004188157928 1318.0 78.0 506.269129287599 7.754785142712177 58.0 4.0 31.0 
376.0002974181195 1309.0 78.0 506.269129287599 8.183646595680498 59.0 3.0 32.0 
378.0004188157928 1275.0 77.0 506.26385224274395 7.542015816859849 60.0 1.0 34.0 
380.0004188157928 1218.0 74.0 506.27704485488124 4.528900548543751 51.0 11.0 24.0 
382.0004188157928 1325.0 78.0 506.255936675462 4.846858481031062 50.0 12.0 23.0 
384.0004188157928 1350.0 79.0 506.2612137203167 5.526388523522491 51.0 11.0 24.0 
386.0002974181195 1350.0 79.0 509.29551451187325 6.375874437943074 50.0 12.0 24.0 
388.0004188157928 1340.0 78.0 509.2849604221637 6.9495373131976965 47.0 12.0 24.0 
390.0004188157928 1334.0 78.0 509.269129287599 7.382781633024887 49.0 12.0 24.0 
392.0004188157928 1304.0 77.0 509.27704485488124 7.643479596229771 51.0 11.0 25.0 
394.0004188157928 1268.0 74.0 509.27176781002635 5.97493003693965 50.0 11.0 25.0 
396.0002974181195 1295.0 75.0 509.298153034301 5.737428257848369 48.0 11.0 25.0 
398.0004188157928 1288.0 75.0 509.27440633245396 6.133608446580637 50.0 11.0 25.0 
400.0004188157928 1343.0 77.0 512.3245382585751 6.692517372233877 50.0 11.0 26.0 
402.0004188157928 1338.0 77.0 512.32981530343 7.342350935005839 50.0 11.0 26.0 
404.0004188157928 1338.0 77.0 512.32981530343 8.051297410261153 50.0 11.0 26.0 
406.0002974181195 1313.0 76.0 512.34036939314 8.656562590736701 50.0 11.0 26.0 
408.0004188157928 1270.0 74.0 509.2955145118733 9.033709907192383 50.0 11.0 25.0 
410.0004188157928 1141.0 69.0 509.3139841688654 7.236763769087094 54.0 6.0 30.0 
412.0004188157928 1179.0 72.0 506.28759894459097 5.199834902766622 47.0 12.0 23.0 
414.0004188157928 1307.0 76.0 506.26385224274395 4.884760433372986 53.0 8.0 27.0 
416.0002974181195 1312.0 76.0 506.26385224274395 5.432066878695641 53.0 8.0 27.0 
418.0004188157928 1333.0 78.0 506.25329815303434 6.053615339807567 53.0 8.0 27.0 
420.0004188157928 1325.0 76.0 512.3377308707124 5.942906633005909 50.0 8.0 29.0 
422.0004188157928 1319.0 76.0 509.306068601583 6.430070687913821 52.0 8.0 28.0 
424.0004188157928 1289.0 75.0 509.29551451187336 6.423947458305762 53.0 8.0 28.0 
426.0002974181195 1259.0 74.0 509.306068601583 5.874267916295005 53.0 8.0 28.0 
428.0004188157928 1313.0 76.0 512.34036939314 5.996356398007332 51.0 8.0 29.0 
430.0004188157928 1273.0 74.0 512.3430079155672 5.525558879120537 53.0 8.0 29.0 
432.0004188157928 1302.0 75.0 512.306068601583 6.171791096162908 53.0 8.0 29.0 
434.0004188157928 1337.0 77.0 515.3614775725594 6.885950231774244 53.0 8.0 30.0 
436.0002974181195 1336.0 77.0 515.3562005277043 7.537070101149362 53.0 8.0 30.0 
438.0004188157928 1313.0 76.0 515.3562005277043 8.327396432101764 53.0 8.0 30.0 
440.0004188157928 1257.0 74.0 515.3456464379949 8.707164626228899 54.0 7.0 31.0 
442.0004188157928 1120.0 69.0 515.3693931398417 7.828791648404401 54.0 7.0 31.0 
444.0004188157928 1071.0 67.0 515.34036939314 5.647865379201722 61.0 1.0 37.0 
446.0002974181195 1285.0 76.0 515.387862796834 5.11736540694479 62.0 0.0 38.0 
448.0004188157928 1287.0 76.0 515.387862796834 5.707698042679503 62.0 0.0 38.0 
450.0004188157928 1271.0 76.0 515.4089709762533 6.165135341036915 61.0 1.0 37.0 
452.0004188157928 1247.0 74.0 515.4089709762533 6.300128268631947 58.0 1.0 37.0 
454.0004188157928 1286.0 76.0 515.3957783641159 6.538987966110457 60.0 1.0 37.0 
456.0002974181195 1264.0 75.0 515.390501319261 6.91154141043133 61.0 1.0 37.0 
458.0004188157928 1195.0 72.0 515.3852242744064 6.480539145641964 61.0 1.0 37.0 
460.0004188157928 1195.0 72.0 515.406332453826 6.30844936117927 61.0 1.0 37.0 
462.0004188157928 1261.0 76.0 515.406332453826 6.111815706115388 61.0 1.0 37.0 
464.0004188157928 1253.0 75.0 515.4168865435356 6.268984685722269 61.0 1.0 37.0 
466.0002974181195 1281.0 76.0 518.4722955145121 6.727117464662487 61.0 1.0 38.0 
468.0004188157928 1301.0 77.0 521.501319261214 7.605334680792755 61.0 1.0 39.0 
470.0004188157928 1292.0 77.0 521.496042216359 8.399866045597937 61.0 1.0 39.0 
472.0004188157928 1263.0 75.0 521.496042216359 9.219455855771567 62.0 0.0 40.0 
474.0004188157928 1176.0 72.0 521.496042216359 9.270888870525978 61.0 0.0 40.0 
476.0002974181195 1006.0 65.0 521.543535620053 6.4860354755850524 60.0 1.0 39.0 
478.0004188157928 1146.0 70.0 521.4643799472298 6.253438200743747 57.0 5.0 35.0 
480.0004188157928 1258.0 75.0 518.461741424802 6.768502437936515 55.0 6.0 33.0 
482.0004188157928 1256.0 75.0 518.456464379947 7.07398053806513 55.0 6.0 33.0 
484.0004188157928 1224.0 73.0 518.4907651715041 6.990738063645008 53.0 7.0 32.0 
486.0002974181195 1257.0 75.0 518.45382585752 7.560933267837821 52.0 7.0 32.0 
488.0004188157928 1259.0 74.0 518.461741424802 7.660087061459678 53.0 7.0 32.0 
490.0004188157928 1223.0 73.0 515.419525065963 8.008710818249776 53.0 7.0 31.0 
492.0004188157928 1155.0 70.0 515.411609498681 7.190427159812998 53.0 7.0 31.0 
494.0004188157928 1212.0 73.0 515.406332453826 6.846372141674921 53.0 7.0 31.0 
496.0002974181195 1196.0 72.0 515.3984168865437 6.417826241396033 53.0 7.0 31.0 
498.0004188157928 1203.0 71.0 515.4036939313983 6.350857393920998 53.0 7.0 31.0 
500.0004188157928 1262.0 74.0 515.4036939313983 6.907550432975021 53.0 7.0 31.0 
502.0004188157928 1262.0 74.0 506.2955145118733 7.754237736870163 53.0 7.0 28.0 
504.0004188157928 1238.0 73.0 506.2955145118733 8.609353370787534 54.0 6.0 29.0 
506.0002974181195 1191.0 71.0 506.3034300791557 8.758723370079435 54.0 6.0 29.0 
508.0004188157928 1166.0 70.0 506.2902374670183 6.879668189120588 55.0 4.0 31.0 
510.0004188157928 1183.0 71.0 506.29815303430104 5.550023706361688 51.0 8.0 27.0 
512.0004188157928 1238.0 73.0 506.28232189973596 5.909981091105619 52.0 7.0 28.0 
514.0004188157928 1251.0 75.0 506.2849604221637 6.0680791925800746 52.0 7.0 28.0 
516.0002974181195 1250.0 74.0 506.2902374670183 6.129053872895997 53.0 6.0 29.0 
518.0004188157928 1264.0 75.0 506.26649076517174 6.511753348893414 53.0 6.0 29.0 
520.0004188157928 1264.0 75.0 506.2612137203167 7.189626041121702 53.0 6.0 29.0 
522.0004188157928 1241.0 74.0 506.2612137203167 7.538085910263051 53.0 6.0 29.0 
524.0004188157928 1175.0 71.0 506.26385224274395 6.783026875173093 53.0 6.0 29.0 
526.0002974181195 1243.0 74.0 506.26649076517174 6.1982579920065515 52.0 6.0 29.0 
528.0004188157928 1230.0 74.0 506.24538258575205 6.159763589777779 52.0 6.0 29.0 
530.0004188157928 1257.0 75.0 506.26649076517174 5.688413008415665 52.0 6.0 29.0 
532.0004188157928 1266.0 75.0 506.27176781002635 6.320089238024757 52.0 6.0 29.0 
534.0004188157928 1266.0 75.0 506.27176781002635 7.142804946818881 52.0 6.0 29.0 
536.0002974181195 1255.0 75.0 506.2770448548813 7.693907764974374 50.0 7.0 28.0 
538.0004188157928 1175.0 72.0 506.2902374670183 6.87700660136778 50.0 6.0 29.0 
540.0004188157928 1154.0 70.0 506.3139841688653 5.221071630269119 51.0 6.0 29.0 
542.0004188157928 1266.0 75.0 506.255936675462 4.46158695232178 51.0 6.0 29.0 
544.0004188157928 1265.0 75.0 506.255936675462 4.868410223127508 51.0 6.0 29.0 
546.0002974181195 1266.0 75.0 506.2612137203167 5.749231237608344 51.0 6.0 29.0 
548.0004188157928 1256.0 75.0 506.258575197889 6.27971138043424 51.0 6.0 29.0 
550.0004188157928 1266.0 75.0 506.2532981530343 6.866905784906779 51.0 6.0 29.0 
552.0004188157928 1250.0 74.0 506.2532981530343 7.708348434250827 51.0 6.0 29.0 
554.0004188157928 1246.0 74.0 506.2532981530343 7.967460558375904 51.0 6.0 29.0 
556.0002974181195 1172.0 70.0 506.24802110817933 7.011319835268471 51.0 6.0 29.0 
558.0004188157928 1235.0 73.0 506.2427440633247 6.698584126512192 51.0 6.0 29.0 
560.0004188157928 1216.0 72.0 506.240105540897 5.986254456591438 51.0 6.0 29.0 
562.0004188157928 1266.0 75.0 506.22427440633226 6.475419639384525 51.0 6.0 29.0 
564.0004188157928 1276.0 76.0 506.22427440633226 7.180821239080273 52.0 6.0 29.0 
566.0002974181195 1263.0 75.0 506.22955145118726 7.902892471154839 52.0 6.0 29.0 
568.0004188157928 1233.0 74.0 506.234828496042 8.160038008343244 51.0 7.0 28.0 
570.0004188157928 1243.0 75.0 506.2849604221637 7.068397375096191 54.0 4.0 31.0 
572.0004188157928 1187.0 71.0 506.25065963060706 4.248857799545127 51.0 6.0 29.0 
574.0004188157928 1251.0 74.0 506.2189973614777 4.562776702506752 51.0 6.0 29.0 
576.0002974181195 1251.0 74.0 506.232189973615 5.49119220539447 52.0 5.0 30.0 
578.0004188157928 1244.0 73.0 503.17414248021095 6.176714163766703 52.0 5.0 29.0 
580.0004188157928 1252.0 74.0 503.17414248021095 6.641418650319218 52.0 5.0 29.0 
582.0004188157928 1252.0 74.0 503.179419525066 7.491142149641069 52.0 5.0 29.0 
584.0004188157928 1241.0 74.0 503.179419525066 7.998127158159111 52.0 5.0 29.0 
586.0002974181195 1236.0 74.0 503.184696569921 8.079795407842065 52.0 5.0 29.0 
588.0004188157928 1242.0 74.0 503.17414248021095 6.859954501640397 52.0 5.0 29.0 
590.0004188157928 1218.0 73.0 503.184696569921 6.589793515782967 52.0 5.0 29.0 
592.0004188157928 1254.0 74.0 503.179419525066 6.162410199507642 52.0 5.0 29.0 
594.0004188157928 1258.0 74.0 506.2058047493402 7.048754632327362 52.0 5.0 30.0 
596.0002974181195 1257.0 74.0 506.2163588390499 7.764321171308616 51.0 5.0 30.0 
598.0004188157928 1246.0 74.0 506.21108179419497 8.229626568944338 51.0 5.0 30.0 
600.0004188157928 1174.0 71.0 506.2163588390499 7.718310505250362 50.0 5.0 30.0 
602.0004188157928 1137.0 69.0 506.274406332454 5.485805550596087 51.0 5.0 30.0 
604.0004188157928 1229.0 73.0 506.2137203166228 4.473791938832834 51.0 5.0 30.0 
606.0002974181195 1227.0 73.0 506.2242744063321 5.0068376632463165 51.0 5.0 30.0 
608.0004188157928 1227.0 73.0 506.2242744063321 5.839496722917616 51.0 5.0 30.0 
610.0004188157928 1217.0 73.0 506.2189973614779 6.313362135652379 51.0 5.0 30.0 
612.0004188157928 1227.0 73.0 506.2189973614779 6.956855433050733 51.0 5.0 30.0 
614.0004188157928 1212.0 72.0 506.2189973614779 7.622568245314043 51.0 5.0 30.0 
616.0002974181195 1208.0 72.0 506.2189973614779 7.843246038208098 51.0 5.0 30.0 
618.0004188157928 1131.0 68.0 506.240105540897 7.077487551937192 51.0 5.0 30.0 
620.0004188157928 1199.0 71.0 506.2295514511872 6.577274213942091 51.0 5.0 30.0 
622.0004188157928 1171.0 70.0 506.2137203166228 5.791011238412653 50.0 6.0 29.0 
624.0004188157928 1205.0 72.0 503.18733509234823 6.1246988200802654 49.0 6.0 28.0 
626.0002974181195 1224.0 73.0 503.192612137203 6.798132177301331 49.0 6.0 28.0 
628.0004188157928 1224.0 73.0 503.192612137203 7.183608602476905 49.0 6.0 28.0 
630.0004188157928 1224.0 73.0 503.203166226913 6.811540990524539 49.0 6.0 28.0 
632.0004188157928 1224.0 73.0 503.19788918205796 6.1042673140656145 49.0 6.0 28.0 
634.0004188157928 1224.0 74.0 503.184696569921 4.07546880802127 48.0 7.0 27.0 
636.0002974181195 1225.0 74.0 503.179419525066 4.783782417064362 48.0 7.0 27.0 
638.0004188157928 1225.0 74.0 503.179419525066 5.53667862462571 48.0 7.0 27.0 
640.0004188157928 1217.0 73.0 503.1767810026388 6.2507348758059 48.0 7.0 27.0 
642.0004188157928 1223.0 74.0 503.1899736147758 6.7786476090985746 48.0 7.0 27.0 
644.0004188157928 1223.0 74.0 503.184696569921 7.497080554105153 48.0 7.0 27.0 
646.0002974181195 1226.0 75.0 503.184696569921 7.679454610586552 49.0 6.0 28.0 
648.0004188157928 1231.0 75.0 503.184696569921 7.89875896276973 49.0 6.0 28.0 
650.0004188157928 1235.0 75.0 500.168865435356 6.608308583367254 49.0 6.0 27.0 
652.0004188157928 1223.0 75.0 500.168865435356 6.279542563267755 49.0 6.0 27.0 
654.0004188157928 1229.0 75.0 506.2532981530342 6.008198331208696 50.0 6.0 29.0 
656.0002974181195 1237.0 75.0 506.255936675462 6.35477066007025 50.0 6.0 29.0 
658.0004188157928 1237.0 75.0 506.255936675462 6.833208665675876 50.0 6.0 29.0 
660.0004188157928 1231.0 75.0 506.26649076517174 6.506025064623629 51.0 5.0 30.0 
662.0004188157928 1241.0 75.0 506.255936675462 5.7447654982637255 51.0 5.0 30.0 
664.0004188157928 1242.0 75.0 506.274406332454 3.9788092654714013 51.0 5.0 30.0 
#####################################################################
# End of data export. Simulation finished at: 2019-03-07T14:27+0000 #
#####################################################################
