#####################################################################
# Alchemist log file - simulation started at: 2019-03-05T05:02+0000 #
#####################################################################
# seed = 1.0, bandwidth = 17782.79410038923, accessPointCount = 531.8295896944988, baserange = 56.234132519034915
#
# The columns have the following meaning: 
# time neighbor_count[Sum] <value>@neighbor_count[Sum] packet_size[Mean] mean_delay[Mean] crowd[Sum] overcrowded[Sum] risk[Sum] 
0.0 NaN NaN NaN NaN NaN NaN NaN 
10.000417374280275 614.0 168.0 4984.39842209073 0.8256823548555058 1496.0 1.0 1496.0 
20.000417374280275 626.0 170.0 4983.913214990138 1.2211635419420201 1484.0 13.0 1484.0 
30.000417374280275 620.0 166.0 4983.757396449704 1.0130603033234375 1484.0 13.0 1484.0 
40.000417374280275 616.0 163.0 4983.966469428008 0.8218210836216442 1484.0 13.0 1484.0 
50.000417374280275 618.0 163.0 4983.51282051282 0.7721150558426805 1484.0 13.0 1484.0 
60.000417374280275 620.0 164.0 4983.863905325444 0.8721224324526035 1484.0 13.0 1484.0 
70.00041737428027 620.0 164.0 529.1794871794885 0.7301286939451539 61.0 13.0 44.0 
80.00041737428027 626.0 165.0 531.4358974358984 1.0301155173814078 59.0 13.0 45.0 
90.00041737428027 624.0 164.0 524.6587771203169 1.0212202046303336 55.0 13.0 42.0 
100.00041737428027 616.0 162.0 522.380670611439 0.7263301749155483 52.0 13.0 41.0 
110.00041737428027 616.0 162.0 522.3747534516781 0.6767112824130593 49.0 13.0 41.0 
120.00041737428027 616.0 162.0 522.3747534516781 0.8287949694232167 49.0 13.0 41.0 
130.0004173742803 616.0 162.0 522.3747534516781 0.788357329720871 49.0 13.0 41.0 
140.0004173742803 614.0 162.0 520.1124260355019 0.8383148990736182 48.0 13.0 40.0 
150.0004173742803 622.0 165.0 520.1124260355019 0.7731541204681321 48.0 13.0 40.0 
160.0004173742803 626.0 167.0 524.6528599605527 0.8239174476107648 50.0 13.0 42.0 
170.0004173742803 628.0 168.0 520.1222879684424 1.0081017797834777 50.0 13.0 40.0 
180.0004173742803 628.0 168.0 520.1222879684424 1.1715451539938802 50.0 13.0 40.0 
190.0004173742803 644.0 171.0 526.9270216962524 1.0809371807008599 52.0 13.0 43.0 
200.0004173742803 647.0 171.0 529.1972386587763 1.1017522428221858 51.0 13.0 44.0 
210.0004173742803 646.0 170.0 529.1834319526628 1.0538460217296581 53.0 13.0 44.0 
220.0004173742803 649.0 171.0 533.7140039447753 1.2608408221515894 56.0 13.0 46.0 
230.0004173742803 642.0 169.0 535.9842209072988 1.011171573811195 58.0 13.0 47.0 
240.0004173742803 648.0 170.0 545.055226824457 1.134921460566485 62.0 13.0 51.0 
250.0004173742803 645.0 168.0 545.0355029585811 1.0034027078622463 62.0 13.0 51.0 
260.0004173742803 646.0 169.0 545.0295857988174 1.0065158098775187 61.0 13.0 51.0 
270.0004173742803 646.0 169.0 542.7928994082837 1.0521939491515082 60.0 13.0 50.0 
280.0004173742803 642.0 170.0 542.7692307692289 1.2958937029024296 60.0 13.0 50.0 
290.0004173742803 635.0 167.0 538.2426035502958 0.8687761570915556 59.0 13.0 48.0 
300.0004173742803 638.0 170.0 535.9802761341215 0.9678570179356477 58.0 13.0 47.0 
310.0004173742803 650.0 172.0 529.1972386587763 0.8389525112873543 58.0 13.0 44.0 
320.0004173742803 658.0 174.0 524.6528599605527 1.0501968678835103 54.0 13.0 42.0 
330.0004173742803 670.0 177.0 533.7317554240628 1.3653967221677783 56.0 13.0 46.0 
340.0004173742803 654.0 173.0 533.719921104536 1.441110382244051 55.0 13.0 46.0 
350.0004173742803 641.0 170.0 533.7021696252456 1.4054086437611724 53.0 13.0 46.0 
360.0004173742803 632.0 168.0 533.7021696252456 1.031755322724188 53.0 13.0 46.0 
370.0004173742803 637.0 170.0 533.7021696252456 0.7439925327516519 53.0 13.0 46.0 
380.0004173742803 642.0 170.0 538.2485207100586 1.1552188584421443 56.0 13.0 48.0 
390.0004173742803 644.0 170.0 531.4595660749525 1.1433048917322943 52.0 13.0 45.0 
400.0004173742803 648.0 171.0 529.1794871794885 0.9672493066927622 55.0 13.0 44.0 
410.0004173742803 658.0 174.0 531.4418145956616 1.1241886042945155 58.0 13.0 45.0 
420.0004173742803 656.0 175.0 531.4418145956616 1.1647496920495404 58.0 13.0 45.0 
430.0004173742803 666.0 175.0 538.2465483234723 1.6081896424422673 59.0 13.0 48.0 
440.0004173742803 656.0 172.0 538.2406311637076 1.6112377348820472 58.0 13.0 48.0 
450.0004173742803 652.0 170.0 540.5069033530559 1.0995476413364313 59.0 13.0 49.0 
460.0004173742803 646.0 169.0 538.2445759368827 1.0356004579233173 58.0 13.0 48.0 
470.0004173742803 656.0 172.0 538.2386587771215 1.163972492654379 59.0 13.0 48.0 
480.0004173742803 654.0 171.0 535.9704142011828 1.0334062575329166 62.0 13.0 47.0 
490.0004173742803 654.0 171.0 535.9704142011828 1.0114111174896652 62.0 13.0 47.0 
500.0004173742803 656.0 171.0 531.4457593688362 1.1342530769411598 58.0 13.0 45.0 
510.0004173742803 652.0 170.0 535.99013806706 0.861419385095674 59.0 13.0 47.0 
520.0004173742802 674.0 172.0 538.2603550295864 0.9744991448266302 60.0 13.0 48.0 
530.0004173742802 679.0 175.0 535.964497041419 1.2676745541282923 61.0 13.0 47.0 
540.0004173742802 678.0 174.0 542.7810650887585 1.4217255232886237 64.0 13.0 50.0 
550.0004173742802 668.0 174.0 547.299802761341 1.3260554732837564 65.0 13.0 52.0 
560.0004173742802 681.0 177.0 547.315581854045 1.012787641428242 65.0 13.0 52.0 
570.0004173742802 691.0 176.0 554.1459566074965 1.1184788756610218 66.0 13.0 55.0 
580.0004173742802 697.0 180.0 551.8441814595662 1.5353233581252315 65.0 13.0 54.0 
590.0004173742802 693.0 178.0 547.3471400394473 1.3512041600156282 63.0 13.0 52.0 
600.0004173742802 686.0 177.0 547.3353057199209 1.807575826948041 63.0 13.0 52.0 
610.0004173742802 672.0 176.0 547.321499013806 1.2061589964555022 63.0 13.0 52.0 
620.0004173742802 671.0 174.0 549.6094674556206 1.2521999135095265 65.0 13.0 53.0 
630.0004173742802 703.0 179.0 554.1479289940837 1.260916945105703 68.0 13.0 55.0 
640.0004173742802 737.0 182.0 560.9467455621299 1.7074759396515247 70.0 13.0 58.0 
650.0004173742802 746.0 182.0 565.4556213017736 1.6541740205566993 72.0 13.0 60.0 
660.0004173742802 730.0 179.0 565.4714003944769 1.1619680325930952 72.0 13.0 60.0 
#####################################################################
# End of data export. Simulation finished at: 2019-03-05T05:12+0000 #
#####################################################################
