#####################################################################
# Alchemist log file - simulation started at: 2019-03-05T10:39+0000 #
#####################################################################
# seed = 8.0, bandwidth = 74989.42093324558, accessPointCount = 274.2481756762073, baserange = 100.0
#
# The columns have the following meaning: 
# time neighbor_count[Sum] <value>@neighbor_count[Sum] packet_size[Mean] mean_delay[Mean] crowd[Sum] overcrowded[Sum] risk[Sum] 
0.0 NaN NaN NaN NaN NaN NaN NaN 
2.000170977338306 617.0 230.0 4985.108977978543 0.45451695220482535 1497.0 0.0 1497.0 
4.000170977338306 1264.0 294.0 4987.329192546584 0.572053528779392 1497.0 0.0 1497.0 
6.000170977338306 1494.0 296.0 4986.726143421795 0.6253600595531924 1497.0 0.0 1497.0 
8.000170977338307 1764.0 297.0 4987.204968944099 0.6269197367465009 1497.0 0.0 1497.0 
10.000170977338307 1928.0 301.0 4986.769057029926 0.6497913805596457 1497.0 0.0 1497.0 
12.000170977338307 1974.0 299.0 4986.886504799549 0.6518962229905929 1494.0 3.0 1494.0 
14.000170977338307 1958.0 295.0 4986.741953698475 0.622125187351386 1488.0 9.0 1488.0 
16.000170977338307 1949.0 294.0 4986.836815358554 0.6106695199452857 1484.0 13.0 1484.0 
18.000170977338303 1948.0 293.0 4986.486730660644 0.6097659097318189 1483.0 14.0 1483.0 
20.000170977338303 1948.0 293.0 4986.658385093167 0.6098500591929232 1484.0 13.0 1484.0 
22.000170977338303 1948.0 293.0 4986.477696216827 0.6081353846774059 1481.0 16.0 1481.0 
24.000170977338303 1948.0 293.0 4986.656126482213 0.6066947815185989 1479.0 18.0 1479.0 
26.000170977338303 1948.0 293.0 4986.346696781479 0.6132969342579343 1480.0 17.0 1480.0 
28.000170977338303 1948.0 293.0 4986.633540372671 0.6201918739765695 1476.0 21.0 1476.0 
30.000170977338303 1945.0 292.0 4986.355731225296 0.6186301773009917 1476.0 21.0 1476.0 
32.00017097733831 1949.0 292.0 4986.617730095991 0.6044927604169661 1481.0 16.0 1481.0 
34.00017097733831 1958.0 293.0 4986.369282891022 0.6046944314156238 1477.0 20.0 1477.0 
36.00017097733831 1958.0 293.0 4986.516092603049 0.6041940983118095 1483.0 14.0 1483.0 
38.00017097733831 1958.0 293.0 4986.423489553924 0.6046979796974163 1479.0 18.0 1479.0 
40.00017097733831 1958.0 293.0 4986.674195369847 0.6041553031450358 1482.0 15.0 1482.0 
42.00017097733831 1959.0 293.0 4986.306041784303 0.6096524952480736 1477.0 20.0 1477.0 
44.00017097733831 1960.0 293.0 4986.615471485036 0.6232797016996667 1478.0 19.0 1478.0 
46.00017097733831 1952.0 293.0 4986.292490118577 0.6223158895526758 1473.0 24.0 1473.0 
48.00017097733831 1944.0 292.0 4986.579333709768 0.6048143897363937 1476.0 21.0 1476.0 
50.00017097733831 1944.0 292.0 4986.364765669114 0.6053628155305224 1473.0 24.0 1473.0 
52.00017097733831 1944.0 292.0 4986.549971767363 0.6078847597959156 1474.0 23.0 1474.0 
54.00017097733831 1945.0 292.0 4986.367024280068 0.6231546359248178 1475.0 22.0 1475.0 
56.00017097733831 1926.0 291.0 4986.400903444382 0.6122796317533654 1477.0 20.0 1477.0 
58.00017097733831 1926.0 291.0 4986.439299830604 0.6210506797845214 1472.0 25.0 1472.0 
60.00017097733831 1930.0 290.0 4986.568040654997 0.5950945742974224 1478.0 19.0 1478.0 
62.00011834397177 1939.0 290.0 693.7233201581034 0.5587675899890645 206.0 22.0 91.0 
64.00011834397176 1960.0 291.0 693.5426312817639 0.5749171254204343 157.0 24.0 89.0 
66.00011834397176 1955.0 291.0 693.6826651609265 0.5679654558767863 140.0 27.0 86.0 
68.00011834397176 1966.0 293.0 693.6036137775266 0.5692474024726365 132.0 27.0 86.0 
70.00011834397176 1976.0 293.0 693.5629587803495 0.5659901180365376 125.0 28.0 85.0 
72.00011834397176 1987.0 294.0 696.1784302653889 0.577692391036355 123.0 26.0 88.0 
74.00011834397176 1989.0 294.0 696.0948616600783 0.5872353229523307 123.0 27.0 87.0 
76.00011834397176 1970.0 294.0 698.6922642574831 0.57117540038477 123.0 27.0 88.0 
78.00011834397176 1970.0 295.0 698.6561264822136 0.5821338323924662 122.0 27.0 88.0 
80.00011834397176 1969.0 295.0 698.6448334274422 0.5934130810891987 122.0 27.0 88.0 
82.00011834397176 1963.0 294.0 698.6629023150774 0.5750449595627074 123.0 27.0 88.0 
84.00011834397176 1964.0 295.0 698.6606437041235 0.5854479414824142 122.0 27.0 88.0 
86.00011834397176 1954.0 295.0 698.6448334274422 0.5701822536312565 122.0 27.0 88.0 
88.00011834397176 1949.0 295.0 698.6538678712599 0.5712840904055041 120.0 27.0 88.0 
90.00011834397176 1962.0 296.0 698.6403162055324 0.5827651018786457 121.0 27.0 88.0 
92.00011834397176 1961.0 295.0 698.6538678712599 0.5821891555916917 121.0 27.0 88.0 
94.00011834397176 1960.0 295.0 698.6583850931673 0.5810360994530477 121.0 27.0 88.0 
96.00011834397176 1960.0 295.0 698.6425748164861 0.5980180703482165 121.0 27.0 88.0 
98.00011834397176 1958.0 294.0 698.6516092603061 0.5872063588027558 121.0 27.0 88.0 
100.00011834397176 1951.0 294.0 698.6380575945786 0.6017932059697134 121.0 27.0 88.0 
102.00011834397176 1948.0 293.0 698.647092038396 0.5882545978889754 121.0 27.0 88.0 
104.00011834397176 1940.0 292.0 698.6583850931673 0.581680774115792 121.0 27.0 88.0 
106.00011834397176 1938.0 292.0 698.647092038396 0.5805780806792412 121.0 27.0 88.0 
108.00011834397176 1937.0 292.0 698.6493506493498 0.5969926368388812 121.0 27.0 88.0 
110.00011834397176 1932.0 291.0 698.6312817617177 0.5712036199363102 122.0 27.0 88.0 
112.00011834397176 1939.0 291.0 701.2354601919833 0.5677588714963102 123.0 27.0 89.0 
114.00011834397176 1950.0 292.0 706.4438170525141 0.5846168020429175 123.0 27.0 91.0 
116.00011834397176 1947.0 291.0 706.446075663468 0.5672167927300832 122.0 27.0 91.0 
118.00011834397176 1934.0 290.0 706.4664031620564 0.5614813806386669 121.0 27.0 91.0 
120.00011834397176 1932.0 290.0 706.450592885375 0.5459048610403054 121.0 27.0 91.0 
122.00011834397176 1946.0 291.0 706.4415584415581 0.5468928113239464 121.0 27.0 91.0 
124.00011834397176 1946.0 291.0 706.46866177301 0.5467769985033132 121.0 27.0 91.0 
126.00011834397176 1946.0 291.0 706.450592885375 0.5521986368567571 121.0 27.0 91.0 
128.00011834397176 1946.0 291.0 706.470920383964 0.5628373289904568 121.0 27.0 91.0 
130.00011834397176 1936.0 290.0 701.2648221343891 0.5473818910410155 120.0 27.0 89.0 
132.00011834397176 1956.0 291.0 703.8622247317909 0.5457444920704796 119.0 27.0 90.0 
134.00011834397176 1960.0 291.0 703.8690005646546 0.5450197909523878 118.0 27.0 90.0 
136.00011834397176 1960.0 291.0 703.855448898927 0.5450132747456494 118.0 27.0 90.0 
138.00011834397176 1970.0 292.0 703.8622247317909 0.5448996909427869 119.0 27.0 90.0 
140.00011834397176 1996.0 292.0 714.2789384528501 0.5562752197334998 120.0 27.0 94.0 
142.00011834397176 2023.0 293.0 716.8808582721618 0.5694855810864161 121.0 27.0 95.0 
144.00011834397176 2047.0 295.0 719.457933370978 0.5730423696221458 122.0 27.0 96.0 
146.00011834397176 2028.0 294.0 719.4353472614355 0.5499973390578748 121.0 28.0 95.0 
148.00011834397176 2031.0 294.0 719.5053642010159 0.547882187549791 116.0 33.0 90.0 
150.00011834397176 2036.0 294.0 722.0621118012438 0.5585696523318467 119.0 29.0 95.0 
152.00011834397176 2036.0 295.0 719.4737436476563 0.578268414388701 118.0 30.0 93.0 
154.00011834397176 2030.0 294.0 722.0756634669684 0.5948506758899842 121.0 27.0 97.0 
156.00011834397176 2000.0 293.0 722.0756634669684 0.5698288328332263 121.0 27.0 97.0 
158.00011834397176 1984.0 292.0 722.0124223602494 0.5525990320335911 120.0 28.0 96.0 
160.00011834397176 1984.0 292.0 722.0214568040645 0.5646675904416637 117.0 31.0 93.0 
162.00011834397176 1972.0 292.0 722.0417843026546 0.5651933366988569 122.0 27.0 97.0 
164.00011834397176 1994.0 294.0 722.0530773574241 0.5543546434561664 123.0 27.0 97.0 
166.00011834397176 1994.0 294.0 724.6166007905149 0.556693934994299 123.0 27.0 98.0 
168.00011834397176 1986.0 294.0 724.62563523433 0.5483699748953401 123.0 27.0 98.0 
170.00011834397176 1986.0 294.0 722.0056465273863 0.5629250351174986 122.0 27.0 97.0 
172.00011834397176 2000.0 295.0 724.5962732919241 0.6050862533515337 123.0 27.0 98.0 
174.00011834397176 1976.0 294.0 724.5985319028792 0.6348882825950847 123.0 27.0 98.0 
176.00011834397176 1949.0 292.0 727.2433653303225 0.5968679786519351 123.0 27.0 99.0 
178.00011834397176 1927.0 292.0 724.6730660643708 0.5595220778951054 123.0 27.0 98.0 
180.00011834397176 1920.0 292.0 724.6007905138337 0.5610415511173693 123.0 27.0 98.0 
182.00011834397176 1940.0 294.0 727.223037831734 0.5786612521692579 124.0 27.0 99.0 
184.00011834397176 1920.0 293.0 727.2501411631857 0.577009110964206 124.0 27.0 99.0 
186.00011834397176 1936.0 294.0 727.1756070016933 0.6019848886242443 125.0 27.0 99.0 
188.00011834397176 1921.0 292.0 727.1891586674204 0.5684888625159922 124.0 27.0 99.0 
190.00011834397176 1930.0 293.0 724.5646527385643 0.5727149398958811 124.0 27.0 98.0 
192.00011834397176 1932.0 292.0 729.8046301524549 0.5807345410470933 124.0 27.0 100.0 
194.00011834397176 1932.0 292.0 729.7888198757768 0.5782806625092282 124.0 27.0 100.0 
196.00011834397176 1928.0 291.0 732.3658949745919 0.5684976537750525 124.0 27.0 101.0 
198.00011834397176 1944.0 292.0 734.9904009034435 0.5840442602301358 125.0 27.0 102.0 
200.00011834397176 1927.0 291.0 734.9678147939021 0.56184416740342 125.0 27.0 102.0 
202.00011834397176 1933.0 293.0 734.9926595144 0.5575436085170112 125.0 27.0 102.0 
204.00011834397176 1936.0 293.0 732.3839638622243 0.562852122763515 124.0 27.0 101.0 
206.00011834397176 1957.0 294.0 734.9610389610375 0.5726705644798586 124.0 28.0 101.0 
208.00011834397176 1957.0 294.0 732.3500846979108 0.599289621573483 123.0 28.0 100.0 
210.00011834397176 1944.0 293.0 732.3771880293607 0.5830415925633367 123.0 28.0 100.0 
212.00011834397176 1931.0 292.0 732.3749294184069 0.5619365481015526 124.0 28.0 100.0 
214.00011834397176 1930.0 292.0 729.7549407114633 0.568972967709841 124.0 28.0 99.0 
216.00011834397176 1926.0 292.0 724.6098249576514 0.5801974516362517 122.0 28.0 97.0 
218.00011834397176 1932.0 292.0 724.548842461886 0.5804111492565902 123.0 28.0 97.0 
220.00011834397176 1936.0 292.0 724.5511010728419 0.5882596463854566 122.0 28.0 97.0 
222.00011834397176 1914.0 291.0 719.4059853190302 0.5809683186188015 120.0 28.0 95.0 
224.00011834397176 1910.0 290.0 719.349520045172 0.5766563843283956 122.0 27.0 96.0 
226.00011834397176 1892.0 289.0 719.3291925465834 0.5538432189998691 125.0 24.0 99.0 
228.00011834397176 1912.0 290.0 719.345002823265 0.5572358856590401 125.0 24.0 99.0 
230.00011834397176 1912.0 290.0 719.342744212311 0.5576169790174094 126.0 23.0 100.0 
232.00011834397176 1912.0 290.0 719.3675889328069 0.5687060377145241 125.0 24.0 99.0 
234.00011834397176 1910.0 290.0 719.345002823265 0.5947443761203527 120.0 29.0 94.0 
236.00011834397176 1885.0 287.0 716.7408243929993 0.5675088690093397 120.0 28.0 94.0 
238.00011834397176 1884.0 288.0 714.1547148503656 0.5666361007136327 122.0 25.0 96.0 
240.00011834397176 1876.0 287.0 714.1276115189163 0.5562666392150502 120.0 28.0 93.0 
242.00011834397176 1882.0 288.0 708.9734613212869 0.569344778410587 119.0 28.0 91.0 
244.00011834397176 1863.0 288.0 706.3692828910212 0.5494310055549047 117.0 28.0 90.0 
246.00011834397176 1862.0 288.0 706.3625070581577 0.55534585741464 117.0 28.0 90.0 
248.00011834397176 1879.0 289.0 706.3783173348389 0.5631899431839262 118.0 28.0 90.0 
250.00011834397176 1909.0 291.0 706.3557312252968 0.5630735899208441 119.0 28.0 90.0 
252.00011834397176 1912.0 291.0 706.3805759457953 0.562584362125043 119.0 28.0 90.0 
254.00011834397176 1903.0 291.0 706.3783173348389 0.5670432800427349 119.0 28.0 90.0 
256.00011834397174 1888.0 290.0 706.3850931677026 0.5510262207713463 119.0 28.0 90.0 
258.00011834397174 1889.0 291.0 706.3670242800677 0.5466126433861407 119.0 28.0 90.0 
260.00011834397174 1892.0 291.0 708.9576510446087 0.558139156634922 119.0 28.0 91.0 
262.00011834397174 1894.0 291.0 706.4212309429693 0.5672462233465881 118.0 28.0 90.0 
264.00011834397174 1880.0 290.0 706.3941276115172 0.5561452701218003 117.0 28.0 90.0 
266.00011834397174 1892.0 291.0 701.1925465838497 0.5661690148917683 116.0 28.0 88.0 
268.00011834397174 1889.0 291.0 698.6109542631265 0.5474509748532909 115.0 28.0 87.0 
270.00011834397174 1904.0 292.0 695.993224167139 0.5478215328968352 115.0 28.0 86.0 
272.00011834397174 1907.0 292.0 696.0090344438172 0.5492135912953038 115.0 28.0 86.0 
274.00011834397174 1910.0 294.0 696.0 0.5520225202598527 115.0 28.0 86.0 
276.00011834397174 1912.0 295.0 695.9977413890464 0.5533569604236876 115.0 28.0 86.0 
278.00011834397174 1916.0 295.0 695.9954827780928 0.57255547844906 115.0 28.0 86.0 
280.00011834397174 1924.0 294.0 696.0225861095423 0.5708750751164429 114.0 28.0 86.0 
282.00011834397174 1910.0 294.0 693.461321287407 0.5597847632234123 114.0 28.0 85.0 
284.00011834397174 1908.0 294.0 693.438735177865 0.5788123036217343 114.0 28.0 85.0 
286.00011834397174 1899.0 294.0 693.4048560135518 0.5786941806730876 114.0 28.0 85.0 
288.00011834397174 1903.0 292.0 696.0203274985885 0.5519570874429992 115.0 28.0 86.0 
290.00011834397174 1910.0 293.0 696.0135516657249 0.5763275445114737 115.0 28.0 86.0 
292.00011834397174 1910.0 293.0 696.0112930547709 0.6169218617955016 115.0 28.0 86.0 
294.00011834397174 1890.0 291.0 693.4319593450012 0.5950015988209151 114.0 28.0 85.0 
296.00011834397174 1887.0 291.0 693.4138904573692 0.5560682447667978 114.0 28.0 85.0 
298.00011834397174 1889.0 292.0 693.4138904573692 0.5573428193603359 114.0 28.0 85.0 
300.00011834397174 1890.0 292.0 693.4003387916418 0.5804377209667366 113.0 28.0 85.0 
302.00011834397174 1873.0 291.0 693.393562958781 0.5832964014963029 113.0 28.0 85.0 
304.00011834397174 1858.0 290.0 690.7939017504225 0.5743845818501742 112.0 28.0 84.0 
306.00011834397174 1840.0 289.0 690.7848673066079 0.5623478479943119 112.0 28.0 84.0 
308.00011834397174 1840.0 289.0 693.3958215697344 0.5917726192089692 112.0 28.0 85.0 
310.00011834397174 1843.0 289.0 693.3913043478271 0.5679113804867809 113.0 28.0 85.0 
312.00011834397174 1848.0 288.0 690.8006775832864 0.5522270037012681 113.0 28.0 84.0 
314.00011834397174 1852.0 290.0 688.207792207792 0.5540925138198532 112.0 28.0 83.0 
316.00011834397174 1850.0 290.0 688.2055335968381 0.5463243749689852 112.0 28.0 83.0 
318.00011834397174 1859.0 291.0 688.2145680406558 0.5619094961574596 112.0 28.0 83.0 
320.00011834397174 1859.0 291.0 693.4048560135512 0.5929639525575764 111.0 28.0 85.0 
322.00011834397174 1871.0 292.0 696.0158102766821 0.5771478582029792 114.0 28.0 86.0 
324.00011834397174 1874.0 292.0 696.0248447204985 0.5564478209591195 113.0 28.0 86.0 
326.00011834397174 1878.0 293.0 696.0203274985895 0.5637531761464212 113.0 28.0 86.0 
328.00011834397174 1881.0 292.0 696.0271033314526 0.5524841890560882 114.0 28.0 86.0 
330.00011834397174 1882.0 292.0 696.0067758328609 0.552618846846477 114.0 28.0 86.0 
332.00011834397174 1880.0 292.0 693.4161490683241 0.5547797471362678 114.0 28.0 85.0 
334.00011834397174 1880.0 292.0 693.4184076792777 0.5684073356402225 113.0 28.0 85.0 
336.00011834397174 1861.0 291.0 693.4274421230939 0.5722321798194768 113.0 28.0 85.0 
338.00011834397174 1856.0 291.0 696.0067758328609 0.5518064109045683 114.0 28.0 86.0 
340.00011834397174 1864.0 292.0 693.41389045737 0.5543224694253497 113.0 28.0 85.0 
342.00011834397174 1876.0 293.0 693.4455110107295 0.561953163201202 113.0 28.0 85.0 
344.00011834397174 1892.0 294.0 698.6719367588919 0.5740012386032814 114.0 28.0 87.0 
346.00011834397174 1889.0 293.0 698.6583850931678 0.5884273133205294 114.0 28.0 87.0 
348.00011834397174 1886.0 292.0 696.0609824957655 0.5583603542228721 112.0 28.0 86.0 
350.00011834397174 1888.0 292.0 690.8661773009582 0.5695228214175794 111.0 28.0 84.0 
352.00011834397174 1873.0 293.0 690.8661773009582 0.5554086390447535 111.0 28.0 84.0 
354.00011834397174 1876.0 293.0 693.4726143421774 0.5744631508982134 111.0 28.0 85.0 
356.00011834397174 1884.0 294.0 696.0383963862203 0.5816524046492172 113.0 27.0 87.0 
358.00011834397174 1874.0 294.0 696.0293619424061 0.5907662359685742 113.0 27.0 87.0 
360.00011834397174 1872.0 294.0 693.420666290233 0.5601654448010415 112.0 27.0 86.0 
362.00011834397174 1872.0 293.0 690.8571428571418 0.5599005647175876 111.0 27.0 85.0 
364.00011834397174 1877.0 293.0 690.8413325804646 0.5697843215588413 112.0 27.0 85.0 
366.00011834397174 1884.0 293.0 696.0519480519494 0.5583417319574838 112.0 27.0 87.0 
368.00011834397174 1886.0 294.0 696.0745341614889 0.5709534153577052 112.0 27.0 87.0 
370.00011834397174 1886.0 294.0 696.045172219083 0.6130830778008477 112.0 27.0 87.0 
372.00011834397174 1870.0 291.0 696.0361377752669 0.616649520835896 112.0 27.0 87.0 
374.00011834397174 1862.0 290.0 696.0383963862203 0.5723214879883279 112.0 27.0 87.0 
376.00011834397174 1867.0 289.0 696.0429136081297 0.5657743062280445 112.0 27.0 87.0 
378.00011834397174 1867.0 288.0 696.0383963862203 0.5706493717101555 112.0 27.0 87.0 
380.00011834397174 1866.0 289.0 696.0158102766825 0.5816014335708409 112.0 27.0 87.0 
382.00011834397174 1871.0 288.0 696.0293619424061 0.5730177043896022 113.0 27.0 87.0 
384.00011834397174 1873.0 288.0 696.0383963862203 0.580000569798948 112.0 28.0 86.0 
386.00011834397174 1875.0 288.0 698.6516092603072 0.5966920734876705 112.0 28.0 87.0 
388.00011834397174 1870.0 288.0 698.6538678712608 0.5910882747690155 112.0 28.0 87.0 
390.00011834397174 1856.0 287.0 698.6312817617177 0.5807841869384922 112.0 28.0 87.0 
392.00011834397174 1859.0 286.0 698.629023150764 0.5842751942561952 112.0 27.0 88.0 
394.00011834397174 1862.0 288.0 696.070016939582 0.5966203259343128 111.0 28.0 86.0 
396.00011834397174 1850.0 287.0 696.0722755505361 0.582528558215388 112.0 28.0 86.0 
398.00011834397174 1858.0 288.0 696.0135516657245 0.5802619964249599 115.0 28.0 86.0 
400.00011834397174 1863.0 289.0 703.8396386222488 0.5768606508030604 117.0 28.0 89.0 
402.00011834397174 1860.0 288.0 703.8825522303765 0.5674913384401424 117.0 28.0 89.0 
404.00011834397174 1856.0 288.0 703.8125352907966 0.5669123331453965 118.0 27.0 90.0 
406.00011834397174 1853.0 288.0 703.8780350084692 0.5646814647708226 118.0 27.0 90.0 
408.00011834397174 1848.0 288.0 703.9028797289677 0.5728006849931765 118.0 27.0 90.0 
410.00011834397174 1856.0 289.0 701.2761151891573 0.600258808182979 117.0 27.0 89.0 
412.00011834397174 1844.0 287.0 701.278373800111 0.5813874498275944 116.0 28.0 88.0 
414.00011834397174 1837.0 287.0 701.2535290796152 0.5935434203377614 115.0 28.0 88.0 
416.00011834397174 1835.0 288.0 701.2286843591194 0.5937762597260682 116.0 27.0 89.0 
418.00011834397174 1809.0 286.0 698.6674195369844 0.5574031532894735 115.0 28.0 87.0 
420.00011834397174 1810.0 287.0 698.6222473179002 0.561493954476326 115.0 28.0 87.0 
422.00011834397174 1812.0 288.0 698.6380575945786 0.5812467846835828 115.0 28.0 87.0 
424.00011834397174 1808.0 287.0 698.5996612083583 0.5847981990021114 116.0 27.0 88.0 
426.00011834397174 1805.0 286.0 698.5928853754943 0.5955050168621214 116.0 27.0 88.0 
428.00011834397174 1808.0 285.0 698.5770750988132 0.5654527809511326 117.0 27.0 88.0 
430.00011834397174 1805.0 285.0 698.5748164878596 0.5802139783205702 117.0 27.0 88.0 
432.00011834397174 1803.0 285.0 695.9819311123655 0.5686784268601207 116.0 27.0 87.0 
434.00011834397174 1799.0 284.0 695.9616036137796 0.5767767826614784 116.0 27.0 87.0 
436.00011834397174 1797.0 284.0 695.959345002823 0.5820520967950721 116.0 27.0 87.0 
438.00011834397174 1805.0 285.0 695.9638622247331 0.5775533120643639 115.0 27.0 87.0 
440.00011834397174 1804.0 285.0 695.9503105590059 0.5761658365487061 115.0 27.0 87.0 
442.00011834397174 1794.0 284.0 695.959345002823 0.5800979592945895 115.0 27.0 87.0 
444.00011834397174 1792.0 284.0 693.370976849236 0.5568648874830787 114.0 27.0 86.0 
446.00011834397174 1796.0 285.0 693.3732354601926 0.5727917139414511 114.0 27.0 86.0 
448.00011834397174 1811.0 287.0 690.809712027103 0.5798953686671875 114.0 27.0 85.0 
450.00011834397174 1808.0 286.0 690.7984189723298 0.5502877658414177 114.0 27.0 85.0 
452.00011834397174 1813.0 287.0 690.7893845285154 0.5480617776185562 114.0 27.0 85.0 
454.00011834397174 1820.0 289.0 683.0039525691712 0.5509391652807846 113.0 27.0 82.0 
456.00011834397174 1820.0 289.0 680.4065499717664 0.5495623492979073 115.0 27.0 81.0 
458.00011834397174 1822.0 289.0 680.438170525126 0.5533284342689241 115.0 27.0 81.0 
460.00011834397174 1842.0 291.0 683.0446075663452 0.5628903689208256 116.0 27.0 82.0 
462.00011834397174 1841.0 291.0 680.4494635798969 0.5619506978888629 115.0 27.0 81.0 
464.00011834397174 1840.0 290.0 680.4426877470357 0.580020931893495 115.0 27.0 81.0 
466.00011834397174 1844.0 291.0 680.4517221908536 0.5862642245331737 114.0 28.0 80.0 
468.00011834397174 1843.0 290.0 680.4449463579895 0.5690797961835659 114.0 28.0 80.0 
470.00011834397174 1845.0 290.0 683.026538678713 0.5829237840356836 113.0 28.0 81.0 
472.00011834397174 1840.0 289.0 680.4359119141722 0.5507187854239136 112.0 28.0 80.0 
474.00011834397174 1856.0 290.0 683.0152456239392 0.5587737597667104 113.0 28.0 81.0 
476.00011834397174 1870.0 292.0 683.0649350649364 0.5706645425590139 113.0 28.0 81.0 
478.00011834397174 1878.0 292.0 680.4720496894391 0.5608293990066263 112.0 28.0 80.0 
480.00011834397174 1900.0 294.0 683.0581592320726 0.5697834696305384 113.0 28.0 81.0 
482.00011834397174 1908.0 295.0 683.1033314511567 0.5598095237323765 112.0 28.0 81.0 
484.00011834397174 1927.0 296.0 688.252964426876 0.5538491996394136 116.0 28.0 83.0 
486.00011834397174 1932.0 298.0 693.5110107284015 0.5635403556216679 117.0 28.0 85.0 
488.00011834397174 1934.0 298.0 690.940711462452 0.5672062893271509 116.0 28.0 84.0 
490.00011834397174 1931.0 296.0 685.7075098814223 0.5567745172701213 114.0 28.0 82.0 
492.00011834397174 1934.0 296.0 688.3365330321865 0.5697077236104259 114.0 28.0 83.0 
494.00011834397174 1934.0 296.0 693.5132693393579 0.5532197551031439 114.0 28.0 85.0 
496.00011834397174 1932.0 296.0 693.5177865612654 0.5525074082986633 114.0 28.0 85.0 
498.00011834397174 1944.0 298.0 693.5087521174477 0.5568257031218556 115.0 28.0 85.0 
500.00011834397174 1948.0 299.0 693.4929418407667 0.5729906114095912 115.0 28.0 85.0 
502.00011834397174 1948.0 299.0 696.0903444381713 0.573887267610852 117.0 28.0 86.0 
504.00011834397174 1947.0 299.0 698.6990400903439 0.5672956317053374 119.0 28.0 87.0 
506.00011834397174 1932.0 298.0 698.6629023150774 0.5546640069505798 120.0 28.0 87.0 
508.00011834397174 1930.0 298.0 698.6787125917557 0.5508314367928261 121.0 28.0 87.0 
510.00011834397174 1932.0 298.0 701.2919254658384 0.5595291774988707 121.0 28.0 88.0 
512.0001183439717 1930.0 298.0 701.2648221343891 0.5522148269445497 121.0 28.0 88.0 
514.0001183439717 1938.0 299.0 706.4844720496883 0.5558621518826048 123.0 28.0 90.0 
516.0001183439717 1956.0 300.0 714.3241106719372 0.5700395686940551 123.0 28.0 93.0 
518.0001183439717 1965.0 299.0 716.8627893845298 0.556239021380418 124.0 28.0 94.0 
520.0001183439717 1970.0 301.0 716.85827216262 0.5660224479944643 124.0 28.0 94.0 
522.0001183439717 1968.0 300.0 714.2721626199891 0.5762180281228889 123.0 28.0 93.0 
524.0001183439717 1970.0 300.0 714.2473178994909 0.6005925549816102 123.0 28.0 93.0 
526.0001183439717 1957.0 297.0 714.3060417843024 0.5624751190560567 121.0 28.0 93.0 
528.0001183439717 1978.0 298.0 716.8763410502545 0.5643261900510504 122.0 28.0 94.0 
530.0001183439717 1986.0 298.0 716.8582721626199 0.5962158108641873 121.0 28.0 94.0 
532.0001183439717 1978.0 299.0 716.7905138339909 0.5995640462792012 121.0 28.0 94.0 
534.0001183439717 1976.0 298.0 716.840203274985 0.5827439786556308 121.0 28.0 94.0 
536.0001183439717 1978.0 297.0 716.8108413325792 0.5743328198384395 121.0 28.0 94.0 
538.0001183439717 1982.0 297.0 716.8537549407125 0.5790595143158295 121.0 28.0 94.0 
540.0001183439717 1986.0 298.0 716.8605307735764 0.561982624895421 121.0 28.0 94.0 
542.0001183439717 1986.0 298.0 716.8763410502545 0.5615568284398752 121.0 28.0 94.0 
544.0001183439717 1987.0 299.0 719.4940711462449 0.563702366443211 120.0 29.0 94.0 
546.0001183439717 1986.0 299.0 719.4940711462449 0.568079443397936 118.0 31.0 92.0 
548.0001183439717 1996.0 301.0 719.4647092038391 0.5870681464417739 121.0 28.0 95.0 
550.0001183439717 1994.0 302.0 719.4330886504796 0.5816286391347076 122.0 28.0 95.0 
552.0001183439717 2001.0 302.0 722.0124223602494 0.5919486442963362 123.0 28.0 96.0 
554.0001183439717 1986.0 300.0 721.9966120835685 0.5753257817886841 123.0 28.0 96.0 
556.0001183439717 1979.0 299.0 721.9920948616581 0.5696017410595103 123.0 28.0 96.0 
558.0001183439717 1979.0 299.0 722.0169395821565 0.5725365436034121 123.0 28.0 96.0 
560.0001183439717 1966.0 299.0 719.4082439299839 0.5614481605016742 123.0 28.0 95.0 
562.0001183439717 1966.0 299.0 716.7972896668543 0.5817979807886307 122.0 28.0 94.0 
564.0001183439717 1978.0 299.0 719.4172783737984 0.593693828017244 123.0 28.0 95.0 
566.0001183439717 1982.0 299.0 719.4240542066624 0.6141753360823873 123.0 28.0 95.0 
568.0001183439717 1993.0 298.0 719.4421230942969 0.5883378318793856 124.0 28.0 95.0 
570.0001183439717 1981.0 299.0 716.840203274985 0.5842220580202767 123.0 28.0 94.0 
572.0001183439717 1981.0 299.0 714.2089215132673 0.606297297843798 117.0 33.0 88.0 
574.0001183439717 1988.0 297.0 714.2066629023137 0.584497510331234 118.0 33.0 88.0 
576.0001183439717 2001.0 299.0 714.2202145680409 0.6029513184096384 117.0 32.0 89.0 
578.0001183439717 1974.0 299.0 711.6408808582719 0.5915575705899375 121.0 27.0 93.0 
580.0001183439717 1970.0 297.0 711.6228119706394 0.5797847283237929 121.0 27.0 93.0 
582.0001183439717 1973.0 297.0 711.6182947487291 0.585777498038366 122.0 27.0 93.0 
584.0001183439717 1992.0 303.0 716.7747035573125 0.5696118367434023 125.0 27.0 95.0 
586.0001183439717 2003.0 304.0 719.3946922642563 0.5893624157822556 131.0 27.0 96.0 
588.0001183439717 1986.0 304.0 719.4308300395261 0.6301587920630031 130.0 27.0 96.0 
590.0001183439717 1968.0 302.0 719.3901750423488 0.6142606177433064 130.0 27.0 96.0 
592.0001183439717 1948.0 299.0 721.9762845849799 0.561664173867022 131.0 27.0 97.0 
594.0001183439717 1953.0 300.0 722.0372670807452 0.5657013257597572 129.0 27.0 97.0 
596.0001183439717 1955.0 300.0 722.0101637492955 0.5882528865962439 130.0 27.0 97.0 
598.0001183439717 1944.0 300.0 719.3992094861663 0.5954567490417139 128.0 27.0 96.0 
600.0001183439717 1924.0 299.0 719.4014680971202 0.5789674080228993 128.0 27.0 96.0 
602.0001183439717 1921.0 298.0 719.3992094861663 0.5746792433237976 128.0 27.0 96.0 
604.0001183439717 1925.0 299.0 721.9988706945217 0.5737743876587277 129.0 27.0 97.0 
606.0001183439717 1930.0 300.0 721.996612083568 0.5612028848161971 130.0 27.0 97.0 
608.0001183439717 1932.0 300.0 724.6369282891034 0.5578950202870266 129.0 27.0 98.0 
610.0001183439717 1943.0 301.0 729.8046301524546 0.5622834776915033 130.0 27.0 100.0 
612.0001183439717 1942.0 300.0 732.431394692265 0.5571246081332486 131.0 27.0 101.0 
614.0001183439717 1953.0 301.0 732.4155844155837 0.6053502719766166 131.0 27.0 101.0 
616.0001183439717 1960.0 302.0 729.79559570864 0.6752937843734204 130.0 27.0 100.0 
618.0001183439717 1938.0 298.0 727.2320722755486 0.6064565614492698 129.0 27.0 99.0 
620.0001183439717 1926.0 295.0 727.2140033879168 0.5857954920609834 128.0 27.0 99.0 
622.0001183439717 1922.0 295.0 729.7707509881413 0.578771858747174 129.0 27.0 100.0 
624.0001183439717 1906.0 294.0 727.1620553359686 0.5627437525941474 128.0 27.0 99.0 
626.0001183439717 1923.0 295.0 732.3771880293606 0.5614604985378497 129.0 27.0 101.0 
628.0001183439717 1914.0 294.0 732.4743083003953 0.5554995528310571 129.0 27.0 101.0 
630.0001183439717 1936.0 295.0 734.9949181253537 0.574968783287786 130.0 27.0 102.0 
632.0001183439717 1918.0 295.0 729.86561264822 0.5674515353358862 128.0 27.0 100.0 
634.0001183439717 1904.0 295.0 729.7843026538691 0.5515962940337436 129.0 27.0 100.0 
636.0001183439717 1906.0 296.0 729.7459062676452 0.5726150081208571 129.0 27.0 100.0 
638.0001183439717 1909.0 297.0 729.7594579333708 0.5868714340848415 129.0 27.0 100.0 
640.0001183439717 1902.0 296.0 729.7300959909671 0.568588941907108 130.0 27.0 100.0 
642.0001183439717 1899.0 295.0 732.3365330321864 0.5504148875860615 131.0 27.0 101.0 
644.0001183439717 1934.0 298.0 737.5652173913031 0.5612337449486773 133.0 27.0 103.0 
646.0001183439717 1934.0 298.0 737.5697346132133 0.5774512926506957 133.0 27.0 103.0 
648.0001183439717 1934.0 297.0 734.9407114624519 0.5665154126413625 132.0 27.0 102.0 
650.0001183439717 1941.0 297.0 734.9520045172203 0.5810394653246636 132.0 27.0 102.0 
652.0001183439717 1946.0 298.0 734.9813664596261 0.6044801119921982 132.0 27.0 102.0 
654.0001183439717 1913.0 296.0 729.8520609824958 0.5940983876478657 131.0 27.0 100.0 
656.0001183439717 1909.0 296.0 729.7978543195936 0.6176361470719008 131.0 27.0 100.0 
658.0001183439717 1890.0 295.0 727.1981931112355 0.6073219318490017 131.0 27.0 99.0 
660.0001183439717 1894.0 295.0 729.7617165443266 0.5535708243033473 130.0 27.0 100.0 
662.0001183439717 1911.0 297.0 729.8136645962718 0.5603188804625634 130.0 27.0 100.0 
664.0001183439717 1925.0 298.0 734.9791078486724 0.577684321068029 130.0 27.0 102.0 
#####################################################################
# End of data export. Simulation finished at: 2019-03-05T10:43+0000 #
#####################################################################
