#####################################################################
# Alchemist log file - simulation started at: 2019-03-10T19:23+0000 #
#####################################################################
# seed = 4.0, bandwidth = 17782.79410038923, accessPointCount = 531.8295896944988, baserange = 177.82794100389228
#
# The columns have the following meaning: 
# time neighbor_count[Sum] <value>@neighbor_count[Sum] packet_size[Mean] mean_delay[Mean] crowd[Sum] overcrowded[Sum] risk[Sum] 
0.0 NaN NaN NaN NaN NaN NaN NaN 
2.0000042429967895 595.0 383.0 4981.9802761341225 0.4073687652902314 1497.0 0.0 1497.0 
4.0000042429967895 1629.0 763.0 4983.7278106508875 0.6999752124284484 1497.0 0.0 1497.0 
6.0000042429967895 2496.0 894.0 4984.282051282052 0.9536077993908126 1497.0 0.0 1497.0 
8.00000424299679 3286.0 959.0 4984.984220907298 1.128191008943913 1497.0 0.0 1497.0 
10.00000424299679 4031.0 1027.0 4985.339250493097 1.2529494677338588 1497.0 0.0 1497.0 
12.00000424299679 4265.0 1050.0 4985.278106508876 1.5798849748351471 1497.0 0.0 1497.0 
14.00000424299679 4350.0 1050.0 4985.392504930966 1.6935651590801102 1494.0 3.0 1494.0 
16.000004242996788 4364.0 1053.0 4985.051282051282 1.8947884308280831 1494.0 3.0 1494.0 
18.000004242996788 4365.0 1053.0 4985.177514792899 2.0557076092465585 1492.0 5.0 1492.0 
20.000004242996788 4366.0 1054.0 4985.181459566074 2.2385109759158714 1494.0 3.0 1494.0 
22.000004242996788 4366.0 1054.0 4984.970414201183 2.4176702869016893 1492.0 5.0 1492.0 
24.000004242996788 4363.0 1052.0 4985.072978303748 2.609946870137268 1491.0 6.0 1491.0 
26.000004242996788 4318.0 1034.0 4984.940828402367 2.464815566362613 1493.0 4.0 1493.0 
28.000004242996788 4214.0 1004.0 4985.136094674556 2.2282552336020465 1493.0 4.0 1493.0 
30.000004242996788 4014.0 976.0 4985.03550295858 1.5346198230282855 1493.0 4.0 1493.0 
32.00000424299679 3857.0 949.0 4984.816568047338 1.1464915792549943 1493.0 4.0 1493.0 
34.00000424299679 3854.0 949.0 4984.907297830375 1.0712636932020976 1496.0 1.0 1496.0 
36.00000424299679 3855.0 949.0 4984.948717948718 1.0991992310740395 1495.0 2.0 1495.0 
38.00000424299679 3858.0 950.0 4984.81459566075 1.092351805828005 1494.0 3.0 1494.0 
40.00000424299679 3858.0 950.0 4985.039447731755 1.1163049888443328 1492.0 5.0 1492.0 
42.00000424299679 3858.0 950.0 4984.751479289941 1.0941929080291908 1492.0 5.0 1492.0 
44.00000424299679 3858.0 950.0 4984.956607495069 1.1600324747403292 1495.0 2.0 1495.0 
46.00000424299679 3859.0 950.0 4984.698224852071 1.105004604802946 1496.0 1.0 1496.0 
48.00000424299679 3855.0 949.0 4984.919132149901 1.1521773358487857 1495.0 2.0 1495.0 
50.00000424299679 3857.0 950.0 4984.915187376726 1.0272756356866393 1492.0 5.0 1492.0 
52.00000424299679 3852.0 949.0 4984.69033530572 1.1318921284924588 1492.0 5.0 1492.0 
54.00000424299679 3852.0 949.0 4984.87573964497 1.054256296133282 1494.0 3.0 1494.0 
56.00000424299679 3858.0 950.0 4984.704142011835 1.109404299807714 1492.0 5.0 1492.0 
58.00000424299679 3860.0 951.0 4984.786982248521 1.1177868893003264 1490.0 7.0 1490.0 
60.00000424299679 3862.0 952.0 4982.7297830374755 1.111913958031679 1491.0 6.0 1491.0 
62.00000424299679 3864.0 953.0 747.3905325443798 0.9702237387916128 396.0 3.0 150.0 
64.0000042429968 3864.0 953.0 747.2110453648976 0.9253566797813736 307.0 1.0 152.0 
66.0000042429968 3866.0 953.0 747.1321499013767 0.8438916877509922 272.0 2.0 151.0 
68.0000042429968 3859.0 953.0 747.1084812623324 0.8509450023090431 248.0 5.0 148.0 
70.0000042429968 3871.0 953.0 747.112426035498 0.8023626746384074 239.0 6.0 147.0 
72.0000042429968 3885.0 954.0 747.0532544378723 0.8646314664256232 235.0 3.0 150.0 
74.0000042429968 3886.0 954.0 747.0216962524685 0.8413371616642012 233.0 4.0 149.0 
76.0000042429968 3886.0 954.0 746.9822485207088 0.8991182537982393 232.0 4.0 149.0 
78.0000042429968 3902.0 956.0 747.0078895463574 0.8581914967121359 225.0 8.0 145.0 
80.0000042429968 3900.0 955.0 747.0118343195231 0.8813728983025796 224.0 8.0 145.0 
82.0000042429968 3902.0 956.0 746.9546351084853 0.8744846808139182 219.0 11.0 142.0 
84.0000042429968 3900.0 955.0 746.9349112426065 0.8952089677903529 217.0 11.0 142.0 
86.0000042429968 3904.0 956.0 744.7238658777087 0.9074815810166089 218.0 10.0 142.0 
88.0000042429968 3911.0 956.0 737.919132149906 0.9336160211602713 216.0 9.0 140.0 
90.0000042429968 3898.0 956.0 719.8205128205177 0.8024261774095545 210.0 11.0 130.0 
92.0000042429968 3899.0 956.0 722.0571992110494 0.8702395906867518 206.0 12.0 130.0 
94.0000042429968 3898.0 955.0 722.0729783037511 0.7975860458567653 206.0 11.0 131.0 
96.0000042429968 3898.0 955.0 722.0473372781028 0.8641669988087812 202.0 13.0 129.0 
98.0000042429968 3897.0 955.0 722.0512820512828 0.8435481561039192 199.0 14.0 128.0 
100.0000042429968 3896.0 954.0 721.9940828402322 0.8508748951998037 198.0 14.0 128.0 
102.0000042429968 3900.0 955.0 722.0 0.8630453347566948 200.0 12.0 130.0 
104.0000042429968 3892.0 954.0 722.0078895463572 0.8906972125538235 201.0 11.0 131.0 
106.0000042429968 3892.0 954.0 721.9822485207088 0.8612397772494002 200.0 11.0 131.0 
108.0000042429968 3904.0 957.0 721.986193293889 0.9310016642552251 198.0 13.0 129.0 
110.0000042429968 3892.0 956.0 722.0216962524685 0.8712063002171869 199.0 12.0 130.0 
112.0000042429968 3878.0 955.0 721.986193293889 0.8931183750170513 199.0 12.0 130.0 
114.0000042429968 3877.0 954.0 721.9802761341194 0.8052946972571837 199.0 12.0 130.0 
116.0000042429968 3878.0 954.0 721.9901380670663 0.8936703376535555 199.0 12.0 130.0 
118.0000042429968 3886.0 954.0 724.2544378698228 0.8632927906142365 202.0 10.0 133.0 
120.0000042429968 3885.0 952.0 726.5187376725793 0.7983245113183417 202.0 10.0 134.0 
122.0000042429968 3897.0 953.0 731.0552268244602 0.8282526972971784 203.0 12.0 134.0 
124.0000042429968 3898.0 954.0 731.0197238658806 0.8350511147463612 203.0 12.0 134.0 
126.0000042429968 3900.0 954.0 731.0433925049254 0.8224796085888956 204.0 11.0 135.0 
128.0000042429968 3925.0 956.0 731.0453648915147 0.9096082500093474 206.0 9.0 137.0 
130.0000042429968 3920.0 955.0 733.3293885601634 0.8266448800134437 205.0 11.0 136.0 
132.0000042429968 3932.0 955.0 733.289940828405 0.8648935773770285 203.0 13.0 134.0 
134.0000042429968 3950.0 956.0 735.6410256410223 0.8241308510328443 204.0 13.0 135.0 
136.0000042429968 3954.0 956.0 737.8737672583768 0.8518091610229936 201.0 17.0 132.0 
138.0000042429968 3960.0 957.0 737.8422090729745 0.8593370241344507 201.0 17.0 132.0 
140.0000042429968 3963.0 957.0 737.85207100592 0.8954531901240823 202.0 16.0 133.0 
142.0000042429968 4005.0 959.0 742.4003944773134 0.8967950055124487 205.0 14.0 137.0 
144.0000042429968 4005.0 959.0 742.3826429980222 0.94466017303423 208.0 11.0 140.0 
146.0000042429968 4011.0 959.0 742.3964497041466 1.0059806631812258 208.0 11.0 140.0 
148.0000042429968 4002.0 957.0 742.3648915187312 0.9502500966096945 206.0 13.0 138.0 
150.0000042429968 3998.0 956.0 742.4063116370801 0.9215098122381943 207.0 12.0 139.0 
152.0000042429968 3991.0 955.0 740.1558185404374 0.9715584153864318 206.0 12.0 138.0 
154.0000042429968 3992.0 955.0 737.8658777120337 0.9244683799594128 203.0 12.0 137.0 
156.0000042429968 3986.0 953.0 737.8619329388537 0.9175848749626542 200.0 12.0 137.0 
158.0000042429968 3976.0 954.0 735.6252465483208 0.929820456830945 200.0 12.0 136.0 
160.0000042429968 3962.0 952.0 735.5976331360974 0.904808205636176 199.0 12.0 136.0 
162.0000042429968 3947.0 953.0 735.5601577909283 0.8497803180372651 199.0 12.0 136.0 
164.0000042429968 3948.0 951.0 735.5719921104511 0.8361414577526632 199.0 12.0 136.0 
166.0000042429968 3958.0 952.0 735.5759368836286 0.845579683332737 199.0 12.0 136.0 
168.0000042429968 3961.0 952.0 735.5818540433967 0.883733781164812 198.0 12.0 136.0 
170.0000042429968 3962.0 953.0 733.3214990138058 0.89211258351254 196.0 12.0 135.0 
172.0000042429968 3962.0 953.0 733.2879684418143 0.9408212201406334 195.0 12.0 135.0 
174.0000042429968 3960.0 952.0 733.3274161735739 0.8708514905985971 194.0 12.0 135.0 
176.0000042429968 3940.0 952.0 733.3570019723883 0.9472053303298373 192.0 12.0 135.0 
178.0000042429968 3926.0 951.0 733.3017751479255 0.909428415788083 192.0 12.0 135.0 
180.0000042429968 3918.0 949.0 731.0394477317597 0.8441260921960237 192.0 12.0 134.0 
182.0000042429968 3922.0 949.0 731.0670611439831 0.8303230565236689 192.0 12.0 134.0 
184.0000042429968 3922.0 949.0 733.333333333329 0.850865602283904 192.0 12.0 135.0 
186.0000042429968 3922.0 949.0 735.5759368836286 0.8643401604514004 192.0 12.0 136.0 
188.0000042429968 3923.0 949.0 731.0591715976395 0.8716700703649244 191.0 12.0 134.0 
190.0000042429968 3925.0 949.0 731.0690335305738 0.8099017407516617 193.0 12.0 134.0 
192.0000042429968 3924.0 948.0 726.524654832346 0.843178499652498 193.0 12.0 132.0 
194.0000042429968 3924.0 948.0 726.5424063116371 0.8310111409924699 193.0 12.0 132.0 
196.0000042429968 3924.0 948.0 726.5088757396456 0.8779436168378427 193.0 12.0 132.0 
198.0000042429968 3922.0 948.0 726.5069033530549 0.8525064413682915 193.0 12.0 132.0 
200.0000042429968 3920.0 948.0 726.530571992114 0.7926013359812537 193.0 12.0 132.0 
202.0000042429968 3927.0 948.0 728.7790927021687 0.7642486639138195 194.0 12.0 133.0 
204.0000042429968 3946.0 949.0 733.3372781065063 0.7491519677856316 194.0 12.0 135.0 
206.0000042429968 3949.0 950.0 733.3333333333292 0.7639961813148956 194.0 12.0 135.0 
208.0000042429968 3950.0 950.0 731.0414201183489 0.7714005139034398 194.0 12.0 134.0 
210.0000042429968 3950.0 950.0 731.0571992110494 0.7399187231139198 193.0 12.0 134.0 
212.0000042429968 3952.0 950.0 731.0591715976395 0.7964141561453041 193.0 12.0 134.0 
214.0000042429968 3954.0 952.0 733.3155818540392 0.7655930029813742 193.0 12.0 135.0 
216.0000042429968 3955.0 952.0 731.0552268244601 0.8199507661770182 193.0 12.0 134.0 
218.0000042429968 3958.0 954.0 731.080867850094 0.8229479179379312 192.0 12.0 134.0 
220.0000042429968 3958.0 954.0 728.7889546351025 0.8436400609151467 192.0 12.0 133.0 
222.0000042429968 3954.0 954.0 728.7948717948693 0.8207002223923563 191.0 12.0 133.0 
224.0000042429968 3950.0 954.0 728.8205128205177 0.8487637202095462 187.0 12.0 133.0 
226.0000042429968 3946.0 955.0 726.4911242603544 0.8403094007233591 186.0 12.0 132.0 
228.0000042429968 3948.0 956.0 726.4930966469451 0.8661553601089016 187.0 12.0 132.0 
230.0000042429968 3963.0 957.0 726.5167652860029 0.8651196713880885 187.0 12.0 132.0 
232.0000042429968 3953.0 956.0 726.4871794871771 0.827930680141752 187.0 12.0 132.0 
234.0000042429968 3957.0 956.0 726.5108481262351 0.771288602286264 187.0 12.0 132.0 
236.0000042429968 3960.0 957.0 726.5187376725794 0.844820108809128 189.0 12.0 132.0 
238.0000042429968 3958.0 956.0 726.4891518737649 0.7729050347213705 189.0 12.0 132.0 
240.0000042429968 3960.0 956.0 728.7573964497004 0.7978159722790847 190.0 12.0 133.0 
242.0000042429968 3960.0 956.0 728.7712031558256 0.805614141787495 192.0 12.0 133.0 
244.0000042429968 3970.0 957.0 728.7495069033573 0.8234954783194043 192.0 12.0 133.0 
246.0000042429968 3975.0 957.0 728.7633136094684 0.8298295869960692 191.0 12.0 133.0 
248.0000042429968 3984.0 959.0 726.5088757396456 0.8774998756687142 191.0 12.0 132.0 
250.0000042429968 3982.0 958.0 728.7692307692348 0.8022798511445097 190.0 12.0 133.0 
252.0000042429968 3982.0 958.0 728.7613412228776 0.8372243334227838 189.0 12.0 133.0 
254.0000042429968 3980.0 958.0 728.79684418146 0.8002166302623289 191.0 12.0 133.0 
256.0000042429968 3977.0 959.0 731.045364891515 0.8377846223636272 193.0 12.0 134.0 
258.0000042429968 3994.0 959.0 731.0414201183487 0.7623413593317141 194.0 12.0 134.0 
260.0000042429968 4010.0 961.0 733.3451676528647 0.8020777104303616 195.0 12.0 135.0 
262.0000042429968 4020.0 962.0 733.2998027613376 0.7910692056631817 196.0 12.0 135.0 
264.0000042429968 4035.0 963.0 733.3274161735736 0.8080666910050032 198.0 12.0 135.0 
266.0000042429968 4043.0 964.0 733.3668639053209 0.8284699235398209 198.0 12.0 135.0 
268.0000042429968 4044.0 964.0 740.1282051281999 0.8475710185778272 197.0 12.0 138.0 
270.0000042429968 4046.0 965.0 740.108481262332 0.8463037145117557 197.0 12.0 138.0 
272.0000042429968 4046.0 965.0 737.8639053254429 0.9302012236342662 196.0 12.0 137.0 
274.0000042429968 4043.0 964.0 737.8362919132192 0.8921997722281477 196.0 12.0 137.0 
276.0000042429968 4041.0 964.0 737.8599605522658 0.9458688433222466 195.0 12.0 137.0 
278.0000042429968 4043.0 964.0 737.8678500986232 0.9865002004737076 195.0 12.0 137.0 
280.0000042429968 4038.0 964.0 737.8481262327426 0.9825205065455033 196.0 12.0 137.0 
282.0000042429968 4019.0 962.0 733.3195266272163 0.9548525510609767 195.0 12.0 135.0 
284.0000042429968 4017.0 963.0 733.3234714003967 1.0077540038577781 194.0 12.0 135.0 
286.0000042429968 4011.0 962.0 733.3195266272163 0.9448271264174039 191.0 13.0 134.0 
288.0000042429968 4003.0 961.0 733.3116370808722 0.9327847055383999 191.0 13.0 134.0 
290.0000042429968 4009.0 963.0 728.7712031558256 0.9309940434137877 190.0 13.0 132.0 
292.0000042429968 4020.0 964.0 728.7573964497004 0.9142106420365061 184.0 19.0 126.0 
294.0000042429968 4011.0 963.0 731.0335305719915 0.8522538330288618 183.0 19.0 127.0 
296.0000042429968 4010.0 964.0 731.0788954635066 0.9490681433787839 185.0 19.0 127.0 
298.0000042429968 4006.0 964.0 731.0315581854021 0.8962840439778965 192.0 12.0 134.0 
300.0000042429968 4007.0 964.0 731.0335305719915 0.9403526604073913 191.0 12.0 134.0 
302.0000042429968 4007.0 962.0 731.0532544378722 0.9284190177511952 191.0 12.0 134.0 
304.0000042429968 4002.0 962.0 731.0355029585821 0.906091325678519 191.0 12.0 134.0 
306.0000042429968 4010.0 963.0 735.605522682443 0.9284486656635809 192.0 12.0 136.0 
308.0000042429968 4018.0 965.0 740.1380670611464 0.9715423066794089 195.0 12.0 138.0 
310.0000042429968 4016.0 965.0 740.1025641025655 0.9437248094272047 195.0 12.0 138.0 
312.0000042429968 4003.0 963.0 737.8856015779144 0.9408805261375404 194.0 12.0 137.0 
314.0000042429968 3991.0 963.0 737.8757396449663 0.9530277690235031 193.0 12.0 137.0 
316.0000042429968 3986.0 962.0 737.8520710059199 1.004995847450367 195.0 12.0 137.0 
318.0000042429968 3984.0 960.0 737.8441814595625 0.9441559411935136 194.0 12.0 137.0 
320.0000042429968 3985.0 961.0 737.8579881656763 1.0347796721701696 193.0 12.0 137.0 
322.0000042429968 3986.0 961.0 737.8323471400422 1.045204501434746 193.0 12.0 137.0 
324.0000042429968 3980.0 961.0 735.579881656809 1.0221420950988185 193.0 12.0 136.0 
326.0000042429968 3984.0 962.0 735.6035502958534 1.0397141698961532 193.0 12.0 136.0 
328.0000042429968 3984.0 962.0 733.3037475345149 1.0273358646343036 192.0 12.0 135.0 
330.0000042429968 4000.0 963.0 733.3570019723883 1.0290137437103368 190.0 12.0 135.0 
332.0000042429968 3997.0 962.0 733.3333333333292 1.0430656887167025 190.0 12.0 135.0 
334.0000042429968 3990.0 962.0 731.0611439842164 0.9538214830730323 190.0 12.0 134.0 
336.0000042429968 3994.0 963.0 731.0552268244601 1.0215529945232145 189.0 12.0 134.0 
338.0000042429968 3998.0 964.0 731.0532544378723 1.0217542827030754 188.0 12.0 134.0 
340.0000042429968 3987.0 962.0 731.0276134122238 0.9457901477208445 186.0 12.0 134.0 
342.0000042429968 3987.0 961.0 733.3214990138058 0.8693388315463341 186.0 12.0 135.0 
344.0000042429968 3985.0 960.0 735.6035502958534 0.8903266850453739 189.0 12.0 136.0 
346.0000042429968 3984.0 960.0 733.3254437869862 0.8934786379886455 192.0 12.0 135.0 
348.0000042429968 3982.0 959.0 733.3353057199168 0.9058436306788981 192.0 12.0 135.0 
350.0000042429968 4017.0 963.0 735.5996055226866 0.9082718085854724 192.0 12.0 136.0 
352.0000042429968 4035.0 962.0 735.587771203152 0.9046794440669311 194.0 12.0 136.0 
354.0000042429968 4029.0 960.0 735.6134122288005 0.8315107902649752 195.0 12.0 136.0 
356.0000042429968 4038.0 962.0 735.5857988165625 0.914091354061337 195.0 12.0 136.0 
358.0000042429968 4038.0 962.0 735.5601577909283 0.9175628866394189 193.0 12.0 136.0 
360.0000042429968 4039.0 962.0 737.8599605522656 0.9475336546893177 192.0 12.0 137.0 
362.0000042429968 4037.0 961.0 735.6173570019779 0.9509511890769974 191.0 12.0 136.0 
364.0000042429968 4038.0 961.0 735.5857988165625 0.9734638070752025 192.0 12.0 136.0 
366.0000042429968 4040.0 962.0 735.6094674556201 0.9817785867768251 192.0 12.0 136.0 
368.0000042429968 4029.0 961.0 735.6173570019778 0.9989735171199219 191.0 12.0 136.0 
370.0000042429968 4036.0 960.0 735.5838264299861 0.892753488784163 191.0 12.0 136.0 
372.0000042429968 4050.0 962.0 733.3471400394544 0.9407837518756552 190.0 12.0 135.0 
374.0000042429968 4051.0 963.0 728.7948717948693 0.9301909969295075 189.0 12.0 133.0 
376.0000042429968 4061.0 963.0 728.790927021692 0.9513062755771626 190.0 12.0 133.0 
378.0000042429968 4052.0 962.0 728.8007889546401 0.8960439189667596 190.0 12.0 133.0 
380.0000042429968 4048.0 963.0 728.8224852070942 0.9553171682117543 189.0 12.0 133.0 
382.0000042429968 4055.0 965.0 728.7771203155793 0.9636838774182266 193.0 12.0 133.0 
384.0000042429968 4079.0 968.0 735.6094674556201 1.0290583103952438 193.0 12.0 136.0 
386.0000042429968 4080.0 969.0 737.891518737668 1.0715556978714373 193.0 12.0 137.0 
388.0000042429968 4073.0 970.0 740.1439842209137 1.1317034370299057 194.0 12.0 138.0 
390.0000042429968 4067.0 971.0 740.1321499013768 1.063128031897001 196.0 12.0 138.0 
392.0000042429968 4051.0 970.0 744.66863905326 1.1447528598470815 198.0 12.0 140.0 
394.0000042429968 4032.0 967.0 744.6587771203134 1.0319388958866451 201.0 12.0 140.0 
396.0000042429968 4040.0 968.0 749.2426035502993 1.081494996267732 202.0 12.0 142.0 
398.0000042429968 4046.0 968.0 749.2307692307653 1.0817715670168906 202.0 12.0 142.0 
400.0000042429968 4041.0 967.0 749.1696252465485 1.0287739578340482 202.0 12.0 142.0 
402.0000042429968 4038.0 968.0 749.1794871794825 1.0122305337660467 201.0 12.0 142.0 
404.0000042429968 4032.0 967.0 749.213017751474 1.0150022272670958 203.0 12.0 142.0 
406.0000042429968 4029.0 966.0 749.1932938856062 0.9606687890388774 204.0 12.0 142.0 
408.0000042429968 4055.0 968.0 749.1696252465485 0.9670475049218634 204.0 12.0 142.0 
410.0000042429968 4057.0 968.0 749.1775147929054 0.985687543816836 204.0 12.0 142.0 
412.0000042429968 4047.0 968.0 749.1854043392489 0.9657047852779779 204.0 12.0 142.0 
414.0000042429968 4026.0 965.0 749.1913214990167 0.8821982308512886 204.0 12.0 142.0 
416.0000042429968 4030.0 966.0 749.2110453648971 0.9641310794775548 205.0 12.0 142.0 
418.0000042429968 4031.0 966.0 751.4654832347201 0.9429572530546553 205.0 12.0 143.0 
420.0000042429968 4025.0 964.0 749.1854043392489 0.9583950910062612 204.0 12.0 142.0 
422.0000042429968 4031.0 965.0 749.2071005917201 0.902126347209365 204.0 12.0 142.0 
424.0000042429968 4024.0 964.0 749.2071005917201 0.919166971322186 204.0 12.0 142.0 
426.0000042429968 4032.0 964.0 749.2071005917201 0.9437605045242564 202.0 12.0 142.0 
428.0000042429968 4019.0 961.0 749.2347140039421 0.9321843536083994 201.0 12.0 142.0 
430.0000042429968 4032.0 962.0 746.8954635108452 0.9502216063785158 200.0 12.0 141.0 
432.0000042429968 4034.0 965.0 744.6370808678452 0.9349388657514822 200.0 12.0 140.0 
434.0000042429968 4032.0 966.0 744.6508875739692 0.9169143293678333 200.0 12.0 140.0 
436.0000042429968 4036.0 966.0 744.6331360946792 1.0148149561038935 199.0 12.0 140.0 
438.0000042429968 4050.0 969.0 744.6370808678452 0.9933890025479354 198.0 12.0 140.0 
440.0000042429968 4056.0 969.0 744.6587771203134 0.994178696641418 199.0 12.0 140.0 
442.0000042429968 4067.0 971.0 744.6410256410223 0.9641191009808309 199.0 12.0 140.0 
444.0000042429968 4055.0 970.0 744.6193293885541 0.9906992710832024 199.0 12.0 140.0 
446.0000042429968 4035.0 967.0 742.370808678498 0.9967375099653472 199.0 12.0 139.0 
448.0000042429968 4012.0 967.0 744.6074950690308 0.9413541476972633 201.0 12.0 140.0 
450.0000042429968 4015.0 968.0 751.4319526627285 0.937324962770659 206.0 12.0 143.0 
452.0000042429968 4027.0 970.0 753.7080867850059 0.9234447997315397 207.0 12.0 144.0 
454.0000042429968 4026.0 971.0 753.6863905325512 0.9167641632228307 207.0 12.0 144.0 
456.0000042429968 4022.0 971.0 755.9842209072995 0.9841528564576641 208.0 12.0 145.0 
458.0000042429968 4020.0 971.0 756.013806706111 0.9592082093103291 207.0 12.0 145.0 
460.0000042429968 4019.0 970.0 755.9901380670661 0.9819157346271509 207.0 12.0 145.0 
462.0000042429968 4029.0 968.0 755.9881656804768 0.925339403364654 207.0 12.0 145.0 
464.0000042429968 4026.0 968.0 751.4674556212966 0.9404873354308086 205.0 12.0 143.0 
466.0000042429968 4036.0 970.0 753.6962524654851 0.9670448743353927 206.0 12.0 144.0 
468.0000042429968 4042.0 970.0 751.4378698224823 0.9990672668704763 206.0 12.0 143.0 
470.0000042429968 4039.0 971.0 751.4635108481306 0.9754340805792036 206.0 12.0 143.0 
472.0000042429968 4040.0 970.0 751.4398422090717 0.9852246991738028 206.0 12.0 143.0 
474.0000042429968 4034.0 968.0 749.1735700197285 0.927389155574184 204.0 12.0 142.0 
476.0000042429968 4042.0 969.0 746.9250493096597 0.9794937774215164 202.0 12.0 141.0 
478.0000042429968 4048.0 970.0 746.8796844181437 0.9416279358506419 203.0 12.0 141.0 
480.0000042429968 4035.0 970.0 746.8777120315542 0.9642246681747795 202.0 12.0 141.0 
482.0000042429968 4046.0 971.0 746.9151873767257 0.9593883211857153 202.0 12.0 141.0 
484.0000042429968 4040.0 969.0 744.6114398422108 0.9852550179761123 202.0 12.0 140.0 
486.0000042429968 4043.0 969.0 744.6331360946791 0.9523880603758542 201.0 12.0 140.0 
488.0000042429968 4038.0 969.0 744.6587771203134 0.9901578154823855 200.0 12.0 140.0 
490.0000042429968 4022.0 967.0 746.891518737668 0.9148630938501706 202.0 12.0 141.0 
492.0000042429968 4030.0 970.0 749.1656804733685 0.9572234395256195 202.0 12.0 142.0 
494.0000042429968 4034.0 970.0 751.4516765285952 0.9492361955446081 201.0 12.0 143.0 
496.0000042429968 4042.0 972.0 751.4378698224823 1.010564380098659 201.0 12.0 143.0 
498.0000042429968 4041.0 972.0 751.4280078895487 0.973029076457841 200.0 12.0 143.0 
500.0000042429968 4033.0 972.0 749.1932938856063 1.0163693321703882 200.0 12.0 142.0 
502.0000042429968 4018.0 971.0 746.9191321499057 0.9661922114088896 198.0 12.0 141.0 
504.0000042429968 4000.0 969.0 746.9191321499057 0.8884716320711719 199.0 12.0 141.0 
506.0000042429968 4024.0 971.0 746.9625246548285 0.9252672816998052 197.0 12.0 141.0 
508.0000042429968 4025.0 971.0 744.6351084812684 0.9979016159155498 197.0 12.0 140.0 
510.0000042429968 4030.0 972.0 744.6173570019774 0.9701860362265979 198.0 12.0 140.0 
512.0000042429967 4030.0 972.0 744.6489151873798 1.051861190356798 198.0 12.0 140.0 
514.0000042429967 4032.0 971.0 744.6213017751437 1.0288453674311635 198.0 12.0 140.0 
516.0000042429967 4049.0 972.0 746.9270216962489 1.0751157517547179 199.0 12.0 141.0 
518.0000042429967 4048.0 970.0 744.6568047337231 1.002252621975096 198.0 12.0 140.0 
520.0000042429967 4064.0 971.0 742.3648915187316 0.9829662708828482 198.0 12.0 139.0 
522.0000042429967 4077.0 972.0 744.6607495069029 0.9662723934981523 200.0 12.0 140.0 
524.0000042429967 4078.0 972.0 744.6410256410226 1.0496813097608753 200.0 12.0 140.0 
526.0000042429967 4065.0 971.0 744.6863905325511 0.9907145004703524 201.0 12.0 140.0 
528.0000042429967 4066.0 971.0 742.3826429980224 1.0310422080488695 200.0 12.0 139.0 
530.0000042429967 4064.0 969.0 740.1420118343235 1.0146982344194473 199.0 12.0 138.0 
532.0000042429967 4063.0 969.0 742.3609467455657 1.0642603120862124 198.0 12.0 139.0 
534.0000042429967 4056.0 968.0 742.3826429980223 0.9932156155524317 198.0 12.0 139.0 
536.0000042429967 4062.0 968.0 744.6646942800827 1.1206513392666873 199.0 12.0 140.0 
538.0000042429967 4071.0 970.0 744.6351084812685 1.108235316686035 200.0 12.0 140.0 
540.0000042429967 4080.0 971.0 744.6134122288 1.1369206050914287 201.0 12.0 140.0 
542.0000042429967 4060.0 969.0 742.3885601577891 1.093470109316205 201.0 12.0 139.0 
544.0000042429967 4045.0 968.0 742.3570019723883 1.0618572185770283 202.0 12.0 139.0 
546.0000042429967 4040.0 968.0 742.3727810650886 1.0430050915434068 202.0 12.0 139.0 
548.0000042429967 4028.0 968.0 744.6686390532603 1.040993532216939 202.0 12.0 140.0 
550.0000042429967 4025.0 968.0 740.0828402366836 0.9955016452377033 200.0 12.0 138.0 
552.0000042429967 4033.0 970.0 740.1005917159747 0.9874198974853267 197.0 12.0 138.0 
554.0000042429967 4017.0 970.0 740.1163708086765 0.9492651973750502 196.0 12.0 138.0 
556.0000042429967 4016.0 970.0 742.3629191321548 1.0271671095377781 199.0 12.0 139.0 
558.0000042429967 3982.0 967.0 742.3648915187314 0.9338055832403122 198.0 12.0 139.0 
560.0000042429967 3995.0 968.0 740.110453648909 0.9296539969838378 198.0 12.0 138.0 
562.0000042429967 4010.0 973.0 737.8303747534515 0.9672632050667911 198.0 12.0 137.0 
564.0000042429967 4018.0 976.0 735.566074950695 0.9914185156811869 198.0 12.0 136.0 
566.0000042429967 4015.0 979.0 740.1360946745571 0.9920795661399335 198.0 12.0 138.0 
568.0000042429967 4018.0 980.0 742.3668639053207 1.0546444096347007 199.0 12.0 139.0 
570.0000042429967 4019.0 980.0 742.3570019723883 1.0495854746488416 198.0 12.0 139.0 
572.0000042429967 4026.0 980.0 737.85207100592 1.0393163695341414 198.0 12.0 137.0 
574.0000042429967 4008.0 979.0 737.8343195266316 0.9705525768782036 197.0 12.0 137.0 
576.0000042429967 4022.0 980.0 742.3727810650886 0.9689548490360754 201.0 12.0 139.0 
578.0000042429967 4017.0 979.0 742.408284023671 0.9163387401274946 202.0 12.0 139.0 
580.0000042429967 4037.0 980.0 742.3786982248565 0.9485299312689851 200.0 12.0 139.0 
582.0000042429967 4052.0 981.0 749.2090729783081 0.9627661452076192 202.0 12.0 142.0 
584.0000042429967 4052.0 978.0 746.9644970414179 0.8771635762685307 200.0 12.0 141.0 
586.0000042429967 4070.0 980.0 744.6745562130138 0.9276564945995887 199.0 12.0 140.0 
588.0000042429967 4088.0 981.0 744.6508875739694 0.9773599614656098 199.0 12.0 140.0 
590.0000042429967 4101.0 982.0 744.666666666671 0.9646389993571753 200.0 12.0 140.0 
592.0000042429967 4115.0 985.0 744.6370808678449 1.061734387537872 200.0 12.0 140.0 
594.0000042429967 4114.0 985.0 744.6804733727837 1.0511526145854506 200.0 12.0 140.0 
596.0000042429967 4107.0 982.0 746.958579881651 1.064880036667745 201.0 12.0 141.0 
598.0000042429967 4111.0 982.0 749.2011834319507 1.0031378208904798 201.0 12.0 142.0 
600.0000042429967 4128.0 982.0 749.1972386587721 0.9433917696561521 202.0 12.0 142.0 
602.0000042429967 4139.0 983.0 756.0374753451716 0.9225274357501863 205.0 12.0 145.0 
604.0000042429967 4140.0 983.0 753.7573964497002 0.9851282510326446 208.0 12.0 144.0 
606.0000042429967 4141.0 984.0 753.7475345167679 1.0086802956368603 209.0 12.0 144.0 
608.0000042429967 4146.0 985.0 756.0177514792912 1.0153849368503485 209.0 12.0 145.0 
610.0000042429967 4151.0 984.0 758.2504930966426 1.0158055831851638 211.0 12.0 146.0 
612.0000042429967 4171.0 984.0 758.2859960552237 1.0520703316162472 211.0 12.0 146.0 
614.0000042429967 4187.0 983.0 758.307692307695 0.987212838947536 210.0 12.0 146.0 
616.0000042429967 4181.0 984.0 758.2919132149945 1.1170600411974292 211.0 12.0 146.0 
618.0000042429967 4179.0 984.0 758.2938856015825 1.0563390627493194 212.0 12.0 146.0 
620.0000042429967 4172.0 983.0 758.2978303747478 1.0705890590204892 210.0 12.0 146.0 
622.0000042429967 4208.0 983.0 758.2820512820463 1.0803587977621887 209.0 12.0 146.0 
624.0000042429967 4213.0 982.0 760.5779092702194 1.073366800141767 208.0 12.0 147.0 
626.0000042429967 4207.0 980.0 760.5818540433968 1.0231577936973848 209.0 12.0 147.0 
628.0000042429967 4202.0 978.0 760.5739644970391 1.0895382809592433 210.0 12.0 147.0 
630.0000042429967 4224.0 978.0 760.5897435897397 1.0303479790041428 210.0 12.0 147.0 
632.0000042429967 4247.0 978.0 758.3254437869862 1.0445217255112011 210.0 12.0 146.0 
634.0000042429967 4280.0 979.0 760.5759368836286 1.0135893884423197 211.0 12.0 147.0 
636.0000042429967 4302.0 981.0 760.5877712031518 1.082416151683483 212.0 12.0 147.0 
638.0000042429967 4319.0 981.0 760.5818540433968 1.0724224433894216 212.0 12.0 147.0 
640.0000042429967 4332.0 982.0 760.5522682445705 1.1410026690924162 211.0 12.0 147.0 
642.0000042429967 4330.0 981.0 758.2859960552237 1.124434294147102 210.0 12.0 146.0 
644.0000042429967 4327.0 981.0 756.0552268244602 1.113694403089917 207.0 13.0 144.0 
646.0000042429967 4318.0 981.0 756.0512820512828 1.1185764563215777 207.0 13.0 144.0 
648.0000042429967 4292.0 979.0 756.0355029585819 1.152185822129546 203.0 13.0 144.0 
650.0000042429967 4281.0 976.0 756.047337278103 1.0576580381320169 202.0 13.0 144.0 
652.0000042429967 4269.0 976.0 753.761341222878 1.0065997442839045 202.0 13.0 143.0 
654.0000042429967 4255.0 975.0 751.5285996055256 0.9638391835625865 202.0 12.0 143.0 
656.0000042429967 4253.0 973.0 756.0946745562081 1.0349840415959135 203.0 12.0 145.0 
658.0000042429967 4260.0 972.0 760.6134122287999 0.9665848027561864 203.0 12.0 147.0 
660.0000042429967 4262.0 975.0 760.5759368836286 1.01145645172023 202.0 12.0 147.0 
662.0000042429967 4278.0 977.0 762.8481262327426 1.024052164107815 203.0 12.0 148.0 
664.0000042429967 4302.0 981.0 762.8362919132196 1.049964924808029 202.0 12.0 148.0 
#####################################################################
# End of data export. Simulation finished at: 2019-03-10T19:35+0000 #
#####################################################################
