#####################################################################
# Alchemist log file - simulation started at: 2019-03-06T13:52+0000 #
#####################################################################
# seed = 6.0, bandwidth = 2.3713737056616552E7, accessPointCount = 141.4213562373095, baserange = 1000.0
#
# The columns have the following meaning: 
# time neighbor_count[Sum] <value>@neighbor_count[Sum] packet_size[Mean] mean_delay[Mean] crowd[Sum] overcrowded[Sum] risk[Sum] 
0.0 NaN NaN NaN NaN NaN NaN NaN 
2.000847491633569 5796.0 1941.0 4986.476190476191 0.47561840474977146 1497.0 0.0 1497.0 
4.000441088590019 10970.0 2052.0 4987.919413919414 0.5413933674411997 1496.0 1.0 1496.0 
6.001167958826865 16876.0 2076.0 4989.472527472528 0.5613583632064378 1496.0 1.0 1496.0 
8.001304213596487 21728.0 2060.0 4990.669108669109 0.5793923023674211 1496.0 1.0 1496.0 
10.00107582616698 25669.0 2050.0 4991.880341880342 0.591726142003309 1496.0 1.0 1496.0 
12.001083248025441 26096.0 1963.0 4992.34188034188 0.5673817599504394 1496.0 1.0 1496.0 
14.001083248025441 24830.0 1900.0 4992.19536019536 0.5010895874013945 1495.0 2.0 1495.0 
16.00108324802544 24821.0 1900.0 4992.339438339438 0.49959499073284364 1494.0 3.0 1494.0 
18.00108324802544 24821.0 1899.0 4992.412698412699 0.4996936207747088 1493.0 4.0 1493.0 
20.00108324802544 24818.0 1899.0 4992.642246642246 0.49900786479733944 1492.0 5.0 1492.0 
22.00108324802544 24912.0 1900.0 4992.339438339438 0.4996945217301484 1491.0 6.0 1491.0 
24.00108324802544 24902.0 1899.0 4992.278388278388 0.49901192278766643 1493.0 4.0 1493.0 
26.00108324802544 24902.0 1899.0 4992.1221001221 0.4990119425297313 1493.0 4.0 1493.0 
28.00108324802544 24902.0 1899.0 4992.3687423687425 0.49901179114695426 1492.0 5.0 1492.0 
30.00108324802544 24902.0 1899.0 4992.495726495727 0.49901164812870186 1492.0 5.0 1492.0 
32.00108324802544 24902.0 1899.0 4992.57387057387 0.49901170078022733 1492.0 5.0 1492.0 
34.00108324802544 24907.0 1899.0 4992.324786324786 0.4989336856310087 1491.0 6.0 1491.0 
36.00108324802544 24920.0 1900.0 4992.400488400488 0.5009461897932814 1489.0 8.0 1489.0 
38.00108324802544 24906.0 1899.0 4992.468864468865 0.4989070714330669 1489.0 8.0 1489.0 
40.00108324802544 24908.0 1899.0 4992.505494505494 0.49890724928255775 1490.0 7.0 1490.0 
42.00108324802544 24908.0 1899.0 4992.241758241758 0.4989075015309008 1493.0 4.0 1493.0 
44.00108324802544 24910.0 1899.0 4992.251526251526 0.498896636375648 1493.0 4.0 1493.0 
46.00108324802544 24941.0 1900.0 4992.178266178266 0.5019727433694072 1492.0 5.0 1492.0 
48.00108324802544 24885.0 1898.0 4992.522588522588 0.5022224051688674 1492.0 5.0 1492.0 
50.00108324802544 24854.0 1898.0 4992.544566544567 0.49899730059366676 1491.0 6.0 1491.0 
52.000872399773726 24891.0 1900.0 4992.473748473749 0.4999102448998359 1491.0 6.0 1491.0 
54.000872399773726 24907.0 1899.0 4992.185592185592 0.5017920676890698 1491.0 6.0 1491.0 
56.000872399773726 24876.0 1898.0 4992.322344322344 0.49904364598542617 1492.0 5.0 1492.0 
58.000872399773726 24930.0 1899.0 4992.405372405372 0.5009983893265189 1488.0 9.0 1488.0 
60.000872399773726 24855.0 1899.0 4992.576312576312 0.4995136939279607 1493.0 4.0 1493.0 
62.00087594202436 24878.0 1898.0 1389.677655677655 0.4992152424796752 733.0 5.0 347.0 
64.00089011102688 24935.0 1899.0 1389.9462759462754 0.5006072562834306 587.0 13.0 339.0 
66.00086531527246 24943.0 1901.0 1389.5384615384596 0.5038257218683946 540.0 16.0 336.0 
68.00089011102688 24914.0 1898.0 1392.5006105006128 0.499230926612304 503.0 20.0 333.0 
70.00089011102688 24914.0 1898.0 1389.387057387058 0.49923572532102345 490.0 18.0 334.0 
72.00088656877624 24914.0 1898.0 1389.4554334554348 0.49923575402930853 484.0 22.0 330.0 
74.00088656877624 24931.0 1899.0 1392.1587301587315 0.4997148718881437 486.0 18.0 335.0 
76.00087239977373 25007.0 1899.0 1392.2808302808303 0.5016808883401914 484.0 18.0 335.0 
78.00089011102688 24982.0 1898.0 1392.0830280830291 0.49948477547427944 480.0 19.0 334.0 
80.00089011102688 24980.0 1898.0 1392.1758241758257 0.49920483728635656 476.0 20.0 333.0 
82.00088656877624 24984.0 1899.0 1392.0317460317465 0.5012476215348699 474.0 20.0 333.0 
84.00088656877624 24930.0 1898.0 1394.9230769230765 0.4992091249757104 469.0 25.0 329.0 
86.00087239977373 25007.0 1900.0 1394.732600732601 0.5013147901420911 467.0 24.0 330.0 
88.00089011102688 24931.0 1899.0 1394.8595848595842 0.500285562680796 464.0 25.0 329.0 
90.00089011102688 24924.0 1898.0 1394.8034188034176 0.49917666296286817 463.0 26.0 328.0 
92.00088656877624 25028.0 1899.0 1394.9157509157506 0.5012610974035483 459.0 30.0 324.0 
94.00088656877624 24960.0 1899.0 1394.7692307692291 0.5003402273120051 459.0 30.0 324.0 
96.00087239977373 24969.0 1899.0 1394.8693528693518 0.500637714582169 460.0 28.0 326.0 
98.00089011102688 24950.0 1898.0 1397.5677655677644 0.4990531713116838 463.0 25.0 330.0 
100.00089011102688 24968.0 1898.0 1397.7509157509132 0.499621834406538 467.0 20.0 335.0 
102.00088656877624 24967.0 1898.0 1397.6410256410247 0.500117152592961 467.0 18.0 337.0 
104.00088656877624 25049.0 1899.0 1397.7387057387054 0.5011487369678352 466.0 19.0 336.0 
106.00087239977373 25106.0 1900.0 1400.3663003663012 0.5042071832268609 467.0 19.0 337.0 
108.00089011102688 25073.0 1900.0 1400.5543345543335 0.5003970160374618 467.0 19.0 337.0 
110.00089011102688 25064.0 1899.0 1400.4273504273515 0.49918240312663026 468.0 19.0 337.0 
112.00088656877624 25092.0 1899.0 1400.5347985347973 0.49943493124595467 469.0 18.0 338.0 
114.00088656877624 25106.0 1900.0 1400.4688644688663 0.500296557756992 469.0 18.0 338.0 
116.00087239977373 25221.0 1900.0 1403.3870573870574 0.5008279753961724 470.0 18.0 339.0 
118.00089011102688 25253.0 1900.0 1406.0976800976812 0.500830059006228 468.0 20.0 338.0 
120.00089011102688 25242.0 1899.0 1406.2661782661785 0.4996941756230597 468.0 20.0 338.0 
122.00088656877624 25368.0 1901.0 1406.1367521367533 0.5016395427292379 469.0 19.0 339.0 
124.00088656877624 25296.0 1899.0 1406.2954822954825 0.4993195288868046 470.0 18.0 340.0 
126.00087239977373 25299.0 1900.0 1392.0561660561668 0.5007565094957637 472.0 16.0 337.0 
128.00089011102688 25296.0 1900.0 1392.2197802197825 0.5017716569629947 474.0 16.0 337.0 
130.00089011102685 25204.0 1899.0 1394.8742368742357 0.4991954188993457 472.0 17.0 337.0 
132.00088656877622 25208.0 1900.0 1395.0158730158728 0.4996752797381082 468.0 18.0 336.0 
134.00109809174234 25246.0 1902.0 1394.8205128205116 0.502939264554677 467.0 19.0 335.0 
136.00108324802542 25165.0 1901.0 1392.0952380952392 0.5014313453394561 465.0 19.0 334.0 
138.00109438081313 25252.0 1900.0 1392.061050061051 0.5010888460698075 466.0 18.0 335.0 
140.00108324802542 25253.0 1900.0 1392.1074481074495 0.5002887677280508 467.0 16.0 337.0 
142.00109438081313 25260.0 1900.0 1394.8986568986568 0.5000682101406507 465.0 16.0 338.0 
144.00108324802542 25256.0 1899.0 1397.8168498168482 0.49933972618334155 462.0 17.0 338.0 
146.00109438081313 25263.0 1899.0 1400.5592185592184 0.4994557802608069 462.0 18.0 338.0 
148.00108324802542 25316.0 1901.0 1400.622710622711 0.5032831612053424 462.0 19.0 337.0 
150.00109438081313 25209.0 1900.0 1400.4786324786346 0.5015496611998642 462.0 19.0 337.0 
152.00108324802542 25148.0 1899.0 1406.1831501831518 0.49932756885605634 464.0 18.0 340.0 
154.00109438081313 25254.0 1900.0 1403.1868131868139 0.5003128884513415 467.0 17.0 340.0 
156.00108324802542 25266.0 1901.0 1397.7264957264958 0.5022352962151956 468.0 16.0 339.0 
158.00109438081313 25155.0 1899.0 1397.6703296703292 0.4994345088972448 466.0 17.0 338.0 
160.00108324802542 25155.0 1899.0 1400.520146520146 0.4996935186999022 462.0 18.0 338.0 
162.00109438081313 25154.0 1899.0 1403.3406593406592 0.4993759097691185 461.0 19.0 338.0 
164.00108324802542 25154.0 1899.0 1403.377289377289 0.4993706793535187 461.0 19.0 338.0 
166.00109438081313 25154.0 1899.0 1403.2796092796084 0.49937081731409333 462.0 18.0 339.0 
168.00108324802542 25154.0 1899.0 1406.1831501831518 0.4993667677554166 463.0 16.0 342.0 
170.00109438081313 25200.0 1900.0 1406.0366300366304 0.5010121289349788 463.0 16.0 342.0 
172.00108324802542 25139.0 1899.0 1408.991452991454 0.4994602155146541 464.0 17.0 342.0 
174.00109438081313 25244.0 1900.0 1408.857142857143 0.5021270406224381 462.0 18.0 341.0 
176.00108324802542 25195.0 1898.0 1409.0036630036618 0.4994935636180843 461.0 19.0 340.0 
178.00109438081313 25288.0 1900.0 1411.799755799754 0.5054540956316456 461.0 20.0 340.0 
180.00108324802542 25065.0 1897.0 1411.8803418803404 0.5008446468343207 461.0 20.0 340.0 
182.00109438081313 25080.0 1898.0 1411.7484737484715 0.5011186827913082 463.0 18.0 342.0 
184.00110180267157 25032.0 1897.0 1411.8656898656886 0.49932728905009677 463.0 18.0 342.0 
186.00109809174234 25138.0 1898.0 1406.1440781440792 0.5011376858151969 462.0 18.0 340.0 
188.0010795370962 25122.0 1898.0 1409.0769230769229 0.5004108155632793 459.0 19.0 340.0 
190.00110180267157 25106.0 1897.0 1403.2747252747242 0.4993496215270054 459.0 19.0 338.0 
192.00109809174234 25110.0 1898.0 1403.3992673992673 0.5018553283625276 461.0 19.0 338.0 
194.00108695895466 25098.0 1897.0 1406.073260073261 0.4998013225961507 461.0 18.0 340.0 
196.00130421359648 25227.0 1900.0 1406.1538461538476 0.5065906685003885 464.0 16.0 342.0 
198.0012863370615 25192.0 1897.0 1406.0561660561668 0.5008305221888568 463.0 17.0 341.0 
200.00130421359648 25246.0 1896.0 1406.2344322344345 0.5003009871851113 459.0 20.0 338.0 
202.00129409627715 25277.0 1898.0 1406.080586080587 0.5021168200789838 457.0 22.0 336.0 
204.00130421359648 25220.0 1896.0 1406.2539682539707 0.49978307169327935 456.0 23.0 335.0 
206.00130421359648 25328.0 1897.0 1403.3235653235647 0.5012435582071156 455.0 23.0 334.0 
208.00129409627715 25304.0 1896.0 1400.5982905982908 0.4999405306216592 452.0 23.0 333.0 
210.00129409627715 25306.0 1897.0 1400.4737484737502 0.4996372242748654 457.0 21.0 335.0 
212.00129409627715 25322.0 1899.0 1400.5347985347978 0.5026635241145384 457.0 21.0 335.0 
214.00129409627715 25202.0 1898.0 1397.6068376068367 0.5005789743229984 456.0 22.0 333.0 
216.0013018554928 25200.0 1899.0 1394.964590964592 0.5003127016927741 458.0 23.0 331.0 
218.0013018554928 25196.0 1898.0 1394.7570207570195 0.49968785490530776 456.0 21.0 333.0 
220.0013018554928 25200.0 1899.0 1394.8376068376067 0.4997528960379965 458.0 19.0 335.0 
222.0013018554928 25200.0 1899.0 1392.0 0.49989996536200154 460.0 19.0 334.0 
224.0013018554928 25204.0 1900.0 1392.080586080587 0.5008254040413571 459.0 17.0 336.0 
226.0013018554928 25198.0 1899.0 1400.43711843712 0.5009767397982772 461.0 18.0 338.0 
228.0013018554928 25293.0 1902.0 1400.5665445665445 0.5034335607249517 464.0 17.0 339.0 
230.0013018554928 25184.0 1902.0 1400.4639804639824 0.5038233444923363 461.0 18.0 338.0 
232.0013018554928 25072.0 1901.0 1400.532356532356 0.5014375869374265 460.0 19.0 337.0 
234.0013018554928 25053.0 1903.0 1400.4004884004896 0.5028506872290498 462.0 19.0 337.0 
236.00129409627715 24977.0 1900.0 1400.4761904761924 0.5011683299129603 461.0 18.0 338.0 
238.00129409627715 25078.0 1902.0 1403.21855921856 0.5045561016891842 465.0 16.0 341.0 
240.00129409627715 25038.0 1901.0 1403.3260073260067 0.5012199684722798 466.0 16.0 341.0 
242.00129409627715 25022.0 1900.0 1403.1843711843715 0.4996781897769244 464.0 17.0 340.0 
244.00129409627715 25078.0 1901.0 1400.5103785103781 0.5004588824595131 463.0 18.0 338.0 
246.00129409627715 25121.0 1901.0 1397.6141636141626 0.5011821336017922 463.0 19.0 336.0 
248.00129409627715 25099.0 1900.0 1397.7191697191695 0.49966507665672616 462.0 18.0 337.0 
250.00129409627715 25160.0 1901.0 1389.2869352869338 0.5011349078923558 462.0 15.0 337.0 
252.00129409627715 25170.0 1900.0 1389.3870573870568 0.5000578854669602 461.0 14.0 338.0 
254.00129409627715 25189.0 1902.0 1392.0293040293045 0.5044321751037741 461.0 13.0 340.0 
256.00129409627715 25088.0 1900.0 1392.175824175826 0.5022304106900245 461.0 14.0 339.0 
258.00129409627715 25032.0 1902.0 1392.0317460317465 0.5039073072381182 461.0 16.0 337.0 
260.00129409627715 24876.0 1899.0 1389.2747252747238 0.5021171430826429 457.0 17.0 335.0 
262.0013042135965 24867.0 1900.0 1389.1721611721612 0.49998597821037777 456.0 18.0 334.0 
264.0013042135965 24868.0 1899.0 1389.296703296702 0.5000835383925002 454.0 21.0 331.0 
266.0013042135965 24884.0 1901.0 1392.0415140415146 0.5018892958104173 455.0 19.0 334.0 
268.0013042135965 24866.0 1900.0 1400.5958485958488 0.4997917357852511 454.0 19.0 337.0 
270.0013042135965 24907.0 1901.0 1400.4004884004896 0.5050382507703228 454.0 18.0 338.0 
272.0013042135965 24846.0 1898.0 1400.4542124542143 0.500615925442641 455.0 18.0 338.0 
274.0013042135965 24842.0 1899.0 1397.567765567764 0.4992896842055408 452.0 20.0 335.0 
276.0013042135965 24927.0 1900.0 1397.7533577533552 0.5015133053131382 452.0 20.0 335.0 
278.0012902166693 24895.0 1899.0 1394.8083028083026 0.5000491723775466 453.0 20.0 334.0 
280.0013042135965 24885.0 1899.0 1392.1123321123334 0.49965226384432826 454.0 18.0 335.0 
282.0013042135965 24906.0 1899.0 1394.7765567765562 0.50000821797971 453.0 18.0 336.0 
284.0013042135965 24853.0 1901.0 1394.8522588522592 0.5009616864643962 452.0 18.0 336.0 
286.0012902166693 24816.0 1901.0 1391.9536019536013 0.4995650369679834 449.0 19.0 334.0 
288.0012902166693 24854.0 1902.0 1394.9206349206356 0.501549404347468 450.0 21.0 333.0 
290.0013042135965 24796.0 1901.0 1394.7741147741144 0.4994012741126657 454.0 19.0 335.0 
292.0013042135965 24834.0 1902.0 1394.957264957266 0.5015588254952827 456.0 17.0 337.0 
294.0013042135965 24798.0 1902.0 1392.004884004884 0.5015103704777519 456.0 17.0 336.0 
296.0012902166693 24768.0 1903.0 1392.1318681318696 0.5036003001790045 453.0 19.0 334.0 
298.0012902166693 24614.0 1901.0 1397.6166056166044 0.4999295946726774 454.0 17.0 338.0 
300.0013042135965 24619.0 1900.0 1400.6105006105013 0.5013002298842918 454.0 18.0 338.0 
302.0013042135965 24658.0 1902.0 1400.444444444446 0.5015091968586431 454.0 18.0 338.0 
304.0013042135965 24591.0 1901.0 1397.7606837606816 0.49970175621333274 453.0 18.0 337.0 
306.0012902166693 24632.0 1902.0 1394.8962148962153 0.5014974344307157 451.0 18.0 336.0 
308.0012902166693 24665.0 1903.0 1400.4468864468881 0.5035369357163682 449.0 18.0 338.0 
310.0013042135965 24601.0 1902.0 1400.4566544566562 0.5012863733056951 449.0 17.0 339.0 
312.0013042135965 24590.0 1903.0 1397.7753357753338 0.5027242011005376 447.0 18.0 337.0 
314.0013042135965 24507.0 1901.0 1397.6532356532348 0.5001604512582736 448.0 17.0 338.0 
316.0012902166693 24500.0 1901.0 1394.957264957266 0.4994451053451517 449.0 18.0 336.0 
318.0012902166693 24498.0 1901.0 1392.065934065935 0.49920768355793194 448.0 17.0 336.0 
320.0013042135965 24498.0 1901.0 1392.19291819292 0.49921038067669105 448.0 18.0 335.0 
322.0013042135965 24546.0 1901.0 1397.7362637362633 0.4996261605145342 449.0 18.0 337.0 
324.0013042135965 24598.0 1902.0 1394.947496947498 0.5015525614641795 448.0 19.0 335.0 
326.0012902166693 24642.0 1903.0 1400.44932844933 0.5031458842133663 448.0 19.0 337.0 
328.0012902166693 24605.0 1903.0 1400.4932844932869 0.5032535550685606 447.0 19.0 337.0 
330.0013042135965 24505.0 1901.0 1397.6483516483506 0.499610584604798 445.0 22.0 333.0 
332.0013042135965 24484.0 1902.0 1397.7411477411474 0.5010755015185718 447.0 21.0 334.0 
334.0013042135965 24478.0 1903.0 1397.6361416361406 0.5022216148457902 450.0 20.0 335.0 
336.0012902166693 24439.0 1901.0 1392.1098901098915 0.4997306474438339 451.0 20.0 333.0 
338.0012902166693 24457.0 1901.0 1397.6507936507928 0.5018231149065254 450.0 22.0 333.0 
340.0013042135965 24411.0 1901.0 1394.9987789987777 0.5004074750169661 450.0 21.0 333.0 
342.0013042135965 24378.0 1900.0 1394.8791208791206 0.4991260278177235 449.0 20.0 334.0 
344.0013042135965 24386.0 1901.0 1392.190476190478 0.5023281268656952 449.0 20.0 333.0 
346.0012902166693 24458.0 1900.0 1394.864468864469 0.5006681448294408 450.0 22.0 332.0 
348.0012902166693 24497.0 1900.0 1394.862026862027 0.5032892878860826 455.0 21.0 333.0 
350.0013042135965 24461.0 1898.0 1394.7350427350436 0.4998668803491596 453.0 20.0 334.0 
352.0013042135965 24576.0 1901.0 1394.8717948717947 0.5037537621351142 452.0 20.0 334.0 
354.0013042135965 24432.0 1898.0 1394.8205128205127 0.49945475985037374 449.0 22.0 332.0 
356.0012902166693 24426.0 1898.0 1394.9548229548238 0.4991116412338372 450.0 21.0 333.0 
358.0012902166693 24520.0 1899.0 1397.6385836385825 0.5005209307703345 453.0 20.0 335.0 
360.0013042135965 24488.0 1898.0 1403.4285714285716 0.5012784937405655 453.0 20.0 337.0 
362.0013042135965 24481.0 1897.0 1400.4688644688665 0.4992109882840477 454.0 22.0 334.0 
364.0013042135965 24559.0 1900.0 1400.5787545787543 0.5015496845195518 455.0 21.0 335.0 
366.0012902166693 24482.0 1899.0 1391.9536019536013 0.5005824609323225 456.0 20.0 333.0 
368.0012902166693 24569.0 1900.0 1391.997557997558 0.5023252663815175 455.0 20.0 333.0 
370.0013042135965 24473.0 1898.0 1389.079365079365 0.49927315619113427 454.0 22.0 330.0 
372.0013042135965 24472.0 1898.0 1389.2112332112345 0.49930041018538857 455.0 21.0 331.0 
374.0013042135965 24482.0 1899.0 1389.1672771672777 0.5007263227563665 456.0 20.0 332.0 
376.0012902166693 24491.0 1900.0 1383.5848595848574 0.5031839650587744 456.0 20.0 330.0 
378.0012902166693 24370.0 1899.0 1380.688644688645 0.5009175892545868 457.0 22.0 327.0 
380.0013042135965 24322.0 1898.0 1380.7643467643459 0.4996652430382229 457.0 21.0 328.0 
382.0013042135965 24322.0 1900.0 1386.3247863247877 0.5028419006733854 458.0 20.0 331.0 
384.0013042135965 24354.0 1900.0 1392.0586080586088 0.5025196505916368 461.0 20.0 333.0 
386.0012902166693 24326.0 1898.0 1391.9633699633696 0.49971538689864836 459.0 23.0 330.0 
388.0012902166693 24390.0 1899.0 1397.6141636141624 0.5008632159067922 462.0 21.0 334.0 
390.0013042135965 24516.0 1900.0 1397.5946275946262 0.5008283178459575 462.0 20.0 335.0 
392.0013042135965 24476.0 1900.0 1394.8620268620264 0.5005825604029498 463.0 20.0 334.0 
394.0013042135965 24461.0 1900.0 1389.2039072039086 0.49912698470703915 460.0 22.0 330.0 
396.0012902166693 24555.0 1902.0 1383.6239316239305 0.5009004403893362 463.0 20.0 330.0 
398.0012902166693 24572.0 1900.0 1383.5262515262493 0.49978214511713775 466.0 20.0 330.0 
400.0013042135965 24572.0 1901.0 1383.6043956043943 0.4997026638172888 464.0 20.0 330.0 
402.0013042135965 24583.0 1902.0 1383.5653235653217 0.49959402929647156 464.0 22.0 328.0 
404.0013042135965 24639.0 1903.0 1389.318681318682 0.5013433247590656 465.0 22.0 330.0 
406.0012902166693 24623.0 1901.0 1386.4078144078157 0.5003290836054102 466.0 21.0 330.0 
408.0012902166693 24618.0 1902.0 1378.061050061051 0.5016117387896915 467.0 21.0 327.0 
410.0013042135965 24528.0 1901.0 1380.8009768009751 0.49910585932672363 462.0 23.0 326.0 
412.0013042135965 24626.0 1902.0 1389.3211233211239 0.5006545108726755 465.0 22.0 330.0 
414.0013042135965 24604.0 1901.0 1391.997557997558 0.5014332917087228 464.0 21.0 332.0 
416.0012902166693 24719.0 1902.0 1389.2503052503075 0.5049543315075646 464.0 21.0 331.0 
418.0012902166693 24650.0 1899.0 1386.3223443223453 0.4991249565905315 461.0 23.0 328.0 
420.0013042135965 24650.0 1899.0 1389.311355311356 0.4991619990553734 464.0 22.0 330.0 
422.0013042135965 24650.0 1899.0 1386.3150183150192 0.49919601323660806 469.0 21.0 330.0 
424.0013042135965 24648.0 1899.0 1375.264957264958 0.4991193955679432 465.0 21.0 326.0 
426.0012902166693 24730.0 1900.0 1377.924297924297 0.5015260875453675 463.0 22.0 326.0 
428.0012902166693 24686.0 1903.0 1377.9853479853477 0.5063705740409715 465.0 21.0 327.0 
430.0013042135965 24492.0 1901.0 1377.8608058608047 0.5027049073934486 466.0 20.0 328.0 
432.0013042135965 24471.0 1901.0 1375.094017094018 0.5033450306255585 468.0 20.0 327.0 
434.0013042135965 24405.0 1900.0 1377.80708180708 0.5001628913905831 468.0 22.0 326.0 
436.0012902166693 24412.0 1901.0 1397.6092796092785 0.5010171617180208 472.0 21.0 334.0 
438.0012902166693 24471.0 1902.0 1403.1452991453 0.5027121563072757 476.0 19.0 338.0 
440.0013042135965 24440.0 1901.0 1403.2527472527495 0.5024058400012724 476.0 19.0 338.0 
442.0013042135965 24403.0 1900.0 1397.4383394383408 0.4992659612864704 474.0 21.0 334.0 
444.0013042135965 24402.0 1900.0 1397.5946275946262 0.4997802425726368 475.0 20.0 335.0 
446.0012902166693 24400.0 1900.0 1411.5115995115973 0.5015378700973117 480.0 19.0 341.0 
448.0012902166693 24443.0 1900.0 1417.255189255191 0.5047047849741818 480.0 19.0 343.0 
450.0013042135965 24425.0 1900.0 1411.5726495726483 0.5019789565141209 477.0 21.0 339.0 
452.0013042135965 24392.0 1900.0 1414.4859584859605 0.500523947287533 475.0 20.0 341.0 
454.0013042135965 24364.0 1899.0 1414.3907203907213 0.4996986270585972 476.0 19.0 342.0 
456.0012902166693 24372.0 1899.0 1420.0488400488407 0.49957386969657497 476.0 19.0 344.0 
458.0013042135965 24376.0 1900.0 1419.9120879120867 0.5004237507091952 474.0 21.0 342.0 
460.0013042135965 24384.0 1900.0 1417.2332112332126 0.5001791855863731 476.0 20.0 342.0 
462.0013042135965 24411.0 1900.0 1417.1452991452995 0.5003141164500894 478.0 19.0 343.0 
464.0013042135965 24434.0 1901.0 1414.5323565323556 0.49977096047660524 476.0 19.0 342.0 
466.0012902166693 24486.0 1902.0 1408.8034188034178 0.5020710094522907 470.0 21.0 338.0 
468.0013042135965 24436.0 1901.0 1406.0952380952392 0.5003956377883718 468.0 20.0 338.0 
470.0013042135965 24484.0 1901.0 1403.130647130647 0.5034568894425634 470.0 19.0 338.0 
472.0011018026716 24408.0 1903.0 1400.4151404151419 0.5051501114204618 469.0 20.0 336.0 
474.00109809174234 24341.0 1901.0 1400.3516483516494 0.5019958608816921 465.0 24.0 332.0 
476.0010795370962 24376.0 1902.0 1394.7960927960926 0.5018917630965027 463.0 24.0 330.0 
478.0011018026716 24366.0 1901.0 1394.6568986568998 0.5003809930355817 470.0 19.0 335.0 
480.00109809174234 24334.0 1900.0 1391.9511599511593 0.49911815962080935 468.0 19.0 334.0 
482.0011018026716 24356.0 1901.0 1394.6568986569 0.501860880605749 468.0 21.0 333.0 
484.00109809174234 24321.0 1902.0 1389.125763125763 0.502285078489345 468.0 20.0 332.0 
486.0010795370962 24254.0 1902.0 1383.4212454212452 0.5025274289176577 465.0 19.0 331.0 
488.0011018026716 24223.0 1902.0 1377.9804639804638 0.500282506109554 461.0 19.0 329.0 
490.00109809174234 24231.0 1900.0 1372.185592185594 0.5021945134541155 458.0 21.0 325.0 
492.0011018026716 24300.0 1901.0 1372.2735042735048 0.5028015078933578 455.0 20.0 326.0 
494.00109809174234 24388.0 1901.0 1372.173382173384 0.5017139809512687 457.0 19.0 327.0 
496.0010795370962 24422.0 1903.0 1369.4041514041521 0.5027834623575117 456.0 19.0 326.0 
498.00109809174234 24384.0 1901.0 1363.7680097680072 0.5000583611747251 455.0 21.0 322.0 
500.0010795370962 24372.0 1900.0 1363.7557997557972 0.49883102220525777 458.0 20.0 323.0 
502.0010795370962 24396.0 1900.0 1369.2796092796093 0.5002570443478093 461.0 20.0 325.0 
504.0011018026716 24449.0 1903.0 1363.7826617826595 0.5027883680798155 457.0 21.0 322.0 
506.0011018026716 24440.0 1899.0 1369.357753357754 0.4994878565258153 455.0 24.0 321.0 
508.00109809174234 24476.0 1900.0 1369.4749694749712 0.5000907753481683 457.0 23.0 322.0 
510.0010795370962 24454.0 1899.0 1363.8046398046376 0.49847347924043 456.0 22.0 321.0 
512.0010980917424 24530.0 1902.0 1363.8363858363844 0.5016250142091547 458.0 22.0 321.0 
514.0010795370963 24473.0 1900.0 1358.1367521367536 0.4988126007435127 456.0 24.0 317.0 
516.0010795370963 24476.0 1900.0 1349.8339438339422 0.4985084170855274 455.0 21.0 317.0 
518.0011018026717 24476.0 1900.0 1352.534798534796 0.49851290010300087 457.0 18.0 321.0 
520.0010980917424 24480.0 1900.0 1349.8803418803402 0.4987581766397268 456.0 18.0 320.0 
522.001090669884 24494.0 1901.0 1349.7289377289367 0.49969536007174403 457.0 17.0 321.0 
524.0010832480255 24492.0 1900.0 1338.55189255189 0.49900551834286194 454.0 17.0 317.0 
526.0011018026717 24490.0 1900.0 1332.7789987789965 0.4987259302182562 455.0 16.0 316.0 
528.0010980917424 24490.0 1900.0 1338.5372405372377 0.4986843437122516 457.0 16.0 318.0 
530.001090669884 24490.0 1900.0 1335.6581196581178 0.4994521451820578 460.0 18.0 315.0 
532.0010832480255 24486.0 1900.0 1335.7826617826597 0.4988107268566854 458.0 17.0 316.0 
534.0011018026717 24536.0 1901.0 1338.5836385836362 0.5013435938530242 457.0 15.0 319.0 
536.0010980917424 24545.0 1900.0 1338.7326007325996 0.49976285073755244 457.0 15.0 319.0 
538.001090669884 24665.0 1902.0 1338.676434676433 0.5043634238815142 457.0 17.0 317.0 
540.0010832480255 24602.0 1899.0 1338.7032967032953 0.4988094079908945 457.0 16.0 318.0 
542.0011018026717 24641.0 1901.0 1335.80708180708 0.502743787676655 458.0 15.0 318.0 
544.0010980917424 24510.0 1901.0 1333.0207570207572 0.5030781701604252 457.0 15.0 317.0 
546.001090669884 24474.0 1902.0 1332.9426129426122 0.5008120505011888 459.0 17.0 315.0 
548.0010832480255 24435.0 1901.0 1338.6031746031724 0.4990788332376494 461.0 16.0 318.0 
550.0011018026717 24441.0 1903.0 1341.3113553113571 0.501105384929584 460.0 15.0 320.0 
552.0010980917424 24427.0 1903.0 1341.3870573870595 0.5006992872733838 461.0 15.0 320.0 
554.001090669884 24381.0 1902.0 1341.2869352869366 0.49872932010178184 459.0 17.0 318.0 
556.0010832480255 24382.0 1902.0 1330.1733821733835 0.49861206814747255 457.0 16.0 315.0 
558.0011018026717 24399.0 1903.0 1330.1440781440792 0.49909175443469467 457.0 15.0 316.0 
560.0010980917424 24484.0 1903.0 1330.3125763125784 0.5034217873505685 457.0 15.0 316.0 
562.001090669884 24442.0 1902.0 1324.5543345543315 0.5003369576959573 453.0 17.0 312.0 
564.0010832480255 24460.0 1903.0 1324.610500610498 0.5045658285639817 452.0 16.0 313.0 
566.0011018026717 24498.0 1904.0 1330.1172161172176 0.5034989592459749 457.0 15.0 316.0 
568.0010980917424 24539.0 1902.0 1335.8949938949927 0.5043534527099359 454.0 15.0 318.0 
570.001090669884 24448.0 1900.0 1338.6422466422441 0.5001440920733035 456.0 17.0 317.0 
572.0010832480255 24451.0 1901.0 1338.6715506715484 0.49948163376287086 458.0 16.0 318.0 
574.0011018026717 24496.0 1901.0 1338.6568986568964 0.5028455886755843 459.0 15.0 319.0 
576.0010980917424 24490.0 1901.0 1341.5213675213643 0.5028642153074109 459.0 15.0 320.0 
578.001090669884 24475.0 1900.0 1341.5189255189225 0.5011811074990001 456.0 17.0 318.0 
580.0010832480255 24533.0 1901.0 1341.4700854700884 0.5017662059529012 457.0 15.0 320.0 
582.0011018026717 24568.0 1902.0 1344.2466422466446 0.5025148593332613 459.0 14.0 322.0 
584.0010980917424 24523.0 1900.0 1344.2637362637377 0.501944824397411 459.0 14.0 322.0 
586.001090669884 24666.0 1903.0 1344.1831501831518 0.504127656733022 459.0 16.0 320.0 
588.0010832480255 24676.0 1900.0 1349.797313797312 0.5001746838728092 463.0 15.0 323.0 
590.0011018026717 24701.0 1900.0 1352.6617826617808 0.5023381339172042 468.0 14.0 325.0 
592.0010980917424 24641.0 1899.0 1352.6715506715489 0.5009655060766397 467.0 14.0 325.0 
594.001090669884 24667.0 1899.0 1349.8852258852246 0.5034276454967986 463.0 16.0 322.0 
596.0010832480255 24557.0 1898.0 1347.1697191697206 0.5024561184445433 466.0 15.0 322.0 
598.0011018026717 24719.0 1900.0 1344.2515262515285 0.5035125096878603 464.0 14.0 322.0 
600.0010980917424 24715.0 1899.0 1347.1159951159962 0.5017579304936275 464.0 14.0 323.0 
602.001090669884 24728.0 1899.0 1344.285714285716 0.5025743596941764 461.0 16.0 320.0 
604.0010832480255 24728.0 1898.0 1344.261294261296 0.5017221030373877 465.0 15.0 321.0 
606.0011018026717 24793.0 1901.0 1344.2466422466446 0.506247690808502 467.0 14.0 322.0 
608.0010980917424 24755.0 1899.0 1352.6739926739913 0.5048002650432478 464.0 14.0 325.0 
610.001090669884 24599.0 1899.0 1352.5763125763106 0.5001949671490996 462.0 16.0 323.0 
612.0010832480255 24602.0 1897.0 1352.5909645909628 0.5012918705598565 459.0 15.0 324.0 
614.0013042135965 24613.0 1899.0 1355.4188034188053 0.5008750069530438 461.0 14.0 326.0 
616.0013042135965 24637.0 1898.0 1358.3150183150199 0.5020325141179518 463.0 14.0 327.0 
618.0013018554929 24604.0 1897.0 1358.3028083028096 0.5003928344988025 462.0 16.0 325.0 
620.0012940962772 24587.0 1899.0 1358.3663003663023 0.5028614610911919 461.0 15.0 326.0 
622.0013042135965 24552.0 1897.0 1361.1428571428576 0.5010559599793735 466.0 14.0 328.0 
624.0013042135965 24590.0 1898.0 1363.9658119658116 0.5024819525516482 467.0 14.0 329.0 
626.0013042135965 24743.0 1899.0 1366.7692307692294 0.5036534726200111 463.0 16.0 328.0 
628.0013042135965 24878.0 1901.0 1366.7350427350427 0.5058468990982531 463.0 15.0 329.0 
630.0013042135965 24815.0 1896.0 1366.7008547008547 0.499648803794747 462.0 14.0 330.0 
632.0013042135965 24890.0 1897.0 1363.9658119658116 0.5030831904000559 462.0 14.0 329.0 
634.0013042135965 24918.0 1897.0 1366.815628815628 0.500726147986867 457.0 16.0 328.0 
636.0013042135965 24920.0 1896.0 1363.9780219780218 0.5005629379138756 462.0 15.0 328.0 
638.0013042135965 24956.0 1898.0 1363.9560439560432 0.5027413340811536 464.0 14.0 329.0 
640.0013042135965 24885.0 1897.0 1363.9413919413912 0.504184172587524 463.0 14.0 329.0 
642.0013042135965 24910.0 1896.0 1361.18192918193 0.5012393404240423 462.0 16.0 326.0 
644.0013042135965 24880.0 1895.0 1364.0195360195362 0.49972159731979265 462.0 15.0 328.0 
646.0013042135965 24961.0 1897.0 1369.6849816849804 0.5011437508099349 463.0 14.0 331.0 
648.0013042135965 24944.0 1896.0 1366.9010989010992 0.5000104648668494 462.0 14.0 330.0 
650.0013042135965 25024.0 1897.0 1366.866910866911 0.5015835661630135 458.0 16.0 328.0 
652.0013042135965 25069.0 1896.0 1366.7692307692298 0.5023078110603837 460.0 15.0 329.0 
654.0013042135965 25043.0 1898.0 1366.8205128205127 0.5038363885315017 461.0 14.0 330.0 
656.0013042135965 25017.0 1895.0 1380.9157509157521 0.5007459473260494 462.0 14.0 335.0 
658.0013042135965 25065.0 1897.0 1386.5616605616608 0.5034460956136315 459.0 16.0 335.0 
660.0013042135965 24958.0 1896.0 1383.7069597069587 0.5024662471366145 459.0 15.0 335.0 
662.0013042135965 24896.0 1896.0 1389.308913308912 0.5021494832310891 461.0 14.0 338.0 
664.0013042135965 24911.0 1896.0 1389.3162393162381 0.5018812171986226 462.0 14.0 338.0 
#####################################################################
# End of data export. Simulation finished at: 2019-03-06T14:00+0000 #
#####################################################################
