#####################################################################
# Alchemist log file - simulation started at: 2019-03-11T13:54+0000 #
#####################################################################
# seed = 4.0, bandwidth = 5623413.251903491, accessPointCount = 37.60603093086394, baserange = 17.78279410038923
#
# The columns have the following meaning: 
# time neighbor_count[Sum] <value>@neighbor_count[Sum] packet_size[Mean] mean_delay[Mean] crowd[Sum] overcrowded[Sum] risk[Sum] 
0.0 NaN NaN NaN NaN NaN NaN NaN 
2.0004793365590676 2.0 1.0 4987.441981747066 0.4991126385743906 1497.0 0.0 1497.0 
4.00042902272939 2.0 1.0 4987.460234680574 0.4991083707038064 1497.0 0.0 1497.0 
6.000479336559067 2.0 1.0 4987.455019556714 0.49911050463909845 1497.0 0.0 1497.0 
8.000479336559067 2.0 1.0 4987.444589308996 0.49911192726262676 1497.0 0.0 1497.0 
10.000479336559067 2.0 1.0 4987.444589308996 0.49911192726262676 1497.0 0.0 1497.0 
12.000479336559067 2.0 1.0 4987.444589308996 0.49911192726262676 1497.0 0.0 1497.0 
14.00042902272939 2.0 1.0 4987.444589308996 0.49911192726262676 1497.0 0.0 1497.0 
16.000479336559067 2.0 1.0 4987.444589308996 0.49911192726262676 1497.0 0.0 1497.0 
18.000479336559067 2.0 1.0 4987.444589308996 0.49911192726262676 1497.0 0.0 1497.0 
20.000479336559067 2.0 1.0 4987.444589308996 0.49911192726262676 1497.0 0.0 1497.0 
22.000479336559067 2.0 1.0 4987.444589308996 0.49911192726262676 1497.0 0.0 1497.0 
24.000429022729392 2.0 1.0 4987.444589308996 0.49911192726262676 1497.0 0.0 1497.0 
26.000479336559067 2.0 1.0 4987.444589308996 0.49911192726262676 1497.0 0.0 1497.0 
28.000479336559067 2.0 1.0 4987.444589308996 0.49911192726262676 1497.0 0.0 1497.0 
30.000479336559067 2.0 1.0 4987.444589308996 0.49911192726262676 1497.0 0.0 1497.0 
32.00047933655907 2.0 1.0 4987.444589308996 0.49911192726262676 1497.0 0.0 1497.0 
34.00042902272939 2.0 1.0 4987.444589308996 0.49911192726262854 1497.0 0.0 1497.0 
36.00047933655907 2.0 1.0 4987.444589308996 0.49911192726262854 1497.0 0.0 1497.0 
38.00047933655907 2.0 1.0 4987.444589308996 0.49911192726262854 1497.0 0.0 1497.0 
40.00047933655907 2.0 1.0 4987.444589308996 0.49911192726262854 1497.0 0.0 1497.0 
42.00047933655907 2.0 1.0 4987.444589308996 0.49911192726262854 1497.0 0.0 1497.0 
44.00042902272939 2.0 1.0 4987.444589308996 0.9991119272626285 1497.0 0.0 1497.0 
46.00047933655907 1.0 1.0 4987.444589308996 2.936824260607601 1497.0 0.0 1497.0 
48.00047933655907 0.0 0.0 4987.426336375489 NaN 1497.0 0.0 1497.0 
50.00047933655907 0.0 0.0 4987.421121251629 NaN 1497.0 0.0 1497.0 
52.00047933655907 0.0 0.0 4987.421121251629 NaN 1497.0 0.0 1497.0 
54.00042902272939 0.0 0.0 4987.421121251629 NaN 1497.0 0.0 1497.0 
56.00047933655907 0.0 0.0 4987.421121251629 NaN 1497.0 0.0 1497.0 
58.00047933655907 0.0 0.0 4987.421121251629 NaN 1497.0 0.0 1497.0 
60.00047933655907 0.0 0.0 4984.430247718384 NaN 1496.0 0.0 1496.0 
62.000041783208744 0.0 0.0 400.0 NaN 0.0 0.0 0.0 
64.00004178320874 0.0 0.0 400.0 NaN 0.0 0.0 0.0 
66.00004178320874 0.0 0.0 400.0 NaN 0.0 0.0 0.0 
68.00004178320874 0.0 0.0 400.0 NaN 0.0 0.0 0.0 
70.00004178320874 0.0 0.0 400.0 NaN 0.0 0.0 0.0 
72.00004178320874 0.0 0.0 400.0 NaN 0.0 0.0 0.0 
74.00004178320874 0.0 0.0 400.0 NaN 0.0 0.0 0.0 
76.00004178320874 0.0 0.0 400.0 NaN 0.0 0.0 0.0 
78.00004178320874 0.0 0.0 400.0 NaN 0.0 0.0 0.0 
80.00004178320874 0.0 0.0 400.0 NaN 0.0 0.0 0.0 
82.00004178320874 0.0 0.0 400.0 NaN 0.0 0.0 0.0 
84.00004178320874 0.0 0.0 400.0 NaN 0.0 0.0 0.0 
86.00004178320874 0.0 0.0 400.0 NaN 0.0 0.0 0.0 
88.00004178320874 0.0 0.0 400.0 NaN 0.0 0.0 0.0 
90.00004178320874 0.0 0.0 400.0 NaN 0.0 0.0 0.0 
92.00004178320874 0.0 0.0 400.0 NaN 0.0 0.0 0.0 
94.00004178320874 0.0 0.0 400.0 NaN 0.0 0.0 0.0 
96.00004178320874 0.0 0.0 400.0 NaN 0.0 0.0 0.0 
98.00004178320874 0.0 0.0 400.0 NaN 0.0 0.0 0.0 
100.00004178320874 0.0 0.0 400.0 NaN 0.0 0.0 0.0 
102.00004178320874 0.0 0.0 400.0 NaN 0.0 0.0 0.0 
104.00004178320874 0.0 0.0 400.0 NaN 0.0 0.0 0.0 
106.00004178320874 0.0 0.0 400.0 NaN 0.0 0.0 0.0 
108.00004178320874 0.0 0.0 400.0 NaN 0.0 0.0 0.0 
110.00004178320874 0.0 0.0 400.0 NaN 0.0 0.0 0.0 
112.00004178320874 0.0 0.0 400.0 NaN 0.0 0.0 0.0 
114.00004178320874 0.0 0.0 400.0 NaN 0.0 0.0 0.0 
116.00004178320874 0.0 0.0 400.0 NaN 0.0 0.0 0.0 
118.00004178320874 0.0 0.0 400.0 NaN 0.0 0.0 0.0 
120.00004178320874 0.0 0.0 400.0 NaN 0.0 0.0 0.0 
122.00004178320874 0.0 0.0 400.0 NaN 0.0 0.0 0.0 
124.00004178320874 0.0 0.0 400.0 NaN 0.0 0.0 0.0 
126.00004178320874 0.0 0.0 400.0 NaN 0.0 0.0 0.0 
128.00004178320876 0.0 0.0 400.0 NaN 0.0 0.0 0.0 
130.00004178320876 0.0 0.0 400.0 NaN 0.0 0.0 0.0 
132.00004178320876 0.0 0.0 400.0 NaN 0.0 0.0 0.0 
134.00004178320876 0.0 0.0 400.0 NaN 0.0 0.0 0.0 
136.00004178320876 0.0 0.0 400.0 NaN 0.0 0.0 0.0 
138.00004178320876 0.0 0.0 400.0 NaN 0.0 0.0 0.0 
140.00004178320876 0.0 0.0 400.0 NaN 0.0 0.0 0.0 
142.00004178320876 0.0 0.0 400.0 NaN 0.0 0.0 0.0 
144.00004178320876 0.0 0.0 400.0 NaN 0.0 0.0 0.0 
146.00004178320876 0.0 0.0 400.0 NaN 0.0 0.0 0.0 
148.00004178320876 0.0 0.0 400.0 NaN 0.0 0.0 0.0 
150.00004178320876 0.0 0.0 400.0 NaN 0.0 0.0 0.0 
152.00004178320876 0.0 0.0 400.0 NaN 0.0 0.0 0.0 
154.00004178320876 0.0 0.0 400.0 NaN 0.0 0.0 0.0 
156.00004178320876 0.0 0.0 400.0 NaN 0.0 0.0 0.0 
158.00004178320876 0.0 0.0 400.0 NaN 0.0 0.0 0.0 
160.00004178320876 0.0 0.0 400.0 NaN 0.0 0.0 0.0 
162.00004178320876 0.0 0.0 400.0 NaN 0.0 0.0 0.0 
164.00004178320876 0.0 0.0 400.0 NaN 0.0 0.0 0.0 
166.00004178320876 0.0 0.0 400.0 NaN 0.0 0.0 0.0 
168.00004178320876 0.0 0.0 400.0 NaN 0.0 0.0 0.0 
170.00004178320876 0.0 0.0 400.0 NaN 0.0 0.0 0.0 
172.00004178320876 0.0 0.0 400.0 NaN 0.0 0.0 0.0 
174.00004178320876 0.0 0.0 400.0 NaN 0.0 0.0 0.0 
176.00004178320876 0.0 0.0 400.0 NaN 0.0 0.0 0.0 
178.00004178320876 0.0 0.0 400.0 NaN 0.0 0.0 0.0 
180.00004178320876 0.0 0.0 400.0 NaN 0.0 0.0 0.0 
182.00004178320876 0.0 0.0 400.0 NaN 0.0 0.0 0.0 
184.00004178320876 0.0 0.0 400.0 NaN 0.0 0.0 0.0 
186.00004178320876 0.0 0.0 400.0 NaN 0.0 0.0 0.0 
188.00004178320876 0.0 0.0 400.0 NaN 0.0 0.0 0.0 
190.00004178320876 0.0 0.0 400.0 NaN 0.0 0.0 0.0 
192.00004178320876 0.0 0.0 400.0 NaN 0.0 0.0 0.0 
194.00004178320876 0.0 0.0 400.0 NaN 0.0 0.0 0.0 
196.00004178320876 0.0 0.0 400.0 NaN 0.0 0.0 0.0 
198.00004178320876 0.0 0.0 400.0 NaN 0.0 0.0 0.0 
200.00004178320876 0.0 0.0 400.0 NaN 0.0 0.0 0.0 
202.00004178320876 0.0 0.0 400.0 NaN 0.0 0.0 0.0 
204.00004178320876 0.0 0.0 400.0 NaN 0.0 0.0 0.0 
206.00004178320876 0.0 0.0 400.0 NaN 0.0 0.0 0.0 
208.00004178320876 0.0 0.0 400.0 NaN 0.0 0.0 0.0 
210.00004178320876 0.0 0.0 400.0 NaN 0.0 0.0 0.0 
212.00004178320876 0.0 0.0 400.0 NaN 0.0 0.0 0.0 
214.00004178320876 0.0 0.0 400.0 NaN 0.0 0.0 0.0 
216.00004178320876 0.0 0.0 400.0 NaN 0.0 0.0 0.0 
218.00004178320876 0.0 0.0 400.0 NaN 0.0 0.0 0.0 
220.00004178320876 0.0 0.0 400.0 NaN 0.0 0.0 0.0 
222.00004178320876 0.0 0.0 400.0 NaN 0.0 0.0 0.0 
224.00004178320876 0.0 0.0 400.0 NaN 0.0 0.0 0.0 
226.00004178320876 0.0 0.0 400.0 NaN 0.0 0.0 0.0 
228.00004178320876 0.0 0.0 400.0 NaN 0.0 0.0 0.0 
230.00004178320876 0.0 0.0 400.0 NaN 0.0 0.0 0.0 
232.00004178320876 0.0 0.0 400.0 NaN 0.0 0.0 0.0 
234.00004178320876 0.0 0.0 400.0 NaN 0.0 0.0 0.0 
236.00004178320876 0.0 0.0 400.0 NaN 0.0 0.0 0.0 
238.00004178320876 0.0 0.0 400.0 NaN 0.0 0.0 0.0 
240.00004178320876 0.0 0.0 400.0 NaN 0.0 0.0 0.0 
242.00004178320876 0.0 0.0 400.0 NaN 0.0 0.0 0.0 
244.00004178320876 0.0 0.0 400.0 NaN 0.0 0.0 0.0 
246.00004178320876 0.0 0.0 400.0 NaN 0.0 0.0 0.0 
248.00004178320876 0.0 0.0 400.0 NaN 0.0 0.0 0.0 
250.00004178320876 0.0 0.0 400.0 NaN 0.0 0.0 0.0 
252.00004178320876 0.0 0.0 400.0 NaN 0.0 0.0 0.0 
254.00004178320876 0.0 0.0 400.0 NaN 0.0 0.0 0.0 
256.00004178320876 0.0 0.0 400.0 NaN 0.0 0.0 0.0 
258.00004178320876 0.0 0.0 400.0 NaN 0.0 0.0 0.0 
260.00004178320876 0.0 0.0 400.0 NaN 0.0 0.0 0.0 
262.00004178320876 0.0 0.0 400.0 NaN 0.0 0.0 0.0 
264.00004178320876 0.0 0.0 400.0 NaN 0.0 0.0 0.0 
266.00004178320876 0.0 0.0 400.0 NaN 0.0 0.0 0.0 
268.00004178320876 0.0 0.0 400.0 NaN 0.0 0.0 0.0 
270.00004178320876 0.0 0.0 400.0 NaN 0.0 0.0 0.0 
272.00004178320876 0.0 0.0 400.0 NaN 0.0 0.0 0.0 
274.00004178320876 0.0 0.0 400.0 NaN 0.0 0.0 0.0 
276.00004178320876 0.0 0.0 400.0 NaN 0.0 0.0 0.0 
278.00004178320876 0.0 0.0 400.0 NaN 0.0 0.0 0.0 
280.00004178320876 0.0 0.0 400.0 NaN 0.0 0.0 0.0 
282.00004178320876 0.0 0.0 400.0 NaN 0.0 0.0 0.0 
284.00004178320876 0.0 0.0 400.0 NaN 0.0 0.0 0.0 
286.00004178320876 0.0 0.0 400.0 NaN 0.0 0.0 0.0 
288.00004178320876 0.0 0.0 400.0 NaN 0.0 0.0 0.0 
290.00004178320876 0.0 0.0 400.0 NaN 0.0 0.0 0.0 
292.00004178320876 0.0 0.0 400.0 NaN 0.0 0.0 0.0 
294.00004178320876 0.0 0.0 400.0 NaN 0.0 0.0 0.0 
296.00004178320876 0.0 0.0 400.0 NaN 0.0 0.0 0.0 
298.00004178320876 0.0 0.0 400.0 NaN 0.0 0.0 0.0 
300.00004178320876 0.0 0.0 400.0 NaN 0.0 0.0 0.0 
302.00004178320876 0.0 0.0 400.0 NaN 0.0 0.0 0.0 
304.00004178320876 0.0 0.0 400.0 NaN 0.0 0.0 0.0 
306.00004178320876 0.0 0.0 400.0 NaN 0.0 0.0 0.0 
308.00004178320876 0.0 0.0 400.0 NaN 0.0 0.0 0.0 
310.00004178320876 0.0 0.0 400.0 NaN 0.0 0.0 0.0 
312.00004178320876 0.0 0.0 400.0 NaN 0.0 0.0 0.0 
314.00004178320876 0.0 0.0 400.0 NaN 0.0 0.0 0.0 
316.00004178320876 0.0 0.0 400.0 NaN 0.0 0.0 0.0 
318.00004178320876 0.0 0.0 400.0 NaN 0.0 0.0 0.0 
320.00004178320876 0.0 0.0 400.0 NaN 0.0 0.0 0.0 
322.00004178320876 0.0 0.0 400.0 NaN 0.0 0.0 0.0 
324.00004178320876 0.0 0.0 400.0 NaN 0.0 0.0 0.0 
326.00004178320876 0.0 0.0 400.0 NaN 0.0 0.0 0.0 
328.00004178320876 0.0 0.0 400.0 NaN 0.0 0.0 0.0 
330.00004178320876 0.0 0.0 400.0 NaN 0.0 0.0 0.0 
332.00004178320876 0.0 0.0 400.0 NaN 0.0 0.0 0.0 
334.00004178320876 0.0 0.0 400.0 NaN 0.0 0.0 0.0 
336.00004178320876 0.0 0.0 400.0 NaN 0.0 0.0 0.0 
338.00004178320876 0.0 0.0 400.0 NaN 0.0 0.0 0.0 
340.00004178320876 0.0 0.0 400.0 NaN 0.0 0.0 0.0 
342.00004178320876 0.0 0.0 400.0 NaN 0.0 0.0 0.0 
344.00004178320876 1.0 0.0 400.0 0.19571495219798862 0.0 0.0 0.0 
346.00004178320876 2.0 1.0 400.0 0.4999288688235879 0.0 0.0 0.0 
348.00004178320876 2.0 1.0 400.0 0.4999288688235879 0.0 0.0 0.0 
350.00004178320876 2.0 1.0 400.0 0.4999288688235879 0.0 0.0 0.0 
352.00004178320876 2.0 1.0 400.0 0.4999288688235879 0.0 0.0 0.0 
354.00004178320876 2.0 1.0 400.0 0.9999288688235879 0.0 0.0 0.0 
356.00004178320876 1.0 1.0 400.0 2.804142785449187 0.0 0.0 0.0 
358.00004178320876 0.0 0.0 400.0 NaN 0.0 0.0 0.0 
360.00004178320876 0.0 0.0 400.0 NaN 0.0 0.0 0.0 
362.00004178320876 0.0 0.0 400.0 NaN 0.0 0.0 0.0 
364.00004178320876 0.0 0.0 400.0 NaN 0.0 0.0 0.0 
366.00004178320876 0.0 0.0 400.0 NaN 0.0 0.0 0.0 
368.00004178320876 0.0 0.0 400.0 NaN 0.0 0.0 0.0 
370.00004178320876 0.0 0.0 400.0 NaN 0.0 0.0 0.0 
372.00004178320876 0.0 0.0 400.0 NaN 0.0 0.0 0.0 
374.00004178320876 0.0 0.0 400.0 NaN 0.0 0.0 0.0 
376.00004178320876 0.0 0.0 400.0 NaN 0.0 0.0 0.0 
378.00004178320876 0.0 0.0 400.0 NaN 0.0 0.0 0.0 
380.00004178320876 0.0 0.0 400.0 NaN 0.0 0.0 0.0 
382.00004178320876 0.0 0.0 400.0 NaN 0.0 0.0 0.0 
384.00004178320876 0.0 0.0 400.0 NaN 0.0 0.0 0.0 
386.00004178320876 0.0 0.0 400.0 NaN 0.0 0.0 0.0 
388.00004178320876 0.0 0.0 400.0 NaN 0.0 0.0 0.0 
390.00004178320876 0.0 0.0 400.0 NaN 0.0 0.0 0.0 
392.00004178320876 0.0 0.0 400.0 NaN 0.0 0.0 0.0 
394.00004178320876 0.0 0.0 400.0 NaN 0.0 0.0 0.0 
396.00004178320876 2.0 1.0 400.0 0.4999288688235879 0.0 0.0 0.0 
398.00004178320876 2.0 1.0 400.0 0.4999288688235879 0.0 0.0 0.0 
400.00004178320876 2.0 1.0 400.0 0.4999288688235879 0.0 0.0 0.0 
402.00004178320876 2.0 1.0 400.0 0.4999288688235879 0.0 0.0 0.0 
404.00004178320876 2.0 1.0 400.0 0.4999288688235879 0.0 0.0 0.0 
406.00004178320876 2.0 1.0 400.0 1.999928868823588 0.0 0.0 0.0 
408.00004178320876 0.0 0.0 400.0 NaN 0.0 0.0 0.0 
410.00004178320876 0.0 0.0 400.0 NaN 0.0 0.0 0.0 
412.00004178320876 0.0 0.0 400.0 NaN 0.0 0.0 0.0 
414.00004178320876 0.0 0.0 400.0 NaN 0.0 0.0 0.0 
416.00004178320876 0.0 0.0 400.0 NaN 0.0 0.0 0.0 
418.00004178320876 0.0 0.0 400.0 NaN 0.0 0.0 0.0 
420.00004178320876 0.0 0.0 400.0 NaN 0.0 0.0 0.0 
422.00004178320876 0.0 0.0 400.0 NaN 0.0 0.0 0.0 
424.00004178320876 0.0 0.0 400.0 NaN 0.0 0.0 0.0 
426.00004178320876 0.0 0.0 400.0 NaN 0.0 0.0 0.0 
428.00004178320876 0.0 0.0 400.0 NaN 0.0 0.0 0.0 
430.00004178320876 0.0 0.0 400.0 NaN 0.0 0.0 0.0 
432.00004178320876 0.0 0.0 400.0 NaN 0.0 0.0 0.0 
434.00004178320876 0.0 0.0 400.0 NaN 0.0 0.0 0.0 
436.00004178320876 0.0 0.0 400.0 NaN 0.0 0.0 0.0 
438.00004178320876 0.0 0.0 400.0 NaN 0.0 0.0 0.0 
440.00004178320876 0.0 0.0 400.0 NaN 0.0 0.0 0.0 
442.00004178320876 0.0 0.0 400.0 NaN 0.0 0.0 0.0 
444.00004178320876 0.0 0.0 400.0 NaN 0.0 0.0 0.0 
446.00004178320876 0.0 0.0 400.0 NaN 0.0 0.0 0.0 
448.00004178320876 0.0 0.0 400.0 NaN 0.0 0.0 0.0 
450.00004178320876 0.0 0.0 400.0 NaN 0.0 0.0 0.0 
452.00004178320876 0.0 0.0 400.0 NaN 0.0 0.0 0.0 
454.00004178320876 0.0 0.0 400.0 NaN 0.0 0.0 0.0 
456.00004178320876 0.0 0.0 400.0 NaN 0.0 0.0 0.0 
458.00004178320876 0.0 0.0 400.0 NaN 0.0 0.0 0.0 
460.00004178320876 0.0 0.0 400.0 NaN 0.0 0.0 0.0 
462.00004178320876 0.0 0.0 400.0 NaN 0.0 0.0 0.0 
464.00004178320876 0.0 0.0 400.0 NaN 0.0 0.0 0.0 
466.00004178320876 0.0 0.0 400.0 NaN 0.0 0.0 0.0 
468.00004178320876 2.0 1.0 400.0 0.4999288688235879 0.0 0.0 0.0 
470.00004178320876 2.0 1.0 400.0 0.4999288688235879 0.0 0.0 0.0 
472.00004178320876 2.0 1.0 400.0 0.4999288688235879 0.0 0.0 0.0 
474.00004178320876 2.0 1.0 400.0 0.4999288688235879 0.0 0.0 0.0 
476.00004178320876 2.0 1.0 400.0 0.4999288688235879 0.0 0.0 0.0 
478.00004178320876 2.0 1.0 400.0 1.999928868823588 0.0 0.0 0.0 
480.00004178320876 0.0 0.0 400.0 NaN 0.0 0.0 0.0 
482.00004178320876 0.0 0.0 400.0 NaN 0.0 0.0 0.0 
484.00004178320876 0.0 0.0 400.0 NaN 0.0 0.0 0.0 
486.00004178320876 0.0 0.0 400.0 NaN 0.0 0.0 0.0 
488.00004178320876 0.0 0.0 400.0 NaN 0.0 0.0 0.0 
490.00004178320876 0.0 0.0 400.0 NaN 0.0 0.0 0.0 
492.00004178320876 0.0 0.0 400.0 NaN 0.0 0.0 0.0 
494.00004178320876 0.0 0.0 400.0 NaN 0.0 0.0 0.0 
496.00004178320876 0.0 0.0 400.0 NaN 0.0 0.0 0.0 
498.00004178320876 0.0 0.0 400.0 NaN 0.0 0.0 0.0 
500.00004178320876 0.0 0.0 400.0 NaN 0.0 0.0 0.0 
502.00004178320876 2.0 1.0 400.0 0.4999288688235879 0.0 0.0 0.0 
504.00004178320876 2.0 1.0 400.0 0.4999288688235879 0.0 0.0 0.0 
506.00004178320876 2.0 1.0 400.0 0.4999288688235879 0.0 0.0 0.0 
508.00004178320876 4.0 2.0 400.0 0.4183578341425118 0.0 0.0 0.0 
510.00004178320876 6.0 2.0 400.0 0.4998577376471758 0.0 0.0 0.0 
512.0000417832088 6.0 2.0 400.0 1.8332147813726465 0.0 0.0 0.0 
514.0000417832086 2.0 1.0 400.0 0.49992886882364473 0.0 0.0 0.0 
516.0000417832086 2.0 1.0 400.0 0.49992886882364473 0.0 0.0 0.0 
518.0000417832086 2.0 1.0 400.0 0.9999288688236447 0.0 0.0 0.0 
520.0000417832086 1.0 0.0 400.0 2.6723366845509418 0.0 0.0 0.0 
522.0000417832086 0.0 0.0 400.0 NaN 0.0 0.0 0.0 
524.0000417832086 0.0 0.0 400.0 NaN 0.0 0.0 0.0 
526.0000417832086 0.0 0.0 400.0 NaN 0.0 0.0 0.0 
528.0000417832086 0.0 0.0 400.0 NaN 0.0 0.0 0.0 
530.0000417832086 0.0 0.0 400.0 NaN 0.0 0.0 0.0 
532.0000417832086 0.0 0.0 400.0 NaN 0.0 0.0 0.0 
534.0000417832086 0.0 0.0 400.0 NaN 0.0 0.0 0.0 
536.0000417832086 0.0 0.0 400.0 NaN 0.0 0.0 0.0 
538.0000417832086 0.0 0.0 400.0 NaN 0.0 0.0 0.0 
540.0000417832086 0.0 0.0 400.0 NaN 0.0 0.0 0.0 
542.0000417832086 0.0 0.0 400.0 NaN 0.0 0.0 0.0 
544.0000417832086 0.0 0.0 400.0 NaN 0.0 0.0 0.0 
546.0000417832086 0.0 0.0 400.0 NaN 0.0 0.0 0.0 
548.0000417832086 0.0 0.0 400.0 NaN 0.0 0.0 0.0 
550.0000417832086 0.0 0.0 400.0 NaN 0.0 0.0 0.0 
552.0000417832086 0.0 0.0 400.0 NaN 0.0 0.0 0.0 
554.0000417832086 0.0 0.0 400.0 NaN 0.0 0.0 0.0 
556.0000417832086 0.0 0.0 400.0 NaN 0.0 0.0 0.0 
558.0000417832086 0.0 0.0 400.0 NaN 0.0 0.0 0.0 
560.0000417832086 0.0 0.0 400.0 NaN 0.0 0.0 0.0 
562.0000417832086 0.0 0.0 400.0 NaN 0.0 0.0 0.0 
564.0000417832086 0.0 0.0 400.0 NaN 0.0 0.0 0.0 
566.0000417832086 0.0 0.0 400.0 NaN 0.0 0.0 0.0 
568.0000417832086 0.0 0.0 400.0 NaN 0.0 0.0 0.0 
570.0000417832086 0.0 0.0 400.0 NaN 0.0 0.0 0.0 
572.0000417832086 0.0 0.0 400.0 NaN 0.0 0.0 0.0 
574.0000417832086 0.0 0.0 400.0 NaN 0.0 0.0 0.0 
576.0000417832086 0.0 0.0 400.0 NaN 0.0 0.0 0.0 
578.0000417832086 0.0 0.0 400.0 NaN 0.0 0.0 0.0 
580.0000417832086 0.0 0.0 400.0 NaN 0.0 0.0 0.0 
582.0000417832086 2.0 1.0 400.0 0.49992886882364473 0.0 0.0 0.0 
584.0000417832086 2.0 1.0 400.0 0.49992886882364473 0.0 0.0 0.0 
586.0000417832086 2.0 1.0 400.0 0.49992886882364473 0.0 0.0 0.0 
588.0000417832086 2.0 1.0 400.0 0.49992886882364473 0.0 0.0 0.0 
590.0000417832086 2.0 1.0 400.0 0.49992886882364473 0.0 0.0 0.0 
592.0000417832086 2.0 1.0 400.0 1.9999288688236447 0.0 0.0 0.0 
594.0000417832086 0.0 0.0 400.0 NaN 0.0 0.0 0.0 
596.0000417832086 0.0 0.0 400.0 NaN 0.0 0.0 0.0 
598.0000417832086 0.0 0.0 400.0 NaN 0.0 0.0 0.0 
600.0000417832086 0.0 0.0 400.0 NaN 0.0 0.0 0.0 
602.0000417832086 0.0 0.0 400.0 NaN 0.0 0.0 0.0 
604.0000417832086 0.0 0.0 400.0 NaN 0.0 0.0 0.0 
606.0000417832086 0.0 0.0 400.0 NaN 0.0 0.0 0.0 
608.0000417832086 0.0 0.0 400.0 NaN 0.0 0.0 0.0 
610.0000417832086 0.0 0.0 400.0 NaN 0.0 0.0 0.0 
612.0000417832086 0.0 0.0 400.0 NaN 0.0 0.0 0.0 
614.0000417832086 0.0 0.0 400.0 NaN 0.0 0.0 0.0 
616.0000417832086 0.0 0.0 400.0 NaN 0.0 0.0 0.0 
618.0000417832086 0.0 0.0 400.0 NaN 0.0 0.0 0.0 
620.0000417832086 0.0 0.0 400.0 NaN 0.0 0.0 0.0 
622.0000417832086 0.0 0.0 400.0 NaN 0.0 0.0 0.0 
624.0000417832086 0.0 0.0 400.0 NaN 0.0 0.0 0.0 
626.0000417832086 0.0 0.0 400.0 NaN 0.0 0.0 0.0 
628.0000417832086 0.0 0.0 400.0 NaN 0.0 0.0 0.0 
630.0000417832086 0.0 0.0 400.0 NaN 0.0 0.0 0.0 
632.0000417832086 0.0 0.0 400.0 NaN 0.0 0.0 0.0 
634.0000417832086 0.0 0.0 400.0 NaN 0.0 0.0 0.0 
636.0000417832086 0.0 0.0 400.0 NaN 0.0 0.0 0.0 
638.0000417832086 0.0 0.0 400.0 NaN 0.0 0.0 0.0 
640.0000417832086 0.0 0.0 400.0 NaN 0.0 0.0 0.0 
642.0000417832086 0.0 0.0 400.0 NaN 0.0 0.0 0.0 
644.0000417832086 0.0 0.0 400.0 NaN 0.0 0.0 0.0 
646.0000417832086 0.0 0.0 400.0 NaN 0.0 0.0 0.0 
648.0000417832086 0.0 0.0 400.0 NaN 0.0 0.0 0.0 
650.0000417832086 0.0 0.0 400.0 NaN 0.0 0.0 0.0 
652.0000417832086 0.0 0.0 400.0 NaN 0.0 0.0 0.0 
654.0000417832086 0.0 0.0 400.0 NaN 0.0 0.0 0.0 
656.0000417832086 0.0 0.0 400.0 NaN 0.0 0.0 0.0 
658.0000417832086 0.0 0.0 400.0 NaN 0.0 0.0 0.0 
660.0000417832086 0.0 0.0 400.0 NaN 0.0 0.0 0.0 
662.0000417832086 0.0 0.0 400.0 NaN 0.0 0.0 0.0 
664.0000417832086 0.0 0.0 400.0 NaN 0.0 0.0 0.0 
#####################################################################
# End of data export. Simulation finished at: 2019-03-11T14:01+0000 #
#####################################################################
