#####################################################################
# Alchemist log file - simulation started at: 2019-03-13T09:52+0000 #
#####################################################################
# seed = 5.0, bandwidth = 5623413.251903491, accessPointCount = 37.60603093086394, baserange = 10.0
#
# The columns have the following meaning: 
# time neighbor_count[Sum] <value>@neighbor_count[Sum] packet_size[Mean] mean_delay[Mean] crowd[Sum] overcrowded[Sum] risk[Sum] 
0.0 NaN NaN NaN NaN NaN NaN NaN 
2.000101793669918 2.0 1.0 4987.441981747066 0.49911263857439064 1497.0 0.0 1497.0 
4.000101793669918 2.0 1.0 4987.470664928292 0.4991087263596885 1497.0 0.0 1497.0 
6.000101793669918 2.0 1.0 4987.475880052151 0.49910765939204227 1497.0 0.0 1497.0 
8.000101793669918 2.0 1.0 4987.434159061278 0.49911157160674424 1497.0 0.0 1497.0 
10.000101793669918 2.0 1.0 4987.475880052151 0.4991076593920427 1497.0 0.0 1497.0 
12.000101793669918 2.0 1.0 4987.4732724902215 0.49910837070380687 1497.0 0.0 1497.0 
14.000101793669918 2.0 1.0 4987.452411994785 0.4991101489832168 1497.0 0.0 1497.0 
16.00010179366992 2.0 1.0 4987.470664928292 0.4991101489832168 1497.0 0.0 1497.0 
18.00010179366992 2.0 1.0 4987.475880052151 0.4991076593920418 1497.0 0.0 1497.0 
20.00010179366992 2.0 1.0 4987.4732724902215 0.4991083707038051 1497.0 0.0 1497.0 
22.00010179366992 2.0 1.0 4987.434159061278 0.4991133498861533 1497.0 0.0 1497.0 
24.00010179366992 2.0 1.0 4987.4732724902215 0.4991083707038051 1497.0 0.0 1497.0 
26.00010179366992 2.0 1.0 4987.475880052151 0.4991073037361602 1497.0 0.0 1497.0 
28.00010179366992 2.0 1.0 4987.462842242503 0.4991073037361602 1497.0 0.0 1497.0 
30.00010179366992 2.0 1.0 4987.470664928292 0.49911014898321504 1497.0 0.0 1497.0 
32.00010179366992 2.0 1.0 4987.470664928292 0.4991076593920418 1497.0 0.0 1497.0 
34.00010179366992 2.0 1.0 4987.4732724902215 0.4991083707038051 1497.0 0.0 1497.0 
36.00010179366992 2.0 1.0 4987.434159061278 0.4991133498861551 1497.0 0.0 1497.0 
38.00010179366992 2.0 1.0 4987.4732724902215 0.4991083707038051 1497.0 0.0 1497.0 
40.00010179366992 2.0 1.0 4987.475880052151 0.4991073037361602 1497.0 0.0 1497.0 
42.00010179366992 2.0 1.0 4987.462842242503 0.4991073037361602 1497.0 0.0 1497.0 
44.00010179366992 2.0 1.0 4987.470664928292 0.4991101489832168 1497.0 0.0 1497.0 
46.00010179366992 2.0 1.0 4987.470664928292 0.4991076593920418 1497.0 0.0 1497.0 
48.00010179366992 2.0 1.0 4987.4732724902215 0.4991083707038051 1497.0 0.0 1497.0 
50.00010179366992 2.0 1.0 4987.434159061278 0.4991133498861551 1497.0 0.0 1497.0 
52.00010179366992 2.0 1.0 4987.4732724902215 0.4991083707038051 1497.0 0.0 1497.0 
54.00010179366992 2.0 1.0 4987.475880052151 0.4991073037361602 1497.0 0.0 1497.0 
56.00010179366992 2.0 1.0 4987.462842242503 0.4991073037361602 1497.0 0.0 1497.0 
58.00010179366992 2.0 1.0 4987.470664928292 0.4991101489832168 1497.0 0.0 1497.0 
60.00010179366992 2.0 1.0 4984.479791395046 0.4991076593920418 1496.0 0.0 1496.0 
62.00000817355984 2.0 1.0 400.0 0.499928868823595 1.0 0.0 0.0 
64.00000817355983 2.0 1.0 400.0 0.499928868823595 1.0 0.0 0.0 
66.00000817355983 2.0 1.0 400.0 0.4999288688236021 1.0 0.0 0.0 
68.00000817355983 2.0 1.0 400.0 0.4999288688236021 0.0 0.0 0.0 
70.00000817355983 2.0 1.0 400.0 0.4999288688236021 0.0 0.0 0.0 
72.00000817355983 2.0 1.0 400.0 0.4999288688236021 0.0 0.0 0.0 
74.00000817355983 2.0 1.0 400.0 0.4999288688236021 0.0 0.0 0.0 
76.00000817355983 2.0 1.0 400.0 0.4999288688236021 0.0 0.0 0.0 
78.00000817355983 2.0 1.0 400.0 0.4999288688236021 0.0 0.0 0.0 
80.00000817355983 2.0 1.0 400.0 0.4999288688236021 0.0 0.0 0.0 
82.00000817355983 2.0 1.0 400.0 0.4999288688236021 0.0 0.0 0.0 
84.00000817355983 2.0 1.0 400.0 0.4999288688236021 0.0 0.0 0.0 
86.00000817355983 2.0 1.0 400.0 0.4999288688236021 0.0 0.0 0.0 
88.00000817355983 2.0 1.0 400.0 0.4999288688236021 0.0 0.0 0.0 
90.00000817355983 2.0 1.0 400.0 0.4999288688236021 0.0 0.0 0.0 
92.00000817355983 2.0 1.0 400.0 0.4999288688236021 0.0 0.0 0.0 
94.00000817355983 2.0 1.0 400.0 0.4999288688236021 0.0 0.0 0.0 
96.00000817355983 2.0 1.0 400.0 0.4999288688236021 0.0 0.0 0.0 
98.00000817355983 2.0 1.0 400.0 0.4999288688236021 0.0 0.0 0.0 
100.00000817355983 2.0 1.0 400.0 0.4999288688236021 0.0 0.0 0.0 
102.00000817355983 2.0 1.0 400.0 0.4999288688236021 0.0 0.0 0.0 
104.00000817355983 2.0 1.0 400.0 0.4999288688236021 0.0 0.0 0.0 
106.00000817355983 2.0 1.0 400.0 0.4999288688236021 0.0 0.0 0.0 
108.00000817355983 2.0 1.0 400.0 0.4999288688236021 0.0 0.0 0.0 
110.00000817355983 2.0 1.0 400.0 0.4999288688236021 0.0 0.0 0.0 
112.00000817355983 2.0 1.0 400.0 0.4999288688236021 0.0 0.0 0.0 
114.00000817355983 2.0 1.0 400.0 0.4999288688236021 0.0 0.0 0.0 
116.00000817355983 2.0 1.0 400.0 0.4999288688236021 0.0 0.0 0.0 
118.00000817355983 2.0 1.0 400.0 0.4999288688236021 0.0 0.0 0.0 
120.00000817355983 2.0 1.0 400.0 0.4999288688236021 0.0 0.0 0.0 
122.00000817355983 2.0 1.0 400.0 0.4999288688236021 0.0 0.0 0.0 
124.00000817355983 2.0 1.0 400.0 0.4999288688236021 0.0 0.0 0.0 
126.00000817355983 2.0 1.0 400.0 0.4999288688236021 0.0 0.0 0.0 
128.00000817355985 2.0 1.0 400.0 0.4999288688236021 0.0 0.0 0.0 
130.00000817355985 2.0 1.0 400.0 0.4999288688235879 0.0 0.0 0.0 
132.00000817355985 2.0 1.0 400.0 0.4999288688235879 0.0 0.0 0.0 
134.00000817355985 2.0 1.0 400.0 0.4999288688235879 0.0 0.0 0.0 
136.00000817355985 2.0 1.0 400.0 0.4999288688235879 0.0 0.0 0.0 
138.00000817355985 2.0 1.0 400.0 0.4999288688235879 0.0 0.0 0.0 
140.00000817355985 2.0 1.0 400.0 0.4999288688235879 0.0 0.0 0.0 
142.00000817355985 2.0 1.0 400.0 0.4999288688235879 0.0 0.0 0.0 
144.00000817355985 2.0 1.0 400.0 0.4999288688235879 0.0 0.0 0.0 
146.00000817355985 2.0 1.0 400.0 0.4999288688235879 0.0 0.0 0.0 
148.00000817355985 2.0 1.0 400.0 0.4999288688235879 0.0 0.0 0.0 
150.00000817355985 2.0 1.0 400.0 0.4999288688235879 0.0 0.0 0.0 
152.00000817355985 2.0 1.0 400.0 0.4999288688235879 0.0 0.0 0.0 
154.00000817355985 2.0 1.0 400.0 0.4999288688235879 0.0 0.0 0.0 
156.00000817355985 2.0 1.0 400.0 0.4999288688235879 0.0 0.0 0.0 
158.00000817355985 2.0 1.0 400.0 0.4999288688235879 0.0 0.0 0.0 
160.00000817355985 2.0 1.0 400.0 0.4999288688235879 0.0 0.0 0.0 
162.00000817355985 2.0 1.0 400.0 0.4999288688235879 0.0 0.0 0.0 
164.00000817355985 2.0 1.0 400.0 0.4999288688235879 0.0 0.0 0.0 
166.00000817355985 2.0 1.0 400.0 0.4999288688235879 0.0 0.0 0.0 
168.00000817355985 2.0 1.0 400.0 0.4999288688235879 0.0 0.0 0.0 
170.00000817355985 2.0 1.0 400.0 0.4999288688235879 0.0 0.0 0.0 
172.00000817355985 2.0 1.0 400.0 0.4999288688235879 0.0 0.0 0.0 
174.00000817355985 2.0 1.0 400.0 0.4999288688235879 0.0 0.0 0.0 
176.00000817355985 2.0 1.0 400.0 0.4999288688235879 0.0 0.0 0.0 
178.00000817355985 2.0 1.0 400.0 0.4999288688235879 0.0 0.0 0.0 
180.00000817355985 2.0 1.0 400.0 0.4999288688235879 0.0 0.0 0.0 
182.00000817355985 2.0 1.0 400.0 0.4999288688235879 0.0 0.0 0.0 
184.00000817355985 2.0 1.0 400.0 0.4999288688235879 0.0 0.0 0.0 
186.00000817355985 2.0 1.0 400.0 0.4999288688235879 0.0 0.0 0.0 
188.00000817355985 2.0 1.0 400.0 0.4999288688235879 0.0 0.0 0.0 
190.00000817355985 2.0 1.0 400.0 0.4999288688235879 0.0 0.0 0.0 
192.00000817355985 2.0 1.0 400.0 0.4999288688235879 0.0 0.0 0.0 
194.00000817355985 2.0 1.0 400.0 0.4999288688235879 0.0 0.0 0.0 
196.00000817355985 2.0 1.0 400.0 0.4999288688235879 0.0 0.0 0.0 
198.00000817355985 2.0 1.0 400.0 0.4999288688235879 0.0 0.0 0.0 
200.00000817355985 2.0 1.0 400.0 0.4999288688235879 0.0 0.0 0.0 
202.00000817355985 2.0 1.0 400.0 0.4999288688235879 0.0 0.0 0.0 
204.00000817355985 2.0 1.0 400.0 0.4999288688235879 0.0 0.0 0.0 
206.00000817355985 2.0 1.0 400.0 0.4999288688235879 0.0 0.0 0.0 
208.00000817355985 2.0 1.0 400.0 0.4999288688235879 0.0 0.0 0.0 
210.00000817355985 2.0 1.0 400.0 0.4999288688235879 0.0 0.0 0.0 
212.00000817355985 2.0 1.0 400.0 0.4999288688235879 0.0 0.0 0.0 
214.00000817355985 2.0 1.0 400.0 0.4999288688235879 0.0 0.0 0.0 
216.00000817355985 2.0 1.0 400.0 0.4999288688235879 0.0 0.0 0.0 
218.00000817355985 2.0 1.0 400.0 0.4999288688235879 0.0 0.0 0.0 
220.00000817355985 2.0 1.0 400.0 0.4999288688235879 0.0 0.0 0.0 
222.00000817355985 2.0 1.0 400.0 0.4999288688235879 0.0 0.0 0.0 
224.00000817355985 2.0 1.0 400.0 0.4999288688235879 0.0 0.0 0.0 
226.00000817355985 2.0 1.0 400.0 0.4999288688235879 0.0 0.0 0.0 
228.00000817355985 2.0 1.0 400.0 0.4999288688235879 0.0 0.0 0.0 
230.00000817355985 2.0 1.0 400.0 0.4999288688235879 0.0 0.0 0.0 
232.00000817355985 2.0 1.0 400.0 0.4999288688235879 0.0 0.0 0.0 
234.00000817355985 2.0 1.0 400.0 0.4999288688235879 0.0 0.0 0.0 
236.00000817355985 2.0 1.0 400.0 0.4999288688235879 0.0 0.0 0.0 
238.00000817355985 2.0 1.0 400.0 0.4999288688235879 0.0 0.0 0.0 
240.00000817355985 2.0 1.0 400.0 0.4999288688235879 0.0 0.0 0.0 
242.00000817355985 2.0 1.0 400.0 0.4999288688235879 0.0 0.0 0.0 
244.00000817355985 2.0 1.0 400.0 0.4999288688235879 0.0 0.0 0.0 
246.00000817355985 2.0 1.0 400.0 0.4999288688235879 0.0 0.0 0.0 
248.00000817355985 2.0 1.0 400.0 0.4999288688235879 0.0 0.0 0.0 
250.00000817355985 2.0 1.0 400.0 0.4999288688235879 0.0 0.0 0.0 
252.00000817355985 2.0 1.0 400.0 0.4999288688235879 0.0 0.0 0.0 
254.00000817355985 2.0 1.0 400.0 0.4999288688235879 0.0 0.0 0.0 
256.0000081735598 2.0 1.0 400.0 0.4999288688235879 0.0 0.0 0.0 
258.0000081735598 2.0 1.0 400.0 0.4999288688235879 0.0 0.0 0.0 
260.0000081735598 2.0 1.0 400.0 0.4999288688235879 0.0 0.0 0.0 
262.0000081735598 2.0 1.0 400.0 0.4999288688235879 0.0 0.0 0.0 
264.0000081735598 2.0 1.0 400.0 0.4999288688235879 0.0 0.0 0.0 
266.0000081735598 2.0 1.0 400.0 0.4999288688235879 0.0 0.0 0.0 
268.0000081735598 2.0 1.0 400.0 0.4999288688235879 0.0 0.0 0.0 
270.0000081735598 2.0 1.0 400.0 0.4999288688235879 0.0 0.0 0.0 
272.0000081735598 2.0 1.0 400.0 0.4999288688235879 0.0 0.0 0.0 
274.0000081735598 2.0 1.0 400.0 0.4999288688235879 0.0 0.0 0.0 
276.0000081735598 2.0 1.0 400.0 0.4999288688235879 0.0 0.0 0.0 
278.0000081735598 2.0 1.0 400.0 0.4999288688235879 0.0 0.0 0.0 
280.0000081735598 2.0 1.0 400.0 0.4999288688235879 0.0 0.0 0.0 
282.0000081735598 2.0 1.0 400.0 0.4999288688235879 0.0 0.0 0.0 
284.0000081735598 2.0 1.0 400.0 0.4999288688235879 0.0 0.0 0.0 
286.0000081735598 2.0 1.0 400.0 0.4999288688235879 0.0 0.0 0.0 
288.0000081735598 2.0 1.0 400.0 0.4999288688235879 0.0 0.0 0.0 
290.0000081735598 2.0 1.0 400.0 0.4999288688235879 0.0 0.0 0.0 
292.0000081735598 2.0 1.0 400.0 0.4999288688235879 0.0 0.0 0.0 
294.0000081735598 2.0 1.0 400.0 0.4999288688235879 0.0 0.0 0.0 
296.0000081735598 2.0 1.0 400.0 0.4999288688235879 0.0 0.0 0.0 
298.0000081735598 2.0 1.0 400.0 0.4999288688235879 0.0 0.0 0.0 
300.0000081735598 2.0 1.0 400.0 0.4999288688235879 0.0 0.0 0.0 
302.0000081735598 2.0 1.0 400.0 0.4999288688235879 0.0 0.0 0.0 
304.0000081735598 2.0 1.0 400.0 0.4999288688235879 0.0 0.0 0.0 
306.0000081735598 2.0 1.0 400.0 0.4999288688235879 0.0 0.0 0.0 
308.0000081735598 2.0 1.0 400.0 0.4999288688235879 0.0 0.0 0.0 
310.0000081735598 2.0 1.0 400.0 0.4999288688235879 0.0 0.0 0.0 
312.0000081735598 2.0 1.0 400.0 0.4999288688235879 0.0 0.0 0.0 
314.0000081735598 2.0 1.0 400.0 0.4999288688235879 0.0 0.0 0.0 
316.0000081735598 2.0 1.0 400.0 0.4999288688235879 0.0 0.0 0.0 
318.0000081735598 2.0 1.0 400.0 0.4999288688235879 0.0 0.0 0.0 
320.0000081735598 2.0 1.0 400.0 0.4999288688235879 0.0 0.0 0.0 
322.0000081735598 2.0 1.0 400.0 0.4999288688235879 0.0 0.0 0.0 
324.0000081735598 2.0 1.0 400.0 0.4999288688235879 0.0 0.0 0.0 
326.0000081735598 2.0 1.0 400.0 0.4999288688235879 0.0 0.0 0.0 
328.0000081735598 2.0 1.0 400.0 0.4999288688235879 0.0 0.0 0.0 
330.0000081735598 2.0 1.0 400.0 0.4999288688235879 0.0 0.0 0.0 
332.0000081735598 2.0 1.0 400.0 0.4999288688235879 0.0 0.0 0.0 
334.0000081735598 2.0 1.0 400.0 0.4999288688235879 0.0 0.0 0.0 
336.0000081735598 2.0 1.0 400.0 0.4999288688235879 0.0 0.0 0.0 
338.0000081735598 2.0 1.0 400.0 0.4999288688235879 0.0 0.0 0.0 
340.0000081735598 2.0 1.0 400.0 0.4999288688235879 0.0 0.0 0.0 
342.0000081735598 2.0 1.0 400.0 0.4999288688235879 0.0 0.0 0.0 
344.0000081735598 2.0 1.0 400.0 0.4999288688235879 0.0 0.0 0.0 
346.0000081735598 2.0 1.0 400.0 0.4999288688235879 0.0 0.0 0.0 
348.0000081735598 2.0 1.0 400.0 0.4999288688235879 0.0 0.0 0.0 
350.0000081735598 2.0 1.0 400.0 0.4999288688235879 0.0 0.0 0.0 
352.0000081735598 2.0 1.0 400.0 0.4999288688235879 0.0 0.0 0.0 
354.0000081735598 2.0 1.0 400.0 0.4999288688235879 0.0 0.0 0.0 
356.0000081735598 2.0 1.0 400.0 0.4999288688235879 0.0 0.0 0.0 
358.0000081735598 2.0 1.0 400.0 0.4999288688235879 0.0 0.0 0.0 
360.0000081735598 2.0 1.0 400.0 0.4999288688235879 0.0 0.0 0.0 
362.0000081735598 2.0 1.0 400.0 0.4999288688235879 0.0 0.0 0.0 
364.0000081735598 2.0 1.0 400.0 0.4999288688235879 0.0 0.0 0.0 
366.0000081735598 2.0 1.0 400.0 0.4999288688235879 0.0 0.0 0.0 
368.0000081735598 2.0 1.0 400.0 0.4999288688235879 0.0 0.0 0.0 
370.0000081735598 2.0 1.0 400.0 0.4999288688235879 0.0 0.0 0.0 
372.0000081735598 2.0 1.0 400.0 0.4999288688235879 0.0 0.0 0.0 
374.0000081735598 2.0 1.0 400.0 0.4999288688235879 0.0 0.0 0.0 
376.0000081735598 2.0 1.0 400.0 0.4999288688235879 0.0 0.0 0.0 
378.0000081735598 2.0 1.0 400.0 0.4999288688235879 0.0 0.0 0.0 
380.0000081735598 2.0 1.0 400.0 0.4999288688235879 0.0 0.0 0.0 
382.0000081735598 2.0 1.0 400.0 0.4999288688235879 0.0 0.0 0.0 
384.0000081735598 2.0 1.0 400.0 0.4999288688235879 0.0 0.0 0.0 
386.0000081735598 2.0 1.0 400.0 0.4999288688235879 0.0 0.0 0.0 
388.0000081735598 2.0 1.0 400.0 0.4999288688235879 0.0 0.0 0.0 
390.0000081735598 2.0 1.0 400.0 0.4999288688235879 0.0 0.0 0.0 
392.0000081735598 2.0 1.0 400.0 0.4999288688235879 0.0 0.0 0.0 
394.0000081735598 2.0 1.0 400.0 0.4999288688235879 0.0 0.0 0.0 
396.0000081735598 2.0 1.0 400.0 0.4999288688235879 0.0 0.0 0.0 
398.0000081735598 2.0 1.0 400.0 0.4999288688235879 0.0 0.0 0.0 
400.0000081735598 2.0 1.0 400.0 0.4999288688235879 0.0 0.0 0.0 
402.0000081735598 2.0 1.0 400.0 0.4999288688235879 0.0 0.0 0.0 
404.0000081735598 2.0 1.0 400.0 0.4999288688235879 0.0 0.0 0.0 
406.0000081735598 2.0 1.0 400.0 0.4999288688235879 0.0 0.0 0.0 
408.0000081735598 2.0 1.0 400.0 0.4999288688235879 0.0 0.0 0.0 
410.0000081735598 2.0 1.0 400.0 0.4999288688235879 0.0 0.0 0.0 
412.0000081735598 2.0 1.0 400.0 0.4999288688235879 0.0 0.0 0.0 
414.0000081735598 2.0 1.0 400.0 0.4999288688235879 0.0 0.0 0.0 
416.0000081735598 2.0 1.0 400.0 0.4999288688235879 0.0 0.0 0.0 
418.0000081735598 2.0 1.0 400.0 0.4999288688235879 0.0 0.0 0.0 
420.0000081735598 2.0 1.0 400.0 0.4999288688235879 0.0 0.0 0.0 
422.0000081735598 2.0 1.0 400.0 0.4999288688235879 0.0 0.0 0.0 
424.0000081735598 2.0 1.0 400.0 0.4999288688235879 0.0 0.0 0.0 
426.0000081735598 2.0 1.0 400.0 0.4999288688235879 0.0 0.0 0.0 
428.0000081735598 2.0 1.0 400.0 0.4999288688235879 0.0 0.0 0.0 
430.0000081735598 2.0 1.0 400.0 0.4999288688235879 0.0 0.0 0.0 
432.0000081735598 2.0 1.0 400.0 0.4999288688235879 0.0 0.0 0.0 
434.0000081735598 2.0 1.0 400.0 0.4999288688235879 0.0 0.0 0.0 
436.0000081735598 2.0 1.0 400.0 0.4999288688235879 0.0 0.0 0.0 
438.0000081735598 2.0 1.0 400.0 0.4999288688235879 0.0 0.0 0.0 
440.0000081735598 2.0 1.0 400.0 0.4999288688235879 0.0 0.0 0.0 
442.0000081735598 2.0 1.0 400.0 0.4999288688235879 0.0 0.0 0.0 
444.0000081735598 2.0 1.0 400.0 0.4999288688235879 0.0 0.0 0.0 
446.0000081735598 2.0 1.0 400.0 0.4999288688235879 0.0 0.0 0.0 
448.0000081735598 2.0 1.0 400.0 0.4999288688235879 0.0 0.0 0.0 
450.0000081735598 2.0 1.0 400.0 0.4999288688235879 0.0 0.0 0.0 
452.0000081735598 2.0 1.0 400.0 0.4999288688235879 0.0 0.0 0.0 
454.0000081735598 2.0 1.0 400.0 0.4999288688235879 0.0 0.0 0.0 
456.0000081735598 2.0 1.0 400.0 0.4999288688235879 0.0 0.0 0.0 
458.0000081735598 2.0 1.0 400.0 0.4999288688235879 0.0 0.0 0.0 
460.0000081735598 2.0 1.0 400.0 0.4999288688235879 0.0 0.0 0.0 
462.0000081735598 2.0 1.0 400.0 0.4999288688235879 0.0 0.0 0.0 
464.0000081735598 2.0 1.0 400.0 0.4999288688235879 0.0 0.0 0.0 
466.0000081735598 2.0 1.0 400.0 0.4999288688235879 0.0 0.0 0.0 
468.0000081735598 2.0 1.0 400.0 0.4999288688235879 0.0 0.0 0.0 
470.0000081735598 2.0 1.0 400.0 0.4999288688235879 0.0 0.0 0.0 
472.0000081735598 2.0 1.0 400.0 0.4999288688235879 0.0 0.0 0.0 
474.0000081735598 2.0 1.0 400.0 0.4999288688235879 0.0 0.0 0.0 
476.0000081735598 2.0 1.0 400.0 0.4999288688235879 0.0 0.0 0.0 
478.0000081735598 2.0 1.0 400.0 0.4999288688235879 0.0 0.0 0.0 
480.0000081735598 2.0 1.0 400.0 0.4999288688235879 0.0 0.0 0.0 
482.0000081735598 2.0 1.0 400.0 0.4999288688235879 0.0 0.0 0.0 
484.0000081735598 2.0 1.0 400.0 0.4999288688235879 0.0 0.0 0.0 
486.0000081735598 2.0 1.0 400.0 0.4999288688235879 0.0 0.0 0.0 
488.0000081735598 2.0 1.0 400.0 0.4999288688235879 0.0 0.0 0.0 
490.0000081735598 2.0 1.0 400.0 0.4999288688235879 0.0 0.0 0.0 
492.0000081735598 2.0 1.0 400.0 0.4999288688235879 0.0 0.0 0.0 
494.0000081735598 2.0 1.0 400.0 0.4999288688235879 0.0 0.0 0.0 
496.0000081735598 2.0 1.0 400.0 0.4999288688235879 0.0 0.0 0.0 
498.0000081735598 2.0 1.0 400.0 0.4999288688235879 0.0 0.0 0.0 
500.0000081735598 2.0 1.0 400.0 0.4999288688235879 0.0 0.0 0.0 
502.0000081735598 2.0 1.0 400.0 0.4999288688235879 0.0 0.0 0.0 
504.0000081735598 2.0 1.0 400.0 0.4999288688235879 0.0 0.0 0.0 
506.0000081735598 2.0 1.0 400.0 0.4999288688235879 0.0 0.0 0.0 
508.0000081735598 2.0 1.0 400.0 0.4999288688235879 0.0 0.0 0.0 
510.0000081735598 2.0 1.0 400.0 0.4999288688235879 0.0 0.0 0.0 
512.0000081735598 2.0 1.0 400.0 0.4999288688235879 0.0 0.0 0.0 
514.0000081735598 2.0 1.0 400.0 0.49992886882364473 0.0 0.0 0.0 
516.0000081735598 2.0 1.0 400.0 0.49992886882364473 0.0 0.0 0.0 
518.0000081735598 2.0 1.0 400.0 0.49992886882364473 0.0 0.0 0.0 
520.0000081735598 2.0 1.0 400.0 0.49992886882364473 0.0 0.0 0.0 
522.0000081735598 2.0 1.0 400.0 0.49992886882364473 0.0 0.0 0.0 
524.0000081735598 2.0 1.0 400.0 0.49992886882364473 0.0 0.0 0.0 
526.0000081735598 2.0 1.0 400.0 0.49992886882364473 0.0 0.0 0.0 
528.0000081735598 2.0 1.0 400.0 0.49992886882364473 0.0 0.0 0.0 
530.0000081735598 2.0 1.0 400.0 0.49992886882364473 0.0 0.0 0.0 
532.0000081735598 2.0 1.0 400.0 0.49992886882364473 0.0 0.0 0.0 
534.0000081735598 2.0 1.0 400.0 0.49992886882364473 0.0 0.0 0.0 
536.0000081735598 2.0 1.0 400.0 0.49992886882364473 0.0 0.0 0.0 
538.0000081735598 2.0 1.0 400.0 0.49992886882364473 0.0 0.0 0.0 
540.0000081735598 2.0 1.0 400.0 0.49992886882364473 0.0 0.0 0.0 
542.0000081735598 2.0 1.0 400.0 0.49992886882364473 0.0 0.0 0.0 
544.0000081735598 2.0 1.0 400.0 0.49992886882364473 0.0 0.0 0.0 
546.0000081735598 2.0 1.0 400.0 0.49992886882364473 0.0 0.0 0.0 
548.0000081735598 2.0 1.0 400.0 0.49992886882364473 0.0 0.0 0.0 
550.0000081735598 2.0 1.0 400.0 0.49992886882364473 0.0 0.0 0.0 
552.0000081735598 2.0 1.0 400.0 0.49992886882364473 0.0 0.0 0.0 
554.0000081735598 2.0 1.0 400.0 0.49992886882364473 0.0 0.0 0.0 
556.0000081735598 2.0 1.0 400.0 0.49992886882364473 0.0 0.0 0.0 
558.0000081735598 2.0 1.0 400.0 0.49992886882364473 0.0 0.0 0.0 
560.0000081735598 2.0 1.0 400.0 0.49992886882364473 0.0 0.0 0.0 
562.0000081735598 2.0 1.0 400.0 0.49992886882364473 0.0 0.0 0.0 
564.0000081735598 2.0 1.0 400.0 0.49992886882364473 0.0 0.0 0.0 
566.0000081735598 2.0 1.0 400.0 0.49992886882364473 0.0 0.0 0.0 
568.0000081735598 2.0 1.0 400.0 0.49992886882364473 0.0 0.0 0.0 
570.0000081735598 2.0 1.0 400.0 0.49992886882364473 0.0 0.0 0.0 
572.0000081735598 2.0 1.0 400.0 0.49992886882364473 0.0 0.0 0.0 
574.0000081735598 2.0 1.0 400.0 0.49992886882364473 0.0 0.0 0.0 
576.0000081735598 2.0 1.0 400.0 0.49992886882364473 0.0 0.0 0.0 
578.0000081735598 2.0 1.0 400.0 0.49992886882364473 0.0 0.0 0.0 
580.0000081735598 2.0 1.0 400.0 0.49992886882364473 0.0 0.0 0.0 
582.0000081735598 2.0 1.0 400.0 0.49992886882364473 0.0 0.0 0.0 
584.0000081735598 2.0 1.0 400.0 0.49992886882364473 0.0 0.0 0.0 
586.0000081735598 2.0 1.0 400.0 0.49992886882364473 0.0 0.0 0.0 
588.0000081735598 2.0 1.0 400.0 0.49992886882364473 0.0 0.0 0.0 
590.0000081735598 2.0 1.0 400.0 0.49992886882364473 0.0 0.0 0.0 
592.0000081735598 2.0 1.0 400.0 0.49992886882364473 0.0 0.0 0.0 
594.0000081735598 2.0 1.0 400.0 0.49992886882364473 0.0 0.0 0.0 
596.0000081735598 2.0 1.0 400.0 0.49992886882364473 0.0 0.0 0.0 
598.0000081735598 2.0 1.0 400.0 0.49992886882364473 0.0 0.0 0.0 
600.0000081735598 2.0 1.0 400.0 0.49992886882364473 0.0 0.0 0.0 
602.0000081735598 2.0 1.0 400.0 0.49992886882364473 0.0 0.0 0.0 
604.0000081735598 2.0 1.0 400.0 0.49992886882364473 0.0 0.0 0.0 
606.0000081735598 2.0 1.0 400.0 0.49992886882364473 0.0 0.0 0.0 
608.0000081735598 2.0 1.0 400.0 0.49992886882364473 0.0 0.0 0.0 
610.0000081735598 2.0 1.0 400.0 0.49992886882364473 0.0 0.0 0.0 
612.0000081735598 2.0 1.0 400.0 0.49992886882364473 0.0 0.0 0.0 
614.0000081735598 2.0 1.0 400.0 0.49992886882364473 0.0 0.0 0.0 
616.0000081735598 2.0 1.0 400.0 0.49992886882364473 0.0 0.0 0.0 
618.0000081735598 2.0 1.0 400.0 0.49992886882364473 0.0 0.0 0.0 
620.0000081735598 2.0 1.0 400.0 0.49992886882364473 0.0 0.0 0.0 
622.0000081735598 2.0 1.0 400.0 0.49992886882364473 0.0 0.0 0.0 
624.0000081735598 2.0 1.0 400.0 0.49992886882364473 0.0 0.0 0.0 
626.0000081735598 2.0 1.0 400.0 0.49992886882364473 0.0 0.0 0.0 
628.0000081735598 2.0 1.0 400.0 0.49992886882364473 0.0 0.0 0.0 
630.0000081735598 2.0 1.0 400.0 0.49992886882364473 0.0 0.0 0.0 
632.0000081735598 2.0 1.0 400.0 0.49992886882364473 0.0 0.0 0.0 
634.0000081735598 2.0 1.0 400.0 0.49992886882364473 0.0 0.0 0.0 
636.0000081735598 2.0 1.0 400.0 0.49992886882364473 0.0 0.0 0.0 
638.0000081735598 2.0 1.0 400.0 0.49992886882364473 0.0 0.0 0.0 
640.0000081735598 2.0 1.0 400.0 0.49992886882364473 0.0 0.0 0.0 
642.0000081735598 2.0 1.0 400.0 0.49992886882364473 0.0 0.0 0.0 
644.0000081735598 2.0 1.0 400.0 0.49992886882364473 0.0 0.0 0.0 
646.0000081735598 2.0 1.0 400.0 0.49992886882364473 0.0 0.0 0.0 
648.0000081735598 2.0 1.0 400.0 0.49992886882364473 0.0 0.0 0.0 
650.0000081735598 2.0 1.0 400.0 0.49992886882364473 0.0 0.0 0.0 
652.0000081735598 2.0 1.0 400.0 0.49992886882364473 0.0 0.0 0.0 
654.0000081735598 2.0 1.0 400.0 0.49992886882364473 0.0 0.0 0.0 
656.0000081735598 2.0 1.0 400.0 0.49992886882364473 0.0 0.0 0.0 
658.0000081735598 2.0 1.0 400.0 0.49992886882364473 0.0 0.0 0.0 
660.0000081735598 2.0 1.0 400.0 0.49992886882364473 0.0 0.0 0.0 
662.0000081735598 2.0 1.0 400.0 0.49992886882364473 0.0 0.0 0.0 
664.0000081735598 2.0 1.0 400.0 0.49992886882364473 0.0 0.0 0.0 
#####################################################################
# End of data export. Simulation finished at: 2019-03-13T09:58+0000 #
#####################################################################
