#####################################################################
# Alchemist log file - simulation started at: 2019-03-08T16:18+0000 #
#####################################################################
# seed = 3.0, bandwidth = 1000.0, accessPointCount = 531.8295896944988, baserange = 1000.0
#
# The columns have the following meaning: 
# time neighbor_count[Sum] <value>@neighbor_count[Sum] packet_size[Mean] mean_delay[Mean] crowd[Sum] overcrowded[Sum] risk[Sum] 
0.0 NaN NaN NaN NaN NaN NaN NaN 
2.0005923698108097 NaN NaN 4981.715976331361 NaN 1497.0 0.0 1497.0 
4.00059236981081 NaN NaN 4981.715976331361 NaN 1497.0 0.0 1497.0 
6.000084666035003 12.0 7.0 4981.715976331361 0.27084023317306105 1497.0 0.0 1497.0 
8.00059236981081 26.0 15.0 4981.715976331361 1.979913467424741 1497.0 0.0 1497.0 
10.00033353340315 26.0 15.0 4981.715976331361 3.979913467424741 1497.0 0.0 1497.0 
12.00059236981081 106.0 46.0 4981.715976331361 1.5095401996922853 1497.0 0.0 1497.0 
14.00059236981081 106.0 46.0 4981.715976331361 3.5095401996922853 1497.0 0.0 1497.0 
16.000084666035004 187.0 80.0 4981.715976331361 3.1020285874668505 1497.0 0.0 1497.0 
18.00059236981081 258.0 105.0 4981.7278106508875 4.046342790627506 1497.0 0.0 1497.0 
20.00033353340315 260.0 106.0 4981.7278106508875 5.980844815275528 1497.0 0.0 1497.0 
22.00059236981081 582.0 248.0 4981.755424063116 3.706787940128873 1497.0 0.0 1497.0 
24.00059236981081 582.0 248.0 4981.763313609467 5.706787940128872 1497.0 0.0 1497.0 
26.000084666035004 706.0 308.0 4981.7692307692305 5.782483956155339 1497.0 0.0 1497.0 
28.00059236981081 806.0 361.0 4981.808678500986 6.835036712520685 1497.0 0.0 1497.0 
30.00033353340315 807.0 361.0 4981.792899408284 8.814947478207078 1497.0 0.0 1497.0 
32.00059236981081 1042.0 468.0 4981.8106508875735 7.119881559123523 1497.0 0.0 1497.0 
34.00059236981081 1042.0 468.0 4981.822485207101 9.119881559123522 1497.0 0.0 1497.0 
36.00008466603501 1277.0 589.0 4981.836291913215 8.369130323595607 1497.0 0.0 1497.0 
38.00059236981081 1375.0 624.0 4981.883629191321 9.586274913281116 1497.0 0.0 1497.0 
40.00033353340315 1378.0 625.0 4981.875739644971 11.498830743600566 1497.0 0.0 1497.0 
42.00059236981081 1712.0 768.0 4981.962524654832 9.052173035566389 1497.0 0.0 1497.0 
44.00059236981081 1712.0 768.0 4981.990138067062 11.052173035566389 1497.0 0.0 1497.0 
46.00008466603501 1883.0 861.0 4981.998027613412 9.979637919177822 1497.0 0.0 1497.0 
48.00059236981081 2005.0 918.0 4982.05325443787 10.34135820649645 1497.0 0.0 1497.0 
50.00033353340315 2018.0 926.0 4982.013806706114 12.279185291948158 1497.0 0.0 1497.0 
52.00059236981081 2223.0 1043.0 4982.055226824457 10.68327532867054 1497.0 0.0 1497.0 
54.00059236981081 2223.0 1043.0 4982.074950690336 12.68327532867054 1497.0 0.0 1497.0 
56.00008466603501 2381.0 1144.0 4982.074950690336 11.892811046570356 1497.0 0.0 1497.0 
58.00059236981081 2438.0 1171.0 4982.100591715976 12.501588966478542 1497.0 0.0 1497.0 
60.00033353340315 2444.0 1178.0 4982.0966469428 14.411579373328754 1497.0 0.0 1497.0 
62.00000250614989 2513.0 1277.0 400.0 11.923223335571429 93.0 0.0 0.0 
64.0000025061499 2515.0 1277.0 400.0 13.666225062169366 87.0 0.0 0.0 
66.0000025061499 2590.0 1313.0 400.0 12.035323856915827 74.0 0.0 0.0 
68.0000025061499 2725.0 1371.0 400.0 11.620567973030836 71.0 0.0 0.0 
70.0000025061499 2741.0 1385.0 400.0 12.877452078723588 71.0 0.0 0.0 
72.0000025061499 2841.0 1497.0 400.0 9.801197520461004 55.0 0.0 0.0 
74.0000025061499 2841.0 1497.0 400.0 10.795772571964141 48.0 0.0 0.0 
76.0000025061499 3042.0 1627.0 400.0 8.643226956791144 41.0 0.0 0.0 
78.0000025061499 3083.0 1645.0 400.0 7.265625277599634 27.0 0.0 0.0 
80.0000025061499 3109.0 1670.0 400.0 7.931566508829521 25.0 0.0 0.0 
82.0000025061499 3107.0 1723.0 400.0 5.1865224274097255 15.0 0.0 0.0 
84.0000025061499 3107.0 1723.0 400.0 5.373510240408603 15.0 0.0 0.0 
86.0000025061499 3202.0 1817.0 400.0 3.334384463103669 9.0 0.0 0.0 
88.0000025061499 3198.0 1802.0 400.0 2.662827175883023 3.0 0.0 0.0 
90.0000025061499 3214.0 1813.0 400.0 2.7211684846660704 2.0 0.0 0.0 
92.0000025061499 3571.0 2053.0 400.0 2.3824343289614824 3.0 0.0 0.0 
94.0000025061499 3567.0 2052.0 400.0 2.6307814772235973 2.0 0.0 0.0 
96.0000025061499 3815.0 2249.0 400.0 2.4437298313022793 2.0 0.0 0.0 
98.0000025061499 3942.0 2302.0 400.0 2.4932863749060012 2.0 0.0 0.0 
100.0000025061499 4009.0 2351.0 400.0 2.7257971544003654 2.0 0.0 0.0 
102.0000025061499 4838.0 2707.0 411.32347140039474 2.6033430564856515 7.0 0.0 5.0 
104.0000025061499 4838.0 2707.0 411.3116370808681 2.7892358374813235 7.0 0.0 5.0 
106.0000025061499 5136.0 2878.0 411.34516765285974 2.7533073993955623 8.0 0.0 5.0 
108.0000025061499 5190.0 2895.0 411.32938856015767 3.2989620649192393 8.0 0.0 5.0 
110.0000025061499 5265.0 2969.0 411.32938856015767 3.179521322991709 8.0 0.0 5.0 
112.0000025061499 5526.0 3204.0 411.32938856015767 2.9966206927835626 8.0 0.0 5.0 
114.0000025061499 5545.0 3208.0 411.32938856015767 2.9673048273712914 8.0 0.0 5.0 
116.0000025061499 5922.0 3514.0 411.32938856015767 2.8102064939169105 8.0 0.0 5.0 
118.0000025061499 5983.0 3563.0 411.32938856015767 3.06384793424693 8.0 0.0 5.0 
120.0000025061499 6020.0 3598.0 411.32938856015767 3.2880539035568446 8.0 0.0 5.0 
122.0000025061499 6160.0 3696.0 411.32938856015767 3.173436806901021 8.0 0.0 5.0 
124.0000025061499 6160.0 3696.0 411.32938856015767 3.4707994362219527 8.0 0.0 5.0 
126.0000025061499 6315.0 3807.0 411.32938856015767 3.1962526294553992 8.0 0.0 5.0 
128.00000250614988 6326.0 3811.0 411.32938856015767 3.032454383315364 8.0 0.0 5.0 
130.0000025061499 6366.0 3845.0 411.32938856015767 3.45600318801363 8.0 0.0 5.0 
132.0000025061499 6727.0 3993.0 411.32938856015767 3.1693896385765874 8.0 0.0 5.0 
134.0000025061499 6723.0 3992.0 411.32938856015767 3.524081032770855 8.0 0.0 5.0 
136.0000025061499 6852.0 4129.0 411.3353057199207 3.60249100668433 8.0 0.0 5.0 
138.0000025061499 6857.0 4133.0 411.3116370808681 3.4857642283378274 8.0 0.0 5.0 
140.0000025061499 6884.0 4166.0 411.3116370808681 3.2300539540528677 7.0 0.0 5.0 
142.0000025061499 7122.0 4346.0 411.3116370808681 3.321301218875179 7.0 0.0 5.0 
144.0000025061499 7123.0 4346.0 411.3116370808681 4.030614706861501 7.0 0.0 5.0 
146.0000025061499 7281.0 4492.0 411.3116370808681 3.6810166903592596 7.0 0.0 5.0 
148.0000025061499 7288.0 4494.0 411.3116370808681 3.7208600179672766 7.0 0.0 5.0 
150.0000025061499 7381.0 4586.0 411.3116370808681 4.10904376587192 7.0 0.0 5.0 
152.0000025061499 7471.0 4659.0 411.3116370808681 3.6292132452853227 10.0 0.0 5.0 
154.0000025061499 7468.0 4659.0 411.3116370808681 3.5834765989153192 10.0 0.0 5.0 
156.0000025061499 7863.0 5014.0 411.3116370808681 3.3389536094915098 10.0 0.0 5.0 
158.0000025061499 7933.0 5025.0 411.3116370808681 3.3680773703046367 10.0 0.0 5.0 
160.0000025061499 8059.0 5135.0 411.3116370808681 3.679735731656886 10.0 0.0 5.0 
162.0000025061499 8324.0 5261.0 418.12228796844215 3.702568623154976 13.0 0.0 8.0 
164.0000025061499 8330.0 5262.0 418.0986193293886 4.10251020011315 13.0 0.0 8.0 
166.0000025061499 8620.0 5494.0 424.92110453648866 3.935178214742122 16.0 0.0 11.0 
168.0000025061499 8655.0 5500.0 436.1972386587774 4.301164952139718 21.0 0.0 16.0 
170.0000025061499 8704.0 5540.0 436.2031558185401 4.1778361761886735 23.0 0.0 16.0 
172.0000025061499 8939.0 5654.0 449.891518737672 4.108577979290526 31.0 0.0 22.0 
174.0000025061499 8944.0 5652.0 449.8717948717956 3.960961300554276 31.0 0.0 22.0 
176.0000025061499 9288.0 5935.0 454.43195266272147 3.715053892548327 37.0 0.0 24.0 
178.0000025061499 9379.0 5941.0 454.4477317554244 3.9269237704708995 38.0 0.0 24.0 
180.0000025061499 9446.0 5997.0 454.4595660749505 4.127347543514003 38.0 0.0 24.0 
182.0000025061499 9758.0 6150.0 472.63313609467474 3.771979710535433 45.0 0.0 32.0 
184.0000025061499 9756.0 6150.0 472.5660749506903 4.172645348058238 44.0 0.0 32.0 
186.0000025061499 9993.0 6295.0 472.56213017751463 4.141467352175782 45.0 0.0 32.0 
188.0000025061499 10011.0 6298.0 472.56213017751463 4.530281966813767 45.0 0.0 32.0 
190.0000025061499 10043.0 6330.0 465.78303747534466 4.80192907959152 42.0 0.0 29.0 
192.0000025061499 10092.0 6375.0 463.5147928994084 4.226781295717341 41.0 0.0 28.0 
194.0000025061499 10103.0 6379.0 463.51084812623293 4.136271783379392 41.0 0.0 28.0 
196.0000025061499 10484.0 6642.0 463.5069033530573 4.054235779115285 41.0 0.0 28.0 
198.0000025061499 10543.0 6648.0 463.5187376725837 4.471599816558277 42.0 0.0 28.0 
200.0000025061499 10805.0 6918.0 463.5345167652863 4.76203605595707 41.0 0.0 28.0 
202.0000025061499 11030.0 7129.0 470.3214990138061 3.9496671800467475 46.0 0.0 31.0 
204.0000025061499 11006.0 7128.0 470.23471400394465 4.3194354304913904 47.0 0.0 31.0 
206.0000025061499 11118.0 7247.0 470.2307692307694 4.11330501445343 48.0 0.0 31.0 
208.0000025061499 11113.0 7250.0 474.7593688362926 4.23992146831288 47.0 0.0 33.0 
210.0000025061499 11299.0 7435.0 476.988165680474 4.5112279566099 45.0 0.0 34.0 
212.0000025061499 11476.0 7520.0 479.25443786982277 4.103972402765885 46.0 0.0 35.0 
214.0000025061499 11484.0 7522.0 479.22287968441793 4.713471238803868 46.0 0.0 35.0 
216.0000025061499 12110.0 7970.0 483.77514792899365 4.400669767011047 49.0 0.0 37.0 
218.0000025061499 12174.0 7982.0 483.7593688362926 4.263527388547791 49.0 0.0 37.0 
220.0000025061499 12333.0 8127.0 483.7593688362926 4.533479308899174 49.0 0.0 37.0 
222.0000025061499 12551.0 8219.0 483.7593688362926 4.419305170500819 48.0 0.0 37.0 
224.0000025061499 12552.0 8220.0 483.7593688362926 5.014522978757322 48.0 0.0 37.0 
226.0000025061499 12874.0 8292.0 499.678500986194 4.77478515747951 55.0 0.0 44.0 
228.0000025061499 13159.0 8297.0 508.65483234713906 4.835116697687185 59.0 0.0 48.0 
230.0000025061499 13232.0 8358.0 508.6666666666674 5.056141691129579 59.0 0.0 48.0 
232.0000025061499 13586.0 8400.0 510.91321499013696 4.9653771074512925 59.0 0.0 49.0 
234.0000025061499 13590.0 8412.0 510.9289940828411 4.89702584135291 60.0 0.0 49.0 
236.0000025061499 13764.0 8452.0 513.2110453648911 4.272950069688774 65.0 0.0 50.0 
238.0000025061499 13765.0 8449.0 513.2504930966475 4.691960375759162 65.0 0.0 50.0 
240.0000025061499 13955.0 8613.0 513.2169625246554 5.11165234878328 65.0 0.0 50.0 
242.0000025061499 14420.0 8702.0 529.0946745562136 5.099353289037171 77.0 0.0 57.0 
244.0000025061499 14450.0 8729.0 531.339250493097 5.108075343608008 76.0 0.0 58.0 
246.0000025061499 14672.0 8902.0 533.6094674556208 5.0106386735378745 77.0 0.0 59.0 
248.0000025061499 14664.0 8901.0 535.8500986193295 5.223524896569332 78.0 0.0 60.0 
250.0000025061499 14690.0 8921.0 535.8678500986194 5.188113246173914 77.0 0.0 60.0 
252.0000025061499 14743.0 8955.0 535.852071005917 4.84704808385657 80.0 0.0 60.0 
254.0000025061499 14749.0 8962.0 535.8599605522686 5.265342188560178 85.0 0.0 60.0 
256.0000025061499 14865.0 9084.0 529.0650887573966 5.209233543207251 82.0 0.0 57.0 
258.0000025061499 14816.0 9087.0 529.0650887573966 5.0536757854619765 82.0 0.0 57.0 
260.0000025061499 14949.0 9178.0 524.5463510848126 5.1406112488399085 80.0 0.0 55.0 
262.0000025061499 14969.0 9196.0 524.5739644970417 5.178296092115588 79.0 0.0 55.0 
264.0000025061499 14965.0 9194.0 520.0414201183427 5.449133495332976 77.0 0.0 53.0 
266.0000025061499 15054.0 9296.0 522.2879684418143 5.363308507616424 78.0 0.0 54.0 
268.0000025061499 15090.0 9299.0 529.1183431952659 5.2056942976093135 76.0 0.0 57.0 
270.0000025061499 15231.0 9415.0 522.2840236686391 5.375110291055827 73.0 0.0 54.0 
272.0000025061499 15166.0 9457.0 513.2228796844179 5.310858676995065 67.0 0.0 50.0 
274.0000025061499 15166.0 9461.0 513.187376725839 5.742300863308049 67.0 0.0 50.0 
276.0000025061499 15175.0 9512.0 513.187376725839 5.58923542721681 67.0 0.0 50.0 
278.0000025061499 15176.0 9513.0 515.4595660749513 5.424195636617254 67.0 0.0 51.0 
280.0000025061499 15351.0 9760.0 515.4595660749513 5.582687123421702 66.0 0.0 51.0 
282.0000025061499 15413.0 9791.0 519.9605522682444 5.511152981168719 70.0 0.0 53.0 
284.0000025061499 15351.0 9786.0 519.9861932938858 5.648205920107527 66.0 0.0 53.0 
286.0000025061499 15370.0 9793.0 519.9388560157786 5.284091381936024 65.0 0.0 53.0 
288.0000025061499 15352.0 9794.0 519.9388560157786 5.240697253026355 63.0 0.0 53.0 
290.0000025061499 15374.0 9797.0 526.7712031558185 5.301786015484218 68.0 0.0 56.0 
292.0000025061499 15374.0 9798.0 529.0374753451678 5.495042721286023 69.0 0.0 57.0 
294.0000025061499 15373.0 9796.0 526.7554240631166 5.854664787762975 66.0 0.0 56.0 
296.0000025061499 15385.0 9798.0 519.984220907298 5.81653891222818 62.0 0.0 53.0 
298.0000025061499 15352.0 9794.0 519.9526627218933 5.982533514651121 61.0 0.0 53.0 
300.0000025061499 15303.0 9751.0 515.4240631163711 6.028065718797497 60.0 0.0 51.0 
302.0000025061499 15314.0 9772.0 517.7455621301773 5.412629780315376 65.0 0.0 52.0 
304.0000025061499 15384.0 9795.0 519.9960552268244 5.5315317481008615 67.0 0.0 53.0 
306.0000025061499 15383.0 9798.0 515.4595660749515 5.319375148831936 65.0 0.0 51.0 
308.0000025061499 15377.0 9797.0 515.4556213017743 5.483757960326006 65.0 0.0 51.0 
310.0000025061499 15385.0 9797.0 515.4437869822486 5.5728536942472715 62.0 0.0 51.0 
312.0000025061499 15394.0 9802.0 524.5325443786978 5.519674579932218 65.0 0.0 55.0 
314.0000025061499 15425.0 9806.0 522.2347140039446 5.479724878228464 64.0 0.0 54.0 
316.0000025061499 15432.0 9812.0 504.13609467455683 5.625076578785117 56.0 0.0 46.0 
318.0000025061499 15415.0 9811.0 519.9684418145954 5.720004416612789 63.0 0.0 53.0 
320.0000025061499 15415.0 9809.0 526.8954635108479 5.512994574228185 68.0 0.0 56.0 
322.0000025061499 15412.0 9811.0 526.865877712032 5.571724819549693 68.0 0.0 56.0 
324.0000025061499 15422.0 9811.0 524.558185404339 6.052752023682261 65.0 0.0 55.0 
326.0000025061499 15398.0 9814.0 524.5621301775146 5.739469403312204 64.0 0.0 55.0 
328.0000025061499 15448.0 9818.0 524.5779092702177 6.094826650335782 64.0 0.0 55.0 
330.0000025061499 15434.0 9817.0 517.785009861933 6.375822059935697 63.0 0.0 52.0 
332.0000025061499 15504.0 9797.0 533.7475345167662 6.461451066944211 77.0 0.0 59.0 
334.0000025061499 15455.0 9806.0 529.1321499013806 5.66177272165869 75.0 0.0 57.0 
336.0000025061499 15582.0 9843.0 542.7731755424076 5.151841373578398 80.0 0.0 63.0 
338.0000025061499 15677.0 9856.0 553.998027613411 5.153506276519404 85.0 0.0 68.0 
340.0000025061499 15635.0 9854.0 549.4733727810647 5.419992165957956 82.0 0.0 66.0 
342.0000025061499 15724.0 9863.0 556.3195266272187 4.994832623964446 84.0 0.0 69.0 
344.0000025061499 15724.0 9870.0 556.2998027613411 5.430195394512762 84.0 0.0 69.0 
346.0000025061499 15729.0 9878.0 558.5621301775152 5.673397703936995 86.0 0.0 70.0 
348.0000025061499 15720.0 9879.0 560.8500986193299 5.973700307320463 91.0 0.0 71.0 
350.0000025061499 15678.0 9875.0 560.8974358974348 6.30438775885284 89.0 0.0 71.0 
352.0000025061499 15890.0 9900.0 579.0315581854038 5.67711845938075 96.0 0.0 79.0 
354.0000025061499 15894.0 9900.0 579.0197238658787 5.745058251198546 96.0 0.0 79.0 
356.0000025061499 16065.0 9914.0 572.2169625246537 5.493610151916926 96.0 0.0 76.0 
358.0000025061499 16059.0 9913.0 574.4694280078907 5.685833237829779 96.0 0.0 77.0 
360.0000025061499 16060.0 9913.0 578.9940828402376 6.083645830890444 102.0 0.0 79.0 
362.0000025061499 16165.0 9923.0 597.2268244575916 5.574027378878752 111.0 0.0 87.0 
364.0000025061499 16031.0 9887.0 597.1558185404351 5.441092792839518 107.0 0.0 87.0 
366.0000025061499 16064.0 9903.0 597.1341222879671 5.489985382552989 107.0 0.0 87.0 
368.0000025061499 16103.0 9924.0 597.1715976331384 5.5431105206881375 107.0 0.0 87.0 
370.0000025061499 16086.0 9924.0 597.1735700197262 5.585618593782828 107.0 0.0 87.0 
372.0000025061499 16239.0 9938.0 615.4102564102583 5.4268466134573945 118.0 0.0 95.0 
374.0000025061499 16209.0 9936.0 613.0611439842228 5.766572285254009 118.0 0.0 94.0 
376.0000025061499 16317.0 9944.0 624.4516765286008 5.6968310674501375 124.0 0.0 99.0 
378.0000025061499 16385.0 9949.0 635.6982248520728 5.6015621154603545 133.0 0.0 104.0 
380.0000025061499 16401.0 9991.0 626.6686390532532 5.825931211281764 128.0 0.0 100.0 
382.0000025061499 16390.0 10006.0 624.3372781065071 5.855338940734303 127.0 0.0 99.0 
384.0000025061499 16379.0 10006.0 624.2721893491139 5.963861060653195 126.0 0.0 99.0 
386.0000025061499 16310.0 10004.0 624.307692307694 5.705315000446408 122.0 0.0 99.0 
388.0000025061499 16322.0 10006.0 624.2524654832329 5.841580816997885 121.0 0.0 99.0 
390.0000025061499 16327.0 10007.0 621.988165680471 5.992831434791253 119.0 0.0 98.0 
392.0000025061499 16313.0 10008.0 635.5956607495087 6.086656588431538 123.0 0.0 104.0 
394.0000025061499 16305.0 10015.0 642.2406311637106 6.38314375195925 127.0 0.0 107.0 
396.0000025061499 16309.0 9990.0 644.538461538458 6.370945739544214 124.0 0.0 108.0 
398.0000025061499 16323.0 10004.0 644.5739644970395 5.865145929668269 125.0 0.0 108.0 
400.0000025061499 16336.0 10023.0 640.065088757394 5.391130399403981 123.0 0.0 106.0 
402.0000025061499 16459.0 10026.0 637.9408284023671 5.280427914067265 125.0 0.0 105.0 
404.0000025061499 16463.0 10027.0 637.8540433925028 5.088625871362203 126.0 0.0 105.0 
406.0000025061499 16494.0 10025.0 631.134122287967 5.189609459366086 122.0 0.0 102.0 
408.0000025061499 16465.0 10031.0 626.5384615384581 5.43961188865347 123.0 0.0 100.0 
410.0000025061499 16512.0 10035.0 631.0512820512828 5.391843844895654 125.0 0.0 102.0 
412.0000025061499 16553.0 10039.0 633.3096646942765 5.419765334389077 125.0 0.0 103.0 
414.0000025061499 16621.0 10044.0 635.5759368836286 5.541333784653474 128.0 0.0 104.0 
416.0000025061499 16599.0 10044.0 635.6074950690315 5.756933490006316 127.0 0.0 104.0 
418.0000025061499 16600.0 10044.0 633.2879684418143 6.01554734350259 124.0 0.0 103.0 
420.0000025061499 16680.0 10046.0 640.1203155818563 5.991334525754611 128.0 0.0 106.0 
422.0000025061499 16835.0 10059.0 640.2721893491139 5.5608859240019 127.0 0.0 106.0 
424.0000025061499 16828.0 10058.0 640.2130177514808 5.978402998103701 127.0 0.0 106.0 
426.0000025061499 16806.0 10062.0 647.0493096646921 5.660029688696333 130.0 0.0 109.0 
428.0000025061499 16753.0 10030.0 647.0197238658799 5.8302567842434305 131.0 0.0 109.0 
430.0000025061499 16729.0 10040.0 642.4398422090717 5.687475472610354 128.0 0.0 107.0 
432.0000025061499 16636.0 10059.0 644.7061143984241 5.384162471259016 129.0 0.0 108.0 
434.0000025061499 16617.0 10060.0 642.4319526627215 5.449301310872833 125.0 0.0 107.0 
436.0000025061499 16898.0 10085.0 653.8205128205109 5.134749421031951 131.0 0.0 112.0 
438.0000025061499 17164.0 10084.0 660.5641025640996 5.2425241401418265 133.0 0.0 115.0 
440.0000025061499 17163.0 10084.0 644.6725838264326 5.480059441907936 125.0 0.0 108.0 
442.0000025061499 17664.0 10105.0 678.7238658777126 5.487216889634483 154.0 0.0 123.0 
444.0000025061499 17710.0 10155.0 678.6548323471393 6.014109941087979 160.0 0.0 123.0 
446.0000025061499 18684.0 10200.0 731.0729783037482 5.519223133174286 186.0 0.0 146.0 
448.0000025061499 18715.0 10204.0 724.1321499013786 5.649890861316396 183.0 0.0 143.0 
450.0000025061499 18667.0 10203.0 696.9980276134108 5.875299276749108 170.0 0.0 131.0 
452.0000025061499 18561.0 10199.0 699.1301775147931 5.440918748133212 169.0 0.0 132.0 
454.0000025061499 18588.0 10199.0 701.2583826430005 5.603244208844125 165.0 0.0 133.0 
456.0000025061499 18632.0 10198.0 701.2958579881664 5.666116427664363 164.0 0.0 133.0 
458.0000025061499 18641.0 10200.0 699.0453648915192 5.965502561316926 167.0 0.0 132.0 
460.0000025061499 18651.0 10169.0 694.497041420118 6.237915137638247 167.0 0.0 130.0 
462.0000025061499 18683.0 10184.0 701.2840236686369 5.478116019913118 169.0 0.0 133.0 
464.0000025061499 18743.0 10206.0 701.260355029586 5.79567168941221 169.0 0.0 133.0 
466.0000025061499 18795.0 10211.0 712.6804733727823 5.624235567801547 174.0 0.0 138.0 
468.0000025061499 18864.0 10218.0 714.8717948717956 5.836628818099823 176.0 0.0 139.0 
470.0000025061499 18870.0 10217.0 714.8382642998039 5.952205808667281 176.0 0.0 139.0 
472.0000025061499 18873.0 10224.0 739.863905325443 5.792286616821853 194.0 0.0 150.0 
474.0000025061499 18868.0 10226.0 744.2485207100584 5.864967136185274 193.0 0.0 152.0 
476.0000025061499 18369.0 10209.0 746.5364891518732 5.839662315771683 188.0 0.0 153.0 
478.0000025061499 18348.0 10217.0 746.4674556213007 5.8057257101967075 187.0 0.0 153.0 
480.0000025061499 18445.0 10246.0 753.3096646942801 5.926631334523346 191.0 0.0 156.0 
482.0000025061499 18607.0 10258.0 787.3274161735707 5.4848700959588035 202.0 0.0 171.0 
484.0000025061499 18579.0 10257.0 787.179487179485 5.775295271103211 200.0 0.0 171.0 
486.0000025061499 18485.0 10253.0 784.9230769230792 5.693154018857128 201.0 0.0 170.0 
488.0000025061499 18424.0 10253.0 784.9211045364901 5.765080341861037 206.0 0.0 170.0 
490.0000025061499 18372.0 10251.0 760.0532544378715 6.109727428050253 194.0 0.0 159.0 
492.0000025061499 18270.0 10215.0 760.0532544378715 6.002389053351504 194.0 0.0 159.0 
494.0000025061499 18320.0 10232.0 766.8757396449697 5.829359135229419 197.0 0.0 162.0 
496.0000025061499 18328.0 10249.0 748.7889546351065 5.637143221226845 189.0 0.0 154.0 
498.0000025061499 18375.0 10253.0 762.3905325443793 5.693209582911319 191.0 0.0 160.0 
500.0000025061499 18446.0 10259.0 762.4240631163711 5.734689468936068 193.0 0.0 160.0 
502.0000025061499 18500.0 10257.0 762.4220907297819 5.534010247682922 194.0 0.0 160.0 
504.0000025061499 18471.0 10255.0 762.4477317554256 5.871195048401394 194.0 0.0 160.0 
506.0000025061499 18375.0 10251.0 771.4950690335328 5.371375038553655 201.0 0.0 164.0 
508.0000025061499 18380.0 10254.0 775.9211045364902 5.752626232474377 204.0 0.0 166.0 
510.0000025061499 18333.0 10241.0 735.1814595660748 6.096671298707262 185.0 0.0 148.0 
512.0000025061499 18006.0 10230.0 739.767258382643 6.02221603110638 188.0 0.0 150.0 
514.0000025061498 18003.0 10231.0 735.0966469428005 6.1276626536041 184.0 0.0 148.0 
516.0000025061498 18041.0 10234.0 728.2761341222883 5.905545532269067 181.0 0.0 145.0 
518.0000025061498 18100.0 10238.0 728.3392504930971 5.876509380973694 178.0 0.0 145.0 
520.0000025061498 18162.0 10240.0 730.6489151873769 6.1642620067029785 178.0 0.0 146.0 
522.0000025061498 18093.0 10241.0 744.2761341222889 5.850333882204461 181.0 0.0 152.0 
524.0000025061498 18051.0 10208.0 744.0946745562112 5.892513092022428 181.0 0.0 152.0 
526.0000025061498 18017.0 10218.0 737.3274161735702 5.212358098289067 178.0 0.0 149.0 
528.0000025061498 18068.0 10236.0 732.7928994082819 5.662251163465863 178.0 0.0 147.0 
530.0000025061498 18030.0 10232.0 735.1104536489134 5.6524933174486325 174.0 0.0 148.0 
532.0000025061498 17969.0 10231.0 730.538461538459 5.770968890795719 172.0 0.0 146.0 
534.0000025061498 17956.0 10228.0 716.9171597633152 5.780832934531311 171.0 0.0 140.0 
536.0000025061498 17920.0 10225.0 671.6686390532541 5.630910062342036 150.0 0.0 120.0 
538.0000025061498 17914.0 10229.0 669.4260355029592 5.858450538623074 147.0 0.0 119.0 
540.0000025061498 17954.0 10226.0 664.8658777120334 5.83427831633117 149.0 0.0 117.0 
542.0000025061498 17916.0 10227.0 653.5641025641008 5.568023736269348 142.0 0.0 112.0 
544.0000025061498 17895.0 10224.0 653.5325443786971 5.894874442859239 143.0 0.0 112.0 
546.0000025061498 17871.0 10223.0 644.4871794871829 5.684964834500249 140.0 0.0 108.0 
548.0000025061498 17861.0 10221.0 646.8027613412219 5.789441417130231 140.0 0.0 109.0 
550.0000025061498 17860.0 10218.0 651.2583826430013 5.963584826126938 141.0 0.0 111.0 
552.0000025061498 17868.0 10217.0 653.5108481262338 5.854012412026802 143.0 0.0 112.0 
554.0000025061498 17865.0 10216.0 653.4950690335331 6.029259115931738 144.0 0.0 112.0 
556.0000025061498 17810.0 10183.0 655.7534516765276 6.138881689215043 144.0 0.0 113.0 
558.0000025061498 17794.0 10196.0 660.3412228796855 5.649838310651463 142.0 0.0 115.0 
560.0000025061498 17826.0 10216.0 662.5285996055247 5.687047880100569 146.0 0.0 116.0 
562.0000025061498 17925.0 10229.0 655.7100591715952 5.4724447085896895 143.0 0.0 113.0 
564.0000025061498 17898.0 10226.0 648.9309664694263 5.629684759805853 137.0 0.0 110.0 
566.0000025061498 17878.0 10224.0 637.6291913215018 5.509829214170482 132.0 0.0 105.0 
568.0000025061498 17873.0 10226.0 637.6311637080898 5.594436164406379 136.0 0.0 105.0 
570.0000025061498 17914.0 10228.0 590.1459566074974 5.627095421872733 112.0 0.0 84.0 
572.0000025061498 18163.0 10256.0 610.5325443786968 5.512627222951967 119.0 0.0 93.0 
574.0000025061498 18126.0 10254.0 610.5147928994076 5.554018022828417 118.0 0.0 93.0 
576.0000025061498 18133.0 10256.0 612.7771203155808 5.673283278388023 119.0 0.0 94.0 
578.0000025061498 18094.0 10254.0 608.197238658778 5.894167701395459 114.0 0.0 92.0 
580.0000025061498 18067.0 10254.0 608.1873767258396 5.9425479241213 114.0 0.0 92.0 
582.0000025061498 18063.0 10253.0 601.4595660749528 5.716453925989393 118.0 0.0 89.0 
584.0000025061498 18064.0 10288.0 599.2228796844194 5.80157417176485 120.0 0.0 88.0 
586.0000025061498 18300.0 10319.0 606.0729783037453 5.5634816158682066 123.0 0.0 91.0 
588.0000025061498 18257.0 10287.0 594.6982248520734 5.8098600863636864 115.0 0.0 86.0 
590.0000025061498 18262.0 10299.0 594.6863905325442 5.6742960029285765 116.0 0.0 86.0 
592.0000025061498 18350.0 10321.0 601.4970414201159 5.373873565885752 118.0 0.0 89.0 
594.0000025061498 18396.0 10324.0 601.4832347140043 5.443124983447365 117.0 0.0 89.0 
596.0000025061498 18395.0 10323.0 599.2386587771218 5.311178780537296 117.0 0.0 88.0 
598.0000025061498 18404.0 10325.0 612.8698224852047 5.487416122487452 121.0 0.0 94.0 
600.0000025061498 18485.0 10332.0 617.3905325443798 5.747250253832345 122.0 0.0 96.0 
602.0000025061498 18434.0 10329.0 619.662721893493 5.711169469789634 127.0 0.0 97.0 
604.0000025061498 18526.0 10334.0 635.5621301775171 5.753079484182507 134.0 0.0 104.0 
606.0000025061498 18559.0 10336.0 635.5956607495084 5.6585253997280525 135.0 0.0 104.0 
608.0000025061498 18572.0 10337.0 624.333333333335 5.77419208141409 132.0 0.0 99.0 
610.0000025061498 18585.0 10336.0 622.0493096646926 5.972165006814374 134.0 0.0 98.0 
612.0000025061498 18621.0 10338.0 642.60157790927 5.843408478705646 140.0 0.0 107.0 
614.0000025061498 18614.0 10338.0 644.7297830374765 6.044093331128554 142.0 0.0 108.0 
616.0000025061498 18521.0 10329.0 642.5226824457576 6.028281142456817 135.0 0.0 107.0 
618.0000025061498 18576.0 10335.0 644.6568047337246 6.043211684051817 139.0 0.0 108.0 
620.0000025061498 18585.0 10305.0 644.692307692306 6.09204539341161 137.0 0.0 108.0 
622.0000025061498 18990.0 10331.0 656.0611439842226 5.4676571799991205 150.0 0.0 113.0 
624.0000025061498 19077.0 10349.0 667.4339250493107 5.491406787955895 151.0 0.0 118.0 
626.0000025061498 19059.0 10348.0 669.664694280081 5.504752098768372 153.0 0.0 119.0 
628.0000025061498 19059.0 10346.0 678.7396449704146 5.6444530861595075 159.0 0.0 123.0 
630.0000025061498 19026.0 10343.0 678.7455621301773 5.838778625114481 159.0 0.0 123.0 
632.0000025061498 19126.0 10344.0 694.7889546351079 5.618717042231498 178.0 0.0 130.0 
634.0000025061498 19091.0 10342.0 696.9388560157788 5.826491203325477 182.0 0.0 131.0 
636.0000025061498 19289.0 10347.0 708.311637080868 5.773194560296551 178.0 0.0 136.0 
638.0000025061498 19429.0 10352.0 719.6489151873765 6.01320366431468 182.0 0.0 141.0 
640.0000025061498 19459.0 10353.0 717.2859960552248 6.2193289419842825 187.0 0.0 140.0 
642.0000025061498 19380.0 10347.0 719.5976331360943 5.954435308941639 191.0 0.0 141.0 
644.0000025061498 19357.0 10344.0 719.6114398422102 5.9984137920929035 192.0 0.0 141.0 
646.0000025061498 19388.0 10342.0 721.8658777120329 5.82992871240506 191.0 0.0 142.0 
648.0000025061498 19407.0 10340.0 724.1814595660751 5.942927270270827 189.0 0.0 143.0 
650.0000025061498 19352.0 10339.0 730.9921104536473 5.746990572628215 191.0 0.0 146.0 
652.0000025061498 19054.0 10296.0 739.9881656804736 5.889581989592742 194.0 0.0 150.0 
654.0000025061498 18950.0 10307.0 744.3353057199189 5.830422649603545 198.0 0.0 152.0 
656.0000025061498 19003.0 10330.0 746.5857988165667 5.7561048923590805 197.0 0.0 153.0 
658.0000025061498 19121.0 10336.0 769.2800788954614 6.170103010463874 206.0 0.0 163.0 
660.0000025061498 19166.0 10337.0 766.9447731755425 6.051150288644539 206.0 0.0 162.0 
662.0000025061498 19129.0 10337.0 773.765285996057 5.604713674578693 211.0 0.0 165.0 
664.0000025061498 19131.0 10338.0 773.7712031558214 5.570004864489577 208.0 0.0 165.0 
#####################################################################
# End of data export. Simulation finished at: 2019-03-08T16:28+0000 #
#####################################################################
