#####################################################################
# Alchemist log file - simulation started at: 2019-03-13T21:58+0000 #
#####################################################################
# seed = 5.0, bandwidth = 1.0E8, accessPointCount = 274.2481756762073, baserange = 562.341325190349
#
# The columns have the following meaning: 
# time neighbor_count[Sum] <value>@neighbor_count[Sum] packet_size[Mean] mean_delay[Mean] crowd[Sum] overcrowded[Sum] risk[Sum] 
0.0 NaN NaN NaN NaN NaN NaN NaN 
2.000101793669918 4802.0 2093.0 4985.072840203275 0.4765064138069037 1497.0 0.0 1497.0 
4.000101793669918 8909.0 2198.0 4986.583850931677 0.5308782257873288 1497.0 0.0 1497.0 
6.000101793669918 12300.0 2219.0 4987.948051948052 0.5531552271697946 1497.0 0.0 1497.0 
8.000101793669918 15545.0 2195.0 4988.9621682665165 0.5629032687398957 1497.0 0.0 1497.0 
10.000101793669918 18060.0 2186.0 4990.064370412197 0.5708674737604799 1497.0 0.0 1497.0 
12.000101793669918 19074.0 2137.0 4990.802936194241 0.563632476350955 1496.0 1.0 1496.0 
14.000101793669918 18430.0 2066.0 4990.891022021457 0.5006817303922214 1495.0 2.0 1495.0 
16.00010179366992 18433.0 2066.0 4990.680971202711 0.5003599744581557 1493.0 4.0 1493.0 
18.00010179366992 18490.0 2068.0 4990.814229249012 0.501756349443292 1496.0 1.0 1496.0 
20.00010179366992 18452.0 2068.0 4990.9429700734045 0.5038226941772331 1493.0 4.0 1493.0 
22.00010179366992 18424.0 2066.0 4990.782608695652 0.5006184649949798 1495.0 2.0 1495.0 
24.00010179366992 18426.0 2066.0 4990.400903444382 0.5006119481908952 1493.0 4.0 1493.0 
26.00010179366992 18500.0 2067.0 4990.378317334839 0.5006458529002095 1495.0 2.0 1495.0 
28.00010179366992 18502.0 2068.0 4990.507058159232 0.5003165289011076 1492.0 5.0 1492.0 
30.00010179366992 18504.0 2068.0 4990.69678147939 0.5007547636152423 1493.0 4.0 1493.0 
32.00010179366992 18515.0 2069.0 4990.726143421795 0.5021534799321734 1492.0 5.0 1492.0 
34.00010179366992 18512.0 2068.0 4990.604178430265 0.5024775078137985 1491.0 6.0 1491.0 
36.00010179366992 18442.0 2067.0 4990.425748164878 0.5001174116585294 1490.0 7.0 1490.0 
38.00010179366992 18444.0 2067.0 4990.60643704122 0.5008258799329041 1489.0 8.0 1489.0 
40.00010179366992 18442.0 2066.0 4990.640316205534 0.5024875386527267 1490.0 7.0 1490.0 
42.00010179366992 18440.0 2067.0 4990.59062676454 0.5014373756153002 1490.0 7.0 1490.0 
44.00010179366992 18421.0 2065.0 4990.475437605873 0.5021761012238068 1490.0 7.0 1490.0 
46.00010179366992 18405.0 2065.0 4990.441558441558 0.5013818689367598 1490.0 7.0 1490.0 
48.00010179366992 18423.0 2065.0 4990.466403162055 0.5009739631488156 1490.0 7.0 1490.0 
50.00010179366992 18526.0 2067.0 4990.692264257482 0.5037258851959613 1490.0 7.0 1490.0 
52.00010179366992 18446.0 2065.0 4990.629023150762 0.5009016001105069 1490.0 7.0 1490.0 
54.00010179366992 18555.0 2066.0 4990.355731225296 0.5015327213047791 1490.0 7.0 1490.0 
56.00010179366992 18554.0 2067.0 4990.290231507623 0.5001979870136493 1490.0 7.0 1490.0 
58.00010179366992 18556.0 2067.0 4990.495765104461 0.5002343461991211 1490.0 7.0 1490.0 
60.00010179366992 18575.0 2068.0 4988.074534161491 0.5021407581290946 1489.0 7.0 1489.0 
62.00010179366992 18575.0 2068.0 1310.3421795595698 0.5027755783030545 730.0 8.0 342.0 
64.00010179366993 18561.0 2067.0 1307.7176736307183 0.5009577522432337 579.0 9.0 340.0 
66.00010179366993 18561.0 2067.0 1307.4737436476562 0.5003695997978491 535.0 16.0 333.0 
68.00010179366993 18574.0 2069.0 1307.3833992094899 0.5041383809097942 500.0 15.0 334.0 
70.00010179366993 18541.0 2067.0 1304.6640316205546 0.5033876321334134 474.0 24.0 324.0 
72.00010179366993 18471.0 2067.0 1296.8989271597932 0.5011704062591036 474.0 22.0 323.0 
74.00010179366993 18473.0 2067.0 1296.7679277244467 0.5010593754889858 474.0 18.0 327.0 
76.00010179366993 18474.0 2067.0 1296.8130999435327 0.5007103848377075 465.0 26.0 319.0 
78.00010179366993 18606.0 2068.0 1299.2840203274995 0.504571738600463 465.0 23.0 323.0 
80.00010179366993 18595.0 2068.0 1299.2094861660037 0.5029894528281288 467.0 17.0 329.0 
82.00010179366993 18560.0 2067.0 1299.3450028232603 0.5001397980372021 457.0 27.0 319.0 
84.00010179366993 18574.0 2068.0 1299.2998306041798 0.5014147821777675 459.0 22.0 324.0 
86.00010179366993 18563.0 2067.0 1299.2230378317295 0.5002554204116365 463.0 18.0 328.0 
88.00010179366993 18567.0 2067.0 1301.8430265386799 0.5004208786413314 456.0 26.0 321.0 
90.00010179366993 18566.0 2067.0 1301.8249576510411 0.5001380286526146 460.0 23.0 324.0 
92.00010179366993 18582.0 2068.0 1301.8159232072264 0.5016970131438342 466.0 17.0 330.0 
94.00010179366993 18548.0 2067.0 1301.7662337662293 0.5001367703552997 466.0 18.0 329.0 
96.00010179366993 18548.0 2067.0 1301.8339920948652 0.5001503035397635 468.0 15.0 332.0 
98.00010179366993 18560.0 2068.0 1301.7210615471529 0.5019243621454068 467.0 17.0 330.0 
100.00010179366993 18564.0 2068.0 1301.761716544322 0.5021705115719635 460.0 24.0 323.0 
102.00010179366993 18544.0 2067.0 1301.770750988146 0.5003309922619528 458.0 24.0 323.0 
104.00010179366993 18540.0 2067.0 1304.3478260869595 0.501305992629779 463.0 17.0 331.0 
106.00010179366993 18496.0 2066.0 1301.8475437605907 0.5026324314242916 453.0 28.0 319.0 
108.00010179366993 18475.0 2067.0 1301.8023715415006 0.5034223922729093 456.0 23.0 324.0 
110.00010179366993 18470.0 2065.0 1301.750423489555 0.5000804152703571 461.0 18.0 329.0 
112.00010179366993 18640.0 2068.0 1301.7481648785968 0.5026119218575342 454.0 27.0 320.0 
114.00010179366993 18506.0 2067.0 1301.743647656689 0.5013872275909779 455.0 24.0 323.0 
116.00010179366993 18525.0 2066.0 1301.7481648785968 0.5003600885665264 462.0 17.0 330.0 
118.00010179366993 18604.0 2068.0 1301.7165443252418 0.5047444036455323 454.0 28.0 319.0 
120.00010179366993 18378.0 2066.0 1301.6420101637498 0.5008542434838151 457.0 23.0 324.0 
122.00010179366993 18420.0 2067.0 1301.687182382836 0.5010033386768061 462.0 18.0 329.0 
124.00010179366993 18432.0 2067.0 1299.11462450593 0.5002971403398974 455.0 27.0 319.0 
126.00010179366993 18427.0 2067.0 1299.1394692264282 0.5013397155677219 456.0 24.0 322.0 
128.00010179366993 18375.0 2066.0 1296.535290796158 0.49980674346837206 463.0 17.0 328.0 
130.00010179366993 18390.0 2067.0 1296.5827216261969 0.5010747631677196 454.0 28.0 317.0 
132.00010179366993 18386.0 2067.0 1296.5691699604713 0.5021376849801782 457.0 23.0 322.0 
134.00010179366993 18354.0 2066.0 1296.5127046866216 0.501091579567904 458.0 18.0 327.0 
136.00010179366993 18258.0 2066.0 1299.1191417278408 0.5005708356995481 451.0 27.0 319.0 
138.00010179366993 18312.0 2066.0 1296.5465838509347 0.49991572411535756 452.0 24.0 321.0 
140.00010179366993 18307.0 2066.0 1296.4675324675316 0.500455997859217 460.0 17.0 328.0 
142.00010179366993 18315.0 2067.0 1296.562394127615 0.5014144615837235 450.0 28.0 317.0 
144.00010179366993 18453.0 2068.0 1296.5849802371554 0.5020640961954832 453.0 23.0 322.0 
146.00010179366993 18348.0 2066.0 1293.9853190288018 0.4999669953969293 457.0 18.0 326.0 
148.00010179366993 18356.0 2066.0 1291.4579333709755 0.5002355628744215 446.0 30.0 313.0 
150.00010179366993 18336.0 2066.0 1288.7566346696794 0.5006066578332737 451.0 24.0 318.0 
152.00010179366993 18318.0 2066.0 1286.1795595708663 0.5002302393216482 454.0 20.0 321.0 
154.00010179366993 18319.0 2066.0 1286.2292490118539 0.49998471317590076 444.0 28.0 313.0 
156.00010179366993 18326.0 2066.0 1288.856013551664 0.5012524619293894 445.0 26.0 316.0 
158.00010179366993 18254.0 2067.0 1291.3879164313971 0.5049801346985118 453.0 22.0 321.0 
160.00010179366993 18147.0 2066.0 1291.3969508752155 0.5029099327875379 449.0 27.0 316.0 
162.00010179366993 18112.0 2065.0 1288.8266516092585 0.5000048660851082 451.0 24.0 318.0 
164.00010179366993 18263.0 2067.0 1288.7859966120852 0.4998377399260518 459.0 17.0 325.0 
166.00010179366993 18287.0 2068.0 1288.7950310559038 0.49993552913084444 449.0 28.0 314.0 
168.00010179366993 18401.0 2070.0 1299.2569169960516 0.5039983529730215 453.0 23.0 323.0 
170.00010179366993 18345.0 2069.0 1299.1597967250104 0.5026096164291004 460.0 18.0 328.0 
172.00010179366993 18339.0 2068.0 1299.1823828345596 0.5002318475391682 450.0 27.0 319.0 
174.00010179366993 18392.0 2069.0 1301.8181818181847 0.5001411709886012 453.0 24.0 323.0 
176.00010179366993 18479.0 2071.0 1296.6233766233754 0.5004227836801843 460.0 17.0 328.0 
178.00010179366993 18545.0 2070.0 1299.2411067193714 0.50076178445059 451.0 28.0 318.0 
180.00010179366993 18567.0 2071.0 1299.1914172783747 0.5014487997196423 457.0 23.0 323.0 
182.00010179366993 18566.0 2070.0 1299.1281761716557 0.5003800495299222 462.0 18.0 328.0 
184.00010179366993 18569.0 2072.0 1301.7910784867286 0.5019653993225283 454.0 27.0 320.0 
186.00010179366993 18549.0 2073.0 1299.2523997741355 0.5027867383856979 459.0 20.0 326.0 
188.00010179366993 18554.0 2070.0 1304.447204968941 0.50178011700512 461.0 17.0 331.0 
190.00010179366993 18543.0 2070.0 1301.7752682100527 0.5001306801361889 454.0 25.0 322.0 
192.00010179366993 18542.0 2070.0 1301.8385093167724 0.5001107860314439 455.0 23.0 324.0 
194.00010179366993 18543.0 2070.0 1304.4155844155857 0.5003605358120202 462.0 16.0 332.0 
196.00010179366993 18539.0 2070.0 1304.4788255223048 0.5000803327464138 452.0 27.0 321.0 
198.00010179366993 18546.0 2070.0 1307.0220214568049 0.5003153467600486 457.0 22.0 327.0 
200.00010179366993 18535.0 2070.0 1312.2055335968405 0.5004146503721395 463.0 17.0 334.0 
202.00010179366993 18534.0 2070.0 1312.2123094296978 0.5010128940807052 454.0 27.0 324.0 
204.00010179366993 18530.0 2070.0 1312.2574816487838 0.5046050652307593 454.0 25.0 326.0 
206.00010179366993 18431.0 2068.0 1309.6713721061558 0.5003434423147894 461.0 18.0 332.0 
208.00010179366993 18429.0 2068.0 1307.1349520045203 0.5012644470366552 454.0 28.0 321.0 
210.00010179366993 18401.0 2068.0 1304.4065499717706 0.5009940797390685 456.0 24.0 324.0 
212.00010179366993 18396.0 2068.0 1304.3929983060398 0.49992809712500186 461.0 17.0 331.0 
214.00010179366993 18483.0 2070.0 1306.9565217391278 0.5015178237891623 451.0 28.0 321.0 
216.00010179366993 18391.0 2069.0 1304.417843026535 0.5001244588774664 454.0 23.0 325.0 
218.00010179366993 18398.0 2069.0 1301.8023715415006 0.5014441559851187 458.0 18.0 329.0 
220.00010179366993 18374.0 2071.0 1301.7368718238317 0.5033498708790348 450.0 27.0 320.0 
222.00010179366993 18359.0 2070.0 1301.750423489555 0.5024799682409581 452.0 25.0 322.0 
224.00010179366993 18436.0 2074.0 1301.7707509881457 0.5036420844965186 462.0 17.0 330.0 
226.00010179366993 18410.0 2071.0 1299.1914172783747 0.5037823134005421 451.0 28.0 318.0 
228.00010179366993 18375.0 2070.0 1299.2140033879145 0.5014112482988728 455.0 23.0 323.0 
230.00010179366993 18325.0 2071.0 1301.7684923771876 0.5031169649936728 457.0 18.0 329.0 
232.00010179366993 18359.0 2071.0 1304.4901185770723 0.5004155313588079 448.0 27.0 321.0 
234.00010179366993 18367.0 2071.0 1304.4697910784898 0.5004361325865544 450.0 24.0 324.0 
236.00010179366993 18419.0 2073.0 1301.7820440429098 0.5021312454347188 457.0 17.0 330.0 
238.00010179366993 18448.0 2074.0 1299.1259175606972 0.5068125389897846 449.0 28.0 318.0 
240.00010179366993 18275.0 2070.0 1299.1643139469268 0.5023024337044829 452.0 23.0 323.0 
242.00010179366993 18279.0 2071.0 1299.1326933935625 0.5016483152530321 456.0 18.0 328.0 
244.00010179366993 18269.0 2072.0 1296.6414455110087 0.5043021671336863 449.0 27.0 318.0 
246.00010179366993 18300.0 2071.0 1296.580463015248 0.5013974514065055 451.0 24.0 321.0 
248.00010179366993 18331.0 2072.0 1291.4511575381164 0.5021402954540068 457.0 17.0 326.0 
250.00010179366993 18319.0 2071.0 1291.403726708072 0.5008463193491474 445.0 28.0 315.0 
252.00010179366993 18318.0 2072.0 1288.8243929983093 0.5036428459192461 449.0 23.0 319.0 
254.00010179366993 18288.0 2072.0 1296.6030491247845 0.5044263219944558 457.0 18.0 327.0 
256.00010179366996 18161.0 2070.0 1294.0688876341023 0.502555026057283 451.0 27.0 317.0 
258.00010179366996 18169.0 2071.0 1294.0079051383423 0.5018039792509041 453.0 24.0 320.0 
260.00010179366996 18171.0 2071.0 1293.97176736307 0.5033242069828973 459.0 18.0 326.0 
262.00010179366996 18133.0 2071.0 1291.3675889328094 0.5034408673098908 459.0 19.0 324.0 
264.00010179366996 18123.0 2071.0 1301.8136645962745 0.5015997465796832 460.0 18.0 329.0 
266.00010179366996 18109.0 2070.0 1301.7617165443223 0.5038383068655965 458.0 19.0 328.0 
268.00010179366996 18047.0 2071.0 1299.1710897797834 0.5032122118528983 458.0 18.0 328.0 
270.00010179366996 18003.0 2073.0 1301.6962168266539 0.506179715958136 456.0 19.0 328.0 
272.00010179366996 17951.0 2070.0 1301.7346132128748 0.5010514059172538 457.0 18.0 329.0 
274.00010179366996 17968.0 2071.0 1301.74138904574 0.5021234800671868 455.0 19.0 328.0 
276.00010179366996 18035.0 2072.0 1301.8136645962743 0.5014124485327448 456.0 18.0 329.0 
278.00010179366996 18073.0 2072.0 1301.7233201581014 0.5021121035031357 459.0 19.0 328.0 
280.00010179366996 18066.0 2071.0 1299.0536420101598 0.5032173647995923 461.0 18.0 328.0 
282.00010179366996 17977.0 2070.0 1299.042348955396 0.5011071774692056 460.0 19.0 327.0 
284.00010179366996 17992.0 2071.0 1296.5285149633016 0.5027783353581773 461.0 18.0 327.0 
286.00010179366996 17948.0 2070.0 1296.5691699604713 0.5011711573452827 459.0 19.0 326.0 
288.00010179366996 17973.0 2072.0 1296.5172219085289 0.5024199823153256 460.0 18.0 327.0 
290.00010179366996 17973.0 2071.0 1296.4426877470335 0.5034742048617761 459.0 19.0 326.0 
292.00010179366996 17955.0 2071.0 1296.3975155279475 0.5027601550405049 460.0 18.0 327.0 
294.00010179366996 17931.0 2073.0 1293.8498023715397 0.5030709025289843 458.0 19.0 325.0 
296.00010179366996 17905.0 2071.0 1293.8543195934471 0.5033581283159508 460.0 18.0 326.0 
298.00010179366996 17916.0 2073.0 1301.7075098814269 0.503486459941003 459.0 19.0 328.0 
300.00010179366996 17788.0 2072.0 1301.7323546019165 0.5040799053526421 459.0 18.0 329.0 
302.00010179366996 17794.0 2069.0 1299.116883116882 0.501966201525788 458.0 19.0 327.0 
304.00010179366996 17791.0 2071.0 1299.139469226428 0.502606217602175 457.0 18.0 328.0 
306.00010179366996 17846.0 2072.0 1309.562958780347 0.5048866402553472 457.0 19.0 331.0 
308.00010179366996 17877.0 2071.0 1309.4635798983654 0.5023063819641317 458.0 18.0 332.0 
310.00010179366996 17907.0 2072.0 1309.470355731222 0.5063607922776593 455.0 19.0 331.0 
312.00010179366996 17766.0 2070.0 1309.4816487859987 0.5011518225155775 456.0 18.0 332.0 
314.00010179366996 17812.0 2073.0 1309.4635798983654 0.5063007463093211 456.0 19.0 331.0 
316.00010179366996 17715.0 2070.0 1309.5087521174457 0.5043233176086083 462.0 18.0 332.0 
318.00010179366996 17705.0 2070.0 1309.5832862789377 0.5020625441000063 461.0 19.0 331.0 
320.00010179366996 17694.0 2070.0 1309.605872388478 0.501207097424761 463.0 18.0 332.0 
322.00010179366996 17707.0 2071.0 1309.6600790513826 0.5049210129910475 461.0 19.0 331.0 
324.00010179366996 17588.0 2069.0 1307.0965556182914 0.5024902550654967 461.0 18.0 331.0 
326.00010179366996 17543.0 2071.0 1309.6420101637498 0.5013608561172251 460.0 19.0 331.0 
328.00010179366996 17544.0 2070.0 1309.562958780347 0.5027296476257742 463.0 18.0 332.0 
330.00010179366996 17535.0 2071.0 1309.4477696216852 0.504001335585846 462.0 19.0 331.0 
332.00010179366996 17524.0 2073.0 1309.490683229813 0.5050042839327883 463.0 18.0 332.0 
334.00010179366996 17442.0 2071.0 1309.5313382269921 0.5030288864573125 461.0 19.0 331.0 
336.00010179366996 17393.0 2070.0 1309.617165443251 0.5019708216437777 462.0 18.0 332.0 
338.00010179366996 17401.0 2073.0 1307.0129870129902 0.504388491947198 463.0 19.0 330.0 
340.00010179366996 17382.0 2072.0 1301.72557876906 0.5024194600284961 463.0 18.0 329.0 
342.00010179366996 17389.0 2071.0 1301.773009599095 0.5027541603050888 462.0 19.0 328.0 
344.00010179366996 17401.0 2072.0 1301.74138904574 0.5033585431992081 463.0 18.0 329.0 
346.00010179366996 17392.0 2070.0 1296.6030491247845 0.503156591228296 459.0 19.0 326.0 
348.00010179366996 17400.0 2072.0 1296.564652738564 0.5058874696593629 458.0 18.0 327.0 
350.00010179366996 17395.0 2072.0 1304.3342744212282 0.5041598673403227 459.0 19.0 329.0 
352.00010179366996 17391.0 2071.0 1299.1101072840224 0.5038851683159131 462.0 18.0 328.0 
354.00010179366996 17389.0 2072.0 1296.6211180124267 0.5064994884471782 462.0 19.0 326.0 
356.00010179366996 17195.0 2068.0 1296.5714285714298 0.5040289502438585 462.0 18.0 327.0 
358.00010179366996 17188.0 2069.0 1296.5759457933407 0.5030741031273618 459.0 19.0 326.0 
360.00010179366996 17164.0 2068.0 1296.487859966123 0.5017152905657501 460.0 18.0 327.0 
362.00010179366996 17147.0 2068.0 1293.8972332015842 0.5022498091650786 459.0 19.0 325.0 
364.00010179366996 17167.0 2071.0 1286.1095426312813 0.5047846506656163 460.0 18.0 323.0 
366.00010179366996 17109.0 2069.0 1283.6115189158677 0.5018385749072056 459.0 19.0 321.0 
368.00010179366996 17118.0 2071.0 1280.835686053073 0.5022327898748243 460.0 18.0 321.0 
370.00010179366996 17169.0 2072.0 1286.0869565217415 0.5051723191038654 459.0 19.0 322.0 
372.00010179366996 17080.0 2072.0 1288.6595143986474 0.504581098932104 460.0 18.0 324.0 
374.00010179366996 17033.0 2071.0 1286.1389045736873 0.5012535731789414 462.0 19.0 322.0 
376.00010179366996 17043.0 2071.0 1283.4850367024299 0.5019324866684085 463.0 18.0 322.0 
378.00010179366996 17121.0 2072.0 1280.8492377188047 0.5060593996396914 462.0 19.0 320.0 
380.00010179366996 17055.0 2072.0 1280.7747035573125 0.5028582106840466 461.0 18.0 321.0 
382.00010179366996 17042.0 2071.0 1275.7267080745326 0.501151943676253 462.0 19.0 318.0 
384.00010179366996 17038.0 2071.0 1275.6792772444976 0.5011070812605444 462.0 18.0 319.0 
386.00010179366996 17043.0 2072.0 1273.1789949181252 0.5033903549467852 460.0 19.0 317.0 
388.00010179366996 17053.0 2072.0 1273.0254093732403 0.5072721683209456 460.0 18.0 318.0 
390.00010179366996 16943.0 2069.0 1278.3128176171638 0.5042674426567866 459.0 19.0 319.0 
392.00010179366996 16857.0 2070.0 1278.2021456804064 0.5074905036520011 464.0 18.0 320.0 
394.00010179366996 16771.0 2068.0 1283.56860530774 0.5085343162037447 468.0 17.0 323.0 
396.00010179366996 16633.0 2066.0 1283.5189158667433 0.505149172547821 468.0 16.0 324.0 
398.00010179366996 16762.0 2067.0 1280.903444381709 0.5047757111878827 467.0 17.0 322.0 
400.00010179366996 16695.0 2066.0 1278.2247317899462 0.509180245038612 468.0 16.0 322.0 
402.00010179366996 16719.0 2066.0 1280.8763410502518 0.5044428565687985 468.0 17.0 322.0 
404.00010179366996 16765.0 2065.0 1286.055335968377 0.5065738585476652 467.0 20.0 321.0 
406.00010179366996 16719.0 2065.0 1291.3178994918126 0.5008229905459125 467.0 21.0 322.0 
408.00010179366996 16757.0 2068.0 1299.0242800677572 0.5094614833078451 476.0 17.0 329.0 
410.00010179366996 16661.0 2066.0 1296.4652738565733 0.5021716544938252 475.0 18.0 327.0 
412.00010179366996 16665.0 2065.0 1293.8565782044057 0.5032411747720922 477.0 17.0 327.0 
414.00010179366996 16799.0 2069.0 1288.6979107848717 0.5039989420010862 480.0 18.0 324.0 
416.00010179366996 16691.0 2067.0 1275.6363636363667 0.5011535957662768 480.0 17.0 320.0 
418.00010179366996 16712.0 2068.0 1278.2608695652182 0.5021952153224549 476.0 18.0 320.0 
420.00010179366996 16702.0 2067.0 1273.1089779785398 0.5036806986063025 477.0 17.0 319.0 
422.00010179366996 16728.0 2068.0 1270.513833992094 0.5023871574538541 474.0 18.0 317.0 
424.00010179366996 16748.0 2068.0 1267.866741953695 0.5047335484387233 473.0 16.0 318.0 
426.00010179366996 16729.0 2067.0 1270.5115753811344 0.5021248102575683 474.0 17.0 318.0 
428.00010179366996 16802.0 2068.0 1270.4776962168214 0.5029702671955949 475.0 16.0 319.0 
430.00010179366996 16797.0 2069.0 1267.9164313946894 0.5051682181619176 474.0 17.0 317.0 
432.00010179366996 16867.0 2070.0 1286.0440429136036 0.5048868869684415 478.0 16.0 325.0 
434.00010179366996 16858.0 2068.0 1283.5234330886535 0.5015628530391193 479.0 18.0 322.0 
436.00010179366996 16953.0 2070.0 1283.4398644833434 0.5039805531890373 472.0 21.0 319.0 
438.00010179366996 16948.0 2071.0 1288.7137210615522 0.5039748467964089 469.0 21.0 321.0 
440.00010179366996 16927.0 2071.0 1288.6324110671903 0.509521677162218 473.0 18.0 324.0 
442.00010179366996 16865.0 2069.0 1299.13721061547 0.505137552829974 473.0 18.0 328.0 
444.00010179366996 16861.0 2068.0 1296.5420666290245 0.5020056600442856 478.0 17.0 328.0 
446.00010179366996 16900.0 2070.0 1301.806888763408 0.5031176428310538 483.0 18.0 329.0 
448.00010179366996 16923.0 2070.0 1301.6329757199353 0.5049215333790184 484.0 17.0 330.0 
450.00010179366996 16884.0 2069.0 1304.3162055335952 0.5038620146391009 483.0 18.0 330.0 
452.00010179366996 16895.0 2068.0 1299.069452286844 0.5030975492227997 481.0 17.0 329.0 
454.00010179366996 16858.0 2069.0 1301.7684923771876 0.5064774847808277 482.0 18.0 329.0 
456.00010179366996 16812.0 2067.0 1301.6894409937847 0.5026671544108744 479.0 17.0 330.0 
458.00010179366996 16811.0 2067.0 1301.7278373800089 0.5022486801362455 478.0 17.0 330.0 
460.00010179366996 16822.0 2067.0 1301.632975719935 0.502377890202141 479.0 16.0 331.0 
462.00010179366996 16764.0 2066.0 1301.6623376623409 0.5056381254014365 478.0 17.0 330.0 
464.00010179366996 16682.0 2067.0 1299.0355731225306 0.5039319200262102 480.0 16.0 330.0 
466.00010179366996 16650.0 2065.0 1299.1846414455085 0.5015181762456532 477.0 17.0 329.0 
468.00010179366996 16700.0 2068.0 1296.4472049689407 0.5011692541694506 476.0 16.0 329.0 
470.00010179366996 16764.0 2066.0 1296.494635798979 0.5015682229028404 474.0 17.0 328.0 
472.00010179366996 16962.0 2070.0 1291.2140033879143 0.5037130581741576 475.0 16.0 327.0 
474.00010179366996 16921.0 2072.0 1288.7227555053666 0.508514367523651 473.0 17.0 325.0 
476.00010179366996 16869.0 2069.0 1288.7250141163156 0.5023814278349282 475.0 16.0 326.0 
478.00010179366996 16862.0 2070.0 1288.75663466968 0.5047684841880696 472.0 17.0 325.0 
480.00010179366996 16832.0 2069.0 1286.1140598531888 0.5036216072888281 474.0 16.0 325.0 
482.00010179366996 16806.0 2068.0 1280.996047430834 0.5028717984071228 470.0 17.0 322.0 
484.00010179366996 16844.0 2073.0 1270.5047995482798 0.5076052234025094 469.0 16.0 319.0 
486.00010179366996 16813.0 2068.0 1265.3303218520618 0.5016236723208344 465.0 17.0 316.0 
488.00010179366996 16825.0 2069.0 1262.6741953698452 0.5022901250228652 465.0 16.0 316.0 
490.00010179366996 16877.0 2070.0 1267.9119141727824 0.5038778717360437 464.0 17.0 317.0 
492.00010179366996 16882.0 2070.0 1265.27159796725 0.5017093356323999 465.0 16.0 317.0 
494.00010179366996 16924.0 2070.0 1262.744212309434 0.5025076788994097 461.0 17.0 315.0 
496.00010179366996 16954.0 2071.0 1262.7758328627872 0.5033619905736815 461.0 16.0 316.0 
498.00010179366996 16931.0 2070.0 1260.178430265383 0.5057276872002772 460.0 17.0 314.0 
500.00010179366996 16943.0 2068.0 1262.7532467532485 0.5054010938380292 461.0 16.0 316.0 
502.00010179366996 16975.0 2070.0 1265.3664596273345 0.5056388660823105 460.0 17.0 316.0 
504.00010179366996 16988.0 2070.0 1265.3393562958765 0.5050292510865224 456.0 18.0 315.0 
506.00010179366996 16954.0 2068.0 1270.5702992659467 0.5036440072116494 457.0 21.0 314.0 
508.00010179366996 17017.0 2070.0 1267.889328063243 0.5031617078955165 460.0 20.0 314.0 
510.00010179366996 17033.0 2071.0 1265.314511575378 0.5036040820825192 454.0 21.0 312.0 
512.00010179367 17043.0 2070.0 1260.036137775273 0.5066384415361401 455.0 20.0 311.0 
514.00010179367 17000.0 2072.0 1254.9407114624455 0.5048840322498402 453.0 21.0 308.0 
516.00010179367 16941.0 2070.0 1252.3139469226476 0.5027677452890931 450.0 20.0 308.0 
518.00010179367 16914.0 2069.0 1252.3862224731813 0.5022120546727038 451.0 22.0 306.0 
520.00010179367 16919.0 2070.0 1241.9604743083046 0.5022943442382223 451.0 21.0 303.0 
522.00010179367 16913.0 2071.0 1239.430830039529 0.5037794117764188 446.0 21.0 302.0 
524.00010179367 16890.0 2074.0 1241.978543195936 0.5091056251224227 447.0 20.0 304.0 
526.00010179367 16821.0 2069.0 1239.4172783738047 0.5018761675264584 447.0 21.0 302.0 
528.00010179367 16819.0 2069.0 1244.5782044042885 0.501446215116246 449.0 20.0 305.0 
530.00010179367 16813.0 2069.0 1234.2992659514384 0.5016610318004393 448.0 21.0 300.0 
532.00010179367 16845.0 2071.0 1234.2156973461283 0.5045911432303236 448.0 20.0 301.0 
534.00010179367 16848.0 2070.0 1234.2631281761664 0.5022526764821246 446.0 21.0 300.0 
536.00010179367 16840.0 2071.0 1236.894409937883 0.5027244309235283 445.0 20.0 302.0 
538.00010179367 16904.0 2071.0 1242.0508187464698 0.5019440914816053 447.0 21.0 303.0 
540.00010179367 16950.0 2072.0 1242.102766798414 0.505230537766932 448.0 20.0 304.0 
542.00010179367 16960.0 2071.0 1244.7001693958184 0.5036792497904372 447.0 21.0 304.0 
544.00010179367 16990.0 2071.0 1247.2817617165392 0.5041274260362497 446.0 20.0 306.0 
546.00010179367 16950.0 2070.0 1244.6278938452829 0.5037840628222907 447.0 21.0 304.0 
548.00010179367 16928.0 2069.0 1249.804630152461 0.5018415258790538 448.0 20.0 307.0 
550.00010179367 16933.0 2070.0 1247.2049689440962 0.5047550861262269 446.0 21.0 305.0 
552.00010179367 16931.0 2071.0 1247.168831168836 0.5053445490651034 449.0 20.0 306.0 
554.00010179367 16905.0 2070.0 1249.881422924904 0.5023720773276825 449.0 21.0 306.0 
556.00010179367 16934.0 2071.0 1242.0327498588406 0.5029682164190197 447.0 20.0 304.0 
558.00010179367 16926.0 2073.0 1234.3512140033824 0.5051638838885402 441.0 21.0 300.0 
560.00010179367 16926.0 2073.0 1234.220214568037 0.5082093300786327 438.0 21.0 300.0 
562.00010179367 16898.0 2072.0 1239.4579333709737 0.5028642640392047 435.0 24.0 299.0 
564.00010179367 17031.0 2074.0 1244.5940146809698 0.5031073443391761 442.0 21.0 304.0 
566.00010179367 17016.0 2073.0 1244.6640316205571 0.5033716675687863 442.0 22.0 303.0 
568.00010179367 16999.0 2072.0 1249.8272162619996 0.5020820172270479 449.0 21.0 306.0 
570.00010179367 17038.0 2074.0 1255.0355731225309 0.5020685839842214 449.0 23.0 306.0 
572.00010179367 17168.0 2075.0 1257.7052512704686 0.5024324424240829 450.0 22.0 308.0 
574.00010179367 17175.0 2076.0 1260.3410502540937 0.5060664217354118 448.0 22.0 309.0 
576.00010179367 17105.0 2074.0 1260.3387916431336 0.5018405602620656 449.0 21.0 310.0 
578.00010179367 17182.0 2077.0 1257.7142857142833 0.504886788544624 448.0 22.0 308.0 
580.00010179367 17226.0 2078.0 1262.8435911914135 0.5052987918994429 450.0 20.0 312.0 
582.00010179367 17260.0 2078.0 1265.4206662902268 0.5088824900858446 452.0 21.0 312.0 
584.00010179367 17325.0 2079.0 1268.0474308300372 0.5103512617980315 457.0 20.0 314.0 
586.00010179367 17177.0 2074.0 1265.400338791648 0.504118942275775 456.0 21.0 312.0 
588.00010179367 17144.0 2073.0 1265.4138904573722 0.50398911386059 458.0 20.0 313.0 
590.00010179367 17119.0 2074.0 1270.665160926031 0.5030053500208003 458.0 21.0 314.0 
592.00010179367 17111.0 2073.0 1270.6245059288506 0.5015864437854537 460.0 20.0 315.0 
594.00010179367 17217.0 2077.0 1275.902879728968 0.5054567340296331 460.0 21.0 316.0 
596.00010179367 17129.0 2074.0 1275.9096555618348 0.502831516242226 460.0 20.0 317.0 
598.00010179367 17114.0 2076.0 1278.4709203839666 0.5065699911341696 458.0 21.0 317.0 
600.00010179367 17215.0 2078.0 1281.1293054771281 0.5075911900990601 460.0 20.0 319.0 
602.00010179367 17194.0 2075.0 1278.5612648221315 0.5040934326248794 459.0 21.0 317.0 
604.00010179367 17097.0 2074.0 1286.3444381705283 0.5027690472299333 463.0 20.0 321.0 
606.00010179367 17050.0 2074.0 1283.7718802936224 0.5027523452806859 461.0 21.0 319.0 
608.00010179367 17064.0 2075.0 1288.9011857707503 0.5035886485417258 464.0 20.0 322.0 
610.00010179367 17079.0 2076.0 1288.9034443817095 0.5062386685496253 463.0 21.0 321.0 
612.00010179367 16979.0 2074.0 1288.892151326936 0.5033432725716726 465.0 20.0 322.0 
614.00010179367 16998.0 2074.0 1288.7905138339963 0.5020105770623629 464.0 21.0 321.0 
616.00010179367 17134.0 2076.0 1288.8176171654402 0.5043887261859349 463.0 20.0 322.0 
618.00010179367 17113.0 2078.0 1288.8876341050284 0.5091307819092343 462.0 21.0 321.0 
620.00010179367 17063.0 2077.0 1296.6572557876887 0.5067894613927939 464.0 20.0 325.0 
622.00010179367 17041.0 2074.0 1299.2614342179597 0.501697622420031 462.0 21.0 325.0 
624.00010179367 17086.0 2076.0 1299.2411067193716 0.5046673113366721 463.0 20.0 326.0 
626.00010179367 17090.0 2076.0 1299.279503105592 0.5047988707740738 461.0 21.0 325.0 
628.00010179367 17196.0 2080.0 1304.451722190851 0.505836592835595 460.0 21.0 327.0 
630.00010179367 17151.0 2076.0 1304.4359119141782 0.5083727354197008 453.0 29.0 319.0 
632.00010179367 17100.0 2074.0 1307.003952569165 0.5072788844123916 455.0 29.0 320.0 
634.00010179367 17166.0 2073.0 1307.0310559006234 0.5051365478941287 460.0 30.0 319.0 
636.00010179367 17177.0 2073.0 1307.0107284020319 0.5025002301829045 462.0 29.0 320.0 
638.00010179367 17222.0 2074.0 1301.8701298701271 0.5044113576079369 463.0 29.0 318.0 
640.00010179367 17276.0 2074.0 1296.6979107848717 0.5018442373101085 461.0 28.0 317.0 
642.00010179367 17269.0 2074.0 1294.1434217955943 0.501834236604716 457.0 29.0 315.0 
644.00010179367 17277.0 2074.0 1296.691134952002 0.5021250334292142 455.0 28.0 317.0 
646.00010179367 17289.0 2074.0 1296.6888763410545 0.5039379883478532 452.0 29.0 316.0 
648.00010179367 17298.0 2074.0 1299.2388481084095 0.5034213016529521 453.0 28.0 318.0 
650.00010179367 17319.0 2075.0 1296.7204968944077 0.5045622254663756 452.0 29.0 316.0 
652.00010179367 17293.0 2076.0 1309.7075098814285 0.5021507365942297 453.0 28.0 322.0 
654.00010179367 17300.0 2076.0 1309.7346132128748 0.5030298092565095 450.0 29.0 321.0 
656.00010179367 17310.0 2076.0 1309.6058723884767 0.5038104610269971 451.0 28.0 322.0 
658.00010179367 17274.0 2076.0 1309.6758893280628 0.5059461399486078 450.0 29.0 321.0 
660.00010179367 17257.0 2074.0 1317.4771315640912 0.501425601006271 450.0 28.0 325.0 
662.00010179367 17252.0 2075.0 1314.9294184076816 0.5026116446753739 448.0 28.0 324.0 
664.00010179367 17312.0 2076.0 1312.3026538678735 0.5055112584095405 459.0 20.0 331.0 
#####################################################################
# End of data export. Simulation finished at: 2019-03-13T22:19+0000 #
#####################################################################
