#####################################################################
# Alchemist log file - simulation started at: 2019-03-07T14:18+0000 #
#####################################################################
# seed = 7.0, bandwidth = 4216.965034285822, accessPointCount = 19.39227447486858, baserange = 31.622776601683796
#
# The columns have the following meaning: 
# time neighbor_count[Sum] <value>@neighbor_count[Sum] packet_size[Mean] mean_delay[Mean] crowd[Sum] overcrowded[Sum] risk[Sum] 
0.0 NaN NaN NaN NaN NaN NaN NaN 
2.0002458590828063 1.0 NaN 4987.7018469657 0.07414859888967906 1497.0 0.0 1497.0 
4.000798617819165 2.0 1.0 4987.749340369393 0.8181073450982308 1497.0 0.0 1497.0 
6.000297418119471 2.0 1.0 4987.749340369393 0.8100446744989811 1497.0 0.0 1497.0 
8.000798617819164 2.0 1.0 4987.736147757256 0.8109932239812458 1497.0 0.0 1497.0 
10.000798617819164 2.0 1.0 4987.712401055409 0.809570399757849 1497.0 0.0 1497.0 
12.000798617819164 2.0 1.0 4987.730870712401 0.8152616966514374 1497.0 0.0 1497.0 
14.000798617819164 2.0 1.0 4987.712401055409 0.8114674987223776 1497.0 0.0 1497.0 
16.000297418119473 2.0 1.0 4987.730870712401 0.8152616966514374 1497.0 0.0 1497.0 
18.000798617819164 2.0 1.0 4987.712401055409 0.8114674987223776 1497.0 0.0 1497.0 
20.000798617819164 2.0 1.0 4987.730870712401 0.8152616966514366 1497.0 0.0 1497.0 
22.000798617819164 2.0 1.0 4987.712401055409 0.8114674987223793 1497.0 0.0 1497.0 
24.000798617819164 2.0 1.0 4987.730870712401 0.8152616966514366 1497.0 0.0 1497.0 
26.000297418119473 2.0 1.0 4987.712401055409 0.8114674987223793 1497.0 0.0 1497.0 
28.000798617819164 2.0 1.0 4987.730870712401 0.8152616966514366 1497.0 0.0 1497.0 
30.000798617819164 2.0 1.0 4987.712401055409 0.8114674987223793 1497.0 0.0 1497.0 
32.000798617819164 2.0 1.0 4987.730870712401 0.8152616966514366 1497.0 0.0 1497.0 
34.000798617819164 2.0 1.0 4987.712401055409 0.8114674987223793 1497.0 0.0 1497.0 
36.00029741811947 2.0 1.0 4987.730870712401 0.8152616966514366 1497.0 0.0 1497.0 
38.000798617819164 2.0 1.0 4987.712401055409 0.8114674987223793 1497.0 0.0 1497.0 
40.000798617819164 2.0 1.0 4987.730870712401 0.8152616966514366 1497.0 0.0 1497.0 
42.000798617819164 2.0 1.0 4987.712401055409 0.8114674987223793 1497.0 0.0 1497.0 
44.000798617819164 2.0 1.0 4987.730870712401 0.8152616966514366 1497.0 0.0 1497.0 
46.00029741811947 2.0 1.0 4987.712401055409 0.8114674987223793 1497.0 0.0 1497.0 
48.000798617819164 2.0 1.0 4987.730870712401 0.8152616966514366 1497.0 0.0 1497.0 
50.000798617819164 2.0 1.0 4987.712401055409 0.8114674987223793 1497.0 0.0 1497.0 
52.000798617819164 2.0 1.0 4987.730870712401 0.8152616966514366 1497.0 0.0 1497.0 
54.000798617819164 2.0 1.0 4987.712401055409 0.8114674987223793 1497.0 0.0 1497.0 
56.00029741811947 2.0 1.0 4987.730870712401 0.8152616966514366 1497.0 0.0 1497.0 
58.000798617819164 2.0 1.0 4987.712401055409 0.8114674987223793 1497.0 0.0 1497.0 
60.000798617819164 2.0 1.0 4987.730870712401 0.8152616966514366 1497.0 0.0 1497.0 
62.000418815792834 2.0 1.0 400.0 0.40514505177353044 1.0 0.0 0.0 
64.00041881579283 2.0 1.0 400.0 0.40514505177353044 1.0 0.0 0.0 
66.00029741811947 2.0 1.0 400.0 0.40514505177353044 0.0 0.0 0.0 
68.00041881579284 2.0 1.0 400.0 0.40514505177353044 0.0 0.0 0.0 
70.00041881579284 2.0 1.0 400.0 0.40514505177353044 0.0 0.0 0.0 
72.00041881579284 2.0 1.0 400.0 0.40514505177353044 0.0 0.0 0.0 
74.00041881579284 2.0 1.0 400.0 0.40514505177353044 0.0 0.0 0.0 
76.00029741811947 2.0 1.0 400.0 0.40514505177353044 0.0 0.0 0.0 
78.00041881579284 2.0 1.0 400.0 0.40514505177353044 0.0 0.0 0.0 
80.00041881579284 2.0 1.0 400.0 0.40514505177353044 0.0 0.0 0.0 
82.00041881579284 2.0 1.0 400.0 0.40514505177353044 0.0 0.0 0.0 
84.00041881579284 2.0 1.0 400.0 0.40514505177353044 0.0 0.0 0.0 
86.00029741811947 2.0 1.0 400.0 0.40514505177353044 0.0 0.0 0.0 
88.00041881579284 2.0 1.0 400.0 0.40514505177353044 0.0 0.0 0.0 
90.00041881579284 2.0 1.0 400.0 0.40514505177353044 0.0 0.0 0.0 
92.00041881579284 2.0 1.0 400.0 0.40514505177353044 0.0 0.0 0.0 
94.00041881579284 2.0 1.0 400.0 0.40514505177353044 0.0 0.0 0.0 
96.00029741811947 2.0 1.0 400.0 0.40514505177353044 0.0 0.0 0.0 
98.00041881579284 2.0 1.0 400.0 0.40514505177353044 0.0 0.0 0.0 
100.00041881579284 2.0 1.0 400.0 0.40514505177353044 0.0 0.0 0.0 
102.00041881579284 2.0 1.0 400.0 0.40514505177353044 0.0 0.0 0.0 
104.00041881579284 2.0 1.0 400.0 0.40514505177353044 0.0 0.0 0.0 
106.00029741811947 2.0 1.0 400.0 0.40514505177353044 0.0 0.0 0.0 
108.00041881579284 2.0 1.0 400.0 0.40514505177353044 0.0 0.0 0.0 
110.00041881579284 2.0 1.0 400.0 0.40514505177353044 0.0 0.0 0.0 
112.00041881579284 2.0 1.0 400.0 0.40514505177353044 0.0 0.0 0.0 
114.00041881579284 2.0 1.0 400.0 0.40514505177353044 0.0 0.0 0.0 
116.00029741811947 2.0 1.0 400.0 0.40514505177353044 0.0 0.0 0.0 
118.00041881579284 2.0 1.0 400.0 0.40514505177353044 0.0 0.0 0.0 
120.00041881579284 2.0 1.0 400.0 0.40514505177353044 0.0 0.0 0.0 
122.00041881579284 2.0 1.0 400.0 0.40514505177353044 0.0 0.0 0.0 
124.00041881579284 2.0 1.0 400.0 0.40514505177353044 0.0 0.0 0.0 
126.00029741811947 2.0 1.0 400.0 0.40514505177353044 0.0 0.0 0.0 
128.00041881579284 2.0 1.0 400.0 0.40514505177353044 0.0 0.0 0.0 
130.00041881579284 2.0 1.0 400.0 0.40514505177353044 0.0 0.0 0.0 
132.00041881579284 2.0 1.0 400.0 0.40514505177353044 0.0 0.0 0.0 
134.00041881579284 2.0 1.0 400.0 0.40514505177353044 0.0 0.0 0.0 
136.0002974181195 2.0 1.0 400.0 0.40514505177353044 0.0 0.0 0.0 
138.00041881579284 2.0 1.0 400.0 0.40514505177353044 0.0 0.0 0.0 
140.00041881579284 2.0 1.0 400.0 0.40514505177353044 0.0 0.0 0.0 
142.00041881579284 2.0 1.0 400.0 0.40514505177353044 0.0 0.0 0.0 
144.00041881579284 2.0 1.0 400.0 0.40514505177353044 0.0 0.0 0.0 
146.0002974181195 2.0 1.0 400.0 0.40514505177353044 0.0 0.0 0.0 
148.00041881579284 2.0 1.0 400.0 0.40514505177353044 0.0 0.0 0.0 
150.00041881579284 2.0 1.0 400.0 0.40514505177353044 0.0 0.0 0.0 
152.00041881579284 2.0 1.0 400.0 0.40514505177353044 0.0 0.0 0.0 
154.00041881579284 2.0 1.0 400.0 0.40514505177353044 0.0 0.0 0.0 
156.0002974181195 2.0 1.0 400.0 0.40514505177353044 0.0 0.0 0.0 
158.00041881579284 2.0 1.0 400.0 0.40514505177353044 0.0 0.0 0.0 
160.00041881579284 2.0 1.0 400.0 0.40514505177353044 0.0 0.0 0.0 
162.00041881579284 2.0 1.0 400.0 0.40514505177353044 0.0 0.0 0.0 
164.00041881579284 2.0 1.0 400.0 0.40514505177353044 0.0 0.0 0.0 
166.0002974181195 2.0 1.0 400.0 0.40514505177353044 0.0 0.0 0.0 
168.00041881579284 2.0 1.0 400.0 0.40514505177353044 0.0 0.0 0.0 
170.00041881579284 2.0 1.0 400.0 0.40514505177353044 0.0 0.0 0.0 
172.00041881579284 2.0 1.0 400.0 0.40514505177353044 0.0 0.0 0.0 
174.00041881579284 2.0 1.0 400.0 0.40514505177353044 0.0 0.0 0.0 
176.0002974181195 2.0 1.0 400.0 0.40514505177353044 0.0 0.0 0.0 
178.00041881579284 2.0 1.0 400.0 0.40514505177353044 0.0 0.0 0.0 
180.00041881579284 2.0 1.0 400.0 0.40514505177353044 0.0 0.0 0.0 
182.00041881579284 2.0 1.0 400.0 0.40514505177353044 0.0 0.0 0.0 
184.00041881579284 2.0 1.0 400.0 0.40514505177353044 0.0 0.0 0.0 
186.0002974181195 2.0 1.0 400.0 0.40514505177353044 0.0 0.0 0.0 
188.00041881579284 2.0 1.0 400.0 0.40514505177353044 0.0 0.0 0.0 
190.00041881579284 2.0 1.0 400.0 0.40514505177353044 0.0 0.0 0.0 
192.00041881579284 2.0 1.0 400.0 0.40514505177353044 0.0 0.0 0.0 
194.00041881579284 2.0 1.0 400.0 0.40514505177353044 0.0 0.0 0.0 
196.0002974181195 2.0 1.0 400.0 0.40514505177353044 0.0 0.0 0.0 
198.00041881579284 2.0 1.0 400.0 0.40514505177353044 0.0 0.0 0.0 
200.00041881579284 2.0 1.0 400.0 0.40514505177353044 0.0 0.0 0.0 
202.00041881579284 2.0 1.0 400.0 0.40514505177353044 0.0 0.0 0.0 
204.00041881579284 2.0 1.0 400.0 0.40514505177353044 0.0 0.0 0.0 
206.0002974181195 2.0 1.0 400.0 0.40514505177353044 0.0 0.0 0.0 
208.00041881579284 2.0 1.0 400.0 0.40514505177353044 0.0 0.0 0.0 
210.00041881579284 2.0 1.0 400.0 0.40514505177353044 0.0 0.0 0.0 
212.00041881579284 2.0 1.0 400.0 0.40514505177353044 0.0 0.0 0.0 
214.00041881579284 2.0 1.0 400.0 0.40514505177353044 0.0 0.0 0.0 
216.0002974181195 2.0 1.0 400.0 0.40514505177353044 0.0 0.0 0.0 
218.00041881579284 2.0 1.0 400.0 0.40514505177353044 0.0 0.0 0.0 
220.00041881579284 2.0 1.0 400.0 0.40514505177353044 0.0 0.0 0.0 
222.00041881579284 2.0 1.0 400.0 0.40514505177353044 0.0 0.0 0.0 
224.00041881579284 2.0 1.0 400.0 0.40514505177353044 0.0 0.0 0.0 
226.0002974181195 2.0 1.0 400.0 0.40514505177353044 0.0 0.0 0.0 
228.00041881579284 2.0 1.0 400.0 0.40514505177353044 0.0 0.0 0.0 
230.00041881579284 2.0 1.0 400.0 0.40514505177353044 0.0 0.0 0.0 
232.00041881579284 2.0 1.0 400.0 0.40514505177353044 0.0 0.0 0.0 
234.00041881579284 4.0 2.0 400.0 0.40514505177353044 0.0 0.0 0.0 
236.0002974181195 4.0 2.0 400.0 0.40514505177353044 0.0 0.0 0.0 
238.00041881579284 4.0 2.0 400.0 0.40514505177353044 0.0 0.0 0.0 
240.00041881579284 4.0 2.0 400.0 0.40514505177353044 0.0 0.0 0.0 
242.00041881579284 4.0 2.0 400.0 0.40514505177353044 0.0 0.0 0.0 
244.00041881579284 4.0 2.0 400.0 1.4051450517735304 0.0 0.0 0.0 
246.0002974181195 4.0 2.0 400.0 2.4051450517735304 0.0 0.0 0.0 
248.00041881579284 4.0 2.0 400.0 3.4051450517735304 0.0 0.0 0.0 
250.00041881579284 4.0 2.0 400.0 4.40514505177353 0.0 0.0 0.0 
252.00041881579284 4.0 2.0 400.0 5.40514505177353 0.0 0.0 0.0 
254.00041881579284 4.0 2.0 400.0 6.40514505177353 0.0 0.0 0.0 
256.0002974181195 4.0 2.0 400.0 7.40514505177353 0.0 0.0 0.0 
258.0004188157928 4.0 2.0 400.0 8.405145051773552 0.0 0.0 0.0 
260.0004188157928 4.0 2.0 400.0 9.405145051773552 0.0 0.0 0.0 
262.0004188157928 4.0 2.0 400.0 10.405145051773552 0.0 0.0 0.0 
264.0004188157928 4.0 2.0 400.0 11.405145051773552 0.0 0.0 0.0 
266.0002974181195 4.0 2.0 400.0 12.405145051773552 0.0 0.0 0.0 
268.0004188157928 4.0 2.0 400.0 13.405145051773552 0.0 0.0 0.0 
270.0004188157928 4.0 2.0 400.0 14.405145051773552 0.0 0.0 0.0 
272.0004188157928 2.0 1.0 400.0 0.40514505177355886 0.0 0.0 0.0 
274.0004188157928 2.0 1.0 400.0 0.40514505177355886 0.0 0.0 0.0 
276.0002974181195 2.0 1.0 400.0 0.40514505177355886 0.0 0.0 0.0 
278.0004188157928 2.0 1.0 400.0 0.40514505177355886 0.0 0.0 0.0 
280.0004188157928 2.0 1.0 400.0 0.40514505177355886 0.0 0.0 0.0 
282.0004188157928 2.0 1.0 400.0 0.40514505177355886 0.0 0.0 0.0 
284.0004188157928 2.0 1.0 400.0 0.40514505177355886 0.0 0.0 0.0 
286.0002974181195 2.0 1.0 400.0 0.40514505177355886 0.0 0.0 0.0 
288.0004188157928 2.0 1.0 400.0 0.40514505177355886 0.0 0.0 0.0 
290.0004188157928 2.0 1.0 400.0 0.40514505177355886 0.0 0.0 0.0 
292.0004188157928 2.0 1.0 400.0 0.40514505177355886 0.0 0.0 0.0 
294.0004188157928 2.0 1.0 400.0 0.40514505177355886 0.0 0.0 0.0 
296.0002974181195 2.0 1.0 400.0 0.40514505177355886 0.0 0.0 0.0 
298.0004188157928 2.0 1.0 400.0 0.40514505177355886 0.0 0.0 0.0 
300.0004188157928 2.0 1.0 400.0 0.40514505177355886 0.0 0.0 0.0 
302.0004188157928 2.0 1.0 400.0 0.40514505177355886 0.0 0.0 0.0 
304.0004188157928 2.0 1.0 400.0 0.40514505177355886 0.0 0.0 0.0 
306.0002974181195 2.0 1.0 400.0 0.40514505177355886 0.0 0.0 0.0 
308.0004188157928 2.0 1.0 400.0 0.40514505177355886 0.0 0.0 0.0 
310.0004188157928 2.0 1.0 400.0 0.40514505177355886 0.0 0.0 0.0 
312.0004188157928 2.0 1.0 400.0 0.40514505177355886 0.0 0.0 0.0 
314.0004188157928 2.0 1.0 400.0 0.40514505177355886 0.0 0.0 0.0 
316.0002974181195 2.0 1.0 400.0 0.40514505177355886 0.0 0.0 0.0 
318.0004188157928 2.0 1.0 400.0 0.40514505177355886 0.0 0.0 0.0 
320.0004188157928 2.0 1.0 400.0 0.40514505177355886 0.0 0.0 0.0 
322.0004188157928 2.0 1.0 400.0 0.40514505177355886 0.0 0.0 0.0 
324.0004188157928 2.0 1.0 400.0 0.40514505177355886 0.0 0.0 0.0 
326.0002974181195 2.0 1.0 400.0 0.40514505177355886 0.0 0.0 0.0 
328.0004188157928 2.0 1.0 400.0 0.40514505177355886 0.0 0.0 0.0 
330.0004188157928 2.0 1.0 400.0 0.40514505177355886 0.0 0.0 0.0 
332.0004188157928 2.0 1.0 400.0 0.40514505177355886 0.0 0.0 0.0 
334.0004188157928 3.0 2.0 400.0 0.39769566539187434 0.0 0.0 0.0 
336.0002974181195 4.0 2.0 400.0 0.40514505177355886 0.0 0.0 0.0 
338.0004188157928 4.0 2.0 400.0 0.40514505177355886 0.0 0.0 0.0 
340.0004188157928 4.0 2.0 400.0 0.40514505177355886 0.0 0.0 0.0 
342.0004188157928 4.0 2.0 400.0 0.40514505177355886 0.0 0.0 0.0 
344.0004188157928 4.0 2.0 400.0 0.6551450517735589 0.0 0.0 0.0 
346.0002974181195 4.0 2.0 400.0 1.6551450517735589 0.0 0.0 0.0 
348.0004188157928 4.0 2.0 400.0 2.655145051773559 0.0 0.0 0.0 
350.0004188157928 4.0 2.0 400.0 3.655145051773559 0.0 0.0 0.0 
352.0004188157928 4.0 2.0 400.0 4.655145051773559 0.0 0.0 0.0 
354.0004188157928 4.0 2.0 400.0 5.655145051773559 0.0 0.0 0.0 
356.0002974181195 4.0 2.0 400.0 6.655145051773559 0.0 0.0 0.0 
358.0004188157928 4.0 2.0 400.0 7.655145051773559 0.0 0.0 0.0 
360.0004188157928 4.0 2.0 400.0 8.655145051773559 0.0 0.0 0.0 
362.0004188157928 4.0 2.0 400.0 9.655145051773559 0.0 0.0 0.0 
364.0004188157928 4.0 2.0 400.0 10.655145051773559 0.0 0.0 0.0 
366.0002974181195 4.0 2.0 400.0 11.655145051773559 0.0 0.0 0.0 
368.0004188157928 4.0 2.0 400.0 12.655145051773559 0.0 0.0 0.0 
370.0004188157928 4.0 2.0 400.0 13.655145051773559 0.0 0.0 0.0 
372.0004188157928 4.0 2.0 400.0 14.655145051773559 0.0 0.0 0.0 
374.0004188157928 2.0 1.0 400.0 0.40514505177355886 0.0 0.0 0.0 
376.0002974181195 2.0 1.0 400.0 0.40514505177355886 0.0 0.0 0.0 
378.0004188157928 2.0 1.0 400.0 0.40514505177355886 0.0 0.0 0.0 
380.0004188157928 2.0 1.0 400.0 0.40514505177355886 0.0 0.0 0.0 
382.0004188157928 2.0 1.0 400.0 0.40514505177355886 0.0 0.0 0.0 
384.0004188157928 2.0 1.0 400.0 0.40514505177355886 0.0 0.0 0.0 
386.0002974181195 2.0 1.0 400.0 0.40514505177355886 0.0 0.0 0.0 
388.0004188157928 2.0 1.0 400.0 0.40514505177355886 0.0 0.0 0.0 
390.0004188157928 2.0 1.0 400.0 0.40514505177355886 0.0 0.0 0.0 
392.0004188157928 2.0 1.0 400.0 0.40514505177355886 0.0 0.0 0.0 
394.0004188157928 2.0 1.0 400.0 0.40514505177355886 0.0 0.0 0.0 
396.0002974181195 2.0 1.0 400.0 0.40514505177355886 0.0 0.0 0.0 
398.0004188157928 2.0 1.0 400.0 0.40514505177355886 0.0 0.0 0.0 
400.0004188157928 2.0 1.0 400.0 0.40514505177355886 0.0 0.0 0.0 
402.0004188157928 2.0 1.0 400.0 0.40514505177355886 0.0 0.0 0.0 
404.0004188157928 2.0 1.0 400.0 0.40514505177355886 0.0 0.0 0.0 
406.0002974181195 2.0 1.0 400.0 0.40514505177355886 0.0 0.0 0.0 
408.0004188157928 2.0 1.0 400.0 0.40514505177355886 0.0 0.0 0.0 
410.0004188157928 2.0 1.0 400.0 0.40514505177355886 0.0 0.0 0.0 
412.0004188157928 2.0 1.0 400.0 0.40514505177355886 0.0 0.0 0.0 
414.0004188157928 2.0 1.0 400.0 0.40514505177355886 0.0 0.0 0.0 
416.0002974181195 2.0 1.0 400.0 0.40514505177355886 0.0 0.0 0.0 
418.0004188157928 2.0 1.0 400.0 0.40514505177355886 0.0 0.0 0.0 
420.0004188157928 2.0 1.0 400.0 0.40514505177355886 0.0 0.0 0.0 
422.0004188157928 2.0 1.0 400.0 0.40514505177355886 0.0 0.0 0.0 
424.0004188157928 2.0 1.0 400.0 0.40514505177355886 0.0 0.0 0.0 
426.0002974181195 2.0 1.0 400.0 0.40514505177355886 0.0 0.0 0.0 
428.0004188157928 2.0 1.0 400.0 0.40514505177355886 0.0 0.0 0.0 
430.0004188157928 2.0 1.0 400.0 0.40514505177355886 0.0 0.0 0.0 
432.0004188157928 2.0 1.0 400.0 0.40514505177355886 0.0 0.0 0.0 
434.0004188157928 2.0 1.0 400.0 0.40514505177355886 0.0 0.0 0.0 
436.0002974181195 2.0 1.0 400.0 0.40514505177355886 0.0 0.0 0.0 
438.0004188157928 2.0 1.0 400.0 0.40514505177355886 0.0 0.0 0.0 
440.0004188157928 2.0 1.0 400.0 0.40514505177355886 0.0 0.0 0.0 
442.0004188157928 2.0 1.0 400.0 0.40514505177355886 0.0 0.0 0.0 
444.0004188157928 2.0 1.0 400.0 0.40514505177355886 0.0 0.0 0.0 
446.0002974181195 2.0 1.0 400.0 0.40514505177355886 0.0 0.0 0.0 
448.0004188157928 2.0 1.0 400.0 0.40514505177355886 0.0 0.0 0.0 
450.0004188157928 2.0 1.0 400.0 0.40514505177355886 0.0 0.0 0.0 
452.0004188157928 2.0 1.0 400.0 0.40514505177355886 0.0 0.0 0.0 
454.0004188157928 2.0 1.0 400.0 0.40514505177355886 0.0 0.0 0.0 
456.0002974181195 2.0 1.0 400.0 0.40514505177355886 0.0 0.0 0.0 
458.0004188157928 2.0 1.0 400.0 0.40514505177355886 0.0 0.0 0.0 
460.0004188157928 2.0 1.0 400.0 0.40514505177355886 0.0 0.0 0.0 
462.0004188157928 2.0 1.0 400.0 0.40514505177355886 0.0 0.0 0.0 
464.0004188157928 2.0 1.0 400.0 0.40514505177355886 0.0 0.0 0.0 
466.0002974181195 2.0 1.0 400.0 0.40514505177355886 0.0 0.0 0.0 
468.0004188157928 2.0 1.0 400.0 0.40514505177355886 0.0 0.0 0.0 
470.0004188157928 2.0 1.0 400.0 0.40514505177355886 0.0 0.0 0.0 
472.0004188157928 2.0 1.0 400.0 0.40514505177355886 0.0 0.0 0.0 
474.0004188157928 2.0 1.0 400.0 0.40514505177355886 0.0 0.0 0.0 
476.0002974181195 2.0 1.0 400.0 0.40514505177355886 0.0 0.0 0.0 
478.0004188157928 2.0 1.0 400.0 0.40514505177355886 0.0 0.0 0.0 
480.0004188157928 2.0 1.0 400.0 0.40514505177355886 0.0 0.0 0.0 
482.0004188157928 2.0 1.0 400.0 0.40514505177355886 0.0 0.0 0.0 
484.0004188157928 2.0 1.0 400.0 0.40514505177355886 0.0 0.0 0.0 
486.0002974181195 2.0 1.0 400.0 0.40514505177355886 0.0 0.0 0.0 
488.0004188157928 2.0 1.0 400.0 0.40514505177355886 0.0 0.0 0.0 
490.0004188157928 2.0 1.0 400.0 0.40514505177355886 0.0 0.0 0.0 
492.0004188157928 2.0 1.0 400.0 0.40514505177355886 0.0 0.0 0.0 
494.0004188157928 2.0 1.0 400.0 0.40514505177355886 0.0 0.0 0.0 
496.0002974181195 2.0 1.0 400.0 0.40514505177355886 0.0 0.0 0.0 
498.0004188157928 2.0 1.0 400.0 0.40514505177355886 0.0 0.0 0.0 
500.0004188157928 2.0 1.0 400.0 0.40514505177355886 0.0 0.0 0.0 
502.0004188157928 2.0 1.0 400.0 0.40514505177355886 0.0 0.0 0.0 
504.0004188157928 2.0 1.0 400.0 0.40514505177355886 0.0 0.0 0.0 
506.0002974181195 2.0 1.0 400.0 0.40514505177355886 0.0 0.0 0.0 
508.0004188157928 2.0 1.0 400.0 0.40514505177355886 0.0 0.0 0.0 
510.0004188157928 2.0 1.0 400.0 0.40514505177355886 0.0 0.0 0.0 
512.0004188157928 2.0 1.0 400.0 0.40514505177355886 0.0 0.0 0.0 
514.0004188157928 2.0 1.0 400.0 0.405145051773502 0.0 0.0 0.0 
516.0002974181195 2.0 1.0 400.0 0.405145051773502 0.0 0.0 0.0 
518.0004188157928 2.0 1.0 400.0 0.405145051773502 0.0 0.0 0.0 
520.0004188157928 2.0 1.0 400.0 0.405145051773502 0.0 0.0 0.0 
522.0004188157928 2.0 1.0 400.0 0.405145051773502 0.0 0.0 0.0 
524.0004188157928 2.0 1.0 400.0 0.405145051773502 0.0 0.0 0.0 
526.0002974181195 2.0 1.0 400.0 0.405145051773502 0.0 0.0 0.0 
528.0004188157928 2.0 1.0 400.0 0.405145051773502 0.0 0.0 0.0 
530.0004188157928 2.0 1.0 400.0 0.405145051773502 0.0 0.0 0.0 
532.0004188157928 2.0 1.0 400.0 0.405145051773502 0.0 0.0 0.0 
534.0004188157928 2.0 1.0 400.0 0.405145051773502 0.0 0.0 0.0 
536.0002974181195 2.0 1.0 400.0 0.405145051773502 0.0 0.0 0.0 
538.0004188157928 2.0 1.0 400.0 0.405145051773502 0.0 0.0 0.0 
540.0004188157928 2.0 1.0 400.0 0.405145051773502 0.0 0.0 0.0 
542.0004188157928 2.0 1.0 400.0 0.405145051773502 0.0 0.0 0.0 
544.0004188157928 2.0 1.0 400.0 0.405145051773502 0.0 0.0 0.0 
546.0002974181195 2.0 1.0 400.0 0.405145051773502 0.0 0.0 0.0 
548.0004188157928 2.0 1.0 400.0 0.405145051773502 0.0 0.0 0.0 
550.0004188157928 2.0 1.0 400.0 0.405145051773502 0.0 0.0 0.0 
552.0004188157928 2.0 1.0 400.0 0.405145051773502 0.0 0.0 0.0 
554.0004188157928 2.0 1.0 400.0 0.405145051773502 0.0 0.0 0.0 
556.0002974181195 2.0 1.0 400.0 0.405145051773502 0.0 0.0 0.0 
558.0004188157928 2.0 1.0 400.0 0.405145051773502 0.0 0.0 0.0 
560.0004188157928 2.0 1.0 400.0 0.405145051773502 0.0 0.0 0.0 
562.0004188157928 2.0 1.0 400.0 0.405145051773502 0.0 0.0 0.0 
564.0004188157928 2.0 1.0 400.0 0.405145051773502 0.0 0.0 0.0 
566.0002974181195 2.0 1.0 400.0 0.405145051773502 0.0 0.0 0.0 
568.0004188157928 2.0 1.0 400.0 0.405145051773502 0.0 0.0 0.0 
570.0004188157928 2.0 1.0 400.0 0.405145051773502 0.0 0.0 0.0 
572.0004188157928 2.0 1.0 400.0 0.405145051773502 0.0 0.0 0.0 
574.0004188157928 2.0 1.0 400.0 0.405145051773502 0.0 0.0 0.0 
576.0002974181195 4.0 2.0 400.0 0.405145051773502 0.0 0.0 0.0 
578.0004188157928 4.0 2.0 400.0 0.405145051773502 0.0 0.0 0.0 
580.0004188157928 4.0 2.0 400.0 0.405145051773502 0.0 0.0 0.0 
582.0004188157928 4.0 2.0 400.0 0.405145051773502 0.0 0.0 0.0 
584.0004188157928 4.0 2.0 400.0 0.405145051773502 0.0 0.0 0.0 
586.0002974181195 4.0 2.0 400.0 0.405145051773502 0.0 0.0 0.0 
588.0004188157928 4.0 2.0 400.0 0.405145051773502 0.0 0.0 0.0 
590.0004188157928 4.0 2.0 400.0 0.405145051773502 0.0 0.0 0.0 
592.0004188157928 4.0 2.0 400.0 0.405145051773502 0.0 0.0 0.0 
594.0004188157928 4.0 2.0 400.0 0.405145051773502 0.0 0.0 0.0 
596.0002974181195 4.0 2.0 400.0 1.155145051773502 0.0 0.0 0.0 
598.0004188157928 4.0 2.0 400.0 2.155145051773502 0.0 0.0 0.0 
600.0004188157928 4.0 2.0 400.0 3.155145051773502 0.0 0.0 0.0 
602.0004188157928 4.0 2.0 400.0 4.155145051773502 0.0 0.0 0.0 
604.0004188157928 4.0 2.0 400.0 5.155145051773502 0.0 0.0 0.0 
606.0002974181195 4.0 2.0 400.0 6.155145051773502 0.0 0.0 0.0 
608.0004188157928 4.0 2.0 400.0 7.155145051773502 0.0 0.0 0.0 
610.0004188157928 4.0 2.0 400.0 8.155145051773502 0.0 0.0 0.0 
612.0004188157928 4.0 2.0 400.0 9.155145051773502 0.0 0.0 0.0 
614.0004188157928 4.0 2.0 400.0 10.155145051773502 0.0 0.0 0.0 
616.0002974181195 4.0 2.0 400.0 11.155145051773502 0.0 0.0 0.0 
618.0004188157928 4.0 2.0 400.0 12.155145051773502 0.0 0.0 0.0 
620.0004188157928 4.0 2.0 400.0 13.155145051773502 0.0 0.0 0.0 
622.0004188157928 4.0 2.0 400.0 14.155145051773502 0.0 0.0 0.0 
624.0004188157928 3.0 1.0 400.0 10.123817393857621 0.0 0.0 0.0 
626.0002974181195 2.0 1.0 400.0 0.405145051773502 0.0 0.0 0.0 
628.0004188157928 2.0 1.0 400.0 0.405145051773502 0.0 0.0 0.0 
630.0004188157928 2.0 1.0 400.0 0.405145051773502 0.0 0.0 0.0 
632.0004188157928 2.0 1.0 400.0 0.405145051773502 0.0 0.0 0.0 
634.0004188157928 2.0 1.0 400.0 0.405145051773502 0.0 0.0 0.0 
636.0002974181195 2.0 1.0 400.0 0.405145051773502 0.0 0.0 0.0 
638.0004188157928 2.0 1.0 400.0 0.405145051773502 0.0 0.0 0.0 
640.0004188157928 2.0 1.0 400.0 0.405145051773502 0.0 0.0 0.0 
642.0004188157928 2.0 1.0 400.0 0.405145051773502 0.0 0.0 0.0 
644.0004188157928 2.0 1.0 400.0 0.405145051773502 0.0 0.0 0.0 
646.0002974181195 2.0 1.0 400.0 0.405145051773502 0.0 0.0 0.0 
648.0004188157928 2.0 1.0 400.0 0.405145051773502 0.0 0.0 0.0 
650.0004188157928 2.0 1.0 400.0 0.405145051773502 0.0 0.0 0.0 
652.0004188157928 2.0 1.0 400.0 0.405145051773502 0.0 0.0 0.0 
654.0004188157928 2.0 1.0 400.0 0.405145051773502 0.0 0.0 0.0 
656.0002974181195 2.0 1.0 400.0 0.405145051773502 0.0 0.0 0.0 
658.0004188157928 2.0 1.0 400.0 0.405145051773502 0.0 0.0 0.0 
660.0004188157928 2.0 1.0 400.0 0.405145051773502 0.0 0.0 0.0 
662.0004188157928 2.0 1.0 400.0 0.405145051773502 0.0 0.0 0.0 
664.0004188157928 2.0 1.0 400.0 0.405145051773502 0.0 0.0 0.0 
#####################################################################
# End of data export. Simulation finished at: 2019-03-07T14:19+0000 #
#####################################################################
