#####################################################################
# Alchemist log file - simulation started at: 2019-03-03T08:03+0000 #
#####################################################################
# seed = 9.0, bandwidth = 2.3713737056616552E7, accessPointCount = 141.4213562373095, baserange = 31.622776601683796
#
# The columns have the following meaning: 
# time neighbor_count[Sum] <value>@neighbor_count[Sum] packet_size[Mean] mean_delay[Mean] crowd[Sum] overcrowded[Sum] risk[Sum] 
0.0 NaN NaN NaN NaN NaN NaN NaN 
10.000337445961424 46.0 16.0 4986.25641025641 0.4876339677889055 1497.0 0.0 1497.0 
20.000337445961424 46.0 16.0 4986.25641025641 0.48763386939305464 1497.0 0.0 1497.0 
30.000337445961424 46.0 16.0 4986.222222222223 0.4876338834496048 1497.0 0.0 1497.0 
40.00033744596142 46.0 16.0 4986.219780219781 0.48763396778890544 1497.0 0.0 1497.0 
50.00033744596142 50.0 18.0 4986.219780219781 0.4977305046232733 1497.0 0.0 1497.0 
60.00033744596142 50.0 18.0 4986.2979242979245 0.49773049837591793 1497.0 0.0 1497.0 
70.00033744596142 50.0 18.0 411.2747252747253 0.4980173113481265 12.0 0.0 4.0 
80.00033744596142 52.0 19.0 411.2747252747253 0.49815288519583223 4.0 0.0 4.0 
90.00033744596142 52.0 19.0 411.2747252747253 0.49815288519583223 4.0 0.0 4.0 
100.00033744596142 53.0 18.0 411.22588522588524 0.569897021256552 4.0 0.0 4.0 
110.00033744596142 53.0 19.0 411.22588522588524 0.4776453982068044 4.0 0.0 4.0 
120.00033744596142 54.0 19.0 411.22588522588524 0.4857957605808288 4.0 0.0 4.0 
130.0003374459614 55.0 19.0 411.22588522588524 0.4910475871106589 4.0 0.0 4.0 
140.0003374459614 56.0 19.0 411.22588522588524 0.489629931656341 4.0 0.0 4.0 
150.0003374459614 56.0 19.0 411.22588522588524 0.489629931656341 4.0 0.0 4.0 
160.0003374459614 56.0 19.0 411.22588522588524 0.489629931656341 4.0 0.0 4.0 
170.0003374459614 56.0 19.0 411.22588522588524 0.489629931656341 4.0 0.0 4.0 
180.0003374459614 56.0 19.0 411.22588522588524 0.489629931656341 4.0 0.0 4.0 
190.0003374459614 56.0 19.0 411.22588522588524 0.489629931656341 4.0 0.0 4.0 
200.0003374459614 56.0 19.0 411.22588522588524 0.489629931656341 4.0 0.0 4.0 
210.0003374459614 56.0 19.0 411.22588522588524 0.489629931656341 4.0 0.0 4.0 
220.0003374459614 58.0 20.0 411.22588522588524 0.49032014502190985 4.0 0.0 4.0 
230.0003374459614 58.0 20.0 411.22588522588524 0.49032014502190985 4.0 0.0 4.0 
240.0003374459614 58.0 20.0 411.22588522588524 0.49032014502190985 4.0 0.0 4.0 
250.0003374459614 58.0 20.0 411.22588522588524 0.49032014502190985 4.0 0.0 4.0 
260.0003374459614 58.0 20.0 411.22588522588524 0.490320145021907 4.0 0.0 4.0 
270.0003374459614 58.0 20.0 411.22588522588524 0.490320145021907 4.0 0.0 4.0 
280.0003374459614 58.0 20.0 411.22588522588524 0.490320145021907 4.0 0.0 4.0 
290.0003374459614 58.0 20.0 411.22588522588524 0.490320145021907 4.0 0.0 4.0 
300.0003374459614 58.0 20.0 411.22588522588524 0.490320145021907 4.0 0.0 4.0 
310.0003374459614 62.0 21.0 414.0268620268621 0.4887013593686407 7.0 0.0 5.0 
320.0003374459614 62.0 21.0 414.0268620268621 0.4887013593686407 7.0 0.0 5.0 
330.0003374459614 62.0 21.0 414.0268620268621 0.4887013593686407 7.0 0.0 5.0 
340.0003374459614 62.0 21.0 414.0268620268621 0.4994540475406837 7.0 0.0 5.0 
350.0003374459614 60.0 21.0 414.0268620268621 0.4911485267880566 7.0 0.0 5.0 
360.0003374459614 56.0 20.0 414.0268620268621 0.4867351362062421 6.0 0.0 5.0 
370.0003374459614 56.0 20.0 414.0268620268621 0.4867351362062421 6.0 0.0 5.0 
380.0003374459614 56.0 20.0 414.0268620268621 0.4867351362062421 6.0 0.0 5.0 
390.0003374459614 56.0 20.0 414.0268620268621 0.4867351362062421 6.0 0.0 5.0 
400.0003374459614 56.0 20.0 414.0268620268621 0.4867351362062421 6.0 0.0 5.0 
410.0003374459614 56.0 20.0 411.22588522588524 0.5034088142801052 4.0 0.0 4.0 
420.0003374459614 54.0 19.0 411.22588522588524 0.4899886835206088 4.0 0.0 4.0 
430.0003374459614 54.0 19.0 411.22588522588524 0.4899886835206088 4.0 0.0 4.0 
440.0003374459614 54.0 19.0 411.22588522588524 0.4899886835206088 4.0 0.0 4.0 
450.0003374459614 58.0 20.0 414.026862026862 0.490916603914281 7.0 0.0 5.0 
460.0003374459614 58.0 20.0 414.026862026862 0.49030724673152054 6.0 0.0 5.0 
470.0003374459614 56.0 19.0 416.8278388278389 0.4964766253142319 9.0 0.0 6.0 
480.0003374459614 56.0 19.0 416.8278388278389 0.4964766253142319 9.0 0.0 6.0 
490.0003374459614 58.0 20.0 416.8278388278389 0.4967028515610457 9.0 0.0 6.0 
500.0003374459614 54.0 19.0 416.8278388278389 0.491404176908757 9.0 0.0 6.0 
510.0003374459614 54.0 19.0 416.8278388278389 0.491404176908757 7.0 0.0 6.0 
520.0003374459613 54.0 19.0 414.0268620268621 0.4914175199677481 7.0 0.0 5.0 
530.0003374459613 54.0 19.0 414.0268620268621 0.4914175199677481 5.0 0.0 5.0 
540.0003374459613 50.0 18.0 414.0268620268621 0.49111341251804674 5.0 0.0 5.0 
550.0003374459613 52.0 19.0 414.0268620268621 0.4917047271595 5.0 0.0 5.0 
560.0003374459613 50.0 18.0 411.22588522588524 0.6339705553751896 4.0 0.0 4.0 
570.0003374459613 48.0 17.0 411.22588522588524 0.4904311263932929 4.0 0.0 4.0 
580.0003374459613 50.0 18.0 411.22588522588524 0.49111341251804674 4.0 0.0 4.0 
590.0003374459613 48.0 17.0 411.22588522588524 0.4904311263932929 4.0 0.0 4.0 
600.0003374459613 50.0 18.0 411.22588522588524 0.49111341251804674 4.0 0.0 4.0 
610.0003374459613 56.0 21.0 411.22588522588524 0.5351838347696573 4.0 0.0 4.0 
620.0003374459613 54.0 19.0 414.02686202686203 0.49715572665352464 7.0 0.0 5.0 
630.0003374459613 54.0 19.0 416.82783882783895 0.494382890318613 8.0 0.0 6.0 
640.0003374459613 53.0 19.0 422.4517704517706 0.4842556967056055 9.0 0.0 8.0 
650.0003374459613 55.0 21.0 422.4297924297923 0.5170180600605327 10.0 0.0 8.0 
660.0003374459613 54.0 20.0 422.4297924297923 0.5428696461008955 10.0 0.0 8.0 
#####################################################################
# End of data export. Simulation finished at: 2019-03-03T08:06+0000 #
#####################################################################
