#####################################################################
# Alchemist log file - simulation started at: 2019-03-09T20:12+0000 #
#####################################################################
# seed = 3.0, bandwidth = 5623413.251903491, accessPointCount = 531.8295896944988, baserange = 177.82794100389228
#
# The columns have the following meaning: 
# time neighbor_count[Sum] <value>@neighbor_count[Sum] packet_size[Mean] mean_delay[Mean] crowd[Sum] overcrowded[Sum] risk[Sum] 
0.0 NaN NaN NaN NaN NaN NaN NaN 
2.0004372369881733 2497.0 1026.0 4983.806706114398 0.4925894573398489 1497.0 0.0 1497.0 
4.0004685347057904 3798.0 1047.0 4986.132149901381 0.5247959542301115 1497.0 0.0 1497.0 
6.000084666035003 4941.0 1055.0 4986.181459566074 0.5231260342897346 1496.0 1.0 1496.0 
8.000442927482286 5708.0 1048.0 4986.808678500986 0.5402547034576025 1489.0 8.0 1489.0 
10.00033353340315 6093.0 1048.0 4986.871794871795 0.5459008000566702 1497.0 0.0 1497.0 
12.000510814717037 5983.0 1027.0 4987.027613412229 0.5175777660277033 1495.0 2.0 1495.0 
14.000504020489256 5926.0 1019.0 4986.5641025641025 0.5017091574914617 1493.0 4.0 1493.0 
16.000084666035004 5926.0 1019.0 4986.944773175543 0.5017090810731264 1492.0 5.0 1492.0 
18.000504020489256 5926.0 1019.0 4986.441814595661 0.5017105008755063 1494.0 3.0 1494.0 
20.00033353340315 5926.0 1019.0 4986.5207100591715 0.5017101831354953 1492.0 5.0 1492.0 
22.000504020489256 5926.0 1019.0 4986.388560157791 0.5017105547585842 1493.0 4.0 1493.0 
24.00051081471704 5930.0 1019.0 4986.579881656805 0.5017041779601437 1493.0 4.0 1493.0 
26.000084666035004 5958.0 1020.0 4986.033530571992 0.5016102210570054 1492.0 5.0 1492.0 
28.00051081471704 5960.0 1021.0 4986.58382642998 0.5016036687888409 1496.0 1.0 1496.0 
30.00033353340315 5960.0 1021.0 4986.175542406311 0.5016050026121497 1495.0 2.0 1495.0 
32.00051081471704 5960.0 1021.0 4986.337278106509 0.5016043273087044 1493.0 4.0 1493.0 
34.00050402048925 5962.0 1021.0 4986.2721893491125 0.5016024970660813 1494.0 3.0 1494.0 
36.00008466603501 5962.0 1021.0 4986.368836291913 0.5045216922065674 1495.0 2.0 1495.0 
38.00050402048925 5938.0 1022.0 4985.990138067062 0.5031714100991579 1492.0 5.0 1492.0 
40.00033353340315 5938.0 1022.0 4986.4773175542405 0.5024044733323093 1497.0 0.0 1497.0 
42.00050402048925 5940.0 1022.0 4986.074950690336 0.5028689677965297 1496.0 1.0 1496.0 
44.00051081471704 5940.0 1022.0 4986.337278106509 0.5027654926480871 1492.0 5.0 1492.0 
46.00008466603501 5938.0 1022.0 4986.110453648916 0.502414090173106 1494.0 3.0 1494.0 
48.00051081471704 5950.0 1022.0 4986.439842209073 0.5052545529991052 1495.0 2.0 1495.0 
50.00033353340315 5959.0 1022.0 4985.944773175543 0.5025747941974018 1492.0 5.0 1492.0 
52.00051081471704 5960.0 1022.0 4986.447731755424 0.5023910156143799 1497.0 0.0 1497.0 
54.00050402048925 5962.0 1022.0 4986.1045364891515 0.5054396384991279 1496.0 1.0 1496.0 
56.00008466603501 5942.0 1021.0 4986.207100591716 0.5050865368306825 1492.0 5.0 1492.0 
58.00050402048925 5936.0 1021.0 4986.132149901381 0.5023674802188649 1494.0 3.0 1494.0 
60.00033353340315 5950.0 1023.0 4986.41617357002 0.5025053578331549 1495.0 2.0 1495.0 
62.00059236981081 5952.0 1024.0 933.5877712031571 0.5011520514350674 501.0 5.0 230.0 
64.00059236981082 5964.0 1025.0 931.1360946745511 0.5012461298474361 411.0 11.0 223.0 
66.00008466603501 5964.0 1025.0 931.1282051282044 0.5012549569469876 371.0 8.0 226.0 
68.00059236981082 5991.0 1027.0 924.2840236686401 0.5030137924805657 343.0 13.0 218.0 
70.00033353340315 5990.0 1026.0 915.0907297830388 0.5042940914123681 334.0 10.0 217.0 
72.00059236981082 5988.0 1025.0 912.7869822485235 0.5040095675958147 326.0 10.0 216.0 
74.00059236981082 5987.0 1024.0 912.7672583826469 0.5066260349057196 312.0 14.0 212.0 
76.00008466603501 5946.0 1022.0 912.7061143984167 0.5009631603745064 311.0 11.0 215.0 
78.00059236981082 5962.0 1023.0 921.8343195266314 0.5023659195969794 308.0 12.0 218.0 
80.00033353340315 5957.0 1022.0 921.9053254437932 0.5017221786708734 304.0 14.0 216.0 
82.00059236981082 5956.0 1023.0 921.8067061143963 0.5039443812006629 307.0 11.0 219.0 
84.00059236981082 5968.0 1023.0 921.8619329388537 0.5017761868464367 305.0 12.0 218.0 
86.00008466603501 5971.0 1024.0 921.8362919132164 0.5007178414958923 303.0 14.0 216.0 
88.00059236981082 5982.0 1025.0 921.8599605522685 0.5033040008540481 307.0 11.0 219.0 
90.00033353340315 5980.0 1024.0 921.8461538461561 0.5005204607891703 307.0 12.0 218.0 
92.00059236981082 5980.0 1024.0 921.8737672583798 0.5005201114135722 305.0 13.0 217.0 
94.00059236981082 5980.0 1024.0 921.8796844181438 0.5029395446254611 307.0 11.0 219.0 
96.00008466603501 6003.0 1025.0 926.4358974358979 0.5029452687826949 308.0 12.0 220.0 
98.00059236981082 6004.0 1024.0 926.4161735700129 0.5055618299334752 305.0 14.0 218.0 
100.00033353340315 6011.0 1024.0 928.7159763313612 0.5031496466800129 308.0 12.0 221.0 
102.00059236981082 6004.0 1024.0 926.41025641026 0.5035671156673576 306.0 15.0 217.0 
104.00059236981082 6002.0 1023.0 926.4299802761361 0.5011350549339763 302.0 18.0 214.0 
106.00008466603501 6011.0 1024.0 926.4023668639016 0.5021452360130227 305.0 15.0 217.0 
108.00059236981082 6011.0 1022.0 926.4201183431915 0.5042536835138172 304.0 16.0 216.0 
110.00033353340315 6000.0 1022.0 926.4142011834384 0.5010767496445139 302.0 16.0 216.0 
112.00059236981082 6012.0 1023.0 926.4063116370802 0.5041503807404719 306.0 13.0 219.0 
114.00059236981082 5993.0 1021.0 921.8757396449654 0.5019786863666619 306.0 14.0 216.0 
116.00008466603501 6004.0 1022.0 924.0887573964541 0.5041213208623517 305.0 16.0 215.0 
118.00059236981082 6027.0 1024.0 924.1025641025653 0.5049908010980397 309.0 14.0 217.0 
120.00033353340315 6046.0 1024.0 928.5996055226844 0.5008641820116344 311.0 15.0 218.0 
122.00059236981082 6049.0 1024.0 928.7357001972448 0.5009594386214035 309.0 16.0 217.0 
124.00059236981082 6048.0 1024.0 926.3885601577895 0.5008751853772915 313.0 12.0 220.0 
126.00008466603501 6067.0 1025.0 931.0039447731798 0.5022717429084373 315.0 12.0 222.0 
128.00059236981082 6113.0 1026.0 930.9289940828371 0.5060578564272016 313.0 14.0 220.0 
130.00033353340314 6087.0 1025.0 933.2327416173533 0.5048082746533926 316.0 11.0 224.0 
132.00059236981082 6073.0 1025.0 935.5207100591713 0.5010262882532837 316.0 12.0 224.0 
134.00059236981082 6098.0 1026.0 935.5009861932874 0.5006064392904964 312.0 14.0 222.0 
136.000084666035 6130.0 1027.0 935.441814595662 0.5033417883780726 314.0 11.0 225.0 
138.00059236981082 6151.0 1026.0 939.9704142011831 0.50728340749533 314.0 13.0 225.0 
140.00033353340314 6156.0 1026.0 940.0256410256372 0.5019811557665451 313.0 14.0 224.0 
142.00059236981082 6178.0 1025.0 946.7928994082839 0.5096777105565102 313.0 15.0 226.0 
144.00059236981082 6140.0 1025.0 951.3412228796831 0.5024703042890253 315.0 14.0 229.0 
146.000084666035 6150.0 1025.0 951.2958579881687 0.5003165188769456 313.0 16.0 227.0 
148.00059236981082 6167.0 1025.0 953.5779092702151 0.5004126393855116 316.0 12.0 232.0 
150.00033353340314 6204.0 1027.0 955.8816568047304 0.5021169471541883 317.0 15.0 230.0 
152.00059236981082 6188.0 1025.0 955.8619329388533 0.5075233505950509 317.0 14.0 231.0 
154.00059236981082 6156.0 1024.0 953.6015779092778 0.5007771584104905 317.0 14.0 230.0 
156.000084666035 6160.0 1024.0 955.8224852070936 0.5053721993927348 316.0 16.0 229.0 
158.00059236981082 6154.0 1024.0 962.5996055226838 0.5036404120948078 315.0 15.0 233.0 
160.00033353340314 6126.0 1023.0 962.6291913215014 0.5009198874475057 320.0 11.0 237.0 
162.00059236981082 6129.0 1023.0 962.6213017751431 0.5018888357610172 319.0 13.0 235.0 
164.00059236981082 6160.0 1024.0 964.8974358974348 0.5032481076955105 319.0 13.0 236.0 
166.000084666035 6202.0 1025.0 969.4378698224822 0.5030377276396053 321.0 12.0 239.0 
168.00059236981082 6208.0 1025.0 969.4161735700135 0.500999354767078 322.0 14.0 237.0 
170.00033353340314 6232.0 1025.0 969.4556213017729 0.5047683825029375 321.0 14.0 237.0 
172.00059236981082 6224.0 1024.0 969.414201183438 0.5008730097655766 323.0 12.0 239.0 
174.00059236981082 6224.0 1024.0 969.4714003944782 0.5008697898663731 322.0 14.0 237.0 
176.000084666035 6236.0 1024.0 969.4575936883664 0.5013299781747164 320.0 14.0 237.0 
178.00059236981082 6259.0 1026.0 971.7573964497045 0.5046721732151449 323.0 12.0 240.0 
180.00033353340314 6257.0 1027.0 974.063116370805 0.5050056766091309 321.0 13.0 240.0 
182.00059236981082 6251.0 1027.0 974.017751479291 0.5016179214108241 322.0 13.0 240.0 
184.00059236981082 6248.0 1027.0 973.9881656804731 0.5012403485569619 324.0 11.0 242.0 
186.000084666035 6284.0 1028.0 971.769230769232 0.501706250235054 322.0 13.0 239.0 
188.00059236981082 6281.0 1028.0 974.0571992110506 0.507154424784811 320.0 14.0 239.0 
190.00033353340314 6294.0 1028.0 976.2761341222921 0.5065436520763592 324.0 12.0 242.0 
192.00059236981082 6253.0 1027.0 976.2426035502959 0.5013814417655957 321.0 14.0 240.0 
194.00059236981082 6250.0 1027.0 974.0039447731798 0.5010562891761565 321.0 13.0 240.0 
196.000084666035 6268.0 1027.0 974.0216962524694 0.5017606613618198 322.0 12.0 241.0 
198.00059236981082 6284.0 1027.0 976.248520710059 0.5053467499348594 321.0 16.0 238.0 
200.00033353340314 6257.0 1027.0 976.2268244575992 0.5073856460579953 317.0 16.0 238.0 
202.00059236981082 6225.0 1026.0 969.4615384615379 0.501897399031474 318.0 13.0 238.0 
204.00059236981082 6250.0 1028.0 969.4674556213002 0.5036218054964857 319.0 14.0 237.0 
206.000084666035 6238.0 1027.0 969.5108481262306 0.5048752279070706 319.0 13.0 238.0 
208.00059236981082 6226.0 1025.0 971.7238658777079 0.5026926941640646 320.0 13.0 239.0 
210.00033353340314 6209.0 1025.0 964.8974358974348 0.5098080141961477 320.0 14.0 235.0 
212.00059236981082 6180.0 1022.0 960.3353057199173 0.5051222574555878 318.0 13.0 234.0 
214.00059236981082 6182.0 1024.0 958.1163708086762 0.5018931232214268 318.0 11.0 235.0 
216.000084666035 6209.0 1024.0 955.7948717948699 0.5022669018745294 318.0 13.0 232.0 
218.00059236981082 6198.0 1025.0 955.8698224852116 0.5026978428622715 317.0 13.0 232.0 
220.00033353340314 6209.0 1026.0 958.0591715976352 0.5029044851568221 319.0 11.0 235.0 
222.00059236981082 6210.0 1027.0 955.8382642998096 0.5029921954087799 317.0 13.0 232.0 
224.00059236981082 6200.0 1026.0 955.8264299802717 0.5013746527272139 316.0 13.0 232.0 
226.000084666035 6213.0 1028.0 958.0986193293852 0.5043320153007372 321.0 9.0 237.0 
228.00059236981082 6189.0 1027.0 962.5838264299869 0.5013377878807144 321.0 9.0 239.0 
230.00033353340314 6189.0 1027.0 962.6508875739704 0.5064633124593068 320.0 9.0 239.0 
232.00059236981082 6181.0 1025.0 962.5759368836287 0.5045939112691857 322.0 7.0 241.0 
234.00059236981082 6174.0 1025.0 964.9368836291951 0.5023696309800079 321.0 9.0 240.0 
236.000084666035 6174.0 1025.0 967.1518737672575 0.5100154270309294 323.0 9.0 241.0 
238.00059236981082 6165.0 1022.0 969.4477317554246 0.5063774967319099 327.0 7.0 244.0 
240.00033353340314 6176.0 1024.0 964.8895463510872 0.5046061083927794 326.0 9.0 240.0 
242.00059236981082 6173.0 1023.0 969.4516765285948 0.5051572334096713 323.0 10.0 241.0 
244.00059236981082 6145.0 1022.0 971.6449704141977 0.5056193880143514 325.0 8.0 244.0 
246.000084666035 6104.0 1023.0 973.9802761341235 0.5017627773891777 325.0 9.0 244.0 
248.00059236981082 6107.0 1023.0 971.65088757397 0.5050917417905628 322.0 13.0 239.0 
250.00033353340314 6116.0 1024.0 971.7041420118321 0.5015329180027772 325.0 11.0 241.0 
252.00059236981082 6112.0 1024.0 969.4003944773168 0.5041692743529249 323.0 13.0 238.0 
254.00059236981082 6087.0 1023.0 969.3826429980259 0.5039519423705472 319.0 13.0 238.0 
256.00008466603504 6087.0 1024.0 967.1360946745523 0.5015113330130581 319.0 11.0 239.0 
258.0005923698108 6129.0 1025.0 969.3786982248566 0.5021336651485706 319.0 13.0 238.0 
260.00033353340314 6142.0 1026.0 969.4201183431913 0.5014335303075643 318.0 13.0 238.0 
262.0005923698108 6147.0 1026.0 971.6568047337232 0.5053130893873597 319.0 11.0 241.0 
264.0005923698108 6133.0 1025.0 971.6725838264307 0.5014625110032012 318.0 13.0 239.0 
266.00008466603504 6138.0 1026.0 983.0690335305687 0.5017968174989861 317.0 13.0 244.0 
268.0005923698108 6141.0 1026.0 980.8205128205179 0.504863781983714 319.0 11.0 245.0 
270.00033353340314 6133.0 1026.0 980.769230769231 0.5024988846993101 317.0 13.0 243.0 
272.0005923698108 6116.0 1026.0 980.7948717948699 0.5066232582843899 316.0 13.0 243.0 
274.0005923698108 6073.0 1025.0 983.0019723865856 0.5007056846379293 318.0 11.0 246.0 
276.00008466603504 6074.0 1026.0 983.0039447731798 0.5032271404815303 317.0 13.0 244.0 
278.0005923698108 6067.0 1025.0 985.2209072978267 0.5080389172143 317.0 13.0 245.0 
280.00033353340314 6048.0 1024.0 982.9980276134144 0.5043841087612563 316.0 13.0 244.0 
282.0005923698108 6082.0 1026.0 982.9802761341236 0.5034260635017473 320.0 13.0 244.0 
284.0005923698108 6070.0 1025.0 983.0394477317593 0.5036897919921853 319.0 13.0 244.0 
286.00008466603504 6044.0 1024.0 982.9980276134144 0.5032356657194693 321.0 11.0 246.0 
288.0005923698108 6048.0 1025.0 980.6844181459568 0.5055165993899995 320.0 13.0 243.0 
290.00033353340314 6019.0 1025.0 982.9585798816556 0.5052660624540511 319.0 13.0 244.0 
292.0005923698108 6012.0 1025.0 985.2110453648927 0.5040376206467264 321.0 11.0 247.0 
294.0005923698108 5992.0 1024.0 985.218934911241 0.5013765169950956 320.0 13.0 245.0 
296.00008466603504 5991.0 1024.0 982.9644970414184 0.5055717998893122 319.0 13.0 244.0 
298.0005923698108 5960.0 1023.0 978.4201183431913 0.5023996131393521 320.0 11.0 244.0 
300.00033353340314 5958.0 1024.0 973.8619329388534 0.5058441463401131 318.0 13.0 240.0 
302.0005923698108 5948.0 1022.0 969.384615384612 0.5022383793797827 315.0 13.0 238.0 
304.0005923698108 5936.0 1022.0 967.1360946745529 0.5028958620149697 316.0 11.0 239.0 
306.00008466603504 5929.0 1023.0 964.8145956607467 0.5024619765253747 314.0 13.0 236.0 
308.0005923698108 5923.0 1022.0 964.8086785009832 0.5101380504010329 314.0 13.0 236.0 
310.00033353340314 5900.0 1021.0 962.5167652860027 0.5079723574330577 315.0 11.0 237.0 
312.0005923698108 5892.0 1020.0 960.224852071005 0.5032826168019129 314.0 13.0 234.0 
314.0005923698108 5888.0 1021.0 967.0710059171629 0.5063957569044719 316.0 13.0 237.0 
316.00008466603504 5870.0 1020.0 967.1242603550343 0.5011184789867241 318.0 11.0 239.0 
318.0005923698108 5868.0 1021.0 967.0493096646926 0.5024950939843965 317.0 13.0 237.0 
320.00033353340314 5884.0 1020.0 969.4102564102601 0.5009006858068307 317.0 13.0 238.0 
322.0005923698108 5896.0 1021.0 969.347140039455 0.5022360773534951 319.0 11.0 240.0 
324.0005923698108 5891.0 1022.0 962.5917159763338 0.5038201338946726 317.0 13.0 235.0 
326.00008466603504 5880.0 1022.0 962.5621301775178 0.5004046401252836 316.0 13.0 235.0 
328.0005923698108 5902.0 1025.0 964.8737672583804 0.5023521974861377 319.0 11.0 238.0 
330.00033353340314 5887.0 1024.0 960.2998027613365 0.5074264256633341 316.0 13.0 234.0 
332.0005923698108 5872.0 1022.0 960.2998027613365 0.5046472524293365 315.0 13.0 234.0 
334.0005923698108 5860.0 1023.0 960.2919132149896 0.5005817184256146 317.0 11.0 236.0 
336.00008466603504 5870.0 1026.0 951.2110453648943 0.5008104426660682 315.0 13.0 230.0 
338.0005923698108 5871.0 1026.0 953.5167652860035 0.5020477561023765 313.0 13.0 231.0 
340.00033353340314 5865.0 1027.0 951.2721893491139 0.5039101007593627 315.0 11.0 232.0 
342.0005923698108 5858.0 1027.0 946.6745562130142 0.5020032594886654 313.0 13.0 228.0 
344.0005923698108 5859.0 1027.0 951.2879684418183 0.507394572496347 316.0 13.0 230.0 
346.00008466603504 5842.0 1025.0 951.203155818544 0.5021656251356275 316.0 12.0 231.0 
348.0005923698108 5848.0 1025.0 955.804733727814 0.5041277220756097 313.0 14.0 231.0 
350.00033353340314 5841.0 1024.0 955.8007889546357 0.5047109305953773 313.0 14.0 231.0 
352.0005923698108 5830.0 1023.0 955.7416173569974 0.5028417784270016 316.0 12.0 233.0 
354.0005923698108 5834.0 1024.0 955.7593688362886 0.5049997972697085 314.0 14.0 231.0 
356.00008466603504 5821.0 1023.0 955.8165680473405 0.5000416016410542 313.0 14.0 231.0 
358.0005923698108 5823.0 1025.0 953.4792899408284 0.5020571589251774 314.0 12.0 232.0 
360.00033353340314 5822.0 1023.0 955.7909270216913 0.5051081752063993 313.0 14.0 231.0 
362.0005923698108 5813.0 1024.0 953.5128205128241 0.5027994781954556 312.0 14.0 230.0 
364.0005923698108 5822.0 1024.0 951.2761341222923 0.49985257964501706 314.0 12.0 231.0 
366.00008466603504 5869.0 1029.0 939.8757396449653 0.5010138813609694 313.0 14.0 224.0 
368.0005923698108 5870.0 1026.0 935.3550295858012 0.5017820158037565 313.0 14.0 222.0 
370.00033353340314 5869.0 1027.0 935.2978303747506 0.5047673045877524 314.0 12.0 224.0 
372.0005923698108 5865.0 1027.0 935.3333333333319 0.5018291477913243 314.0 14.0 222.0 
374.0005923698108 5873.0 1027.0 937.617357001975 0.5039607749406437 314.0 14.0 223.0 
376.00008466603504 5860.0 1028.0 937.5502958579916 0.5038754478021608 316.0 12.0 225.0 
378.0005923698108 5851.0 1027.0 937.5680473372705 0.5054466957047912 315.0 14.0 223.0 
380.00033353340314 5848.0 1025.0 937.5581854043379 0.5097745066400481 314.0 14.0 223.0 
382.0005923698108 5846.0 1024.0 935.2820512820455 0.5043496073428047 315.0 12.0 224.0 
384.0005923698108 5842.0 1022.0 933.0355029585819 0.5000155913317087 316.0 14.0 221.0 
386.00008466603504 5847.0 1023.0 939.8619329388536 0.5026432388031824 316.0 14.0 224.0 
388.0005923698108 5830.0 1021.0 939.8560157790895 0.5030787763038437 318.0 12.0 226.0 
390.00033353340314 5816.0 1021.0 935.3214990138059 0.5016911296936883 314.0 14.0 222.0 
392.0005923698108 5803.0 1022.0 935.3136094674477 0.5001359108492497 312.0 14.0 222.0 
394.0005923698108 5812.0 1022.0 935.3116370808734 0.5001397960086095 314.0 11.0 225.0 
396.00008466603504 5813.0 1023.0 935.285996055224 0.5021101206866179 312.0 14.0 222.0 
398.0005923698108 5812.0 1022.0 935.3096646942804 0.5048291666777455 311.0 14.0 222.0 
400.00033353340314 5810.0 1021.0 937.5956607495057 0.5099573250710212 311.0 12.0 225.0 
402.0005923698108 5799.0 1019.0 937.6134122287963 0.5018936497852949 310.0 14.0 223.0 
404.0005923698108 5788.0 1019.0 937.5976331360982 0.5031563574187463 310.0 14.0 223.0 
406.00008466603504 5801.0 1019.0 937.5798816568085 0.5041040370080521 311.0 12.0 225.0 
408.0005923698108 5799.0 1019.0 937.6173570019752 0.5034720450111574 309.0 14.0 223.0 
410.00033353340314 5809.0 1024.0 935.3688362919124 0.5111615424124754 307.0 14.0 222.0 
412.0005923698108 5800.0 1021.0 933.1499013806716 0.5037638482811967 310.0 12.0 223.0 
414.0005923698108 5752.0 1021.0 930.852071005921 0.506507769341461 314.0 14.0 220.0 
416.00008466603504 5732.0 1021.0 928.6094674556238 0.5007596704330781 311.0 14.0 219.0 
418.0005923698108 5737.0 1021.0 928.5483234714055 0.5013378428579729 312.0 12.0 221.0 
420.00033353340314 5741.0 1021.0 930.8915187376703 0.5058263874623742 308.0 14.0 220.0 
422.0005923698108 5730.0 1020.0 930.8678500986191 0.5029183838196201 307.0 14.0 220.0 
424.0005923698108 5726.0 1019.0 926.418145956607 0.5032809239806427 307.0 12.0 220.0 
426.00008466603504 5722.0 1019.0 930.8303747534515 0.5030818834673404 306.0 13.0 221.0 
428.0005923698108 5696.0 1017.0 926.3589743589731 0.504941072632129 304.0 13.0 219.0 
430.00033353340314 5659.0 1016.0 924.0295857988173 0.5086481474873927 306.0 11.0 220.0 
432.0005923698108 5635.0 1015.0 921.7771203155793 0.5051694567011734 303.0 13.0 217.0 
434.0005923698108 5640.0 1016.0 917.2189349112409 0.5045126771398138 301.0 13.0 215.0 
436.00008466603504 5642.0 1017.0 926.3214990138059 0.5006717148334008 307.0 11.0 221.0 
438.0005923698108 5641.0 1016.0 924.0118343195257 0.5027460459595913 306.0 13.0 218.0 
440.00033353340314 5634.0 1016.0 921.7790927021723 0.5055547614186943 305.0 13.0 217.0 
442.0005923698108 5626.0 1016.0 921.7357001972448 0.5079502983643917 305.0 11.0 219.0 
444.0005923698108 5611.0 1013.0 924.0177514792911 0.5109746635183465 303.0 13.0 218.0 
446.00008466603504 5570.0 1011.0 924.0138067061109 0.5040341171907547 302.0 12.0 219.0 
448.0005923698108 5571.0 1010.0 924.0611439842183 0.5017801081166914 303.0 10.0 221.0 
450.00033353340314 5579.0 1011.0 921.6923076923049 0.507514973915763 302.0 12.0 218.0 
452.0005923698108 5578.0 1011.0 919.4930966469415 0.5011580437658 300.0 12.0 217.0 
454.0005923698108 5578.0 1011.0 919.4477317554273 0.501153127474643 303.0 10.0 219.0 
456.00008466603504 5577.0 1010.0 919.4792899408293 0.5037683364590423 302.0 12.0 217.0 
458.0005923698108 5568.0 1009.0 917.1854043392522 0.5012691050843184 301.0 12.0 216.0 
460.00033353340314 5579.0 1012.0 919.4832347139962 0.5028731328377619 304.0 10.0 219.0 
462.0005923698108 5601.0 1013.0 926.250493096643 0.5010133773517247 305.0 12.0 220.0 
464.0005923698108 5599.0 1012.0 926.3057199211022 0.5065961861860652 304.0 12.0 220.0 
466.00008466603504 5588.0 1012.0 926.2445759368902 0.5036492189788567 306.0 10.0 222.0 
468.0005923698108 5593.0 1014.0 926.2623274161808 0.5067768616404256 305.0 12.0 220.0 
470.00033353340314 5582.0 1012.0 921.7376725838191 0.5096668273082466 300.0 12.0 218.0 
472.0005923698108 5587.0 1010.0 921.7909270216913 0.5052629437525035 303.0 10.0 220.0 
474.0005923698108 5573.0 1010.0 921.6982248520712 0.5055948720137773 301.0 12.0 218.0 
476.00008466603504 5563.0 1010.0 919.3905325443766 0.5000644137647461 299.0 12.0 217.0 
478.0005923698108 5579.0 1011.0 921.6351084812663 0.5003526232954063 302.0 10.0 220.0 
480.00033353340314 5585.0 1010.0 923.9388560157817 0.5032763467997385 302.0 12.0 219.0 
482.0005923698108 5606.0 1010.0 923.9368836291953 0.5031882923404316 300.0 12.0 219.0 
484.0005923698108 5604.0 1012.0 921.7396449704117 0.5001270344278745 302.0 10.0 220.0 
486.00008466603504 5610.0 1013.0 919.4142011834383 0.5019459948723033 300.0 12.0 217.0 
488.0005923698108 5650.0 1015.0 919.4595660749529 0.5007164057022929 298.0 12.0 217.0 
490.00033353340314 5662.0 1016.0 917.203155818543 0.49984198241621675 297.0 11.0 217.0 
492.0005923698108 5664.0 1016.0 914.9506903353074 0.5024680793308224 295.0 13.0 214.0 
494.0005923698108 5655.0 1016.0 914.8579881656751 0.5060666828606335 293.0 13.0 214.0 
496.00008466603504 5668.0 1016.0 914.9053254437931 0.5041712557517943 293.0 11.0 216.0 
498.0005923698108 5662.0 1015.0 914.8579881656751 0.5037434482466038 294.0 13.0 214.0 
500.00033353340314 5658.0 1014.0 914.9033530572004 0.5037299036098718 293.0 13.0 214.0 
502.0005923698108 5683.0 1014.0 910.3254437869858 0.5045596817037397 298.0 11.0 214.0 
504.0005923698108 5662.0 1014.0 899.03944773176 0.502656854971301 294.0 13.0 207.0 
506.00008466603504 5673.0 1016.0 896.7771203155792 0.49905398460925227 292.0 13.0 206.0 
508.0005923698108 5682.0 1017.0 896.7751479289924 0.5007326349355896 294.0 11.0 208.0 
510.00033353340314 5690.0 1019.0 896.7534516765354 0.5034342828979577 293.0 13.0 206.0 
512.0005923698109 5692.0 1019.0 896.739644970411 0.5005397451712326 292.0 13.0 206.0 
514.0005923698109 5685.0 1019.0 894.4595660749529 0.5019837318860039 294.0 11.0 207.0 
516.000084666035 5688.0 1020.0 894.4595660749529 0.5044829320709148 291.0 13.0 205.0 
518.0005923698109 5686.0 1019.0 887.7179487179542 0.5004345499799177 288.0 13.0 202.0 
520.0003335334031 5684.0 1019.0 887.6508875739705 0.5094839221500074 290.0 11.0 204.0 
522.0005923698109 5659.0 1016.0 885.3964497041477 0.5038004114976306 288.0 13.0 201.0 
524.0005923698109 5645.0 1016.0 878.6213017751428 0.5003111079554844 282.0 13.0 198.0 
526.000084666035 5676.0 1018.0 876.3471400394551 0.5027559923847408 283.0 11.0 199.0 
528.0005923698109 5708.0 1017.0 883.181459566071 0.5042371254004325 285.0 13.0 200.0 
530.0003335334031 5702.0 1015.0 880.9506903353076 0.5078651878918059 284.0 13.0 199.0 
532.0005923698109 5676.0 1013.0 883.2327416173532 0.5057394729557374 287.0 11.0 202.0 
534.0005923698109 5686.0 1014.0 880.9605522682397 0.5008294036908533 289.0 13.0 199.0 
536.000084666035 5679.0 1013.0 880.9743589743653 0.5024439698200645 290.0 13.0 199.0 
538.0005923698109 5674.0 1012.0 880.9053254437931 0.5021951121342159 291.0 11.0 201.0 
540.0003335334031 5679.0 1015.0 880.9329388560169 0.5074224246639547 290.0 13.0 199.0 
542.0005923698109 5698.0 1014.0 878.6686390532611 0.5015921353693578 288.0 13.0 198.0 
544.0005923698109 5692.0 1014.0 880.9447731755395 0.5045374390270007 290.0 11.0 201.0 
546.000084666035 5697.0 1015.0 883.2485207100549 0.5096593422534937 290.0 13.0 200.0 
548.0005923698109 5628.0 1014.0 883.2011834319507 0.5105313958481349 287.0 13.0 200.0 
550.0003335334031 5597.0 1011.0 885.4970414201222 0.5137532364121946 288.0 11.0 203.0 
552.0005923698109 5569.0 1008.0 885.4043392504917 0.5081835667725966 283.0 13.0 201.0 
554.0005923698109 5572.0 1008.0 885.4457593688408 0.5008545247012717 281.0 13.0 201.0 
556.000084666035 5578.0 1008.0 885.4043392504917 0.5059944929235459 284.0 11.0 203.0 
558.0005923698109 5533.0 1007.0 885.469428007885 0.5038470238382429 282.0 13.0 201.0 
560.0003335334031 5528.0 1007.0 883.1794871794812 0.5038013758558043 280.0 13.0 200.0 
562.0005923698109 5522.0 1007.0 883.1420118343248 0.504664620063424 282.0 11.0 202.0 
564.0005923698109 5555.0 1008.0 887.7100591715954 0.5036042577585821 280.0 13.0 202.0 
566.000084666035 5557.0 1008.0 890.0433925049261 0.5067245964135775 281.0 14.0 202.0 
568.0005923698109 5550.0 1008.0 885.4654832347201 0.5025944726539094 281.0 14.0 200.0 
570.0003335334031 5553.0 1008.0 885.4733727810636 0.5072679123162399 281.0 13.0 201.0 
572.0005923698109 5567.0 1006.0 885.4240631163713 0.5038345757069722 279.0 14.0 200.0 
574.0005923698109 5603.0 1007.0 885.4516765285941 0.5121136686727062 282.0 11.0 203.0 
576.000084666035 5558.0 1005.0 885.41025641026 0.5007883390101269 281.0 13.0 201.0 
578.0005923698109 5564.0 1006.0 887.7534516765353 0.5019181950073782 281.0 13.0 202.0 
580.0003335334031 5565.0 1005.0 887.7120315581845 0.5004811595622789 283.0 11.0 204.0 
582.0005923698109 5604.0 1007.0 890.0039447731798 0.5018301558687538 283.0 13.0 203.0 
584.0005923698109 5629.0 1009.0 887.7100591715953 0.5055294769208706 284.0 13.0 202.0 
586.000084666035 5604.0 1007.0 887.6824457593726 0.501617227819459 285.0 11.0 204.0 
588.0005923698109 5604.0 1007.0 887.7001972386637 0.5023815365561238 284.0 13.0 202.0 
590.0003335334031 5628.0 1009.0 894.5187376725783 0.5025835110801389 282.0 13.0 205.0 
592.0005923698109 5649.0 1009.0 892.2445759368901 0.5040074182786658 284.0 11.0 206.0 
594.0005923698109 5644.0 1011.0 892.2307692307647 0.5098637611828178 283.0 13.0 204.0 
596.000084666035 5616.0 1008.0 892.2228796844206 0.5025895054888037 280.0 13.0 204.0 
598.0005923698109 5612.0 1006.0 889.9664694280079 0.5057493169983482 280.0 11.0 205.0 
600.0003335334031 5627.0 1007.0 892.2327416173532 0.5038798828369531 281.0 13.0 204.0 
602.0005923698109 5644.0 1007.0 892.2307692307646 0.5059903656336041 282.0 13.0 204.0 
604.0005923698109 5632.0 1008.0 892.2366863905316 0.5046227867470002 283.0 11.0 206.0 
606.000084666035 5635.0 1008.0 892.2879684418155 0.5035122531876366 282.0 13.0 204.0 
608.0005923698109 5646.0 1008.0 892.2485207100553 0.5042789795871442 283.0 13.0 204.0 
610.0003335334031 5669.0 1008.0 892.2544378698228 0.5067150476037906 285.0 11.0 206.0 
612.0005923698109 5703.0 1009.0 894.5246548323477 0.5054354990597093 283.0 13.0 205.0 
614.0005923698109 5690.0 1009.0 894.5502958579938 0.5009369433831754 281.0 13.0 205.0 
616.000084666035 5690.0 1009.0 894.4792899408308 0.5005154658750729 282.0 11.0 207.0 
618.0005923698109 5730.0 1011.0 894.5601577909266 0.4997288525315968 282.0 13.0 205.0 
620.0003335334031 5783.0 1013.0 896.8126232741603 0.5042111849945242 281.0 13.0 206.0 
622.0005923698109 5769.0 1013.0 899.082840236686 0.5067260491152 283.0 11.0 209.0 
624.0005923698109 5751.0 1013.0 899.118343195268 0.5069579301396372 283.0 13.0 207.0 
626.000084666035 5758.0 1013.0 899.1183431952682 0.5047266941346443 281.0 13.0 207.0 
628.0005923698109 5788.0 1013.0 901.3826429980238 0.5012837115725453 288.0 11.0 210.0 
630.0003335334031 5790.0 1014.0 901.3786982248575 0.5022253128189786 286.0 13.0 208.0 
632.0005923698109 5793.0 1014.0 905.9447731755424 0.5040109963670051 287.0 13.0 210.0 
634.0005923698109 5794.0 1017.0 905.9585798816538 0.5034968521985828 292.0 11.0 212.0 
636.000084666035 5818.0 1016.0 908.2130177514765 0.5012739107490458 289.0 13.0 211.0 
638.0005923698109 5822.0 1016.0 908.1952662721856 0.5016327547596701 287.0 13.0 211.0 
640.0003335334031 5833.0 1017.0 905.8934911242561 0.5019482976307031 289.0 11.0 212.0 
642.0005923698109 5861.0 1018.0 912.7593688362886 0.507302279171394 287.0 13.0 213.0 
644.0005923698109 5861.0 1019.0 914.9822485207088 0.5023349709275727 288.0 13.0 214.0 
646.000084666035 5862.0 1019.0 914.9743589743626 0.5041755455421546 292.0 11.0 216.0 
648.0005923698109 5857.0 1018.0 917.2287968441733 0.5024923465865232 292.0 13.0 215.0 
650.0003335334031 5861.0 1018.0 919.518737672578 0.5057561202795208 290.0 13.0 216.0 
652.0005923698109 5859.0 1018.0 919.4792899408282 0.5023490826276629 294.0 11.0 218.0 
654.0005923698109 5877.0 1020.0 915.0650887573984 0.509704053330795 294.0 13.0 214.0 
656.000084666035 5866.0 1018.0 917.2386587771172 0.5026698403661719 292.0 13.0 215.0 
658.0005923698109 5879.0 1019.0 912.7337278106506 0.5068279155447776 294.0 11.0 215.0 
660.0003335334031 5871.0 1017.0 914.970414201182 0.5072196118650129 294.0 13.0 214.0 
662.0005923698109 5861.0 1017.0 917.3175542406274 0.5040877780751017 293.0 13.0 215.0 
664.0005923698109 5854.0 1017.0 917.2287968441733 0.5088797799343343 297.0 11.0 217.0 
#####################################################################
# End of data export. Simulation finished at: 2019-03-09T20:26+0000 #
#####################################################################
