#####################################################################
# Alchemist log file - simulation started at: 2019-03-09T18:04+0000 #
#####################################################################
# seed = 3.0, bandwidth = 5623413.251903491, accessPointCount = 19.39227447486858, baserange = 177.82794100389228
#
# The columns have the following meaning: 
# time neighbor_count[Sum] <value>@neighbor_count[Sum] packet_size[Mean] mean_delay[Mean] crowd[Sum] overcrowded[Sum] risk[Sum] 
0.0 NaN NaN NaN NaN NaN NaN NaN 
2.000510814717038 47.0 20.0 4987.810026385224 0.46736450514422156 1497.0 0.0 1497.0 
4.000510814717038 52.0 20.0 4987.878627968338 0.4592070371932108 1497.0 0.0 1497.0 
6.000084666035003 54.0 20.0 4987.862796833773 0.47320711186117204 1497.0 0.0 1497.0 
8.000510814717037 57.0 20.0 4987.894459102902 0.47691397583394946 1497.0 0.0 1497.0 
10.00033353340315 58.0 20.0 4987.825857519789 0.4913268567866483 1497.0 0.0 1497.0 
12.000510814717037 58.0 20.0 4987.902374670185 0.4913234841877672 1497.0 0.0 1497.0 
14.000510814717037 58.0 20.0 4987.870712401055 0.49132679955466724 1497.0 0.0 1497.0 
16.000084666035004 58.0 20.0 4987.846965699208 0.49132350871575914 1497.0 0.0 1497.0 
18.00051081471704 58.0 20.0 4987.857519788919 0.4913265788027404 1497.0 0.0 1497.0 
20.00033353340315 58.0 20.0 4987.912928759894 0.4913237785236693 1497.0 0.0 1497.0 
22.00051081471704 58.0 20.0 4987.846965699208 0.4913264806907729 1497.0 0.0 1497.0 
24.00051081471704 58.0 20.0 4987.878627968338 0.4913238521076449 1497.0 0.0 1497.0 
26.000084666035004 58.0 20.0 4987.870712401055 0.491326824082659 1497.0 0.0 1497.0 
28.00051081471704 58.0 20.0 4987.8891820580475 0.4913233860757995 1497.0 0.0 1497.0 
30.00033353340315 58.0 20.0 4987.815303430079 0.491326652386716 1497.0 0.0 1497.0 
32.00051081471704 58.0 20.0 4987.915567282322 0.4913237785236693 1497.0 0.0 1497.0 
34.00051081471704 58.0 20.0 4987.841688654354 0.49132650521876575 1497.0 0.0 1497.0 
36.00008466603501 58.0 20.0 4987.905013192612 0.4913234841877676 1497.0 0.0 1497.0 
38.00051081471704 58.0 20.0 4987.846965699208 0.49132719200253805 1497.0 0.0 1497.0 
40.00033353340315 58.0 20.0 4987.8891820580475 0.49132341060379203 1497.0 0.0 1497.0 
42.00051081471704 58.0 20.0 4987.857519788919 0.49132652974675767 1497.0 0.0 1497.0 
44.00051081471704 58.0 20.0 4987.873350923483 0.49132385210764573 1497.0 0.0 1497.0 
46.00008466603501 58.0 20.0 4987.844327176781 0.49132650521876575 1497.0 0.0 1497.0 
48.00051081471704 58.0 20.0 4987.899736147757 0.4913235087157594 1497.0 0.0 1497.0 
50.00033353340315 58.0 20.0 4987.873350923483 0.49132682408266 1497.0 0.0 1497.0 
52.00051081471704 58.0 20.0 4987.865435356201 0.4913237785236701 1497.0 0.0 1497.0 
54.00051081471704 58.0 20.0 4987.857519788919 0.49132655427474947 1497.0 0.0 1497.0 
56.00008466603501 58.0 20.0 4987.915567282322 0.49132372946768627 1497.0 0.0 1497.0 
58.00051081471704 58.0 20.0 4987.802110817942 0.4913265788027415 1497.0 0.0 1497.0 
60.00033353340315 58.0 20.0 4987.902374670185 0.4913235087157594 1497.0 0.0 1497.0 
62.00059236981081 58.0 20.0 400.0 0.4933504038513165 9.0 0.0 0.0 
64.00059236981082 58.0 20.0 400.0 0.4934625948860957 2.0 0.0 0.0 
66.00008466603501 58.0 20.0 400.0 0.49346259488609434 2.0 0.0 0.0 
68.00059236981082 58.0 20.0 400.0 0.49346259488609434 1.0 0.0 0.0 
70.00033353340315 58.0 20.0 400.0 0.49346259488609434 0.0 0.0 0.0 
72.00059236981082 58.0 20.0 400.0 0.49346259488609434 0.0 0.0 0.0 
74.00059236981082 58.0 20.0 400.0 0.49346259488609434 0.0 0.0 0.0 
76.00008466603501 58.0 20.0 400.0 0.49346259488609434 0.0 0.0 0.0 
78.00059236981082 58.0 20.0 400.0 0.49346259488609434 0.0 0.0 0.0 
80.00033353340315 58.0 20.0 400.0 0.49346259488609434 0.0 0.0 0.0 
82.00059236981082 58.0 20.0 400.0 0.49346259488609434 0.0 0.0 0.0 
84.00059236981082 58.0 20.0 400.0 0.49346259488609434 0.0 0.0 0.0 
86.00008466603501 58.0 20.0 400.0 0.49346259488609434 0.0 0.0 0.0 
88.00059236981082 58.0 20.0 400.0 0.49346259488609434 0.0 0.0 0.0 
90.00033353340315 58.0 20.0 400.0 0.49346259488609434 0.0 0.0 0.0 
92.00059236981082 58.0 20.0 400.0 0.49346259488609434 0.0 0.0 0.0 
94.00059236981082 58.0 20.0 400.0 0.49346259488609434 0.0 0.0 0.0 
96.00008466603501 58.0 20.0 400.0 0.49346259488609434 0.0 0.0 0.0 
98.00059236981082 58.0 20.0 400.0 0.49346259488609434 0.0 0.0 0.0 
100.00033353340315 58.0 20.0 400.0 0.49346259488609434 0.0 0.0 0.0 
102.00059236981082 58.0 20.0 400.0 0.49346259488609434 0.0 0.0 0.0 
104.00059236981082 58.0 20.0 400.0 0.49346259488609434 0.0 0.0 0.0 
106.00008466603501 58.0 20.0 400.0 0.49346259488609434 0.0 0.0 0.0 
108.00059236981082 58.0 20.0 400.0 0.49346259488609434 0.0 0.0 0.0 
110.00033353340315 58.0 20.0 400.0 0.49346259488609434 0.0 0.0 0.0 
112.00059236981082 58.0 20.0 400.0 0.49346259488609434 0.0 0.0 0.0 
114.00059236981082 58.0 20.0 400.0 0.49346259488609434 0.0 0.0 0.0 
116.00008466603501 58.0 20.0 400.0 0.49346259488609434 0.0 0.0 0.0 
118.00059236981082 58.0 20.0 400.0 0.49346259488609434 0.0 0.0 0.0 
120.00033353340315 58.0 20.0 400.0 0.49346259488609434 0.0 0.0 0.0 
122.00059236981082 58.0 20.0 400.0 0.49346259488609434 0.0 0.0 0.0 
124.00059236981082 58.0 20.0 400.0 0.49346259488609434 0.0 0.0 0.0 
126.00008466603501 58.0 20.0 400.0 0.5279496459053598 0.0 0.0 0.0 
128.00059236981082 55.0 20.0 400.0 0.5906364307923793 0.0 0.0 0.0 
130.00033353340314 52.0 19.0 400.0 0.49064828023672497 0.0 0.0 0.0 
132.00059236981082 56.0 20.0 400.0 0.497402042725752 0.0 0.0 0.0 
134.00059236981082 56.0 20.0 400.0 0.497402042725752 0.0 0.0 0.0 
136.000084666035 56.0 20.0 400.0 0.497402042725752 0.0 0.0 0.0 
138.00059236981082 56.0 20.0 400.0 0.497402042725752 0.0 0.0 0.0 
140.00033353340314 56.0 20.0 400.0 0.497402042725752 0.0 0.0 0.0 
142.00059236981082 56.0 20.0 400.0 0.5893613801124955 0.0 0.0 0.0 
144.00059236981082 52.0 19.0 400.0 0.49064828023672497 0.0 0.0 0.0 
146.000084666035 52.0 19.0 400.0 0.49064828023672497 0.0 0.0 0.0 
148.00059236981082 52.0 19.0 400.0 0.49064828023672497 0.0 0.0 0.0 
150.00033353340314 52.0 19.0 400.0 0.49064828023672497 0.0 0.0 0.0 
152.00059236981082 52.0 19.0 400.0 0.49064828023672497 0.0 0.0 0.0 
154.00059236981082 52.0 19.0 400.0 0.49064828023672497 0.0 0.0 0.0 
156.000084666035 52.0 19.0 400.0 0.49064828023672497 0.0 0.0 0.0 
158.00059236981082 52.0 19.0 400.0 0.49064828023672497 0.0 0.0 0.0 
160.00033353340314 52.0 19.0 400.0 0.49064828023672497 0.0 0.0 0.0 
162.00059236981082 52.0 19.0 400.0 0.49064828023672497 0.0 0.0 0.0 
164.00059236981082 52.0 19.0 400.0 0.49064828023672497 0.0 0.0 0.0 
166.000084666035 52.0 19.0 400.0 0.49064828023672497 0.0 0.0 0.0 
168.00059236981082 52.0 19.0 400.0 0.49064828023672497 0.0 0.0 0.0 
170.00033353340314 52.0 19.0 400.0 0.49064828023672497 0.0 0.0 0.0 
172.00059236981082 52.0 19.0 400.0 0.49064828023672497 0.0 0.0 0.0 
174.00059236981082 52.0 19.0 400.0 0.49064828023672497 0.0 0.0 0.0 
176.000084666035 52.0 19.0 400.0 0.49064828023672497 0.0 0.0 0.0 
178.00059236981082 52.0 19.0 400.0 0.49064828023672497 0.0 0.0 0.0 
180.00033353340314 52.0 19.0 400.0 0.49064828023672497 0.0 0.0 0.0 
182.00059236981082 52.0 19.0 400.0 0.49064828023672497 0.0 0.0 0.0 
184.00059236981082 52.0 19.0 400.0 0.49064828023672497 0.0 0.0 0.0 
186.000084666035 52.0 19.0 400.0 0.49064828023672497 0.0 0.0 0.0 
188.00059236981082 52.0 19.0 400.0 0.49064828023672497 0.0 0.0 0.0 
190.00033353340314 52.0 19.0 400.0 0.49064828023672497 0.0 0.0 0.0 
192.00059236981082 52.0 19.0 400.0 0.49064828023672497 0.0 0.0 0.0 
194.00059236981082 52.0 19.0 400.0 0.49064828023672497 0.0 0.0 0.0 
196.000084666035 52.0 19.0 400.0 0.49064828023672497 0.0 0.0 0.0 
198.00059236981082 52.0 19.0 400.0 0.49064828023672497 0.0 0.0 0.0 
200.00033353340314 52.0 19.0 400.0 0.49064828023672497 0.0 0.0 0.0 
202.00059236981082 52.0 19.0 400.0 0.49064828023672497 0.0 0.0 0.0 
204.00059236981082 52.0 19.0 400.0 0.49064828023672497 0.0 0.0 0.0 
206.000084666035 52.0 19.0 400.0 0.49064828023672497 0.0 0.0 0.0 
208.00059236981082 52.0 19.0 400.0 0.49064828023672497 0.0 0.0 0.0 
210.00033353340314 52.0 19.0 400.0 0.49064828023672497 0.0 0.0 0.0 
212.00059236981082 52.0 19.0 400.0 0.49064828023672497 0.0 0.0 0.0 
214.00059236981082 52.0 19.0 400.0 0.49064828023672497 0.0 0.0 0.0 
216.000084666035 52.0 19.0 400.0 0.49064828023672497 0.0 0.0 0.0 
218.00059236981082 52.0 19.0 400.0 0.49064828023672497 0.0 0.0 0.0 
220.00033353340314 52.0 19.0 400.0 0.49064828023672497 0.0 0.0 0.0 
222.00059236981082 52.0 19.0 400.0 0.49064828023672497 0.0 0.0 0.0 
224.00059236981082 52.0 19.0 400.0 0.49064828023672497 0.0 0.0 0.0 
226.000084666035 52.0 19.0 400.0 0.49064828023672497 0.0 0.0 0.0 
228.00059236981082 52.0 19.0 400.0 0.49064828023672497 0.0 0.0 0.0 
230.00033353340314 52.0 19.0 400.0 0.49064828023672497 0.0 0.0 0.0 
232.00059236981082 52.0 19.0 400.0 0.49064828023672497 0.0 0.0 0.0 
234.00059236981082 52.0 19.0 400.0 0.49064828023672497 0.0 0.0 0.0 
236.000084666035 52.0 19.0 400.0 0.49064828023672497 0.0 0.0 0.0 
238.00059236981082 52.0 19.0 400.0 0.49064828023672497 0.0 0.0 0.0 
240.00033353340314 52.0 19.0 400.0 0.49064828023672497 0.0 0.0 0.0 
242.00059236981082 52.0 19.0 400.0 0.49064828023672497 0.0 0.0 0.0 
244.00059236981082 52.0 19.0 400.0 0.49064828023672497 0.0 0.0 0.0 
246.000084666035 52.0 19.0 400.0 0.49064828023672497 0.0 0.0 0.0 
248.00059236981082 52.0 19.0 400.0 0.49064828023672497 0.0 0.0 0.0 
250.00033353340314 52.0 19.0 400.0 0.49064828023672497 0.0 0.0 0.0 
252.00059236981082 52.0 19.0 400.0 0.49064828023672497 0.0 0.0 0.0 
254.00059236981082 52.0 19.0 400.0 0.49064828023672497 0.0 0.0 0.0 
256.00008466603504 52.0 19.0 400.0 0.49064828023672497 0.0 0.0 0.0 
258.0005923698108 52.0 19.0 400.0 0.4906482802367287 0.0 0.0 0.0 
260.00033353340314 52.0 19.0 400.0 0.4906482802367287 0.0 0.0 0.0 
262.0005923698108 52.0 19.0 400.0 0.4906482802367287 0.0 0.0 0.0 
264.0005923698108 52.0 19.0 400.0 0.4906482802367287 0.0 0.0 0.0 
266.00008466603504 52.0 19.0 400.0 0.4906482802367287 0.0 0.0 0.0 
268.0005923698108 52.0 19.0 400.0 0.4906482802367287 0.0 0.0 0.0 
270.00033353340314 52.0 19.0 400.0 0.4906482802367287 0.0 0.0 0.0 
272.0005923698108 52.0 19.0 400.0 0.4906482802367287 0.0 0.0 0.0 
274.0005923698108 52.0 19.0 400.0 0.4906482802367287 0.0 0.0 0.0 
276.00008466603504 52.0 19.0 400.0 0.4906482802367287 0.0 0.0 0.0 
278.0005923698108 52.0 19.0 400.0 0.4906482802367287 0.0 0.0 0.0 
280.00033353340314 52.0 19.0 400.0 0.4906482802367287 0.0 0.0 0.0 
282.0005923698108 52.0 19.0 400.0 0.4906482802367287 0.0 0.0 0.0 
284.0005923698108 52.0 19.0 400.0 0.4906482802367287 0.0 0.0 0.0 
286.00008466603504 52.0 19.0 400.0 0.4906482802367287 0.0 0.0 0.0 
288.0005923698108 52.0 19.0 400.0 0.4906482802367287 0.0 0.0 0.0 
290.00033353340314 52.0 19.0 400.0 0.4906482802367287 0.0 0.0 0.0 
292.0005923698108 52.0 19.0 400.0 0.4906482802367287 0.0 0.0 0.0 
294.0005923698108 52.0 19.0 400.0 0.4906482802367287 0.0 0.0 0.0 
296.00008466603504 52.0 19.0 400.0 0.4906482802367287 0.0 0.0 0.0 
298.0005923698108 52.0 19.0 400.0 0.4906482802367287 0.0 0.0 0.0 
300.00033353340314 54.0 20.0 400.0 0.4917494799365003 0.0 0.0 0.0 
302.0005923698108 54.0 20.0 400.0 0.4917494799365003 0.0 0.0 0.0 
304.0005923698108 54.0 20.0 400.0 0.4917494799365003 0.0 0.0 0.0 
306.00008466603504 54.0 20.0 400.0 0.4917494799365003 0.0 0.0 0.0 
308.0005923698108 54.0 20.0 400.0 0.4917494799365003 0.0 0.0 0.0 
310.00033353340314 54.0 20.0 400.0 0.5952014349973492 0.0 0.0 0.0 
312.0005923698108 52.0 19.0 400.0 0.4906482802367287 0.0 0.0 0.0 
314.0005923698108 52.0 19.0 400.0 0.4906482802367287 0.0 0.0 0.0 
316.00008466603504 52.0 19.0 400.0 0.4906482802367287 0.0 0.0 0.0 
318.0005923698108 52.0 19.0 400.0 0.4906482802367287 0.0 0.0 0.0 
320.00033353340314 52.0 19.0 400.0 0.4906482802367287 0.0 0.0 0.0 
322.0005923698108 52.0 19.0 400.0 0.4906482802367287 0.0 0.0 0.0 
324.0005923698108 52.0 19.0 400.0 0.4906482802367287 0.0 0.0 0.0 
326.00008466603504 52.0 19.0 400.0 0.4906482802367287 0.0 0.0 0.0 
328.0005923698108 52.0 19.0 400.0 0.4906482802367287 0.0 0.0 0.0 
330.00033353340314 52.0 19.0 400.0 0.4906482802367287 0.0 0.0 0.0 
332.0005923698108 52.0 19.0 400.0 0.4906482802367287 0.0 0.0 0.0 
334.0005923698108 52.0 19.0 400.0 0.4906482802367287 0.0 0.0 0.0 
336.00008466603504 52.0 19.0 400.0 0.4906482802367287 0.0 0.0 0.0 
338.0005923698108 52.0 19.0 400.0 0.4906482802367287 0.0 0.0 0.0 
340.00033353340314 52.0 19.0 400.0 0.4906482802367287 0.0 0.0 0.0 
342.0005923698108 52.0 19.0 400.0 0.4906482802367287 0.0 0.0 0.0 
344.0005923698108 52.0 19.0 400.0 0.4906482802367287 0.0 0.0 0.0 
346.00008466603504 56.0 20.0 400.0 0.492777236679836 0.0 0.0 0.0 
348.0005923698108 56.0 20.0 400.0 0.4927741706808527 0.0 0.0 0.0 
350.00033353340314 56.0 20.0 400.0 0.4927741706808527 0.0 0.0 0.0 
352.0005923698108 56.0 20.0 400.0 0.4927741706808527 0.0 0.0 0.0 
354.0005923698108 56.0 20.0 400.0 0.4927741706808527 0.0 0.0 0.0 
356.00008466603504 56.0 20.0 400.0 0.4927741706808527 0.0 0.0 0.0 
358.0005923698108 56.0 20.0 400.0 0.4927741706808527 0.0 0.0 0.0 
360.00033353340314 56.0 20.0 400.0 0.4927741706808527 0.0 0.0 0.0 
362.0005923698108 56.0 20.0 400.0 0.4927741706808527 0.0 0.0 0.0 
364.0005923698108 56.0 20.0 400.0 0.4927741706808527 0.0 0.0 0.0 
366.00008466603504 56.0 20.0 400.0 0.4927741706808527 0.0 0.0 0.0 
368.0005923698108 56.0 20.0 400.0 0.4927741706808527 0.0 0.0 0.0 
370.00033353340314 56.0 20.0 400.0 0.4927741706808527 0.0 0.0 0.0 
372.0005923698108 56.0 20.0 400.0 0.4927741706808527 0.0 0.0 0.0 
374.0005923698108 56.0 20.0 400.0 0.4927741706808527 0.0 0.0 0.0 
376.00008466603504 56.0 20.0 400.0 0.4927741706808527 0.0 0.0 0.0 
378.0005923698108 56.0 20.0 400.0 0.4927741706808527 0.0 0.0 0.0 
380.00033353340314 56.0 20.0 400.0 0.4927741706808527 0.0 0.0 0.0 
382.0005923698108 56.0 20.0 400.0 0.4927741706808527 0.0 0.0 0.0 
384.0005923698108 56.0 20.0 400.0 0.4927741706808527 0.0 0.0 0.0 
386.00008466603504 56.0 20.0 400.0 0.4927741706808527 0.0 0.0 0.0 
388.0005923698108 56.0 20.0 400.0 0.4927741706808527 0.0 0.0 0.0 
390.00033353340314 56.0 20.0 400.0 0.4927741706808527 0.0 0.0 0.0 
392.0005923698108 56.0 20.0 400.0 0.4927741706808527 0.0 0.0 0.0 
394.0005923698108 56.0 20.0 400.0 0.4927741706808527 0.0 0.0 0.0 
396.00008466603504 56.0 20.0 400.0 0.4927741706808527 0.0 0.0 0.0 
398.0005923698108 56.0 20.0 400.0 0.4927741706808527 0.0 0.0 0.0 
400.00033353340314 56.0 20.0 400.0 0.4927741706808527 0.0 0.0 0.0 
402.0005923698108 56.0 20.0 400.0 0.4927741706808527 0.0 0.0 0.0 
404.0005923698108 56.0 20.0 400.0 0.4927741706808527 0.0 0.0 0.0 
406.00008466603504 56.0 20.0 400.0 0.4927741706808527 0.0 0.0 0.0 
408.0005923698108 56.0 20.0 400.0 0.4927741706808527 0.0 0.0 0.0 
410.00033353340314 56.0 20.0 400.0 0.4927741706808527 0.0 0.0 0.0 
412.0005923698108 56.0 20.0 400.0 0.4927741706808527 0.0 0.0 0.0 
414.0005923698108 56.0 20.0 400.0 0.4927741706808527 0.0 0.0 0.0 
416.00008466603504 56.0 20.0 400.0 0.4927741706808527 0.0 0.0 0.0 
418.0005923698108 56.0 20.0 400.0 0.4927741706808527 0.0 0.0 0.0 
420.00033353340314 56.0 20.0 400.0 0.4927741706808527 0.0 0.0 0.0 
422.0005923698108 56.0 20.0 400.0 0.4927741706808527 0.0 0.0 0.0 
424.0005923698108 56.0 20.0 400.0 0.4927741706808527 0.0 0.0 0.0 
426.00008466603504 56.0 20.0 400.0 0.4927741706808527 0.0 0.0 0.0 
428.0005923698108 56.0 20.0 400.0 0.4927741706808527 0.0 0.0 0.0 
430.00033353340314 56.0 20.0 400.0 0.4927741706808527 0.0 0.0 0.0 
432.0005923698108 56.0 20.0 400.0 0.4927741706808527 0.0 0.0 0.0 
434.0005923698108 56.0 20.0 400.0 0.4927741706808527 0.0 0.0 0.0 
436.00008466603504 56.0 20.0 400.0 0.4927741706808527 0.0 0.0 0.0 
438.0005923698108 56.0 20.0 400.0 0.4927741706808527 0.0 0.0 0.0 
440.00033353340314 56.0 20.0 400.0 0.4927741706808527 0.0 0.0 0.0 
442.0005923698108 56.0 20.0 400.0 0.4927741706808527 0.0 0.0 0.0 
444.0005923698108 56.0 20.0 400.0 0.4927741706808527 0.0 0.0 0.0 
446.00008466603504 56.0 20.0 400.0 0.4927741706808527 0.0 0.0 0.0 
448.0005923698108 56.0 20.0 400.0 0.4927741706808527 0.0 0.0 0.0 
450.00033353340314 56.0 20.0 400.0 0.4927741706808527 0.0 0.0 0.0 
452.0005923698108 56.0 20.0 400.0 0.4927741706808527 0.0 0.0 0.0 
454.0005923698108 56.0 20.0 400.0 0.4927741706808527 0.0 0.0 0.0 
456.00008466603504 56.0 20.0 400.0 0.4927741706808527 0.0 0.0 0.0 
458.0005923698108 56.0 20.0 400.0 0.4927741706808527 0.0 0.0 0.0 
460.00033353340314 56.0 20.0 400.0 0.4927741706808527 0.0 0.0 0.0 
462.0005923698108 56.0 20.0 400.0 0.4927741706808527 0.0 0.0 0.0 
464.0005923698108 56.0 20.0 400.0 0.4927741706808527 0.0 0.0 0.0 
466.00008466603504 56.0 20.0 400.0 0.4927741706808527 0.0 0.0 0.0 
468.0005923698108 56.0 20.0 400.0 0.4927741706808527 0.0 0.0 0.0 
470.00033353340314 56.0 20.0 400.0 0.4927741706808527 0.0 0.0 0.0 
472.0005923698108 56.0 20.0 400.0 0.4927741706808527 0.0 0.0 0.0 
474.0005923698108 56.0 20.0 400.0 0.4927741706808527 0.0 0.0 0.0 
476.00008466603504 56.0 20.0 400.0 0.4927741706808527 0.0 0.0 0.0 
478.0005923698108 56.0 20.0 400.0 0.4927741706808527 0.0 0.0 0.0 
480.00033353340314 56.0 20.0 400.0 0.4927741706808527 0.0 0.0 0.0 
482.0005923698108 56.0 20.0 400.0 0.4927741706808527 0.0 0.0 0.0 
484.0005923698108 56.0 20.0 400.0 0.4927741706808527 0.0 0.0 0.0 
486.00008466603504 56.0 20.0 400.0 0.4927741706808527 0.0 0.0 0.0 
488.0005923698108 56.0 20.0 400.0 0.4927741706808527 0.0 0.0 0.0 
490.00033353340314 56.0 20.0 400.0 0.4927741706808527 0.0 0.0 0.0 
492.0005923698108 56.0 20.0 400.0 0.4927741706808527 0.0 0.0 0.0 
494.0005923698108 56.0 20.0 400.0 0.4927741706808527 0.0 0.0 0.0 
496.00008466603504 56.0 20.0 400.0 0.4927741706808527 0.0 0.0 0.0 
498.0005923698108 56.0 20.0 400.0 0.4927741706808527 0.0 0.0 0.0 
500.00033353340314 56.0 20.0 400.0 0.4927741706808527 0.0 0.0 0.0 
502.0005923698108 56.0 20.0 400.0 0.4927741706808527 0.0 0.0 0.0 
504.0005923698108 56.0 20.0 400.0 0.4927741706808527 0.0 0.0 0.0 
506.00008466603504 56.0 20.0 400.0 0.4927741706808527 0.0 0.0 0.0 
508.0005923698108 56.0 20.0 400.0 0.4927741706808527 0.0 0.0 0.0 
510.00033353340314 56.0 20.0 400.0 0.4927741706808527 0.0 0.0 0.0 
512.0005923698109 56.0 20.0 400.0 0.4927741706808527 0.0 0.0 0.0 
514.0005923698109 56.0 20.0 400.0 0.49277417068085316 0.0 0.0 0.0 
516.000084666035 56.0 20.0 400.0 0.49277417068085316 0.0 0.0 0.0 
518.0005923698109 56.0 20.0 400.0 0.49277417068085316 0.0 0.0 0.0 
520.0003335334031 56.0 20.0 400.0 0.49277417068085316 0.0 0.0 0.0 
522.0005923698109 56.0 20.0 400.0 0.49277417068085316 0.0 0.0 0.0 
524.0005923698109 56.0 20.0 400.0 0.49277417068085316 0.0 0.0 0.0 
526.000084666035 56.0 20.0 400.0 0.5703652831757821 0.0 0.0 0.0 
528.0005923698109 52.0 19.0 400.0 0.490648280236739 0.0 0.0 0.0 
530.0003335334031 52.0 19.0 400.0 0.490648280236739 0.0 0.0 0.0 
532.0005923698109 52.0 19.0 400.0 0.490648280236739 0.0 0.0 0.0 
534.0005923698109 52.0 19.0 400.0 0.490648280236739 0.0 0.0 0.0 
536.000084666035 52.0 19.0 400.0 0.490648280236739 0.0 0.0 0.0 
538.0005923698109 52.0 19.0 400.0 0.490648280236739 0.0 0.0 0.0 
540.0003335334031 52.0 19.0 400.0 0.490648280236739 0.0 0.0 0.0 
542.0005923698109 52.0 19.0 400.0 0.490648280236739 0.0 0.0 0.0 
544.0005923698109 52.0 19.0 400.0 0.490648280236739 0.0 0.0 0.0 
546.000084666035 52.0 19.0 400.0 0.490648280236739 0.0 0.0 0.0 
548.0005923698109 52.0 19.0 400.0 0.490648280236739 0.0 0.0 0.0 
550.0003335334031 52.0 19.0 400.0 0.490648280236739 0.0 0.0 0.0 
552.0005923698109 52.0 19.0 400.0 0.490648280236739 0.0 0.0 0.0 
554.0005923698109 52.0 19.0 400.0 0.490648280236739 0.0 0.0 0.0 
556.000084666035 52.0 19.0 400.0 0.490648280236739 0.0 0.0 0.0 
558.0005923698109 52.0 19.0 400.0 0.490648280236739 0.0 0.0 0.0 
560.0003335334031 52.0 19.0 400.0 0.490648280236739 0.0 0.0 0.0 
562.0005923698109 52.0 19.0 400.0 0.490648280236739 0.0 0.0 0.0 
564.0005923698109 52.0 19.0 400.0 0.490648280236739 0.0 0.0 0.0 
566.000084666035 52.0 19.0 400.0 0.490648280236739 0.0 0.0 0.0 
568.0005923698109 52.0 19.0 400.0 0.490648280236739 0.0 0.0 0.0 
570.0003335334031 52.0 19.0 400.0 0.490648280236739 0.0 0.0 0.0 
572.0005923698109 52.0 19.0 400.0 0.490648280236739 0.0 0.0 0.0 
574.0005923698109 52.0 19.0 400.0 0.490648280236739 0.0 0.0 0.0 
576.000084666035 52.0 19.0 400.0 0.490648280236739 0.0 0.0 0.0 
578.0005923698109 52.0 19.0 400.0 0.490648280236739 0.0 0.0 0.0 
580.0003335334031 52.0 19.0 400.0 0.490648280236739 0.0 0.0 0.0 
582.0005923698109 52.0 19.0 400.0 0.490648280236739 0.0 0.0 0.0 
584.0005923698109 52.0 19.0 400.0 0.490648280236739 0.0 0.0 0.0 
586.000084666035 52.0 19.0 400.0 0.490648280236739 0.0 0.0 0.0 
588.0005923698109 52.0 19.0 400.0 0.490648280236739 0.0 0.0 0.0 
590.0003335334031 52.0 19.0 400.0 0.490648280236739 0.0 0.0 0.0 
592.0005923698109 52.0 19.0 400.0 0.490648280236739 0.0 0.0 0.0 
594.0005923698109 52.0 19.0 400.0 0.490648280236739 0.0 0.0 0.0 
596.000084666035 52.0 19.0 400.0 0.490648280236739 0.0 0.0 0.0 
598.0005923698109 52.0 19.0 400.0 0.490648280236739 0.0 0.0 0.0 
600.0003335334031 52.0 19.0 400.0 0.490648280236739 0.0 0.0 0.0 
602.0005923698109 52.0 19.0 400.0 0.490648280236739 0.0 0.0 0.0 
604.0005923698109 52.0 19.0 400.0 0.490648280236739 0.0 0.0 0.0 
606.000084666035 52.0 19.0 400.0 0.490648280236739 0.0 0.0 0.0 
608.0005923698109 52.0 19.0 400.0 0.490648280236739 0.0 0.0 0.0 
610.0003335334031 52.0 19.0 400.0 0.490648280236739 0.0 0.0 0.0 
612.0005923698109 52.0 19.0 400.0 0.490648280236739 0.0 0.0 0.0 
614.0005923698109 52.0 19.0 400.0 0.490648280236739 0.0 0.0 0.0 
616.000084666035 52.0 19.0 400.0 0.490648280236739 0.0 0.0 0.0 
618.0005923698109 52.0 19.0 400.0 0.490648280236739 0.0 0.0 0.0 
620.0003335334031 52.0 19.0 400.0 0.490648280236739 0.0 0.0 0.0 
622.0005923698109 52.0 19.0 400.0 0.490648280236739 0.0 0.0 0.0 
624.0005923698109 52.0 19.0 400.0 0.490648280236739 0.0 0.0 0.0 
626.000084666035 52.0 19.0 400.0 0.490648280236739 0.0 0.0 0.0 
628.0005923698109 52.0 19.0 400.0 0.490648280236739 0.0 0.0 0.0 
630.0003335334031 52.0 19.0 400.0 0.490648280236739 0.0 0.0 0.0 
632.0005923698109 52.0 19.0 400.0 0.490648280236739 0.0 0.0 0.0 
634.0005923698109 52.0 19.0 400.0 0.490648280236739 0.0 0.0 0.0 
636.000084666035 52.0 19.0 400.0 0.490648280236739 0.0 0.0 0.0 
638.0005923698109 52.0 19.0 400.0 0.490648280236739 0.0 0.0 0.0 
640.0003335334031 52.0 19.0 400.0 0.490648280236739 0.0 0.0 0.0 
642.0005923698109 52.0 19.0 400.0 0.490648280236739 0.0 0.0 0.0 
644.0005923698109 52.0 19.0 400.0 0.490648280236739 0.0 0.0 0.0 
646.000084666035 56.0 20.0 400.0 0.4927772366798389 0.0 0.0 0.0 
648.0005923698109 56.0 20.0 400.0 0.49277417068085316 0.0 0.0 0.0 
650.0003335334031 56.0 20.0 400.0 0.49277417068085316 0.0 0.0 0.0 
652.0005923698109 56.0 20.0 400.0 0.49277417068085316 0.0 0.0 0.0 
654.0005923698109 56.0 20.0 400.0 0.49277417068085316 0.0 0.0 0.0 
656.000084666035 56.0 20.0 400.0 0.49277417068085316 0.0 0.0 0.0 
658.0005923698109 56.0 20.0 400.0 0.49277417068085316 0.0 0.0 0.0 
660.0003335334031 56.0 20.0 400.0 0.49277417068085316 0.0 0.0 0.0 
662.0005923698109 56.0 20.0 400.0 0.49277417068085316 0.0 0.0 0.0 
664.0005923698109 56.0 20.0 400.0 0.49277417068085316 0.0 0.0 0.0 
#####################################################################
# End of data export. Simulation finished at: 2019-03-09T18:10+0000 #
#####################################################################
