#####################################################################
# Alchemist log file - simulation started at: 2019-03-04T16:43+0000 #
#####################################################################
# seed = 6.0, bandwidth = 4216.965034285822, accessPointCount = 37.60603093086394, baserange = 17.78279410038923
#
# The columns have the following meaning: 
# time neighbor_count[Sum] <value>@neighbor_count[Sum] packet_size[Mean] mean_delay[Mean] crowd[Sum] overcrowded[Sum] risk[Sum] 
0.0 NaN NaN NaN NaN NaN NaN NaN 
2.000024957581648 1.0 NaN 4987.423728813559 0.27121794239945096 1497.0 0.0 1497.0 
4.000780476949327 4.0 2.0 4987.509778357236 1.3181073450982308 1497.0 0.0 1497.0 
6.000780476949327 4.0 2.0 4987.4889178618 1.3147874219103044 1497.0 0.0 1497.0 
8.000780476949327 4.0 2.0 4987.478487614081 1.3119417734635106 1497.0 0.0 1497.0 
10.000780476949327 4.0 2.0 4987.468057366363 1.315261696651437 1497.0 0.0 1497.0 
12.000780476949327 4.0 2.0 4987.468057366363 1.3152616966514374 1497.0 0.0 1497.0 
14.000780476949327 4.0 2.0 4987.468057366363 1.3157359713925696 1497.0 0.0 1497.0 
16.000780476949327 4.0 2.0 4987.468057366363 1.3157359713925696 1497.0 0.0 1497.0 
18.000780476949327 4.0 2.0 4987.468057366363 1.3157359713925696 1497.0 0.0 1497.0 
20.000780476949327 4.0 2.0 4987.468057366363 1.31573597139257 1497.0 0.0 1497.0 
22.000780476949327 4.0 2.0 4987.468057366363 1.31573597139257 1497.0 0.0 1497.0 
24.000780476949327 4.0 2.0 4987.468057366363 1.31573597139257 1497.0 0.0 1497.0 
26.000780476949327 4.0 2.0 4987.468057366363 1.31573597139257 1497.0 0.0 1497.0 
28.000780476949327 4.0 2.0 4987.468057366363 1.31573597139257 1497.0 0.0 1497.0 
30.000780476949327 4.0 2.0 4987.468057366363 1.31573597139257 1497.0 0.0 1497.0 
32.00078047694933 4.0 2.0 4987.468057366363 1.31573597139257 1497.0 0.0 1497.0 
34.00078047694933 4.0 2.0 4987.468057366363 1.31573597139257 1497.0 0.0 1497.0 
36.00078047694933 4.0 2.0 4987.468057366363 1.31573597139257 1497.0 0.0 1497.0 
38.00078047694933 4.0 2.0 4987.468057366363 1.31573597139257 1497.0 0.0 1497.0 
40.00078047694933 4.0 2.0 4987.468057366363 1.31573597139257 1497.0 0.0 1497.0 
42.00078047694933 4.0 2.0 4987.468057366363 1.31573597139257 1497.0 0.0 1497.0 
44.00078047694933 4.0 2.0 4987.468057366363 1.31573597139257 1497.0 0.0 1497.0 
46.00078047694933 4.0 2.0 4987.468057366363 1.31573597139257 1497.0 0.0 1497.0 
48.00078047694933 4.0 2.0 4987.468057366363 1.31573597139257 1497.0 0.0 1497.0 
50.00078047694933 4.0 2.0 4987.468057366363 1.31573597139257 1497.0 0.0 1497.0 
52.00078047694933 4.0 2.0 4987.468057366363 1.31573597139257 1497.0 0.0 1497.0 
54.00078047694933 4.0 2.0 4987.468057366363 1.31573597139257 1497.0 0.0 1497.0 
56.00078047694933 4.0 2.0 4987.468057366363 1.31573597139257 1497.0 0.0 1497.0 
58.00078047694933 4.0 2.0 4987.468057366363 1.31573597139257 1497.0 0.0 1497.0 
60.00078047694933 4.0 2.0 4987.468057366363 1.31573597139257 1497.0 0.0 1497.0 
62.00044361850858 4.0 2.0 400.0 0.40514505177353044 2.0 0.0 0.0 
64.00044361850857 4.0 2.0 400.0 0.40514505177353044 2.0 0.0 0.0 
66.00044361850857 4.0 2.0 400.0 0.40514505177353044 2.0 0.0 0.0 
68.00044361850857 4.0 2.0 400.0 0.40514505177353044 2.0 0.0 0.0 
70.00044361850857 4.0 2.0 400.0 0.40514505177353044 1.0 0.0 0.0 
72.00044361850857 4.0 2.0 400.0 0.40514505177353044 1.0 0.0 0.0 
74.00044361850857 4.0 2.0 400.0 0.40514505177353044 1.0 0.0 0.0 
76.00044361850857 4.0 2.0 400.0 0.40514505177353044 1.0 0.0 0.0 
78.00044361850857 4.0 2.0 400.0 0.40514505177353044 1.0 0.0 0.0 
80.00044361850857 4.0 2.0 400.0 0.40514505177353044 1.0 0.0 0.0 
82.00044361850857 4.0 2.0 400.0 0.40514505177353044 1.0 0.0 0.0 
84.00044361850857 4.0 2.0 400.0 0.40514505177353044 1.0 0.0 0.0 
86.00044361850857 4.0 2.0 400.0 0.40514505177353044 0.0 0.0 0.0 
88.00044361850857 4.0 2.0 400.0 0.40514505177353044 0.0 0.0 0.0 
90.00044361850857 4.0 2.0 400.0 0.40514505177353044 0.0 0.0 0.0 
92.00044361850857 4.0 2.0 400.0 0.40514505177353044 0.0 0.0 0.0 
94.00044361850857 4.0 2.0 400.0 0.40514505177353044 0.0 0.0 0.0 
96.00044361850857 4.0 2.0 400.0 0.40514505177353044 0.0 0.0 0.0 
98.00044361850857 4.0 2.0 400.0 0.40514505177353044 0.0 0.0 0.0 
100.00044361850857 4.0 2.0 400.0 0.40514505177353044 0.0 0.0 0.0 
102.00044361850857 4.0 2.0 400.0 0.40514505177353044 0.0 0.0 0.0 
104.00044361850857 4.0 2.0 400.0 0.40514505177353044 0.0 0.0 0.0 
106.00044361850857 4.0 2.0 400.0 0.40514505177353044 0.0 0.0 0.0 
108.00044361850857 4.0 2.0 400.0 0.40514505177353044 0.0 0.0 0.0 
110.00044361850857 4.0 2.0 400.0 0.40514505177353044 0.0 0.0 0.0 
112.00044361850857 4.0 2.0 400.0 0.40514505177353044 0.0 0.0 0.0 
114.00044361850857 4.0 2.0 400.0 0.40514505177353044 0.0 0.0 0.0 
116.00044361850857 4.0 2.0 400.0 0.40514505177353044 0.0 0.0 0.0 
118.00044361850857 4.0 2.0 400.0 0.40514505177353044 0.0 0.0 0.0 
120.00044361850857 4.0 2.0 400.0 0.40514505177353044 0.0 0.0 0.0 
122.00044361850857 4.0 2.0 400.0 0.40514505177353044 0.0 0.0 0.0 
124.00044361850857 4.0 2.0 400.0 0.40514505177353044 0.0 0.0 0.0 
126.00044361850857 4.0 2.0 400.0 0.40514505177353044 0.0 0.0 0.0 
128.00044361850857 4.0 2.0 400.0 0.40514505177353044 0.0 0.0 0.0 
130.00044361850857 4.0 2.0 400.0 0.40514505177353044 0.0 0.0 0.0 
132.00044361850857 4.0 2.0 400.0 0.40514505177353044 0.0 0.0 0.0 
134.00044361850857 4.0 2.0 400.0 0.40514505177353044 0.0 0.0 0.0 
136.00044361850857 4.0 2.0 400.0 0.40514505177353044 0.0 0.0 0.0 
138.00044361850857 4.0 2.0 400.0 0.40514505177353044 0.0 0.0 0.0 
140.00044361850857 4.0 2.0 400.0 0.40514505177353044 0.0 0.0 0.0 
142.00044361850857 4.0 2.0 400.0 0.40514505177353044 0.0 0.0 0.0 
144.00044361850857 4.0 2.0 400.0 0.40514505177353044 0.0 0.0 0.0 
146.00044361850857 4.0 2.0 400.0 0.40514505177353044 0.0 0.0 0.0 
148.00044361850857 4.0 2.0 400.0 0.40514505177353044 0.0 0.0 0.0 
150.00044361850857 4.0 2.0 400.0 0.40514505177353044 0.0 0.0 0.0 
152.00044361850857 4.0 2.0 400.0 0.40514505177353044 0.0 0.0 0.0 
154.00044361850857 4.0 2.0 400.0 0.40514505177353044 0.0 0.0 0.0 
156.00044361850857 4.0 2.0 400.0 0.40514505177353044 0.0 0.0 0.0 
158.00044361850857 4.0 2.0 400.0 0.40514505177353044 0.0 0.0 0.0 
160.00044361850857 4.0 2.0 400.0 0.40514505177353044 0.0 0.0 0.0 
162.00044361850857 4.0 2.0 400.0 0.40514505177353044 0.0 0.0 0.0 
164.00044361850857 4.0 2.0 400.0 0.40514505177353044 0.0 0.0 0.0 
166.00044361850857 4.0 2.0 400.0 0.40514505177353044 0.0 0.0 0.0 
168.00044361850857 4.0 2.0 400.0 0.40514505177353044 0.0 0.0 0.0 
170.00044361850857 4.0 2.0 400.0 0.40514505177353044 0.0 0.0 0.0 
172.00044361850857 4.0 2.0 400.0 0.40514505177353044 0.0 0.0 0.0 
174.00044361850857 4.0 2.0 400.0 0.40514505177353044 0.0 0.0 0.0 
176.00044361850857 4.0 2.0 400.0 0.40514505177353044 0.0 0.0 0.0 
178.00044361850857 4.0 2.0 400.0 0.40514505177353044 0.0 0.0 0.0 
180.00044361850857 4.0 2.0 400.0 0.40514505177353044 0.0 0.0 0.0 
182.00044361850857 4.0 2.0 400.0 0.40514505177353044 0.0 0.0 0.0 
184.00044361850857 4.0 2.0 400.0 0.40514505177353044 0.0 0.0 0.0 
186.00044361850857 4.0 2.0 400.0 0.40514505177353044 0.0 0.0 0.0 
188.00044361850857 4.0 2.0 400.0 0.40514505177353044 0.0 0.0 0.0 
190.00044361850857 4.0 2.0 400.0 0.40514505177353044 0.0 0.0 0.0 
192.00044361850857 4.0 2.0 400.0 0.40514505177353044 0.0 0.0 0.0 
194.00044361850857 4.0 2.0 400.0 0.40514505177353044 0.0 0.0 0.0 
196.00044361850857 4.0 2.0 400.0 0.40514505177353044 0.0 0.0 0.0 
198.00044361850857 4.0 2.0 400.0 0.40514505177353044 0.0 0.0 0.0 
200.00044361850857 4.0 2.0 400.0 0.40514505177353044 0.0 0.0 0.0 
202.00044361850857 4.0 2.0 400.0 0.40514505177353044 0.0 0.0 0.0 
204.00044361850857 4.0 2.0 400.0 0.40514505177353044 0.0 0.0 0.0 
206.00044361850857 4.0 2.0 400.0 0.40514505177353044 0.0 0.0 0.0 
208.00044361850857 4.0 2.0 400.0 0.40514505177353044 0.0 0.0 0.0 
210.00044361850857 4.0 2.0 400.0 0.40514505177353044 0.0 0.0 0.0 
212.00044361850857 4.0 2.0 400.0 0.40514505177353044 0.0 0.0 0.0 
214.00044361850857 4.0 2.0 400.0 0.40514505177353044 0.0 0.0 0.0 
216.00044361850857 4.0 2.0 400.0 0.40514505177353044 0.0 0.0 0.0 
218.00044361850857 4.0 2.0 400.0 0.40514505177353044 0.0 0.0 0.0 
220.00044361850857 4.0 2.0 400.0 0.40514505177353044 0.0 0.0 0.0 
222.00044361850857 4.0 2.0 400.0 0.40514505177353044 0.0 0.0 0.0 
224.00044361850857 4.0 2.0 400.0 0.40514505177353044 0.0 0.0 0.0 
226.00044361850857 4.0 2.0 400.0 0.40514505177353044 0.0 0.0 0.0 
228.00044361850857 4.0 2.0 400.0 0.40514505177353044 0.0 0.0 0.0 
230.00044361850857 4.0 2.0 400.0 0.40514505177353044 0.0 0.0 0.0 
232.00044361850857 4.0 2.0 400.0 0.40514505177353044 0.0 0.0 0.0 
234.00044361850857 4.0 2.0 400.0 0.40514505177353044 0.0 0.0 0.0 
236.00044361850857 4.0 2.0 400.0 0.40514505177353044 0.0 0.0 0.0 
238.00044361850857 4.0 2.0 400.0 0.40514505177353044 0.0 0.0 0.0 
240.00044361850857 4.0 2.0 400.0 0.40514505177353044 0.0 0.0 0.0 
242.00044361850857 4.0 2.0 400.0 0.40514505177353044 0.0 0.0 0.0 
244.00044361850857 4.0 2.0 400.0 0.40514505177353044 0.0 0.0 0.0 
246.00044361850857 4.0 2.0 400.0 0.40514505177353044 0.0 0.0 0.0 
248.00044361850857 4.0 2.0 400.0 0.40514505177353044 0.0 0.0 0.0 
250.00044361850857 4.0 2.0 400.0 0.40514505177353044 0.0 0.0 0.0 
252.00044361850857 4.0 2.0 400.0 0.40514505177353044 0.0 0.0 0.0 
254.00044361850857 4.0 2.0 400.0 0.40514505177353044 0.0 0.0 0.0 
256.00044361850854 4.0 2.0 400.0 0.40514505177353044 0.0 0.0 0.0 
258.00044361850854 4.0 2.0 400.0 0.40514505177355886 0.0 0.0 0.0 
260.00044361850854 4.0 2.0 400.0 0.40514505177355886 0.0 0.0 0.0 
262.00044361850854 4.0 2.0 400.0 0.40514505177355886 0.0 0.0 0.0 
264.00044361850854 4.0 2.0 400.0 0.40514505177355886 0.0 0.0 0.0 
266.00044361850854 4.0 2.0 400.0 0.40514505177355886 0.0 0.0 0.0 
268.00044361850854 4.0 2.0 400.0 0.40514505177355886 0.0 0.0 0.0 
270.00044361850854 4.0 2.0 400.0 0.40514505177355886 0.0 0.0 0.0 
272.00044361850854 4.0 2.0 400.0 0.40514505177355886 0.0 0.0 0.0 
274.00044361850854 4.0 2.0 400.0 0.40514505177355886 0.0 0.0 0.0 
276.00044361850854 4.0 2.0 400.0 0.40514505177355886 0.0 0.0 0.0 
278.00044361850854 4.0 2.0 400.0 0.40514505177355886 0.0 0.0 0.0 
280.00044361850854 4.0 2.0 400.0 0.40514505177355886 0.0 0.0 0.0 
282.00044361850854 4.0 2.0 400.0 0.40514505177355886 0.0 0.0 0.0 
284.00044361850854 4.0 2.0 400.0 0.40514505177355886 0.0 0.0 0.0 
286.00044361850854 4.0 2.0 400.0 0.40514505177355886 0.0 0.0 0.0 
288.00044361850854 4.0 2.0 400.0 0.40514505177355886 0.0 0.0 0.0 
290.00044361850854 4.0 2.0 400.0 0.40514505177355886 0.0 0.0 0.0 
292.00044361850854 4.0 2.0 400.0 0.40514505177355886 0.0 0.0 0.0 
294.00044361850854 4.0 2.0 400.0 0.40514505177355886 0.0 0.0 0.0 
296.00044361850854 4.0 2.0 400.0 0.40514505177355886 0.0 0.0 0.0 
298.00044361850854 4.0 2.0 400.0 0.40514505177355886 0.0 0.0 0.0 
300.00044361850854 4.0 2.0 400.0 0.40514505177355886 0.0 0.0 0.0 
302.00044361850854 4.0 2.0 400.0 0.40514505177355886 0.0 0.0 0.0 
304.00044361850854 4.0 2.0 400.0 0.40514505177355886 0.0 0.0 0.0 
306.00044361850854 4.0 2.0 400.0 0.40514505177355886 0.0 0.0 0.0 
308.00044361850854 4.0 2.0 400.0 0.40514505177355886 0.0 0.0 0.0 
310.00044361850854 4.0 2.0 400.0 0.40514505177355886 0.0 0.0 0.0 
312.00044361850854 4.0 2.0 400.0 0.40514505177355886 0.0 0.0 0.0 
314.00044361850854 4.0 2.0 400.0 0.40514505177355886 0.0 0.0 0.0 
316.00044361850854 4.0 2.0 400.0 0.40514505177355886 0.0 0.0 0.0 
318.00044361850854 4.0 2.0 400.0 0.40514505177355886 0.0 0.0 0.0 
320.00044361850854 4.0 2.0 400.0 0.40514505177355886 0.0 0.0 0.0 
322.00044361850854 4.0 2.0 400.0 0.40514505177355886 0.0 0.0 0.0 
324.00044361850854 4.0 2.0 400.0 0.40514505177355886 0.0 0.0 0.0 
326.00044361850854 4.0 2.0 400.0 0.40514505177355886 0.0 0.0 0.0 
328.00044361850854 4.0 2.0 400.0 0.40514505177355886 0.0 0.0 0.0 
330.00044361850854 4.0 2.0 400.0 0.40514505177355886 0.0 0.0 0.0 
332.00044361850854 4.0 2.0 400.0 0.40514505177355886 0.0 0.0 0.0 
334.00044361850854 4.0 2.0 400.0 0.40514505177355886 0.0 0.0 0.0 
336.00044361850854 4.0 2.0 400.0 0.40514505177355886 0.0 0.0 0.0 
338.00044361850854 4.0 2.0 400.0 0.40514505177355886 0.0 0.0 0.0 
340.00044361850854 4.0 2.0 400.0 0.40514505177355886 0.0 0.0 0.0 
342.00044361850854 4.0 2.0 400.0 0.40514505177355886 0.0 0.0 0.0 
344.00044361850854 4.0 2.0 400.0 0.40514505177355886 0.0 0.0 0.0 
346.00044361850854 4.0 2.0 400.0 0.40514505177355886 0.0 0.0 0.0 
348.00044361850854 4.0 2.0 400.0 0.40514505177355886 0.0 0.0 0.0 
350.00044361850854 4.0 2.0 400.0 0.40514505177355886 0.0 0.0 0.0 
352.00044361850854 4.0 2.0 400.0 0.40514505177355886 0.0 0.0 0.0 
354.00044361850854 4.0 2.0 400.0 0.40514505177355886 0.0 0.0 0.0 
356.00044361850854 4.0 2.0 400.0 0.40514505177355886 0.0 0.0 0.0 
358.00044361850854 4.0 2.0 400.0 0.40514505177355886 0.0 0.0 0.0 
360.00044361850854 4.0 2.0 400.0 0.40514505177355886 0.0 0.0 0.0 
362.00044361850854 4.0 2.0 400.0 0.40514505177355886 0.0 0.0 0.0 
364.00044361850854 4.0 2.0 400.0 0.40514505177355886 0.0 0.0 0.0 
366.00044361850854 4.0 2.0 400.0 0.40514505177355886 0.0 0.0 0.0 
368.00044361850854 4.0 2.0 400.0 0.40514505177355886 0.0 0.0 0.0 
370.00044361850854 4.0 2.0 400.0 0.40514505177355886 0.0 0.0 0.0 
372.00044361850854 4.0 2.0 400.0 0.40514505177355886 0.0 0.0 0.0 
374.00044361850854 4.0 2.0 400.0 0.40514505177355886 0.0 0.0 0.0 
376.00044361850854 4.0 2.0 400.0 0.40514505177355886 0.0 0.0 0.0 
378.00044361850854 4.0 2.0 400.0 0.40514505177355886 0.0 0.0 0.0 
380.00044361850854 4.0 2.0 400.0 0.40514505177355886 0.0 0.0 0.0 
382.00044361850854 4.0 2.0 400.0 0.40514505177355886 0.0 0.0 0.0 
384.00044361850854 4.0 2.0 400.0 0.40514505177355886 0.0 0.0 0.0 
386.00044361850854 4.0 2.0 400.0 0.40514505177355886 0.0 0.0 0.0 
388.00044361850854 4.0 2.0 400.0 0.40514505177355886 0.0 0.0 0.0 
390.00044361850854 4.0 2.0 400.0 0.40514505177355886 0.0 0.0 0.0 
392.00044361850854 4.0 2.0 400.0 0.40514505177355886 0.0 0.0 0.0 
394.00044361850854 4.0 2.0 400.0 0.40514505177355886 0.0 0.0 0.0 
396.00044361850854 4.0 2.0 400.0 0.40514505177355886 0.0 0.0 0.0 
398.00044361850854 4.0 2.0 400.0 0.40514505177355886 0.0 0.0 0.0 
400.00044361850854 4.0 2.0 400.0 0.40514505177355886 0.0 0.0 0.0 
402.00044361850854 4.0 2.0 400.0 0.40514505177355886 0.0 0.0 0.0 
404.00044361850854 4.0 2.0 400.0 0.40514505177355886 0.0 0.0 0.0 
406.00044361850854 4.0 2.0 400.0 0.40514505177355886 0.0 0.0 0.0 
408.00044361850854 4.0 2.0 400.0 0.40514505177355886 0.0 0.0 0.0 
410.00044361850854 4.0 2.0 400.0 0.40514505177355886 0.0 0.0 0.0 
412.00044361850854 4.0 2.0 400.0 0.40514505177355886 0.0 0.0 0.0 
414.00044361850854 4.0 2.0 400.0 0.40514505177355886 0.0 0.0 0.0 
416.00044361850854 4.0 2.0 400.0 0.40514505177355886 0.0 0.0 0.0 
418.00044361850854 4.0 2.0 400.0 0.40514505177355886 0.0 0.0 0.0 
420.00044361850854 4.0 2.0 400.0 0.40514505177355886 0.0 0.0 0.0 
422.00044361850854 4.0 2.0 400.0 0.40514505177355886 0.0 0.0 0.0 
424.00044361850854 4.0 2.0 400.0 0.40514505177355886 0.0 0.0 0.0 
426.00044361850854 4.0 2.0 400.0 0.40514505177355886 0.0 0.0 0.0 
428.00044361850854 4.0 2.0 400.0 0.40514505177355886 0.0 0.0 0.0 
430.00044361850854 4.0 2.0 400.0 0.40514505177355886 0.0 0.0 0.0 
432.00044361850854 4.0 2.0 400.0 0.40514505177355886 0.0 0.0 0.0 
434.00044361850854 4.0 2.0 400.0 0.40514505177355886 0.0 0.0 0.0 
436.00044361850854 4.0 2.0 400.0 0.40514505177355886 0.0 0.0 0.0 
438.00044361850854 4.0 2.0 400.0 0.40514505177355886 0.0 0.0 0.0 
440.00044361850854 4.0 2.0 400.0 0.40514505177355886 0.0 0.0 0.0 
442.00044361850854 4.0 2.0 400.0 0.40514505177355886 0.0 0.0 0.0 
444.00044361850854 4.0 2.0 400.0 0.40514505177355886 0.0 0.0 0.0 
446.00044361850854 4.0 2.0 400.0 0.40514505177355886 0.0 0.0 0.0 
448.00044361850854 4.0 2.0 400.0 0.40514505177355886 0.0 0.0 0.0 
450.00044361850854 4.0 2.0 400.0 0.40514505177355886 0.0 0.0 0.0 
452.00044361850854 4.0 2.0 400.0 0.40514505177355886 0.0 0.0 0.0 
454.00044361850854 4.0 2.0 400.0 0.40514505177355886 0.0 0.0 0.0 
456.00044361850854 4.0 2.0 400.0 0.40514505177355886 0.0 0.0 0.0 
458.00044361850854 4.0 2.0 400.0 0.40514505177355886 0.0 0.0 0.0 
460.00044361850854 4.0 2.0 400.0 0.40514505177355886 0.0 0.0 0.0 
462.00044361850854 4.0 2.0 400.0 0.40514505177355886 0.0 0.0 0.0 
464.00044361850854 4.0 2.0 400.0 0.40514505177355886 0.0 0.0 0.0 
466.00044361850854 4.0 2.0 400.0 0.40514505177355886 0.0 0.0 0.0 
468.00044361850854 4.0 2.0 400.0 0.40514505177355886 0.0 0.0 0.0 
470.00044361850854 4.0 2.0 400.0 0.40514505177355886 0.0 0.0 0.0 
472.00044361850854 4.0 2.0 400.0 0.40514505177355886 0.0 0.0 0.0 
474.00044361850854 4.0 2.0 400.0 0.40514505177355886 0.0 0.0 0.0 
476.00044361850854 4.0 2.0 400.0 0.40514505177355886 0.0 0.0 0.0 
478.00044361850854 4.0 2.0 400.0 0.40514505177355886 0.0 0.0 0.0 
480.00044361850854 4.0 2.0 400.0 0.40514505177355886 0.0 0.0 0.0 
482.00044361850854 4.0 2.0 400.0 0.40514505177355886 0.0 0.0 0.0 
484.00044361850854 4.0 2.0 400.0 0.40514505177355886 0.0 0.0 0.0 
486.00044361850854 4.0 2.0 400.0 0.40514505177355886 0.0 0.0 0.0 
488.00044361850854 4.0 2.0 400.0 0.40514505177355886 0.0 0.0 0.0 
490.00044361850854 4.0 2.0 400.0 0.40514505177355886 0.0 0.0 0.0 
492.00044361850854 4.0 2.0 400.0 0.40514505177355886 0.0 0.0 0.0 
494.00044361850854 4.0 2.0 400.0 0.40514505177355886 0.0 0.0 0.0 
496.00044361850854 4.0 2.0 400.0 0.40514505177355886 0.0 0.0 0.0 
498.00044361850854 4.0 2.0 400.0 0.40514505177355886 0.0 0.0 0.0 
500.00044361850854 4.0 2.0 400.0 0.40514505177355886 0.0 0.0 0.0 
502.00044361850854 4.0 2.0 400.0 0.40514505177355886 0.0 0.0 0.0 
504.00044361850854 4.0 2.0 400.0 0.40514505177355886 0.0 0.0 0.0 
506.00044361850854 4.0 2.0 400.0 0.40514505177355886 0.0 0.0 0.0 
508.00044361850854 4.0 2.0 400.0 0.40514505177355886 0.0 0.0 0.0 
510.00044361850854 4.0 2.0 400.0 0.40514505177355886 0.0 0.0 0.0 
512.0004436185086 4.0 2.0 400.0 0.40514505177355886 0.0 0.0 0.0 
514.0004436185086 4.0 2.0 400.0 0.405145051773502 0.0 0.0 0.0 
516.0004436185086 4.0 2.0 400.0 0.405145051773502 0.0 0.0 0.0 
518.0004436185086 4.0 2.0 400.0 0.405145051773502 0.0 0.0 0.0 
520.0004436185086 4.0 2.0 400.0 0.405145051773502 0.0 0.0 0.0 
522.0004436185086 4.0 2.0 400.0 0.405145051773502 0.0 0.0 0.0 
524.0004436185086 4.0 2.0 400.0 0.405145051773502 0.0 0.0 0.0 
526.0004436185086 4.0 2.0 400.0 0.405145051773502 0.0 0.0 0.0 
528.0004436185086 4.0 2.0 400.0 0.405145051773502 0.0 0.0 0.0 
530.0004436185086 4.0 2.0 400.0 0.405145051773502 0.0 0.0 0.0 
532.0004436185086 4.0 2.0 400.0 0.405145051773502 0.0 0.0 0.0 
534.0004436185086 4.0 2.0 400.0 0.405145051773502 0.0 0.0 0.0 
536.0004436185086 4.0 2.0 400.0 0.405145051773502 0.0 0.0 0.0 
538.0004436185086 4.0 2.0 400.0 0.405145051773502 0.0 0.0 0.0 
540.0004436185086 4.0 2.0 400.0 0.405145051773502 0.0 0.0 0.0 
542.0004436185086 4.0 2.0 400.0 0.405145051773502 0.0 0.0 0.0 
544.0004436185086 4.0 2.0 400.0 0.405145051773502 0.0 0.0 0.0 
546.0004436185086 4.0 2.0 400.0 0.405145051773502 0.0 0.0 0.0 
548.0004436185086 4.0 2.0 400.0 0.405145051773502 0.0 0.0 0.0 
550.0004436185086 4.0 2.0 400.0 0.405145051773502 0.0 0.0 0.0 
552.0004436185086 4.0 2.0 400.0 0.405145051773502 0.0 0.0 0.0 
554.0004436185086 4.0 2.0 400.0 0.405145051773502 0.0 0.0 0.0 
556.0004436185086 4.0 2.0 400.0 0.405145051773502 0.0 0.0 0.0 
558.0004436185086 4.0 2.0 400.0 0.405145051773502 0.0 0.0 0.0 
560.0004436185086 4.0 2.0 400.0 0.405145051773502 0.0 0.0 0.0 
562.0004436185086 4.0 2.0 400.0 0.405145051773502 0.0 0.0 0.0 
564.0004436185086 4.0 2.0 400.0 0.405145051773502 0.0 0.0 0.0 
566.0004436185086 4.0 2.0 400.0 0.405145051773502 0.0 0.0 0.0 
568.0004436185086 4.0 2.0 400.0 0.405145051773502 0.0 0.0 0.0 
570.0004436185086 4.0 2.0 400.0 0.405145051773502 0.0 0.0 0.0 
572.0004436185086 4.0 2.0 400.0 0.405145051773502 0.0 0.0 0.0 
574.0004436185086 4.0 2.0 400.0 0.405145051773502 0.0 0.0 0.0 
576.0004436185086 4.0 2.0 400.0 0.405145051773502 0.0 0.0 0.0 
578.0004436185086 4.0 2.0 400.0 0.405145051773502 0.0 0.0 0.0 
580.0004436185086 4.0 2.0 400.0 0.405145051773502 0.0 0.0 0.0 
582.0004436185086 4.0 2.0 400.0 0.405145051773502 0.0 0.0 0.0 
584.0004436185086 4.0 2.0 400.0 0.405145051773502 0.0 0.0 0.0 
586.0004436185086 4.0 2.0 400.0 0.405145051773502 0.0 0.0 0.0 
588.0004436185086 4.0 2.0 400.0 0.405145051773502 0.0 0.0 0.0 
590.0004436185086 4.0 2.0 400.0 0.405145051773502 0.0 0.0 0.0 
592.0004436185086 4.0 2.0 400.0 0.405145051773502 0.0 0.0 0.0 
594.0004436185086 4.0 2.0 400.0 0.405145051773502 0.0 0.0 0.0 
596.0004436185086 4.0 2.0 400.0 0.405145051773502 0.0 0.0 0.0 
598.0004436185086 4.0 2.0 400.0 0.405145051773502 0.0 0.0 0.0 
600.0004436185086 4.0 2.0 400.0 0.405145051773502 0.0 0.0 0.0 
602.0004436185086 4.0 2.0 400.0 0.405145051773502 0.0 0.0 0.0 
604.0004436185086 4.0 2.0 400.0 0.405145051773502 0.0 0.0 0.0 
606.0004436185086 4.0 2.0 400.0 0.405145051773502 0.0 0.0 0.0 
608.0004436185086 4.0 2.0 400.0 0.405145051773502 0.0 0.0 0.0 
610.0004436185086 4.0 2.0 400.0 0.405145051773502 0.0 0.0 0.0 
612.0004436185086 4.0 2.0 400.0 0.405145051773502 0.0 0.0 0.0 
614.0004436185086 4.0 2.0 400.0 0.405145051773502 0.0 0.0 0.0 
616.0004436185086 4.0 2.0 400.0 0.405145051773502 0.0 0.0 0.0 
618.0004436185086 4.0 2.0 400.0 0.405145051773502 0.0 0.0 0.0 
620.0004436185086 4.0 2.0 400.0 0.405145051773502 0.0 0.0 0.0 
622.0004436185086 4.0 2.0 400.0 0.405145051773502 0.0 0.0 0.0 
624.0004436185086 4.0 2.0 400.0 0.405145051773502 0.0 0.0 0.0 
626.0004436185086 4.0 2.0 400.0 0.405145051773502 0.0 0.0 0.0 
628.0004436185086 4.0 2.0 400.0 0.405145051773502 0.0 0.0 0.0 
630.0004436185086 4.0 2.0 400.0 0.405145051773502 0.0 0.0 0.0 
632.0004436185086 4.0 2.0 400.0 0.405145051773502 0.0 0.0 0.0 
634.0004436185086 4.0 2.0 400.0 0.405145051773502 0.0 0.0 0.0 
636.0004436185086 4.0 2.0 400.0 0.405145051773502 0.0 0.0 0.0 
638.0004436185086 4.0 2.0 400.0 0.405145051773502 0.0 0.0 0.0 
640.0004436185086 4.0 2.0 400.0 0.405145051773502 0.0 0.0 0.0 
642.0004436185086 4.0 2.0 400.0 0.405145051773502 0.0 0.0 0.0 
644.0004436185086 4.0 2.0 400.0 0.405145051773502 0.0 0.0 0.0 
646.0004436185086 4.0 2.0 400.0 0.405145051773502 0.0 0.0 0.0 
648.0004436185086 4.0 2.0 400.0 0.405145051773502 0.0 0.0 0.0 
650.0004436185086 4.0 2.0 400.0 0.405145051773502 0.0 0.0 0.0 
652.0004436185086 4.0 2.0 400.0 0.405145051773502 0.0 0.0 0.0 
654.0004436185086 4.0 2.0 400.0 0.405145051773502 0.0 0.0 0.0 
656.0004436185086 4.0 2.0 400.0 0.405145051773502 0.0 0.0 0.0 
658.0004436185086 4.0 2.0 400.0 0.405145051773502 0.0 0.0 0.0 
660.0004436185086 4.0 2.0 400.0 0.405145051773502 0.0 0.0 0.0 
662.0004436185086 4.0 2.0 400.0 0.405145051773502 0.0 0.0 0.0 
664.0004436185086 4.0 2.0 400.0 0.405145051773502 0.0 0.0 0.0 
#####################################################################
# End of data export. Simulation finished at: 2019-03-04T16:45+0000 #
#####################################################################
