#####################################################################
# Alchemist log file - simulation started at: 2019-03-13T04:25+0000 #
#####################################################################
# seed = 5.0, bandwidth = 1333521.4321633242, accessPointCount = 19.39227447486858, baserange = 100.0
#
# The columns have the following meaning: 
# time neighbor_count[Sum] <value>@neighbor_count[Sum] packet_size[Mean] mean_delay[Mean] crowd[Sum] overcrowded[Sum] risk[Sum] 
0.0 NaN NaN NaN NaN NaN NaN NaN 
2.000101793669918 195.0 43.0 4987.986807387862 0.49445969096732795 1497.0 0.0 1497.0 
4.000101793669918 294.0 43.0 4988.14511873351 0.4880236472738396 1496.0 1.0 1496.0 
6.000101793669918 347.0 43.0 4988.129287598945 0.503203927982131 1497.0 0.0 1497.0 
8.000101793669918 377.0 43.0 4988.1187335092345 0.4957183327195698 1496.0 1.0 1496.0 
10.000101793669918 393.0 43.0 4988.100263852243 0.49496768714100636 1495.0 2.0 1495.0 
12.000101793669918 400.0 43.0 4988.076517150395 0.4964513706536258 1493.0 4.0 1493.0 
14.000101793669918 400.0 43.0 4988.005277044855 0.4964723748602668 1492.0 5.0 1492.0 
16.00010179366992 400.0 43.0 4987.992084432718 0.49646732726010745 1493.0 4.0 1493.0 
18.00010179366992 400.0 43.0 4988.02110817942 0.49647557875031695 1492.0 5.0 1492.0 
20.00010179366992 400.0 43.0 4988.023746701847 0.49647205939625966 1492.0 5.0 1492.0 
22.00010179366992 400.0 43.0 4987.981530343008 0.4964747665192226 1492.0 5.0 1492.0 
24.00010179366992 400.0 43.0 4988.050131926121 0.4964691727664514 1492.0 5.0 1492.0 
26.00010179366992 400.0 43.0 4988.0 0.4964778864494517 1492.0 5.0 1492.0 
28.00010179366992 400.0 43.0 4987.986807387862 0.49646967454751484 1492.0 5.0 1492.0 
30.00010179366992 400.0 43.0 4988.02110817942 0.49647594783405125 1492.0 5.0 1492.0 
32.00010179366992 400.0 43.0 4988.023746701847 0.49647205939625966 1492.0 5.0 1492.0 
34.00010179366992 400.0 43.0 4987.981530343008 0.496474766519223 1492.0 5.0 1492.0 
36.00010179366992 400.0 43.0 4988.039577836412 0.4964695004979951 1492.0 5.0 1492.0 
38.00010179366992 400.0 43.0 4987.997361477573 0.49647800680284354 1492.0 5.0 1492.0 
40.00010179366992 400.0 43.0 4988.02110817942 0.4964695375298078 1492.0 5.0 1492.0 
42.00010179366992 400.0 43.0 4988.002638522427 0.496475420130719 1492.0 5.0 1492.0 
44.00010179366992 402.0 44.0 4988.0369393139845 0.4964633834168185 1492.0 5.0 1492.0 
46.00010179366992 402.0 44.0 4987.97889182058 0.49646836316542753 1492.0 5.0 1492.0 
48.00010179366992 402.0 44.0 4988.042216358839 0.4964619229085727 1492.0 5.0 1492.0 
50.00010179366992 402.0 44.0 4988.02110817942 0.49646632773828786 1492.0 5.0 1492.0 
52.00010179366992 402.0 44.0 4987.994722955145 0.4964638654916674 1492.0 5.0 1492.0 
54.00010179366992 402.0 44.0 4988.002638522427 0.49646788109057866 1492.0 5.0 1492.0 
56.00010179366992 402.0 44.0 4988.042216358839 0.4964633834168185 1492.0 5.0 1492.0 
58.00010179366992 402.0 44.0 4987.992084432718 0.4964669026571817 1492.0 5.0 1492.0 
60.00010179366992 402.0 44.0 4985.002638522427 0.49646183006452776 1491.0 5.0 1491.0 
62.00010179366992 402.0 44.0 454.617414248021 0.5026861768588967 33.0 5.0 13.0 
64.00010179366993 402.0 44.0 454.63060686015825 0.5038565502359519 24.0 5.0 13.0 
66.00010179366993 402.0 44.0 454.62269129287597 0.5038629710472888 24.0 5.0 13.0 
68.00010179366993 402.0 44.0 454.62532981530336 0.5038568539591292 20.0 5.0 13.0 
70.00010179366993 402.0 44.0 454.617414248021 0.5038629710472888 20.0 5.0 13.0 
72.00010179366993 402.0 44.0 454.62532981530336 0.5038576984828457 20.0 5.0 13.0 
74.00010179366993 402.0 44.0 454.617414248021 0.5038629710472888 20.0 5.0 13.0 
76.00010179366993 402.0 44.0 454.63060686015825 0.5038576984828457 20.0 5.0 13.0 
78.00010179366993 402.0 44.0 454.617414248021 0.5038621265235723 20.0 5.0 13.0 
80.00010179366993 402.0 44.0 454.62532981530336 0.5038576984828457 20.0 5.0 13.0 
82.00010179366993 402.0 44.0 454.617414248021 0.5038629710472888 20.0 5.0 13.0 
84.00010179366993 402.0 44.0 454.62532981530336 0.5038576984828457 20.0 5.0 13.0 
86.00010179366993 402.0 44.0 454.62269129287597 0.5038629710472888 20.0 5.0 13.0 
88.00010179366993 402.0 44.0 454.62532981530336 0.5038568539591292 20.0 5.0 13.0 
90.00010179366993 402.0 44.0 454.617414248021 0.5038629710472888 20.0 5.0 13.0 
92.00010179366993 402.0 44.0 454.62532981530336 0.5038576984828457 20.0 5.0 13.0 
94.00010179366993 406.0 45.0 454.617414248021 0.5413420228648144 20.0 5.0 13.0 
96.00010179366993 404.0 44.0 454.63060686015825 0.509517574940359 20.0 5.0 13.0 
98.00010179366993 403.0 44.0 454.617414248021 0.5145583415162267 20.0 5.0 13.0 
100.00010179366993 402.0 44.0 454.62532981530336 0.5056396942287353 20.0 5.0 13.0 
102.00010179366993 402.0 44.0 454.617414248021 0.5056450626579865 20.0 5.0 13.0 
104.00010179366993 402.0 44.0 454.62532981530336 0.5511069651607726 20.0 5.0 13.0 
106.00010179366993 398.0 43.0 454.63060686015825 0.5217798926417171 20.0 5.0 13.0 
108.00010179366993 393.0 43.0 454.617414248021 0.5394185157769286 20.0 5.0 13.0 
110.00010179366993 388.0 42.0 454.6094986807389 0.5041096108504081 20.0 5.0 13.0 
112.00010179366993 388.0 42.0 454.617414248021 0.5041040398389209 20.0 5.0 13.0 
114.00010179366993 388.0 42.0 454.6094986807389 0.5041096108504081 20.0 5.0 13.0 
116.00010179366993 388.0 42.0 454.617414248021 0.5041040398389209 20.0 5.0 13.0 
118.00010179366993 388.0 42.0 454.6094986807389 0.5041096108504081 20.0 5.0 13.0 
120.00010179366993 392.0 43.0 454.617414248021 0.5029692187765333 20.0 5.0 13.0 
122.00010179366993 392.0 43.0 454.6094986807389 0.5029746866211411 20.0 5.0 13.0 
124.00010179366993 392.0 43.0 454.617414248021 0.5029692187765333 20.0 5.0 13.0 
126.00010179366993 392.0 43.0 454.6094986807389 0.5029746866211411 20.0 5.0 13.0 
128.00010179366993 392.0 43.0 454.617414248021 0.5029692187765333 20.0 5.0 13.0 
130.00010179366993 392.0 43.0 454.6094986807389 0.5461965985035157 20.0 5.0 13.0 
132.00010179366993 388.0 42.0 454.617414248021 0.504104039838923 20.0 5.0 13.0 
134.00010179366993 388.0 42.0 454.6094986807389 0.5041096108504103 20.0 5.0 13.0 
136.00010179366993 388.0 42.0 454.617414248021 0.504104039838923 20.0 5.0 13.0 
138.00010179366993 403.0 42.0 457.6437994722956 0.4984146417524593 21.0 5.0 14.0 
140.00010179366993 420.0 43.0 457.68601583113457 0.5025486568571277 19.0 7.0 12.0 
142.00010179366993 420.0 43.0 457.6622691292876 0.5025569325914706 18.0 8.0 11.0 
144.00010179366993 420.0 43.0 457.664907651715 0.5025556788164203 18.0 8.0 11.0 
146.00010179366993 420.0 43.0 457.65171503957794 0.5025630210689241 18.0 8.0 11.0 
148.00010179366993 420.0 43.0 457.664907651715 0.5025567427336117 18.0 8.0 11.0 
150.00010179366993 422.0 43.0 457.65699208443266 0.5033463126542457 18.0 8.0 11.0 
152.00010179366993 422.0 43.0 457.65963060686005 0.5033448472201314 18.0 8.0 11.0 
154.00010179366993 422.0 43.0 457.65171503957794 0.5033505696317797 18.0 8.0 11.0 
156.00010179366993 422.0 43.0 457.65963060686005 0.5033449583155699 18.0 8.0 11.0 
158.00010179366993 422.0 43.0 457.65699208443266 0.5033497923341169 18.0 8.0 11.0 
160.00010179366993 422.0 43.0 457.67018469657 0.5033400125463176 18.0 8.0 11.0 
162.00010179366993 422.0 43.0 457.65171503957794 0.5033504585363413 18.0 8.0 11.0 
164.00010179366993 422.0 43.0 457.65963060686005 0.5033449583155699 18.0 8.0 11.0 
166.00010179366993 422.0 43.0 454.6253298153035 0.5033505696317797 17.0 8.0 10.0 
168.00010179366993 423.0 43.0 454.63852242744053 0.5033979418363019 17.0 8.0 10.0 
170.00010179366993 424.0 43.0 451.6121372031661 0.49881693230231094 17.0 8.0 9.0 
172.00010179366993 424.0 43.0 451.59894459102895 0.49881753015736696 17.0 8.0 9.0 
174.00010179366993 424.0 43.0 451.59102902374667 0.4988235446483623 17.0 8.0 9.0 
176.00010179366993 424.0 43.0 451.59894459102895 0.4988176412528054 17.0 8.0 9.0 
178.00010179366993 424.0 43.0 451.5963060686015 0.4988227673506995 17.0 8.0 9.0 
180.00010179366993 424.0 43.0 451.59894459102895 0.4988157368065057 17.0 8.0 9.0 
182.00010179366993 424.0 43.0 451.59102902374667 0.4988235446483623 17.0 8.0 9.0 
184.00010179366993 424.0 43.0 451.59894459102895 0.4988176412528054 17.0 8.0 9.0 
186.00010179366993 424.0 43.0 451.59102902374667 0.4988235446483623 17.0 8.0 9.0 
188.00010179366993 424.0 43.0 451.59894459102895 0.4988176412528054 17.0 8.0 9.0 
190.00010179366993 424.0 43.0 451.59102902374667 0.4988235446483623 17.0 8.0 9.0 
192.00010179366993 424.0 43.0 451.59894459102895 0.4988176412528054 17.0 8.0 9.0 
194.00010179366993 424.0 43.0 451.59102902374667 0.4988235446483623 17.0 8.0 9.0 
196.00010179366993 424.0 43.0 451.59894459102895 0.4988176412528054 17.0 8.0 9.0 
198.00010179366993 424.0 43.0 451.5963060686015 0.5142585692974122 17.0 8.0 9.0 
200.00010179366993 422.0 42.0 451.59894459102895 0.5422978528088271 17.0 8.0 9.0 
202.00010179366993 420.0 42.0 451.59102902374667 0.5024484737287019 17.0 8.0 9.0 
204.00010179366993 420.0 42.0 451.59894459102895 0.5024424589483232 17.0 8.0 9.0 
206.00010179366993 420.0 42.0 451.59102902374667 0.5024484737287019 17.0 8.0 9.0 
208.00010179366993 420.0 42.0 451.60422163588396 0.5024416669846669 17.0 8.0 9.0 
210.00010179366993 420.0 42.0 451.59102902374667 0.5024468988566256 17.0 8.0 9.0 
212.00010179366993 420.0 42.0 451.59894459102895 0.5024424589483232 17.0 8.0 9.0 
214.00010179366993 420.0 42.0 451.59102902374667 0.5024484737287019 17.0 8.0 9.0 
216.00010179366993 420.0 42.0 451.59894459102895 0.5024424589483232 17.0 8.0 9.0 
218.00010179366993 420.0 42.0 451.5963060686015 0.5024476817650455 17.0 8.0 9.0 
220.00010179366993 420.0 42.0 451.59894459102895 0.5024408840762468 17.0 8.0 9.0 
222.00010179366993 420.0 42.0 451.59102902374667 0.5024484737287019 17.0 8.0 9.0 
224.00010179366993 420.0 42.0 451.59894459102895 0.5024424589483232 17.0 8.0 9.0 
226.00010179366993 420.0 42.0 451.59102902374667 0.5024484737287019 17.0 8.0 9.0 
228.00010179366993 420.0 42.0 451.60422163588396 0.5024416669846669 17.0 8.0 9.0 
230.00010179366993 420.0 42.0 451.59102902374667 0.5024468988566256 17.0 8.0 9.0 
232.00010179366993 420.0 42.0 451.59894459102895 0.5024424589483232 17.0 8.0 9.0 
234.00010179366993 420.0 42.0 451.59102902374667 0.5024484737287019 17.0 8.0 9.0 
236.00010179366993 420.0 42.0 451.59894459102895 0.5024424589483232 17.0 8.0 9.0 
238.00010179366993 420.0 42.0 451.5963060686015 0.5024476817650455 17.0 8.0 9.0 
240.00010179366993 422.0 42.0 451.59894459102895 0.5032200759143807 17.0 8.0 9.0 
242.00010179366993 422.0 42.0 451.59102902374667 0.5032277605660016 17.0 8.0 9.0 
244.00010179366993 422.0 42.0 451.59894459102895 0.5032218124887124 17.0 8.0 9.0 
246.00010179366993 422.0 42.0 451.59102902374667 0.5032277605660016 17.0 8.0 9.0 
248.00010179366993 422.0 42.0 451.60422163588396 0.503221020525056 17.0 8.0 9.0 
250.00010179366993 422.0 42.0 448.5646437994724 0.5036934146587151 17.0 8.0 8.0 
252.00010179366993 422.0 42.0 448.5725593667545 0.5036892031557577 17.0 8.0 8.0 
254.00010179366993 422.0 42.0 448.5646437994724 0.5036951512330469 17.0 8.0 8.0 
256.00010179366996 422.0 42.0 448.5725593667545 0.5036892031557577 17.0 8.0 8.0 
258.00010179366996 422.0 42.0 448.5699208443271 0.5036943592693867 17.0 8.0 8.0 
260.00010179366996 422.0 42.0 448.5725593667545 0.5036874665814232 17.0 8.0 8.0 
262.00010179366996 422.0 42.0 448.5646437994724 0.5036951512330429 17.0 8.0 8.0 
264.00010179366996 422.0 42.0 448.5725593667545 0.5036892031557545 17.0 8.0 8.0 
266.00010179366996 422.0 42.0 448.5646437994724 0.5036951512330429 17.0 8.0 8.0 
268.00010179366996 422.0 42.0 448.57783641160955 0.5036884111920983 17.0 8.0 8.0 
270.00010179366996 422.0 42.0 451.6068601583114 0.5032888339987241 17.0 8.0 9.0 
272.00010179366996 422.0 42.0 451.59894459102895 0.5032218124887093 17.0 8.0 9.0 
274.00010179366996 422.0 42.0 451.59102902374667 0.5032277605659977 17.0 8.0 9.0 
276.00010179366996 422.0 42.0 451.59894459102895 0.5032218124887093 17.0 8.0 9.0 
278.00010179366996 423.0 42.0 451.5963060686015 0.5031656643564929 17.0 8.0 9.0 
280.00010179366996 424.0 42.0 451.59894459102895 0.503336151607059 17.0 8.0 9.0 
282.00010179366996 424.0 42.0 451.59102902374667 0.5033441388121092 17.0 8.0 9.0 
284.00010179366996 424.0 42.0 451.59894459102895 0.5033382115859011 17.0 8.0 9.0 
286.00010179366996 424.0 42.0 451.59102902374667 0.5033441388121092 17.0 8.0 9.0 
288.00010179366996 424.0 42.0 451.60422163588396 0.5033374196222449 17.0 8.0 9.0 
290.00010179366996 424.0 42.0 451.59102902374667 0.5033420788332671 17.0 8.0 9.0 
292.00010179366996 424.0 42.0 451.59894459102895 0.5033382115859011 17.0 8.0 9.0 
294.00010179366996 424.0 42.0 451.59102902374667 0.5033441388121092 17.0 8.0 9.0 
296.00010179366996 424.0 42.0 451.59894459102895 0.5033382115859011 17.0 8.0 9.0 
298.00010179366996 424.0 42.0 451.5963060686015 0.5033433468484529 17.0 8.0 9.0 
300.00010179366996 424.0 42.0 451.59894459102895 0.503336151607059 17.0 8.0 9.0 
302.00010179366996 424.0 42.0 451.59102902374667 0.5033441388121092 17.0 8.0 9.0 
304.00010179366996 424.0 42.0 451.59894459102895 0.5033382115859011 17.0 8.0 9.0 
306.00010179366996 424.0 42.0 451.59102902374667 0.5033441388121092 17.0 8.0 9.0 
308.00010179366996 424.0 42.0 451.59894459102895 0.5033382115859011 17.0 8.0 9.0 
310.00010179366996 424.0 42.0 451.59102902374667 0.5033441388121092 17.0 8.0 9.0 
312.00010179366996 424.0 42.0 451.59894459102895 0.5033382115859011 17.0 8.0 9.0 
314.00010179366996 424.0 42.0 451.59102902374667 0.5033441388121092 17.0 8.0 9.0 
316.00010179366996 424.0 42.0 451.59894459102895 0.5033382115859011 17.0 8.0 9.0 
318.00010179366996 424.0 42.0 451.5963060686015 0.5033433468484529 17.0 8.0 9.0 
320.00010179366996 424.0 42.0 451.59894459102895 0.503336151607059 17.0 8.0 9.0 
322.00010179366996 424.0 42.0 451.59102902374667 0.5033441388121092 17.0 8.0 9.0 
324.00010179366996 424.0 42.0 451.59894459102895 0.5033382115859011 17.0 8.0 9.0 
326.00010179366996 424.0 42.0 451.59102902374667 0.5033441388121092 17.0 8.0 9.0 
328.00010179366996 424.0 42.0 451.60422163588396 0.5033374196222449 17.0 8.0 9.0 
330.00010179366996 424.0 42.0 451.59102902374667 0.5033420788332671 17.0 8.0 9.0 
332.00010179366996 424.0 42.0 451.59894459102895 0.5033382115859011 17.0 8.0 9.0 
334.00010179366996 424.0 42.0 451.59102902374667 0.5033441388121092 17.0 8.0 9.0 
336.00010179366996 424.0 42.0 451.59894459102895 0.5033382115859011 17.0 8.0 9.0 
338.00010179366996 424.0 42.0 451.5963060686015 0.5033433468484529 17.0 8.0 9.0 
340.00010179366996 424.0 42.0 451.59894459102895 0.503336151607059 17.0 8.0 9.0 
342.00010179366996 424.0 42.0 451.59102902374667 0.5033441388121092 17.0 8.0 9.0 
344.00010179366996 424.0 42.0 451.59894459102895 0.5033382115859011 17.0 8.0 9.0 
346.00010179366996 424.0 42.0 451.59102902374667 0.5033441388121092 17.0 8.0 9.0 
348.00010179366996 424.0 42.0 451.60422163588396 0.5033374196222449 17.0 8.0 9.0 
350.00010179366996 424.0 42.0 451.59102902374667 0.5033420788332671 17.0 8.0 9.0 
352.00010179366996 428.0 43.0 451.59894459102895 0.5004961606957706 17.0 8.0 9.0 
354.00010179366996 432.0 43.0 451.59102902374667 0.5061040528897432 17.0 8.0 9.0 
356.00010179366996 432.0 43.0 451.59894459102895 0.5060979639955461 17.0 8.0 9.0 
358.00010179366996 432.0 43.0 451.5963060686015 0.5061032495459021 18.0 7.0 10.0 
360.00010179366996 432.0 43.0 451.59894459102895 0.5060959011071723 18.0 7.0 10.0 
362.00010179366996 435.0 43.0 451.59102902374667 0.5025717945713767 18.0 7.0 10.0 
364.00010179366996 440.0 43.0 451.59894459102895 0.5050740491245023 18.0 7.0 10.0 
366.00010179366996 440.0 43.0 451.59102902374667 0.5050800493372529 18.0 7.0 10.0 
368.00010179366996 440.0 43.0 451.60422163588396 0.5050732457806613 18.0 7.0 10.0 
370.00010179366996 440.0 43.0 451.59102902374667 0.5050777146061376 18.0 7.0 10.0 
372.00010179366996 444.0 43.0 454.641160949868 0.5046469985539624 19.0 7.0 11.0 
374.00010179366996 452.0 43.0 454.62269129287597 0.5035106912653526 19.0 7.0 11.0 
376.00010179366996 452.0 43.0 454.6306068601583 0.5035044240581044 19.0 7.0 11.0 
378.00010179366996 452.0 43.0 454.627968337731 0.5035095321968414 19.0 7.0 11.0 
380.00010179366996 452.0 43.0 454.6306068601583 0.5035022371131577 19.0 7.0 11.0 
382.00010179366996 456.0 43.0 454.62532981530353 0.5020139126036871 18.0 8.0 10.0 
384.00010179366996 466.0 43.0 454.63324538258587 0.5469106145738126 18.0 8.0 10.0 
386.00010179366996 430.0 42.0 454.63852242744053 0.5030925199337687 18.0 8.0 10.0 
388.00010179366996 430.0 42.0 454.6306068601583 0.5030857499284218 18.0 8.0 10.0 
390.00010179366996 430.0 42.0 454.617414248021 0.5030903996275466 18.0 8.0 10.0 
392.00010179366996 430.0 42.0 454.6358839050132 0.5030840610660116 18.0 8.0 10.0 
394.00010179366996 430.0 42.0 454.617414248021 0.503088780573285 18.0 8.0 10.0 
396.00010179366996 430.0 42.0 454.62532981530353 0.5030863962868798 18.0 8.0 10.0 
398.00010179366996 430.0 42.0 454.62269129287597 0.5030918735753107 18.0 8.0 10.0 
400.00010179366996 430.0 42.0 454.62532981530353 0.5030842759806577 18.0 8.0 10.0 
402.00010179366996 430.0 42.0 454.627968337731 0.5040335809393156 19.0 7.0 11.0 
404.00010179366996 429.0 42.0 454.664907651715 0.5080115421786474 19.0 7.0 11.0 
406.00010179366996 428.0 42.0 454.6543535620053 0.5028238891201665 18.0 8.0 10.0 
408.00003082976906 428.0 42.0 454.63324538258587 0.5028312529432543 17.0 9.0 9.0 
410.00003082976906 428.0 42.0 454.6121372031662 0.5028480286052316 16.0 10.0 8.0 
412.00003082976906 428.0 42.0 454.6121372031662 0.5042005126519836 17.0 9.0 9.0 
414.00003082976906 427.0 42.0 454.60686015831135 0.5099280980585617 17.0 9.0 9.0 
416.00003082976906 424.0 42.0 454.60686015831135 0.5023025014517873 17.0 9.0 9.0 
418.00003082976906 424.0 42.0 454.6121372031662 0.5023018426546944 17.0 9.0 9.0 
420.00003082976906 424.0 42.0 454.60686015831135 0.502300308306382 17.0 9.0 9.0 
422.00010179366996 424.0 42.0 454.6121372031662 0.5142274399273804 17.0 9.0 9.0 
424.00010179366996 413.0 41.0 454.60422163588396 0.5640318832865362 17.0 9.0 9.0 
426.00010179366996 390.0 41.0 454.59894459102895 0.5032298402881149 17.0 9.0 9.0 
428.00010179366996 390.0 41.0 454.60422163588396 0.5032291757492213 17.0 9.0 9.0 
430.00010179366996 390.0 41.0 454.59894459102895 0.503227752095269 17.0 9.0 9.0 
432.00010179366996 390.0 41.0 454.59894459102895 0.5032298402881149 17.0 9.0 9.0 
434.00010179366996 390.0 41.0 454.59894459102895 0.5032298402881149 17.0 9.0 9.0 
436.00010179366996 390.0 41.0 454.59894459102895 0.5032298402881149 17.0 9.0 9.0 
438.00010179366996 390.0 41.0 454.60422163588396 0.5042413214982092 17.0 9.0 9.0 
440.00010179366996 389.0 41.0 454.59894459102895 0.5087816655072024 17.0 9.0 9.0 
442.00010179366996 388.0 41.0 454.59894459102895 0.5031015178099048 17.0 9.0 9.0 
444.00010179366996 388.0 41.0 451.5725593667545 0.5031015178099048 16.0 9.0 8.0 
446.00010179366996 388.0 41.0 451.5725593667545 0.5031015178099048 16.0 9.0 8.0 
448.00010179366996 388.0 41.0 451.5778364116095 0.5031008532710112 16.0 9.0 8.0 
450.00010179366996 388.0 41.0 451.5725593667545 0.5030997427596956 16.0 9.0 8.0 
452.00010179366996 388.0 41.0 451.5725593667545 0.5031015178099048 16.0 9.0 8.0 
454.00010179366996 388.0 41.0 451.5725593667545 0.5031015178099048 16.0 9.0 8.0 
456.00010179366996 388.0 41.0 451.5725593667545 0.5031015178099048 16.0 9.0 8.0 
458.00010179366996 388.0 41.0 451.5778364116095 0.5031008532710112 16.0 9.0 8.0 
460.00010179366996 388.0 41.0 451.5725593667545 0.5030997427596956 16.0 9.0 8.0 
462.00010179366996 388.0 41.0 451.5725593667545 0.5031015178099048 16.0 9.0 8.0 
464.00010179366996 388.0 41.0 451.5725593667545 0.5031015178099048 16.0 9.0 8.0 
466.00010179366996 388.0 41.0 451.5725593667545 0.5031015178099048 16.0 9.0 8.0 
468.00010179366996 388.0 41.0 451.5778364116095 0.5031008532710112 16.0 9.0 8.0 
470.00010179366996 388.0 41.0 451.5725593667545 0.5030997427596956 16.0 9.0 8.0 
472.00010179366996 388.0 41.0 451.5725593667545 0.5031015178099048 16.0 9.0 8.0 
474.00010179366996 388.0 41.0 451.5725593667545 0.522332287040674 16.0 9.0 8.0 
476.00010179366996 387.0 41.0 451.5725593667545 0.551853768480743 16.0 9.0 8.0 
478.00010179366996 386.0 40.0 451.5778364116095 0.5032368857092017 16.0 9.0 8.0 
480.00010179366996 386.0 40.0 451.5725593667545 0.5032357307774336 16.0 9.0 8.0 
482.00010179366996 386.0 40.0 448.5461741424801 0.503237576829651 15.0 9.0 7.0 
484.00010179366996 386.0 40.0 448.5461741424801 0.503237576829651 15.0 9.0 7.0 
486.00010179366996 386.0 40.0 448.5461741424801 0.503237576829651 15.0 9.0 7.0 
488.00010179366996 386.0 40.0 448.551451187335 0.5032368857092017 15.0 9.0 7.0 
490.00010179366996 386.0 40.0 448.551451187335 0.5032331936047658 15.0 9.0 7.0 
492.00010179366996 386.0 40.0 448.551451187335 0.5032350396569842 15.0 9.0 7.0 
494.00010179366996 386.0 40.0 448.551451187335 0.5032350396569842 15.0 9.0 7.0 
496.00010179366996 386.0 40.0 448.551451187335 0.5032350396569842 15.0 9.0 7.0 
498.00010179366996 386.0 40.0 448.551451187335 0.5032350396569842 15.0 9.0 7.0 
500.00010179366996 386.0 40.0 448.551451187335 0.5032331936047658 15.0 9.0 7.0 
502.00010179366996 386.0 40.0 448.551451187335 0.5032350396569842 15.0 9.0 7.0 
504.00010179366996 386.0 40.0 448.551451187335 0.5032350396569842 15.0 9.0 7.0 
506.00010179366996 386.0 40.0 448.551451187335 0.5032350396569842 15.0 9.0 7.0 
508.00010179366996 386.0 40.0 448.551451187335 0.5032350396569842 15.0 9.0 7.0 
510.00010179366996 386.0 40.0 448.551451187335 0.5032331936047658 15.0 9.0 7.0 
512.00010179367 386.0 40.0 448.551451187335 0.5032350396569842 15.0 9.0 7.0 
514.00010179367 386.0 40.0 448.551451187335 0.5032350396569588 15.0 9.0 7.0 
516.00010179367 386.0 40.0 448.551451187335 0.5032350396569584 15.0 9.0 7.0 
518.00010179367 386.0 40.0 448.551451187335 0.5032350396569584 15.0 9.0 7.0 
520.00010179367 386.0 40.0 448.551451187335 0.5032331936047418 15.0 9.0 7.0 
522.00010179367 387.0 41.0 448.551451187335 0.5005738455674689 15.0 9.0 7.0 
524.00010179367 390.0 41.0 448.551451187335 0.5084883990046918 15.0 9.0 7.0 
526.00010179367 390.0 41.0 448.551451187335 0.5084883990046918 15.0 9.0 7.0 
528.00010179367 390.0 41.0 448.551451187335 0.5084883990046918 15.0 9.0 7.0 
530.00010179367 390.0 41.0 448.551451187335 0.5136820015603832 15.0 9.0 7.0 
532.00010179367 389.0 41.0 448.551451187335 0.4983627204904291 15.0 9.0 7.0 
534.00010179367 390.0 41.0 448.551451187335 0.5317512676837093 15.0 9.0 7.0 
536.00010179367 388.0 41.0 448.551451187335 0.4995041057394494 15.0 9.0 7.0 
538.00010179367 388.0 41.0 448.551451187335 0.500657508276935 15.0 9.0 7.0 
540.00010179367 387.0 41.0 448.551451187335 0.5020417288377982 15.0 9.0 7.0 
542.00010179367 386.0 41.0 448.551451187335 0.49984693334648234 15.0 9.0 7.0 
544.00010179367 386.0 41.0 448.551451187335 0.4998484222815612 15.0 9.0 7.0 
546.00010179367 386.0 41.0 448.551451187335 0.4998484222815612 15.0 9.0 7.0 
548.00010179367 386.0 41.0 448.551451187335 0.4998484222815612 15.0 9.0 7.0 
550.00010179367 386.0 41.0 448.551451187335 0.49984693334648234 15.0 9.0 7.0 
552.00010179367 386.0 41.0 448.551451187335 0.5161902520703439 15.0 9.0 7.0 
554.00010179367 384.0 40.0 448.551451187335 0.550927299648993 15.0 9.0 7.0 
556.00010179367 382.0 40.0 448.551451187335 0.5026833132454137 15.0 9.0 7.0 
558.00010179367 382.0 40.0 448.55672823219004 0.5026826221249647 15.0 9.0 7.0 
560.00010179367 382.0 40.0 448.5461741424801 0.5076840043658634 15.0 9.0 7.0 
562.00010179367 380.0 40.0 448.5461741424801 0.5017482048688799 15.0 9.0 7.0 
564.00010179367 380.0 40.0 448.5461741424801 0.5017482048688799 15.0 9.0 7.0 
566.00010179367 384.0 40.0 448.5461741424801 0.5006013315238556 16.0 9.0 7.0 
568.00010179367 388.0 41.0 448.55672823219004 0.5177934970515969 16.0 9.0 7.0 
570.00010179367 374.0 41.0 448.5593667546175 0.5685319073896157 17.0 8.0 8.0 
572.00010179367 358.0 40.0 448.53825857519803 0.49977245830332484 17.0 8.0 8.0 
574.00010179367 358.0 40.0 448.53825857519803 0.49977245830332484 17.0 8.0 8.0 
576.00010179367 359.0 40.0 451.5831134564645 0.49974651925015234 17.0 8.0 9.0 
578.00010179367 360.0 40.0 454.641160949868 0.5038481013351623 17.0 8.0 10.0 
580.00010179367 360.0 40.0 454.64907651715043 0.5038472924492755 17.0 8.0 10.0 
582.00010179367 360.0 40.0 454.64907651715043 0.5038475064190884 17.0 8.0 10.0 
584.00010179367 360.0 40.0 454.62269129287597 0.5038534735772737 17.0 8.0 10.0 
586.00010179367 361.0 40.0 454.646437994723 0.5029746112124951 17.0 8.0 10.0 
588.00010179367 362.0 40.0 454.62269129287597 0.5047826194766937 17.0 8.0 10.0 
590.00010179367 362.0 40.0 454.60686015831135 0.5047857650329334 17.0 8.0 10.0 
592.00010179367 362.0 40.0 454.60686015831135 0.5047868308825684 17.0 8.0 10.0 
594.00010179367 362.0 40.0 454.60686015831135 0.5047868308825684 17.0 8.0 10.0 
596.00010179367 362.0 40.0 454.61213720316607 0.5047868308825684 17.0 8.0 10.0 
598.00010179367 362.0 40.0 454.60686015831135 0.5047858850160067 17.0 8.0 10.0 
600.00010179367 362.0 40.0 454.60686015831135 0.5047868308825684 17.0 8.0 10.0 
602.00010179367 362.0 40.0 454.60686015831135 0.5047868308825684 17.0 8.0 10.0 
604.00010179367 362.0 40.0 454.60686015831135 0.5047868308825684 17.0 8.0 10.0 
606.00010179367 362.0 40.0 454.61213720316607 0.5047868308825684 17.0 8.0 10.0 
608.00010179367 362.0 40.0 454.60686015831135 0.5047858850160067 17.0 8.0 10.0 
610.00010179367 362.0 40.0 454.60686015831135 0.5047868308825684 17.0 8.0 10.0 
612.00010179367 362.0 40.0 454.60686015831135 0.5047868308825684 17.0 8.0 10.0 
614.00010179367 362.0 40.0 454.60686015831135 0.5047868308825684 17.0 8.0 10.0 
616.00010179367 362.0 40.0 454.61213720316607 0.5047868308825684 17.0 8.0 10.0 
618.00010179367 362.0 40.0 454.60686015831135 0.5047858850160067 17.0 8.0 10.0 
620.00010179367 362.0 40.0 454.60686015831135 0.5047868308825684 17.0 8.0 10.0 
622.00010179367 362.0 40.0 454.60686015831135 0.5047868308825684 17.0 8.0 10.0 
624.00010179367 362.0 40.0 454.60686015831135 0.5047868308825684 17.0 8.0 10.0 
626.00010179367 362.0 40.0 454.61213720316607 0.5047868308825684 17.0 8.0 10.0 
628.00010179367 362.0 40.0 451.58047493403706 0.5047858850160067 16.0 8.0 9.0 
630.00010179367 362.0 40.0 451.58047493403706 0.5047868308825684 16.0 8.0 9.0 
632.00010179367 374.0 41.0 451.58047493403706 0.5048710386839654 16.0 8.0 9.0 
634.00010179367 374.0 41.0 451.58047493403706 0.5047606901567488 16.0 8.0 9.0 
636.00010179367 374.0 41.0 451.5857519788919 0.5047606901567488 16.0 8.0 9.0 
638.00010179367 374.0 41.0 451.58047493403706 0.5047597628365905 16.0 8.0 9.0 
640.00010179367 374.0 41.0 451.58047493403706 0.5047606901567488 16.0 8.0 9.0 
642.00010179367 374.0 41.0 451.58047493403706 0.5047606901567488 16.0 8.0 9.0 
644.00010179367 374.0 41.0 451.58047493403706 0.5047606901567488 16.0 8.0 9.0 
646.00010179367 374.0 41.0 451.5857519788919 0.5047606901567488 16.0 8.0 9.0 
648.00010179367 374.0 41.0 451.58047493403706 0.5047597628365905 16.0 8.0 9.0 
650.00010179367 374.0 41.0 451.58047493403706 0.5047606901567488 16.0 8.0 9.0 
652.00010179367 374.0 41.0 451.58047493403706 0.5047606901567488 16.0 8.0 9.0 
654.00010179367 374.0 41.0 451.58047493403706 0.5047606901567488 16.0 8.0 9.0 
656.00010179367 374.0 41.0 451.5857519788919 0.5047606901567488 16.0 8.0 9.0 
658.00010179367 374.0 41.0 451.58047493403706 0.5047597628365905 16.0 8.0 9.0 
660.00010179367 374.0 41.0 451.58047493403706 0.5047606901567488 16.0 8.0 9.0 
662.00010179367 376.0 41.0 451.58047493403706 0.5057283573331093 16.0 8.0 9.0 
664.00010179367 376.0 41.0 451.58047493403706 0.5057283573331093 16.0 8.0 9.0 
#####################################################################
# End of data export. Simulation finished at: 2019-03-13T04:32+0000 #
#####################################################################
