#####################################################################
# Alchemist log file - simulation started at: 2019-03-07T10:10+0000 #
#####################################################################
# seed = 2.0, bandwidth = 316227.76601683797, accessPointCount = 72.92664737217109, baserange = 10.0
#
# The columns have the following meaning: 
# time neighbor_count[Sum] <value>@neighbor_count[Sum] packet_size[Mean] mean_delay[Mean] crowd[Sum] overcrowded[Sum] risk[Sum] 
0.0 NaN NaN NaN NaN NaN NaN NaN 
10.000582979052751 2.0 1.0 4986.921606118547 0.48420758536511954 1497.0 0.0 1497.0 
20.00058297905275 2.0 1.0 4986.921606118547 0.48420758536511777 1497.0 0.0 1497.0 
30.00058297905275 2.0 1.0 4986.921606118547 0.48420758536511777 1497.0 0.0 1497.0 
40.00058297905275 2.0 1.0 4986.921606118547 0.48420758536511954 1497.0 0.0 1497.0 
50.00058297905275 2.0 1.0 4986.921606118547 0.48420758536511954 1497.0 0.0 1497.0 
60.00058297905275 2.0 1.0 4983.997450605481 0.48420758536511954 1496.0 0.0 1496.0 
70.00004305935364 2.0 1.0 400.0 0.49873508893593055 0.0 0.0 0.0 
80.00004305935364 2.0 1.0 400.0 0.49873508893593055 0.0 0.0 0.0 
90.00004305935364 2.0 1.0 400.0 0.49873508893593055 0.0 0.0 0.0 
100.00004305935364 4.0 2.0 400.0 0.49873508893593055 0.0 0.0 0.0 
110.00004305935364 2.0 1.0 400.0 0.49873508893593055 0.0 0.0 0.0 
120.00004305935364 2.0 1.0 400.0 0.49873508893593055 0.0 0.0 0.0 
130.00004305935363 2.0 1.0 400.0 0.49873508893594476 0.0 0.0 0.0 
140.00004305935363 2.0 1.0 400.0 0.49873508893594476 0.0 0.0 0.0 
150.00004305935363 2.0 1.0 400.0 0.49873508893594476 0.0 0.0 0.0 
160.00004305935363 2.0 1.0 400.0 0.49873508893594476 0.0 0.0 0.0 
170.00004305935363 2.0 1.0 400.0 0.49873508893594476 0.0 0.0 0.0 
180.00004305935363 2.0 1.0 400.0 0.49873508893594476 0.0 0.0 0.0 
190.00004305935363 2.0 1.0 400.0 0.49873508893594476 0.0 0.0 0.0 
200.00004305935363 2.0 1.0 400.0 0.49873508893594476 0.0 0.0 0.0 
210.00004305935363 2.0 1.0 400.0 0.49873508893594476 0.0 0.0 0.0 
220.00004305935363 2.0 1.0 400.0 0.49873508893594476 0.0 0.0 0.0 
230.00004305935363 2.0 1.0 400.0 0.49873508893594476 0.0 0.0 0.0 
240.00004305935363 2.0 1.0 400.0 0.49873508893594476 0.0 0.0 0.0 
250.00004305935363 2.0 1.0 400.0 0.49873508893594476 0.0 0.0 0.0 
260.0000430593537 2.0 1.0 400.0 0.49873508893591634 0.0 0.0 0.0 
270.0000430593537 2.0 1.0 400.0 0.49873508893591634 0.0 0.0 0.0 
280.0000430593537 2.0 1.0 400.0 0.49873508893591634 0.0 0.0 0.0 
290.0000430593537 2.0 1.0 400.0 0.49873508893591634 0.0 0.0 0.0 
300.0000430593537 2.0 1.0 400.0 0.49873508893591634 0.0 0.0 0.0 
310.0000430593537 2.0 1.0 400.0 0.49873508893591634 0.0 0.0 0.0 
320.0000430593537 2.0 1.0 400.0 0.49873508893591634 0.0 0.0 0.0 
330.0000430593537 2.0 1.0 400.0 0.49873508893591634 0.0 0.0 0.0 
340.0000430593537 2.0 1.0 400.0 0.49873508893591634 0.0 0.0 0.0 
350.0000430593537 2.0 1.0 400.0 0.49873508893591634 0.0 0.0 0.0 
360.0000430593537 2.0 1.0 400.0 0.49873508893591634 0.0 0.0 0.0 
370.0000430593537 2.0 1.0 400.0 0.49873508893591634 0.0 0.0 0.0 
380.0000430593537 2.0 1.0 400.0 0.49873508893591634 0.0 0.0 0.0 
390.0000430593537 2.0 1.0 400.0 0.49873508893591634 0.0 0.0 0.0 
400.0000430593537 2.0 1.0 400.0 0.49873508893591634 0.0 0.0 0.0 
410.0000430593537 2.0 1.0 400.0 0.49873508893591634 0.0 0.0 0.0 
420.0000430593537 2.0 1.0 400.0 0.49873508893591634 0.0 0.0 0.0 
430.0000430593537 2.0 1.0 400.0 0.49873508893591634 0.0 0.0 0.0 
440.0000430593537 2.0 1.0 400.0 0.49873508893591634 0.0 0.0 0.0 
450.0000430593537 2.0 1.0 400.0 0.49873508893591634 0.0 0.0 0.0 
460.0000430593537 2.0 1.0 400.0 0.49873508893591634 0.0 0.0 0.0 
470.0000430593537 2.0 1.0 400.0 0.49873508893591634 0.0 0.0 0.0 
480.0000430593537 4.0 2.0 400.0 0.49873508893591634 0.0 0.0 0.0 
490.0000430593537 4.0 2.0 400.0 0.49873508893591634 0.0 0.0 0.0 
500.0000430593537 2.0 1.0 400.0 0.49873508893591634 0.0 0.0 0.0 
510.0000430593537 2.0 1.0 400.0 0.49873508893591634 0.0 0.0 0.0 
520.0000430593536 2.0 1.0 400.0 0.4987350889359732 0.0 0.0 0.0 
530.0000430593536 2.0 1.0 400.0 0.4987350889359732 0.0 0.0 0.0 
540.0000430593536 2.0 1.0 400.0 0.4987350889359732 0.0 0.0 0.0 
550.0000430593536 2.0 1.0 400.0 0.4987350889359732 0.0 0.0 0.0 
560.0000430593536 2.0 1.0 400.0 0.4987350889359732 0.0 0.0 0.0 
570.0000430593536 2.0 1.0 400.0 0.4987350889359732 0.0 0.0 0.0 
580.0000430593536 2.0 1.0 400.0 0.4987350889359732 0.0 0.0 0.0 
590.0000430593536 4.0 2.0 400.0 0.4987350889359732 0.0 0.0 0.0 
600.0000430593536 2.0 1.0 400.0 0.4987350889359732 0.0 0.0 0.0 
610.0000430593536 2.0 1.0 400.0 0.4987350889359732 0.0 0.0 0.0 
620.0000430593536 2.0 1.0 400.0 0.4987350889359732 0.0 0.0 0.0 
630.0000430593536 2.0 1.0 400.0 0.4987350889359732 0.0 0.0 0.0 
640.0000430593536 2.0 1.0 400.0 0.4987350889359732 0.0 0.0 0.0 
650.0000430593536 2.0 1.0 400.0 0.4987350889359732 0.0 0.0 0.0 
660.0000430593536 2.0 1.0 400.0 0.4987350889359732 0.0 0.0 0.0 
#####################################################################
# End of data export. Simulation finished at: 2019-03-07T10:16+0000 #
#####################################################################
