#####################################################################
# Alchemist log file - simulation started at: 2019-03-08T04:28+0000 #
#####################################################################
# seed = 2.0, bandwidth = 2.3713737056616552E7, accessPointCount = 1031.338537721246, baserange = 56.234132519034915
#
# The columns have the following meaning: 
# time neighbor_count[Sum] <value>@neighbor_count[Sum] packet_size[Mean] mean_delay[Mean] crowd[Sum] overcrowded[Sum] risk[Sum] 
0.0 NaN NaN NaN NaN NaN NaN NaN 
10.000006809360508 1000.0 386.0 4981.89240506329 0.5098633338036644 1497.0 0.0 1497.0 
20.000006809360507 996.0 384.0 4983.125 0.5037169795891272 1497.0 0.0 1497.0 
30.00000714671771 996.0 384.0 4981.452531645569 0.503192386481893 1497.0 0.0 1497.0 
40.00000680936051 988.0 381.0 4982.837025316456 0.5025268801290298 1497.0 0.0 1497.0 
50.00000680936051 1006.0 382.0 4981.275316455696 0.5026959315304783 1497.0 0.0 1497.0 
60.00000680936051 1014.0 385.0 4982.827531645569 0.5024924844999504 1497.0 0.0 1497.0 
70.00058297905275 998.0 380.0 536.393987341772 0.5024428573406586 103.0 0.0 75.0 
80.00058297905275 1002.0 381.0 536.3702531645592 0.5054107035365766 92.0 0.0 75.0 
90.00058297905275 998.0 380.0 536.382911392407 0.5024559857355207 85.0 0.0 75.0 
100.00058297905275 999.0 382.0 538.2120253164533 0.5113095824231081 85.0 0.0 76.0 
110.00058297905275 992.0 378.0 540.0332278481008 0.5105029793513125 87.0 0.0 77.0 
120.00058297905275 981.0 378.0 540.0363924050623 0.5022278120849631 88.0 0.0 77.0 
130.00058297905275 978.0 379.0 532.75316455696 0.5036318387122595 83.0 0.0 73.0 
140.00058297905275 979.0 379.0 532.74683544304 0.5017938884827171 83.0 0.0 73.0 
150.00058297905275 986.0 381.0 532.7594936708834 0.5082988737857712 83.0 0.0 73.0 
160.00058297905275 986.0 381.0 532.7484177215191 0.5052867686539345 83.0 0.0 73.0 
170.00058297905275 992.0 382.0 530.9208860759489 0.5025937450285353 83.0 0.0 72.0 
180.00058297905275 1000.0 385.0 529.1408227848092 0.5026902247894258 82.0 0.0 71.0 
190.00058297905275 992.0 384.0 529.1265822784811 0.5027436498988771 82.0 0.0 71.0 
200.00058297905275 998.0 385.0 529.1028481012672 0.5034386210227311 83.0 0.0 71.0 
210.00058297905275 1004.0 386.0 534.5901898734193 0.504197092899741 86.0 0.0 74.0 
220.00058297905275 1020.0 391.0 536.3844936708833 0.504665402759502 88.0 0.0 75.0 
230.00058297905275 1024.0 393.0 538.2025316455699 0.503620240299847 90.0 0.0 76.0 
240.00058297905275 1009.0 391.0 538.2120253164533 0.5093906767017953 89.0 0.0 76.0 
250.00058297905275 1010.0 390.0 541.8465189873417 0.5025999046553683 90.0 0.0 78.0 
260.00058297905275 1016.0 390.0 547.3022151898709 0.502117859187434 92.0 0.0 81.0 
270.00058297905275 1012.0 390.0 547.299050632911 0.5020006245198493 97.0 0.0 81.0 
280.00058297905275 1020.0 391.0 554.5522151898708 0.5028626758892248 100.0 0.0 85.0 
290.00058297905275 1006.0 390.0 552.7373417721502 0.5056612981670541 98.0 0.0 84.0 
300.00058297905275 994.0 387.0 550.9335443037992 0.5157085318627509 96.0 0.0 83.0 
310.00058297905275 988.0 386.0 549.1170886075928 0.5027889224540353 94.0 0.0 82.0 
320.00058297905275 993.0 386.0 550.9050632911399 0.5034653831313948 93.0 0.0 83.0 
330.00058297905275 992.0 386.0 545.4857594936711 0.5162132981323934 93.0 0.0 80.0 
340.00058297905275 995.0 387.0 538.1946202531627 0.5047118962787372 88.0 0.0 76.0 
350.00058297905275 993.0 386.0 530.954113924051 0.512770619595209 82.0 0.0 72.0 
360.00058297905275 998.0 387.0 540.0585443037983 0.5029894182909573 88.0 0.0 77.0 
370.00058297905275 1015.0 389.0 541.8702531645591 0.5163435666708915 81.0 7.0 71.0 
380.00058297905275 993.0 385.0 540.0664556962024 0.5153770309662329 80.0 7.0 70.0 
390.00058297905275 984.0 384.0 541.8797468354409 0.503062424477101 82.0 6.0 72.0 
400.00058297905275 971.0 383.0 541.8718354430396 0.5018360713175847 82.0 6.0 72.0 
410.00058297905275 1004.0 388.0 540.0458860759496 0.5048941967790809 84.0 7.0 70.0 
420.00058297905275 1007.0 388.0 541.85917721519 0.5058313309432741 85.0 6.0 72.0 
430.00058297905275 992.0 390.0 538.2389240506322 0.50337957443583 83.0 6.0 70.0 
440.00058297905275 996.0 392.0 538.197784810129 0.502777120960988 84.0 6.0 70.0 
450.00058297905275 978.0 391.0 536.4525316455699 0.5027377112556357 83.0 6.0 69.0 
460.00058297905275 974.0 391.0 530.9303797468373 0.502692579431861 88.0 0.0 72.0 
470.00058297905275 975.0 391.0 540.0981012658265 0.5024514760139879 88.0 0.0 77.0 
480.00058297905275 968.0 392.0 540.0569620253134 0.5090088980128054 87.0 0.0 77.0 
490.00058297905275 970.0 388.0 541.9367088607601 0.5041089799920035 90.0 0.0 78.0 
500.00058297905275 970.0 386.0 541.8734177215202 0.5083249887167789 93.0 0.0 78.0 
510.00058297905275 990.0 387.0 543.7088607594923 0.5005421759804995 93.0 0.0 79.0 
520.0005829790528 990.0 389.0 540.0395569620229 0.5084148364723944 93.0 0.0 77.0 
530.0005829790528 990.0 392.0 540.0727848101291 0.5072413824307953 93.0 0.0 77.0 
540.0005829790528 991.0 389.0 543.710443037977 0.5071392612895961 90.0 0.0 79.0 
550.0005829790528 982.0 387.0 543.6740506329112 0.5015241185260695 91.0 0.0 79.0 
560.0005829790528 1005.0 390.0 547.3227848101291 0.5021383406298735 92.0 0.0 81.0 
570.0005829790528 1010.0 391.0 552.8037974683514 0.5054875951851212 96.0 0.0 84.0 
580.0005829790528 1019.0 392.0 552.7784810126593 0.5039884812037811 99.0 0.0 84.0 
590.0005829790528 1002.0 390.0 554.5585443037992 0.509625876962435 97.0 0.0 85.0 
600.0005829790528 1015.0 391.0 558.2357594936719 0.5083325911537567 104.0 0.0 87.0 
610.0005829790528 1021.0 387.0 569.1550632911399 0.5073773278906017 107.0 0.0 93.0 
620.0005829790528 1044.0 389.0 567.3164556961999 0.5078967463051423 101.0 9.0 83.0 
630.0005829790528 1077.0 391.0 578.2373417721502 0.5027877198415766 105.0 9.0 89.0 
640.0005829790528 1113.0 391.0 570.968354430382 0.5054831440599236 98.0 11.0 83.0 
650.0005829790528 1062.0 391.0 570.9715189873401 0.503751892773547 100.0 9.0 85.0 
660.0005829790528 1064.0 392.0 580.0965189873399 0.5038984521407627 101.0 8.0 91.0 
#####################################################################
# End of data export. Simulation finished at: 2019-03-08T04:42+0000 #
#####################################################################
