#####################################################################
# Alchemist log file - simulation started at: 2019-03-06T10:44+0000 #
#####################################################################
# seed = 1.0, bandwidth = 1.0E8, accessPointCount = 72.92664737217109, baserange = 56.234132519034915
#
# The columns have the following meaning: 
# time neighbor_count[Sum] <value>@neighbor_count[Sum] packet_size[Mean] mean_delay[Mean] crowd[Sum] overcrowded[Sum] risk[Sum] 
0.0 NaN NaN NaN NaN NaN NaN NaN 
10.000417374280275 29.0 11.0 4987.107711918419 0.47810248626953666 1497.0 0.0 1497.0 
20.000417374280275 30.0 11.0 4987.105162523901 0.4905824100137022 1497.0 0.0 1497.0 
30.000417374280275 30.0 11.0 4987.072020395156 0.49058243354311426 1497.0 0.0 1497.0 
40.000417374280275 30.0 11.0 4987.089866156788 0.49058245471958495 1497.0 0.0 1497.0 
50.000417374280275 30.0 11.0 4987.072020395156 0.49058243354311426 1497.0 0.0 1497.0 
60.000417374280275 30.0 11.0 4987.089866156788 0.49058245471958495 1497.0 0.0 1497.0 
70.00041737428027 30.0 11.0 400.0 0.490674386484294 3.0 0.0 0.0 
80.00041737428027 30.0 11.0 400.0 0.490674386484294 2.0 0.0 0.0 
90.00041737428027 30.0 11.0 400.0 0.490674386484294 0.0 0.0 0.0 
100.00041737428027 30.0 11.0 400.0 0.490674386484294 0.0 0.0 0.0 
110.00041737428027 30.0 11.0 400.0 0.490674386484294 0.0 0.0 0.0 
120.00041737428027 30.0 11.0 400.0 0.490674386484294 0.0 0.0 0.0 
130.0004173742803 30.0 11.0 400.0 0.49067438648428996 0.0 0.0 0.0 
140.0004173742803 30.0 11.0 400.0 0.49067438648428996 0.0 0.0 0.0 
150.0004173742803 32.0 12.0 400.0 0.49165560895962895 0.0 0.0 0.0 
160.0004173742803 30.0 11.0 400.0 0.49067438648428996 0.0 0.0 0.0 
170.0004173742803 30.0 11.0 400.0 0.49067438648428996 0.0 0.0 0.0 
180.0004173742803 32.0 12.0 400.0 0.4780297988078151 0.0 0.0 0.0 
190.0004173742803 48.0 14.0 411.7629063097515 0.48160756454615256 5.0 0.0 4.0 
200.0004173742803 40.0 13.0 411.75270873167614 0.4937152372087673 5.0 0.0 4.0 
210.0004173742803 32.0 12.0 411.73996175908246 0.4934432754611254 4.0 0.0 4.0 
220.0004173742803 38.0 13.0 414.63607393244115 0.47653615148004647 5.0 0.0 5.0 
230.0004173742803 36.0 12.0 417.58062460165735 0.49116814056849734 6.0 0.0 6.0 
240.0004173742803 34.0 13.0 417.5857233906945 0.47580608967951177 7.0 0.0 6.0 
250.0004173742803 39.0 13.0 420.50987890376047 0.47642283537666985 7.0 0.0 7.0 
260.0004173742803 40.0 13.0 417.5908221797322 0.5217846573078563 6.0 0.0 6.0 
270.0004173742803 30.0 11.0 417.5653282345441 0.49066356766076513 6.0 0.0 6.0 
280.0004173742803 30.0 11.0 417.58572339069474 0.49066351589605833 6.0 0.0 6.0 
290.0004173742803 36.0 12.0 414.6590184831103 0.4911757561240517 6.0 0.0 5.0 
300.0004173742803 32.0 12.0 411.71701720841304 0.5006499963565579 4.0 0.0 4.0 
310.0004173742803 40.0 13.0 414.63607393244115 0.4904588311418308 6.0 0.0 5.0 
320.0004173742803 30.0 11.0 408.80815806246005 0.49066353001370655 3.0 0.0 3.0 
330.0004173742803 34.0 13.0 408.7928616953473 0.49244117382062136 3.0 0.0 3.0 
340.0004173742803 34.0 13.0 408.8132568514978 0.49244113191585864 3.0 0.0 3.0 
350.0004173742803 32.0 12.0 408.810707456979 0.4916458931701594 3.0 0.0 3.0 
360.0004173742803 32.0 12.0 408.7928616953473 0.49164592895963305 3.0 0.0 3.0 
370.0004173742803 32.0 12.0 408.8132568514978 0.49164588264384274 3.0 0.0 3.0 
380.0004173742803 32.0 12.0 400.0 0.49165560895963517 2.0 0.0 0.0 
390.0004173742803 34.0 13.0 400.0 0.49244993191586134 0.0 0.0 0.0 
400.0004173742803 34.0 13.0 400.0 0.49244993191586134 0.0 0.0 0.0 
410.0004173742803 40.0 14.0 402.92415551306567 0.4927857695560423 3.0 0.0 1.0 
420.0004173742803 34.0 13.0 402.92415551306567 0.4924455623920503 2.0 0.0 1.0 
430.0004173742803 32.0 12.0 402.92415551306567 0.49165077948594926 2.0 0.0 1.0 
440.0004173742803 32.0 12.0 402.92415551306567 0.49165077948594926 2.0 0.0 1.0 
450.0004173742803 32.0 12.0 402.92415551306567 0.49165077948594926 2.0 0.0 1.0 
460.0004173742803 32.0 12.0 402.92415551306567 0.49165077948594926 2.0 0.0 1.0 
470.0004173742803 40.0 14.0 402.92415551306567 0.4902688338280605 2.0 0.0 1.0 
480.0004173742803 42.0 14.0 402.92415551306567 0.5011002566146366 4.0 0.0 1.0 
490.0004173742803 40.0 13.0 402.92415551306567 0.5012106822760993 4.0 0.0 1.0 
500.0004173742803 40.0 13.0 402.92415551306567 0.5012106822760993 4.0 0.0 1.0 
510.0004173742803 38.0 13.0 402.92415551306567 0.4991710979869668 4.0 0.0 1.0 
520.0004173742802 38.0 13.0 402.92415551306567 0.49917109798697984 4.0 0.0 1.0 
530.0004173742802 38.0 13.0 402.92415551306567 0.49917109798697984 4.0 0.0 1.0 
540.0004173742802 38.0 13.0 402.92415551306567 0.49917109798697984 4.0 0.0 1.0 
550.0004173742802 38.0 13.0 402.92415551306567 0.49917109798697984 4.0 0.0 1.0 
560.0004173742802 36.0 13.0 402.92415551306567 0.49040571200055705 4.0 0.0 1.0 
570.0004173742802 39.0 14.0 402.9394518801786 0.4901823014464521 1.0 0.0 1.0 
580.0004173742802 40.0 14.0 402.92415551306567 0.5382411919803052 2.0 0.0 1.0 
590.0004173742802 32.0 12.0 402.92415551306567 0.4916507794859642 2.0 0.0 1.0 
600.0004173742802 32.0 12.0 402.92415551306567 0.4916507794859642 2.0 0.0 1.0 
610.0004173742802 32.0 12.0 402.92415551306567 0.4916507794859642 2.0 0.0 1.0 
620.0004173742802 32.0 12.0 402.92415551306567 0.4916507794859642 2.0 0.0 1.0 
630.0004173742802 40.0 14.0 405.87890376035705 0.49632817248722666 4.0 0.0 2.0 
640.0004173742802 41.0 15.0 408.8005098789039 0.560088289054217 4.0 0.0 3.0 
650.0004173742802 40.0 14.0 411.7501593371574 0.4831415434495097 5.0 0.0 4.0 
660.0004173742802 60.0 16.0 417.608667941364 0.4604309627878188 7.0 0.0 6.0 
#####################################################################
# End of data export. Simulation finished at: 2019-03-06T10:50+0000 #
#####################################################################
