#####################################################################
# Alchemist log file - simulation started at: 2019-03-11T13:23+0000 #
#####################################################################
# seed = 4.0, bandwidth = 5623413.251903491, accessPointCount = 10.0, baserange = 1000.0
#
# The columns have the following meaning: 
# time neighbor_count[Sum] <value>@neighbor_count[Sum] packet_size[Mean] mean_delay[Mean] crowd[Sum] overcrowded[Sum] risk[Sum] 
0.0 NaN NaN NaN NaN NaN NaN NaN 
2.000229590107995 7159.0 455.0 4988.4459190444595 0.4372830809188217 1497.0 0.0 1497.0 
4.000415248718201 18884.0 473.0 4989.677504976775 0.47448165808178694 1497.0 0.0 1497.0 
6.000479336559067 29671.0 470.0 4990.728599867286 0.49593216938333334 1497.0 0.0 1497.0 
8.000479336559067 36603.0 470.0 4991.153284671533 0.5050026636978285 1497.0 0.0 1497.0 
10.000479336559067 40488.0 467.0 4991.344392833444 0.5133779323718439 1497.0 0.0 1497.0 
12.000479336559067 41534.0 466.0 4991.450564034506 0.5144212349852105 1497.0 0.0 1497.0 
14.00042902272939 41224.0 461.0 4991.339084273391 0.5005055296928077 1497.0 0.0 1497.0 
16.000479336559067 41331.0 461.0 4991.291307232913 0.5015248561219452 1497.0 0.0 1497.0 
18.000479336559067 41388.0 461.0 4991.304578633046 0.502198444237893 1497.0 0.0 1497.0 
20.000479336559067 41382.0 462.0 4991.3629727936295 0.5002834460215443 1497.0 0.0 1497.0 
22.000479336559067 41386.0 462.0 4991.378898473789 0.5003992757950475 1497.0 0.0 1497.0 
24.000429022729392 41386.0 462.0 4991.331121433312 0.5004174938520741 1497.0 0.0 1497.0 
26.000479336559067 41409.0 462.0 4991.347047113471 0.5003592683291743 1497.0 0.0 1497.0 
28.000479336559067 41418.0 462.0 4991.325812873258 0.5004255450087455 1497.0 0.0 1497.0 
30.000479336559067 41418.0 462.0 4991.43198407432 0.5004274330121461 1497.0 0.0 1497.0 
32.00047933655907 41418.0 462.0 4991.453218314532 0.5005203463822344 1497.0 0.0 1497.0 
34.00042902272939 41420.0 463.0 4991.402786994028 0.5011148713807204 1497.0 0.0 1497.0 
36.00047933655907 41432.0 463.0 4991.370935633709 0.5011297150239146 1497.0 0.0 1497.0 
38.00047933655907 41442.0 463.0 4991.238221632382 0.5011044302633363 1497.0 0.0 1497.0 
40.00047933655907 41442.0 463.0 4991.347047113471 0.5012982604974955 1497.0 0.0 1497.0 
42.00047933655907 41435.0 463.0 4991.405441274054 0.5011073432050417 1497.0 0.0 1497.0 
44.00042902272939 41434.0 463.0 4991.3656270736565 0.5010813338243943 1497.0 0.0 1497.0 
46.00047933655907 41445.0 463.0 4991.381552753815 0.5012556415126885 1497.0 0.0 1497.0 
48.00047933655907 41448.0 463.0 4991.400132714001 0.5010917847742026 1497.0 0.0 1497.0 
50.00047933655907 41448.0 463.0 4991.455872594559 0.501353595281351 1497.0 0.0 1497.0 
52.00047933655907 41445.0 463.0 4991.3629727936295 0.5012017336799894 1497.0 0.0 1497.0 
54.00042902272939 41442.0 463.0 4991.331121433312 0.504244589256186 1497.0 0.0 1497.0 
56.00047933655907 41444.0 463.0 4991.238221632382 0.5015978881486682 1497.0 0.0 1497.0 
58.00047933655907 41442.0 463.0 4991.206370272063 0.5023238323226219 1497.0 0.0 1497.0 
60.00047933655907 41440.0 463.0 4988.331785003318 0.5014827933563051 1497.0 0.0 1496.0 
62.000041783208744 41432.0 463.0 1059.9150630391496 0.49953573306591953 366.0 0.0 216.0 
64.00004178320874 41433.0 463.0 1059.9362972793642 0.5047780306311181 330.0 1.0 215.0 
66.00004178320874 41432.0 462.0 1062.9781021897818 0.5016698319120217 317.0 1.0 216.0 
68.00004178320874 41427.0 462.0 1063.0285335102876 0.5026544186774441 301.0 0.0 217.0 
70.00004178320874 41465.0 463.0 1062.9754479097523 0.50791520255803 297.0 0.0 217.0 
72.00004178320874 41338.0 462.0 1066.0199071001994 0.5016882940238974 296.0 0.0 218.0 
74.00004178320874 41442.0 463.0 1069.0325149303258 0.501766939912933 296.0 0.0 219.0 
76.00004178320874 41438.0 463.0 1069.0670205706701 0.501776222588382 294.0 0.0 219.0 
78.00004178320874 41436.0 463.0 1069.0856005308538 0.5027140647125082 293.0 0.0 219.0 
80.00004178320874 41428.0 463.0 1072.1406768414085 0.5017710925520732 294.0 0.0 220.0 
82.00004178320874 41421.0 463.0 1072.1380225613786 0.501748892217269 294.0 0.0 220.0 
84.00004178320874 41419.0 463.0 1072.1566025215636 0.5016904215710914 295.0 0.0 220.0 
86.00004178320874 41416.0 463.0 1072.1247511612487 0.5018447368827414 295.0 0.0 220.0 
88.00004178320874 41563.0 464.0 1072.1247511612487 0.5046262687714824 295.0 0.0 220.0 
90.00004178320874 41528.0 464.0 1072.122096881219 0.5018479273858628 295.0 0.0 220.0 
92.00004178320874 41524.0 464.0 1072.143331121432 0.5020103420768312 295.0 0.0 220.0 
94.00004178320874 41521.0 464.0 1072.122096881219 0.5017327006623222 295.0 0.0 220.0 
96.00004178320874 41519.0 464.0 1072.148639681486 0.5083770660638807 295.0 0.0 220.0 
98.00004178320874 41470.0 463.0 1072.0849369608504 0.5017778824680761 295.0 0.0 220.0 
100.00004178320874 41476.0 463.0 1072.0637027206355 0.5018880233307117 295.0 0.0 220.0 
102.00004178320874 41472.0 463.0 1072.0663570006654 0.5077219566941984 295.0 0.0 220.0 
104.00004178320874 41236.0 462.0 1072.1247511612487 0.5020619878377679 295.0 0.0 220.0 
106.00004178320874 41232.0 462.0 1072.103516921034 0.5018542882439831 295.0 0.0 220.0 
108.00004178320874 41242.0 462.0 1072.1008626410103 0.5020270686890237 295.0 0.0 220.0 
110.00004178320874 41244.0 462.0 1072.0769741207669 0.5020387443647778 295.0 0.0 220.0 
112.00004178320874 41242.0 462.0 1072.0955540809578 0.5019518029736475 294.0 1.0 219.0 
114.00004178320874 41240.0 462.0 1072.1141340411414 0.5020139829944362 294.0 1.0 219.0 
116.00004178320874 41235.0 462.0 1072.1990710019918 0.5021192767058463 296.0 0.0 220.0 
118.00004178320874 41246.0 462.0 1078.2800265428025 0.5024292636763595 297.0 0.0 222.0 
120.00004178320874 41253.0 462.0 1081.2820172528222 0.5103585213425648 297.0 0.0 223.0 
122.00004178320874 41237.0 461.0 1081.2422030524237 0.5016612973322255 297.0 0.0 223.0 
124.00004178320874 41239.0 461.0 1081.2740544127394 0.5019657995387296 297.0 0.0 223.0 
126.00004178320874 41227.0 461.0 1081.263437292632 0.5020880806474123 297.0 0.0 223.0 
128.00004178320876 41220.0 461.0 1078.200398142006 0.5014991170621623 297.0 0.0 222.0 
130.00004178320876 41233.0 462.0 1078.1871267418699 0.5017906474070108 296.0 1.0 221.0 
132.00004178320876 41222.0 462.0 1078.2136695421373 0.5021841419833936 295.0 2.0 220.0 
134.00004178320876 41201.0 462.0 1075.2408759124087 0.5021728271982302 295.0 2.0 219.0 
136.00004178320876 41182.0 462.0 1075.2276045122785 0.501840406113147 295.0 1.0 220.0 
138.00004178320876 41174.0 462.0 1075.2674187126768 0.5015939390356872 295.0 0.0 221.0 
140.00004178320876 41174.0 462.0 1072.1433311214323 0.5017649850406786 293.0 0.0 220.0 
142.00004178320876 41167.0 462.0 1072.0690112806892 0.5021326025151642 292.0 0.0 220.0 
144.00004178320876 41150.0 462.0 1075.209024552088 0.5020748376880411 294.0 0.0 221.0 
146.00004178320876 41137.0 462.0 1072.1167883211647 0.5022616860928228 293.0 0.0 220.0 
148.00004178320876 41126.0 462.0 1075.2329130723317 0.5025178487057833 291.0 1.0 220.0 
150.00004178320876 41117.0 462.0 1075.2010617120106 0.5024110702943375 288.0 3.0 218.0 
152.00004178320876 41095.0 462.0 1075.2859986728613 0.5026432787862259 290.0 2.0 219.0 
154.00004178320876 41071.0 462.0 1072.222959522229 0.5015419622271925 290.0 2.0 218.0 
156.00004178320876 41058.0 462.0 1072.1911081619085 0.5014336599658027 292.0 1.0 219.0 
158.00004178320876 41052.0 462.0 1072.2123424021217 0.501416530864736 293.0 0.0 220.0 
160.00004178320876 41051.0 462.0 1072.23888520239 0.5018300146478937 293.0 0.0 220.0 
162.00004178320876 41027.0 462.0 1072.1698739217009 0.5021835853059344 292.0 1.0 219.0 
164.00004178320876 41004.0 462.0 1072.1911081619085 0.5014420832890252 293.0 0.0 220.0 
166.00004178320876 40998.0 462.0 1075.18779031188 0.501716424741608 292.0 0.0 221.0 
168.00004178320876 40983.0 462.0 1075.2302587923018 0.5016864195096252 292.0 1.0 220.0 
170.00004178320876 40981.0 462.0 1078.2163238221608 0.504869935387414 292.0 2.0 220.0 
172.00004178320876 40824.0 462.0 1078.285335102857 0.5079899092247827 294.0 2.0 220.0 
174.00004178320876 40698.0 461.0 1072.2203052422058 0.5019095788264295 296.0 1.0 219.0 
176.00004178320876 40675.0 461.0 1075.293961512938 0.5011448305224955 299.0 0.0 221.0 
178.00004178320876 40673.0 461.0 1075.2408759124087 0.5013262766415445 299.0 0.0 221.0 
180.00004178320876 40670.0 461.0 1075.2700729927005 0.5017951115609005 299.0 0.0 221.0 
182.00004178320876 40646.0 461.0 1072.1804910418073 0.5017396841895254 298.0 0.0 220.0 
184.00004178320876 40625.0 461.0 1072.1990710019918 0.5014737640017779 297.0 0.0 220.0 
186.00004178320876 40611.0 461.0 1075.2169873921719 0.5017999859993539 297.0 0.0 221.0 
188.00004178320876 40591.0 461.0 1072.2495023224967 0.5014611551623377 297.0 0.0 220.0 
190.00004178320876 40584.0 461.0 1072.2203052422058 0.5016016466022334 296.0 1.0 219.0 
192.00004178320876 40563.0 461.0 1075.246184472463 0.5026786948714491 296.0 1.0 220.0 
194.00004178320876 40518.0 461.0 1075.1957531519568 0.5012471560610742 297.0 0.0 221.0 
196.00004178320876 40510.0 461.0 1075.1612475116126 0.5016469776267453 297.0 0.0 221.0 
198.00004178320876 40496.0 461.0 1075.1745189117432 0.5013369090909631 297.0 0.0 221.0 
200.00004178320876 40494.0 461.0 1075.2886529528848 0.5023633353452079 297.0 0.0 221.0 
202.00004178320876 40459.0 461.0 1075.2621101526227 0.5030265392024914 297.0 0.0 221.0 
204.00004178320876 40411.0 462.0 1078.362309223623 0.5090453755332389 299.0 0.0 222.0 
206.00004178320876 40247.0 462.0 1078.2694094226954 0.5109415083942316 297.0 0.0 222.0 
208.00004178320876 40112.0 460.0 1075.2753815527535 0.5071535891263582 297.0 0.0 221.0 
210.00004178320876 40108.0 461.0 1075.2196416721945 0.5035472231544961 297.0 0.0 221.0 
212.00004178320876 40004.0 462.0 1075.2435301924327 0.5082335566081463 299.0 0.0 221.0 
214.00004178320876 39833.0 462.0 1075.163901791636 0.5054266787818135 299.0 0.0 221.0 
216.00004178320876 39795.0 461.0 1078.2110152621067 0.5027875001657419 299.0 0.0 222.0 
218.00004178320876 39769.0 461.0 1078.2110152621067 0.5062232148174802 298.0 0.0 222.0 
220.00004178320876 39772.0 461.0 1078.2587923025887 0.5058492134231503 297.0 1.0 221.0 
222.00004178320876 39593.0 460.0 1075.2859986728613 0.501187667508097 296.0 2.0 219.0 
224.00004178320876 39578.0 460.0 1075.2806901128074 0.5007306122861559 297.0 1.0 220.0 
226.00004178320876 39578.0 460.0 1075.163901791636 0.5012772130652943 298.0 0.0 221.0 
228.00004178320876 39566.0 460.0 1078.242866622428 0.5014107284303032 298.0 0.0 222.0 
230.00004178320876 39548.0 460.0 1078.264100862643 0.5010336706391664 298.0 0.0 222.0 
232.00004178320876 39530.0 460.0 1078.3171864631713 0.5012590806542397 298.0 0.0 222.0 
234.00004178320876 39542.0 461.0 1081.289980092899 0.5057298075764534 298.0 0.0 223.0 
236.00004178320876 39390.0 460.0 1075.1984074319878 0.5012832667225626 297.0 0.0 221.0 
238.00004178320876 39372.0 460.0 1075.113470471137 0.5015627476162569 297.0 0.0 221.0 
240.00004178320876 39377.0 461.0 1075.182481751826 0.5045075163604958 297.0 0.0 221.0 
242.00004178320876 39213.0 460.0 1072.1088254810875 0.5021472047017163 297.0 0.0 220.0 
244.00004178320876 39202.0 460.0 1072.1751824817532 0.500351153948759 299.0 0.0 220.0 
246.00004178320876 39229.0 460.0 1072.122096881219 0.5050680815949768 299.0 0.0 220.0 
248.00004178320876 39128.0 461.0 1072.1645653616467 0.5127907889294285 298.0 0.0 220.0 
250.00004178320876 39050.0 459.0 1072.1088254810875 0.5004764816096335 299.0 0.0 220.0 
252.00004178320876 39051.0 459.0 1069.0112806901107 0.5015186936022641 298.0 0.0 219.0 
254.00004178320876 39045.0 459.0 1065.9455872594563 0.5005188343539736 297.0 0.0 218.0 
256.00004178320876 39123.0 460.0 1066.0013271400144 0.5052882524196729 298.0 0.0 218.0 
258.00004178320876 38991.0 460.0 1066.0066357000683 0.5007452498352679 299.0 0.0 218.0 
260.00004178320876 38981.0 460.0 1066.0437956204364 0.5005906281847737 300.0 0.0 218.0 
262.00004178320876 38977.0 460.0 1065.9827471798246 0.5013543680700953 300.0 0.0 218.0 
264.00004178320876 38970.0 461.0 1066.0597213005974 0.5013094424636807 300.0 0.0 218.0 
266.00004178320876 39000.0 462.0 1078.242866622428 0.5064066758651123 298.0 0.0 222.0 
268.00004178320876 38785.0 461.0 1078.2242866622444 0.5096689787017056 298.0 0.0 222.0 
270.00004178320876 38641.0 460.0 1078.2349037823512 0.5013799108105044 298.0 0.0 222.0 
272.00004178320876 38638.0 460.0 1078.2083609820838 0.5023015930203235 298.0 0.0 222.0 
274.00004178320876 38618.0 460.0 1075.2010617120106 0.5010432285202123 297.0 0.0 221.0 
276.00004178320876 38644.0 461.0 1078.1818181818157 0.5009241364717241 299.0 0.0 222.0 
278.00004178320876 38641.0 461.0 1081.2714001327156 0.5014417679002122 298.0 0.0 223.0 
280.00004178320876 38633.0 461.0 1081.2448573324477 0.5012156633444415 300.0 0.0 223.0 
282.00004178320876 38625.0 461.0 1081.1386861313892 0.5015420950249955 302.0 0.0 223.0 
284.00004178320876 38618.0 461.0 1075.113470471137 0.5010324504959688 301.0 0.0 221.0 
286.00004178320876 38625.0 461.0 1075.0763105507617 0.5017919178692138 300.0 0.0 221.0 
288.00004178320876 38618.0 462.0 1075.1453218314514 0.5069358430573658 299.0 0.0 221.0 
290.00004178320876 38492.0 461.0 1072.0796284007968 0.5022942161306013 296.0 0.0 220.0 
292.00004178320876 38500.0 463.0 1072.106171201064 0.5124756395591951 297.0 0.0 220.0 
294.00004178320876 38257.0 461.0 1078.1977438619765 0.5007535475822834 297.0 0.0 222.0 
296.00004178320876 38261.0 461.0 1078.1420039814172 0.5021069564321538 297.0 0.0 222.0 
298.00004178320876 38212.0 461.0 1081.2368944923708 0.5019840400270158 297.0 0.0 223.0 
300.00004178320876 38183.0 461.0 1081.2581287325777 0.5010941339392349 296.0 0.0 223.0 
302.00004178320876 38412.0 462.0 1078.2322495023207 0.5007949241818457 296.0 0.0 222.0 
304.00004178320876 38411.0 462.0 1078.242866622428 0.5048981241934436 294.0 0.0 222.0 
306.00004178320876 38405.0 461.0 1081.3669542136722 0.5014059773813478 295.0 0.0 223.0 
308.00004178320876 38362.0 461.0 1081.3138686131367 0.5050274300319363 295.0 0.0 223.0 
310.00004178320876 38197.0 460.0 1081.1891174518885 0.5000384120081518 295.0 0.0 223.0 
312.00004178320876 38195.0 460.0 1084.310550763103 0.5002818288557548 295.0 0.0 224.0 
314.00004178320876 38187.0 460.0 1084.2919708029185 0.4993494625551216 295.0 0.0 224.0 
316.00004178320876 38281.0 462.0 1081.2501658925007 0.5077097677067174 296.0 0.0 223.0 
318.00004178320876 38073.0 462.0 1078.20570670206 0.501666473995176 295.0 0.0 222.0 
320.00004178320876 38001.0 462.0 1078.2481751824816 0.5042485935696702 294.0 0.0 222.0 
322.00004178320876 37940.0 461.0 1075.121433311214 0.500539540731064 294.0 0.0 221.0 
324.00004178320876 37962.0 461.0 1075.0710019907087 0.5017938935758091 294.0 0.0 221.0 
326.00004178320876 37892.0 462.0 1074.9727936297281 0.5035715742897721 294.0 0.0 221.0 
328.00004178320876 37846.0 461.0 1075.03118779031 0.5003254192963705 294.0 0.0 221.0 
330.00004178320876 37869.0 461.0 1068.9953550099515 0.5012002854075492 293.0 0.0 219.0 
332.00004178320876 37835.0 462.0 1069.0351692103497 0.5055892225612446 292.0 0.0 219.0 
334.00004178320876 37737.0 461.0 1075.2276045122783 0.49947745977212143 294.0 0.0 221.0 
336.00004178320876 37790.0 462.0 1069.0298606502959 0.5035654403652107 294.0 0.0 219.0 
338.00004178320876 37657.0 462.0 1068.9528865295288 0.5002465550202745 294.0 0.0 219.0 
340.00004178320876 37761.0 462.0 1068.947577969475 0.49841232419468195 294.0 0.0 219.0 
342.00004178320876 37846.0 463.0 1072.0398142003983 0.5011922122788244 296.0 0.0 220.0 
344.00004178320876 37823.0 463.0 1075.1400132713989 0.5009865871037652 297.0 0.0 221.0 
346.00004178320876 37827.0 463.0 1078.1552753815542 0.5000492697346129 296.0 0.0 222.0 
348.00004178320876 37818.0 463.0 1078.1605839416077 0.5001060657746403 296.0 0.0 222.0 
350.00004178320876 37839.0 463.0 1072.029197080291 0.49967968398245155 296.0 0.0 220.0 
352.00004178320876 37843.0 464.0 1072.0212342402135 0.5049655762922683 298.0 0.0 220.0 
354.00004178320876 37724.0 463.0 1072.0583941605819 0.4995799561324226 298.0 0.0 220.0 
356.00004178320876 37725.0 463.0 1072.0106171201073 0.500561317050065 297.0 0.0 220.0 
358.00004178320876 37715.0 463.0 1072.0212342402135 0.4997778311778844 295.0 0.0 220.0 
360.00004178320876 37711.0 463.0 1071.9920371599223 0.5006290825609925 295.0 0.0 220.0 
362.00004178320876 37704.0 463.0 1071.970802919709 0.5010857124547338 297.0 0.0 220.0 
364.00004178320876 37697.0 463.0 1072.0132714001313 0.4994739456968541 295.0 0.0 220.0 
366.00004178320876 37706.0 463.0 1059.7558062375565 0.4996019512902964 295.0 0.0 216.0 
368.00004178320876 37705.0 463.0 1056.7723954877224 0.500390576973293 296.0 0.0 215.0 
370.00004178320876 37697.0 463.0 1053.704047777042 0.5010343607241878 296.0 0.0 214.0 
372.00004178320876 37678.0 463.0 1056.7564698075666 0.5038831647472669 297.0 0.0 215.0 
374.00004178320876 37652.0 463.0 1053.6854678168536 0.5034130985265913 297.0 0.0 214.0 
376.00004178320876 37652.0 462.0 1053.6907763769066 0.500095477118247 296.0 0.0 214.0 
378.00004178320876 37649.0 462.0 1050.5958858659596 0.5008192763443747 297.0 0.0 213.0 
380.00004178320876 37641.0 462.0 1047.5248838752495 0.5080165055917355 298.0 0.0 212.0 
382.00004178320876 37580.0 461.0 1050.5666887856682 0.5017944934601125 296.0 0.0 213.0 
384.00004178320876 37557.0 461.0 1053.656270736562 0.4997469851504241 297.0 0.0 214.0 
386.00004178320876 37572.0 461.0 1056.7564698075666 0.5011885512268801 299.0 0.0 215.0 
388.00004178320876 37563.0 461.0 1056.8042468480432 0.5013625158519475 299.0 0.0 215.0 
390.00004178320876 37572.0 461.0 1050.7445255474454 0.5037310814811958 298.0 0.0 213.0 
392.00004178320876 37485.0 462.0 1050.6542800265415 0.5075177279532022 297.0 0.0 213.0 
394.00004178320876 37411.0 461.0 1050.6569343065707 0.5008878536377588 296.0 0.0 213.0 
396.00004178320876 37416.0 461.0 1053.7544790975423 0.5027986000595234 297.0 0.0 214.0 
398.00004178320876 37398.0 461.0 1047.6416721964151 0.5067118866762881 298.0 0.0 212.0 
400.00004178320876 37402.0 460.0 1044.6264100862659 0.5024328858159328 297.0 0.0 211.0 
402.00004178320876 37357.0 461.0 1050.7259455872604 0.5063428682013514 296.0 0.0 213.0 
404.00004178320876 37279.0 461.0 1044.6211015262122 0.5010834857808967 295.0 0.0 211.0 
406.00004178320876 37323.0 461.0 1047.6921035169205 0.5025166512186986 295.0 0.0 212.0 
408.00004178320876 37473.0 463.0 1050.7259455872602 0.5050991317544197 295.0 0.0 213.0 
410.00004178320876 37403.0 462.0 1053.7889847378922 0.5027211989890485 295.0 0.0 214.0 
412.00004178320876 37430.0 463.0 1059.896483078966 0.5086483397758756 296.0 0.0 216.0 
414.00004178320876 37262.0 462.0 1062.9674850696742 0.5019939063466445 296.0 0.0 217.0 
416.00004178320876 37264.0 462.0 1056.796284007965 0.5033328571102113 298.0 0.0 215.0 
418.00004178320876 37258.0 462.0 1053.7093563370956 0.501291259848137 297.0 0.0 214.0 
420.00004178320876 37252.0 462.0 1044.5706702057064 0.5014235417074461 296.0 0.0 211.0 
422.00004178320876 37249.0 462.0 1044.6078301260804 0.5031658386996453 295.0 0.0 211.0 
424.00004178320876 37215.0 462.0 1041.6403450564017 0.5025695961738655 294.0 0.0 210.0 
426.00004178320876 37211.0 462.0 1038.5295288652947 0.501592341449456 291.0 0.0 209.0 
428.00004178320876 37213.0 462.0 1041.515593895157 0.500852513487526 291.0 0.0 210.0 
430.00004178320876 37220.0 462.0 1035.3284671532838 0.5007503516778234 292.0 0.0 208.0 
432.00004178320876 37275.0 463.0 1038.354346383545 0.503195993695371 292.0 0.0 209.0 
434.00004178320876 37250.0 463.0 1041.4120769741187 0.5038669686672088 292.0 0.0 210.0 
436.00004178320876 37245.0 463.0 1044.5228931652305 0.5023890451184835 292.0 0.0 211.0 
438.00004178320876 37241.0 463.0 1047.5965494359643 0.5008215817013713 292.0 0.0 212.0 
440.00004178320876 37246.0 463.0 1050.707365627071 0.5013805428913127 295.0 0.0 213.0 
442.00004178320876 37358.0 465.0 1053.7677504976791 0.5133241872459203 296.0 0.0 214.0 
444.00004178320876 37007.0 463.0 1053.725282017251 0.5012486702724392 296.0 0.0 214.0 
446.00004178320876 37003.0 463.0 1047.6390179163911 0.5018077577306228 296.0 0.0 212.0 
448.00004178320876 37004.0 463.0 1053.698739216989 0.5009440697788796 294.0 0.0 214.0 
450.00004178320876 37003.0 463.0 1059.7796947577947 0.5029086258710803 295.0 0.0 216.0 
452.00004178320876 37002.0 463.0 1062.8427339084262 0.509003429082097 295.0 0.0 217.0 
454.00004178320876 36975.0 462.0 1062.8453881884557 0.5048077396584604 295.0 0.0 217.0 
456.00004178320876 36972.0 462.0 1062.9064366290622 0.5021130590519753 293.0 0.0 217.0 
458.00004178320876 36999.0 463.0 1062.8719309887178 0.5058078168381167 293.0 0.0 217.0 
460.00004178320876 36866.0 462.0 1059.8699402786976 0.5021169206954157 291.0 0.0 216.0 
462.00004178320876 36856.0 462.0 1056.7511612475134 0.5040628957360391 288.0 1.0 214.0 
464.00004178320876 36822.0 461.0 1056.753815527537 0.507013406146503 290.0 0.0 215.0 
466.00004178320876 36815.0 461.0 1056.772395487722 0.5028632960046184 292.0 0.0 215.0 
468.00004178320876 36815.0 461.0 1056.8148639681501 0.500861167759526 291.0 0.0 215.0 
470.00004178320876 36819.0 461.0 1056.8042468480432 0.5019745367471322 292.0 0.0 215.0 
472.00004178320876 36823.0 461.0 1053.6801592567995 0.5013414388323105 292.0 0.0 214.0 
474.00004178320876 36816.0 461.0 1044.5759787657605 0.5017609097577694 289.0 0.0 211.0 
476.00004178320876 36807.0 461.0 1035.447909754477 0.502266213600384 288.0 0.0 208.0 
478.00004178320876 36806.0 461.0 1035.3656270736576 0.502128879281425 289.0 0.0 208.0 
480.00004178320876 36814.0 461.0 1038.4578633045794 0.503042556229542 289.0 0.0 209.0 
482.00004178320876 36789.0 461.0 1038.4525547445269 0.5021967026170269 289.0 0.0 209.0 
484.00004178320876 36784.0 461.0 1038.5587259455854 0.5091782195365323 288.0 0.0 209.0 
486.00004178320876 36684.0 460.0 1029.2714001327154 0.5185011885579904 286.0 0.0 206.0 
488.00004178320876 36577.0 458.0 1023.1904445919031 0.5024614249942411 286.0 0.0 204.0 
490.00004178320876 36578.0 458.0 1013.9907100199085 0.5058109764207098 286.0 0.0 201.0 
492.00004178320876 36628.0 457.0 1017.0245520902469 0.500492927195637 284.0 0.0 202.0 
494.00004178320876 36662.0 458.0 1020.095554080956 0.5013259430504956 282.0 1.0 202.0 
496.00004178320876 36663.0 458.0 1020.1857996018593 0.5108749258827888 279.0 1.0 202.0 
498.00004178320876 36604.0 456.0 1020.1804910418064 0.5005419643264164 280.0 0.0 203.0 
500.00004178320876 36606.0 456.0 1020.1061712010628 0.5012914804455982 282.0 0.0 203.0 
502.00004178320876 36612.0 456.0 1020.1247511612482 0.5011206196607555 284.0 1.0 202.0 
504.00004178320876 36606.0 456.0 1020.1008626410096 0.5012694398863625 283.0 2.0 201.0 
506.00004178320876 36611.0 456.0 1023.1559389515586 0.5016329920106625 284.0 2.0 202.0 
508.00004178320876 36620.0 456.0 1020.1566025215647 0.5008646750972323 283.0 2.0 201.0 
510.00004178320876 36614.0 456.0 1026.2295952222964 0.5022253408424318 284.0 3.0 202.0 
512.0000417832088 36595.0 456.0 1026.3384207033855 0.508941937429146 285.0 2.0 203.0 
514.0000417832086 36564.0 456.0 1017.1333775713346 0.5020935277471464 286.0 2.0 200.0 
516.0000417832086 36559.0 456.0 1011.047113470471 0.502926205065986 285.0 1.0 199.0 
518.0000417832086 36555.0 456.0 1011.0205706702045 0.5025530841340441 286.0 0.0 200.0 
520.0000417832086 36545.0 456.0 1010.9435965494366 0.5026445417229337 285.0 1.0 199.0 
522.0000417832086 36524.0 456.0 1014.0092899800916 0.5036604123424208 282.0 2.0 199.0 
524.0000417832086 36506.0 456.0 1014.0411413404121 0.502619906674925 284.0 1.0 200.0 
526.0000417832086 36499.0 456.0 998.8002654280043 0.502638699947588 283.0 0.0 196.0 
528.0000417832086 36499.0 456.0 998.8135368281348 0.5020282303075161 282.0 0.0 196.0 
530.0000417832086 36517.0 457.0 998.8347710683488 0.505692711753228 285.0 0.0 196.0 
532.0000417832086 36375.0 456.0 1001.9031187790328 0.5033354712992983 285.0 0.0 197.0 
534.0000417832086 36367.0 456.0 1001.9031187790328 0.5016536975034569 282.0 0.0 197.0 
536.0000417832086 36381.0 456.0 998.8506967485081 0.5083397811941546 284.0 0.0 196.0 
538.0000417832086 36355.0 455.0 998.8055739880564 0.5022122383711215 283.0 0.0 196.0 
540.0000417832086 36346.0 455.0 1001.8898473788975 0.5017476617401593 281.0 0.0 197.0 
542.0000417832086 36363.0 455.0 1004.8706038487074 0.5010000235005471 281.0 0.0 198.0 
544.0000417832086 36381.0 455.0 1007.9681486396805 0.5018512371623178 283.0 0.0 199.0 
546.0000417832086 36398.0 456.0 1004.8652952886538 0.501930095956999 284.0 0.0 198.0 
548.0000417832086 36394.0 456.0 998.7869940278689 0.5023915105458889 285.0 0.0 196.0 
550.0000417832086 36373.0 456.0 998.7976111479755 0.5017442964274363 284.0 0.0 196.0 
552.0000417832086 36368.0 456.0 998.8002654280042 0.5028148584275905 282.0 0.0 196.0 
554.0000417832086 36367.0 456.0 998.8214996682137 0.5018993755296848 282.0 0.0 196.0 
556.0000417832086 36384.0 456.0 998.8480424684794 0.502670370934291 283.0 0.0 196.0 
558.0000417832086 36346.0 456.0 995.7345719973446 0.5031462450621806 284.0 0.0 195.0 
560.0000417832086 36326.0 456.0 986.5056403450554 0.508122231743881 280.0 0.0 192.0 
562.0000417832086 36211.0 456.0 986.4260119442596 0.5065502933435181 280.0 0.0 192.0 
564.0000417832086 36174.0 455.0 983.4266755142678 0.50182705807812 280.0 0.0 191.0 
566.0000417832086 36169.0 455.0 989.5607166556082 0.5039654073299754 279.0 0.0 193.0 
568.0000417832086 36102.0 455.0 1008.0716655607174 0.5065497416580336 279.0 0.0 199.0 
570.0000417832086 36028.0 454.0 1004.9422694094222 0.5019488170653731 278.0 0.0 198.0 
572.0000417832086 36139.0 455.0 1004.9635036496356 0.5073820716397867 278.0 0.0 198.0 
574.0000417832086 36099.0 455.0 1001.7757133377564 0.5003421117858076 277.0 0.0 197.0 
576.0000417832086 36132.0 456.0 1004.8812209688115 0.5042962734233097 277.0 0.0 198.0 
578.0000417832086 36050.0 456.0 1001.8606502986058 0.504515397971859 277.0 0.0 197.0 
580.0000417832086 36000.0 455.0 1001.868613138685 0.5042186246976691 277.0 0.0 197.0 
582.0000417832086 35983.0 454.0 1001.8739216987385 0.5090100042793042 278.0 0.0 197.0 
584.0000417832086 35978.0 454.0 1001.8526874585273 0.511834044203274 276.0 0.0 197.0 
586.0000417832086 35956.0 453.0 1001.8394160583933 0.5009709077824925 277.0 0.0 197.0 
588.0000417832086 35973.0 454.0 1001.8128732581292 0.5034196475976249 280.0 0.0 197.0 
590.0000417832086 35913.0 454.0 1004.7856668878574 0.5123119168594488 281.0 0.0 198.0 
592.0000417832086 35826.0 452.0 1004.8626410086254 0.501006332057418 281.0 0.0 198.0 
594.0000417832086 35879.0 452.0 1007.899137358991 0.5011880173063997 282.0 0.0 199.0 
596.0000417832086 35925.0 453.0 1004.8254810882553 0.5018352959436654 285.0 0.0 198.0 
598.0000417832086 35945.0 454.0 1004.8228268082274 0.5055918441575324 283.0 0.0 198.0 
600.0000417832086 35812.0 453.0 1004.9024552090239 0.5036964431734576 284.0 0.0 198.0 
602.0000417832086 35790.0 453.0 1010.9435965494365 0.5130533363559282 284.0 0.0 200.0 
604.000012893274 35798.0 452.0 1010.9993364299942 0.5100630186908524 283.0 0.0 200.0 
606.000012893274 35741.0 451.0 1014.0013271400134 0.5125867840515735 284.0 0.0 201.0 
608.000012893274 35688.0 449.0 1017.0431320504323 0.506566398765374 284.0 0.0 202.0 
610.000012893274 35666.0 448.0 1020.0583941605823 0.5038549799000751 284.0 0.0 203.0 
612.000012893274 35646.0 448.0 1016.9820836098197 0.510196384560024 284.0 0.0 202.0 
614.000012893274 35656.0 447.0 1013.9323158593241 0.504091682189823 284.0 0.0 201.0 
616.000012893274 35652.0 446.0 1013.9455872594564 0.5008161055118544 284.0 0.0 201.0 
618.000012893274 35647.0 446.0 1010.8719309887188 0.500482001020521 284.0 0.0 200.0 
620.000012893274 35634.0 446.0 1014.025215660253 0.504012739277962 283.0 0.0 201.0 
622.000012893274 35608.0 446.0 1023.2408759124093 0.5096933304874185 284.0 0.0 204.0 
624.000012893274 35606.0 445.0 1023.2249502322486 0.5012940025296614 284.0 0.0 204.0 
626.000012893274 35602.0 445.0 1026.2295952222962 0.5030829943587675 284.0 0.0 205.0 
628.000012893274 35573.0 445.0 1026.1791639017927 0.5063563398849192 285.0 0.0 205.0 
630.000012893274 35557.0 444.0 1023.071001990709 0.5007863187850834 283.0 0.0 204.0 
632.000012893274 35552.0 444.0 1026.0995355009961 0.501811500711778 282.0 0.0 205.0 
634.000012893274 35534.0 444.0 1020.0424684804237 0.505368142645654 282.0 0.0 203.0 
636.000012893274 35417.0 444.0 1020.1008626410093 0.5053870779963477 282.0 0.0 203.0 
638.000012893274 35382.0 444.0 1017.0723291307241 0.5016035134056834 282.0 0.0 202.0 
640.000012893274 35376.0 443.0 1020.1831453218305 0.5008649301523916 280.0 0.0 203.0 
642.000012893274 35367.0 443.0 1020.1247511612481 0.5016830124822098 282.0 0.0 203.0 
644.000012893274 35356.0 444.0 1017.0431320504323 0.512163275554408 281.0 0.0 202.0 
646.000012893274 35181.0 442.0 1010.8825481088248 0.505823663449865 276.0 0.0 200.0 
648.000012893274 35145.0 441.0 1010.8692767086934 0.5014564096084527 271.0 0.0 200.0 
650.000012893274 35134.0 441.0 1007.8115461181158 0.5014288846554616 269.0 0.0 199.0 
652.000012893274 35115.0 441.0 1007.8858659588586 0.506905425103735 269.0 0.0 199.0 
654.000012893274 35090.0 440.0 1007.912408759125 0.5008536190256332 269.0 0.0 199.0 
656.000012893274 35082.0 441.0 1007.9840743198396 0.5083922362705076 268.0 0.0 199.0 
658.000012893274 35177.0 441.0 1007.9575315195762 0.5037835522154032 267.0 0.0 199.0 
660.000012893274 35111.0 441.0 1007.9044459190443 0.5065660753730161 267.0 0.0 199.0 
662.000012893274 34945.0 442.0 1004.8387524883876 0.5176560467755233 267.0 0.0 198.0 
664.000012893274 34698.0 439.0 998.7631055076299 0.501155357426466 265.0 0.0 196.0 
#####################################################################
# End of data export. Simulation finished at: 2019-03-11T13:53+0000 #
#####################################################################
