#####################################################################
# Alchemist log file - simulation started at: 2019-03-12T17:34+0000 #
#####################################################################
# seed = 5.0, bandwidth = 17782.79410038923, accessPointCount = 2000.0, baserange = 1000.0
#
# The columns have the following meaning: 
# time neighbor_count[Sum] <value>@neighbor_count[Sum] packet_size[Mean] mean_delay[Mean] crowd[Sum] overcrowded[Sum] risk[Sum] 
0.0 NaN NaN NaN NaN NaN NaN NaN 
2.000101793669918 228.0 193.0 4974.273949099228 0.3387614446172372 1497.0 0.0 1497.0 
4.000101793669918 1899.0 1667.0 4974.307120388905 0.8054415159716389 1497.0 0.0 1497.0 
6.000101793669918 4646.0 4160.0 4974.41692879611 1.0672651828860624 1497.0 0.0 1497.0 
8.000101793669918 8477.0 7756.0 4974.5656276808695 1.456501323389812 1497.0 0.0 1497.0 
10.000101793669918 13166.0 12145.0 4974.717758078353 1.907723310840346 1497.0 0.0 1497.0 
12.000101793669918 17861.0 16385.0 4974.906491278239 2.326821837743329 1497.0 0.0 1497.0 
14.000101793669918 21866.0 20156.0 4975.266800114385 2.7583116887976233 1497.0 0.0 1497.0 
16.00010179366992 26510.0 24661.0 4975.487560766371 3.182668256436696 1497.0 0.0 1497.0 
18.00010179366992 31689.0 29660.0 4975.555047183299 3.575820734858238 1497.0 0.0 1497.0 
20.00010179366992 35868.0 33492.0 4976.133828996283 3.9253247330998335 1497.0 0.0 1497.0 
22.00010179366992 40315.0 37595.0 4976.363740348871 4.09386710523589 1497.0 0.0 1497.0 
24.00010179366992 46036.0 43118.0 4976.639405204462 4.6297883942301015 1497.0 0.0 1497.0 
26.00010179366992 52241.0 49276.0 4976.6748641692875 4.659598714953698 1497.0 0.0 1497.0 
28.00010179366992 58096.0 55089.0 4976.908207034601 4.967154797093773 1497.0 0.0 1497.0 
30.00010179366992 62478.0 59540.0 4976.936802973978 5.17610911241617 1497.0 0.0 1497.0 
32.00010179366992 67139.0 64237.0 4977.120960823564 5.352887129942048 1497.0 0.0 1497.0 
34.00010179366992 71161.0 68182.0 4977.2525021446945 5.251134974472273 1497.0 0.0 1497.0 
36.00010179366992 74399.0 71395.0 4977.354303688876 5.515349800679475 1497.0 0.0 1497.0 
38.00010179366992 78489.0 75453.0 4977.512153274236 5.67382925691821 1497.0 0.0 1497.0 
40.00010179366992 82952.0 79854.0 4977.718044037746 6.159299948113477 1497.0 0.0 1497.0 
42.00010179366992 87820.0 82983.0 4977.817557906777 6.16954210858029 1497.0 0.0 1497.0 
44.00010179366992 91521.0 85642.0 4978.283099799828 6.330696240664331 1497.0 0.0 1497.0 
46.00010179366992 93965.0 87824.0 4978.620531884472 6.3839966445826795 1497.0 0.0 1497.0 
48.00010179366992 94762.0 88615.0 4978.596511295396 6.752364844776151 1497.0 0.0 1497.0 
50.00010179366992 96472.0 90205.0 4978.709751215328 6.28984266358628 1497.0 0.0 1497.0 
52.00010179366992 99764.0 93459.0 4978.924792679439 6.546107244807854 1497.0 0.0 1497.0 
54.00010179366992 102262.0 95912.0 4978.970546182442 6.810652061925539 1497.0 0.0 1497.0 
56.00010179366992 104252.0 97920.0 4979.110094366601 6.351497858588821 1497.0 0.0 1497.0 
58.00010179366992 108482.0 102158.0 4978.939662567916 6.588558639420524 1497.0 0.0 1497.0 
60.00010179366992 114865.0 108473.0 4977.881612810981 6.947059330383587 1496.0 0.0 1496.0 
62.00010179366992 120256.0 113735.0 697.4858450100002 6.465112465514282 865.0 0.0 226.0 
64.00010179366993 122161.0 115423.0 723.8238490134456 6.323218087181841 778.0 0.0 246.0 
66.00010179366993 122202.0 115442.0 726.3951958821841 5.996710936277069 731.0 1.0 247.0 
68.00010179366993 120205.0 113719.0 726.4203603088336 5.568054382287558 670.0 1.0 247.0 
70.00010179366993 118523.0 111764.0 765.790105804961 5.2481722369144235 661.0 1.0 277.0 
72.00010179366993 113865.0 107037.0 769.7157563625827 4.727738602371762 617.0 1.0 280.0 
74.00010179366993 109618.0 102503.0 810.6125250214596 4.030742016965811 575.0 1.0 311.0 
76.00010179366993 108346.0 101125.0 821.0351730054398 3.5821760260778817 531.0 1.0 319.0 
78.00010179366993 105324.0 98101.0 822.307120388891 3.1553363542831496 487.0 1.0 320.0 
80.00010179366993 102247.0 94988.0 822.3631684300885 2.759073946444785 467.0 1.0 320.0 
82.00010179366993 97771.0 90512.0 823.6602802401881 2.0792149174144945 438.0 1.0 321.0 
84.00010179366993 97140.0 89802.0 823.58593079781 1.8834656785092236 431.0 1.0 321.0 
86.00010179366993 100597.0 93306.0 823.6499857020426 1.8709491170169905 427.0 1.0 321.0 
88.00010179366993 103284.0 96046.0 824.9127823849045 1.7511222127171833 421.0 1.0 322.0 
90.00010179366993 105203.0 97981.0 824.9013440091704 1.8544058679101243 415.0 1.0 322.0 
92.00010179366993 107323.0 100110.0 824.8841864455374 1.811286415773913 412.0 1.0 322.0 
94.00010179366993 108657.0 101631.0 824.872748069764 1.7343792307294215 408.0 1.0 322.0 
96.00010179366993 110602.0 103819.0 824.7617958250024 1.6999430522871362 406.0 1.0 322.0 
98.00010179366993 113123.0 106486.0 825.9639691164016 1.6204153576032974 407.0 1.0 323.0 
100.00010179366993 115557.0 108818.0 825.9959965684982 1.7078206235382247 407.0 1.0 323.0 
102.00010179366993 118025.0 111234.0 825.9719759794192 1.6266552318693435 405.0 1.0 323.0 
104.00010179366993 120369.0 113507.0 824.6233914783916 1.5958553861733356 404.0 0.0 323.0 
106.00010179366993 121874.0 114907.0 824.6771518444244 1.6685999932064213 405.0 0.0 323.0 
108.00010179366993 124217.0 117262.0 826.0348870460269 1.5387816261347824 406.0 0.0 324.0 
110.00010179366993 126324.0 119450.0 826.0406062339258 1.4508757254012907 399.0 0.0 324.0 
112.00010179366993 128507.0 121524.0 826.0669144981468 1.4650235965187892 403.0 0.0 324.0 
114.00010179366993 131003.0 123986.0 827.3754646840209 1.531943361410154 406.0 0.0 325.0 
116.00010179366993 133282.0 126163.0 828.6622819559749 1.6858849316478481 408.0 0.0 326.0 
118.00010179366993 136915.0 129714.0 830.0108664569486 1.6933172360025526 411.0 0.0 327.0 
120.00010179366993 140301.0 133030.0 830.0360308835981 1.828646550701302 413.0 1.0 326.0 
122.00010179366993 140856.0 133621.0 830.0760651987346 1.7561019656805494 409.0 1.0 326.0 
124.00010179366993 141032.0 133831.0 830.0417500714976 1.6785258303854564 408.0 1.0 326.0 
126.00010179366993 141010.0 133832.0 830.0772090363091 1.7490395154073064 412.0 1.0 326.0 
128.00010179366993 140949.0 133830.0 828.7263368601527 1.7956334238525462 411.0 1.0 325.0 
130.00010179366993 140907.0 133829.0 829.959393766074 1.708788905875926 410.0 1.0 326.0 
132.00010179366993 140787.0 133830.0 828.7148984844199 1.675369153748218 414.0 1.0 325.0 
134.00010179366993 140695.0 133821.0 828.6588504432443 1.6784609565918176 414.0 1.0 325.0 
136.00010179366993 140655.0 133821.0 828.6245353159791 1.6774994327990747 411.0 1.0 325.0 
138.00010179366993 140739.0 133830.0 828.6462682298992 1.6843138995866525 418.0 0.0 326.0 
140.00010179366993 140823.0 133836.0 828.6805833571784 1.7607091860294277 418.0 0.0 326.0 
142.00010179366993 140908.0 133832.0 828.762939662577 1.6492713812025355 412.0 0.0 326.0 
144.00010179366993 140932.0 133830.0 828.6805833571784 1.6727126110195896 402.0 0.0 326.0 
146.00010179366993 140929.0 133826.0 828.6462682298992 1.7737282037793947 408.0 0.0 326.0 
148.00010179366993 140788.0 133827.0 828.712610809274 1.70435027777404 409.0 0.0 326.0 
150.00010179366993 140846.0 133829.0 826.0669144981467 1.7714249481180746 409.0 0.0 324.0 
152.00010179366993 141003.0 133836.0 824.7972547898145 1.7069595057776292 411.0 1.0 322.0 
154.00010179366993 141010.0 133843.0 822.2602230483433 1.6197985373101613 411.0 1.0 320.0 
156.00010179366993 140994.0 133848.0 822.2705175865073 1.7562327203549168 412.0 1.0 320.0 
158.00010179366993 141025.0 133847.0 822.2636545610599 1.7774530987342205 413.0 1.0 320.0 
160.00010179366993 140991.0 133832.0 822.2716614240776 1.7241084048691404 414.0 1.0 320.0 
162.00010179366993 140897.0 133826.0 822.1298255647677 1.7325975990410427 412.0 1.0 320.0 
164.00010179366993 140696.0 133812.0 822.0794967114514 1.6511800584395302 411.0 1.0 320.0 
166.00010179366993 140694.0 133817.0 820.7469259365148 1.6911407364761348 409.0 1.0 319.0 
168.00010179366993 140791.0 133829.0 820.7434944237817 1.794160627855074 408.0 1.0 319.0 
170.00010179366993 140783.0 133824.0 820.7492136116575 1.8893877192754631 404.0 1.0 319.0 
172.00010179366993 140690.0 133812.0 820.7560766371264 1.7828820567910388 406.0 2.0 318.0 
174.00010179366993 140544.0 133797.0 823.3869030597536 1.601575898150086 407.0 1.0 321.0 
176.00010179366993 140488.0 133791.0 823.4246496997492 1.5969965124403238 403.0 1.0 321.0 
178.00010179366993 140478.0 133793.0 823.3102659422307 1.550378389012079 402.0 1.0 321.0 
180.00010179366993 140516.0 133805.0 822.0177294824181 1.6458901052574533 404.0 1.0 320.0 
182.00010179366993 140505.0 133808.0 820.724049185008 1.682160661043664 406.0 1.0 319.0 
184.00010179366993 140492.0 133814.0 820.7526451243741 1.5748774406394799 408.0 0.0 320.0 
186.00010179366993 140615.0 133823.0 822.1241063768916 1.6351514825119136 411.0 0.0 321.0 
188.00010179366993 140667.0 133829.0 823.5127251930195 1.6585165729995317 411.0 0.0 322.0 
190.00010179366993 140720.0 133836.0 823.4521018015568 1.64229415508017 406.0 2.0 320.0 
192.00010179366993 140676.0 133835.0 823.4349442379076 1.770464531377661 407.0 1.0 321.0 
194.00010179366993 140720.0 133840.0 826.1126680011588 1.7237615173741847 407.0 0.0 324.0 
196.00010179366993 140639.0 133844.0 826.1138118387294 1.7636915012269934 405.0 0.0 324.0 
198.00010179366993 140548.0 133841.0 826.1115241635873 1.809176214048668 406.0 0.0 324.0 
200.00010179366993 140515.0 133832.0 826.050900772084 1.7536591505408865 405.0 0.0 324.0 
202.00010179366993 140628.0 133842.0 824.8224192164639 1.6628175286649505 409.0 0.0 323.0 
204.00010179366993 140702.0 133842.0 824.7881040892265 1.648038185353963 412.0 0.0 323.0 
206.00010179366993 140637.0 133841.0 826.0337432084523 1.7391264234966373 414.0 0.0 324.0 
208.00010179366993 140624.0 133838.0 826.1160995138754 1.7186083297071835 413.0 0.0 324.0 
210.00010179366993 140576.0 133833.0 827.406348298546 1.7799425258393557 413.0 0.0 325.0 
212.00010179366993 140514.0 133833.0 826.0829282241808 1.8201017731021962 415.0 0.0 324.0 
214.00010179366993 140527.0 133834.0 826.0920789247963 1.695404288697237 417.0 0.0 324.0 
216.00010179366993 140417.0 133830.0 827.4383757506405 1.775941635503195 422.0 0.0 325.0 
218.00010179366993 140373.0 133823.0 827.3285673434502 1.7169246934511175 422.0 0.0 325.0 
220.00010179366993 140502.0 133841.0 826.0131541321302 1.7207784481432402 423.0 0.0 324.0 
222.00010179366993 140608.0 133846.0 823.4406634257834 1.7271390840448373 418.0 1.0 321.0 
224.00010179366993 140486.0 133839.0 824.7412067486397 1.6791801320188666 418.0 1.0 322.0 
226.00010179366993 140413.0 133832.0 824.6725764941202 1.6367986689048215 417.0 1.0 322.0 
228.00010179366993 140373.0 133829.0 824.6428367171826 1.7417406614095943 414.0 1.0 322.0 
230.00010179366993 140349.0 133828.0 826.0806405490388 1.716495506107391 410.0 2.0 322.0 
232.00010179366993 140335.0 133826.0 825.9799828424239 1.7298600854296768 411.0 2.0 322.0 
234.00010179366993 140328.0 133824.0 826.0726336860226 1.6784029386401205 413.0 1.0 323.0 
236.00010179366993 140295.0 133824.0 827.323991993146 1.752731210615554 411.0 1.0 324.0 
238.00010179366993 140335.0 133828.0 829.9536745781983 1.6509678568446464 411.0 1.0 326.0 
240.00010179366993 140367.0 133837.0 831.2027452101859 1.740350505443612 414.0 1.0 327.0 
242.00010179366993 140292.0 133827.0 831.2221904489357 1.7516954207444457 411.0 1.0 327.0 
244.00010179366993 140103.0 133808.0 829.9205032885486 1.560189273032256 408.0 1.0 326.0 
246.00010179366993 140184.0 133813.0 827.3422933943261 1.6873040325770037 408.0 1.0 324.0 
248.00010179366993 140268.0 133819.0 825.9891335430511 1.6902715456232975 405.0 1.0 323.0 
250.00010179366993 140254.0 133817.0 825.9674006291182 1.719321466040993 412.0 0.0 324.0 
252.00010179366993 140205.0 133813.0 825.9834143551532 1.8111293381196911 414.0 0.0 324.0 
254.00010179366993 140268.0 133821.0 823.2988275664965 1.7264477800376956 413.0 0.0 322.0 
256.00010179366996 140241.0 133818.0 823.3720331713041 1.632983644412007 416.0 0.0 322.0 
258.00010179366996 140169.0 133813.0 823.2439233628735 1.6020273683752893 413.0 0.0 322.0 
260.00010179366996 140224.0 133819.0 822.0177294824181 1.664093607127505 414.0 0.0 321.0 
262.00010179366996 140234.0 133822.0 819.4440949385003 1.640127070432045 414.0 0.0 319.0 
264.00010179366996 140228.0 133825.0 820.7137546468485 1.6236268493312964 416.0 0.0 320.0 
266.00010179366996 140372.0 133840.0 822.1710037174786 1.6914818656327906 419.0 0.0 321.0 
268.00010179366996 140341.0 133840.0 820.8224192164641 1.638413840768427 421.0 0.0 320.0 
270.00010179366996 140334.0 133844.0 826.0760651987347 1.691221555860335 422.0 0.0 324.0 
272.00010179366996 140353.0 133840.0 824.7423505862112 1.7347858925570103 416.0 0.0 323.0 
274.00010179366996 140487.0 133854.0 826.0406062339258 1.6603374622859832 412.0 0.0 324.0 
276.00010179366996 140417.0 133853.0 827.3891907349127 1.7313925772247782 412.0 0.0 325.0 
278.00010179366996 140264.0 133848.0 827.3400057191842 1.7153807068985623 412.0 0.0 325.0 
280.00010179366996 140329.0 133856.0 829.9513869030563 1.7514878253387014 415.0 0.0 327.0 
282.00010179366996 140425.0 133861.0 830.1103803259764 1.7966516046245402 415.0 0.0 327.0 
284.00010179366996 140332.0 133847.0 830.0520446096556 1.7353853409413171 411.0 0.0 327.0 
286.00010179366996 140342.0 133847.0 827.2931083785978 1.7985303361495149 406.0 0.0 325.0 
288.00010179366996 140364.0 133848.0 826.12181870175 1.8219599449075519 405.0 0.0 324.0 
290.00010179366996 140232.0 133836.0 827.3125536173758 1.8410799647918923 408.0 0.0 325.0 
292.00010179366996 140096.0 133825.0 827.3102659422307 1.7679366508655219 406.0 0.0 325.0 
294.00010179366996 140098.0 133824.0 826.002859593927 1.6682830026722637 404.0 0.0 324.0 
296.00010179366996 139982.0 133823.0 824.7000285959288 1.6878197236707575 402.0 0.0 323.0 
298.00010179366996 139981.0 133831.0 824.6588504432441 1.6085552099789069 405.0 0.0 323.0 
300.00010179366996 139906.0 133823.0 823.3182728052515 1.7015015439529744 402.0 0.0 322.0 
302.00010179366996 139837.0 133820.0 823.321704318004 1.7453068788312112 398.0 0.0 322.0 
304.00010179366996 139741.0 133815.0 823.3491564197997 1.6128432878623526 400.0 0.0 322.0 
306.00010179366996 139854.0 133825.0 828.5742064626802 1.7064207399673441 407.0 0.0 326.0 
308.00010179366996 139896.0 133830.0 829.8919073491658 1.6788091044163307 408.0 0.0 327.0 
310.00010179366996 139910.0 133832.0 829.9548184157729 1.6158701884717461 407.0 0.0 327.0 
312.00010179366996 139940.0 133825.0 829.8953388618994 1.5883893522345527 409.0 0.0 327.0 
314.00010179366996 140015.0 133834.0 829.8873319988406 1.6123207230344427 411.0 0.0 327.0 
316.00010179366996 140151.0 133856.0 830.0280240205807 1.6662844956860308 409.0 0.0 327.0 
318.00010179366996 140088.0 133851.0 830.0120102945189 1.7203817759918762 407.0 0.0 327.0 
320.00010179366996 139954.0 133831.0 828.6714326565497 1.7557489817987906 403.0 0.0 326.0 
322.00010179366996 140003.0 133846.0 828.712610809274 1.7286207412540056 404.0 0.0 326.0 
324.00010179366996 140061.0 133856.0 826.0611953102477 1.727311147303147 403.0 0.0 324.0 
326.00010179366996 140184.0 133866.0 823.4658278524329 1.7954669664809952 400.0 0.0 322.0 
328.00010179366996 140152.0 133865.0 823.468115527579 1.7167518651466795 407.0 0.0 322.0 
330.00010179366996 140193.0 133862.0 823.4715470403321 1.6775101444708174 413.0 0.0 322.0 
332.00010179366996 140242.0 133865.0 823.4269373749074 1.7293651880971985 415.0 0.0 322.0 
334.00010179366996 140292.0 133867.0 822.1538461538294 1.6694693391153055 411.0 0.0 321.0 
336.00010179366996 140294.0 133864.0 822.1504146411127 1.7806192844062976 414.0 0.0 321.0 
338.00010179366996 140137.0 133843.0 824.7469259365143 1.7261800450063323 415.0 0.0 323.0 
340.00010179366996 140124.0 133844.0 824.5845010008665 1.7132589161844978 416.0 0.0 323.0 
342.00010179366996 140180.0 133852.0 824.6165284529629 1.784026121440876 417.0 0.0 323.0 
344.00010179366996 140196.0 133854.0 824.734343723194 1.7714424723760558 416.0 0.0 323.0 
346.00010179366996 140123.0 133840.0 825.9822705175815 1.7209191427706887 417.0 0.0 324.0 
348.00010179366996 140048.0 133832.0 820.6588504432442 1.7307337414853352 411.0 0.0 320.0 
350.00010179366996 139995.0 133825.0 820.6897340577693 1.6914805672396303 412.0 0.0 320.0 
352.00010179366996 140063.0 133835.0 822.0486130969437 1.6389507936375654 408.0 0.0 321.0 
354.00010179366996 140031.0 133834.0 824.6897340577693 1.6136631205745506 409.0 0.0 323.0 
356.00010179366996 140073.0 133840.0 823.3674578209798 1.7054992878575095 413.0 0.0 322.0 
358.00010179366996 140026.0 133838.0 823.3239919931463 1.6100472763070002 408.0 0.0 322.0 
360.00010179366996 139988.0 133834.0 821.9937088933393 1.7520647498000685 406.0 0.0 321.0 
362.00010179366996 139968.0 133834.0 820.6897340577693 1.8121355953703713 404.0 0.0 320.0 
364.00010179366996 140053.0 133838.0 820.7160423219902 1.677257182842822 406.0 0.0 320.0 
366.00010179366996 140024.0 133833.0 822.0463254218016 1.7558814352497563 407.0 0.0 321.0 
368.00010179366996 140058.0 133838.0 819.3560194452458 1.7203142863328875 404.0 0.0 319.0 
370.00010179366996 140110.0 133849.0 816.8109808407311 1.6541700553091787 405.0 0.0 317.0 
372.00010179366996 140024.0 133848.0 819.4395195882116 1.733845206018471 409.0 0.0 319.0 
374.00010179366996 139879.0 133843.0 822.0577637975309 1.7255517845147004 404.0 0.0 321.0 
376.00010179366996 139729.0 133825.0 822.029167858151 1.6722810765773901 408.0 0.0 321.0 
378.00010179366996 139669.0 133819.0 819.3331426937384 1.6914374282736164 407.0 0.0 319.0 
380.00010179366996 139683.0 133820.0 819.291964541027 1.7322374301369965 406.0 0.0 319.0 
382.00010179366996 139756.0 133834.0 817.9937088933393 1.6868234296521758 411.0 0.0 318.0 
384.00010179366996 139817.0 133838.0 816.7046039462565 1.6450714043514922 411.0 0.0 317.0 
386.00010179366996 139923.0 133852.0 816.7858164140815 1.662492598928285 414.0 0.0 317.0 
388.00010179366996 139892.0 133846.0 816.7709465255774 1.6404100984710468 414.0 0.0 317.0 
390.00010179366996 139965.0 133861.0 818.1206748641795 1.701909338356191 414.0 0.0 318.0 
392.00010179366996 139957.0 133849.0 816.8555905061586 1.6896226279968678 412.0 0.0 317.0 
394.00010179366996 140087.0 133858.0 818.1321132399092 1.6597184513985657 415.0 0.0 318.0 
396.00010179366996 140154.0 133867.0 820.7961109522269 1.7726345418573908 419.0 0.0 320.0 
398.00010179366996 140154.0 133871.0 822.1160995138757 1.822129188865128 416.0 0.0 321.0 
400.00010179366996 140172.0 133874.0 820.7961109522269 1.8436497943652492 417.0 0.0 320.0 
402.00010179366996 140151.0 133870.0 822.138976265383 1.8559956720331872 416.0 0.0 321.0 
404.00010179366996 140112.0 133866.0 820.8201315413058 1.7404189072432181 415.0 0.0 320.0 
406.00010179366996 140077.0 133867.0 819.4315127251956 1.7598465499557758 415.0 0.0 319.0 
408.00010179366996 139967.0 133861.0 818.165284529604 1.7265628036790828 416.0 0.0 318.0 
410.00010179366996 139891.0 133854.0 817.9982842436433 1.7669418034095932 417.0 0.0 318.0 
412.00010179366996 139850.0 133847.0 816.7423505862112 1.7450799740265384 416.0 0.0 317.0 
414.00010179366996 139779.0 133845.0 814.0966542751007 1.7542781264730287 415.0 0.0 315.0 
416.00010179366996 139644.0 133835.0 814.0669144981466 1.7820373034591392 421.0 0.0 315.0 
418.00010179366996 139594.0 133827.0 816.7194738347067 1.6518435699974714 425.0 0.0 317.0 
420.00010179366996 139633.0 133823.0 817.9227909636908 1.705085220559296 424.0 0.0 318.0 
422.00010179366996 139870.0 133836.0 816.7251930225782 1.6650630231966057 423.0 0.0 317.0 
424.00010179366996 139953.0 133848.0 818.0897912496545 1.5657889169450778 422.0 0.0 318.0 
426.00010179366996 139958.0 133849.0 816.7572204747015 1.686082826622729 423.0 0.0 317.0 
428.00010179366996 139947.0 133848.0 815.4772662282076 1.6850761895599866 425.0 0.0 316.0 
430.00010179366996 139905.0 133845.0 814.1721475550503 1.6562607565338128 419.0 0.0 315.0 
432.00010179366996 139897.0 133844.0 816.7961109522269 1.7311794249615702 422.0 0.0 317.0 
434.00010179366996 139995.0 133852.0 815.5310265942229 1.7224945806499479 418.0 0.0 316.0 
436.00010179366996 140021.0 133851.0 815.4692593651898 1.738685261107986 422.0 0.0 316.0 
438.00010179366996 140063.0 133847.0 822.0646268230008 1.7396060429208693 423.0 0.0 321.0 
440.00010179366996 140090.0 133846.0 823.3651701458336 1.7637510346936514 423.0 0.0 322.0 
442.00010179366996 140091.0 133847.0 828.614240777821 1.7272772152623908 421.0 0.0 326.0 
444.00010179366996 139794.0 133828.0 827.309122104659 1.6601367963878 418.0 0.0 325.0 
446.00010179366996 139714.0 133818.0 828.5982270517421 1.648309761859669 422.0 0.0 326.0 
448.00010179366996 139673.0 133819.0 828.5261652845214 1.628631503291243 422.0 0.0 326.0 
450.00010179366996 139779.0 133831.0 835.1329711181116 1.7389362358215474 421.0 0.0 331.0 
452.00010179366996 139832.0 133834.0 835.1181012296199 1.738223297665419 419.0 0.0 331.0 
454.00010179366996 139857.0 133842.0 839.1123820417447 1.6805787476177776 419.0 0.0 334.0 
456.00010179366996 139886.0 133836.0 836.5524735487467 1.6813041684407684 416.0 1.0 331.0 
458.00010179366996 140038.0 133850.0 836.5307406348093 1.673076372410819 424.0 1.0 331.0 
460.00010179366996 140066.0 133864.0 835.2633686016471 1.6923499228055732 421.0 1.0 330.0 
462.00010179366996 140073.0 133864.0 830.000571918785 1.7404059866382675 417.0 1.0 326.0 
464.00010179366996 140122.0 133871.0 831.3068344295174 1.7040159120441973 415.0 1.0 327.0 
466.00010179366996 140130.0 133868.0 831.3297111810219 1.751839203049442 415.0 1.0 327.0 
468.00010179366996 140108.0 133866.0 828.7412067486397 1.8238208421959767 414.0 1.0 325.0 
470.00010179366996 140168.0 133870.0 828.7515012868022 1.8291967358691454 415.0 2.0 324.0 
472.00010179366996 140141.0 133867.0 828.7320560480521 1.7727859212604444 411.0 3.0 323.0 
474.00010179366996 140054.0 133854.0 828.7068916214024 1.7369616668119197 412.0 3.0 323.0 
476.00010179366996 139927.0 133841.0 828.6805833571785 1.8133825091011453 410.0 3.0 323.0 
478.00010179366996 139827.0 133844.0 828.7309122104775 1.764840551953559 410.0 3.0 323.0 
480.00010179366996 139846.0 133849.0 829.987989705481 1.8515316320400759 413.0 4.0 323.0 
482.00010179366996 139701.0 133829.0 826.0062911066606 1.794805038397973 408.0 4.0 320.0 
484.00010179366996 139679.0 133833.0 824.5764941378219 1.7044636450605621 408.0 4.0 319.0 
486.00010179366996 139621.0 133826.0 824.5879325135954 1.7172357448673925 407.0 2.0 321.0 
488.00010179366996 139569.0 133825.0 825.856448384316 1.6466339358376016 409.0 0.0 324.0 
490.00010179366996 139671.0 133839.0 824.5799256505385 1.6436223406240882 412.0 0.0 323.0 
492.00010179366996 139727.0 133841.0 824.6439805547541 1.6251486647885829 416.0 0.0 323.0 
494.00010179366996 139747.0 133847.0 823.2885330282967 1.6661453626383442 411.0 0.0 322.0 
496.00010179366996 139674.0 133843.0 824.6691449814036 1.688896014925797 411.0 0.0 323.0 
498.00010179366996 139668.0 133846.0 823.274806977422 1.7513055750491076 410.0 0.0 322.0 
500.00010179366996 139660.0 133847.0 822.0726336860226 1.8171609304736693 411.0 0.0 321.0 
502.00010179366996 139592.0 133840.0 818.0623391478586 1.7486956355884682 411.0 0.0 318.0 
504.00010179366996 139615.0 133840.0 822.0520446096556 1.6448831119228569 408.0 1.0 320.0 
506.00010179366996 139660.0 133849.0 820.7274806977243 1.7134345470468801 409.0 1.0 319.0 
508.00010179366996 139660.0 133848.0 820.7377752359276 1.6413530967161425 408.0 1.0 319.0 
510.00010179366996 139712.0 133856.0 819.4463826136821 1.66906314796766 408.0 1.0 318.0 
512.00010179367 139711.0 133853.0 816.8224192164639 1.7268628538853599 405.0 1.0 316.0 
514.00010179367 139582.0 133844.0 815.5184443808783 1.628878085385758 401.0 1.0 315.0 
516.00010179367 139468.0 133834.0 810.1504146411128 1.7296739938175236 399.0 1.0 311.0 
518.00010179367 139527.0 133843.0 807.5173005433087 1.7800937775305234 398.0 1.0 309.0 
520.00010179367 139562.0 133848.0 806.2110380326138 1.7602329270977037 391.0 7.0 302.0 
522.00010179367 139642.0 133844.0 804.9917071775698 1.7225884340294917 396.0 6.0 302.0 
524.00010179367 139722.0 133853.0 806.2979696882986 1.6615382903954035 396.0 6.0 303.0 
526.00010179367 139790.0 133852.0 806.3665999428181 1.5997239264034264 393.0 6.0 303.0 
528.00010179367 139853.0 133862.0 807.6419788390241 1.614577259564304 394.0 6.0 304.0 
530.00010179367 139881.0 133865.0 807.6236774378215 1.6622545020900656 394.0 6.0 304.0 
532.00010179367 139774.0 133855.0 802.4363740348944 1.6578022878843968 397.0 7.0 299.0 
534.00010179367 139762.0 133851.0 801.0786388332916 1.7671373551947547 394.0 6.0 299.0 
536.00010179367 139750.0 133848.0 802.4363740348944 1.794776093250663 393.0 6.0 300.0 
538.00010179367 139907.0 133865.0 803.7106090935049 1.7049714801603095 395.0 6.0 301.0 
540.00010179367 139969.0 133862.0 801.1175293108363 1.8062080603648734 391.0 6.0 299.0 
542.00010179367 140006.0 133867.0 802.4215041464051 1.7965672289899366 391.0 6.0 300.0 
544.00010179367 139920.0 133859.0 802.3871890191658 1.700289459989365 389.0 6.0 300.0 
546.00010179367 139874.0 133860.0 802.4112096082448 1.7504079864877775 397.0 6.0 300.0 
548.00010179367 139747.0 133854.0 802.4157849585466 1.7659630584794839 399.0 6.0 300.0 
550.00010179367 139685.0 133845.0 802.3791821561234 1.6410282086230237 394.0 6.0 300.0 
552.00010179367 139716.0 133844.0 802.3368601658669 1.6773255646243017 393.0 4.0 302.0 
554.00010179367 139743.0 133846.0 801.0203031169505 1.6599625245039653 393.0 4.0 301.0 
556.00010179367 139769.0 133849.0 798.3517300543143 1.6726874973708126 391.0 3.0 300.0 
558.00010179367 139846.0 133859.0 798.3780383185518 1.7553445211038208 393.0 3.0 300.0 
560.00010179367 139791.0 133858.0 798.3871890191656 1.7634485914093116 391.0 2.0 301.0 
562.00010179367 139775.0 133855.0 797.0946525593287 1.6643562100968226 393.0 2.0 300.0 
564.00010179367 139774.0 133858.0 798.4260794967101 1.6471784611860771 392.0 2.0 301.0 
566.00010179367 139804.0 133858.0 800.9985702030177 1.7118473624848263 395.0 2.0 303.0 
568.00010179367 139839.0 133851.0 802.3094080640709 1.6730875042896982 394.0 0.0 306.0 
570.00010179367 139817.0 133850.0 804.9070631970284 1.7459938116809555 396.0 0.0 308.0 
572.00010179367 139792.0 133853.0 804.9379468115542 1.697288908414024 394.0 0.0 308.0 
574.00010179367 139690.0 133842.0 806.2796682870958 1.6574936124352417 390.0 0.0 309.0 
576.00010179367 139679.0 133841.0 806.2464969974282 1.7794238332178658 391.0 0.0 309.0 
578.00010179367 139770.0 133849.0 810.2476408349983 1.7805666455913114 398.0 0.0 312.0 
580.00010179367 139692.0 133848.0 810.2933943380148 1.6699528459218191 399.0 0.0 312.0 
582.00010179367 139617.0 133841.0 811.472690877906 1.6998184682334905 397.0 0.0 313.0 
584.00010179367 139485.0 133827.0 812.7812410637799 1.5818257668957594 399.0 0.0 314.0 
586.00010179367 139719.0 133853.0 812.808693165589 1.5866935648809433 403.0 0.0 314.0 
588.00010179367 139780.0 133862.0 814.1504146411127 1.6534451079109114 403.0 0.0 315.0 
590.00010179367 139723.0 133860.0 814.1629968544577 1.697390008120806 402.0 0.0 315.0 
592.00010179367 139885.0 133876.0 818.148126965971 1.7097338988110924 408.0 0.0 318.0 
594.00010179367 139962.0 133877.0 820.8201315413058 1.7467219156597937 409.0 0.0 320.0 
596.00010179367 140199.0 133899.0 820.8430082928134 1.8104172576707538 412.0 0.0 320.0 
598.00010179367 140206.0 133898.0 820.8613096940342 1.7748526156774043 412.0 0.0 320.0 
600.00010179367 140087.0 133889.0 820.8658850443179 1.809625701519144 411.0 0.0 320.0 
602.00010179367 140054.0 133879.0 822.138976265383 1.8471801888110377 413.0 0.0 321.0 
604.00010179367 140071.0 133878.0 823.4395195882115 1.7122234868009711 412.0 0.0 322.0 
606.00010179367 140103.0 133875.0 826.0852158993266 1.85921073332036 416.0 0.0 324.0 
608.00010179367 139984.0 133857.0 826.1595653417046 1.7957264290947432 413.0 0.0 324.0 
610.00010179367 139861.0 133855.0 824.7080354589731 1.7916662154563001 413.0 0.0 323.0 
612.00010179367 139894.0 133863.0 823.4246496997496 1.8889782792940266 416.0 0.0 322.0 
614.00010179367 139778.0 133847.0 823.4452387761112 1.8717014379385775 419.0 0.0 322.0 
616.00010179367 139734.0 133853.0 823.4578209894152 1.797012681393378 418.0 0.0 322.0 
618.00010179367 139515.0 133832.0 824.6874463826242 1.7132131885925617 416.0 0.0 323.0 
620.00010179367 139424.0 133822.0 828.5112953960602 1.7207219014564492 414.0 0.0 326.0 
622.00010179367 139361.0 133817.0 832.3889047755408 1.6408145864719 412.0 0.0 329.0 
624.00010179367 139359.0 133812.0 829.8026880183004 1.6193543747981936 412.0 0.0 327.0 
626.00010179367 139386.0 133814.0 828.4987131827144 1.6675411071045083 408.0 0.0 326.0 
628.00010179367 139425.0 133820.0 828.5364598227098 1.5807830683372852 409.0 0.0 326.0 
630.00010179367 139529.0 133831.0 828.5616242493604 1.6828037024656495 413.0 0.0 326.0 
632.00010179367 139677.0 133841.0 831.2610809265019 1.7254716015814533 412.0 0.0 328.0 
634.00010179367 139791.0 133845.0 830.0589076351048 1.645501634808404 411.0 0.0 327.0 
636.00010179367 139808.0 133845.0 828.7263368601517 1.7085564612457862 412.0 0.0 326.0 
638.00010179367 139942.0 133856.0 828.6748641692785 1.6517278673403488 412.0 0.0 326.0 
640.00010179367 139975.0 133858.0 827.3731770088756 1.662628058981542 412.0 0.0 325.0 
642.00010179367 139964.0 133859.0 831.323991993147 1.7412674242327673 411.0 0.0 328.0 
644.00010179367 140024.0 133873.0 830.0165856448475 1.7303768957349046 413.0 0.0 327.0 
646.00010179367 140103.0 133882.0 827.4338004003372 1.7676515630842684 410.0 0.0 325.0 
648.00010179367 140013.0 133872.0 826.1046611381005 1.8282346597134447 411.0 0.0 324.0 
650.00010179367 140019.0 133869.0 826.1412639405261 1.8922582515442123 417.0 0.0 324.0 
652.00010179367 139978.0 133857.0 827.4578209894152 1.8338558895937744 417.0 0.0 325.0 
654.00010179367 139898.0 133849.0 828.7629396625771 1.8380719737820361 414.0 0.0 326.0 
656.00010179367 139786.0 133832.0 828.7926794395102 1.8073978302496798 415.0 0.0 326.0 
658.00010179367 139761.0 133833.0 829.9811266799938 1.7332410886626806 414.0 0.0 327.0 
660.00010179367 139756.0 133841.0 831.3114097798009 1.7766004703583012 416.0 0.0 328.0 
662.00010179367 139728.0 133832.0 830.031455533309 1.7188060618628684 415.0 0.0 327.0 
664.00010179367 139730.0 133832.0 832.6153846153916 1.671118856226001 414.0 0.0 329.0 
#####################################################################
# End of data export. Simulation finished at: 2019-03-12T18:20+0000 #
#####################################################################
