#####################################################################
# Alchemist log file - simulation started at: 2019-03-07T12:48+0000 #
#####################################################################
# seed = 2.0, bandwidth = 316227.76601683797, accessPointCount = 2000.0, baserange = 17.78279410038923
#
# The columns have the following meaning: 
# time neighbor_count[Sum] <value>@neighbor_count[Sum] packet_size[Mean] mean_delay[Mean] crowd[Sum] overcrowded[Sum] risk[Sum] 
0.0 NaN NaN NaN NaN NaN NaN NaN 
10.000075840029464 332.0 187.0 4976.2790963683165 0.5327969404559117 1497.0 0.0 1497.0 
20.000075840029464 334.0 187.0 4976.00228767515 0.5156696231607566 1497.0 0.0 1497.0 
30.000075840029464 336.0 187.0 4976.017157563625 0.515083467514684 1497.0 0.0 1497.0 
40.00007584002947 330.0 185.0 4975.91649985702 0.5156728031997306 1497.0 0.0 1497.0 
50.00007584002947 332.0 186.0 4975.657992565057 0.5148474770600618 1497.0 0.0 1497.0 
60.00007584002947 330.0 185.0 4974.646840148698 0.5193758698853844 1497.0 0.0 1497.0 
70.00004305935364 338.0 186.0 415.77008864741197 0.5027324677647295 44.0 0.0 12.0 
80.00004305935364 340.0 187.0 415.76894480983765 0.5020156572834736 26.0 0.0 12.0 
90.00004305935364 330.0 185.0 415.78953388618766 0.5013154938749128 19.0 0.0 12.0 
100.00004305935364 336.0 187.0 415.7666571346875 0.5012710666334212 17.0 0.0 12.0 
110.00004305935364 326.0 184.0 415.76551329711145 0.49941881708867913 15.0 0.0 12.0 
120.00004305935364 326.0 184.0 415.7735201601364 0.49957774462571425 15.0 0.0 12.0 
130.00004305935363 326.0 184.0 415.7666571346875 0.4995785878997679 15.0 0.0 12.0 
140.00004305935363 328.0 185.0 415.76551329711145 0.498881918487799 15.0 0.0 12.0 
150.00004305935363 330.0 186.0 411.83071203889085 0.5120977904488884 14.0 0.0 9.0 
160.00004305935363 326.0 184.0 411.8238490134404 0.5123213454148134 14.0 0.0 9.0 
170.00004305935363 324.0 184.0 410.51072347726654 0.49942233448504225 13.0 0.0 8.0 
180.00004305935363 330.0 187.0 410.5187303402916 0.5004472403144714 13.0 0.0 8.0 
190.00004305935363 330.0 187.0 410.51186731484114 0.5004480630208545 13.0 0.0 8.0 
200.00004305935363 337.0 190.0 410.51072347726654 0.4976394281664532 13.0 0.0 8.0 
210.00004305935363 332.0 187.0 410.5187303402916 0.5039770248260582 12.0 0.0 8.0 
220.00004305935363 332.0 187.0 410.51186731484114 0.49991280688203493 12.0 0.0 8.0 
230.00004305935363 336.0 189.0 410.51072347726654 0.4992263353958221 12.0 0.0 8.0 
240.00004305935363 339.0 190.0 410.5187303402916 0.5097524055725894 12.0 0.0 8.0 
250.00004305935363 338.0 189.0 410.51186731484114 0.49988337761685214 12.0 0.0 8.0 
260.0000430593537 336.0 188.0 410.51072347726654 0.4992169386597236 12.0 0.0 8.0 
270.0000430593537 334.0 187.0 410.5187303402916 0.49990129912276937 12.0 0.0 8.0 
280.0000430593537 340.0 187.0 414.45581927366345 0.5121404990810642 15.0 0.0 11.0 
290.0000430593537 336.0 187.0 414.45581927366345 0.4997151210596254 15.0 0.0 11.0 
300.0000430593537 334.0 186.0 414.4718329997149 0.500890946117433 15.0 0.0 11.0 
310.0000430593537 337.0 188.0 414.46496997426425 0.49987934617723934 15.0 0.0 11.0 
320.0000430593537 336.0 187.0 414.446668573063 0.5044291972015489 15.0 0.0 11.0 
330.0000430593537 335.0 186.0 414.45467543608777 0.5086235616239599 15.0 0.0 11.0 
340.0000430593537 334.0 188.0 414.44781241063714 0.4996950981874601 15.0 0.0 11.0 
350.0000430593537 330.0 185.0 410.51072347726654 0.5115104928622429 12.0 0.0 8.0 
360.0000430593537 330.0 186.0 410.5187303402916 0.5163150734808798 12.0 0.0 8.0 
370.0000430593537 325.0 184.0 410.51186731484114 0.5099757634916432 12.0 0.0 8.0 
380.0000430593537 328.0 185.0 410.51072347726654 0.4992425749481993 12.0 0.0 8.0 
390.0000430593537 330.0 186.0 410.5187303402916 0.4999216308579289 12.0 0.0 8.0 
400.0000430593537 328.0 185.0 410.51186731484114 0.4999322732943515 12.0 0.0 8.0 
410.0000430593537 338.0 188.0 414.45353159851356 0.49867712378011403 15.0 0.0 11.0 
420.0000430593537 335.0 188.0 414.4706891621389 0.5077473829404574 15.0 0.0 11.0 
430.0000430593537 334.0 187.0 414.45124392336334 0.4996649414553691 15.0 0.0 11.0 
440.0000430593537 333.0 187.0 414.45010008578737 0.507233491398501 15.0 0.0 11.0 
450.0000430593537 338.0 188.0 414.4581069488136 0.49964491311601217 15.0 0.0 11.0 
460.0000430593537 344.0 192.0 414.45124392336334 0.4996284766506846 15.0 0.0 11.0 
470.0000430593537 341.0 190.0 413.138118387189 0.5079637637632634 14.0 0.0 10.0 
480.0000430593537 340.0 189.0 411.8307120388907 0.516912204043255 17.0 0.0 9.0 
490.0000430593537 344.0 190.0 413.1358307120388 0.49863409715385043 19.0 0.0 10.0 
500.0000430593537 340.0 188.0 413.1346868744644 0.49794839646984584 17.0 0.0 10.0 
510.0000430593537 336.0 187.0 413.1426937374895 0.49924669934619703 17.0 0.0 10.0 
520.0000430593536 338.0 188.0 413.1358307120388 0.4986913810327287 17.0 0.0 10.0 
530.0000430593536 338.0 188.0 413.1346868744644 0.5102601888339339 16.0 0.0 10.0 
540.0000430593536 340.0 190.0 413.1426937374895 0.4985303351788672 15.0 0.0 10.0 
550.0000430593536 334.0 187.0 411.8238490134402 0.498526129700292 14.0 0.0 9.0 
560.0000430593536 339.0 189.0 411.8227051758646 0.4981012769451354 14.0 0.0 9.0 
570.0000430593536 336.0 188.0 411.8307120388907 0.5034633592688718 15.0 0.0 9.0 
580.0000430593536 344.0 190.0 415.7689448098376 0.500178805072027 18.0 0.0 12.0 
590.0000430593536 340.0 190.0 415.76208178438714 0.5004884484304182 18.0 0.0 12.0 
600.0000430593536 344.0 190.0 419.71404060623377 0.5027442782605351 21.0 0.0 15.0 
610.0000430593536 346.0 189.0 421.0305976551336 0.5172529184648348 22.0 0.0 16.0 
620.0000430593536 342.0 191.0 421.01344009150694 0.5021704910368585 22.0 0.0 16.0 
630.0000430593536 350.0 193.0 421.021446954533 0.5098717128606015 24.0 0.0 16.0 
640.0000430593536 350.0 192.0 423.6602802402065 0.5033615029771349 23.0 0.0 18.0 
650.0000430593536 348.0 194.0 422.3368601658562 0.5013096692508787 22.0 0.0 17.0 
660.0000430593536 346.0 192.0 423.67972547898097 0.5024559120189405 22.0 0.0 18.0 
#####################################################################
# End of data export. Simulation finished at: 2019-03-07T13:09+0000 #
#####################################################################
