#####################################################################
# Alchemist log file - simulation started at: 2019-03-03T08:55+0000 #
#####################################################################
# seed = 9.0, bandwidth = 2.3713737056616552E7, accessPointCount = 2000.0, baserange = 1000.0
#
# The columns have the following meaning: 
# time neighbor_count[Sum] <value>@neighbor_count[Sum] packet_size[Mean] mean_delay[Mean] crowd[Sum] overcrowded[Sum] risk[Sum] 
0.0 NaN NaN NaN NaN NaN NaN NaN 
10.000337445961424 134796.0 128371.0 4982.440949385187 0.5558943433250026 1496.0 1.0 1496.0 
20.000030775179994 134479.0 128118.0 4982.814984272233 0.4991286309000018 1485.0 12.0 1485.0 
30.000030775179994 134488.0 128117.0 4982.761223906205 0.4990858968085534 1484.0 13.0 1484.0 
40.00033744596142 134551.0 128121.0 4982.792107520731 0.5006151729296766 1484.0 13.0 1484.0 
50.00002116049971 134527.0 128120.0 4982.516442665141 0.5003579668120852 1484.0 13.0 1484.0 
60.00033744596142 134565.0 128121.0 4982.693737489277 0.5008163948445071 1485.0 12.0 1485.0 
70.00030358399098 134585.0 128120.0 822.4009150700427 0.5002353420917957 458.0 13.0 308.0 
80.00030358399098 134568.0 128119.0 823.6396911638434 0.4999578569759085 421.0 13.0 309.0 
90.00030358399098 134446.0 128118.0 828.8693165570345 0.500452610111058 414.0 13.0 313.0 
100.00030358399098 134393.0 128120.0 828.859022018888 0.5009596015623887 413.0 13.0 313.0 
110.00030358399098 134434.0 128122.0 831.5001429797152 0.5019985675538894 416.0 13.0 315.0 
120.00030358399098 134371.0 128118.0 834.1183871890333 0.49966867697047923 418.0 14.0 316.0 
130.00030358399098 134348.0 128118.0 836.7137546468488 0.5010728129676401 418.0 14.0 318.0 
140.00030358399098 134363.0 128121.0 834.0920789247964 0.5007446740274454 416.0 14.0 316.0 
150.00030358399098 134379.0 128119.0 834.1069488132596 0.5003340225206747 416.0 14.0 316.0 
160.00030358399098 134415.0 128120.0 840.6702888189783 0.5011971769016879 420.0 16.0 319.0 
170.00030358399098 134401.0 128119.0 840.663425793545 0.5017548102446 423.0 14.0 321.0 
180.00030358399098 134430.0 128122.0 836.6897340577696 0.5028223289410158 424.0 15.0 317.0 
190.00030358399098 134318.0 128121.0 835.3457249070836 0.5016186003003422 421.0 15.0 316.0 
200.00030358399098 134303.0 128120.0 836.6828710323235 0.5011286057415916 417.0 16.0 316.0 
210.00030358399098 134260.0 128118.0 836.5982270517419 0.5006100135520962 407.0 22.0 310.0 
220.00030358399098 134234.0 128120.0 836.593651701454 0.5017539840239049 424.0 14.0 318.0 
230.00030358399098 134161.0 128119.0 836.6302545038783 0.5004083995833087 418.0 20.0 312.0 
240.00030358399098 134142.0 128119.0 836.6416928796124 0.5007715396799207 424.0 15.0 317.0 
250.00030358399098 134182.0 128121.0 835.3068344295176 0.5016956530640002 424.0 14.0 317.0 
260.000303583991 134072.0 128122.0 832.6702888189783 0.5013851833646359 424.0 14.0 315.0 
270.000303583991 133968.0 128120.0 836.5982270517419 0.5010139637556452 426.0 14.0 318.0 
280.000303583991 133950.0 128120.0 844.4987131827143 0.501528018945267 418.0 14.0 324.0 
290.000303583991 133924.0 128121.0 844.5490420360132 0.5010044215950079 424.0 13.0 325.0 
300.000303583991 133882.0 128120.0 835.3194166428216 0.5021798902133869 421.0 13.0 318.0 
310.000303583991 133851.0 128124.0 835.3285673434503 0.5018211032788599 422.0 13.0 318.0 
320.000303583991 133906.0 128122.0 839.2679439519472 0.5016155499886339 421.0 13.0 321.0 
330.000303583991 133914.0 128119.0 839.2896768658678 0.500227942706409 420.0 13.0 321.0 
340.000303583991 133932.0 128124.0 837.9079210752034 0.5021157402337351 421.0 13.0 320.0 
350.000303583991 133899.0 128122.0 831.3891907349127 0.5014043225590836 417.0 13.0 315.0 
360.000303583991 133849.0 128123.0 828.6519874177749 0.5024590392841743 414.0 13.0 313.0 
370.000303583991 133818.0 128123.0 822.0875035745079 0.5027839825569648 409.0 13.0 308.0 
380.000303583991 133838.0 128122.0 819.4623963397031 0.5017089163344981 412.0 13.0 306.0 
390.000303583991 133837.0 128121.0 822.2213325707786 0.4998924112860023 406.0 13.0 308.0 
400.000303583991 133872.0 128123.0 826.1012296253841 0.501070328547776 413.0 13.0 311.0 
410.000303583991 133882.0 128121.0 830.073777523593 0.5006797644369854 416.0 13.0 314.0 
420.000303583991 133792.0 128124.0 831.3731770088749 0.5027942822769409 417.0 13.0 315.0 
430.000303583991 133781.0 128121.0 834.0692021733048 0.5010455902411591 422.0 13.0 317.0 
440.000303583991 133837.0 128119.0 833.9628252787904 0.5003332363292644 423.0 14.0 316.0 
450.000303583991 133844.0 128121.0 837.9742636545654 0.49994676868584254 419.0 13.0 320.0 
460.000303583991 133825.0 128121.0 839.2553617386438 0.5013472099716058 424.0 13.0 321.0 
470.000303583991 133836.0 128119.0 833.9914212181974 0.500340635760708 420.0 14.0 316.0 
480.000303583991 133750.0 128122.0 827.3525879325291 0.5010900992490297 412.0 14.0 311.0 
490.000303583991 133728.0 128120.0 824.7698026880058 0.500329826018574 415.0 14.0 309.0 
500.000303583991 133767.0 128119.0 822.1755790677622 0.5011658594787368 412.0 16.0 305.0 
510.000303583991 133813.0 128118.0 820.8864741206835 0.5007694951632358 408.0 17.0 303.0 
520.000303583991 133831.0 128118.0 819.4818415784943 0.5008932538387146 412.0 16.0 303.0 
530.000303583991 133867.0 128121.0 812.9356591364121 0.5015895700047951 410.0 16.0 298.0 
540.000303583991 133878.0 128120.0 816.8372891049552 0.5028946036429492 413.0 16.0 301.0 
550.000303583991 133822.0 128120.0 819.4509579639864 0.5025170581303092 418.0 17.0 302.0 
560.000303583991 133733.0 128118.0 820.8350014298101 0.5019564541678571 410.0 18.0 302.0 
570.000303583991 133817.0 128123.0 818.1572776665591 0.5027806754909508 414.0 13.0 305.0 
580.000303583991 133821.0 128121.0 824.7492136116573 0.5027406554150519 412.0 18.0 305.0 
590.000303583991 133766.0 128119.0 829.9902773806226 0.5012907494055272 415.0 19.0 308.0 
600.000303583991 133800.0 128120.0 832.6302545038782 0.5024558006824821 417.0 18.0 311.0 
610.000303583991 133759.0 128119.0 836.5707749499461 0.5019535228686366 415.0 18.0 314.0 
620.000303583991 133775.0 128122.0 836.5833571632961 0.5021936008489075 417.0 18.0 314.0 
630.000303583991 133826.0 128120.0 844.5055762081599 0.5013716992494297 421.0 20.0 318.0 
640.000303583991 133819.0 128121.0 841.8084072061588 0.5020404449378552 424.0 18.0 318.0 
650.000303583991 133703.0 128121.0 844.4369459536823 0.5035233726876104 421.0 19.0 319.0 
660.000303583991 133738.0 128121.0 845.8392908206828 0.5011543353961257 425.0 18.0 321.0 
#####################################################################
# End of data export. Simulation finished at: 2019-03-03T09:28+0000 #
#####################################################################
