#####################################################################
# Alchemist log file - simulation started at: 2019-03-12T08:04+0000 #
#####################################################################
# seed = 5.0, bandwidth = 1000.0, accessPointCount = 2000.0, baserange = 17.78279410038923
#
# The columns have the following meaning: 
# time neighbor_count[Sum] <value>@neighbor_count[Sum] packet_size[Mean] mean_delay[Mean] crowd[Sum] overcrowded[Sum] risk[Sum] 
0.0 NaN NaN NaN NaN NaN NaN NaN 
2.000101793669918 NaN NaN 4974.273949099228 NaN 1497.0 0.0 1497.0 
4.000101793669918 NaN NaN 4974.273949099228 NaN 1497.0 0.0 1497.0 
6.000101793669918 94.0 72.0 4974.3814698312835 0.29142915039374334 1497.0 0.0 1497.0 
8.000101793669918 179.0 136.0 4976.050328853303 2.0149569135703147 1497.0 0.0 1497.0 
10.000101793669918 179.0 136.0 4975.800972261939 4.014956913570315 1497.0 0.0 1497.0 
12.000101793669918 258.0 180.0 4976.300829282242 1.0751554105622951 1497.0 0.0 1497.0 
14.000101793669918 258.0 180.0 4975.513869030598 3.0751554105622954 1497.0 0.0 1497.0 
16.00010179366992 266.0 186.0 4975.604232199028 3.116904035289609 1497.0 0.0 1497.0 
18.00010179366992 272.0 186.0 4975.560766371176 3.152972592387238 1497.0 0.0 1497.0 
20.00010179366992 272.0 186.0 4975.510437517873 5.152972592387238 1497.0 0.0 1497.0 
22.00010179366992 292.0 190.0 4975.667143265656 2.722614520817887 1497.0 0.0 1497.0 
24.00010179366992 292.0 190.0 4975.563054046326 2.6804710609022755 1497.0 0.0 1497.0 
26.00010179366992 304.0 192.0 4975.581355447527 3.753796847662182 1497.0 0.0 1497.0 
28.00010179366992 314.0 195.0 4975.595081498427 3.286340633272491 1497.0 0.0 1497.0 
30.00010179366992 314.0 195.0 4975.579067772376 4.595673966605824 1497.0 0.0 1497.0 
32.00010179366992 314.0 195.0 4975.670574778382 3.2462747896510917 1497.0 0.0 1497.0 
34.00010179366992 314.0 195.0 4975.598513011153 2.713352978951503 1497.0 0.0 1497.0 
36.00010179366992 315.0 195.0 4975.599656848727 3.7278831054616672 1497.0 0.0 1497.0 
38.00010179366992 316.0 196.0 4975.615670574778 4.029986832184552 1497.0 0.0 1497.0 
40.00010179366992 316.0 196.0 4975.611095224478 4.725905199531491 1497.0 0.0 1497.0 
42.00010179366992 316.0 196.0 4975.63854732628 3.857178668919245 1497.0 0.0 1497.0 
44.00010179366992 316.0 196.0 4975.607663711753 3.258631730143736 1497.0 0.0 1497.0 
46.00010179366992 316.0 196.0 4975.607663711753 3.425537852592715 1497.0 0.0 1497.0 
48.00010179366992 316.0 196.0 4975.598513011153 3.7837664240212887 1497.0 0.0 1497.0 
50.00010179366992 316.0 196.0 4975.588218472976 4.869472546470266 1497.0 0.0 1497.0 
52.00010179366992 316.0 196.0 4975.616814412354 3.626944655313804 1497.0 0.0 1497.0 
54.00010179366992 316.0 196.0 4975.600800686303 3.0999079206199265 1497.0 0.0 1497.0 
56.00010179366992 316.0 196.0 4975.580211609951 3.4142262879668657 1497.0 0.0 1497.0 
58.00010179366992 316.0 196.0 4975.580211609951 3.399940573681151 1497.0 0.0 1497.0 
60.00010179366992 316.0 196.0 4974.271661424078 4.9551569002117635 1496.0 0.0 1496.0 
62.00010179366992 318.0 197.0 411.8501572776669 3.7800841047984433 83.0 0.0 9.0 
64.00010179366993 319.0 198.0 411.84558192736665 1.7528324250210283 83.0 0.0 9.0 
66.00010179366993 324.0 199.0 411.84558192736665 1.166080618733379 83.0 0.0 9.0 
68.00010179366993 326.0 200.0 411.84558192736665 1.2144053071168435 77.0 0.0 9.0 
70.00010179366993 326.0 200.0 411.84558192736665 1.2693386404501783 62.0 0.0 9.0 
72.00010179366993 326.0 200.0 411.84558192736665 1.2970559737835106 53.0 0.0 9.0 
74.00010179366993 326.0 200.0 411.84558192736665 1.411829307116843 43.0 0.0 9.0 
76.00010179366993 326.0 200.0 411.8501572776669 1.1772906404501773 42.0 0.0 9.0 
78.00010179366993 326.0 200.0 411.8513011152416 0.9936853071168444 35.0 0.0 9.0 
80.00010179366993 326.0 200.0 411.84672576494114 1.1249519737835105 34.0 0.0 9.0 
82.00010179366993 325.0 200.0 411.84672576494114 1.0670157551609423 33.0 0.0 9.0 
84.00010179366993 326.0 200.0 411.84672576494114 0.940055981025983 29.0 0.0 9.0 
86.00010179366993 326.0 200.0 411.84672576494114 1.0677014836714864 28.0 0.0 9.0 
88.00010179366993 326.0 200.0 411.84672576494114 1.1909819069519088 28.0 0.0 9.0 
90.00010179366993 326.0 200.0 411.84672576494114 1.3061274095974131 26.0 0.0 9.0 
92.00010179366993 326.0 200.0 411.84672576494114 1.349050690020693 26.0 0.0 9.0 
94.00010179366993 326.0 200.0 411.84672576494114 1.4776882561582576 25.0 0.0 9.0 
96.00010179366993 326.0 200.0 411.84672576494114 1.5910480445180464 23.0 0.0 9.0 
98.00010179366993 326.0 200.0 411.84672576494114 1.710690901660906 21.0 0.0 9.0 
100.00010179366993 325.0 199.0 411.84672576494114 1.725004926117989 20.0 0.0 9.0 
102.00010179366993 324.0 199.0 411.8513011152416 1.5341310955408578 20.0 0.0 9.0 
104.00010179366993 320.0 198.0 411.8513011152416 0.8543002967277684 18.0 0.0 9.0 
106.00010179366993 318.0 197.0 411.84672576494114 0.6319329576999235 18.0 0.0 9.0 
108.00010179366993 318.0 197.0 411.84672576494114 0.7261299887390597 17.0 0.0 9.0 
110.00010179366993 318.0 197.0 411.84672576494114 0.8213391655271838 16.0 0.0 9.0 
112.00010179366993 318.0 197.0 411.84672576494114 0.9064268848254302 16.0 0.0 9.0 
114.00010179366993 318.0 197.0 411.84672576494114 1.013714334218142 16.0 0.0 9.0 
116.00010179366993 318.0 197.0 411.84672576494114 1.119584779562271 14.0 0.0 9.0 
118.00010179366993 318.0 197.0 411.84672576494114 1.2281542802370353 14.0 0.0 9.0 
120.00010179366993 318.0 197.0 411.84672576494114 1.3328101506823806 14.0 0.0 9.0 
122.00010179366993 318.0 197.0 411.84672576494114 1.349679246498845 14.0 0.0 9.0 
124.00010179366993 318.0 197.0 411.84672576494114 1.2649289091169276 14.0 0.0 9.0 
126.00010179366993 318.0 197.0 411.84672576494114 1.2477899077674006 14.0 0.0 9.0 
128.00010179366993 319.0 198.0 411.8513011152416 1.1857489657066083 14.0 0.0 9.0 
130.00010179366993 320.0 198.0 411.8513011152416 1.0468983881450813 15.0 0.0 9.0 
132.00010179366993 320.0 198.0 411.84672576494114 1.1537532268547581 15.0 0.0 9.0 
134.00010179366993 318.0 197.0 411.84672576494114 1.0185533885907057 15.0 0.0 9.0 
136.00010179366993 318.0 197.0 411.84672576494114 1.017198375040569 15.0 0.0 9.0 
138.00010179366993 318.0 197.0 411.84672576494114 1.1113718167749858 15.0 0.0 9.0 
140.00010179366993 321.0 197.0 413.1655704889908 1.1939338960144652 15.0 0.0 10.0 
142.00010179366993 321.0 198.0 413.1587074635403 1.1412456070327233 15.0 0.0 10.0 
144.00010179366993 321.0 198.0 413.1587074635403 0.9651459696474061 15.0 0.0 10.0 
146.00010179366993 322.0 198.0 413.1587074635403 0.8745538921823515 15.0 0.0 10.0 
148.00010179366993 322.0 198.0 413.1587074635403 0.9508307739027833 15.0 0.0 10.0 
150.00010179366993 322.0 198.0 413.1587074635403 1.0351721717522446 15.0 0.0 10.0 
152.00010179366993 322.0 198.0 413.1587074635403 1.03382808573074 15.0 0.0 10.0 
154.00010179366993 322.0 198.0 413.1587074635403 1.1141372255156852 15.0 0.0 10.0 
156.00010179366993 324.0 199.0 413.1587074635403 1.2077333762257287 15.0 0.0 10.0 
158.00010179366993 319.0 198.0 413.1644266514152 1.1618338071832468 15.0 0.0 10.0 
160.00010179366993 325.0 199.0 414.4855590506147 0.9232124269393667 15.0 0.0 11.0 
162.00010179366993 326.0 199.0 414.47755218758965 1.002297045099411 15.0 0.0 11.0 
164.00010179366993 326.0 199.0 414.47755218758965 0.9634081562105227 15.0 0.0 11.0 
166.00010179366993 328.0 199.0 414.47755218758965 0.9351501424796655 15.0 0.0 11.0 
168.00010179366993 328.0 199.0 414.4798398627399 0.9328074383297318 15.0 0.0 11.0 
170.00010179366993 329.0 200.0 414.47755218758965 1.0156304253550228 15.0 0.0 11.0 
172.00010179366993 330.0 200.0 414.4752645124394 1.0716445636551253 15.0 0.0 11.0 
174.00010179366993 330.0 200.0 414.4752645124394 1.1948185344386586 15.0 0.0 11.0 
176.00010179366993 330.0 200.0 414.4752645124394 1.3116180032301579 15.0 0.0 11.0 
178.00010179366993 330.0 200.0 414.47755218758965 1.4214453604678763 15.0 0.0 11.0 
180.00010179366993 332.0 201.0 414.4752645124394 1.5490096922691838 15.0 0.0 11.0 
182.00010179366993 332.0 201.0 414.4752645124394 1.5976921692125272 15.0 0.0 11.0 
184.00010179366993 332.0 201.0 414.4752645124394 1.3644256366701009 15.0 0.0 11.0 
186.00010179366993 332.0 201.0 414.4752645124394 1.5029838377283011 15.0 0.0 11.0 
188.00010179366993 333.0 202.0 414.4752645124394 1.4635400344457796 15.0 0.0 11.0 
190.00010179366993 326.0 199.0 414.4706891621389 1.2082919862524957 15.0 0.0 11.0 
192.00010179366993 336.0 202.0 414.4764083500139 1.0891756629018179 15.0 0.0 11.0 
194.00010179366993 340.0 202.0 418.43065484701134 1.2217118507098406 18.0 0.0 14.0 
196.00010179366993 338.0 201.0 418.4100657706601 1.0598471299482781 18.0 0.0 14.0 
198.00010179366993 338.0 201.0 418.41235344580997 1.2079291405302885 18.0 0.0 14.0 
200.00010179366993 338.0 201.0 418.4100657706601 1.348074643175791 18.0 0.0 14.0 
202.00010179366993 338.0 201.0 418.4100657706601 1.3896090347101833 18.0 0.0 14.0 
204.00010179366993 338.0 201.0 418.4100657706601 1.394833902435051 18.0 0.0 14.0 
206.00010179366993 338.0 201.0 418.4100657706601 1.5349794050805547 18.0 0.0 14.0 
208.00010179366993 340.0 202.0 418.41464112096054 1.6224536016952256 18.0 0.0 14.0 
210.00010179366993 338.0 201.0 418.43065484701134 1.2174877605400753 18.0 0.0 14.0 
212.00010179366993 338.0 201.0 418.43065484701134 1.2625740819212188 18.0 0.0 14.0 
214.00010179366993 338.0 201.0 418.4283671718615 1.3819631921469802 18.0 0.0 14.0 
216.00010179366993 338.0 201.0 418.4283671718615 1.514698915918563 18.0 0.0 14.0 
218.00010179366993 338.0 201.0 418.43065484701134 1.415200201418847 18.0 0.0 14.0 
220.00010179366993 333.0 201.0 418.4260794967109 1.4513617288370213 18.0 0.0 14.0 
222.00010179366993 338.0 201.0 418.42264798398696 1.0672091134918151 18.0 0.0 14.0 
224.00010179366993 345.0 203.0 418.42951100943696 1.1258938347024916 18.0 0.0 14.0 
226.00010179366993 345.0 203.0 418.42951100943696 1.0096497402143045 18.0 0.0 14.0 
228.00010179366993 345.0 203.0 418.42264798398696 1.1641116824715216 18.0 0.0 14.0 
230.00010179366993 345.0 203.0 418.42036030883645 1.1439673255161396 18.0 0.0 14.0 
232.00010179366993 344.0 203.0 418.42264798398696 1.2267928762888178 18.0 0.0 14.0 
234.00010179366993 344.0 203.0 418.42036030883645 1.3887351335066649 18.0 0.0 14.0 
236.00010179366993 344.0 203.0 418.42036030883645 1.5089582306195262 18.0 0.0 14.0 
238.00010179366993 344.0 203.0 418.42264798398696 1.6507981256326514 18.0 0.0 14.0 
240.00010179366993 339.0 202.0 418.4215041464108 1.6790518963973475 18.0 0.0 14.0 
242.00010179366993 339.0 202.0 418.41464112096054 1.738960032880285 18.0 0.0 14.0 
244.00010179366993 339.0 202.0 418.41464112096054 1.833513838654562 18.0 0.0 14.0 
246.00010179366993 340.0 202.0 418.41464112096054 1.785822190870721 18.0 0.0 14.0 
248.00010179366993 338.0 201.0 418.41692879611037 1.758913672032001 18.0 0.0 14.0 
250.00010179366993 337.0 201.0 418.41464112096054 1.7386868549540635 18.0 0.0 14.0 
252.00010179366993 325.0 199.0 418.42264798398696 1.2260850717824863 18.0 0.0 14.0 
254.00010179366993 327.0 200.0 418.4066342579357 1.182466980853942 18.0 0.0 14.0 
256.00010179366996 327.0 200.0 418.4066342579357 0.9609061342930947 18.0 0.0 14.0 
258.00010179366996 331.0 202.0 418.4066342579357 1.0350508301114523 18.0 0.0 14.0 
260.00010179366996 331.0 202.0 418.4066342579357 1.1327383301114533 18.0 0.0 14.0 
262.00010179366996 331.0 202.0 418.4066342579357 1.1900299967781183 18.0 0.0 14.0 
264.00010179366996 331.0 202.0 418.4066342579357 1.0722847455862552 18.0 0.0 14.0 
266.00010179366996 331.0 202.0 418.4066342579357 1.1702095186083052 18.0 0.0 14.0 
268.00010179366996 331.0 202.0 418.4066342579357 1.2049047196459168 18.0 0.0 14.0 
270.00010179366996 331.0 202.0 418.4066342579357 1.3469280659494212 18.0 0.0 14.0 
272.00010179366996 333.0 203.0 418.4066342579357 1.262009702505796 18.0 0.0 14.0 
274.00010179366996 333.0 203.0 418.4066342579357 1.422241362737457 18.0 0.0 14.0 
276.00010179366996 333.0 204.0 418.4066342579357 1.4148764771693294 18.0 0.0 14.0 
278.00010179366996 334.0 204.0 418.4089219330856 1.4136255475579906 18.0 0.0 14.0 
280.00010179366996 334.0 204.0 417.09694023448714 1.366746268278713 18.0 0.0 13.0 
282.00010179366996 339.0 206.0 417.0946525593368 1.5139622802347563 18.0 0.0 13.0 
284.00010179366996 340.0 207.0 417.0946525593368 1.655075135733435 18.0 0.0 13.0 
286.00010179366996 340.0 207.0 417.0992279096372 1.7052440751273739 18.0 0.0 13.0 
288.00010179366996 340.0 207.0 417.09694023448714 1.8425155397738389 18.0 0.0 13.0 
290.00010179366996 338.0 206.0 417.09694023448714 1.8100792716296208 18.0 0.0 13.0 
292.00010179366996 338.0 206.0 417.09694023448714 1.947547465013845 18.0 0.0 13.0 
294.00010179366996 336.0 205.0 417.09694023448714 1.8336824455139515 18.0 0.0 13.0 
296.00010179366996 335.0 204.0 417.09694023448714 1.8966866808391085 18.0 0.0 13.0 
298.00010179366996 332.0 203.0 415.7849585358876 1.8349156662827197 17.0 0.0 12.0 
300.00010179366996 332.0 203.0 413.1575636259647 2.0240207246484805 17.0 0.0 10.0 
302.00010179366996 332.0 203.0 413.1575636259647 2.059079090407234 17.0 0.0 10.0 
304.00010179366996 332.0 203.0 413.1598513011149 1.9261711786043814 17.0 0.0 10.0 
306.00010179366996 327.0 201.0 413.1598513011149 1.4605088202461518 17.0 0.0 10.0 
308.00010179366996 326.0 200.0 413.1575636259647 1.4110220198474546 17.0 0.0 10.0 
310.00010179366996 328.0 201.0 411.84558192736665 1.556210822840783 16.0 0.0 9.0 
312.00010179366996 328.0 201.0 411.84558192736665 1.720843368772542 16.0 0.0 9.0 
314.00010179366996 326.0 200.0 411.84558192736665 1.4773579986834355 16.0 0.0 9.0 
316.00010179366996 325.0 200.0 411.84558192736665 1.3106980047957622 16.0 0.0 9.0 
318.00010179366996 326.0 200.0 411.84558192736665 1.4460087923342286 16.0 0.0 9.0 
320.00010179366996 326.0 200.0 411.84558192736665 1.577556411381846 16.0 0.0 9.0 
322.00010179366996 322.0 198.0 411.84558192736665 1.2717202007447856 16.0 0.0 9.0 
324.00010179366996 326.0 199.0 411.84558192736665 1.3236999866084718 16.0 0.0 9.0 
326.00010179366996 326.0 199.0 411.84558192736665 1.4251666532751384 16.0 0.0 9.0 
328.00010179366996 326.0 199.0 411.84558192736665 1.497353319941805 16.0 0.0 9.0 
330.00010179366996 326.0 199.0 411.84786960251665 1.2934493199418056 16.0 0.0 9.0 
332.00010179366996 324.0 198.0 411.8444380897912 0.9752513305864978 16.0 0.0 9.0 
334.00010179366996 324.0 198.0 411.83986273949074 1.05589649187682 16.0 0.0 9.0 
336.00010179366996 324.0 198.0 411.83986273949074 1.0531411155327346 16.0 0.0 9.0 
338.00010179366996 324.0 198.0 411.83986273949074 1.1735040187585406 16.0 0.0 9.0 
340.00010179366996 322.0 197.0 411.83986273949074 1.065429525686116 16.0 0.0 9.0 
342.00010179366996 322.0 197.0 411.83986273949074 1.1504566259571203 16.0 0.0 9.0 
344.00010179366996 325.0 199.0 411.83986273949074 1.1871887384923399 16.0 0.0 9.0 
346.00010179366996 326.0 199.0 411.83986273949074 1.2153159866084726 16.0 0.0 9.0 
348.00010179366996 326.0 199.0 411.83986273949074 1.3187159866084737 16.0 0.0 9.0 
350.00010179366996 326.0 199.0 411.83986273949074 1.3459826532751378 16.0 0.0 9.0 
352.00010179366996 326.0 199.0 411.83986273949074 1.4460493199418059 16.0 0.0 9.0 
354.00010179366996 328.0 200.0 411.83986273949074 1.5153928438576127 16.0 0.0 9.0 
356.00010179366996 326.0 199.0 411.84558192736665 0.9979159866084722 15.0 0.0 9.0 
358.00010179366996 326.0 199.0 411.8432942522164 1.004715986608472 14.0 0.0 9.0 
360.00010179366996 332.0 201.0 413.1484129253643 1.0880792433079012 15.0 0.0 10.0 
362.00010179366996 331.0 201.0 413.1484129253643 1.040618799098936 15.0 0.0 10.0 
364.00010179366996 330.0 201.0 413.1484129253643 0.9721614041421975 15.0 0.0 10.0 
366.00010179366996 330.0 201.0 413.1484129253643 1.084759829339048 15.0 0.0 10.0 
368.00010179366996 330.0 201.0 413.1484129253643 1.1973582545358985 15.0 0.0 10.0 
370.00010179366996 332.0 202.0 413.1484129253643 1.2132771468493329 15.0 0.0 10.0 
372.00010179366996 334.0 203.0 413.1484129253643 1.3413839394808564 15.0 0.0 10.0 
374.00010179366996 334.0 203.0 413.1484129253643 1.4925512546559538 15.0 0.0 10.0 
376.00010179366996 334.0 203.0 413.1484129253643 1.5111037838388328 15.0 0.0 10.0 
378.00010179366996 336.0 204.0 413.1484129253643 1.5336049129211575 15.0 0.0 10.0 
380.00010179366996 336.0 204.0 413.15298827566477 1.6496152089314566 15.0 0.0 10.0 
382.00010179366996 334.0 203.0 413.1507006005145 1.3365979472629572 15.0 0.0 10.0 
384.00010179366996 332.0 202.0 413.15298827566477 1.1179621141695961 15.0 0.0 10.0 
386.00010179366996 334.0 203.0 413.1507006005145 1.2660713584173036 15.0 0.0 10.0 
388.00010179366996 334.0 203.0 413.1507006005145 1.4279390626974588 15.0 0.0 10.0 
390.00010179366996 336.0 205.0 413.1507006005145 1.5671207419563686 15.0 0.0 10.0 
392.00010179366996 339.0 205.0 413.1507006005145 1.559470910964456 15.0 0.0 10.0 
394.00010179366996 339.0 205.0 413.1507006005145 1.717192918686462 15.0 0.0 10.0 
396.00010179366996 339.0 205.0 413.1507006005145 1.8882997397932855 15.0 0.0 10.0 
398.00010179366996 336.0 204.0 413.1507006005145 1.7687757800304185 15.0 0.0 10.0 
400.00010179366996 337.0 204.0 413.1507006005145 1.7629631477578214 15.0 0.0 10.0 
402.00010179366996 335.0 203.0 413.1507006005145 1.7088530322096107 15.0 0.0 10.0 
404.00010179366996 334.0 203.0 413.1507006005145 1.706782993041266 15.0 0.0 10.0 
406.00010179366996 334.0 203.0 413.159851301115 1.5315720555412649 15.0 0.0 10.0 
408.00010179366996 331.0 202.0 413.15298827566477 1.3657482845467281 15.0 0.0 10.0 
410.00010179366996 332.0 202.0 413.159851301115 1.2768376223315507 15.0 0.0 10.0 
412.00010179366996 332.0 202.0 413.1575636259648 1.0836228852791683 15.0 0.0 10.0 
414.00010179366996 332.0 202.0 413.1575636259648 1.2212381685466251 15.0 0.0 10.0 
416.00010179366996 332.0 202.0 413.1575636259648 1.357470052604597 15.0 0.0 10.0 
418.00010179366996 332.0 202.0 413.1575636259648 1.4737414623542668 15.0 0.0 10.0 
420.00010179366996 332.0 202.0 413.1575636259648 1.503978616504464 15.0 0.0 10.0 
422.00010179366996 334.0 203.0 411.84558192736665 1.5926787580031991 16.0 0.0 9.0 
424.00010179366996 332.0 202.0 411.84558192736665 1.483096843384177 16.0 0.0 9.0 
426.00010179366996 332.0 202.0 411.84558192736665 1.6547661555534883 16.0 0.0 9.0 
428.00010179366996 333.0 202.0 411.84558192736665 1.8089387469418239 16.0 0.0 9.0 
430.00010179366996 331.0 202.0 411.84558192736665 1.6350704002991967 16.0 0.0 9.0 
432.00010179366996 335.0 204.0 411.8501572776669 1.516525983983285 15.0 0.0 9.0 
434.00010179366996 338.0 205.0 411.84558192736665 1.5335037777109535 15.0 0.0 9.0 
436.00010179366996 340.0 206.0 411.84786960251665 1.5030120501678295 15.0 0.0 9.0 
438.00010179366996 342.0 207.0 411.84558192736665 1.606408773707141 15.0 0.0 9.0 
440.00010179366996 340.0 206.0 411.84558192736665 1.381458071966427 15.0 0.0 9.0 
442.00010179366996 340.0 206.0 411.84558192736665 1.5224196104279655 15.0 0.0 9.0 
444.00010179366996 340.0 206.0 413.15756362596466 1.4309033147167862 16.0 0.0 10.0 
446.00010179366996 340.0 206.0 413.15756362596466 1.6250058788193498 16.0 0.0 10.0 
448.00010179366996 338.0 205.0 413.15756362596466 1.6378709454654983 16.0 0.0 10.0 
450.00010179366996 337.0 204.0 413.15756362596466 1.5129159407987116 16.0 0.0 10.0 
452.00010179366996 336.0 204.0 413.15756362596466 1.4900392892753234 16.0 0.0 10.0 
454.00010179366996 337.0 204.0 414.47640835001397 1.576149006465967 17.0 0.0 11.0 
456.00010179366996 340.0 205.0 415.7952530740638 1.7350937442997691 18.0 0.0 12.0 
458.00010179366996 340.0 205.0 415.8009722619386 1.6426988725048994 18.0 0.0 12.0 
460.00010179366996 340.0 205.0 415.7975407492139 1.7507014366074645 18.0 0.0 12.0 
462.00010179366996 338.0 204.0 415.7952530740638 1.64197306404661 18.0 0.0 12.0 
464.00010179366996 338.0 204.0 415.7952530740638 1.7787679358414812 17.0 0.0 12.0 
466.00010179366996 340.0 205.0 415.7952530740638 1.892479630987729 17.0 0.0 12.0 
468.00010179366996 338.0 204.0 415.7952530740638 1.8799858845594295 17.0 0.0 12.0 
470.00010179366996 339.0 205.0 415.79410923648805 1.9770791546160968 17.0 0.0 12.0 
472.00010179366996 334.0 202.0 415.7918215613378 1.495475247339005 17.0 0.0 12.0 
474.00010179366996 336.0 203.0 415.7895338861876 1.5891569594189912 17.0 0.0 12.0 
476.00010179366996 336.0 203.0 415.7895338861876 1.7224643524150998 17.0 0.0 12.0 
478.00010179366996 336.0 203.0 415.7895338861876 1.9336186974215863 17.0 0.0 12.0 
480.00010179366996 334.0 202.0 415.7895338861876 1.9110065564863312 17.0 0.0 12.0 
482.00010179366996 334.0 202.0 415.7895338861876 1.857150347336003 17.0 0.0 12.0 
484.00010179366996 335.0 202.0 415.79067772376334 1.476940740179348 17.0 0.0 12.0 
486.00010179366996 336.0 203.0 415.79067772376334 1.5985712287011176 17.0 0.0 12.0 
488.00010179366996 334.0 202.0 415.79067772376334 1.4280065743825485 17.0 0.0 12.0 
490.00010179366996 334.0 202.0 415.7883900486137 1.578799723262656 17.0 0.0 12.0 
492.00010179366996 336.0 203.0 415.7883900486137 1.7491620783743191 17.0 0.0 12.0 
494.00010179366996 336.0 203.0 415.7883900486137 1.934064039158636 17.0 0.0 12.0 
496.00010179366996 340.0 205.0 415.7883900486137 1.9604362805101105 17.0 0.0 12.0 
498.00010179366996 338.0 204.0 415.7883900486137 1.926535654936905 17.0 0.0 12.0 
500.00010179366996 339.0 206.0 415.79067772376334 1.8126506903367539 17.0 0.0 12.0 
502.00010179366996 339.0 206.0 415.79296539891357 1.8343682475886631 17.0 0.0 12.0 
504.00010179366996 336.0 205.0 415.7883900486137 1.4910481104866382 17.0 0.0 12.0 
506.00010179366996 334.0 204.0 415.7883900486137 1.4572005789297369 17.0 0.0 12.0 
508.00010179366996 338.0 205.0 415.7883900486137 1.5675952832367754 18.0 0.0 12.0 
510.00010179366996 339.0 204.0 417.11295396053725 1.2498698671535804 18.0 0.0 13.0 
512.00010179367 338.0 204.0 417.1060909350879 1.280045391947468 18.0 0.0 13.0 
514.00010179367 338.0 203.0 417.1060909350879 1.297594804999507 18.0 0.0 13.0 
516.00010179367 338.0 203.0 417.10837861023685 1.3331979178399749 18.0 0.0 13.0 
518.00010179367 339.0 204.0 417.10837861023685 1.4057915117785662 18.0 0.0 13.0 
520.00010179367 340.0 204.0 417.1060909350879 1.55429770378631 18.0 0.0 13.0 
522.00010179367 340.0 204.0 417.1060909350879 1.6608222515899282 18.0 0.0 13.0 
524.00010179367 338.0 203.0 417.1060909350879 1.3763364879304754 18.0 0.0 13.0 
526.00010179367 338.0 203.0 417.1060909350879 1.459930237930474 18.0 0.0 13.0 
528.00010179367 338.0 203.0 417.1060909350879 1.6167661754304745 18.0 0.0 13.0 
530.00010179367 338.0 203.0 417.1060909350879 1.7810239879304752 18.0 0.0 13.0 
532.00010179367 335.0 202.0 417.10837861023685 1.5665547467126213 18.0 0.0 13.0 
534.00010179367 338.0 202.0 417.10837861023685 1.5938784883551909 18.0 0.0 13.0 
536.00010179367 339.0 203.0 417.10837861023685 1.6074171868738376 18.0 0.0 13.0 
538.00010179367 338.0 202.0 417.10837861023685 1.5973968366675426 18.0 0.0 13.0 
540.00010179367 328.0 199.0 417.11066628538714 1.4939402010531195 18.0 0.0 13.0 
542.00010179367 340.0 203.0 417.10837861023685 1.3214186511681847 18.0 0.0 13.0 
544.00010179367 344.0 205.0 417.11066628538714 1.1998967185679132 18.0 0.0 13.0 
546.00010179367 346.0 206.0 417.1060909350879 1.231162205387417 18.0 0.0 13.0 
548.00010179367 345.0 206.0 417.1060909350879 1.3269695099194978 18.0 0.0 13.0 
550.00010179367 345.0 206.0 417.1060909350879 1.2140065826577138 18.0 0.0 13.0 
552.00010179367 347.0 207.0 417.1060909350879 1.3538625933951565 18.0 0.0 13.0 
554.00010179367 347.0 207.0 417.1060909350879 1.4998853206678826 18.0 0.0 13.0 
556.00010179367 347.0 207.0 417.1060909350879 1.530693401475965 18.0 0.0 13.0 
558.00010179367 345.0 206.0 417.10837861023685 1.5211165314657575 18.0 0.0 13.0 
560.00010179367 347.0 207.0 415.78724621103794 1.6980011865741946 18.0 0.0 12.0 
562.00010179367 344.0 206.0 415.78724621103794 1.707778689287135 18.0 0.0 12.0 
564.00010179367 344.0 206.0 414.47297683728914 1.8344706084790567 17.0 0.0 11.0 
566.00010179367 345.0 207.0 414.47297683728914 1.8614340075826394 17.0 0.0 11.0 
568.00010179367 348.0 207.0 415.79067772376334 2.022048169042868 18.0 0.0 12.0 
570.00010179367 343.0 206.0 415.781527023163 1.9989294626349647 18.0 0.0 12.0 
572.00010179367 340.0 205.0 415.78381469831317 1.7732123157276567 18.0 0.0 12.0 
574.00010179367 333.0 204.0 415.78610237346345 1.7914500838547072 18.0 0.0 12.0 
576.00010179367 343.0 207.0 415.781527023163 1.9290745917768766 18.0 0.0 12.0 
578.00010179367 344.0 208.0 415.781527023163 2.0511421118851714 18.0 0.0 12.0 
580.00010179367 344.0 207.0 415.781527023163 2.1475689772053417 18.0 0.0 12.0 
582.00010179367 342.0 207.0 415.781527023163 2.120177014852255 18.0 0.0 12.0 
584.00010179367 337.0 204.0 415.781527023163 1.7753749603596802 18.0 0.0 12.0 
586.00010179367 336.0 204.0 415.781527023163 1.525451804233211 18.0 0.0 12.0 
588.00010179367 334.0 203.0 415.781527023163 1.304360637988592 18.0 0.0 12.0 
590.00010179367 334.0 203.0 415.781527023163 1.4563710141234827 18.0 0.0 12.0 
592.00010179367 334.0 203.0 415.781527023163 1.3689760041418193 18.0 0.0 12.0 
594.00010179367 340.0 204.0 419.73577352016065 1.5096284969921092 21.0 0.0 15.0 
596.00010179367 340.0 204.0 419.72662281955996 1.641729664307283 21.0 0.0 15.0 
598.00010179367 337.0 203.0 419.72891049470974 1.164477987625196 21.0 0.0 15.0 
600.00010179367 339.0 204.0 419.72662281955996 1.3082044883700066 21.0 0.0 15.0 
602.00010179367 339.0 204.0 419.72662281955996 1.2465635026371922 21.0 0.0 15.0 
604.00010179367 338.0 203.0 419.72662281955996 1.2743139833370907 21.0 0.0 15.0 
606.00010179367 336.0 203.0 419.72662281955996 1.329411814848345 21.0 0.0 15.0 
608.00010179367 336.0 203.0 419.72662281955996 1.2833677162750634 21.0 0.0 15.0 
610.00010179367 338.0 204.0 419.7334858450101 1.3582065756088482 21.0 0.0 15.0 
612.00010179367 338.0 204.0 419.7334858450101 1.4297895871918587 21.0 0.0 15.0 
614.00010179367 340.0 205.0 419.7334858450101 1.5581692327561634 21.0 0.0 15.0 
616.00010179367 338.0 204.0 419.7334858450101 1.4066235640258373 21.0 0.0 15.0 
618.00010179367 337.0 203.0 419.7334858450101 1.323999230524967 21.0 0.0 15.0 
620.00010179367 336.0 203.0 418.42150414641105 1.3548592856654662 21.0 0.0 14.0 
622.00010179367 338.0 204.0 418.42150414641105 1.4291367509168318 21.0 0.0 14.0 
624.00010179367 338.0 204.0 418.42493565913634 1.1804597483328527 21.0 0.0 14.0 
626.00010179367 338.0 204.0 418.42150414641105 1.2219403684878902 21.0 0.0 14.0 
628.00010179367 338.0 204.0 417.11066628538714 1.0580876553095964 20.0 0.0 13.0 
630.00010179367 338.0 204.0 417.11066628538714 1.0670669834749706 20.0 0.0 13.0 
632.00010179367 339.0 204.0 415.79868458678845 1.0317836511692338 20.0 0.0 12.0 
634.00010179367 341.0 204.0 415.79868458678845 1.152786713033801 20.0 0.0 12.0 
636.00010179367 344.0 205.0 415.79868458678845 1.2974992071798832 20.0 0.0 12.0 
638.00010179367 345.0 206.0 415.79868458678845 1.2522314172397464 20.0 0.0 12.0 
640.00010179367 346.0 206.0 415.79868458678845 1.2644975701839098 20.0 0.0 12.0 
642.00010179367 350.0 208.0 415.7975407492139 1.2940235742215307 20.0 0.0 12.0 
644.00010179367 350.0 208.0 415.7975407492139 1.268174517617757 20.0 0.0 12.0 
646.00010179367 350.0 208.0 415.7975407492139 1.3301242031523481 18.0 0.0 12.0 
648.00010179367 353.0 209.0 415.7975407492139 1.4709339359957314 19.0 0.0 12.0 
650.00010179367 354.0 209.0 415.79868458678845 1.1927302525139314 19.0 0.0 12.0 
652.00010179367 354.0 209.0 415.79639691163817 1.3515021823384934 19.0 0.0 12.0 
654.00010179367 356.0 210.0 415.79639691163817 1.4258989322215385 19.0 0.0 12.0 
656.00010179367 357.0 211.0 415.79639691163817 1.6226246381628144 18.0 0.0 12.0 
658.00010179367 362.0 212.0 418.43408635973714 1.7309654818096878 19.0 0.0 14.0 
660.00010179367 360.0 211.0 418.4203603088363 1.5547662192361291 19.0 0.0 14.0 
662.00010179367 361.0 211.0 418.4203603088363 1.437847392189136 19.0 0.0 14.0 
664.00010179367 362.0 212.0 418.4203603088363 1.567415628788129 19.0 0.0 14.0 
#####################################################################
# End of data export. Simulation finished at: 2019-03-12T08:24+0000 #
#####################################################################
