#####################################################################
# Alchemist log file - simulation started at: 2019-03-03T04:45+0000 #
#####################################################################
# seed = 9.0, bandwidth = 1333521.4321633242, accessPointCount = 37.60603093086394, baserange = 10.0
#
# The columns have the following meaning: 
# time neighbor_count[Sum] <value>@neighbor_count[Sum] packet_size[Mean] mean_delay[Mean] crowd[Sum] overcrowded[Sum] risk[Sum] 
0.0 NaN NaN NaN NaN NaN NaN NaN 
10.000337445961424 6.0 3.0 4987.522816166884 0.4962490291649188 1497.0 0.0 1497.0 
20.000337445961424 6.0 3.0 4987.522816166884 0.4962490291649188 1497.0 0.0 1497.0 
30.000337445961424 6.0 3.0 4987.4889178618 0.49625702803648447 1497.0 0.0 1497.0 
40.00033744596142 6.0 3.0 4987.525423728814 0.49624902916491936 1497.0 0.0 1497.0 
50.00033744596142 6.0 3.0 4987.48109517601 0.4962545283891207 1497.0 0.0 1497.0 
60.00033744596142 6.0 3.0 4987.517601043025 0.49625052895333727 1497.0 0.0 1497.0 
70.00033744596142 6.0 3.0 400.0 0.4997000423162632 2.0 0.0 0.0 
80.00033744596142 6.0 3.0 400.0 0.4997000423162632 0.0 0.0 0.0 
90.00033744596142 6.0 3.0 400.0 0.4997000423162632 0.0 0.0 0.0 
100.00033744596142 6.0 3.0 400.0 0.4997000423162632 0.0 0.0 0.0 
110.00033744596142 6.0 3.0 400.0 0.4997000423162632 0.0 0.0 0.0 
120.00033744596142 6.0 3.0 400.0 0.4997000423162632 0.0 0.0 0.0 
130.0003374459614 6.0 3.0 400.0 0.4997000423162774 0.0 0.0 0.0 
140.0003374459614 6.0 3.0 400.0 0.4997000423162774 0.0 0.0 0.0 
150.0003374459614 6.0 3.0 400.0 0.4997000423162774 0.0 0.0 0.0 
160.0003374459614 6.0 3.0 400.0 0.4997000423162774 0.0 0.0 0.0 
170.0003374459614 6.0 3.0 400.0 0.4997000423162774 0.0 0.0 0.0 
180.0003374459614 6.0 3.0 400.0 0.4997000423162774 0.0 0.0 0.0 
190.0003374459614 6.0 3.0 400.0 0.4997000423162774 0.0 0.0 0.0 
200.0003374459614 6.0 3.0 400.0 0.4997000423162774 0.0 0.0 0.0 
210.0003374459614 6.0 3.0 400.0 0.4997000423162774 0.0 0.0 0.0 
220.0003374459614 6.0 3.0 400.0 0.4997000423162774 0.0 0.0 0.0 
230.0003374459614 6.0 3.0 400.0 0.4997000423162774 0.0 0.0 0.0 
240.0003374459614 6.0 3.0 400.0 0.4997000423162774 0.0 0.0 0.0 
250.0003374459614 6.0 3.0 400.0 0.4997000423162774 0.0 0.0 0.0 
260.0003374459614 6.0 3.0 400.0 0.499700042316249 0.0 0.0 0.0 
270.0003374459614 6.0 3.0 400.0 0.499700042316249 0.0 0.0 0.0 
280.0003374459614 6.0 3.0 400.0 0.499700042316249 0.0 0.0 0.0 
290.0003374459614 6.0 3.0 400.0 0.499700042316249 0.0 0.0 0.0 
300.0003374459614 6.0 3.0 400.0 0.499700042316249 0.0 0.0 0.0 
310.0003374459614 6.0 3.0 400.0 0.499700042316249 0.0 0.0 0.0 
320.0003374459614 6.0 3.0 400.0 0.499700042316249 0.0 0.0 0.0 
330.0003374459614 6.0 3.0 400.0 0.499700042316249 0.0 0.0 0.0 
340.0003374459614 6.0 3.0 400.0 0.499700042316249 0.0 0.0 0.0 
350.0003374459614 6.0 3.0 400.0 0.499700042316249 0.0 0.0 0.0 
360.0003374459614 6.0 3.0 400.0 0.499700042316249 0.0 0.0 0.0 
370.0003374459614 6.0 3.0 400.0 0.499700042316249 0.0 0.0 0.0 
380.0003374459614 6.0 3.0 400.0 0.499700042316249 0.0 0.0 0.0 
390.0003374459614 6.0 3.0 400.0 0.499700042316249 0.0 0.0 0.0 
400.0003374459614 6.0 3.0 400.0 0.499700042316249 0.0 0.0 0.0 
410.0003374459614 6.0 3.0 400.0 0.499700042316249 0.0 0.0 0.0 
420.0003374459614 6.0 3.0 400.0 0.499700042316249 0.0 0.0 0.0 
430.0003374459614 6.0 3.0 400.0 0.499700042316249 0.0 0.0 0.0 
440.0003374459614 6.0 3.0 400.0 0.499700042316249 0.0 0.0 0.0 
450.0003374459614 6.0 3.0 400.0 0.499700042316249 0.0 0.0 0.0 
460.0003374459614 6.0 3.0 400.0 0.499700042316249 0.0 0.0 0.0 
470.0003374459614 10.0 4.0 400.0 0.49957148902323717 0.0 0.0 0.0 
480.0003374459614 8.0 4.0 400.0 0.47488584145054347 0.0 0.0 0.0 
490.0003374459614 6.0 3.0 400.0 0.499700042316249 0.0 0.0 0.0 
500.0003374459614 6.0 3.0 400.0 0.499700042316249 0.0 0.0 0.0 
510.0003374459614 6.0 3.0 400.0 0.499700042316249 0.0 0.0 0.0 
520.0003374459613 6.0 3.0 400.0 0.499700042316249 0.0 0.0 0.0 
530.0003374459613 6.0 3.0 400.0 0.499700042316249 0.0 0.0 0.0 
540.0003374459613 6.0 3.0 400.0 0.499700042316249 0.0 0.0 0.0 
550.0003374459613 8.0 4.0 400.0 0.499700042316249 0.0 0.0 0.0 
560.0003374459613 8.0 4.0 400.0 0.499700042316249 0.0 0.0 0.0 
570.0003374459613 8.0 4.0 400.0 0.499700042316249 0.0 0.0 0.0 
580.0003374459613 8.0 4.0 400.0 0.499700042316249 0.0 0.0 0.0 
590.0003374459613 8.0 4.0 400.0 0.499700042316249 0.0 0.0 0.0 
600.0003374459613 8.0 4.0 400.0 0.499700042316249 0.0 0.0 0.0 
610.0003374459613 8.0 4.0 400.0 0.499700042316249 0.0 0.0 0.0 
620.0003374459613 8.0 4.0 400.0 0.499700042316249 0.0 0.0 0.0 
630.0003374459613 8.0 4.0 400.0 0.499700042316249 0.0 0.0 0.0 
640.0003374459613 8.0 4.0 400.0 0.499700042316249 0.0 0.0 0.0 
650.0003374459613 8.0 4.0 400.0 0.499700042316249 0.0 0.0 0.0 
660.0003374459613 8.0 4.0 400.0 0.499700042316249 0.0 0.0 0.0 
#####################################################################
# End of data export. Simulation finished at: 2019-03-03T04:50+0000 #
#####################################################################
