#####################################################################
# Alchemist log file - simulation started at: 2019-03-04T03:23+0000 #
#####################################################################
# seed = 0.0, bandwidth = 5623413.251903491, accessPointCount = 72.92664737217109, baserange = 562.341325190349
#
# The columns have the following meaning: 
# time neighbor_count[Sum] <value>@neighbor_count[Sum] packet_size[Mean] mean_delay[Mean] crowd[Sum] overcrowded[Sum] risk[Sum] 
0.0 NaN NaN NaN NaN NaN NaN NaN 
10.00022733547309 23017.0 808.0 4991.492670490758 0.5586161178600151 1496.0 1.0 1496.0 
20.00022733547309 22084.0 773.0 4991.8725302740595 0.4978798635138353 1497.0 0.0 1497.0 
30.00022733547309 22173.0 774.0 4991.8036966220525 0.497772973096397 1495.0 2.0 1495.0 
40.00022733547309 22194.0 775.0 4991.696622052263 0.4977027675537908 1497.0 0.0 1497.0 
50.00022733547309 22231.0 776.0 4991.862332695985 0.4974042472587045 1497.0 0.0 1497.0 
60.00022733547309 22221.0 775.0 4991.839388145316 0.49787510397802615 1496.0 1.0 1496.0 
70.00040553626063 22299.0 777.0 1227.5232632249852 0.49843140674845265 391.0 2.0 280.0 
80.00040553626063 22338.0 778.0 1233.2899936265123 0.49788287002739035 385.0 1.0 283.0 
90.00040553626063 22358.0 779.0 1233.3358827278525 0.4987608679764956 387.0 0.0 284.0 
100.00040553626063 22372.0 779.0 1236.2294455066915 0.49872100464871355 385.0 1.0 284.0 
110.00040553626063 22347.0 780.0 1236.1759082217973 0.5018434389427274 385.0 1.0 284.0 
120.00040553626063 22294.0 779.0 1233.348629700445 0.4981375073456051 386.0 2.0 282.0 
130.00040553626064 22327.0 780.0 1233.2695984703644 0.4983385572294127 384.0 2.0 282.0 
140.00040553626064 22269.0 781.0 1227.515615041429 0.49851316244018584 382.0 3.0 279.0 
150.00040553626064 22215.0 781.0 1236.2676864244754 0.5003598348977571 383.0 2.0 283.0 
160.00040553626064 22006.0 781.0 1233.3562778840017 0.4994801948243812 384.0 2.0 282.0 
170.00040553626064 21807.0 781.0 1239.202039515616 0.49918849585804337 383.0 2.0 284.0 
180.00040553626064 21684.0 781.0 1233.3307839388144 0.5027127580360302 382.0 2.0 282.0 
190.00040553626064 21589.0 779.0 1236.3008285532183 0.5031410311949113 378.0 3.0 282.0 
200.00040553626064 21269.0 776.0 1233.343530911409 0.5015527151481514 376.0 5.0 279.0 
210.00040553626064 21183.0 776.0 1224.5328234544304 0.5016883356557486 371.0 5.0 276.0 
220.00040553626064 21059.0 775.0 1230.3581899298906 0.502879209622162 370.0 4.0 279.0 
230.00040553626064 20968.0 775.0 1236.1759082217973 0.5035126474560336 372.0 4.0 281.0 
240.00040553626064 20877.0 774.0 1227.3601019757828 0.4984357007166196 368.0 4.0 278.0 
250.00040553626064 20821.0 774.0 1218.5825366475453 0.498300726097945 366.0 4.0 275.0 
260.00040553626064 20812.0 774.0 1209.830465264499 0.4993211735339198 367.0 3.0 273.0 
270.00040553626064 20732.0 773.0 1209.7769279796048 0.5046203918787107 365.0 4.0 272.0 
280.00040553626064 20621.0 770.0 1209.7335882727848 0.4990797805321166 364.0 3.0 273.0 
290.00040553626064 20552.0 768.0 1209.738687061824 0.5017319688647459 362.0 5.0 271.0 
300.00040553626064 20558.0 770.0 1203.905672402804 0.5088515445054187 360.0 5.0 269.0 
310.00040553626064 20374.0 767.0 1195.1102613129374 0.4982488188989332 361.0 3.0 268.0 
320.00040553626064 20352.0 768.0 1198.052262587636 0.4982624395866709 360.0 5.0 267.0 
330.00040553626064 20295.0 769.0 1198.052262587636 0.49856075111660114 359.0 5.0 267.0 
340.00040553626064 20330.0 770.0 1195.1459528362006 0.49877719960313827 357.0 7.0 264.0 
350.00040553626064 20323.0 769.0 1192.168260038241 0.4983739463033015 360.0 2.0 268.0 
360.00040553626064 20359.0 768.0 1183.42383683875 0.49875903737416905 356.0 6.0 261.0 
370.00040553626064 20369.0 766.0 1183.4238368387498 0.5006158807040162 350.0 10.0 257.0 
380.00040553626064 20371.0 766.0 1186.2766093052896 0.5049572174712488 360.0 5.0 263.0 
390.00040553626064 20262.0 763.0 1189.2237093690244 0.5002488588774848 354.0 10.0 259.0 
400.00040553626064 20148.0 761.0 1192.1147227533468 0.5008731311847512 365.0 1.0 269.0 
410.00040553626064 20139.0 761.0 1197.996175908222 0.5021173564872337 363.0 3.0 269.0 
420.00040553626064 20134.0 761.0 1198.052262587636 0.5025630466901555 359.0 5.0 267.0 
430.00040553626064 20054.0 761.0 1197.9655831739972 0.5067531716814572 365.0 4.0 268.0 
440.00040553626064 19968.0 759.0 1200.9024856596552 0.4996483976386448 365.0 8.0 265.0 
450.00040553626064 20003.0 762.0 1195.1000637348634 0.506832372789235 369.0 4.0 267.0 
460.00040553626064 19917.0 762.0 1197.9732313575532 0.49999680089825155 363.0 6.0 266.0 
470.00040553626064 19930.0 762.0 1201.0274059910785 0.5026561720446174 367.0 3.0 270.0 
480.00040553626064 19973.0 762.0 1192.1708094327591 0.49919910722685634 364.0 2.0 268.0 
490.00040553626064 19954.0 763.0 1180.4079031230092 0.499421489771725 363.0 2.0 264.0 
500.00040553626064 19940.0 764.0 1168.838750796686 0.5018362152304412 363.0 1.0 261.0 
510.00040553626064 19859.0 763.0 1159.8827278521353 0.4998218724961499 361.0 2.0 257.0 
520.0004055362606 19779.0 761.0 1145.2925430210337 0.5006959832749035 355.0 3.0 251.0 
530.0004055362606 19870.0 763.0 1139.3753983428944 0.49860169149979977 355.0 3.0 249.0 
540.0004055362606 19905.0 765.0 1154.0777565328228 0.49916650214973873 359.0 1.0 256.0 
550.0004055362606 19831.0 764.0 1156.9764181007017 0.5009757961102469 354.0 3.0 255.0 
560.0004055362606 19926.0 767.0 1156.9993626513706 0.49978927745074586 357.0 1.0 257.0 
570.0004055362606 19855.0 765.0 1162.891013384321 0.5037993031343204 360.0 0.0 260.0 
580.0004055362606 19953.0 765.0 1168.7214786488212 0.5005108767226203 367.0 1.0 261.0 
590.0004055362606 20019.0 767.0 1171.6073932441043 0.5037413256076261 370.0 1.0 262.0 
600.0004055362606 19932.0 767.0 1174.605481198215 0.5025885015712717 377.0 0.0 264.0 
610.0004055362606 19907.0 766.0 1174.5315487571695 0.4991823865632453 375.0 0.0 264.0 
620.0004055362606 19888.0 766.0 1165.7718291905671 0.5028057304011239 369.0 0.0 261.0 
630.0004055362606 19714.0 767.0 1168.7928616953468 0.5012734960624787 368.0 1.0 261.0 
640.0004055362606 19677.0 768.0 1168.7138304652647 0.5001518354725424 369.0 0.0 262.0 
650.0004055362606 19375.0 765.0 1171.6124920331422 0.5051818763343797 358.0 1.0 262.0 
660.0004055362606 19501.0 766.0 1183.3193116634802 0.5098702398793734 359.0 1.0 266.0 
#####################################################################
# End of data export. Simulation finished at: 2019-03-04T03:44+0000 #
#####################################################################
