#####################################################################
# Alchemist log file - simulation started at: 2019-03-10T17:42+0000 #
#####################################################################
# seed = 4.0, bandwidth = 17782.79410038923, accessPointCount = 37.60603093086394, baserange = 177.82794100389228
#
# The columns have the following meaning: 
# time neighbor_count[Sum] <value>@neighbor_count[Sum] packet_size[Mean] mean_delay[Mean] crowd[Sum] overcrowded[Sum] risk[Sum] 
0.0 NaN NaN NaN NaN NaN NaN NaN 
2.0004793365590676 31.0 18.0 4987.434159061278 0.4401219759906121 1497.0 0.0 1497.0 
4.00042902272939 119.0 30.0 4987.574967405476 0.5047606780507099 1497.0 0.0 1497.0 
6.000479336559067 262.0 49.0 4987.780964797914 1.0054635893945683 1497.0 0.0 1497.0 
8.000479336559067 394.0 61.0 4987.846153846154 1.3808980709532048 1497.0 0.0 1497.0 
10.000479336559067 414.0 61.0 4987.895697522817 1.8417269878310045 1497.0 0.0 1497.0 
12.000479336559067 456.0 61.0 4987.926988265971 1.8701090198548735 1497.0 0.0 1497.0 
14.00042902272939 500.0 61.0 4987.87222946545 1.4909894024331978 1497.0 0.0 1497.0 
16.000479336559067 500.0 61.0 4987.919165580182 2.0324131633667335 1497.0 0.0 1497.0 
18.000479336559067 500.0 61.0 4987.87222946545 2.013588094189832 1497.0 0.0 1497.0 
20.000479336559067 500.0 61.0 4987.825293350717 1.6843764320348362 1497.0 0.0 1497.0 
22.000479336559067 500.0 61.0 4987.903520208605 2.0750945031751997 1497.0 0.0 1497.0 
24.000429022729392 500.0 61.0 4987.8617992177315 2.2048710049511904 1497.0 0.0 1497.0 
26.000479336559067 499.0 60.0 4987.825293350717 1.4428168092948532 1497.0 0.0 1497.0 
28.000479336559067 498.0 60.0 4987.8800521512385 1.8012151506942906 1497.0 0.0 1497.0 
30.000479336559067 498.0 60.0 4987.853976531943 1.7330666524303247 1497.0 0.0 1497.0 
32.00047933655907 498.0 60.0 4987.822685788788 1.3697151389242403 1497.0 0.0 1497.0 
34.00042902272939 498.0 60.0 4987.877444589309 1.7247163002161976 1497.0 0.0 1497.0 
36.00047933655907 498.0 60.0 4987.838331160365 1.8040387335087982 1497.0 0.0 1497.0 
38.00047933655907 498.0 60.0 4987.814863102999 1.2929184508874494 1497.0 0.0 1497.0 
40.00047933655907 498.0 60.0 4987.87483702738 1.8017600834582708 1497.0 0.0 1497.0 
42.00047933655907 498.0 60.0 4987.840938722295 1.7271822661890286 1497.0 0.0 1497.0 
44.00042902272939 498.0 60.0 4987.809647979139 1.3699545636952108 1497.0 0.0 1497.0 
46.00047933655907 498.0 60.0 4987.887874837027 1.7249374868901344 1497.0 0.0 1497.0 
48.00047933655907 498.0 60.0 4987.851368970013 1.8041500064516507 1497.0 0.0 1497.0 
50.00047933655907 498.0 60.0 4987.799217731421 1.2930768836155226 1497.0 0.0 1497.0 
52.00047933655907 498.0 60.0 4987.895697522817 1.801784770141434 1497.0 0.0 1497.0 
54.00042902272939 498.0 60.0 4987.827900912646 1.7272419295435737 1497.0 0.0 1497.0 
56.00047933655907 498.0 60.0 4987.796610169492 1.3699728017922441 1497.0 0.0 1497.0 
58.00047933655907 498.0 60.0 4987.885267275098 1.7249374868901346 1497.0 0.0 1497.0 
60.00047933655907 498.0 60.0 4984.850065189048 1.8041864826457172 1496.0 0.0 1496.0 
62.00047933655907 498.0 60.0 433.0247718383314 0.7786537195880355 44.0 0.0 11.0 
64.00042902272939 498.0 60.0 433.01434159061256 1.1542678848310992 36.0 0.0 11.0 
66.00047933655907 501.0 60.0 433.04563233376814 1.0379272102886632 28.0 0.0 11.0 
68.00047933655907 506.0 61.0 433.0117340286831 0.7385581786035302 26.0 0.0 11.0 
70.00047933655907 506.0 61.0 433.00130378096503 0.9989097964845599 25.0 0.0 11.0 
72.00047933655907 506.0 61.0 433.02216427640184 1.063255749693371 22.0 1.0 10.0 
74.00042902272939 506.0 61.0 433.01434159061256 0.7111577331774348 21.0 1.0 10.0 
76.00047933655907 506.0 61.0 432.99869621903497 1.035286613751146 21.0 1.0 10.0 
78.00047933655907 506.0 61.0 433.00391134289464 1.1045370122602376 21.0 1.0 10.0 
80.00047933655907 506.0 61.0 432.9882659713169 0.8531344800314649 21.0 1.0 10.0 
82.00047933655907 506.0 61.0 432.9882659713169 1.1654860979124946 21.0 1.0 10.0 
84.00042902272939 506.0 61.0 432.98305084745783 1.2819145115604706 20.0 2.0 9.0 
86.00047933655907 506.0 61.0 432.98565840938744 0.982652949551431 20.0 2.0 9.0 
88.00047933655907 506.0 61.0 432.98044328552845 1.3481070205349137 18.0 2.0 9.0 
90.00047933655907 506.0 61.0 432.9908735332464 1.4065083027415017 18.0 2.0 9.0 
92.00047933655907 506.0 61.0 432.97262059973906 1.1654949475732816 13.0 7.0 4.0 
94.00042902272939 506.0 61.0 432.9569752281615 1.4778465654543114 13.0 7.0 4.0 
96.00047933655907 506.0 61.0 432.9621903520212 1.5897352541738474 13.0 7.0 4.0 
98.00047933655907 498.0 60.0 432.96740547588024 0.7161525116714412 14.0 6.0 5.0 
100.00047933655907 498.0 60.0 432.96740547588024 1.0338424484790252 14.0 6.0 5.0 
102.00047933655907 498.0 60.0 432.9752281616686 1.0404436887335953 16.0 4.0 7.0 
104.00042902272939 498.0 60.0 432.97001303780957 0.742947705429963 16.0 4.0 7.0 
106.00047933655907 498.0 60.0 432.97001303780957 1.0068175884174932 16.0 4.0 7.0 
108.00047933655907 498.0 60.0 432.9934810951759 1.0625012310464879 17.0 3.0 8.0 
110.00047933655907 498.0 60.0 432.9752281616686 0.716390051033447 17.0 3.0 8.0 
112.00047933655907 498.0 60.0 432.97001303780957 1.034079987841031 17.0 3.0 8.0 
114.00042902272939 498.0 60.0 432.9647979139506 1.0403782317557309 16.0 4.0 7.0 
116.00047933655907 498.0 60.0 432.97001303780957 0.7426553950451615 16.0 4.0 7.0 
118.00047933655907 521.0 61.0 432.97001303780957 0.9776798363987454 17.0 4.0 7.0 
120.00047933655907 530.0 61.0 438.9674054758802 1.0490547636265855 17.0 4.0 9.0 
122.00047933655907 534.0 61.0 438.9465449804434 0.8045037344265307 17.0 4.0 9.0 
124.00042902272939 534.0 61.0 438.9543676662319 1.1374686700079086 17.0 4.0 9.0 
126.00047933655907 534.0 61.0 438.97001303780957 1.270665448910053 19.0 4.0 9.0 
128.00047933655907 534.0 61.0 438.9517601043025 0.8424187298276027 19.0 4.0 9.0 
130.00047933655907 534.0 61.0 438.9465449804434 1.1198877904849793 19.0 4.0 9.0 
132.00047933655907 534.0 61.0 441.9556714471971 1.3658543536348875 20.0 4.0 10.0 
134.0004290227294 534.0 61.0 441.94524119947823 0.9576110530961965 20.0 4.0 10.0 
136.00047933655907 534.0 61.0 441.94524119947823 1.3115575980086858 20.0 4.0 10.0 
138.00047933655907 534.0 61.0 441.9504563233374 1.4548442593057134 21.0 3.0 11.0 
140.00047933655907 534.0 61.0 441.9504563233374 1.1005897430075542 22.0 2.0 12.0 
142.00047933655907 534.0 61.0 441.9504563233374 1.4014338348175903 22.0 2.0 12.0 
144.00032218930465 527.0 61.0 441.9504563233374 1.4489125311005921 22.0 2.0 12.0 
146.00047933655907 527.0 61.0 441.960886571056 1.029372215042137 24.0 0.0 14.0 
148.00047933655907 520.0 61.0 441.96610169491515 1.263965753633068 23.0 1.0 13.0 
150.00032218930465 512.0 61.0 441.960886571056 1.2157462664163812 23.0 1.0 13.0 
152.00047933655907 512.0 61.0 441.9504563233374 0.8100242117252863 20.0 4.0 10.0 
154.0004290227294 512.0 61.0 441.9504563233374 1.0828922686769347 20.0 4.0 10.0 
156.00047933655907 512.0 61.0 441.9504563233374 1.2422974929676078 20.0 4.0 10.0 
158.00047933655907 512.0 61.0 441.9504563233374 0.7832200998075657 20.0 4.0 10.0 
160.00047933655907 512.0 61.0 441.9504563233374 1.109190609861667 20.0 4.0 10.0 
162.00032218930465 512.0 61.0 441.9504563233374 1.2154933810498871 20.0 4.0 10.0 
164.0004290227294 517.0 61.0 441.9504563233374 0.8044749826982742 21.0 4.0 10.0 
166.00047933655907 534.0 62.0 441.9504563233374 1.048173482289119 21.0 4.0 10.0 
168.00047933655907 537.0 62.0 441.9504563233374 1.204267745986775 21.0 4.0 10.0 
170.00047933655907 546.0 62.0 441.9504563233374 0.7517404934505588 21.0 4.0 10.0 
172.00047933655907 546.0 62.0 441.9504563233374 1.1102781963303279 21.0 4.0 10.0 
174.0004290227294 547.0 62.0 441.9504563233374 1.2633454997813371 21.0 4.0 10.0 
176.00047933655907 548.0 62.0 441.9504563233374 0.7552358474088963 21.0 4.0 10.0 
178.00047933655907 548.0 62.0 441.9504563233374 1.061755422853639 21.0 4.0 10.0 
180.00047933655907 548.0 62.0 441.9504563233374 1.2774850867949696 21.0 4.0 10.0 
182.00047933655907 548.0 62.0 441.9504563233374 0.7290339791017648 21.0 4.0 10.0 
184.0004290227294 549.0 62.0 444.95958279009096 1.0867166223029459 21.0 4.0 11.0 
186.00047933655907 550.0 62.0 444.949152542373 1.279570599846976 21.0 4.0 11.0 
188.00047933655907 553.0 62.0 441.9582790091266 0.818167968734754 21.0 4.0 10.0 
190.00047933655907 553.0 62.0 441.9582790091266 1.0674726030485837 22.0 3.0 11.0 
192.00047933655907 556.0 62.0 441.9582790091266 1.307440666405072 22.0 3.0 11.0 
194.0004290227294 556.0 62.0 441.96610169491527 0.7763410061460551 23.0 2.0 12.0 
196.00047933655907 556.0 62.0 441.96610169491527 1.0589178861894495 22.0 3.0 11.0 
198.00047933655907 560.0 62.0 441.955671447197 1.2432086360425278 22.0 3.0 11.0 
200.00047933655907 566.0 63.0 441.96610169491527 0.7905871134075252 23.0 2.0 12.0 
202.00047933655907 566.0 63.0 441.96610169491527 1.0172175952694293 23.0 2.0 12.0 
204.0004290227294 566.0 63.0 441.96610169491527 1.2574284914675748 23.0 2.0 12.0 
206.00047933655907 566.0 63.0 441.955671447197 0.76507858649264 21.0 4.0 10.0 
208.00047933655907 569.0 63.0 441.955671447197 1.0384551690678814 21.0 4.0 10.0 
210.00047933655907 569.0 63.0 441.955671447197 1.2633486859088858 21.0 4.0 10.0 
212.00047933655907 571.0 63.0 441.955671447197 0.868217479737139 21.0 4.0 10.0 
214.0004290227294 572.0 64.0 441.955671447197 1.1376995260130793 21.0 4.0 10.0 
216.00047933655907 572.0 64.0 441.955671447197 1.41990784948785 21.0 4.0 10.0 
218.00047933655907 572.0 64.0 441.955671447197 0.9932927115791792 20.0 4.0 10.0 
220.00047933655907 572.0 64.0 441.955671447197 1.3128453432225615 20.0 4.0 10.0 
222.00047933655907 572.0 64.0 441.955671447197 1.5452701169137826 20.0 4.0 10.0 
224.0004290227294 572.0 64.0 441.96088657105616 1.1695002759446382 20.0 4.0 10.0 
226.00047933655907 572.0 64.0 441.94784876140807 1.4594009367518392 20.0 4.0 10.0 
228.00047933655907 572.0 64.0 441.9426336375489 1.7481882075950312 21.0 4.0 10.0 
230.00047933655907 572.0 64.0 441.9426336375489 1.3239506063160211 21.0 4.0 10.0 
232.00047933655907 570.0 63.0 441.95306388526745 1.09164123133186 21.0 4.0 10.0 
234.0004290227294 570.0 63.0 441.95306388526745 1.2851961382260477 21.0 4.0 10.0 
236.00047933655907 570.0 63.0 441.9634941329855 0.8977940840084447 24.0 1.0 13.0 
238.00047933655907 570.0 63.0 441.9634941329855 1.2203762463619812 24.0 1.0 13.0 
240.00032218930465 570.0 63.0 441.9634941329855 1.4249030648147862 24.0 1.0 13.0 
242.00047933655907 569.0 63.0 441.9634941329855 1.0615468101670258 24.0 1.0 13.0 
244.0004290227294 567.0 63.0 441.9634941329855 1.3548111667815121 24.0 1.0 13.0 
246.00047933655907 564.0 63.0 441.9634941329855 1.5137039904774598 24.0 1.0 13.0 
248.00047933655907 568.0 64.0 441.9634941329855 1.1634683764993334 24.0 1.0 13.0 
250.00047933655907 568.0 64.0 441.9634941329855 1.4477163871571885 24.0 1.0 13.0 
252.00047933655907 558.0 64.0 438.98305084745766 1.6357386241980498 25.0 0.0 13.0 
254.0004290227294 548.0 64.0 438.9621903520212 1.070110658073311 23.0 0.0 13.0 
256.00047933655907 536.0 63.0 438.9569752281617 1.0025190492947025 22.0 0.0 13.0 
258.00047933655907 536.0 63.0 438.9569752281617 1.2059673897399619 22.0 0.0 13.0 
260.00047933655907 536.0 63.0 438.9569752281617 0.7998249801320805 21.0 1.0 12.0 
262.00047933655907 536.0 63.0 438.9569752281617 1.0536723668355046 21.0 1.0 12.0 
264.0004290227294 536.0 63.0 438.9569752281617 1.3081807583408005 21.0 1.0 12.0 
266.00047933655907 536.0 63.0 438.9569752281617 0.8515823773824176 20.0 2.0 11.0 
268.00047933655907 536.0 63.0 438.9569752281617 1.1824192209536828 20.0 2.0 11.0 
270.00047933655907 536.0 63.0 438.9569752281617 1.411508587039953 20.0 2.0 11.0 
272.00047933655907 538.0 63.0 438.9465449804432 1.0302918406321553 18.0 4.0 9.0 
274.0004290227294 538.0 63.0 438.9465449804432 1.3097802529766047 18.0 4.0 9.0 
276.00047933655907 538.0 63.0 438.9465449804432 1.589929670122926 18.0 4.0 9.0 
278.00047933655907 537.0 63.0 438.9465449804432 1.01608451520866 18.0 4.0 9.0 
280.00047933655907 536.0 63.0 438.9465449804432 1.2717844020728435 18.0 4.0 9.0 
282.00047933655907 536.0 63.0 438.9465449804432 1.4880532553386008 18.0 4.0 9.0 
284.0004290227294 536.0 63.0 435.95567144719695 1.0952203164135377 17.0 4.0 8.0 
286.00047933655907 536.0 63.0 432.97001303780957 1.3618882159374746 17.0 4.0 7.0 
288.00047933655907 535.0 63.0 432.9647979139506 1.331852365265926 17.0 4.0 7.0 
290.00047933655907 534.0 62.0 432.9647979139506 0.7031296898634465 17.0 4.0 7.0 
292.00047933655907 534.0 62.0 432.9647979139506 1.041017216920086 17.0 4.0 7.0 
294.0004290227294 534.0 62.0 432.9647979139506 1.2612597520956759 17.0 4.0 7.0 
296.00047933655907 534.0 62.0 432.9647979139506 0.8263938715691866 17.0 4.0 7.0 
298.00047933655907 534.0 62.0 432.9647979139506 1.1125582300195407 17.0 4.0 7.0 
300.00047933655907 534.0 62.0 432.9647979139506 1.384523933801416 17.0 4.0 7.0 
302.00047933655907 534.0 62.0 432.9647979139506 0.8979348846686411 17.0 4.0 7.0 
304.0004290227294 534.0 62.0 432.9647979139506 1.235822411725281 17.0 4.0 7.0 
306.00047933655907 536.0 62.0 432.9647979139506 1.4398759632258693 17.0 4.0 7.0 
308.00047933655907 538.0 63.0 432.9647979139506 1.0133635063948314 17.0 4.0 7.0 
310.00047933655907 538.0 63.0 432.9647979139506 1.295859091018899 17.0 4.0 7.0 
312.00047933655907 536.0 62.0 432.9647979139506 1.1956475937679132 17.0 4.0 7.0 
314.0004290227294 536.0 62.0 432.9647979139506 0.6765910121676058 17.0 4.0 7.0 
316.00047933655907 536.0 62.0 432.9647979139506 0.9820110067567129 17.0 4.0 7.0 
318.00047933655907 536.0 62.0 432.9647979139506 1.1697860094647703 17.0 4.0 7.0 
320.00047933655907 536.0 62.0 432.9647979139506 0.7024525964707486 17.0 4.0 7.0 
322.00047933655907 536.0 62.0 432.9647979139506 0.9561494224535703 17.0 4.0 7.0 
324.0004290227294 538.0 62.0 432.9647979139506 1.1838424135388979 17.0 4.0 7.0 
326.00047933655907 540.0 63.0 432.9647979139506 0.6842499265911244 17.0 4.0 7.0 
328.00047933655907 540.0 63.0 432.9647979139506 1.0287777031257677 17.0 4.0 7.0 
330.00047933655907 540.0 63.0 432.9647979139506 1.256880376739277 17.0 4.0 7.0 
332.00047933655907 542.0 63.0 432.9647979139506 0.848079756417568 17.0 4.0 7.0 
334.0004290227294 543.0 64.0 432.9647979139506 1.1767028040908722 17.0 4.0 7.0 
336.00047933655907 543.0 64.0 432.9647979139506 1.4986671624019796 17.0 4.0 7.0 
338.00047933655907 544.0 64.0 432.9647979139506 1.0917001764502132 17.0 4.0 7.0 
340.00047933655907 544.0 64.0 432.9647979139506 1.477130238626599 17.0 4.0 7.0 
342.00047933655907 548.0 65.0 435.97131681877465 1.7163573651964061 18.0 4.0 8.0 
344.0004290227294 550.0 65.0 435.9556714471971 1.3477528679484798 18.0 4.0 8.0 
346.00047933655907 550.0 65.0 435.9556714471971 1.675182024813229 19.0 4.0 8.0 
348.00047933655907 547.0 64.0 435.9556714471971 1.6547111633198415 19.0 4.0 8.0 
350.00047933655907 562.0 65.0 435.9556714471971 1.108515847521109 20.0 4.0 8.0 
352.00047933655907 576.0 67.0 435.9556714471971 1.4708089891285547 21.0 4.0 8.0 
354.0004290227294 574.0 66.0 435.9556714471971 1.2165263788013612 21.0 4.0 8.0 
356.00047933655907 574.0 66.0 435.9556714471971 0.840140889484442 20.0 4.0 8.0 
358.00047933655907 574.0 66.0 435.960886571056 1.1621523727159688 17.0 4.0 8.0 
360.00047933655907 574.0 66.0 438.9647979139505 1.4850993897490996 19.0 4.0 9.0 
362.00047933655907 574.0 66.0 438.9517601043024 1.0684220724773785 19.0 4.0 9.0 
364.0004290227294 574.0 66.0 438.9465449804434 1.4481396506870279 20.0 4.0 9.0 
366.00047933655907 574.0 66.0 438.9465449804434 1.7322557814015256 20.0 4.0 9.0 
368.00047933655907 574.0 66.0 438.9517601043024 1.4374114188641927 20.0 4.0 9.0 
370.00047933655907 582.0 67.0 438.949152542373 1.8030066866937446 19.0 4.0 9.0 
372.00047933655907 585.0 68.0 438.9543676662319 2.0725143331810285 19.0 4.0 9.0 
374.0004290227294 582.0 68.0 438.9543676662319 1.6984602586482305 18.0 4.0 9.0 
376.00047933655907 589.0 68.0 438.9543676662319 1.898983044297529 18.0 4.0 9.0 
378.00047933655907 581.0 68.0 438.959582790091 2.029375682000656 18.0 4.0 9.0 
380.00047933655907 573.0 68.0 441.9739243807042 1.857543249882583 19.0 4.0 10.0 
382.00047933655907 573.0 68.0 441.9374185136898 2.2091631590690115 23.0 4.0 10.0 
384.0004290227294 585.0 70.0 450.949152542373 2.3304661531387287 24.0 4.0 13.0 
386.00047933655907 585.0 70.0 453.9530638852672 2.186743844659082 24.0 4.0 14.0 
388.00047933655907 583.0 70.0 453.96349413298555 2.6060308356705786 24.0 4.0 14.0 
390.00047933655907 568.0 69.0 453.9556714471971 2.3739590940457194 24.0 4.0 14.0 
392.00047933655907 554.0 67.0 459.9478487614081 1.6054918413231085 25.0 4.0 16.0 
394.0004290227294 548.0 66.0 459.9556714471971 1.5949176634801507 28.0 4.0 16.0 
396.00047933655907 558.0 66.0 462.9908735332464 1.3946813978568395 29.0 4.0 17.0 
398.00047933655907 558.0 66.0 462.97522816166855 1.1071439577363993 29.0 4.0 17.0 
400.00047933655907 558.0 66.0 462.9387222946544 1.4365704586779406 29.0 4.0 17.0 
402.00047933655907 556.0 66.0 462.93089960886573 1.2527601615770774 28.0 4.0 17.0 
404.0004290227294 554.0 65.0 459.9661016949153 0.9196338821309509 27.0 4.0 16.0 
406.00047933655907 562.0 66.0 459.96870925684476 1.1746379358106285 27.0 4.0 16.0 
408.00047933655907 562.0 66.0 459.93481095176 1.2929819228062853 27.0 4.0 16.0 
410.00047933655907 562.0 66.0 459.92177314211204 1.0891203939612168 27.0 4.0 16.0 
412.00047933655907 562.0 66.0 459.94002607561936 1.3687587080960986 27.0 4.0 16.0 
414.0004290227294 556.0 66.0 459.94263363754874 1.2254177905806523 27.0 4.0 16.0 
416.00047933655907 556.0 66.0 459.94002607561936 1.0864301108458843 28.0 4.0 16.0 
418.00047933655907 556.0 66.0 459.960886571056 1.3472010171478626 28.0 4.0 16.0 
420.00047933655907 556.0 66.0 456.9595827900912 1.5123251687706696 27.0 4.0 15.0 
422.00047933655907 556.0 66.0 456.9595827900912 1.3723710819952557 27.0 4.0 15.0 
424.0004290227294 554.0 66.0 456.9830508474576 1.644549542681831 27.0 4.0 15.0 
426.00047933655907 556.0 66.0 456.94132985658416 1.58343175606723 27.0 4.0 15.0 
428.00047933655907 556.0 66.0 456.95176010430237 1.761009287435151 27.0 4.0 15.0 
430.00047933655907 556.0 66.0 456.936114732725 2.1445989561586205 27.0 4.0 15.0 
432.00047933655907 555.0 66.0 456.9282920469363 2.021050197305994 27.0 4.0 15.0 
434.0004290227294 546.0 65.0 456.9387222946545 1.9769367712915145 27.0 4.0 15.0 
436.00047933655907 547.0 65.0 456.93350717079517 1.99426974310807 27.0 4.0 15.0 
438.00047933655907 546.0 67.0 456.93350717079517 1.985317149907027 27.0 4.0 15.0 
440.00047933655907 538.0 66.0 456.94132985658416 2.0067785344810525 28.0 4.0 15.0 
442.00047933655907 546.0 67.0 456.9282920469363 1.7128473382847635 28.0 4.0 15.0 
444.0004290227294 545.0 67.0 456.90743155149954 2.2155987368703522 28.0 4.0 15.0 
446.00047933655907 529.0 65.0 456.90743155149954 2.0792241834844063 28.0 4.0 15.0 
448.00047933655907 524.0 65.0 456.8917861799217 1.7568042959497905 29.0 4.0 15.0 
450.00047933655907 524.0 65.0 456.8917861799217 2.164160915746761 29.0 4.0 15.0 
452.00047933655907 510.0 64.0 456.8917861799217 1.506935300272992 29.0 4.0 15.0 
454.0004290227294 508.0 64.0 456.8917861799217 1.7661023625031302 29.0 4.0 15.0 
456.00047933655907 508.0 64.0 456.8917861799217 1.6958589242480644 29.0 4.0 15.0 
458.00047933655907 508.0 64.0 459.89569752281614 1.9749619698952274 29.0 4.0 16.0 
460.00047933655907 508.0 64.0 456.89960886571055 2.3605101644765627 29.0 4.0 15.0 
462.00047933655907 500.0 63.0 456.89960886571055 1.7207993064191753 27.0 4.0 15.0 
464.0004290227294 472.0 61.0 453.90873533246423 1.1629922263295667 25.0 4.0 14.0 
466.00047933655907 472.0 61.0 453.90873533246423 0.894815236652577 25.0 4.0 14.0 
468.00047933655907 472.0 61.0 450.92046936114724 1.1309860872476236 25.0 4.0 13.0 
470.00047933655907 472.0 61.0 450.910039113429 1.4222166039487325 25.0 4.0 13.0 
472.00047933655907 476.0 62.0 450.910039113429 1.063214064542612 25.0 4.0 13.0 
474.0004290227294 476.0 62.0 450.910039113429 1.3583133043886142 25.0 4.0 13.0 
476.00047933655907 481.0 62.0 450.910039113429 0.768693059278619 24.0 4.0 13.0 
478.00047933655907 486.0 63.0 450.91525423728797 0.9543940336138452 24.0 4.0 13.0 
480.00047933655907 490.0 63.0 450.910039113429 1.311426089536239 24.0 4.0 13.0 
482.00047933655907 490.0 63.0 450.910039113429 0.9937053357613255 23.0 4.0 13.0 
484.0004290227294 490.0 63.0 447.91916558018266 1.388776586744422 22.0 4.0 12.0 
486.00047933655907 490.0 63.0 447.91916558018266 1.1128953060049462 23.0 4.0 12.0 
488.00047933655907 488.0 63.0 447.94002607561936 1.324338069449422 23.0 4.0 12.0 
490.00047933655907 491.0 63.0 450.9282920469363 1.6450794737814722 25.0 4.0 13.0 
492.00047933655907 497.0 64.0 453.9269882659714 1.3651677621481932 25.0 4.0 14.0 
494.0004290227294 496.0 64.0 456.93089960886573 1.7127568607488586 25.0 4.0 15.0 
496.00047933655907 496.0 64.0 456.936114732725 1.5247009391010102 26.0 4.0 15.0 
498.00047933655907 488.0 63.0 456.92307692307685 1.3594897744059813 26.0 4.0 15.0 
500.00047933655907 488.0 63.0 453.94784876140824 1.7361140652681486 25.0 4.0 14.0 
502.00047933655907 484.0 62.0 450.9700130378096 1.0352058889676576 24.0 4.0 13.0 
504.0004290227294 494.0 63.0 450.95176010430237 1.3872556637792728 24.0 4.0 13.0 
506.00047933655907 501.0 63.0 447.96870925684493 1.2262256049773126 22.0 4.0 12.0 
508.00047933655907 502.0 63.0 447.960886571056 1.411333664711441 22.0 4.0 12.0 
510.00047933655907 496.0 63.0 447.93481095176 1.523737035704184 22.0 4.0 12.0 
512.000479336559 496.0 63.0 447.94524119947835 1.1725787953861662 22.0 4.0 12.0 
514.0004290227293 496.0 63.0 447.93481095176 1.4887305728764995 22.0 4.0 12.0 
516.000479336559 496.0 63.0 447.94002607561936 1.4368855559146387 22.0 4.0 12.0 
518.000479336559 490.0 61.0 447.93741851368975 1.0569219020993286 22.0 4.0 12.0 
520.000479336559 488.0 61.0 447.9322033898304 1.1068542653156686 22.0 4.0 12.0 
522.000479336559 488.0 61.0 447.9269882659714 0.7096209996585519 22.0 4.0 12.0 
524.0004290227293 488.0 61.0 447.9269882659714 1.0866685046464726 22.0 4.0 12.0 
526.000479336559 488.0 61.0 444.936114732725 1.0162204526984207 21.0 4.0 11.0 
528.000479336559 488.0 61.0 444.94393741851366 1.1412210286657285 21.0 4.0 11.0 
530.000479336559 488.0 61.0 444.96219035202074 1.5070253750325757 20.0 4.0 11.0 
532.000479336559 488.0 61.0 444.94132985658405 1.2334270148032305 20.0 4.0 11.0 
534.0004290227293 488.0 61.0 444.94132985658405 1.6206096818094264 20.0 4.0 11.0 
536.000479336559 488.0 61.0 444.94132985658405 1.6299259509845199 20.0 4.0 11.0 
538.000479336559 488.0 61.0 444.95176010430237 1.733742735030715 20.0 4.0 11.0 
540.000479336559 488.0 61.0 444.936114732725 2.174027855139365 20.0 4.0 11.0 
542.000479336559 479.0 60.0 444.936114732725 1.4557242971140782 20.0 4.0 11.0 
544.0004290227293 476.0 60.0 444.936114732725 1.7360903990824892 20.0 4.0 11.0 
546.000479336559 474.0 60.0 444.936114732725 1.645390191004802 20.0 4.0 11.0 
548.000479336559 468.0 59.0 444.9387222946546 1.2124339172849787 20.0 4.0 11.0 
550.000479336559 468.0 59.0 444.9282920469363 1.5656295362617165 20.0 4.0 11.0 
552.000479336559 466.0 59.0 444.9282920469363 0.9409010216772122 20.0 4.0 11.0 
554.0004290227293 464.0 58.0 444.9282920469363 1.0975952720492563 20.0 4.0 11.0 
556.000479336559 464.0 58.0 444.9282920469363 1.0295269399184244 20.0 4.0 11.0 
558.000479336559 464.0 58.0 444.9335071707952 1.059886646932543 20.0 4.0 11.0 
560.000479336559 464.0 58.0 441.9374185136898 1.440739202601275 19.0 4.0 10.0 
562.000479336559 466.0 59.0 438.9465449804435 0.9822281052387543 19.0 4.0 9.0 
564.0004290227293 466.0 59.0 435.9556714471972 1.3532972925649922 18.0 4.0 8.0 
566.000479336559 466.0 59.0 435.9556714471972 1.2270378784631124 18.0 4.0 8.0 
568.000479336559 466.0 59.0 435.960886571056 1.3069728038654027 18.0 4.0 8.0 
570.000479336559 465.0 59.0 435.9556714471972 1.3424213054878995 17.0 4.0 8.0 
572.000479336559 468.0 60.0 432.9647979139506 0.6355736170170603 16.0 4.0 7.0 
574.0004290227293 468.0 60.0 432.9647979139506 0.9031685480460018 16.0 4.0 7.0 
576.000479336559 468.0 60.0 432.9647979139506 0.8193271735945199 16.0 4.0 7.0 
578.000479336559 470.0 61.0 432.97001303780957 0.8215498567324016 16.0 4.0 7.0 
580.000479336559 470.0 61.0 432.9647979139506 1.164813681401025 16.0 4.0 7.0 
582.000479336559 470.0 61.0 432.9647979139506 0.7507381767972696 16.0 4.0 7.0 
584.0004290227293 470.0 61.0 432.9647979139506 1.094002001465893 16.0 4.0 7.0 
586.000479336559 470.0 61.0 432.9647979139506 0.9595686168680346 16.0 4.0 7.0 
588.000479336559 470.0 61.0 432.97001303780957 1.0231903215307612 16.0 4.0 7.0 
590.000479336559 470.0 61.0 432.9647979139506 1.3140504095851218 16.0 4.0 7.0 
592.000479336559 470.0 61.0 432.9647979139506 0.952378641595629 16.0 4.0 7.0 
594.0004290227293 470.0 61.0 435.95567144719695 1.2529841004502817 17.0 4.0 8.0 
596.000479336559 468.0 60.0 435.95567144719695 0.783945476646868 20.0 4.0 8.0 
598.000479336559 472.0 61.0 435.9608865710563 0.7546261694216952 20.0 4.0 8.0 
600.000479336559 472.0 61.0 435.95567144719695 1.0628022747920731 20.0 4.0 8.0 
602.000479336559 472.0 61.0 435.95567144719695 0.6136390508900721 20.0 4.0 8.0 
604.0004290227293 472.0 61.0 435.95567144719695 0.9218151562604499 20.0 4.0 8.0 
606.000479336559 472.0 61.0 435.95567144719695 0.7522940523643461 20.0 4.0 8.0 
608.000479336559 472.0 61.0 435.9608865710563 0.7808280377288267 20.0 4.0 8.0 
610.000479336559 472.0 61.0 435.95567144719695 1.0366004064849417 20.0 4.0 8.0 
612.000479336559 472.0 61.0 435.95567144719695 0.6617707437586071 20.0 4.0 8.0 
614.0004290227293 472.0 61.0 435.95567144719695 0.9394729370761254 20.0 4.0 8.0 
616.000479336559 472.0 61.0 435.95567144719695 0.8442853943556881 20.0 4.0 8.0 
618.000479336559 472.0 61.0 435.9608865710563 0.7546261694216952 20.0 4.0 8.0 
620.000479336559 472.0 61.0 435.95567144719695 1.0628022747920731 20.0 4.0 8.0 
622.000479336559 472.0 61.0 435.95567144719695 0.6732935308836451 20.0 4.0 8.0 
624.0004290227293 472.0 61.0 435.95567144719695 1.0472591099382336 20.0 4.0 8.0 
626.000479336559 472.0 61.0 435.95567144719695 0.94352747972634 20.0 4.0 8.0 
628.000479336559 472.0 61.0 435.95567144719695 1.0030098604088877 20.0 4.0 8.0 
630.000479336559 472.0 61.0 435.95567144719695 1.355273457235178 20.0 4.0 8.0 
632.000479336559 472.0 61.0 435.95567144719695 1.0550051980176156 20.0 4.0 8.0 
634.0004290227293 472.0 61.0 435.95567144719695 1.4072687948439058 20.0 4.0 8.0 
636.000479336559 472.0 61.0 435.95567144719695 1.3866426556322402 20.0 4.0 8.0 
638.000479336559 472.0 61.0 435.95567144719695 1.4589681633341112 20.0 4.0 8.0 
640.000479336559 474.0 62.0 435.95567144719695 1.8307479470498391 20.0 4.0 8.0 
642.000479336559 473.0 62.0 435.95567144719695 1.427013015593025 20.0 4.0 8.0 
644.0004290227293 470.0 61.0 435.95567144719695 1.4965538695304095 20.0 4.0 8.0 
646.000479336559 470.0 61.0 435.95567144719695 1.4279099586167616 20.0 4.0 8.0 
648.000479336559 470.0 61.0 435.95567144719695 1.2709370027865279 20.0 4.0 8.0 
650.000479336559 470.0 60.0 435.95567144719695 1.2778874528207285 20.0 4.0 8.0 
652.000479336559 494.0 61.0 435.95567144719695 0.908430767151967 20.0 4.0 8.0 
654.0004290227293 494.0 61.0 435.95567144719695 1.210645632896905 20.0 4.0 8.0 
656.000479336559 494.0 61.0 435.95567144719695 1.3543261304812821 20.0 4.0 8.0 
658.000479336559 496.0 61.0 435.9608865710563 1.141212536036003 20.0 4.0 8.0 
660.000479336559 497.0 61.0 435.95567144719695 1.5427801431085186 20.0 4.0 8.0 
662.000479336559 497.0 60.0 435.95567144719695 1.5737460943659967 20.0 4.0 8.0 
664.0004290227293 498.0 60.0 435.95567144719695 1.0058293653127857 20.0 4.0 8.0 
#####################################################################
# End of data export. Simulation finished at: 2019-03-10T17:49+0000 #
#####################################################################
