#####################################################################
# Alchemist log file - simulation started at: 2019-03-06T06:59+0000 #
#####################################################################
# seed = 6.0, bandwidth = 5623413.251903491, accessPointCount = 531.8295896944988, baserange = 10.0
#
# The columns have the following meaning: 
# time neighbor_count[Sum] <value>@neighbor_count[Sum] packet_size[Mean] mean_delay[Mean] crowd[Sum] overcrowded[Sum] risk[Sum] 
0.0 NaN NaN NaN NaN NaN NaN NaN 
2.0002343446952833 24.0 15.0 4981.984220907298 0.4991131720582136 1497.0 0.0 1497.0 
4.000234344695283 24.0 15.0 4982.10650887574 0.4991092302055214 1497.0 0.0 1497.0 
6.000234344695284 24.0 15.0 4981.9802761341225 0.4991112159508625 1497.0 0.0 1497.0 
8.000234344695283 24.0 15.0 4981.92899408284 0.49911246074644977 1497.0 0.0 1497.0 
10.000234344695283 24.0 15.0 4981.92899408284 0.49911246074644966 1497.0 0.0 1497.0 
12.000234344695283 24.0 15.0 4981.92899408284 0.49911246074644966 1497.0 0.0 1497.0 
14.000234344695283 24.0 15.0 4981.92899408284 0.49911246074644966 1497.0 0.0 1497.0 
16.000234344695283 24.0 15.0 4981.92899408284 0.49911246074644966 1497.0 0.0 1497.0 
18.000234344695283 24.0 15.0 4981.92899408284 0.49911246074644966 1497.0 0.0 1497.0 
20.000234344695283 24.0 15.0 4981.92899408284 0.49911246074644966 1497.0 0.0 1497.0 
22.000234344695283 24.0 15.0 4981.92899408284 0.49911246074644966 1497.0 0.0 1497.0 
24.000234344695283 24.0 15.0 4981.92899408284 0.49911246074644966 1497.0 0.0 1497.0 
26.000234344695283 24.0 15.0 4981.92899408284 0.49911246074644966 1497.0 0.0 1497.0 
28.000234344695283 24.0 15.0 4981.92899408284 0.49911246074644966 1497.0 0.0 1497.0 
30.000234344695283 24.0 15.0 4981.92899408284 0.49911246074644966 1497.0 0.0 1497.0 
32.000234344695286 24.0 15.0 4981.92899408284 0.49911246074644966 1497.0 0.0 1497.0 
34.000234344695286 24.0 15.0 4981.92899408284 0.4991124607464519 1497.0 0.0 1497.0 
36.000234344695286 24.0 15.0 4981.92899408284 0.4991124607464519 1497.0 0.0 1497.0 
38.000234344695286 24.0 15.0 4981.92899408284 0.4991124607464519 1497.0 0.0 1497.0 
40.000234344695286 24.0 15.0 4981.92899408284 0.4991124607464519 1497.0 0.0 1497.0 
42.000234344695286 24.0 15.0 4981.92899408284 0.4991124607464519 1497.0 0.0 1497.0 
44.000234344695286 24.0 15.0 4981.92899408284 0.4991124607464519 1497.0 0.0 1497.0 
46.000234344695286 24.0 15.0 4981.92899408284 0.4991124607464519 1497.0 0.0 1497.0 
48.000234344695286 24.0 15.0 4981.92899408284 0.4991124607464519 1497.0 0.0 1497.0 
50.000234344695286 24.0 15.0 4981.92899408284 0.4991124607464519 1497.0 0.0 1497.0 
52.000234344695286 24.0 15.0 4981.92899408284 0.4991124607464519 1497.0 0.0 1497.0 
54.000234344695286 24.0 15.0 4981.92899408284 0.4991124607464519 1497.0 0.0 1497.0 
56.000234344695286 24.0 15.0 4981.92899408284 0.4991124607464519 1497.0 0.0 1497.0 
58.000234344695286 24.0 15.0 4981.92899408284 0.4991124607464519 1497.0 0.0 1497.0 
60.000234344695286 24.0 15.0 4981.92899408284 0.4991124607464519 1497.0 0.0 1497.0 
62.001304213596484 24.0 15.0 400.0 0.4998607014462104 9.0 0.0 0.0 
64.00130421359648 24.0 15.0 400.0 0.499928868823595 9.0 0.0 0.0 
66.00130421359648 24.0 15.0 400.0 0.4999288688236021 9.0 0.0 0.0 
68.00130421359648 24.0 15.0 400.0 0.4999288688236021 9.0 0.0 0.0 
70.00130421359648 24.0 15.0 400.0 0.4999288688236021 4.0 0.0 0.0 
72.00130421359648 24.0 15.0 400.0 0.4999288688236021 4.0 0.0 0.0 
74.00130421359648 24.0 15.0 400.0 0.4999288688236021 3.0 0.0 0.0 
76.00130421359648 24.0 15.0 400.0 0.4999288688236021 2.0 0.0 0.0 
78.00130421359648 26.0 16.0 400.0 0.4890471570707044 2.0 0.0 0.0 
80.00130421359648 26.0 16.0 400.0 0.4890471570707044 1.0 0.0 0.0 
82.00130421359648 26.0 16.0 400.0 0.4890471570707044 1.0 0.0 0.0 
84.00130421359648 26.0 16.0 400.0 0.4890471570707044 1.0 0.0 0.0 
86.00130421359648 26.0 16.0 400.0 0.4890471570707044 0.0 0.0 0.0 
88.00130421359648 28.0 16.0 400.0 0.49992033308243267 0.0 0.0 0.0 
90.00130421359648 28.0 16.0 400.0 0.49992033308243267 0.0 0.0 0.0 
92.00130421359648 28.0 16.0 400.0 0.49992033308243267 0.0 0.0 0.0 
94.00130421359648 28.0 16.0 400.0 0.49992033308243267 0.0 0.0 0.0 
96.00130421359648 28.0 16.0 400.0 0.49992033308243267 0.0 0.0 0.0 
98.00130421359648 28.0 16.0 400.0 0.49992033308243267 0.0 0.0 0.0 
100.00130421359648 28.0 16.0 400.0 0.49992033308243267 0.0 0.0 0.0 
102.00130421359648 28.0 16.0 400.0 0.49992033308243267 0.0 0.0 0.0 
104.00130421359648 28.0 16.0 400.0 0.49992033308243267 0.0 0.0 0.0 
106.00130421359648 28.0 16.0 400.0 0.49992033308243267 0.0 0.0 0.0 
108.00130421359648 28.0 16.0 400.0 0.49992033308243267 0.0 0.0 0.0 
110.00130421359648 28.0 16.0 400.0 0.49992033308243267 0.0 0.0 0.0 
112.00130421359648 28.0 16.0 400.0 0.49992033308243267 0.0 0.0 0.0 
114.00130421359648 28.0 16.0 400.0 0.49992033308243267 0.0 0.0 0.0 
116.00130421359648 28.0 16.0 400.0 0.49992033308243267 0.0 0.0 0.0 
118.00130421359648 28.0 16.0 400.0 0.49992033308243267 0.0 0.0 0.0 
120.00130421359648 28.0 16.0 400.0 0.49992033308243267 0.0 0.0 0.0 
122.00130421359648 28.0 16.0 400.0 0.49992033308243267 0.0 0.0 0.0 
124.00130421359648 28.0 16.0 400.0 0.49992033308243267 0.0 0.0 0.0 
126.00130421359648 28.0 16.0 400.0 0.49992033308243267 0.0 0.0 0.0 
128.00130421359648 28.0 16.0 400.0 0.49992033308243267 0.0 0.0 0.0 
130.00130421359648 28.0 16.0 400.0 0.49992033308242184 0.0 0.0 0.0 
132.00130421359648 28.0 16.0 400.0 0.49992033308242184 0.0 0.0 0.0 
134.00130421359648 28.0 16.0 400.0 0.49992033308242184 0.0 0.0 0.0 
136.00130421359648 28.0 16.0 400.0 0.49992033308242184 0.0 0.0 0.0 
138.00130421359648 28.0 16.0 400.0 0.49992033308242184 0.0 0.0 0.0 
140.00130421359648 28.0 16.0 400.0 0.49992033308242184 0.0 0.0 0.0 
142.00130421359648 28.0 16.0 400.0 0.49992033308242184 0.0 0.0 0.0 
144.00130421359648 28.0 16.0 400.0 0.49992033308242184 0.0 0.0 0.0 
146.00130421359648 28.0 16.0 400.0 0.49992033308242184 0.0 0.0 0.0 
148.00130421359648 28.0 16.0 400.0 0.49992033308242184 0.0 0.0 0.0 
150.00130421359648 28.0 16.0 400.0 0.49992033308242184 0.0 0.0 0.0 
152.00130421359648 28.0 16.0 400.0 0.49992033308242184 0.0 0.0 0.0 
154.00130421359648 28.0 16.0 400.0 0.49992033308242184 0.0 0.0 0.0 
156.00130421359648 28.0 16.0 400.0 0.49992033308242184 0.0 0.0 0.0 
158.00130421359648 28.0 16.0 400.0 0.6199231783294772 0.0 0.0 0.0 
160.00130421359648 24.0 15.0 400.0 0.4999288688235879 0.0 0.0 0.0 
162.00130421359648 24.0 15.0 400.0 0.4999288688235879 0.0 0.0 0.0 
164.00130421359648 24.0 15.0 400.0 0.4999288688235879 0.0 0.0 0.0 
166.00130421359648 24.0 15.0 400.0 0.4999288688235879 0.0 0.0 0.0 
168.00130421359648 24.0 15.0 400.0 0.4999288688235879 0.0 0.0 0.0 
170.00130421359648 24.0 15.0 400.0 0.4999288688235879 0.0 0.0 0.0 
172.00130421359648 24.0 15.0 400.0 0.4999288688235879 0.0 0.0 0.0 
174.00130421359648 24.0 15.0 400.0 0.4999288688235879 0.0 0.0 0.0 
176.00130421359648 24.0 15.0 400.0 0.4999288688235879 0.0 0.0 0.0 
178.00130421359648 24.0 15.0 400.0 0.4999288688235879 0.0 0.0 0.0 
180.00130421359648 24.0 15.0 400.0 0.4999288688235879 0.0 0.0 0.0 
182.00130421359648 24.0 15.0 400.0 0.4999288688235879 0.0 0.0 0.0 
184.00130421359648 24.0 15.0 400.0 0.4999288688235879 0.0 0.0 0.0 
186.00130421359648 24.0 15.0 400.0 0.4999288688235879 0.0 0.0 0.0 
188.00130421359648 24.0 15.0 400.0 0.4999288688235879 0.0 0.0 0.0 
190.00130421359648 25.0 16.0 400.0 0.4839543055134106 0.0 0.0 0.0 
192.00130421359648 26.0 16.0 400.0 0.4999288688235879 0.0 0.0 0.0 
194.00130421359648 26.0 16.0 400.0 0.4999288688235879 0.0 0.0 0.0 
196.00130421359648 26.0 16.0 400.0 0.4999288688235879 0.0 0.0 0.0 
198.00130421359648 26.0 16.0 400.0 0.4999288688235879 0.0 0.0 0.0 
200.00130421359648 26.0 16.0 400.0 0.5383904072851263 0.0 0.0 0.0 
202.00130421359648 25.0 15.0 400.0 0.5959034321337652 0.0 0.0 0.0 
204.00130421359648 24.0 15.0 400.0 0.4999288688235879 0.0 0.0 0.0 
206.00130421359648 24.0 15.0 400.0 0.4999288688235879 0.0 0.0 0.0 
208.00130421359648 24.0 15.0 400.0 0.4999288688235879 0.0 0.0 0.0 
210.00130421359648 24.0 15.0 400.0 0.4999288688235879 0.0 0.0 0.0 
212.00130421359648 24.0 15.0 400.0 0.4999288688235879 0.0 0.0 0.0 
214.00130421359648 24.0 15.0 400.0 0.4999288688235879 0.0 0.0 0.0 
216.00130421359648 24.0 15.0 400.0 0.4999288688235879 0.0 0.0 0.0 
218.00130421359648 24.0 15.0 400.0 0.4999288688235879 0.0 0.0 0.0 
220.00130421359648 24.0 15.0 400.0 0.4999288688235879 0.0 0.0 0.0 
222.00130421359648 24.0 15.0 400.0 0.4999288688235879 0.0 0.0 0.0 
224.00130421359648 24.0 15.0 400.0 0.4999288688235879 0.0 0.0 0.0 
226.00130421359648 24.0 15.0 400.0 0.4999288688235879 0.0 0.0 0.0 
228.00130421359648 24.0 15.0 400.0 0.4999288688235879 0.0 0.0 0.0 
230.00130421359648 24.0 15.0 400.0 0.4999288688235879 0.0 0.0 0.0 
232.00130421359648 24.0 15.0 400.0 0.4999288688235879 0.0 0.0 0.0 
234.00130421359648 24.0 15.0 400.0 0.4999288688235879 0.0 0.0 0.0 
236.00130421359648 24.0 15.0 400.0 0.4999288688235879 0.0 0.0 0.0 
238.00130421359648 24.0 15.0 400.0 0.4999288688235879 0.0 0.0 0.0 
240.00130421359648 24.0 15.0 400.0 0.4999288688235879 0.0 0.0 0.0 
242.00130421359648 24.0 15.0 400.0 0.4999288688235879 0.0 0.0 0.0 
244.00130421359648 24.0 15.0 400.0 0.4999288688235879 0.0 0.0 0.0 
246.00130421359648 24.0 15.0 400.0 0.4999288688235879 0.0 0.0 0.0 
248.00130421359648 24.0 15.0 400.0 0.4999288688235879 0.0 0.0 0.0 
250.00130421359648 24.0 15.0 400.0 0.4999288688235879 0.0 0.0 0.0 
252.00130421359648 26.0 16.0 400.0 0.4999288688235879 0.0 0.0 0.0 
254.00130421359648 26.0 16.0 400.0 0.4999288688235879 0.0 0.0 0.0 
256.0013042135965 26.0 16.0 400.0 0.4999288688235879 0.0 0.0 0.0 
258.0013042135965 27.0 16.0 400.0 0.4859285528346525 0.0 0.0 0.0 
260.0013042135965 28.0 17.0 400.0 0.4999288688235879 0.0 0.0 0.0 
262.0013042135965 28.0 17.0 400.0 0.607071725966445 0.0 0.0 0.0 
264.0013042135965 26.0 16.0 400.0 0.4999288688235879 0.0 0.0 0.0 
266.0013042135965 26.0 16.0 400.0 0.4999288688235879 0.0 0.0 0.0 
268.0013042135965 26.0 16.0 400.0 0.4999288688235879 0.0 0.0 0.0 
270.0013042135965 26.0 16.0 400.0 0.4999288688235879 0.0 0.0 0.0 
272.0013042135965 26.0 16.0 400.0 0.4999288688235879 0.0 0.0 0.0 
274.0013042135965 26.0 16.0 400.0 0.4999288688235879 0.0 0.0 0.0 
276.0013042135965 26.0 16.0 400.0 0.4999288688235879 0.0 0.0 0.0 
278.0013042135965 26.0 16.0 400.0 0.4999288688235879 0.0 0.0 0.0 
280.0013042135965 27.0 17.0 400.0 0.49953045632111703 0.0 0.0 0.0 
282.0013042135965 29.0 17.0 400.0 0.4841200943828038 0.0 0.0 0.0 
284.0013042135965 30.0 18.0 400.0 0.4999288688235879 0.0 0.0 0.0 
286.0013042135965 30.0 18.0 400.0 0.4999288688235879 0.0 0.0 0.0 
288.0013042135965 30.0 18.0 400.0 0.5332622021569212 0.0 0.0 0.0 
290.0013042135965 29.0 18.0 400.0 0.6164119216408726 0.0 0.0 0.0 
292.0013042135965 29.0 17.0 400.0 0.6037480804638194 0.0 0.0 0.0 
294.0013042135965 27.0 17.0 400.0 0.5909827376673931 0.0 0.0 0.0 
296.0013042135965 26.0 16.0 400.0 0.4999288688235879 0.0 0.0 0.0 
298.0013042135965 26.0 16.0 400.0 0.4999288688235879 0.0 0.0 0.0 
300.0013042135965 26.0 16.0 400.0 0.4999288688235879 0.0 0.0 0.0 
302.0013042135965 27.0 16.0 400.0 0.5939983922386739 0.0 0.0 0.0 
304.0013042135965 26.0 16.0 400.0 0.4999288688235879 0.0 0.0 0.0 
306.0013042135965 26.0 16.0 400.0 0.4999288688235879 0.0 0.0 0.0 
308.0013042135965 26.0 16.0 400.0 0.4999288688235879 0.0 0.0 0.0 
310.0013042135965 26.0 16.0 400.0 0.4999288688235879 0.0 0.0 0.0 
312.0013042135965 26.0 16.0 400.0 0.5383904072851263 0.0 0.0 0.0 
314.0013042135965 25.0 16.0 400.0 0.598333783535295 0.0 0.0 0.0 
316.0013042135965 24.0 15.0 400.0 0.4999288688235879 0.0 0.0 0.0 
318.0013042135965 24.0 15.0 400.0 0.4999288688235879 0.0 0.0 0.0 
320.0013042135965 24.0 15.0 400.0 0.4999288688235879 0.0 0.0 0.0 
322.0013042135965 24.0 15.0 400.0 0.4999288688235879 0.0 0.0 0.0 
324.0013042135965 24.0 15.0 400.0 0.4999288688235879 0.0 0.0 0.0 
326.0013042135965 24.0 15.0 400.0 0.4999288688235879 0.0 0.0 0.0 
328.0013042135965 24.0 15.0 400.0 0.4999288688235879 0.0 0.0 0.0 
330.0013042135965 24.0 15.0 400.0 0.4999288688235879 0.0 0.0 0.0 
332.0013042135965 24.0 15.0 400.0 0.4999288688235879 0.0 0.0 0.0 
334.0013042135965 24.0 15.0 400.0 0.4999288688235879 0.0 0.0 0.0 
336.0013042135965 24.0 15.0 400.0 0.4999288688235879 0.0 0.0 0.0 
338.0013042135965 24.0 15.0 400.0 0.4999288688235879 0.0 0.0 0.0 
340.0013042135965 24.0 15.0 400.0 0.4999288688235879 0.0 0.0 0.0 
342.0013042135965 24.0 15.0 400.0 0.4999288688235879 0.0 0.0 0.0 
344.0013042135965 24.0 15.0 400.0 0.4999288688235879 0.0 0.0 0.0 
346.0013042135965 24.0 15.0 400.0 0.4999288688235879 0.0 0.0 0.0 
348.0013042135965 24.0 15.0 400.0 0.4999288688235879 0.0 0.0 0.0 
350.0013042135965 24.0 15.0 400.0 0.4999288688235879 0.0 0.0 0.0 
352.0013042135965 24.0 15.0 400.0 0.4999288688235879 0.0 0.0 0.0 
354.0013042135965 24.0 15.0 400.0 0.4999288688235879 0.0 0.0 0.0 
356.0013042135965 24.0 15.0 400.0 0.4999288688235879 0.0 0.0 0.0 
358.0013042135965 24.0 15.0 400.0 0.4999288688235879 0.0 0.0 0.0 
360.0013042135965 24.0 15.0 400.0 0.4999288688235879 0.0 0.0 0.0 
362.0013042135965 24.0 15.0 400.0 0.4999288688235879 0.0 0.0 0.0 
364.0013042135965 24.0 15.0 400.0 0.4999288688235879 0.0 0.0 0.0 
366.0013042135965 24.0 15.0 400.0 0.4999288688235879 0.0 0.0 0.0 
368.0013042135965 24.0 15.0 400.0 0.4999288688235879 0.0 0.0 0.0 
370.0013042135965 24.0 15.0 400.0 0.4999288688235879 0.0 0.0 0.0 
372.0013042135965 24.0 15.0 400.0 0.4999288688235879 0.0 0.0 0.0 
374.0013042135965 24.0 15.0 400.0 0.4999288688235879 0.0 0.0 0.0 
376.0013042135965 24.0 15.0 400.0 0.4999288688235879 0.0 0.0 0.0 
378.0013042135965 24.0 15.0 400.0 0.4999288688235879 0.0 0.0 0.0 
380.0013042135965 24.0 15.0 400.0 0.4999288688235879 0.0 0.0 0.0 
382.0013042135965 24.0 15.0 400.0 0.4999288688235879 0.0 0.0 0.0 
384.0013042135965 24.0 15.0 400.0 0.4999288688235879 0.0 0.0 0.0 
386.0013042135965 24.0 15.0 400.0 0.4999288688235879 0.0 0.0 0.0 
388.0013042135965 24.0 15.0 400.0 0.4999288688235879 0.0 0.0 0.0 
390.0013042135965 24.0 15.0 400.0 0.4999288688235879 0.0 0.0 0.0 
392.0013042135965 24.0 15.0 400.0 0.4999288688235879 0.0 0.0 0.0 
394.0013042135965 24.0 15.0 400.0 0.4999288688235879 0.0 0.0 0.0 
396.0013042135965 24.0 15.0 400.0 0.4999288688235879 0.0 0.0 0.0 
398.0013042135965 24.0 15.0 400.0 0.4999288688235879 0.0 0.0 0.0 
400.0013042135965 24.0 15.0 400.0 0.4999288688235879 0.0 0.0 0.0 
402.0013042135965 24.0 15.0 400.0 0.4999288688235879 0.0 0.0 0.0 
404.0013042135965 24.0 15.0 400.0 0.4999288688235879 0.0 0.0 0.0 
406.0013042135965 24.0 15.0 400.0 0.4999288688235879 0.0 0.0 0.0 
408.0013042135965 24.0 15.0 400.0 0.4999288688235879 0.0 0.0 0.0 
410.0013042135965 24.0 15.0 400.0 0.4999288688235879 0.0 0.0 0.0 
412.0013042135965 24.0 15.0 400.0 0.4999288688235879 0.0 0.0 0.0 
414.0013042135965 24.0 15.0 400.0 0.4999288688235879 0.0 0.0 0.0 
416.0013042135965 24.0 15.0 400.0 0.4999288688235879 0.0 0.0 0.0 
418.0013042135965 24.0 15.0 400.0 0.4999288688235879 0.0 0.0 0.0 
420.0013042135965 24.0 15.0 400.0 0.4999288688235879 0.0 0.0 0.0 
422.0013042135965 24.0 15.0 400.0 0.4999288688235879 0.0 0.0 0.0 
424.0013042135965 24.0 15.0 400.0 0.4999288688235879 0.0 0.0 0.0 
426.0013042135965 26.0 16.0 400.0 0.4999288688235879 0.0 0.0 0.0 
428.0013042135965 26.0 16.0 400.0 0.4999288688235879 0.0 0.0 0.0 
430.0013042135965 26.0 16.0 400.0 0.4999288688235879 0.0 0.0 0.0 
432.0013042135965 26.0 16.0 400.0 0.4999288688235879 0.0 0.0 0.0 
434.0013042135965 26.0 16.0 400.0 0.4999288688235879 0.0 0.0 0.0 
436.0013042135965 26.0 16.0 400.0 0.6537750226697417 0.0 0.0 0.0 
438.0013042135965 24.0 15.0 400.0 0.4999288688235879 0.0 0.0 0.0 
440.0013042135965 24.0 15.0 400.0 0.4999288688235879 0.0 0.0 0.0 
442.0013042135965 24.0 15.0 400.0 0.4999288688235879 0.0 0.0 0.0 
444.0013042135965 24.0 15.0 400.0 0.4999288688235879 0.0 0.0 0.0 
446.0013042135965 24.0 15.0 400.0 0.4999288688235879 0.0 0.0 0.0 
448.0013042135965 24.0 15.0 400.0 0.4999288688235879 0.0 0.0 0.0 
450.0013042135965 24.0 15.0 400.0 0.4999288688235879 0.0 0.0 0.0 
452.0013042135965 24.0 15.0 400.0 0.4999288688235879 0.0 0.0 0.0 
454.0013042135965 24.0 15.0 400.0 0.4999288688235879 0.0 0.0 0.0 
456.0013042135965 24.0 15.0 400.0 0.4999288688235879 0.0 0.0 0.0 
458.0013042135965 24.0 15.0 400.0 0.4999288688235879 0.0 0.0 0.0 
460.0013042135965 24.0 15.0 400.0 0.4999288688235879 0.0 0.0 0.0 
462.0013042135965 24.0 15.0 400.0 0.4999288688235879 0.0 0.0 0.0 
464.0013042135965 24.0 15.0 400.0 0.4999288688235879 0.0 0.0 0.0 
466.0013042135965 24.0 15.0 400.0 0.4999288688235879 0.0 0.0 0.0 
468.0013042135965 24.0 15.0 400.0 0.4999288688235879 0.0 0.0 0.0 
470.0013042135965 24.0 15.0 400.0 0.4999288688235879 0.0 0.0 0.0 
472.0013042135965 24.0 15.0 400.0 0.4999288688235879 0.0 0.0 0.0 
474.0013042135965 24.0 15.0 400.0 0.4999288688235879 0.0 0.0 0.0 
476.0013042135965 24.0 15.0 400.0 0.4999288688235879 0.0 0.0 0.0 
478.0013042135965 24.0 15.0 400.0 0.4999288688235879 0.0 0.0 0.0 
480.0013042135965 24.0 15.0 400.0 0.4999288688235879 0.0 0.0 0.0 
482.0013042135965 24.0 15.0 400.0 0.4999288688235879 0.0 0.0 0.0 
484.0013042135965 25.0 16.0 400.0 0.48881616545168755 0.0 0.0 0.0 
486.0013042135965 26.0 16.0 400.0 0.4999288688235879 0.0 0.0 0.0 
488.0013042135965 26.0 16.0 400.0 0.4999288688235879 0.0 0.0 0.0 
490.0013042135965 26.0 16.0 400.0 0.4999288688235879 0.0 0.0 0.0 
492.0013042135965 26.0 16.0 400.0 0.4999288688235879 0.0 0.0 0.0 
494.0013042135965 26.0 16.0 400.0 0.5383904072851263 0.0 0.0 0.0 
496.0013042135965 25.0 15.0 400.0 0.5910415721954883 0.0 0.0 0.0 
498.0013042135965 24.0 15.0 400.0 0.4999288688235879 0.0 0.0 0.0 
500.0013042135965 24.0 15.0 400.0 0.4999288688235879 0.0 0.0 0.0 
502.0013042135965 25.0 15.0 400.0 0.4990498790155289 0.0 0.0 0.0 
504.0013042135965 26.0 16.0 400.0 0.4999288688235879 0.0 0.0 0.0 
506.0013042135965 26.0 16.0 400.0 0.4999288688235879 0.0 0.0 0.0 
508.0013042135965 26.0 16.0 400.0 0.4999288688235879 0.0 0.0 0.0 
510.0013042135965 26.0 16.0 400.0 0.4999288688235879 0.0 0.0 0.0 
512.0013042135965 26.0 16.0 400.0 0.4999288688235879 0.0 0.0 0.0 
514.0013042135965 26.0 16.0 400.0 0.49992886882364473 0.0 0.0 0.0 
516.0013042135965 26.0 16.0 400.0 0.49992886882364473 0.0 0.0 0.0 
518.0013042135965 26.0 16.0 400.0 0.49992886882364473 0.0 0.0 0.0 
520.0013042135965 28.0 17.0 400.0 0.49992886882364473 0.0 0.0 0.0 
522.0013042135965 28.0 17.0 400.0 0.49992886882364473 0.0 0.0 0.0 
524.0013042135965 28.0 17.0 400.0 0.49992886882364473 0.0 0.0 0.0 
526.0013042135965 28.0 17.0 400.0 0.49992886882364473 0.0 0.0 0.0 
528.0013042135965 28.0 17.0 400.0 0.49992886882364473 0.0 0.0 0.0 
530.0013042135965 28.0 17.0 400.0 0.5713574402522161 0.0 0.0 0.0 
532.0013042135965 26.0 16.0 400.0 0.49992886882364473 0.0 0.0 0.0 
534.0013042135965 26.0 16.0 400.0 0.49992886882364473 0.0 0.0 0.0 
536.0013042135965 26.0 16.0 400.0 0.49992886882364473 0.0 0.0 0.0 
538.0013042135965 28.0 17.0 400.0 0.49992886882364473 0.0 0.0 0.0 
540.0013042135965 28.0 17.0 400.0 0.49992886882364473 0.0 0.0 0.0 
542.0013042135965 28.0 17.0 400.0 0.49992886882364473 0.0 0.0 0.0 
544.0013042135965 28.0 17.0 400.0 0.49992886882364473 0.0 0.0 0.0 
546.0013042135965 28.0 17.0 400.0 0.49992886882364473 0.0 0.0 0.0 
548.0013042135965 28.0 17.0 400.0 0.6427860116807876 0.0 0.0 0.0 
550.0013042135965 26.0 16.0 400.0 0.49992886882364473 0.0 0.0 0.0 
552.0013042135965 26.0 16.0 400.0 0.49992886882364473 0.0 0.0 0.0 
554.0013042135965 26.0 16.0 400.0 0.5768519457467216 0.0 0.0 0.0 
556.0013042135965 24.0 15.0 400.0 0.49992886882364473 0.0 0.0 0.0 
558.0013042135965 24.0 15.0 400.0 0.49992886882364473 0.0 0.0 0.0 
560.0013042135965 24.0 15.0 400.0 0.49992886882364473 0.0 0.0 0.0 
562.0013042135965 24.0 15.0 400.0 0.49992886882364473 0.0 0.0 0.0 
564.0013042135965 24.0 15.0 400.0 0.49992886882364473 0.0 0.0 0.0 
566.0013042135965 24.0 15.0 400.0 0.49992886882364473 0.0 0.0 0.0 
568.0013042135965 24.0 15.0 400.0 0.49992886882364473 0.0 0.0 0.0 
570.0013042135965 26.0 16.0 400.0 0.49992886882364473 0.0 0.0 0.0 
572.0013042135965 26.0 16.0 400.0 0.49992886882364473 0.0 0.0 0.0 
574.0013042135965 26.0 16.0 400.0 0.49992886882364473 0.0 0.0 0.0 
576.0013042135965 26.0 16.0 400.0 0.49992886882364473 0.0 0.0 0.0 
578.0013042135965 26.0 16.0 400.0 0.49992886882364473 0.0 0.0 0.0 
580.0013042135965 26.0 16.0 400.0 0.6537750226697986 0.0 0.0 0.0 
582.0013042135965 24.0 15.0 400.0 0.49992886882364473 0.0 0.0 0.0 
584.0013042135965 24.0 15.0 400.0 0.49992886882364473 0.0 0.0 0.0 
586.0013042135965 24.0 15.0 400.0 0.49992886882364473 0.0 0.0 0.0 
588.0013042135965 24.0 15.0 400.0 0.49992886882364473 0.0 0.0 0.0 
590.0013042135965 24.0 15.0 400.0 0.49992886882364473 0.0 0.0 0.0 
592.0013042135965 26.0 16.0 400.0 0.49992886882364473 0.0 0.0 0.0 
594.0013042135965 28.0 17.0 400.0 0.49992886882364473 0.0 0.0 0.0 
596.0013042135965 28.0 17.0 400.0 0.49992886882364473 0.0 0.0 0.0 
598.0013042135965 28.0 17.0 400.0 0.49992886882364473 0.0 0.0 0.0 
600.0013042135965 28.0 17.0 400.0 0.49992886882364473 0.0 0.0 0.0 
602.0013042135965 28.0 17.0 400.0 0.6070717259665018 0.0 0.0 0.0 
604.0013042135965 26.0 16.0 400.0 0.6537750226697986 0.0 0.0 0.0 
606.0013042135965 24.0 15.0 400.0 0.49992886882364473 0.0 0.0 0.0 
608.0013042135965 24.0 15.0 400.0 0.49992886882364473 0.0 0.0 0.0 
610.0013042135965 24.0 15.0 400.0 0.49992886882364473 0.0 0.0 0.0 
612.0013042135965 24.0 15.0 400.0 0.49992886882364473 0.0 0.0 0.0 
614.0013042135965 24.0 15.0 400.0 0.49992886882364473 0.0 0.0 0.0 
616.0013042135965 24.0 15.0 400.0 0.49992886882364473 0.0 0.0 0.0 
618.0013042135965 24.0 15.0 400.0 0.49992886882364473 0.0 0.0 0.0 
620.0013042135965 24.0 15.0 400.0 0.49992886882364473 0.0 0.0 0.0 
622.0013042135965 24.0 15.0 400.0 0.49992886882364473 0.0 0.0 0.0 
624.0013042135965 24.0 15.0 400.0 0.49992886882364473 0.0 0.0 0.0 
626.0013042135965 24.0 15.0 400.0 0.49992886882364473 0.0 0.0 0.0 
628.0013042135965 24.0 15.0 400.0 0.49992886882364473 0.0 0.0 0.0 
630.0013042135965 24.0 15.0 400.0 0.49992886882364473 0.0 0.0 0.0 
632.0013042135965 24.0 15.0 400.0 0.49992886882364473 0.0 0.0 0.0 
634.0013042135965 24.0 15.0 400.0 0.49992886882364473 0.0 0.0 0.0 
636.0013042135965 24.0 15.0 400.0 0.49992886882364473 0.0 0.0 0.0 
638.0013042135965 24.0 15.0 400.0 0.49992886882364473 0.0 0.0 0.0 
640.0013042135965 24.0 15.0 400.0 0.49992886882364473 0.0 0.0 0.0 
642.0013042135965 24.0 15.0 400.0 0.49992886882364473 0.0 0.0 0.0 
644.0013042135965 24.0 15.0 400.0 0.49992886882364473 0.0 0.0 0.0 
646.0013042135965 24.0 15.0 400.0 0.49992886882364473 0.0 0.0 0.0 
648.0013042135965 24.0 15.0 400.0 0.49992886882364473 0.0 0.0 0.0 
650.0013042135965 24.0 15.0 400.0 0.49992886882364473 0.0 0.0 0.0 
652.0013042135965 28.0 16.0 400.0 0.49992033308246847 0.0 0.0 0.0 
654.0013042135965 28.0 16.0 400.0 0.49992033308246847 0.0 0.0 0.0 
656.0013042135965 28.0 16.0 400.0 0.49992033308246847 0.0 0.0 0.0 
658.0013042135965 28.0 16.0 400.0 0.49992033308246847 0.0 0.0 0.0 
660.0013042135965 28.0 16.0 400.0 0.49992033308246847 0.0 0.0 0.0 
662.0013042135965 28.0 16.0 400.0 0.6199231783295273 0.0 0.0 0.0 
664.0013042135965 24.0 15.0 400.0 0.49992886882364473 0.0 0.0 0.0 
#####################################################################
# End of data export. Simulation finished at: 2019-03-06T07:02+0000 #
#####################################################################
