#####################################################################
# Alchemist log file - simulation started at: 2019-03-12T23:25+0000 #
#####################################################################
# seed = 5.0, bandwidth = 316227.76601683797, accessPointCount = 19.39227447486858, baserange = 562.341325190349
#
# The columns have the following meaning: 
# time neighbor_count[Sum] <value>@neighbor_count[Sum] packet_size[Mean] mean_delay[Mean] crowd[Sum] overcrowded[Sum] risk[Sum] 
0.0 NaN NaN NaN NaN NaN NaN NaN 
2.000101793669918 1847.0 247.0 4987.957783641161 0.39599723016795735 1497.0 0.0 1497.0 
4.000101793669918 4935.0 319.0 4989.065963060686 0.49659786803810657 1497.0 0.0 1497.0 
6.000101793669918 6944.0 320.0 4989.361477572559 0.503752745529384 1497.0 0.0 1497.0 
8.000101793669918 8263.0 316.0 4989.686015831135 0.5106062938989977 1496.0 1.0 1496.0 
10.000101793669918 9017.0 312.0 4989.85488126649 0.5008215432947758 1496.0 1.0 1496.0 
12.000101793669918 9248.0 313.0 4989.905013192612 0.5151893226383677 1497.0 0.0 1497.0 
14.000101793669918 9192.0 311.0 4989.976253298153 0.49911935602708835 1497.0 0.0 1497.0 
16.00010179366992 9192.0 311.0 4989.8970976253295 0.49912680916168495 1497.0 0.0 1497.0 
18.00010179366992 9192.0 311.0 4990.060686015831 0.49878306240338605 1497.0 0.0 1497.0 
20.00010179366992 9192.0 311.0 4990.015831134565 0.4992145266036107 1497.0 0.0 1497.0 
22.00010179366992 9192.0 311.0 4989.960422163588 0.4993050397830486 1497.0 0.0 1497.0 
24.00010179366992 9192.0 311.0 4989.934036939314 0.49911301057269497 1497.0 0.0 1497.0 
26.00010179366992 9192.0 311.0 4989.941952506596 0.49913144910622975 1497.0 0.0 1497.0 
28.00010179366992 9192.0 311.0 4989.923482849605 0.49910590121809717 1497.0 0.0 1497.0 
30.00010179366992 9192.0 311.0 4990.02110817942 0.4990691952466598 1497.0 0.0 1497.0 
32.00010179366992 9192.0 311.0 4989.939313984169 0.4991351934814002 1497.0 0.0 1497.0 
34.00010179366992 9192.0 311.0 4989.836411609499 0.4993534838437362 1497.0 0.0 1497.0 
36.00010179366992 9192.0 311.0 4989.844327176781 0.4991812447419979 1497.0 0.0 1497.0 
38.00010179366992 9192.0 311.0 4989.899736147757 0.4993617925356021 1497.0 0.0 1497.0 
40.00010179366992 9192.0 311.0 4989.841688654354 0.49910876576044694 1497.0 0.0 1497.0 
42.00010179366992 9192.0 311.0 4989.894459102902 0.49898491940946654 1497.0 0.0 1497.0 
44.00010179366992 9208.0 312.0 4989.891820580475 0.4996120161066525 1497.0 0.0 1497.0 
46.00010179366992 9208.0 312.0 4989.844327176781 0.49956479101863094 1497.0 0.0 1497.0 
48.00010179366992 9208.0 312.0 4989.9630606860155 0.4994909660439844 1497.0 0.0 1497.0 
50.00010179366992 9208.0 312.0 4989.986807387862 0.4997339907945396 1497.0 0.0 1497.0 
52.00010179366992 9208.0 312.0 4989.8970976253295 0.49977176308195587 1497.0 0.0 1497.0 
54.00010179366992 9208.0 312.0 4989.915567282322 0.4993799165820966 1497.0 0.0 1497.0 
56.00010179366992 9208.0 312.0 4989.97889182058 0.4996082674120219 1497.0 0.0 1497.0 
58.00010179366992 9208.0 312.0 4989.90765171504 0.4996185970043143 1497.0 0.0 1497.0 
60.00010179366992 9208.0 312.0 4987.079155672824 0.4995695746129702 1496.0 0.0 1496.0 
62.00010179366992 9247.0 313.0 718.9841688654354 0.4953965984514033 227.0 1.0 104.0 
64.00010179366993 9226.0 312.0 719.0395778364114 0.5006813856034997 186.0 5.0 100.0 
66.00010179366993 9226.0 312.0 718.8944591029037 0.5006560907642741 177.0 7.0 98.0 
68.00010179366993 9226.0 312.0 718.9208443271759 0.5007794425753117 164.0 7.0 98.0 
70.00010179366993 9226.0 312.0 718.8759894459117 0.500691036242843 160.0 8.0 97.0 
72.00010179366993 9269.0 313.0 718.891820580475 0.49980787691104445 161.0 8.0 97.0 
74.00010179366993 9318.0 313.0 721.9419525065966 0.5005046928780608 158.0 9.0 97.0 
76.00010179366993 9318.0 313.0 721.9234828496046 0.5006041865419067 157.0 9.0 97.0 
78.00010179366993 9318.0 313.0 721.9129287598959 0.5005061713203388 156.0 9.0 97.0 
80.00010179366993 9318.0 313.0 721.8443271767806 0.500480193256764 155.0 9.0 97.0 
82.00010179366993 9318.0 313.0 721.9261213720321 0.5006921742141643 154.0 9.0 97.0 
84.00010179366993 9318.0 313.0 721.8601583113441 0.5005468082592941 154.0 9.0 97.0 
86.00010179366993 9318.0 313.0 721.934036939312 0.500553142997288 154.0 9.0 97.0 
88.00010179366993 9318.0 313.0 721.9208443271759 0.5005702893344754 154.0 9.0 97.0 
90.00010179366993 9318.0 313.0 721.981530343008 0.5005283282851132 154.0 9.0 97.0 
92.00010179366993 9318.0 313.0 721.9551451187331 0.5004166426471373 155.0 9.0 97.0 
94.00010179366993 9322.0 313.0 721.973614775725 0.49970281678455425 155.0 9.0 97.0 
96.00010179366993 9324.0 314.0 721.9841688654353 0.4998894632622085 155.0 9.0 97.0 
98.00010179366993 9324.0 314.0 725.0501319261201 0.5007029315145891 155.0 9.0 98.0 
100.00010179366993 9342.0 315.0 725.0 0.5091532231467752 155.0 9.0 98.0 
102.00010179366993 9420.0 315.0 721.9841688654353 0.5055127630111506 154.0 9.0 97.0 
104.00010179366993 9384.0 314.0 721.8865435356207 0.500675895237561 154.0 9.0 97.0 
106.00010179366993 9382.0 314.0 721.9419525065966 0.5010446388330898 154.0 9.0 97.0 
108.00010179366993 9380.0 314.0 721.870712401056 0.5001909744925763 154.0 9.0 97.0 
110.00010179366993 9382.0 314.0 721.9419525065966 0.5000909577159126 154.0 9.0 97.0 
112.00010179366993 9384.0 314.0 721.8918205804749 0.5001799130491641 155.0 9.0 97.0 
114.00010179366993 9393.0 315.0 721.9234828496046 0.5062896691359196 155.0 9.0 97.0 
116.00010179366993 9381.0 316.0 721.8548812664911 0.5088928998563066 155.0 9.0 97.0 
118.00010179366993 9365.0 315.0 721.862796833773 0.5020301709256652 155.0 9.0 97.0 
120.00010179366993 9362.0 315.0 721.873350923483 0.5003956764244709 155.0 9.0 97.0 
122.00010179366993 9362.0 315.0 724.9208443271759 0.5014405075683863 155.0 9.0 98.0 
124.00010179366993 9362.0 315.0 721.9366754617408 0.502790660639178 155.0 9.0 97.0 
126.00010179366993 9375.0 316.0 725.010554089709 0.5088789046584049 156.0 9.0 98.0 
128.00010179366993 9368.0 315.0 725.0 0.49983757071104373 156.0 9.0 98.0 
130.00010179366993 9368.0 315.0 725.0026385224276 0.5061330616404289 156.0 9.0 98.0 
132.00010179366993 9360.0 315.0 721.9366754617406 0.4998430598401237 155.0 9.0 97.0 
134.00010179366993 9360.0 315.0 721.9472295514518 0.5065236083265362 153.0 9.0 97.0 
136.00010179366993 9352.0 314.0 721.9841688654357 0.501249375028983 150.0 9.0 97.0 
138.00010179366993 9348.0 314.0 725.0395778364115 0.5018449826431619 151.0 8.0 99.0 
140.00010179366993 9348.0 314.0 725.0316622691281 0.5008582112055603 152.0 7.0 100.0 
142.00010179366993 9346.0 314.0 724.9973614775726 0.4994298040322667 150.0 9.0 98.0 
144.00010179366993 9406.0 314.0 728.018469656992 0.5011996511899336 152.0 6.0 102.0 
146.00010179366993 9447.0 315.0 728.0474934036927 0.5022509242270724 149.0 9.0 99.0 
148.00010179366993 9440.0 315.0 728.0 0.5006079995093166 149.0 9.0 99.0 
150.00010179366993 9436.0 315.0 728.0474934036927 0.5077766053629704 149.0 9.0 99.0 
152.00010179366993 9427.0 314.0 728.0263852242753 0.5002771084857309 150.0 8.0 100.0 
154.00010179366993 9432.0 314.0 728.0448548812672 0.5011232862403143 151.0 7.0 101.0 
156.00010179366993 9430.0 315.0 727.9973614775723 0.503530903002416 149.0 9.0 99.0 
158.00010179366993 9378.0 315.0 728.0 0.5121448075896574 151.0 6.0 102.0 
160.00010179366993 9332.0 314.0 727.9973614775723 0.5003238927693678 149.0 9.0 99.0 
162.00010179366993 9332.0 314.0 728.0263852242753 0.5002916443122848 149.0 9.0 99.0 
164.00010179366993 9332.0 314.0 731.0501319261202 0.5003920286594109 149.0 9.0 100.0 
166.00010179366993 9346.0 315.0 731.0659630606877 0.5019745781894093 150.0 8.0 101.0 
168.00010179366993 9364.0 315.0 724.9762532981525 0.5045279094657353 151.0 7.0 100.0 
170.00010179366993 9354.0 314.0 724.9683377308714 0.5013707381720591 148.0 10.0 97.0 
172.00010179366993 9353.0 314.0 724.9498680738794 0.5015140958785417 150.0 7.0 100.0 
174.00010179366993 9352.0 314.0 728.0026385224278 0.5039797461289156 147.0 10.0 98.0 
176.00010179366993 9350.0 314.0 728.0131926121368 0.5015489544755325 148.0 8.0 100.0 
178.00010179366993 9350.0 314.0 728.0026385224278 0.5014318415079541 151.0 5.0 103.0 
180.00010179366993 9350.0 314.0 727.9472295514519 0.5015566141629654 151.0 5.0 103.0 
182.00010179366993 9351.0 314.0 728.0131926121368 0.501362509668162 150.0 6.0 102.0 
184.00010179366993 9352.0 314.0 731.0263852242749 0.5033440770722714 147.0 9.0 100.0 
186.00010179366993 9350.0 314.0 731.0501319261208 0.5014806801600575 149.0 7.0 102.0 
188.00010179366993 9350.0 314.0 731.0237467018472 0.5033618036199384 147.0 9.0 100.0 
190.00010179366993 9348.0 314.0 728.0237467018472 0.5014149118215697 148.0 8.0 100.0 
192.00010179366993 9346.0 314.0 728.0052770448553 0.5012745028993306 149.0 6.0 102.0 
194.00010179366993 9346.0 314.0 728.0738786279679 0.502782250527751 150.0 6.0 102.0 
196.00010179366993 9341.0 314.0 727.9736147757252 0.5029346070464726 150.0 6.0 102.0 
198.00010179366993 9340.0 314.0 728.0052770448553 0.5017435207565023 149.0 7.0 101.0 
200.00010179366993 9340.0 314.0 727.9973614775723 0.5013999036360682 150.0 5.0 103.0 
202.00010179366993 9342.0 314.0 728.0211081794198 0.5016758101922263 149.0 7.0 101.0 
204.00010179366993 9342.0 314.0 727.9630606860161 0.5026381429227155 146.0 10.0 98.0 
206.00010179366993 9340.0 314.0 725.0026385224278 0.5037111225230498 147.0 9.0 98.0 
208.00010179366993 9335.0 313.0 724.9868073878631 0.5118404592798391 149.0 7.0 100.0 
210.00010179366993 9324.0 313.0 725.0052770448552 0.501349167236315 149.0 7.0 100.0 
212.00010179366993 9369.0 314.0 724.9894459102907 0.5021219364337649 149.0 6.0 101.0 
214.00010179366993 9382.0 315.0 728.018469656992 0.5005053167531821 148.0 7.0 101.0 
216.00010179366993 9385.0 314.0 724.9656992084435 0.5014687953693377 147.0 6.0 101.0 
218.00010179366993 9384.0 314.0 724.9868073878635 0.5005237766678907 148.0 5.0 102.0 
220.00010179366993 9386.0 314.0 724.9445910290241 0.5008157193398948 148.0 6.0 101.0 
222.00010179366993 9398.0 314.0 724.9683377308714 0.5006482345404625 149.0 6.0 101.0 
224.00010179366993 9399.0 314.0 724.9656992084435 0.5007459848027096 151.0 5.0 102.0 
226.00010179366993 9400.0 314.0 725.0026385224276 0.500646978373672 149.0 7.0 100.0 
228.00010179366993 9401.0 314.0 724.9577836411598 0.5005211516848154 150.0 6.0 101.0 
230.00010179366993 9402.0 314.0 724.9683377308714 0.5006612629717265 150.0 6.0 101.0 
232.00010179366993 9431.0 315.0 727.981530343008 0.5011781680393412 149.0 7.0 101.0 
234.00010179366993 9468.0 315.0 727.9947229551447 0.5008302073083966 144.0 12.0 96.0 
236.00010179366993 9468.0 315.0 727.9868073878633 0.50071148990982 148.0 9.0 99.0 
238.00010179366993 9468.0 315.0 728.0131926121367 0.5007170672207321 148.0 9.0 99.0 
240.00010179366993 9468.0 315.0 728.0474934036931 0.500705573468456 148.0 9.0 99.0 
242.00010179366993 9484.0 315.0 728.0131926121367 0.5004135262308741 147.0 10.0 98.0 
244.00010179366993 9501.0 315.0 727.9894459102908 0.5008459480207309 146.0 13.0 95.0 
246.00010179366993 9500.0 315.0 728.0105540897092 0.500630961395478 146.0 12.0 96.0 
248.00010179366993 9500.0 315.0 727.9947229551447 0.500634599668613 149.0 10.0 98.0 
250.00010179366993 9500.0 315.0 725.007915567283 0.5009538947770867 148.0 10.0 97.0 
252.00010179366993 9504.0 315.0 724.9868073878636 0.5010326956329065 147.0 12.0 95.0 
254.00010179366993 9504.0 315.0 725.0343007915563 0.5011567928387836 148.0 10.0 97.0 
256.00010179366996 9551.0 315.0 724.9445910290241 0.5004742846039053 149.0 10.0 97.0 
258.00010179366996 9600.0 316.0 725.0 0.5013507053600261 148.0 10.0 97.0 
260.00010179366996 9602.0 316.0 724.918205804749 0.5013253366056459 148.0 10.0 97.0 
262.00010179366996 9627.0 317.0 724.9630606860161 0.5036652907005601 148.0 10.0 97.0 
264.00010179366996 9603.0 316.0 721.9498680738797 0.5082679768450401 148.0 10.0 96.0 
266.00010179366996 9567.0 316.0 721.973614775725 0.501287503079064 148.0 10.0 96.0 
268.00010179366996 9568.0 316.0 721.9419525065965 0.5011703515554158 144.0 12.0 94.0 
270.00010179366996 9569.0 316.0 724.992084432717 0.512164243487882 142.0 13.0 94.0 
272.00010179366996 9480.0 315.0 724.9551451187331 0.5011226330680297 144.0 11.0 96.0 
274.00010179366996 9482.0 315.0 724.9973614775724 0.5011393057685627 143.0 13.0 94.0 
276.00010179366996 9482.0 315.0 727.9947229551447 0.5014122064492377 146.0 10.0 98.0 
278.00010179366996 9482.0 315.0 728.0263852242749 0.5011603405978625 145.0 11.0 97.0 
280.00010179366996 9492.0 316.0 727.9947229551447 0.5010650905660949 151.0 5.0 103.0 
282.00010179366996 9494.0 316.0 728.0395778364117 0.5041584578440249 154.0 3.0 105.0 
284.00010179366996 9486.0 315.0 725.0026385224278 0.5088863859096235 147.0 10.0 97.0 
286.00010179366996 9482.0 315.0 725.0343007915562 0.5011321208038756 145.0 11.0 96.0 
288.00010179366996 9484.0 315.0 725.0105540897091 0.501146037652126 146.0 10.0 97.0 
290.00010179366996 9485.0 315.0 724.9841688654358 0.5041664355587397 145.0 11.0 96.0 
292.00010179366996 9486.0 315.0 724.9868073878633 0.501057045955184 146.0 10.0 97.0 
294.00010179366996 9488.0 315.0 724.9841688654358 0.5015574184637638 146.0 10.0 97.0 
296.00010179366996 9488.0 315.0 724.981530343008 0.50166781499501 145.0 10.0 97.0 
298.00010179366996 9488.0 315.0 724.9868073878633 0.5011002179549155 144.0 12.0 95.0 
300.00010179366996 9488.0 315.0 724.9788918205801 0.5017065878408703 142.0 13.0 94.0 
302.00010179366996 9488.0 315.0 718.9129287598954 0.5005764988536092 146.0 9.0 96.0 
304.00010179366996 9489.0 315.0 718.9129287598954 0.50107886609676 145.0 11.0 94.0 
306.00010179366996 9491.0 315.0 718.8627968337729 0.5011948156274371 148.0 7.0 98.0 
308.00010179366996 9492.0 315.0 718.9313984168874 0.5012481863941094 149.0 6.0 99.0 
310.00010179366996 9492.0 315.0 718.8970976253286 0.5012380615951244 146.0 9.0 96.0 
312.00010179366996 9492.0 315.0 718.9340369393125 0.5012806024050807 148.0 7.0 98.0 
314.00010179366996 9493.0 315.0 715.817941952507 0.501359975713162 148.0 7.0 97.0 
316.00010179366996 9494.0 315.0 715.8891820580482 0.5014170156844611 148.0 7.0 97.0 
318.00010179366996 9494.0 315.0 718.8891820580482 0.5029895786961182 149.0 7.0 98.0 
320.00010179366996 9496.0 315.0 718.9155672823206 0.5012749671673 148.0 7.0 98.0 
322.00010179366996 9497.0 315.0 718.8443271767801 0.5011128617937859 147.0 9.0 96.0 
324.00010179366996 9498.0 315.0 718.9129287598954 0.5011923393330978 148.0 6.0 99.0 
326.00010179366996 9498.0 315.0 718.8759894459114 0.5011917325442146 149.0 7.0 98.0 
328.00010179366996 9498.0 315.0 718.9050131926122 0.5012297458498618 149.0 6.0 99.0 
330.00010179366996 9498.0 315.0 718.8786279683366 0.5114559333651015 147.0 8.0 97.0 
332.00010179366996 9491.0 314.0 718.9393139841679 0.5013329309039339 148.0 8.0 97.0 
334.00010179366996 9496.0 314.0 718.8944591029034 0.5013339697466419 149.0 7.0 98.0 
336.00010179366996 9496.0 314.0 718.9023746701839 0.5013109685163073 146.0 10.0 95.0 
338.00010179366996 9496.0 314.0 718.8970976253286 0.5013091556109597 149.0 8.0 97.0 
340.00010179366996 9496.0 314.0 718.9630606860161 0.5013022477166185 149.0 8.0 97.0 
342.00010179366996 9496.0 314.0 718.8839050131919 0.5013487095057233 151.0 6.0 99.0 
344.00010179366996 9496.0 314.0 721.973614775725 0.5015322149836041 147.0 10.0 96.0 
346.00010179366996 9496.0 314.0 718.9050131926122 0.501101749470437 144.0 10.0 95.0 
348.00010179366996 9496.0 314.0 718.936675461741 0.5011115990318856 145.0 9.0 96.0 
350.00010179366996 9496.0 314.0 718.8680738786278 0.5011231544224398 146.0 8.0 97.0 
352.00010179366996 9502.0 314.0 718.9261213720321 0.501117036025274 145.0 8.0 97.0 
354.00010179366996 9504.0 314.0 718.873350923483 0.5011140592150974 145.0 8.0 97.0 
356.00010179366996 9504.0 314.0 718.9313984168873 0.5011176047693846 145.0 8.0 97.0 
358.00010179366996 9504.0 314.0 718.862796833773 0.5011303211587271 145.0 8.0 97.0 
360.00010179366996 9504.0 314.0 718.8970976253287 0.5011102164004578 145.0 8.0 97.0 
362.00010179366996 9504.0 314.0 718.9155672823207 0.501618256515355 145.0 8.0 97.0 
364.00010179366996 9500.0 314.0 718.9287598944597 0.5012727287265428 145.0 8.0 97.0 
366.00010179366996 9499.0 314.0 718.8548812664911 0.5015069323492368 145.0 8.0 97.0 
368.00010179366996 9498.0 314.0 718.8812664907649 0.5011185860336195 145.0 8.0 97.0 
370.00010179366996 9498.0 314.0 721.9498680738793 0.5016607300171374 145.0 8.0 98.0 
372.00010179366996 9516.0 314.0 724.9340369393127 0.5063862422796122 146.0 8.0 99.0 
374.00010179366996 9488.0 314.0 724.9129287598953 0.5059552111824362 147.0 8.0 99.0 
376.00010179366996 9476.0 314.0 724.9683377308713 0.5011218958811773 147.0 8.0 99.0 
378.00010179366996 9476.0 314.0 724.9261213720321 0.5011179998748815 147.0 8.0 99.0 
380.00010179366996 9484.0 315.0 724.9419525065961 0.5009552450096311 147.0 8.0 99.0 
382.00010179366996 9486.0 315.0 724.9102902374681 0.5046503792740573 146.0 9.0 98.0 
384.00010179366996 9457.0 315.0 724.9498680738793 0.5019672635804219 149.0 8.0 99.0 
386.00010179366996 9455.0 315.0 724.8970976253288 0.5014454783518925 149.0 8.0 99.0 
388.00010179366996 9454.0 315.0 724.9577836411598 0.5010872495903305 149.0 8.0 99.0 
390.00010179366996 9454.0 315.0 724.9393139841679 0.5040984466390761 149.0 8.0 99.0 
392.00010179366996 9452.0 315.0 724.9973614775721 0.5074819075897039 149.0 8.0 99.0 
394.00010179366996 9442.0 316.0 727.9445910290241 0.5021360923699443 151.0 8.0 100.0 
396.00010179366996 9442.0 316.0 728.0026385224278 0.5021245821580854 151.0 8.0 100.0 
398.00010179366996 9442.0 316.0 727.9419525065962 0.5021238126277743 151.0 8.0 100.0 
400.00010179366996 9444.0 316.0 728.0105540897092 0.502246167961706 151.0 8.0 100.0 
402.00010179366996 9444.0 316.0 727.9683377308713 0.5051987834329998 152.0 7.0 101.0 
404.00010179366996 9440.0 315.0 728.007915567283 0.5014045080188567 152.0 7.0 101.0 
406.00010179366996 9438.0 315.0 727.9973614775722 0.5011150386904489 151.0 8.0 100.0 
408.00010179366996 9438.0 315.0 728.007915567283 0.5011278793425763 150.0 9.0 99.0 
410.00010179366996 9438.0 315.0 727.9419525065962 0.5113709470860928 150.0 9.0 99.0 
412.00010179366996 9432.0 314.0 727.9709762532989 0.5012578137373057 151.0 8.0 100.0 
414.00010179366996 9432.0 314.0 727.9472295514518 0.5012511749647934 151.0 8.0 100.0 
416.00010179366996 9432.0 314.0 727.9868073878633 0.5012700909827399 151.0 8.0 100.0 
418.00010179366996 9432.0 314.0 727.9419525065962 0.5012758991975471 152.0 7.0 101.0 
420.00010179366996 9470.0 315.0 728.0 0.5015738347876277 152.0 7.0 101.0 
422.00010179366996 9470.0 315.0 724.899736147757 0.5015947247171637 152.0 7.0 100.0 
424.00010179366996 9479.0 315.0 731.0211081794198 0.503298771799453 151.0 8.0 101.0 
426.00010179366996 9486.0 316.0 734.0131926121365 0.5012615403962175 154.0 5.0 105.0 
428.00010179366996 9486.0 316.0 734.0395778364116 0.5012485640555091 156.0 4.0 106.0 
430.00010179366996 9492.0 316.0 734.0369393139839 0.5014098447373861 152.0 7.0 103.0 
432.00010179366996 9492.0 316.0 734.0976253298161 0.5012691113040693 154.0 5.0 105.0 
434.00010179366996 9492.0 316.0 734.0263852242749 0.5014173048267284 156.0 4.0 106.0 
436.00010179366996 9491.0 316.0 734.0501319261206 0.5024616331042222 152.0 7.0 103.0 
438.00010179366996 9487.0 316.0 734.0422163588402 0.5138461134093447 155.0 4.0 106.0 
440.00010179366996 9470.0 315.0 734.0316622691286 0.5018216844690518 158.0 3.0 107.0 
442.00010179366996 9470.0 315.0 734.0026385224276 0.5017133734081021 155.0 5.0 105.0 
444.00010179366996 9470.0 315.0 731.0131926121367 0.5016493783746943 157.0 2.0 107.0 
446.00010179366996 9469.0 315.0 730.9973614775723 0.5022655983399643 157.0 2.0 107.0 
448.00010179366996 9468.0 315.0 731.04221635884 0.5019761546203533 156.0 3.0 106.0 
450.00010179366996 9472.0 315.0 730.9525065963069 0.502150485772951 153.0 6.0 103.0 
452.00010179366996 9482.0 316.0 731.0079155672829 0.5004573761482045 154.0 5.0 104.0 
454.00010179366996 9490.0 316.0 730.9313984168873 0.5023874214146852 156.0 3.0 106.0 
456.00010179366996 9488.0 316.0 730.9920844327171 0.5021539988677768 154.0 6.0 103.0 
458.00010179366996 9488.0 316.0 730.9525065963069 0.502163857690056 153.0 7.0 102.0 
460.00010179366996 9488.0 316.0 731.0263852242748 0.5027447863567702 154.0 6.0 103.0 
462.00010179366996 9493.0 316.0 731.0 0.502517643993996 156.0 3.0 106.0 
464.00010179366996 9511.0 318.0 730.9973614775723 0.5116172836550785 153.0 7.0 102.0 
466.00010179366996 9474.0 316.0 730.981530343008 0.511194484857144 153.0 7.0 102.0 
468.00010179366996 9462.0 316.0 731.0158311345643 0.5018637050498067 153.0 7.0 102.0 
470.00010179366996 9462.0 316.0 730.9709762532989 0.5019339001669761 153.0 7.0 102.0 
472.00010179366996 9468.0 317.0 724.9868073878633 0.5012565010895133 152.0 7.0 100.0 
474.00010179366996 9472.0 317.0 724.952506596307 0.5033031317304157 151.0 7.0 100.0 
476.00010179366996 9466.0 317.0 725.0316622691288 0.5063701163432137 152.0 6.0 101.0 
478.00010179366996 9460.0 317.0 724.952506596307 0.5006398619488218 154.0 4.0 103.0 
480.00010179366996 9460.0 317.0 725.007915567283 0.5007795886342097 155.0 4.0 103.0 
482.00010179366996 9463.0 317.0 724.9366754617408 0.5006797854746992 154.0 4.0 103.0 
484.00010179366996 9466.0 317.0 721.9498680738792 0.5090047249090243 154.0 4.0 102.0 
486.00010179366996 9459.0 316.0 721.8786279683369 0.5035766342729229 155.0 3.0 103.0 
488.00010179366996 9456.0 315.0 721.9683377308712 0.5014817720619679 157.0 1.0 105.0 
490.00010179366996 9456.0 315.0 721.8786279683369 0.5012854357204757 158.0 1.0 105.0 
492.00010179366996 9487.0 316.0 715.8469656992079 0.5005238708766041 158.0 1.0 103.0 
494.00010179366996 9508.0 316.0 712.7810026385229 0.5008255347926881 155.0 2.0 101.0 
496.00010179366996 9508.0 316.0 712.8496042216356 0.5013316188779002 151.0 4.0 99.0 
498.00010179366996 9508.0 316.0 712.7704485488124 0.5015159823810467 148.0 6.0 97.0 
500.00010179366996 9508.0 316.0 712.8179419525069 0.5013867770162093 148.0 6.0 97.0 
502.00010179366996 9532.0 316.0 712.8232189973606 0.5010389902445321 147.0 7.0 96.0 
504.00010179366996 9538.0 316.0 709.8021108179412 0.5010205819423977 147.0 7.0 95.0 
506.00010179366996 9536.0 316.0 709.762532981531 0.5012070020568093 147.0 7.0 95.0 
508.00010179366996 9560.0 317.0 709.7810026385229 0.501383169264781 147.0 7.0 95.0 
510.00010179366996 9562.0 317.0 709.7335092348283 0.5014065013862832 147.0 7.0 95.0 
512.00010179367 9564.0 317.0 709.8100263852239 0.5014710390441885 147.0 7.0 95.0 
514.00010179367 9568.0 317.0 709.7308707124006 0.5032958459908428 147.0 7.0 95.0 
516.00010179367 9567.0 318.0 709.8311345646437 0.5023203101080658 147.0 7.0 95.0 
518.00010179367 9572.0 317.0 709.7810026385229 0.5009972504954792 149.0 5.0 97.0 
520.00010179367 9572.0 317.0 709.7757255936676 0.5010240612391917 149.0 5.0 97.0 
522.00010179367 9574.0 317.0 709.7572559366756 0.5013041101819613 148.0 7.0 95.0 
524.00010179367 9594.0 318.0 709.7730870712398 0.500846243509973 147.0 7.0 95.0 
526.00010179367 9594.0 318.0 709.7572559366756 0.5008481858146951 147.0 7.0 95.0 
528.00010179367 9620.0 319.0 709.7941952506596 0.5007139180884442 147.0 7.0 95.0 
530.00010179367 9620.0 319.0 709.7651715039572 0.5007195968007179 147.0 7.0 95.0 
532.00010179367 9633.0 320.0 709.8021108179412 0.49935873963077104 148.0 7.0 95.0 
534.00010179367 9648.0 321.0 712.799472295515 0.5083738195980292 148.0 7.0 96.0 
536.00010179367 9614.0 320.0 712.817941952507 0.5000530641348148 148.0 7.0 96.0 
538.00010179367 9616.0 320.0 712.7730870712398 0.5000658903833496 148.0 7.0 96.0 
540.00010179367 9616.0 320.0 712.7941952506598 0.5014541308303297 148.0 7.0 96.0 
542.00010179367 9608.0 320.0 715.8654353561999 0.5002442882606907 150.0 7.0 97.0 
544.00010179367 9608.0 320.0 715.8759894459115 0.5006391604310967 150.0 7.0 97.0 
546.00010179367 9608.0 320.0 715.8575197889195 0.5006442609694878 150.0 7.0 97.0 
548.00010179367 9608.0 320.0 712.802110817941 0.5003505867237775 150.0 7.0 96.0 
550.00010179367 9628.0 321.0 709.717678100264 0.5070049603147642 150.0 7.0 95.0 
552.00010179367 9592.0 320.0 709.7519788918203 0.5004413857455835 150.0 7.0 95.0 
554.00010179367 9592.0 320.0 709.7044854881274 0.5011526249668075 150.0 7.0 95.0 
556.00010179367 9594.0 320.0 709.765171503957 0.5002275642522269 150.0 7.0 95.0 
558.00010179367 9624.0 321.0 709.7414248021114 0.5001370048564644 151.0 7.0 95.0 
560.00010179367 9663.0 322.0 709.7941952506599 0.5063518430599425 151.0 7.0 95.0 
562.00010179367 9644.0 321.0 709.7203166226918 0.500489540417455 151.0 7.0 95.0 
564.00010179367 9644.0 321.0 712.8390501319275 0.5001394186001118 151.0 7.0 96.0 
566.00010179367 9647.0 321.0 712.783641160949 0.50006231459403 151.0 7.0 96.0 
568.00010179367 9648.0 321.0 712.8548812664912 0.5001267349389142 150.0 7.0 96.0 
570.00010179367 9648.0 321.0 712.783641160949 0.500121511896667 151.0 7.0 96.0 
572.00010179367 9648.0 321.0 715.910290237468 0.5012131843719495 152.0 6.0 98.0 
574.00010179367 9649.0 321.0 715.8126649076519 0.5000252868343068 153.0 6.0 98.0 
576.00010179367 9650.0 321.0 715.8891820580482 0.5000629871514503 153.0 6.0 98.0 
578.00010179367 9650.0 321.0 718.8601583113444 0.5020552877630254 153.0 6.0 99.0 
580.00010179367 9650.0 321.0 715.8759894459116 0.5002959631928792 153.0 6.0 98.0 
582.00010179367 9646.0 321.0 715.8522427440641 0.5043017285954478 153.0 6.0 98.0 
584.00010179367 9634.0 321.0 715.8601583113444 0.5150499215677184 154.0 6.0 98.0 
586.00010179367 9618.0 320.0 712.7862796833766 0.5033227873507099 153.0 6.0 97.0 
588.00010179367 9616.0 319.0 712.84432717678 0.5004812501754802 153.0 6.0 97.0 
590.00010179367 9614.0 319.0 715.8496042216359 0.5017380110500277 154.0 6.0 98.0 
592.00010179367 9608.0 319.0 715.8469656992079 0.5108701871741596 157.0 6.0 98.0 
594.00010179367 9602.0 318.0 715.8100263852239 0.5035803420908391 157.0 6.0 98.0 
596.00010179367 9596.0 318.0 715.8390501319276 0.5007300614348366 157.0 6.0 98.0 
598.00010179367 9596.0 318.0 715.8126649076519 0.5007741160266372 157.0 6.0 98.0 
600.00010179367 9678.0 319.0 718.870712401056 0.516349217459729 159.0 6.0 99.0 
602.00010179367 9614.0 317.0 715.7493403693926 0.5007747970132151 158.0 6.0 98.0 
604.00010179367 9611.0 317.0 715.8021108179408 0.5100551066767948 158.0 6.0 98.0 
606.00010179367 9604.0 316.0 715.7862796833766 0.5010918572152449 158.0 6.0 98.0 
608.00010179367 9605.0 316.0 715.8469656992079 0.5058744154735652 158.0 6.0 98.0 
610.00010179367 9588.0 316.0 715.8021108179408 0.5001046712173921 160.0 6.0 98.0 
612.00010179367 9588.0 316.0 712.8126649076519 0.49983825961945155 159.0 6.0 97.0 
614.00010179367 9609.0 317.0 712.7598944591033 0.5006277163607328 158.0 6.0 97.0 
616.00010179367 9688.0 318.0 718.8839050131919 0.5024386974354846 159.0 6.0 99.0 
618.00010179367 9692.0 318.0 721.8601583113447 0.5088624194289944 160.0 6.0 100.0 
620.00010179367 9670.0 317.0 721.8997361477569 0.49967117790890947 162.0 6.0 100.0 
622.00010179367 9670.0 317.0 721.8891820580482 0.49999879914980044 161.0 6.0 100.0 
624.00010179367 9678.0 317.0 724.9472295514519 0.5000837731440719 161.0 6.0 101.0 
626.00010179367 9688.0 318.0 724.8997361477568 0.5005858473168221 161.0 6.0 101.0 
628.00010179367 9712.0 319.0 725.0052770448552 0.5012451624143348 161.0 5.0 102.0 
630.00010179367 9712.0 319.0 724.965699208444 0.5007595069427694 160.0 6.0 101.0 
632.00010179367 9712.0 319.0 728.0237467018474 0.5024036287029023 157.0 6.0 102.0 
634.00010179367 9702.0 318.0 728.0263852242751 0.5115161880900575 161.0 6.0 102.0 
636.00010179367 9680.0 318.0 728.0686015831127 0.5002903987508855 161.0 6.0 102.0 
638.00010179367 9681.0 318.0 728.0237467018474 0.5034055453963746 161.0 6.0 102.0 
640.00010179367 9670.0 318.0 728.0026385224279 0.5002585855801768 160.0 6.0 102.0 
642.00010179367 9672.0 318.0 724.9656992084439 0.5000606130183451 158.0 6.0 101.0 
644.00010179367 9672.0 318.0 724.95778364116 0.5004622656893155 157.0 6.0 101.0 
646.00010179367 9674.0 318.0 724.9313984168873 0.5004614902617412 156.0 6.0 101.0 
648.00010179367 9698.0 319.0 725.0131926121367 0.5010511985356871 156.0 6.0 101.0 
650.00010179367 9696.0 319.0 724.9551451187331 0.5003369629073734 156.0 6.0 101.0 
652.00010179367 9696.0 319.0 725.0395778364121 0.5003407691116982 156.0 6.0 101.0 
654.00010179367 9696.0 319.0 724.9630606860161 0.5003259032436022 156.0 6.0 101.0 
656.00010179367 9696.0 319.0 725.0158311345641 0.5003472601588004 156.0 6.0 101.0 
658.00010179367 9696.0 319.0 727.9261213720321 0.501699244741445 156.0 6.0 102.0 
660.00010179367 9694.0 319.0 727.9973614775721 0.4995155100347816 156.0 6.0 102.0 
662.00010179367 9694.0 319.0 724.947229551452 0.4997493579512177 156.0 6.0 101.0 
664.00010179367 9692.0 319.0 725.0052770448552 0.5066848538130763 155.0 6.0 101.0 
#####################################################################
# End of data export. Simulation finished at: 2019-03-12T23:37+0000 #
#####################################################################
