#####################################################################
# Alchemist log file - simulation started at: 2019-03-07T01:32+0000 #
#####################################################################
# seed = 2.0, bandwidth = 17782.79410038923, accessPointCount = 531.8295896944988, baserange = 31.622776601683796
#
# The columns have the following meaning: 
# time neighbor_count[Sum] <value>@neighbor_count[Sum] packet_size[Mean] mean_delay[Mean] crowd[Sum] overcrowded[Sum] risk[Sum] 
0.0 NaN NaN NaN NaN NaN NaN NaN 
10.000005054009561 182.0 52.0 4982.526627218935 0.8480975597639069 1497.0 0.0 1497.0 
20.00000505400956 182.0 52.0 4982.51282051282 1.113792583305402 1497.0 0.0 1497.0 
30.00000505400956 178.0 50.0 4982.495069033531 0.7616260108150353 1497.0 0.0 1497.0 
40.00000505400956 178.0 50.0 4982.516765285996 0.6455188488357875 1497.0 0.0 1497.0 
50.00000505400956 178.0 50.0 4982.339250493097 0.7239301612265253 1497.0 0.0 1497.0 
60.00000505400956 180.0 51.0 4982.524654832347 1.227889437301793 1497.0 0.0 1497.0 
70.00015028382745 178.0 50.0 436.2642998027609 1.0396331575321016 25.0 0.0 16.0 
80.00015028382745 178.0 50.0 436.2642998027609 0.7959855171675979 21.0 0.0 16.0 
90.00015028382745 178.0 50.0 434.00197238658757 1.2185202025137363 18.0 0.0 15.0 
100.00015028382745 178.0 50.0 434.00197238658757 0.6798326018696138 16.0 0.0 15.0 
110.00015028382745 178.0 50.0 434.00197238658757 0.8034638418052016 15.0 0.0 15.0 
120.00015028382745 178.0 50.0 434.00197238658757 1.2185202025137363 15.0 0.0 15.0 
130.00015028382745 176.0 49.0 434.00197238658757 0.8654802584258213 15.0 0.0 15.0 
140.00015028382745 178.0 50.0 434.00197238658757 1.06482239947928 15.0 0.0 15.0 
150.00015028382745 176.0 49.0 434.00197238658757 0.8348717252032654 15.0 0.0 15.0 
160.00015028382745 176.0 49.0 434.00197238658757 1.0088504833732002 15.0 0.0 15.0 
170.00015028382745 178.0 50.0 434.00197238658757 1.2726771588416848 15.0 0.0 15.0 
180.00015028382745 178.0 50.0 434.00197238658757 0.7818041429686688 15.0 0.0 15.0 
190.00015028382745 178.0 50.0 434.00197238658757 0.6650977937623196 15.0 0.0 15.0 
200.00015028382745 179.0 51.0 434.00197238658757 0.6537789710720124 15.0 0.0 15.0 
210.00015028382745 186.0 53.0 434.00197238658757 0.7797412332412532 15.0 0.0 15.0 
220.00015028382745 194.0 55.0 436.26429980276083 1.4352478856802753 17.0 0.0 16.0 
230.00015028382745 202.0 58.0 436.26429980276083 2.6238792769825423 17.0 0.0 16.0 
240.00015028382745 194.0 55.0 436.26429980276083 2.1883005736097805 17.0 0.0 16.0 
250.00015028382745 190.0 54.0 438.5266272189347 1.5957553497406483 19.0 0.0 17.0 
260.00015028382745 195.0 55.0 440.7889546351087 2.0738851799333538 20.0 0.0 18.0 
270.00015028382745 195.0 55.0 440.7889546351087 1.630316847415893 20.0 0.0 18.0 
280.00015028382745 189.0 53.0 440.7889546351087 2.0994366575023617 20.0 0.0 18.0 
290.00015028382745 190.0 53.0 445.35700197238737 1.8081857725979613 21.0 0.0 20.0 
300.00015028382745 182.0 50.0 445.3274161735694 1.2164418359667521 20.0 0.0 20.0 
310.00015028382745 185.0 52.0 445.3195266272185 1.843742326154845 20.0 0.0 20.0 
320.00015028382745 182.0 50.0 445.33136094674603 0.8055272635696908 21.0 0.0 20.0 
330.00015028382745 182.0 50.0 445.33333333333377 1.5224008794442276 20.0 0.0 20.0 
340.00015028382745 186.0 51.0 445.3274161735694 1.3071397608999968 21.0 0.0 20.0 
350.00015028382745 188.0 52.0 443.0611439842207 0.7316019360307242 21.0 0.0 19.0 
360.00015028382745 190.0 53.0 443.0571992110454 1.2477390932470307 21.0 0.0 19.0 
370.00015028382745 188.0 52.0 445.339250493097 0.9413903753787808 21.0 0.0 20.0 
380.00015028382745 190.0 53.0 440.7889546351086 1.7054775233163657 21.0 0.0 18.0 
390.00015028382745 190.0 52.0 438.5266272189348 1.6492788008984496 18.0 0.0 17.0 
400.00015028382745 186.0 52.0 438.5266272189348 1.7000905832010056 18.0 0.0 17.0 
410.00015028382745 190.0 54.0 440.8106508875739 1.4087431979051697 19.0 0.0 18.0 
420.00015028382745 192.0 55.0 440.806706114398 1.391911003425419 20.0 0.0 18.0 
430.00015028382745 192.0 56.0 436.2682445759369 2.425027489724464 19.0 0.0 16.0 
440.00015028382745 192.0 56.0 436.2682445759369 2.2502055524025266 18.0 0.0 16.0 
450.00015028382745 178.0 53.0 436.26429980276083 1.2289135446202912 17.0 0.0 16.0 
460.00015028382745 183.0 55.0 434.00197238658757 1.4002553743883464 16.0 0.0 15.0 
470.00015028382745 191.0 57.0 434.00197238658757 1.2610633436302008 15.0 0.0 15.0 
480.00015028382745 194.0 59.0 434.00197238658757 1.497059274241997 15.0 0.0 15.0 
490.00015028382745 198.0 59.0 438.570019723866 2.0315277216333523 17.0 0.0 17.0 
500.00015028382745 193.0 57.0 438.53846153846183 2.3927105906809367 18.0 0.0 17.0 
510.00015028382745 186.0 54.0 438.53846153846183 1.6367442171000393 18.0 0.0 17.0 
520.0001502838275 182.0 52.0 438.53846153846183 0.6987783467136471 18.0 0.0 17.0 
530.0001502838275 182.0 52.0 438.53846153846183 1.1509040301659128 18.0 0.0 17.0 
540.0001502838275 190.0 55.0 438.53846153846183 1.1597103119719077 18.0 0.0 17.0 
550.0001502838275 188.0 55.0 438.53846153846183 0.9829457128715698 18.0 0.0 17.0 
560.0001502838275 191.0 56.0 438.53846153846183 1.4261721134379917 18.0 0.0 17.0 
570.0001502838275 188.0 55.0 438.53846153846183 0.758126725894604 18.0 0.0 17.0 
580.0001502838275 196.0 59.0 438.53846153846183 1.037706895780586 18.0 0.0 17.0 
590.0005829790528 202.0 61.0 438.5325443786987 2.180562705318995 18.0 0.0 17.0 
600.0005829790528 191.0 59.0 438.5325443786987 2.4694817484011153 18.0 0.0 17.0 
610.0001502838275 184.0 55.0 438.5325443786987 1.6218092968543019 18.0 0.0 17.0 
620.0001502838275 182.0 55.0 438.5325443786987 2.4261111138894815 18.0 0.0 17.0 
630.0001502838275 174.0 51.0 438.5325443786987 1.359655422141243 18.0 0.0 17.0 
640.0001502838275 174.0 50.0 436.2702169625242 1.1649094219573377 17.0 0.0 16.0 
650.0001502838275 174.0 50.0 436.2702169625242 0.6499816479754684 17.0 0.0 16.0 
660.0001502838275 180.0 51.0 434.00197238658757 0.8384359881223461 20.0 0.0 15.0 
#####################################################################
# End of data export. Simulation finished at: 2019-03-07T01:41+0000 #
#####################################################################
