#####################################################################
# Alchemist log file - simulation started at: 2019-03-10T23:03+0000 #
#####################################################################
# seed = 4.0, bandwidth = 74989.42093324558, accessPointCount = 72.92664737217109, baserange = 1000.0
#
# The columns have the following meaning: 
# time neighbor_count[Sum] <value>@neighbor_count[Sum] packet_size[Mean] mean_delay[Mean] crowd[Sum] overcrowded[Sum] risk[Sum] 
0.0 NaN NaN NaN NaN NaN NaN NaN 
2.0000042429967895 896.0 290.0 4986.970044614404 0.3742183588161288 1497.0 0.0 1497.0 
4.0000042429967895 5004.0 698.0 4987.949012109624 0.7483747785399565 1497.0 0.0 1497.0 
6.0000042429967895 12103.0 899.0 4988.836201402167 0.9649475774571212 1497.0 0.0 1497.0 
8.00000424299679 15406.0 920.0 4989.93499043977 1.1853067844950962 1497.0 0.0 1497.0 
10.00000424299679 41032.0 1276.0 4992.267686424474 1.1992394912222402 1497.0 0.0 1497.0 
12.00000424299679 43575.0 1273.0 4993.10643722116 1.5554850368760105 1497.0 0.0 1497.0 
14.00000424299679 38864.0 1171.0 4992.647546207776 1.9190939411637011 1496.0 1.0 1496.0 
16.000004242996788 29581.0 1075.0 4991.609942638624 1.142039017520859 1495.0 2.0 1495.0 
18.000004242996788 35184.0 1081.0 4991.533460803059 1.1409730044147097 1495.0 2.0 1495.0 
20.000004242996788 42985.0 1186.0 4992.716379859783 1.5997379511309089 1495.0 2.0 1495.0 
22.000004242996788 40665.0 1168.0 4992.349267049076 1.3979419672924962 1496.0 1.0 1496.0 
24.000004242996788 31547.0 1147.0 4992.430847673678 1.3993860326225065 1496.0 1.0 1496.0 
26.000004242996788 30627.0 1093.0 4991.395793499044 1.3905870303096828 1495.0 2.0 1495.0 
28.000004242996788 41065.0 1155.0 4992.5761631612495 1.3267660555002454 1495.0 2.0 1495.0 
30.000004242996788 42375.0 1197.0 4992.400254939452 1.4088657966909637 1495.0 2.0 1495.0 
32.00000424299679 42513.0 1202.0 4992.956022944551 1.6414093051930345 1496.0 1.0 1496.0 
34.00000424299679 28178.0 1059.0 4991.762906309751 1.3727401286031242 1496.0 1.0 1496.0 
36.00000424299679 31349.0 1048.0 4991.704270235819 1.1188274752935239 1495.0 2.0 1495.0 
38.00000424299679 44009.0 1207.0 4992.525175270873 1.2708927575521645 1495.0 2.0 1495.0 
40.00000424299679 44245.0 1214.0 4992.667941363926 1.7332182780936076 1495.0 2.0 1495.0 
42.00000424299679 29178.0 1127.0 4992.2090503505415 1.3954002177608384 1496.0 1.0 1496.0 
44.00000424299679 28722.0 1077.0 4991.668578712556 1.3867080554375324 1496.0 1.0 1496.0 
46.00000424299679 43653.0 1183.0 4992.346717654557 1.194017528462458 1495.0 2.0 1495.0 
48.00000424299679 41857.0 1180.0 4992.902485659656 1.5097349284935921 1495.0 2.0 1495.0 
50.00000424299679 39703.0 1171.0 4992.558317399617 1.6743675816988324 1495.0 2.0 1495.0 
52.00000424299679 30310.0 1087.0 4991.905672402804 1.201271020309325 1496.0 1.0 1496.0 
54.00000424299679 34726.0 1094.0 4991.502868068834 1.2634631612463672 1496.0 1.0 1496.0 
56.00000424299679 41242.0 1178.0 4992.560866794136 1.437847316090079 1495.0 2.0 1495.0 
58.00000424299679 42479.0 1200.0 4992.1963033779475 1.4352107576345947 1495.0 2.0 1495.0 
60.00000424299679 31865.0 1155.0 4989.815168897387 1.5134406695367255 1495.0 2.0 1495.0 
62.00000424299679 28289.0 1060.0 1370.5697896749523 1.248980440819532 650.0 0.0 331.0 
64.0000042429968 40917.0 1150.0 1371.4289356277889 0.8663868025983196 554.0 0.0 331.0 
66.0000042429968 44264.0 1212.0 1374.3913320586344 0.8971050704994902 515.0 3.0 329.0 
68.0000042429968 43739.0 1215.0 1374.376035691522 1.1584081036212357 487.0 4.0 328.0 
70.0000042429968 32984.0 1108.0 1373.6137667304026 0.8938210118700696 461.0 4.0 328.0 
72.0000042429968 36198.0 1119.0 1373.407265774377 0.6879819508258587 464.0 3.0 329.0 
74.0000042429968 44552.0 1212.0 1377.0478011472267 0.9261104977616204 469.0 3.0 330.0 
76.0000042429968 43191.0 1198.0 1380.038240917781 1.0655636253175829 467.0 3.0 331.0 
78.0000042429968 33879.0 1154.0 1382.9114085404708 0.8248907542423587 458.0 4.0 331.0 
80.0000042429968 34693.0 1131.0 1382.1389420012765 0.8368026775173121 453.0 4.0 331.0 
82.0000042429968 44526.0 1199.0 1388.8718929254308 0.8214606506457274 468.0 2.0 335.0 
84.0000042429968 42900.0 1197.0 1388.8387507966866 1.0210810035300983 464.0 2.0 335.0 
86.0000042429968 42733.0 1207.0 1388.8489483747621 1.0442810494917394 460.0 3.0 334.0 
88.0000042429968 34537.0 1130.0 1388.2574888463978 0.808723894379407 451.0 4.0 333.0 
90.0000042429968 35616.0 1113.0 1388.0025493945195 0.8709146641447271 453.0 4.0 333.0 
92.0000042429968 42501.0 1188.0 1388.836201402166 0.8224062295820347 464.0 2.0 335.0 
94.0000042429968 44606.0 1217.0 1388.7240280433414 1.0438561962404191 463.0 2.0 335.0 
96.0000042429968 36419.0 1193.0 1388.7265774378575 0.9373922613976079 458.0 3.0 334.0 
98.0000042429968 32894.0 1111.0 1387.9158699808813 0.8329758641232988 447.0 4.0 333.0 
100.0000042429968 43113.0 1186.0 1391.5564053537291 0.8310651454358442 461.0 4.0 334.0 
102.0000042429968 44639.0 1216.0 1391.8240917782014 0.9289565278155738 462.0 2.0 336.0 
104.0000042429968 42717.0 1199.0 1391.816443594645 1.197300343504238 462.0 2.0 336.0 
106.0000042429968 32379.0 1101.0 1391.1663479923534 0.7397043706772407 453.0 3.0 335.0 
108.0000042429968 36977.0 1129.0 1390.891013384322 0.7426611777658344 456.0 4.0 334.0 
110.0000042429968 44863.0 1219.0 1391.7399617590809 1.0036209102879812 461.0 4.0 334.0 
112.0000042429968 42937.0 1196.0 1394.595283620139 1.0521309878200904 461.0 2.0 337.0 
114.0000042429968 34946.0 1179.0 1394.4907584448704 0.8864729547141331 457.0 2.0 337.0 
116.0000042429968 34393.0 1127.0 1393.8304652644988 0.7879488675800668 455.0 3.0 336.0 
118.0000042429968 42897.0 1177.0 1394.5621414913962 0.8554120427233541 462.0 4.0 335.0 
120.0000042429968 42420.0 1187.0 1394.7915869980877 0.9894651014984953 465.0 4.0 335.0 
122.0000042429968 44020.0 1215.0 1400.5914595283612 1.0628337855558192 465.0 2.0 339.0 
124.0000042429968 34769.0 1132.0 1400.0076481835563 0.9001914528956645 456.0 2.0 339.0 
126.0000042429968 35218.0 1106.0 1399.808795411089 0.7864243821236722 456.0 3.0 338.0 
128.0000042429968 43314.0 1203.0 1403.3957934990428 0.8485150232965615 464.0 4.0 338.0 
130.0000042429968 44573.0 1214.0 1403.4952198852757 1.1161460753142574 464.0 4.0 338.0 
132.0000042429968 34871.0 1170.0 1403.449330783938 0.9200979509347077 458.0 2.0 340.0 
134.0000042429968 32196.0 1098.0 1399.5717017208415 0.7920842796586406 456.0 2.0 339.0 
136.0000042429968 44156.0 1193.0 1400.282982791588 0.7697469951299089 466.0 3.0 338.0 
138.0000042429968 44695.0 1218.0 1394.7125557680035 0.9979939485222984 463.0 4.0 335.0 
140.0000042429968 42227.0 1195.0 1394.6488209050358 1.2267805844219923 460.0 4.0 335.0 
142.0000042429968 33180.0 1119.0 1393.9987253027416 0.7236871004283044 454.0 2.0 337.0 
144.0000042429968 36868.0 1126.0 1393.7539834289364 0.8166141362394929 461.0 2.0 337.0 
146.0000042429968 43195.0 1197.0 1394.6386233269607 0.9149509845357282 462.0 3.0 336.0 
148.0000042429968 42374.0 1188.0 1397.5959209687685 1.008123300642297 463.0 4.0 336.0 
150.0000042429968 36363.0 1188.0 1397.4480560866791 0.9423227799052675 456.0 4.0 336.0 
152.0000042429968 34743.0 1132.0 1393.8483110261327 0.8377906420297249 453.0 2.0 337.0 
154.0000042429968 42342.0 1174.0 1394.5086042065027 0.8744241063609888 460.0 2.0 337.0 
156.0000042429968 43197.0 1206.0 1388.8030592734215 0.9016570086814276 459.0 3.0 334.0 
158.0000042429968 43951.0 1216.0 1388.9713193116645 1.1253124963267291 457.0 4.0 333.0 
160.0000042429968 33263.0 1114.0 1388.2804333970673 0.9288796544483732 444.0 4.0 333.0 
162.0000042429968 34687.0 1099.0 1388.1249203314208 0.6924988837833156 452.0 2.0 335.0 
164.0000042429968 44395.0 1215.0 1388.7954110898652 0.8974153979100699 460.0 2.0 335.0 
166.0000042429968 44648.0 1221.0 1391.745060548121 1.0787506030692189 458.0 3.0 335.0 
168.0000042429968 34698.0 1170.0 1391.6354365838126 0.941008478389957 449.0 4.0 334.0 
170.0000042429968 33319.0 1122.0 1390.8476736775003 0.8136501969010905 443.0 4.0 334.0 
172.0000042429968 43867.0 1195.0 1394.6335245379237 0.7944267320657342 462.0 1.0 338.0 
174.0000042429968 42882.0 1200.0 1388.9101338432126 1.0274254050041158 459.0 1.0 336.0 
176.0000042429968 41385.0 1188.0 1388.897386870617 1.0753163490021405 461.0 2.0 335.0 
178.0000042429968 34450.0 1131.0 1388.175908221799 0.7816723955165769 448.0 3.0 334.0 
180.0000042429968 37451.0 1131.0 1388.068833652006 0.8819219064119536 457.0 3.0 334.0 
182.0000042429968 42405.0 1196.0 1385.8049713193104 0.895643670668391 461.0 1.0 335.0 
184.0000042429968 42853.0 1208.0 1385.853409815167 1.0366425540174138 464.0 1.0 335.0 
186.0000042429968 35841.0 1180.0 1385.8483110261327 0.8651584373801294 451.0 2.0 334.0 
188.0000042429968 33244.0 1115.0 1382.1389420012767 0.8498052102909788 446.0 3.0 332.0 
190.0000042429968 41647.0 1175.0 1382.970044614405 0.8324019005352374 463.0 3.0 332.0 
192.0000042429968 44042.0 1216.0 1383.0235818992992 0.8929574861064701 466.0 1.0 334.0 
194.0000042429968 43346.0 1220.0 1383.0618228170817 1.1914530828252716 465.0 1.0 334.0 
196.0000042429968 32851.0 1111.0 1382.3658381134499 0.8407212393460025 451.0 2.0 333.0 
198.0000042429968 36087.0 1120.0 1384.9509241555147 0.7172175487971552 458.0 3.0 333.0 
200.0000042429968 43928.0 1215.0 1388.7903123008282 0.9778742204037368 464.0 3.0 334.0 
202.0000042429968 42643.0 1199.0 1394.7100063734879 1.0578451976665761 464.0 1.0 338.0 
204.0000042429968 33335.0 1151.0 1394.592734225623 0.8767038569202661 458.0 1.0 338.0 
206.0000042429968 34227.0 1129.0 1393.8228170809423 0.7755630449326181 451.0 2.0 337.0 
208.0000042429968 43547.0 1206.0 1391.6583811344815 0.8735080368766784 465.0 3.0 335.0 
210.0000042429968 41881.0 1195.0 1388.8107074569778 1.0565109752142459 460.0 3.0 334.0 
212.0000042429968 41367.0 1206.0 1388.7750159337158 1.0383083384926162 464.0 1.0 336.0 
214.0000042429968 34253.0 1129.0 1388.1427660930547 0.8445762153829888 453.0 1.0 336.0 
216.0000042429968 36879.0 1115.0 1388.0764818355622 0.8022042662991031 462.0 2.0 335.0 
218.0000042429968 41078.0 1187.0 1388.624601657105 0.8550409554980315 463.0 3.0 334.0 
220.0000042429968 43377.0 1218.0 1388.5226258763525 1.1046257547089195 464.0 3.0 334.0 
222.0000042429968 34884.0 1167.0 1388.632249840661 0.863179481778431 459.0 1.0 336.0 
224.0000042429968 32322.0 1107.0 1387.936265137029 0.861023056958701 450.0 1.0 336.0 
226.0000042429968 41650.0 1202.0 1391.780752071383 0.7651757290227122 461.0 2.0 336.0 
228.0000042429968 43184.0 1214.0 1394.8451242829847 0.9795953188514472 464.0 3.0 336.0 
230.0000042429968 39503.0 1197.0 1394.7202039515637 1.1948626694080287 459.0 3.0 336.0 
232.0000042429968 32084.0 1102.0 1393.996175908222 0.7446989130713889 456.0 1.0 338.0 
234.0000042429968 42709.0 1212.0 1397.6851497769285 0.8163022988667148 465.0 1.0 339.0 
236.0000042429968 43182.0 1218.0 1391.9515615041414 1.0344426395357984 464.0 2.0 336.0 
238.0000042429968 38352.0 1194.0 1389.0019120458892 1.106634182848265 458.0 3.0 334.0 
240.0000042429968 33115.0 1122.0 1387.8776290630988 0.8214231199517599 449.0 3.0 334.0 
242.0000042429968 42640.0 1212.0 1391.928616953472 0.8175003258774374 464.0 1.0 337.0 
244.0000042429968 41572.0 1198.0 1389.0197578075213 1.0621032634509753 461.0 1.0 336.0 
246.0000042429968 37437.0 1186.0 1386.0854047163812 0.9801403928656767 460.0 2.0 334.0 
248.0000042429968 34835.0 1137.0 1385.0783938814513 0.7989477751974532 451.0 3.0 333.0 
250.0000042429968 42707.0 1216.0 1386.059910771193 0.9594538128836869 463.0 3.0 333.0 
252.0000042429968 41088.0 1194.0 1383.066921606117 0.9817645432647013 461.0 1.0 334.0 
254.0000042429968 37680.0 1203.0 1380.150414276611 1.0058605531454068 459.0 1.0 333.0 
256.0000042429968 34966.0 1137.0 1379.2938177182903 0.8188965212380559 450.0 2.0 332.0 
258.0000042429968 41240.0 1197.0 1380.1784576163145 0.8759176725180532 459.0 3.0 331.0 
260.0000042429968 40559.0 1187.0 1380.1478648820894 1.0180035045473739 463.0 3.0 331.0 
262.0000042429968 38598.0 1215.0 1377.1089866156778 0.9493941674173915 460.0 1.0 332.0 
264.0000042429968 35205.0 1142.0 1376.2829827915882 0.8812032218157528 450.0 1.0 332.0 
266.0000042429968 40820.0 1195.0 1383.1102613129392 0.8782403609129021 458.0 2.0 333.0 
268.0000042429968 41416.0 1208.0 1383.0031867431474 0.9447921067795254 461.0 3.0 332.0 
270.0000042429968 38571.0 1216.0 1383.0592734225609 1.0777071487331538 458.0 3.0 332.0 
272.0000042429968 33498.0 1122.0 1370.4627151051616 0.8313930522253886 449.0 1.0 330.0 
274.0000042429968 39899.0 1184.0 1383.0720203951578 0.829346546204615 463.0 1.0 334.0 
276.0000042429968 42328.0 1217.0 1382.9623964308494 0.9472871163106662 464.0 2.0 333.0 
278.0000042429968 38480.0 1218.0 1385.9579349904413 1.0674314930784992 460.0 3.0 333.0 
280.0000042429968 33251.0 1115.0 1385.1038878266413 0.9114294905393676 452.0 3.0 333.0 
282.0000042429968 40683.0 1199.0 1388.7214786488223 0.7548944387988599 466.0 1.0 336.0 
284.0000042429968 42204.0 1215.0 1388.8463989802437 1.0509272244667378 468.0 1.0 336.0 
286.0000042429968 36096.0 1194.0 1382.9751434034426 1.0272641677709815 463.0 2.0 333.0 
288.0000042429968 32646.0 1106.0 1382.2307202039513 0.7618683251917282 455.0 3.0 332.0 
290.0000042429968 41802.0 1208.0 1383.0210325047792 0.8896164269373563 461.0 3.0 332.0 
292.0000042429968 42175.0 1219.0 1383.0924155513073 1.0214196855466158 463.0 1.0 334.0 
294.0000042429968 35518.0 1192.0 1388.8132568514964 1.0524908708684648 460.0 1.0 336.0 
296.0000042429968 33619.0 1125.0 1388.0458891013375 0.7569624248523805 456.0 2.0 335.0 
298.0000042429968 41641.0 1211.0 1386.0012746972582 0.8621075546158538 461.0 3.0 333.0 
300.0000042429968 40426.0 1198.0 1385.9936265137019 1.1016607449055176 459.0 3.0 333.0 
302.0000042429968 34362.0 1174.0 1388.9611217335867 0.902639093765552 462.0 1.0 336.0 
304.0000042429968 35528.0 1136.0 1385.2364563416184 0.8081582262873502 458.0 1.0 335.0 
306.0000042429968 41794.0 1215.0 1385.8916507329495 0.9004042796806483 461.0 2.0 334.0 
308.0000042429968 40049.0 1196.0 1385.7463352453804 1.052104826196516 457.0 3.0 333.0 
310.0000042429968 34785.0 1185.0 1379.920968769916 0.9578730343302574 454.0 3.0 331.0 
312.0000042429968 35554.0 1135.0 1379.3906947100074 0.7681771631867959 457.0 1.0 333.0 
314.0000042429968 40191.0 1193.0 1380.0994263862324 0.939137800456051 458.0 1.0 333.0 
316.0000042429968 39514.0 1187.0 1380.1249203314208 0.9587872570690753 462.0 2.0 332.0 
318.0000042429968 36107.0 1194.0 1379.8878266411716 0.9071559350660647 455.0 3.0 331.0 
320.0000042429968 36065.0 1142.0 1373.6341618865501 0.9138945847951764 456.0 3.0 329.0 
322.0000042429968 39694.0 1192.0 1371.1383046526441 0.8647364843423196 458.0 1.0 330.0 
324.0000042429968 40112.0 1206.0 1374.0395156150398 0.9746069154428167 460.0 1.0 331.0 
326.0000042429968 35790.0 1189.0 1374.003824091778 0.9269510004792364 456.0 2.0 330.0 
328.0000042429968 35800.0 1125.0 1376.5710643722111 0.8296504347446794 453.0 3.0 330.0 
330.0000042429968 39247.0 1189.0 1368.216698534097 0.8933416917314682 457.0 3.0 327.0 
332.0000042429968 41344.0 1216.0 1371.0184831102601 0.9609160507849077 459.0 1.0 330.0 
334.0000042429968 35329.0 1181.0 1376.9764181007004 0.9744311751630607 453.0 1.0 332.0 
336.0000042429968 35304.0 1123.0 1370.6233269598483 0.8064158297054511 454.0 2.0 329.0 
338.0000042429968 39979.0 1208.0 1371.0312300828568 0.8394393112449392 456.0 3.0 328.0 
340.0000042429968 41193.0 1216.0 1371.133205863608 1.0778915712335375 459.0 3.0 328.0 
342.0000042429968 34121.0 1164.0 1373.8891013384332 0.8765591549906029 453.0 1.0 331.0 
344.0000042429968 35900.0 1120.0 1373.5933715742494 0.7811894964629981 467.0 1.0 331.0 
346.0000042429968 41339.0 1218.0 1376.9101338432129 0.8472839604834068 468.0 2.0 331.0 
348.0000042429968 41570.0 1221.0 1373.9451880178437 1.05153964771086 465.0 3.0 329.0 
350.0000042429968 33519.0 1147.0 1370.8782664117266 0.9715591733712546 454.0 3.0 328.0 
352.0000042429968 39689.0 1204.0 1373.9528362014037 0.739870880285316 467.0 1.0 331.0 
354.0000042429968 41332.0 1218.0 1371.181644359466 0.9687460624571426 468.0 1.0 330.0 
356.0000042429968 38739.0 1201.0 1371.1790949649471 1.0874177250970145 463.0 2.0 329.0 
358.0000042429968 35812.0 1127.0 1370.7253027406 0.7540270636800654 463.0 3.0 328.0 
360.0000042429968 41093.0 1216.0 1370.919056724027 0.9070117608907555 465.0 3.0 328.0 
362.0000042429968 41391.0 1222.0 1370.9929891650743 1.0294812238533846 467.0 1.0 330.0 
364.0000042429968 33909.0 1154.0 1368.0458891013375 0.9630361650626948 458.0 1.0 329.0 
366.0000042429968 39562.0 1202.0 1368.0050987890368 0.7657262824253065 463.0 2.0 328.0 
368.0000042429968 41254.0 1219.0 1374.0701083492686 0.9623396532567049 465.0 3.0 329.0 
370.0000042429968 38490.0 1203.0 1353.590822179734 1.1391335771913988 462.0 3.0 322.0 
372.0000042429968 35855.0 1131.0 1356.0815806246026 0.7300735671863426 467.0 1.0 325.0 
374.0000042429968 40919.0 1216.0 1356.3237731038887 0.8890807806149024 468.0 1.0 325.0 
376.0000042429968 41214.0 1222.0 1353.544933078395 1.0409885262827447 465.0 2.0 323.0 
378.0000042429968 34061.0 1158.0 1353.4047163798614 0.8890402865938122 452.0 3.0 322.0 
380.0000042429968 39451.0 1202.0 1356.155513065646 0.8491091876561644 467.0 3.0 323.0 
382.0000042429968 41092.0 1217.0 1356.4665391969395 0.9075551844610811 468.0 1.0 325.0 
384.0000042429968 38487.0 1202.0 1356.4104525175285 1.0777444799714728 464.0 1.0 325.0 
386.0000042429968 35928.0 1136.0 1356.1861057998708 0.7610904604320913 467.0 2.0 324.0 
388.0000042429968 40936.0 1219.0 1362.2434671765448 0.8608501601728465 467.0 3.0 325.0 
390.0000042429968 41262.0 1224.0 1353.5168897386854 1.095222904711629 464.0 3.0 322.0 
392.0000042429968 34029.0 1160.0 1359.2581261950302 0.9023284046591408 462.0 1.0 326.0 
394.0000042429968 39281.0 1202.0 1356.2498406628417 0.8160536817255253 470.0 2.0 324.0 
396.0000042429968 40900.0 1217.0 1359.4161886551954 0.9262838301702674 471.0 3.0 324.0 
398.0000042429968 38390.0 1201.0 1359.4161886551954 1.0560555800421263 466.0 4.0 323.0 
400.0000042429968 35973.0 1137.0 1359.08731676227 0.8361115535472406 466.0 4.0 323.0 
402.0000042429968 40667.0 1216.0 1353.3970681963049 0.8128479054528776 469.0 2.0 323.0 
404.0000042429968 40944.0 1224.0 1350.51370299554 1.0814368693851426 469.0 1.0 323.0 
406.0000042429968 34011.0 1155.0 1350.452517527088 0.8906139667217249 461.0 3.0 321.0 
408.0000042429968 39520.0 1206.0 1356.2498406628417 0.7817835365657411 467.0 5.0 321.0 
410.0000042429968 40902.0 1222.0 1359.3575525812612 1.0171943980841796 466.0 5.0 322.0 
412.0000042429968 37957.0 1205.0 1365.2568514977681 1.026416829435257 467.0 2.0 327.0 
414.0000042429968 35605.0 1137.0 1364.836201402166 0.7983946709069509 462.0 2.0 327.0 
416.0000042429968 40473.0 1219.0 1356.3645634161876 0.8522371249591009 470.0 2.0 324.0 
418.0000042429968 40893.0 1224.0 1353.5500318674317 1.0407258050498103 467.0 3.0 322.0 
420.0000042429968 34015.0 1165.0 1353.284894837477 0.9818209292033038 458.0 3.0 322.0 
422.0000042429968 39232.0 1202.0 1353.371574251117 0.7547991214887911 464.0 1.0 324.0 
424.0000042429968 40499.0 1218.0 1356.5175270873178 0.9925225266625597 467.0 1.0 325.0 
426.0000042429968 37988.0 1204.0 1353.5245379222415 1.0563575647482824 460.0 2.0 323.0 
428.0000042429968 35545.0 1136.0 1359.1179094964955 0.7745270908354394 462.0 3.0 324.0 
430.0000042429968 40412.0 1218.0 1353.292543021034 0.9203154331968215 464.0 4.0 321.0 
432.0000042429968 40817.0 1223.0 1356.3084767367764 0.9917404155319428 469.0 1.0 325.0 
434.0000042429968 34123.0 1159.0 1359.1281070745688 0.9531175958676366 462.0 1.0 326.0 
436.0000042429968 39209.0 1204.0 1368.0662842574905 0.7920483516320639 469.0 2.0 328.0 
438.0000042429968 40413.0 1217.0 1368.0943275971963 0.9452667199457577 468.0 3.0 327.0 
440.0000042429968 38060.0 1202.0 1374.0165710643712 1.1179370193300873 469.0 3.0 329.0 
442.0000042429968 35736.0 1138.0 1373.7463352453801 0.748419505773399 475.0 1.0 331.0 
444.0000042429968 40305.0 1221.0 1376.7801147227524 0.8900162504612059 478.0 2.0 331.0 
446.0000042429968 40720.0 1225.0 1376.8922880815803 1.0390266554627854 477.0 2.0 331.0 
448.0000042429968 34097.0 1160.0 1379.7629063097509 0.9217955055178445 471.0 3.0 331.0 
450.0000042429968 39152.0 1205.0 1388.356915232631 0.8610036136273758 477.0 3.0 334.0 
452.0000042429968 40294.0 1218.0 1397.468451242829 0.937193744373976 481.0 1.0 339.0 
454.0000042429968 37620.0 1204.0 1397.468451242829 1.1069606179835993 477.0 1.0 339.0 
456.0000042429968 35596.0 1138.0 1394.2460165710636 0.7678104175551462 476.0 2.0 337.0 
458.0000042429968 40115.0 1217.0 1400.293180369664 0.8713318689861622 476.0 4.0 337.0 
460.0000042429968 40612.0 1224.0 1397.450605481199 1.1116582923577054 477.0 3.0 337.0 
462.0000042429968 33710.0 1159.0 1397.2109623964302 0.8981341244861424 469.0 1.0 339.0 
464.0000042429968 38898.0 1202.0 1394.416826003822 0.8285383677971536 471.0 1.0 338.0 
466.0000042429968 40137.0 1218.0 1391.6507329509254 0.9547007248135791 474.0 2.0 336.0 
468.0000042429968 37590.0 1204.0 1391.5997450605466 1.05198497650143 470.0 3.0 335.0 
470.0000042429968 35746.0 1142.0 1391.344805608669 0.8620595760038098 470.0 3.0 335.0 
472.0000042429968 40065.0 1219.0 1388.5226258763523 0.8363434231082374 475.0 2.0 335.0 
474.0000042429968 40528.0 1226.0 1385.6316124920352 1.0735979518040666 472.0 2.0 334.0 
476.0000042429968 33743.0 1159.0 1379.7042702358208 0.9153348514019604 470.0 2.0 332.0 
478.0000042429968 38921.0 1204.0 1376.8285532186094 0.8067649364188132 469.0 3.0 330.0 
480.0000042429968 40167.0 1219.0 1376.8948374761007 0.9987832857503871 469.0 3.0 330.0 
482.0000042429968 37357.0 1204.0 1376.9534735500306 1.0189794741546747 471.0 1.0 332.0 
484.0000042429968 35830.0 1145.0 1376.588910133845 0.818925437600943 472.0 1.0 332.0 
486.0000042429968 39955.0 1221.0 1373.756532823456 0.8687822429484633 469.0 3.0 329.0 
488.0000042429968 40353.0 1225.0 1367.994901210964 1.067511553850833 471.0 3.0 327.0 
490.0000042429968 33643.0 1156.0 1359.1816443594666 0.97555793493895 462.0 3.0 324.0 
492.0000042429968 38793.0 1202.0 1353.422562141491 0.7449547311621825 471.0 1.0 324.0 
494.0000042429968 39896.0 1217.0 1347.6175908221808 0.993147092743689 471.0 1.0 322.0 
496.0000042429968 36844.0 1202.0 1347.701720841299 1.0192294454308939 468.0 2.0 321.0 
498.0000042429968 35855.0 1146.0 1344.3824091778192 0.7549025146692009 463.0 3.0 319.0 
500.0000042429968 39861.0 1217.0 1341.6290630975157 0.9218021284006905 465.0 4.0 317.0 
502.0000042429968 40217.0 1223.0 1335.9082217973234 1.0042612077111588 468.0 1.0 318.0 
504.0000042429968 33786.0 1154.0 1335.6889738687064 0.9056692312140299 460.0 2.0 317.0 
506.0000042429968 38787.0 1201.0 1338.842574888465 0.785085996022119 467.0 3.0 317.0 
508.0000042429968 39885.0 1216.0 1341.812619502867 0.9404345804582327 466.0 4.0 317.0 
510.0000042429968 36822.0 1200.0 1344.6755895474832 1.0740346550954738 463.0 4.0 318.0 
512.0000042429967 35831.0 1143.0 1344.3390694710013 0.7458898599747802 469.0 2.0 320.0 
514.0000042429967 39679.0 1215.0 1335.7144678138925 0.8866666540778452 466.0 3.0 316.0 
516.0000042429967 40214.0 1224.0 1332.859145952834 1.0117881768110208 463.0 3.0 315.0 
518.0000042429967 33913.0 1158.0 1326.9088591459524 0.901095602537722 455.0 4.0 312.0 
520.0000042429967 38690.0 1203.0 1321.2339069471 0.8570150286116103 459.0 4.0 310.0 
522.0000042429967 39926.0 1217.0 1318.4040790312315 0.8825268675852308 458.0 2.0 311.0 
524.0000042429967 37034.0 1206.0 1321.3205863607393 1.0453158053688933 453.0 2.0 312.0 
526.0000042429967 36342.0 1154.0 1320.9866156787768 0.7797485865102544 459.0 3.0 311.0 
528.0000042429967 39808.0 1219.0 1315.1918419375374 0.8311096811635246 454.0 5.0 307.0 
530.0000042429967 40458.0 1227.0 1315.2785213511777 1.0837179572466946 452.0 4.0 308.0 
532.0000042429967 34297.0 1159.0 1318.0777565328237 0.8447312884604937 443.0 2.0 311.0 
534.0000042429967 38830.0 1210.0 1324.203951561505 0.8122709110370793 455.0 2.0 313.0 
536.0000042429967 39896.0 1218.0 1321.3358827278523 0.9268105164395266 457.0 2.0 312.0 
538.0000042429967 36970.0 1207.0 1324.300828553219 1.0059776180417441 451.0 3.0 312.0 
540.0000042429967 36492.0 1153.0 1323.8419375398328 0.8177171411891716 458.0 3.0 312.0 
542.0000042429967 39643.0 1216.0 1329.924792861694 0.823343791239198 458.0 2.0 315.0 
544.0000042429967 40373.0 1226.0 1338.7890376035684 1.0496049603247206 464.0 1.0 319.0 
546.0000042429967 34213.0 1159.0 1335.6634799235185 0.8624402415839307 453.0 2.0 317.0 
548.0000042429967 38767.0 1209.0 1333.0121096239634 0.8084403494738589 463.0 3.0 315.0 
550.0000042429967 39767.0 1214.0 1330.1134480560868 0.9937789901337378 460.0 3.0 314.0 
552.0000042429967 36838.0 1206.0 1330.1236456341612 0.948409753907123 460.0 1.0 316.0 
554.0000042429967 36523.0 1157.0 1329.7488846398983 0.8223209168728769 463.0 1.0 316.0 
556.0000042429967 39560.0 1218.0 1326.9827915869987 0.8468613318731274 461.0 3.0 313.0 
558.0000042429967 40403.0 1227.0 1329.9120458891007 1.0154098617075253 462.0 3.0 314.0 
560.0000042429967 34365.0 1160.0 1323.9439133205847 0.9555501984277394 456.0 3.0 312.0 
562.0000042429967 38643.0 1209.0 1321.1140854047162 0.7755821091968957 459.0 1.0 313.0 
564.0000042429967 39621.0 1215.0 1318.3250478011475 0.9425622890948396 465.0 1.0 312.0 
566.0000042429967 36852.0 1205.0 1324.1963033779487 0.990405930447069 457.0 2.0 313.0 
568.0000042429967 36515.0 1158.0 1329.7463352453804 0.7848699267813767 459.0 3.0 314.0 
570.0000042429967 39312.0 1216.0 1338.707456978966 0.9162488719806012 460.0 4.0 316.0 
572.0000042429967 40045.0 1224.0 1332.8973868706182 1.000031480695599 463.0 1.0 317.0 
574.0000042429967 34465.0 1161.0 1335.6252390057375 0.9281679029438044 456.0 1.0 318.0 
576.0000042429967 38570.0 1210.0 1338.89356277884 0.8043058465895715 460.0 2.0 318.0 
578.0000042429967 39545.0 1216.0 1338.9343530911399 0.9632158526454548 462.0 2.0 318.0 
580.0000042429967 36264.0 1201.0 1341.8228170809423 1.0583734068929975 456.0 3.0 318.0 
582.0000042429967 36612.0 1159.0 1341.7106437221153 0.7549101770990833 459.0 2.0 319.0 
584.0000042429967 39139.0 1212.0 1341.7539834289364 0.9022719481905308 462.0 3.0 318.0 
586.0000042429967 39799.0 1220.0 1341.7769279796048 1.0278398775064612 458.0 3.0 318.0 
588.0000042429967 34346.0 1156.0 1341.6188655194376 0.8711952625842209 464.0 3.0 318.0 
590.0000042429967 38267.0 1206.0 1341.8075207138295 0.8894314118673599 468.0 3.0 318.0 
592.0000042429967 39478.0 1214.0 1336.035691523263 0.9224458492572181 470.0 2.0 317.0 
594.0000042429967 35936.0 1195.0 1338.9547482472917 1.0078063528288683 464.0 2.0 318.0 
596.0000042429967 36646.0 1166.0 1335.8495857233888 0.7952720511623846 470.0 3.0 316.0 
598.0000042429967 39124.0 1211.0 1332.8667941363933 0.8797759362307664 470.0 3.0 315.0 
600.0000042429967 39689.0 1219.0 1335.8827278521353 1.0787208133968926 473.0 3.0 316.0 
602.0000042429967 34460.0 1154.0 1335.6634799235185 0.8725939376450788 470.0 2.0 317.0 
604.0000042429967 38235.0 1206.0 1338.8068833652 0.8493172240726138 475.0 2.0 318.0 
606.0000042429967 39365.0 1212.0 1338.9751434034426 0.9390194488365021 470.0 3.0 317.0 
608.0000042429967 35851.0 1192.0 1344.8183556405343 0.9891583334075911 466.0 3.0 319.0 
610.0000042429967 36613.0 1168.0 1356.420650095602 0.8743320257229237 468.0 3.0 323.0 
612.0000042429967 38980.0 1211.0 1359.324410452517 0.8363636088543739 470.0 2.0 325.0 
614.0000042429967 39565.0 1216.0 1356.3926067558964 1.0711738992666766 465.0 2.0 324.0 
616.0000042429967 34703.0 1154.0 1356.155513065646 0.8882709260276327 461.0 3.0 323.0 
618.0000042429967 38098.0 1202.0 1356.3186743148499 0.8117206296917971 467.0 3.0 323.0 
620.0000042429967 39310.0 1209.0 1353.5168897386854 1.0167440653949515 468.0 3.0 322.0 
622.0000042429967 35791.0 1191.0 1362.2842574888452 0.9606541333605749 464.0 2.0 326.0 
624.0000042429967 36673.0 1165.0 1368.0815806246028 0.8285505082960827 467.0 2.0 328.0 
626.0000042429967 38977.0 1210.0 1368.0943275971963 0.8898417836971312 464.0 3.0 327.0 
628.0000042429967 39671.0 1218.0 1371.0541746335257 1.0297705718078083 467.0 3.0 328.0 
630.0000042429967 34693.0 1156.0 1364.9789674952206 0.9630131179055413 461.0 2.0 327.0 
632.0000042429967 38227.0 1207.0 1368.1886551943921 0.8110360404402982 468.0 1.0 329.0 
634.0000042429967 39181.0 1209.0 1365.2848948374772 0.9935093844429841 466.0 2.0 327.0 
636.0000042429967 35749.0 1193.0 1368.2498406628417 0.9796663610541114 465.0 3.0 327.0 
638.0000042429967 36466.0 1165.0 1365.0834926704922 0.8261209523637478 465.0 4.0 325.0 
640.0000042429967 38737.0 1209.0 1365.1727214786476 0.9438995815981139 461.0 9.0 320.0 
642.0000042429967 39589.0 1218.0 1365.2670490758435 1.0011434616855113 465.0 2.0 327.0 
644.0000042429967 34462.0 1152.0 1362.0930528999374 0.9344040123540376 465.0 2.0 326.0 
646.0000042429967 37894.0 1203.0 1365.200764818357 0.8349994262659876 466.0 3.0 326.0 
648.0000042429967 38953.0 1205.0 1362.347992351816 0.9350073037703011 466.0 4.0 324.0 
650.0000042429967 35514.0 1187.0 1365.2746972593998 1.0654164641595292 455.0 4.0 325.0 
652.0000042429967 36386.0 1164.0 1368.0458891013375 0.7756829190797644 459.0 2.0 328.0 
654.0000042429967 38583.0 1204.0 1368.1223709369008 0.9063127929251835 454.0 3.0 327.0 
656.0000042429967 39368.0 1218.0 1377.0019120458892 1.0298991370035102 458.0 3.0 330.0 
658.0000042429967 34792.0 1152.0 1376.6832377310398 0.9022433980325851 453.0 3.0 330.0 
660.0000042429967 37819.0 1203.0 1376.8999362651366 0.8774376958817831 451.0 4.0 329.0 
662.0000042429967 39108.0 1212.0 1379.9107711918402 0.9454321504282608 449.0 10.0 324.0 
664.0000042429967 35361.0 1187.0 1376.996813256853 1.0172789708147265 442.0 10.0 323.0 
#####################################################################
# End of data export. Simulation finished at: 2019-03-10T23:28+0000 #
#####################################################################
