#####################################################################
# Alchemist log file - simulation started at: 2019-03-12T06:22+0000 #
#####################################################################
# seed = 5.0, bandwidth = 1000.0, accessPointCount = 72.92664737217109, baserange = 1000.0
#
# The columns have the following meaning: 
# time neighbor_count[Sum] <value>@neighbor_count[Sum] packet_size[Mean] mean_delay[Mean] crowd[Sum] overcrowded[Sum] risk[Sum] 
0.0 NaN NaN NaN NaN NaN NaN NaN 
2.000101793669918 NaN NaN 4986.898661567878 NaN 1497.0 0.0 1497.0 
4.000101793669918 NaN NaN 4986.898661567878 NaN 1497.0 0.0 1497.0 
6.000101793669918 5.0 1.0 4986.898661567878 0.5631360075971756 1497.0 0.0 1497.0 
8.000101793669918 5.0 1.0 4986.898661567878 2.5631360075971754 1497.0 0.0 1497.0 
10.000101793669918 5.0 1.0 4986.898661567878 4.563136007597176 1497.0 0.0 1497.0 
12.000101793669918 70.0 10.0 4986.903760356915 1.2825858611014498 1497.0 0.0 1497.0 
14.000101793669918 70.0 10.0 4986.91395793499 3.28258586110145 1497.0 0.0 1497.0 
16.00010179366992 94.0 17.0 4986.91395793499 3.9653120536031965 1497.0 0.0 1497.0 
18.00010179366992 108.0 23.0 4986.91395793499 5.582845021470081 1497.0 0.0 1497.0 
20.00010179366992 108.0 23.0 4986.91395793499 7.58284502147008 1497.0 0.0 1497.0 
22.00010179366992 209.0 48.0 4986.944550669216 5.666571519088456 1497.0 0.0 1497.0 
24.00010179366992 209.0 48.0 4986.944550669216 7.666571519088456 1497.0 0.0 1497.0 
26.00010179366992 266.0 51.0 4986.944550669216 7.250704339125071 1497.0 0.0 1497.0 
28.00010179366992 297.0 56.0 4986.959847036329 8.856451719529197 1497.0 0.0 1497.0 
30.00010179366992 297.0 56.0 4986.959847036329 10.549686287430431 1497.0 0.0 1497.0 
32.00010179366992 607.0 76.0 4987.000637348629 5.197207289712097 1497.0 0.0 1497.0 
34.00010179366992 607.0 76.0 4987.026131293817 7.197207289712097 1497.0 0.0 1497.0 
36.00010179366992 760.0 99.0 4987.0312300828555 8.075467648651385 1497.0 0.0 1497.0 
38.00010179366992 907.0 111.0 4987.100063734863 9.533422717630254 1497.0 0.0 1497.0 
40.00010179366992 907.0 111.0 4987.089866156788 11.533422717630254 1497.0 0.0 1497.0 
42.00010179366992 1180.0 129.0 4987.1434034416825 9.05580209779251 1497.0 0.0 1497.0 
44.00010179366992 1180.0 129.0 4987.1739961759085 11.05580209779251 1497.0 0.0 1497.0 
46.00010179366992 1275.0 146.0 4987.1867431485025 11.87968601391503 1497.0 0.0 1497.0 
48.00010179366992 1439.0 157.0 4987.21223709369 12.758055858442138 1497.0 0.0 1497.0 
50.00010179366992 1458.0 160.0 4987.21223709369 14.300668314681067 1497.0 0.0 1497.0 
52.00010179366992 1813.0 204.0 4987.306564690886 11.836666627658232 1497.0 0.0 1497.0 
54.00010179366992 1813.0 204.0 4987.296367112811 13.836666627658232 1497.0 0.0 1497.0 
56.00010179366992 1992.0 215.0 4987.306564690886 14.209741305344892 1497.0 0.0 1497.0 
58.00010179366992 2247.0 240.0 4987.385595920969 15.02386400618221 1497.0 0.0 1497.0 
60.00010179366992 2250.0 242.0 4984.456341618866 16.88971911797118 1496.0 0.0 1496.0 
62.00010179366992 2174.0 247.0 414.6819630337794 12.557143244127385 92.0 0.0 5.0 
64.00010179366993 2174.0 247.0 414.6819630337794 14.441654423045556 89.0 0.0 5.0 
66.00010179366993 2277.0 244.0 414.6819630337794 13.86965812494699 87.0 0.0 5.0 
68.00010179366993 2231.0 244.0 414.6870618228173 13.471459506156181 82.0 0.0 5.0 
70.00010179366993 2235.0 244.0 414.6870618228173 15.017194156158787 82.0 0.0 5.0 
72.00010179366993 2433.0 270.0 414.6870618228173 12.748085231039338 55.0 0.0 5.0 
74.00010179366993 2433.0 270.0 414.6870618228173 14.10835360951126 55.0 0.0 5.0 
76.00010179366993 2816.0 286.0 414.6870618228173 11.833125542078825 51.0 0.0 5.0 
78.00010179366993 2840.0 285.0 414.67941363926076 11.152559185145725 46.0 0.0 5.0 
80.00010179366993 2843.0 285.0 414.67431485022325 12.25611179747279 44.0 0.0 5.0 
82.00010179366993 2658.0 254.0 414.67431485022325 9.72129601485834 36.0 0.0 5.0 
84.00010179366993 2667.0 255.0 414.67431485022325 9.446482269791515 31.0 0.0 5.0 
86.00010179366993 2511.0 251.0 414.67431485022325 8.206057013611588 23.0 0.0 5.0 
88.00010179366993 2303.0 231.0 414.62587635436574 5.405224035020526 12.0 0.0 5.0 
90.00010179366993 2306.0 231.0 414.6207775653284 5.823678611148049 12.0 0.0 5.0 
92.00010179366993 2685.0 277.0 414.6207775653284 4.433746143980376 8.0 0.0 5.0 
94.00010179366993 2685.0 277.0 414.6207775653284 5.6725694397474 8.0 0.0 5.0 
96.00010179366993 2837.0 300.0 414.6207775653284 5.434652968761343 8.0 0.0 5.0 
98.00010179366993 2923.0 306.0 414.6207775653284 5.9827560810979294 8.0 0.0 5.0 
100.00010179366993 2921.0 306.0 414.6207775653284 6.679535365867396 8.0 0.0 5.0 
102.00010179366993 3094.0 321.0 414.6207775653284 4.685144698423631 8.0 0.0 5.0 
104.00010179366993 3095.0 321.0 414.6207775653284 4.888327304615272 8.0 0.0 5.0 
106.00010179366993 3200.0 338.0 414.6207775653284 4.3915761542207745 8.0 0.0 5.0 
108.00010179366993 3286.0 352.0 414.6207775653284 3.193557080629354 8.0 0.0 5.0 
110.00010179366993 3288.0 352.0 414.6207775653284 4.026485614520247 8.0 0.0 5.0 
112.00010179366993 3514.0 375.0 414.6207775653284 4.221577697209711 7.0 0.0 5.0 
114.00010179366993 3519.0 375.0 414.6207775653284 3.9598512233517758 7.0 0.0 5.0 
116.00010179366993 3566.0 378.0 414.6207775653284 3.8796863845473504 8.0 0.0 5.0 
118.00010179366993 3569.0 379.0 414.6207775653284 4.942291198381449 8.0 0.0 5.0 
120.00010179366993 3580.0 380.0 414.6207775653284 5.561025069174903 8.0 0.0 5.0 
122.00010179366993 3686.0 387.0 414.6207775653284 5.427262724144591 8.0 0.0 5.0 
124.00010179366993 3689.0 387.0 414.6207775653284 6.092554915369231 8.0 0.0 5.0 
126.00010179366993 3692.0 387.0 414.6207775653284 4.970628995547443 8.0 0.0 5.0 
128.00010179366993 3722.0 389.0 414.6207775653284 5.4910266803669785 8.0 0.0 5.0 
130.00010179366993 3734.0 390.0 414.6207775653284 4.711007613945305 8.0 0.0 5.0 
132.00010179366993 4429.0 427.0 417.54493307839374 3.0887245225321016 9.0 0.0 6.0 
134.00010179366993 4435.0 427.0 417.54493307839374 4.2765614290747855 9.0 0.0 6.0 
136.00010179366993 4767.0 445.0 417.54493307839374 4.154376768285877 9.0 0.0 6.0 
138.00010179366993 4894.0 450.0 417.54493307839374 4.884379442446356 9.0 0.0 6.0 
140.00010179366993 4901.0 451.0 411.6966220522625 5.265933309794422 7.0 0.0 4.0 
142.00010179366993 5424.0 475.0 420.4843849585724 5.395275329265572 10.0 0.0 7.0 
144.00010179366993 5417.0 474.0 420.46908859145947 6.260555034519814 10.0 0.0 7.0 
146.00010179366993 5436.0 476.0 423.40089228808165 6.517238925896122 11.0 0.0 8.0 
148.00010179366993 5540.0 481.0 426.3683875079669 6.389972332646497 14.0 0.0 9.0 
150.00010179366993 5560.0 484.0 426.34799235181646 6.947125937529024 15.0 0.0 9.0 
152.00010179366993 5891.0 515.0 426.34799235181646 6.245333580900238 14.0 0.0 9.0 
154.00010179366993 5893.0 515.0 426.34799235181646 5.932499987219176 14.0 0.0 9.0 
156.00010179366993 5908.0 517.0 426.353091140854 5.839203410082283 14.0 0.0 9.0 
158.00010179366993 5908.0 517.0 426.34799235181646 6.30326592785413 15.0 0.0 9.0 
160.00010179366993 5900.0 518.0 426.34799235181646 6.726702781516992 15.0 0.0 9.0 
162.00010179366993 6718.0 545.0 435.15105162523906 5.250750407528887 18.0 0.0 12.0 
164.00010179366993 6723.0 545.0 435.12045889101347 4.291330635698463 18.0 0.0 12.0 
166.00010179366993 7123.0 568.0 440.99171446781367 4.979202362761091 24.0 0.0 14.0 
168.00010179366993 7486.0 574.0 440.99171446781367 5.227906821790554 25.0 0.0 14.0 
170.00010179366993 7524.0 580.0 440.99171446781367 6.002147184690079 25.0 0.0 14.0 
172.00010179366993 8489.0 623.0 502.47546207775645 6.498254085382299 46.0 0.0 35.0 
174.00010179366993 8489.0 623.0 502.3989802421921 7.7408635009721865 46.0 0.0 35.0 
176.00010179366993 8556.0 624.0 502.4091778202679 6.586499768893734 48.0 0.0 35.0 
178.00010179366993 8531.0 624.0 502.51625239005705 6.391629807405446 55.0 0.0 35.0 
180.00010179366993 8476.0 621.0 502.5621414913963 6.599749517904929 53.0 0.0 35.0 
182.00010179366993 8506.0 622.0 502.5213511790952 5.477117037413437 54.0 0.0 35.0 
184.00010179366993 8535.0 623.0 502.5264499681326 6.253124317791818 54.0 0.0 35.0 
186.00010179366993 8557.0 623.0 502.5264499681326 6.21520005714031 54.0 0.0 35.0 
188.00010179366993 8622.0 626.0 502.5264499681326 6.9927713363549735 54.0 0.0 35.0 
190.00010179366993 8677.0 637.0 502.5264499681326 5.533320665686489 54.0 0.0 35.0 
192.00010179366993 9279.0 660.0 540.678138942001 5.6864898345070225 66.0 0.0 48.0 
194.00010179366993 9280.0 660.0 540.5404716379862 6.413845266680097 66.0 0.0 48.0 
196.00010179366993 9417.0 666.0 549.3690248565962 6.465181657809717 73.0 0.0 51.0 
198.00010179366993 9499.0 668.0 555.3193116634801 7.416089803259236 79.0 0.0 53.0 
200.00010179366993 9551.0 669.0 555.3091140854051 7.328528503528036 79.0 0.0 53.0 
202.00010179366993 9715.0 675.0 575.813894200128 5.632146230224195 81.0 0.0 60.0 
204.00010179366993 9735.0 675.0 575.80879541109 6.0445829339455015 81.0 0.0 60.0 
206.00010179366993 10081.0 684.0 581.7284894837475 6.2790731326798275 81.0 0.0 62.0 
208.00010179366993 10068.0 686.0 593.3868706182286 6.252546176291465 82.0 0.0 66.0 
210.00010179366993 10071.0 686.0 593.3231357552585 6.481832501007805 82.0 0.0 66.0 
212.00010179366993 10011.0 684.0 593.3103887826637 6.7517060922855165 79.0 0.0 66.0 
214.00010179366993 9992.0 683.0 593.2874442319945 6.916932816913921 76.0 0.0 66.0 
216.00010179366993 10031.0 684.0 593.2823454429567 6.367254495625736 76.0 0.0 66.0 
218.00010179366993 10034.0 684.0 593.2823454429567 6.170196892579709 76.0 0.0 66.0 
220.00010179366993 10034.0 684.0 593.2823454429567 6.956365491206437 76.0 0.0 66.0 
222.00010179366993 9955.0 682.0 593.2823454429567 6.081274613622478 74.0 0.0 66.0 
224.00010179366993 9991.0 684.0 593.2823454429567 6.085708927466478 74.0 0.0 66.0 
226.00010179366993 9963.0 683.0 593.2746972594005 5.589076238596002 77.0 0.0 66.0 
228.00010179366993 9925.0 682.0 593.2517527087313 6.056757082988728 77.0 0.0 66.0 
230.00010179366993 9933.0 682.0 587.398342893563 6.688801440146496 75.0 0.0 64.0 
232.00010179366993 9748.0 679.0 584.4741873804975 6.298211504204154 73.0 0.0 63.0 
234.00010179366993 9745.0 679.0 584.4537922243463 6.589108272389598 73.0 0.0 63.0 
236.00010179366993 9975.0 700.0 584.4843849585718 6.923881580587932 73.0 0.0 63.0 
238.00010179366993 10111.0 708.0 578.478011472276 6.905509906012355 75.0 0.0 61.0 
240.00010179366993 10125.0 712.0 572.5761631612496 7.470390219245166 73.0 0.0 59.0 
242.00010179366993 10131.0 710.0 581.3817718291908 6.837863200456382 74.0 0.0 62.0 
244.00010179366993 10136.0 710.0 581.3511790949655 5.481185023063723 74.0 0.0 62.0 
246.00010179366993 10287.0 724.0 581.3511790949655 5.0672463995887975 72.0 0.0 62.0 
248.00010179366993 10354.0 725.0 587.2173358827281 5.145016619279043 78.0 0.0 64.0 
250.00010179366993 10354.0 725.0 587.2224346717659 5.888588151223985 79.0 0.0 64.0 
252.00010179366993 10364.0 726.0 593.0962396430851 5.8327269301061575 86.0 0.0 66.0 
254.00010179366993 10364.0 726.0 593.0656469088593 7.0702437283813 86.0 0.0 66.0 
256.00010179366996 10416.0 728.0 596.0662842574885 6.700770133655822 87.0 0.0 67.0 
258.00010179366996 10412.0 728.0 596.0509878903763 6.592801118524961 87.0 0.0 67.0 
260.00010179366996 10401.0 728.0 584.3492670490765 6.993655640512024 83.0 0.0 63.0 
262.00010179366996 10508.0 737.0 560.9789674952206 6.366398759833308 75.0 0.0 55.0 
264.00010179366996 10502.0 736.0 560.9024856596557 7.144999523373848 75.0 0.0 55.0 
266.00010179366996 10545.0 736.0 569.7488846398975 7.259291039510936 80.0 0.0 58.0 
268.00010179366996 10669.0 738.0 572.683237731039 7.265339636619736 83.0 0.0 59.0 
270.00010179366996 10668.0 737.0 569.7284894837477 7.139132026450613 82.0 0.0 58.0 
272.00010179366996 10844.0 740.0 593.210962396431 6.211235401073115 87.0 0.0 66.0 
274.00010179366996 10848.0 740.0 593.1293817718291 7.035475629343875 87.0 0.0 66.0 
276.00010179366996 11123.0 744.0 607.8699808795404 6.137797511766777 94.0 0.0 71.0 
278.00010179366996 11380.0 754.0 610.9063097514338 6.01716897135934 92.0 0.0 72.0 
280.00010179366996 11401.0 760.0 610.8604206500951 6.483744020367956 92.0 0.0 72.0 
282.00010179366996 12666.0 800.0 651.9133205863603 4.9770451553784 105.0 0.0 86.0 
284.00010179366996 12668.0 800.0 651.8266411727208 5.865119741411177 105.0 0.0 86.0 
286.00010179366996 13122.0 808.0 660.7546207775647 5.2003313924823 110.0 0.0 89.0 
288.00010179366996 13124.0 809.0 657.6978967495213 5.870654411485761 109.0 0.0 88.0 
290.00010179366996 13128.0 808.0 643.102613129381 6.659761194039868 101.0 0.0 83.0 
292.00010179366996 13441.0 817.0 640.1886551943923 5.954186245323656 100.0 0.0 82.0 
294.00010179366996 13450.0 818.0 640.2039515615048 6.424397235434997 101.0 0.0 82.0 
296.00010179366996 13581.0 823.0 605.2084130019111 6.703637777409817 89.0 0.0 70.0 
298.00010179366996 13521.0 822.0 599.2912683237728 5.64146866722968 89.0 0.0 68.0 
300.00010179366996 13532.0 822.0 599.2708731676219 6.572632562396641 89.0 0.0 68.0 
302.00010179366996 13691.0 827.0 613.983428935627 6.596436520326805 97.0 0.0 73.0 
304.00010179366996 13689.0 827.0 611.0133843212234 6.355730108257301 96.0 0.0 72.0 
306.00010179366996 14084.0 846.0 637.481198215425 5.438406186419225 104.0 0.0 81.0 
308.00010179366996 14206.0 849.0 660.9203314212879 5.566123748324055 116.0 0.0 89.0 
310.00010179366996 14242.0 856.0 660.9203314212879 6.329356678120938 118.0 0.0 89.0 
312.00010179366996 14331.0 862.0 704.8871892925436 6.303479190761636 133.0 0.0 104.0 
314.00010179366996 14358.0 864.0 704.8158062460179 6.470030261216945 134.0 0.0 104.0 
316.00010179366996 14102.0 866.0 719.5564053537291 6.490012594148791 140.0 0.0 109.0 
318.00010179366996 14239.0 867.0 742.9369024856609 7.091449796694083 152.0 0.0 117.0 
320.00010179366996 14273.0 868.0 745.8789037603573 7.594806796019216 153.0 0.0 118.0 
322.00010179366996 14198.0 868.0 748.8362014021659 7.30120974013124 153.0 0.0 119.0 
324.00010179366996 14192.0 868.0 748.616953473549 7.411625340022664 152.0 0.0 119.0 
326.00010179366996 14424.0 880.0 769.2492033142117 6.1089248510227225 159.0 0.0 126.0 
328.00010179366996 14683.0 881.0 786.6717654557052 5.613772420652696 164.0 0.0 132.0 
330.00010179366996 14843.0 883.0 786.6743148502219 5.920854562559474 164.0 0.0 132.0 
332.00010179366996 16381.0 924.0 813.1778202676885 5.59884380274616 179.0 0.0 141.0 
334.00010179366996 16443.0 935.0 813.06564690886 6.059794307122093 179.0 0.0 141.0 
336.00010179366996 16188.0 926.0 810.1746335245367 5.983901935899568 176.0 0.0 140.0 
338.00010179366996 15972.0 918.0 807.1663479923541 6.136842467974256 177.0 0.0 139.0 
340.00010179366996 15966.0 918.0 807.1306564690879 6.67270057225681 177.0 0.0 139.0 
342.00010179366996 15829.0 915.0 807.1383046526444 6.785639264350441 177.0 0.0 139.0 
344.00010179366996 15804.0 913.0 798.235818992988 7.4024536651403885 177.0 0.0 136.0 
346.00010179366996 16622.0 911.0 810.0446144040803 6.613303374505472 183.0 0.0 140.0 
348.00010179366996 17276.0 932.0 850.8527724665411 6.511720085747201 194.0 0.0 154.0 
350.00010179366996 17358.0 930.0 862.5111536010182 6.888117731322232 199.0 0.0 158.0 
352.00010179366996 19549.0 966.0 924.3492670490743 5.681851596054931 224.0 0.0 179.0 
354.00010179366996 19549.0 964.0 924.3288718929256 6.1990515974199925 227.0 0.0 179.0 
356.00010179366996 19421.0 958.0 924.3288718929256 5.835295983839989 225.0 0.0 179.0 
358.00010179366996 19166.0 956.0 924.3135755258132 5.771965034774084 224.0 0.0 179.0 
360.00010179366996 18881.0 953.0 933.1166347992337 6.083481624540089 222.0 0.0 182.0 
362.00010179366996 18320.0 939.0 944.841300191207 5.735271711793643 225.0 0.0 186.0 
364.00010179366996 18152.0 935.0 944.6297004461461 6.451753032493802 219.0 0.0 186.0 
366.00010179366996 18141.0 936.0 941.6086679413618 6.814052129699768 217.0 0.0 185.0 
368.00010179366996 18212.0 938.0 953.3460803059269 7.125952573781134 219.0 0.0 189.0 
370.00010179366996 18237.0 939.0 929.9120458891023 7.454936364208026 211.0 0.0 181.0 
372.00010179366996 18240.0 938.0 929.9324410452509 6.803982732306059 210.0 0.0 181.0 
374.00010179366996 18261.0 939.0 929.9171446781382 6.191207034780202 208.0 0.0 181.0 
376.00010179366996 18084.0 939.0 871.428935627789 5.972095396914547 187.0 0.0 161.0 
378.00010179366996 17886.0 933.0 871.428935627789 5.970189819990919 187.0 0.0 161.0 
380.00010179366996 17874.0 933.0 871.4773741236475 6.3724737278838735 186.0 0.0 161.0 
382.00010179366996 16425.0 914.0 859.3422562141488 5.525260015038878 180.0 0.0 157.0 
384.00010179366996 16468.0 915.0 865.093690248565 5.816529215795229 182.0 0.0 159.0 
386.00010179366996 16577.0 918.0 871.0261312938163 5.604238422481837 187.0 0.0 161.0 
388.00010179366996 16597.0 920.0 873.9451880178433 6.31854799972359 193.0 0.0 162.0 
390.00010179366996 16636.0 922.0 850.6156787762918 7.003909559090687 187.0 0.0 154.0 
392.00010179366996 16786.0 924.0 862.4117272147876 6.36045554086111 193.0 0.0 158.0 
394.00010179366996 16839.0 925.0 862.3123008285547 6.785054169962906 193.0 0.0 158.0 
396.00010179366996 17046.0 929.0 841.9553855959192 6.723948825841224 185.0 0.0 151.0 
398.00010179366996 17452.0 941.0 880.0841300191182 6.721211763979559 199.0 0.0 164.0 
400.00010179366996 17459.0 940.0 871.2351816443603 7.014284638545744 195.0 0.0 161.0 
402.00010179366996 17537.0 943.0 871.2504780114743 6.094525476163126 190.0 0.0 161.0 
404.00010179366996 16613.0 929.0 871.2249840662842 6.458776147667713 184.0 0.0 161.0 
406.00010179366996 16994.0 935.0 859.6303377947719 5.439622484501105 186.0 0.0 157.0 
408.00010179366996 17061.0 946.0 853.8636073932449 5.629123251340406 182.0 0.0 155.0 
410.00010179366996 16996.0 945.0 839.1561504142783 5.943808944902103 179.0 0.0 150.0 
412.00010179366996 17260.0 948.0 856.7801147227525 5.729653416610643 186.0 0.0 156.0 
414.00010179366996 17285.0 955.0 856.70618228171 5.984098527871478 185.0 0.0 156.0 
416.00010179366996 17695.0 967.0 874.4040790312314 6.123005254998486 189.0 0.0 162.0 
418.00010179366996 17716.0 969.0 868.3798597832994 6.6976026947193255 186.0 0.0 160.0 
420.00010179366996 17729.0 969.0 830.3428935627794 6.6921135897154125 180.0 0.0 147.0 
422.00010179366996 18245.0 991.0 871.5538559592098 6.846021921895104 198.0 0.0 161.0 
424.00010179366996 18216.0 989.0 865.5780752071364 7.157364404355367 196.0 0.0 159.0 
426.00010179366996 18255.0 989.0 865.5755258126208 6.766897253168644 193.0 0.0 159.0 
428.00010179366996 18002.0 984.0 874.4499681325683 6.551565061186414 195.0 0.0 162.0 
430.00010179366996 18064.0 985.0 877.2670490758436 7.270717106314064 200.0 0.0 163.0 
432.00010179366996 18243.0 993.0 894.8986615678793 5.804462250910705 206.0 0.0 169.0 
434.00010179366996 18248.0 994.0 894.8578712555777 5.993198803723161 201.0 0.0 169.0 
436.00010179366996 18172.0 994.0 891.9439133205851 5.816980778217447 201.0 0.0 168.0 
438.00010179366996 17968.0 984.0 900.7877629063073 6.189260664066249 205.0 0.0 171.0 
440.00010179366996 17937.0 983.0 807.1586998087938 6.542916883112777 172.0 0.0 139.0 
442.00010179366996 17845.0 978.0 813.0503505417478 6.402188033881362 173.0 0.0 141.0 
444.00010179366996 17957.0 986.0 842.2715105162538 7.1752599712198295 179.0 0.0 151.0 
446.00010179366996 17881.0 986.0 842.2077756532827 7.107837962201784 177.0 0.0 151.0 
448.00010179366996 17851.0 983.0 848.1223709369012 7.382757152962111 183.0 0.0 153.0 
450.00010179366996 17670.0 982.0 848.1555130656459 7.952198480121096 187.0 0.0 153.0 
452.00010179366996 17298.0 964.0 833.4913957934965 7.2687099370381985 184.0 0.0 148.0 
454.00010179366996 17370.0 968.0 845.1931166348012 6.742144813206935 187.0 0.0 152.0 
456.00010179366996 17248.0 962.0 833.422562141491 5.948335512613251 183.0 0.0 148.0 
458.00010179366996 17224.0 960.0 827.4952198852756 6.487448307677935 181.0 0.0 146.0 
460.00010179366996 17053.0 957.0 827.5181644359479 6.214567320061672 178.0 0.0 146.0 
462.00010179366996 16814.0 952.0 821.5449330783949 6.267882396841335 173.0 0.0 144.0 
464.00010179366996 16827.0 952.0 818.6564690885929 6.627042313631242 176.0 0.0 143.0 
466.00010179366996 16792.0 951.0 818.6564690885929 6.534558250997301 179.0 0.0 143.0 
468.00010179366996 16789.0 951.0 818.6411727214804 6.599175349525576 179.0 0.0 143.0 
470.00010179366996 16626.0 947.0 807.0057361376671 7.103899703625932 173.0 0.0 139.0 
472.00010179366996 16669.0 950.0 815.6660293180377 6.727416515980993 182.0 0.0 142.0 
474.00010179366996 16528.0 943.0 809.7004461440425 6.691059810173197 179.0 0.0 140.0 
476.00010179366996 16515.0 941.0 809.6851497769284 6.60847160920867 178.0 0.0 140.0 
478.00010179366996 16509.0 940.0 806.7711918419378 6.817985691472035 181.0 0.0 139.0 
480.00010179366996 16489.0 941.0 806.6998087954101 7.392254654427788 180.0 0.0 139.0 
482.00010179366996 16464.0 941.0 809.6622052262595 6.304064925242079 180.0 0.0 140.0 
484.00010179366996 16398.0 936.0 812.571064372211 6.1082463075189555 179.0 0.0 141.0 
486.00010179366996 16369.0 935.0 812.5047801147243 5.679008873567449 177.0 0.0 141.0 
488.00010179366996 16389.0 937.0 768.6475462077752 5.672274581530892 161.0 0.0 126.0 
490.00010179366996 16380.0 937.0 765.7284894837464 6.425977445151088 159.0 0.0 125.0 
492.00010179366996 16362.0 934.0 751.1000637348634 6.373310084445276 155.0 0.0 120.0 
494.00010179366996 16290.0 932.0 751.1255576800514 6.587985698335178 151.0 0.0 120.0 
496.00010179366996 16297.0 932.0 742.3072020395156 6.080808994409039 146.0 0.0 117.0 
498.00010179366996 16293.0 932.0 736.4639898024221 6.260211574486012 144.0 0.0 115.0 
500.00010179366996 16236.0 928.0 724.7903123008281 6.510904183730318 138.0 0.0 111.0 
502.00010179366996 16149.0 925.0 718.883365200765 6.253807435720279 135.0 0.0 109.0 
504.00010179366996 16139.0 925.0 718.8578712555776 7.001560674127983 135.0 0.0 109.0 
506.00010179366996 16121.0 924.0 713.032504780114 7.112951226089492 132.0 0.0 107.0 
508.00010179366996 16072.0 922.0 713.0070108349269 7.047284398155115 129.0 0.0 107.0 
510.00010179366996 16054.0 920.0 674.9267049075835 6.797221332355189 114.0 0.0 94.0 
512.00010179367 16100.0 919.0 660.3416188655199 6.056835893381098 109.0 0.0 89.0 
514.00010179367 16065.0 919.0 648.5914595283626 5.4891444409532095 101.0 0.0 85.0 
516.00010179367 16070.0 919.0 633.9604843849582 5.13389635291408 95.0 0.0 80.0 
518.00010179367 16014.0 918.0 633.9655831739967 5.7261097263230365 92.0 0.0 80.0 
520.00010179367 16035.0 918.0 578.3811344805607 6.402208716223188 73.0 0.0 61.0 
522.00010179367 15991.0 917.0 569.636711281071 6.358312702292596 68.0 0.0 58.0 
524.00010179367 16055.0 918.0 569.6010197578079 6.626931628729857 66.0 0.0 58.0 
526.00010179367 16098.0 920.0 554.9802421924793 6.607787666878855 61.0 0.0 53.0 
528.00010179367 16097.0 920.0 557.9043977055451 7.213119415813479 60.0 0.0 54.0 
530.00010179367 16104.0 920.0 546.2077756532826 8.043930097387815 56.0 0.0 50.0 
532.00010179367 16217.0 926.0 543.3295092415552 7.622557724595518 55.0 0.0 49.0 
534.00010179367 16226.0 926.0 534.5289993626516 8.020258396741232 54.0 0.0 46.0 
536.00010179367 16312.0 928.0 540.4639898024221 6.800014224988741 56.0 0.0 48.0 
538.00010179367 16325.0 929.0 540.413001912046 7.069570185986078 56.0 0.0 48.0 
540.00010179367 16317.0 929.0 537.48884639898 6.9873485683889935 54.0 0.0 47.0 
542.00010179367 16325.0 932.0 546.3275971956664 5.593541804586414 60.0 0.0 50.0 
544.00010179367 16398.0 936.0 546.360739324411 5.710108667046302 60.0 0.0 50.0 
546.00010179367 16513.0 942.0 552.2345442957295 5.767026357971423 62.0 0.0 52.0 
548.00010179367 16564.0 944.0 552.2294455066923 6.2167083979855375 67.0 0.0 52.0 
550.00010179367 16562.0 944.0 555.1994901210962 6.605648359367398 70.0 0.0 53.0 
552.00010179367 16626.0 947.0 555.2326322498403 6.348805344804836 71.0 0.0 53.0 
554.00010179367 16675.0 951.0 569.8534098151679 6.916494362996516 76.0 0.0 58.0 
556.00010179367 16681.0 950.0 569.8534098151679 6.8958909978640115 75.0 0.0 58.0 
558.00010179367 16851.0 959.0 572.869343530912 6.874185447994932 82.0 0.0 59.0 
560.00010179367 16861.0 959.0 561.1293817718283 7.446103417431695 80.0 0.0 55.0 
562.00010179367 16913.0 962.0 555.3167622689617 7.1689342960015585 79.0 0.0 53.0 
564.00010179367 17051.0 968.0 572.9585723390692 6.894664941099387 87.0 0.0 59.0 
566.00010179367 17135.0 969.0 587.558954748248 7.202616208412816 91.0 0.0 64.0 
568.00010179367 17176.0 972.0 593.3970681963035 7.101056625368606 101.0 0.0 66.0 
570.00010179367 17200.0 972.0 608.0943275971961 7.7438792440710555 107.0 0.0 71.0 
572.00010179367 17156.0 970.0 611.0388782664129 8.241132681316282 107.0 0.0 72.0 
574.00010179367 17109.0 967.0 619.8087954110904 8.25672077899886 105.0 0.0 75.0 
576.00010179367 17180.0 969.0 637.4302103250491 6.878715680526733 111.0 0.0 81.0 
578.00010179367 17543.0 975.0 669.6010197578079 6.576260587717721 124.0 0.0 92.0 
580.00010179367 17573.0 978.0 675.3906947100069 6.312574235197559 135.0 0.0 94.0 
582.00010179367 18150.0 986.0 710.7762906309761 6.028222816565369 156.0 0.0 106.0 
584.00010179367 18386.0 990.0 745.8024219247916 6.07819332556035 171.0 0.0 118.0 
586.00010179367 18585.0 993.0 769.2288081580622 6.362378579275161 178.0 0.0 126.0 
588.00010179367 18924.0 998.0 807.2861695347344 7.0771157452707945 191.0 0.0 139.0 
590.00010179367 19115.0 1003.0 818.8808158062462 7.184626245822969 195.0 0.0 143.0 
592.00010179367 19390.0 1007.0 830.6564690885921 6.879709319208654 202.0 0.0 147.0 
594.00010179367 19546.0 1011.0 842.5111536010185 6.355802267444131 218.0 0.0 151.0 
596.00010179367 19651.0 1011.0 842.4805608667932 6.834819265933935 216.0 0.0 151.0 
598.00010179367 20287.0 1020.0 886.5901848311017 6.7450523685202235 225.0 0.0 166.0 
600.00010179367 20516.0 1025.0 898.1338432122355 7.194809422973511 225.0 0.0 170.0 
602.00010179367 24474.0 1094.0 1015.1841937539824 6.438211693991707 268.0 0.0 210.0 
604.00010179367 24754.0 1098.0 1038.6233269598483 6.413924055663966 273.0 0.0 218.0 
606.00010179367 27676.0 1136.0 1114.9827915869987 6.344692758939882 304.0 0.0 244.0 
608.00010179367 27495.0 1129.0 1117.8253664754632 6.417105178801586 306.0 0.0 245.0 
610.00010179367 27346.0 1122.0 1123.6456341618878 7.204764097409649 305.0 0.0 247.0 
612.00010179367 26927.0 1116.0 1120.5787125557672 7.256395429120602 302.0 0.0 246.0 
614.00010179367 26813.0 1113.0 1126.3683875079676 7.791345577546676 305.0 0.0 248.0 
616.00010179367 27097.0 1118.0 1141.2007648183549 7.891394366903891 312.0 0.0 253.0 
618.00010179367 27191.0 1120.0 1152.8387507966868 7.462957075117906 314.0 0.0 257.0 
620.00010179367 27234.0 1119.0 1155.734862970046 7.702222679539256 318.0 0.0 258.0 
622.00010179367 26932.0 1112.0 1155.760356915232 6.8232326827844485 318.0 0.0 258.0 
624.00010179367 26722.0 1104.0 1152.7903123008282 7.670518667504344 315.0 0.0 257.0 
626.00010179367 26638.0 1103.0 1155.7017208412992 7.71983347999631 315.0 0.0 258.0 
628.00010179367 26009.0 1089.0 1158.6284257488835 7.692651357337631 309.0 0.0 259.0 
630.00010179367 25849.0 1086.0 1146.8553218610568 8.625486591937527 305.0 0.0 255.0 
632.00010179367 22399.0 1036.0 1149.7794773741236 8.312685636214898 302.0 0.0 256.0 
634.00010179367 23171.0 1044.0 1161.5066921606121 8.178640980941212 311.0 0.0 260.0 
636.00010179367 20310.0 1004.0 1158.5111536010188 6.84117986342393 310.0 0.0 259.0 
638.00010179367 21220.0 995.0 1152.5812619502883 7.113071148705934 309.0 0.0 257.0 
640.00010179367 21533.0 1014.0 1149.5831739961775 7.121789737698287 309.0 0.0 256.0 
642.00010179367 21152.0 1008.0 1120.2906309751447 7.437034615361556 297.0 0.0 246.0 
644.00010179367 20904.0 1000.0 1123.1153601019755 7.80846089893505 297.0 0.0 247.0 
646.00010179367 20488.0 996.0 1140.5838113448058 7.11302436213723 297.0 0.0 253.0 
648.00010179367 20155.0 988.0 1137.5500318674317 7.289948378740984 293.0 0.0 252.0 
650.00010179367 19875.0 981.0 1128.698534098153 6.987902811961382 289.0 0.0 249.0 
652.00010179367 19653.0 978.0 1116.9815168897383 6.6887378107560735 281.0 0.0 245.0 
654.00010179367 19621.0 977.0 1108.119821542383 7.397020860500882 278.0 0.0 242.0 
656.00010179367 19457.0 974.0 1099.3626513702995 7.077730840485033 271.0 0.0 239.0 
658.00010179367 19493.0 978.0 1087.5818992989166 7.160824282133592 276.0 0.0 235.0 
660.00010179367 19517.0 979.0 1090.5060548119832 7.17000265181957 276.0 0.0 236.0 
662.00010179367 19542.0 979.0 1084.670490758445 7.380673702692551 278.0 0.0 234.0 
664.00010179367 18343.0 962.0 1075.867431485023 7.594988024277679 269.0 0.0 231.0 
#####################################################################
# End of data export. Simulation finished at: 2019-03-12T06:31+0000 #
#####################################################################
