#####################################################################
# Alchemist log file - simulation started at: 2019-03-08T14:18+0000 #
#####################################################################
# seed = 7.0, bandwidth = 1333521.4321633242, accessPointCount = 37.60603093086394, baserange = 31.622776601683796
#
# The columns have the following meaning: 
# time neighbor_count[Sum] <value>@neighbor_count[Sum] packet_size[Mean] mean_delay[Mean] crowd[Sum] overcrowded[Sum] risk[Sum] 
0.0 NaN NaN NaN NaN NaN NaN NaN 
2.00001068303238 2.0 1.0 4987.441981747066 0.496258027895431 1497.0 0.0 1497.0 
4.0000106830323805 2.0 1.0 4987.470664928292 0.4962415302228256 1497.0 0.0 1497.0 
6.00001068303238 2.0 1.0 4987.462842242503 0.49623553106915086 1497.0 0.0 1497.0 
8.00001068303238 2.0 1.0 4987.470664928292 0.49624752937650074 1497.0 0.0 1497.0 
10.00001068303238 2.0 1.0 4987.470664928292 0.49623703085756965 1497.0 0.0 1497.0 
12.00001068303238 2.0 1.0 4987.434159061278 0.49625352853017546 1497.0 0.0 1497.0 
14.00001068303238 2.0 1.0 4987.470664928292 0.49624003043440634 1497.0 0.0 1497.0 
16.00001068303238 2.0 1.0 4987.4732724902215 0.49624003043440634 1497.0 0.0 1497.0 
18.00001068303238 2.0 1.0 4987.434159061278 0.4962610274722685 1497.0 0.0 1497.0 
20.00001068303238 2.0 1.0 4987.4732724902215 0.49624003043440723 1497.0 0.0 1497.0 
22.00001068303238 2.0 1.0 4987.4732724902215 0.49623853064598755 1497.0 0.0 1497.0 
24.00001068303238 2.0 1.0 4987.447196870926 0.49626102747226675 1497.0 0.0 1497.0 
26.00001068303238 2.0 1.0 4987.475880052151 0.49623553106914997 1497.0 0.0 1497.0 
28.00001068303238 2.0 1.0 4987.462842242503 0.49623553106914997 1497.0 0.0 1497.0 
30.00001068303238 2.0 1.0 4987.470664928292 0.4962475293765003 1497.0 0.0 1497.0 
32.00001068303238 2.0 1.0 4987.470664928292 0.49623703085756965 1497.0 0.0 1497.0 
34.000010683032386 2.0 1.0 4987.434159061278 0.49625352853017546 1497.0 0.0 1497.0 
36.000010683032386 2.0 1.0 4987.470664928292 0.49624003043440723 1497.0 0.0 1497.0 
38.000010683032386 2.0 1.0 4987.4732724902215 0.49624003043440723 1497.0 0.0 1497.0 
40.000010683032386 2.0 1.0 4987.434159061278 0.4962610274722685 1497.0 0.0 1497.0 
42.000010683032386 2.0 1.0 4987.4732724902215 0.49624003043440723 1497.0 0.0 1497.0 
44.000010683032386 2.0 1.0 4987.4732724902215 0.49623853064598933 1497.0 0.0 1497.0 
46.000010683032386 2.0 1.0 4987.447196870926 0.4962610274722685 1497.0 0.0 1497.0 
48.000010683032386 2.0 1.0 4987.475880052151 0.4962355310691535 1497.0 0.0 1497.0 
50.000010683032386 2.0 1.0 4987.462842242503 0.4962355310691535 1497.0 0.0 1497.0 
52.000010683032386 2.0 1.0 4987.470664928292 0.4962475293765003 1497.0 0.0 1497.0 
54.000010683032386 2.0 1.0 4987.470664928292 0.4962370308575714 1497.0 0.0 1497.0 
56.000010683032386 2.0 1.0 4987.434159061278 0.49625352853017546 1497.0 0.0 1497.0 
58.000010683032386 2.0 1.0 4987.470664928292 0.49624003043440723 1497.0 0.0 1497.0 
60.000010683032386 2.0 1.0 4987.4732724902215 0.49624003043440723 1497.0 0.0 1497.0 
62.000820081749154 2.0 1.0 400.0 0.4997000423162703 1.0 0.0 0.0 
64.00082008174915 2.0 1.0 400.0 0.4997000423162703 1.0 0.0 0.0 
66.00029741811947 2.0 1.0 400.0 0.4997000423162632 0.0 0.0 0.0 
68.00082008174915 2.0 1.0 400.0 0.4997000423162632 0.0 0.0 0.0 
70.00082008174915 2.0 1.0 400.0 0.4997000423162632 0.0 0.0 0.0 
72.00082008174915 2.0 1.0 400.0 0.4997000423162632 0.0 0.0 0.0 
74.00082008174915 2.0 1.0 400.0 0.4997000423162632 0.0 0.0 0.0 
76.00029741811947 2.0 1.0 400.0 0.4997000423162632 0.0 0.0 0.0 
78.00082008174915 2.0 1.0 400.0 0.4997000423162632 0.0 0.0 0.0 
80.00082008174915 2.0 1.0 400.0 0.4997000423162632 0.0 0.0 0.0 
82.00082008174915 2.0 1.0 400.0 0.4997000423162632 0.0 0.0 0.0 
84.00082008174915 2.0 1.0 400.0 0.4997000423162632 0.0 0.0 0.0 
86.00029741811947 2.0 1.0 400.0 0.4997000423162632 0.0 0.0 0.0 
88.00082008174915 2.0 1.0 400.0 0.4997000423162632 0.0 0.0 0.0 
90.00082008174915 2.0 1.0 400.0 0.4997000423162632 0.0 0.0 0.0 
92.00082008174915 2.0 1.0 400.0 0.4997000423162632 0.0 0.0 0.0 
94.00082008174915 2.0 1.0 400.0 0.4997000423162632 0.0 0.0 0.0 
96.00029741811947 2.0 1.0 400.0 0.4997000423162632 0.0 0.0 0.0 
98.00082008174915 2.0 1.0 400.0 0.4997000423162632 0.0 0.0 0.0 
100.00082008174915 2.0 1.0 400.0 0.4997000423162632 0.0 0.0 0.0 
102.00082008174915 2.0 1.0 400.0 0.4997000423162632 0.0 0.0 0.0 
104.00082008174915 2.0 1.0 400.0 0.4997000423162632 0.0 0.0 0.0 
106.00029741811947 2.0 1.0 400.0 0.4997000423162632 0.0 0.0 0.0 
108.00082008174915 2.0 1.0 400.0 0.4997000423162632 0.0 0.0 0.0 
110.00082008174915 2.0 1.0 400.0 0.4997000423162632 0.0 0.0 0.0 
112.00082008174915 2.0 1.0 400.0 0.4997000423162632 0.0 0.0 0.0 
114.00082008174915 2.0 1.0 400.0 0.4997000423162632 0.0 0.0 0.0 
116.00029741811947 2.0 1.0 400.0 0.4997000423162632 0.0 0.0 0.0 
118.00082008174915 2.0 1.0 400.0 0.4997000423162632 0.0 0.0 0.0 
120.00082008174915 2.0 1.0 400.0 0.4997000423162632 0.0 0.0 0.0 
122.00082008174915 2.0 1.0 400.0 0.4997000423162632 0.0 0.0 0.0 
124.00082008174915 2.0 1.0 400.0 0.4997000423162632 0.0 0.0 0.0 
126.00029741811947 2.0 1.0 400.0 0.4997000423162632 0.0 0.0 0.0 
128.00082008174917 2.0 1.0 400.0 0.4997000423162632 0.0 0.0 0.0 
130.00082008174917 2.0 1.0 400.0 0.4997000423162774 0.0 0.0 0.0 
132.00082008174917 2.0 1.0 400.0 0.4997000423162774 0.0 0.0 0.0 
134.00082008174917 2.0 1.0 400.0 0.4997000423162774 0.0 0.0 0.0 
136.0002974181195 2.0 1.0 400.0 0.4997000423162774 0.0 0.0 0.0 
138.00082008174917 2.0 1.0 400.0 0.4997000423162774 0.0 0.0 0.0 
140.00082008174917 2.0 1.0 400.0 0.4997000423162774 0.0 0.0 0.0 
142.00082008174917 2.0 1.0 400.0 0.4997000423162774 0.0 0.0 0.0 
144.00082008174917 2.0 1.0 400.0 0.4997000423162774 0.0 0.0 0.0 
146.0002974181195 2.0 1.0 400.0 0.4997000423162774 0.0 0.0 0.0 
148.00082008174917 2.0 1.0 400.0 0.4997000423162774 0.0 0.0 0.0 
150.00082008174917 2.0 1.0 400.0 0.4997000423162774 0.0 0.0 0.0 
152.00082008174917 2.0 1.0 400.0 0.4997000423162774 0.0 0.0 0.0 
154.00082008174917 2.0 1.0 400.0 0.4997000423162774 0.0 0.0 0.0 
156.0002974181195 2.0 1.0 400.0 0.4997000423162774 0.0 0.0 0.0 
158.00082008174917 2.0 1.0 400.0 0.4997000423162774 0.0 0.0 0.0 
160.00082008174917 2.0 1.0 400.0 0.4997000423162774 0.0 0.0 0.0 
162.00082008174917 2.0 1.0 400.0 0.4997000423162774 0.0 0.0 0.0 
164.00082008174917 2.0 1.0 400.0 0.4997000423162774 0.0 0.0 0.0 
166.0002974181195 2.0 1.0 400.0 0.4997000423162774 0.0 0.0 0.0 
168.00082008174917 2.0 1.0 400.0 0.4997000423162774 0.0 0.0 0.0 
170.00082008174917 2.0 1.0 400.0 0.4997000423162774 0.0 0.0 0.0 
172.00082008174917 2.0 1.0 400.0 0.4997000423162774 0.0 0.0 0.0 
174.00082008174917 2.0 1.0 400.0 0.4997000423162774 0.0 0.0 0.0 
176.0002974181195 2.0 1.0 400.0 0.4997000423162774 0.0 0.0 0.0 
178.00082008174917 2.0 1.0 400.0 0.4997000423162774 0.0 0.0 0.0 
180.00082008174917 2.0 1.0 400.0 0.4997000423162774 0.0 0.0 0.0 
182.00082008174917 2.0 1.0 400.0 0.4997000423162774 0.0 0.0 0.0 
184.00082008174917 2.0 1.0 400.0 0.4997000423162774 0.0 0.0 0.0 
186.0002974181195 2.0 1.0 400.0 0.4997000423162774 0.0 0.0 0.0 
188.00082008174917 2.0 1.0 400.0 0.4997000423162774 0.0 0.0 0.0 
190.00082008174917 2.0 1.0 400.0 0.4997000423162774 0.0 0.0 0.0 
192.00082008174917 2.0 1.0 400.0 0.4997000423162774 0.0 0.0 0.0 
194.00082008174917 2.0 1.0 400.0 0.4997000423162774 0.0 0.0 0.0 
196.0002974181195 2.0 1.0 400.0 0.4997000423162774 0.0 0.0 0.0 
198.00082008174917 2.0 1.0 400.0 0.4997000423162774 0.0 0.0 0.0 
200.00082008174917 2.0 1.0 400.0 0.4997000423162774 0.0 0.0 0.0 
202.00082008174917 2.0 1.0 400.0 0.4997000423162774 0.0 0.0 0.0 
204.00082008174917 2.0 1.0 400.0 0.4997000423162774 0.0 0.0 0.0 
206.0002974181195 2.0 1.0 400.0 0.4997000423162774 0.0 0.0 0.0 
208.00082008174917 2.0 1.0 400.0 0.4997000423162774 0.0 0.0 0.0 
210.00082008174917 2.0 1.0 400.0 0.4997000423162774 0.0 0.0 0.0 
212.00082008174917 2.0 1.0 400.0 0.4997000423162774 0.0 0.0 0.0 
214.00082008174917 2.0 1.0 400.0 0.4997000423162774 0.0 0.0 0.0 
216.0002974181195 2.0 1.0 400.0 0.4997000423162774 0.0 0.0 0.0 
218.00082008174917 2.0 1.0 400.0 0.4997000423162774 0.0 0.0 0.0 
220.00082008174917 2.0 1.0 400.0 0.4997000423162774 0.0 0.0 0.0 
222.00082008174917 2.0 1.0 400.0 0.4997000423162774 0.0 0.0 0.0 
224.00082008174917 2.0 1.0 400.0 0.4997000423162774 0.0 0.0 0.0 
226.0002974181195 2.0 1.0 400.0 0.4997000423162774 0.0 0.0 0.0 
228.00082008174917 2.0 1.0 400.0 0.4997000423162774 0.0 0.0 0.0 
230.00082008174917 2.0 1.0 400.0 0.4997000423162774 0.0 0.0 0.0 
232.00082008174917 2.0 1.0 400.0 0.4997000423162774 0.0 0.0 0.0 
234.00082008174917 4.0 2.0 400.0 0.4997000423162774 0.0 0.0 0.0 
236.0002974181195 4.0 2.0 400.0 0.4997000423162774 0.0 0.0 0.0 
238.00082008174917 4.0 2.0 400.0 0.4997000423162774 0.0 0.0 0.0 
240.00082008174917 4.0 2.0 400.0 0.4997000423162774 0.0 0.0 0.0 
242.00082008174917 4.0 2.0 400.0 0.4997000423162774 0.0 0.0 0.0 
244.00082008174917 4.0 2.0 400.0 1.4997000423162774 0.0 0.0 0.0 
246.0002974181195 2.0 1.0 400.0 0.4997000423162774 0.0 0.0 0.0 
248.00082008174917 2.0 1.0 400.0 0.4997000423162774 0.0 0.0 0.0 
250.00082008174917 2.0 1.0 400.0 0.4997000423162774 0.0 0.0 0.0 
252.00082008174917 2.0 1.0 400.0 0.4997000423162774 0.0 0.0 0.0 
254.00082008174917 2.0 1.0 400.0 0.4997000423162774 0.0 0.0 0.0 
256.0002974181195 2.0 1.0 400.0 0.4997000423162774 0.0 0.0 0.0 
258.00082008174917 2.0 1.0 400.0 0.499700042316249 0.0 0.0 0.0 
260.00082008174917 2.0 1.0 400.0 0.499700042316249 0.0 0.0 0.0 
262.00082008174917 2.0 1.0 400.0 0.499700042316249 0.0 0.0 0.0 
264.00082008174917 2.0 1.0 400.0 0.499700042316249 0.0 0.0 0.0 
266.0002974181195 2.0 1.0 400.0 0.499700042316249 0.0 0.0 0.0 
268.00082008174917 2.0 1.0 400.0 0.499700042316249 0.0 0.0 0.0 
270.00082008174917 2.0 1.0 400.0 0.499700042316249 0.0 0.0 0.0 
272.00082008174917 2.0 1.0 400.0 0.499700042316249 0.0 0.0 0.0 
274.00082008174917 2.0 1.0 400.0 0.499700042316249 0.0 0.0 0.0 
276.0002974181195 2.0 1.0 400.0 0.499700042316249 0.0 0.0 0.0 
278.00082008174917 2.0 1.0 400.0 0.499700042316249 0.0 0.0 0.0 
280.00082008174917 2.0 1.0 400.0 0.499700042316249 0.0 0.0 0.0 
282.00082008174917 2.0 1.0 400.0 0.499700042316249 0.0 0.0 0.0 
284.00082008174917 2.0 1.0 400.0 0.499700042316249 0.0 0.0 0.0 
286.0002974181195 2.0 1.0 400.0 0.499700042316249 0.0 0.0 0.0 
288.00082008174917 2.0 1.0 400.0 0.499700042316249 0.0 0.0 0.0 
290.00082008174917 2.0 1.0 400.0 0.499700042316249 0.0 0.0 0.0 
292.00082008174917 2.0 1.0 400.0 0.499700042316249 0.0 0.0 0.0 
294.00082008174917 2.0 1.0 400.0 0.499700042316249 0.0 0.0 0.0 
296.0002974181195 2.0 1.0 400.0 0.499700042316249 0.0 0.0 0.0 
298.00082008174917 2.0 1.0 400.0 0.499700042316249 0.0 0.0 0.0 
300.00082008174917 2.0 1.0 400.0 0.499700042316249 0.0 0.0 0.0 
302.00082008174917 2.0 1.0 400.0 0.499700042316249 0.0 0.0 0.0 
304.00082008174917 2.0 1.0 400.0 0.499700042316249 0.0 0.0 0.0 
306.0002974181195 2.0 1.0 400.0 0.499700042316249 0.0 0.0 0.0 
308.00082008174917 2.0 1.0 400.0 0.499700042316249 0.0 0.0 0.0 
310.00082008174917 2.0 1.0 400.0 0.499700042316249 0.0 0.0 0.0 
312.00082008174917 2.0 1.0 400.0 0.499700042316249 0.0 0.0 0.0 
314.00082008174917 2.0 1.0 400.0 0.499700042316249 0.0 0.0 0.0 
316.0002974181195 2.0 1.0 400.0 0.499700042316249 0.0 0.0 0.0 
318.00082008174917 2.0 1.0 400.0 0.499700042316249 0.0 0.0 0.0 
320.00082008174917 2.0 1.0 400.0 0.499700042316249 0.0 0.0 0.0 
322.00082008174917 2.0 1.0 400.0 0.499700042316249 0.0 0.0 0.0 
324.00082008174917 2.0 1.0 400.0 0.499700042316249 0.0 0.0 0.0 
326.0002974181195 2.0 1.0 400.0 0.499700042316249 0.0 0.0 0.0 
328.00082008174917 2.0 1.0 400.0 0.499700042316249 0.0 0.0 0.0 
330.00082008174917 2.0 1.0 400.0 0.499700042316249 0.0 0.0 0.0 
332.00082008174917 2.0 1.0 400.0 0.499700042316249 0.0 0.0 0.0 
334.00082008174917 2.0 1.0 400.0 0.499700042316249 0.0 0.0 0.0 
336.0002974181195 4.0 2.0 400.0 0.499700042316249 0.0 0.0 0.0 
338.00082008174917 4.0 2.0 400.0 0.499700042316249 0.0 0.0 0.0 
340.00082008174917 4.0 2.0 400.0 0.499700042316249 0.0 0.0 0.0 
342.00082008174917 4.0 2.0 400.0 0.499700042316249 0.0 0.0 0.0 
344.00082008174917 4.0 2.0 400.0 0.499700042316249 0.0 0.0 0.0 
346.0002974181195 4.0 2.0 400.0 1.499700042316249 0.0 0.0 0.0 
348.00082008174917 2.0 1.0 400.0 0.499700042316249 0.0 0.0 0.0 
350.00082008174917 2.0 1.0 400.0 0.499700042316249 0.0 0.0 0.0 
352.00082008174917 2.0 1.0 400.0 0.499700042316249 0.0 0.0 0.0 
354.00082008174917 2.0 1.0 400.0 0.499700042316249 0.0 0.0 0.0 
356.0002974181195 2.0 1.0 400.0 0.499700042316249 0.0 0.0 0.0 
358.00082008174917 2.0 1.0 400.0 0.499700042316249 0.0 0.0 0.0 
360.00082008174917 2.0 1.0 400.0 0.499700042316249 0.0 0.0 0.0 
362.00082008174917 2.0 1.0 400.0 0.499700042316249 0.0 0.0 0.0 
364.00082008174917 2.0 1.0 400.0 0.499700042316249 0.0 0.0 0.0 
366.0002974181195 2.0 1.0 400.0 0.499700042316249 0.0 0.0 0.0 
368.00082008174917 2.0 1.0 400.0 0.499700042316249 0.0 0.0 0.0 
370.00082008174917 2.0 1.0 400.0 0.499700042316249 0.0 0.0 0.0 
372.00082008174917 2.0 1.0 400.0 0.499700042316249 0.0 0.0 0.0 
374.00082008174917 2.0 1.0 400.0 0.499700042316249 0.0 0.0 0.0 
376.0002974181195 2.0 1.0 400.0 0.499700042316249 0.0 0.0 0.0 
378.00082008174917 2.0 1.0 400.0 0.499700042316249 0.0 0.0 0.0 
380.00082008174917 2.0 1.0 400.0 0.499700042316249 0.0 0.0 0.0 
382.00082008174917 2.0 1.0 400.0 0.499700042316249 0.0 0.0 0.0 
384.00082008174917 2.0 1.0 400.0 0.499700042316249 0.0 0.0 0.0 
386.0002974181195 2.0 1.0 400.0 0.499700042316249 0.0 0.0 0.0 
388.00082008174917 2.0 1.0 400.0 0.499700042316249 0.0 0.0 0.0 
390.00082008174917 2.0 1.0 400.0 0.499700042316249 0.0 0.0 0.0 
392.00082008174917 2.0 1.0 400.0 0.499700042316249 0.0 0.0 0.0 
394.00082008174917 2.0 1.0 400.0 0.499700042316249 0.0 0.0 0.0 
396.0002974181195 2.0 1.0 400.0 0.499700042316249 0.0 0.0 0.0 
398.00082008174917 2.0 1.0 400.0 0.499700042316249 0.0 0.0 0.0 
400.00082008174917 2.0 1.0 400.0 0.499700042316249 0.0 0.0 0.0 
402.00082008174917 2.0 1.0 400.0 0.499700042316249 0.0 0.0 0.0 
404.00082008174917 2.0 1.0 400.0 0.499700042316249 0.0 0.0 0.0 
406.0002974181195 2.0 1.0 400.0 0.499700042316249 0.0 0.0 0.0 
408.00082008174917 2.0 1.0 400.0 0.499700042316249 0.0 0.0 0.0 
410.00082008174917 2.0 1.0 400.0 0.499700042316249 0.0 0.0 0.0 
412.00082008174917 2.0 1.0 400.0 0.499700042316249 0.0 0.0 0.0 
414.00082008174917 2.0 1.0 400.0 0.499700042316249 0.0 0.0 0.0 
416.0002974181195 2.0 1.0 400.0 0.499700042316249 0.0 0.0 0.0 
418.00082008174917 2.0 1.0 400.0 0.499700042316249 0.0 0.0 0.0 
420.00082008174917 2.0 1.0 400.0 0.499700042316249 0.0 0.0 0.0 
422.00082008174917 2.0 1.0 400.0 0.499700042316249 0.0 0.0 0.0 
424.00082008174917 2.0 1.0 400.0 0.499700042316249 0.0 0.0 0.0 
426.0002974181195 2.0 1.0 400.0 0.499700042316249 0.0 0.0 0.0 
428.00082008174917 2.0 1.0 400.0 0.499700042316249 0.0 0.0 0.0 
430.00082008174917 2.0 1.0 400.0 0.499700042316249 0.0 0.0 0.0 
432.00082008174917 2.0 1.0 400.0 0.499700042316249 0.0 0.0 0.0 
434.00082008174917 2.0 1.0 400.0 0.499700042316249 0.0 0.0 0.0 
436.0002974181195 2.0 1.0 400.0 0.499700042316249 0.0 0.0 0.0 
438.00082008174917 2.0 1.0 400.0 0.499700042316249 0.0 0.0 0.0 
440.00082008174917 2.0 1.0 400.0 0.499700042316249 0.0 0.0 0.0 
442.00082008174917 2.0 1.0 400.0 0.499700042316249 0.0 0.0 0.0 
444.00082008174917 2.0 1.0 400.0 0.499700042316249 0.0 0.0 0.0 
446.0002974181195 2.0 1.0 400.0 0.499700042316249 0.0 0.0 0.0 
448.00082008174917 2.0 1.0 400.0 0.499700042316249 0.0 0.0 0.0 
450.00082008174917 2.0 1.0 400.0 0.499700042316249 0.0 0.0 0.0 
452.00082008174917 2.0 1.0 400.0 0.499700042316249 0.0 0.0 0.0 
454.00082008174917 2.0 1.0 400.0 0.499700042316249 0.0 0.0 0.0 
456.0002974181195 2.0 1.0 400.0 0.499700042316249 0.0 0.0 0.0 
458.00082008174917 2.0 1.0 400.0 0.499700042316249 0.0 0.0 0.0 
460.00082008174917 2.0 1.0 400.0 0.499700042316249 0.0 0.0 0.0 
462.00082008174917 2.0 1.0 400.0 0.499700042316249 0.0 0.0 0.0 
464.00082008174917 2.0 1.0 400.0 0.499700042316249 0.0 0.0 0.0 
466.0002974181195 2.0 1.0 400.0 0.499700042316249 0.0 0.0 0.0 
468.00082008174917 2.0 1.0 400.0 0.499700042316249 0.0 0.0 0.0 
470.00082008174917 2.0 1.0 400.0 0.499700042316249 0.0 0.0 0.0 
472.00082008174917 2.0 1.0 400.0 0.499700042316249 0.0 0.0 0.0 
474.00082008174917 2.0 1.0 400.0 0.499700042316249 0.0 0.0 0.0 
476.0002974181195 2.0 1.0 400.0 0.499700042316249 0.0 0.0 0.0 
478.00082008174917 2.0 1.0 400.0 0.499700042316249 0.0 0.0 0.0 
480.00082008174917 2.0 1.0 400.0 0.499700042316249 0.0 0.0 0.0 
482.00082008174917 2.0 1.0 400.0 0.499700042316249 0.0 0.0 0.0 
484.00082008174917 2.0 1.0 400.0 0.499700042316249 0.0 0.0 0.0 
486.0002974181195 2.0 1.0 400.0 0.499700042316249 0.0 0.0 0.0 
488.00082008174917 2.0 1.0 400.0 0.499700042316249 0.0 0.0 0.0 
490.00082008174917 2.0 1.0 400.0 0.499700042316249 0.0 0.0 0.0 
492.00082008174917 2.0 1.0 400.0 0.499700042316249 0.0 0.0 0.0 
494.00082008174917 2.0 1.0 400.0 0.499700042316249 0.0 0.0 0.0 
496.0002974181195 2.0 1.0 400.0 0.499700042316249 0.0 0.0 0.0 
498.00082008174917 2.0 1.0 400.0 0.499700042316249 0.0 0.0 0.0 
500.00082008174917 2.0 1.0 400.0 0.499700042316249 0.0 0.0 0.0 
502.00082008174917 2.0 1.0 400.0 0.499700042316249 0.0 0.0 0.0 
504.00082008174917 2.0 1.0 400.0 0.499700042316249 0.0 0.0 0.0 
506.0002974181195 2.0 1.0 400.0 0.499700042316249 0.0 0.0 0.0 
508.00082008174917 2.0 1.0 400.0 0.499700042316249 0.0 0.0 0.0 
510.00082008174917 2.0 1.0 400.0 0.499700042316249 0.0 0.0 0.0 
512.0008200817492 2.0 1.0 400.0 0.499700042316249 0.0 0.0 0.0 
514.0008200817492 2.0 1.0 400.0 0.499700042316249 0.0 0.0 0.0 
516.0002974181195 2.0 1.0 400.0 0.499700042316249 0.0 0.0 0.0 
518.0008200817492 2.0 1.0 400.0 0.499700042316249 0.0 0.0 0.0 
520.0008200817492 2.0 1.0 400.0 0.499700042316249 0.0 0.0 0.0 
522.0008200817492 2.0 1.0 400.0 0.499700042316249 0.0 0.0 0.0 
524.0008200817492 2.0 1.0 400.0 0.499700042316249 0.0 0.0 0.0 
526.0002974181195 2.0 1.0 400.0 0.499700042316249 0.0 0.0 0.0 
528.0008200817492 2.0 1.0 400.0 0.499700042316249 0.0 0.0 0.0 
530.0008200817492 2.0 1.0 400.0 0.499700042316249 0.0 0.0 0.0 
532.0008200817492 2.0 1.0 400.0 0.499700042316249 0.0 0.0 0.0 
534.0008200817492 2.0 1.0 400.0 0.499700042316249 0.0 0.0 0.0 
536.0002974181195 2.0 1.0 400.0 0.499700042316249 0.0 0.0 0.0 
538.0008200817492 2.0 1.0 400.0 0.499700042316249 0.0 0.0 0.0 
540.0008200817492 2.0 1.0 400.0 0.499700042316249 0.0 0.0 0.0 
542.0008200817492 2.0 1.0 400.0 0.499700042316249 0.0 0.0 0.0 
544.0008200817492 2.0 1.0 400.0 0.499700042316249 0.0 0.0 0.0 
546.0002974181195 2.0 1.0 400.0 0.499700042316249 0.0 0.0 0.0 
548.0008200817492 2.0 1.0 400.0 0.499700042316249 0.0 0.0 0.0 
550.0008200817492 2.0 1.0 400.0 0.499700042316249 0.0 0.0 0.0 
552.0008200817492 2.0 1.0 400.0 0.499700042316249 0.0 0.0 0.0 
554.0008200817492 2.0 1.0 400.0 0.499700042316249 0.0 0.0 0.0 
556.0002974181195 2.0 1.0 400.0 0.499700042316249 0.0 0.0 0.0 
558.0008200817492 2.0 1.0 400.0 0.499700042316249 0.0 0.0 0.0 
560.0008200817492 2.0 1.0 400.0 0.499700042316249 0.0 0.0 0.0 
562.0008200817492 2.0 1.0 400.0 0.499700042316249 0.0 0.0 0.0 
564.0008200817492 2.0 1.0 400.0 0.499700042316249 0.0 0.0 0.0 
566.0002974181195 2.0 1.0 400.0 0.499700042316249 0.0 0.0 0.0 
568.0008200817492 2.0 1.0 400.0 0.499700042316249 0.0 0.0 0.0 
570.0008200817492 2.0 1.0 400.0 0.499700042316249 0.0 0.0 0.0 
572.0008200817492 2.0 1.0 400.0 0.499700042316249 0.0 0.0 0.0 
574.0008200817492 2.0 1.0 400.0 0.499700042316249 0.0 0.0 0.0 
576.0002974181195 4.0 2.0 400.0 0.499700042316249 0.0 0.0 0.0 
578.0008200817492 4.0 2.0 400.0 0.499700042316249 0.0 0.0 0.0 
580.0008200817492 4.0 2.0 400.0 0.499700042316249 0.0 0.0 0.0 
582.0008200817492 4.0 2.0 400.0 0.499700042316249 0.0 0.0 0.0 
584.0008200817492 4.0 2.0 400.0 0.499700042316249 0.0 0.0 0.0 
586.0002974181195 4.0 2.0 400.0 0.499700042316249 0.0 0.0 0.0 
588.0008200817492 4.0 2.0 400.0 0.499700042316249 0.0 0.0 0.0 
590.0008200817492 4.0 2.0 400.0 0.499700042316249 0.0 0.0 0.0 
592.0008200817492 4.0 2.0 400.0 0.499700042316249 0.0 0.0 0.0 
594.0008200817492 4.0 2.0 400.0 0.499700042316249 0.0 0.0 0.0 
596.0002974181195 4.0 2.0 400.0 0.999700042316249 0.0 0.0 0.0 
598.0008200817492 2.0 1.0 400.0 0.499700042316249 0.0 0.0 0.0 
600.0008200817492 2.0 1.0 400.0 0.499700042316249 0.0 0.0 0.0 
602.0008200817492 2.0 1.0 400.0 0.499700042316249 0.0 0.0 0.0 
604.0008200817492 2.0 1.0 400.0 0.499700042316249 0.0 0.0 0.0 
606.0002974181195 2.0 1.0 400.0 0.499700042316249 0.0 0.0 0.0 
608.0008200817492 2.0 1.0 400.0 0.499700042316249 0.0 0.0 0.0 
610.0008200817492 2.0 1.0 400.0 0.499700042316249 0.0 0.0 0.0 
612.0008200817492 2.0 1.0 400.0 0.499700042316249 0.0 0.0 0.0 
614.0008200817492 2.0 1.0 400.0 0.499700042316249 0.0 0.0 0.0 
616.0002974181195 2.0 1.0 400.0 0.499700042316249 0.0 0.0 0.0 
618.0008200817492 2.0 1.0 400.0 0.499700042316249 0.0 0.0 0.0 
620.0008200817492 2.0 1.0 400.0 0.499700042316249 0.0 0.0 0.0 
622.0008200817492 2.0 1.0 400.0 0.499700042316249 0.0 0.0 0.0 
624.0008200817492 2.0 1.0 400.0 0.499700042316249 0.0 0.0 0.0 
626.0002974181195 2.0 1.0 400.0 0.499700042316249 0.0 0.0 0.0 
628.0008200817492 2.0 1.0 400.0 0.499700042316249 0.0 0.0 0.0 
630.0008200817492 2.0 1.0 400.0 0.499700042316249 0.0 0.0 0.0 
632.0008200817492 2.0 1.0 400.0 0.499700042316249 0.0 0.0 0.0 
634.0008200817492 2.0 1.0 400.0 0.499700042316249 0.0 0.0 0.0 
636.0002974181195 2.0 1.0 400.0 0.499700042316249 0.0 0.0 0.0 
638.0008200817492 2.0 1.0 400.0 0.499700042316249 0.0 0.0 0.0 
640.0008200817492 2.0 1.0 400.0 0.499700042316249 0.0 0.0 0.0 
642.0008200817492 2.0 1.0 400.0 0.499700042316249 0.0 0.0 0.0 
644.0008200817492 2.0 1.0 400.0 0.499700042316249 0.0 0.0 0.0 
646.0002974181195 2.0 1.0 400.0 0.499700042316249 0.0 0.0 0.0 
648.0008200817492 2.0 1.0 400.0 0.499700042316249 0.0 0.0 0.0 
650.0008200817492 2.0 1.0 400.0 0.499700042316249 0.0 0.0 0.0 
652.0008200817492 2.0 1.0 400.0 0.499700042316249 0.0 0.0 0.0 
654.0008200817492 2.0 1.0 400.0 0.499700042316249 0.0 0.0 0.0 
656.0002974181195 2.0 1.0 400.0 0.499700042316249 0.0 0.0 0.0 
658.0008200817492 2.0 1.0 400.0 0.499700042316249 0.0 0.0 0.0 
660.0008200817492 2.0 1.0 400.0 0.499700042316249 0.0 0.0 0.0 
662.0008200817492 2.0 1.0 400.0 0.499700042316249 0.0 0.0 0.0 
664.0008200817492 2.0 1.0 400.0 0.499700042316249 0.0 0.0 0.0 
#####################################################################
# End of data export. Simulation finished at: 2019-03-08T14:20+0000 #
#####################################################################
