#####################################################################
# Alchemist log file - simulation started at: 2019-03-05T13:58+0000 #
#####################################################################
# seed = 6.0, bandwidth = 316227.76601683797, accessPointCount = 72.92664737217109, baserange = 177.82794100389228
#
# The columns have the following meaning: 
# time neighbor_count[Sum] <value>@neighbor_count[Sum] packet_size[Mean] mean_delay[Mean] crowd[Sum] overcrowded[Sum] risk[Sum] 
0.0 NaN NaN NaN NaN NaN NaN NaN 
2.000242824232777 509.0 155.0 4987.237731038878 0.4758136615789416 1497.0 0.0 1497.0 
4.000242824232777 881.0 158.0 4987.913320586361 0.4992726107707605 1497.0 0.0 1497.0 
6.000242824232777 1094.0 158.0 4988.132568514978 0.5149207229848562 1497.0 0.0 1497.0 
8.000242824232776 1185.0 156.0 4988.336520076482 0.50081792710089 1497.0 0.0 1497.0 
10.000242824232776 1267.0 157.0 4988.045889101339 0.5015821201265978 1497.0 0.0 1497.0 
12.000242824232776 1287.0 158.0 4988.290630975143 0.5178994164004198 1497.0 0.0 1497.0 
14.000242824232776 1266.0 156.0 4988.168260038241 0.501133451075605 1497.0 0.0 1497.0 
16.000242824232778 1266.0 156.0 4988.242192479286 0.5010897841013668 1497.0 0.0 1497.0 
18.000242824232778 1266.0 156.0 4988.081580624602 0.5011242900315933 1497.0 0.0 1497.0 
20.000242824232778 1266.0 156.0 4988.260038240918 0.5011241342930053 1497.0 0.0 1497.0 
22.000242824232778 1266.0 156.0 4988.0713830465265 0.5011724618006389 1497.0 0.0 1497.0 
24.000242824232778 1266.0 156.0 4988.211599745061 0.5011407437214395 1497.0 0.0 1497.0 
26.000242824232778 1266.0 156.0 4987.982154238369 0.5011671740507669 1497.0 0.0 1497.0 
28.000242824232778 1266.0 156.0 4988.135117909496 0.5011608813815023 1497.0 0.0 1497.0 
30.000242824232778 1266.0 156.0 4988.058636073933 0.5011705434101899 1497.0 0.0 1497.0 
32.00024282423278 1266.0 156.0 4988.081580624602 0.5011452857087385 1497.0 0.0 1497.0 
34.00024282423278 1266.0 156.0 4988.0407903123005 0.5011747928376584 1497.0 0.0 1497.0 
36.00024282423278 1266.0 156.0 4988.132568514978 0.5011508458910415 1497.0 0.0 1497.0 
38.00024282423278 1266.0 156.0 4988.012746972594 0.5011865808067728 1497.0 0.0 1497.0 
40.00024282423278 1266.0 156.0 4988.1402166985345 0.5011657182432538 1497.0 0.0 1497.0 
42.00024282423278 1266.0 156.0 4988.005098789037 0.5011721904324319 1497.0 0.0 1497.0 
44.00024282423278 1266.0 156.0 4988.130019120459 0.5011567210616495 1497.0 0.0 1497.0 
46.00024282423278 1266.0 156.0 4988.015296367113 0.5011859776281303 1497.0 0.0 1497.0 
48.00024282423278 1266.0 156.0 4988.14786488209 0.5011582690929193 1497.0 0.0 1497.0 
50.00024282423278 1266.0 156.0 4988.025493945188 0.5011709853543853 1497.0 0.0 1497.0 
52.00024282423278 1266.0 156.0 4988.096876991714 0.5011618111688504 1497.0 0.0 1497.0 
54.00024282423278 1266.0 156.0 4988.053537284894 0.511103540896056 1497.0 0.0 1497.0 
56.00024282423278 1262.0 155.0 4988.076481835564 0.4980311089973195 1497.0 0.0 1497.0 
58.00024282423278 1262.0 155.0 4988.012746972594 0.51334646341865 1497.0 0.0 1497.0 
60.00024282423278 1238.0 154.0 4988.152963671128 0.4994086233190184 1497.0 0.0 1497.0 
62.000191944496926 1238.0 154.0 514.460165710644 0.49571368533109994 113.0 0.0 39.0 
64.00019194449692 1238.0 154.0 514.3811344805604 0.4986670854244687 96.0 0.0 39.0 
66.00019194449693 1238.0 154.0 514.4219247928611 0.49866138011134675 88.0 0.0 39.0 
68.00019194449693 1238.0 154.0 514.360739324411 0.4986894299861237 72.0 0.0 39.0 
70.00019194449693 1238.0 154.0 514.345442957297 0.4987075217082069 69.0 0.0 39.0 
72.00019194449693 1238.0 154.0 514.3658381134479 0.49869647288960617 69.0 0.0 39.0 
74.00019194449693 1238.0 154.0 514.360739324411 0.49938847109411794 69.0 0.0 39.0 
76.00019194449693 1268.0 155.0 517.2976418100702 0.4991309300475665 69.0 0.0 40.0 
78.00019194449693 1268.0 155.0 517.3205863607391 0.4989376182395439 69.0 0.0 40.0 
80.00019194449693 1276.0 156.0 514.3530911408548 0.49650286479011624 69.0 0.0 39.0 
82.00019194449693 1288.0 156.0 514.3964308476731 0.4996381388842102 69.0 0.0 39.0 
84.00019194449693 1288.0 156.0 514.3377947737408 0.4996720622080815 69.0 0.0 39.0 
86.00019194449693 1290.0 156.0 514.3581899298916 0.4996149281855883 67.0 0.0 39.0 
88.00019194449693 1290.0 156.0 514.3428935627792 0.4996210123409445 67.0 0.0 39.0 
90.00019194449693 1290.0 156.0 514.3734862970042 0.5032470346101338 66.0 0.0 39.0 
92.00019194449693 1282.0 155.0 514.322498406628 0.5159025535992721 66.0 0.0 39.0 
94.00019194449693 1270.0 155.0 514.3581899298916 0.4993844758649785 65.0 0.0 39.0 
96.00019194449693 1272.0 156.0 511.3983428935622 0.49998161875597946 63.0 0.0 38.0 
98.00019194449693 1274.0 156.0 511.4442319949012 0.4993443638427999 63.0 0.0 38.0 
100.00019194449693 1274.0 156.0 511.3983428935622 0.4993806565301288 63.0 0.0 38.0 
102.00019194449693 1274.0 156.0 511.43403441682557 0.49936327487347876 63.0 0.0 38.0 
104.00019194449693 1274.0 156.0 511.3983428935622 0.4993670451464323 63.0 0.0 38.0 
106.00019194449693 1278.0 157.0 511.4442319949012 0.4981609447172996 63.0 0.0 38.0 
108.00019194449693 1278.0 157.0 511.3983428935622 0.49819704739055876 63.0 0.0 38.0 
110.00019194449693 1278.0 157.0 511.43403441682557 0.49817975673734666 63.0 0.0 38.0 
112.00019194449693 1279.0 157.0 511.3983428935622 0.4976934869877917 63.0 0.0 38.0 
114.00019194449693 1280.0 158.0 511.4442319949012 0.49816473931160515 63.0 0.0 38.0 
116.00019194449693 1280.0 158.0 511.3983428935622 0.5103066331784494 63.0 0.0 38.0 
118.00019194449693 1276.0 157.0 511.43403441682557 0.4993567312699626 63.0 0.0 38.0 
120.00019194449693 1276.0 157.0 508.4843849585716 0.5002985346662504 63.0 0.0 37.0 
122.00019194449693 1276.0 157.0 508.51752708731743 0.5054769769048124 63.0 0.0 37.0 
124.00019194449693 1275.0 157.0 508.4767367750154 0.51128560205823 63.0 0.0 37.0 
126.00019194449693 1274.0 156.0 508.5022307202034 0.5003116364751627 63.0 0.0 37.0 
128.00019194449692 1274.0 156.0 508.46653919694126 0.5003188589242967 63.0 0.0 37.0 
130.00019194449692 1274.0 156.0 508.51242829827885 0.5002939885062636 63.0 0.0 37.0 
132.00019194449692 1274.0 156.0 508.4690885914591 0.5003302811935922 63.0 0.0 37.0 
134.00019194449692 1274.0 156.0 508.481835564054 0.5003143500768533 63.0 0.0 37.0 
136.00019194449692 1274.0 156.0 508.4843849585716 0.5003199767845551 63.0 0.0 37.0 
138.00019194449692 1274.0 156.0 508.49203314212934 0.5002976281605761 63.0 0.0 37.0 
140.00019194449692 1274.0 156.0 508.4843849585716 0.5003313990538499 63.0 0.0 37.0 
142.00019194449692 1274.0 156.0 508.481835564054 0.5003165391912547 63.0 0.0 37.0 
144.00019194449692 1274.0 156.0 508.4843849585716 0.5003177876701536 63.0 0.0 37.0 
146.00019194449692 1274.0 156.0 508.49203314212934 0.5002976281605761 63.0 0.0 37.0 
148.00019194449692 1274.0 156.0 508.4843849585716 0.5003313990538499 63.0 0.0 37.0 
150.00019194449692 1274.0 156.0 508.481835564054 0.5003165391912547 63.0 0.0 37.0 
152.00019194449692 1274.0 156.0 508.4843849585716 0.5003199767845551 63.0 0.0 37.0 
154.00019194449692 1274.0 156.0 508.49203314212934 0.5002954390461746 63.0 0.0 37.0 
156.00019194449692 1280.0 157.0 511.4365838113451 0.5008842689666817 63.0 0.0 38.0 
158.00019194449692 1280.0 157.0 511.4263862332693 0.5008737550679564 63.0 0.0 38.0 
160.00019194449692 1280.0 157.0 511.4263862332693 0.5008797356505542 63.0 0.0 38.0 
162.00019194449692 1282.0 158.0 511.4365838113451 0.5008329756477856 63.0 0.0 38.0 
164.00019194449692 1282.0 158.0 511.4263862332693 0.5008666009666192 63.0 0.0 38.0 
166.00019194449692 1282.0 158.0 511.4263862332693 0.5068964977332551 63.0 0.0 38.0 
168.00019194449692 1280.0 158.0 511.4263862332693 0.5015428284235605 63.0 0.0 38.0 
170.00019194449692 1280.0 158.0 511.4365838113451 0.501518292739078 63.0 0.0 38.0 
172.00019194449692 1280.0 158.0 511.4263862332693 0.5170981145954052 63.0 0.0 38.0 
174.00019194449692 1278.0 157.0 511.4263862332693 0.5015640706013761 63.0 0.0 38.0 
176.00019194449692 1278.0 157.0 511.4263862332693 0.5155481833255536 63.0 0.0 38.0 
178.00019194449692 1279.0 157.0 511.4365838113451 0.4992003433145637 63.0 0.0 38.0 
180.00019194449692 1282.0 157.0 511.4263862332693 0.5003265820549522 63.0 0.0 38.0 
182.00019194449692 1282.0 157.0 511.4263862332693 0.5003092390055166 63.0 0.0 38.0 
184.00019194449692 1282.0 157.0 511.4263862332693 0.5003130419350448 63.0 0.0 38.0 
186.00019194449692 1282.0 157.0 511.4365838113451 0.5002904269854698 63.0 0.0 38.0 
188.00019194449692 1282.0 157.0 511.4263862332693 0.5003265820549522 63.0 0.0 38.0 
190.00019194449692 1282.0 157.0 511.4263862332693 0.5003092390055166 63.0 0.0 38.0 
192.00019194449692 1282.0 157.0 511.4263862332693 0.5003152195881143 63.0 0.0 38.0 
194.00019194449692 1282.0 157.0 511.4365838113451 0.5002904269854698 63.0 0.0 38.0 
196.00019194449692 1283.0 157.0 511.4263862332693 0.5006874512862616 63.0 0.0 38.0 
198.00019194449692 1284.0 157.0 511.4263862332693 0.5007877708349764 63.0 0.0 38.0 
200.00019194449692 1284.0 157.0 511.4263862332693 0.5007937514175741 63.0 0.0 38.0 
202.00019194449692 1284.0 157.0 511.4365838113451 0.5007689588149294 63.0 0.0 38.0 
204.00019194449692 1284.0 157.0 511.4263862332693 0.5147821721347582 63.0 0.0 38.0 
206.00019194449692 1280.0 156.0 511.4263862332693 0.5020261764115409 63.0 0.0 38.0 
208.00019194449692 1280.0 156.0 511.4263862332693 0.5020321884708892 63.0 0.0 38.0 
210.00019194449692 1280.0 156.0 511.4365838113451 0.5020072653808623 63.0 0.0 38.0 
212.00019194449692 1280.0 156.0 511.4263862332693 0.5020436107401841 63.0 0.0 38.0 
214.00019194449692 1280.0 156.0 511.4263862332693 0.5020261764115409 63.0 0.0 38.0 
216.00019194449692 1280.0 156.0 511.4263862332693 0.5020321884708892 63.0 0.0 38.0 
218.00019194449692 1280.0 156.0 511.4365838113451 0.5020072653808623 63.0 0.0 38.0 
220.00019194449692 1280.0 156.0 511.4263862332693 0.5020436107401841 63.0 0.0 38.0 
222.00019194449692 1280.0 156.0 511.4263862332693 0.5020261764115409 63.0 0.0 38.0 
224.00019194449692 1281.0 156.0 511.4263862332693 0.49976816025142884 63.0 0.0 38.0 
226.00019194449692 1282.0 157.0 514.3607393244108 0.5016445322200839 64.0 0.0 39.0 
228.00019194449692 1282.0 157.0 514.3428935627793 0.5016758901366133 64.0 0.0 39.0 
230.00019194449692 1282.0 157.0 514.3479923518161 0.501660860504506 64.0 0.0 39.0 
232.00019194449692 1282.0 157.0 514.3403441682598 0.5016692647725299 64.0 0.0 39.0 
234.00019194449692 1286.0 158.0 514.3581899298918 0.502931849372682 64.0 0.0 39.0 
236.00019194449692 1286.0 158.0 514.3326959847036 0.5029592832350107 64.0 0.0 39.0 
238.00019194449692 1286.0 158.0 514.3377947737409 0.5029519260512496 64.0 0.0 39.0 
240.00019194449692 1288.0 159.0 514.3275971956664 0.5065701944775673 64.0 0.0 39.0 
242.00019194449692 1286.0 159.0 514.3479923518161 0.5230830574741456 64.0 0.0 39.0 
244.00019194449692 1282.0 158.0 514.3275971956664 0.502988947924659 64.0 0.0 39.0 
246.00019194449692 1282.0 158.0 514.3505417463356 0.5029733329650563 64.0 0.0 39.0 
248.00019194449692 1282.0 158.0 514.319949012109 0.5029804473782193 64.0 0.0 39.0 
250.00019194449692 1282.0 158.0 514.3403441682598 0.5081483044552939 64.0 0.0 39.0 
252.00019194449692 1280.0 157.0 514.319949012109 0.5149315458003878 64.0 0.0 39.0 
254.00019194449692 1280.0 157.0 514.3301465901847 0.5031872149530193 64.0 0.0 39.0 
256.0001919444969 1280.0 157.0 514.319949012109 0.5031892055469116 64.0 0.0 39.0 
258.000191944497 1280.0 157.0 514.3403441682598 0.5031710444330909 64.0 0.0 39.0 
260.000191944497 1280.0 157.0 514.319949012109 0.5032003968127671 64.0 0.0 39.0 
262.000191944497 1280.0 157.0 514.3301465901847 0.5031895624363019 64.0 0.0 39.0 
264.000191944497 1280.0 157.0 514.319949012109 0.5031868580636258 64.0 0.0 39.0 
266.000191944497 1280.0 157.0 514.3403441682598 0.503171044433091 64.0 0.0 39.0 
268.000191944497 1280.0 157.0 514.319949012109 0.5077323404876636 64.0 0.0 39.0 
270.000191944497 1274.0 157.0 514.3301465901847 0.5200236526006713 64.0 0.0 39.0 
272.000191944497 1266.0 156.0 514.319949012109 0.502731375369486 64.0 0.0 39.0 
274.000191944497 1266.0 156.0 514.3403441682598 0.5027107593975285 64.0 0.0 39.0 
276.000191944497 1266.0 156.0 514.319949012109 0.5027426252283579 64.0 0.0 39.0 
278.000191944497 1286.0 157.0 517.2721478648823 0.5026953253961562 65.0 0.0 40.0 
280.000191944497 1286.0 157.0 517.2517527087311 0.5018243248679771 65.0 0.0 40.0 
282.000191944497 1288.0 158.0 517.2721478648823 0.5015590926498282 65.0 0.0 40.0 
284.000191944497 1288.0 158.0 517.2517527087311 0.5067675977670669 65.0 0.0 40.0 
286.000191944497 1287.0 158.0 517.2619502868066 0.5142440496847884 65.0 0.0 40.0 
288.000191944497 1288.0 157.0 517.2517527087311 0.5015423689276375 65.0 0.0 40.0 
290.000191944497 1288.0 157.0 517.2721478648823 0.5015273516003923 65.0 0.0 40.0 
292.000191944497 1288.0 157.0 517.2517527087311 0.5015571537177622 65.0 0.0 40.0 
294.000191944497 1288.0 157.0 517.2619502868066 0.5015436067827267 65.0 0.0 40.0 
296.000191944497 1288.0 157.0 517.2517527087311 0.5015459038588903 65.0 0.0 40.0 
298.000191944497 1294.0 157.0 517.2695984703628 0.5009792374123684 65.0 0.0 40.0 
300.000191944497 1294.0 157.0 517.2594008922875 0.5010152221147492 65.0 0.0 40.0 
302.000191944497 1294.0 157.0 517.2313575525817 0.5010110698293517 65.0 0.0 40.0 
304.000191944497 1294.0 157.0 508.4690885914591 0.49896539902720116 65.0 0.0 37.0 
306.000191944497 1294.0 157.0 508.4690885914591 0.50159223311077 64.0 0.0 37.0 
308.000191944497 1298.0 157.0 511.4085404716375 0.5070527255742597 64.0 0.0 38.0 
310.000191944497 1292.0 157.0 511.39069471000573 0.5025124704790515 64.0 0.0 38.0 
312.000191944497 1320.0 158.0 511.4008922880813 0.5027351990350382 65.0 0.0 38.0 
314.000191944497 1320.0 158.0 511.393244104525 0.5021829720554478 65.0 0.0 38.0 
316.000191944497 1320.0 158.0 511.4161886551938 0.5021930386642683 65.0 0.0 38.0 
318.000191944497 1320.0 158.0 511.38049713193186 0.5021997267698621 65.0 0.0 38.0 
320.000191944497 1320.0 158.0 511.38049713193186 0.5021934186608509 65.0 0.0 38.0 
322.000191944497 1320.0 158.0 511.39069471000573 0.5021860242378269 65.0 0.0 38.0 
324.000191944497 1320.0 158.0 511.38049713193186 0.5022060463611896 65.0 0.0 38.0 
326.000191944497 1320.0 158.0 511.38049713193186 0.502205775244548 65.0 0.0 38.0 
328.000191944497 1320.0 158.0 511.398342893562 0.5060565222034841 65.0 0.0 38.0 
330.000191944497 1314.0 158.0 511.38304652644956 0.5026999550847506 65.0 0.0 38.0 
332.000191944497 1314.0 158.0 511.4008922880813 0.5027270113994494 65.0 0.0 38.0 
334.000191944497 1314.0 158.0 511.38049713193186 0.5027285437051162 65.0 0.0 38.0 
336.000191944497 1314.0 158.0 511.3855959209689 0.5027185449032167 65.0 0.0 38.0 
338.000191944497 1314.0 158.0 514.3326959847036 0.5043754077807847 65.0 0.0 39.0 
340.000191944497 1310.0 158.0 514.3479923518161 0.5018826292606823 65.0 0.0 39.0 
342.000191944497 1310.0 158.0 514.2995538559594 0.5105896116444005 65.0 0.0 39.0 
344.000191944497 1308.0 157.0 514.3454429572969 0.5021298709654702 65.0 0.0 39.0 
346.000191944497 1308.0 157.0 514.29700446144 0.5021267419921268 65.0 0.0 39.0 
348.000191944497 1308.0 157.0 514.3148502230717 0.5162014218123416 65.0 0.0 39.0 
350.000191944497 1292.0 156.0 514.2893562778837 0.5031676870163362 65.0 0.0 39.0 
352.000191944497 1292.0 156.0 514.284257488847 0.5031615961395993 65.0 0.0 39.0 
354.000191944497 1295.0 157.0 514.2689611217343 0.5139312806677007 65.0 0.0 39.0 
356.000191944497 1292.0 156.0 514.284257488847 0.5010005087829117 65.0 0.0 39.0 
358.000191944497 1292.0 156.0 514.2587635436588 0.5009967113288958 65.0 0.0 39.0 
360.000191944497 1292.0 156.0 514.284257488847 0.5009883558629727 65.0 0.0 39.0 
362.000191944497 1292.0 156.0 514.2689611217343 0.5009767524168407 65.0 0.0 39.0 
364.000191944497 1292.0 156.0 514.284257488847 0.5010005087829117 65.0 0.0 39.0 
366.000191944497 1292.0 156.0 514.2587635436588 0.5009967113288958 65.0 0.0 39.0 
368.000191944497 1292.0 156.0 514.284257488847 0.5009883558629727 65.0 0.0 39.0 
370.000191944497 1292.0 156.0 514.2689611217343 0.5009767524168407 65.0 0.0 39.0 
372.000191944497 1292.0 156.0 514.284257488847 0.5010005087829117 65.0 0.0 39.0 
374.000191944497 1292.0 156.0 514.2587635436588 0.5009941984117369 65.0 0.0 39.0 
376.000191944497 1292.0 156.0 514.284257488847 0.5009883558629727 65.0 0.0 39.0 
378.000191944497 1295.0 156.0 511.3397068196299 0.49801436031884744 66.0 0.0 38.0 
380.000191944497 1322.0 157.0 514.2995538559594 0.5011789760251716 66.0 0.0 39.0 
382.000191944497 1322.0 157.0 514.3148502230716 0.5007518337523119 66.0 0.0 39.0 
384.000191944497 1325.0 157.0 514.370936902485 0.5015732881193429 66.0 0.0 39.0 
386.000191944497 1326.0 157.0 514.3250478011474 0.5014662496818012 65.0 1.0 38.0 
388.000191944497 1326.0 157.0 514.3352453792229 0.5015029357303724 64.0 2.0 37.0 
390.000191944497 1326.0 157.0 514.284257488847 0.5015024774298643 60.0 6.0 33.0 
392.000191944497 1326.0 157.0 514.2995538559594 0.5015053011734371 60.0 6.0 33.0 
394.000191944497 1327.0 157.0 514.284257488847 0.501219088756649 61.0 6.0 33.0 
396.000191944497 1328.0 157.0 514.2995538559594 0.5130986901690618 61.0 6.0 33.0 
398.000191944497 1326.0 157.0 514.2740599107713 0.5130723562176301 61.0 6.0 33.0 
400.000191944497 1324.0 157.0 514.3097514340349 0.503259739499342 61.0 6.0 33.0 
402.000191944497 1324.0 157.0 520.1529636711284 0.5058399617588256 61.0 6.0 35.0 
404.000191944497 1342.0 158.0 523.1077119184195 0.5019512157915916 61.0 7.0 35.0 
406.000191944497 1358.0 158.0 520.1631612492035 0.5205262802771238 60.0 7.0 34.0 
408.000191944497 1352.0 157.0 517.2644996813261 0.5042098784330085 62.0 5.0 35.0 
410.000191944497 1354.0 157.0 517.2492033142132 0.514159238430177 60.0 7.0 33.0 
412.000191944497 1348.0 156.0 517.2441045251745 0.5048685605876391 60.0 7.0 33.0 
414.000191944497 1348.0 156.0 517.2288081580622 0.5048614160365535 61.0 6.0 34.0 
416.000191944497 1350.0 156.0 517.2492033142132 0.5049903343616935 61.0 6.0 34.0 
418.000191944497 1350.0 156.0 517.2288081580622 0.5049827846772393 61.0 6.0 34.0 
420.000191944497 1350.0 156.0 517.2543021032502 0.5050001129824107 61.0 6.0 34.0 
422.000191944497 1350.0 156.0 517.2237093690251 0.5050003213520513 61.0 6.0 34.0 
424.000191944497 1352.0 156.0 520.1963033779482 0.5064792604966601 61.0 6.0 35.0 
426.000191944497 1351.0 156.0 523.130656469088 0.5056568581155736 62.0 5.0 37.0 
428.000191944497 1350.0 156.0 523.153601019757 0.5051010232690649 67.0 0.0 42.0 
430.000191944497 1350.0 156.0 523.0898661567875 0.5051083664790957 67.0 0.0 42.0 
432.000191944497 1350.0 156.0 523.1102613129385 0.5051098829227076 67.0 0.0 42.0 
434.000191944497 1350.0 156.0 523.0949649458247 0.5060296405206212 67.0 0.0 42.0 
436.000191944497 1347.0 156.0 523.1255576800513 0.5072752176520073 67.0 0.0 42.0 
438.000191944497 1344.0 156.0 523.0847673677505 0.5052611433113431 67.0 0.0 42.0 
440.000191944497 1344.0 156.0 523.1051625238999 0.50525278784542 67.0 0.0 42.0 
442.000191944497 1344.0 156.0 523.0898661567875 0.5052433371195333 67.0 0.0 42.0 
444.000191944497 1348.0 157.0 523.1051625238999 0.5050152768693058 67.0 0.0 42.0 
446.000191944497 1345.0 157.0 523.0796685787124 0.506411439843216 67.0 0.0 42.0 
448.000191944497 1344.0 157.0 523.1102613129385 0.5029731434294082 67.0 0.0 42.0 
450.000191944497 1343.0 157.0 523.0847673677505 0.5211586294544551 67.0 0.0 42.0 
452.000191944497 1312.0 156.0 523.1128107074566 0.5016651696248382 67.0 0.0 42.0 
454.000191944497 1312.0 156.0 523.0720203951557 0.5043010060826171 67.0 0.0 42.0 
456.000191944497 1311.0 156.0 523.0873167622686 0.509570028862313 67.0 0.0 42.0 
458.000191944497 1306.0 156.0 523.0720203951557 0.502070694655926 67.0 0.0 42.0 
460.000191944497 1306.0 156.0 523.0873167622686 0.502094451021997 67.0 0.0 42.0 
462.000191944497 1308.0 156.0 523.0618228170805 0.5020330332045061 67.0 0.0 42.0 
464.000191944497 1308.0 156.0 523.0873167622686 0.502022259049617 67.0 0.0 42.0 
466.000191944497 1308.0 156.0 523.0771191841942 0.5020119450538894 67.0 0.0 42.0 
468.000191944497 1308.0 156.0 523.0873167622686 0.5125631150385982 67.0 0.0 42.0 
470.000191944497 1306.0 156.0 523.0618228170805 0.5036419180620432 67.0 0.0 42.0 
472.000191944497 1309.0 156.0 526.0446144040785 0.501997881447356 67.0 0.0 43.0 
474.000191944497 1312.0 157.0 526.0140216698538 0.5083779155672548 67.0 0.0 43.0 
476.000191944497 1305.0 157.0 526.0267686424471 0.5213480901713501 67.0 0.0 43.0 
478.000191944497 1294.0 157.0 526.0191204588904 0.5059844632305482 67.0 0.0 43.0 
480.000191944497 1294.0 157.0 526.0267686424471 0.5059785966460137 67.0 0.0 43.0 
482.000191944497 1294.0 157.0 526.0267686424471 0.5078750666280833 67.0 0.0 43.0 
484.000191944497 1292.0 157.0 526.0497131931171 0.5061148815191846 67.0 0.0 43.0 
486.000191944497 1292.0 157.0 525.9961759082219 0.5061212700767386 67.0 0.0 43.0 
488.000191944497 1292.0 157.0 526.02166985341 0.5217527088724656 67.0 0.0 43.0 
490.000191944497 1290.0 156.0 525.9961759082219 0.5045654362706914 67.0 0.0 43.0 
492.000191944497 1290.0 156.0 526.0165710643729 0.5104718134726605 67.0 0.0 43.0 
494.000191944497 1285.0 156.0 517.200764818355 0.5188754437409977 66.0 0.0 40.0 
496.000191944497 1282.0 155.0 517.2262587635433 0.5067732108673418 65.0 0.0 40.0 
498.000191944497 1281.0 155.0 517.2109623964307 0.5072761260888056 65.0 0.0 40.0 
500.000191944497 1280.0 155.0 517.2262587635433 0.5036726087842865 65.0 0.0 40.0 
502.000191944497 1280.0 155.0 517.2058636073937 0.5053777385671315 65.0 0.0 40.0 
504.000191944497 1278.0 155.0 514.2944550669224 0.503938661557803 65.0 0.0 39.0 
506.000191944497 1278.0 155.0 514.2689611217342 0.5039368455057951 65.0 0.0 39.0 
508.000191944497 1278.0 155.0 514.2842574888471 0.5039603820060833 65.0 0.0 39.0 
510.000191944497 1278.0 155.0 511.3346080305927 0.5039566159614649 64.0 0.0 38.0 
512.0001919444969 1279.0 155.0 511.3652007648179 0.5021355600451702 64.0 0.0 38.0 
514.0001919444969 1280.0 156.0 511.3448056086685 0.5115230990354619 64.0 0.0 38.0 
516.0001919444969 1276.0 155.0 511.3601019757808 0.5009683211544594 64.0 0.0 38.0 
518.0001919444969 1276.0 155.0 511.3346080305927 0.5009645551098416 64.0 0.0 38.0 
520.0001919444969 1280.0 155.0 511.3601019757808 0.5002492482837436 64.0 0.0 38.0 
522.0001919444969 1286.0 156.0 511.349904397705 0.500912752079232 64.0 0.0 38.0 
524.0001919444969 1288.0 156.0 511.3601019757808 0.5014643333657649 64.0 0.0 38.0 
526.0001919444969 1288.0 156.0 511.3346080305927 0.50146594922431 64.0 0.0 38.0 
528.0001919444969 1298.0 158.0 511.3601019757808 0.5001056973239608 64.0 0.0 38.0 
530.0001919444969 1300.0 158.0 511.3448056086685 0.5008945109094645 64.0 0.0 38.0 
532.0001919444969 1300.0 158.0 511.3652007648179 0.5009160764134687 64.0 0.0 38.0 
534.0001919444969 1300.0 158.0 511.3346080305927 0.5009086674333914 64.0 0.0 38.0 
536.0001919444969 1300.0 158.0 511.3601019757808 0.5009058412276444 64.0 0.0 38.0 
538.0001919444969 1300.0 158.0 511.3448056086685 0.5207732726724112 64.0 0.0 38.0 
540.0001919444969 1292.0 157.0 511.3601019757808 0.5006236784699009 64.0 0.0 38.0 
542.0001919444969 1292.0 157.0 511.33970681962984 0.5006183381508418 64.0 0.0 38.0 
544.0001919444969 1292.0 157.0 511.3601019757808 0.501279374676954 64.0 0.0 38.0 
546.0001919444969 1290.0 157.0 511.3448056086685 0.5004677277567561 64.0 0.0 38.0 
548.0001919444969 1290.0 157.0 511.3601019757808 0.5070164753937998 64.0 0.0 38.0 
550.0001919444969 1285.0 156.0 511.3346080305927 0.509488156960676 64.0 0.0 38.0 
552.0001919444969 1285.0 157.0 511.38049713193175 0.5040328557568198 64.0 0.0 38.0 
554.0001919444969 1286.0 157.0 511.3473550031876 0.5097480269847 64.0 0.0 38.0 
556.0001919444969 1284.0 156.0 511.3473550031876 0.5027572866051068 64.0 0.0 38.0 
558.0001919444969 1284.0 156.0 511.32695984703656 0.5027613693355704 64.0 0.0 38.0 
560.0001919444969 1284.0 156.0 508.40280433397027 0.502232953031787 64.0 0.0 37.0 
562.0001919444969 1284.0 156.0 508.40790312300885 0.5254172058637133 64.0 0.0 37.0 
564.0001919444969 1280.0 155.0 508.40280433397027 0.5026382474931954 64.0 0.0 37.0 
566.0001919444969 1296.0 156.0 508.40280433397027 0.501059697492278 65.0 0.0 37.0 
568.0001919444969 1296.0 156.0 508.40280433397027 0.5219179102068292 65.0 0.0 37.0 
570.0001919444969 1294.0 155.0 508.40280433397027 0.5009992099028171 65.0 0.0 37.0 
572.0001919444969 1296.0 156.0 508.40790312300885 0.5005240678518889 65.0 0.0 37.0 
574.0001919444969 1296.0 156.0 511.3422562141488 0.5014358130643484 65.0 0.0 38.0 
576.0001919444969 1310.0 156.0 511.32695984703656 0.5094845599476616 66.0 0.0 38.0 
578.0001919444969 1298.0 156.0 511.32695984703656 0.5017364218751657 66.0 0.0 38.0 
580.0001919444969 1298.0 156.0 511.32695984703656 0.5017364218751657 66.0 0.0 38.0 
582.0001919444969 1298.0 156.0 511.33205863607367 0.502590250384035 66.0 0.0 38.0 
584.0001919444969 1296.0 156.0 511.32695984703656 0.5018982702022337 66.0 0.0 38.0 
586.0001919444969 1296.0 156.0 511.32695984703656 0.5157465975068706 65.0 0.0 38.0 
588.0001919444969 1280.0 156.0 511.32695984703656 0.5014511817454816 65.0 0.0 38.0 
590.0001919444969 1282.0 156.0 511.32695984703656 0.503531629334549 65.0 0.0 38.0 
592.0001919444969 1316.0 158.0 514.2740599107713 0.5128015838381703 65.0 0.0 39.0 
594.0001919444969 1305.0 158.0 514.2740599107713 0.5018111986604202 66.0 0.0 39.0 
596.0001919444969 1306.0 158.0 514.2919056724031 0.5035541096334665 66.0 0.0 39.0 
598.0001919444969 1306.0 158.0 514.2791586998084 0.5035609939939092 66.0 0.0 39.0 
600.0001919444969 1306.0 158.0 514.2944550669223 0.5035586747250395 66.0 0.0 39.0 
602.0001919444969 1306.0 158.0 514.2944550669223 0.5190208924659433 66.0 0.0 39.0 
604.0001919444969 1306.0 158.0 514.2638623326956 0.5039770555323767 66.0 0.0 39.0 
606.0001919444969 1306.0 158.0 514.2587635436589 0.5039954263042463 66.0 0.0 39.0 
608.0001919444969 1306.0 158.0 514.2587635436589 0.5039982264425954 66.0 0.0 39.0 
610.0001919444969 1306.0 158.0 514.2587635436589 0.5039982264425954 66.0 0.0 39.0 
612.0001919444969 1308.0 158.0 517.2415551306572 0.5028958451305883 66.0 0.0 40.0 
614.0001919444969 1308.0 158.0 517.2364563416185 0.5028799823807876 66.0 0.0 40.0 
616.0001919444969 1309.0 158.0 517.2721478648823 0.5032320423589166 66.0 0.0 40.0 
618.0001919444969 1310.0 158.0 517.2466539196942 0.5033565720230545 66.0 0.0 40.0 
620.0001919444969 1310.0 158.0 517.2237093690252 0.5033539997322928 66.0 0.0 40.0 
622.0001919444969 1314.0 158.0 520.1759082217969 0.5048270383068265 66.0 0.0 41.0 
624.0001919444969 1310.0 158.0 520.1835564053532 0.5082551633251697 66.0 0.0 41.0 
626.0001919444969 1307.0 157.0 520.1708094327598 0.5146609503411496 66.0 0.0 41.0 
628.0001919444969 1306.0 157.0 520.1835564053532 0.502609620668323 66.0 0.0 41.0 
630.0001919444969 1306.0 157.0 517.2644996813261 0.5026029025632184 66.0 0.0 40.0 
632.0001919444969 1308.0 157.0 517.2339069470995 0.5148845661118808 66.0 0.0 40.0 
634.0001919444969 1278.0 156.0 517.2874442319945 0.5191476477945813 66.0 0.0 40.0 
636.0001919444969 1276.0 155.0 517.2313575525817 0.5035726297958562 66.0 0.0 40.0 
638.0001919444969 1276.0 155.0 517.2644996813261 0.506207074704432 66.0 0.0 40.0 
640.0001919444969 1275.0 155.0 517.2058636073938 0.5085004436969802 66.0 0.0 40.0 
642.0001919444969 1276.0 155.0 517.246653919694 0.5207908198213719 66.0 0.0 40.0 
644.0001919444969 1254.0 155.0 517.2058636073938 0.5039582489564172 66.0 0.0 40.0 
646.0001919444969 1254.0 155.0 517.2517527087313 0.5039577301207178 66.0 0.0 40.0 
648.0001919444969 1254.0 155.0 517.2007648183551 0.5039610636769177 66.0 0.0 40.0 
650.0001919444969 1254.0 155.0 517.246653919694 0.5039590689706743 66.0 0.0 40.0 
652.0001919444969 1254.0 155.0 517.2007648183551 0.5039610636769177 66.0 0.0 40.0 
654.0001919444969 1254.0 155.0 514.3250478011475 0.5037502191371191 66.0 0.0 39.0 
656.0001919444969 1252.0 155.0 514.2740599107713 0.5032441853839751 66.0 0.0 39.0 
658.0001919444969 1252.0 155.0 514.3148502230717 0.503243541964639 66.0 0.0 39.0 
660.0001919444969 1254.0 156.0 514.2689611217342 0.5031985528403106 66.0 0.0 39.0 
662.0001919444969 1254.0 156.0 511.393244104525 0.504219869246332 66.0 0.0 38.0 
664.0001919444969 1254.0 156.0 511.3524537922247 0.5049151159888676 65.0 0.0 38.0 
#####################################################################
# End of data export. Simulation finished at: 2019-03-05T14:01+0000 #
#####################################################################
