#####################################################################
# Alchemist log file - simulation started at: 2019-03-07T14:49+0000 #
#####################################################################
# seed = 7.0, bandwidth = 4216.965034285822, accessPointCount = 37.60603093086394, baserange = 177.82794100389228
#
# The columns have the following meaning: 
# time neighbor_count[Sum] <value>@neighbor_count[Sum] packet_size[Mean] mean_delay[Mean] crowd[Sum] overcrowded[Sum] risk[Sum] 
0.0 NaN NaN NaN NaN NaN NaN NaN 
2.0002458590828063 7.0 3.0 4987.421121251629 0.2455791604748576 1497.0 0.0 1497.0 
4.000798617819165 39.0 19.0 4987.423728813559 0.8134098026585141 1497.0 0.0 1497.0 
6.000297418119471 75.0 28.0 4987.48370273794 1.3732759833372927 1497.0 0.0 1497.0 
8.000798617819164 98.0 30.0 4987.478487614081 1.6616860258351647 1497.0 0.0 1497.0 
10.000798617819164 145.0 42.0 4987.567144719687 1.652523367178585 1497.0 0.0 1497.0 
12.000798617819164 198.0 48.0 4987.598435462843 2.41145081870703 1497.0 0.0 1497.0 
14.000798617819164 200.0 48.0 4987.61408083442 2.625938471967137 1497.0 0.0 1497.0 
16.000297418119473 200.0 48.0 4987.619295958279 3.03294038763601 1497.0 0.0 1497.0 
18.000798617819164 202.0 48.0 4987.598435462843 2.5481640584525547 1497.0 0.0 1497.0 
20.000798617819164 202.0 48.0 4987.5645371577575 3.2920921191516617 1497.0 0.0 1497.0 
22.000798617819164 202.0 48.0 4987.627118644068 2.2825228222196663 1497.0 0.0 1497.0 
24.000798617819164 202.0 48.0 4987.590612777053 3.029392917357011 1497.0 0.0 1497.0 
26.000297418119473 202.0 48.0 4987.538461538462 2.2414930133127693 1497.0 0.0 1497.0 
28.000798617819164 202.0 48.0 4987.538461538462 3.1038118538924797 1497.0 0.0 1497.0 
30.000798617819164 262.0 50.0 4987.601043024772 2.772038585014266 1497.0 0.0 1497.0 
32.000798617819164 766.0 73.0 4987.926988265971 2.3411538168677315 1497.0 0.0 1497.0 
34.000798617819164 766.0 73.0 4987.8800521512385 2.2691912149236444 1497.0 0.0 1497.0 
36.00029741811947 896.0 82.0 4987.911342894394 3.0438858614179884 1497.0 0.0 1497.0 
38.000798617819164 1334.0 103.0 4988.2503259452415 3.689381630904047 1497.0 0.0 1497.0 
40.000798617819164 1334.0 103.0 4988.239895697523 4.716006508469076 1497.0 0.0 1497.0 
42.000798617819164 1334.0 103.0 4988.242503259453 4.725778886356948 1497.0 0.0 1497.0 
44.000798617819164 1334.0 103.0 4988.226857887875 6.069048755079818 1497.0 0.0 1497.0 
46.00029741811947 1334.0 103.0 4988.221642764016 6.9974123135018855 1497.0 0.0 1497.0 
48.000798617819164 1335.0 103.0 4988.221642764016 8.288635603167798 1497.0 0.0 1497.0 
50.000798617819164 1336.0 103.0 4988.221642764016 8.699535112725423 1497.0 0.0 1497.0 
52.000798617819164 1336.0 103.0 4988.226857887875 9.36954978555719 1497.0 0.0 1497.0 
54.000798617819164 1336.0 103.0 4988.226857887875 10.46303800873213 1497.0 0.0 1497.0 
56.00029741811947 1336.0 103.0 4988.221642764016 11.619677575127794 1497.0 0.0 1497.0 
58.000798617819164 1336.0 103.0 4988.221642764016 12.128349661848661 1497.0 0.0 1497.0 
60.000798617819164 1336.0 103.0 4988.221642764016 12.80504820221634 1497.0 0.0 1497.0 
62.000418815792834 1340.0 104.0 511.1316818774444 7.2410548959482535 78.0 1.0 36.0 
64.00041881579283 1340.0 104.0 511.0873533246416 7.950095548265477 71.0 1.0 36.0 
66.00029741811947 1220.0 95.0 511.06649282920483 8.308513405959875 68.0 1.0 36.0 
68.00041881579284 801.0 77.0 511.02216427640167 2.40072555382556 55.0 1.0 36.0 
70.00041881579284 1344.0 104.0 510.98826597131693 2.50361198948472 67.0 1.0 36.0 
72.00041881579284 1362.0 105.0 511.0299869621904 2.873871500323527 67.0 1.0 36.0 
74.00041881579284 1373.0 105.0 511.02477183833145 3.3663214956303835 68.0 1.0 36.0 
76.00029741811947 1373.0 105.0 511.02477183833145 3.813210713268149 68.0 1.0 36.0 
78.00041881579284 1373.0 105.0 511.02477183833145 4.479757893239457 68.0 1.0 36.0 
80.00041881579284 1380.0 106.0 511.02477183833145 4.990692660328014 68.0 1.0 36.0 
82.00041881579284 1380.0 106.0 511.02477183833145 5.2728695995904555 65.0 1.0 36.0 
84.00041881579284 1382.0 106.0 511.02477183833145 5.790449647654894 65.0 1.0 36.0 
86.00029741811947 1383.0 106.0 511.02477183833145 6.389606424193049 65.0 1.0 36.0 
88.00041881579284 1383.0 106.0 511.02477183833145 6.9959888328999105 65.0 1.0 36.0 
90.00041881579284 1375.0 106.0 511.040417209909 7.213404541553129 63.0 3.0 34.0 
92.00041881579284 1400.0 106.0 511.06649282920483 3.770767418517206 65.0 1.0 36.0 
94.00041881579284 1400.0 106.0 511.0612777053456 4.364569511551637 65.0 1.0 36.0 
96.00029741811947 1400.0 106.0 511.0612777053456 5.120772817842134 65.0 1.0 36.0 
98.00041881579284 1427.0 107.0 511.0612777053456 5.718026507395382 65.0 1.0 36.0 
100.00041881579284 1158.0 95.0 511.0951760104302 2.9098983281306476 57.0 1.0 36.0 
102.00041881579284 1361.0 104.0 511.0534550195565 3.0662600207150907 63.0 1.0 36.0 
104.00041881579284 1424.0 107.0 511.0743155149932 3.690756251492352 65.0 1.0 36.0 
106.00029741811947 1424.0 107.0 511.0638852672751 4.285732956645213 65.0 1.0 36.0 
108.00041881579284 1424.0 107.0 511.0638852672751 4.821612821954374 65.0 1.0 36.0 
110.00041881579284 1413.0 106.0 511.0638852672751 5.055731699006585 65.0 1.0 36.0 
112.00041881579284 1412.0 106.0 511.0638852672751 5.202758433205205 65.0 1.0 36.0 
114.00041881579284 1413.0 106.0 511.06910039113427 5.847963256156955 65.0 1.0 36.0 
116.00029741811947 1415.0 106.0 511.0638852672751 6.233626779508832 65.0 1.0 36.0 
118.00041881579284 1410.0 106.0 511.0638852672751 6.351755354881018 65.0 1.0 36.0 
120.00041881579284 1372.0 105.0 511.06910039113427 6.8540777773845285 65.0 0.0 37.0 
122.00041881579284 1261.0 100.0 511.0299869621904 3.2682797921590816 66.0 1.0 36.0 
124.00041881579284 1426.0 106.0 514.0834419817469 3.578245777865122 65.0 2.0 36.0 
126.00029741811947 1426.0 106.0 514.0756192959585 4.2373090144863195 65.0 2.0 36.0 
128.00041881579284 1427.0 106.0 514.0704041720993 4.916500126090532 65.0 2.0 36.0 
130.00041881579284 1427.0 106.0 514.0704041720993 5.332966294310895 65.0 2.0 36.0 
132.00041881579284 1226.0 97.0 514.0078226857887 3.483586126242691 61.0 2.0 36.0 
134.00041881579284 1336.0 102.0 514.0704041720993 2.865288482191352 62.0 2.0 36.0 
136.0002974181195 1427.0 106.0 514.0730117340288 3.2877115931376135 65.0 2.0 36.0 
138.00041881579284 1429.0 107.0 514.0677966101692 3.928773808794847 65.0 2.0 36.0 
140.00041881579284 1429.0 107.0 514.0677966101692 4.476097435260869 65.0 2.0 36.0 
142.00041881579284 1429.0 107.0 514.0677966101692 4.673707991404308 65.0 2.0 36.0 
144.00041881579284 1429.0 107.0 514.0677966101692 5.383167955529789 65.0 2.0 36.0 
146.0002974181195 1427.0 106.0 514.0730117340288 5.775311018251755 65.0 2.0 36.0 
148.00041881579284 1427.0 106.0 514.0677966101692 6.174471015694897 65.0 2.0 36.0 
150.00041881579284 1427.0 106.0 514.0677966101692 6.7971768827858465 65.0 2.0 36.0 
152.00041881579284 1187.0 96.0 514.0938722294658 5.587687849444225 65.0 1.0 37.0 
154.00041881579284 1192.0 99.0 513.9765319426339 3.3178506781444743 65.0 0.0 38.0 
156.0002974181195 1406.0 106.0 514.0365058670145 3.537483563037461 67.0 0.0 38.0 
158.00041881579284 1430.0 107.0 514.0208604954366 4.12792178890294 67.0 0.0 38.0 
160.00041881579284 1430.0 107.0 514.0208604954366 4.582742232814603 67.0 0.0 38.0 
162.00041881579284 1428.0 107.0 514.0208604954366 4.937974408744595 67.0 0.0 38.0 
164.00041881579284 1254.0 99.0 514.0052151238589 3.856102371647088 64.0 0.0 38.0 
166.0002974181195 1325.0 103.0 514.0443285528028 2.5583279090423368 63.0 0.0 38.0 
168.00041881579284 1385.0 105.0 514.0234680573661 3.163175117532546 65.0 0.0 38.0 
170.00041881579284 1430.0 107.0 514.0182529335073 3.6943616535112214 65.0 0.0 38.0 
172.00041881579284 1430.0 107.0 514.0182529335073 3.8182669188514566 65.0 0.0 38.0 
174.00041881579284 1430.0 107.0 514.0234680573661 4.464786861811128 64.0 0.0 38.0 
176.0002974181195 1430.0 107.0 514.0234680573661 5.117773138516814 64.0 0.0 38.0 
178.00041881579284 1430.0 107.0 514.0182529335073 5.55495254163716 64.0 0.0 38.0 
180.00041881579284 1430.0 107.0 514.0182529335073 6.117302097692069 64.0 0.0 38.0 
182.00041881579284 1430.0 107.0 514.0182529335073 6.459369475588231 64.0 0.0 38.0 
184.00041881579284 1252.0 99.0 514.0730117340288 5.978361392870517 63.0 0.0 38.0 
186.0002974181195 1065.0 92.0 513.9661016949152 3.8352841928145525 61.0 0.0 38.0 
188.00041881579284 1399.0 106.0 514.0704041720993 3.5561427746397256 64.0 0.0 38.0 
190.00041881579284 1423.0 107.0 514.0704041720993 3.9832761547236553 64.0 0.0 38.0 
192.00041881579284 1428.0 107.0 514.0704041720993 4.430363172297466 64.0 0.0 38.0 
194.00041881579284 1428.0 108.0 514.0704041720993 4.980761487216857 64.0 0.0 38.0 
196.0002974181195 1268.0 100.0 514.0495436766627 3.930083926785882 61.0 0.0 38.0 
198.00041881579284 1326.0 104.0 514.0573663624513 3.3400286429603145 62.0 0.0 38.0 
200.00041881579284 1359.0 105.0 514.0286831812253 3.3283550182833603 62.0 0.0 38.0 
202.00041881579284 1427.0 108.0 514.0052151238589 3.4201752903139893 64.0 0.0 38.0 
204.00041881579284 1427.0 108.0 514.0156453715778 4.031405585434686 64.0 0.0 38.0 
206.0002974181195 1427.0 108.0 514.0208604954366 4.663687625916072 64.0 0.0 38.0 
208.00041881579284 1427.0 108.0 514.0156453715778 5.175658466463214 64.0 0.0 38.0 
210.00041881579284 1427.0 108.0 514.0156453715778 5.800167149862299 64.0 0.0 38.0 
212.00041881579284 1426.0 108.0 514.0156453715778 6.111560281723255 64.0 0.0 38.0 
214.00041881579284 1425.0 107.0 514.0156453715778 6.196289282796678 64.0 0.0 38.0 
216.0002974181195 1385.0 106.0 514.0208604954366 6.738615229851048 64.0 0.0 38.0 
218.00041881579284 1039.0 91.0 514.0599739243808 3.89724233457103 62.0 0.0 38.0 
220.00041881579284 1211.0 98.0 513.9269882659712 3.3676109125372666 63.0 0.0 38.0 
222.00041881579284 1402.0 106.0 513.986962190352 3.5555959689378054 64.0 0.0 38.0 
224.00041881579284 1431.0 108.0 516.9569752281616 4.155409331691052 65.0 0.0 39.0 
226.0002974181195 1429.0 108.0 516.962190352021 4.598932549659082 65.0 0.0 39.0 
228.00041881579284 1313.0 102.0 516.962190352021 4.18754361259764 62.0 0.0 39.0 
230.00041881579284 1281.0 102.0 516.998696219035 3.6389712914636867 64.0 0.0 39.0 
232.00041881579284 1348.0 105.0 517.0221642764017 2.6198191612993558 63.0 0.0 39.0 
234.00041881579284 1395.0 107.0 517.027379400261 3.182335234365363 65.0 0.0 39.0 
236.0002974181195 1434.0 109.0 517.0117340286831 3.7174117836668263 65.0 0.0 39.0 
238.00041881579284 1437.0 109.0 517.0065189048241 4.156014899152291 65.0 0.0 39.0 
240.00041881579284 1437.0 109.0 517.0065189048241 4.806703009775954 65.0 0.0 39.0 
242.00041881579284 1446.0 110.0 517.0065189048241 5.112302484430403 65.0 0.0 39.0 
244.00041881579284 1446.0 110.0 517.0065189048241 5.5248792918877925 65.0 0.0 39.0 
246.0002974181195 1446.0 110.0 517.0117340286831 6.172296670538924 65.0 0.0 39.0 
248.00041881579284 1434.0 110.0 517.0065189048241 6.82214673559746 65.0 0.0 39.0 
250.00041881579284 1247.0 102.0 517.027379400261 6.223996740599938 64.0 0.0 39.0 
252.00041881579284 1128.0 97.0 516.9778357235983 4.025541857849181 64.0 0.0 39.0 
254.00041881579284 1401.0 108.0 517.0221642764017 3.5799114282851625 66.0 0.0 39.0 
256.0002974181195 1448.0 110.0 517.0117340286831 4.103453481135892 68.0 0.0 39.0 
258.0004188157928 1452.0 110.0 517.001303780965 4.779818979438684 68.0 0.0 39.0 
260.0004188157928 1408.0 107.0 516.9934810951759 5.090492835165502 65.0 0.0 39.0 
262.0004188157928 1303.0 103.0 520.0052151238589 3.914873167179065 67.0 0.0 40.0 
264.0004188157928 1381.0 107.0 519.9947848761411 3.5139815267075694 66.0 0.0 40.0 
266.0002974181195 1394.0 107.0 519.9895697522819 3.685985536112358 67.0 0.0 40.0 
268.0004188157928 1459.0 111.0 519.9843546284222 4.1009225354362995 68.0 0.0 40.0 
270.0004188157928 1462.0 111.0 519.9843546284222 4.806451248752917 68.0 0.0 40.0 
272.0004188157928 1460.0 111.0 519.9947848761411 5.426060726363462 68.0 0.0 40.0 
274.0004188157928 1460.0 111.0 519.9843546284222 5.598120998597892 68.0 0.0 40.0 
276.0002974181195 1456.0 110.0 519.9895697522819 5.789519225932778 68.0 0.0 40.0 
278.0004188157928 1457.0 110.0 519.9843546284222 6.457791272481409 68.0 0.0 40.0 
280.0004188157928 1449.0 110.0 519.9843546284222 6.968401664269116 68.0 0.0 40.0 
282.0004188157928 1378.0 107.0 519.9921773142113 7.00400409548477 68.0 0.0 40.0 
284.0004188157928 1130.0 96.0 520.0704041720993 4.356989534043243 66.0 1.0 39.0 
286.0002974181195 1229.0 99.0 520.0469361147326 3.5776303159948135 65.0 2.0 38.0 
288.0004188157928 1420.0 108.0 520.0156453715778 4.0615767100583655 61.0 7.0 33.0 
290.0004188157928 1448.0 109.0 520.0 4.667648632208115 61.0 7.0 33.0 
292.0004188157928 1419.0 107.0 520.0052151238589 4.876676641750243 58.0 7.0 33.0 
294.0004188157928 1327.0 103.0 519.9791395045634 4.077536771225301 60.0 7.0 33.0 
296.0002974181195 1306.0 104.0 519.9556714471971 3.7903459506341157 60.0 7.0 33.0 
298.0004188157928 1365.0 105.0 520.0104302477181 3.1339449183711605 59.0 7.0 33.0 
300.0004188157928 1415.0 108.0 520.0156453715778 3.687669440843262 61.0 7.0 33.0 
302.0004188157928 1442.0 109.0 517.0221642764018 4.336126914212035 61.0 7.0 32.0 
304.0004188157928 1430.0 108.0 517.0169491525422 4.516588226605197 61.0 7.0 32.0 
306.0002974181195 1431.0 108.0 517.0169491525422 5.077457360820006 61.0 7.0 32.0 
308.0004188157928 1431.0 108.0 517.0169491525422 5.723740474113208 61.0 7.0 32.0 
310.0004188157928 1431.0 108.0 517.0169491525422 6.242870672800625 61.0 7.0 32.0 
312.0004188157928 1418.0 108.0 517.0169491525422 6.783448468897628 61.0 7.0 32.0 
314.0004188157928 1376.0 107.0 517.0195567144716 6.838743038012698 62.0 6.0 33.0 
316.0002974181195 1299.0 105.0 517.0534550195565 5.860378070437614 61.0 6.0 33.0 
318.0004188157928 1290.0 103.0 517.0378096479789 4.171066522520232 62.0 4.0 35.0 
320.0004188157928 1405.0 108.0 517.0378096479789 4.414257907540488 63.0 4.0 35.0 
322.0004188157928 1437.0 110.0 517.0378096479789 4.818091792575469 64.0 4.0 35.0 
324.0004188157928 1408.0 108.0 517.0221642764018 5.104168327077457 61.0 4.0 35.0 
326.0002974181195 1401.0 107.0 517.0325945241198 4.794144416866244 63.0 4.0 35.0 
328.0004188157928 1292.0 103.0 517.0143415906125 3.9812057867885544 64.0 4.0 35.0 
330.0004188157928 1359.0 106.0 520.0078226857886 3.5352899837563334 62.0 4.0 36.0 
332.0004188157928 1374.0 106.0 520.0625814863101 3.7710207156657916 63.0 4.0 36.0 
334.0004188157928 1434.0 108.0 520.0677966101692 3.6919233379376823 64.0 4.0 36.0 
336.0002974181195 1434.0 108.0 520.0677966101692 4.255555517309499 64.0 4.0 36.0 
338.0004188157928 1434.0 108.0 520.0756192959584 4.640770384886955 64.0 4.0 36.0 
340.0004188157928 1434.0 108.0 520.0599739243808 5.146532859139851 63.0 4.0 36.0 
342.0004188157928 1435.0 108.0 520.0625814863101 5.829951208720057 63.0 4.0 36.0 
344.0004188157928 1424.0 108.0 520.0677966101692 6.199160710357296 62.0 4.0 36.0 
346.0002974181195 1393.0 106.0 523.0795306388524 5.865424923575621 62.0 4.0 37.0 
348.0004188157928 1307.0 103.0 523.0717079530638 4.713889473234116 63.0 3.0 38.0 
350.0004188157928 1440.0 109.0 523.0873533246415 3.7998818343891236 63.0 3.0 38.0 
352.0004188157928 1439.0 109.0 523.076923076923 4.206396153452479 62.0 4.0 37.0 
354.0004188157928 1438.0 109.0 517.050847457627 4.438974829776211 63.0 4.0 35.0 
356.0002974181195 1409.0 107.0 517.050847457627 4.700176269483454 60.0 4.0 35.0 
358.0004188157928 1430.0 108.0 517.040417209909 4.923153586517877 62.0 4.0 35.0 
360.0004188157928 1354.0 105.0 517.0482398956976 4.483518643385763 63.0 4.0 35.0 
362.0004188157928 1362.0 106.0 517.0117340286831 4.1105612987544635 62.0 4.0 35.0 
364.0004188157928 1394.0 107.0 516.972620599739 3.5510157707336725 61.0 4.0 35.0 
366.0002974181195 1440.0 109.0 516.972620599739 4.038650190968571 64.0 4.0 35.0 
368.0004188157928 1467.0 110.0 517.0039113428946 4.707570492020023 64.0 4.0 35.0 
370.0004188157928 1465.0 110.0 517.0039113428946 4.843333473426683 64.0 4.0 35.0 
372.0004188157928 1465.0 110.0 517.0039113428946 5.492514334116029 64.0 4.0 35.0 
374.0004188157928 1452.0 109.0 517.0091264667536 5.949082039014988 64.0 4.0 35.0 
376.0002974181195 1443.0 109.0 517.0091264667536 6.186462312315402 65.0 3.0 36.0 
378.0004188157928 1406.0 107.0 517.0039113428946 5.570431950179592 66.0 1.0 38.0 
380.0004188157928 1348.0 104.0 517.0169491525422 3.478842412315336 57.0 11.0 28.0 
382.0004188157928 1455.0 108.0 516.9960886571054 3.7672821531215694 56.0 12.0 27.0 
384.0004188157928 1480.0 109.0 517.001303780965 4.147145087391302 57.0 11.0 28.0 
386.0002974181195 1480.0 109.0 520.0 4.655214090415076 56.0 12.0 28.0 
388.0004188157928 1470.0 108.0 519.9895697522819 5.1206803300602175 53.0 12.0 28.0 
390.0004188157928 1464.0 108.0 519.9739243807041 5.488933723640214 55.0 12.0 28.0 
392.0004188157928 1434.0 107.0 519.9817470664927 5.737731947250921 57.0 11.0 29.0 
394.0004188157928 1404.0 105.0 519.9765319426339 4.718661785942894 57.0 11.0 29.0 
396.0002974181195 1431.0 106.0 520.0026075619294 4.484846616668266 55.0 11.0 29.0 
398.0004188157928 1422.0 106.0 519.9791395045634 4.690038736816278 57.0 11.0 29.0 
400.0004188157928 1469.0 107.0 522.9934810951759 4.930456245531812 56.0 11.0 30.0 
402.0004188157928 1466.0 107.0 522.9986962190351 5.422805537141747 56.0 11.0 30.0 
404.0004188157928 1466.0 107.0 522.9986962190351 5.817348173171541 56.0 11.0 30.0 
406.0002974181195 1441.0 106.0 520.0104302477182 6.129910933845548 56.0 11.0 29.0 
408.0004188157928 1398.0 104.0 520.0 6.441460986226418 56.0 11.0 29.0 
410.0004188157928 1269.0 99.0 520.0182529335073 5.320498859377107 60.0 6.0 34.0 
412.0004188157928 1307.0 102.0 517.0273794002609 4.029233844631761 53.0 12.0 27.0 
414.0004188157928 1435.0 106.0 517.0039113428944 3.7378126237760054 59.0 8.0 31.0 
416.0002974181195 1440.0 106.0 517.0039113428944 4.0484236025543785 59.0 8.0 31.0 
418.0004188157928 1461.0 108.0 516.9934810951759 4.572318243609068 59.0 8.0 31.0 
420.0004188157928 1453.0 106.0 523.0065189048241 4.569640814595068 56.0 8.0 33.0 
422.0004188157928 1447.0 106.0 523.0091264667536 4.989573542820448 58.0 8.0 33.0 
424.0004188157928 1417.0 105.0 522.9986962190351 4.919701620083956 59.0 8.0 33.0 
426.0002974181195 1387.0 104.0 523.0091264667536 4.486968110551721 59.0 8.0 33.0 
428.0004188157928 1441.0 106.0 523.0091264667537 4.671536382205137 57.0 8.0 33.0 
430.0004188157928 1401.0 104.0 523.0117340286831 4.40570252621082 59.0 8.0 33.0 
432.0004188157928 1430.0 105.0 522.9752281616685 4.935704240158362 59.0 8.0 33.0 
434.0004188157928 1465.0 107.0 525.9947848761411 5.3610264435102035 59.0 8.0 34.0 
436.0002974181195 1464.0 107.0 525.9895697522819 5.743009151324644 59.0 8.0 34.0 
438.0004188157928 1437.0 105.0 525.9895697522819 6.036340933262586 59.0 8.0 34.0 
440.0004188157928 1381.0 103.0 525.9791395045634 6.360229805683639 60.0 7.0 35.0 
442.0004188157928 1244.0 98.0 526.0026075619294 5.812335818799622 60.0 7.0 35.0 
444.0004188157928 1195.0 96.0 525.9739243807041 4.210029202569195 67.0 1.0 41.0 
446.0002974181195 1409.0 105.0 526.0208604954366 3.7513250598129853 68.0 0.0 42.0 
448.0004188157928 1411.0 105.0 526.0208604954366 4.2211168524030676 68.0 0.0 42.0 
450.0004188157928 1395.0 105.0 526.0417209908734 4.598823686810454 67.0 1.0 41.0 
452.0004188157928 1371.0 103.0 526.0417209908734 4.753104500532095 64.0 1.0 41.0 
454.0004188157928 1410.0 105.0 526.0286831812253 4.827499971450838 66.0 1.0 41.0 
456.0002974181195 1388.0 104.0 526.0234680573661 4.99453362915799 67.0 1.0 41.0 
458.0004188157928 1319.0 101.0 526.0182529335073 4.7566287977628825 67.0 1.0 41.0 
460.0004188157928 1319.0 101.0 526.0391134289439 4.698127889743739 67.0 1.0 41.0 
462.0004188157928 1385.0 105.0 526.0391134289439 4.622620205245031 67.0 1.0 41.0 
464.0004188157928 1377.0 104.0 526.0495436766627 4.640411084252723 67.0 1.0 41.0 
466.0002974181195 1405.0 105.0 529.0691003911343 4.866743808467768 67.0 1.0 42.0 
468.0004188157928 1425.0 106.0 532.0625814863101 5.536014680387053 67.0 1.0 43.0 
470.0004188157928 1416.0 106.0 532.0573663624513 6.1472985057188785 67.0 1.0 43.0 
472.0004188157928 1387.0 104.0 532.0573663624513 6.775945663274509 68.0 0.0 44.0 
474.0004188157928 1300.0 101.0 532.0573663624513 6.720470676872617 67.0 0.0 44.0 
476.0002974181195 1130.0 94.0 532.1043024771835 4.699694871154269 66.0 1.0 43.0 
478.0004188157928 1270.0 99.0 532.0260756192959 4.599267513109001 63.0 5.0 39.0 
480.0004188157928 1382.0 104.0 529.0586701434158 5.016904824819625 61.0 6.0 37.0 
482.0004188157928 1380.0 104.0 529.0534550195567 5.275153101108183 61.0 6.0 37.0 
484.0004188157928 1348.0 102.0 529.0873533246415 5.125839419790887 59.0 7.0 36.0 
486.0002974181195 1381.0 104.0 529.050847457627 5.427708897515858 58.0 7.0 36.0 
488.0004188157928 1383.0 103.0 529.0586701434158 5.540575198279406 59.0 7.0 36.0 
490.0004188157928 1347.0 102.0 526.0521512385919 5.842142628665279 59.0 7.0 35.0 
492.0004188157928 1279.0 99.0 526.044328552803 5.34087775737506 59.0 7.0 35.0 
494.0004188157928 1336.0 102.0 526.0391134289438 5.011596476324635 59.0 7.0 35.0 
496.0002974181195 1320.0 101.0 526.0312907431555 4.609720623417504 59.0 7.0 35.0 
498.0004188157928 1327.0 100.0 526.0365058670146 4.626026540182887 59.0 7.0 35.0 
500.0004188157928 1386.0 103.0 526.0365058670146 5.069842621101256 59.0 7.0 35.0 
502.0004188157928 1386.0 103.0 517.0352020860495 5.71244509324136 59.0 7.0 32.0 
504.0004188157928 1362.0 102.0 517.0352020860495 6.2052950957538435 60.0 6.0 33.0 
506.0002974181195 1315.0 100.0 517.0430247718383 6.214367848724674 60.0 6.0 33.0 
508.0004188157928 1290.0 99.0 517.0299869621906 4.988517811085833 61.0 4.0 35.0 
510.0004188157928 1307.0 100.0 517.0378096479789 4.139279945600182 57.0 8.0 31.0 
512.0004188157928 1363.0 102.0 517.0221642764018 4.419926650392031 58.0 7.0 32.0 
514.0004188157928 1377.0 105.0 517.0247718383313 4.460537537068252 58.0 7.0 32.0 
516.0002974181195 1376.0 104.0 517.0299869621906 4.411193982863973 59.0 6.0 33.0 
518.0004188157928 1390.0 105.0 517.0065189048239 4.734100598029808 59.0 6.0 33.0 
520.0004188157928 1390.0 105.0 517.0013037809648 5.259212487306555 59.0 6.0 33.0 
522.0004188157928 1367.0 104.0 517.0013037809648 5.558663623759964 59.0 6.0 33.0 
524.0004188157928 1303.0 102.0 517.0039113428946 4.914235229939286 59.0 6.0 33.0 
526.0002974181195 1371.0 105.0 517.0065189048239 4.424609756288826 58.0 6.0 33.0 
528.0004188157928 1358.0 105.0 516.9856584093875 4.457845393861258 58.0 6.0 33.0 
530.0004188157928 1385.0 106.0 517.0065189048239 4.196874097178998 58.0 6.0 33.0 
532.0004188157928 1394.0 106.0 517.0117340286833 4.685616336078729 58.0 6.0 33.0 
534.0004188157928 1394.0 106.0 517.0117340286833 5.304205720987037 58.0 6.0 33.0 
536.0002974181195 1383.0 106.0 517.0169491525425 5.48088518351219 56.0 7.0 32.0 
538.0004188157928 1303.0 103.0 517.0299869621906 4.910152850269066 56.0 6.0 33.0 
540.0004188157928 1282.0 101.0 517.0534550195567 3.844034351187747 57.0 6.0 33.0 
542.0004188157928 1394.0 106.0 516.9960886571054 3.3872219107327166 57.0 6.0 33.0 
544.0004188157928 1393.0 106.0 516.9960886571054 3.7231344041957866 57.0 6.0 33.0 
546.0002974181195 1394.0 106.0 517.0013037809648 4.242421356126522 57.0 6.0 33.0 
548.0004188157928 1384.0 106.0 516.9986962190352 4.47447885399715 57.0 6.0 33.0 
550.0004188157928 1394.0 106.0 516.9934810951761 4.932987352374379 57.0 6.0 33.0 
552.0004188157928 1378.0 105.0 516.9934810951761 5.564305204687715 57.0 6.0 33.0 
554.0004188157928 1374.0 105.0 516.9934810951761 5.799820278141279 57.0 6.0 33.0 
556.0002974181195 1300.0 101.0 516.9882659713167 5.209343181991496 57.0 6.0 33.0 
558.0004188157928 1363.0 104.0 516.9830508474575 4.803142237089071 57.0 6.0 33.0 
560.0004188157928 1344.0 103.0 516.9804432855284 4.304719751866396 57.0 6.0 33.0 
562.0004188157928 1394.0 106.0 516.9647979139505 4.696599013633374 57.0 6.0 33.0 
564.0004188157928 1404.0 107.0 516.9647979139505 5.250531850859355 58.0 6.0 33.0 
566.0002974181195 1391.0 106.0 516.9700130378094 5.802046913074366 58.0 6.0 33.0 
568.0004188157928 1361.0 105.0 516.9752281616687 5.898683415864143 57.0 7.0 32.0 
570.0004188157928 1371.0 106.0 517.0247718383313 5.026491257537373 60.0 4.0 35.0 
572.0004188157928 1315.0 102.0 516.9908735332463 3.144908256518991 57.0 6.0 33.0 
574.0004188157928 1379.0 105.0 516.959582790091 3.4173507782345367 57.0 6.0 33.0 
576.0002974181195 1379.0 105.0 516.972620599739 4.1059091077740515 58.0 5.0 34.0 
578.0004188157928 1372.0 104.0 513.9504563233373 4.629988344177096 58.0 5.0 33.0 
580.0004188157928 1380.0 105.0 513.9504563233373 4.7495070178605765 58.0 5.0 33.0 
582.0004188157928 1380.0 105.0 513.9556714471969 5.3237174497873285 58.0 5.0 33.0 
584.0004188157928 1369.0 105.0 513.9556714471969 5.748517432406081 58.0 5.0 33.0 
586.0002974181195 1364.0 105.0 513.9608865710563 5.884685233528722 58.0 5.0 33.0 
588.0004188157928 1370.0 105.0 513.9504563233373 5.139516125942091 58.0 5.0 33.0 
590.0004188157928 1346.0 104.0 513.9608865710563 4.897548594211613 58.0 5.0 33.0 
592.0004188157928 1382.0 105.0 513.9556714471969 4.49962173412166 58.0 5.0 33.0 
594.0004188157928 1386.0 105.0 516.9465449804432 5.180688367919591 58.0 5.0 34.0 
596.0002974181195 1385.0 105.0 516.9569752281618 5.746110128724544 57.0 5.0 34.0 
598.0004188157928 1374.0 105.0 516.9517601043027 6.142063715075044 57.0 5.0 34.0 
600.0004188157928 1302.0 102.0 516.9569752281618 5.876683083517243 56.0 5.0 34.0 
602.0004188157928 1266.0 100.0 517.0143415906125 4.149192814285036 57.0 5.0 34.0 
604.0004188157928 1369.0 105.0 516.9543676662319 3.479684921457775 58.0 5.0 34.0 
606.0002974181195 1367.0 105.0 516.9647979139504 3.9012212361550485 58.0 5.0 34.0 
608.0004188157928 1367.0 105.0 516.9647979139504 4.530577716853022 58.0 5.0 34.0 
610.0004188157928 1356.0 105.0 516.959582790091 4.715690443994841 58.0 5.0 34.0 
612.0004188157928 1367.0 104.0 516.959582790091 5.00327358691168 58.0 5.0 34.0 
614.0004188157928 1354.0 103.0 516.959582790091 5.434182908733817 58.0 5.0 34.0 
616.0002974181195 1350.0 103.0 516.959582790091 5.53946144057169 58.0 5.0 34.0 
618.0004188157928 1273.0 99.0 516.9804432855285 5.090160626686531 58.0 5.0 34.0 
620.0004188157928 1341.0 102.0 516.9700130378093 4.819306152442711 58.0 5.0 34.0 
622.0004188157928 1313.0 101.0 516.9543676662319 4.356226321775818 56.0 6.0 33.0 
624.0004188157928 1347.0 103.0 513.9634941329855 4.494921541611415 55.0 6.0 32.0 
626.0002974181195 1366.0 104.0 513.9687092568446 4.8983339193277 55.0 6.0 32.0 
628.0004188157928 1368.0 105.0 513.9687092568446 5.077043236016051 55.0 6.0 32.0 
630.0004188157928 1368.0 105.0 513.979139504563 4.893768884485196 55.0 6.0 32.0 
632.0004188157928 1368.0 105.0 513.9739243807039 4.48900795026743 55.0 6.0 32.0 
634.0004188157928 1368.0 106.0 513.9608865710563 3.2140354893315246 54.0 7.0 31.0 
636.0002974181195 1369.0 106.0 513.9556714471969 3.6329483654318384 54.0 7.0 31.0 
638.0004188157928 1369.0 106.0 513.9556714471969 4.120658143776008 54.0 7.0 31.0 
640.0004188157928 1361.0 105.0 513.9530638852675 4.5658660764265875 54.0 7.0 31.0 
642.0004188157928 1365.0 106.0 513.9661016949153 4.944706359767124 54.0 7.0 31.0 
644.0004188157928 1365.0 106.0 513.9608865710563 5.501977056820782 54.0 7.0 31.0 
646.0002974181195 1368.0 107.0 513.9608865710563 5.706540876019221 55.0 6.0 32.0 
648.0004188157928 1373.0 107.0 513.9608865710563 5.827877251015374 55.0 6.0 32.0 
650.0004188157928 1377.0 107.0 510.98044328552845 4.950596762581147 55.0 6.0 31.0 
652.0004188157928 1365.0 107.0 510.98044328552845 4.705615028095439 55.0 6.0 31.0 
654.0004188157928 1370.0 107.0 516.993481095176 4.591313787019558 56.0 6.0 33.0 
656.0002974181195 1376.0 107.0 516.9960886571054 4.8705980087783765 56.0 6.0 33.0 
658.0004188157928 1376.0 107.0 516.9960886571054 5.290833561876258 56.0 6.0 33.0 
660.0004188157928 1370.0 107.0 517.006518904824 5.029727833387371 57.0 5.0 34.0 
662.0004188157928 1377.0 107.0 516.9960886571054 4.389887831275342 57.0 5.0 34.0 
664.0004188157928 1378.0 107.0 517.0143415906125 3.297639017206839 57.0 5.0 34.0 
#####################################################################
# End of data export. Simulation finished at: 2019-03-07T14:51+0000 #
#####################################################################
