#####################################################################
# Alchemist log file - simulation started at: 2019-03-10T17:42+0000 #
#####################################################################
# seed = 4.0, bandwidth = 17782.79410038923, accessPointCount = 37.60603093086394, baserange = 100.0
#
# The columns have the following meaning: 
# time neighbor_count[Sum] <value>@neighbor_count[Sum] packet_size[Mean] mean_delay[Mean] crowd[Sum] overcrowded[Sum] risk[Sum] 
0.0 NaN NaN NaN NaN NaN NaN NaN 
2.0004793365590676 24.0 8.0 4987.4732724902215 0.3776055916267347 1497.0 0.0 1497.0 
4.00042902272939 66.0 15.0 4987.700130378096 0.465863170752408 1497.0 0.0 1497.0 
6.000479336559067 108.0 24.0 4987.794002607562 1.0634493310308721 1497.0 0.0 1497.0 
8.000479336559067 129.0 24.0 4987.754889178618 1.0643298820051212 1497.0 0.0 1497.0 
10.000479336559067 160.0 24.0 4987.762711864407 1.084664109251028 1497.0 0.0 1497.0 
12.000479336559067 162.0 24.0 4987.7496740547585 1.2231467358913817 1497.0 0.0 1497.0 
14.00042902272939 166.0 24.0 4987.658409387223 1.06198676516162 1497.0 0.0 1497.0 
16.000479336559067 166.0 24.0 4987.736636245111 1.2165521088145206 1497.0 0.0 1497.0 
18.000479336559067 166.0 24.0 4987.679269882659 1.063066914923218 1496.0 1.0 1496.0 
20.000479336559067 166.0 24.0 4987.684485006519 1.217959438983502 1496.0 1.0 1496.0 
22.000479336559067 166.0 24.0 4987.674054758801 1.064590121486481 1496.0 1.0 1496.0 
24.000429022729392 166.0 24.0 4987.700130378096 1.207602241144665 1496.0 1.0 1496.0 
26.000479336559067 166.0 24.0 4987.658409387223 1.064899579621798 1496.0 1.0 1496.0 
28.000479336559067 166.0 24.0 4987.700130378096 1.2083820211155953 1496.0 1.0 1496.0 
30.000479336559067 166.0 24.0 4987.674054758801 1.0650836186009514 1496.0 1.0 1496.0 
32.00047933655907 166.0 24.0 4987.684485006519 1.208061656966699 1496.0 1.0 1496.0 
34.00042902272939 166.0 24.0 4987.674054758801 1.0652335762876686 1496.0 1.0 1496.0 
36.00047933655907 166.0 24.0 4987.700130378096 1.2082184309119033 1496.0 1.0 1496.0 
38.00047933655907 166.0 24.0 4987.658409387223 1.0649132121387719 1496.0 1.0 1496.0 
40.00047933655907 166.0 24.0 4987.700130378096 1.208382021115595 1496.0 1.0 1496.0 
42.00047933655907 166.0 24.0 4987.674054758801 1.0650836186009507 1496.0 1.0 1496.0 
44.00042902272939 166.0 24.0 4987.684485006519 1.2080616569666989 1496.0 1.0 1496.0 
46.00047933655907 166.0 24.0 4987.674054758801 1.0652199437706937 1496.0 1.0 1496.0 
48.00047933655907 166.0 24.0 4987.700130378096 1.2082320634288775 1496.0 1.0 1496.0 
50.00047933655907 166.0 24.0 4987.658409387223 1.0649132121387719 1496.0 1.0 1496.0 
52.00047933655907 166.0 24.0 4987.700130378096 1.208382021115595 1496.0 1.0 1496.0 
54.00042902272939 166.0 24.0 4987.674054758801 1.0650836186009507 1496.0 1.0 1496.0 
56.00047933655907 166.0 24.0 4987.684485006519 1.2080480244497243 1496.0 1.0 1496.0 
58.00047933655907 166.0 24.0 4987.674054758801 1.0652335762876681 1496.0 1.0 1496.0 
60.00047933655907 166.0 24.0 4984.70925684485 1.2082320634288775 1495.0 1.0 1495.0 
62.00047933655907 166.0 24.0 430.02607561929574 0.8623488768773343 23.0 0.0 10.0 
64.00042902272939 166.0 24.0 430.0104302477187 1.0949605137918539 16.0 0.0 10.0 
66.00047933655907 166.0 24.0 430.00521512385893 0.8698617569818761 13.0 0.0 10.0 
68.00047933655907 166.0 24.0 430.0104302477187 1.1053745137847502 13.0 0.0 10.0 
70.00047933655907 166.0 24.0 430.00521512385893 0.8690983360313154 13.0 0.0 10.0 
72.00047933655907 166.0 24.0 430.00521512385893 1.1049519057585468 13.0 0.0 10.0 
74.00042902272939 166.0 24.0 429.99739243807056 0.8692510202214276 13.0 0.0 10.0 
76.00047933655907 166.0 24.0 430.00260756192944 1.1050227948468132 13.0 0.0 10.0 
78.00047933655907 166.0 24.0 429.9713168187747 0.8691746781263713 13.0 0.0 10.0 
80.00047933655907 166.0 24.0 429.9713168187747 1.0944724696841728 13.0 0.0 10.0 
82.00047933655907 166.0 24.0 429.9895697522813 0.8703961516472694 13.0 0.0 10.0 
84.00042902272939 166.0 24.0 430.00521512385893 1.0953258652467646 13.0 0.0 10.0 
86.00047933655907 166.0 24.0 430.00521512385893 0.8709305463126624 13.0 0.0 10.0 
88.00047933655907 166.0 24.0 430.00521512385893 1.106252447877896 13.0 0.0 10.0 
90.00047933655907 166.0 24.0 429.99739243807056 0.8694037044115399 13.0 0.0 10.0 
92.00047933655907 166.0 24.0 430.00260756192944 1.1050936839350796 13.0 0.0 10.0 
94.00042902272939 166.0 24.0 429.9713168187747 0.8691746781263713 13.0 0.0 10.0 
96.00047933655907 166.0 24.0 429.9713168187747 1.0944724696841728 13.0 0.0 10.0 
98.00047933655907 166.0 24.0 429.9895697522813 0.8703961516472694 13.0 0.0 10.0 
100.00047933655907 166.0 24.0 430.00521512385893 1.0953258652467646 13.0 0.0 10.0 
102.00047933655907 166.0 24.0 430.00521512385893 0.8709305463126624 13.0 0.0 10.0 
104.00042902272939 166.0 24.0 430.00521512385893 1.106252447877896 13.0 0.0 10.0 
106.00047933655907 166.0 24.0 429.99739243807056 0.8694037044115399 13.0 0.0 10.0 
108.00047933655907 166.0 24.0 430.00260756192944 1.1050936839350796 13.0 0.0 10.0 
110.00047933655907 166.0 24.0 429.9713168187747 0.8691746781263713 13.0 0.0 10.0 
112.00047933655907 166.0 24.0 429.9713168187747 1.0944724696841728 13.0 0.0 10.0 
114.00042902272939 166.0 24.0 429.9895697522813 0.8703961516472694 13.0 0.0 10.0 
116.00047933655907 166.0 24.0 430.00521512385893 1.0953258652467646 13.0 0.0 10.0 
118.00047933655907 166.0 24.0 430.00521512385893 0.8709305463126624 13.0 0.0 10.0 
120.00047933655907 166.0 24.0 430.00521512385893 1.106252447877896 13.0 0.0 10.0 
122.00047933655907 166.0 24.0 429.99739243807056 0.8694037044115399 13.0 0.0 10.0 
124.00042902272939 166.0 24.0 430.00260756192944 1.1050936839350796 13.0 0.0 10.0 
126.00047933655907 166.0 24.0 429.9713168187747 0.8691746781263713 13.0 0.0 10.0 
128.00047933655907 166.0 24.0 429.9713168187747 1.0944724696841728 13.0 0.0 10.0 
130.00047933655907 166.0 24.0 429.9895697522813 0.8703961516472685 13.0 0.0 10.0 
132.00047933655907 166.0 24.0 430.00521512385893 1.0953258652467632 13.0 0.0 10.0 
134.0004290227294 166.0 24.0 430.00521512385893 0.8709305463126606 13.0 0.0 10.0 
136.00047933655907 166.0 24.0 430.00521512385893 1.1062524478778941 13.0 0.0 10.0 
138.00047933655907 166.0 24.0 429.99739243807056 0.8694037044115381 13.0 0.0 10.0 
140.00047933655907 166.0 24.0 430.00260756192944 1.1050936839350778 13.0 0.0 10.0 
142.00047933655907 166.0 24.0 429.9713168187747 0.8691746781263695 13.0 0.0 10.0 
144.0004290227294 166.0 24.0 429.9713168187747 1.0944724696841714 13.0 0.0 10.0 
146.00047933655907 166.0 24.0 429.9895697522813 0.8703961516472692 13.0 0.0 10.0 
148.00047933655907 166.0 24.0 430.00521512385893 1.0953258652467641 13.0 0.0 10.0 
150.00047933655907 166.0 24.0 430.00521512385893 0.8709305463126606 13.0 0.0 10.0 
152.00047933655907 166.0 24.0 430.00521512385893 1.1062524478778941 13.0 0.0 10.0 
154.0004290227294 166.0 24.0 429.99739243807056 0.8694037044115381 13.0 0.0 10.0 
156.00047933655907 166.0 24.0 430.00260756192944 1.1050936839350778 13.0 0.0 10.0 
158.00047933655907 166.0 24.0 429.9713168187747 0.8691746781263695 13.0 0.0 10.0 
160.00047933655907 166.0 24.0 429.9713168187747 1.0944724696841714 13.0 0.0 10.0 
162.00047933655907 166.0 24.0 429.9895697522813 0.8703961516472692 13.0 0.0 10.0 
164.0004290227294 166.0 24.0 430.00521512385893 1.0953258652467641 13.0 0.0 10.0 
166.00047933655907 166.0 24.0 430.00521512385893 0.8709305463126606 13.0 0.0 10.0 
168.00047933655907 166.0 24.0 430.00521512385893 1.1062524478778941 13.0 0.0 10.0 
170.00047933655907 166.0 24.0 429.99739243807056 0.8694037044115381 13.0 0.0 10.0 
172.00047933655907 166.0 24.0 430.00260756192944 1.1050936839350778 13.0 0.0 10.0 
174.0004290227294 166.0 24.0 429.9713168187747 0.8691746781263695 13.0 0.0 10.0 
176.00047933655907 166.0 24.0 429.9713168187747 1.0944724696841714 13.0 0.0 10.0 
178.00047933655907 166.0 24.0 429.9895697522813 0.8703961516472692 13.0 0.0 10.0 
180.00047933655907 166.0 24.0 430.00521512385893 1.0953258652467641 13.0 0.0 10.0 
182.00047933655907 166.0 24.0 430.00521512385893 0.8709305463126606 13.0 0.0 10.0 
184.0004290227294 166.0 24.0 430.00521512385893 1.1062524478778941 13.0 0.0 10.0 
186.00047933655907 166.0 24.0 429.99739243807056 0.8694037044115381 13.0 0.0 10.0 
188.00047933655907 166.0 24.0 430.00260756192944 1.1050936839350778 13.0 0.0 10.0 
190.00047933655907 166.0 24.0 429.9713168187747 0.8691746781263695 13.0 0.0 10.0 
192.00047933655907 166.0 24.0 429.9713168187747 1.0944724696841714 13.0 0.0 10.0 
194.0004290227294 166.0 24.0 429.9895697522813 0.8703961516472692 13.0 0.0 10.0 
196.00047933655907 166.0 24.0 430.00521512385893 1.0953258652467641 13.0 0.0 10.0 
198.00047933655907 166.0 24.0 430.00521512385893 0.8709305463126606 13.0 0.0 10.0 
200.00047933655907 166.0 24.0 430.00521512385893 1.1062524478778941 13.0 0.0 10.0 
202.00047933655907 166.0 24.0 429.99739243807056 0.8694037044115381 13.0 0.0 10.0 
204.0004290227294 178.0 25.0 430.00260756192944 1.0448389184467466 14.0 0.0 10.0 
206.00047933655907 192.0 26.0 432.97522816166855 0.8859213077118367 14.0 0.0 11.0 
208.00047933655907 194.0 27.0 432.97001303780957 1.3598389401048352 14.0 0.0 11.0 
210.00047933655907 194.0 27.0 432.9882659713169 0.7817899792612397 14.0 0.0 11.0 
212.00047933655907 194.0 27.0 432.9830508474578 1.3964752939465541 14.0 0.0 11.0 
214.0004290227294 194.0 27.0 433.0091264667536 0.696219734889756 14.0 0.0 11.0 
216.00047933655907 194.0 27.0 433.0039113428946 1.3109050495750705 14.0 0.0 11.0 
218.00047933655907 197.0 27.0 432.9960886571054 0.7085539945250473 14.0 0.0 11.0 
220.00047933655907 197.0 27.0 432.9908735332464 1.343247079218132 14.0 0.0 11.0 
222.00047933655907 198.0 27.0 432.97001303780957 0.7191479608546956 14.0 0.0 11.0 
224.0004290227294 198.0 27.0 432.9830508474578 1.3644362262238767 14.0 0.0 11.0 
226.00047933655907 198.0 27.0 432.98044328552845 0.9284909934357602 14.0 0.0 11.0 
228.00047933655907 201.0 27.0 432.97522816166855 1.453319141551359 15.0 0.0 11.0 
230.00047933655907 204.0 27.0 432.9960886571054 1.2123251633317438 15.0 0.0 11.0 
232.00047933655907 204.0 27.0 432.9960886571054 1.7715382817643206 15.0 0.0 11.0 
234.0004290227294 204.0 27.0 432.9882659713169 1.420375331018552 15.0 0.0 11.0 
236.00047933655907 204.0 27.0 432.9830508474578 1.979634590277812 15.0 0.0 11.0 
238.00047933655907 204.0 27.0 432.96219035202114 1.6523663319550492 15.0 0.0 11.0 
240.00047933655907 204.0 27.0 432.96219035202114 2.2074212981808277 15.0 0.0 11.0 
242.00047933655907 204.0 27.0 432.98044328552845 1.889914801794208 15.0 0.0 11.0 
244.0004290227294 183.0 26.0 432.97522816166855 1.89756349285837 15.0 0.0 11.0 
246.00047933655907 182.0 26.0 432.9960886571054 0.8643976635982245 15.0 0.0 11.0 
248.00047933655907 182.0 26.0 432.9960886571054 1.3707531759411336 15.0 0.0 11.0 
250.00047933655907 182.0 26.0 432.9882659713169 0.89147107330442 15.0 0.0 11.0 
252.00047933655907 182.0 26.0 432.9830508474578 1.426449428282775 15.0 0.0 11.0 
254.0004290227294 182.0 26.0 432.96219035202114 1.062674941903206 15.0 0.0 11.0 
256.00047933655907 181.0 26.0 432.96219035202114 1.5714495886835604 15.0 0.0 11.0 
258.00047933655907 180.0 26.0 432.98044328552845 1.1549411999281947 15.0 0.0 11.0 
260.00047933655907 180.0 26.0 432.97522816166855 1.7586834239251457 15.0 0.0 11.0 
262.00047933655907 180.0 26.0 432.9960886571054 1.3840410248575474 15.0 0.0 11.0 
264.0004290227294 180.0 26.0 432.9960886571054 1.9972363640402833 15.0 0.0 11.0 
266.00047933655907 180.0 26.0 432.9882659713169 1.611102749549191 15.0 0.0 11.0 
268.00047933655907 180.0 26.0 432.9830508474578 2.224349502795944 15.0 0.0 11.0 
270.00047933655907 180.0 26.0 432.96219035202114 1.8394477225386525 15.0 0.0 11.0 
272.00047933655907 180.0 26.0 432.96219035202114 2.443247787357622 15.0 0.0 11.0 
274.0004290227294 178.0 25.0 432.98044328552845 0.8020584637424858 15.0 0.0 11.0 
276.00047933655907 178.0 25.0 432.97522816166855 1.3211790043453118 15.0 0.0 11.0 
278.00047933655907 178.0 25.0 432.9960886571054 0.8026188841221027 15.0 0.0 11.0 
280.00047933655907 178.0 25.0 432.9960886571054 1.33176545598258 15.0 0.0 11.0 
282.00047933655907 178.0 25.0 432.9882659713169 0.8010176830374824 15.0 0.0 11.0 
284.0004290227294 178.0 25.0 429.99217731421146 1.330218784965857 14.0 0.0 10.0 
286.00047933655907 178.0 25.0 429.9713168187747 0.80077750287479 14.0 0.0 10.0 
288.00047933655907 178.0 25.0 429.9713168187747 1.3199593898040005 14.0 0.0 10.0 
290.00047933655907 178.0 25.0 429.9895697522813 0.8020584637424858 14.0 0.0 10.0 
292.00047933655907 178.0 25.0 429.9843546284222 1.3211790043453118 14.0 0.0 10.0 
294.0004290227294 178.0 25.0 430.00521512385893 0.8026188841221027 14.0 0.0 10.0 
296.00047933655907 178.0 25.0 430.00521512385893 1.33176545598258 14.0 0.0 10.0 
298.00047933655907 178.0 25.0 429.99739243807056 0.8010176830374824 14.0 0.0 10.0 
300.00047933655907 178.0 25.0 429.99217731421146 1.330218784965857 14.0 0.0 10.0 
302.00047933655907 178.0 25.0 429.9713168187747 0.80077750287479 14.0 0.0 10.0 
304.0004290227294 178.0 25.0 429.9713168187747 1.3199593898040005 14.0 0.0 10.0 
306.00047933655907 178.0 25.0 429.9895697522813 0.8020584637424858 14.0 0.0 10.0 
308.00047933655907 178.0 25.0 429.9843546284222 1.3211790043453118 14.0 0.0 10.0 
310.00047933655907 178.0 25.0 430.00521512385893 0.8026188841221027 14.0 0.0 10.0 
312.00047933655907 178.0 25.0 430.00521512385893 1.33176545598258 14.0 0.0 10.0 
314.0004290227294 178.0 25.0 429.99739243807056 0.8010176830374824 14.0 0.0 10.0 
316.00047933655907 178.0 25.0 429.99217731421146 1.330218784965857 14.0 0.0 10.0 
318.00047933655907 178.0 25.0 429.9713168187747 0.80077750287479 14.0 0.0 10.0 
320.00047933655907 178.0 25.0 429.9713168187747 1.3199593898040005 14.0 0.0 10.0 
322.00047933655907 178.0 25.0 429.9895697522813 0.8020584637424858 14.0 0.0 10.0 
324.0004290227294 178.0 25.0 429.9843546284222 1.3211790043453118 14.0 0.0 10.0 
326.00047933655907 178.0 25.0 430.00521512385893 0.8026188841221027 14.0 0.0 10.0 
328.00047933655907 178.0 25.0 430.00521512385893 1.33176545598258 14.0 0.0 10.0 
330.00047933655907 178.0 25.0 429.99739243807056 0.8010176830374824 14.0 0.0 10.0 
332.00047933655907 178.0 25.0 429.99217731421146 1.330218784965857 14.0 0.0 10.0 
334.0004290227294 180.0 25.0 429.9713168187747 0.7863012238318857 14.0 0.0 10.0 
336.00047933655907 182.0 26.0 429.9713168187747 1.2931966250441618 14.0 0.0 10.0 
338.00047933655907 182.0 26.0 429.9895697522813 0.7905280791609269 14.0 0.0 10.0 
340.00047933655907 182.0 26.0 429.9843546284222 1.2943803685695523 14.0 0.0 10.0 
342.00047933655907 186.0 27.0 433.01173402868307 0.7792088413254691 15.0 0.0 11.0 
344.0004290227294 188.0 27.0 432.99608865710553 1.293674325518542 15.0 0.0 11.0 
346.00047933655907 188.0 27.0 432.98826597131693 0.7933706783857747 16.0 0.0 11.0 
348.00047933655907 188.0 27.0 432.9830508474577 1.2923317173468136 16.0 0.0 11.0 
350.00047933655907 192.0 27.0 432.96219035202097 0.7890797590414189 17.0 0.0 11.0 
352.00047933655907 196.0 28.0 432.96219035202097 1.2672712585945987 18.0 0.0 11.0 
354.0004290227294 196.0 28.0 432.9804432855282 0.8272509652604324 18.0 0.0 11.0 
356.00047933655907 196.0 28.0 432.9752281616686 1.428111460813023 18.0 0.0 11.0 
358.00047933655907 196.0 28.0 432.99608865710553 1.1494818556589195 17.0 0.0 11.0 
360.00047933655907 197.0 28.0 432.9908735332464 1.7566663941477265 16.0 0.0 11.0 
362.00047933655907 202.0 29.0 435.99217731421123 1.508055556745704 16.0 0.0 12.0 
364.0004290227294 202.0 29.0 435.98174706649274 2.2766315361251586 16.0 0.0 12.0 
366.00047933655907 202.0 29.0 435.960886571056 2.2697843162279483 16.0 0.0 12.0 
368.00047933655907 202.0 29.0 435.960886571056 3.14003293146835 16.0 0.0 12.0 
370.00047933655907 202.0 29.0 435.9791395045633 3.1479001644896525 16.0 0.0 12.0 
372.00047933655907 202.0 29.0 435.98956975228157 3.850706211691762 16.0 0.0 12.0 
374.0004290227294 200.0 29.0 435.98956975228157 4.075479841179211 16.0 0.0 12.0 
376.00047933655907 193.0 29.0 435.99478487614095 4.436145984525258 16.0 0.0 12.0 
378.00047933655907 188.0 29.0 435.986962190352 4.445650837907751 16.0 0.0 12.0 
380.00047933655907 187.0 30.0 435.986962190352 4.876523541653983 15.0 0.0 12.0 
382.00047933655907 188.0 30.0 435.9791395045633 4.437857659712042 16.0 0.0 12.0 
384.0004290227294 182.0 28.0 435.9843546284223 4.185141580228285 16.0 0.0 12.0 
386.00047933655907 180.0 27.0 435.9713168187744 2.1599344422180575 17.0 0.0 12.0 
388.00047933655907 180.0 27.0 435.98174706649274 2.516475357866101 17.0 0.0 12.0 
390.00047933655907 185.0 27.0 444.9986962190353 1.6878809049156163 18.0 0.0 15.0 
392.00047933655907 186.0 26.0 447.9791395045633 1.3034304466312299 19.0 0.0 16.0 
394.0004290227294 205.0 28.0 453.9869621903521 1.0281759492942824 24.0 0.0 18.0 
396.00047933655907 220.0 29.0 456.9804432855283 1.2320896468496885 25.0 0.0 19.0 
398.00047933655907 220.0 29.0 456.97262059973906 1.0908901934798763 25.0 0.0 19.0 
400.00047933655907 220.0 29.0 456.97522816166855 1.3281581492813714 25.0 0.0 19.0 
402.00047933655907 220.0 29.0 456.95436766623186 1.193463593190052 24.0 0.0 19.0 
404.0004290227294 220.0 29.0 453.9895697522815 1.5068002947625858 23.0 0.0 18.0 
406.00047933655907 220.0 29.0 454.0156453715779 1.4239670749336197 23.0 0.0 18.0 
408.00047933655907 220.0 29.0 453.99217731421123 1.7489267589578028 23.0 0.0 18.0 
410.00047933655907 220.0 29.0 453.9817470664927 1.7422643178329384 23.0 0.0 18.0 
412.00047933655907 220.0 29.0 454.00782268578877 2.1625473189038913 23.0 0.0 18.0 
414.0004290227294 218.0 29.0 453.9947848761411 1.7934526326625118 23.0 0.0 18.0 
416.00047933655907 218.0 29.0 453.9895697522815 2.211610635738803 23.0 0.0 18.0 
418.00047933655907 218.0 29.0 453.9817470664927 2.350127644555093 23.0 0.0 18.0 
420.00047933655907 218.0 29.0 453.9713168187745 2.9397589394356336 23.0 0.0 18.0 
422.00047933655907 218.0 29.0 453.97913950456336 3.161127007246716 23.0 0.0 18.0 
424.0004290227294 212.0 28.0 453.99217731421123 2.683377338509709 23.0 0.0 18.0 
426.00047933655907 214.0 29.0 453.97913950456336 2.642072627025962 23.0 0.0 18.0 
428.00047933655907 214.0 29.0 453.97653194263387 3.129818122796422 24.0 0.0 18.0 
430.00047933655907 213.0 29.0 453.9817470664927 3.219075066996598 24.0 0.0 18.0 
432.00047933655907 210.0 29.0 453.9634941329855 3.639146257187281 24.0 0.0 18.0 
434.0004290227294 209.0 29.0 453.9243807040415 3.761488322579288 24.0 0.0 18.0 
436.00047933655907 203.0 29.0 453.9243807040415 4.265433142912905 24.0 0.0 18.0 
438.00047933655907 184.0 27.0 453.93481095176 2.7256626084744893 24.0 0.0 18.0 
440.00047933655907 182.0 27.0 453.94002607561936 3.124526326540093 24.0 0.0 18.0 
442.00047933655907 176.0 26.0 453.93741851368986 2.3849457722041136 24.0 0.0 18.0 
444.0004290227294 174.0 26.0 453.9322033898306 2.5580376282092008 24.0 0.0 18.0 
446.00047933655907 175.0 26.0 453.9243807040415 2.5402835744932166 24.0 0.0 18.0 
448.00047933655907 186.0 28.0 453.92959582790087 2.774285564325636 26.0 0.0 18.0 
450.00047933655907 187.0 27.0 453.9165580182532 2.6095222864855767 26.0 0.0 18.0 
452.00047933655907 188.0 28.0 453.9165580182532 2.3678835883196814 26.0 0.0 18.0 
454.0004290227294 183.0 26.0 453.9269882659714 1.4787440958024922 26.0 0.0 18.0 
456.00047933655907 182.0 26.0 453.9322033898306 1.1362172076457022 25.0 0.0 18.0 
458.00047933655907 182.0 26.0 456.9361147327249 1.038209576636034 26.0 0.0 19.0 
460.00047933655907 182.0 26.0 456.93089960886573 1.3677620798883265 25.0 0.0 19.0 
462.00047933655907 182.0 26.0 456.923076923077 1.2858565697702338 25.0 0.0 19.0 
464.0004290227294 182.0 26.0 453.93741851368986 1.661673314601905 24.0 0.0 18.0 
466.00047933655907 182.0 26.0 453.9243807040415 1.5797519266111002 24.0 0.0 18.0 
468.00047933655907 182.0 26.0 450.9569752281618 1.9454159782612965 24.0 0.0 17.0 
470.00047933655907 182.0 26.0 453.9269882659714 1.9161998363418415 23.0 0.0 18.0 
472.00047933655907 182.0 26.0 453.9582790091266 2.290695341739002 23.0 0.0 18.0 
474.0004290227294 182.0 26.0 450.9752281616686 2.2556583201269564 22.0 0.0 17.0 
476.00047933655907 182.0 26.0 450.96219035202074 2.68741199808725 22.0 0.0 17.0 
478.00047933655907 176.0 25.0 450.9543676662319 1.7176059209346553 22.0 0.0 17.0 
480.00047933655907 176.0 25.0 450.9569752281618 2.135114082276377 22.0 0.0 17.0 
482.00047933655907 173.0 25.0 447.9426336375488 1.7761946964630408 22.0 0.0 16.0 
484.0004290227294 172.0 25.0 447.960886571056 2.0363357086822313 20.0 0.0 16.0 
486.00047933655907 176.0 26.0 447.95567144719706 1.8850835488501338 20.0 0.0 16.0 
488.00047933655907 179.0 27.0 444.9647979139504 2.2489228272814916 21.0 0.0 15.0 
490.00047933655907 183.0 27.0 444.9752281616687 2.242137482652953 20.0 0.0 15.0 
492.00047933655907 186.0 27.0 450.9700130378096 1.8160120035719831 20.0 0.0 17.0 
494.0004290227294 186.0 27.0 451.0039113428943 1.7442681610352653 20.0 0.0 17.0 
496.00047933655907 186.0 27.0 450.9986962190353 2.118920365921194 20.0 0.0 17.0 
498.00047933655907 185.0 27.0 450.96219035202074 1.9490634074686448 20.0 0.0 17.0 
500.00047933655907 182.0 27.0 448.01564537157765 2.0134080952349938 19.0 0.0 16.0 
502.00047933655907 182.0 27.0 448.0078226857889 1.9352132581430823 19.0 0.0 16.0 
504.0004290227294 182.0 27.0 448.01825293350726 2.2908778270560766 19.0 0.0 16.0 
506.00047933655907 182.0 27.0 448.0130378096479 2.2583839622071924 19.0 0.0 16.0 
508.00047933655907 180.0 26.0 447.98174706649274 2.5105661356385216 19.0 0.0 16.0 
510.00047933655907 176.0 25.0 447.9661016949153 0.9905272774068102 19.0 0.0 16.0 
512.000479336559 176.0 25.0 447.9765319426337 1.2869664589646415 19.0 0.0 16.0 
514.0004290227293 176.0 25.0 447.95827900912656 1.111697137816291 19.0 0.0 16.0 
516.000479336559 176.0 25.0 447.95827900912656 1.4884691833383241 19.0 0.0 16.0 
518.000479336559 176.0 25.0 447.98435462842235 1.4194584379694095 19.0 0.0 16.0 
520.000479336559 176.0 25.0 447.9921773142111 1.8258723367212162 19.0 0.0 16.0 
522.000479336559 176.0 25.0 447.97131681877437 1.840098301708242 19.0 0.0 16.0 
524.0004290227293 176.0 25.0 447.97131681877437 2.318185258622076 19.0 0.0 16.0 
526.000479336559 175.0 25.0 444.9726205997391 2.249545160575433 18.0 0.0 15.0 
528.000479336559 174.0 25.0 444.9908735332464 2.625832584076888 18.0 0.0 15.0 
530.000479336559 174.0 25.0 444.95176010430237 2.6578311870781604 18.0 0.0 15.0 
532.000479336559 173.0 25.0 444.95176010430237 3.0066328915771745 18.0 0.0 15.0 
534.0004290227293 172.0 25.0 444.9621903520208 2.982271648123488 18.0 0.0 15.0 
536.000479336559 170.0 25.0 441.97653194263364 3.451944064122346 17.0 0.0 14.0 
538.000479336559 166.0 24.0 441.97392438070403 2.6022185972973904 17.0 0.0 14.0 
540.000479336559 164.0 24.0 441.96870925684493 2.6001665840926163 17.0 0.0 14.0 
542.000479336559 162.0 24.0 441.960886571056 1.8717854062642467 17.0 0.0 14.0 
544.0004290227293 160.0 23.0 441.96610169491527 1.950749661317618 17.0 0.0 14.0 
546.000479336559 160.0 23.0 441.95306388526717 1.7963842680373805 17.0 0.0 14.0 
548.000479336559 160.0 23.0 441.96349413298566 2.1329480584317984 17.0 0.0 14.0 
550.000479336559 158.0 22.0 441.96349413298566 0.9085378848193465 17.0 0.0 14.0 
552.000479336559 158.0 22.0 441.96870925684493 1.167571925765165 17.0 0.0 14.0 
554.0004290227293 158.0 22.0 441.96870925684493 0.9408635024979418 17.0 0.0 14.0 
556.000479336559 158.0 22.0 441.96870925684493 1.3335008006131843 17.0 0.0 14.0 
558.000479336559 158.0 22.0 441.960886571056 1.2073622165554856 17.0 0.0 14.0 
560.000479336559 158.0 22.0 438.97522816166867 1.600044501976743 16.0 0.0 13.0 
562.000479336559 158.0 22.0 435.97131681877454 1.4739449069175907 15.0 0.0 12.0 
564.0004290227293 158.0 22.0 432.9804432855284 1.855060823658489 14.0 0.0 11.0 
566.000479336559 158.0 22.0 432.9908735332464 1.74187121815268 14.0 0.0 11.0 
568.000479336559 158.0 22.0 433.00130378096503 2.1222823337660084 14.0 0.0 11.0 
570.000479336559 158.0 22.0 432.9960886571054 2.0078660743828545 14.0 0.0 11.0 
572.000479336559 160.0 23.0 430.00521512385893 2.040031164472458 13.0 0.0 10.0 
574.0004290227293 160.0 23.0 429.99739243807056 1.8855380652912743 13.0 0.0 10.0 
576.000479336559 158.0 22.0 430.00260756192944 1.175311241976655 13.0 0.0 10.0 
578.000479336559 158.0 22.0 429.9895697522813 0.9158783135841689 13.0 0.0 10.0 
580.000479336559 158.0 22.0 430.0 1.163660896991734 13.0 0.0 10.0 
582.000479336559 158.0 22.0 430.0 0.9171379581525915 13.0 0.0 10.0 
584.0004290227293 158.0 22.0 430.00521512385893 1.17617199909841 13.0 0.0 10.0 
586.000479336559 158.0 22.0 430.00521512385893 0.9161302424978535 13.0 0.0 10.0 
588.000479336559 158.0 22.0 430.00521512385893 1.1754342072797628 13.0 0.0 10.0 
590.000479336559 158.0 22.0 429.99739243807056 0.9159622898887305 13.0 0.0 10.0 
592.000479336559 162.0 23.0 430.00260756192944 1.150624601524816 13.0 0.0 10.0 
594.0004290227293 162.0 23.0 429.9895697522813 0.8995604772740233 13.0 0.0 10.0 
596.000479336559 162.0 23.0 429.9895697522813 1.139350074120054 13.0 0.0 10.0 
598.000479336559 162.0 23.0 430.00521512385893 0.9007794881466903 13.0 0.0 10.0 
600.000479336559 162.0 23.0 430.00521512385893 1.1398870193853954 13.0 0.0 10.0 
602.000479336559 162.0 23.0 429.99739243807056 0.9646454780468593 13.0 0.0 10.0 
604.0004290227293 162.0 23.0 430.00260756192944 1.2798977593570258 13.0 0.0 10.0 
606.000479336559 162.0 23.0 429.9895697522813 1.0931088643707976 13.0 0.0 10.0 
608.000479336559 162.0 23.0 430.0 1.3974145902490862 13.0 0.0 10.0 
610.000479336559 162.0 23.0 430.0 1.2233601333079804 13.0 0.0 10.0 
612.000479336559 162.0 23.0 430.00521512385893 1.5876670649654694 13.0 0.0 10.0 
614.0004290227293 162.0 23.0 429.99739243807056 1.4650460101907368 13.0 0.0 10.0 
616.000479336559 162.0 23.0 430.00260756192944 1.8449740529093441 13.0 0.0 10.0 
618.000479336559 164.0 24.0 429.9713168187747 1.6444867070389235 13.0 0.0 10.0 
620.000479336559 164.0 24.0 429.9817470664927 1.991408387916238 13.0 0.0 10.0 
622.000479336559 163.0 24.0 430.0 1.5250562986314617 13.0 0.0 10.0 
624.0004290227293 162.0 24.0 430.00521512385893 1.6729041863153165 13.0 0.0 10.0 
626.000479336559 162.0 24.0 430.0 1.5241803427672629 13.0 0.0 10.0 
628.000479336559 162.0 24.0 430.00521512385893 1.850470557752339 13.0 0.0 10.0 
630.000479336559 162.0 24.0 429.99739243807056 1.6902171871497182 13.0 0.0 10.0 
632.000479336559 163.0 24.0 430.00260756192944 2.040539461960713 13.0 0.0 10.0 
634.0004290227293 162.0 24.0 429.9713168187747 1.0567892870144917 13.0 0.0 10.0 
636.000479336559 162.0 24.0 429.9713168187747 1.3729961694813828 13.0 0.0 10.0 
638.000479336559 162.0 24.0 429.9895697522813 1.2398289423535682 13.0 0.0 10.0 
640.000479336559 162.0 24.0 430.0 1.5556677468621538 13.0 0.0 10.0 
642.000479336559 162.0 24.0 430.0 1.4221815188371414 13.0 0.0 10.0 
644.0004290227293 162.0 24.0 430.00521512385893 1.7484943064133127 13.0 0.0 10.0 
646.000479336559 162.0 24.0 429.99739243807056 1.6026255429443168 13.0 0.0 10.0 
648.000479336559 162.0 24.0 430.00260756192944 1.9291428182751023 13.0 0.0 10.0 
650.000479336559 162.0 24.0 429.9713168187747 1.784062014287219 13.0 0.0 10.0 
652.000479336559 161.0 23.0 429.9713168187747 1.761323241402884 13.0 0.0 10.0 
654.0004290227293 160.0 23.0 429.9895697522813 0.8897397102406068 13.0 0.0 10.0 
656.000479336559 160.0 23.0 430.0 1.1216984773900858 13.0 0.0 10.0 
658.000479336559 160.0 23.0 430.0 0.9840408047392917 13.0 0.0 10.0 
660.000479336559 160.0 23.0 430.00521512385893 1.3518008669272183 13.0 0.0 10.0 
662.000479336559 160.0 23.0 429.99217731421146 1.2638737045998163 13.0 0.0 10.0 
664.0004290227293 160.0 23.0 429.99478487614107 1.7566618838540025 13.0 0.0 10.0 
#####################################################################
# End of data export. Simulation finished at: 2019-03-10T17:49+0000 #
#####################################################################
