#####################################################################
# Alchemist log file - simulation started at: 2019-03-12T07:42+0000 #
#####################################################################
# seed = 5.0, bandwidth = 1000.0, accessPointCount = 1031.338537721246, baserange = 100.0
#
# The columns have the following meaning: 
# time neighbor_count[Sum] <value>@neighbor_count[Sum] packet_size[Mean] mean_delay[Mean] crowd[Sum] overcrowded[Sum] risk[Sum] 
0.0 NaN NaN NaN NaN NaN NaN NaN 
2.000101793669918 NaN NaN 4978.212025316456 NaN 1497.0 0.0 1497.0 
4.000101793669918 NaN NaN 4978.212025316456 NaN 1497.0 0.0 1497.0 
6.000101793669918 198.0 140.0 4978.319620253164 0.3386012285608967 1497.0 0.0 1497.0 
8.000101793669918 387.0 275.0 4980.004746835443 2.013270834550032 1497.0 0.0 1497.0 
10.000101793669918 387.0 275.0 4979.751582278481 4.013270834550032 1497.0 0.0 1497.0 
12.000101793669918 758.0 488.0 4980.789556962025 1.2031680641140146 1497.0 0.0 1497.0 
14.000101793669918 758.0 488.0 4979.969936708861 3.203168064114015 1497.0 0.0 1497.0 
16.00010179366992 902.0 553.0 4980.06170886076 3.2461424015503098 1497.0 0.0 1497.0 
18.00010179366992 1044.0 624.0 4981.526898734177 3.7447372913433132 1497.0 0.0 1497.0 
20.00010179366992 1045.0 624.0 4981.181962025316 5.737251212893602 1497.0 0.0 1497.0 
22.00010179366992 1191.0 694.0 4981.382911392406 3.2480516794690235 1497.0 0.0 1497.0 
24.00010179366992 1191.0 694.0 4980.226265822785 4.844874622112415 1497.0 0.0 1497.0 
26.00010179366992 1308.0 734.0 4980.204113924051 5.148704426593908 1497.0 0.0 1497.0 
28.00010179366992 1418.0 755.0 4980.814873417721 5.780211152228236 1497.0 0.0 1497.0 
30.00010179366992 1418.0 755.0 4981.245253164557 7.510293796856335 1497.0 0.0 1497.0 
32.00010179366992 1527.0 782.0 4981.526898734177 4.256499259963834 1497.0 0.0 1497.0 
34.00010179366992 1527.0 782.0 4981.208860759494 5.686870831999369 1497.0 0.0 1497.0 
36.00010179366992 1660.0 800.0 4980.893987341772 5.617263917346553 1497.0 0.0 1497.0 
38.00010179366992 1777.0 818.0 4981.251582278481 5.9700886953529855 1497.0 0.0 1497.0 
40.00010179366992 1777.0 818.0 4981.569620253164 7.6661107704081735 1497.0 0.0 1497.0 
42.00010179366992 1840.0 837.0 4981.708860759494 4.990010277659301 1497.0 0.0 1497.0 
44.00010179366992 1840.0 837.0 4981.46835443038 6.114635277659299 1497.0 0.0 1497.0 
46.00010179366992 1951.0 848.0 4980.909810126583 6.052131419811008 1497.0 0.0 1497.0 
48.00010179366992 2027.0 861.0 4981.011075949367 6.109341166258108 1497.0 0.0 1497.0 
50.00010179366992 2028.0 862.0 4981.237341772152 7.678731569677534 1497.0 0.0 1497.0 
52.00010179366992 2115.0 883.0 4981.738924050633 5.223177609316082 1497.0 0.0 1497.0 
54.00010179366992 2115.0 883.0 4981.648734177215 6.518147699406171 1497.0 0.0 1497.0 
56.00010179366992 2111.0 884.0 4981.520569620253 6.739255864079483 1497.0 0.0 1497.0 
58.00010179366992 2095.0 879.0 4981.085443037975 7.29660927665577 1497.0 0.0 1497.0 
60.00010179366992 2098.0 880.0 4979.3655063291135 8.936978518247338 1496.0 0.0 1496.0 
62.00010179366992 2100.0 883.0 602.033227848104 5.814034547726084 410.0 0.0 111.0 
64.00010179366993 2100.0 883.0 601.9825949367099 5.852994702386242 333.0 0.0 111.0 
66.00010179366993 2082.0 892.0 607.536392405058 5.349310701887874 298.0 0.0 114.0 
68.00010179366993 2042.0 885.0 620.1123417721502 4.494150250596993 269.0 0.0 121.0 
70.00010179366993 2042.0 885.0 620.0174050632901 4.998404794205484 263.0 0.0 121.0 
72.00010179366993 2106.0 893.0 622.0094936708824 3.687756856136465 231.0 0.0 122.0 
74.00010179366993 2109.0 894.0 621.9240506329069 4.019396428844233 217.0 0.0 122.0 
76.00010179366993 2005.0 887.0 621.9825949367099 3.508776086631785 205.0 0.0 122.0 
78.00010179366993 1928.0 873.0 621.8892405063253 2.246775454181845 190.0 0.0 122.0 
80.00010179366993 1929.0 873.0 621.8575949367099 2.429070655130177 180.0 0.0 122.0 
82.00010179366993 1931.0 868.0 627.3465189873368 2.029065125722396 176.0 0.0 125.0 
84.00010179366993 1934.0 870.0 627.2689873417668 2.207879615535385 168.0 0.0 125.0 
86.00010179366993 1954.0 875.0 627.2990506329068 2.142357420400163 168.0 0.0 125.0 
88.00010179366993 1983.0 880.0 627.3433544303842 2.1766951705619455 167.0 0.0 125.0 
90.00010179366993 1983.0 880.0 627.289556962022 2.3642512548664105 161.0 0.0 125.0 
92.00010179366993 2122.0 903.0 634.7468354430349 2.365762653081322 168.0 0.0 129.0 
94.00010179366993 2126.0 904.0 634.6835443038032 2.5422306052951535 167.0 0.0 129.0 
96.00010179366993 2131.0 897.0 634.6344936708823 2.517822671870136 167.0 0.0 129.0 
98.00010179366993 2140.0 904.0 634.6439873417668 2.487524811087021 168.0 0.0 129.0 
100.00010179366993 2136.0 902.0 634.6439873417668 2.6888471522783637 168.0 0.0 129.0 
102.00010179366993 2145.0 899.0 634.8496835443008 2.0157461202105225 166.0 0.0 129.0 
104.00010179366993 2152.0 901.0 634.6202531645594 1.9902902678733836 166.0 0.0 129.0 
106.00010179366993 2238.0 915.0 636.4319620253124 2.094010341367255 172.0 0.0 130.0 
108.00010179366993 2264.0 918.0 638.3212025316526 2.1628909600768265 171.0 0.0 131.0 
110.00010179366993 2273.0 920.0 638.3022151898708 2.361641157955138 171.0 0.0 131.0 
112.00010179366993 2340.0 927.0 638.3227848101292 2.498231541294977 172.0 0.0 131.0 
114.00010179366993 2339.0 927.0 638.3132911392446 2.645393901071938 172.0 0.0 131.0 
116.00010179366993 2300.0 918.0 638.3148734177202 2.760218610020286 169.0 0.0 131.0 
118.00010179366993 2298.0 921.0 638.2689873417667 2.7876091711576714 169.0 0.0 131.0 
120.00010179366993 2301.0 921.0 638.2373417721502 3.0105483865066605 169.0 0.0 131.0 
122.00010179366993 2210.0 908.0 638.3465189873367 2.761357078808045 169.0 0.0 131.0 
124.00010179366993 2219.0 910.0 638.2468354430348 2.7875852332743913 169.0 0.0 131.0 
126.00010179366993 2189.0 910.0 638.2594936708823 2.772812080962085 167.0 0.0 131.0 
128.00010179366993 2174.0 907.0 638.2436708860827 2.4762562833394437 168.0 0.0 131.0 
130.00010179366993 2175.0 909.0 638.2009493670934 2.5698339451071894 168.0 0.0 131.0 
132.00010179366993 2168.0 908.0 638.3734177215243 2.378180143876936 171.0 0.0 131.0 
134.00010179366993 2177.0 910.0 638.3132911392446 2.5495787389055176 172.0 0.0 131.0 
136.00010179366993 2121.0 902.0 636.5585443038033 2.4123409681462107 171.0 0.0 130.0 
138.00010179366993 2137.0 905.0 636.4240506329066 2.32921999287086 170.0 0.0 130.0 
140.00010179366993 2130.0 904.0 636.3939873417667 2.426355433946164 168.0 0.0 130.0 
142.00010179366993 2172.0 915.0 636.5553797468382 2.1644598000620725 171.0 0.0 130.0 
144.00010179366993 2171.0 915.0 636.4319620253125 2.3326031934798497 171.0 0.0 130.0 
146.00010179366993 2206.0 917.0 636.4572784810107 2.487475104984254 172.0 0.0 130.0 
148.00010179366993 2230.0 922.0 636.4493670886047 2.3923477487805678 171.0 0.0 130.0 
150.00010179366993 2235.0 921.0 636.4462025316526 2.578002881189076 171.0 0.0 130.0 
152.00010179366993 2208.0 915.0 636.4731012658275 2.6118330765116724 170.0 0.0 130.0 
154.00010179366993 2201.0 915.0 636.419303797465 2.400153299017978 169.0 0.0 130.0 
156.00010179366993 2206.0 916.0 636.4003164556991 2.561498831423475 170.0 0.0 130.0 
158.00010179366993 2224.0 920.0 636.4477848101292 2.5927296174153422 170.0 0.0 130.0 
160.00010179366993 2235.0 920.0 640.0268987341725 2.7934695200240167 172.0 0.0 132.0 
162.00010179366993 2183.0 913.0 638.330696202535 2.526328292915081 170.0 0.0 131.0 
164.00010179366993 2175.0 909.0 638.2215189873366 2.583020613483521 170.0 0.0 131.0 
166.00010179366993 2180.0 907.0 636.4224683544301 2.574018820690007 166.0 0.0 130.0 
168.00010179366993 2167.0 904.0 636.4335443038033 2.4094878510699957 166.0 0.0 130.0 
170.00010179366993 2182.0 907.0 638.210443037978 2.569459291774861 168.0 0.0 131.0 
172.00010179366993 2154.0 902.0 638.3417721518949 2.264488300365482 170.0 0.0 131.0 
174.00010179366993 2162.0 904.0 638.2009493670935 2.3742173352570974 170.0 0.0 131.0 
176.00010179366993 2202.0 912.0 638.2515822784757 2.254916693884709 173.0 0.0 131.0 
178.00010179366993 2227.0 909.0 638.2452531645592 1.996533197833894 175.0 0.0 131.0 
180.00010179366993 2239.0 913.0 641.8449367088601 1.8674647135044913 175.0 0.0 133.0 
182.00010179366993 2284.0 919.0 643.7183544303845 2.0343480858307963 178.0 0.0 134.0 
184.00010179366993 2293.0 920.0 643.6946202531618 2.252446793688892 178.0 0.0 134.0 
186.00010179366993 2321.0 923.0 641.9224683544301 2.3378497552037496 179.0 0.0 133.0 
188.00010179366993 2306.0 921.0 643.6898734177202 2.424864034280489 178.0 0.0 134.0 
190.00010179366993 2308.0 920.0 643.6882911392445 2.5118149312457634 179.0 0.0 134.0 
192.00010179366993 2285.0 917.0 645.5648734177202 2.534740402660723 180.0 0.0 135.0 
194.00010179366993 2289.0 918.0 645.5237341772221 2.6504397964987745 180.0 0.0 135.0 
196.00010179366993 2282.0 919.0 645.5522151898709 2.7805343637654985 181.0 0.0 135.0 
198.00010179366993 2303.0 922.0 645.6060126582335 2.8561267604472236 181.0 0.0 135.0 
200.00010179366993 2324.0 925.0 647.4082278481048 3.0557567539340345 185.0 0.0 136.0 
202.00010179366993 2279.0 918.0 647.4398734177202 2.853618148113606 184.0 0.0 136.0 
204.00010179366993 2299.0 919.0 647.3892405063249 2.8018303983810204 184.0 0.0 136.0 
206.00010179366993 2217.0 907.0 647.3892405063249 2.649069546221182 183.0 0.0 136.0 
208.00010179366993 2182.0 906.0 647.3322784810109 2.252471818174169 180.0 0.0 136.0 
210.00010179366993 2188.0 908.0 649.0965189873373 2.349506131529832 180.0 0.0 137.0 
212.00010179366993 2254.0 920.0 651.1091772151855 2.2948051445633215 185.0 0.0 138.0 
214.00010179366993 2252.0 921.0 650.9794303797427 2.3476634837980086 188.0 0.0 138.0 
216.00010179366993 2216.0 916.0 651.0015822784767 2.4174717950668683 182.0 0.0 138.0 
218.00010179366993 2206.0 914.0 650.9335443038023 2.4983457593369525 180.0 0.0 138.0 
220.00010179366993 2195.0 912.0 650.9018987341735 2.5897552581852388 180.0 0.0 138.0 
222.00010179366993 2177.0 910.0 650.919303797465 2.6244278325901624 181.0 0.0 138.0 
224.00010179366993 2185.0 911.0 650.8924050632911 2.731666883966639 182.0 0.0 138.0 
226.00010179366993 2172.0 909.0 650.9113924050582 2.6419279364967574 184.0 0.0 138.0 
228.00010179366993 2148.0 909.0 650.9240506329066 2.5183026500188297 187.0 0.0 138.0 
230.00010179366993 2144.0 909.0 658.164556962022 2.453865525851517 185.0 0.0 142.0 
232.00010179366993 2272.0 920.0 658.349683544301 2.328371790569803 191.0 0.0 142.0 
234.00010179366993 2261.0 921.0 660.1408227848145 2.2513496253853136 191.0 0.0 143.0 
236.00010179366993 2292.0 926.0 660.0537974683474 2.4918526964986203 191.0 0.0 143.0 
238.00010179366993 2266.0 921.0 660.0696202531618 2.5888336669495415 190.0 0.0 143.0 
240.00010179366993 2274.0 922.0 660.0775316455672 2.6329507177219758 193.0 0.0 143.0 
242.00010179366993 2182.0 903.0 660.132911392405 2.2036741605923487 191.0 0.0 143.0 
244.00010179366993 2209.0 908.0 659.9367088607582 2.344178033977428 190.0 0.0 143.0 
246.00010179366993 2280.0 917.0 659.9699367088601 2.3722811823172183 192.0 0.0 143.0 
248.00010179366993 2338.0 925.0 660.0917721518979 2.461773801081145 192.0 0.0 143.0 
250.00010179366993 2363.0 929.0 656.4018987341764 2.6853473800009184 191.0 0.0 141.0 
252.00010179366993 2411.0 936.0 656.4984177215206 2.678964720285753 194.0 0.0 141.0 
254.00010179366993 2434.0 940.0 656.4588607594872 2.8091242136574115 195.0 0.0 141.0 
256.00010179366996 2422.0 937.0 656.4398734177202 2.9094271829888902 196.0 0.0 141.0 
258.00010179366996 2393.0 932.0 656.4667721518988 2.8085745101306756 194.0 0.0 141.0 
260.00010179366996 2371.0 928.0 656.4050632911399 2.8845695702152674 193.0 0.0 141.0 
262.00010179366996 2248.0 919.0 658.332278481015 2.6236024165532963 193.0 0.0 142.0 
264.00010179366996 2269.0 920.0 658.316455696201 2.7281876611227527 194.0 0.0 142.0 
266.00010179366996 2254.0 919.0 658.3037974683473 2.7952527087142474 192.0 0.0 142.0 
268.00010179366996 2303.0 928.0 658.235759493675 2.925858601905453 192.0 0.0 142.0 
270.00010179366996 2312.0 928.0 660.0395569620221 2.9814856462680854 191.0 0.0 143.0 
272.00010179366996 2291.0 930.0 660.0253164556991 3.011212147082523 192.0 0.0 143.0 
274.00010179366996 2271.0 926.0 660.0158227848145 3.0450860152246597 193.0 0.0 143.0 
276.00010179366996 2196.0 915.0 658.25 2.9413003924234755 192.0 0.0 142.0 
278.00010179366996 2136.0 906.0 658.1993670886047 2.5934121957031855 189.0 0.0 142.0 
280.00010179366996 2117.0 904.0 659.957278481015 2.4814253531175807 189.0 0.0 143.0 
282.00010179366996 2135.0 907.0 661.9493670886046 2.2477789713442924 192.0 0.0 144.0 
284.00010179366996 2142.0 907.0 661.7737341772178 2.1023147738186236 191.0 0.0 144.0 
286.00010179366996 2154.0 912.0 661.7531645569609 2.1381591084068363 190.0 0.0 144.0 
288.00010179366996 2168.0 914.0 659.9272151898751 2.3043993877027553 187.0 0.0 143.0 
290.00010179366996 2167.0 913.0 659.917721518985 2.4725041843118154 187.0 0.0 143.0 
292.00010179366996 2169.0 912.0 660.0300632911399 2.4331034665762905 189.0 0.0 143.0 
294.00010179366996 2145.0 911.0 658.1439873417664 2.4902379157291743 188.0 0.0 142.0 
296.00010179366996 2208.0 915.0 658.1297468354408 2.558427579955096 190.0 0.0 142.0 
298.00010179366996 2210.0 912.0 656.460443037978 2.4197779010936755 190.0 0.0 141.0 
300.00010179366996 2209.0 913.0 654.5664556962004 2.424395149783502 189.0 0.0 140.0 
302.00010179366996 2265.0 919.0 654.6107594936751 2.406061498181106 190.0 0.0 140.0 
304.00010179366996 2268.0 921.0 654.6107594936751 2.5201190774645297 190.0 0.0 140.0 
306.00010179366996 2283.0 923.0 652.791139240513 2.6722999271340004 189.0 0.0 139.0 
308.00010179366996 2296.0 924.0 652.7705696202576 2.756057875911605 189.0 0.0 139.0 
310.00010179366996 2304.0 925.0 652.7848101265807 2.868447250535804 189.0 0.0 139.0 
312.00010179366996 2240.0 915.0 652.7863924050604 2.6965585492249557 188.0 0.0 139.0 
314.00010179366996 2228.0 915.0 652.7215189873398 2.586808692982912 187.0 0.0 139.0 
316.00010179366996 2247.0 918.0 654.5617088607588 2.7282455018891048 187.0 0.0 140.0 
318.00010179366996 2267.0 921.0 654.5822784810141 2.6875067235672123 184.0 0.0 140.0 
320.00010179366996 2289.0 923.0 654.5490506329064 2.8368947606173407 184.0 0.0 140.0 
322.00010179366996 2250.0 916.0 656.4082278481012 2.7614187538070163 184.0 0.0 141.0 
324.00010179366996 2260.0 918.0 650.8813291139189 2.838233523530247 180.0 0.0 138.0 
326.00010179366996 2195.0 911.0 647.2927215189891 2.8293076519044424 179.0 0.0 136.0 
328.00010179366996 2149.0 903.0 647.2389240506268 2.736747474508795 179.0 0.0 136.0 
330.00010179366996 2139.0 902.0 647.2373417721506 2.653376085050449 176.0 0.0 136.0 
332.00010179366996 2149.0 905.0 647.447784810129 2.5603387823774804 182.0 0.0 136.0 
334.00010179366996 2175.0 909.0 645.4825949367098 2.4480028202767428 181.0 0.0 135.0 
336.00010179366996 2188.0 911.0 643.6803797468382 2.4860451050363332 181.0 0.0 134.0 
338.00010179366996 2204.0 913.0 643.7088607594872 2.339366010620452 181.0 0.0 134.0 
340.00010179366996 2186.0 910.0 641.8591772151855 2.370820902990732 180.0 0.0 133.0 
342.00010179366996 2223.0 916.0 641.8829113924081 2.4988748013739954 182.0 0.0 133.0 
344.00010179366996 2225.0 918.0 641.860759493675 2.586634882050271 182.0 0.0 133.0 
346.00010179366996 2223.0 914.0 641.8971518987317 2.4892999196468866 182.0 0.0 133.0 
348.00010179366996 2201.0 912.0 640.080696202535 2.489819480055668 179.0 0.0 132.0 
350.00010179366996 2191.0 914.0 640.0126582278498 2.598363421513269 179.0 0.0 132.0 
352.00010179366996 2205.0 917.0 640.0189873417667 2.56943750119636 178.0 0.0 132.0 
354.00010179366996 2207.0 918.0 643.7136075949428 2.5637634831600677 179.0 0.0 134.0 
356.00010179366996 2217.0 921.0 645.4715189873366 2.6655064793724628 179.0 0.0 135.0 
358.00010179366996 2193.0 917.0 643.6772151898708 2.6752331834492793 178.0 0.0 134.0 
360.00010179366996 2190.0 920.0 643.6772151898708 2.7253536259363758 178.0 0.0 134.0 
362.00010179366996 2206.0 913.0 645.5901898734194 2.4668282815964075 181.0 0.0 135.0 
364.00010179366996 2170.0 908.0 645.4778481012684 2.468239699876616 181.0 0.0 135.0 
366.00010179366996 2171.0 908.0 645.4509493670935 2.4131306993346295 180.0 0.0 135.0 
368.00010179366996 2161.0 907.0 645.5047468354408 2.315274914990577 176.0 0.0 135.0 
370.00010179366996 2162.0 907.0 645.4256329113953 2.484261313186993 176.0 0.0 135.0 
372.00010179366996 2191.0 913.0 645.5648734177202 2.4169619311025743 179.0 0.0 135.0 
374.00010179366996 2205.0 914.0 645.4493670886047 2.5928262876065173 178.0 0.0 135.0 
376.00010179366996 2215.0 916.0 645.4414556961966 2.6236762388429304 178.0 0.0 135.0 
378.00010179366996 2214.0 916.0 645.4493670886047 2.602386770668918 177.0 0.0 135.0 
380.00010179366996 2210.0 913.0 645.4572784810107 2.6029535410849753 176.0 0.0 135.0 
382.00010179366996 2225.0 914.0 645.5 2.615139780569531 179.0 0.0 135.0 
384.00010179366996 2239.0 915.0 645.5094936708823 2.6155402005401003 180.0 0.0 135.0 
386.00010179366996 2269.0 919.0 645.5110759493733 2.6946577680620596 184.0 0.0 135.0 
388.00010179366996 2303.0 927.0 645.5585443038034 2.9150252152632987 183.0 0.0 135.0 
390.00010179366996 2326.0 929.0 645.5664556961966 2.7744776200325987 180.0 0.0 135.0 
392.00010179366996 2249.0 921.0 643.7531645569651 2.695596007380659 179.0 0.0 134.0 
394.00010179366996 2253.0 921.0 643.7325949367099 2.815304209713109 180.0 0.0 134.0 
396.00010179366996 2261.0 922.0 645.5427215189893 2.823638404399544 182.0 0.0 135.0 
398.00010179366996 2223.0 915.0 645.5237341772221 2.724701928378294 186.0 0.0 135.0 
400.00010179366996 2270.0 924.0 641.8892405063251 2.9177581503397656 185.0 0.0 133.0 
402.00010179366996 2232.0 917.0 640.1281645569652 2.6361817285612914 183.0 0.0 132.0 
404.00010179366996 2230.0 918.0 640.0379746835476 2.663473849449096 186.0 0.0 132.0 
406.00010179366996 2219.0 913.0 641.8607594936749 2.5583332003352712 184.0 0.0 133.0 
408.00010179366996 2234.0 918.0 641.8481012658275 2.492927589074438 180.0 0.0 133.0 
410.00010179366996 2230.0 919.0 641.8227848101292 2.6067893984363257 180.0 0.0 133.0 
412.00010179366996 2251.0 924.0 643.7563291139174 2.5967087163830236 183.0 0.0 134.0 
414.00010179366996 2240.0 923.0 643.6708860759543 2.6576738035555145 182.0 0.0 134.0 
416.00010179366996 2201.0 917.0 641.8829113924081 2.7319131137729533 181.0 0.0 133.0 
418.00010179366996 2174.0 913.0 641.841772151895 2.6774754707322295 179.0 0.0 133.0 
420.00010179366996 2148.0 912.0 641.8607594936749 2.5717361804765027 176.0 0.0 133.0 
422.00010179366996 2145.0 914.0 641.7674050632901 2.489734572051703 175.0 0.0 133.0 
424.00010179366996 2139.0 914.0 641.7547468354408 2.5648611447937673 174.0 0.0 133.0 
426.00010179366996 2118.0 912.0 641.7626582278498 2.562894512180695 173.0 0.0 133.0 
428.00010179366996 2120.0 911.0 641.7405063291176 2.5404447977249043 173.0 0.0 133.0 
430.00010179366996 2099.0 908.0 641.7784810126633 2.44530426054375 172.0 0.0 133.0 
432.00010179366996 2261.0 923.0 641.9715189873367 2.385976291324733 178.0 0.0 133.0 
434.00010179366996 2244.0 919.0 641.8860759493731 2.4351689464759985 177.0 0.0 133.0 
436.00010179366996 2233.0 918.0 641.8718354430349 2.4894991575187975 177.0 0.0 133.0 
438.00010179366996 2240.0 918.0 641.8496835443009 2.3051536197344267 176.0 0.0 133.0 
440.00010179366996 2240.0 918.0 641.8544303797426 2.34327992255414 176.0 0.0 133.0 
442.00010179366996 2212.0 913.0 641.8939873417667 2.1429188793711913 176.0 0.0 133.0 
444.00010179366996 2231.0 914.0 643.6550632911399 2.24954635211455 180.0 0.0 134.0 
446.00010179366996 2283.0 922.0 643.6392405063251 2.4083986257787733 180.0 0.0 134.0 
448.00010179366996 2303.0 924.0 643.6360759493731 2.614985405191947 180.0 0.0 134.0 
450.00010179366996 2313.0 924.0 643.6487341772221 2.6401430996257385 180.0 0.0 134.0 
452.00010179366996 2328.0 926.0 643.7468354430349 2.6798893230788776 183.0 0.0 134.0 
454.00010179366996 2334.0 929.0 643.6772151898708 2.840284169258696 183.0 0.0 134.0 
456.00010179366996 2349.0 929.0 643.6787974683475 2.9868889299979724 182.0 0.0 134.0 
458.00010179366996 2364.0 930.0 643.7246835443009 2.9386646213112284 183.0 0.0 134.0 
460.00010179366996 2352.0 928.0 643.7658227848144 2.9128287343197528 183.0 0.0 134.0 
462.00010179366996 2197.0 913.0 640.1740506329066 2.6046350198566204 184.0 0.0 132.0 
464.00010179366996 2215.0 917.0 640.0348101265807 2.818110393456829 187.0 0.0 132.0 
466.00010179366996 2250.0 922.0 640.0348101265807 2.960396714241938 185.0 0.0 132.0 
468.00010179366996 2232.0 916.0 640.0158227848144 2.7735225588667682 185.0 0.0 132.0 
470.00010179366996 2226.0 916.0 640.0253164556991 2.5494435977733287 181.0 0.0 132.0 
472.00010179366996 2225.0 917.0 639.9952531645592 2.5326617593164698 181.0 0.0 132.0 
474.00010179366996 2202.0 916.0 639.9841772151856 2.5632334320161902 180.0 0.0 132.0 
476.00010179366996 2188.0 914.0 639.9731012658275 2.4531467148911523 183.0 0.0 132.0 
478.00010179366996 2185.0 917.0 643.6471518987317 2.4196634927625618 184.0 0.0 134.0 
480.00010179366996 2177.0 918.0 643.6155063291176 2.418930094925163 182.0 0.0 134.0 
482.00010179366996 2168.0 915.0 643.6946202531618 2.3440603022475393 183.0 0.0 134.0 
484.00010179366996 2180.0 919.0 643.5996835443009 2.4658805767048757 183.0 0.0 134.0 
486.00010179366996 2163.0 918.0 641.860759493675 2.446539686461649 182.0 0.0 133.0 
488.00010179366996 2132.0 914.0 643.6218354430348 2.5301516999980596 182.0 0.0 134.0 
490.00010179366996 2150.0 916.0 643.5949367088601 2.5377641637068993 181.0 0.0 134.0 
492.00010179366996 2191.0 924.0 643.6882911392445 2.559931440786529 184.0 0.0 134.0 
494.00010179366996 2186.0 924.0 643.610759493675 2.6202882243356793 184.0 0.0 134.0 
496.00010179366996 2163.0 919.0 643.632911392408 2.5624875811964927 183.0 0.0 134.0 
498.00010179366996 2176.0 919.0 643.6740506329066 2.538310788180531 182.0 0.0 134.0 
500.00010179366996 2166.0 920.0 643.6439873417667 2.5698157743518917 181.0 0.0 134.0 
502.00010179366996 2230.0 923.0 643.6772151898708 2.323029275332396 186.0 0.0 134.0 
504.00010179366996 2250.0 925.0 647.3101265822798 2.2535698817877345 188.0 0.0 136.0 
506.00010179366996 2246.0 928.0 643.7120253164524 2.353657084833754 189.0 0.0 134.0 
508.00010179366996 2238.0 924.0 643.6693037974647 2.501547249968477 189.0 0.0 134.0 
510.00010179366996 2230.0 922.0 641.8370253164524 2.550524065433101 188.0 0.0 133.0 
512.00010179367 2228.0 922.0 641.8370253164524 2.4882992136866027 188.0 0.0 133.0 
514.00010179367 2234.0 921.0 641.8512658227778 2.5676026646550216 187.0 0.0 133.0 
516.00010179367 2270.0 926.0 641.8370253164524 2.6455846792165802 187.0 0.0 133.0 
518.00010179367 2296.0 929.0 640.0142405063249 2.750622345979178 186.0 0.0 132.0 
520.00010179367 2305.0 931.0 640.0411392405128 2.820334547346027 184.0 0.0 132.0 
522.00010179367 2291.0 926.0 640.0490506329065 2.56234964922542 182.0 0.0 132.0 
524.00010179367 2303.0 926.0 640.0332278481052 2.6872757063812793 185.0 0.0 132.0 
526.00010179367 2314.0 931.0 641.8702531645592 2.781491876543434 184.0 0.0 133.0 
528.00010179367 2303.0 928.0 643.6851265822798 2.7011407148722073 184.0 0.0 134.0 
530.00010179367 2309.0 929.0 643.6756329113954 2.7329775918184964 184.0 0.0 134.0 
532.00010179367 2304.0 933.0 643.8544303797427 2.6582711505454357 189.0 0.0 134.0 
534.00010179367 2320.0 937.0 645.5474683544301 2.7506999266179766 190.0 0.0 135.0 
536.00010179367 2347.0 940.0 651.0015822784758 2.817384227656728 189.0 0.0 138.0 
538.00010179367 2337.0 937.0 650.9525316455696 2.845452743612367 190.0 0.0 138.0 
540.00010179367 2350.0 939.0 650.9462025316528 2.983167332201366 191.0 0.0 138.0 
542.00010179367 2336.0 938.0 649.1598101265807 2.896130883172422 190.0 0.0 137.0 
544.00010179367 2316.0 936.0 650.9493670886046 2.8346633169477187 188.0 0.0 138.0 
546.00010179367 2294.0 933.0 650.9493670886046 2.8431740314578726 188.0 0.0 138.0 
548.00010179367 2265.0 927.0 649.1186708860826 2.9389088917468955 187.0 0.0 137.0 
550.00010179367 2238.0 924.0 649.0886075949427 2.9391141105149887 186.0 0.0 137.0 
552.00010179367 2224.0 924.0 649.0981012658272 2.8339120592162175 185.0 0.0 137.0 
554.00010179367 2224.0 924.0 647.2452531645592 2.9040738783731945 182.0 0.0 136.0 
556.00010179367 2215.0 923.0 647.2879746835475 2.899715732608252 179.0 0.0 136.0 
558.00010179367 2195.0 922.0 645.4018987341726 2.9592276575700764 178.0 0.0 135.0 
560.00010179367 2171.0 916.0 645.3734177215244 2.9432759291112083 177.0 0.0 135.0 
562.00010179367 2092.0 905.0 645.4129746835476 2.4964636594565164 175.0 0.0 135.0 
564.00010179367 2062.0 900.0 645.3196202531618 2.4297972569001636 175.0 0.0 135.0 
566.00010179367 2031.0 895.0 645.2974683544301 2.3522767729920346 173.0 0.0 135.0 
568.00010179367 2060.0 901.0 645.3575949367098 2.467093282068403 172.0 0.0 135.0 
570.00010179367 2067.0 901.0 649.0094936708824 2.5265329013245843 174.0 0.0 137.0 
572.00010179367 2202.0 917.0 649.1882911392445 2.3215767942347854 177.0 0.0 137.0 
574.00010179367 2224.0 921.0 649.0822784810109 2.4770485873526464 178.0 0.0 137.0 
576.00010179367 2241.0 921.0 652.7563291139177 2.4689074590850177 180.0 0.0 139.0 
578.00010179367 2255.0 923.0 652.7215189873369 2.5476423960781696 181.0 0.0 139.0 
580.00010179367 2258.0 922.0 650.9145569620221 2.707752826510228 180.0 0.0 138.0 
582.00010179367 2285.0 926.0 650.9762658227781 2.5212023303403432 184.0 0.0 138.0 
584.00010179367 2302.0 927.0 650.9430379746872 2.66769225014817 183.0 0.0 138.0 
586.00010179367 2318.0 929.0 650.9382911392443 2.7803983449962835 186.0 0.0 138.0 
588.00010179367 2374.0 936.0 650.9762658227781 2.8420182994527052 184.0 0.0 138.0 
590.00010179367 2403.0 938.0 651.0174050632904 2.826123228858932 185.0 0.0 138.0 
592.00010179367 2420.0 940.0 652.8148734177202 2.7847099844621477 187.0 0.0 139.0 
594.00010179367 2428.0 939.0 656.4303797468382 2.869876501478354 187.0 0.0 141.0 
596.00010179367 2412.0 938.0 652.8180379746871 3.0108419172424905 187.0 0.0 139.0 
598.00010179367 2426.0 941.0 654.6424050632907 3.0771773697747 187.0 0.0 140.0 
600.00010179367 2440.0 943.0 656.4604430379779 3.210578100653974 187.0 0.0 141.0 
602.00010179367 2303.0 928.0 652.9082278481045 2.848657065619672 184.0 0.0 139.0 
604.00010179367 2283.0 925.0 654.5712025316526 2.9725596776863434 186.0 0.0 140.0 
606.00010179367 2255.0 922.0 660.0316455696164 3.060307642132152 189.0 0.0 143.0 
608.00010179367 2243.0 918.0 661.808544303802 3.152929563291591 188.0 0.0 144.0 
610.00010179367 2227.0 916.0 661.8196202531618 3.107644822957657 186.0 0.0 144.0 
612.00010179367 2224.0 917.0 663.7737341772206 2.9087504977596015 189.0 0.0 145.0 
614.00010179367 2219.0 917.0 663.6613924050588 2.918067486052036 190.0 0.0 145.0 
616.00010179367 2246.0 920.0 663.6645569620221 2.8576093596235825 193.0 0.0 145.0 
618.00010179367 2213.0 917.0 665.5363924050591 2.807460745996714 193.0 0.0 146.0 
620.00010179367 2191.0 912.0 667.322784810127 2.6526161806789306 190.0 0.0 147.0 
622.00010179367 2170.0 909.0 667.2832278481028 2.552588614488198 187.0 0.0 147.0 
624.00010179367 2199.0 915.0 667.227848101266 2.60385042002914 188.0 0.0 147.0 
626.00010179367 2201.0 915.0 667.2041139240455 2.700127292260143 188.0 0.0 147.0 
628.00010179367 2150.0 908.0 667.1882911392424 2.4726791737411977 188.0 0.0 147.0 
630.00010179367 2134.0 906.0 667.1329113924058 2.3828661803267255 189.0 0.0 147.0 
632.00010179367 2149.0 910.0 665.3623417721521 2.3918806907045926 194.0 0.0 146.0 
634.00010179367 2159.0 911.0 665.3053797468382 2.472920170916895 193.0 0.0 146.0 
636.00010179367 2170.0 910.0 663.5110759493732 2.5884054888352948 191.0 0.0 145.0 
638.00010179367 2192.0 912.0 663.6044303797424 2.642815351229183 190.0 0.0 145.0 
640.00010179367 2194.0 914.0 663.6186708860805 2.7993721982994693 190.0 0.0 145.0 
642.00010179367 2252.0 915.0 665.5569620253143 2.5737963554491476 193.0 0.0 146.0 
644.00010179367 2267.0 920.0 661.8196202531618 2.6926603031710004 193.0 0.0 144.0 
646.00010179367 2235.0 915.0 661.8575949367088 2.586578391359827 194.0 0.0 144.0 
648.00010179367 2231.0 914.0 663.6123417721517 2.493791079925792 191.0 0.0 145.0 
650.00010179367 2229.0 914.0 663.5996835443008 2.6149878900804873 190.0 0.0 145.0 
652.00010179367 2313.0 927.0 663.7088607594872 2.590656293828545 193.0 0.0 145.0 
654.00010179367 2321.0 926.0 663.7104430379779 2.4824201019499013 194.0 0.0 145.0 
656.00010179367 2423.0 934.0 667.3354430379779 2.4413930979466634 198.0 0.0 147.0 
658.00010179367 2462.0 942.0 667.3623417721526 2.6160198118679387 199.0 0.0 147.0 
660.00010179367 2479.0 942.0 669.1977848101267 2.7429534215059808 201.0 0.0 148.0 
662.00010179367 2475.0 941.0 667.3876582278474 2.695656669208933 199.0 0.0 147.0 
664.00010179367 2497.0 946.0 667.3955696202576 2.7672005831885493 197.0 0.0 147.0 
#####################################################################
# End of data export. Simulation finished at: 2019-03-12T07:55+0000 #
#####################################################################
