#####################################################################
# Alchemist log file - simulation started at: 2019-03-03T09:29+0000 #
#####################################################################
# seed = 9.0, bandwidth = 1.0E8, accessPointCount = 72.92664737217109, baserange = 177.82794100389228
#
# The columns have the following meaning: 
# time neighbor_count[Sum] <value>@neighbor_count[Sum] packet_size[Mean] mean_delay[Mean] crowd[Sum] overcrowded[Sum] risk[Sum] 
0.0 NaN NaN NaN NaN NaN NaN NaN 
10.000337445961424 1267.0 150.0 4987.882727852135 0.5026912607657484 1497.0 0.0 1497.0 
20.000337445961424 1278.0 150.0 4987.877629063098 0.5027441951844234 1497.0 0.0 1497.0 
30.000337445961424 1278.0 150.0 4987.8725302740595 0.5027442476923062 1497.0 0.0 1497.0 
40.00033744596142 1278.0 150.0 4987.880178457616 0.502744272479731 1497.0 0.0 1497.0 
50.00033744596142 1308.0 152.0 4987.8036966220525 0.5027077593709196 1497.0 0.0 1497.0 
60.00033744596142 1303.0 151.0 4987.933715742512 0.5160372578882705 1497.0 0.0 1497.0 
70.00033744596142 1306.0 151.0 523.2071383046534 0.5024295870262477 64.0 1.0 41.0 
80.00033744596142 1310.0 151.0 523.1637985978336 0.5024522122348255 55.0 6.0 36.0 
90.00033744596142 1310.0 151.0 523.2275334608023 0.502452206823297 58.0 1.0 41.0 
100.00033744596142 1312.0 152.0 523.1841937539826 0.5024246870028123 57.0 2.0 40.0 
110.00033744596142 1310.0 151.0 523.2096876991718 0.5024521815681444 57.0 2.0 40.0 
120.00033744596142 1370.0 154.0 532.0305927342251 0.5019601681259978 60.0 0.0 45.0 
130.0003374459614 1348.0 154.0 532.0356915232638 0.5025171248110436 60.0 0.0 45.0 
140.0003374459614 1344.0 153.0 531.9847036328875 0.5025312862382724 59.0 1.0 44.0 
150.0003374459614 1344.0 153.0 532.0152963671125 0.5025313157081869 60.0 0.0 45.0 
160.0003374459614 1358.0 153.0 531.9923518164438 0.502780060362154 59.0 1.0 44.0 
170.0003374459614 1362.0 153.0 532.0076481835562 0.502841786295314 60.0 0.0 45.0 
180.0003374459614 1361.0 152.0 532.0025493945183 0.515298185124498 60.0 0.0 45.0 
190.0003374459614 1366.0 151.0 529.0936902485666 0.5028098837372379 60.0 0.0 44.0 
200.0003374459614 1370.0 151.0 529.0528999362652 0.5027963156881624 60.0 0.0 44.0 
210.0003374459614 1376.0 151.0 529.0834926704902 0.5047253323698316 60.0 0.0 44.0 
220.0003374459614 1370.0 151.0 529.0579987253033 0.5065021562436168 57.0 2.0 42.0 
230.0003374459614 1354.0 151.0 529.0630975143399 0.5195766054559385 60.0 0.0 44.0 
240.0003374459614 1314.0 150.0 529.0528999362652 0.5255042259802166 59.0 1.0 43.0 
250.0003374459614 1310.0 149.0 529.070745697896 0.5025469852454995 60.0 0.0 44.0 
260.0003374459614 1312.0 150.0 526.1185468451247 0.5025206299405318 59.0 1.0 42.0 
270.0003374459614 1314.0 151.0 526.103250478012 0.5024986953264321 59.0 1.0 42.0 
280.0003374459614 1316.0 151.0 520.2778840025494 0.5262455600404696 58.0 1.0 40.0 
290.0003374459614 1336.0 151.0 523.1994901210971 0.5035278699841232 59.0 1.0 41.0 
300.0003374459614 1336.0 151.0 523.1841937539828 0.5035278126395446 59.0 1.0 41.0 
310.0003374459614 1338.0 151.0 523.1892925430207 0.5035168950803923 59.0 1.0 41.0 
320.0003374459614 1338.0 151.0 523.186743148503 0.5035168821778936 59.0 1.0 41.0 
330.0003374459614 1344.0 152.0 523.1969407265769 0.5029616979161815 59.0 1.0 41.0 
340.0003374459614 1344.0 152.0 523.1943913320591 0.5029615899320973 59.0 1.0 41.0 
350.0003374459614 1344.0 152.0 523.1816443594641 0.5029616377907304 59.0 1.0 41.0 
360.0003374459614 1324.0 152.0 523.1892925430207 0.5038219578873387 58.0 1.0 41.0 
370.0003374459614 1306.0 151.0 523.2071383046534 0.5030576346063036 58.0 1.0 41.0 
380.0003374459614 1306.0 151.0 523.1816443594641 0.5024490257963208 58.0 1.0 41.0 
390.0003374459614 1306.0 151.0 523.1816443594641 0.5024490395317384 59.0 0.0 42.0 
400.0003374459614 1310.0 152.0 523.1994901210971 0.502435042912256 59.0 0.0 42.0 
410.0003374459614 1282.0 150.0 523.1918419375388 0.5026186149912746 58.0 1.0 41.0 
420.0003374459614 1282.0 150.0 523.1892925430207 0.5026185771559838 58.0 1.0 41.0 
430.0003374459614 1282.0 150.0 523.1841937539828 0.5026185873004769 59.0 0.0 42.0 
440.0003374459614 1280.0 150.0 523.1790949649461 0.5026789825479117 59.0 0.0 42.0 
450.0003374459614 1276.0 149.0 523.1892925430207 0.5026945259741118 58.0 1.0 41.0 
460.0003374459614 1280.0 150.0 523.1994901210971 0.5039484216782527 58.0 1.0 41.0 
470.0003374459614 1282.0 150.0 523.173996175908 0.5039719259147818 58.0 0.0 42.0 
480.0003374459614 1282.0 150.0 523.1918419375388 0.5040043274023438 58.0 0.0 42.0 
490.0003374459614 1278.0 150.0 523.2275334608022 0.503890928198985 57.0 1.0 41.0 
500.0003374459614 1278.0 151.0 523.2020395156158 0.503856627832963 57.0 1.0 41.0 
510.0003374459614 1278.0 153.0 526.1159974506046 0.503448784099674 57.0 1.0 42.0 
520.0003374459613 1277.0 153.0 526.0956022944558 0.5156366138303439 57.0 1.0 42.0 
530.0003374459613 1276.0 153.0 526.1083492670484 0.5033977998712923 57.0 1.0 42.0 
540.0003374459613 1274.0 152.0 526.0701083492665 0.5034359968730582 57.0 1.0 42.0 
550.0003374459613 1268.0 150.0 526.1007010834924 0.5031387373558281 57.0 1.0 42.0 
560.0003374459613 1264.0 150.0 526.1032504780119 0.5031626954442849 57.0 1.0 42.0 
570.0003374459613 1262.0 150.0 523.1561504142771 0.5038675512752875 57.0 1.0 41.0 
580.0003374459613 1256.0 149.0 523.1536010197569 0.5030351501770132 57.0 1.0 41.0 
590.0003374459613 1252.0 149.0 523.1561504142771 0.5030474327738815 57.0 1.0 41.0 
600.0003374459613 1250.0 149.0 523.1510516252395 0.5030112007503702 57.0 1.0 41.0 
610.0003374459613 1258.0 150.0 523.173996175908 0.5029139201935251 57.0 1.0 41.0 
620.0003374459613 1234.0 150.0 523.1383046526446 0.5027788032182252 57.0 1.0 41.0 
630.0003374459613 1254.0 150.0 526.0803059273412 0.5160062195274496 58.0 1.0 42.0 
640.0003374459613 1252.0 150.0 526.0981516889743 0.5034107727358961 58.0 1.0 42.0 
650.0003374459613 1264.0 151.0 523.1663479923518 0.5034064396705817 58.0 1.0 41.0 
660.0003374459613 1297.0 151.0 523.173996175908 0.5034467114627513 59.0 0.0 42.0 
#####################################################################
# End of data export. Simulation finished at: 2019-03-03T09:34+0000 #
#####################################################################
