#####################################################################
# Alchemist log file - simulation started at: 2019-03-05T03:41+0000 #
#####################################################################
# seed = 1.0, bandwidth = 17782.79410038923, accessPointCount = 72.92664737217109, baserange = 17.78279410038923
#
# The columns have the following meaning: 
# time neighbor_count[Sum] <value>@neighbor_count[Sum] packet_size[Mean] mean_delay[Mean] crowd[Sum] overcrowded[Sum] risk[Sum] 
0.0 NaN NaN NaN NaN NaN NaN NaN 
10.000417374280275 10.0 4.0 4986.998087954111 0.5988738992942212 1497.0 0.0 1497.0 
20.000417374280275 10.0 4.0 4986.985340981517 0.5983597586540473 1497.0 0.0 1497.0 
30.000417374280275 10.0 4.0 4986.995538559592 0.5986489627641453 1497.0 0.0 1497.0 
40.000417374280275 10.0 4.0 4986.959847036329 0.5986168289741362 1497.0 0.0 1497.0 
50.000417374280275 10.0 4.0 4986.990439770554 0.5983597586540483 1497.0 0.0 1497.0 
60.000417374280275 10.0 4.0 4986.995538559592 0.5986489627641467 1497.0 0.0 1497.0 
70.00041737428027 10.0 4.0 400.0 0.4678662099891215 3.0 0.0 0.0 
80.00041737428027 10.0 4.0 400.0 0.4678662099891215 2.0 0.0 0.0 
90.00041737428027 10.0 4.0 400.0 0.4678662099891215 0.0 0.0 0.0 
100.00041737428027 10.0 4.0 400.0 0.4678662099891215 0.0 0.0 0.0 
110.00041737428027 10.0 4.0 400.0 0.4678662099891215 0.0 0.0 0.0 
120.00041737428027 10.0 4.0 400.0 0.4678662099891215 0.0 0.0 0.0 
130.0004173742803 10.0 4.0 400.0 0.4678662099891215 0.0 0.0 0.0 
140.0004173742803 10.0 4.0 400.0 0.4678662099891215 0.0 0.0 0.0 
150.0004173742803 10.0 4.0 400.0 0.4678662099891215 0.0 0.0 0.0 
160.0004173742803 10.0 4.0 400.0 0.4678662099891215 0.0 0.0 0.0 
170.0004173742803 10.0 4.0 400.0 0.4678662099891215 0.0 0.0 0.0 
180.0004173742803 10.0 4.0 400.0 0.4678662099891215 0.0 0.0 0.0 
190.0004173742803 12.0 5.0 400.0 0.47000846265651336 0.0 0.0 0.0 
200.0004173742803 12.0 5.0 400.0 2.13667512932318 0.0 0.0 0.0 
210.0004173742803 12.0 5.0 400.0 4.358897351545403 0.0 0.0 0.0 
220.0004173742803 10.0 4.0 400.0 0.4678662099891215 0.0 0.0 0.0 
230.0004173742803 12.0 5.0 400.0 0.47000846265651336 0.0 0.0 0.0 
240.0004173742803 12.0 5.0 400.0 1.2477862404342912 0.0 0.0 0.0 
250.0004173742803 14.0 6.0 400.0 2.5862062677040867 0.0 0.0 0.0 
260.0004173742803 12.0 5.0 400.0 2.5811195737676402 0.0 0.0 0.0 
270.0004173742803 12.0 5.0 400.0 4.803341795989862 0.0 0.0 0.0 
280.0004173742803 10.0 4.0 400.0 0.4678662099891377 0.0 0.0 0.0 
290.0004173742803 10.0 4.0 400.0 0.4678662099891377 0.0 0.0 0.0 
300.0004173742803 10.0 4.0 400.0 0.4678662099891377 0.0 0.0 0.0 
310.0004173742803 10.0 4.0 400.0 0.4678662099891377 0.0 0.0 0.0 
320.0004173742803 10.0 4.0 400.0 0.4678662099891377 0.0 0.0 0.0 
330.0004173742803 12.0 5.0 400.0 0.47000846265653234 0.0 0.0 0.0 
340.0004173742803 12.0 5.0 400.0 1.1366751293231991 0.0 0.0 0.0 
350.0004173742803 12.0 5.0 400.0 3.358897351545421 0.0 0.0 0.0 
360.0004173742803 10.0 4.0 400.0 0.4678662099891377 0.0 0.0 0.0 
370.0004173742803 10.0 4.0 400.0 0.4678662099891377 0.0 0.0 0.0 
380.0004173742803 10.0 4.0 400.0 0.4678662099891377 0.0 0.0 0.0 
390.0004173742803 10.0 4.0 400.0 0.4678662099891377 0.0 0.0 0.0 
400.0004173742803 10.0 4.0 400.0 0.4678662099891377 0.0 0.0 0.0 
410.0004173742803 10.0 4.0 400.0 0.4678662099891377 0.0 0.0 0.0 
420.0004173742803 10.0 4.0 400.0 0.4678662099891377 0.0 0.0 0.0 
430.0004173742803 10.0 4.0 400.0 0.4678662099891377 0.0 0.0 0.0 
440.0004173742803 10.0 4.0 400.0 0.4678662099891377 0.0 0.0 0.0 
450.0004173742803 10.0 4.0 400.0 0.4678662099891377 0.0 0.0 0.0 
460.0004173742803 10.0 4.0 400.0 0.4678662099891377 0.0 0.0 0.0 
470.0004173742803 10.0 4.0 400.0 0.4678662099891377 0.0 0.0 0.0 
480.0004173742803 10.0 4.0 400.0 0.4678662099891377 0.0 0.0 0.0 
490.0004173742803 10.0 4.0 400.0 0.4678662099891377 0.0 0.0 0.0 
500.0004173742803 10.0 4.0 400.0 0.4678662099891377 0.0 0.0 0.0 
510.0004173742803 10.0 4.0 400.0 0.4678662099891377 0.0 0.0 0.0 
520.0004173742802 10.0 4.0 400.0 0.46786620998916206 0.0 0.0 0.0 
530.0004173742802 10.0 4.0 400.0 0.46786620998916206 0.0 0.0 0.0 
540.0004173742802 10.0 4.0 400.0 0.46786620998916206 0.0 0.0 0.0 
550.0004173742802 10.0 4.0 400.0 0.46786620998916206 0.0 0.0 0.0 
560.0004173742802 10.0 4.0 400.0 0.46786620998916206 0.0 0.0 0.0 
570.0004173742802 10.0 4.0 400.0 0.46786620998916206 0.0 0.0 0.0 
580.0004173742802 10.0 4.0 400.0 0.46786620998916206 0.0 0.0 0.0 
590.0004173742802 10.0 4.0 400.0 0.46786620998916206 0.0 0.0 0.0 
600.0004173742802 10.0 4.0 400.0 0.46786620998916206 0.0 0.0 0.0 
610.0004173742802 10.0 4.0 400.0 0.46786620998916206 0.0 0.0 0.0 
620.0004173742802 10.0 4.0 400.0 0.46786620998916206 0.0 0.0 0.0 
630.0004173742802 10.0 4.0 400.0 0.46786620998916206 0.0 0.0 0.0 
640.0004173742802 10.0 4.0 400.0 0.46786620998916206 0.0 0.0 0.0 
650.0004173742802 10.0 4.0 400.0 0.46786620998916206 0.0 0.0 0.0 
660.0004173742802 10.0 4.0 400.0 0.46786620998916206 0.0 0.0 0.0 
#####################################################################
# End of data export. Simulation finished at: 2019-03-05T03:47+0000 #
#####################################################################
