#####################################################################
# Alchemist log file - simulation started at: 2019-03-05T13:28+0000 #
#####################################################################
# seed = 8.0, bandwidth = 74989.42093324558, accessPointCount = 2000.0, baserange = 316.2277660168379
#
# The columns have the following meaning: 
# time neighbor_count[Sum] <value>@neighbor_count[Sum] packet_size[Mean] mean_delay[Mean] crowd[Sum] overcrowded[Sum] risk[Sum] 
0.0 NaN NaN NaN NaN NaN NaN NaN 
2.00019045694282 8605.0 7848.0 4974.993422933943 0.419015488569596 1497.0 0.0 1497.0 
4.0000216281887555 17985.0 16016.0 4978.491278238491 0.6541192183249696 1497.0 0.0 1497.0 
6.000198348008885 20059.0 16524.0 4979.509293680298 0.8044572658768755 1497.0 0.0 1497.0 
8.000354102472555 21518.0 16683.0 4980.041178152702 0.851640232179296 1497.0 0.0 1497.0 
10.000354102472555 22687.0 16722.0 4980.844152130398 0.8535478598016011 1497.0 0.0 1497.0 
12.000354102472555 23290.0 16659.0 4981.871318272804 0.877099559143709 1497.0 0.0 1497.0 
14.000354102472555 22600.0 16468.0 4981.41835859308 0.7849683811908762 1495.0 2.0 1495.0 
16.000198348008887 22116.0 16364.0 4981.617386331141 0.6819890295010258 1493.0 4.0 1493.0 
18.000354102472556 22114.0 16364.0 4981.571632828139 0.6912508349999692 1487.0 10.0 1487.0 
20.000354102472556 22114.0 16364.0 4981.164426651416 0.6863841990410569 1482.0 15.0 1482.0 
22.000354102472556 22137.0 16367.0 4980.934515298827 0.6821408455726403 1482.0 15.0 1482.0 
24.000354102472556 22160.0 16368.0 4981.538461538462 0.6959393369107255 1480.0 17.0 1480.0 
26.000198348008887 22158.0 16368.0 4980.71375464684 0.6885894061361668 1482.0 15.0 1482.0 
28.000354102472556 22148.0 16367.0 4981.319988561625 0.6832360412073021 1483.0 14.0 1483.0 
30.000354102472556 22144.0 16366.0 4981.2479267943945 0.6918615201778817 1479.0 18.0 1479.0 
32.000354102472556 22156.0 16366.0 4980.943665999428 0.6858613043323921 1477.0 20.0 1477.0 
34.000354102472556 22184.0 16370.0 4980.891049470975 0.6851150744879856 1477.0 20.0 1477.0 
36.00019834800889 22175.0 16371.0 4981.378324277952 0.6975047584614997 1474.0 23.0 1474.0 
38.000354102472556 22155.0 16370.0 4980.769802688019 0.6885797354745254 1480.0 17.0 1480.0 
40.000354102472556 22151.0 16367.0 4981.158707463541 0.6878498702968832 1481.0 16.0 1481.0 
42.000354102472556 22150.0 16366.0 4981.197597941093 0.6928550904490075 1479.0 18.0 1479.0 
44.000354102472556 22183.0 16367.0 4980.967686588505 0.6866217149924818 1481.0 16.0 1481.0 
46.00019834800889 22192.0 16370.0 4980.809837003146 0.685448518297053 1481.0 16.0 1481.0 
48.000354102472556 22159.0 16368.0 4981.32799542465 0.6939889829179786 1479.0 18.0 1479.0 
50.000354102472556 22152.0 16367.0 4980.613096940234 0.6852677541871875 1480.0 17.0 1480.0 
52.000354102472556 22198.0 16371.0 4981.067200457535 0.6866797873200838 1480.0 17.0 1480.0 
54.000354102472556 22217.0 16372.0 4981.125536173864 0.6997271767974763 1479.0 18.0 1479.0 
56.00019834800889 22204.0 16373.0 4980.974549613955 0.6918096048912434 1476.0 21.0 1476.0 
58.000354102472556 22164.0 16372.0 4980.8807549328 0.690054352408576 1478.0 19.0 1478.0 
60.000354102472556 22161.0 16373.0 4980.173863311409 0.7021570462665088 1477.0 20.0 1477.0 
62.0000849495033 22184.0 16373.0 837.1701458392793 0.5791705720379279 839.0 16.0 316.0 
64.00008494950329 22200.0 16370.0 838.2224764083488 0.5630481043935628 601.0 18.0 315.0 
66.00008494950329 22179.0 16370.0 839.5436088075692 0.5586117087095105 518.0 22.0 312.0 
68.00008494950329 22176.0 16371.0 839.4749785530496 0.5535526530492577 476.0 21.0 313.0 
70.00008494950329 22198.0 16373.0 838.0989419502423 0.5641641094623272 443.0 32.0 301.0 
72.00008494950329 22176.0 16370.0 838.0623391478598 0.5604839708593924 433.0 28.0 305.0 
74.00008494950329 22183.0 16368.0 838.0817843866083 0.5539762975138776 433.0 24.0 309.0 
76.00008494950329 22194.0 16372.0 835.471547040333 0.5637003635346678 432.0 18.0 313.0 
78.00008494950329 22160.0 16371.0 835.4429511009287 0.5602701285616474 424.0 19.0 312.0 
80.00008494950329 22166.0 16372.0 835.4212181870325 0.5566510424774717 419.0 20.0 311.0 
82.00008494950329 22176.0 16369.0 835.3937660852 0.5615653374146399 415.0 23.0 308.0 
84.00008494950329 22178.0 16369.0 835.3754646840217 0.5579188403361172 412.0 24.0 307.0 
86.00008494950329 22227.0 16371.0 836.686302545053 0.5575930591816125 411.0 23.0 309.0 
88.00008494950329 22213.0 16369.0 836.6657134686914 0.5631652986635962 411.0 21.0 311.0 
90.00008494950329 22160.0 16368.0 836.6680011438322 0.5566211025525915 408.0 21.0 311.0 
92.00008494950329 22183.0 16371.0 836.6394052044703 0.5563544345200633 407.0 22.0 310.0 
94.00008494950329 22190.0 16370.0 839.2587932513603 0.5610808612835124 411.0 20.0 314.0 
96.00008494950329 22170.0 16369.0 840.6062339148004 0.5584764347430515 414.0 19.0 316.0 
98.00008494950329 22168.0 16370.0 843.2587932513603 0.5559777712144137 413.0 20.0 317.0 
100.00008494950329 22213.0 16374.0 844.5341721475684 0.5638527449604236 409.0 24.0 314.0 
102.00008494950329 22206.0 16375.0 843.1867314841228 0.5664263566210441 410.0 25.0 312.0 
104.00008494950329 22121.0 16371.0 843.2153274234901 0.5586794944150919 412.0 23.0 314.0 
106.00008494950329 22091.0 16368.0 841.8793251358205 0.5598524701496104 413.0 20.0 316.0 
108.00008494950329 22111.0 16368.0 841.87818129825 0.5581177754815023 411.0 19.0 317.0 
110.00008494950329 22112.0 16372.0 841.8896196740247 0.5568665213289585 408.0 21.0 315.0 
112.00008494950329 22095.0 16371.0 841.8530168715996 0.5607505375975901 406.0 23.0 313.0 
114.00008494950329 22110.0 16373.0 841.8941950243128 0.5605395377925279 406.0 23.0 313.0 
116.00008494950329 22140.0 16375.0 841.8907635115963 0.5585423577934694 407.0 22.0 314.0 
118.00008494950329 22167.0 16374.0 841.9044895624739 0.5653288764991511 407.0 22.0 314.0 
120.00008494950329 22131.0 16370.0 840.5902201887416 0.562731258693398 408.0 22.0 313.0 
122.00008494950329 22096.0 16370.0 839.2713754646636 0.5558244995243664 409.0 21.0 313.0 
124.00008494950329 22112.0 16373.0 837.9696883042774 0.5631422325513284 409.0 20.0 313.0 
126.00008494950329 22127.0 16374.0 836.6245353159783 0.5641210133702277 411.0 18.0 314.0 
128.0000849495033 22102.0 16371.0 835.299971404072 0.5590735368693044 410.0 19.0 312.0 
130.0000849495033 22100.0 16370.0 836.6428367171826 0.5610973537865575 407.0 19.0 313.0 
132.0000849495033 22129.0 16373.0 836.6805833571794 0.5633735110065273 405.0 19.0 313.0 
134.0000849495033 22092.0 16372.0 834.0314555333092 0.5594198276087033 402.0 19.0 311.0 
136.0000849495033 22063.0 16371.0 834.0406062339267 0.5653706143181728 399.0 21.0 309.0 
138.0000849495033 22076.0 16370.0 834.0497569345135 0.5577292166823424 398.0 22.0 308.0 
140.0000849495033 22146.0 16373.0 835.3388618815967 0.5578771824720837 400.0 21.0 310.0 
142.0000849495033 22122.0 16373.0 838.0108664569478 0.5663844837964452 400.0 20.0 313.0 
144.0000849495033 22093.0 16370.0 839.3011152416437 0.5606305439455379 398.0 23.0 311.0 
146.0000849495033 22117.0 16373.0 839.3102659422307 0.5569983743331656 393.0 28.0 306.0 
148.0000849495033 22107.0 16370.0 840.6325421790212 0.5624311031489277 398.0 24.0 311.0 
150.0000849495033 22117.0 16368.0 840.5673434372343 0.5598444140432429 404.0 21.0 314.0 
152.0000849495033 22116.0 16370.0 840.6119531026751 0.5551063746445964 407.0 21.0 314.0 
154.0000849495033 22117.0 16372.0 839.2953960537425 0.5606479169690852 404.0 25.0 309.0 
156.0000849495033 22107.0 16371.0 839.3377180440251 0.5606028039178097 405.0 24.0 310.0 
158.0000849495033 22100.0 16371.0 839.3319988561677 0.5569058966465465 405.0 23.0 311.0 
160.0000849495033 22110.0 16370.0 839.2530740634865 0.5605798819463691 406.0 23.0 311.0 
162.0000849495033 22129.0 16371.0 839.2668001143759 0.5651336441659632 410.0 21.0 313.0 
164.0000849495033 22112.0 16369.0 839.2748069774226 0.5581910532675066 410.0 21.0 313.0 
166.0000849495033 22119.0 16369.0 837.936517014569 0.5631028807734878 408.0 22.0 311.0 
168.0000849495033 22093.0 16366.0 837.9502430654865 0.5600808236640646 412.0 19.0 314.0 
170.0000849495033 22117.0 16367.0 839.2976837289261 0.5565852844254132 411.0 19.0 315.0 
172.0000849495033 22164.0 16374.0 839.2873891907259 0.5671952448239025 407.0 24.0 310.0 
174.0000849495033 22146.0 16374.0 839.2713754646638 0.5678413122623492 408.0 25.0 309.0 
176.0000849495033 22069.0 16369.0 839.2473548756271 0.5591653890981967 411.0 22.0 312.0 
178.0000849495033 22029.0 16367.0 839.2668001143759 0.5599917745080496 410.0 22.0 312.0 
180.0000849495033 22037.0 16367.0 839.2725193022768 0.5613872365581206 411.0 19.0 315.0 
182.0000849495033 22040.0 16369.0 839.2324849871394 0.5589703588458594 413.0 19.0 315.0 
184.0000849495033 22011.0 16366.0 839.2187589362189 0.5617002396157188 412.0 19.0 315.0 
186.0000849495033 22012.0 16365.0 839.2210466113646 0.5590451899029232 412.0 19.0 315.0 
188.0000849495033 22003.0 16365.0 839.2347726622811 0.5548389789453765 412.0 19.0 315.0 
190.0000849495033 22001.0 16364.0 837.8884758364118 0.5598318740159886 410.0 21.0 312.0 
192.0000849495033 22013.0 16368.0 837.8987703746157 0.5620730059295254 411.0 22.0 311.0 
194.0000849495033 22012.0 16369.0 837.8873319988404 0.5594034076624753 413.0 21.0 312.0 
196.0000849495033 22004.0 16366.0 836.5753503002502 0.5629309115495174 414.0 20.0 312.0 
198.0000849495033 22009.0 16367.0 837.8873319988406 0.564439373411206 411.0 24.0 309.0 
200.0000849495033 22044.0 16369.0 839.2221904489353 0.5581821688526503 410.0 27.0 307.0 
202.0000849495033 22061.0 16373.0 839.2233342865478 0.570074821751717 412.0 27.0 307.0 
204.0000849495033 22025.0 16370.0 839.1890191592687 0.5656980434519581 406.0 33.0 301.0 
206.0000849495033 22009.0 16366.0 839.2130397483478 0.5603571769351069 411.0 28.0 306.0 
208.0000849495033 21998.0 16364.0 837.9193594509616 0.5616581532399259 407.0 29.0 304.0 
210.0000849495033 22008.0 16366.0 837.9010580497577 0.5613235205323014 406.0 30.0 303.0 
212.0000849495033 21979.0 16364.0 836.5856448384382 0.5543530419850359 407.0 30.0 302.0 
214.0000849495033 21992.0 16365.0 835.303402916801 0.5596089550415188 403.0 32.0 299.0 
216.0000849495033 21996.0 16366.0 835.2576494137888 0.5585905332443766 398.0 35.0 296.0 
218.0000849495033 22000.0 16366.0 836.6176722905329 0.5521276436948096 393.0 37.0 295.0 
220.0000849495033 22039.0 16367.0 837.9090649127746 0.56114188696736 394.0 35.0 298.0 
222.0000849495033 22065.0 16370.0 839.2084643980612 0.5646206410605769 395.0 35.0 299.0 
224.0000849495033 22041.0 16370.0 840.5421790105846 0.5621918762030982 396.0 36.0 299.0 
226.0000849495033 22008.0 16367.0 839.2096082356318 0.5660882739585826 393.0 39.0 295.0 
228.0000849495033 21996.0 16365.0 839.2107520732022 0.5600745147762757 392.0 40.0 294.0 
230.0000849495033 22009.0 16371.0 843.1512725193159 0.5589879997034974 395.0 39.0 298.0 
232.0000849495033 21986.0 16372.0 841.8370031455411 0.566044909440322 398.0 38.0 298.0 
234.0000849495033 21980.0 16371.0 837.8495853588875 0.5640392861604803 399.0 34.0 299.0 
236.0000849495033 22029.0 16372.0 835.275950814993 0.5588775272637807 399.0 34.0 297.0 
238.0000849495033 22042.0 16372.0 835.2530740634862 0.5657916860551983 401.0 32.0 299.0 
240.0000849495033 22028.0 16373.0 835.2530740634862 0.5641234653519438 404.0 28.0 303.0 
242.0000849495033 21999.0 16370.0 833.9330855018526 0.5586105906522784 404.0 28.0 302.0 
244.0000849495033 21988.0 16371.0 831.3034029168009 0.5605897107394279 403.0 30.0 298.0 
246.0000849495033 21996.0 16372.0 831.2862453531513 0.5622310414462639 400.0 33.0 295.0 
248.0000849495033 21998.0 16371.0 831.3034029168009 0.5584037241522193 401.0 30.0 298.0 
250.0000849495033 21945.0 16370.0 832.6050900772294 0.5639405064727655 401.0 29.0 300.0 
252.0000849495033 21961.0 16373.0 835.2382041749975 0.5620072097618259 404.0 27.0 304.0 
254.0000849495033 22016.0 16374.0 835.2324849871394 0.5586971946362329 402.0 28.0 303.0 
256.0000849495033 22008.0 16373.0 835.2359164998516 0.5644492334959038 404.0 28.0 303.0 
258.0000849495033 21979.0 16371.0 835.2473548756271 0.5606448719361594 401.0 28.0 303.0 
260.0000849495033 21972.0 16372.0 835.2244781241193 0.5566191808332785 399.0 28.0 303.0 
262.0000849495033 22004.0 16375.0 833.9273663139775 0.5664169034873612 398.0 30.0 300.0 
264.0000849495033 21997.0 16375.0 833.9502430654865 0.567309016647536 398.0 30.0 300.0 
266.0000849495033 21955.0 16370.0 835.2496425507692 0.5594612882830051 398.0 29.0 302.0 
268.0000849495033 21985.0 16371.0 833.949099227916 0.5624415620183181 400.0 28.0 302.0 
270.0000849495033 22010.0 16374.0 835.2668001143757 0.5661049471594362 410.0 21.0 310.0 
272.0000849495033 21951.0 16372.0 835.2828138404394 0.5610489656035836 409.0 20.0 311.0 
274.0000849495033 21964.0 16374.0 836.5845010008672 0.5675254408046506 409.0 20.0 312.0 
276.0000849495033 21971.0 16376.0 837.8964826994697 0.5667352363477788 407.0 20.0 313.0 
278.0000849495033 21944.0 16374.0 835.2301973119944 0.5613148302006958 408.0 20.0 311.0 
280.0000849495033 21941.0 16372.0 837.906777237616 0.5680206933180204 405.0 22.0 311.0 
282.0000849495033 21897.0 16373.0 840.5032885330173 0.5655457351094636 406.0 23.0 312.0 
284.0000849495033 21887.0 16373.0 839.2073205604897 0.558851768963459 401.0 27.0 307.0 
286.0000849495033 21902.0 16373.0 837.8930511867411 0.5686044967398245 398.0 29.0 304.0 
288.0000849495033 21886.0 16372.0 837.8827566485522 0.566075316102689 399.0 27.0 306.0 
290.0000849495033 21928.0 16374.0 837.8472976837423 0.562753026907677 401.0 28.0 305.0 
292.0000849495033 21891.0 16371.0 837.8701744352336 0.5637565017528441 400.0 28.0 305.0 
294.0000849495033 21893.0 16373.0 839.1547040320447 0.5601789581962612 398.0 28.0 306.0 
296.0000849495033 21908.0 16375.0 839.1844438089823 0.556227596159205 398.0 28.0 306.0 
298.0000849495033 21912.0 16376.0 836.5707749499466 0.5651796348693299 391.0 30.0 302.0 
300.0000849495033 21903.0 16373.0 837.8793251358206 0.5630085571210609 390.0 31.0 302.0 
302.0000849495033 21930.0 16377.0 837.8678867600914 0.5603628662002172 393.0 30.0 303.0 
304.0000849495033 21954.0 16380.0 835.2118959107735 0.5717178331195996 397.0 29.0 302.0 
306.0000849495033 21963.0 16379.0 836.5501858736005 0.5743804308239581 399.0 27.0 305.0 
308.0000849495033 21926.0 16374.0 836.5639119245177 0.5579154343932929 398.0 28.0 304.0 
310.0000849495033 21930.0 16378.0 836.530740634809 0.5671972222152665 399.0 28.0 304.0 
312.0000849495033 21906.0 16374.0 836.5581927366433 0.5678880754702897 399.0 28.0 304.0 
314.0000849495033 21866.0 16374.0 836.5467543608713 0.5615571820014258 394.0 28.0 304.0 
316.0000849495033 21854.0 16373.0 833.9067772376161 0.5656981334957105 393.0 30.0 300.0 
318.0000849495033 21886.0 16373.0 832.598227051742 0.5654418289796092 389.0 31.0 298.0 
320.0000849495033 21894.0 16372.0 831.2988275664976 0.5617286005669749 387.0 30.0 298.0 
322.0000849495033 21865.0 16372.0 830.0040034315017 0.5629111750224197 388.0 29.0 298.0 
324.0000849495033 21904.0 16372.0 829.970832141849 0.5613725949188036 389.0 28.0 299.0 
326.0000849495033 21912.0 16373.0 828.6691449814037 0.5572544500514234 388.0 27.0 299.0 
328.0000849495033 21934.0 16374.0 829.9742636545652 0.5663956009298385 389.0 27.0 300.0 
330.0000849495033 21948.0 16372.0 829.9628252787899 0.5681818776112273 388.0 27.0 300.0 
332.0000849495033 21954.0 16373.0 829.997140406073 0.5615295115719039 388.0 26.0 301.0 
334.0000849495033 21943.0 16372.0 832.6142407778209 0.5683800512729513 387.0 28.0 301.0 
336.0000849495033 21877.0 16370.0 833.9353731769982 0.5633658399008219 392.0 24.0 306.0 
338.0000849495033 21840.0 16368.0 832.6474120674708 0.5555240083558308 397.0 21.0 308.0 
340.0000849495033 21838.0 16369.0 828.6782956819952 0.5633299689814808 397.0 20.0 306.0 
342.0000849495033 21852.0 16369.0 830.0142979697025 0.5606751619518643 399.0 18.0 309.0 
344.0000849495033 21889.0 16372.0 829.9719759794194 0.5591200285029655 399.0 19.0 308.0 
346.0000849495033 21873.0 16370.0 829.9879897054814 0.5661748186188665 399.0 19.0 308.0 
348.0000849495033 21870.0 16371.0 829.9925650557692 0.5610439144358664 398.0 19.0 308.0 
350.0000849495033 21862.0 16371.0 829.9719759794194 0.5587129995686425 397.0 20.0 307.0 
352.0000849495033 21826.0 16369.0 829.9845581927271 0.564063228925736 396.0 21.0 306.0 
354.0000849495033 21837.0 16373.0 829.9742636545652 0.5623603655420301 396.0 22.0 305.0 
356.0000849495033 21843.0 16373.0 829.9822705175812 0.5636480250005541 397.0 21.0 306.0 
358.0000849495033 21800.0 16368.0 829.9776951672778 0.5620890567497046 397.0 21.0 306.0 
360.0000849495033 21833.0 16371.0 829.9593937660736 0.5617471287733661 402.0 18.0 309.0 
362.0000849495033 21856.0 16371.0 829.9708321418489 0.5627672097262689 405.0 19.0 308.0 
364.0000849495033 21847.0 16371.0 824.6531312553458 0.5683159498619733 404.0 20.0 303.0 
366.0000849495033 21871.0 16374.0 826.0040034315018 0.565743781729479 402.0 22.0 302.0 
368.0000849495033 21830.0 16369.0 826.0463254218015 0.5606297708422958 400.0 22.0 302.0 
370.0000849495033 21804.0 16369.0 820.753788961985 0.562588394902338 398.0 24.0 296.0 
372.0000849495033 21817.0 16373.0 822.073777523593 0.5645478023229689 398.0 26.0 295.0 
374.0000849495033 21816.0 16375.0 822.073777523593 0.5630465932926192 403.0 22.0 299.0 
376.0000849495033 21767.0 16371.0 822.0852158993263 0.5663849415706561 402.0 24.0 297.0 
378.0000849495033 21798.0 16369.0 824.7091792965451 0.5600953343846992 402.0 22.0 301.0 
380.0000849495033 21832.0 16373.0 824.6828710323236 0.5578564774526895 401.0 23.0 300.0 
382.0000849495033 21823.0 16371.0 824.6771518444237 0.5644849975095262 400.0 23.0 300.0 
384.0000849495033 21845.0 16372.0 826.0017157563566 0.5643723904436098 398.0 24.0 300.0 
386.0000849495033 21815.0 16375.0 824.6920217329109 0.5635521662763275 400.0 23.0 300.0 
388.0000849495033 21822.0 16376.0 824.690877895341 0.5694236110469975 398.0 24.0 299.0 
390.0000849495033 21850.0 16377.0 826.0165856448476 0.5670095513187073 398.0 23.0 301.0 
392.0000849495033 21774.0 16370.0 826.032599370881 0.5555447490502823 398.0 22.0 302.0 
394.0000849495033 21773.0 16369.0 824.7114669717034 0.5607918571766434 401.0 20.0 303.0 
396.0000849495033 21769.0 16373.0 823.3914784100543 0.5603081002553265 404.0 18.0 304.0 
398.0000849495033 21814.0 16376.0 824.724049185007 0.555723672740817 408.0 19.0 304.0 
400.0000849495033 21846.0 16378.0 823.4200743494619 0.5666108222849714 406.0 19.0 303.0 
402.0000849495033 21835.0 16374.0 826.047469259372 0.5622203646849281 410.0 19.0 305.0 
404.0000849495033 21860.0 16375.0 827.3331426937384 0.5610836295358385 411.0 19.0 306.0 
406.0000849495033 21861.0 16374.0 824.738919073498 0.5688267288375891 409.0 21.0 302.0 
408.0000849495033 21841.0 16374.0 826.0417500714981 0.5667272485375109 408.0 22.0 302.0 
410.0000849495033 21867.0 16376.0 826.0428939090685 0.5655683148573529 408.0 21.0 303.0 
412.0000849495033 21856.0 16372.0 827.3686016585496 0.5662472971321094 408.0 20.0 305.0 
414.0000849495033 21843.0 16371.0 824.7229053474356 0.5573668889210887 408.0 18.0 305.0 
416.0000849495033 21881.0 16377.0 823.4132113239749 0.5595119294327582 405.0 20.0 302.0 
418.0000849495033 21901.0 16377.0 823.4040606233999 0.5700660187044359 405.0 20.0 302.0 
420.0000849495033 21918.0 16377.0 822.1069488132595 0.5684314792718048 404.0 20.0 301.0 
422.0000849495033 21848.0 16370.0 820.7926794395104 0.5578744846707197 403.0 20.0 300.0 
424.0000849495033 21848.0 16368.0 820.796110952227 0.563927783593601 404.0 22.0 298.0 
426.0000849495033 21858.0 16374.0 823.4166428367039 0.5635475869020918 402.0 23.0 299.0 
428.0000849495033 21797.0 16368.0 823.3983414355289 0.5570301315481585 404.0 22.0 300.0 
430.0000849495033 21800.0 16368.0 823.4074921361163 0.5596284224056562 403.0 21.0 301.0 
432.0000849495033 21794.0 16368.0 823.3891907349122 0.5619034699602498 405.0 19.0 303.0 
434.0000849495033 21781.0 16367.0 826.0085787818023 0.556719485736415 407.0 20.0 304.0 
436.0000849495033 21770.0 16368.0 827.3114097798011 0.5614656060889595 411.0 20.0 305.0 
438.0000849495033 21764.0 16367.0 824.7091792965451 0.5593926123002323 409.0 20.0 303.0 
440.0000849495033 21786.0 16367.0 826.05318844723 0.5543228339117887 407.0 20.0 304.0 
442.0000849495033 21835.0 16371.0 832.6531312553453 0.5654702874656464 405.0 22.0 307.0 
444.0000849495033 21830.0 16371.0 834.0097226193765 0.5665854278578599 405.0 23.0 307.0 
446.0000849495033 21815.0 16369.0 835.2713754646638 0.5591312440033094 408.0 22.0 309.0 
448.0000849495033 21792.0 16370.0 833.965112953974 0.5615339953672093 413.0 21.0 309.0 
450.0000849495033 21819.0 16371.0 835.2347726622811 0.5637852515858078 419.0 19.0 312.0 
452.0000849495033 21815.0 16369.0 835.2130397483478 0.5578277191555038 416.0 21.0 310.0 
454.0000849495033 21805.0 16369.0 837.8644552473751 0.5625191454164704 420.0 20.0 313.0 
456.0000849495033 21827.0 16370.0 836.5010008578718 0.562826823228216 423.0 20.0 312.0 
458.0000849495033 21826.0 16369.0 837.8553045467454 0.5563480605059744 423.0 20.0 313.0 
460.0000849495033 21836.0 16371.0 839.1615670574735 0.5632810204034691 421.0 22.0 312.0 
462.0000849495033 21821.0 16371.0 836.5090077209145 0.5632031718478652 420.0 23.0 309.0 
464.0000849495033 21824.0 16374.0 836.4769802687937 0.5590215779471445 424.0 22.0 310.0 
466.0000849495033 21792.0 16374.0 837.8038318558708 0.5645703286484417 425.0 22.0 311.0 
468.0000849495033 21819.0 16374.0 837.784386617096 0.5625800236715036 425.0 20.0 313.0 
470.0000849495033 21800.0 16372.0 836.4849871318395 0.560242591850002 422.0 20.0 312.0 
472.0000849495033 21776.0 16368.0 835.1512725193156 0.5562632463821076 423.0 20.0 311.0 
474.0000849495033 21802.0 16375.0 835.1535601944582 0.5622435068890825 423.0 20.0 311.0 
476.0000849495033 21784.0 16372.0 835.1512725193157 0.5626988475313681 422.0 21.0 310.0 
478.0000849495033 21725.0 16369.0 836.4552473548606 0.5600347473628766 419.0 24.0 308.0 
480.0000849495033 21748.0 16370.0 835.1832999714107 0.5602072147620392 418.0 24.0 307.0 
482.0000849495033 21748.0 16369.0 829.9285101515492 0.5573352977071392 419.0 23.0 304.0 
484.0000849495033 21739.0 16372.0 829.9250786388366 0.5632944910232791 421.0 22.0 305.0 
486.0000849495033 21711.0 16371.0 829.8964826994696 0.5635774946345509 422.0 20.0 307.0 
488.0000849495033 21683.0 16370.0 828.551329711172 0.5534096964741937 420.0 21.0 305.0 
490.0000849495033 21714.0 16373.0 831.2244781241193 0.5623173979907875 419.0 21.0 307.0 
492.0000849495033 21717.0 16374.0 832.5513297111717 0.5635210742004185 419.0 21.0 308.0 
494.0000849495033 21724.0 16377.0 833.8507291964588 0.5615506962271161 420.0 21.0 309.0 
496.0000849495033 21732.0 16376.0 832.5273091220927 0.5707550572555794 419.0 23.0 306.0 
498.0000849495033 21733.0 16369.0 832.5090077209145 0.5599815877041716 420.0 24.0 305.0 
500.0000849495033 21782.0 16373.0 832.5410351730133 0.5582035633571819 422.0 23.0 306.0 
502.0000849495033 21761.0 16373.0 832.5158707463637 0.5661751031540844 423.0 22.0 307.0 
504.0000849495033 21772.0 16374.0 828.5467543608714 0.5615683989773856 423.0 20.0 306.0 
506.0000849495033 21760.0 16371.0 829.8896196740242 0.5579073785398561 423.0 21.0 306.0 
508.0000849495033 21771.0 16368.0 831.1935945095692 0.5594780738706597 424.0 20.0 308.0 
510.0000849495033 21791.0 16370.0 832.5158707463636 0.5591169591233963 425.0 21.0 308.0 
512.0000849495033 21826.0 16372.0 831.2199027737929 0.5551438764148869 426.0 23.0 305.0 
514.0000849495034 21826.0 16373.0 825.9879897054813 0.5638824518895448 425.0 24.0 300.0 
516.0000849495034 21813.0 16371.0 825.9285101515492 0.5638022362220115 414.0 27.0 297.0 
518.0000849495034 21809.0 16373.0 823.3239919931465 0.559164120967307 410.0 26.0 296.0 
520.0000849495034 21816.0 16374.0 823.3480125822258 0.5666615416114632 405.0 25.0 297.0 
522.0000849495034 21811.0 16377.0 819.4326565627657 0.5666166432517971 406.0 23.0 296.0 
524.0000849495034 21794.0 16373.0 814.141263940525 0.5599174649133255 403.0 23.0 292.0 
526.0000849495034 21791.0 16374.0 810.1835859307834 0.5620595842249876 398.0 23.0 289.0 
528.0000849495034 21789.0 16378.0 810.1973119816996 0.5625326581154687 399.0 23.0 289.0 
530.0000849495034 21809.0 16376.0 810.1893051186817 0.5560353371017903 397.0 22.0 290.0 
532.0000849495034 21789.0 16374.0 811.526451243936 0.5595872744882592 398.0 22.0 291.0 
534.0000849495034 21775.0 16371.0 811.5127251930194 0.558419466884698 395.0 23.0 290.0 
536.0000849495034 21780.0 16371.0 810.1904489562535 0.5531701099586656 393.0 22.0 290.0 
538.0000849495034 21844.0 16375.0 810.1881612811073 0.5582376959843929 397.0 21.0 291.0 
540.0000849495034 21863.0 16379.0 810.1927366314113 0.5614829475259081 400.0 19.0 293.0 
542.0000849495034 21847.0 16378.0 807.5687732342172 0.5617445200311008 402.0 20.0 290.0 
544.0000531974291 21820.0 16372.0 807.572204746934 0.5588924343915966 403.0 20.0 290.0 
546.0000531974291 21847.0 16374.0 808.892193308542 0.558679718603109 403.0 20.0 291.0 
548.0000531974291 21844.0 16375.0 810.2270517586372 0.5567132309228414 403.0 20.0 292.0 
550.0000531974291 21876.0 16376.0 810.2144695453314 0.5631400710847484 402.0 22.0 290.0 
552.0000531974291 21906.0 16378.0 815.5138690305895 0.5599459583064178 404.0 24.0 292.0 
554.0000531974291 21912.0 16376.0 814.1995996568413 0.5575958113197758 404.0 25.0 290.0 
556.0000531974291 21899.0 16371.0 812.8475836431143 0.5598855297050654 405.0 22.0 292.0 
558.0000531974291 21879.0 16371.0 814.1870174435373 0.5574441561351543 409.0 19.0 296.0 
560.0000531974291 21924.0 16376.0 814.1995996568413 0.5571153521587902 408.0 19.0 296.0 
562.0000531974291 21899.0 16377.0 815.5367457820814 0.5656026536414209 406.0 19.0 297.0 
564.0000531974291 21938.0 16380.0 815.5150128681612 0.566070676612656 407.0 19.0 297.0 
566.0000531974291 21936.0 16380.0 816.8475836431141 0.5649827633546955 404.0 19.0 298.0 
568.0000531974291 21867.0 16375.0 816.8395767800969 0.5669760058565485 406.0 21.0 296.0 
570.0000531974291 21863.0 16378.0 818.1263940520337 0.5639050998801323 406.0 22.0 296.0 
572.0000531974291 21894.0 16379.0 819.4623963397034 0.5613555187179537 406.0 21.0 298.0 
574.0000849495034 21916.0 16382.0 820.7240491850073 0.5695845182398412 408.0 20.0 300.0 
576.0000849495034 21886.0 16380.0 819.4841292536363 0.5707117802355485 409.0 18.0 301.0 
578.0000849495034 21826.0 16375.0 819.4452387761113 0.5562062016292348 408.0 19.0 300.0 
580.0000849495034 21839.0 16374.0 819.4326565627656 0.5625985468742885 411.0 19.0 300.0 
582.0000849495034 21824.0 16373.0 816.8464398055424 0.560146441761998 410.0 19.0 298.0 
584.0000849495034 21881.0 16377.0 820.7915356019386 0.5588373063531539 412.0 19.0 301.0 
586.0000849495034 21901.0 16380.0 820.8178438661597 0.5711736559428564 406.0 21.0 299.0 
588.0000849495034 21861.0 16378.0 819.4841292536363 0.5653444242346989 403.0 22.0 297.0 
590.0000849495034 21827.0 16377.0 819.4898484415115 0.5567476951083218 407.0 21.0 298.0 
592.0000849495034 21808.0 16375.0 820.7881040892265 0.5606295162076855 410.0 20.0 300.0 
594.0000849495034 21839.0 16378.0 823.4109236488327 0.5597490734234393 410.0 18.0 304.0 
596.0000849495034 21887.0 16386.0 824.7446382613564 0.5685779104041087 408.0 19.0 304.0 
598.0000849495034 21834.0 16381.0 824.7686588504353 0.570535677281715 407.0 19.0 304.0 
600.0000849495034 21797.0 16374.0 824.7240491850072 0.5603383226919977 408.0 19.0 304.0 
602.0000849495034 21832.0 16375.0 826.0886474120804 0.5581176729655175 407.0 19.0 305.0 
604.0000849495034 21858.0 16379.0 824.8018301401021 0.56830927133348 402.0 21.0 302.0 
606.0000849495034 21892.0 16378.0 826.0692021733048 0.5687525420926423 401.0 22.0 302.0 
608.0000849495034 21852.0 16374.0 826.0417500714982 0.5599895245393007 402.0 21.0 303.0 
610.0000849495034 21820.0 16369.0 828.6954532456277 0.5607515351685264 403.0 20.0 306.0 
612.0000849495034 21819.0 16370.0 830.0120102945185 0.5581258729398839 403.0 18.0 309.0 
614.0000849495034 21898.0 16379.0 833.9674006291193 0.5617079826820174 406.0 19.0 311.0 
616.0000849495034 21998.0 16387.0 835.2542179010724 0.5780780781252676 410.0 19.0 312.0 
618.0000849495034 21955.0 16376.0 835.2748069774229 0.5658087016294894 409.0 20.0 311.0 
620.0000849495034 21963.0 16376.0 836.5616242493606 0.5591862888840786 408.0 21.0 311.0 
622.0000849495034 21945.0 16374.0 836.5650557620924 0.5645320249130237 406.0 23.0 309.0 
624.0000849495034 22000.0 16376.0 837.8724621103918 0.5622054873387383 405.0 23.0 310.0 
626.0000849495034 22036.0 16381.0 835.2713754646637 0.5662496220230819 407.0 22.0 309.0 
628.0000849495034 22028.0 16379.0 836.6108092650884 0.5704602084685301 405.0 21.0 311.0 
630.0000849495034 22000.0 16375.0 836.5604804117894 0.5654152294613721 408.0 19.0 313.0 
632.0000849495034 22003.0 16374.0 836.5822133257223 0.5605906905999207 407.0 20.0 312.0 
634.0000849495034 21992.0 16378.0 837.880468973395 0.5739308476877157 410.0 20.0 313.0 
636.0000849495034 21951.0 16377.0 839.1970260222855 0.5708501927257276 410.0 20.0 314.0 
638.0000849495034 21906.0 16373.0 839.2107520732021 0.5604352129716341 409.0 20.0 314.0 
640.0000849495034 21933.0 16375.0 835.3056905919469 0.5676253311133553 407.0 22.0 309.0 
642.0000849495034 21903.0 16376.0 836.60509007723 0.5657236142866121 405.0 23.0 309.0 
644.0000849495034 21881.0 16376.0 839.2507863883441 0.5597713793282938 409.0 22.0 312.0 
646.0000849495034 21845.0 16374.0 837.8999142121875 0.5678176455009717 412.0 21.0 312.0 
648.0000849495034 21797.0 16371.0 835.2587932513603 0.5609986041759608 413.0 19.0 312.0 
650.0000849495034 21835.0 16376.0 835.2759508149932 0.562624545229906 412.0 19.0 312.0 
652.0000849495034 21852.0 16376.0 831.311409779801 0.5717911191097238 411.0 19.0 309.0 
654.0000849495034 21834.0 16379.0 831.3560194452459 0.5663601834160632 408.0 19.0 309.0 
656.0000849495034 21859.0 16382.0 832.6702888189781 0.5699118166636247 406.0 19.0 310.0 
658.0000849495034 21770.0 16375.0 832.6611381184032 0.5672965022845302 397.0 21.0 308.0 
660.0000849495034 21768.0 16372.0 832.6394052044703 0.5611249274086123 395.0 22.0 307.0 
662.0000849495034 21787.0 16374.0 832.630254503879 0.5593147460030476 397.0 21.0 308.0 
664.0000849495034 21813.0 16378.0 832.6291106662665 0.5713003339338198 399.0 20.0 309.0 
#####################################################################
# End of data export. Simulation finished at: 2019-03-05T13:36+0000 #
#####################################################################
