#####################################################################
# Alchemist log file - simulation started at: 2019-03-09T00:22+0000 #
#####################################################################
# seed = 7.0, bandwidth = 5623413.251903491, accessPointCount = 2000.0, baserange = 10.0
#
# The columns have the following meaning: 
# time neighbor_count[Sum] <value>@neighbor_count[Sum] packet_size[Mean] mean_delay[Mean] crowd[Sum] overcrowded[Sum] risk[Sum] 
0.0 NaN NaN NaN NaN NaN NaN NaN 
2.000129756353364 148.0 105.0 4975.111238204175 0.502338178359432 1497.0 0.0 1497.0 
4.000129756353364 150.0 105.0 4975.571060909351 0.5027104204470371 1497.0 0.0 1497.0 
6.000129756353364 163.0 105.0 4975.269087789535 0.49917500916155516 1497.0 0.0 1497.0 
8.000129756353363 166.0 105.0 4974.949957106091 0.4989557257337979 1497.0 0.0 1497.0 
10.000129756353363 168.0 106.0 4975.105519016301 0.5138207456415541 1497.0 0.0 1497.0 
12.000129756353363 166.0 105.0 4975.1341149556765 0.498955004187332 1497.0 0.0 1497.0 
14.000129756353363 166.0 105.0 4975.070060051473 0.49895511165169926 1497.0 0.0 1497.0 
16.000129756353363 166.0 105.0 4975.04032027452 0.5109459952391864 1497.0 0.0 1497.0 
18.000129756353363 162.0 105.0 4975.096368315699 0.4982584302296928 1497.0 0.0 1497.0 
20.000129756353363 162.0 105.0 4975.090649127824 0.5054527362422192 1497.0 0.0 1497.0 
22.000129756353363 161.0 105.0 4974.9739776951665 0.5144991906998582 1497.0 0.0 1497.0 
24.000129756353363 160.0 104.0 4975.055190162997 0.4982462144456567 1497.0 0.0 1497.0 
26.000129756353363 160.0 104.0 4975.065484701173 0.5079935882401891 1497.0 0.0 1497.0 
28.000129756353363 158.0 103.0 4975.03574492422 0.4989844591238095 1497.0 0.0 1497.0 
30.000129756353363 158.0 103.0 4975.027738061195 0.49898472586572107 1497.0 0.0 1497.0 
32.00012975635336 158.0 103.0 4975.043751787247 0.4989844800447438 1497.0 0.0 1497.0 
34.00012975635336 158.0 103.0 4975.04032027452 0.4989845428075485 1497.0 0.0 1497.0 
36.00012975635336 158.0 103.0 4974.9648269945665 0.4989848723122628 1497.0 0.0 1497.0 
38.00012975635336 158.0 103.0 4975.02201887332 0.49898465787268687 1497.0 0.0 1497.0 
40.00012975635336 158.0 103.0 4975.043751787247 0.4989845271168479 1497.0 0.0 1497.0 
42.00012975635336 158.0 103.0 4975.018587360595 0.4989845166563807 1497.0 0.0 1497.0 
44.00012975635336 158.0 103.0 4975.018587360595 0.49898474155642386 1497.0 0.0 1497.0 
46.00012975635336 158.0 103.0 4975.036888761796 0.4989845532680157 1497.0 0.0 1497.0 
48.00012975635336 160.0 104.0 4975.054046325422 0.498986430194536 1497.0 0.0 1497.0 
50.00012975635336 160.0 104.0 4974.988847583643 0.49898664668072507 1497.0 0.0 1497.0 
52.00012975635336 161.0 105.0 4975.047183299971 0.4954232903565486 1497.0 0.0 1497.0 
54.00012975635336 162.0 105.0 4975.068916213897 0.49898809598983657 1497.0 0.0 1497.0 
56.00012975635336 162.0 105.0 4975.055190162997 0.49898811631302986 1497.0 0.0 1497.0 
58.00012975635336 163.0 105.0 4975.046039462397 0.5185862257510742 1497.0 0.0 1497.0 
60.00012975635336 162.0 105.0 4975.071203889047 0.49898814171702144 1497.0 0.0 1497.0 
62.000820081749154 162.0 105.0 407.87646554189325 0.5069532955822691 43.0 0.0 6.0 
64.00082008174915 161.0 104.0 407.8718901915929 0.51781508546515 43.0 0.0 6.0 
66.00029741811947 160.0 104.0 407.8718901915929 0.4998620652849059 43.0 0.0 6.0 
68.00082008174915 160.0 104.0 407.8718901915929 0.4998620652849059 36.0 0.0 6.0 
70.00082008174915 160.0 104.0 407.8718901915929 0.4998620652849059 27.0 0.0 6.0 
72.00082008174915 160.0 104.0 407.8718901915929 0.4998620652849059 24.0 0.0 6.0 
74.00082008174915 160.0 104.0 407.8718901915929 0.4998620652849059 21.0 0.0 6.0 
76.00029741811947 160.0 104.0 406.5599084929939 0.4998620652849059 20.0 0.0 5.0 
78.00082008174915 160.0 104.0 403.93594509579646 0.4998851983805354 18.0 0.0 3.0 
80.00082008174915 164.0 105.0 403.93594509579646 0.4998844890862206 16.0 0.0 3.0 
82.00082008174915 164.0 105.0 403.93594509579646 0.4998844890862206 14.0 0.0 3.0 
84.00082008174915 164.0 105.0 403.93594509579646 0.4998844890862206 13.0 0.0 3.0 
86.00029741811947 164.0 105.0 403.93594509579646 0.4998844890862206 11.0 0.0 3.0 
88.00082008174915 164.0 105.0 403.93594509579646 0.4998844890862206 11.0 0.0 3.0 
90.00082008174915 164.0 105.0 403.93594509579646 0.4998844890862206 10.0 0.0 3.0 
92.00082008174915 164.0 105.0 403.93594509579646 0.4998844890862206 10.0 0.0 3.0 
94.00082008174915 164.0 105.0 403.93594509579646 0.4998844890862206 7.0 0.0 3.0 
96.00029741811947 164.0 105.0 403.93594509579646 0.4998844890862206 7.0 0.0 3.0 
98.00082008174915 164.0 105.0 403.93594509579646 0.4998844890862206 6.0 0.0 3.0 
100.00082008174915 164.0 105.0 403.93594509579646 0.4998844890862206 6.0 0.0 3.0 
102.00082008174915 164.0 105.0 403.93594509579646 0.4998844890862206 6.0 0.0 3.0 
104.00082008174915 164.0 105.0 403.93594509579646 0.4998844890862206 6.0 0.0 3.0 
106.00029741811947 164.0 105.0 403.93594509579646 0.4998844890862206 6.0 0.0 3.0 
108.00082008174915 164.0 105.0 403.93594509579646 0.4998844890862206 6.0 0.0 3.0 
110.00082008174915 168.0 106.0 405.24792679439526 0.49943011759977446 9.0 0.0 4.0 
112.00082008174915 168.0 106.0 405.24792679439526 0.49943011759977446 9.0 0.0 4.0 
114.00082008174915 168.0 106.0 405.24792679439526 0.49943011759977446 9.0 0.0 4.0 
116.00029741811947 170.0 107.0 405.24792679439526 0.499724458282556 10.0 0.0 4.0 
118.00082008174915 172.0 108.0 405.24792679439526 0.499726736846959 10.0 0.0 4.0 
120.00082008174915 172.0 108.0 405.24792679439526 0.499726736846959 10.0 0.0 4.0 
122.00082008174915 172.0 108.0 405.24792679439526 0.499726736846959 10.0 0.0 4.0 
124.00082008174915 172.0 108.0 405.24792679439526 0.499726736846959 10.0 0.0 4.0 
126.00029741811947 176.0 108.0 409.20331712896785 0.49942088802213647 10.0 0.0 7.0 
128.00082008174917 176.0 108.0 409.19759794109217 0.5273586188290394 10.0 0.0 7.0 
130.00082008174917 176.0 107.0 411.83757506434137 0.4997754756790874 10.0 0.0 9.0 
132.00082008174917 176.0 107.0 411.8490134400913 0.49977537982856596 10.0 0.0 9.0 
134.00082008174917 176.0 107.0 411.83414355161557 0.4997755563953158 10.0 0.0 9.0 
136.0002974181195 176.0 107.0 411.8227051758647 0.4997756774696587 10.0 0.0 9.0 
138.00082008174917 176.0 107.0 411.8261366885904 0.5068722986279077 9.0 0.0 9.0 
140.00082008174917 173.0 107.0 411.8204175007148 0.5264146551224057 9.0 0.0 9.0 
142.00082008174917 170.0 106.0 411.8146983128398 0.49980640428554485 9.0 0.0 9.0 
144.00082008174917 170.0 106.0 411.8204175007148 0.49980640428554485 9.0 0.0 9.0 
146.0002974181195 170.0 106.0 411.81927366314017 0.4998063941239484 9.0 0.0 9.0 
148.00082008174917 170.0 106.0 411.81241063768965 0.49980637380075493 9.0 0.0 9.0 
150.00082008174917 170.0 106.0 411.8204175007148 0.49980640428554485 9.0 0.0 9.0 
152.00082008174917 170.0 106.0 411.81698598799 0.49980640428554485 9.0 0.0 9.0 
154.00082008174917 170.0 106.0 411.81241063768965 0.49980640428554485 9.0 0.0 9.0 
156.0002974181195 174.0 107.0 411.8204175007148 0.5139926083176457 9.0 0.0 9.0 
158.00082008174917 168.0 106.0 411.81698598799 0.49983683826744857 9.0 0.0 9.0 
160.00082008174917 168.0 106.0 411.81241063768965 0.5426939608013981 9.0 0.0 9.0 
162.00082008174917 162.0 104.0 411.81927366314017 0.4998599888984831 9.0 0.0 9.0 
164.00082008174917 162.0 104.0 411.81355447526425 0.4998599733223131 9.0 0.0 9.0 
166.0002974181195 162.0 104.0 411.80897912496397 0.4998599525540864 9.0 0.0 9.0 
168.00082008174917 162.0 104.0 411.81698598799 0.4998599888984831 9.0 0.0 9.0 
170.00082008174917 162.0 104.0 411.81355447526425 0.4998599733223131 9.0 0.0 9.0 
172.00082008174917 162.0 104.0 411.80897912496397 0.4998599525540864 9.0 0.0 9.0 
174.00082008174917 162.0 104.0 411.81698598799 0.4998599888984831 9.0 0.0 9.0 
176.0002974181195 162.0 104.0 411.81355447526425 0.4998599733223131 9.0 0.0 9.0 
178.00082008174917 162.0 104.0 411.80897912496397 0.4998599525540864 9.0 0.0 9.0 
180.00082008174917 162.0 104.0 411.81698598799 0.4998599888984831 9.0 0.0 9.0 
182.00082008174917 162.0 104.0 411.81355447526425 0.4998599733223131 9.0 0.0 9.0 
184.00082008174917 162.0 104.0 411.80897912496397 0.4998599525540864 9.0 0.0 9.0 
186.0002974181195 162.0 104.0 411.81698598799 0.4998599888984831 9.0 0.0 9.0 
188.00082008174917 162.0 104.0 411.81355447526425 0.4998599733223131 9.0 0.0 9.0 
190.00082008174917 164.0 105.0 411.80897912496397 0.5013127055330906 10.0 0.0 9.0 
192.00082008174917 164.0 105.0 411.81698598799 0.5013127519229883 10.0 0.0 9.0 
194.00082008174917 164.0 105.0 411.81355447526425 0.5013127184191732 10.0 0.0 9.0 
196.0002974181195 164.0 105.0 411.80897912496397 0.5013127055330906 10.0 0.0 9.0 
198.00082008174917 165.0 105.0 411.81698598799 0.49961598086091735 10.0 0.0 9.0 
200.00082008174917 168.0 105.0 409.20217329139257 0.4998281697330101 7.0 0.0 7.0 
202.00082008174917 168.0 105.0 409.1998856162424 0.4998281491152778 7.0 0.0 7.0 
204.00082008174917 168.0 105.0 409.2056048041177 0.49982814911527773 7.0 0.0 7.0 
206.0002974181195 168.0 105.0 409.20217329139257 0.4998281697330101 7.0 0.0 7.0 
208.00082008174917 168.0 105.0 409.19759794109217 0.5022435874347436 7.0 0.0 7.0 
210.00082008174917 167.0 105.0 409.2010294538177 0.5298602101721662 7.0 0.0 7.0 
212.00082008174917 162.0 104.0 409.1998856162424 0.49985992140174645 7.0 0.0 7.0 
214.00082008174917 165.0 105.0 409.19073491564177 0.49672294535828687 8.0 0.0 7.0 
216.0002974181195 170.0 106.0 410.49585358879045 0.4998296946650183 8.0 0.0 8.0 
218.00082008174917 170.0 106.0 409.18387189019165 0.4998298166041779 7.0 0.0 7.0 
220.00082008174917 170.0 106.0 409.18387189019165 0.4998298166041779 7.0 0.0 7.0 
222.00082008174917 172.0 107.0 409.18387189019165 0.4998312117058597 7.0 0.0 7.0 
224.00082008174917 172.0 107.0 409.18387189019165 0.4998312117058597 7.0 0.0 7.0 
226.0002974181195 172.0 107.0 409.18387189019165 0.4998312117058597 7.0 0.0 7.0 
228.00082008174917 174.0 108.0 409.18387189019165 0.500587444784214 7.0 0.0 7.0 
230.00082008174917 176.0 109.0 409.18387189019165 0.5005783609778606 7.0 0.0 7.0 
232.00082008174917 176.0 109.0 409.18387189019165 0.5212680161502743 7.0 0.0 7.0 
234.00082008174917 174.0 108.0 409.18387189019165 0.500587444784214 7.0 0.0 7.0 
236.0002974181195 177.0 110.0 409.18387189019165 0.5012211394931169 8.0 0.0 7.0 
238.00082008174917 178.0 110.0 409.18387189019165 0.5001573253963509 8.0 0.0 7.0 
240.00082008174917 180.0 111.0 409.18387189019165 0.5001542381453676 8.0 0.0 7.0 
242.00082008174917 180.0 111.0 409.18387189019165 0.5001542381453676 8.0 0.0 7.0 
244.00082008174917 180.0 111.0 409.18387189019165 0.5204252293397229 8.0 0.0 7.0 
246.0002974181195 186.0 111.0 410.50386045181585 0.5098776358940048 8.0 0.0 8.0 
248.00082008174917 189.0 111.0 411.8249928510149 0.5125586827472801 9.0 0.0 9.0 
250.00082008174917 188.0 111.0 411.8227051758647 0.527182384390175 11.0 0.0 9.0 
252.00082008174917 186.0 110.0 411.8158421504145 0.5001585086658656 11.0 0.0 9.0 
254.00082008174917 186.0 110.0 411.8158421504145 0.5001585573858497 11.0 0.0 9.0 
256.0002974181195 186.0 110.0 411.8124106376897 0.5286973409392475 11.0 0.0 9.0 
258.00082008174917 182.0 109.0 411.8078352873893 0.4978463791524466 11.0 0.0 9.0 
260.00082008174917 182.0 109.0 411.8078352873893 0.4978463791524466 11.0 0.0 9.0 
262.00082008174917 189.0 111.0 411.8078352873893 0.49516335002568895 11.0 0.0 9.0 
264.00082008174917 190.0 112.0 411.8078352873893 0.49791482918483904 11.0 0.0 9.0 
266.0002974181195 190.0 112.0 411.8078352873893 0.49791482918483904 11.0 0.0 9.0 
268.00082008174917 192.0 112.0 413.1278238490137 0.5088376697009925 11.0 0.0 10.0 
270.00082008174917 190.0 112.0 411.8204175007149 0.5270064427646025 10.0 0.0 9.0 
272.00082008174917 190.0 111.0 411.8158421504145 0.5123379312963847 10.0 0.0 9.0 
274.00082008174917 188.0 110.0 411.8112668001142 0.49871599714168907 10.0 0.0 9.0 
276.0002974181195 189.0 110.0 411.8135544752643 0.5096462217572318 10.0 0.0 9.0 
278.00082008174917 190.0 110.0 413.1312553617384 0.5204314764502881 10.0 0.0 10.0 
280.00082008174917 186.0 109.0 413.1289676865883 0.49973585929279823 10.0 0.0 10.0 
282.00082008174917 186.0 109.0 413.1289676865883 0.49973586917212814 10.0 0.0 10.0 
284.00082008174917 186.0 109.0 413.1289676865883 0.49973586917212814 10.0 0.0 10.0 
286.0002974181195 186.0 109.0 413.1289676865883 0.5298392467000317 10.0 0.0 10.0 
288.00082008174917 177.0 108.0 413.138118387189 0.5087989180522726 10.0 0.0 10.0 
290.00082008174917 178.0 108.0 413.1198169859878 0.4997852559430772 10.0 0.0 10.0 
292.00082008174917 180.0 109.0 413.1198169859878 0.5282901287445076 11.0 0.0 10.0 
294.00082008174917 177.0 108.0 413.1198169859878 0.5176583587140723 11.0 0.0 10.0 
296.0002974181195 176.0 107.0 413.1198169859878 0.500725909167796 11.0 0.0 10.0 
298.00082008174917 176.0 107.0 413.1198169859878 0.5113647115165649 11.0 0.0 10.0 
300.00082008174917 174.0 106.0 413.1198169859878 0.4997869905551828 11.0 0.0 10.0 
302.00082008174917 174.0 106.0 413.1198169859878 0.4997869905551828 11.0 0.0 10.0 
304.00082008174917 174.0 106.0 413.1198169859878 0.4997869905551828 10.0 0.0 10.0 
306.0002974181195 174.0 106.0 413.1198169859878 0.4997869905551828 10.0 0.0 10.0 
308.00082008174917 174.0 106.0 413.1198169859878 0.4997869905551828 10.0 0.0 10.0 
310.00082008174917 174.0 106.0 413.1198169859878 0.514072704840897 10.0 0.0 10.0 
312.00082008174917 172.0 105.0 413.1198169859878 0.528770441594771 10.0 0.0 10.0 
314.00082008174917 170.0 104.0 413.1198169859878 0.4997828176649356 10.0 0.0 10.0 
316.0002974181195 170.0 104.0 413.1198169859878 0.4997828176649356 10.0 0.0 10.0 
318.00082008174917 170.0 104.0 413.1198169859878 0.4997828176649356 10.0 0.0 10.0 
320.00082008174917 170.0 104.0 413.1198169859878 0.4997828176649356 10.0 0.0 10.0 
322.00082008174917 171.0 105.0 413.1198169859878 0.497672582195859 10.0 0.0 10.0 
324.00082008174917 172.0 105.0 413.1198169859878 0.4997849343483943 10.0 0.0 10.0 
326.0002974181195 172.0 105.0 413.1198169859878 0.4997849343483943 10.0 0.0 10.0 
328.00082008174917 172.0 105.0 413.1198169859878 0.4997849343483943 10.0 0.0 10.0 
330.00082008174917 174.0 106.0 413.1198169859878 0.4997869905551828 10.0 0.0 10.0 
332.00082008174917 174.0 106.0 413.1198169859878 0.4997869905551828 10.0 0.0 10.0 
334.00082008174917 174.0 106.0 413.1198169859878 0.4997869905551828 10.0 0.0 10.0 
336.0002974181195 176.0 107.0 413.1198169859878 0.4997889888406532 10.0 0.0 10.0 
338.00082008174917 176.0 107.0 413.1198169859878 0.4997889888406532 10.0 0.0 10.0 
340.00082008174917 176.0 107.0 413.1198169859878 0.5209157494040335 10.0 0.0 10.0 
342.00082008174917 174.0 106.0 413.1198169859878 0.4997869905551828 10.0 0.0 10.0 
344.00082008174917 175.0 106.0 413.1198169859878 0.4992128090966903 10.0 0.0 10.0 
346.0002974181195 176.0 107.0 409.18387189019177 0.5279580029251603 7.0 0.0 7.0 
348.00082008174917 176.0 107.0 409.18387189019177 0.4997889888406532 7.0 0.0 7.0 
350.00082008174917 176.0 107.0 409.18387189019177 0.4997889888406532 7.0 0.0 7.0 
352.00082008174917 178.0 108.0 409.18387189019177 0.49979093161819393 7.0 0.0 7.0 
354.00082008174917 178.0 108.0 409.18387189019177 0.5067353760626385 7.0 0.0 7.0 
356.0002974181195 177.0 108.0 409.18387189019177 0.5143431241126726 7.0 0.0 7.0 
358.00082008174917 176.0 107.0 409.18387189019177 0.5279580029251603 7.0 0.0 7.0 
360.00082008174917 174.0 106.0 409.18387189019177 0.4997869905551828 7.0 0.0 7.0 
362.00082008174917 176.0 107.0 409.18387189019177 0.5209157494040335 7.0 0.0 7.0 
364.00082008174917 174.0 106.0 409.18387189019177 0.4997869905551828 7.0 0.0 7.0 
366.0002974181195 174.0 106.0 409.18387189019177 0.4997869905551828 7.0 0.0 7.0 
368.00082008174917 174.0 106.0 409.18387189019177 0.4997869905551828 7.0 0.0 7.0 
370.00082008174917 174.0 106.0 409.18387189019177 0.4997869905551828 7.0 0.0 7.0 
372.00082008174917 174.0 106.0 409.18387189019177 0.5212155619837542 7.0 0.0 7.0 
374.00082008174917 172.0 105.0 409.18387189019177 0.4997849343483943 7.0 0.0 7.0 
376.0002974181195 174.0 106.0 409.18387189019177 0.4997869905551828 7.0 0.0 7.0 
378.00082008174917 174.0 106.0 409.18387189019177 0.4997869905551828 7.0 0.0 7.0 
380.00082008174917 174.0 106.0 409.18387189019177 0.4997869905551828 7.0 0.0 7.0 
382.00082008174917 174.0 106.0 409.18387189019177 0.50692984769804 7.0 0.0 7.0 
384.00082008174917 173.0 105.0 409.18387189019177 0.516255382153411 7.0 0.0 7.0 
386.0002974181195 172.0 105.0 409.1873034029172 0.5142776828171496 7.0 0.0 7.0 
388.00082008174917 166.0 105.0 409.1930225907919 0.49938326282023016 7.0 0.0 7.0 
390.00082008174917 166.0 105.0 409.18387189019177 0.49938326797466337 7.0 0.0 7.0 
392.00082008174917 166.0 105.0 409.18387189019177 0.4993832782835294 7.0 0.0 7.0 
394.00082008174917 166.0 105.0 409.18387189019177 0.4993832782835294 7.0 0.0 7.0 
396.0002974181195 166.0 105.0 409.18387189019177 0.5229505873096212 7.0 0.0 7.0 
398.00082008174917 162.0 103.0 409.18387189019177 0.49982553855856104 7.0 0.0 7.0 
400.00082008174917 164.0 104.0 409.18387189019177 0.4969754234580751 8.0 0.0 7.0 
402.00082008174917 164.0 104.0 409.18387189019177 0.5190342469874868 8.0 0.0 7.0 
404.00082008174917 162.0 103.0 409.18387189019177 0.4969313421839629 8.0 0.0 7.0 
406.0002974181195 162.0 103.0 409.18387189019177 0.4969313421839629 8.0 0.0 7.0 
408.00082008174917 162.0 103.0 409.18387189019177 0.4969313421839629 8.0 0.0 7.0 
410.00082008174917 170.0 104.0 410.5061481269661 0.49978261891606024 8.0 0.0 8.0 
412.00082008174917 170.0 104.0 410.50386045181585 0.49978103807796714 8.0 0.0 8.0 
414.00082008174917 174.0 105.0 410.50386045181585 0.4949319717145063 10.0 0.0 8.0 
416.0002974181195 183.0 107.0 411.8215613382904 0.49558898463067635 10.0 0.0 9.0 
418.00082008174917 184.0 107.0 411.81927366314017 0.49771483732717187 10.0 0.0 9.0 
420.00082008174917 184.0 107.0 411.8215613382904 0.5446362498548101 10.0 0.0 9.0 
422.00082008174917 172.0 105.0 411.8249928510149 0.4978828052694116 10.0 0.0 9.0 
424.00082008174917 172.0 105.0 411.81927366314017 0.515421382942492 10.0 0.0 9.0 
426.0002974181195 172.0 105.0 411.8078352873893 0.5070312802333901 9.0 0.0 9.0 
428.00082008174917 171.0 104.0 411.8078352873893 0.516519140800198 9.0 0.0 9.0 
430.00082008174917 170.0 104.0 411.8078352873893 0.4997828176649356 9.0 0.0 9.0 
432.00082008174917 170.0 104.0 411.8078352873893 0.4997828176649356 9.0 0.0 9.0 
434.00082008174917 170.0 104.0 411.8078352873893 0.4997828176649356 9.0 0.0 9.0 
436.0002974181195 170.0 104.0 411.8078352873893 0.4997828176649356 9.0 0.0 9.0 
438.00082008174917 170.0 104.0 411.8078352873893 0.4997828176649356 9.0 0.0 9.0 
440.00082008174917 172.0 105.0 411.8078352873893 0.4997849343483943 9.0 0.0 9.0 
442.00082008174917 172.0 105.0 411.8078352873893 0.4997849343483943 9.0 0.0 9.0 
444.00082008174917 173.0 105.0 411.8078352873893 0.49984969120046 10.0 0.0 9.0 
446.0002974181195 174.0 106.0 411.8078352873893 0.4997142939981368 10.0 0.0 9.0 
448.00082008174917 178.0 107.0 410.49585358879045 0.4997143024359669 9.0 0.0 8.0 
450.00082008174917 178.0 107.0 410.49585358879045 0.5140000167216812 9.0 0.0 8.0 
452.00082008174917 177.0 107.0 410.49585358879045 0.5007776808522315 9.0 0.0 8.0 
454.00082008174917 178.0 108.0 410.49585358879045 0.5009209715487024 9.0 0.0 8.0 
456.0002974181195 181.0 108.0 411.8146983128398 0.5210190797985698 10.0 0.0 9.0 
458.00082008174917 189.0 108.0 415.7655132971115 0.4983115992843387 13.0 0.0 12.0 
460.00082008174917 198.0 110.0 415.7803831855873 0.5273787890390044 13.0 0.0 12.0 
462.00082008174917 196.0 110.0 415.78267086073737 0.5019365061483367 13.0 0.0 12.0 
464.00082008174917 200.0 110.0 417.0935087217613 0.49926835291888294 13.0 0.0 13.0 
466.0002974181195 204.0 110.0 417.0935087217613 0.5077435067929036 13.0 0.0 13.0 
468.00082008174917 202.0 110.0 417.0877895338866 0.5265795004801126 13.0 0.0 13.0 
470.00082008174917 200.0 109.0 417.0729196454096 0.5253053939078435 14.0 0.0 13.0 
472.00082008174917 196.0 108.0 417.0706319702609 0.5149218836924451 13.0 0.0 13.0 
474.00082008174917 194.0 107.0 417.0729196454096 0.5068137362141609 13.0 0.0 13.0 
476.0002974181195 188.0 107.0 417.06834429511053 0.5245129675884302 13.0 0.0 13.0 
478.00082008174917 186.0 108.0 417.0672004575349 0.5067348027888904 13.0 0.0 13.0 
480.00082008174917 183.0 109.0 415.7529310837865 0.5151279661538695 12.0 0.0 12.0 
482.00082008174917 179.0 108.0 415.7529310837865 0.4967829692955951 12.0 0.0 12.0 
484.00082008174917 182.0 110.0 415.7529310837865 0.4997945058536342 12.0 0.0 12.0 
486.0002974181195 184.0 111.0 415.7529310837865 0.49979629735990033 12.0 0.0 12.0 
488.00082008174917 184.0 111.0 415.7529310837865 0.5397962973599003 12.0 0.0 12.0 
490.00082008174917 180.0 109.0 415.7529310837865 0.5408885556759635 12.0 0.0 12.0 
492.00082008174917 176.0 107.0 415.7529310837865 0.5138733355872981 12.0 0.0 12.0 
494.00082008174917 174.0 107.0 415.7540749213609 0.549484598755577 12.0 0.0 12.0 
496.0002974181195 168.0 104.0 415.75636259651077 0.5309064355513593 12.0 0.0 12.0 
498.00082008174917 164.0 104.0 415.7529310837865 0.5004287079696323 13.0 0.0 12.0 
500.00082008174917 166.0 105.0 415.75064340863634 0.5004214639240375 13.0 0.0 12.0 
502.00082008174917 166.0 105.0 415.75064340863634 0.5004214639240375 13.0 0.0 12.0 
504.00082008174917 166.0 105.0 415.75064340863634 0.5004214639240375 13.0 0.0 12.0 
506.0002974181195 166.0 105.0 415.75064340863634 0.5004214639240375 13.0 0.0 12.0 
508.00082008174917 166.0 105.0 415.75064340863634 0.5167440313824276 13.0 0.0 12.0 
510.00082008174917 164.0 104.0 415.75064340863634 0.5290261920294242 12.0 0.0 12.0 
512.0008200817492 162.0 103.0 415.75064340863634 0.4998276338546959 12.0 0.0 12.0 
514.0008200817492 162.0 103.0 415.75064340863634 0.49982763385474566 12.0 0.0 12.0 
516.0002974181195 162.0 103.0 415.75064340863634 0.49982763385474566 12.0 0.0 12.0 
518.0008200817492 162.0 103.0 415.75064340863634 0.49982763385474566 12.0 0.0 12.0 
520.0008200817492 164.0 104.0 411.8146983128399 0.4998291117375032 9.0 0.0 9.0 
522.0008200817492 164.0 104.0 411.8146983128399 0.4998291117375032 9.0 0.0 9.0 
524.0008200817492 164.0 104.0 411.8146983128399 0.4998291117375032 9.0 0.0 9.0 
526.0002974181195 164.0 104.0 411.8146983128399 0.5290261920294741 9.0 0.0 9.0 
528.0008200817492 164.0 104.0 411.8146983128399 0.4998291117375032 9.0 0.0 9.0 
530.0008200817492 164.0 104.0 411.8146983128399 0.5144276518834886 9.0 0.0 9.0 
532.0008200817492 162.0 103.0 411.8146983128399 0.49982763385474566 9.0 0.0 9.0 
534.0008200817492 164.0 104.0 411.8146983128399 0.4998291117375032 9.0 0.0 9.0 
536.0002974181195 164.0 104.0 410.50271661424114 0.4998291117375032 8.0 0.0 8.0 
538.0008200817492 164.0 104.0 410.50271661424114 0.5217269219564813 8.0 0.0 8.0 
540.0008200817492 162.0 103.0 409.1907349156417 0.49982763385474566 7.0 0.0 7.0 
542.0008200817492 163.0 103.0 409.1907349156417 0.49872444066850785 7.0 0.0 7.0 
544.0008200817492 164.0 104.0 409.1907349156417 0.5217269219564813 7.0 0.0 7.0 
546.0002974181195 162.0 103.0 409.1907349156417 0.49982763385474566 7.0 0.0 7.0 
548.0008200817492 162.0 103.0 409.1907349156417 0.49982763385474566 7.0 0.0 7.0 
550.0008200817492 162.0 103.0 409.1907349156417 0.49982763385474566 7.0 0.0 7.0 
552.0008200817492 164.0 105.0 409.1907349156417 0.5058844811014604 7.0 0.0 7.0 
554.0008200817492 166.0 105.0 409.1907349156417 0.5163089474189628 7.0 0.0 7.0 
556.0002974181195 166.0 105.0 407.8787532170433 0.5027780728105323 6.0 0.0 6.0 
558.0008200817492 166.0 105.0 407.8787532170433 0.5027780728105323 6.0 0.0 6.0 
560.0008200817492 166.0 105.0 407.8787532170433 0.5027759268482297 6.0 0.0 6.0 
562.0008200817492 175.0 108.0 407.8787532170433 0.5103912190635957 7.0 0.0 6.0 
564.0008200817492 186.0 108.0 411.84100657706625 0.5322153960616494 9.0 0.0 9.0 
566.0002974181195 183.0 108.0 411.8352873891911 0.5251368984428241 9.0 0.0 9.0 
568.0008200817492 176.0 107.0 411.8307120388907 0.49881343011038715 9.0 0.0 9.0 
570.0008200817492 177.0 107.0 411.8352873891911 0.49849962227527966 9.0 0.0 9.0 
572.0008200817492 180.0 107.0 411.8238490134402 0.5513475351508899 9.0 0.0 9.0 
574.0008200817492 175.0 105.0 411.81927366314017 0.5266221772477703 9.0 0.0 9.0 
576.0002974181195 166.0 104.0 411.8295682013151 0.4997500826290065 9.0 0.0 9.0 
578.0008200817492 166.0 104.0 411.83299971404085 0.4997500425305497 9.0 0.0 9.0 
580.0008200817492 170.0 105.0 411.83299971404085 0.49911494021508057 10.0 0.0 9.0 
582.0008200817492 170.0 105.0 411.83299971404085 0.5005802095447878 10.0 0.0 9.0 
584.0008200817492 169.0 105.0 411.8307120388907 0.517285425545862 10.0 0.0 9.0 
586.0002974181195 166.0 104.0 411.82728052616505 0.4991189863416866 10.0 0.0 9.0 
588.0008200817492 168.0 105.0 411.8249928510149 0.4991307237689615 10.0 0.0 9.0 
590.0008200817492 168.0 105.0 411.8249928510149 0.5208870167477306 10.0 0.0 9.0 
592.0008200817492 164.0 104.0 411.8249928510149 0.4998289715519723 9.0 0.0 9.0 
594.0008200817492 164.0 104.0 411.8249928510149 0.4998289715519723 9.0 0.0 9.0 
596.0002974181195 166.0 105.0 411.8227051758647 0.4998304498615947 9.0 0.0 9.0 
598.0008200817492 166.0 105.0 411.8249928510149 0.5142188981314209 9.0 0.0 9.0 
600.0008200817492 164.0 104.0 411.8261366885904 0.49982896635991575 9.0 0.0 9.0 
602.0008200817492 164.0 104.0 411.81927366314017 0.49982902866459583 9.0 0.0 9.0 
604.0008200817492 164.0 104.0 411.8146983128398 0.5071283714263825 9.0 0.0 9.0 
606.0002974181195 175.0 107.0 413.12782384901374 0.5372798818498936 10.0 0.0 10.0 
608.0008200817492 173.0 105.0 413.1301115241638 0.4978888047321262 10.0 0.0 10.0 
610.0008200817492 174.0 106.0 413.1369745496144 0.49978668570733276 10.0 0.0 10.0 
612.0008200817492 174.0 106.0 413.1369745496144 0.49978661457615714 10.0 0.0 10.0 
614.0008200817492 174.0 106.0 413.1369745496144 0.4997866348993501 10.0 0.0 10.0 
616.0002974181195 174.0 106.0 413.1335430368886 0.5426437574332995 10.0 0.0 10.0 
618.0008200817492 170.0 104.0 413.1335430368886 0.5071354973297767 10.0 0.0 10.0 
620.0008200817492 173.0 106.0 413.12210466113766 0.5160713171319854 10.0 0.0 10.0 
622.0008200817492 172.0 105.0 413.1198169859878 0.4997849240395771 10.0 0.0 10.0 
624.0008200817492 172.0 105.0 411.8078352873893 0.49978493434844334 9.0 0.0 9.0 
626.0002974181195 173.0 105.0 411.8078352873893 0.514232778287679 9.0 0.0 9.0 
628.0008200817492 166.0 105.0 411.8078352873893 0.4998306392035762 9.0 0.0 9.0 
630.0008200817492 168.0 106.0 411.8078352873893 0.5423852240208822 9.0 0.0 9.0 
632.0008200817492 164.0 104.0 411.8078352873893 0.49982920519452423 9.0 0.0 9.0 
634.0008200817492 164.0 104.0 409.1838718901917 0.49982920519452423 7.0 0.0 7.0 
636.0002974181195 166.0 105.0 409.1838718901917 0.4972732013051021 8.0 0.0 7.0 
638.0008200817492 166.0 105.0 409.1838718901917 0.4972732013051021 8.0 0.0 7.0 
640.0008200817492 166.0 105.0 409.1838718901917 0.5262587085514789 8.0 0.0 7.0 
642.0008200817492 164.0 104.0 409.1838718901917 0.49723414737100596 8.0 0.0 7.0 
644.0008200817492 164.0 104.0 409.1838718901917 0.49723414737100596 8.0 0.0 7.0 
646.0002974181195 164.0 104.0 409.1838718901917 0.5137967238198538 8.0 0.0 7.0 
648.0008200817492 163.0 103.0 409.1838718901917 0.4989526390069547 7.0 0.0 7.0 
650.0008200817492 164.0 104.0 409.1838718901917 0.49982920519452423 7.0 0.0 7.0 
652.0008200817492 164.0 104.0 409.1838718901917 0.49982920519452423 7.0 0.0 7.0 
654.0008200817492 164.0 104.0 409.1838718901917 0.49982920519452423 7.0 0.0 7.0 
656.0002974181195 166.0 105.0 409.1838718901917 0.49983063920357623 7.0 0.0 7.0 
658.0008200817492 166.0 105.0 409.1838718901917 0.5070248838078928 7.0 0.0 7.0 
660.0008200817492 165.0 105.0 409.1838718901917 0.5151858211474911 7.0 0.0 7.0 
662.0008200817492 164.0 104.0 409.1838718901917 0.49982920519452423 7.0 0.0 7.0 
664.0008200817492 164.0 104.0 409.1838718901917 0.49982920519452423 7.0 0.0 7.0 
#####################################################################
# End of data export. Simulation finished at: 2019-03-09T00:26+0000 #
#####################################################################
