#####################################################################
# Alchemist log file - simulation started at: 2019-03-05T14:49+0000 #
#####################################################################
# seed = 8.0, bandwidth = 316227.76601683797, accessPointCount = 19.39227447486858, baserange = 56.234132519034915
#
# The columns have the following meaning: 
# time neighbor_count[Sum] <value>@neighbor_count[Sum] packet_size[Mean] mean_delay[Mean] crowd[Sum] overcrowded[Sum] risk[Sum] 
0.0 NaN NaN NaN NaN NaN NaN NaN 
2.0005164075257955 46.0 20.0 4988.026385224274 0.5025853594582587 1497.0 0.0 1497.0 
4.0005164075257955 76.0 20.0 4988.306068601583 0.5152854094270609 1497.0 0.0 1497.0 
6.000198348008885 76.0 20.0 4988.1029023746705 0.5153520347690862 1497.0 0.0 1497.0 
8.000516407525796 89.0 20.0 4988.171503957784 0.4899338918937461 1497.0 0.0 1497.0 
10.000516407525796 106.0 20.0 4988.097625329815 0.5085996609551042 1497.0 0.0 1497.0 
12.000516407525796 106.0 20.0 4988.131926121372 0.5085696778780301 1497.0 0.0 1497.0 
14.000516407525796 106.0 20.0 4988.071240105541 0.5085935706425735 1497.0 0.0 1497.0 
16.000198348008887 106.0 20.0 4988.179419525066 0.5085485960269622 1497.0 0.0 1497.0 
18.000516407525797 106.0 20.0 4988.094986807388 0.50857576819056 1497.0 0.0 1497.0 
20.000516407525797 106.0 20.0 4988.12401055409 0.5085959130704694 1497.0 0.0 1497.0 
22.000516407525797 106.0 20.0 4988.076517150395 0.5085752997049808 1497.0 0.0 1497.0 
24.000516407525797 106.0 20.0 4988.14511873351 0.50857576819056 1497.0 0.0 1497.0 
26.000198348008887 106.0 20.0 4988.023746701847 0.5086141840080615 1497.0 0.0 1497.0 
28.000516407525797 106.0 20.0 4988.139841688654 0.50859544458489 1497.0 0.0 1497.0 
30.000516407525797 106.0 20.0 4988.026385224274 0.5086291755465986 1497.0 0.0 1497.0 
32.000516407525794 106.0 20.0 4988.055408970976 0.5086277700898607 1497.0 0.0 1497.0 
34.0005164075258 106.0 20.0 4988.0448548812665 0.5086277700898599 1497.0 0.0 1497.0 
36.00019834800889 106.0 20.0 4988.094986807388 0.5086118415801638 1497.0 0.0 1497.0 
38.0005164075258 106.0 20.0 4988.02110817942 0.5086497889120861 1497.0 0.0 1497.0 
40.0005164075258 106.0 20.0 4988.134564643799 0.5086024718685783 1497.0 0.0 1497.0 
42.0005164075258 106.0 20.0 4988.0 0.5086263646331225 1497.0 0.0 1497.0 
44.0005164075258 106.0 20.0 4988.089709762533 0.5086137155224816 1497.0 0.0 1497.0 
46.00019834800889 106.0 20.0 4988.034300791557 0.5086319864600733 1497.0 0.0 1497.0 
48.0005164075258 106.0 20.0 4988.11345646438 0.5086118415801638 1497.0 0.0 1497.0 
50.0005164075258 106.0 20.0 4988.0369393139845 0.50864088768608 1497.0 0.0 1497.0 
52.0005164075258 106.0 20.0 4988.087071240106 0.5086015348974201 1497.0 0.0 1497.0 
54.0005164075258 106.0 20.0 4988.029023746702 0.5086254276619637 1497.0 0.0 1497.0 
56.00019834800889 106.0 20.0 4988.079155672824 0.5086273016042803 1497.0 0.0 1497.0 
58.0005164075258 106.0 20.0 4988.0527704485485 0.5086319864600733 1497.0 0.0 1497.0 
60.0005164075258 106.0 20.0 4988.1187335092345 0.5234215030536067 1497.0 0.0 1497.0 
62.00072957757527 104.0 20.0 436.41160949868083 0.6266167371763409 20.0 0.0 12.0 
64.00072957757527 96.0 19.0 436.38522427440637 0.5070903898696988 17.0 0.0 12.0 
66.0001983480089 96.0 19.0 436.38522427440637 0.5071022049730418 16.0 0.0 12.0 
68.00072957757527 96.0 19.0 436.38522427440637 0.5071022049730418 14.0 0.0 12.0 
70.00072957757527 96.0 19.0 436.38522427440637 0.5071022049730418 14.0 0.0 12.0 
72.00072957757527 96.0 19.0 436.38522427440637 0.5071022049730418 14.0 0.0 12.0 
74.00072957757527 96.0 19.0 436.38522427440637 0.5070983129389985 14.0 0.0 12.0 
76.0001983480089 96.0 19.0 436.38522427440637 0.5071022049730418 14.0 0.0 12.0 
78.00072957757527 96.0 19.0 436.38522427440637 0.5071022049730418 14.0 0.0 12.0 
80.00072957757527 96.0 19.0 436.38522427440637 0.5071022049730418 14.0 0.0 12.0 
82.00072957757527 96.0 19.0 436.38522427440637 0.5071022049730418 14.0 0.0 12.0 
84.00072957757527 96.0 19.0 436.38522427440637 0.5070983129389985 14.0 0.0 12.0 
86.0001983480089 96.0 19.0 436.38522427440637 0.5071022049730418 14.0 0.0 12.0 
88.00072957757527 96.0 19.0 436.39050131926115 0.5071022049730418 14.0 0.0 12.0 
90.00072957757527 96.0 19.0 436.38522427440637 0.5070983129389985 14.0 0.0 12.0 
92.00072957757527 96.0 19.0 436.38522427440637 0.5071022049730418 14.0 0.0 12.0 
94.00072957757527 96.0 19.0 436.38522427440637 0.6046597375298114 14.0 0.0 12.0 
96.0001983480089 88.0 18.0 436.3984168865435 0.5018625604454855 14.0 0.0 12.0 
98.00072957757527 88.0 18.0 436.382585751979 0.5018625604454855 14.0 0.0 12.0 
100.00072957757527 88.0 18.0 436.37730870712403 0.501859524658932 14.0 0.0 12.0 
102.00072957757527 88.0 18.0 436.37730870712403 0.5018625604454855 14.0 0.0 12.0 
104.00072957757527 88.0 18.0 436.37730870712403 0.5018625604454855 14.0 0.0 12.0 
106.0001983480089 88.0 18.0 436.37730870712403 0.5018625604454855 14.0 0.0 12.0 
108.00072957757527 88.0 18.0 436.382585751979 0.5018625604454855 14.0 0.0 12.0 
110.00072957757527 88.0 18.0 436.37730870712403 0.501859524658932 14.0 0.0 12.0 
112.00072957757527 88.0 18.0 436.37730870712403 0.5018625604454855 14.0 0.0 12.0 
114.00072957757527 88.0 18.0 436.37730870712403 0.5018625604454855 14.0 0.0 12.0 
116.0001983480089 88.0 18.0 436.37730870712403 0.5018625604454855 14.0 0.0 12.0 
118.00072957757527 88.0 18.0 436.382585751979 0.5018625604454855 14.0 0.0 12.0 
120.00072957757527 88.0 18.0 436.37730870712403 0.501859524658932 14.0 0.0 12.0 
122.00072957757527 88.0 18.0 433.3509234828495 0.5018625604454855 13.0 0.0 11.0 
124.00072957757527 88.0 18.0 433.3509234828495 0.5018625604454855 13.0 0.0 11.0 
126.0001983480089 88.0 18.0 433.3509234828495 0.5018625604454855 13.0 0.0 11.0 
128.00072957757527 88.0 18.0 433.35620052770446 0.5018625604454855 13.0 0.0 11.0 
130.00072957757524 102.0 20.0 436.40105540897105 0.49058484128546825 15.0 0.0 12.0 
132.00072957757524 102.0 20.0 436.40105540897105 0.49056293958463587 15.0 0.0 12.0 
134.00072957757524 102.0 20.0 436.38522427440637 0.4904341841312622 15.0 0.0 12.0 
136.0001983480089 112.0 21.0 439.424802110818 0.5010052479109478 16.0 0.0 13.0 
138.00072957757524 121.0 22.0 442.45910290237464 0.49586235615512453 17.0 0.0 14.0 
140.00072957757524 126.0 22.0 442.4643799472295 0.5560889822434797 17.0 0.0 14.0 
142.00072957757524 124.0 22.0 445.49868073878633 0.49713563321856025 17.0 0.0 15.0 
144.00072957757524 132.0 22.0 451.609498680739 0.5134490917257588 17.0 0.0 17.0 
146.0001983480089 132.0 22.0 451.59102902374684 0.5134345585761295 17.0 0.0 17.0 
148.00072957757524 132.0 22.0 451.588390501319 0.550108764175173 17.0 0.0 17.0 
150.00072957757524 127.0 21.0 451.551451187335 0.7266609083860952 18.0 0.0 17.0 
152.00072957757524 119.0 21.0 454.585751978892 0.518689865395077 18.0 0.0 18.0 
154.00072957757524 128.0 22.0 454.6174142480212 0.5346129112027969 18.0 0.0 18.0 
156.0001983480089 128.0 22.0 454.58839050131917 0.5331078518921966 18.0 0.0 18.0 
158.00072957757524 128.0 22.0 454.6015831134561 0.5331090731856376 18.0 0.0 18.0 
160.00072957757524 128.0 22.0 454.58047493403683 0.5414753489412858 18.0 0.0 18.0 
162.00072957757524 128.0 22.0 454.585751978892 0.6594320670400142 18.0 0.0 18.0 
164.00072957757524 122.0 21.0 454.58311345646416 0.5662693397174884 18.0 0.0 18.0 
166.0001983480089 118.0 21.0 454.5778364116099 0.5267711327280425 18.0 0.0 18.0 
168.00072957757524 118.0 21.0 454.5778364116099 0.5267751985136059 18.0 0.0 18.0 
170.00072957757524 118.0 21.0 454.5725593667546 0.5267711327280425 18.0 0.0 18.0 
172.00072957757524 119.0 21.0 454.5778364116099 0.5340159572494164 18.0 0.0 18.0 
174.00072957757524 118.0 21.0 454.56728232190005 0.6245763215339556 18.0 0.0 18.0 
176.0001983480089 115.0 20.0 454.5725593667546 0.4955697707504089 19.0 0.0 18.0 
178.00072957757524 118.0 21.0 457.61741424802125 0.5148975812850677 19.0 0.0 19.0 
180.00072957757524 118.0 21.0 457.6649076517153 0.5148625703538295 19.0 0.0 19.0 
182.00072957757524 128.0 22.0 460.6807387862799 0.5121446287769302 20.0 0.0 20.0 
184.00072957757524 128.0 22.0 460.7018469656992 0.5122155074141403 20.0 0.0 20.0 
186.0001983480089 130.0 22.0 460.69129287598935 0.6162171154424331 20.0 0.0 20.0 
188.00072957757524 120.0 21.0 460.6306068601581 0.5138637491150655 20.0 0.0 20.0 
190.00072957757524 120.0 21.0 460.6833773087072 0.5138429684332964 20.0 0.0 20.0 
192.00072957757524 122.0 21.0 460.69129287598935 0.5155505593970272 20.0 0.0 20.0 
194.00072957757524 122.0 21.0 460.6807387862799 0.5155501076430767 20.0 0.0 20.0 
196.0001983480089 122.0 21.0 460.67018469657006 0.5597072176709199 20.0 0.0 20.0 
198.00072957757524 124.0 22.0 463.7203166226915 0.6337908966794541 21.0 0.0 21.0 
200.00072957757524 120.0 21.0 463.69129287598946 0.5090481878798164 21.0 0.0 21.0 
202.00072957757524 120.0 21.0 463.68601583113457 0.5340545124351366 21.0 0.0 21.0 
204.00072957757524 118.0 21.0 463.6622691292879 0.5087655147435266 21.0 0.0 21.0 
206.0001983480089 118.0 21.0 463.65171503957805 0.508783735486235 21.0 0.0 21.0 
208.00072957757524 118.0 21.0 457.5989445910291 0.5677131816270652 19.0 0.0 19.0 
210.00072957757524 112.0 20.0 457.5989445910291 0.5140827900311798 19.0 0.0 19.0 
212.00072957757524 112.0 20.0 457.5989445910291 0.6358115343386858 19.0 0.0 19.0 
214.00072957757524 104.0 19.0 457.6068601583113 0.5189197818726293 19.0 0.0 19.0 
216.0001983480089 104.0 19.0 457.5963060686018 0.5189285389492266 19.0 0.0 19.0 
218.00072957757524 104.0 19.0 457.62269129287597 0.5189168628470965 19.0 0.0 19.0 
220.00072957757524 104.0 19.0 454.604221635884 0.5189124843087981 18.0 0.0 18.0 
222.00072957757524 104.0 19.0 451.551451187335 0.5189197818726298 17.0 0.0 17.0 
224.00072957757524 104.0 19.0 451.5646437994723 0.5189236739066723 17.0 0.0 17.0 
226.0001983480089 104.0 19.0 451.5672823219 0.518916376342841 17.0 0.0 17.0 
228.00072957757524 104.0 19.0 451.5646437994723 0.518911024796032 17.0 0.0 17.0 
230.00072957757524 104.0 19.0 451.57519788918194 0.5189256199236948 17.0 0.0 17.0 
232.00072957757524 104.0 19.0 451.57255936675466 0.5189134573173089 17.0 0.0 17.0 
234.00072957757524 104.0 19.0 445.49604221635894 0.5187481135835486 17.0 0.0 15.0 
236.0001983480089 104.0 19.0 445.514511873351 0.5212922470451964 17.0 0.0 15.0 
238.00072957757524 104.0 19.0 445.509234828496 0.5213134505223272 17.0 0.0 15.0 
240.00072957757524 104.0 19.0 445.4828496042216 0.5213347756255238 17.0 0.0 15.0 
242.00072957757524 104.0 19.0 445.50131926121367 0.5213401271723336 17.0 0.0 15.0 
244.00072957757524 104.0 19.0 442.47229551451204 0.5213299105829691 16.0 0.0 14.0 
246.0001983480089 104.0 19.0 442.4564643799471 0.5213333161127577 16.0 0.0 14.0 
248.00072957757524 104.0 19.0 442.4802110817941 0.5213294240787136 16.0 0.0 14.0 
250.00072957757524 104.0 19.0 442.46437994722953 0.5213294240787141 16.0 0.0 14.0 
252.00072957757524 104.0 19.0 442.448548812665 0.5213459652233983 16.0 0.0 14.0 
254.00072957757524 104.0 19.0 442.48284960422154 0.5405597068052276 16.0 0.0 14.0 
256.0001983480089 102.0 19.0 439.4538258575199 0.5198999051631139 15.0 0.0 13.0 
258.00072957757527 102.0 19.0 439.43007915567296 0.5198999051631049 15.0 0.0 13.0 
260.00072957757527 104.0 19.0 439.44327176780996 0.5034972493038097 16.0 0.0 13.0 
262.00072957757527 110.0 20.0 442.49604221635894 0.515007873035871 16.0 0.0 14.0 
264.00072957757527 110.0 20.0 442.490765171504 0.5149847164629535 16.0 0.0 14.0 
266.0001983480089 110.0 20.0 442.477572559367 0.5150150341725858 16.0 0.0 14.0 
268.00072957757527 110.0 20.0 439.4749340369393 0.5149972317205695 15.0 0.0 13.0 
270.00072957757527 110.0 20.0 436.424802110818 0.5150070699177346 14.0 0.0 12.0 
272.00072957757527 110.0 20.0 436.4089709762533 0.5254727311802218 14.0 0.0 12.0 
274.00072957757527 106.0 20.0 436.4116094986809 0.6528066311527448 14.0 0.0 12.0 
276.0001983480089 96.0 19.0 436.3852242744063 0.497484318335771 14.0 0.0 12.0 
278.00072957757527 105.0 20.0 439.41952506596294 0.492091037057778 15.0 0.0 13.0 
280.00072957757527 120.0 21.0 442.47229551451204 0.5226860096745886 16.0 0.0 14.0 
282.00072957757527 117.0 21.0 442.4617414248019 0.6357116194485561 16.0 0.0 14.0 
284.00072957757527 110.0 20.0 442.4617414248019 0.5048783542233168 16.0 0.0 14.0 
286.0001983480089 110.0 20.0 442.4617414248019 0.5048792911944731 16.0 0.0 14.0 
288.00072957757527 110.0 20.0 442.4749340369393 0.5048709923070688 16.0 0.0 14.0 
290.00072957757527 110.0 20.0 442.46437994722965 0.5988145801889218 16.0 0.0 14.0 
292.00072957757527 102.0 19.0 442.44327176780996 0.5093768974390956 16.0 0.0 14.0 
294.00072957757527 102.0 19.0 442.44327176780996 0.5093817624816493 16.0 0.0 14.0 
296.0001983480089 102.0 19.0 442.44327176780996 0.5093817624816493 16.0 0.0 14.0 
298.00072957757527 102.0 19.0 442.4591029023747 0.5093721713977564 16.0 0.0 14.0 
300.00072957757527 102.0 19.0 442.437994722955 0.509379816464628 16.0 0.0 14.0 
302.00072957757527 102.0 19.0 442.437994722955 0.5093903805570313 16.0 0.0 14.0 
304.00072957757527 102.0 19.0 442.437994722955 0.5093903805570313 16.0 0.0 14.0 
306.0001983480089 102.0 19.0 442.437994722955 0.5093903805570313 16.0 0.0 14.0 
308.00072957757527 102.0 19.0 442.45382585752003 0.5093807894731385 16.0 0.0 14.0 
310.00072957757527 102.0 19.0 442.437994722955 0.5093836389980636 16.0 0.0 14.0 
312.00072957757527 102.0 19.0 442.437994722955 0.5093903805570313 16.0 0.0 14.0 
314.00072957757527 102.0 19.0 442.437994722955 0.5093903805570313 16.0 0.0 14.0 
316.0001983480089 102.0 19.0 442.437994722955 0.5093903805570313 16.0 0.0 14.0 
318.00072957757527 102.0 19.0 442.448548812665 0.5093855850150849 16.0 0.0 14.0 
320.00072957757527 102.0 19.0 442.437994722955 0.5093836389980636 16.0 0.0 14.0 
322.00072957757527 102.0 19.0 442.437994722955 0.5093903805570313 16.0 0.0 14.0 
324.00072957757527 104.0 20.0 442.437994722955 0.5086292882983803 16.0 0.0 14.0 
326.0001983480089 104.0 20.0 442.437994722955 0.5086292882983803 16.0 0.0 14.0 
328.00072957757527 104.0 20.0 442.45382585752003 0.5086203822919083 16.0 0.0 14.0 
330.00072957757527 104.0 20.0 442.437994722955 0.5086230282793388 16.0 0.0 14.0 
332.00072957757527 104.0 20.0 442.437994722955 0.5086292882983803 16.0 0.0 14.0 
334.00072957757527 104.0 20.0 439.4116094986809 0.6157721454412375 15.0 0.0 13.0 
336.0001983480089 102.0 19.0 439.4116094986809 0.5093903805570313 15.0 0.0 13.0 
338.00072957757527 102.0 19.0 439.42216358839045 0.5093855850150849 15.0 0.0 13.0 
340.00072957757527 102.0 19.0 436.39050131926115 0.5093750209226815 14.0 0.0 12.0 
342.00072957757527 102.0 19.0 436.39050131926115 0.5093817624816493 14.0 0.0 12.0 
344.00072957757527 106.0 19.0 439.424802110818 0.5165765991713217 15.0 0.0 13.0 
346.0001983480089 110.0 20.0 439.45910290237464 0.5141291807421465 15.0 0.0 13.0 
348.00072957757527 110.0 20.0 436.4459102902375 0.5141095712743255 14.0 0.0 12.0 
350.00072957757527 112.0 21.0 436.4036939313985 0.5130536862207223 14.0 0.0 12.0 
352.00072957757527 112.0 21.0 436.4327176781002 0.5130622851235213 14.0 0.0 12.0 
354.00072957757527 112.0 21.0 436.45382585751986 0.5130518168940236 14.0 0.0 12.0 
356.0001983480089 112.0 21.0 436.4379947229551 0.5130561786563137 14.0 0.0 12.0 
358.00072957757527 112.0 21.0 436.4274406332455 0.5229306403927617 14.0 0.0 12.0 
360.00072957757527 110.0 21.0 436.45118733509236 0.5149898787856277 14.0 0.0 12.0 
362.00072957757527 110.0 21.0 436.424802110818 0.515010898325806 14.0 0.0 12.0 
364.00072957757527 110.0 21.0 436.4036939313985 0.5150231112602203 14.0 0.0 12.0 
366.0001983480089 110.0 21.0 436.3984168865435 0.5150283453749667 14.0 0.0 12.0 
368.00072957757527 110.0 21.0 436.41424802110816 0.5150287815511945 14.0 0.0 12.0 
370.00072957757527 110.0 21.0 436.3984168865435 0.5150212834741159 14.0 0.0 12.0 
372.00072957757527 110.0 21.0 436.3984168865435 0.5150318347847975 14.0 0.0 12.0 
374.00072957757527 110.0 21.0 436.40897097625333 0.5845633997273461 14.0 0.0 12.0 
376.0001983480089 102.0 20.0 436.39577836411604 0.5106367818070416 14.0 0.0 12.0 
378.00072957757527 102.0 20.0 436.4063324538259 0.5106336195293812 14.0 0.0 12.0 
380.00072957757527 102.0 20.0 436.39050131926115 0.6534839000288807 14.0 0.0 12.0 
382.00072957757527 100.0 19.0 436.39050131926115 0.5115522966432821 14.0 0.0 12.0 
384.00072957757527 100.0 19.0 436.39050131926115 0.5115522966432821 14.0 0.0 12.0 
386.0001983480089 100.0 19.0 436.39050131926115 0.5115522966432821 14.0 0.0 12.0 
388.00072957757527 100.0 19.0 436.40105540897105 0.511548891113494 14.0 0.0 12.0 
390.00072957757527 100.0 19.0 436.3878627968338 0.6662328747880731 14.0 0.0 12.0 
392.00072957757527 96.0 18.0 436.382585751979 0.5140291957771692 15.0 0.0 12.0 
394.00072957757527 100.0 19.0 439.4274406332455 0.5115445125751962 15.0 0.0 13.0 
396.0001983480089 100.0 19.0 439.45910290237464 0.5115338094815781 15.0 0.0 13.0 
398.00072957757527 100.0 19.0 439.42216358839045 0.5115367285071099 15.0 0.0 13.0 
400.00072957757527 100.0 19.0 439.4511873350924 0.5115244732332478 15.0 0.0 13.0 
402.00072957757527 100.0 19.0 439.448548812665 0.5243479977467712 15.0 0.0 13.0 
404.00072957757527 99.0 19.0 439.4353562005276 0.6037922458715426 15.0 0.0 13.0 
406.0001983480089 96.0 19.0 439.42480211081806 0.5148462674764229 15.0 0.0 13.0 
408.00072957757527 96.0 19.0 439.4168865435355 0.5148574570742958 15.0 0.0 13.0 
410.00072957757527 96.0 19.0 439.4406332453825 0.514839607001497 15.0 0.0 13.0 
412.00072957757527 96.0 19.0 439.41424802110805 0.5533382124539242 15.0 0.0 13.0 
414.00072957757527 95.0 19.0 439.4353562005276 0.5407117849681631 15.0 0.0 13.0 
416.0001983480089 94.0 18.0 439.41424802110805 0.5152186612165119 15.0 0.0 13.0 
418.00072957757527 94.0 18.0 439.4406332453825 0.5152120836789789 15.0 0.0 13.0 
420.00072957757527 94.0 18.0 439.41424802110805 0.5152104694115252 15.0 0.0 13.0 
422.00072957757527 94.0 18.0 439.4353562005276 0.5152156254299585 15.0 0.0 13.0 
424.00072957757527 94.0 18.0 439.41424802110805 0.5152186612165119 15.0 0.0 13.0 
426.0001983480089 94.0 18.0 439.4353562005276 0.5152156254299585 15.0 0.0 13.0 
428.00072957757527 94.0 18.0 439.41952506596294 0.5152151194655323 15.0 0.0 13.0 
430.00072957757527 94.0 18.0 439.4353562005276 0.5152074336249716 15.0 0.0 13.0 
432.00072957757527 94.0 18.0 439.41424802110805 0.5152186612165119 15.0 0.0 13.0 
434.00072957757527 94.0 18.0 436.40897097625333 0.5152156254299585 14.0 0.0 12.0 
436.0001983480089 94.0 18.0 436.3878627968339 0.5152186612165119 14.0 0.0 12.0 
438.00072957757527 94.0 18.0 433.3878627968339 0.5463149616088607 13.0 0.0 11.0 
440.00072957757527 87.0 17.0 433.3667546174141 0.6374238292291287 13.0 0.0 11.0 
442.00072957757527 82.0 17.0 433.37467018469647 0.5052720783996546 13.0 0.0 11.0 
444.00072957757527 82.0 17.0 433.34828496042206 0.5052779512010236 13.0 0.0 11.0 
446.0001983480089 82.0 17.0 433.36939313984163 0.5052747889233637 13.0 0.0 11.0 
448.00072957757527 82.0 17.0 433.34828496042206 0.5052779512010236 13.0 0.0 11.0 
450.00072957757527 82.0 17.0 433.36939313984163 0.5052747889233637 13.0 0.0 11.0 
452.00072957757527 82.0 17.0 433.34828496042206 0.5052779512010236 13.0 0.0 11.0 
454.00072957757527 82.0 17.0 433.36939313984163 0.5052747889233637 13.0 0.0 11.0 
456.0001983480089 82.0 17.0 433.34828496042206 0.5052779512010236 13.0 0.0 11.0 
458.00072957757527 84.0 17.0 433.36939313984163 0.5081170145637148 14.0 0.0 11.0 
460.00072957757527 86.0 18.0 433.34828496042206 0.5008332827741238 14.0 0.0 11.0 
462.00072957757527 86.0 18.0 430.34300791556734 0.5008251873433145 13.0 0.0 10.0 
464.00072957757527 86.0 18.0 427.3034300791556 0.5008211396279099 13.0 0.0 9.0 
466.0001983480089 86.0 18.0 427.2823218997361 0.5020061083127269 13.0 0.0 9.0 
468.00072957757527 86.0 18.0 427.2823218997361 0.5020061083127269 13.0 0.0 9.0 
470.00072957757527 86.0 18.0 427.2823218997361 0.5020061083127269 13.0 0.0 9.0 
472.00072957757527 86.0 18.0 427.2823218997361 0.5020061083127269 13.0 0.0 9.0 
474.00072957757527 86.0 18.0 427.2823218997361 0.5020061083127269 13.0 0.0 9.0 
476.0001983480089 86.0 18.0 427.2823218997361 0.5020061083127269 13.0 0.0 9.0 
478.00072957757527 93.0 19.0 433.37203166226897 0.5019072849788035 14.0 0.0 11.0 
480.00072957757527 94.0 19.0 433.37994722955153 0.5022254967596224 14.0 0.0 11.0 
482.00072957757527 94.0 19.0 433.395778364116 0.502217712691535 14.0 0.0 11.0 
484.00072957757527 104.0 20.0 439.4511873350923 0.5051976082299172 15.0 0.0 13.0 
486.0001983480089 104.0 20.0 439.48284960422166 0.5029968972212353 15.0 0.0 13.0 
488.00072957757527 104.0 20.0 439.44591029023735 0.5809377093508251 15.0 0.0 13.0 
490.00072957757527 96.0 19.0 439.43271767810006 0.49748195531510364 15.0 0.0 13.0 
492.00072957757527 96.0 19.0 439.41160949868095 0.49748682035765635 15.0 0.0 13.0 
494.00072957757527 96.0 19.0 439.4168865435356 0.4974790362895698 15.0 0.0 13.0 
496.0001983480089 96.0 19.0 439.41160949868095 0.49748682035765635 15.0 0.0 13.0 
498.00072957757527 96.0 19.0 439.42216358839033 0.4974839013321247 15.0 0.0 13.0 
500.00072957757527 96.0 19.0 436.38522427440637 0.49748195531510364 14.0 0.0 12.0 
502.00072957757527 96.0 19.0 436.38522427440637 0.49748682035765635 14.0 0.0 12.0 
504.00072957757527 96.0 19.0 436.3905013192611 0.4974829283236142 14.0 0.0 12.0 
506.0001983480089 96.0 19.0 436.38522427440637 0.49748682035765635 14.0 0.0 12.0 
508.00072957757527 96.0 19.0 436.40105540897105 0.49748195531510253 14.0 0.0 12.0 
510.00072957757527 96.0 19.0 436.38522427440637 0.49748195531510364 14.0 0.0 12.0 
512.0007295775753 96.0 19.0 436.38522427440637 0.49748682035765635 14.0 0.0 12.0 
514.0007295775752 96.0 19.0 436.3905013192611 0.4974829283236295 14.0 0.0 12.0 
516.0001983480089 96.0 19.0 436.38522427440637 0.4974868203576739 14.0 0.0 12.0 
518.0007295775752 96.0 19.0 436.40105540897105 0.49748195531512057 14.0 0.0 12.0 
520.0007295775752 96.0 19.0 436.38522427440637 0.4974819553151184 14.0 0.0 12.0 
522.0007295775752 96.0 19.0 436.38522427440637 0.4974868203576739 14.0 0.0 12.0 
524.0007295775752 96.0 19.0 436.3905013192611 0.4974829283236295 14.0 0.0 12.0 
526.0001983480089 96.0 19.0 436.38522427440637 0.4973347877778586 14.0 0.0 12.0 
528.0007295775752 106.0 20.0 439.4353562005277 0.49966671776864574 15.0 0.0 13.0 
530.0007295775752 107.0 21.0 439.42480211081806 0.5095473611276768 15.0 0.0 13.0 
532.0007295775752 106.0 21.0 439.42480211081806 0.4933273786101761 15.0 0.0 13.0 
534.0007295775752 108.0 21.0 439.43007915567296 0.48566053505935575 16.0 0.0 13.0 
536.0001983480089 114.0 22.0 442.4696569920845 0.48963151050866677 16.0 0.0 14.0 
538.0007295775752 127.0 23.0 445.5672823218999 0.48241205356567546 18.0 0.0 15.0 
540.0007295775752 135.0 24.0 448.5593667546174 0.4983912729841048 18.0 0.0 16.0 
542.0007295775752 134.0 24.0 448.59894459102895 0.49128119429087946 18.0 0.0 16.0 
544.0007295775752 134.0 24.0 448.53825857519803 0.5903141222659205 18.0 0.0 16.0 
546.0001983480089 121.0 23.0 448.532981530343 0.5083449879807197 18.0 0.0 16.0 
548.0007295775752 120.0 23.0 445.5224274406331 0.5102421996394877 17.0 0.0 15.0 
550.0007295775752 121.0 23.0 445.5224274406331 0.5018675927032238 17.0 0.0 15.0 
552.0007295775752 130.0 24.0 448.5699208443271 0.5030125725708939 18.0 0.0 16.0 
554.0007295775752 130.0 24.0 448.57519788918194 0.5030126855093826 18.0 0.0 16.0 
556.0001983480089 132.0 24.0 448.5540897097626 0.508801157525485 18.0 0.0 16.0 
558.0007295775752 146.0 25.0 451.6253298153035 0.5259667820722925 20.0 0.0 17.0 
560.0007295775752 152.0 26.0 454.65435356200527 0.6003483951515616 20.0 0.0 18.0 
562.0007295775752 147.0 25.0 454.62269129287597 0.6144881221649615 20.0 0.0 18.0 
564.0007295775752 148.0 25.0 457.678100263852 0.5104130903952449 21.0 0.0 19.0 
566.0001983480089 146.0 25.0 457.6490765171503 0.6127976642100054 21.0 0.0 19.0 
568.0007295775752 138.0 24.0 457.6490765171503 0.49388699614045967 21.0 0.0 19.0 
570.0007295775752 138.0 24.0 457.65435356200527 0.49388753071596886 21.0 0.0 19.0 
572.0007295775752 138.0 24.0 457.617414248021 0.49391739165215726 21.0 0.0 19.0 
574.0007295775752 138.0 24.0 457.646437994723 0.5770089078078856 21.0 0.0 19.0 
576.0001983480089 128.0 23.0 457.6358839050131 0.49658378695241834 21.0 0.0 19.0 
578.0007295775752 128.0 23.0 457.62005277044864 0.5030368551834277 21.0 0.0 19.0 
580.0007295775752 127.0 23.0 457.59894459102895 0.6134591231875866 21.0 0.0 19.0 
582.0007295775752 118.0 22.0 457.58311345646433 0.5053907768854052 21.0 0.0 19.0 
584.0007295775752 118.0 22.0 457.57783641160967 0.505402245412385 21.0 0.0 19.0 
586.0001983480089 118.0 22.0 457.57783641160967 0.505402245412385 21.0 0.0 19.0 
588.0007295775752 118.0 22.0 457.59366754617406 0.50538335607383 21.0 0.0 19.0 
590.0007295775752 118.0 22.0 457.58311345646433 0.5298298243759768 21.0 0.0 19.0 
592.0007295775752 116.0 22.0 457.57783641160967 0.5071083801423422 21.0 0.0 19.0 
594.0007295775752 116.0 22.0 457.57783641160967 0.5071100666904275 21.0 0.0 19.0 
596.0001983480089 116.0 22.0 457.57783641160967 0.5071100666904275 21.0 0.0 19.0 
598.0007295775752 118.0 22.0 454.55672823219004 0.5053897649565541 20.0 0.0 18.0 
600.0007295775752 124.0 23.0 454.551451187335 0.5757260198286619 21.0 0.0 18.0 
602.0007295775752 118.0 23.0 451.5250659630606 0.5093119043315948 20.0 0.0 17.0 
604.0007295775752 121.0 23.0 451.5250659630606 0.49574138518061356 21.0 0.0 17.0 
606.0001983480089 132.0 24.0 454.551451187335 0.5017484082281245 21.0 0.0 18.0 
608.0007295775752 132.0 24.0 454.57255936675455 0.5620086984923023 21.0 0.0 18.0 
610.0007295775752 124.0 24.0 454.551451187335 0.5007444443645811 21.0 0.0 18.0 
612.0007295775752 124.0 24.0 454.551451187335 0.5007546690623461 21.0 0.0 18.0 
614.0007295775752 124.0 24.0 454.551451187335 0.5007546690623461 21.0 0.0 18.0 
616.0001983480089 124.0 24.0 454.55672823219004 0.5007334667435639 21.0 0.0 18.0 
618.0007295775752 130.0 24.0 457.604221635884 0.5797191618409444 22.0 0.0 19.0 
620.0007295775752 129.0 24.0 460.62796833773103 0.595698424428786 22.0 0.0 20.0 
622.0007295775752 126.0 23.0 457.5910290237468 0.5119292351168632 21.0 0.0 19.0 
624.0007295775752 126.0 23.0 457.5910290237468 0.5119292351168632 21.0 0.0 19.0 
626.0001983480089 126.0 23.0 454.56464379947226 0.5318898083863444 20.0 0.0 18.0 
628.0007295775752 126.0 23.0 454.56464379947226 0.5114311399536136 20.0 0.0 18.0 
630.0007295775752 140.0 24.0 457.6543535620053 0.5096865976533449 21.0 0.0 19.0 
632.0007295775752 144.0 24.0 457.693931398417 0.49743227342201024 21.0 0.0 19.0 
634.0007295775752 156.0 25.0 457.688654353562 0.5049439860961407 21.0 0.0 19.0 
636.0001983480089 155.0 25.0 457.6860158311347 0.5100288023400283 21.0 0.0 19.0 
638.0007295775752 156.0 25.0 454.61213720316607 0.512565980004353 20.0 0.0 18.0 
640.0007295775752 155.0 25.0 454.58575197889195 0.5739361093439992 20.0 0.0 18.0 
642.0007295775752 144.0 25.0 454.57519788918194 0.49798910777268496 20.0 0.0 18.0 
644.0007295775752 145.0 25.0 454.59366754617406 0.5123906463564433 20.0 0.0 18.0 
646.0001983480089 142.0 25.0 454.56992084432704 0.5999066923564687 20.0 0.0 18.0 
648.0007295775752 136.0 25.0 454.56992084432704 0.49253244264895646 20.0 0.0 18.0 
650.0007295775752 137.0 25.0 454.5831134564644 0.6494413107774154 20.0 0.0 18.0 
652.0007295775752 122.0 24.0 454.56992084432704 0.5158503528663706 20.0 0.0 18.0 
654.0007295775752 119.0 24.0 454.56464379947226 0.6325891506204806 20.0 0.0 18.0 
656.0001983480089 110.0 23.0 454.57519788918194 0.6450921496775196 20.0 0.0 18.0 
658.0007295775752 104.0 22.0 451.5435356200529 0.5250310824297245 19.0 0.0 17.0 
660.0007295775752 104.0 22.0 451.52242744063307 0.5250476106009602 19.0 0.0 17.0 
662.0007295775752 104.0 22.0 451.5461741424801 0.5250476106009602 19.0 0.0 17.0 
664.0007295775752 110.0 23.0 454.58575197889195 0.5259242199321101 20.0 0.0 18.0 
#####################################################################
# End of data export. Simulation finished at: 2019-03-05T14:51+0000 #
#####################################################################
