#####################################################################
# Alchemist log file - simulation started at: 2019-03-03T08:20+0000 #
#####################################################################
# seed = 9.0, bandwidth = 2.3713737056616552E7, accessPointCount = 531.8295896944988, baserange = 31.622776601683796
#
# The columns have the following meaning: 
# time neighbor_count[Sum] <value>@neighbor_count[Sum] packet_size[Mean] mean_delay[Mean] crowd[Sum] overcrowded[Sum] risk[Sum] 
0.0 NaN NaN NaN NaN NaN NaN NaN 
10.000337445961424 244.0 83.0 4983.143984220907 0.4968361841294613 1497.0 0.0 1497.0 
20.000337445961424 249.0 83.0 4983.2682445759365 0.49437306270933545 1497.0 0.0 1497.0 
30.000337445961424 246.0 83.0 4983.033530571992 0.5056450707407011 1497.0 0.0 1497.0 
40.00033744596142 244.0 82.0 4983.171597633136 0.4974774079959643 1497.0 0.0 1497.0 
50.00033744596142 248.0 84.0 4982.891518737672 0.49943784799495033 1497.0 0.0 1497.0 
60.00033744596142 248.0 84.0 4983.12426035503 0.49943779222218726 1497.0 0.0 1497.0 
70.00033744596142 252.0 85.0 454.44181459566 0.5007884978817575 42.0 0.0 24.0 
80.00033744596142 252.0 85.0 454.44181459566 0.5007884978817575 32.0 0.0 24.0 
90.00033744596142 255.0 86.0 454.44181459566 0.49857353622092154 29.0 0.0 24.0 
100.00033744596142 257.0 86.0 456.6646942800785 0.5241052654066176 31.0 0.0 25.0 
110.00033744596142 259.0 87.0 456.6646942800785 0.525921305754442 31.0 0.0 25.0 
120.00033744596142 260.0 87.0 458.9270216962517 0.49430368568142946 33.0 0.0 26.0 
130.0003374459614 253.0 85.0 458.9270216962517 0.4959221903899907 32.0 0.0 26.0 
140.0003374459614 253.0 85.0 458.9270216962517 0.5155338812561368 30.0 0.0 26.0 
150.0003374459614 252.0 84.0 458.9270216962517 0.49553344050201775 29.0 0.0 26.0 
160.0003374459614 252.0 84.0 456.66469428007844 0.49553501346425977 29.0 0.0 25.0 
170.0003374459614 254.0 84.0 456.66863905325374 0.49888282480286783 28.0 0.0 25.0 
180.0003374459614 258.0 85.0 456.66863905325374 0.4995809111351718 27.0 0.0 25.0 
190.0003374459614 260.0 85.0 454.4063116370804 0.4978973111362436 26.0 0.0 24.0 
200.0003374459614 260.0 85.0 454.4063116370804 0.52074706823595 26.0 0.0 24.0 
210.0003374459614 256.0 84.0 454.4063116370804 0.49927400093036145 26.0 0.0 24.0 
220.0003374459614 258.0 85.0 454.4063116370804 0.49928534702971367 26.0 0.0 24.0 
230.0003374459614 264.0 86.0 456.6686390532537 0.4992271899455253 28.0 0.0 25.0 
240.0003374459614 272.0 88.0 463.4674556213016 0.5289465864292969 30.0 0.0 28.0 
250.0003374459614 272.0 89.0 463.4694280078889 0.49701608103792866 28.0 0.0 28.0 
260.0003374459614 270.0 88.0 463.4654832347136 0.4969697235000581 28.0 0.0 28.0 
270.0003374459614 270.0 88.0 463.4654832347136 0.4969697235000581 28.0 0.0 28.0 
280.0003374459614 270.0 88.0 463.4654832347136 0.4992924172686313 28.0 0.0 28.0 
290.0003374459614 268.0 87.0 463.4654832347136 0.4992815398690846 28.0 0.0 28.0 
300.0003374459614 276.0 88.0 463.471400394478 0.49927549820174405 28.0 0.0 28.0 
310.0003374459614 276.0 90.0 465.727810650887 0.4999146971669697 31.0 0.0 29.0 
320.0003374459614 276.0 90.0 465.727810650887 0.4999146971669697 31.0 0.0 29.0 
330.0003374459614 277.0 90.0 465.727810650887 0.5342141645401275 31.0 0.0 29.0 
340.0003374459614 268.0 87.0 465.727810650887 0.5014353897265778 31.0 0.0 29.0 
350.0003374459614 266.0 87.0 465.727810650887 0.5072820736373538 31.0 0.0 29.0 
360.0003374459614 264.0 88.0 465.727810650887 0.4953032543883593 30.0 0.0 29.0 
370.0003374459614 261.0 86.0 463.4654832347137 0.5126547688639639 29.0 0.0 28.0 
380.0003374459614 258.0 85.0 463.4654832347137 0.49507680869070675 29.0 0.0 28.0 
390.0003374459614 262.0 87.0 463.4654832347137 0.49523013129849236 29.0 0.0 28.0 
400.0003374459614 260.0 86.0 463.4654832347137 0.4951546868406931 29.0 0.0 28.0 
410.0003374459614 259.0 86.0 461.20315581854015 0.5152002463373327 27.0 0.0 27.0 
420.0003374459614 254.0 84.0 461.20315581854015 0.4956252713093504 27.0 0.0 27.0 
430.0003374459614 254.0 84.0 461.20315581854015 0.4956252713093504 27.0 0.0 27.0 
440.0003374459614 254.0 84.0 461.20315581854015 0.4956252713093504 27.0 0.0 27.0 
450.0003374459614 258.0 85.0 463.46548323471376 0.49612001905572917 30.0 0.0 28.0 
460.0003374459614 268.0 86.0 465.7337278106512 0.49926199544948674 30.0 0.0 29.0 
470.0003374459614 260.0 85.0 467.994082840237 0.5004944520083789 33.0 0.0 30.0 
480.0003374459614 260.0 85.0 467.99013806706137 0.5004944574060942 33.0 0.0 30.0 
490.0003374459614 264.0 87.0 467.99013806706137 0.5004786023590787 33.0 0.0 30.0 
500.0003374459614 264.0 87.0 467.99013806706137 0.49933285128783006 33.0 0.0 30.0 
510.0003374459614 260.0 86.0 467.99013806706137 0.4993281294195488 31.0 0.0 30.0 
520.0003374459613 258.0 85.0 465.727810650887 0.4993207449656978 31.0 0.0 29.0 
530.0003374459613 258.0 85.0 463.46548323471364 0.4993207449656978 28.0 0.0 28.0 
540.0003374459613 256.0 85.0 463.46548323471364 0.49932640094504227 28.0 0.0 28.0 
550.0003374459613 260.0 87.0 463.46548323471364 0.4993466080587285 28.0 0.0 28.0 
560.0003374459613 266.0 88.0 463.4654832347136 0.5280355333485953 30.0 0.0 28.0 
570.0003374459613 266.0 86.0 468.02564102564133 0.4995910795365552 30.0 0.0 30.0 
580.0003374459613 264.0 86.0 468.00591715976344 0.4995945783000967 30.0 0.0 30.0 
590.0003374459613 264.0 86.0 468.0335305719917 0.4995945437674697 30.0 0.0 30.0 
600.0003374459613 265.0 87.0 468.02958579881647 0.5297317069035381 30.0 0.0 30.0 
610.0003374459613 266.0 89.0 468.01972386587767 0.5100322346027493 30.0 0.0 30.0 
620.0003374459613 258.0 85.0 470.2583826429979 0.5009205625752049 33.0 0.0 31.0 
630.0003374459613 258.0 85.0 472.5502958579879 0.5002823339400091 34.0 0.0 32.0 
640.0003374459613 257.0 85.0 477.080867850099 0.4978436497627555 35.0 0.0 34.0 
650.0003374459613 263.0 88.0 477.07297830374824 0.5057152375105878 36.0 0.0 34.0 
660.0003374459613 270.0 88.0 472.5305719921113 0.5117419485533958 36.0 0.0 32.0 
#####################################################################
# End of data export. Simulation finished at: 2019-03-03T08:23+0000 #
#####################################################################
