#####################################################################
# Alchemist log file - simulation started at: 2019-03-12T11:29+0000 #
#####################################################################
# seed = 5.0, bandwidth = 4216.965034285822, accessPointCount = 1031.338537721246, baserange = 31.622776601683796
#
# The columns have the following meaning: 
# time neighbor_count[Sum] <value>@neighbor_count[Sum] packet_size[Mean] mean_delay[Mean] crowd[Sum] overcrowded[Sum] risk[Sum] 
0.0 NaN NaN NaN NaN NaN NaN NaN 
2.000006022706755 47.0 35.0 4978.286392405063 0.28284142955710784 1497.0 0.0 1497.0 
4.000054491034843 211.0 141.0 4980.664556962025 1.0734736553952182 1497.0 0.0 1497.0 
6.000054491034843 278.0 166.0 4981.351265822785 1.3977889227691638 1497.0 0.0 1497.0 
8.000054491034842 282.0 167.0 4980.420886075949 1.5381500032888182 1497.0 0.0 1497.0 
10.000054491034842 305.0 171.0 4980.460443037975 1.2779758320393573 1497.0 0.0 1497.0 
12.000054491034842 354.0 179.0 4979.974683544304 1.6283570132626302 1497.0 0.0 1497.0 
14.000054491034842 356.0 180.0 4980.147151898735 1.5816210450804555 1497.0 0.0 1497.0 
16.00005449103484 356.0 180.0 4980.215189873417 1.7479291977740492 1497.0 0.0 1497.0 
18.00005449103484 356.0 180.0 4980.080696202532 1.858906349270974 1497.0 0.0 1497.0 
20.00005449103484 356.0 180.0 4979.954113924051 1.8430127353733088 1497.0 0.0 1497.0 
22.00005449103484 356.0 180.0 4979.893987341772 1.6733341540828 1497.0 0.0 1497.0 
24.00005449103484 356.0 180.0 4980.118670886076 2.09456141450355 1497.0 0.0 1497.0 
26.00005449103484 356.0 180.0 4979.973101265823 2.0457059875860053 1497.0 0.0 1497.0 
28.00005449103484 356.0 180.0 4979.916139240506 2.135513386149036 1497.0 0.0 1497.0 
30.00005449103484 356.0 180.0 4980.028481012659 2.011638971080023 1497.0 0.0 1497.0 
32.000054491034845 356.0 180.0 4979.770569620253 2.2732605690184835 1497.0 0.0 1497.0 
34.000054491034845 353.0 179.0 4980.136075949367 1.9861043297346106 1497.0 0.0 1497.0 
36.000054491034845 344.0 175.0 4980.106012658228 1.9258170959072798 1497.0 0.0 1497.0 
38.000054491034845 344.0 175.0 4979.830696202532 1.4811212868957397 1497.0 0.0 1497.0 
40.000054491034845 344.0 175.0 4979.957278481013 1.5958875672737631 1497.0 0.0 1497.0 
42.000054491034845 342.0 174.0 4979.851265822785 1.452779220547627 1497.0 0.0 1497.0 
44.000054491034845 342.0 174.0 4980.0094936708865 1.646859217898935 1497.0 0.0 1497.0 
46.000054491034845 343.0 174.0 4979.9968354430375 1.3791472524003776 1497.0 0.0 1497.0 
48.000054491034845 344.0 174.0 4979.849683544304 1.5043522160714478 1497.0 0.0 1497.0 
50.000054491034845 344.0 174.0 4979.966772151898 1.3947041803660472 1497.0 0.0 1497.0 
52.000054491034845 344.0 174.0 4979.805379746836 1.51155572116433 1497.0 0.0 1497.0 
54.000054491034845 345.0 174.0 4980.055379746836 1.5554293278366143 1497.0 0.0 1497.0 
56.000054491034845 345.0 174.0 4979.927215189873 1.5050921087949625 1497.0 0.0 1497.0 
58.000054491034845 350.0 175.0 4979.90664556962 1.25122533931427 1497.0 0.0 1497.0 
60.000054491034845 350.0 175.0 4980.006329113924 1.633699131349063 1497.0 0.0 1497.0 
62.00010179366992 354.0 177.0 438.2072784810122 0.9798587069509677 96.0 0.0 21.0 
64.00010179366993 354.0 177.0 438.1993670886075 0.8621411947976219 85.0 0.0 21.0 
66.00010179366993 354.0 177.0 438.1898734177207 0.5904379191052187 71.0 0.0 21.0 
68.00010179366993 356.0 178.0 438.17405063291227 0.7585982318384007 54.0 0.0 21.0 
70.00010179366993 356.0 178.0 438.1724683544301 0.7893169535619192 38.0 0.0 21.0 
72.00010179366993 356.0 178.0 438.1693037974677 0.9245429339148328 31.0 0.0 21.0 
74.00010179366993 356.0 178.0 438.17405063291227 0.7792530637651475 29.0 0.0 21.0 
76.00010179366993 356.0 178.0 438.1819620253169 0.9005811919715799 29.0 0.0 21.0 
78.00010179366993 356.0 178.0 438.17879746835484 0.9562457631541336 29.0 0.0 21.0 
80.00010179366993 356.0 178.0 438.17879746835484 1.1583776619387531 29.0 0.0 21.0 
82.00010179366993 358.0 179.0 438.1851265822793 1.1307749196253556 28.0 0.0 21.0 
84.00010179366993 358.0 179.0 438.18037974683506 1.0932569347668295 26.0 0.0 21.0 
86.00010179366993 358.0 179.0 438.17721518987275 1.1903456974640965 26.0 0.0 21.0 
88.00010179366993 358.0 179.0 438.17721518987275 1.3499687133371119 25.0 0.0 21.0 
90.00010179366993 358.0 179.0 438.17721518987275 1.4012926490525424 25.0 0.0 21.0 
92.00010179366993 354.0 178.0 438.1851265822793 1.2435928838926642 25.0 0.0 21.0 
94.00010179366993 354.0 179.0 432.72310126582255 1.161185929882248 25.0 0.0 18.0 
96.00010179366993 352.0 178.0 430.9082278481017 1.051691572371954 25.0 0.0 17.0 
98.00010179366993 354.0 179.0 430.9082278481017 1.0447265228194964 25.0 0.0 17.0 
100.00010179366993 353.0 179.0 430.9082278481017 1.0900468118943292 24.0 0.0 17.0 
102.00010179366993 352.0 178.0 430.9161392405058 0.8153001460760991 22.0 0.0 17.0 
104.00010179366993 352.0 178.0 430.90031645569604 0.964433439560857 21.0 0.0 17.0 
106.00010179366993 350.0 177.0 430.90348101265835 0.842943274386659 21.0 0.0 17.0 
108.00010179366993 350.0 177.0 430.90031645569604 1.0079933587891183 21.0 0.0 17.0 
110.00010179366993 352.0 178.0 430.90189873417745 0.8366816670995374 22.0 0.0 17.0 
112.00010179366993 352.0 178.0 430.9129746835435 0.9778362154471181 22.0 0.0 17.0 
114.00010179366993 352.0 178.0 430.911392405064 1.04434146332085 22.0 0.0 17.0 
116.00010179366993 352.0 178.0 430.90506329113975 1.2049611888248073 22.0 0.0 17.0 
118.00010179366993 352.0 178.0 430.9082278481017 1.2714346860882522 22.0 0.0 17.0 
120.00010179366993 354.0 178.0 430.90664556962025 1.1945382172031376 22.0 0.0 17.0 
122.00010179366993 352.0 177.0 430.90664556962025 0.9585030452616432 22.0 0.0 17.0 
124.00010179366993 352.0 177.0 429.088607594936 1.1297969327755086 21.0 0.0 16.0 
126.00010179366993 352.0 177.0 429.0917721518983 1.1997929789566397 21.0 0.0 16.0 
128.00010179366993 352.0 177.0 429.088607594936 1.3647257339985315 21.0 0.0 16.0 
130.00010179366993 354.0 177.0 430.9193037974677 1.1762375558774798 19.0 0.0 17.0 
132.00010179366993 352.0 177.0 430.900316455696 1.1838175215808813 19.0 0.0 17.0 
134.00010179366993 353.0 177.0 430.9034810126583 0.9771552217814126 19.0 0.0 17.0 
136.00010179366993 353.0 177.0 430.900316455696 1.003724878779673 19.0 0.0 17.0 
138.00010179366993 352.0 177.0 430.9034810126583 0.9139446024131341 19.0 0.0 17.0 
140.00010179366993 356.0 177.0 430.90981012658267 0.7729872373905535 19.0 0.0 17.0 
142.00010179366993 356.0 177.0 430.9161392405057 0.754310500699307 19.0 0.0 17.0 
144.00010179366993 356.0 177.0 430.9129746835434 0.890547680827495 19.0 0.0 17.0 
146.00010179366993 356.0 177.0 430.9129746835434 0.9348617086409514 19.0 0.0 17.0 
148.00010179366993 356.0 177.0 430.9161392405057 1.0808706517086462 19.0 0.0 17.0 
150.00010179366993 359.0 177.0 429.10284810126615 0.8505265694871827 19.0 0.0 16.0 
152.00010179366993 358.0 176.0 427.28797468354344 0.693155268404587 19.0 0.0 15.0 
154.00010179366993 358.0 176.0 427.28797468354344 0.7258963833981271 19.0 0.0 15.0 
156.00010179366993 358.0 176.0 427.2848101265829 0.8740140065157492 19.0 0.0 15.0 
158.00010179366993 358.0 176.0 427.2848101265829 0.9195432052876739 19.0 0.0 15.0 
160.00010179366993 358.0 176.0 427.2816455696206 0.7951040246299271 19.0 0.0 15.0 
162.00010179366993 358.0 176.0 427.2895569620246 0.7765828003841032 19.0 0.0 15.0 
164.00010179366993 358.0 176.0 427.27373417721503 0.9422160181434169 19.0 0.0 15.0 
166.00010179366993 358.0 176.0 427.27373417721503 1.017667854090402 19.0 0.0 15.0 
168.00010179366993 358.0 176.0 427.27689873417745 1.1957000071225572 19.0 0.0 15.0 
170.00010179366993 360.0 176.0 427.27689873417745 0.9870889615572932 19.0 0.0 15.0 
172.00010179366993 360.0 176.0 427.2816455696206 1.1148267681514041 19.0 0.0 15.0 
174.00010179366993 358.0 175.0 427.2816455696206 0.9926059074359037 18.0 0.0 15.0 
176.00010179366993 358.0 175.0 427.2784810126586 1.1588842642722 17.0 0.0 15.0 
178.00010179366993 359.0 176.0 427.2816455696206 1.2329727246514444 17.0 0.0 15.0 
180.00010179366993 362.0 177.0 427.2848101265829 1.1280680123414686 17.0 0.0 15.0 
182.00010179366993 362.0 177.0 427.28797468354344 1.152065920782504 17.0 0.0 15.0 
184.00010179366993 360.0 176.0 427.2816455696206 1.0801204224171626 17.0 0.0 15.0 
186.00010179366993 360.0 176.0 427.2816455696206 1.1433700612410405 17.0 0.0 15.0 
188.00010179366993 360.0 176.0 427.2816455696206 1.3077060467215995 17.0 0.0 15.0 
190.00010179366993 362.0 177.0 427.2848101265829 1.1063885413501249 17.0 0.0 15.0 
192.00010179366993 362.0 176.0 427.2816455696206 1.0301946497558037 17.0 0.0 15.0 
194.00010179366993 360.0 175.0 427.2784810126586 0.8339159614678746 17.0 0.0 15.0 
196.00010179366993 360.0 175.0 427.2784810126586 0.9828749389982803 17.0 0.0 15.0 
198.00010179366993 362.0 176.0 427.2784810126586 1.023717412949439 17.0 0.0 15.0 
200.00010179366993 362.0 176.0 427.27531645569627 0.8944797329501822 17.0 0.0 15.0 
202.00010179366993 362.0 176.0 427.2816455696206 0.8759760383689019 17.0 0.0 15.0 
204.00010179366993 362.0 176.0 427.2784810126586 1.0235745605363893 17.0 0.0 15.0 
206.00010179366993 362.0 176.0 427.2784810126586 1.0677248068418075 17.0 0.0 15.0 
208.00010179366993 364.0 176.0 427.2816455696206 0.9532684516457001 17.0 0.0 15.0 
210.00010179366993 366.0 176.0 427.2784810126586 0.7016147526864981 17.0 0.0 15.0 
212.00010179366993 366.0 176.0 427.2816455696206 0.7920504528727409 17.0 0.0 15.0 
214.00010179366993 366.0 176.0 427.2784810126586 0.8298983192920361 17.0 0.0 15.0 
216.00010179366993 366.0 176.0 427.2784810126586 0.9716422896074343 17.0 0.0 15.0 
218.00010179366993 365.0 176.0 427.2816455696206 0.865237087024626 17.0 0.0 15.0 
220.00010179366993 367.0 176.0 429.10284810126615 0.7298853307617947 18.0 0.0 16.0 
222.00010179366993 367.0 176.0 429.09968354430373 0.7322765902959116 18.0 0.0 16.0 
224.00010179366993 369.0 176.0 429.0933544303794 0.8861062310808039 19.0 0.0 16.0 
226.00010179366993 370.0 177.0 429.0933544303794 0.931994526006197 19.0 0.0 16.0 
228.00010179366993 370.0 177.0 429.0965189873414 1.091452547112258 19.0 0.0 16.0 
230.00010179366993 370.0 177.0 429.0933544303794 0.8749532643107676 19.0 0.0 16.0 
232.00010179366993 370.0 177.0 429.09810126582255 1.0047520919853756 19.0 0.0 16.0 
234.00010179366993 372.0 178.0 429.09810126582255 1.0792837805036428 19.0 0.0 16.0 
236.00010179366993 372.0 178.0 429.09493670886025 1.2659978524253193 19.0 0.0 16.0 
238.00010179366993 372.0 178.0 429.09810126582255 1.1807833678515218 19.0 0.0 16.0 
240.00010179366993 372.0 178.0 429.09810126582255 1.0834288704970254 19.0 0.0 16.0 
242.00010179366993 372.0 178.0 429.0917721518982 1.1228508316762615 19.0 0.0 16.0 
244.00010179366993 373.0 178.0 430.9129746835434 1.316412003767571 20.0 0.0 17.0 
246.00010179366993 372.0 178.0 430.9034810126585 1.2502245415085838 20.0 0.0 17.0 
248.00010179366993 370.0 178.0 430.90664556962054 1.328334785331371 20.0 0.0 17.0 
250.00010179366993 370.0 178.0 430.90664556962054 1.1400123045086379 21.0 0.0 17.0 
252.00010179366993 370.0 178.0 430.90031645569616 1.2976982861484878 21.0 0.0 17.0 
254.00010179366993 374.0 179.0 432.72943037974727 1.3581830708575158 22.0 0.0 18.0 
256.00010179366996 375.0 179.0 432.71993670886025 1.568804788409559 22.0 0.0 18.0 
258.00010179366996 373.0 179.0 432.72310126582255 1.2545499094703543 22.0 0.0 18.0 
260.00010179366996 374.0 179.0 434.54272151898715 1.1701243388376799 22.0 0.0 19.0 
262.00010179366996 374.0 179.0 434.5458860759492 1.1947433718291636 22.0 0.0 19.0 
264.00010179366996 374.0 179.0 434.5458860759492 1.2271143867193157 22.0 0.0 19.0 
266.00010179366996 374.0 179.0 434.53797468354327 1.3154816408313992 22.0 0.0 19.0 
268.00010179366996 373.0 179.0 434.53797468354327 1.4040852932855408 22.0 0.0 19.0 
270.00010179366996 371.0 178.0 434.53481012658267 1.0798277789058572 22.0 0.0 19.0 
272.00010179366996 372.0 179.0 434.53481012658267 1.1984460564206414 22.0 0.0 19.0 
274.00010179366996 372.0 179.0 434.54113924050563 1.2924283750865042 21.0 0.0 19.0 
276.00010179366996 371.0 179.0 434.53481012658267 1.4414305492261428 21.0 0.0 19.0 
278.00010179366996 370.0 178.0 434.53797468354327 1.4027847735285277 21.0 0.0 19.0 
280.00010179366996 369.0 177.0 434.53481012658267 1.2632417112106684 21.0 0.0 19.0 
282.00010179366996 371.0 178.0 434.53797468354327 1.1634874598479907 21.0 0.0 19.0 
284.00010179366996 372.0 179.0 434.53481012658267 1.308119043110524 21.0 0.0 19.0 
286.00010179366996 372.0 179.0 434.53481012658267 1.4103152421792862 21.0 0.0 19.0 
288.00010179366996 372.0 179.0 434.53797468354327 1.5581240863262775 21.0 0.0 19.0 
290.00010179366996 372.0 179.0 434.53481012658267 1.5048769984085815 21.0 0.0 19.0 
292.00010179366996 368.0 177.0 434.53481012658267 1.5651398970640085 21.0 0.0 19.0 
294.00010179366996 366.0 178.0 434.53481012658267 1.3811914292796115 21.0 0.0 19.0 
296.00010179366996 365.0 178.0 434.53481012658267 1.4575084038185935 21.0 0.0 19.0 
298.00010179366996 365.0 177.0 434.53797468354327 1.2023414326004929 21.0 0.0 19.0 
300.00010179366996 354.0 176.0 434.5458860759492 1.1859080398183666 21.0 0.0 19.0 
302.00010179366996 356.0 177.0 434.5332278481019 1.2590423424409698 23.0 0.0 19.0 
304.00010179366996 359.0 178.0 434.5300632911398 1.4738701222699058 23.0 0.0 19.0 
306.00010179366996 359.0 178.0 434.5300632911398 1.5043060230652656 23.0 0.0 19.0 
308.00010179366996 356.0 178.0 434.5300632911398 1.4106967687098637 23.0 0.0 19.0 
310.00010179366996 354.0 177.0 434.5363924050642 1.3089381284689534 23.0 0.0 19.0 
312.00010179366996 354.0 177.0 434.5300632911398 1.5013467521882002 22.0 0.0 19.0 
314.00010179366996 352.0 176.0 434.5332278481019 1.3369798507216568 22.0 0.0 19.0 
316.00010179366996 353.0 176.0 432.7151898734172 1.2830123271473342 22.0 0.0 18.0 
318.00010179366996 352.0 176.0 432.7151898734172 1.0705472563372047 22.0 0.0 18.0 
320.00010179366996 352.0 176.0 432.7183544303795 1.2373582664947353 22.0 0.0 18.0 
322.00010179366996 352.0 176.0 432.7183544303795 1.1626249762015826 23.0 0.0 18.0 
324.00010179366996 358.0 177.0 436.3734177215193 1.2663717883869976 23.0 0.0 20.0 
326.00010179366996 358.0 177.0 436.34493670886025 1.1687062328337567 23.0 0.0 20.0 
328.00010179366996 358.0 177.0 436.34968354430424 1.3345134967768038 23.0 0.0 20.0 
330.00010179366996 357.0 177.0 436.3686708860753 1.3220790043438806 23.0 0.0 20.0 
332.00010179366996 354.0 175.0 436.3686708860753 1.1144038076167433 23.0 0.0 20.0 
334.00010179366996 354.0 175.0 436.36075949367165 0.9649348585037973 23.0 0.0 20.0 
336.00010179366996 354.0 175.0 436.35443037974727 1.122344592233483 23.0 0.0 20.0 
338.00010179366996 354.0 175.0 436.35443037974727 1.1996385930903246 23.0 0.0 20.0 
340.00010179366996 353.0 175.0 436.36708860759495 1.4051508165268425 23.0 0.0 20.0 
342.00010179366996 350.0 174.0 434.54113924050574 1.2176717983673533 23.0 0.0 19.0 
344.00010179366996 353.0 175.0 434.5427215189874 1.1898553267103738 23.0 0.0 19.0 
346.00010179366996 354.0 176.0 434.53006329113975 1.2789308586249912 23.0 0.0 19.0 
348.00010179366996 354.0 176.0 434.53006329113975 1.4613240271871357 23.0 0.0 19.0 
350.00010179366996 355.0 176.0 434.53639240506413 1.4083495061253437 23.0 0.0 19.0 
352.00010179366996 354.0 176.0 434.53006329113975 1.2266645515035417 23.0 0.0 19.0 
354.00010179366996 356.0 177.0 434.5332278481018 1.2708714911288135 23.0 0.0 19.0 
356.00010179366996 354.0 176.0 434.53006329113975 1.2762347099399942 23.0 0.0 19.0 
358.00010179366996 351.0 176.0 434.53639240506413 1.274114413976855 23.0 0.0 19.0 
360.00010179366996 352.0 176.0 434.53639240506413 1.2581311074883201 24.0 0.0 19.0 
362.00010179366996 350.0 176.0 434.54113924050574 0.910397755231484 24.0 0.0 19.0 
364.00010179366996 350.0 176.0 434.52531645569576 1.0883424686713472 24.0 0.0 19.0 
366.00010179366996 350.0 176.0 434.52531645569576 1.1380415176034224 24.0 0.0 19.0 
368.00010179366996 348.0 176.0 432.71044303797504 1.0329122157967865 23.0 0.0 18.0 
370.00010179366996 348.0 176.0 432.713607594936 0.8657541947056887 22.0 0.0 18.0 
372.00010179366996 348.0 176.0 432.71044303797504 1.0075475077755969 22.0 0.0 18.0 
374.00010179366996 348.0 176.0 432.713607594936 1.0868788147664787 22.0 0.0 18.0 
376.00010179366996 348.0 176.0 432.71044303797504 1.2896143770765094 22.0 0.0 18.0 
378.00010179366996 348.0 176.0 432.71044303797504 1.3090430463298501 21.0 0.0 18.0 
380.00010179366996 348.0 176.0 432.713607594936 1.3061555083359286 21.0 0.0 18.0 
382.00010179366996 347.0 175.0 432.713607594936 1.284589729390848 21.0 0.0 18.0 
384.00010179366996 347.0 175.0 432.71044303797504 1.0755737214635839 21.0 0.0 18.0 
386.00010179366996 348.0 176.0 432.71044303797504 1.1271518381861323 21.0 0.0 18.0 
388.00010179366996 348.0 176.0 432.71044303797504 1.0612339867731302 21.0 0.0 18.0 
390.00010179366996 348.0 176.0 432.713607594936 1.101101580650424 21.0 0.0 18.0 
392.00010179366996 349.0 176.0 430.89556962025273 1.2741601570924719 20.0 0.0 17.0 
394.00010179366996 350.0 176.0 430.89873417721503 1.362690891950968 20.0 0.0 17.0 
396.00010179366996 350.0 176.0 430.89556962025273 1.4847910140510903 20.0 0.0 17.0 
398.00010179366996 346.0 175.0 430.89556962025273 1.1248300108808942 20.0 0.0 17.0 
400.00010179366996 345.0 175.0 429.0838607594942 1.1882992625385904 19.0 0.0 16.0 
402.00010179366996 346.0 175.0 427.26898734177155 1.0524197091994527 19.0 0.0 15.0 
404.00010179366996 344.0 174.0 427.2658227848096 1.030200858960081 19.0 0.0 15.0 
406.00010179366996 344.0 174.0 427.2658227848096 0.8508235437028107 18.0 0.0 15.0 
408.00010179366996 344.0 174.0 427.2658227848096 0.9864305686783844 18.0 0.0 15.0 
410.00010179366996 344.0 174.0 427.26898734177155 1.0455234065083217 17.0 0.0 15.0 
412.00010179366996 350.0 177.0 427.2658227848096 1.1923613264005093 17.0 0.0 15.0 
414.00010179366996 350.0 177.0 427.2658227848096 1.1821141895710932 17.0 0.0 15.0 
416.00010179366996 350.0 177.0 427.2658227848096 1.149715154007501 17.0 0.0 15.0 
418.00010179366996 350.0 176.0 427.2658227848096 1.093984819129426 17.0 0.0 15.0 
420.00010179366996 350.0 177.0 427.26898734177155 1.1298236531033412 17.0 0.0 15.0 
422.00010179366996 353.0 178.0 425.45411392405106 1.2156898850117657 18.0 0.0 14.0 
424.00010179366996 356.0 178.0 425.4509493670887 0.9154255632048277 19.0 0.0 14.0 
426.00010179366996 358.0 178.0 427.27373417721503 0.9752183173631526 19.0 0.0 15.0 
428.00010179366996 360.0 179.0 427.27056962025273 1.151675101782708 19.0 0.0 15.0 
430.00010179366996 362.0 180.0 427.27373417721503 1.2158604314218004 19.0 0.0 15.0 
432.00010179366996 359.0 179.0 427.27056962025273 1.0584132198831488 18.0 0.0 15.0 
434.00010179366996 361.0 180.0 427.27689873417745 0.996618555266344 17.0 0.0 15.0 
436.00010179366996 364.0 181.0 427.27056962025273 1.0952766987374345 17.0 0.0 15.0 
438.00010179366996 366.0 182.0 427.27056962025273 1.2269375254804382 17.0 0.0 15.0 
440.00010179366996 366.0 182.0 427.27056962025273 1.3816022485125081 17.0 0.0 15.0 
442.00010179366996 366.0 182.0 427.27373417721503 1.2972231459342314 17.0 0.0 15.0 
444.00010179366996 366.0 182.0 427.27373417721503 1.4948406296879249 17.0 0.0 15.0 
446.00010179366996 365.0 181.0 427.27056962025273 1.4699176024798226 17.0 0.0 15.0 
448.00010179366996 364.0 181.0 427.27056962025273 1.574920523287306 17.0 0.0 15.0 
450.00010179366996 360.0 179.0 427.27373417721503 1.1418921624269587 17.0 0.0 15.0 
452.00010179366996 360.0 179.0 427.27056962025273 1.1212705246505097 17.0 0.0 15.0 
454.00010179366996 360.0 179.0 427.27689873417745 1.2662197177168566 17.0 0.0 15.0 
456.00010179366996 360.0 179.0 427.27056962025273 1.3776961074359253 17.0 0.0 15.0 
458.00010179366996 360.0 179.0 427.27056962025273 1.5226214875445576 17.0 0.0 15.0 
460.00010179366996 360.0 179.0 427.27373417721503 1.429824117550536 17.0 0.0 15.0 
462.00010179366996 356.0 178.0 427.27373417721503 1.265082558015041 17.0 0.0 15.0 
464.00010179366996 358.0 179.0 427.27373417721503 1.4379198563165616 17.0 0.0 15.0 
466.00010179366996 360.0 180.0 427.27056962025273 1.491671738457029 17.0 0.0 15.0 
468.00010179366996 359.0 178.0 429.09018987341705 1.1226011454497695 18.0 0.0 16.0 
470.00010179366996 363.0 178.0 429.0933544303794 0.9972933566792915 18.0 0.0 16.0 
472.00010179366996 363.0 178.0 429.09018987341705 0.9658329347890048 18.0 0.0 16.0 
474.00010179366996 363.0 178.0 429.0965189873414 1.0928502689193105 18.0 0.0 16.0 
476.00010179366996 362.0 178.0 429.09018987341705 1.0773004418555836 18.0 0.0 16.0 
478.00010179366996 367.0 178.0 429.0965189873414 1.0072482804794867 18.0 0.0 16.0 
480.00010179366996 368.0 178.0 429.0933544303794 0.8684109008468119 18.0 0.0 16.0 
482.00010179366996 368.0 178.0 429.0933544303794 0.9800467198437021 18.0 0.0 16.0 
484.00010179366996 369.0 179.0 429.0933544303794 1.1642364774251086 18.0 0.0 16.0 
486.00010179366996 370.0 179.0 429.09018987341705 1.1802468218936246 18.0 0.0 16.0 
488.00010179366996 372.0 180.0 429.0965189873414 1.2892118865757387 18.0 0.0 16.0 
490.00010179366996 372.0 180.0 429.09018987341705 1.1150866761094096 18.0 0.0 16.0 
492.00010179366996 372.0 180.0 429.09018987341705 1.2707414380141722 18.0 0.0 16.0 
494.00010179366996 370.0 179.0 429.0965189873414 1.2203360673360548 18.0 0.0 16.0 
496.00010179366996 370.0 179.0 429.09018987341705 1.3337550751065284 18.0 0.0 16.0 
498.00010179366996 371.0 180.0 429.0933544303794 1.4110614277067461 18.0 0.0 16.0 
500.00010179366996 370.0 179.0 429.0933544303794 1.0614658706365605 18.0 0.0 16.0 
502.00010179366996 370.0 179.0 429.0933544303794 1.1717706160509378 18.0 0.0 16.0 
504.00010179366996 368.0 178.0 429.0933544303794 1.109055847222959 18.0 0.0 16.0 
506.00010179366996 368.0 178.0 429.09018987341705 1.155889410350743 18.0 0.0 16.0 
508.00010179366996 368.0 178.0 429.0965189873414 1.2644388210526336 18.0 0.0 16.0 
510.00010179366996 364.0 177.0 429.0933544303794 0.8381246921084969 18.0 0.0 16.0 
512.00010179367 364.0 177.0 429.09018987341705 0.9865306646670117 18.0 0.0 16.0 
514.00010179367 365.0 177.0 429.0965189873414 1.1076960286780873 18.0 0.0 16.0 
516.00010179367 366.0 178.0 429.09018987341705 1.1975314258231462 18.0 0.0 16.0 
518.00010179367 366.0 178.0 429.0965189873414 1.253695840360644 18.0 0.0 16.0 
520.00010179367 366.0 178.0 429.0933544303794 1.1117140059205368 18.0 0.0 16.0 
522.00010179367 367.0 179.0 429.0933544303794 1.2038085517895833 18.0 0.0 16.0 
524.00010179367 368.0 179.0 429.0933544303794 1.1320739152467427 18.0 0.0 16.0 
526.00010179367 367.0 179.0 429.09018987341705 1.069305564721557 18.0 0.0 16.0 
528.00010179367 368.0 179.0 429.0933544303794 1.0520723518270574 18.0 0.0 16.0 
530.00010179367 370.0 180.0 429.0965189873414 0.8567529307068793 18.0 0.0 16.0 
532.00010179367 370.0 180.0 429.0933544303794 1.0062293187724782 18.0 0.0 16.0 
534.00010179367 372.0 181.0 429.0965189873414 1.1464418331338437 18.0 0.0 16.0 
536.00010179367 376.0 182.0 429.0933544303794 1.2512831496547578 18.0 0.0 16.0 
538.00010179367 376.0 181.0 429.0933544303794 1.0803261154279542 18.0 0.0 16.0 
540.00010179367 377.0 182.0 429.0965189873414 0.9376700705494626 18.0 0.0 16.0 
542.00010179367 380.0 183.0 429.0965189873414 1.0237844925361743 18.0 0.0 16.0 
544.00010179367 382.0 184.0 429.0933544303794 1.21583123202239 18.0 0.0 16.0 
546.00010179367 382.0 184.0 429.0933544303794 1.29284556452757 18.0 0.0 16.0 
548.00010179367 384.0 185.0 429.0933544303794 1.4272829467410628 18.0 0.0 16.0 
550.00010179367 384.0 185.0 429.0933544303794 1.2801704431816383 18.0 0.0 16.0 
552.00010179367 384.0 185.0 429.09018987341705 1.4722656812768768 18.0 0.0 16.0 
554.00010179367 380.0 183.0 429.0933544303794 1.1718173866262116 18.0 0.0 16.0 
556.00010179367 380.0 183.0 429.09018987341705 1.306592062769529 18.0 0.0 16.0 
558.00010179367 380.0 183.0 429.0965189873414 1.4355855747256308 18.0 0.0 16.0 
560.00010179367 382.0 184.0 429.0933544303794 1.3778804092179546 18.0 0.0 16.0 
562.00010179367 380.0 183.0 429.0933544303794 1.3086729764358083 18.0 0.0 16.0 
564.00010179367 382.0 184.0 429.09018987341705 1.5323139420670817 18.0 0.0 16.0 
566.00010179367 385.0 185.0 430.9145569620246 1.6049532442205816 19.0 0.0 17.0 
568.00010179367 386.0 185.0 430.91139240506413 1.8052328233963124 19.0 0.0 17.0 
570.00010179367 386.0 185.0 430.9082278481018 1.7269330245538357 20.0 0.0 17.0 
572.00010179367 382.0 183.0 430.90506329113975 1.529667639473953 20.0 0.0 17.0 
574.00010179367 385.0 185.0 432.7325949367093 1.6207025397520824 21.0 0.0 18.0 
576.00010179367 388.0 185.0 436.34968354430407 1.7727639555964687 23.0 0.0 20.0 
578.00010179367 386.0 186.0 436.3575949367093 1.6988794954707538 23.0 0.0 20.0 
580.00010179367 382.0 185.0 436.3718354430376 1.5863522911206727 23.0 0.0 20.0 
582.00010179367 381.0 185.0 436.3686708860753 1.6104899670107533 23.0 0.0 20.0 
584.00010179367 379.0 183.0 436.375 1.5405321725430632 23.0 0.0 20.0 
586.00010179367 380.0 184.0 436.3560126582281 1.5158989489574506 22.0 0.0 20.0 
588.00010179367 378.0 184.0 436.3575949367093 1.3601123586749893 22.0 0.0 20.0 
590.00010179367 373.0 182.0 436.3655063291133 1.1974929779907162 22.0 0.0 20.0 
592.00010179367 373.0 182.0 436.3560126582281 1.3943035987267676 22.0 0.0 20.0 
594.00010179367 379.0 184.0 436.36075949367165 1.5791003521083096 22.0 0.0 20.0 
596.00010179367 379.0 184.0 436.36234177215096 1.5260100740664067 22.0 0.0 20.0 
598.00010179367 377.0 183.0 436.3560126582281 1.4683954985093612 22.0 0.0 20.0 
600.00010179367 376.0 183.0 436.36075949367165 1.5371905852475218 22.0 0.0 20.0 
602.00010179367 376.0 183.0 436.3655063291133 1.6877570009700602 22.0 0.0 20.0 
604.00010179367 376.0 183.0 436.35917721519013 1.8751912088227507 22.0 0.0 20.0 
606.00010179367 374.0 183.0 436.3575949367093 1.7431776810879438 22.0 0.0 20.0 
608.00010179367 372.0 182.0 436.36234177215096 1.7528018144045974 22.0 0.0 20.0 
610.00010179367 372.0 182.0 436.35917721519013 1.8880340064549699 22.0 0.0 20.0 
612.00010179367 370.0 181.0 436.3575949367093 2.0305432438724194 22.0 0.0 20.0 
614.00010179367 366.0 181.0 436.3670886075948 1.3728966262588878 22.0 0.0 20.0 
616.00010179367 364.0 180.0 436.34651898734177 1.2677434628155864 22.0 0.0 20.0 
618.00010179367 360.0 179.0 436.3575949367093 1.2776392286586242 22.0 0.0 20.0 
620.00010179367 359.0 178.0 436.3655063291133 1.2790342563282031 22.0 0.0 20.0 
622.00010179367 358.0 178.0 436.35917721519013 1.182898201228279 22.0 0.0 20.0 
624.00010179367 358.0 178.0 436.3528481012658 1.0219078248523135 22.0 0.0 20.0 
626.00010179367 358.0 178.0 436.34968354430407 1.0528964604771134 22.0 0.0 20.0 
628.00010179367 358.0 178.0 436.34968354430407 1.2223192523078286 22.0 0.0 20.0 
630.00010179367 358.0 178.0 436.3528481012658 1.2988908896099938 22.0 0.0 20.0 
632.00010179367 353.0 176.0 434.53481012658267 0.9193952229147526 22.0 0.0 19.0 
634.00010179367 352.0 176.0 434.54113924050574 0.8558620191952085 22.0 0.0 19.0 
636.00010179367 352.0 176.0 434.53481012658267 0.9312588445920339 22.0 0.0 19.0 
638.00010179367 352.0 176.0 432.71993670886025 1.0180273596032743 21.0 0.0 18.0 
640.00010179367 353.0 177.0 432.72310126582255 1.034684959659983 21.0 0.0 18.0 
642.00010179367 355.0 178.0 432.72310126582255 0.9164227384367083 21.0 0.0 18.0 
644.00010179367 356.0 178.0 430.9082278481017 1.0639072566061862 20.0 0.0 17.0 
646.00010179367 356.0 178.0 430.90506329113975 1.0875848563834924 20.0 0.0 17.0 
648.00010179367 358.0 178.0 430.90506329113975 0.9998683710138039 20.0 0.0 17.0 
650.00010179367 358.0 178.0 430.9082278481017 0.7945055734074182 20.0 0.0 17.0 
652.00010179367 356.0 177.0 430.90506329113975 0.7147220730459909 19.0 0.0 17.0 
654.00010179367 358.0 178.0 430.911392405064 0.820563962823213 19.0 0.0 17.0 
656.00010179367 358.0 178.0 430.90506329113975 0.8799877323310155 19.0 0.0 17.0 
658.00010179367 365.0 180.0 432.71993670886025 0.9094786708950512 20.0 0.0 18.0 
660.00010179367 367.0 182.0 432.72310126582255 0.8419857065563914 20.0 0.0 18.0 
662.00010179367 371.0 183.0 434.5427215189872 0.9164901323000341 21.0 0.0 19.0 
664.00010179367 371.0 183.0 434.5427215189872 1.0795868286168357 21.0 0.0 19.0 
#####################################################################
# End of data export. Simulation finished at: 2019-03-12T11:43+0000 #
#####################################################################
