#####################################################################
# Alchemist log file - simulation started at: 2019-03-04T15:42+0000 #
#####################################################################
# seed = 8.0, bandwidth = 1000.0, accessPointCount = 19.39227447486858, baserange = 31.622776601683796
#
# The columns have the following meaning: 
# time neighbor_count[Sum] <value>@neighbor_count[Sum] packet_size[Mean] mean_delay[Mean] crowd[Sum] overcrowded[Sum] risk[Sum] 
0.0 NaN NaN NaN NaN NaN NaN NaN 
2.000927030832833 NaN NaN 4987.699208443271 NaN 1497.0 0.0 1497.0 
4.000927030832833 NaN NaN 4987.699208443271 NaN 1497.0 0.0 1497.0 
6.000198348008885 1.0 1.0 4987.7018469657 0.11397112701515777 1497.0 0.0 1497.0 
8.000927030832834 2.0 1.0 4987.7414248021105 2.0159999999999996 1497.0 0.0 1497.0 
10.000927030832834 2.0 1.0 4987.730870712401 4.015999999999999 1497.0 0.0 1497.0 
12.000927030832834 8.0 3.0 4987.7994722955145 1.0231999999999992 1497.0 0.0 1497.0 
14.000927030832834 8.0 3.0 4987.765171503957 3.023199999999999 1497.0 0.0 1497.0 
16.000198348008887 8.0 3.0 4987.757255936675 4.0207999999999995 1497.0 0.0 1497.0 
18.000927030832834 8.0 3.0 4987.788918205805 5.0112000000000005 1497.0 0.0 1497.0 
20.000927030832834 8.0 3.0 4987.77308707124 7.0112 1497.0 0.0 1497.0 
22.000927030832834 28.0 7.0 4987.8812664907655 1.426799999999999 1497.0 0.0 1497.0 
24.000927030832834 28.0 7.0 4987.796833773087 2.827599999999999 1497.0 0.0 1497.0 
26.000198348008887 44.0 12.0 4987.7994722955145 3.348135673303372 1497.0 0.0 1497.0 
28.000927030832834 58.0 12.0 4987.8891820580475 4.719249999999999 1497.0 0.0 1497.0 
30.000927030832834 58.0 12.0 4987.899736147757 6.346499999999999 1497.0 0.0 1497.0 
32.000927030832834 58.0 12.0 4987.894459102902 6.461999999999999 1497.0 0.0 1497.0 
34.000927030832834 58.0 12.0 4987.90765171504 7.773749999999998 1497.0 0.0 1497.0 
36.00019834800889 58.0 12.0 4987.860158311346 9.773749999999998 1497.0 0.0 1497.0 
38.000927030832834 58.0 12.0 4987.857519788919 11.460249999999998 1497.0 0.0 1497.0 
40.000927030832834 58.0 12.0 4987.8891820580475 13.084499999999998 1497.0 0.0 1497.0 
42.000927030832834 58.0 12.0 4987.902374670185 7.873749999999999 1497.0 0.0 1497.0 
44.000927030832834 58.0 12.0 4987.87598944591 8.469999999999999 1497.0 0.0 1497.0 
46.00019834800889 58.0 12.0 4987.87598944591 10.09525 1497.0 0.0 1497.0 
48.000927030832834 58.0 12.0 4987.87598944591 12.09525 1497.0 0.0 1497.0 
50.000927030832834 58.0 12.0 4987.88654353562 13.78275 1497.0 0.0 1497.0 
52.000927030832834 58.0 12.0 4987.894459102902 5.417 1497.0 0.0 1497.0 
54.000927030832834 58.0 12.0 4987.873350923483 5.793 1497.0 0.0 1497.0 
56.00019834800889 58.0 12.0 4987.873350923483 7.793 1497.0 0.0 1497.0 
58.000927030832834 58.0 12.0 4987.873350923483 9.480500000000001 1497.0 0.0 1497.0 
60.000927030832834 58.0 12.0 4984.857519788919 11.168000000000001 1496.0 0.0 1496.0 
62.00017011082656 58.0 12.0 427.3087071240105 8.72875 12.0 0.0 9.0 
64.00017011082656 58.0 12.0 427.3034300791557 8.72875 12.0 0.0 9.0 
66.00017011082656 58.0 12.0 427.3034300791557 9.7405 11.0 0.0 9.0 
68.00017011082656 58.0 12.0 427.3034300791557 11.053 11.0 0.0 9.0 
70.00017011082656 58.0 12.0 427.3087071240105 12.3655 10.0 0.0 9.0 
72.00017011082656 50.0 11.0 427.3007915567282 11.0632 9.0 0.0 9.0 
74.00017011082656 50.0 11.0 427.29551451187336 12.307644444444445 9.0 0.0 9.0 
76.00017011082656 50.0 11.0 427.311345646438 8.863555555555555 9.0 0.0 9.0 
78.00017011082656 50.0 11.0 427.2902374670185 3.372355555555557 9.0 0.0 9.0 
80.00017011082656 50.0 11.0 427.2849604221635 4.419466666666668 9.0 0.0 9.0 
82.00017011082656 50.0 11.0 427.2849604221635 5.663911111111112 9.0 0.0 9.0 
84.00017011082656 50.0 11.0 427.2849604221635 6.708355555555557 9.0 0.0 9.0 
86.00017011082656 50.0 11.0 427.2849604221635 7.819466666666668 9.0 0.0 9.0 
88.00017011082656 50.0 11.0 427.2849604221635 7.97448888888889 9.0 0.0 9.0 
90.00017011082656 50.0 11.0 427.2849604221635 9.218933333333334 9.0 0.0 9.0 
92.00017011082656 44.0 10.0 427.28232189973613 6.837428571428573 9.0 0.0 9.0 
94.00017011082656 44.0 10.0 427.2770448548813 7.837428571428573 9.0 0.0 9.0 
96.00017011082656 44.0 10.0 427.2770448548813 8.766000000000002 9.0 0.0 9.0 
98.00017011082656 44.0 10.0 427.2770448548813 8.337428571428573 9.0 0.0 9.0 
100.00017011082656 44.0 10.0 427.2770448548813 9.480285714285715 9.0 0.0 9.0 
102.00017011082656 44.0 10.0 427.2770448548813 3.804857142857143 9.0 0.0 9.0 
104.00017011082656 44.0 10.0 427.2770448548813 2.206 9.0 0.0 9.0 
106.00017011082656 44.0 10.0 427.2770448548813 3.134571428571429 9.0 0.0 9.0 
108.00017011082656 44.0 10.0 427.2770448548813 2.706 9.0 0.0 9.0 
110.00017011082656 44.0 10.0 427.2770448548813 3.706 9.0 0.0 9.0 
112.00017011082656 44.0 10.0 427.2770448548813 4.7059999999999995 9.0 0.0 9.0 
114.00017011082656 44.0 10.0 427.2770448548813 5.706 9.0 0.0 9.0 
116.00017011082656 44.0 10.0 427.2770448548813 6.706 9.0 0.0 9.0 
118.00017011082656 44.0 10.0 427.2770448548813 6.2059999999999995 9.0 0.0 9.0 
120.00017011082656 44.0 10.0 424.25065963060695 7.206 8.0 0.0 8.0 
122.00017011082656 44.0 10.0 424.25065963060695 8.348857142857142 8.0 0.0 8.0 
124.00017011082656 44.0 10.0 424.25065963060695 9.277428571428572 8.0 0.0 8.0 
126.00017011082656 44.0 10.0 424.25065963060695 10.27742857142857 8.0 0.0 8.0 
128.00017011082656 44.0 10.0 424.25065963060695 3.172857142857144 8.0 0.0 8.0 
130.00017011082656 45.0 10.0 424.25065963060695 1.6321024011151033 9.0 0.0 8.0 
132.00017011082656 46.0 11.0 424.25065963060695 2.502873710851593 9.0 0.0 8.0 
134.00017011082656 46.0 11.0 424.25065963060695 3.391762599740482 9.0 0.0 8.0 
136.00017011082656 46.0 11.0 424.25065963060695 4.2806514886293705 9.0 0.0 8.0 
138.00017011082656 46.0 11.0 424.25065963060695 4.547318155296037 9.0 0.0 8.0 
140.00017011082656 46.0 11.0 424.25065963060695 4.958429266407149 9.0 0.0 8.0 
142.00017011082656 46.0 11.0 421.2242744063325 6.118429266407148 8.0 0.0 7.0 
144.00017011082656 46.0 11.0 421.2242744063325 7.118429266407148 8.0 0.0 7.0 
146.00017011082656 46.0 11.0 421.2242744063325 8.185095933073814 8.0 0.0 7.0 
148.00017011082656 46.0 11.0 421.2242744063325 9.25176259974048 8.0 0.0 7.0 
150.00017011082656 46.0 11.0 421.2242744063325 9.707318155296036 7.0 0.0 7.0 
152.00017011082656 46.0 11.0 415.16358839050133 8.207984821962704 7.0 0.0 5.0 
154.00017011082656 47.0 11.0 415.16358839050133 3.6705439749508466 8.0 0.0 5.0 
156.00017011082656 48.0 12.0 415.16358839050133 3.369342058894311 8.0 0.0 5.0 
158.00017011082656 48.0 12.0 415.16358839050133 4.181842058894311 8.0 0.0 5.0 
160.00017011082656 48.0 12.0 415.16358839050133 4.58809205889431 8.0 0.0 5.0 
162.00017011082656 52.0 13.0 415.16358839050133 4.980173221510206 8.0 0.0 5.0 
164.00017011082656 55.0 13.0 415.16358839050133 5.250451647166905 8.0 0.0 5.0 
166.00017011082656 55.0 13.0 415.16358839050133 6.0063340001080805 7.0 0.0 5.0 
168.00017011082656 54.0 13.0 415.16358839050133 5.431883874069422 6.0 0.0 5.0 
170.00017011082656 53.0 12.0 415.16358839050133 5.637084500131938 6.0 0.0 5.0 
172.00017011082656 53.0 12.0 415.16358839050133 6.241251166798604 6.0 0.0 5.0 
174.00017011082656 53.0 12.0 415.16358839050133 7.064167833465271 6.0 0.0 5.0 
176.00017011082656 57.0 13.0 418.18997361477574 7.365137196742906 7.0 0.0 6.0 
178.00017011082656 60.0 13.0 421.23482849604216 5.697996093300863 7.0 0.0 7.0 
180.00017011082656 62.0 13.0 421.2242744063325 2.857399644221628 7.0 0.0 7.0 
182.00017011082656 62.0 13.0 421.23482849604216 3.7397525853980986 7.0 0.0 7.0 
184.00017011082656 62.0 13.0 421.2295514511874 4.769164350103981 7.0 0.0 7.0 
186.00017011082656 67.0 14.0 424.27176781002646 5.210697217170548 8.0 0.0 8.0 
188.00017011082656 67.0 14.0 424.25593667546184 6.325882402355735 8.0 0.0 8.0 
190.00017011082656 67.0 14.0 424.25593667546184 7.479586106059439 8.0 0.0 8.0 
192.00017011082656 74.0 15.0 427.3218997361479 7.660306007808604 9.0 0.0 9.0 
194.00017011082656 72.0 14.0 427.30079155672814 7.195286145888948 10.0 0.0 9.0 
196.00017011082656 72.0 14.0 427.31398416886555 8.350841701444503 10.0 0.0 9.0 
198.00017011082656 72.0 14.0 427.29287598944603 9.555286145888948 10.0 0.0 9.0 
200.00017011082656 75.0 15.0 427.29287598944603 9.997532395238222 11.0 0.0 9.0 
202.00017011082656 76.0 15.0 427.3087071240105 10.930371868323132 11.0 0.0 9.0 
204.00017011082656 76.0 15.0 427.29815303430087 12.218442043761728 11.0 0.0 9.0 
206.00017011082656 75.0 15.0 427.29815303430087 13.156480374120422 11.0 0.0 9.0 
208.00017011082656 68.0 13.0 427.29815303430087 12.059162364615107 10.0 0.0 9.0 
210.00017011082656 68.0 15.0 427.29815303430087 6.869009153812318 10.0 0.0 9.0 
212.00017011082656 75.0 15.0 427.3192612137203 6.965399672366035 9.0 0.0 9.0 
214.00017011082656 75.0 15.0 427.29287598944603 8.318031251313403 9.0 0.0 9.0 
216.00017011082656 71.0 14.0 427.29287598944603 7.983379046634192 9.0 0.0 9.0 
218.00017011082656 71.0 14.0 427.29287598944603 8.81205682441197 9.0 0.0 9.0 
220.00017011082656 71.0 14.0 427.29287598944603 10.123167935523082 9.0 0.0 9.0 
222.00017011082656 66.0 13.0 427.30343007915565 10.156585112094806 9.0 0.0 9.0 
224.00017011082656 65.0 13.0 427.29287598944603 11.33340199725377 9.0 0.0 9.0 
226.00017011082656 64.0 13.0 427.29287598944603 11.541197410413867 9.0 0.0 9.0 
228.00017011082656 64.0 13.0 427.29551451187336 12.452138586884455 9.0 0.0 9.0 
230.00017011082656 60.0 12.0 427.2902374670185 11.318694169011598 9.0 0.0 9.0 
232.00017011082656 59.0 12.0 427.29551451187336 12.299288961389934 9.0 0.0 9.0 
234.00017011082656 59.0 12.0 427.2902374670185 13.0177056280566 9.0 0.0 9.0 
236.00017011082656 59.0 12.0 427.2902374670185 14.101038961389932 9.0 0.0 9.0 
238.00017011082656 56.0 11.0 427.2902374670185 10.345866666666662 9.0 0.0 9.0 
240.00017011082656 50.0 9.0 427.2902374670185 4.880951133099536 9.0 0.0 9.0 
242.00017011082656 56.0 11.0 427.30079155672814 2.2426666666666617 9.0 0.0 9.0 
244.00017011082656 56.0 11.0 427.2902374670185 2.6098666666666626 9.0 0.0 9.0 
246.00017011082656 56.0 11.0 427.2902374670185 3.7098666666666626 9.0 0.0 9.0 
248.00017011082656 56.0 11.0 427.2902374670185 4.043199999999996 9.0 0.0 9.0 
250.00017011082656 56.0 11.0 427.2902374670185 5.143199999999996 9.0 0.0 9.0 
252.00017011082656 56.0 11.0 427.30079155672814 6.243199999999996 9.0 0.0 9.0 
254.00017011082656 56.0 11.0 427.2902374670185 7.2765333333333295 9.0 0.0 9.0 
256.00017011082656 56.0 11.0 424.263852242744 7.5987555555555515 8.0 0.0 8.0 
258.0001701108265 56.0 11.0 424.263852242744 8.13208888888889 8.0 0.0 8.0 
260.0001701108265 56.0 11.0 424.263852242744 9.165422222222219 8.0 0.0 8.0 
262.0001701108265 56.0 11.0 424.269129287599 10.254311111111107 8.0 0.0 8.0 
264.0001701108265 56.0 11.0 424.263852242744 11.28764444444444 8.0 0.0 8.0 
266.0001701108265 56.0 11.0 424.263852242744 11.820977777777774 8.0 0.0 8.0 
268.0001701108265 55.0 11.0 424.263852242744 10.462161139041099 8.0 0.0 8.0 
270.0001701108265 47.0 10.0 424.2612137203165 8.026018501079697 8.0 0.0 8.0 
272.0001701108265 41.0 10.0 424.25593667546184 3.5278957087972183 8.0 0.0 8.0 
274.0001701108265 45.0 10.0 424.25065963060695 4.366644095184224 8.0 0.0 8.0 
276.0001701108265 45.0 10.0 424.25065963060695 4.633310761850891 8.0 0.0 8.0 
278.0001701108265 45.0 10.0 424.25065963060695 5.03331076185089 8.0 0.0 8.0 
280.0001701108265 44.0 10.0 424.25065963060695 4.360571428571428 8.0 0.0 8.0 
282.0001701108265 44.0 10.0 424.25065963060695 5.503428571428572 8.0 0.0 8.0 
284.0001701108265 44.0 10.0 424.25065963060695 6.4319999999999995 8.0 0.0 8.0 
286.0001701108265 44.0 10.0 424.25065963060695 7.432 8.0 0.0 8.0 
288.0001701108265 44.0 10.0 421.2163588390501 6.9319999999999995 8.0 0.0 7.0 
290.0001701108265 44.0 10.0 421.2163588390501 7.860571428571429 8.0 0.0 7.0 
292.0001701108265 44.0 10.0 421.2163588390501 7.216857142857142 8.0 0.0 7.0 
294.0001701108265 44.0 10.0 421.2163588390501 8.145428571428571 8.0 0.0 7.0 
296.0001701108265 44.0 10.0 418.18997361477574 6.474457142857142 8.0 0.0 6.0 
298.0001701108265 44.0 10.0 418.18997361477574 1.2245714285714269 8.0 0.0 6.0 
300.0001701108265 44.0 10.0 418.18997361477574 2.0657142857142827 8.0 0.0 6.0 
302.0001701108265 44.0 10.0 418.18997361477574 2.7085714285714255 8.0 0.0 6.0 
304.0001701108265 44.0 10.0 418.18997361477574 3.42285714285714 7.0 0.0 6.0 
306.0001701108265 44.0 10.0 418.18997361477574 4.065714285714283 6.0 0.0 6.0 
308.0001701108265 44.0 10.0 418.18997361477574 4.779999999999997 6.0 0.0 6.0 
310.0001701108265 44.0 10.0 418.18997361477574 5.637142857142854 6.0 0.0 6.0 
312.0001701108265 44.0 10.0 418.18997361477574 6.279999999999997 6.0 0.0 6.0 
314.0001701108265 44.0 10.0 418.18997361477574 6.92285714285714 6.0 0.0 6.0 
316.0001701108265 44.0 10.0 418.18997361477574 7.779999999999997 6.0 0.0 6.0 
318.0001701108265 44.0 10.0 418.18997361477574 6.637142857142854 6.0 0.0 6.0 
320.0001701108265 44.0 10.0 418.18997361477574 7.351428571428569 6.0 0.0 6.0 
322.0001701108265 44.0 10.0 418.18997361477574 4.43942857142857 6.0 0.0 6.0 
324.0001701108265 44.0 10.0 418.18997361477574 1.4257142857142842 6.0 0.0 6.0 
326.0001701108265 44.0 10.0 418.18997361477574 2.1399999999999983 6.0 0.0 6.0 
328.0001701108265 44.0 10.0 415.16358839050133 2.9971428571428556 5.0 0.0 5.0 
330.0001701108265 44.0 10.0 415.16358839050133 3.6399999999999983 5.0 0.0 5.0 
332.0001701108265 44.0 10.0 415.16358839050133 4.354285714285713 5.0 0.0 5.0 
334.0001701108265 44.0 10.0 415.16358839050133 4.9971428571428556 5.0 0.0 5.0 
336.0001701108265 44.0 10.0 415.16358839050133 5.854285714285713 5.0 0.0 5.0 
338.0001701108265 44.0 10.0 415.16358839050133 6.4971428571428556 5.0 0.0 5.0 
340.0001701108265 44.0 10.0 415.16358839050133 7.139999999999998 5.0 0.0 5.0 
342.0001701108265 44.0 10.0 415.16358839050133 6.068571428571427 5.0 0.0 5.0 
344.0001701108265 44.0 10.0 415.16358839050133 6.9257142857142835 5.0 0.0 5.0 
346.0001701108265 44.0 10.0 415.16358839050133 7.568571428571427 5.0 0.0 5.0 
348.0001701108265 44.0 10.0 415.16358839050133 4.568571428571427 5.0 0.0 5.0 
350.0001701108265 44.0 10.0 415.16358839050133 1.5685714285714272 5.0 0.0 5.0 
352.0001701108265 44.0 10.0 415.16358839050133 2.21142857142857 5.0 0.0 5.0 
354.0001701108265 44.0 10.0 415.16358839050133 2.9257142857142844 5.0 0.0 5.0 
356.0001701108265 44.0 10.0 415.16358839050133 3.7828571428571416 5.0 0.0 5.0 
358.0001701108265 44.0 10.0 415.16358839050133 4.425714285714284 5.0 0.0 5.0 
360.0001701108265 46.0 11.0 415.16358839050133 4.447500000000002 5.0 0.0 5.0 
362.0001701108265 46.0 11.0 415.16358839050133 5.197500000000002 5.0 0.0 5.0 
364.0001701108265 46.0 11.0 415.16358839050133 5.760000000000002 5.0 0.0 5.0 
366.0001701108265 46.0 11.0 415.16358839050133 6.322500000000002 5.0 0.0 5.0 
368.0001701108265 46.0 11.0 415.16358839050133 5.510000000000002 5.0 0.0 5.0 
370.0001701108265 46.0 11.0 415.16358839050133 6.072500000000002 5.0 0.0 5.0 
372.0001701108265 46.0 11.0 415.16358839050133 6.697500000000002 5.0 0.0 5.0 
374.0001701108265 46.0 11.0 415.16358839050133 1.8850000000000016 5.0 0.0 5.0 
376.0001701108265 46.0 11.0 415.16358839050133 1.5725000000000016 5.0 0.0 5.0 
378.0001701108265 46.0 11.0 415.16358839050133 2.3225000000000016 5.0 0.0 5.0 
380.0001701108265 46.0 11.0 415.16358839050133 3.1350000000000016 5.0 0.0 5.0 
382.0001701108265 46.0 11.0 415.16358839050133 3.9475000000000016 5.0 0.0 5.0 
384.0001701108265 46.0 11.0 415.16358839050133 4.822500000000002 5.0 0.0 5.0 
386.0001701108265 46.0 11.0 415.16358839050133 5.697500000000002 5.0 0.0 5.0 
388.0001701108265 46.0 11.0 415.16358839050133 6.697500000000002 5.0 0.0 5.0 
390.0001701108265 46.0 11.0 415.16358839050133 7.510000000000002 5.0 0.0 5.0 
392.0001701108265 46.0 11.0 415.16358839050133 6.760000000000002 5.0 0.0 5.0 
394.0001701108265 52.0 12.0 424.27440633245385 7.27803921568628 8.0 0.0 8.0 
396.0001701108265 52.0 12.0 424.2532981530343 8.544705882352947 8.0 0.0 8.0 
398.0001701108265 52.0 12.0 424.2532981530343 8.485882352941182 8.0 0.0 8.0 
400.0001701108265 52.0 12.0 424.2532981530343 4.913333333333338 8.0 0.0 8.0 
402.0001701108265 52.0 12.0 424.2532981530343 6.1290196078431425 8.0 0.0 8.0 
404.0001701108265 52.0 12.0 424.2480211081795 7.332941176470594 8.0 0.0 8.0 
406.0001701108265 52.0 12.0 424.2480211081795 8.587843137254907 8.0 0.0 8.0 
408.0001701108265 50.0 11.0 424.2480211081795 7.275111111111115 8.0 0.0 8.0 
410.0001701108265 50.0 11.0 424.2480211081795 8.012088888888892 8.0 0.0 8.0 
412.0001701108265 50.0 11.0 424.2480211081795 9.100977777777782 8.0 0.0 8.0 
414.0001701108265 50.0 11.0 424.2480211081795 10.38986666666667 8.0 0.0 8.0 
416.0001701108265 50.0 11.0 424.2480211081795 11.345955555555559 8.0 0.0 8.0 
418.0001701108265 50.0 11.0 424.2480211081795 10.768177777777781 8.0 0.0 8.0 
420.0001701108265 50.0 11.0 424.2480211081795 11.923733333333336 8.0 0.0 8.0 
422.0001701108265 50.0 11.0 424.2480211081795 12.945955555555559 8.0 0.0 8.0 
424.0001701108265 42.0 9.0 424.2532981530343 9.088436480484637 8.0 0.0 8.0 
426.0001701108265 42.0 9.0 424.2427440633245 5.275103147151302 8.0 0.0 8.0 
428.0001701108265 41.0 9.0 424.2427440633245 4.158173141926612 8.0 0.0 8.0 
430.0001701108265 41.0 9.0 424.2427440633245 5.158173141926612 8.0 0.0 8.0 
432.0001701108265 40.0 9.0 424.2427440633245 4.188307692307695 8.0 0.0 8.0 
434.0001701108265 40.0 9.0 424.2427440633245 4.6516923076923105 8.0 0.0 8.0 
436.0001701108265 40.0 9.0 424.2427440633245 5.574769230769234 8.0 0.0 8.0 
438.0001701108265 40.0 9.0 424.2427440633245 6.6516923076923105 8.0 0.0 8.0 
440.0001701108265 40.0 9.0 424.2427440633245 7.113230769230772 8.0 0.0 8.0 
442.0001701108265 40.0 9.0 424.2427440633245 6.036307692307695 8.0 0.0 8.0 
444.0001701108265 40.0 9.0 424.2427440633245 6.574769230769234 8.0 0.0 8.0 
446.0001701108265 40.0 9.0 424.2427440633245 7.6516923076923105 8.0 0.0 8.0 
448.0001701108265 40.0 9.0 424.2427440633245 8.497846153846156 8.0 0.0 8.0 
450.0001701108265 40.0 9.0 424.2427440633245 2.4516923076923103 8.0 0.0 8.0 
452.0001701108265 40.0 9.0 424.2427440633245 2.113230769230772 8.0 0.0 8.0 
454.0001701108265 40.0 9.0 424.2427440633245 2.6516923076923105 8.0 0.0 8.0 
456.0001701108265 40.0 9.0 424.2427440633245 3.7286153846153876 8.0 0.0 8.0 
458.0001701108265 40.0 9.0 424.2427440633245 4.574769230769234 8.0 0.0 8.0 
460.0001701108265 40.0 9.0 424.2427440633245 5.113230769230772 8.0 0.0 8.0 
462.0001701108265 40.0 9.0 421.2163588390501 5.959384615384618 7.0 0.0 7.0 
464.0001701108265 40.0 9.0 421.2163588390501 6.6516923076923105 7.0 0.0 7.0 
466.0001701108265 40.0 9.0 421.2163588390501 7.497846153846156 7.0 0.0 7.0 
468.0001701108265 40.0 9.0 418.1899736147757 6.42092307692308 6.0 0.0 6.0 
470.0001701108265 40.0 9.0 418.1899736147757 7.113230769230773 6.0 0.0 6.0 
472.0001701108265 40.0 9.0 418.1899736147757 7.959384615384618 6.0 0.0 6.0 
474.0001701108265 40.0 9.0 418.1899736147757 7.6516923076923105 6.0 0.0 6.0 
476.0001701108265 40.0 9.0 418.1899736147757 2.7747692307692335 6.0 0.0 6.0 
478.0001701108265 41.0 10.0 418.1899736147757 2.2635256973385127 6.0 0.0 6.0 
480.0001701108265 44.0 10.0 418.1899736147757 2.8051428571428567 7.0 0.0 6.0 
482.0001701108265 44.0 10.0 418.1899736147757 3.6622857142857135 7.0 0.0 6.0 
484.0001701108265 47.0 11.0 418.20580474934053 4.227246700937628 8.0 0.0 6.0 
486.0001701108265 47.0 11.0 418.1899736147757 4.98724670093763 8.0 0.0 6.0 
488.0001701108265 47.0 11.0 418.1899736147757 5.765024478715407 8.0 0.0 6.0 
490.0001701108265 48.0 11.0 418.1899736147757 6.032834477956293 8.0 0.0 6.0 
492.0001701108265 48.0 11.0 418.1899736147757 5.343945589067404 8.0 0.0 6.0 
494.0001701108265 48.0 11.0 418.1899736147757 6.121723366845181 8.0 0.0 6.0 
496.0001701108265 48.0 11.0 418.1899736147757 6.966167811289625 8.0 0.0 6.0 
498.0001701108265 48.0 11.0 418.1899736147757 7.743945589067404 8.0 0.0 6.0 
500.0001701108265 57.0 12.0 427.29815303430087 5.91503740557733 9.0 0.0 9.0 
502.0001701108265 57.0 12.0 427.28759894459097 3.0212874055773282 9.0 0.0 9.0 
504.0001701108265 58.0 12.0 427.30343007915565 2.9872499999999995 9.0 0.0 9.0 
506.0001701108265 58.0 12.0 427.29815303430087 4.0497499999999995 9.0 0.0 9.0 
508.0001701108265 58.0 12.0 427.30343007915565 5.2997499999999995 9.0 0.0 9.0 
510.0001701108265 58.0 12.0 427.29815303430087 6.3622499999999995 9.0 0.0 9.0 
512.0001701108265 58.0 12.0 427.29815303430087 7.4872499999999995 9.0 0.0 9.0 
514.0001701108265 58.0 12.0 427.30343007915565 8.55600000000001 9.0 0.0 9.0 
516.0001701108265 58.0 12.0 427.29815303430087 9.72475000000001 9.0 0.0 9.0 
518.0001701108265 58.0 12.0 427.30343007915565 9.318500000000007 9.0 0.0 9.0 
520.0001701108265 58.0 12.0 427.29815303430087 9.629750000000008 9.0 0.0 9.0 
522.0001701108265 58.0 12.0 427.29815303430087 10.087500000000011 9.0 0.0 9.0 
524.0001701108265 58.0 12.0 427.30343007915565 10.618625000000012 9.0 0.0 9.0 
526.0001701108265 58.0 12.0 427.29815303430087 9.824875000000008 9.0 0.0 9.0 
528.0001701108265 58.0 12.0 427.30343007915565 6.431125000000008 9.0 0.0 9.0 
530.0001701108265 53.0 12.0 427.29815303430087 4.993032330200622 9.0 0.0 9.0 
532.0001701108265 53.0 12.0 427.29815303430087 5.9189582561265475 9.0 0.0 9.0 
534.0001701108265 51.0 12.0 427.306068601583 6.225788906375653 9.0 0.0 9.0 
536.0001701108265 51.0 12.0 427.29551451187336 6.142640758227502 9.0 0.0 9.0 
538.0001701108265 51.0 12.0 427.29815303430087 7.16115927674602 9.0 0.0 9.0 
540.0001701108265 51.0 12.0 427.27704485488135 7.5488629804497265 9.0 0.0 9.0 
542.0001701108265 50.0 12.0 427.27704485488135 5.946567490740834 9.0 0.0 9.0 
544.0001701108265 50.0 12.0 427.27704485488135 6.848528275054559 9.0 0.0 9.0 
546.0001701108265 50.0 12.0 427.27704485488135 7.809312588780049 9.0 0.0 9.0 
548.0001701108265 50.0 12.0 427.27704485488135 8.711273373093775 9.0 0.0 9.0 
550.0001701108265 48.0 12.0 427.27704485488135 7.585365530826407 9.0 0.0 9.0 
552.0001701108265 48.0 12.0 427.27704485488135 4.555953766120525 9.0 0.0 9.0 
554.0001701108265 48.0 12.0 427.27704485488135 3.4971302367087604 9.0 0.0 9.0 
556.0001701108265 48.0 12.0 427.27704485488135 4.379483177885231 9.0 0.0 9.0 
558.0001701108265 48.0 12.0 427.27704485488135 5.261836119061702 9.0 0.0 9.0 
560.0001701108265 48.0 12.0 427.27704485488135 6.203012589649937 9.0 0.0 9.0 
562.0001701108265 48.0 12.0 427.27704485488135 6.231051805336216 9.0 0.0 9.0 
564.0001701108265 48.0 12.0 427.27704485488135 7.113404746512686 9.0 0.0 9.0 
566.0001701108265 46.0 11.0 427.27704485488135 6.141750000000016 9.0 0.0 9.0 
568.0001701108265 48.0 11.0 427.27704485488135 4.866902269994133 11.0 0.0 9.0 
570.0001701108265 54.0 12.0 430.321899736148 5.477187811570417 11.0 0.0 10.0 
572.0001701108265 58.0 13.0 433.3509234828496 5.4391669026836125 11.0 0.0 11.0 
574.0001701108265 58.0 13.0 433.3456464379946 6.420648384165093 11.0 0.0 11.0 
576.0001701108265 58.0 13.0 433.3456464379946 5.84657431009102 11.0 0.0 11.0 
578.0001701108265 58.0 13.0 433.35620052770435 4.794722458239168 11.0 0.0 11.0 
580.0001701108265 58.0 13.0 433.3456464379946 3.7539817174984274 11.0 0.0 11.0 
582.0001701108265 58.0 13.0 433.3456464379946 4.735463198979908 11.0 0.0 11.0 
584.0001701108265 58.0 13.0 433.3456464379946 5.661389124905835 11.0 0.0 11.0 
586.0001701108265 58.0 13.0 433.3456464379946 6.642870606387316 11.0 0.0 11.0 
588.0001701108265 58.0 13.0 430.32981530342994 7.624352087868798 10.0 0.0 10.0 
590.0001701108265 58.0 13.0 430.3245382585751 8.439500236016945 10.0 0.0 10.0 
592.0001701108265 58.0 13.0 430.31926121372044 5.264203939720653 10.0 0.0 10.0 
594.0001701108265 58.0 13.0 427.292875989446 6.245685421202134 9.0 0.0 9.0 
596.0001701108265 58.0 13.0 427.292875989446 7.171611347128061 9.0 0.0 9.0 
598.0001701108265 62.0 14.0 427.3034300791557 7.864775268440582 9.0 0.0 9.0 
600.0001701108265 62.0 14.0 427.2902374670185 7.648866342681058 10.0 0.0 9.0 
602.0001701108265 59.0 14.0 427.2849604221635 5.056701650722477 10.0 0.0 9.0 
604.0001701108265 59.0 14.0 427.2849604221635 4.993543755985635 10.0 0.0 9.0 
606.0001701108265 59.0 14.0 427.2849604221635 3.6909121770382662 10.0 0.0 9.0 
608.0001701108265 59.0 14.0 427.2902374670185 4.656701650722477 10.0 0.0 9.0 
610.0001701108265 60.0 14.0 427.2902374670185 5.312908934398871 10.0 0.0 9.0 
612.0001701108265 60.0 14.0 427.2849604221635 5.669751039662027 10.0 0.0 9.0 
614.0001701108265 62.0 14.0 430.32717678100255 4.970569380674944 10.0 0.0 10.0 
616.0001701108265 63.0 14.0 430.34036939313984 5.89205475990875 11.0 0.0 10.0 
618.0001701108265 68.0 15.0 430.34564643799473 5.35958979124982 11.0 0.0 10.0 
620.0001701108265 68.0 15.0 430.335092348285 6.232923124583153 11.0 0.0 10.0 
622.0001701108265 67.0 14.0 430.335092348285 6.963537151976405 11.0 0.0 10.0 
624.0001701108265 67.0 14.0 430.335092348285 7.883537151976405 11.0 0.0 10.0 
626.0001701108265 67.0 14.0 430.335092348285 8.333537151976406 11.0 0.0 10.0 
628.0001701108265 69.0 14.0 430.34564643799473 7.101991957017073 11.0 0.0 10.0 
630.0001701108265 73.0 15.0 430.335092348285 5.391671230527207 12.0 0.0 10.0 
632.0001701108265 73.0 15.0 430.335092348285 6.0329410717970475 12.0 0.0 10.0 
634.0001701108265 76.0 15.0 433.36147757255947 5.877465460434863 12.0 0.0 11.0 
636.0001701108265 77.0 15.0 436.4036939313985 5.170148172562158 12.0 0.0 12.0 
638.0001701108265 77.0 15.0 436.41424802110816 6.221814839228824 12.0 0.0 12.0 
640.0001701108265 75.0 15.0 436.4221635883905 6.965475612207743 12.0 0.0 12.0 
642.0001701108265 73.0 14.0 436.4168865435355 6.348723953806923 12.0 0.0 12.0 
644.0001701108265 70.0 14.0 436.4168865435355 7.0844036761053735 12.0 0.0 12.0 
646.0001701108265 70.0 14.0 436.40105540897105 8.121903676105374 12.0 0.0 12.0 
648.0001701108265 70.0 14.0 436.4063324538259 9.376903676105373 12.0 0.0 12.0 
650.0001701108265 70.0 14.0 436.38522427440637 10.406403676105372 12.0 0.0 12.0 
652.0001701108265 70.0 14.0 436.38522427440637 10.975403676105373 12.0 0.0 12.0 
654.0001701108265 70.0 14.0 436.38522427440637 9.280403676105372 12.0 0.0 12.0 
656.0001701108265 68.0 14.0 436.38522427440637 7.602425725499262 12.0 0.0 12.0 
658.0001701108265 68.0 14.0 433.372031662269 8.639267830762419 11.0 0.0 11.0 
660.0001701108265 68.0 14.0 433.3693931398417 8.260741514972946 11.0 0.0 11.0 
662.0001701108265 68.0 14.0 433.358839050132 8.803520462341368 11.0 0.0 11.0 
664.0001701108265 57.0 13.0 433.36147757255947 7.919770199210608 11.0 0.0 11.0 
#####################################################################
# End of data export. Simulation finished at: 2019-03-04T15:44+0000 #
#####################################################################
