#####################################################################
# Alchemist log file - simulation started at: 2019-03-10T14:06+0000 #
#####################################################################
# seed = 4.0, bandwidth = 4216.965034285822, accessPointCount = 141.4213562373095, baserange = 100.0
#
# The columns have the following meaning: 
# time neighbor_count[Sum] <value>@neighbor_count[Sum] packet_size[Mean] mean_delay[Mean] crowd[Sum] overcrowded[Sum] risk[Sum] 
0.0 NaN NaN NaN NaN NaN NaN NaN 
2.0000042429967895 11.0 6.0 4985.943833943834 0.3172662452086743 1497.0 0.0 1497.0 
4.0000042429967895 52.0 28.0 4986.310134310134 1.192585919541477 1497.0 0.0 1497.0 
6.0000042429967895 105.0 43.0 4986.405372405372 1.1277786917837278 1497.0 0.0 1497.0 
8.00000424299679 144.0 58.0 4986.446886446886 1.7452298469865977 1497.0 0.0 1497.0 
10.00000424299679 146.0 58.0 4986.490842490843 2.135401596230431 1497.0 0.0 1497.0 
12.00000424299679 215.0 66.0 4986.393162393162 1.6451295005903561 1497.0 0.0 1497.0 
14.00000424299679 289.0 70.0 4986.605616605617 1.804421404987088 1497.0 0.0 1497.0 
16.000004242996788 459.0 91.0 4986.825396825397 1.8362580965643753 1497.0 0.0 1497.0 
18.000004242996788 466.0 91.0 4986.717948717948 2.6094793824723492 1497.0 0.0 1497.0 
20.000004242996788 656.0 106.0 4986.976800976801 3.1580787022698544 1497.0 0.0 1497.0 
22.000004242996788 656.0 106.0 4986.849816849817 3.428861083056045 1497.0 0.0 1497.0 
24.000004242996788 656.0 106.0 4987.001221001221 3.9470825659304327 1497.0 0.0 1497.0 
26.000004242996788 656.0 106.0 4987.003663003663 4.247085731144829 1497.0 0.0 1497.0 
28.000004242996788 656.0 106.0 4986.913308913309 4.6117883421329555 1497.0 0.0 1497.0 
30.000004242996788 657.0 106.0 4986.989010989011 4.6543186175244005 1497.0 0.0 1497.0 
32.00000424299679 663.0 107.0 4986.820512820513 3.8281001379228767 1497.0 0.0 1497.0 
34.00000424299679 671.0 107.0 4986.969474969475 4.308451852444466 1497.0 0.0 1497.0 
36.00000424299679 670.0 106.0 4986.971916971917 4.635420836458417 1497.0 0.0 1497.0 
38.00000424299679 670.0 106.0 4986.849816849817 3.249784506653059 1497.0 0.0 1497.0 
40.00000424299679 670.0 106.0 4986.7667887667885 4.3193832806068935 1497.0 0.0 1497.0 
42.00000424299679 670.0 106.0 4986.649572649572 4.3079196455547155 1497.0 0.0 1497.0 
44.00000424299679 670.0 106.0 4986.818070818071 4.46629098281686 1496.0 1.0 1496.0 
46.00000424299679 670.0 106.0 4986.830280830281 2.9998773984551113 1496.0 1.0 1496.0 
48.00000424299679 670.0 106.0 4986.7008547008545 3.7264383152086222 1496.0 1.0 1496.0 
50.00000424299679 670.0 106.0 4986.7667887667885 4.589581728841425 1496.0 1.0 1496.0 
52.00000424299679 670.0 106.0 4986.610500610501 5.036280149706038 1496.0 1.0 1496.0 
54.00000424299679 670.0 106.0 4986.776556776556 6.0563716707070325 1496.0 1.0 1496.0 
56.00000424299679 670.0 106.0 4986.862026862027 3.8178589754693215 1496.0 1.0 1496.0 
58.00000424299679 666.0 105.0 4986.744810744811 3.191329798768693 1496.0 1.0 1496.0 
60.00000424299679 667.0 106.0 4984.0 3.662038581322544 1496.0 1.0 1496.0 
62.00000424299679 668.0 106.0 512.3956043956036 2.4955935627660644 89.0 0.0 40.0 
64.0000042429968 668.0 106.0 512.3760683760673 3.2148149503787837 73.0 0.0 40.0 
66.0000042429968 668.0 106.0 512.3614163614171 3.923247404204946 64.0 0.0 40.0 
68.0000042429968 668.0 106.0 512.3711843711834 4.368687150432698 60.0 0.0 40.0 
70.0000042429968 668.0 106.0 512.3785103785093 4.031778034872555 58.0 1.0 39.0 
72.0000042429968 668.0 106.0 512.3858363858354 3.703357810546557 57.0 1.0 39.0 
74.0000042429968 668.0 106.0 512.3467643467649 2.1918162267852104 54.0 1.0 39.0 
76.0000042429968 668.0 106.0 512.3565323565331 1.8041978828749052 55.0 1.0 39.0 
78.0000042429968 673.0 106.0 512.3369963369969 2.385418508318529 55.0 1.0 39.0 
80.0000042429968 680.0 108.0 512.3321123321128 2.776983521062816 56.0 1.0 39.0 
82.0000042429968 680.0 108.0 512.3272283272288 3.0343635593252074 56.0 1.0 39.0 
84.0000042429968 680.0 108.0 512.3369963369969 3.061575519009781 54.0 3.0 37.0 
86.0000042429968 680.0 108.0 512.3345543345549 2.9103929419173915 52.0 5.0 35.0 
88.0000042429968 680.0 108.0 512.3199023199027 3.1936103090392094 51.0 5.0 35.0 
90.0000042429968 680.0 108.0 512.315018315019 3.4079454588108056 51.0 5.0 35.0 
92.0000042429968 680.0 108.0 512.3101343101349 1.9758942457271205 51.0 5.0 35.0 
94.0000042429968 680.0 108.0 512.3101343101349 2.15545137234001 51.0 5.0 35.0 
96.0000042429968 680.0 108.0 512.315018315019 2.5300119046339136 51.0 5.0 35.0 
98.0000042429968 680.0 108.0 512.312576312577 2.7805023303184067 49.0 5.0 35.0 
100.0000042429968 680.0 108.0 512.3272283272288 2.6675628413714993 49.0 5.0 35.0 
102.0000042429968 680.0 108.0 512.3223443223447 3.2724568852361307 49.0 5.0 35.0 
104.0000042429968 680.0 108.0 512.3223443223447 3.8357383385276558 49.0 5.0 35.0 
106.0000042429968 682.0 108.0 512.3272283272288 3.049396196466969 49.0 5.0 35.0 
108.0000042429968 681.0 108.0 512.3223443223447 3.26571358927918 49.0 5.0 35.0 
110.0000042429968 680.0 107.0 512.3223443223447 2.495889348022331 49.0 5.0 35.0 
112.0000042429968 680.0 107.0 512.3296703296708 2.6018974738833984 49.0 5.0 35.0 
114.0000042429968 680.0 107.0 512.312576312577 2.576700293124288 49.0 5.0 35.0 
116.0000042429968 672.0 107.0 512.3076923076928 2.9113793096071325 49.0 5.0 35.0 
118.0000042429968 670.0 106.0 512.3028083028089 2.9964182401859154 49.0 5.0 35.0 
120.0000042429968 670.0 106.0 512.3028083028089 3.064387031184166 49.0 5.0 35.0 
122.0000042429968 670.0 106.0 512.3028083028089 3.0086790316159795 49.0 5.0 35.0 
124.0000042429968 670.0 106.0 512.3028083028089 3.504749546068846 49.0 5.0 35.0 
126.0000042429968 669.0 106.0 512.3101343101349 3.4199925626924284 49.0 5.0 35.0 
128.0000042429968 668.0 105.0 512.3321123321128 1.7865436692902699 49.0 5.0 35.0 
130.0000042429968 668.0 105.0 512.3174603174607 1.9468739409414206 49.0 5.0 35.0 
132.0000042429968 668.0 105.0 512.3174603174607 2.3254575593658426 49.0 5.0 35.0 
134.0000042429968 668.0 105.0 512.3174603174607 2.9565440516463655 49.0 5.0 35.0 
136.0000042429968 669.0 105.0 512.3223443223447 2.445838707203817 49.0 5.0 35.0 
138.0000042429968 683.0 106.0 512.3174603174607 3.0030412566163274 50.0 5.0 35.0 
140.0000042429968 684.0 107.0 512.3321123321128 3.123638692679091 50.0 5.0 35.0 
142.0000042429968 688.0 107.0 512.3199023199027 2.580871790752095 51.0 5.0 35.0 
144.0000042429968 705.0 108.0 517.9413919413911 2.820022132479874 51.0 5.0 37.0 
146.0000042429968 729.0 109.0 523.57264957265 2.272656930041003 51.0 5.0 39.0 
148.0000042429968 730.0 109.0 523.5579975579982 2.8053158554663 51.0 5.0 39.0 
150.0000042429968 730.0 109.0 523.5628815628824 3.1345758793094807 51.0 5.0 39.0 
152.0000042429968 731.0 109.0 523.5628815628824 3.0907107552242246 52.0 5.0 39.0 
154.0000042429968 736.0 109.0 526.3785103785092 2.984163715278248 52.0 5.0 40.0 
156.0000042429968 737.0 109.0 526.4004884004876 2.808135434607423 52.0 5.0 40.0 
158.0000042429968 735.0 108.0 526.3711843711832 3.1255417822739453 52.0 5.0 40.0 
160.0000042429968 735.0 108.0 526.3809523809514 3.6973582315049245 52.0 5.0 40.0 
162.0000042429968 736.0 108.0 526.3760683760672 4.3481394024623805 52.0 5.0 40.0 
164.0000042429968 737.0 108.0 526.3711843711832 4.841818776062642 52.0 5.0 40.0 
166.0000042429968 741.0 108.0 526.3858363858353 2.6618790885380403 52.0 5.0 40.0 
168.0000042429968 743.0 108.0 526.3736263736253 2.3005817558376074 52.0 5.0 40.0 
170.0000042429968 743.0 108.0 526.3663003663013 2.2661786218597526 52.0 5.0 40.0 
172.0000042429968 743.0 108.0 526.351648351649 2.799254158745938 52.0 5.0 40.0 
174.0000042429968 743.0 108.0 526.346764346765 3.4936435642452617 52.0 5.0 40.0 
176.0000042429968 723.0 107.0 526.351648351649 3.982297839582267 52.0 5.0 40.0 
178.0000042429968 722.0 107.0 526.346764346765 4.494829090816303 52.0 5.0 40.0 
180.0000042429968 720.0 106.0 526.3565323565332 4.4142192290858295 52.0 5.0 40.0 
182.0000042429968 720.0 106.0 526.354090354091 3.3313273991083068 52.0 5.0 40.0 
184.0000042429968 720.0 106.0 526.3760683760672 3.00500649362084 52.0 5.0 40.0 
186.0000042429968 718.0 106.0 529.1648351648346 1.6726712268919004 52.0 5.0 41.0 
188.0000042429968 718.0 106.0 529.1697191697187 2.350063941971183 52.0 5.0 41.0 
190.0000042429968 718.0 106.0 529.1794871794868 2.8998447167519577 52.0 5.0 41.0 
192.0000042429968 718.0 106.0 529.1746031746028 3.4955210139207913 52.0 5.0 41.0 
194.0000042429968 717.0 106.0 529.1697191697187 4.116096260226196 52.0 5.0 41.0 
196.0000042429968 713.0 106.0 529.1794871794868 2.525093550894762 52.0 5.0 41.0 
198.0000042429968 713.0 106.0 529.1672771672767 2.396185657111061 53.0 5.0 41.0 
200.0000042429968 712.0 106.0 529.1672771672767 3.002475377171177 53.0 5.0 41.0 
202.0000042429968 712.0 106.0 529.1623931623926 3.47317582100595 53.0 5.0 41.0 
204.0000042429968 716.0 107.0 529.1526251526246 3.6918562374596133 53.0 5.0 41.0 
206.0000042429968 728.0 108.0 529.1550671550666 2.7597689016395854 53.0 5.0 41.0 
208.0000042429968 729.0 108.0 529.1501831501826 3.219207333639372 53.0 5.0 41.0 
210.0000042429968 731.0 109.0 529.1623931623926 2.501077644917994 54.0 5.0 41.0 
212.0000042429968 740.0 109.0 531.9853479853477 1.7640469319737548 54.0 5.0 42.0 
214.0000042429968 740.0 109.0 531.9755799755796 2.2571194437564763 54.0 5.0 42.0 
216.0000042429968 740.0 109.0 529.1697191697187 2.8963672397560978 53.0 5.0 41.0 
218.0000042429968 742.0 109.0 529.1697191697187 3.565856901579823 53.0 5.0 41.0 
220.0000042429968 742.0 109.0 529.1746031746027 4.0713111188953555 53.0 5.0 41.0 
222.0000042429968 742.0 109.0 529.1746031746027 4.523683634862761 53.0 5.0 41.0 
224.0000042429968 742.0 109.0 529.1819291819288 3.9130986256909863 53.0 5.0 41.0 
226.0000042429968 743.0 109.0 526.3785103785093 2.143111264050016 53.0 5.0 40.0 
228.0000042429968 754.0 110.0 529.2014652014647 1.708986066337972 54.0 6.0 40.0 
230.0000042429968 757.0 110.0 529.1965811965806 2.379095364855822 54.0 6.0 40.0 
232.0000042429968 757.0 110.0 529.1916971916966 2.9139368542369533 54.0 6.0 40.0 
234.0000042429968 757.0 110.0 529.1868131868124 3.5658073291253305 54.0 6.0 40.0 
236.0000042429968 757.0 110.0 529.1868131868124 4.178704740040644 54.0 6.0 40.0 
238.0000042429968 759.0 110.0 529.1868131868124 4.078102570490111 54.0 6.0 40.0 
240.0000042429968 758.0 110.0 529.1965811965806 4.318255122304947 54.0 6.0 40.0 
242.0000042429968 739.0 109.0 529.2014652014647 2.843778999542844 54.0 6.0 40.0 
244.0000042429968 741.0 109.0 529.2112332112328 2.941995239701727 54.0 6.0 40.0 
246.0000042429968 742.0 109.0 526.3736263736254 3.1206911962373867 54.0 6.0 39.0 
248.0000042429968 750.0 109.0 526.3663003663013 3.0578837254710725 54.0 6.0 39.0 
250.0000042429968 750.0 109.0 526.3711843711834 3.4137710553760554 53.0 7.0 38.0 
252.0000042429968 750.0 109.0 526.3736263736254 3.3921144108933237 53.0 7.0 38.0 
254.0000042429968 749.0 109.0 526.3638583638592 3.409416695600013 53.0 7.0 38.0 
256.0000042429968 732.0 108.0 529.1990231990226 3.06986079428298 53.0 7.0 39.0 
258.0000042429968 731.0 108.0 529.179487179487 2.782693803518014 53.0 7.0 39.0 
260.0000042429968 731.0 108.0 529.179487179487 3.4803366909065785 53.0 7.0 39.0 
262.0000042429968 735.0 108.0 529.1843711843704 3.8480664384884924 53.0 8.0 38.0 
264.0000042429968 736.0 109.0 529.1770451770449 4.1759505344291545 52.0 9.0 37.0 
266.0000042429968 736.0 109.0 529.1770451770449 3.9229072824940268 52.0 9.0 37.0 
268.0000042429968 735.0 109.0 529.1672771672767 2.9245071658037864 53.0 8.0 38.0 
270.0000042429968 735.0 109.0 529.1697191697187 3.042349715342172 53.0 8.0 38.0 
272.0000042429968 735.0 109.0 529.1599511599508 2.487291029564483 54.0 7.0 39.0 
274.0000042429968 734.0 109.0 529.1526251526248 3.0166004731298255 54.0 7.0 39.0 
276.0000042429968 735.0 109.0 529.1623931623927 3.587240126904693 54.0 7.0 39.0 
278.0000042429968 731.0 109.0 529.1477411477406 3.7764130126555857 54.0 7.0 39.0 
280.0000042429968 727.0 108.0 529.1477411477406 3.964450322743651 54.0 7.0 39.0 
282.0000042429968 718.0 107.0 529.1599511599508 3.6128283075166205 54.0 7.0 39.0 
284.0000042429968 717.0 107.0 526.3394383394386 3.3837201544264857 55.0 5.0 40.0 
286.0000042429968 719.0 107.0 526.3443223443226 3.4106436847683668 55.0 5.0 40.0 
288.0000042429968 722.0 107.0 526.3369963369965 2.7063789891117853 54.0 6.0 39.0 
290.0000042429968 721.0 107.0 526.3321123321126 2.2355521639436926 53.0 7.0 38.0 
292.0000042429968 721.0 107.0 526.3321123321126 2.293738619930015 53.0 7.0 38.0 
294.0000042429968 722.0 107.0 526.3321123321126 2.8418078912642004 53.0 7.0 38.0 
296.0000042429968 722.0 107.0 526.3418803418806 3.037656122878454 53.0 7.0 38.0 
298.0000042429968 725.0 107.0 526.3321123321126 3.0054319702580874 53.0 7.0 38.0 
300.0000042429968 725.0 107.0 526.3321123321126 3.6495765986762 53.0 7.0 38.0 
302.0000042429968 726.0 107.0 526.3418803418806 2.775458628067001 54.0 6.0 39.0 
304.0000042429968 726.0 107.0 526.3418803418806 2.829730516492154 53.0 7.0 38.0 
306.0000042429968 725.0 107.0 526.3516483516487 2.922150603590656 53.0 7.0 38.0 
308.0000042429968 725.0 107.0 526.3467643467645 3.265821535461903 53.0 7.0 38.0 
310.0000042429968 725.0 107.0 526.3467643467645 2.546479263236257 53.0 7.0 38.0 
312.0000042429968 725.0 107.0 526.3467643467645 2.633791073969624 53.0 7.0 38.0 
314.0000042429968 724.0 107.0 526.3467643467645 2.8603190533493468 53.0 7.0 38.0 
316.0000042429968 724.0 107.0 523.5555555555561 2.8826167422626328 52.0 7.0 37.0 
318.0000042429968 724.0 107.0 526.3687423687431 2.4117598510354745 51.0 8.0 37.0 
320.0000042429968 724.0 107.0 529.1672771672767 2.9836328450355043 52.0 7.0 39.0 
322.0000042429968 724.0 107.0 529.1623931623926 3.528533396632131 52.0 7.0 39.0 
324.0000042429968 726.0 107.0 529.1623931623926 3.803441985967465 53.0 7.0 39.0 
326.0000042429968 731.0 108.0 531.9682539682535 3.3244209508073235 54.0 6.0 41.0 
328.0000042429968 730.0 108.0 534.7594627594626 3.446876705044584 54.0 6.0 42.0 
330.0000042429968 730.0 108.0 534.7594627594626 3.6578603315446725 54.0 6.0 42.0 
332.0000042429968 730.0 108.0 534.7594627594626 2.575479999157613 54.0 6.0 42.0 
334.0000042429968 730.0 108.0 534.7692307692308 3.0753561019745823 55.0 5.0 43.0 
336.0000042429968 730.0 109.0 531.9682539682535 3.6315048814752657 55.0 5.0 42.0 
338.0000042429968 718.0 108.0 531.9682539682535 3.3184556869244553 55.0 5.0 42.0 
340.0000042429968 711.0 108.0 529.1721611721612 2.911245866321165 54.0 6.0 40.0 
342.0000042429968 723.0 110.0 531.9877899877897 3.3294886121897638 55.0 6.0 41.0 
344.0000042429968 724.0 110.0 531.9682539682535 3.899871619190038 55.0 6.0 41.0 
346.0000042429968 722.0 110.0 531.9731379731377 3.968997870246944 54.0 7.0 40.0 
348.0000042429968 721.0 110.0 531.9755799755796 3.5044733289177015 54.0 8.0 39.0 
350.0000042429968 722.0 109.0 529.164835164835 2.888841437102765 52.0 8.0 38.0 
352.0000042429968 731.0 110.0 531.997557997558 2.1418479807175914 54.0 8.0 39.0 
354.0000042429968 731.0 110.0 531.9926739926739 2.4381718206025518 54.0 8.0 39.0 
356.0000042429968 731.0 110.0 531.9926739926739 3.075330724350584 54.0 8.0 39.0 
358.0000042429968 731.0 110.0 532.0122100122103 3.5122975576631648 54.0 7.0 40.0 
360.0000042429968 743.0 111.0 531.9609279609275 3.828446565945624 55.0 7.0 40.0 
362.0000042429968 747.0 112.0 534.7594627594626 3.502290198253798 54.0 6.0 42.0 
364.0000042429968 753.0 112.0 537.567765567766 3.421400474425393 56.0 5.0 44.0 
366.0000042429968 755.0 112.0 537.5970695970701 3.21706731680632 56.0 5.0 44.0 
368.0000042429968 755.0 112.0 537.5824175824181 3.398360769576053 56.0 5.0 44.0 
370.0000042429968 755.0 112.0 537.577533577534 3.7780069146604283 56.0 5.0 44.0 
372.0000042429968 755.0 112.0 537.5726495726499 4.042316341508371 56.0 5.0 44.0 
374.0000042429968 755.0 112.0 537.5726495726499 4.7535715015966735 56.0 5.0 44.0 
376.0000042429968 754.0 112.0 537.5824175824181 5.372931828974843 56.0 5.0 44.0 
378.0000042429968 749.0 111.0 537.6019536019543 4.4524626361432285 55.0 6.0 43.0 
380.0000042429968 747.0 111.0 537.5897435897441 3.905565211072039 54.0 6.0 43.0 
382.0000042429968 746.0 112.0 537.577533577534 4.069164881680969 54.0 6.0 43.0 
384.0000042429968 744.0 112.0 537.5726495726499 4.333484030022573 55.0 6.0 43.0 
386.0000042429968 750.0 113.0 537.5726495726499 4.764940458622833 56.0 6.0 43.0 
388.0000042429968 744.0 113.0 537.5824175824181 5.378941127519677 56.0 6.0 43.0 
390.0000042429968 739.0 110.0 546.0317460317465 4.8686695960817765 57.0 6.0 46.0 
392.0000042429968 735.0 109.0 548.8058608058615 3.9216596248444238 59.0 5.0 48.0 
394.0000042429968 746.0 111.0 548.7838827838832 2.9647644600388463 60.0 5.0 48.0 
396.0000042429968 763.0 112.0 548.7912087912091 2.8208949287008185 62.0 5.0 48.0 
398.0000042429968 764.0 112.0 548.7814407814411 3.1134397493095607 65.0 5.0 48.0 
400.0000042429968 763.0 112.0 548.788766788767 3.4662716345913904 65.0 5.0 48.0 
402.0000042429968 765.0 112.0 551.5897435897436 3.830761806705884 64.0 5.0 49.0 
404.0000042429968 766.0 112.0 548.8058608058612 3.555775804351452 63.0 5.0 48.0 
406.0000042429968 766.0 112.0 548.8131868131874 3.5409403064049356 62.0 6.0 47.0 
408.0000042429968 777.0 113.0 548.7985347985352 3.1736087733907956 63.0 6.0 47.0 
410.0000042429968 766.0 112.0 545.9926739926739 2.752460983275511 63.0 6.0 46.0 
412.0000042429968 766.0 112.0 545.9951159951158 2.8296605844946923 63.0 6.0 46.0 
414.0000042429968 766.0 112.0 543.196581196581 3.3256981591758645 62.0 6.0 45.0 
416.0000042429968 766.0 112.0 543.172161172161 3.9457233785467123 61.0 6.0 45.0 
418.0000042429968 769.0 112.0 545.9951159951158 4.25085159020164 62.0 6.0 46.0 
420.0000042429968 769.0 112.0 545.9902319902319 4.382369302662918 63.0 5.0 47.0 
422.0000042429968 767.0 112.0 546.0 3.922359552793857 63.0 5.0 47.0 
424.0000042429968 765.0 112.0 546.002442002442 3.3949400032033976 63.0 5.0 47.0 
426.0000042429968 770.0 114.0 545.997557997558 3.8997192823990217 63.0 5.0 47.0 
428.0000042429968 770.0 114.0 545.9877899877898 4.442843543283892 63.0 5.0 47.0 
430.0000042429968 769.0 114.0 545.9877899877898 4.779247555430122 63.0 5.0 47.0 
432.0000042429968 760.0 113.0 545.9706959706956 4.267622831978645 63.0 5.0 47.0 
434.0000042429968 757.0 113.0 545.9682539682536 4.209079592233164 63.0 5.0 47.0 
436.0000042429968 754.0 112.0 545.9682539682536 4.351500610844935 63.0 5.0 47.0 
438.0000042429968 749.0 112.0 545.9633699633698 3.8131369164959055 63.0 5.0 47.0 
440.0000042429968 748.0 112.0 545.9682539682536 4.12904020327574 63.0 5.0 47.0 
442.0000042429968 736.0 111.0 545.9633699633698 4.328215575406963 63.0 5.0 47.0 
444.0000042429968 720.0 109.0 545.9560439560438 4.591064139711725 63.0 5.0 47.0 
446.0000042429968 712.0 109.0 545.9609279609278 4.403640125770898 63.0 5.0 47.0 
448.0000042429968 722.0 110.0 545.9682539682536 4.309378960957433 64.0 6.0 46.0 
450.0000042429968 721.0 110.0 545.9584859584858 3.8656429104128827 64.0 6.0 46.0 
452.0000042429968 730.0 112.0 545.9560439560438 2.7725351805386507 64.0 6.0 46.0 
454.0000042429968 731.0 112.0 545.9609279609278 3.3789399479661264 64.0 6.0 46.0 
456.0000042429968 726.0 111.0 545.9706959706956 3.6709751605713734 63.0 6.0 46.0 
458.0000042429968 720.0 109.0 548.7863247863249 4.140593245528191 63.0 6.0 47.0 
460.0000042429968 719.0 109.0 548.771672771673 3.8361622636143538 63.0 6.0 47.0 
462.0000042429968 716.0 108.0 548.771672771673 3.47651600152524 64.0 5.0 48.0 
464.0000042429968 716.0 108.0 545.9706959706956 3.364752648940749 63.0 5.0 47.0 
466.0000042429968 722.0 108.0 545.9877899877898 3.048210786949975 63.0 5.0 47.0 
468.0000042429968 718.0 108.0 543.1941391941389 3.5865527314902956 62.0 5.0 46.0 
470.0000042429968 717.0 108.0 543.1746031746031 3.6670114301904655 62.0 5.0 46.0 
472.0000042429968 717.0 108.0 545.9877899877898 3.895363975139852 62.0 5.0 47.0 
474.0000042429968 717.0 108.0 543.1770451770452 4.157350793351529 61.0 5.0 46.0 
476.0000042429968 716.0 107.0 543.1843711843708 3.604354364499735 61.0 5.0 46.0 
478.0000042429968 723.0 108.0 543.172161172161 3.590400072536691 61.0 5.0 46.0 
480.0000042429968 723.0 108.0 543.172161172161 2.9471133386944017 61.0 5.0 46.0 
482.0000042429968 711.0 107.0 543.1794871794872 3.1029983749046166 61.0 5.0 46.0 
484.0000042429968 712.0 107.0 543.172161172161 3.6990912846189405 61.0 5.0 46.0 
486.0000042429968 711.0 108.0 543.172161172161 3.9713185233290735 62.0 5.0 46.0 
488.0000042429968 712.0 109.0 543.164835164835 3.9351784838997843 62.0 5.0 46.0 
490.0000042429968 712.0 109.0 540.3785103785101 3.433152706429479 61.0 6.0 44.0 
492.0000042429968 718.0 110.0 540.3663003663006 3.10252783835814 59.0 6.0 44.0 
494.0000042429968 718.0 110.0 540.3614163614164 2.6188589322439784 58.0 6.0 44.0 
496.0000042429968 726.0 111.0 543.1843711843708 3.051388460085319 58.0 6.0 45.0 
498.0000042429968 725.0 111.0 543.1843711843708 3.264065856115652 58.0 6.0 45.0 
500.0000042429968 722.0 110.0 543.1794871794872 3.389886476852262 58.0 6.0 45.0 
502.0000042429968 722.0 110.0 540.3711843711841 3.466446580438915 57.0 6.0 44.0 
504.0000042429968 720.0 110.0 540.3711843711841 3.5025642275035658 58.0 5.0 45.0 
506.0000042429968 719.0 110.0 540.373626373626 3.5131547128473817 58.0 5.0 45.0 
508.0000042429968 718.0 110.0 540.373626373626 3.13115197932974 58.0 5.0 45.0 
510.0000042429968 718.0 110.0 540.3638583638585 3.3845778519161955 58.0 5.0 45.0 
512.0000042429967 718.0 110.0 540.4029304029305 3.3148650260744446 58.0 5.0 45.0 
514.0000042429967 715.0 108.0 540.3931623931622 3.8952114240557303 58.0 5.0 45.0 
516.0000042429967 729.0 109.0 540.3931623931622 3.527085337565999 58.0 5.0 45.0 
518.0000042429967 745.0 111.0 537.6043956043957 2.838661711127642 58.0 5.0 44.0 
520.0000042429967 758.0 111.0 540.4078144078145 2.8909241514265185 60.0 5.0 45.0 
522.0000042429967 773.0 111.0 546.0 2.631653056238257 60.0 5.0 47.0 
524.0000042429967 773.0 111.0 546.0122100122102 3.1164185809728004 60.0 5.0 47.0 
526.0000042429967 775.0 111.0 543.211233211233 3.776074642242723 59.0 5.0 46.0 
528.0000042429967 775.0 111.0 543.1868131868127 4.527574369097068 59.0 5.0 46.0 
530.0000042429967 774.0 111.0 543.1819291819293 4.331322982783503 59.0 5.0 46.0 
532.0000042429967 774.0 111.0 543.1892551892547 3.917741004262991 58.0 6.0 45.0 
534.0000042429967 772.0 110.0 543.1892551892547 4.624583490337425 58.0 6.0 45.0 
536.0000042429967 774.0 112.0 540.3711843711841 3.598547008348889 57.0 6.0 44.0 
538.0000042429967 772.0 112.0 540.3760683760681 3.545324511387893 57.0 6.0 44.0 
540.0000042429967 770.0 112.0 540.3467643467643 4.050146611767454 57.0 6.0 44.0 
542.0000042429967 761.0 111.0 540.3516483516484 4.428520169804189 57.0 6.0 44.0 
544.0000042429967 759.0 111.0 540.3467643467643 4.586074952494834 57.0 6.0 44.0 
546.0000042429967 746.0 109.0 540.3516483516484 4.309805837105087 58.0 5.0 45.0 
548.0000042429967 744.0 109.0 540.3565323565324 4.676764253650238 58.0 5.0 45.0 
550.0000042429967 742.0 109.0 540.3516483516484 4.053742167236257 58.0 5.0 45.0 
552.0000042429967 705.0 107.0 540.3540903540904 3.0156324416183344 58.0 5.0 45.0 
554.0000042429967 703.0 107.0 537.5482295482299 3.110534394739422 58.0 5.0 44.0 
556.0000042429967 698.0 107.0 537.5604395604402 3.389063083725991 58.0 5.0 44.0 
558.0000042429967 696.0 106.0 537.5457875457879 3.350781451650584 58.0 5.0 44.0 
560.0000042429967 698.0 106.0 534.7423687423686 3.2265291123041746 57.0 5.0 43.0 
562.0000042429967 695.0 106.0 534.7326007326005 3.8665024408767072 57.0 5.0 43.0 
564.0000042429967 693.0 106.0 531.9316239316239 4.395978927288884 56.0 5.0 42.0 
566.0000042429967 700.0 106.0 534.7619047619049 2.9521003529981793 57.0 5.0 43.0 
568.0000042429967 699.0 106.0 534.7521367521367 2.9792987051003363 57.0 5.0 43.0 
570.0000042429967 698.0 106.0 534.7570207570209 3.691376968721008 57.0 5.0 43.0 
572.0000042429967 702.0 108.0 531.9560439560435 3.268460883994034 56.0 5.0 42.0 
574.0000042429967 705.0 109.0 531.9584859584855 3.0759989362220987 55.0 6.0 41.0 
576.0000042429967 705.0 109.0 531.9487179487173 3.597469020249179 55.0 6.0 41.0 
578.0000042429967 706.0 109.0 531.9487179487173 4.125166215240494 55.0 6.0 41.0 
580.0000042429967 711.0 109.0 534.769230769231 3.4237938580009244 56.0 6.0 42.0 
582.0000042429967 720.0 111.0 540.3614163614167 3.3669817519103846 58.0 6.0 44.0 
584.0000042429967 712.0 109.0 537.54822954823 3.3805117900674975 57.0 6.0 43.0 
586.0000042429967 712.0 109.0 534.7594627594628 3.045704354881069 57.0 6.0 42.0 
588.0000042429967 721.0 110.0 537.5848595848599 2.972376841023099 58.0 5.0 44.0 
590.0000042429967 721.0 110.0 537.5799755799758 3.1690712954980182 58.0 5.0 44.0 
592.0000042429967 726.0 112.0 537.5873015873019 3.6077782190272303 58.0 5.0 44.0 
594.0000042429967 726.0 112.0 534.766788766789 3.868927371466138 57.0 5.0 43.0 
596.0000042429967 738.0 113.0 532.0073260073261 2.7040105899337976 56.0 5.0 42.0 
598.0000042429967 742.0 113.0 531.997557997558 3.3060064760389998 58.0 5.0 42.0 
600.0000042429967 740.0 113.0 531.9902319902319 3.5702238680564573 58.0 5.0 42.0 
602.0000042429967 741.0 113.0 531.9804639804637 3.3303721339595547 58.0 5.0 42.0 
604.0000042429967 748.0 113.0 531.9951159951158 3.210273126841113 58.0 5.0 42.0 
606.0000042429967 749.0 114.0 534.7912087912091 3.8693182977115677 58.0 5.0 43.0 
608.0000042429967 754.0 115.0 537.6092796092802 3.983768452596115 60.0 5.0 44.0 
610.0000042429967 751.0 113.0 537.6043956043961 3.7722044336179987 60.0 5.0 44.0 
612.0000042429967 760.0 114.0 543.203907203907 3.0926975314830956 61.0 5.0 46.0 
614.0000042429967 758.0 114.0 543.1550671550672 3.177753951042265 61.0 5.0 46.0 
616.0000042429967 772.0 115.0 543.1721611721612 3.1317826664520925 60.0 6.0 45.0 
618.0000042429967 782.0 117.0 545.9511599511595 3.659051523009325 61.0 6.0 46.0 
620.0000042429967 805.0 118.0 546.0122100122102 3.9280813791710614 63.0 6.0 46.0 
622.0000042429967 832.0 120.0 548.8083028083031 3.9247327286085456 63.0 6.0 47.0 
624.0000042429967 834.0 120.0 548.8083028083031 4.611466512539145 63.0 6.0 47.0 
626.0000042429967 856.0 120.0 560.0952380952383 3.3305478806167446 63.0 6.0 51.0 
628.0000042429967 856.0 120.0 560.0708180708183 3.5689734603192136 63.0 6.0 51.0 
630.0000042429967 852.0 119.0 560.0854700854703 3.14915534563785 64.0 5.0 52.0 
632.0000042429967 851.0 119.0 560.0610500610504 3.590659664166404 64.0 5.0 52.0 
634.0000042429967 856.0 120.0 560.0732600732603 3.966713078923345 64.0 5.0 52.0 
636.0000042429967 870.0 121.0 560.0683760683762 4.605848351574993 64.0 5.0 52.0 
638.0000042429967 895.0 123.0 560.0781440781443 4.902609714051314 64.0 5.0 52.0 
640.0000042429967 891.0 121.0 560.0879120879124 4.611130761339188 64.0 5.0 52.0 
642.0000042429967 890.0 120.0 560.0879120879124 4.043743779507911 64.0 5.0 52.0 
644.0000042429967 917.0 120.0 557.2820512820513 3.0583204187489823 63.0 5.0 51.0 
646.0000042429967 924.0 121.0 557.2893772893772 3.481803087117852 64.0 5.0 51.0 
648.0000042429967 911.0 120.0 557.257631257631 3.8589756138433025 64.0 5.0 51.0 
650.0000042429967 902.0 120.0 557.2673992673991 4.386886881720487 64.0 5.0 51.0 
652.0000042429967 902.0 121.0 557.2503052503056 4.985842263455015 65.0 5.0 51.0 
654.0000042429967 908.0 121.0 557.2673992673991 5.430759360770122 65.0 5.0 51.0 
656.0000042429967 858.0 118.0 560.0927960927962 4.244663201539787 65.0 5.0 52.0 
658.0000042429967 856.0 118.0 560.0805860805863 3.8340083091885937 64.0 6.0 51.0 
660.0000042429967 853.0 116.0 560.0757020757023 4.056300799706823 64.0 6.0 51.0 
662.0000042429967 854.0 116.0 560.0659340659345 4.261280849738523 64.0 6.0 51.0 
664.0000042429967 839.0 114.0 560.0927960927962 4.558949936036327 63.0 7.0 50.0 
#####################################################################
# End of data export. Simulation finished at: 2019-03-10T14:13+0000 #
#####################################################################
