#####################################################################
# Alchemist log file - simulation started at: 2019-03-06T19:23+0000 #
#####################################################################
# seed = 2.0, bandwidth = 4216.965034285822, accessPointCount = 19.39227447486858, baserange = 100.0
#
# The columns have the following meaning: 
# time neighbor_count[Sum] <value>@neighbor_count[Sum] packet_size[Mean] mean_delay[Mean] crowd[Sum] overcrowded[Sum] risk[Sum] 
0.0 NaN NaN NaN NaN NaN NaN NaN 
10.000384951543825 60.0 15.0 4987.817941952507 1.7239628105094407 1497.0 0.0 1497.0 
20.000384951543825 62.0 15.0 4987.802110817942 2.1738923239243877 1497.0 0.0 1497.0 
30.000384951543825 62.0 15.0 4987.844327176781 2.6510585047071973 1497.0 0.0 1497.0 
40.00038495154382 62.0 15.0 4987.810026385224 2.979223498146353 1497.0 0.0 1497.0 
50.00038495154382 62.0 15.0 4987.841688654354 3.3649490832224362 1497.0 0.0 1497.0 
60.00038495154382 64.0 16.0 4987.796833773087 3.5993144461367907 1497.0 0.0 1497.0 
70.00021346050522 64.0 16.0 412.1292875989446 1.5474222927884864 5.0 0.0 4.0 
80.00021346050522 64.0 16.0 412.1292875989446 1.7576957946682321 5.0 0.0 4.0 
90.00021346050522 64.0 16.0 412.1292875989446 2.0065289686826757 5.0 0.0 4.0 
100.00021346050522 64.0 16.0 412.1292875989446 0.5563125184662256 5.0 0.0 4.0 
110.00021346050522 64.0 16.0 412.1292875989446 0.7216804838341909 5.0 0.0 4.0 
120.00021346050522 64.0 16.0 412.1292875989446 0.9325029946567017 5.0 0.0 4.0 
130.00021346050522 64.0 16.0 412.1292875989446 2.006961869115572 5.0 0.0 4.0 
140.00021346050522 64.0 16.0 412.1292875989446 3.0814207435744447 5.0 0.0 4.0 
150.00021346050522 62.0 15.0 412.1292875989446 1.4809530746593018 5.0 0.0 4.0 
160.00021346050522 62.0 15.0 412.1292875989446 1.6628578365640638 5.0 0.0 4.0 
170.00021346050522 62.0 15.0 412.1292875989446 1.8447625984688256 5.0 0.0 4.0 
180.00021346050522 62.0 15.0 412.1292875989446 1.6666673603735875 5.0 0.0 4.0 
190.00021346050522 62.0 15.0 412.1292875989446 0.5714292651354923 5.0 0.0 4.0 
200.00021346050522 62.0 15.0 412.1292875989446 0.7533340270402542 5.0 0.0 4.0 
210.00021346050522 62.0 15.0 412.1292875989446 0.9352387889450161 5.0 0.0 4.0 
220.00021346050522 62.0 15.0 412.1292875989446 1.117143550849778 5.0 0.0 4.0 
230.00021346050522 62.0 15.0 412.1292875989446 1.29904831275454 5.0 0.0 4.0 
240.00021346050522 62.0 15.0 412.1292875989446 1.4809530746593018 5.0 0.0 4.0 
250.00021346050522 62.0 15.0 412.1292875989446 1.6628578365640638 5.0 0.0 4.0 
260.0002134605052 62.0 15.0 412.1292875989446 1.844762598468831 5.0 0.0 4.0 
270.0002134605052 62.0 15.0 412.1292875989446 1.6666673603735929 5.0 0.0 4.0 
280.0002134605052 62.0 15.0 412.1292875989446 0.5714292651354975 5.0 0.0 4.0 
290.0002134605052 62.0 15.0 412.1292875989446 0.7533340270402595 5.0 0.0 4.0 
300.0002134605052 62.0 15.0 412.1292875989446 0.9352387889450213 5.0 0.0 4.0 
310.0002134605052 62.0 15.0 412.1292875989446 1.1171435508497833 5.0 0.0 4.0 
320.0002134605052 62.0 15.0 412.1292875989446 1.2990483127545451 5.0 0.0 4.0 
330.0002134605052 62.0 15.0 412.1292875989446 1.4809530746593071 5.0 0.0 4.0 
340.0002134605052 62.0 15.0 412.1292875989446 1.662857836564069 5.0 0.0 4.0 
350.0002134605052 62.0 15.0 412.1292875989446 1.844762598468831 5.0 0.0 4.0 
360.0002134605052 62.0 15.0 412.1292875989446 1.6666673603735929 5.0 0.0 4.0 
370.0002134605052 62.0 15.0 412.1292875989446 0.5714292651354975 5.0 0.0 4.0 
380.0002134605052 62.0 15.0 412.1292875989446 0.7533340270402595 5.0 0.0 4.0 
390.0002134605052 62.0 15.0 412.1292875989446 0.9352387889450213 5.0 0.0 4.0 
400.0002134605052 62.0 15.0 412.1292875989446 1.1171435508497833 5.0 0.0 4.0 
410.0002134605052 62.0 15.0 412.1292875989446 1.2990483127545451 5.0 0.0 4.0 
420.0002134605052 66.0 16.0 412.1292875989446 1.3923638904895337 5.0 0.0 4.0 
430.0002134605052 66.0 16.0 412.1292875989446 1.9034567565048544 5.0 0.0 4.0 
440.0002134605052 66.0 16.0 412.1292875989446 3.029080339271294 5.0 0.0 4.0 
450.0002134605052 66.0 16.0 412.1292875989446 3.8118467791805917 5.0 0.0 4.0 
460.0002134605052 62.0 15.0 412.1292875989446 0.5714292651354975 5.0 0.0 4.0 
470.0002134605052 63.0 15.0 412.1292875989446 0.7197234730380706 5.0 0.0 4.0 
480.0002134605052 64.0 16.0 412.1292875989446 0.8870484492021612 5.0 0.0 4.0 
490.0002134605052 64.0 16.0 412.1292875989446 1.0978709600246719 5.0 0.0 4.0 
500.0002134605052 64.0 16.0 412.1292875989446 2.172329834483546 5.0 0.0 4.0 
510.0002134605052 64.0 16.0 412.1292875989446 3.2467887089424208 5.0 0.0 4.0 
520.0002134605053 62.0 15.0 412.1292875989446 1.6628578365640685 5.0 0.0 4.0 
530.0002134605053 62.0 15.0 412.1292875989446 1.8447625984688254 5.0 0.0 4.0 
540.0002134605053 62.0 15.0 412.1292875989446 1.666667360373587 5.0 0.0 4.0 
550.0002134605053 62.0 15.0 412.1292875989446 0.571429265135492 5.0 0.0 4.0 
560.0002134605053 62.0 15.0 412.1292875989446 0.7533340270402539 5.0 0.0 4.0 
570.0002134605053 62.0 15.0 412.1292875989446 0.9352387889450158 5.0 0.0 4.0 
580.0002134605053 62.0 15.0 412.1292875989446 1.1171435508497776 5.0 0.0 4.0 
590.0002134605053 62.0 15.0 412.1292875989446 1.2990483127545396 5.0 0.0 4.0 
600.0002134605053 62.0 15.0 412.1292875989446 1.4809530746593014 5.0 0.0 4.0 
610.0002134605053 62.0 15.0 412.1292875989446 1.6628578365640634 5.0 0.0 4.0 
620.0002134605053 62.0 15.0 412.1292875989446 1.8447625984688254 5.0 0.0 4.0 
630.0002134605053 62.0 15.0 412.1292875989446 1.666667360373587 5.0 0.0 4.0 
640.0002134605053 62.0 15.0 412.1292875989446 0.571429265135492 5.0 0.0 4.0 
650.0002134605053 62.0 15.0 412.1292875989446 0.7533340270402539 5.0 0.0 4.0 
660.0002134605053 64.0 16.0 412.1292875989446 0.8931990349643834 5.0 0.0 4.0 
#####################################################################
# End of data export. Simulation finished at: 2019-03-06T19:30+0000 #
#####################################################################
