#####################################################################
# Alchemist log file - simulation started at: 2019-03-10T12:43+0000 #
#####################################################################
# seed = 4.0, bandwidth = 4216.965034285822, accessPointCount = 10.0, baserange = 31.622776601683796
#
# The columns have the following meaning: 
# time neighbor_count[Sum] <value>@neighbor_count[Sum] packet_size[Mean] mean_delay[Mean] crowd[Sum] overcrowded[Sum] risk[Sum] 
0.0 NaN NaN NaN NaN NaN NaN NaN 
2.000060035129941 NaN NaN 4987.840743198408 NaN 1497.0 0.0 1497.0 
4.000200649576353 NaN NaN 4987.840743198408 NaN 1497.0 0.0 1497.0 
6.000200649576354 NaN NaN 4987.840743198408 NaN 1497.0 0.0 1497.0 
8.000200649576353 NaN NaN 4987.840743198408 NaN 1497.0 0.0 1497.0 
10.000200649576353 NaN NaN 4987.840743198408 NaN 1497.0 0.0 1497.0 
12.000200649576353 NaN NaN 4987.840743198408 NaN 1497.0 0.0 1497.0 
14.000200649576353 NaN NaN 4987.840743198408 NaN 1497.0 0.0 1497.0 
16.000200649576353 NaN NaN 4987.840743198408 NaN 1497.0 0.0 1497.0 
18.000200649576353 NaN NaN 4987.840743198408 NaN 1497.0 0.0 1497.0 
20.000200649576353 NaN NaN 4987.840743198408 NaN 1497.0 0.0 1497.0 
22.000200649576353 NaN NaN 4987.840743198408 NaN 1497.0 0.0 1497.0 
24.000200649576353 NaN NaN 4987.840743198408 NaN 1497.0 0.0 1497.0 
26.000200649576353 NaN NaN 4987.840743198408 NaN 1497.0 0.0 1497.0 
28.000200649576353 NaN NaN 4987.840743198408 NaN 1497.0 0.0 1497.0 
30.000200649576353 NaN NaN 4987.840743198408 NaN 1497.0 0.0 1497.0 
32.00020064957636 NaN NaN 4987.840743198408 NaN 1497.0 0.0 1497.0 
34.00020064957636 NaN NaN 4987.840743198408 NaN 1497.0 0.0 1497.0 
36.00020064957636 NaN NaN 4987.840743198408 NaN 1497.0 0.0 1497.0 
38.00020064957636 NaN NaN 4987.840743198408 NaN 1497.0 0.0 1497.0 
40.00020064957636 NaN NaN 4987.840743198408 NaN 1497.0 0.0 1497.0 
42.00020064957636 NaN NaN 4987.840743198408 NaN 1497.0 0.0 1497.0 
44.00020064957636 NaN NaN 4987.840743198408 NaN 1497.0 0.0 1497.0 
46.00020064957636 NaN NaN 4987.840743198408 NaN 1497.0 0.0 1497.0 
48.00020064957636 NaN NaN 4987.840743198408 NaN 1497.0 0.0 1497.0 
50.00020064957636 NaN NaN 4987.840743198408 NaN 1497.0 0.0 1497.0 
52.00020064957636 NaN NaN 4987.840743198408 NaN 1497.0 0.0 1497.0 
54.00020064957636 NaN NaN 4987.840743198408 NaN 1497.0 0.0 1497.0 
56.00020064957636 NaN NaN 4987.840743198408 NaN 1497.0 0.0 1497.0 
58.00020064957636 NaN NaN 4987.840743198408 NaN 1497.0 0.0 1497.0 
60.00020064957636 NaN NaN 4987.840743198408 NaN 1497.0 0.0 1497.0 
62.00047933655907 NaN NaN 400.0 NaN 0.0 0.0 0.0 
64.00042902272939 NaN NaN 400.0 NaN 0.0 0.0 0.0 
66.00047933655907 NaN NaN 400.0 NaN 0.0 0.0 0.0 
68.00047933655907 NaN NaN 400.0 NaN 0.0 0.0 0.0 
70.00047933655907 NaN NaN 400.0 NaN 0.0 0.0 0.0 
72.00047933655907 NaN NaN 400.0 NaN 0.0 0.0 0.0 
74.00042902272939 NaN NaN 400.0 NaN 0.0 0.0 0.0 
76.00047933655907 NaN NaN 400.0 NaN 0.0 0.0 0.0 
78.00047933655907 NaN NaN 400.0 NaN 0.0 0.0 0.0 
80.00047933655907 NaN NaN 400.0 NaN 0.0 0.0 0.0 
82.00047933655907 NaN NaN 400.0 NaN 0.0 0.0 0.0 
84.00042902272939 NaN NaN 400.0 NaN 0.0 0.0 0.0 
86.00047933655907 NaN NaN 400.0 NaN 0.0 0.0 0.0 
88.00047933655907 NaN NaN 400.0 NaN 0.0 0.0 0.0 
90.00047933655907 NaN NaN 400.0 NaN 0.0 0.0 0.0 
92.00047933655907 NaN NaN 400.0 NaN 0.0 0.0 0.0 
94.00042902272939 NaN NaN 400.0 NaN 0.0 0.0 0.0 
96.00047933655907 NaN NaN 400.0 NaN 0.0 0.0 0.0 
98.00047933655907 NaN NaN 400.0 NaN 0.0 0.0 0.0 
100.00047933655907 NaN NaN 400.0 NaN 0.0 0.0 0.0 
102.00047933655907 NaN NaN 400.0 NaN 0.0 0.0 0.0 
104.00042902272939 NaN NaN 400.0 NaN 0.0 0.0 0.0 
106.00047933655907 NaN NaN 400.0 NaN 0.0 0.0 0.0 
108.00047933655907 NaN NaN 400.0 NaN 0.0 0.0 0.0 
110.00047933655907 NaN NaN 400.0 NaN 0.0 0.0 0.0 
112.00047933655907 NaN NaN 400.0 NaN 0.0 0.0 0.0 
114.00042902272939 NaN NaN 400.0 NaN 0.0 0.0 0.0 
116.00047933655907 NaN NaN 400.0 NaN 0.0 0.0 0.0 
118.00047933655907 NaN NaN 400.0 NaN 0.0 0.0 0.0 
120.00047933655907 NaN NaN 400.0 NaN 0.0 0.0 0.0 
122.00047933655907 NaN NaN 400.0 NaN 0.0 0.0 0.0 
124.00042902272939 NaN NaN 400.0 NaN 0.0 0.0 0.0 
126.00047933655907 NaN NaN 400.0 NaN 0.0 0.0 0.0 
128.00047933655907 NaN NaN 400.0 NaN 0.0 0.0 0.0 
130.00047933655907 NaN NaN 400.0 NaN 0.0 0.0 0.0 
132.00047933655907 NaN NaN 400.0 NaN 0.0 0.0 0.0 
134.0004290227294 NaN NaN 400.0 NaN 0.0 0.0 0.0 
136.00047933655907 NaN NaN 400.0 NaN 0.0 0.0 0.0 
138.00047933655907 NaN NaN 400.0 NaN 0.0 0.0 0.0 
140.00047933655907 NaN NaN 400.0 NaN 0.0 0.0 0.0 
142.00047933655907 NaN NaN 400.0 NaN 0.0 0.0 0.0 
144.0004290227294 NaN NaN 400.0 NaN 0.0 0.0 0.0 
146.00047933655907 NaN NaN 400.0 NaN 0.0 0.0 0.0 
148.00047933655907 NaN NaN 400.0 NaN 0.0 0.0 0.0 
150.00047933655907 NaN NaN 400.0 NaN 0.0 0.0 0.0 
152.00047933655907 NaN NaN 400.0 NaN 0.0 0.0 0.0 
154.0004290227294 NaN NaN 400.0 NaN 0.0 0.0 0.0 
156.00047933655907 NaN NaN 400.0 NaN 0.0 0.0 0.0 
158.00047933655907 NaN NaN 400.0 NaN 0.0 0.0 0.0 
160.00047933655907 NaN NaN 400.0 NaN 0.0 0.0 0.0 
162.00047933655907 NaN NaN 400.0 NaN 0.0 0.0 0.0 
164.0004290227294 NaN NaN 400.0 NaN 0.0 0.0 0.0 
166.00047933655907 NaN NaN 400.0 NaN 0.0 0.0 0.0 
168.00047933655907 NaN NaN 400.0 NaN 0.0 0.0 0.0 
170.00047933655907 NaN NaN 400.0 NaN 0.0 0.0 0.0 
172.00047933655907 NaN NaN 400.0 NaN 0.0 0.0 0.0 
174.0004290227294 NaN NaN 400.0 NaN 0.0 0.0 0.0 
176.00047933655907 NaN NaN 400.0 NaN 0.0 0.0 0.0 
178.00047933655907 NaN NaN 400.0 NaN 0.0 0.0 0.0 
180.00047933655907 NaN NaN 400.0 NaN 0.0 0.0 0.0 
182.00047933655907 NaN NaN 400.0 NaN 0.0 0.0 0.0 
184.0004290227294 NaN NaN 400.0 NaN 0.0 0.0 0.0 
186.00047933655907 NaN NaN 400.0 NaN 0.0 0.0 0.0 
188.00047933655907 NaN NaN 400.0 NaN 0.0 0.0 0.0 
190.00047933655907 NaN NaN 400.0 NaN 0.0 0.0 0.0 
192.00047933655907 NaN NaN 400.0 NaN 0.0 0.0 0.0 
194.0004290227294 NaN NaN 400.0 NaN 0.0 0.0 0.0 
196.00047933655907 NaN NaN 400.0 NaN 0.0 0.0 0.0 
198.00047933655907 NaN NaN 400.0 NaN 0.0 0.0 0.0 
200.00047933655907 NaN NaN 400.0 NaN 0.0 0.0 0.0 
202.00047933655907 NaN NaN 400.0 NaN 0.0 0.0 0.0 
204.0004290227294 NaN NaN 400.0 NaN 0.0 0.0 0.0 
206.00047933655907 NaN NaN 400.0 NaN 0.0 0.0 0.0 
208.00047933655907 NaN NaN 400.0 NaN 0.0 0.0 0.0 
210.00047933655907 NaN NaN 400.0 NaN 0.0 0.0 0.0 
212.00047933655907 NaN NaN 400.0 NaN 0.0 0.0 0.0 
214.0004290227294 NaN NaN 400.0 NaN 0.0 0.0 0.0 
216.00047933655907 NaN NaN 400.0 NaN 0.0 0.0 0.0 
218.00047933655907 NaN NaN 400.0 NaN 0.0 0.0 0.0 
220.00047933655907 NaN NaN 400.0 NaN 0.0 0.0 0.0 
222.00047933655907 NaN NaN 400.0 NaN 0.0 0.0 0.0 
224.0004290227294 NaN NaN 400.0 NaN 0.0 0.0 0.0 
226.00047933655907 NaN NaN 400.0 NaN 0.0 0.0 0.0 
228.00047933655907 NaN NaN 400.0 NaN 0.0 0.0 0.0 
230.00047933655907 NaN NaN 400.0 NaN 0.0 0.0 0.0 
232.00047933655907 NaN NaN 400.0 NaN 0.0 0.0 0.0 
234.0004290227294 NaN NaN 400.0 NaN 0.0 0.0 0.0 
236.00047933655907 NaN NaN 400.0 NaN 0.0 0.0 0.0 
238.00047933655907 NaN NaN 400.0 NaN 0.0 0.0 0.0 
240.00047933655907 NaN NaN 400.0 NaN 0.0 0.0 0.0 
242.00047933655907 NaN NaN 400.0 NaN 0.0 0.0 0.0 
244.0004290227294 NaN NaN 400.0 NaN 0.0 0.0 0.0 
246.00047933655907 NaN NaN 400.0 NaN 0.0 0.0 0.0 
248.00047933655907 NaN NaN 400.0 NaN 0.0 0.0 0.0 
250.00047933655907 NaN NaN 400.0 NaN 0.0 0.0 0.0 
252.00047933655907 NaN NaN 400.0 NaN 0.0 0.0 0.0 
254.0004290227294 NaN NaN 400.0 NaN 0.0 0.0 0.0 
256.00047933655907 NaN NaN 400.0 NaN 0.0 0.0 0.0 
258.00047933655907 NaN NaN 400.0 NaN 0.0 0.0 0.0 
260.00047933655907 NaN NaN 400.0 NaN 0.0 0.0 0.0 
262.00047933655907 NaN NaN 400.0 NaN 0.0 0.0 0.0 
264.0004290227294 NaN NaN 400.0 NaN 0.0 0.0 0.0 
266.00047933655907 NaN NaN 400.0 NaN 0.0 0.0 0.0 
268.00047933655907 NaN NaN 400.0 NaN 0.0 0.0 0.0 
270.00047933655907 NaN NaN 400.0 NaN 0.0 0.0 0.0 
272.00047933655907 NaN NaN 400.0 NaN 0.0 0.0 0.0 
274.0004290227294 NaN NaN 400.0 NaN 0.0 0.0 0.0 
276.00047933655907 NaN NaN 400.0 NaN 0.0 0.0 0.0 
278.00047933655907 NaN NaN 400.0 NaN 0.0 0.0 0.0 
280.00047933655907 NaN NaN 400.0 NaN 0.0 0.0 0.0 
282.00047933655907 NaN NaN 400.0 NaN 0.0 0.0 0.0 
284.0004290227294 NaN NaN 400.0 NaN 0.0 0.0 0.0 
286.00047933655907 NaN NaN 400.0 NaN 0.0 0.0 0.0 
288.00047933655907 NaN NaN 400.0 NaN 0.0 0.0 0.0 
290.00047933655907 NaN NaN 400.0 NaN 0.0 0.0 0.0 
292.00047933655907 NaN NaN 400.0 NaN 0.0 0.0 0.0 
294.0004290227294 NaN NaN 400.0 NaN 0.0 0.0 0.0 
296.00047933655907 NaN NaN 400.0 NaN 0.0 0.0 0.0 
298.00047933655907 NaN NaN 400.0 NaN 0.0 0.0 0.0 
300.00047933655907 NaN NaN 400.0 NaN 0.0 0.0 0.0 
302.00047933655907 NaN NaN 400.0 NaN 0.0 0.0 0.0 
304.0004290227294 NaN NaN 400.0 NaN 0.0 0.0 0.0 
306.00047933655907 NaN NaN 400.0 NaN 0.0 0.0 0.0 
308.00047933655907 NaN NaN 400.0 NaN 0.0 0.0 0.0 
310.00047933655907 NaN NaN 400.0 NaN 0.0 0.0 0.0 
312.00047933655907 NaN NaN 400.0 NaN 0.0 0.0 0.0 
314.0004290227294 NaN NaN 400.0 NaN 0.0 0.0 0.0 
316.00047933655907 NaN NaN 400.0 NaN 0.0 0.0 0.0 
318.00047933655907 NaN NaN 400.0 NaN 0.0 0.0 0.0 
320.00047933655907 NaN NaN 400.0 NaN 0.0 0.0 0.0 
322.00047933655907 NaN NaN 400.0 NaN 0.0 0.0 0.0 
324.0004290227294 NaN NaN 400.0 NaN 0.0 0.0 0.0 
326.00047933655907 NaN NaN 400.0 NaN 0.0 0.0 0.0 
328.00047933655907 NaN NaN 400.0 NaN 0.0 0.0 0.0 
330.00047933655907 NaN NaN 400.0 NaN 0.0 0.0 0.0 
332.00047933655907 NaN NaN 400.0 NaN 0.0 0.0 0.0 
334.0004290227294 NaN NaN 400.0 NaN 0.0 0.0 0.0 
336.00047933655907 NaN NaN 400.0 NaN 0.0 0.0 0.0 
338.00047933655907 NaN NaN 400.0 NaN 0.0 0.0 0.0 
340.00047933655907 NaN NaN 400.0 NaN 0.0 0.0 0.0 
342.00047933655907 NaN NaN 400.0 NaN 0.0 0.0 0.0 
344.0004290227294 1.0 NaN 400.0 0.1009311351479596 0.0 0.0 0.0 
346.00047933655907 2.0 1.0 400.0 0.40514505177355886 0.0 0.0 0.0 
348.00047933655907 2.0 1.0 400.0 0.40514505177355886 0.0 0.0 0.0 
350.00047933655907 2.0 1.0 400.0 0.40514505177355886 0.0 0.0 0.0 
352.00047933655907 2.0 1.0 400.0 0.40514505177355886 0.0 0.0 0.0 
354.0004290227294 2.0 1.0 400.0 0.9051450517735589 0.0 0.0 0.0 
356.00047933655907 2.0 1.0 400.0 2.905145051773559 0.0 0.0 0.0 
358.00047933655907 2.0 1.0 400.0 4.905145051773559 0.0 0.0 0.0 
360.00047933655907 2.0 1.0 400.0 6.905145051773559 0.0 0.0 0.0 
362.00047933655907 2.0 1.0 400.0 8.905145051773559 0.0 0.0 0.0 
364.0004290227294 2.0 1.0 400.0 10.905145051773559 0.0 0.0 0.0 
366.00047933655907 2.0 1.0 400.0 12.905145051773559 0.0 0.0 0.0 
368.00047933655907 2.0 1.0 400.0 14.905145051773559 0.0 0.0 0.0 
370.00047933655907 2.0 1.0 400.0 16.90514505177356 0.0 0.0 0.0 
372.00047933655907 2.0 1.0 400.0 18.90514505177356 0.0 0.0 0.0 
374.0004290227294 2.0 1.0 400.0 20.90514505177356 0.0 0.0 0.0 
376.00047933655907 2.0 1.0 400.0 22.90514505177356 0.0 0.0 0.0 
378.00047933655907 2.0 1.0 400.0 24.90514505177356 0.0 0.0 0.0 
380.00047933655907 2.0 1.0 400.0 26.90514505177356 0.0 0.0 0.0 
382.00047933655907 2.0 1.0 400.0 28.90514505177356 0.0 0.0 0.0 
384.0004290227294 0.0 0.0 400.0 NaN 0.0 0.0 0.0 
386.00047933655907 0.0 0.0 400.0 NaN 0.0 0.0 0.0 
388.00047933655907 0.0 0.0 400.0 NaN 0.0 0.0 0.0 
390.00047933655907 2.0 1.0 400.0 0.40514505177355886 0.0 0.0 0.0 
392.00047933655907 2.0 1.0 400.0 0.40514505177355886 0.0 0.0 0.0 
394.0004290227294 2.0 1.0 400.0 0.40514505177355886 0.0 0.0 0.0 
396.00047933655907 6.0 2.0 400.0 0.47695677021372757 0.0 0.0 0.0 
398.00047933655907 6.0 2.0 400.0 0.47695677021372757 0.0 0.0 0.0 
400.00047933655907 9.0 2.0 403.06038487060385 0.8062343625153426 1.0 0.0 1.0 
402.00047933655907 9.0 2.0 403.04445919044457 1.2864729149681675 1.0 0.0 1.0 
404.0004290227294 12.0 3.0 409.14930325149305 1.4109861485699895 3.0 0.0 3.0 
406.00047933655907 12.0 3.0 409.14930325149305 3.0101286399410627 3.0 0.0 3.0 
408.00047933655907 12.0 3.0 409.14930325149305 3.3008916694190065 3.0 0.0 3.0 
410.00047933655907 12.0 3.0 409.14664897146645 5.217558336085673 3.0 0.0 3.0 
412.00047933655907 12.0 3.0 409.14134041141335 7.217558336085673 3.0 0.0 3.0 
414.0004290227294 14.0 4.0 409.14134041141335 7.118111756775429 4.0 0.0 3.0 
416.00047933655907 14.0 4.0 409.1386861313869 8.618111756775429 4.0 0.0 3.0 
418.00047933655907 14.0 4.0 409.13337757133377 10.118111756775429 4.0 0.0 3.0 
420.00047933655907 14.0 4.0 409.13337757133377 11.618111756775429 4.0 0.0 3.0 
422.00047933655907 14.0 4.0 409.13337757133377 13.118111756775429 4.0 0.0 3.0 
424.0004290227294 14.0 4.0 409.13337757133377 14.918111756775428 3.0 0.0 3.0 
426.00047933655907 14.0 4.0 409.13337757133377 16.918111756775428 3.0 0.0 3.0 
428.00047933655907 14.0 4.0 409.13337757133377 18.918111756775428 3.0 0.0 3.0 
430.00047933655907 12.0 4.0 409.13337757133377 19.936330447437776 3.0 0.0 3.0 
432.00047933655907 12.0 4.0 409.13337757133377 21.936330447437776 3.0 0.0 3.0 
434.0004290227294 8.0 3.0 409.13337757133377 21.394291052561858 3.0 0.0 3.0 
436.00047933655907 10.0 4.0 409.13337757133377 17.602640445973677 4.0 0.0 3.0 
438.00047933655907 5.0 2.0 409.13337757133377 13.474215445971268 4.0 0.0 3.0 
440.00047933655907 4.0 2.0 409.13337757133377 9.069532765582798 3.0 0.0 3.0 
442.00047933655907 4.0 2.0 409.13337757133377 10.069532765582798 3.0 0.0 3.0 
444.0004290227294 4.0 2.0 409.13337757133377 11.069532765582798 3.0 0.0 3.0 
446.00047933655907 4.0 2.0 409.13337757133377 12.569532765582798 3.0 0.0 3.0 
448.00047933655907 4.0 2.0 409.13337757133377 14.569532765582798 3.0 0.0 3.0 
450.00047933655907 4.0 2.0 409.13337757133377 16.569532765582796 3.0 0.0 3.0 
452.00047933655907 3.0 1.0 409.13337757133377 14.802647837633515 3.0 0.0 3.0 
454.0004290227294 2.0 1.0 409.13337757133377 9.405145051773559 3.0 0.0 3.0 
456.00047933655907 2.0 1.0 409.13337757133377 11.405145051773559 3.0 0.0 3.0 
458.00047933655907 2.0 1.0 409.13337757133377 13.405145051773559 3.0 0.0 3.0 
460.00047933655907 2.0 1.0 409.13337757133377 15.405145051773559 3.0 0.0 3.0 
462.00047933655907 2.0 1.0 409.13337757133377 17.40514505177356 3.0 0.0 3.0 
464.0004290227294 2.0 1.0 406.08891838088914 19.40514505177356 2.0 0.0 2.0 
466.00047933655907 2.0 1.0 406.08891838088914 21.40514505177356 2.0 0.0 2.0 
468.00047933655907 4.0 2.0 403.04445919044457 12.128759493684356 1.0 0.0 1.0 
470.00047933655907 4.0 2.0 400.0 13.128759493684356 0.0 0.0 0.0 
472.00047933655907 4.0 2.0 400.0 14.128759493684356 0.0 0.0 0.0 
474.0004290227294 4.0 2.0 400.0 15.128759493684356 0.0 0.0 0.0 
476.00047933655907 2.0 1.0 400.0 0.9051450517735589 0.0 0.0 0.0 
478.00047933655907 2.0 1.0 400.0 1.9051450517735589 0.0 0.0 0.0 
480.00047933655907 2.0 1.0 400.0 3.905145051773559 0.0 0.0 0.0 
482.00047933655907 2.0 1.0 400.0 5.905145051773559 0.0 0.0 0.0 
484.0004290227294 2.0 1.0 400.0 7.905145051773559 0.0 0.0 0.0 
486.00047933655907 2.0 1.0 400.0 9.905145051773559 0.0 0.0 0.0 
488.00047933655907 2.0 1.0 400.0 11.905145051773559 0.0 0.0 0.0 
490.00047933655907 2.0 1.0 400.0 13.905145051773559 0.0 0.0 0.0 
492.00047933655907 2.0 1.0 400.0 15.905145051773559 0.0 0.0 0.0 
494.0004290227294 2.0 1.0 400.0 17.90514505177356 0.0 0.0 0.0 
496.00047933655907 4.0 2.0 400.0 10.160529045569698 0.0 0.0 0.0 
498.00047933655907 4.0 2.0 400.0 11.160529045569698 0.0 0.0 0.0 
500.00047933655907 5.0 2.0 400.0 12.141595739822028 0.0 0.0 0.0 
502.00047933655907 8.0 3.0 400.0 8.954185712439394 0.0 0.0 0.0 
504.0004290227294 8.0 3.0 400.0 9.620852379106061 0.0 0.0 0.0 
506.00047933655907 8.0 3.0 400.0 10.995852379106061 0.0 0.0 0.0 
508.00047933655907 8.0 3.0 403.0603848706039 2.403479208515481 1.0 0.0 1.0 
510.00047933655907 9.0 3.0 403.04445919044457 2.9153793071863254 1.0 0.0 1.0 
512.000479336559 9.0 3.0 403.04445919044457 4.280330956595158 1.0 0.0 1.0 
514.0004290227293 9.0 3.0 403.04445919044457 5.6136642899284865 1.0 0.0 1.0 
516.000479336559 9.0 3.0 403.04445919044457 6.9469976232618205 1.0 0.0 1.0 
518.000479336559 9.0 3.0 403.04445919044457 8.363664289928487 1.0 0.0 1.0 
520.000479336559 9.0 3.0 403.04445919044457 10.363664289928487 1.0 0.0 1.0 
522.000479336559 9.0 3.0 403.04445919044457 12.363664289928487 1.0 0.0 1.0 
524.0004290227293 9.0 3.0 403.04445919044457 14.363664289928487 1.0 0.0 1.0 
526.000479336559 9.0 3.0 403.04445919044457 16.363664289928487 1.0 0.0 1.0 
528.000479336559 9.0 3.0 403.04445919044457 18.363664289928487 1.0 0.0 1.0 
530.000479336559 9.0 3.0 403.04445919044457 20.363664289928487 1.0 0.0 1.0 
532.000479336559 9.0 3.0 403.04445919044457 22.363664289928487 1.0 0.0 1.0 
534.0004290227293 7.0 3.0 403.04445919044457 22.389768087569678 1.0 0.0 1.0 
536.000479336559 5.0 2.0 403.04445919044457 23.043317550074637 1.0 0.0 1.0 
538.000479336559 4.0 1.0 403.04445919044457 23.434373728496666 1.0 0.0 1.0 
540.000479336559 2.0 1.0 403.04445919044457 22.905145051773502 1.0 0.0 1.0 
542.000479336559 2.0 1.0 403.04445919044457 24.905145051773502 1.0 0.0 1.0 
544.0004290227293 2.0 1.0 403.04445919044457 26.905145051773502 1.0 0.0 1.0 
546.000479336559 2.0 1.0 403.04445919044457 28.905145051773502 1.0 0.0 1.0 
548.000479336559 0.0 0.0 403.04445919044457 NaN 1.0 0.0 1.0 
550.000479336559 0.0 0.0 403.04445919044457 NaN 1.0 0.0 1.0 
552.000479336559 0.0 0.0 403.04445919044457 NaN 1.0 0.0 1.0 
554.0004290227293 0.0 0.0 403.04445919044457 NaN 1.0 0.0 1.0 
556.000479336559 0.0 0.0 403.04445919044457 NaN 1.0 0.0 1.0 
558.000479336559 0.0 0.0 403.04445919044457 NaN 1.0 0.0 1.0 
560.000479336559 0.0 0.0 403.04445919044457 NaN 1.0 0.0 1.0 
562.000479336559 0.0 0.0 403.04445919044457 NaN 1.0 0.0 1.0 
564.0004290227293 0.0 0.0 403.04445919044457 NaN 1.0 0.0 1.0 
566.000479336559 0.0 0.0 403.04445919044457 NaN 1.0 0.0 1.0 
568.000479336559 0.0 0.0 403.04445919044457 NaN 1.0 0.0 1.0 
570.000479336559 0.0 0.0 400.0 NaN 0.0 0.0 0.0 
572.000479336559 0.0 0.0 400.0 NaN 0.0 0.0 0.0 
574.0004290227293 0.0 0.0 400.0 NaN 0.0 0.0 0.0 
576.000479336559 0.0 0.0 400.0 NaN 0.0 0.0 0.0 
578.000479336559 0.0 0.0 400.0 NaN 0.0 0.0 0.0 
580.000479336559 0.0 0.0 400.0 NaN 0.0 0.0 0.0 
582.000479336559 2.0 1.0 400.0 0.405145051773502 0.0 0.0 0.0 
584.0004290227293 2.0 1.0 400.0 0.405145051773502 0.0 0.0 0.0 
586.000479336559 2.0 1.0 400.0 0.405145051773502 0.0 0.0 0.0 
588.000479336559 2.0 1.0 400.0 0.405145051773502 0.0 0.0 0.0 
590.000479336559 2.0 1.0 400.0 0.405145051773502 0.0 0.0 0.0 
592.000479336559 2.0 1.0 400.0 0.405145051773502 0.0 0.0 0.0 
594.0004290227293 2.0 1.0 400.0 0.405145051773502 0.0 0.0 0.0 
596.000479336559 2.0 1.0 400.0 0.405145051773502 0.0 0.0 0.0 
598.000479336559 2.0 1.0 400.0 0.405145051773502 0.0 0.0 0.0 
600.000479336559 2.0 1.0 400.0 0.405145051773502 0.0 0.0 0.0 
602.000479336559 2.0 1.0 400.0 1.905145051773502 0.0 0.0 0.0 
604.0004290227293 2.0 1.0 400.0 3.905145051773502 0.0 0.0 0.0 
606.000479336559 2.0 1.0 400.0 5.905145051773502 0.0 0.0 0.0 
608.000479336559 2.0 1.0 400.0 7.905145051773502 0.0 0.0 0.0 
610.000479336559 2.0 1.0 400.0 9.905145051773502 0.0 0.0 0.0 
612.000479336559 2.0 1.0 400.0 11.905145051773502 0.0 0.0 0.0 
614.0004290227293 2.0 1.0 400.0 13.905145051773502 0.0 0.0 0.0 
616.000479336559 2.0 1.0 400.0 15.905145051773502 0.0 0.0 0.0 
618.000479336559 2.0 1.0 400.0 17.905145051773502 0.0 0.0 0.0 
620.000479336559 2.0 1.0 400.0 19.905145051773502 0.0 0.0 0.0 
622.000479336559 2.0 1.0 400.0 21.905145051773502 0.0 0.0 0.0 
624.0004290227293 2.0 1.0 400.0 23.905145051773502 0.0 0.0 0.0 
626.000479336559 2.0 1.0 400.0 25.905145051773502 0.0 0.0 0.0 
628.000479336559 4.0 2.0 400.0 14.12256870151655 0.0 0.0 0.0 
630.000479336559 3.0 1.0 400.0 10.108201699399086 0.0 0.0 0.0 
632.000479336559 2.0 1.0 400.0 0.405145051773502 0.0 0.0 0.0 
634.0004290227293 2.0 1.0 400.0 0.405145051773502 0.0 0.0 0.0 
636.000479336559 2.0 1.0 400.0 0.405145051773502 0.0 0.0 0.0 
638.000479336559 2.0 1.0 400.0 0.405145051773502 0.0 0.0 0.0 
640.000479336559 2.0 1.0 400.0 0.405145051773502 0.0 0.0 0.0 
642.000479336559 2.0 1.0 400.0 0.405145051773502 0.0 0.0 0.0 
644.0004290227293 2.0 1.0 400.0 0.405145051773502 0.0 0.0 0.0 
646.000479336559 2.0 1.0 400.0 0.405145051773502 0.0 0.0 0.0 
648.000479336559 2.0 1.0 400.0 1.905145051773502 0.0 0.0 0.0 
650.000479336559 2.0 1.0 400.0 3.905145051773502 0.0 0.0 0.0 
652.000479336559 2.0 1.0 400.0 5.905145051773502 0.0 0.0 0.0 
654.0004290227293 2.0 1.0 400.0 7.905145051773502 0.0 0.0 0.0 
656.000479336559 2.0 1.0 400.0 9.905145051773502 0.0 0.0 0.0 
658.000479336559 2.0 1.0 400.0 11.905145051773502 0.0 0.0 0.0 
660.000479336559 2.0 1.0 400.0 13.905145051773502 0.0 0.0 0.0 
662.000479336559 2.0 1.0 400.0 15.905145051773502 0.0 0.0 0.0 
664.0004290227293 2.0 1.0 400.0 17.905145051773502 0.0 0.0 0.0 
#####################################################################
# End of data export. Simulation finished at: 2019-03-10T12:49+0000 #
#####################################################################
