#####################################################################
# Alchemist log file - simulation started at: 2019-03-08T13:27+0000 #
#####################################################################
# seed = 7.0, bandwidth = 1333521.4321633242, accessPointCount = 10.0, baserange = 316.2277660168379
#
# The columns have the following meaning: 
# time neighbor_count[Sum] <value>@neighbor_count[Sum] packet_size[Mean] mean_delay[Mean] crowd[Sum] overcrowded[Sum] risk[Sum] 
0.0 NaN NaN NaN NaN NaN NaN NaN 
2.00001068303238 927.0 102.0 4988.06901128069 0.48255245743560427 1497.0 0.0 1497.0 
4.0000106830323805 1972.0 102.0 4988.387524883875 0.4835261317561802 1497.0 0.0 1497.0 
6.00001068303238 3039.0 102.0 4988.727272727273 0.4890684779946642 1497.0 0.0 1497.0 
8.00001068303238 3587.0 102.0 4988.650298606503 0.5009032057210229 1497.0 0.0 1497.0 
10.00001068303238 3687.0 102.0 4988.711347047113 0.5025906700649923 1496.0 1.0 1496.0 
12.00001068303238 3698.0 102.0 4988.692767086927 0.5028226545372456 1495.0 2.0 1495.0 
14.00001068303238 3698.0 102.0 4988.727272727273 0.502794998788929 1495.0 2.0 1495.0 
16.00001068303238 3698.0 102.0 4988.748506967485 0.5027805753204826 1495.0 2.0 1495.0 
18.00001068303238 3698.0 102.0 4988.740544127406 0.5030019200625507 1495.0 2.0 1495.0 
20.00001068303238 3698.0 102.0 4988.703384207034 0.5029998648872273 1495.0 2.0 1495.0 
22.00001068303238 3698.0 102.0 4988.753815527538 0.5027914703210458 1495.0 2.0 1495.0 
24.00001068303238 3698.0 102.0 4988.692767086927 0.5033813069660219 1495.0 2.0 1495.0 
26.00001068303238 3696.0 102.0 4988.737889847379 0.5027170111086751 1495.0 2.0 1495.0 
28.00001068303238 3696.0 102.0 4988.732581287326 0.5029162118712017 1495.0 2.0 1495.0 
30.00001068303238 3696.0 102.0 4988.70603848706 0.5029393618142057 1495.0 2.0 1495.0 
32.00001068303238 3696.0 102.0 4988.690112806901 0.5027262967539253 1495.0 2.0 1495.0 
34.000010683032386 3696.0 102.0 4988.756469807565 0.5027112869607182 1495.0 2.0 1495.0 
36.000010683032386 3696.0 102.0 4988.70603848706 0.5027279194807922 1495.0 2.0 1495.0 
38.000010683032386 3696.0 102.0 4988.735235567352 0.5029235204697479 1495.0 2.0 1495.0 
40.000010683032386 3696.0 102.0 4988.711347047113 0.5029234168710952 1495.0 2.0 1495.0 
42.000010683032386 3696.0 102.0 4988.700729927007 0.5027359687086865 1495.0 2.0 1495.0 
44.000010683032386 3696.0 102.0 4988.700729927007 0.5031573666730261 1495.0 2.0 1495.0 
46.000010683032386 3694.0 102.0 4988.775049767751 0.5028432243334048 1495.0 2.0 1495.0 
48.000010683032386 3696.0 102.0 4988.703384207034 0.502985020812458 1495.0 2.0 1495.0 
50.000010683032386 3696.0 102.0 4988.71400132714 0.502982424502652 1495.0 2.0 1495.0 
52.000010683032386 3696.0 102.0 4988.70603848706 0.5027717383706424 1495.0 2.0 1495.0 
54.000010683032386 3696.0 102.0 4988.711347047113 0.5027796513204257 1495.0 2.0 1495.0 
56.000010683032386 3696.0 102.0 4988.719309887193 0.502768781501789 1495.0 2.0 1495.0 
58.000010683032386 3698.0 102.0 4988.780358327804 0.502775234380892 1495.0 2.0 1495.0 
60.000010683032386 3698.0 102.0 4988.684804246848 0.5028011589880395 1495.0 2.0 1495.0 
62.000820081749154 3708.0 102.0 558.9435965494354 0.5037848906297844 85.0 2.0 50.0 
64.00082008174915 3710.0 102.0 558.8878566688782 0.5043410502686149 83.0 1.0 51.0 
66.00029741811947 3710.0 102.0 558.8506967485065 0.5043448796386453 83.0 0.0 52.0 
68.00082008174915 3710.0 102.0 558.9382879893835 0.5111296156397824 81.0 0.0 52.0 
70.00082008174915 3704.0 102.0 558.9197080291973 0.505134315596126 81.0 0.0 52.0 
72.00082008174915 3716.0 102.0 558.898473788985 0.5069762827760302 82.0 0.0 52.0 
74.00082008174915 3714.0 102.0 558.9303251493029 0.5052950934007723 82.0 0.0 52.0 
76.00029741811947 3712.0 102.0 558.9276708692763 0.5049773253819793 82.0 0.0 52.0 
78.00082008174915 3712.0 102.0 558.8772395487725 0.5083060100437291 82.0 0.0 52.0 
80.00082008174915 3708.0 102.0 558.9223623092241 0.5048887517344895 82.0 0.0 52.0 
82.00082008174915 3708.0 102.0 558.9197080291973 0.5154662289620601 81.0 0.0 52.0 
84.00082008174915 3698.0 102.0 558.9011280690117 0.5042854612765997 81.0 0.0 52.0 
86.00029741811947 3698.0 102.0 558.9064366290639 0.5050670951321855 81.0 0.0 52.0 
88.00082008174915 3704.0 102.0 558.9170537491708 0.5070823130723797 81.0 0.0 52.0 
90.00082008174915 3702.0 102.0 558.898473788985 0.5043680242211271 81.0 0.0 52.0 
92.00082008174915 3702.0 102.0 558.9276708692763 0.5350848315271968 81.0 0.0 52.0 
94.00082008174915 3674.0 101.0 558.9037823490385 0.5046007853257463 81.0 0.0 52.0 
96.00029741811947 3674.0 101.0 558.8905109489045 0.504597195737779 81.0 0.0 52.0 
98.00082008174915 3674.0 101.0 558.9276708692763 0.5067706332323862 81.0 0.0 52.0 
100.00082008174915 3672.0 101.0 558.9223623092241 0.5046550829081005 81.0 0.0 52.0 
102.00082008174915 3672.0 101.0 558.8772395487725 0.5046493476779029 81.0 0.0 52.0 
104.00082008174915 3672.0 101.0 558.9276708692763 0.504658159209005 81.0 0.0 52.0 
106.00029741811947 3672.0 101.0 558.9197080291973 0.5046531894581727 81.0 0.0 52.0 
108.00082008174915 3672.0 101.0 558.8958195089583 0.5068767275429552 81.0 0.0 52.0 
110.00082008174915 3670.0 101.0 558.9064366290639 0.5046675770069337 81.0 0.0 52.0 
112.00082008174915 3670.0 101.0 558.9170537491708 0.5046596682342637 81.0 0.0 52.0 
114.00082008174915 3670.0 101.0 558.9037823490385 0.5046500057657152 81.0 0.0 52.0 
116.00029741811947 3670.0 101.0 558.9276708692763 0.5046655376465897 81.0 0.0 52.0 
118.00082008174915 3670.0 101.0 558.898473788985 0.5129798408703343 81.0 0.0 52.0 
120.00082008174915 3664.0 101.0 555.8460517584602 0.5054835520636781 81.0 0.0 51.0 
122.00082008174915 3664.0 101.0 555.8832116788318 0.5056811694540925 81.0 0.0 51.0 
124.00082008174915 3664.0 101.0 555.8858659588586 0.5056720364954895 81.0 0.0 51.0 
126.00029741811947 3664.0 101.0 555.8540145985405 0.5056656891273419 81.0 0.0 51.0 
128.00082008174917 3664.0 101.0 555.8964830789644 0.5092992409528079 81.0 0.0 51.0 
130.00082008174917 3662.0 101.0 555.8885202388856 0.505846527558124 79.0 0.0 51.0 
132.00082008174917 3662.0 101.0 555.867285998673 0.5058514181477757 79.0 0.0 51.0 
134.00082008174917 3662.0 101.0 555.8487060384873 0.5058576387714989 79.0 0.0 51.0 
136.0002974181195 3662.0 101.0 555.8858659588586 0.5058480060909412 79.0 0.0 51.0 
138.00082008174917 3662.0 101.0 555.8327803583283 0.5058487058908518 79.0 0.0 51.0 
140.00082008174917 3662.0 101.0 555.891174518912 0.505854831635689 79.0 0.0 51.0 
142.00082008174917 3662.0 101.0 555.8380889183802 0.5058518422232599 78.0 0.0 51.0 
144.00082008174917 3662.0 101.0 555.8566688785673 0.5058430577502582 77.0 0.0 51.0 
146.0002974181195 3664.0 102.0 555.8301260783015 0.5057478962220644 77.0 0.0 51.0 
148.00082008174917 3664.0 102.0 555.8832116788318 0.505736150403976 77.0 0.0 51.0 
150.00082008174917 3664.0 102.0 555.806237558062 0.5057386304563262 77.0 0.0 51.0 
152.00082008174917 3664.0 102.0 555.8752488387529 0.5057431408982664 77.0 0.0 51.0 
154.00082008174917 3666.0 102.0 555.8460517584602 0.505609157942225 77.0 0.0 51.0 
156.0002974181195 3666.0 102.0 555.8540145985405 0.5056131354907202 77.0 0.0 51.0 
158.00082008174917 3666.0 102.0 555.8327803583283 0.5264371665613494 77.0 0.0 51.0 
160.00082008174917 3654.0 101.0 555.8858659588586 0.5055514862671113 77.0 0.0 51.0 
162.00082008174917 3654.0 101.0 555.8088918380888 0.5055537824688208 77.0 0.0 51.0 
164.00082008174917 3655.0 101.0 555.8779031187786 0.5065394189263599 77.0 0.0 51.0 
166.0002974181195 3654.0 101.0 555.840743198407 0.5053088664854122 77.0 0.0 51.0 
168.00082008174917 3654.0 101.0 555.8540145985405 0.5053019852535898 77.0 0.0 51.0 
170.00082008174917 3654.0 101.0 555.8327803583283 0.5053159172608563 77.0 0.0 51.0 
172.00082008174917 3654.0 101.0 555.8858659588586 0.5053042765866422 77.0 0.0 51.0 
174.00082008174917 3654.0 101.0 555.8088918380888 0.5053065751523599 77.0 0.0 51.0 
176.0002974181195 3654.0 101.0 555.8779031187786 0.5053113273620863 77.0 0.0 51.0 
178.00082008174917 3654.0 101.0 555.840743198407 0.5053088664854122 77.0 0.0 51.0 
180.00082008174917 3654.0 101.0 555.8540145985405 0.5053019852535898 77.0 0.0 51.0 
182.00082008174917 3654.0 101.0 555.8327803583283 0.5053159172608563 77.0 0.0 51.0 
184.00082008174917 3656.0 101.0 555.8858659588586 0.505254521905998 77.0 0.0 51.0 
186.0002974181195 3656.0 101.0 555.8088918380888 0.5052568204717156 77.0 0.0 51.0 
188.00082008174917 3656.0 101.0 555.8779031187786 0.5052615694429858 77.0 0.0 51.0 
190.00082008174917 3656.0 101.0 555.840743198407 0.505259111804768 77.0 0.0 51.0 
192.00082008174917 3656.0 101.0 555.8540145985405 0.5052522305729455 77.0 0.0 51.0 
194.00082008174917 3656.0 101.0 555.8327803583283 0.5052661593417559 77.0 0.0 51.0 
196.0002974181195 3656.0 101.0 555.8858659588586 0.505254521905998 77.0 0.0 51.0 
198.00082008174917 3656.0 101.0 555.8088918380888 0.5052568204717156 77.0 0.0 51.0 
200.00082008174917 3656.0 101.0 555.8779031187786 0.5052615694429858 77.0 0.0 51.0 
202.00082008174917 3656.0 101.0 555.840743198407 0.505259111804768 77.0 0.0 51.0 
204.00082008174917 3656.0 101.0 555.8540145985405 0.5052522305729455 77.0 0.0 51.0 
206.0002974181195 3656.0 101.0 555.8327803583283 0.5052661593417559 77.0 0.0 51.0 
208.00082008174917 3656.0 101.0 555.8858659588586 0.505254521905998 77.0 0.0 51.0 
210.00082008174917 3656.0 101.0 555.8088918380888 0.5052568204717156 77.0 0.0 51.0 
212.00082008174917 3656.0 101.0 555.8779031187786 0.5052615694429858 77.0 0.0 51.0 
214.00082008174917 3656.0 101.0 555.840743198407 0.505259111804768 77.0 0.0 51.0 
216.0002974181195 3656.0 101.0 555.8540145985405 0.5052522305729455 77.0 0.0 51.0 
218.00082008174917 3657.0 101.0 555.8327803583283 0.5047940134524849 77.0 0.0 51.0 
220.00082008174917 3658.0 102.0 555.8858659588586 0.5050880195457821 77.0 0.0 51.0 
222.00082008174917 3658.0 102.0 555.8088918380888 0.5050902972154477 77.0 0.0 51.0 
224.00082008174917 3658.0 102.0 555.8779031187786 0.5050950030142519 77.0 0.0 51.0 
226.0002974181195 3658.0 102.0 555.840743198407 0.5050925677181997 77.0 0.0 51.0 
228.00082008174917 3658.0 102.0 555.8540145985405 0.5050857490430302 77.0 0.0 51.0 
230.00082008174917 3658.0 102.0 555.8327803583283 0.5050995511866695 77.0 0.0 51.0 
232.00082008174917 3658.0 102.0 555.8858659588586 0.5050880195457821 77.0 0.0 51.0 
234.00082008174917 3658.0 102.0 555.8088918380888 0.5050902972154477 77.0 0.0 51.0 
236.0002974181195 3658.0 102.0 555.8779031187786 0.5050950030142519 77.0 0.0 51.0 
238.00082008174917 3658.0 102.0 555.840743198407 0.5050925677181997 77.0 0.0 51.0 
240.00082008174917 3658.0 102.0 555.8540145985405 0.5050857490430302 77.0 0.0 51.0 
242.00082008174917 3658.0 102.0 555.8327803583283 0.5050995511866695 77.0 0.0 51.0 
244.00082008174917 3658.0 102.0 555.8858659588586 0.5050880195457821 77.0 0.0 51.0 
246.0002974181195 3658.0 102.0 555.8088918380888 0.5050902972154477 77.0 0.0 51.0 
248.00082008174917 3658.0 102.0 555.8779031187786 0.5050950030142519 77.0 0.0 51.0 
250.00082008174917 3658.0 102.0 555.840743198407 0.5050925677181997 77.0 0.0 51.0 
252.00082008174917 3658.0 102.0 555.8540145985405 0.5050857490430302 77.0 0.0 51.0 
254.00082008174917 3658.0 102.0 555.8327803583283 0.5050995511866695 77.0 0.0 51.0 
256.0002974181195 3658.0 102.0 555.8858659588586 0.5050880195457821 77.0 0.0 51.0 
258.00082008174917 3658.0 102.0 555.8088918380888 0.505090297215462 77.0 0.0 51.0 
260.00082008174917 3658.0 102.0 555.8779031187786 0.5050950030142657 77.0 0.0 51.0 
262.00082008174917 3658.0 102.0 555.840743198407 0.5050925677182129 77.0 0.0 51.0 
264.00082008174917 3659.0 102.0 555.8540145985405 0.505013365602006 77.0 0.0 51.0 
266.0002974181195 3660.0 102.0 555.8327803583283 0.5050144158964496 77.0 0.0 51.0 
268.00082008174917 3660.0 102.0 555.8858659588586 0.5050028834176109 77.0 0.0 51.0 
270.00082008174917 3660.0 102.0 555.8088918380888 0.5050051688506443 77.0 0.0 51.0 
272.00082008174917 3660.0 102.0 555.8779031187786 0.505009867724032 77.0 0.0 51.0 
274.00082008174917 3660.0 102.0 555.840743198407 0.5050074315900285 77.0 0.0 51.0 
276.0002974181195 3660.0 102.0 555.8540145985405 0.5050006206782267 77.0 0.0 51.0 
278.00082008174917 3660.0 102.0 555.8327803583283 0.5141053249873586 77.0 0.0 51.0 
280.00082008174917 3659.0 102.0 555.8858659588586 0.5146553853297315 77.0 0.0 51.0 
282.00082008174917 3658.0 101.0 555.8088918380888 0.505170911112738 77.0 0.0 51.0 
284.00082008174917 3658.0 101.0 555.8779031187786 0.505175653095056 77.0 0.0 51.0 
286.0002974181195 3658.0 101.0 555.840743198407 0.5051731946111992 77.0 0.0 51.0 
288.00082008174917 3658.0 101.0 555.8540145985405 0.5051663212139681 77.0 0.0 51.0 
290.00082008174917 3658.0 101.0 555.8327803583283 0.505180242993826 77.0 0.0 51.0 
292.00082008174917 3673.0 101.0 558.9462508294621 0.503670703089616 78.0 0.0 52.0 
294.00082008174917 3684.0 102.0 558.8852023888526 0.5047346902584918 78.0 0.0 52.0 
296.0002974181195 3684.0 102.0 558.9382879893834 0.5047397040759045 78.0 0.0 52.0 
298.00082008174917 3684.0 102.0 558.9303251493029 0.5047362146179286 78.0 0.0 52.0 
300.00082008174917 3684.0 102.0 558.9515593895155 0.5047286375681034 78.0 0.0 52.0 
302.00082008174917 3684.0 102.0 558.9329794293297 0.5047426493292534 78.0 0.0 52.0 
304.00082008174917 3684.0 102.0 558.9781021897816 0.5047292707392456 78.0 0.0 52.0 
306.0002974181195 3684.0 102.0 558.9037823490385 0.5047336755253681 78.0 0.0 52.0 
308.00082008174917 3684.0 102.0 555.8885202388855 0.5032301915962306 78.0 0.0 51.0 
310.00082008174917 3684.0 102.0 555.8513603185139 0.5039428474331319 78.0 0.0 51.0 
312.00082008174917 3686.0 102.0 555.8779031187786 0.5038116806772778 78.0 0.0 51.0 
314.00082008174917 3686.0 102.0 555.8593231585929 0.5038226240761069 78.0 0.0 51.0 
316.0002974181195 3686.0 102.0 555.8911745189121 0.5038198514102278 78.0 0.0 51.0 
318.00082008174917 3686.0 102.0 555.8142003981426 0.5038200429643105 78.0 0.0 51.0 
320.00082008174917 3686.0 102.0 555.8699402786997 0.5038261137408241 78.0 0.0 51.0 
322.00082008174917 3688.0 102.0 555.8593231585929 0.5037914385475644 78.0 0.0 51.0 
324.00082008174917 3688.0 102.0 555.8566688785673 0.5037855572177781 78.0 0.0 51.0 
326.0002974181195 3688.0 102.0 555.867285998673 0.5037925338724754 78.0 0.0 51.0 
328.00082008174917 3688.0 102.0 555.9044459190444 0.5037878613374984 78.0 0.0 51.0 
330.00082008174917 3688.0 102.0 555.8221632382213 0.5037878696659999 78.0 0.0 51.0 
332.00082008174917 3690.0 102.0 555.8832116788318 0.5036859085294806 78.0 0.0 51.0 
334.00082008174917 3690.0 102.0 555.867285998673 0.5036794837382832 78.0 0.0 51.0 
336.0002974181195 3690.0 102.0 555.8725945587263 0.5036746405429204 78.0 0.0 51.0 
338.00082008174917 3690.0 102.0 555.8779031187786 0.5036859351216583 78.0 0.0 51.0 
340.00082008174917 3690.0 102.0 555.9124087591246 0.5036753905561505 78.0 0.0 51.0 
342.00082008174917 3694.0 102.0 558.9037823490382 0.5050120581518652 78.0 0.0 52.0 
344.00082008174917 3694.0 102.0 558.9701393497012 0.5042119759048179 78.0 0.0 52.0 
346.0002974181195 3694.0 102.0 558.9011280690116 0.5042087163928756 78.0 0.0 52.0 
348.00082008174917 3694.0 102.0 558.922362309224 0.5042052935280068 78.0 0.0 52.0 
350.00082008174917 3694.0 102.0 558.9064366290639 0.5042177919573535 78.0 0.0 52.0 
352.00082008174917 3696.0 102.0 558.9542136695424 0.5073475346714126 78.0 0.0 52.0 
354.00082008174917 3692.0 102.0 555.8354346383546 0.504985389774194 79.0 0.0 51.0 
356.0002974181195 3692.0 102.0 555.867285998673 0.5053380355458709 79.0 0.0 51.0 
358.00082008174917 3692.0 102.0 555.8513603185139 0.5053308019225483 79.0 0.0 51.0 
360.00082008174917 3692.0 102.0 555.8566688785673 0.5053231707169114 79.0 0.0 51.0 
362.00082008174917 3698.0 103.0 555.8354346383546 0.5075911710034638 79.0 0.0 51.0 
364.00082008174917 3695.0 103.0 555.8699402786997 0.5066108534273958 79.0 0.0 51.0 
366.0002974181195 3694.0 103.0 555.8433974784335 0.5052166417823176 79.0 0.0 51.0 
368.00082008174917 3694.0 103.0 555.8354346383546 0.5052324864706316 79.0 0.0 51.0 
370.00082008174917 3694.0 103.0 555.8433974784335 0.505224841520608 79.0 0.0 51.0 
372.00082008174917 3694.0 103.0 555.816854678169 0.5077101488334596 80.0 0.0 51.0 
374.00082008174917 3690.0 103.0 555.8274717982746 0.5053240837868932 80.0 0.0 51.0 
376.0002974181195 3690.0 103.0 555.8540145985405 0.5053142184214041 80.0 0.0 51.0 
378.00082008174917 3690.0 103.0 555.8248175182479 0.5053143604588499 80.0 0.0 51.0 
380.00082008174917 3690.0 103.0 555.8301260783014 0.5053273801563695 80.0 0.0 51.0 
382.00082008174917 3690.0 103.0 555.8433974784335 0.5341565211106689 80.0 0.0 51.0 
384.00082008174917 3684.0 102.0 555.816854678169 0.5049705542950887 82.0 0.0 51.0 
386.0002974181195 3684.0 102.0 555.8274717982746 0.50498303815509 82.0 0.0 51.0 
388.00082008174917 3684.0 102.0 555.8540145985405 0.5049730831044602 82.0 0.0 51.0 
390.00082008174917 3684.0 102.0 555.8248175182479 0.5049732264331556 82.0 0.0 51.0 
392.00082008174917 3684.0 102.0 555.8301260783014 0.5062884535312826 82.0 0.0 51.0 
394.00082008174917 3682.0 102.0 558.9143994691441 0.504892450000257 83.0 0.0 52.0 
396.0002974181195 3681.0 102.0 561.9694757796951 0.5047183409689356 83.0 0.0 53.0 
398.00082008174917 3680.0 102.0 561.9694757796951 0.5044127318248106 83.0 0.0 53.0 
400.00082008174917 3680.0 102.0 561.9907100199077 0.5044007304119961 83.0 0.0 53.0 
402.00082008174917 3684.0 103.0 561.9747843397475 0.5080385215156482 83.0 0.0 53.0 
404.00082008174917 3680.0 103.0 561.9880557398809 0.5050496206596099 82.0 0.0 53.0 
406.0002974181195 3680.0 103.0 561.9800928998009 0.5050451534840299 82.0 0.0 53.0 
408.00082008174917 3686.0 104.0 561.9562043795618 0.5041468142481056 82.0 0.0 53.0 
410.00082008174917 3686.0 104.0 565.0325149303256 0.5044016075797315 82.0 0.0 54.0 
412.00082008174917 3686.0 104.0 565.0325149303256 0.5209163292895178 82.0 0.0 54.0 
414.00082008174917 3666.0 103.0 565.0192435301917 0.5025794949021274 82.0 0.0 54.0 
416.0002974181195 3667.0 103.0 564.9820836098203 0.502496957980458 82.0 0.0 54.0 
418.00082008174917 3670.0 103.0 564.9794293297947 0.5025506691701848 82.0 0.0 54.0 
420.00082008174917 3670.0 103.0 565.000663570006 0.5025437699893833 82.0 0.0 54.0 
422.00082008174917 3670.0 103.0 561.91904445919 0.5027744224437245 82.0 0.0 53.0 
424.00082008174917 3670.0 103.0 561.9429329794293 0.5027789670288377 82.0 0.0 53.0 
426.0002974181195 3670.0 103.0 561.9376244193759 0.502778479171637 82.0 0.0 53.0 
428.00082008174917 3672.0 103.0 561.9110816191113 0.5040719034729282 82.0 0.0 53.0 
430.00082008174917 3672.0 103.0 561.91904445919 0.504070349398887 82.0 0.0 53.0 
432.00082008174917 3672.0 103.0 561.9004644990042 0.5040705427866939 82.0 0.0 53.0 
434.00082008174917 3672.0 103.0 561.91904445919 0.5040731132193345 82.0 0.0 53.0 
436.0002974181195 3672.0 103.0 561.9004644990042 0.5040705427866939 82.0 0.0 53.0 
438.00082008174917 3672.0 103.0 561.91904445919 0.5040731132193345 82.0 0.0 53.0 
440.00082008174917 3672.0 103.0 561.9057730590579 0.5040663573935746 82.0 0.0 53.0 
442.00082008174917 3672.0 103.0 561.91904445919 0.5040731132193345 82.0 0.0 53.0 
444.00082008174917 3673.0 103.0 561.9004644990042 0.5039473926705197 82.0 0.0 53.0 
446.0002974181195 3674.0 103.0 561.91904445919 0.5039615079133679 82.0 0.0 53.0 
448.00082008174917 3674.0 103.0 561.9004644990042 0.5117667452885353 82.0 0.0 53.0 
450.00082008174917 3672.0 103.0 561.91904445919 0.5042690343816383 82.0 0.0 53.0 
452.00082008174917 3672.0 103.0 561.8951559389507 0.5042706482207566 82.0 0.0 53.0 
454.00082008174917 3672.0 103.0 561.9137358991381 0.5042732186533971 82.0 0.0 53.0 
456.0002974181195 3672.0 103.0 561.8951559389507 0.5042706482207566 82.0 0.0 53.0 
458.00082008174917 3672.0 103.0 561.9137358991381 0.5095284739086524 82.0 0.0 53.0 
460.00082008174917 3670.0 103.0 561.9004644990042 0.5044238604681603 82.0 0.0 53.0 
462.00082008174917 3670.0 103.0 561.9137358991381 0.5044306151725597 82.0 0.0 53.0 
464.00082008174917 3670.0 103.0 561.8951559389507 0.5044280447399193 82.0 0.0 53.0 
466.0002974181195 3680.0 103.0 568.0424684804252 0.5425322533092848 82.0 0.0 55.0 
468.00082008174917 3675.0 102.0 568.0053085600534 0.5044802977862923 82.0 0.0 55.0 
470.00082008174917 3674.0 102.0 568.0345056403447 0.504056963729515 82.0 0.0 55.0 
472.00082008174917 3675.0 102.0 564.9873921698736 0.5001305966941929 81.0 0.0 54.0 
474.00082008174917 3676.0 103.0 561.9482415394828 0.5042187399037421 81.0 0.0 53.0 
476.0002974181195 3678.0 103.0 561.9163901791636 0.5068626638822467 81.0 0.0 53.0 
478.00082008174917 3676.0 103.0 561.9402786994024 0.5212168957354344 81.0 0.0 53.0 
480.00082008174917 3670.0 102.0 561.9402786994024 0.5035625277643397 80.0 0.0 53.0 
482.00082008174917 3670.0 102.0 561.9668214996688 0.5034102523140995 80.0 0.0 53.0 
484.00082008174917 3670.0 102.0 561.9429329794293 0.5034065568334063 79.0 0.0 53.0 
486.0002974181195 3670.0 102.0 561.9323158593237 0.5034022851386689 78.0 0.0 53.0 
488.00082008174917 3670.0 102.0 561.929661579297 0.5035672522476287 78.0 0.0 53.0 
490.00082008174917 3670.0 102.0 561.9562043795618 0.5035591644865172 78.0 0.0 53.0 
492.00082008174917 3670.0 102.0 561.9615129396151 0.5034066746994375 78.0 0.0 53.0 
494.00082008174917 3670.0 102.0 561.9588586595884 0.5041010105521458 77.0 0.0 53.0 
496.0002974181195 3669.0 102.0 561.9270072992703 0.5051609451362462 76.0 0.0 53.0 
498.00082008174917 3668.0 102.0 561.9482415394828 0.5036537607832097 76.0 0.0 53.0 
500.00082008174917 3668.0 102.0 561.9588586595884 0.5034991778910081 76.0 0.0 53.0 
502.00082008174917 3668.0 102.0 561.9508958195096 0.5034861286936695 76.0 0.0 53.0 
504.00082008174917 3668.0 102.0 561.9402786994024 0.503658762061865 76.0 0.0 53.0 
506.0002974181195 3670.0 102.0 561.9774386197739 0.5034309423806342 76.0 0.0 53.0 
508.00082008174917 3670.0 102.0 565.0086264100862 0.5023910313847828 76.0 0.0 54.0 
510.00082008174917 3670.0 102.0 565.0086264100862 0.5023824957213228 76.0 0.0 54.0 
512.0008200817492 3670.0 102.0 564.9980092899806 0.5025515541044051 76.0 0.0 54.0 
514.0008200817492 3670.0 102.0 565.024552090245 0.5023937991252606 76.0 0.0 54.0 
516.0002974181195 3670.0 102.0 564.9927007299274 0.5023858530986787 76.0 0.0 54.0 
518.0008200817492 3670.0 102.0 565.003317850033 0.5025455018231605 76.0 0.0 54.0 
520.0008200817492 3670.0 102.0 565.0192435301916 0.5023934237615909 76.0 0.0 54.0 
522.0008200817492 3672.0 102.0 564.9980092899806 0.501995243202414 76.0 0.0 54.0 
524.0008200817492 3672.0 102.0 564.9980092899806 0.5024370561176189 76.0 0.0 54.0 
526.0002974181195 3671.0 102.0 565.0192435301916 0.5023797660947962 76.0 0.0 54.0 
528.0008200817492 3676.0 103.0 564.9927007299274 0.5037639877832076 76.0 0.0 54.0 
530.0008200817492 3676.0 103.0 565.0086264100862 0.5039269255495585 76.0 0.0 54.0 
532.0008200817492 3678.0 103.0 565.0139349701398 0.5040693958235987 76.0 0.0 54.0 
534.0008200817492 3678.0 103.0 564.9980092899806 0.5040587328515745 76.0 0.0 54.0 
536.0002974181195 3678.0 103.0 564.9980092899806 0.5042233779215051 76.0 0.0 54.0 
538.0008200817492 3678.0 103.0 565.0192435301916 0.5040663771053644 76.0 0.0 54.0 
540.0008200817492 3678.0 103.0 564.9980092899806 0.5040564812871124 76.0 0.0 54.0 
542.0008200817492 3678.0 103.0 565.003317850033 0.5042229282022593 76.0 0.0 54.0 
544.0008200817492 3678.0 103.0 565.0139349701398 0.5040693958235987 76.0 0.0 54.0 
546.0002974181195 3678.0 103.0 564.9980092899806 0.5040587328515745 76.0 0.0 54.0 
548.0008200817492 3678.0 103.0 564.9980092899806 0.5042178251294137 76.0 0.0 54.0 
550.0008200817492 3678.0 103.0 565.024552090245 0.504066244820645 76.0 0.0 54.0 
552.0008200817492 3686.0 103.0 564.9927007299274 0.4996768410587997 76.0 0.0 54.0 
554.0008200817492 3700.0 104.0 571.1108161911085 0.504166803092701 80.0 0.0 56.0 
556.0002974181195 3700.0 104.0 571.108161911082 0.5040162555437633 81.0 0.0 56.0 
558.0008200817492 3700.0 104.0 571.1347047113464 0.5040104555980044 81.0 0.0 56.0 
560.0008200817492 3700.0 104.0 571.0816191108156 0.504175636150085 81.0 0.0 56.0 
562.0008200817492 3704.0 104.0 571.1187790311872 0.5119273807551115 81.0 0.0 56.0 
564.0008200817492 3715.0 104.0 571.0842733908426 0.5249180232018503 81.0 0.0 56.0 
566.0002974181195 3714.0 103.0 571.1028533510283 0.5034012286247181 81.0 0.0 56.0 
568.0008200817492 3714.0 103.0 571.0789648307891 0.5032432100827126 81.0 0.0 56.0 
570.0008200817492 3714.0 103.0 571.0975447909751 0.5032293211563722 81.0 0.0 56.0 
572.0008200817492 3714.0 103.0 571.0763105507622 0.5058130981052908 81.0 0.0 56.0 
574.0008200817492 3711.0 103.0 571.1293961512944 0.5177213940069642 81.0 0.0 56.0 
576.0002974181195 3702.0 103.0 568.002654280027 0.5041323422284029 81.0 0.0 55.0 
578.0008200817492 3702.0 103.0 568.0477770404786 0.5037364914008944 81.0 0.0 55.0 
580.0008200817492 3702.0 103.0 568.0212342402126 0.5040915059554665 81.0 0.0 55.0 
582.0008200817492 3702.0 103.0 568.0398142003984 0.5084689420551884 81.0 0.0 55.0 
584.0008200817492 3696.0 103.0 568.0 0.5388774249743027 81.0 0.0 55.0 
586.0002974181195 3678.0 102.0 568.0345056403446 0.5059416301386421 81.0 0.0 55.0 
588.0008200817492 3674.0 102.0 568.0371599203714 0.5043253734512131 81.0 0.0 55.0 
590.0008200817492 3674.0 102.0 568.050431320504 0.5043173055974665 81.0 0.0 55.0 
592.0008200817492 3674.0 102.0 568.0 0.5044858211556418 81.0 0.0 55.0 
594.0008200817492 3674.0 102.0 568.0610484406109 0.50432421201105 81.0 0.0 55.0 
596.0002974181195 3674.0 102.0 568.0106171201057 0.5065161909755646 81.0 0.0 55.0 
598.0008200817492 3668.0 102.0 568.0557398805573 0.5045816038724422 81.0 0.0 55.0 
600.0008200817492 3668.0 102.0 568.0212342402126 0.50443047537898 81.0 0.0 55.0 
602.0008200817492 3668.0 102.0 568.0345056403446 0.5044159804198497 81.0 0.0 55.0 
604.0008200817492 3668.0 102.0 568.0159256801591 0.5045836703888594 81.0 0.0 55.0 
606.0002974181195 3668.0 102.0 568.0769741207698 0.5081640087191693 81.0 0.0 55.0 
608.0008200817492 3656.0 102.0 567.9946914399466 0.5044276492400444 81.0 0.0 55.0 
610.0008200817492 3656.0 102.0 568.0398142003984 0.5045855615276473 81.0 0.0 55.0 
612.0008200817492 3656.0 102.0 568.0371599203714 0.5044338700988754 81.0 0.0 55.0 
614.0008200817492 3656.0 102.0 568.050431320504 0.5044232541570749 81.0 0.0 55.0 
616.0002974181195 3658.0 103.0 568.0 0.505696334421584 81.0 0.0 55.0 
618.0008200817492 3654.0 103.0 568.0610484406109 0.5043153658181433 81.0 0.0 55.0 
620.0008200817492 3654.0 103.0 568.0106171201057 0.5043105457076192 81.0 0.0 55.0 
622.0008200817492 3654.0 103.0 561.9668214996686 0.5047776674154191 80.0 0.0 53.0 
624.0008200817492 3654.0 103.0 561.9323158593236 0.5047263580927601 80.0 0.0 53.0 
626.0002974181195 3654.0 103.0 561.9535500995352 0.5067432832713751 80.0 0.0 53.0 
628.0008200817492 3648.0 103.0 564.9661579296614 0.5049020682175702 80.0 0.0 54.0 
630.0008200817492 3648.0 103.0 565.0564034505645 0.5047367314273458 79.0 0.0 54.0 
632.0008200817492 3648.0 103.0 564.9635036496347 0.5047339837717463 78.0 0.0 54.0 
634.0008200817492 3648.0 103.0 565.0218978102185 0.5049011016619707 78.0 0.0 54.0 
636.0002974181195 3648.0 103.0 564.9794293297946 0.5047549813798431 78.0 0.0 54.0 
638.0008200817492 3648.0 103.0 565.0112806901129 0.504742963693317 78.0 0.0 54.0 
640.0008200817492 3648.0 103.0 564.9581950895823 0.5049073999022636 78.0 0.0 54.0 
642.0008200817492 3648.0 103.0 565.0378234903791 0.5047513844232581 78.0 0.0 54.0 
644.0008200817492 3648.0 103.0 564.952886529529 0.5050282720547067 77.0 0.0 54.0 
646.0002974181195 3647.0 103.0 558.9170537491707 0.5054389806277008 76.0 0.0 52.0 
648.0008200817492 3646.0 103.0 558.8692767086925 0.5051231368322361 75.0 0.0 52.0 
650.0008200817492 3646.0 103.0 558.9329794293296 0.5051200768640265 75.0 0.0 52.0 
652.0008200817492 3646.0 103.0 558.8692767086925 0.5051263751043193 74.0 0.0 52.0 
654.0008200817492 3646.0 103.0 558.9276708692763 0.5055597180536471 74.0 0.0 52.0 
656.0002974181195 3644.0 103.0 558.8692767086925 0.5052608619919032 74.0 0.0 52.0 
658.0008200817492 3644.0 103.0 558.9276708692763 0.5412900604778574 74.0 0.0 52.0 
660.0008200817492 3642.0 102.0 558.8745852687457 0.5053601445319007 74.0 0.0 52.0 
662.0008200817492 3642.0 102.0 558.9276708692763 0.5168271223329157 74.0 0.0 52.0 
664.0008200817492 3640.0 102.0 558.8692767086925 0.5040688820773163 74.0 0.0 52.0 
#####################################################################
# End of data export. Simulation finished at: 2019-03-08T13:30+0000 #
#####################################################################
