#####################################################################
# Alchemist log file - simulation started at: 2019-03-11T11:53+0000 #
#####################################################################
# seed = 4.0, bandwidth = 1333521.4321633242, accessPointCount = 2000.0, baserange = 31.622776601683796
#
# The columns have the following meaning: 
# time neighbor_count[Sum] <value>@neighbor_count[Sum] packet_size[Mean] mean_delay[Mean] crowd[Sum] overcrowded[Sum] risk[Sum] 
0.0 NaN NaN NaN NaN NaN NaN NaN 
2.0000042429967895 676.0 458.0 4977.58993422934 0.4958462442189943 1497.0 0.0 1497.0 
4.0000042429967895 738.0 459.0 4980.384329425222 0.5011898574220862 1497.0 0.0 1497.0 
6.0000042429967895 789.0 459.0 4977.716900200172 0.5022104860422557 1497.0 0.0 1497.0 
8.00000424299679 822.0 464.0 4979.084929939949 0.5114704753420647 1497.0 0.0 1497.0 
10.00000424299679 840.0 462.0 4978.637689448098 0.5085390447086449 1497.0 0.0 1497.0 
12.00000424299679 848.0 460.0 4978.340291678582 0.5033401677559817 1497.0 0.0 1497.0 
14.00000424299679 840.0 459.0 4978.468401486989 0.49787045371582445 1497.0 0.0 1497.0 
16.000004242996788 840.0 459.0 4978.588504432371 0.5035190980291838 1497.0 0.0 1497.0 
18.000004242996788 838.0 458.0 4978.105804975694 0.49788038531394596 1497.0 0.0 1497.0 
20.000004242996788 838.0 458.0 4978.92936802974 0.4978747338427914 1497.0 0.0 1497.0 
22.000004242996788 839.0 458.0 4977.6208178438665 0.4974370934450572 1497.0 0.0 1497.0 
24.000004242996788 840.0 459.0 4978.857306262511 0.4978706143334664 1497.0 0.0 1497.0 
26.000004242996788 840.0 459.0 4977.661995996568 0.4978750592807872 1497.0 0.0 1497.0 
28.000004242996788 840.0 459.0 4978.513011152417 0.4978710895018374 1497.0 0.0 1497.0 
30.000004242996788 840.0 459.0 4978.103517300543 0.4997643149291932 1497.0 0.0 1497.0 
32.00000424299679 837.0 458.0 4978.480983700314 0.5054850355636996 1497.0 0.0 1497.0 
34.00000424299679 833.0 458.0 4977.640263082642 0.5021411476466708 1497.0 0.0 1497.0 
36.00000424299679 833.0 458.0 4978.351730054333 0.4970119420359046 1497.0 0.0 1497.0 
38.00000424299679 834.0 458.0 4977.994852730912 0.49791314769901934 1497.0 0.0 1497.0 
40.00000424299679 834.0 458.0 4978.404346582785 0.49979836112932585 1497.0 0.0 1497.0 
42.00000424299679 833.0 457.0 4977.70317414927 0.502555393527453 1497.0 0.0 1497.0 
44.00000424299679 832.0 457.0 4978.469545324564 0.49791649704961166 1497.0 0.0 1497.0 
46.00000424299679 832.0 457.0 4977.51329711181 0.4998157339916587 1497.0 0.0 1497.0 
48.00000424299679 831.0 456.0 4978.737203317129 0.5026197339351424 1497.0 0.0 1497.0 
50.00000424299679 830.0 456.0 4977.459536745782 0.5036342058824866 1497.0 0.0 1497.0 
52.00000424299679 828.0 455.0 4978.463826136689 0.4980055255245709 1497.0 0.0 1497.0 
54.00000424299679 828.0 455.0 4977.853016871604 0.4980057283531 1497.0 0.0 1497.0 
56.00000424299679 828.0 455.0 4977.824420932227 0.4980072995600145 1497.0 0.0 1497.0 
58.00000424299679 830.0 456.0 4978.150414641121 0.4979991573749223 1497.0 0.0 1497.0 
60.00000424299679 832.0 457.0 4977.150700600514 0.49848376189488725 1497.0 0.0 1497.0 
62.00000424299679 833.0 457.0 465.74549613955156 0.4978770903649996 186.0 0.0 50.0 
64.0000042429968 834.0 458.0 465.7432084643998 0.4985002205319036 164.0 0.0 50.0 
66.0000042429968 834.0 458.0 465.7557906777251 0.49849999414874324 126.0 0.0 50.0 
68.0000042429968 836.0 459.0 464.43808979125043 0.4985010944351125 101.0 0.0 49.0 
70.0000042429968 850.0 460.0 463.1341149556731 0.5074976578253254 82.0 0.0 48.0 
72.0000042429968 844.0 459.0 463.1261080926522 0.49922171636622165 71.0 0.0 48.0 
74.0000042429968 843.0 459.0 463.1364026308245 0.501357217453833 69.0 0.0 48.0 
76.0000042429968 842.0 458.0 463.1238204174993 0.49733681116460965 67.0 0.0 48.0 
78.0000042429968 842.0 458.0 463.1341149556731 0.502986415700322 65.0 0.0 48.0 
80.0000042429968 844.0 458.0 463.1261080926522 0.4971717833683631 60.0 0.0 48.0 
82.0000042429968 844.0 458.0 463.1341149556731 0.5028320588544327 59.0 0.0 48.0 
84.0000042429968 842.0 457.0 463.1169573920516 0.4971623088882254 59.0 0.0 48.0 
86.0000042429968 842.0 457.0 463.11352587932737 0.4971625020427944 59.0 0.0 48.0 
88.0000042429968 842.0 457.0 463.1009436660011 0.4971626497492296 58.0 0.0 48.0 
90.0000042429968 842.0 457.0 463.11123820417447 0.4971625361288948 58.0 0.0 48.0 
92.0000042429968 846.0 458.0 459.1615670574757 0.4975488528232193 57.0 0.0 45.0 
94.0000042429968 846.0 458.0 459.1592793823301 0.503209218862552 56.0 0.0 45.0 
96.0000042429968 844.0 457.0 459.1592793823301 0.49754067029206944 54.0 0.0 45.0 
98.0000042429968 846.0 458.0 459.1615670574757 0.4975488528232193 54.0 0.0 45.0 
100.0000042429968 846.0 458.0 459.1592793823301 0.4975488415040614 54.0 0.0 45.0 
102.0000042429968 846.0 458.0 459.1592793823301 0.5079267433142055 54.0 0.0 45.0 
104.0000042429968 842.0 456.0 459.1615670574757 0.49828442629963415 54.0 0.0 45.0 
106.0000042429968 842.0 456.0 459.1592793823301 0.4982844149160408 54.0 0.0 45.0 
108.0000042429968 846.0 458.0 459.1592793823301 0.5091682693598895 54.0 0.0 45.0 
110.0000042429968 844.0 457.0 459.1615670574757 0.49828977834506566 54.0 0.0 45.0 
112.0000042429968 844.0 457.0 459.1592793823301 0.4982897670045105 54.0 0.0 45.0 
114.0000042429968 846.0 457.0 459.1592793823301 0.49768856764255975 54.0 0.0 45.0 
116.0000042429968 848.0 458.0 459.1615670574757 0.4982907413468015 53.0 0.0 45.0 
118.0000042429968 848.0 458.0 459.1592793823301 0.4982907300276437 53.0 0.0 45.0 
120.0000042429968 848.0 458.0 459.1592793823301 0.49828985845248713 53.0 0.0 45.0 
122.0000042429968 854.0 459.0 463.1146697168987 0.49823204811990146 56.0 0.0 48.0 
124.0000042429968 854.0 459.0 463.12153274234834 0.5001200154378164 56.0 0.0 48.0 
126.0000042429968 851.0 459.0 463.1032313411465 0.5023223771734022 56.0 0.0 48.0 
128.0000042429968 850.0 459.0 463.1032313411465 0.5057927089457503 55.0 0.0 48.0 
130.0000042429968 847.0 458.0 463.0975121532769 0.5054552165124735 55.0 0.0 48.0 
132.0000042429968 849.0 459.0 460.4678295682041 0.5035709041013411 54.0 0.0 46.0 
134.0000042429968 848.0 459.0 460.4701172433497 0.49832621570318736 54.0 0.0 46.0 
136.0000042429968 848.0 459.0 460.4678295682041 0.4983262044477396 54.0 0.0 46.0 
138.0000042429968 848.0 459.0 460.4678295682041 0.5039577146125717 52.0 0.0 46.0 
140.0000042429968 854.0 460.0 463.11238204174737 0.5060852625797052 53.0 0.0 48.0 
142.0000042429968 839.0 459.0 463.11352587932737 0.5124931544460729 53.0 0.0 48.0 
144.0000042429968 837.0 457.0 464.42550757792526 0.5026285939171463 54.0 0.0 49.0 
146.0000042429968 837.0 456.0 464.42550757792526 0.4976689234310836 56.0 0.0 49.0 
148.0000042429968 840.0 458.0 464.4175007148971 0.5024462005202684 55.0 0.0 49.0 
150.0000042429968 840.0 458.0 464.4140692021717 0.5095324186110394 55.0 0.0 49.0 
152.0000042429968 834.0 456.0 464.4277952530766 0.5008771516702325 55.0 0.0 49.0 
154.0000042429968 834.0 456.0 467.062053188446 0.4981799056984471 54.0 0.0 51.0 
156.0000042429968 834.0 456.0 467.0506148126939 0.5000752893962085 53.0 0.0 51.0 
158.0000042429968 837.0 458.0 467.05519016299826 0.49961122866937224 54.0 0.0 51.0 
160.0000042429968 836.0 457.0 467.04718329997024 0.5027622273805399 53.0 0.0 51.0 
162.0000042429968 834.0 456.0 467.04032027452075 0.49899317702771945 53.0 0.0 51.0 
164.0000042429968 834.0 456.0 467.04260794967314 0.49899322238994004 53.0 0.0 51.0 
166.0000042429968 837.0 457.0 467.0380325993688 0.4991934109523138 53.0 0.0 51.0 
168.0000042429968 838.0 458.0 467.04032027452075 0.4989985155992302 53.0 0.0 51.0 
170.0000042429968 838.0 458.0 467.044895624824 0.4989984930883346 53.0 0.0 51.0 
172.0000042429968 838.0 458.0 467.0380325993688 0.4989985606210215 53.0 0.0 51.0 
174.0000042429968 838.0 458.0 467.04032027452075 0.49899849308833466 53.0 0.0 51.0 
176.0000042429968 842.0 459.0 468.35916499856745 0.49825236799326744 54.0 0.0 52.0 
178.0000042429968 844.0 459.0 470.99914212182034 0.5045567648974059 56.0 0.0 54.0 
180.0000042429968 842.0 458.0 470.99456677151585 0.49893585784898514 56.0 0.0 54.0 
182.0000042429968 842.0 458.0 470.98770374606784 0.4989360382746597 56.0 0.0 54.0 
184.0000042429968 842.0 458.0 469.67343437231716 0.4989360495512643 55.0 0.0 53.0 
186.0000042429968 842.0 458.0 467.0517586502733 0.4989360382746597 53.0 0.0 51.0 
188.0000042429968 842.0 458.0 467.05404632542553 0.498936026998055 53.0 0.0 51.0 
190.0000042429968 842.0 458.0 467.0517586502733 0.5014422926622154 53.0 0.0 51.0 
192.0000042429968 842.0 459.0 467.04718329997047 0.4986829893771159 53.0 0.0 51.0 
194.0000042429968 846.0 459.0 467.0517586502733 0.4989358058718411 53.0 0.0 51.0 
196.0000042429968 850.0 461.0 467.04947097512115 0.5026659044657544 53.0 0.0 51.0 
198.0000042429968 848.0 460.0 467.0517586502733 0.49893859555028375 53.0 0.0 51.0 
200.0000042429968 848.0 460.0 467.05404632542553 0.5014308522417754 53.0 0.0 51.0 
202.0000042429968 846.0 460.0 467.04718329997047 0.5004862993575436 53.0 0.0 51.0 
204.0000042429968 845.0 460.0 467.04947097512115 0.5030571267143608 53.0 0.0 51.0 
206.0000042429968 844.0 459.0 467.0517586502733 0.5079939400969105 53.0 0.0 51.0 
208.0000042429968 841.0 458.0 467.0517586502733 0.5043955989628983 53.0 0.0 51.0 
210.0000042429968 837.0 456.0 467.0574778381486 0.5029714468956931 53.0 0.0 51.0 
212.0000042429968 836.0 456.0 467.04603946239655 0.4983327790506447 53.0 0.0 51.0 
214.0000042429968 836.0 456.0 467.04603946239655 0.49833274496454427 53.0 0.0 51.0 
216.0000042429968 836.0 456.0 467.04603946239655 0.4983327336025108 53.0 0.0 51.0 
218.0000042429968 836.0 456.0 467.0483271375488 0.4983327336025108 53.0 0.0 51.0 
220.0000042429968 838.0 457.0 467.0483271375488 0.49833787061971874 53.0 0.0 51.0 
222.0000042429968 839.0 458.0 467.04375178724445 0.4974187777137091 53.0 0.0 51.0 
224.0000042429968 840.0 458.0 467.0483271375488 0.498343036672365 53.0 0.0 51.0 
226.0000042429968 840.0 458.0 467.04603946239655 0.5008567298601225 53.0 0.0 51.0 
228.0000042429968 836.0 457.0 467.04947097512115 0.5072701183744232 53.0 0.0 51.0 
230.0000042429968 833.0 456.0 467.04489562482377 0.4974313205451739 53.0 0.0 51.0 
232.0000042429968 834.0 457.0 467.03803259936876 0.49837581510451867 53.0 0.0 51.0 
234.0000042429968 834.0 457.0 467.040320274521 0.49837576991315385 53.0 0.0 51.0 
236.0000042429968 834.0 457.0 467.040320274521 0.49837582640235983 53.0 0.0 51.0 
238.0000042429968 834.0 457.0 467.03803259936876 0.49837581510451867 53.0 0.0 51.0 
240.0000042429968 836.0 458.0 467.04260794967314 0.5058853957055462 53.0 0.0 51.0 
242.0000042429968 834.0 457.0 467.040320274521 0.49837582640235983 53.0 0.0 51.0 
244.0000042429968 834.0 457.0 467.040320274521 0.4983757925088363 53.0 0.0 51.0 
246.0000042429968 837.0 458.0 467.03803259936876 0.49784820314497324 53.0 0.0 51.0 
248.0000042429968 838.0 459.0 467.040320274521 0.5058623625961087 53.0 0.0 51.0 
250.0000042429968 841.0 460.0 468.3614526737201 0.4976017125793932 54.0 0.0 52.0 
252.0000042429968 848.0 461.0 470.99799828424256 0.49996834835468407 56.0 0.0 54.0 
254.0000042429968 849.0 461.0 470.99685444666744 0.5045639208053849 56.0 0.0 54.0 
256.0000042429968 850.0 462.0 473.6231055190177 0.5074850762861466 58.0 0.0 56.0 
258.0000042429968 849.0 462.0 474.9327995424626 0.5029094063192427 59.0 0.0 57.0 
260.0000042429968 848.0 461.0 472.313411495571 0.5042615453914506 58.0 0.0 55.0 
262.0000042429968 842.0 460.0 472.2951100943692 0.5080271229249161 58.0 0.0 55.0 
264.0000042429968 844.0 460.0 476.2321990277376 0.5070171401526854 60.0 0.0 58.0 
266.0000042429968 841.0 458.0 476.25278810409037 0.49991392254512945 61.0 0.0 58.0 
268.0000042429968 841.0 459.0 476.23677437803815 0.5026348252710445 61.0 0.0 58.0 
270.0000042429968 840.0 458.0 474.9247926794423 0.49809970160766553 61.0 0.0 57.0 
272.0000042429968 842.0 459.0 474.9247926794423 0.49810574033057153 60.0 0.0 57.0 
274.0000042429968 842.0 459.0 474.9270803545871 0.49810563922123996 60.0 0.0 57.0 
276.0000042429968 844.0 459.0 476.24134972833644 0.497972140264102 60.0 0.0 58.0 
278.0000042429968 848.0 460.0 477.56362596511354 0.4987444524555507 60.0 0.0 59.0 
280.0000042429968 848.0 460.0 477.5590506148135 0.49874447017693135 60.0 0.0 59.0 
282.0000042429968 852.0 461.0 477.55218758936127 0.5043311921454853 60.0 0.0 59.0 
284.0000042429968 851.0 461.0 477.55218758936127 0.4980709516807492 60.0 0.0 59.0 
286.0000042429968 854.0 461.0 477.55218758936127 0.49858778579926977 60.0 0.0 59.0 
288.0000042429968 860.0 462.0 474.9316557048914 0.4987726735880499 59.0 0.0 57.0 
290.0000042429968 860.0 462.0 473.6150986559906 0.4987855122221199 59.0 0.0 56.0 
292.0000042429968 865.0 465.0 473.6105233056926 0.498492086276182 59.0 0.0 56.0 
294.0000042429968 866.0 465.0 473.6150986559906 0.5028861821664699 59.0 0.0 56.0 
296.0000042429968 864.0 464.0 473.6150986559906 0.5074362606499574 59.0 0.0 56.0 
298.0000042429968 864.0 463.0 473.6105233056926 0.5106101360748845 59.0 0.0 56.0 
300.0000042429968 861.0 461.0 473.6105233056926 0.49862756722294155 59.0 0.0 56.0 
302.0000042429968 864.0 463.0 473.6128109808425 0.5007279915734936 59.0 0.0 56.0 
304.0000042429968 863.0 462.0 473.60823563054134 0.5088828142416337 59.0 0.0 56.0 
306.0000042429968 856.0 461.0 473.6162424935683 0.49921659489994047 59.0 0.0 56.0 
308.0000042429968 856.0 461.0 473.6162424935683 0.503340623372666 59.0 0.0 56.0 
310.0000042429968 854.0 460.0 473.6162424935683 0.5017843357033052 58.0 0.0 56.0 
312.0000042429968 853.0 460.0 473.61395481841504 0.5153242063483243 58.0 0.0 56.0 
314.0000042429968 848.0 457.0 473.6162424935683 0.5001273446711114 58.0 0.0 56.0 
316.0000042429968 849.0 458.0 473.6162424935683 0.5020997984827928 58.0 0.0 56.0 
318.0000042429968 845.0 458.0 472.3019731198187 0.5064292993223395 57.0 0.0 55.0 
320.0000042429968 838.0 458.0 469.6814412353457 0.5074629092729971 55.0 0.0 53.0 
322.0000042429968 836.0 457.0 469.67457820989614 0.5056124050118453 55.0 0.0 53.0 
324.0000042429968 834.0 456.0 469.67457820989614 0.49997431581766383 55.0 0.0 53.0 
326.0000042429968 835.0 456.0 469.6768658850436 0.5015470666436971 55.0 0.0 53.0 
328.0000042429968 836.0 456.0 469.67457820989614 0.5017063212558819 55.0 0.0 53.0 
330.0000042429968 840.0 458.0 469.6791535601938 0.5041491774373312 55.0 0.0 53.0 
332.0000042429968 838.0 457.0 469.6768658850436 0.5003924949123857 55.0 0.0 53.0 
334.0000042429968 842.0 458.0 469.68029739776654 0.5004437329655841 55.0 0.0 53.0 
336.0000042429968 845.0 459.0 469.6642836717174 0.49970668019250414 55.0 0.0 53.0 
338.0000042429968 846.0 460.0 469.6814412353457 0.5004381670549781 55.0 0.0 53.0 
340.0000042429968 848.0 461.0 469.67457820989614 0.5060229355473777 55.0 0.0 53.0 
342.0000042429968 843.0 459.0 469.6677151844415 0.5032044680051637 55.0 0.0 53.0 
344.0000042429968 842.0 458.0 469.6677151844415 0.5050116812071774 55.0 0.0 53.0 
346.0000042429968 844.0 460.0 469.6642836717174 0.502781710131637 55.0 0.0 53.0 
348.0000042429968 842.0 459.0 469.66199599656466 0.4990549014147717 55.0 0.0 53.0 
350.0000042429968 844.0 460.0 469.66885902201943 0.4990571198426438 55.0 0.0 53.0 
352.0000042429968 846.0 461.0 469.66199599656466 0.49951651878827624 56.0 0.0 53.0 
354.0000042429968 846.0 461.0 469.66199599656466 0.5069519982666709 56.0 0.0 53.0 
356.0000042429968 843.0 461.0 469.6642836717174 0.5130948083585928 56.0 0.0 53.0 
358.0000042429968 840.0 461.0 469.66199599656466 0.5081394490762451 56.0 0.0 53.0 
360.0000042429968 842.0 460.0 469.66885902201943 0.5143212866036891 56.0 0.0 53.0 
362.0000042429968 840.0 459.0 469.6665713468692 0.4988905931049592 56.0 0.0 53.0 
364.0000042429968 841.0 460.0 467.0403202745208 0.4991901515164707 55.0 0.0 51.0 
366.0000042429968 844.0 461.0 465.72833857592246 0.5026066307235084 54.0 0.0 50.0 
368.0000042429968 844.0 461.0 465.7306262510738 0.5007548122002881 53.0 0.0 50.0 
370.0000042429968 844.0 461.0 465.72833857592246 0.5203546498386163 53.0 0.0 50.0 
372.0000042429968 837.0 458.0 467.05404632542553 0.5099148676947199 53.0 0.0 51.0 
374.0000042429968 834.0 457.0 467.0391764369475 0.5010779069050947 51.0 0.0 51.0 
376.0000042429968 835.0 457.0 467.03460108664393 0.5082592213595236 51.0 0.0 51.0 
378.0000042429968 834.0 457.0 464.41063768944747 0.5048424731035792 50.0 0.0 49.0 
380.0000042429968 834.0 457.0 464.41292536460037 0.5048425652254146 50.0 0.0 49.0 
382.0000042429968 832.0 456.0 464.41292536460037 0.49922265931638715 50.0 0.0 49.0 
384.0000042429968 836.0 457.0 464.41063768944747 0.4992155185795697 51.0 0.0 49.0 
386.0000042429968 837.0 458.0 464.41292536460037 0.49871134020591545 51.0 0.0 49.0 
388.0000042429968 840.0 459.0 464.41063768944747 0.5048057422169143 51.0 0.0 49.0 
390.0000042429968 840.0 459.0 464.41063768944747 0.49921912769492677 51.0 0.0 49.0 
392.0000042429968 846.0 460.0 464.41521303975173 0.4990705752179947 51.0 0.0 49.0 
394.0000042429968 846.0 460.0 464.41063768944747 0.49907070902811396 51.0 0.0 49.0 
396.0000042429968 854.0 463.0 464.41063768944747 0.49913050162419303 51.0 0.0 49.0 
398.0000042429968 856.0 464.0 464.41292536460037 0.5100937518634113 51.0 0.0 49.0 
400.0000042429968 857.0 463.0 467.04832713754877 0.5081261671429776 53.0 0.0 51.0 
402.0000042429968 854.0 462.0 468.3717472118928 0.5034501565414972 54.0 0.0 52.0 
404.0000042429968 850.0 461.0 468.36145267371995 0.4988113684971322 54.0 0.0 52.0 
406.0000042429968 850.0 461.0 468.3523019731184 0.5056378421469195 54.0 0.0 52.0 
408.0000042429968 847.0 460.0 468.36488418644325 0.5032519783685551 54.0 0.0 52.0 
410.0000042429968 850.0 462.0 468.3603088361457 0.5029127730519877 54.0 0.0 52.0 
412.0000042429968 847.0 460.0 468.3488704603951 0.5034782900861937 54.0 0.0 52.0 
414.0000042429968 849.0 461.0 468.34658278524273 0.49838806913703865 54.0 0.0 52.0 
416.0000042429968 851.0 462.0 468.3488704603951 0.5005469755132472 54.0 0.0 52.0 
418.0000042429968 851.0 463.0 468.34658278524273 0.5078500349649012 54.0 0.0 52.0 
420.0000042429968 850.0 462.0 469.65856448384204 0.5067742731331051 55.0 0.0 53.0 
422.0000042429968 847.0 460.0 469.66771518444136 0.503841212993623 57.0 0.0 53.0 
424.0000042429968 848.0 461.0 469.660852158992 0.5058955046744699 57.0 0.0 53.0 
426.0000042429968 849.0 462.0 469.65856448384204 0.5153695873472391 57.0 0.0 53.0 
428.0000042429968 849.0 461.0 469.660852158992 0.5039314805303133 57.0 0.0 53.0 
430.0000042429968 849.0 460.0 465.7226193880457 0.5008680259972274 55.0 0.0 50.0 
432.0000042429968 849.0 461.0 465.72719473834974 0.5045098328791173 55.0 0.0 50.0 
434.0000042429968 848.0 460.0 465.72719473834974 0.5007820158548413 54.0 0.0 50.0 
436.0000042429968 853.0 461.0 465.7226193880457 0.503733975792315 53.0 0.0 50.0 
438.0000042429968 853.0 462.0 465.7226193880457 0.5021464936824257 53.0 0.0 50.0 
440.0000042429968 852.0 462.0 465.7249070631981 0.502112329690831 53.0 0.0 50.0 
442.0000042429968 853.0 464.0 465.72719473834974 0.5038393463404769 53.0 0.0 50.0 
444.0000042429968 854.0 463.0 465.7226193880457 0.506658057865593 53.0 0.0 50.0 
446.0000042429968 852.0 463.0 465.7249070631981 0.5172854550270718 53.0 0.0 50.0 
448.0000042429968 843.0 458.0 465.7226193880457 0.5091611164857839 53.0 0.0 50.0 
450.0000042429968 838.0 457.0 465.7226193880457 0.5050530999057053 53.0 0.0 50.0 
452.0000042429968 841.0 458.0 465.72719473834974 0.518605945445342 53.0 0.0 50.0 
454.0000042429968 833.0 457.0 465.72147555047434 0.5008833953430426 53.0 0.0 50.0 
456.0000042429968 836.0 460.0 465.7191878753216 0.502139735438453 53.0 0.0 50.0 
458.0000042429968 838.0 461.0 465.72147555047434 0.5016585938368028 53.0 0.0 50.0 
460.0000042429968 841.0 462.0 464.40720617672366 0.5045800022101645 52.0 0.0 49.0 
462.0000042429968 844.0 463.0 463.09522447812554 0.5131373028338071 51.0 0.0 48.0 
464.0000042429968 837.0 461.0 463.0975121532769 0.5085194094305968 50.0 0.0 48.0 
466.0000042429968 832.0 459.0 463.09522447812554 0.5017212824246406 50.0 0.0 48.0 
468.0000042429968 833.0 460.0 461.78324277952765 0.5027758692074105 49.0 0.0 47.0 
470.0000042429968 832.0 459.0 461.78553045467896 0.4988094211980128 49.0 0.0 47.0 
472.0000042429968 833.0 460.0 461.78324277952765 0.5039844399694515 49.0 0.0 47.0 
474.0000042429968 833.0 460.0 461.78324277952765 0.500838366945866 49.0 0.0 47.0 
476.0000042429968 837.0 461.0 461.78553045467896 0.5036568269709016 49.0 0.0 47.0 
478.0000042429968 837.0 461.0 461.78324277952765 0.5045718460783231 49.0 0.0 47.0 
480.0000042429968 838.0 461.0 461.78324277952765 0.5044088728020684 49.0 0.0 47.0 
482.0000042429968 836.0 461.0 461.78553045467896 0.5059964372987797 49.0 0.0 47.0 
484.0000042429968 836.0 459.0 461.78324277952765 0.5074497338647501 49.0 0.0 47.0 
486.0000042429968 834.0 459.0 461.78324277952765 0.5061507029026482 49.0 0.0 47.0 
488.0000042429968 831.0 458.0 461.78553045467896 0.5032394357938544 49.0 0.0 47.0 
490.0000042429968 830.0 457.0 461.78324277952765 0.49868042967079285 49.0 0.0 47.0 
492.0000042429968 832.0 458.0 461.78324277952765 0.4986842259760055 49.0 0.0 47.0 
494.0000042429968 832.0 458.0 461.78553045467896 0.5043022372072059 49.0 0.0 47.0 
496.0000042429968 833.0 459.0 461.78324277952765 0.5028099935100221 49.0 0.0 47.0 
498.0000042429968 832.0 458.0 461.78324277952765 0.49868422597600554 49.0 0.0 47.0 
500.0000042429968 834.0 458.0 460.47583643122505 0.4977351895290821 49.0 0.0 46.0 
502.0000042429968 842.0 461.0 461.7901058049757 0.506756199231004 50.0 0.0 47.0 
504.0000042429968 838.0 459.0 461.78324277952765 0.4990527424635145 49.0 0.0 47.0 
506.0000042429968 841.0 460.0 461.78553045467896 0.5078386495568448 49.0 0.0 47.0 
508.0000042429968 840.0 461.0 461.78324277952765 0.49875417083116047 49.0 0.0 47.0 
510.0000042429968 842.0 461.0 461.78553045467896 0.5027689226833204 49.0 0.0 47.0 
512.0000042429967 844.0 462.0 460.47354875607374 0.5091644998317639 48.0 0.0 46.0 
514.0000042429967 838.0 461.0 460.4712610809284 0.5047855736241708 48.0 0.0 46.0 
516.0000042429967 840.0 462.0 460.4712610809284 0.49924195841068425 48.0 0.0 46.0 
518.0000042429967 840.0 462.0 460.47354875607374 0.5010836121813307 48.0 0.0 46.0 
520.0000042429967 839.0 461.0 460.4712610809284 0.5143193564398757 48.0 0.0 46.0 
522.0000042429967 836.0 461.0 460.4712610809284 0.5054973460879664 48.0 0.0 46.0 
524.0000042429967 832.0 459.0 460.47354875607374 0.4998431789649466 48.0 0.0 46.0 
526.0000042429967 832.0 459.0 460.4712610809284 0.5091541547579566 47.0 0.0 46.0 
528.0000042429967 831.0 458.0 460.4712610809284 0.50498647870876 47.0 0.0 46.0 
530.0000042429967 832.0 459.0 460.47354875607374 0.505430586671126 47.0 0.0 46.0 
532.0000042429967 832.0 459.0 460.4712610809284 0.5098493589521481 47.0 0.0 46.0 
534.0000042429967 829.0 458.0 460.4712610809284 0.4983089032260253 47.0 0.0 46.0 
536.0000042429967 830.0 458.0 460.47354875607374 0.4991485482852241 47.0 0.0 46.0 
538.0000042429967 830.0 458.0 460.4712610809284 0.5010107345065393 47.0 0.0 46.0 
540.0000042429967 830.0 459.0 460.4712610809284 0.508043130388496 47.0 0.0 46.0 
542.0000042429967 832.0 459.0 460.47354875607374 0.50321879538801 47.0 0.0 46.0 
544.0000042429967 830.0 458.0 460.4712610809284 0.501366242229409 47.0 0.0 46.0 
546.0000042429967 829.0 457.0 460.4712610809284 0.5059478019711741 47.0 0.0 46.0 
548.0000042429967 827.0 457.0 460.47354875607374 0.5112729898064119 47.0 0.0 46.0 
550.0000042429967 826.0 456.0 460.4712610809284 0.5013787474950957 47.0 0.0 46.0 
552.0000042429967 825.0 455.0 460.4712610809284 0.5116773813867286 47.0 0.0 46.0 
554.0000042429967 823.0 455.0 460.47354875607374 0.5016846510756836 47.0 0.0 46.0 
556.0000042429967 822.0 455.0 460.4712610809284 0.5037106319592872 47.0 0.0 46.0 
558.0000042429967 822.0 455.0 460.4712610809284 0.4997826889067393 47.0 0.0 46.0 
560.0000042429967 826.0 455.0 460.47354875607374 0.50883565989096 47.0 0.0 46.0 
562.0000042429967 825.0 456.0 460.4712610809284 0.5057180483197066 47.0 0.0 46.0 
564.0000042429967 825.0 456.0 459.1592793823301 0.5079036008655107 46.0 0.0 45.0 
566.0000042429967 822.0 455.0 459.1615670574757 0.504809476985611 46.0 0.0 45.0 
568.0000042429967 823.0 456.0 459.1592793823301 0.499243971999467 46.0 0.0 45.0 
570.0000042429967 827.0 458.0 459.1592793823301 0.501453031730395 46.0 0.0 45.0 
572.0000042429967 827.0 458.0 459.1615670574757 0.5090245736235495 46.0 0.0 45.0 
574.0000042429967 826.0 456.0 459.1592793823301 0.49886261766551526 46.0 0.0 45.0 
576.0000042429967 832.0 460.0 459.1592793823301 0.4982264918403736 46.0 0.0 45.0 
578.0000042429967 834.0 460.0 459.1615670574757 0.504543750418962 46.0 0.0 45.0 
580.0000042429967 833.0 459.0 459.1592793823301 0.49866211997162746 46.0 0.0 45.0 
582.0000042429967 837.0 461.0 459.1592793823301 0.49914210557842714 46.0 0.0 45.0 
584.0000042429967 838.0 462.0 459.1615670574757 0.5026670931781152 46.0 0.0 45.0 
586.0000042429967 836.0 462.0 459.1592793823301 0.5081876677409713 46.0 0.0 45.0 
588.0000042429967 840.0 461.0 463.1089505290231 0.501244403103605 49.0 0.0 48.0 
590.0000042429967 840.0 460.0 463.1158135544788 0.5048003158293247 49.0 0.0 48.0 
592.0000042429967 839.0 461.0 463.1066628538778 0.5052579063093741 49.0 0.0 48.0 
594.0000042429967 837.0 460.0 463.10208750357356 0.502944038679437 49.0 0.0 48.0 
596.0000042429967 836.0 459.0 463.10437517872657 0.5031118703576067 49.0 0.0 48.0 
598.0000042429967 834.0 458.0 463.10208750357356 0.5049937613067196 49.0 0.0 48.0 
600.0000042429967 835.0 459.0 463.10208750357356 0.5061821914675595 49.0 0.0 48.0 
602.0000042429967 840.0 459.0 463.10437517872657 0.5108472656490429 49.0 0.0 48.0 
604.0000042429967 837.0 458.0 463.10208750357356 0.5034892509386828 49.0 0.0 48.0 
606.0000042429967 848.0 460.0 464.4175007148971 0.4997896397610088 50.0 0.0 49.0 
608.0000042429967 848.0 460.0 464.41978839004844 0.5053515394909737 50.0 0.0 49.0 
610.0000042429967 848.0 460.0 464.4175007148971 0.5109485879936994 50.0 0.0 49.0 
612.0000042429967 844.0 458.0 464.4175007148971 0.5132850340928014 50.0 0.0 49.0 
614.0000042429967 839.0 456.0 464.41978839004844 0.5078385879739451 50.0 0.0 49.0 
616.0000042429967 836.0 455.0 464.4175007148971 0.5056628821317745 50.0 0.0 49.0 
618.0000042429967 834.0 454.0 464.4175007148971 0.5018835810990372 50.0 0.0 49.0 
620.0000042429967 839.0 456.0 464.41978839004844 0.5068172319694105 50.0 0.0 49.0 
622.0000042429967 841.0 455.0 465.73634543895037 0.49924256983174403 51.0 0.0 50.0 
624.0000042429967 846.0 456.0 468.37517872462433 0.49958360364776006 54.0 0.0 52.0 
626.0000042429967 848.0 457.0 468.37746639976933 0.5022253053379775 54.0 0.0 52.0 
628.0000042429967 849.0 458.0 468.367171861595 0.5059318443725935 54.0 0.0 52.0 
630.0000042429967 845.0 458.0 468.367171861595 0.5097115344962203 53.0 0.0 52.0 
632.0000042429967 836.0 456.0 468.3694595367476 0.5058536464003639 53.0 0.0 52.0 
634.0000042429967 833.0 455.0 468.363740348872 0.5069883159235149 53.0 0.0 52.0 
636.0000042429967 830.0 454.0 468.3557334858448 0.5066576426157164 53.0 0.0 52.0 
638.0000042429967 824.0 453.0 468.3580211609951 0.5019706778498662 53.0 0.0 52.0 
640.0000042429967 824.0 454.0 468.35230197311836 0.5001394878078628 53.0 0.0 52.0 
642.0000042429967 824.0 454.0 468.3500142979679 0.500139499191456 53.0 0.0 52.0 
644.0000042429967 827.0 455.0 468.35230197311836 0.5033384537138167 53.0 0.0 52.0 
646.0000042429967 832.0 458.0 468.3500142979679 0.5060020576650918 54.0 0.0 52.0 
648.0000042429967 832.0 457.0 468.3500142979679 0.517043939737051 54.0 0.0 52.0 
650.0000042429967 837.0 457.0 468.35230197311836 0.510183297699317 55.0 0.0 52.0 
652.0000042429967 836.0 457.0 468.3500142979679 0.5019992585586838 55.0 0.0 52.0 
654.0000042429967 838.0 458.0 468.3500142979679 0.5028588124831312 55.0 0.0 52.0 
656.0000042429967 839.0 459.0 468.35230197311836 0.5119364068906634 55.0 0.0 52.0 
658.0000042429967 834.0 457.0 468.3500142979679 0.5078511237640978 54.0 0.0 52.0 
660.0000042429967 832.0 456.0 468.3500142979679 0.5014791059662436 54.0 0.0 52.0 
662.0000042429967 834.0 457.0 468.35230197311836 0.5043054427113048 54.0 0.0 52.0 
664.0000042429967 832.0 456.0 468.3500142979679 0.5052527135102197 54.0 0.0 52.0 
#####################################################################
# End of data export. Simulation finished at: 2019-03-11T12:15+0000 #
#####################################################################
