#####################################################################
# Alchemist log file - simulation started at: 2019-03-09T04:25+0000 #
#####################################################################
# seed = 3.0, bandwidth = 74989.42093324558, accessPointCount = 141.4213562373095, baserange = 562.341325190349
#
# The columns have the following meaning: 
# time neighbor_count[Sum] <value>@neighbor_count[Sum] packet_size[Mean] mean_delay[Mean] crowd[Sum] overcrowded[Sum] risk[Sum] 
0.0 NaN NaN NaN NaN NaN NaN NaN 
2.000261997180156 1292.0 516.0 4986.087912087912 0.4020245467287541 1497.0 0.0 1497.0 
4.00057716745534 4532.0 987.0 4986.974358974359 0.5932502841087178 1497.0 0.0 1497.0 
6.000084666035003 8005.0 1185.0 4988.752136752137 0.9360838942577661 1497.0 0.0 1497.0 
8.000239933690308 18413.0 1417.0 4990.495726495727 0.924934328514858 1497.0 0.0 1497.0 
10.00033353340315 21661.0 1432.0 4991.223443223444 1.076375737475653 1495.0 2.0 1495.0 
12.000577167455342 22522.0 1397.0 4991.7020757020755 1.4545609591292152 1495.0 2.0 1495.0 
14.000577167455342 20053.0 1283.0 4991.345543345544 0.9896666898136559 1495.0 2.0 1495.0 
16.000084666035004 23660.0 1271.0 4991.775335775335 0.9503051959778934 1495.0 2.0 1495.0 
18.00057716745534 23658.0 1271.0 4991.780219780219 1.1737078126512546 1496.0 1.0 1496.0 
20.00033353340315 17409.0 1181.0 4991.626373626374 1.0546449024648132 1496.0 1.0 1496.0 
22.00057716745534 23681.0 1271.0 4991.721611721612 0.8743015697868912 1496.0 1.0 1496.0 
24.00057716745534 23689.0 1272.0 4991.86568986569 1.1094107524526624 1496.0 1.0 1496.0 
26.000084666035004 22297.0 1246.0 4991.802197802198 1.204842420958211 1496.0 1.0 1496.0 
28.00057716745534 21283.0 1250.0 4991.74358974359 0.8761505448738613 1496.0 1.0 1496.0 
30.00033353340315 23757.0 1272.0 4992.029304029304 1.0708785340259546 1496.0 1.0 1496.0 
32.00057716745534 22611.0 1248.0 4991.86568986569 1.155675260466538 1496.0 1.0 1496.0 
34.00057716745535 20502.0 1227.0 4991.724053724054 0.9054986931353894 1496.0 1.0 1496.0 
36.00008466603501 23710.0 1271.0 4991.82905982906 1.0269791230959806 1496.0 1.0 1496.0 
38.00057716745535 22839.0 1253.0 4991.885225885226 1.1179350046881473 1496.0 1.0 1496.0 
40.00033353340315 21656.0 1252.0 4991.821733821734 1.0403028784597275 1496.0 1.0 1496.0 
42.00057716745535 21611.0 1249.0 4991.758241758242 0.9996432883860676 1496.0 1.0 1496.0 
44.00057716745535 23709.0 1270.0 4991.826617826618 1.058048594699895 1496.0 1.0 1496.0 
46.00008466603501 20753.0 1232.0 4991.846153846154 1.1138874626322368 1496.0 1.0 1496.0 
48.00057716745535 20603.0 1227.0 4991.7680097680095 0.9894992928014714 1496.0 1.0 1496.0 
50.00033353340315 23761.0 1271.0 4991.8778998779 0.9853458289441654 1496.0 1.0 1496.0 
52.00057716745535 22828.0 1253.0 4991.782661782662 1.0951431397574245 1496.0 1.0 1496.0 
54.00057716745535 21694.0 1252.0 4991.797313797314 1.112951267506194 1496.0 1.0 1496.0 
56.00008466603501 21657.0 1251.0 4991.780219780219 0.9522423484367278 1496.0 1.0 1496.0 
58.00057716745535 23766.0 1272.0 4991.970695970696 1.0332958715952236 1496.0 1.0 1496.0 
60.00033353340315 20824.0 1234.0 4991.809523809524 1.191930379608747 1496.0 1.0 1496.0 
62.00059236981081 20626.0 1228.0 1350.2661782661787 0.8285538242836775 678.0 0.0 338.0 
64.00059236981082 23801.0 1271.0 1350.3663003663016 0.7757373102366594 566.0 1.0 337.0 
66.00008466603501 23029.0 1255.0 1350.312576312577 0.9285854763648366 519.0 2.0 336.0 
68.00059236981082 22401.0 1259.0 1350.1514041514056 0.8705990536422644 497.0 4.0 334.0 
70.00033353340315 21779.0 1252.0 1352.8986568986559 0.7553292960145255 477.0 10.0 329.0 
72.00059236981082 23776.0 1271.0 1350.1709401709418 0.894922261033963 475.0 8.0 330.0 
74.00059236981082 21691.0 1246.0 1347.326007326008 0.9023879959613345 468.0 8.0 329.0 
76.00008466603501 20826.0 1233.0 1347.3137973137977 0.7431040773560612 465.0 7.0 330.0 
78.00059236981082 23900.0 1274.0 1350.197802197804 0.8277860877327596 464.0 7.0 331.0 
80.00033353340315 23125.0 1257.0 1353.0622710622717 0.9029124402531357 460.0 8.0 331.0 
82.00059236981082 22346.0 1256.0 1352.9670329670328 0.8563220430780856 457.0 9.0 330.0 
84.00059236981082 21735.0 1249.0 1352.9206349206343 0.8063145792285507 452.0 13.0 326.0 
86.00008466603501 23814.0 1269.0 1352.918192918192 0.8493182520792968 454.0 12.0 327.0 
88.00059236981082 21748.0 1244.0 1352.9377289377283 0.8917035684438827 453.0 12.0 327.0 
90.00033353340315 20783.0 1229.0 1352.8351648351634 0.7971825223709987 450.0 12.0 327.0 
92.00059236981082 23855.0 1270.0 1355.7484737484713 0.786348306977821 452.0 12.0 328.0 
94.00059236981082 23076.0 1253.0 1355.7264957264954 0.8803846201625364 452.0 12.0 328.0 
96.00008466603501 22347.0 1255.0 1358.4493284493303 0.9174777305161504 452.0 12.0 329.0 
98.00059236981082 21705.0 1249.0 1358.4737484737507 0.7638691856789767 450.0 12.0 329.0 
100.00033353340315 23821.0 1270.0 1358.5274725274708 0.842549223175353 452.0 12.0 329.0 
102.00059236981082 21724.0 1245.0 1358.505494505497 0.9497140299277432 451.0 12.0 329.0 
104.00059236981082 20685.0 1229.0 1358.4688644688665 0.7592234783214091 448.0 12.0 329.0 
106.00008466603501 23879.0 1272.0 1358.5347985347967 0.7708992902218903 451.0 12.0 329.0 
108.00059236981082 23138.0 1256.0 1358.547008547007 0.9452303249368257 451.0 12.0 329.0 
110.00033353340315 22378.0 1260.0 1358.512820512819 0.8867301157100874 451.0 12.0 329.0 
112.00059236981082 21709.0 1251.0 1358.4615384615406 0.7456863753236782 449.0 12.0 329.0 
114.00059236981082 23900.0 1273.0 1358.568986568985 0.889626075724246 451.0 12.0 329.0 
116.00008466603501 21944.0 1250.0 1361.3577533577543 0.9154161005283821 452.0 12.0 330.0 
118.00059236981082 20914.0 1233.0 1364.1709401709418 0.7532575877942359 451.0 12.0 331.0 
120.00033353340315 24086.0 1273.0 1364.1636141636156 0.8313548117994868 456.0 12.0 331.0 
122.00039253327915 23272.0 1255.0 1364.2124542124564 0.8982380112728385 456.0 12.0 331.0 
124.00059236981082 22350.0 1258.0 1364.1269841269857 0.8712377377118566 455.0 12.0 331.0 
126.00008466603501 21568.0 1244.0 1361.2673992673995 0.8023757105796742 453.0 12.0 330.0 
128.00039253327915 23844.0 1271.0 1364.1831501831518 0.8500699888231901 455.0 12.0 331.0 
130.00033353340314 21926.0 1247.0 1364.1416361416375 0.8984133668138733 454.0 12.0 331.0 
132.00059236981082 20917.0 1231.0 1364.1416361416375 0.8205397399530795 453.0 12.0 331.0 
134.00039253327915 23896.0 1273.0 1366.9450549450544 0.7900630489823183 454.0 12.0 332.0 
136.000084666035 23130.0 1254.0 1367.023199023199 0.8894153423158393 452.0 12.0 332.0 
138.00059236981082 22437.0 1260.0 1369.743589743587 0.9266307325529174 450.0 12.0 333.0 
140.00033353340314 21658.0 1250.0 1369.665445665445 0.7843243052701311 450.0 12.0 333.0 
142.00059236981082 23787.0 1271.0 1366.9523809523807 0.8484449918654096 450.0 12.0 332.0 
144.00059236981082 21819.0 1247.0 1372.5616605616594 0.952148931796886 451.0 12.0 334.0 
146.000084666035 20695.0 1229.0 1369.7655677655655 0.7895028897323273 452.0 12.0 333.0 
148.00059236981082 23776.0 1272.0 1372.6349206349205 0.7770013834790068 451.0 12.0 334.0 
150.00033353340314 22998.0 1253.0 1372.5982905982903 0.9427954196244569 451.0 12.0 334.0 
152.00059236981082 22348.0 1258.0 1372.5958485958483 0.8986101464885317 450.0 12.0 334.0 
154.00059236981082 21561.0 1249.0 1369.6483516483506 0.7600421955912395 452.0 12.0 333.0 
156.000084666035 23694.0 1271.0 1372.559218559218 0.8882639906275177 452.0 12.0 334.0 
158.00059236981082 21842.0 1248.0 1375.316239316239 0.9362546034782234 451.0 13.0 334.0 
160.00033353340314 20499.0 1226.0 1378.1391941391953 0.7739599426817656 449.0 13.0 335.0 
162.00059236981082 23463.0 1269.0 1378.1709401709418 0.8334268540279012 450.0 13.0 335.0 
164.00059236981082 22708.0 1251.0 1378.1831501831518 0.9130285201522915 451.0 13.0 335.0 
166.000084666035 22238.0 1255.0 1378.2051282051302 0.8798371532784064 451.0 13.0 335.0 
168.00059236981082 21610.0 1250.0 1377.9877899877897 0.8083673447453459 451.0 13.0 335.0 
170.00033353340314 23310.0 1267.0 1378.1660561660576 0.8790066663578587 452.0 13.0 335.0 
172.00059236981082 22986.0 1264.0 1378.1025641025653 0.8583645502207953 456.0 12.0 336.0 
174.00059236981082 21853.0 1254.0 1378.1147741147754 0.8218125271294654 456.0 12.0 336.0 
176.000084666035 23197.0 1266.0 1375.2942612942609 0.8717603210947906 457.0 12.0 335.0 
178.00059236981082 22822.0 1258.0 1372.4761904761924 0.8628175165120543 458.0 11.0 335.0 
180.00033353340314 21876.0 1257.0 1372.4761904761924 0.8083300266099541 454.0 11.0 335.0 
182.00059236981082 23054.0 1265.0 1372.439560439562 0.8854876048618245 453.0 11.0 335.0 
184.00059236981082 22737.0 1259.0 1369.6117216117207 0.8622930263833141 454.0 11.0 334.0 
186.000084666035 21998.0 1259.0 1369.6288156288151 0.8073136573183675 455.0 10.0 335.0 
188.00059236981082 23011.0 1266.0 1364.0537240537246 0.8799236212702098 453.0 11.0 332.0 
190.00033353340314 22672.0 1260.0 1364.0390720390726 0.8715349694730782 452.0 11.0 332.0 
192.00059236981082 21915.0 1260.0 1366.8180708180696 0.8031163448206032 452.0 10.0 334.0 
194.00059236981082 22900.0 1263.0 1366.7960927960912 0.8795308077918288 453.0 11.0 333.0 
196.000084666035 22602.0 1258.0 1366.764346764345 0.8604487513395983 453.0 11.0 333.0 
198.00059236981082 22093.0 1263.0 1364.0317460317465 0.8074370759130433 451.0 12.0 331.0 
200.00033353340314 22911.0 1265.0 1364.0219780219782 0.8766990384492221 453.0 12.0 331.0 
202.00059236981082 22569.0 1259.0 1363.9853479853477 0.8620070552233846 449.0 14.0 329.0 
204.00059236981082 22118.0 1265.0 1363.9755799755796 0.8029144341060661 448.0 13.0 330.0 
206.000084666035 22866.0 1266.0 1361.216117216119 0.8814245641890984 449.0 14.0 328.0 
208.00059236981082 22545.0 1260.0 1361.2503052503075 0.8588785516078898 452.0 11.0 331.0 
210.00033353340314 22071.0 1266.0 1358.4249084249097 0.8069893150107696 451.0 12.0 329.0 
212.00059236981082 22657.0 1265.0 1355.6410256410245 0.8727899120177108 449.0 16.0 324.0 
214.00059236981082 22380.0 1258.0 1349.9902319902317 0.8558850538667547 450.0 13.0 325.0 
216.000084666035 22368.0 1268.0 1347.1843711843726 0.7972919127328286 443.0 13.0 324.0 
218.00059236981082 22502.0 1269.0 1344.3931623931637 0.8902823751081503 445.0 13.0 323.0 
220.00033353340314 22278.0 1260.0 1344.3687423687434 0.8539245476338402 445.0 13.0 323.0 
222.00059236981082 22285.0 1266.0 1347.1672771672781 0.7963612792489224 441.0 15.0 322.0 
224.00059236981082 22363.0 1265.0 1347.2210012210028 0.8740350178559513 444.0 14.0 323.0 
226.000084666035 22235.0 1260.0 1344.3809523809534 0.8543846297367202 449.0 12.0 324.0 
228.00059236981082 22330.0 1269.0 1347.186813186814 0.8012909343909138 451.0 8.0 329.0 
230.00033353340314 22290.0 1267.0 1347.2161172161186 0.8846496531870939 451.0 8.0 329.0 
232.00059236981082 22114.0 1261.0 1350.0390720390726 0.8538160821727593 450.0 8.0 330.0 
234.00059236981082 22244.0 1268.0 1350.0097680097683 0.8031356380517957 451.0 7.0 331.0 
236.000084666035 22131.0 1268.0 1352.8449328449324 0.8802987213867648 453.0 6.0 333.0 
238.00059236981082 22089.0 1263.0 1350.0122100122103 0.8629232652961198 446.0 11.0 327.0 
240.00033353340314 22279.0 1269.0 1347.19413919414 0.8036175095041188 447.0 9.0 328.0 
242.00059236981082 22065.0 1268.0 1347.2283272283287 0.8817771267223113 445.0 12.0 325.0 
244.00059236981082 22005.0 1263.0 1350.0390720390726 0.8514923875695258 446.0 11.0 327.0 
246.000084666035 22338.0 1269.0 1350.0 0.8069376444532937 447.0 9.0 329.0 
248.00059236981082 22082.0 1263.0 1352.81807081807 0.8831559961385179 446.0 11.0 328.0 
250.00033353340314 22116.0 1265.0 1352.7765567765557 0.8587370055968906 448.0 9.0 330.0 
252.00059236981082 22413.0 1269.0 1347.1111111111118 0.8003478302024006 446.0 9.0 328.0 
254.00059236981082 22145.0 1261.0 1344.3443223443235 0.873186729994441 446.0 9.0 327.0 
256.00008466603504 22250.0 1265.0 1344.3638583638597 0.8488487811761783 448.0 8.0 328.0 
258.0005923698108 22450.0 1269.0 1344.3614163614177 0.8003387252463933 448.0 9.0 327.0 
260.00033353340314 22254.0 1269.0 1344.3760683760695 0.8715791108248389 445.0 13.0 323.0 
262.0005923698108 22325.0 1267.0 1347.20634920635 0.8534147920217766 446.0 12.0 325.0 
264.0005923698108 22571.0 1272.0 1347.18192918193 0.7972058536964195 443.0 14.0 323.0 
266.00008466603504 22395.0 1274.0 1355.7069597069592 0.8819803117699229 443.0 14.0 326.0 
268.0005923698108 22340.0 1267.0 1358.4884004884027 0.8624384658400545 443.0 13.0 328.0 
270.00033353340314 22381.0 1272.0 1358.4761904761924 0.8097191825755765 441.0 13.0 328.0 
272.0005923698108 22191.0 1271.0 1366.8693528693534 0.8697135210081902 442.0 14.0 330.0 
274.0005923698108 22220.0 1267.0 1369.6459096459087 0.8552386359340193 444.0 13.0 332.0 
276.00008466603504 22377.0 1273.0 1366.8400488400493 0.8120406446399614 443.0 13.0 331.0 
278.0005923698108 22199.0 1272.0 1366.815628815629 0.8736706370417732 441.0 15.0 329.0 
280.00033353340314 22217.0 1269.0 1366.7228327228343 0.8539458694461003 445.0 12.0 332.0 
282.0005923698108 22363.0 1274.0 1366.7399267399283 0.8156060010423618 445.0 12.0 332.0 
284.0005923698108 22159.0 1274.0 1366.8327228327232 0.8692205021464054 442.0 13.0 331.0 
286.00008466603504 22161.0 1272.0 1366.8522588522594 0.8588069217167551 444.0 12.0 332.0 
288.0005923698108 22275.0 1275.0 1366.805860805861 0.8185329320929007 444.0 11.0 333.0 
290.00033353340314 21915.0 1268.0 1363.9560439560432 0.8759922467113211 444.0 9.0 334.0 
292.0003569797883 22005.0 1269.0 1363.9438339438332 0.8519930120481526 446.0 8.0 335.0 
294.0003569797883 22123.0 1272.0 1363.9560439560432 0.8199794187346205 445.0 8.0 335.0 
296.00008466603504 21624.0 1258.0 1361.1404151404147 0.8679722994787318 444.0 8.0 334.0 
298.0003569797883 21863.0 1269.0 1363.9780219780218 0.854922491612213 446.0 7.0 336.0 
300.00033353340314 22095.0 1272.0 1363.9462759462754 0.8200716735254939 445.0 8.0 335.0 
302.0005923698108 21727.0 1261.0 1363.9633699633696 0.8534806953757789 444.0 8.0 335.0 
304.0005923698108 21825.0 1269.0 1363.9413919413912 0.8470299093463144 446.0 7.0 336.0 
306.00008466603504 22033.0 1271.0 1358.3663003663014 0.8286282866411836 445.0 8.0 333.0 
308.0005923698108 21624.0 1260.0 1352.7399267399276 0.862426003981957 443.0 6.0 333.0 
310.00033353340314 21895.0 1270.0 1352.7423687423673 0.8104477061028343 444.0 6.0 333.0 
312.0005923698108 22084.0 1273.0 1358.4004884004896 0.8343611724669521 443.0 7.0 334.0 
314.0005923698108 22069.0 1273.0 1361.208791208792 0.8500379088137123 443.0 6.0 336.0 
316.00008466603504 21995.0 1272.0 1358.3614163614175 0.7670742898856526 444.0 6.0 335.0 
318.0005923698108 22052.0 1275.0 1361.2136752136762 0.8817027980875927 445.0 7.0 335.0 
320.00033353340314 22046.0 1274.0 1361.199023199024 0.8258805322215611 444.0 6.0 336.0 
322.0005923698108 22032.0 1273.0 1363.9609279609274 0.7956628630382291 446.0 6.0 337.0 
324.0005923698108 22027.0 1272.0 1361.1868131868137 0.8670344748538865 444.0 7.0 335.0 
326.00008466603504 22099.0 1273.0 1364.068376068377 0.7925682195455334 444.0 6.0 337.0 
328.0005923698108 22110.0 1273.0 1363.992673992674 0.838585348164182 447.0 6.0 337.0 
330.00033353340314 22095.0 1272.0 1366.8327228327228 0.8615570411632334 446.0 7.0 337.0 
332.0005923698108 22077.0 1273.0 1364.070818070819 0.8269781630186172 443.0 6.0 337.0 
334.0005923698108 22022.0 1272.0 1364.0317460317465 0.8228500085939148 445.0 6.0 337.0 
336.00008466603504 22055.0 1273.0 1358.4932844932869 0.8142111176329547 444.0 7.0 334.0 
338.0005923698108 22035.0 1272.0 1352.803418803418 0.8512480266133715 442.0 7.0 332.0 
340.00033353340314 22025.0 1272.0 1347.1452991452993 0.7944432111798841 444.0 6.0 331.0 
342.0005923698108 22015.0 1272.0 1350.0170940170942 0.841721398801319 443.0 7.0 331.0 
344.0005923698108 21968.0 1271.0 1352.803418803418 0.8392368921029721 441.0 7.0 332.0 
346.00008466603504 21901.0 1271.0 1352.8034188034178 0.7662177731081037 444.0 6.0 333.0 
348.0005923698108 21902.0 1271.0 1349.9682539682535 0.8796985681438952 441.0 7.0 331.0 
350.00033353340314 21844.0 1270.0 1349.938949938949 0.8182659226721386 439.0 7.0 331.0 
352.0005923698108 21862.0 1270.0 1341.5115995115968 0.7928587102738297 441.0 6.0 329.0 
354.0005923698108 21862.0 1269.0 1341.5164835164808 0.8622683443463466 440.0 8.0 327.0 
356.00008466603504 21870.0 1270.0 1341.5238095238071 0.7887924405320437 433.0 11.0 324.0 
358.0005923698108 21859.0 1270.0 1341.4700854700873 0.8332781784181111 437.0 10.0 325.0 
360.00033353340314 21850.0 1269.0 1341.479853479855 0.8380165245337826 436.0 11.0 324.0 
362.0005923698108 21844.0 1269.0 1341.4993894993866 0.8185813826778028 435.0 11.0 324.0 
364.0005923698108 21819.0 1267.0 1333.118437118438 0.8205354385317847 437.0 10.0 322.0 
366.00008466603504 21837.0 1269.0 1324.6764346764335 0.8134949154991993 438.0 11.0 318.0 
368.0005923698108 21880.0 1270.0 1324.6153846153832 0.8483625690125258 435.0 12.0 317.0 
370.00033353340314 21867.0 1269.0 1324.6642246642236 0.7994567831242156 437.0 11.0 318.0 
372.0005923698108 21770.0 1266.0 1327.4774114774127 0.8401743220552549 436.0 12.0 318.0 
374.0005923698108 21725.0 1266.0 1327.4822954822969 0.8392336843364503 434.0 13.0 317.0 
376.00008466603504 21727.0 1266.0 1327.4896214896228 0.7574284366873203 438.0 11.0 319.0 
378.0005923698108 21737.0 1266.0 1327.4285714285727 0.8634572509244013 438.0 11.0 319.0 
380.00033353340314 21744.0 1267.0 1327.4383394383408 0.8059452355142157 439.0 8.0 322.0 
382.0005923698108 21734.0 1268.0 1327.5213675213645 0.7889755789175367 442.0 6.0 324.0 
384.0005923698108 21686.0 1267.0 1327.4749694749712 0.8602007504329189 442.0 7.0 323.0 
386.00008466603504 21666.0 1268.0 1338.6788766788763 0.7995772373525836 441.0 7.0 327.0 
388.0005923698108 21662.0 1268.0 1333.0158730158726 0.8392631172912907 442.0 7.0 325.0 
390.00033353340314 21625.0 1266.0 1324.6813186813179 0.8396721527209795 442.0 7.0 322.0 
392.0005923698108 21555.0 1264.0 1330.3345543345558 0.824242004904863 437.0 8.0 323.0 
394.0005923698108 21532.0 1263.0 1330.2832722832734 0.8246544291114551 436.0 10.0 321.0 
396.00008466603504 21518.0 1264.0 1330.202686202688 0.8148654478623043 437.0 9.0 322.0 
398.0005923698108 21517.0 1264.0 1330.1196581196598 0.855607528114118 440.0 7.0 324.0 
400.00033353340314 21532.0 1265.0 1330.3028083028096 0.7834470430816635 439.0 10.0 321.0 
402.0005923698108 21531.0 1265.0 1333.1184371184381 0.839432155887909 440.0 9.0 323.0 
404.0005923698108 21507.0 1264.0 1335.9194139194128 0.8508007300607763 439.0 7.0 326.0 
406.00008466603504 21502.0 1265.0 1335.931623931623 0.7798388907788791 438.0 10.0 323.0 
408.0005923698108 21484.0 1265.0 1335.9145299145289 0.8790738552886573 439.0 9.0 324.0 
410.00033353340314 21502.0 1267.0 1333.1819291819309 0.8115530628421989 439.0 8.0 324.0 
412.0005923698108 21494.0 1264.0 1333.1575091575105 0.8115590524649899 439.0 9.0 323.0 
414.0005923698108 21462.0 1263.0 1333.1550671550685 0.8744449065064623 440.0 8.0 324.0 
416.00008466603504 21452.0 1263.0 1333.0549450549456 0.796996842288451 437.0 8.0 324.0 
418.0005923698108 21459.0 1263.0 1335.8461538461524 0.836827590355036 436.0 10.0 323.0 
420.00033353340314 21466.0 1264.0 1335.931623931623 0.8318577916794346 436.0 10.0 323.0 
422.0005923698108 21441.0 1263.0 1324.7326007325996 0.8300874686926392 437.0 8.0 321.0 
424.0005923698108 21429.0 1263.0 1321.9389499389492 0.8301338352697474 437.0 7.0 321.0 
426.00008466603504 21401.0 1262.0 1333.1086691086698 0.8298640870148571 429.0 12.0 320.0 
428.0005923698108 21430.0 1263.0 1330.178266178268 0.8614932968503766 429.0 13.0 318.0 
430.00033353340314 21421.0 1263.0 1327.5140415140381 0.7810314312381388 434.0 10.0 320.0 
432.0005923698108 21413.0 1263.0 1321.9047619047608 0.8548068491860843 433.0 11.0 317.0 
434.0005923698108 21419.0 1263.0 1324.6544566544546 0.8436714526254282 433.0 11.0 318.0 
436.00008466603504 21445.0 1264.0 1335.8656898656884 0.7770927110413487 436.0 12.0 321.0 
438.0005923698108 21441.0 1265.0 1338.6031746031726 0.8746411063287679 438.0 13.0 321.0 
440.00033353340314 21444.0 1264.0 1338.7057387057375 0.7926243236662351 438.0 12.0 322.0 
442.0005923698108 21435.0 1264.0 1338.7521367521347 0.7993819242143158 442.0 9.0 325.0 
444.0005923698108 21430.0 1264.0 1338.717948717948 0.8667603677445274 445.0 9.0 325.0 
446.00008466603504 21420.0 1265.0 1338.5787545787525 0.7976469480446854 442.0 10.0 324.0 
448.0005923698108 21431.0 1265.0 1338.5689865689844 0.8243072000857901 447.0 7.0 327.0 
450.00033353340314 21427.0 1266.0 1338.6862026862016 0.8267475966808211 445.0 7.0 327.0 
452.0005923698108 21365.0 1264.0 1335.8827838827824 0.8285525558212232 440.0 9.0 324.0 
454.0005923698108 21436.0 1265.0 1344.3492063492079 0.8179182707732336 444.0 6.0 330.0 
456.00008466603504 21493.0 1268.0 1349.9145299145289 0.8303696353919616 444.0 7.0 331.0 
458.0005923698108 21507.0 1267.0 1349.8485958485942 0.8679610723085356 444.0 9.0 329.0 
460.00033353340314 21537.0 1266.0 1349.926739926739 0.7839338023129657 448.0 6.0 332.0 
462.00043838333 21538.0 1266.0 1352.7789987789974 0.8668529053230974 448.0 7.0 332.0 
464.00012345685315 21553.0 1268.0 1355.5750915750893 0.8538193402288584 446.0 9.0 331.0 
466.00008466603504 21534.0 1267.0 1352.6910866910866 0.783338644277078 450.0 6.0 333.0 
468.00012345685315 21622.0 1267.0 1352.630036630036 0.8693238235329931 449.0 8.0 331.0 
470.00012345685315 21697.0 1268.0 1355.5189255189225 0.7979397359910493 446.0 10.0 330.0 
472.00012345685315 21699.0 1268.0 1352.727716727717 0.8030789883539455 451.0 7.0 332.0 
474.00012345685315 21737.0 1269.0 1347.0940170940169 0.8672175931128004 450.0 7.0 330.0 
476.00008466603504 21767.0 1271.0 1344.2612942612952 0.7919753848779728 445.0 10.0 326.0 
478.00012345685315 21796.0 1271.0 1344.2026862026883 0.8318314385021205 445.0 9.0 327.0 
480.00012345685315 21827.0 1271.0 1349.8705738705723 0.825695391195409 446.0 10.0 328.0 
482.00012345685315 21817.0 1271.0 1341.5238095238067 0.8317419841811692 443.0 9.0 326.0 
484.00012345685315 21751.0 1269.0 1338.7350427350427 0.8081458712726494 444.0 11.0 323.0 
486.00008466603504 21755.0 1270.0 1335.8803418803404 0.8166077353269137 440.0 13.0 320.0 
488.00012345685315 21760.0 1270.0 1335.7655677655653 0.8462897694102381 438.0 13.0 320.0 
490.00012345685315 21758.0 1270.0 1330.188034188036 0.7835222555922526 439.0 13.0 318.0 
492.00012345685315 21756.0 1270.0 1324.6910866910857 0.8454906143295228 439.0 14.0 315.0 
494.00012345685315 21732.0 1270.0 1327.4627594627618 0.8257043775609884 441.0 11.0 319.0 
496.00008466603504 21702.0 1271.0 1324.6446886446872 0.7634781977497592 440.0 12.0 317.0 
498.00012345685315 21712.0 1271.0 1324.6666666666654 0.8637208859305587 437.0 14.0 315.0 
500.00012345685315 21730.0 1271.0 1324.6129426129412 0.7944615680532149 436.0 12.0 317.0 
502.00012345685315 21714.0 1270.0 1321.8559218559208 0.80221473311555 438.0 12.0 316.0 
504.00012345685315 21708.0 1270.0 1319.0866910866916 0.8434487627605977 434.0 15.0 312.0 
506.00008466603504 21714.0 1271.0 1313.494505494502 0.7904962665358632 437.0 10.0 315.0 
508.00012345685315 21685.0 1271.0 1310.6544566544549 0.817072619163937 435.0 12.0 312.0 
510.00012345685315 21645.0 1270.0 1307.8070818070798 0.8192169680615423 430.0 16.0 307.0 
512.0001234568531 21594.0 1270.0 1313.4798534798556 0.8138410761890356 432.0 11.0 314.0 
514.0001234568531 21575.0 1270.0 1316.2661782661792 0.8060643402863863 434.0 12.0 314.0 
516.000084666035 21572.0 1270.0 1316.3028083028096 0.8196574868898364 433.0 15.0 311.0 
518.0001234568531 21591.0 1270.0 1310.632478632477 0.833731841948176 435.0 9.0 315.0 
520.0001234568531 21591.0 1270.0 1299.3992673992698 0.7591299352251412 432.0 12.0 308.0 
522.0005923698109 21607.0 1271.0 1296.6666666666647 0.8490149252809963 428.0 16.0 303.0 
524.0005923698109 21598.0 1270.0 1288.20512820513 0.8163082781149523 428.0 9.0 307.0 
526.000084666035 21580.0 1269.0 1285.3919413919436 0.7763773545733509 427.0 11.0 304.0 
528.0005923698109 21616.0 1272.0 1288.2246642246662 0.8514333238143625 425.0 13.0 303.0 
530.0003335334031 21639.0 1274.0 1293.80708180708 0.7836042355137769 428.0 8.0 310.0 
532.00043838333 21659.0 1273.0 1290.9694749694745 0.797822370509826 433.0 11.0 306.0 
534.0005923698109 21672.0 1274.0 1291.0354090354094 0.8424620178336263 430.0 12.0 305.0 
536.000084666035 21681.0 1274.0 1296.6153846153823 0.7931519276193781 434.0 7.0 312.0 
538.0005923698109 21712.0 1274.0 1296.5787545787518 0.8156739462411828 441.0 10.0 309.0 
540.0003335334031 21706.0 1274.0 1296.6837606837587 0.8042566789300296 438.0 13.0 306.0 
542.0005923698109 21705.0 1275.0 1296.6495726495705 0.8243119012719314 442.0 7.0 312.0 
544.0005923698109 21679.0 1274.0 1302.2197802197823 0.7943390245988452 443.0 10.0 311.0 
546.000084666035 21659.0 1273.0 1302.2490842490865 0.8209274364755322 438.0 14.0 307.0 
548.0005923698109 21767.0 1275.0 1299.389499389502 0.8307241651092474 444.0 7.0 313.0 
550.0003335334031 21786.0 1274.0 1296.6251526251503 0.7605043257737907 439.0 9.0 310.0 
552.0005923698109 21816.0 1273.0 1296.6715506715486 0.8365613997920751 435.0 13.0 306.0 
554.0005923698109 21843.0 1275.0 1302.2417582417604 0.8206446632464958 443.0 7.0 314.0 
556.000084666035 21860.0 1275.0 1305.0573870573878 0.7714211326282405 443.0 9.0 313.0 
558.0005923698109 21868.0 1275.0 1305.0525030525037 0.8545243188259064 440.0 13.0 309.0 
560.0003335334031 21881.0 1276.0 1302.366300366303 0.7874496565110441 443.0 7.0 314.0 
562.0005923698109 21925.0 1277.0 1305.076923076924 0.8111898339410336 443.0 9.0 313.0 
564.0005923698109 21942.0 1276.0 1307.914529914529 0.84124997766268 442.0 11.0 312.0 
566.000084666035 21989.0 1279.0 1313.5164835164799 0.8061100388530638 444.0 8.0 317.0 
568.0005923698109 22021.0 1280.0 1319.001221001221 0.8227339461000802 446.0 9.0 318.0 
570.0003335334031 21932.0 1277.0 1319.1135531135544 0.8178278672593127 448.0 9.0 318.0 
572.0005923698109 21926.0 1278.0 1319.1159951159964 0.8026970500497079 456.0 8.0 319.0 
574.0005923698109 21945.0 1280.0 1327.506715506712 0.8061465120368028 456.0 9.0 321.0 
576.000084666035 21860.0 1278.0 1333.1013431013441 0.8237450805473631 458.0 10.0 322.0 
578.0005923698109 21885.0 1281.0 1333.1306471306486 0.8234892030104671 462.0 8.0 324.0 
580.0003335334031 21922.0 1281.0 1333.067155067156 0.7705785438966802 462.0 7.0 325.0 
582.0005923698109 21920.0 1280.0 1333.1868131868148 0.8443216355872923 461.0 9.0 323.0 
584.0005923698109 21930.0 1280.0 1330.319902319904 0.815190122603707 464.0 8.0 323.0 
586.000084666035 21961.0 1282.0 1330.305250305252 0.7770255228057578 465.0 6.0 325.0 
588.0005923698109 21943.0 1280.0 1330.2490842490868 0.8493921838822612 462.0 8.0 323.0 
590.0003335334031 21941.0 1279.0 1333.086691086692 0.7817854739121464 466.0 7.0 325.0 
592.0005923698109 21971.0 1280.0 1338.7521367521344 0.7937777143179743 470.0 6.0 328.0 
594.0005923698109 21967.0 1280.0 1333.0744810744818 0.8473603842544374 470.0 8.0 324.0 
596.000084666035 21900.0 1278.0 1335.9902319902317 0.791143650796443 472.0 7.0 326.0 
598.0005923698109 21926.0 1279.0 1324.678876678875 0.80805007946104 469.0 6.0 323.0 
600.0003335334031 21951.0 1280.0 1330.3003663003678 0.8266819052390743 470.0 8.0 323.0 
602.0005923698109 21981.0 1280.0 1327.5311355311326 0.8070717013356943 473.0 7.0 323.0 
604.0005923698109 21998.0 1283.0 1327.5164835164803 0.796785796780844 472.0 6.0 324.0 
606.000084666035 21807.0 1279.0 1333.0647130647133 0.8301951137367976 471.0 8.0 324.0 
608.0005923698109 21750.0 1278.0 1335.809523809522 0.8158976846174621 472.0 7.0 326.0 
610.0003335334031 21796.0 1278.0 1335.8485958485944 0.7656881044226221 471.0 7.0 326.0 
612.0005923698109 21821.0 1277.0 1338.7155067155065 0.8391996260794392 466.0 9.0 325.0 
614.0005923698109 21792.0 1277.0 1338.7521367521351 0.7940943705292675 469.0 8.0 326.0 
616.000084666035 21800.0 1278.0 1341.4627594627611 0.7718664854828969 469.0 8.0 327.0 
618.0005923698109 21802.0 1278.0 1341.4798534798547 0.8480337164540022 468.0 9.0 326.0 
620.0003335334031 21749.0 1279.0 1341.5311355311326 0.7855731387007165 471.0 8.0 327.0 
622.00043838333 21782.0 1281.0 1347.1843711843715 0.7918149967464256 469.0 8.0 329.0 
624.00043838333 21687.0 1279.0 1344.3638583638601 0.8436221271599843 464.0 10.0 326.0 
626.000084666035 21611.0 1278.0 1355.5189255189225 0.7959257323854206 465.0 8.0 332.0 
628.00043838333 21571.0 1277.0 1355.5335775335748 0.7933858089799551 469.0 8.0 332.0 
630.0003335334031 21601.0 1277.0 1350.0463980463987 0.8211649841869557 467.0 10.0 328.0 
632.0005923698109 21564.0 1276.0 1352.8595848595853 0.8070085532022293 468.0 8.0 331.0 
634.0005923698109 21438.0 1275.0 1358.4542124542152 0.7947509465143487 466.0 8.0 333.0 
636.000084666035 21384.0 1276.0 1358.4297924297948 0.8358199068836226 467.0 10.0 331.0 
638.0005923698109 21289.0 1273.0 1364.073260073261 0.8113628373539994 469.0 8.0 335.0 
640.0003335334031 21115.0 1271.0 1364.0268620268625 0.7707529205075425 465.0 8.0 335.0 
642.0005923698109 21049.0 1270.0 1361.1257631257631 0.8422228717583016 463.0 10.0 332.0 
644.0004491371283 20993.0 1272.0 1361.1990231990237 0.7967600968937938 467.0 8.0 334.0 
646.000084666035 20994.0 1273.0 1361.2087912087918 0.7715403803967116 465.0 8.0 334.0 
648.0005923698109 20985.0 1272.0 1364.0146520146523 0.8355219684903972 465.0 10.0 333.0 
650.0003335334031 20978.0 1274.0 1364.0097680097683 0.7827598649221155 466.0 8.0 335.0 
652.0005923698109 20987.0 1275.0 1364.007326007326 0.7937987967141118 464.0 8.0 335.0 
654.0005923698109 20966.0 1274.0 1364.0317460317465 0.8388966807405004 460.0 14.0 329.0 
656.000084666035 20957.0 1275.0 1364.1074481074495 0.7944530262701042 462.0 12.0 331.0 
658.0005923698109 21039.0 1278.0 1366.8400488400491 0.7844945149658052 460.0 10.0 334.0 
660.0003335334031 21039.0 1277.0 1375.3528693528688 0.8313106245931889 462.0 9.0 338.0 
662.0005923698109 20918.0 1273.0 1375.289377289376 0.809609623220979 461.0 7.0 340.0 
664.0005923698109 20971.0 1275.0 1372.4420024420044 0.7903001160260718 462.0 7.0 339.0 
#####################################################################
# End of data export. Simulation finished at: 2019-03-09T04:45+0000 #
#####################################################################
