#####################################################################
# Alchemist log file - simulation started at: 2019-03-03T03:46+0000 #
#####################################################################
# seed = 9.0, bandwidth = 316227.76601683797, accessPointCount = 531.8295896944988, baserange = 10.0
#
# The columns have the following meaning: 
# time neighbor_count[Sum] <value>@neighbor_count[Sum] packet_size[Mean] mean_delay[Mean] crowd[Sum] overcrowded[Sum] risk[Sum] 
0.0 NaN NaN NaN NaN NaN NaN NaN 
10.000337445961424 50.0 23.0 4982.140039447731 0.4921305904543152 1497.0 0.0 1497.0 
20.000337445961424 51.0 23.0 4982.084812623274 0.4813240317214392 1497.0 0.0 1497.0 
30.000337445961424 52.0 24.0 4982.098619329388 0.5155691528625298 1497.0 0.0 1497.0 
40.00033744596142 50.0 23.0 4982.084812623274 0.4921362825541034 1497.0 0.0 1497.0 
50.00033744596142 50.0 23.0 4982.051282051282 0.49213976105952945 1497.0 0.0 1497.0 
60.00033744596142 52.0 24.0 4982.1045364891515 0.4917584243758031 1497.0 0.0 1497.0 
70.00033744596142 52.0 24.0 402.2623274161736 0.5041526748998141 15.0 0.0 1.0 
80.00033744596142 52.0 24.0 402.2623274161736 0.5041526748998141 8.0 0.0 1.0 
90.00033744596142 52.0 24.0 402.2623274161736 0.5041526748998141 6.0 0.0 1.0 
100.00033744596142 52.0 24.0 402.2623274161736 0.5041526748998141 6.0 0.0 1.0 
110.00033744596142 54.0 25.0 402.2623274161736 0.5039064209923648 6.0 0.0 1.0 
120.00033744596142 54.0 25.0 402.2623274161736 0.5039064209923648 6.0 0.0 1.0 
130.0003374459614 50.0 23.0 402.2623274161736 0.5044235541980182 5.0 0.0 1.0 
140.0003374459614 50.0 23.0 402.2623274161736 0.5044235541980182 5.0 0.0 1.0 
150.0003374459614 52.0 24.0 402.2623274161736 0.5041526748998242 4.0 0.0 1.0 
160.0003374459614 52.0 24.0 402.2623274161736 0.5041526748998242 4.0 0.0 1.0 
170.0003374459614 52.0 24.0 402.2623274161736 0.5517717225188719 4.0 0.0 1.0 
180.0003374459614 54.0 24.0 402.2623274161736 0.5058596372170062 4.0 0.0 1.0 
190.0003374459614 54.0 24.0 402.2623274161736 0.5058596372170062 4.0 0.0 1.0 
200.0003374459614 55.0 25.0 402.2623274161736 0.49817300621602717 4.0 0.0 1.0 
210.0003374459614 54.0 24.0 402.2623274161736 0.503258962841372 4.0 0.0 1.0 
220.0003374459614 56.0 25.0 402.2623274161736 0.5030435402744469 4.0 0.0 1.0 
230.0003374459614 58.0 26.0 402.2623274161736 0.5028477015772422 4.0 0.0 1.0 
240.0003374459614 58.0 26.0 402.2623274161736 0.5710295197590604 4.0 0.0 1.0 
250.0003374459614 58.0 26.0 402.2623274161736 0.5028477015772422 4.0 0.0 1.0 
260.0003374459614 58.0 26.0 402.2623274161736 0.5028477015772245 4.0 0.0 1.0 
270.0003374459614 58.0 26.0 402.2623274161736 0.54830224703177 4.0 0.0 1.0 
280.0003374459614 58.0 26.0 402.2623274161736 0.5028477015772245 4.0 0.0 1.0 
290.0003374459614 56.0 25.0 402.2623274161736 0.5030435402744295 4.0 0.0 1.0 
300.0003374459614 56.0 25.0 402.2623274161736 0.5149784191092873 4.0 0.0 1.0 
310.0003374459614 58.0 26.0 402.2623274161736 0.505226344036445 4.0 0.0 1.0 
320.0003374459614 56.0 25.0 402.2623274161736 0.5055282628783301 4.0 0.0 1.0 
330.0003374459614 56.0 25.0 402.2623274161736 0.5055282628783301 4.0 0.0 1.0 
340.0003374459614 54.0 24.0 402.2623274161736 0.5058596372169843 4.0 0.0 1.0 
350.0003374459614 54.0 24.0 402.2623274161736 0.5058596372169843 4.0 0.0 1.0 
360.0003374459614 58.0 26.0 402.2623274161736 0.505226344036445 4.0 0.0 1.0 
370.0003374459614 57.0 25.0 402.2623274161736 0.5557757355536445 4.0 0.0 1.0 
380.0003374459614 54.0 24.0 402.2623274161736 0.5058596372169843 4.0 0.0 1.0 
390.0003374459614 54.0 24.0 402.2623274161736 0.5058596372169843 4.0 0.0 1.0 
400.0003374459614 54.0 24.0 402.2623274161736 0.5058596372169843 4.0 0.0 1.0 
410.0003374459614 54.0 24.0 402.2623274161736 0.5058596372169843 4.0 0.0 1.0 
420.0003374459614 52.0 23.0 402.2623274161736 0.5062249986672955 4.0 0.0 1.0 
430.0003374459614 52.0 23.0 402.2623274161736 0.5062249986672955 4.0 0.0 1.0 
440.0003374459614 52.0 23.0 402.2623274161736 0.5062249986672955 4.0 0.0 1.0 
450.0003374459614 54.0 24.0 402.2623274161736 0.5058596372169843 4.0 0.0 1.0 
460.0003374459614 58.0 25.0 402.2623274161736 0.5055996543247666 4.0 0.0 1.0 
470.0003374459614 58.0 25.0 402.2623274161736 0.5055996543247666 4.0 0.0 1.0 
480.0003374459614 54.0 24.0 402.2623274161736 0.5016228942689878 4.0 0.0 1.0 
490.0003374459614 52.0 23.0 402.2623274161736 0.5062249986672955 4.0 0.0 1.0 
500.0003374459614 56.0 25.0 402.2623274161736 0.4962984524045709 4.0 0.0 1.0 
510.0003374459614 52.0 23.0 402.2623274161736 0.5062249986672955 4.0 0.0 1.0 
520.0003374459613 52.0 23.0 402.2623274161736 0.5062249986673426 4.0 0.0 1.0 
530.0003374459613 50.0 22.0 402.2623274161736 0.5066298586528221 4.0 0.0 1.0 
540.0003374459613 54.0 24.0 402.2623274161736 0.5058596372170319 4.0 0.0 1.0 
550.0003374459613 58.0 26.0 402.2623274161736 0.5052263440364934 4.0 0.0 1.0 
560.0003374459613 58.0 26.0 402.2623274161736 0.5941152329253823 4.0 0.0 1.0 
570.0003374459613 62.0 27.0 402.2623274161736 0.5050027355953425 4.0 0.0 1.0 
580.0003374459613 60.0 27.0 402.2623274161736 0.5049501204151946 4.0 0.0 1.0 
590.0003374459613 60.0 27.0 402.2623274161736 0.5049501204151946 4.0 0.0 1.0 
600.0003374459613 59.0 26.0 402.2623274161736 0.5590658336056351 4.0 0.0 1.0 
610.0003374459613 58.0 26.0 402.2623274161736 0.5052263440364934 4.0 0.0 1.0 
620.0003374459613 60.0 27.0 402.2623274161736 0.5049501204151946 4.0 0.0 1.0 
630.0003374459613 64.0 28.0 402.2623274161736 0.504741583651202 4.0 0.0 1.0 
640.0003374459613 61.0 27.0 402.2623274161736 0.49777132011793784 4.0 0.0 1.0 
650.0003374459613 62.0 28.0 402.2623274161736 0.5251046089262468 4.0 0.0 1.0 
660.0003374459613 60.0 27.0 402.2623274161736 0.5049501204151946 4.0 0.0 1.0 
#####################################################################
# End of data export. Simulation finished at: 2019-03-03T03:48+0000 #
#####################################################################
