#####################################################################
# Alchemist log file - simulation started at: 2019-03-09T18:39+0000 #
#####################################################################
# seed = 3.0, bandwidth = 5623413.251903491, accessPointCount = 72.92664737217109, baserange = 17.78279410038923
#
# The columns have the following meaning: 
# time neighbor_count[Sum] <value>@neighbor_count[Sum] packet_size[Mean] mean_delay[Mean] crowd[Sum] overcrowded[Sum] risk[Sum] 
0.0 NaN NaN NaN NaN NaN NaN NaN 
2.000510814717038 16.0 8.0 4987.041427660931 0.5018169751771966 1497.0 0.0 1497.0 
4.000510814717038 16.0 8.0 4987.163798597833 0.5018047050492673 1497.0 0.0 1497.0 
6.000084666035003 32.0 8.0 4987.066921606119 0.49364396043037556 1497.0 0.0 1497.0 
8.000510814717037 36.0 8.0 4987.059273422562 0.49733317364474516 1497.0 0.0 1497.0 
10.00033353340315 36.0 8.0 4987.056724028043 0.49733352930062696 1497.0 0.0 1497.0 
12.000510814717037 36.0 8.0 4987.041427660931 0.4973335885766071 1497.0 0.0 1497.0 
14.000510814717037 36.0 8.0 4987.08476736775 0.4973325808849416 1497.0 0.0 1497.0 
16.000084666035004 36.0 8.0 4987.043977055449 0.4973328179888628 1497.0 0.0 1497.0 
18.00051081471704 36.0 8.0 4987.0643722116 0.4973336478525878 1497.0 0.0 1497.0 
20.00033353340315 36.0 8.0 4987.079668578713 0.49733264016092227 1497.0 0.0 1497.0 
22.00051081471704 36.0 8.0 4987.056724028043 0.4973326994369026 1497.0 0.0 1497.0 
24.00051081471704 36.0 8.0 4987.059273422562 0.49733418133641116 1497.0 0.0 1497.0 
26.000084666035004 36.0 8.0 4987.077119184194 0.49733264016092227 1497.0 0.0 1497.0 
28.00051081471704 36.0 8.0 4987.041427660931 0.49733287726484365 1497.0 0.0 1497.0 
30.00033353340315 36.0 8.0 4987.036328871893 0.49733311436876504 1497.0 0.0 1497.0 
32.00051081471704 36.0 8.0 4987.0643722116 0.49733305509278447 1497.0 0.0 1497.0 
34.00051081471704 36.0 8.0 4987.061822817081 0.4973336478525881 1497.0 0.0 1497.0 
36.00008466603501 36.0 8.0 4987.08476736775 0.49733258088494203 1497.0 0.0 1497.0 
38.00051081471704 36.0 8.0 4987.0312300828555 0.49733358857660787 1497.0 0.0 1497.0 
40.00033353340315 36.0 8.0 4987.082217973231 0.4973332921967059 1497.0 0.0 1497.0 
42.00051081471704 36.0 8.0 4987.077119184194 0.49733258088494203 1497.0 0.0 1497.0 
44.00051081471704 36.0 8.0 4987.000637348629 0.49733317364474594 1497.0 0.0 1497.0 
46.00008466603501 36.0 8.0 4987.077119184194 0.49733293654082367 1497.0 0.0 1497.0 
48.00051081471704 36.0 8.0 4987.061822817081 0.4973330550927848 1497.0 0.0 1497.0 
50.00033353340315 36.0 8.0 4987.066921606119 0.49733358857660787 1497.0 0.0 1497.0 
52.00051081471704 36.0 8.0 4987.059273422562 0.4973334700246473 1497.0 0.0 1497.0 
54.00051081471704 36.0 8.0 4987.054174633525 0.49733269943690256 1497.0 0.0 1497.0 
56.00008466603501 36.0 8.0 4987.082217973231 0.4973332329207256 1497.0 0.0 1497.0 
58.00051081471704 36.0 8.0 4987.036328871893 0.497332877264844 1497.0 0.0 1497.0 
60.00033353340315 36.0 8.0 4987.041427660931 0.4973329958168045 1497.0 0.0 1497.0 
62.00059236981081 36.0 8.0 414.65137029955395 0.49801508452251275 8.0 0.0 5.0 
64.00059236981082 36.0 8.0 414.65137029955395 0.4980833111758779 8.0 0.0 5.0 
66.00008466603501 36.0 8.0 414.65137029955395 0.4980833111758803 8.0 0.0 5.0 
68.00059236981082 36.0 8.0 414.65137029955395 0.4980833111758803 6.0 0.0 5.0 
70.00033353340315 36.0 8.0 414.65137029955395 0.4980833111758803 5.0 0.0 5.0 
72.00059236981082 36.0 8.0 414.65137029955395 0.4980833111758803 5.0 0.0 5.0 
74.00059236981082 36.0 8.0 414.65137029955395 0.4980833111758803 5.0 0.0 5.0 
76.00008466603501 36.0 8.0 414.65137029955395 0.4980833111758803 5.0 0.0 5.0 
78.00059236981082 36.0 8.0 414.65137029955395 0.4980833111758803 5.0 0.0 5.0 
80.00033353340315 36.0 8.0 414.65137029955395 0.4980833111758803 5.0 0.0 5.0 
82.00059236981082 36.0 8.0 414.65137029955395 0.4980833111758803 5.0 0.0 5.0 
84.00059236981082 36.0 8.0 414.65137029955395 0.4980833111758803 5.0 0.0 5.0 
86.00008466603501 36.0 8.0 414.65137029955395 0.4980833111758803 5.0 0.0 5.0 
88.00059236981082 36.0 8.0 414.65137029955395 0.4980833111758803 5.0 0.0 5.0 
90.00033353340315 36.0 8.0 414.65137029955395 0.4980833111758803 5.0 0.0 5.0 
92.00059236981082 36.0 8.0 414.65137029955395 0.4980833111758803 5.0 0.0 5.0 
94.00059236981082 36.0 8.0 414.65137029955395 0.4980833111758803 5.0 0.0 5.0 
96.00008466603501 36.0 8.0 414.65137029955395 0.4980833111758803 5.0 0.0 5.0 
98.00059236981082 36.0 8.0 414.65137029955395 0.4980833111758803 5.0 0.0 5.0 
100.00033353340315 36.0 8.0 414.65137029955395 0.4980833111758803 5.0 0.0 5.0 
102.00059236981082 36.0 8.0 414.65137029955395 0.4980833111758803 5.0 0.0 5.0 
104.00059236981082 36.0 8.0 414.65137029955395 0.4980833111758803 5.0 0.0 5.0 
106.00008466603501 36.0 8.0 414.65137029955395 0.4980833111758803 5.0 0.0 5.0 
108.00059236981082 36.0 8.0 414.65137029955395 0.4980833111758803 5.0 0.0 5.0 
110.00033353340315 36.0 8.0 414.65137029955395 0.4980833111758803 5.0 0.0 5.0 
112.00059236981082 36.0 8.0 414.65137029955395 0.4980833111758803 5.0 0.0 5.0 
114.00059236981082 36.0 8.0 414.65137029955395 0.4980833111758803 5.0 0.0 5.0 
116.00008466603501 36.0 8.0 414.65137029955395 0.4980833111758803 5.0 0.0 5.0 
118.00059236981082 36.0 8.0 414.65137029955395 0.4980833111758803 5.0 0.0 5.0 
120.00033353340315 36.0 8.0 414.65137029955395 0.4980833111758803 5.0 0.0 5.0 
122.00059236981082 36.0 8.0 414.65137029955395 0.4980833111758803 5.0 0.0 5.0 
124.00059236981082 36.0 8.0 414.65137029955395 0.4980833111758803 5.0 0.0 5.0 
126.00008466603501 36.0 8.0 414.65137029955395 0.4980833111758803 5.0 0.0 5.0 
128.00059236981082 36.0 8.0 414.65137029955395 0.4980833111758803 5.0 0.0 5.0 
130.00033353340314 36.0 8.0 414.65137029955395 0.4980833111758732 5.0 0.0 5.0 
132.00059236981082 36.0 8.0 414.65137029955395 0.4980833111758732 5.0 0.0 5.0 
134.00059236981082 36.0 8.0 414.65137029955395 0.4980833111758732 5.0 0.0 5.0 
136.000084666035 36.0 8.0 414.65137029955395 0.4980833111758732 5.0 0.0 5.0 
138.00059236981082 36.0 8.0 414.65137029955395 0.4980833111758732 5.0 0.0 5.0 
140.00033353340314 36.0 8.0 414.65137029955395 0.4980833111758732 5.0 0.0 5.0 
142.00059236981082 36.0 8.0 414.65137029955395 0.4980833111758732 5.0 0.0 5.0 
144.00059236981082 36.0 8.0 414.65137029955395 0.4980833111758732 5.0 0.0 5.0 
146.000084666035 36.0 8.0 414.65137029955395 0.4980833111758732 5.0 0.0 5.0 
148.00059236981082 36.0 8.0 414.65137029955395 0.4980833111758732 5.0 0.0 5.0 
150.00033353340314 36.0 8.0 414.65137029955395 0.4980833111758732 5.0 0.0 5.0 
152.00059236981082 36.0 8.0 414.65137029955395 0.4980833111758732 5.0 0.0 5.0 
154.00059236981082 36.0 8.0 414.65137029955395 0.4980833111758732 5.0 0.0 5.0 
156.000084666035 36.0 8.0 414.65137029955395 0.4980833111758732 5.0 0.0 5.0 
158.00059236981082 36.0 8.0 414.65137029955395 0.4980833111758732 5.0 0.0 5.0 
160.00033353340314 37.0 9.0 414.65137029955395 0.4918214083373233 5.0 0.0 5.0 
162.00059236981082 40.0 9.0 414.65137029955395 0.5129873976233079 6.0 0.0 5.0 
164.00059236981082 40.0 9.0 414.65137029955395 0.5129873976233079 6.0 0.0 5.0 
166.000084666035 40.0 9.0 414.65137029955395 0.5129873976233079 6.0 0.0 5.0 
168.00059236981082 40.0 9.0 414.65137029955395 0.5129873976233079 6.0 0.0 5.0 
170.00033353340314 41.0 9.0 417.593371574251 0.49486745986590075 6.0 0.0 6.0 
172.00059236981082 44.0 9.0 417.5882727852135 0.5643978221554796 6.0 0.0 6.0 
174.00059236981082 42.0 9.0 417.5882727852135 0.5001517362017331 6.0 0.0 6.0 
176.000084666035 42.0 9.0 417.5882727852135 0.5001517362017331 6.0 0.0 6.0 
178.00059236981082 42.0 9.0 417.5882727852135 0.5001517362017331 6.0 0.0 6.0 
180.00033353340314 43.0 9.0 417.593371574251 0.49192891014913626 6.0 0.0 6.0 
182.00059236981082 44.0 9.0 417.5882727852135 0.49433841058229044 6.0 0.0 6.0 
184.00059236981082 44.0 9.0 417.5882727852135 0.49433922038337635 6.0 0.0 6.0 
186.000084666035 44.0 9.0 417.5882727852135 0.49433922038337635 6.0 0.0 6.0 
188.00059236981082 44.0 9.0 417.5882727852135 0.49433922038337635 6.0 0.0 6.0 
190.00033353340314 44.0 9.0 417.593371574251 0.4943391109507974 6.0 0.0 6.0 
192.00059236981082 44.0 9.0 417.5882727852135 0.49433841058229044 6.0 0.0 6.0 
194.00059236981082 44.0 9.0 417.5882727852135 0.49433922038337635 6.0 0.0 6.0 
196.000084666035 44.0 9.0 417.5882727852135 0.49433922038337635 6.0 0.0 6.0 
198.00059236981082 44.0 9.0 417.5882727852135 0.49433922038337635 6.0 0.0 6.0 
200.00033353340314 44.0 9.0 417.593371574251 0.4943391109507974 6.0 0.0 6.0 
202.00059236981082 44.0 9.0 417.5882727852135 0.49433841058229044 6.0 0.0 6.0 
204.00059236981082 44.0 9.0 417.5882727852135 0.49433922038337635 6.0 0.0 6.0 
206.000084666035 44.0 9.0 417.5882727852135 0.49433922038337635 6.0 0.0 6.0 
208.00059236981082 44.0 9.0 417.5882727852135 0.49433922038337635 6.0 0.0 6.0 
210.00033353340314 44.0 9.0 417.593371574251 0.4943391109507974 6.0 0.0 6.0 
212.00059236981082 44.0 9.0 417.5882727852135 0.49433841058229044 6.0 0.0 6.0 
214.00059236981082 44.0 9.0 417.5882727852135 0.49433922038337635 6.0 0.0 6.0 
216.000084666035 44.0 9.0 417.5882727852135 0.49433922038337635 6.0 0.0 6.0 
218.00059236981082 44.0 9.0 417.5882727852135 0.49433922038337635 6.0 0.0 6.0 
220.00033353340314 44.0 9.0 417.593371574251 0.5456554875851525 6.0 0.0 6.0 
222.00059236981082 41.0 8.0 417.5882727852135 0.7601322130724129 6.0 0.0 6.0 
224.00059236981082 36.0 8.0 417.58062460165706 0.4980828369680301 6.0 0.0 6.0 
226.000084666035 36.0 8.0 417.57552581261945 0.4980833111758732 6.0 0.0 6.0 
228.00059236981082 36.0 8.0 417.57552581261945 0.4980833111758732 6.0 0.0 6.0 
230.00033353340314 36.0 8.0 417.57552581261945 0.4980833111758732 6.0 0.0 6.0 
232.00059236981082 36.0 8.0 417.57552581261945 0.4980833111758732 6.0 0.0 6.0 
234.00059236981082 36.0 8.0 417.57552581261945 0.4980833111758732 6.0 0.0 6.0 
236.000084666035 36.0 8.0 417.57552581261945 0.4980833111758732 6.0 0.0 6.0 
238.00059236981082 36.0 8.0 417.57552581261945 0.4980833111758732 6.0 0.0 6.0 
240.00033353340314 36.0 8.0 417.57552581261945 0.4980833111758732 6.0 0.0 6.0 
242.00059236981082 36.0 8.0 417.57552581261945 0.4980833111758732 6.0 0.0 6.0 
244.00059236981082 36.0 8.0 417.57552581261945 0.4980833111758732 6.0 0.0 6.0 
246.000084666035 36.0 8.0 417.57552581261945 0.4980833111758732 6.0 0.0 6.0 
248.00059236981082 36.0 8.0 417.57552581261945 0.4980833111758732 6.0 0.0 6.0 
250.00033353340314 36.0 8.0 417.57552581261945 0.4980833111758732 6.0 0.0 6.0 
252.00059236981082 36.0 8.0 417.57552581261945 0.4980833111758732 6.0 0.0 6.0 
254.00059236981082 36.0 8.0 417.57552581261945 0.4980833111758732 6.0 0.0 6.0 
256.00008466603504 36.0 8.0 417.57552581261945 0.4980833111758732 6.0 0.0 6.0 
258.0005923698108 36.0 8.0 417.57552581261945 0.49808331117587085 6.0 0.0 6.0 
260.00033353340314 36.0 8.0 417.57552581261945 0.49808331117587085 6.0 0.0 6.0 
262.0005923698108 36.0 8.0 417.57552581261945 0.49808331117587085 6.0 0.0 6.0 
264.0005923698108 36.0 8.0 417.57552581261945 0.49808331117587085 6.0 0.0 6.0 
266.00008466603504 36.0 8.0 417.57552581261945 0.49808331117587085 6.0 0.0 6.0 
268.0005923698108 36.0 8.0 417.57552581261945 0.49808331117587085 6.0 0.0 6.0 
270.00033353340314 36.0 8.0 417.57552581261945 0.49808331117587085 6.0 0.0 6.0 
272.0005923698108 36.0 8.0 417.57552581261945 0.49808331117587085 6.0 0.0 6.0 
274.0005923698108 38.0 8.0 417.57552581261945 0.4761080248806331 6.0 0.0 6.0 
276.00008466603504 40.0 9.0 417.57552581261945 0.4982088622619078 6.0 0.0 6.0 
278.0005923698108 40.0 9.0 417.57552581261945 0.4982088622619078 6.0 0.0 6.0 
280.00033353340314 40.0 9.0 417.57552581261945 0.4982088622619078 6.0 0.0 6.0 
282.0005923698108 40.0 9.0 414.65137029955395 0.4982088622619078 5.0 0.0 5.0 
284.0005923698108 40.0 9.0 414.65137029955395 0.4982088622619078 5.0 0.0 5.0 
286.00008466603504 40.0 9.0 414.65137029955395 0.4982088622619078 5.0 0.0 5.0 
288.0005923698108 40.0 9.0 414.65137029955395 0.4982088622619078 5.0 0.0 5.0 
290.00033353340314 40.0 9.0 414.65137029955395 0.4982088622619078 5.0 0.0 5.0 
292.0005923698108 40.0 9.0 414.65137029955395 0.4982088622619078 5.0 0.0 5.0 
294.0005923698108 40.0 9.0 414.65137029955395 0.4982088622619078 5.0 0.0 5.0 
296.00008466603504 40.0 9.0 414.65137029955395 0.4982088622619078 5.0 0.0 5.0 
298.0005923698108 40.0 9.0 414.65137029955395 0.4982088622619078 5.0 0.0 5.0 
300.00033353340314 40.0 9.0 414.65137029955395 0.4982088622619078 5.0 0.0 5.0 
302.0005923698108 40.0 9.0 414.65137029955395 0.4982088622619078 5.0 0.0 5.0 
304.0005923698108 40.0 9.0 414.65137029955395 0.5751346749994621 5.0 0.0 5.0 
306.00008466603504 38.0 9.0 414.65137029955395 0.6886925516722519 5.0 0.0 5.0 
308.0005923698108 36.0 8.0 414.65137029955395 0.49808331117587085 5.0 0.0 5.0 
310.00033353340314 36.0 8.0 414.65137029955395 0.49808331117587085 5.0 0.0 5.0 
312.0005923698108 36.0 8.0 414.65137029955395 0.49808331117587085 5.0 0.0 5.0 
314.0005923698108 36.0 8.0 414.65137029955395 0.49808331117587085 5.0 0.0 5.0 
316.00008466603504 36.0 8.0 414.65137029955395 0.49808331117587085 5.0 0.0 5.0 
318.0005923698108 36.0 8.0 414.65137029955395 0.49808331117587085 5.0 0.0 5.0 
320.00033353340314 36.0 8.0 414.65137029955395 0.49808331117587085 5.0 0.0 5.0 
322.0005923698108 36.0 8.0 414.65137029955395 0.49808331117587085 5.0 0.0 5.0 
324.0005923698108 36.0 8.0 414.65137029955395 0.49808331117587085 5.0 0.0 5.0 
326.00008466603504 36.0 8.0 414.65137029955395 0.49808331117587085 5.0 0.0 5.0 
328.0005923698108 36.0 8.0 414.65137029955395 0.49808331117587085 5.0 0.0 5.0 
330.00033353340314 36.0 8.0 414.65137029955395 0.49808331117587085 5.0 0.0 5.0 
332.0005923698108 36.0 8.0 414.65137029955395 0.49808331117587085 5.0 0.0 5.0 
334.0005923698108 36.0 8.0 414.65137029955395 0.49808331117587085 5.0 0.0 5.0 
336.00008466603504 36.0 8.0 414.65137029955395 0.49808331117587085 5.0 0.0 5.0 
338.0005923698108 36.0 8.0 414.65137029955395 0.49808331117587085 5.0 0.0 5.0 
340.00033353340314 36.0 8.0 414.65137029955395 0.49808331117587085 5.0 0.0 5.0 
342.0005923698108 36.0 8.0 414.65137029955395 0.49808331117587085 5.0 0.0 5.0 
344.0005923698108 36.0 8.0 414.65137029955395 0.49808331117587085 5.0 0.0 5.0 
346.00008466603504 36.0 8.0 414.65137029955395 0.49808331117587085 5.0 0.0 5.0 
348.0005923698108 36.0 8.0 414.65137029955395 0.49808331117587085 5.0 0.0 5.0 
350.00033353340314 36.0 8.0 414.65137029955395 0.49808331117587085 5.0 0.0 5.0 
352.0005923698108 36.0 8.0 414.65137029955395 0.49808331117587085 5.0 0.0 5.0 
354.0005923698108 36.0 8.0 414.65137029955395 0.49808331117587085 5.0 0.0 5.0 
356.00008466603504 36.0 8.0 414.65137029955395 0.49808331117587085 5.0 0.0 5.0 
358.0005923698108 36.0 8.0 414.65137029955395 0.49808331117587085 5.0 0.0 5.0 
360.00033353340314 36.0 8.0 414.65137029955395 0.49808331117587085 5.0 0.0 5.0 
362.0005923698108 36.0 8.0 414.65137029955395 0.49808331117587085 5.0 0.0 5.0 
364.0005923698108 36.0 8.0 414.65137029955395 0.49808331117587085 5.0 0.0 5.0 
366.00008466603504 36.0 8.0 414.65137029955395 0.49808331117587085 5.0 0.0 5.0 
368.0005923698108 36.0 8.0 414.65137029955395 0.49808331117587085 5.0 0.0 5.0 
370.00033353340314 36.0 8.0 414.65137029955395 0.49808331117587085 5.0 0.0 5.0 
372.0005923698108 36.0 8.0 414.65137029955395 0.49808331117587085 5.0 0.0 5.0 
374.0005923698108 36.0 8.0 414.65137029955395 0.49808331117587085 5.0 0.0 5.0 
376.00008466603504 36.0 8.0 414.65137029955395 0.49808331117587085 5.0 0.0 5.0 
378.0005923698108 36.0 8.0 414.65137029955395 0.49808331117587085 5.0 0.0 5.0 
380.00033353340314 36.0 8.0 414.65137029955395 0.49808331117587085 5.0 0.0 5.0 
382.0005923698108 36.0 8.0 414.65137029955395 0.49808331117587085 5.0 0.0 5.0 
384.0005923698108 36.0 8.0 414.65137029955395 0.49808331117587085 5.0 0.0 5.0 
386.00008466603504 36.0 8.0 414.65137029955395 0.49808331117587085 5.0 0.0 5.0 
388.0005923698108 36.0 8.0 414.65137029955395 0.49808331117587085 5.0 0.0 5.0 
390.00033353340314 36.0 8.0 414.65137029955395 0.49808331117587085 5.0 0.0 5.0 
392.0005923698108 36.0 8.0 414.65137029955395 0.49808331117587085 5.0 0.0 5.0 
394.0005923698108 36.0 8.0 414.65137029955395 0.49808331117587085 5.0 0.0 5.0 
396.00008466603504 36.0 8.0 414.65137029955395 0.49808331117587085 5.0 0.0 5.0 
398.0005923698108 36.0 8.0 414.65137029955395 0.49808331117587085 5.0 0.0 5.0 
400.00033353340314 36.0 8.0 414.65137029955395 0.49808331117587085 5.0 0.0 5.0 
402.0005923698108 36.0 8.0 414.65137029955395 0.49808331117587085 5.0 0.0 5.0 
404.0005923698108 36.0 8.0 414.65137029955395 0.49808331117587085 5.0 0.0 5.0 
406.00008466603504 36.0 8.0 414.65137029955395 0.49808331117587085 5.0 0.0 5.0 
408.0005923698108 36.0 8.0 414.65137029955395 0.49808331117587085 5.0 0.0 5.0 
410.00033353340314 36.0 8.0 414.65137029955395 0.49808331117587085 5.0 0.0 5.0 
412.0005923698108 36.0 8.0 414.65137029955395 0.49808331117587085 5.0 0.0 5.0 
414.0005923698108 36.0 8.0 414.65137029955395 0.49808331117587085 5.0 0.0 5.0 
416.00008466603504 36.0 8.0 414.65137029955395 0.49808331117587085 5.0 0.0 5.0 
418.0005923698108 36.0 8.0 414.65137029955395 0.49808331117587085 5.0 0.0 5.0 
420.00033353340314 36.0 8.0 414.65137029955395 0.49808331117587085 5.0 0.0 5.0 
422.0005923698108 36.0 8.0 414.65137029955395 0.49808331117587085 5.0 0.0 5.0 
424.0005923698108 36.0 8.0 414.65137029955395 0.49808331117587085 5.0 0.0 5.0 
426.00008466603504 36.0 8.0 414.65137029955395 0.49808331117587085 5.0 0.0 5.0 
428.0005923698108 36.0 8.0 414.65137029955395 0.49808331117587085 5.0 0.0 5.0 
430.00033353340314 36.0 8.0 414.65137029955395 0.49808331117587085 5.0 0.0 5.0 
432.0005923698108 36.0 8.0 414.65137029955395 0.49808331117587085 5.0 0.0 5.0 
434.0005923698108 36.0 8.0 414.65137029955395 0.49808331117587085 5.0 0.0 5.0 
436.00008466603504 36.0 8.0 414.65137029955395 0.49808331117587085 5.0 0.0 5.0 
438.0005923698108 36.0 8.0 414.65137029955395 0.49808331117587085 5.0 0.0 5.0 
440.00033353340314 36.0 8.0 414.65137029955395 0.49808331117587085 5.0 0.0 5.0 
442.0005923698108 36.0 8.0 414.65137029955395 0.49808331117587085 5.0 0.0 5.0 
444.0005923698108 36.0 8.0 414.65137029955395 0.49808331117587085 5.0 0.0 5.0 
446.00008466603504 36.0 8.0 414.65137029955395 0.49808331117587085 5.0 0.0 5.0 
448.0005923698108 36.0 8.0 414.65137029955395 0.49808331117587085 5.0 0.0 5.0 
450.00033353340314 36.0 8.0 414.65137029955395 0.49808331117587085 5.0 0.0 5.0 
452.0005923698108 36.0 8.0 414.65137029955395 0.49808331117587085 5.0 0.0 5.0 
454.0005923698108 36.0 8.0 414.65137029955395 0.49808331117587085 5.0 0.0 5.0 
456.00008466603504 36.0 8.0 414.65137029955395 0.49808331117587085 5.0 0.0 5.0 
458.0005923698108 36.0 8.0 414.65137029955395 0.49808331117587085 5.0 0.0 5.0 
460.00033353340314 36.0 8.0 414.65137029955395 0.49808331117587085 5.0 0.0 5.0 
462.0005923698108 36.0 8.0 414.65137029955395 0.49808331117587085 5.0 0.0 5.0 
464.0005923698108 36.0 8.0 414.65137029955395 0.49808331117587085 5.0 0.0 5.0 
466.00008466603504 36.0 8.0 414.65137029955395 0.49808331117587085 5.0 0.0 5.0 
468.0005923698108 36.0 8.0 414.65137029955395 0.49808331117587085 5.0 0.0 5.0 
470.00033353340314 36.0 8.0 414.65137029955395 0.49808331117587085 5.0 0.0 5.0 
472.0005923698108 36.0 8.0 414.65137029955395 0.49808331117587085 5.0 0.0 5.0 
474.0005923698108 36.0 8.0 414.65137029955395 0.49808331117587085 5.0 0.0 5.0 
476.00008466603504 36.0 8.0 414.65137029955395 0.49808331117587085 5.0 0.0 5.0 
478.0005923698108 36.0 8.0 414.65137029955395 0.49808331117587085 5.0 0.0 5.0 
480.00033353340314 36.0 8.0 414.65137029955395 0.49808331117587085 5.0 0.0 5.0 
482.0005923698108 36.0 8.0 414.65137029955395 0.49808331117587085 5.0 0.0 5.0 
484.0005923698108 36.0 8.0 414.65137029955395 0.49808331117587085 5.0 0.0 5.0 
486.00008466603504 36.0 8.0 414.65137029955395 0.49808331117587085 5.0 0.0 5.0 
488.0005923698108 38.0 9.0 414.65137029955395 0.49834696226840186 5.0 0.0 5.0 
490.00033353340314 38.0 9.0 414.65137029955395 0.49834696226840186 5.0 0.0 5.0 
492.0005923698108 38.0 9.0 414.65137029955395 0.49834696226840186 5.0 0.0 5.0 
494.0005923698108 38.0 9.0 414.65137029955395 0.49834696226840186 5.0 0.0 5.0 
496.00008466603504 38.0 9.0 414.65137029955395 0.49834696226840186 5.0 0.0 5.0 
498.0005923698108 38.0 9.0 414.65137029955395 0.7126326765541161 5.0 0.0 5.0 
500.00033353340314 36.0 8.0 414.65137029955395 0.49808331117587085 5.0 0.0 5.0 
502.0005923698108 36.0 8.0 414.65137029955395 0.49808331117587085 5.0 0.0 5.0 
504.0005923698108 36.0 8.0 414.65137029955395 0.49808331117587085 5.0 0.0 5.0 
506.00008466603504 36.0 8.0 414.65137029955395 0.49808331117587085 5.0 0.0 5.0 
508.0005923698108 36.0 8.0 414.65137029955395 0.49808331117587085 5.0 0.0 5.0 
510.00033353340314 36.0 8.0 414.65137029955395 0.49808331117587085 5.0 0.0 5.0 
512.0005923698109 36.0 8.0 414.65137029955395 0.49808331117587085 5.0 0.0 5.0 
514.0005923698109 36.0 8.0 414.65137029955395 0.4980833111759182 5.0 0.0 5.0 
516.000084666035 38.0 9.0 414.65137029955395 0.49834696226845054 5.0 0.0 5.0 
518.0005923698109 38.0 9.0 414.65137029955395 0.49834696226845054 5.0 0.0 5.0 
520.0003335334031 38.0 9.0 414.65137029955395 0.49834696226845054 5.0 0.0 5.0 
522.0005923698109 38.0 9.0 414.65137029955395 0.49834696226845054 5.0 0.0 5.0 
524.0005923698109 38.0 9.0 414.65137029955395 0.49834696226845054 5.0 0.0 5.0 
526.000084666035 38.0 9.0 414.65137029955395 0.6412041051255934 5.0 0.0 5.0 
528.0005923698109 36.0 8.0 414.65137029955395 0.4980833111759182 5.0 0.0 5.0 
530.0003335334031 36.0 8.0 414.65137029955395 0.4980833111759182 5.0 0.0 5.0 
532.0005923698109 36.0 8.0 414.65137029955395 0.4980833111759182 5.0 0.0 5.0 
534.0005923698109 36.0 8.0 414.65137029955395 0.4980833111759182 5.0 0.0 5.0 
536.000084666035 36.0 8.0 414.65137029955395 0.4980833111759182 5.0 0.0 5.0 
538.0005923698109 36.0 8.0 414.65137029955395 0.4980833111759182 5.0 0.0 5.0 
540.0003335334031 36.0 8.0 414.65137029955395 0.4980833111759182 5.0 0.0 5.0 
542.0005923698109 36.0 8.0 414.65137029955395 0.4980833111759182 5.0 0.0 5.0 
544.0005923698109 36.0 8.0 414.65137029955395 0.4980833111759182 5.0 0.0 5.0 
546.000084666035 36.0 8.0 414.65137029955395 0.4980833111759182 5.0 0.0 5.0 
548.0005923698109 36.0 8.0 414.65137029955395 0.4980833111759182 5.0 0.0 5.0 
550.0003335334031 36.0 8.0 414.65137029955395 0.4980833111759182 5.0 0.0 5.0 
552.0005923698109 36.0 8.0 414.65137029955395 0.4980833111759182 5.0 0.0 5.0 
554.0005923698109 36.0 8.0 414.65137029955395 0.4980833111759182 5.0 0.0 5.0 
556.000084666035 36.0 8.0 414.65137029955395 0.4980833111759182 5.0 0.0 5.0 
558.0005923698109 36.0 8.0 414.65137029955395 0.4980833111759182 5.0 0.0 5.0 
560.0003335334031 36.0 8.0 414.65137029955395 0.4980833111759182 5.0 0.0 5.0 
562.0005923698109 36.0 8.0 414.65137029955395 0.4980833111759182 5.0 0.0 5.0 
564.0005923698109 36.0 8.0 414.65137029955395 0.4980833111759182 5.0 0.0 5.0 
566.000084666035 36.0 8.0 414.65137029955395 0.4980833111759182 5.0 0.0 5.0 
568.0005923698109 36.0 8.0 414.65137029955395 0.4980833111759182 5.0 0.0 5.0 
570.0003335334031 36.0 8.0 414.65137029955395 0.4980833111759182 5.0 0.0 5.0 
572.0005923698109 36.0 8.0 414.65137029955395 0.4980833111759182 5.0 0.0 5.0 
574.0005923698109 36.0 8.0 414.65137029955395 0.4980833111759182 5.0 0.0 5.0 
576.000084666035 36.0 8.0 414.65137029955395 0.4980833111759182 5.0 0.0 5.0 
578.0005923698109 36.0 8.0 414.65137029955395 0.4980833111759182 5.0 0.0 5.0 
580.0003335334031 36.0 8.0 414.65137029955395 0.4980833111759182 5.0 0.0 5.0 
582.0005923698109 36.0 8.0 414.65137029955395 0.4980833111759182 5.0 0.0 5.0 
584.0005923698109 36.0 8.0 414.65137029955395 0.4980833111759182 5.0 0.0 5.0 
586.000084666035 36.0 8.0 414.65137029955395 0.4980833111759182 5.0 0.0 5.0 
588.0005923698109 36.0 8.0 414.65137029955395 0.4980833111759182 5.0 0.0 5.0 
590.0003335334031 36.0 8.0 414.65137029955395 0.4980833111759182 5.0 0.0 5.0 
592.0005923698109 36.0 8.0 414.65137029955395 0.4980833111759182 5.0 0.0 5.0 
594.0005923698109 36.0 8.0 414.65137029955395 0.4980833111759182 5.0 0.0 5.0 
596.000084666035 36.0 8.0 414.65137029955395 0.4980833111759182 5.0 0.0 5.0 
598.0005923698109 36.0 8.0 414.65137029955395 0.4980833111759182 5.0 0.0 5.0 
600.0003335334031 36.0 8.0 414.65137029955395 0.4980833111759182 5.0 0.0 5.0 
602.0005923698109 36.0 8.0 414.65137029955395 0.4980833111759182 5.0 0.0 5.0 
604.0005923698109 36.0 8.0 414.65137029955395 0.4980833111759182 5.0 0.0 5.0 
606.000084666035 36.0 8.0 414.65137029955395 0.4980833111759182 5.0 0.0 5.0 
608.0005923698109 36.0 8.0 414.65137029955395 0.4980833111759182 5.0 0.0 5.0 
610.0003335334031 36.0 8.0 414.65137029955395 0.4980833111759182 5.0 0.0 5.0 
612.0005923698109 36.0 8.0 414.65137029955395 0.4980833111759182 5.0 0.0 5.0 
614.0005923698109 36.0 8.0 414.65137029955395 0.4980833111759182 5.0 0.0 5.0 
616.000084666035 36.0 8.0 414.65137029955395 0.4980833111759182 5.0 0.0 5.0 
618.0005923698109 36.0 8.0 414.65137029955395 0.4980833111759182 5.0 0.0 5.0 
620.0003335334031 36.0 8.0 414.65137029955395 0.4980833111759182 5.0 0.0 5.0 
622.0005923698109 36.0 8.0 414.65137029955395 0.4980833111759182 5.0 0.0 5.0 
624.0005923698109 36.0 8.0 414.65137029955395 0.4980833111759182 5.0 0.0 5.0 
626.000084666035 36.0 8.0 414.65137029955395 0.4980833111759182 5.0 0.0 5.0 
628.0005923698109 36.0 8.0 414.65137029955395 0.4980833111759182 5.0 0.0 5.0 
630.0003335334031 36.0 8.0 414.65137029955395 0.4980833111759182 5.0 0.0 5.0 
632.0005923698109 36.0 8.0 414.65137029955395 0.4980833111759182 5.0 0.0 5.0 
634.0005923698109 36.0 8.0 414.65137029955395 0.4980833111759182 5.0 0.0 5.0 
636.000084666035 36.0 8.0 414.65137029955395 0.4980833111759182 5.0 0.0 5.0 
638.0005923698109 36.0 8.0 414.65137029955395 0.4980833111759182 5.0 0.0 5.0 
640.0003335334031 36.0 8.0 414.65137029955395 0.4980833111759182 5.0 0.0 5.0 
642.0005923698109 36.0 8.0 414.65137029955395 0.4980833111759182 5.0 0.0 5.0 
644.0005923698109 38.0 9.0 414.65137029955395 0.49834696226845054 5.0 0.0 5.0 
646.000084666035 38.0 9.0 414.65137029955395 0.49834696226845054 5.0 0.0 5.0 
648.0005923698109 38.0 9.0 414.65137029955395 0.49834696226845054 5.0 0.0 5.0 
650.0003335334031 38.0 9.0 414.65137029955395 0.49834696226845054 5.0 0.0 5.0 
652.0005923698109 38.0 9.0 414.65137029955395 0.49834696226845054 5.0 0.0 5.0 
654.0005923698109 38.0 9.0 414.65137029955395 0.7126326765541648 5.0 0.0 5.0 
656.000084666035 36.0 8.0 414.65137029955395 0.4980833111759182 5.0 0.0 5.0 
658.0005923698109 36.0 8.0 414.65137029955395 0.4980833111759182 5.0 0.0 5.0 
660.0003335334031 36.0 8.0 414.65137029955395 0.4980833111759182 5.0 0.0 5.0 
662.0005923698109 36.0 8.0 414.65137029955395 0.4980833111759182 5.0 0.0 5.0 
664.0005923698109 36.0 8.0 414.65137029955395 0.4980833111759182 5.0 0.0 5.0 
#####################################################################
# End of data export. Simulation finished at: 2019-03-09T18:45+0000 #
#####################################################################
