#####################################################################
# Alchemist log file - simulation started at: 2019-03-06T20:44+0000 #
#####################################################################
# seed = 6.0, bandwidth = 1.0E8, accessPointCount = 72.92664737217109, baserange = 562.341325190349
#
# The columns have the following meaning: 
# time neighbor_count[Sum] <value>@neighbor_count[Sum] packet_size[Mean] mean_delay[Mean] crowd[Sum] overcrowded[Sum] risk[Sum] 
0.0 NaN NaN NaN NaN NaN NaN NaN 
2.0007439789255557 5831.0 872.0 4987.783301465902 0.4629011552869115 1497.0 0.0 1497.0 
4.000782458288336 12629.0 892.0 4989.539834289356 0.5085743463619182 1497.0 0.0 1497.0 
6.000390138288337 18234.0 902.0 4990.585086042065 0.5212885101045102 1497.0 0.0 1497.0 
8.000944778925556 21760.0 902.0 4991.270873167623 0.5388294489328646 1497.0 0.0 1497.0 
10.000947338925556 23773.0 900.0 4991.9158699808795 0.5413542910974771 1497.0 0.0 1497.0 
12.000947338925556 23539.0 881.0 4991.977055449331 0.5394819767593769 1496.0 1.0 1496.0 
14.000946058925557 22866.0 866.0 4991.900573613767 0.5033846055735179 1497.0 0.0 1497.0 
16.000951178925558 22866.0 866.0 4991.768005098789 0.5033845957538063 1497.0 0.0 1497.0 
18.000951178925558 22903.0 866.0 4991.8725302740595 0.5033508087440777 1497.0 0.0 1497.0 
20.000951178925558 22904.0 866.0 4991.961759082218 0.5034789699853383 1497.0 0.0 1497.0 
22.000944778925557 22904.0 866.0 4991.913320586361 0.5036393807079697 1497.0 0.0 1497.0 
24.000947338925556 22902.0 866.0 4991.905672402804 0.5034641103444314 1497.0 0.0 1497.0 
26.000947338925556 22920.0 867.0 4991.867431485022 0.5043112890090222 1497.0 0.0 1497.0 
28.000946058925557 22955.0 867.0 4991.887826641173 0.5035042309454992 1497.0 0.0 1497.0 
30.000951178925558 22954.0 867.0 4991.875079668579 0.5035657489227684 1497.0 0.0 1497.0 
32.000951178925554 22952.0 867.0 4991.80879541109 0.503635428391819 1496.0 1.0 1496.0 
34.00095117892556 22950.0 867.0 4991.839388145316 0.5034338538774944 1496.0 1.0 1496.0 
36.00094477892556 22952.0 868.0 4991.974506054812 0.5057241541454194 1497.0 0.0 1497.0 
38.00094733892556 22948.0 867.0 4992.058636073933 0.5054823569835328 1497.0 0.0 1497.0 
40.00094733892556 22943.0 867.0 4992.06373486297 0.503520048421425 1497.0 0.0 1497.0 
42.00094605892556 22941.0 867.0 4991.885277246654 0.5033876454729916 1496.0 1.0 1496.0 
44.00090105892556 22943.0 867.0 4991.8725302740595 0.503393262273349 1497.0 0.0 1497.0 
46.00090105892556 22946.0 867.0 4991.780752071383 0.5075340818171111 1497.0 0.0 1497.0 
48.00090105892556 22916.0 866.0 4991.89292543021 0.5096731723366873 1497.0 0.0 1497.0 
50.00089485892556 22907.0 864.0 4992.007648183557 0.5041434987381348 1497.0 0.0 1497.0 
52.00089733892556 23016.0 865.0 4992.015296367113 0.5031049504923447 1497.0 0.0 1497.0 
54.00089733892556 23020.0 865.0 4992.022944550669 0.5032088856281478 1496.0 1.0 1496.0 
56.00089609892556 23027.0 865.0 4991.903123008286 0.5062145989426253 1497.0 0.0 1497.0 
58.00090105892556 23020.0 864.0 4991.854684512428 0.5039177938570351 1497.0 0.0 1497.0 
60.00090105892556 23017.0 865.0 4991.95666029318 0.5043704051404218 1497.0 0.0 1497.0 
62.00117207714912 23058.0 865.0 1274.5391969407267 0.5028811008889912 565.0 0.0 298.0 
64.00117207714912 23029.0 864.0 1274.7660930529 0.505799653922032 469.0 1.0 297.0 
66.00117207714912 23069.0 865.0 1274.4270235819 0.502067729179447 440.0 5.0 293.0 
68.00117207714912 23112.0 865.0 1280.275334608032 0.5083942289278919 424.0 5.0 295.0 
70.00117207714912 22978.0 864.0 1280.2370936902482 0.5023758549611318 420.0 5.0 295.0 
72.00117207714912 22986.0 864.0 1280.198852772467 0.5025410725142051 412.0 8.0 292.0 
74.00117207714912 23004.0 865.0 1283.005736137667 0.5017309445338187 409.0 10.0 291.0 
76.00117207714912 23038.0 866.0 1285.9681325685156 0.5024283587626037 407.0 13.0 289.0 
78.00117207714912 23033.0 866.0 1285.942638623328 0.502314248125668 403.0 14.0 288.0 
80.00117207714912 23033.0 866.0 1285.9681325685156 0.5022708261045681 405.0 11.0 291.0 
82.00117207714912 23052.0 867.0 1286.0930528999365 0.5053487621351832 403.0 11.0 291.0 
84.00117207714912 23007.0 867.0 1288.9840662842578 0.5022165643931761 404.0 11.0 292.0 
86.00117207714912 23028.0 867.0 1288.9917144678138 0.507323979500277 403.0 11.0 292.0 
88.00117207714912 22968.0 866.0 1289.0401529636697 0.5050989780987162 401.0 11.0 292.0 
90.00117207714912 22901.0 866.0 1289.0197578075204 0.5025151268157089 403.0 11.0 292.0 
92.00117207714912 22904.0 866.0 1288.9611217335864 0.5026311268752447 403.0 11.0 292.0 
94.00117207714912 22903.0 866.0 1288.9585723390703 0.5023127502596322 403.0 11.0 292.0 
96.00117207714912 22924.0 867.0 1288.9177820267707 0.5046953009134126 403.0 11.0 292.0 
98.00117207714912 22915.0 866.0 1291.796048438495 0.5023875669391634 403.0 11.0 293.0 
100.00117207714912 22916.0 867.0 1291.793499043977 0.5035818420644036 401.0 12.0 292.0 
102.00117207714912 22904.0 866.0 1291.7705544933078 0.5045048981871585 402.0 11.0 293.0 
104.00117207714912 22890.0 866.0 1291.793499043977 0.5030899092354911 400.0 12.0 292.0 
106.00117207714912 22886.0 865.0 1288.8463989802435 0.5051515186081081 401.0 11.0 292.0 
108.00117207714912 22870.0 865.0 1291.859783301467 0.5072490238300504 401.0 12.0 292.0 
110.00117207714912 22872.0 864.0 1294.8272785213526 0.5065362440407806 403.0 11.0 294.0 
112.00117207714912 22903.0 864.0 1294.855321861056 0.5027625759015917 403.0 11.0 294.0 
114.00117207714912 22916.0 864.0 1294.7329509241565 0.501914298963593 404.0 11.0 294.0 
116.00117207714912 22983.0 865.0 1297.63416188655 0.5055165171804048 405.0 11.0 295.0 
118.00117207714912 22911.0 864.0 1297.697896749521 0.5021472547072551 405.0 11.0 295.0 
120.00117207714912 22911.0 864.0 1297.774378585086 0.5023247246405987 406.0 11.0 295.0 
122.00117207714912 22959.0 865.0 1297.82791586998 0.5016888675014979 408.0 11.0 295.0 
124.00117207714912 23027.0 865.0 1294.8170809432745 0.5020897315036258 408.0 11.0 294.0 
126.00117207714912 23038.0 865.0 1288.9866156787768 0.5036781018602041 407.0 11.0 292.0 
128.0011720771491 23034.0 865.0 1288.9126832377306 0.5020299379593436 406.0 11.0 292.0 
130.0011720771491 23036.0 865.0 1286.0420650095589 0.5020034358783958 402.0 11.0 291.0 
132.0011720771491 23044.0 865.0 1285.9655831739974 0.502495749800871 402.0 11.0 291.0 
134.0011720771491 23037.0 865.0 1285.9375398342881 0.5024334694818258 402.0 11.0 291.0 
136.0011720771491 23043.0 866.0 1282.9623964308485 0.5069521452213357 401.0 11.0 290.0 
138.0011720771491 22972.0 864.0 1280.0841300191184 0.5019503178346449 400.0 11.0 289.0 
140.0011720771491 22975.0 864.0 1280.0968769917145 0.5020006961960031 398.0 11.0 289.0 
142.0011720771491 22983.0 864.0 1283.1102613129383 0.5036425203174751 398.0 11.0 290.0 
144.0011720771491 22987.0 864.0 1286.0956022944554 0.5045913592134869 398.0 11.0 291.0 
146.0011720771491 23061.0 865.0 1291.928616953472 0.5022234703194899 399.0 11.0 293.0 
148.0011720771491 23104.0 865.0 1294.9496494582525 0.5022699530503816 402.0 11.0 294.0 
150.0011720771491 23099.0 865.0 1294.7966857871252 0.5022689180723976 402.0 11.0 294.0 
152.0011720771491 23100.0 865.0 1300.7061822817097 0.5023946842446829 403.0 11.0 296.0 
154.0011720771491 23098.0 865.0 1291.9286169534723 0.5022266263068373 404.0 11.0 293.0 
156.0011720771491 23111.0 865.0 1288.9866156787768 0.5019691427854686 404.0 11.0 292.0 
158.0011720771491 23170.0 866.0 1288.9789674952206 0.5028069707316505 404.0 11.0 292.0 
160.0011720771491 23190.0 867.0 1289.0274059910791 0.5023599564434159 401.0 11.0 292.0 
162.0011720771491 23188.0 867.0 1291.9745060548098 0.5044469489775527 401.0 11.0 293.0 
164.0011720771491 23145.0 867.0 1291.908221797323 0.502123716669921 401.0 11.0 293.0 
166.0011720771491 23269.0 868.0 1291.9056724028037 0.5020185264713865 401.0 11.0 293.0 
168.0011720771491 23269.0 868.0 1294.7711918419377 0.5030068399986724 402.0 11.0 294.0 
170.0011720771491 23236.0 868.0 1288.915232632249 0.5023829140947587 403.0 11.0 292.0 
172.0011720771491 23225.0 868.0 1291.8878266411723 0.5044255631415037 404.0 11.0 293.0 
174.0011720771491 23186.0 868.0 1288.922880815805 0.5024496026389786 402.0 11.0 292.0 
176.0011720771491 23188.0 868.0 1289.0044614404082 0.5035887130798835 402.0 11.0 292.0 
178.0011720771491 23170.0 868.0 1291.9898024219249 0.503347047607724 402.0 11.0 293.0 
180.0011720771491 23141.0 868.0 1292.0229445506684 0.5034199046728806 402.0 11.0 293.0 
182.0011720771491 23133.0 868.0 1292.0127469725937 0.5058473008726266 402.0 11.0 293.0 
184.0011720771491 23116.0 867.0 1291.9821542383686 0.5022411628163166 401.0 11.0 293.0 
186.0011720771491 23126.0 867.0 1286.0752071383058 0.503549033509889 402.0 11.0 291.0 
188.0011720771491 23111.0 868.0 1288.9840662842576 0.5091133111239122 401.0 11.0 292.0 
190.0011720771491 23016.0 866.0 1286.128744423199 0.5018819326870748 400.0 11.0 291.0 
192.0011720771491 23008.0 866.0 1286.0777565328244 0.5082926375722623 400.0 11.0 291.0 
194.0011720771491 22896.0 864.0 1289.0350541746354 0.5024536047697634 400.0 11.0 292.0 
196.0011720771491 22918.0 864.0 1288.9560229445522 0.5023320061153496 401.0 11.0 292.0 
198.0011720771491 22973.0 865.0 1288.9611217335864 0.5032091597482449 401.0 11.0 292.0 
200.0011720771491 22940.0 865.0 1288.933078393883 0.5020968956087152 401.0 11.0 292.0 
202.0011720771491 22940.0 866.0 1288.9662205226268 0.5022843499660126 403.0 11.0 292.0 
204.0011720771491 22931.0 866.0 1288.915232632249 0.5022141588539979 402.0 11.0 292.0 
206.0011720771491 22932.0 866.0 1283.1026131293825 0.5073557872705367 402.0 11.0 290.0 
208.0011720771491 22958.0 865.0 1283.0745697896732 0.5081978318217166 398.0 12.0 289.0 
210.0011720771491 22865.0 865.0 1283.1536010197565 0.5056310788379224 397.0 12.0 289.0 
212.0011720771491 22810.0 866.0 1283.0796685787134 0.5098353394643153 397.0 12.0 289.0 
214.0011720771491 22708.0 865.0 1283.077119184195 0.5047926578281643 397.0 12.0 289.0 
216.0011720771491 22630.0 864.0 1280.2014021669854 0.5039710129439956 398.0 12.0 288.0 
218.0011720771491 22565.0 863.0 1283.1255576800509 0.5168193806537668 395.0 12.0 289.0 
220.0011720771491 22365.0 860.0 1283.074569789673 0.5068507530238104 396.0 12.0 289.0 
222.0011720771491 22224.0 858.0 1277.1370299553878 0.504975043730712 395.0 12.0 287.0 
224.0011720771491 22149.0 858.0 1277.0350541746354 0.503499262730202 395.0 12.0 287.0 
226.0011720771491 22127.0 858.0 1285.9069471000632 0.5024320425749526 396.0 12.0 290.0 
228.0011720771491 22222.0 861.0 1288.8413001912058 0.5022788623246452 396.0 12.0 291.0 
230.0011720771491 22218.0 861.0 1288.9203314212866 0.5019017893823626 394.0 12.0 291.0 
232.0011720771491 22220.0 861.0 1288.9075844486927 0.5021729897696572 394.0 12.0 291.0 
234.0011720771491 22222.0 862.0 1288.915232632249 0.5034031329184692 395.0 12.0 291.0 
236.0011720771491 22276.0 862.0 1288.8642447418745 0.5078750702460308 395.0 12.0 291.0 
238.0011720771491 22271.0 861.0 1288.922880815805 0.5094199389485679 394.0 12.0 291.0 
240.0011720771491 22195.0 859.0 1285.876354365838 0.5023896020259723 393.0 12.0 290.0 
242.0011720771491 22194.0 859.0 1285.9145952836195 0.5023135994584417 393.0 12.0 290.0 
244.0011720771491 22222.0 861.0 1282.970044614405 0.5044166869534853 393.0 12.0 289.0 
246.0011720771491 22157.0 860.0 1280.1096239643084 0.5025003562712388 393.0 12.0 288.0 
248.0011720771491 22248.0 864.0 1280.0866794136402 0.504891363161368 394.0 12.0 288.0 
250.0011720771491 22181.0 863.0 1274.2715105162538 0.5023179960821659 392.0 12.0 286.0 
252.0011720771491 22188.0 863.0 1274.2001274697268 0.5058838472580763 391.0 12.0 286.0 
254.0011720771491 22110.0 862.0 1274.2460165710636 0.5087240111114958 392.0 12.0 286.0 
256.00117207714914 22090.0 863.0 1271.2504780114746 0.5060355866279104 392.0 12.0 285.0 
258.00117207714914 22096.0 862.0 1271.3320586360737 0.5057923759817777 394.0 12.0 285.0 
260.00117207714914 22188.0 863.0 1271.2479286169525 0.5037702418091383 393.0 12.0 285.0 
262.00117207714914 22176.0 863.0 1277.1803696622035 0.5027489878311364 393.0 12.0 287.0 
264.00117207714914 22166.0 864.0 1277.1191841937537 0.5032438389092478 394.0 12.0 287.0 
266.00117207714914 22183.0 865.0 1280.1198215423838 0.5046138509703266 393.0 12.0 288.0 
268.00117207714914 22191.0 866.0 1291.8572339069447 0.5037083356793413 393.0 12.0 292.0 
270.00117207714914 22184.0 865.0 1288.9075844486927 0.504516286231412 393.0 12.0 291.0 
272.00117207714914 22157.0 865.0 1288.984066284258 0.503227229313197 393.0 12.0 291.0 
274.00117207714914 22142.0 865.0 1288.9815168897392 0.5023757571646001 393.0 12.0 291.0 
276.00117207714914 22206.0 866.0 1288.9177820267712 0.5055902990676475 393.0 12.0 291.0 
278.00117207714914 22178.0 865.0 1294.6488209050356 0.5020922661627593 394.0 12.0 293.0 
280.00117207714914 22187.0 865.0 1294.6335245379232 0.5023909871813612 398.0 12.0 293.0 
282.00117207714914 22182.0 865.0 1297.5602294455068 0.5043089847839776 396.0 12.0 294.0 
284.00117207714914 22152.0 864.0 1297.606118546847 0.5080955285522236 395.0 12.0 294.0 
286.00117207714914 22217.0 865.0 1291.7501593371585 0.5080003912622536 394.0 12.0 292.0 
288.00117207714914 22092.0 863.0 1291.783301465902 0.5025520410968323 394.0 12.0 292.0 
290.00117207714914 22091.0 863.0 1291.8317399617608 0.5025014271090049 394.0 12.0 292.0 
292.00117207714914 22074.0 862.0 1291.8291905672418 0.5064133186684546 394.0 12.0 292.0 
294.00117207714914 22019.0 861.0 1288.879541108987 0.5112763791464227 394.0 12.0 291.0 
296.00117207714914 22073.0 862.0 1285.9936265137028 0.5051424289487526 394.0 12.0 290.0 
298.00117207714914 22047.0 861.0 1291.7603569152332 0.5027264864541964 392.0 12.0 292.0 
300.00117207714914 22030.0 861.0 1294.781389420013 0.5023590681803914 391.0 12.0 293.0 
302.00117207714914 22006.0 861.0 1294.7635436583816 0.5076542119206316 391.0 12.0 293.0 
304.00117207714914 21954.0 861.0 1285.9604843849597 0.5035179672430135 391.0 12.0 290.0 
306.00117207714914 21969.0 861.0 1288.8948374760996 0.5065502835022075 389.0 12.0 291.0 
308.00117207714914 21867.0 859.0 1300.7189292543007 0.5050214127764024 389.0 12.0 295.0 
310.00117207714914 21861.0 859.0 1300.6271510516267 0.5015320695522907 389.0 12.0 295.0 
312.00117207714914 21880.0 860.0 1300.6195028680702 0.5022635787704299 389.0 12.0 295.0 
314.00117207714914 21875.0 860.0 1297.6290630975157 0.5030934888743462 388.0 12.0 294.0 
316.00117207714914 21886.0 861.0 1294.7304015296352 0.508571281217518 389.0 12.0 293.0 
318.00117207714914 21791.0 859.0 1291.7476099426362 0.5058524251522211 386.0 12.0 292.0 
320.00117207714914 21717.0 858.0 1291.8266411727204 0.501820868700837 387.0 12.0 292.0 
322.00117207714914 21719.0 858.0 1294.6845124282977 0.5052281695925401 387.0 12.0 293.0 
324.00117207714914 21686.0 857.0 1291.920968769916 0.5021875656455411 387.0 12.0 292.0 
326.00117207714914 21687.0 857.0 1291.847036328873 0.5030692720508373 387.0 12.0 292.0 
328.00117207714914 21694.0 858.0 1291.9745060548098 0.5068420344791071 386.0 12.0 292.0 
330.00117207714914 21650.0 857.0 1288.874442319949 0.5022925362996078 388.0 12.0 291.0 
332.00117207714914 21647.0 857.0 1285.9298916507319 0.5029374995198347 389.0 12.0 290.0 
334.00117207714914 21675.0 858.0 1285.845761631611 0.5058160166131896 390.0 12.0 290.0 
336.00117207714914 21616.0 856.0 1277.12683237731 0.5064943490628535 390.0 12.0 287.0 
338.00117207714914 21664.0 856.0 1282.9521988527736 0.5110710224092678 391.0 12.0 289.0 
340.00117207714914 21522.0 854.0 1277.1829190567253 0.5033567222877626 391.0 11.0 288.0 
342.00117207714914 21510.0 854.0 1274.195028680689 0.5120875255727152 388.0 12.0 286.0 
344.00117207714914 21398.0 852.0 1271.3244104525174 0.501931471686163 388.0 11.0 286.0 
346.00117207714914 21408.0 852.0 1271.2836201402174 0.5022838033500236 388.0 12.0 285.0 
348.00117207714914 21520.0 854.0 1274.1669853409805 0.5024252230351287 393.0 11.0 287.0 
350.00117207714914 21520.0 854.0 1274.1848311026142 0.5053389739356922 391.0 12.0 286.0 
352.00117207714914 21541.0 855.0 1274.1975780752073 0.5054839119400588 391.0 11.0 287.0 
354.00117207714914 21487.0 854.0 1274.1134480560868 0.5018780022548869 389.0 12.0 286.0 
356.00117207714914 21495.0 854.0 1274.1848311026142 0.5058173572237018 390.0 11.0 287.0 
358.00117207714914 21447.0 853.0 1274.1032504780114 0.5072335249875132 391.0 12.0 286.0 
360.00117207714914 21399.0 852.0 1277.1319311663478 0.5054782229768584 392.0 11.0 288.0 
362.00117207714914 21489.0 852.0 1274.2052262587638 0.5027551871121477 393.0 12.0 286.0 
364.00117207714914 21496.0 853.0 1274.2409177820264 0.5016768161399772 394.0 11.0 287.0 
366.00117207714914 21595.0 854.0 1265.3690248565956 0.5031945536044271 393.0 12.0 283.0 
368.00117207714914 21591.0 854.0 1265.328234544296 0.5102645683574232 393.0 11.0 284.0 
370.00117207714914 21558.0 852.0 1262.2638623326973 0.5042917931697665 393.0 12.0 282.0 
372.00117207714914 21547.0 851.0 1262.406628425749 0.5019862163703258 394.0 11.0 283.0 
374.00117207714914 21555.0 852.0 1262.3556405353722 0.5017736252661428 394.0 12.0 282.0 
376.00117207714914 21633.0 853.0 1256.5251752708741 0.5057488130308104 395.0 11.0 281.0 
378.00117207714914 21587.0 852.0 1256.474187380497 0.50364311837756 397.0 11.0 281.0 
380.00117207714914 21566.0 852.0 1256.5889101338448 0.5019800242568071 397.0 11.0 281.0 
382.00117207714914 21660.0 853.0 1262.4448693435309 0.5019461434541371 398.0 11.0 283.0 
384.00117207714914 21666.0 853.0 1268.257488846398 0.5015520914367018 398.0 12.0 284.0 
386.00117207714914 21681.0 854.0 1265.2619502868083 0.503162796453354 394.0 13.0 282.0 
388.00117207714914 21679.0 854.0 1268.2345442957294 0.5066571632769575 398.0 9.0 287.0 
390.00117207714914 21648.0 853.0 1265.3001912045897 0.5029306902957158 402.0 6.0 289.0 
392.00117207714914 21630.0 853.0 1262.4601657106434 0.5036040785692133 399.0 6.0 288.0 
394.00117207714914 21619.0 854.0 1259.5207138304636 0.5019106863401283 399.0 6.0 287.0 
396.00117207714914 21619.0 853.0 1250.7253027406 0.5097197490680723 399.0 6.0 284.0 
398.00117207714914 21573.0 852.0 1247.7501593371583 0.5066810782654612 399.0 6.0 283.0 
400.00117207714914 21557.0 851.0 1250.6309751434044 0.5017317929528718 399.0 6.0 284.0 
402.00117207714914 21550.0 852.0 1253.5627788400252 0.5041270516698767 398.0 6.0 285.0 
404.00117207714914 21540.0 852.0 1256.4996813256842 0.5052483581863858 398.0 6.0 286.0 
406.00117207714914 21589.0 852.0 1256.5940089228798 0.5060833880661622 398.0 6.0 286.0 
408.00117207714914 21515.0 852.0 1250.7202039515626 0.5088834404485996 398.0 6.0 284.0 
410.00117207714914 21413.0 851.0 1253.649458253665 0.501411666880569 399.0 6.0 285.0 
412.00117207714914 21412.0 852.0 1262.579987253027 0.5027734966807922 398.0 6.0 288.0 
414.00117207714914 21402.0 852.0 1268.2676864244756 0.5015505640894637 400.0 7.0 289.0 
416.00117207714914 21459.0 854.0 1259.5818992989161 0.5101614339470341 396.0 10.0 283.0 
418.00117207714914 21412.0 851.0 1259.4824729126822 0.5097854907951613 396.0 10.0 283.0 
420.00117207714914 21333.0 850.0 1253.6392606755899 0.5017449197315049 393.0 10.0 281.0 
422.00117207714914 21337.0 850.0 1247.762906309752 0.5017149238484588 396.0 10.0 279.0 
424.00117207714914 21353.0 851.0 1247.8776290630972 0.501471041618016 395.0 10.0 279.0 
426.00117207714914 21418.0 852.0 1247.7985978330137 0.5044939490547035 394.0 10.0 279.0 
428.00117207714914 21420.0 851.0 1244.9177820267705 0.5021151091512803 391.0 10.0 278.0 
430.00117207714914 21411.0 851.0 1244.87444231995 0.5066003749401152 391.0 10.0 278.0 
432.00117207714914 21324.0 850.0 1241.952836201402 0.502410314038709 391.0 10.0 277.0 
434.00117207714914 21322.0 850.0 1244.8693435309121 0.501266627605236 392.0 10.0 278.0 
436.00117207714914 21347.0 850.0 1259.4875717017198 0.5039397913137263 397.0 10.0 283.0 
438.00117207714914 21358.0 850.0 1265.366475462077 0.5014436758133157 399.0 10.0 285.0 
440.00117207714914 21368.0 851.0 1265.284894837477 0.5023185758107178 401.0 10.0 285.0 
442.00117207714914 21319.0 850.0 1265.34098151689 0.5086449401201737 401.0 10.0 285.0 
444.00117207714914 21255.0 849.0 1268.3314212874448 0.5024595493386769 400.0 10.0 286.0 
446.00117207714914 21263.0 849.0 1277.0783938814516 0.503344311721013 403.0 10.0 289.0 
448.00117207714914 21260.0 849.0 1280.0764818355624 0.5057034657844179 403.0 10.0 290.0 
450.00117207714914 21274.0 848.0 1274.1746335245368 0.5007901584756466 402.0 10.0 288.0 
452.00117207714914 21281.0 849.0 1277.0732950924166 0.5021271444259021 402.0 10.0 289.0 
454.00117207714914 21268.0 849.0 1277.0809432759727 0.5015963853652243 402.0 10.0 289.0 
456.0009946989255 21270.0 849.0 1282.9267049075834 0.5018195073268145 401.0 10.0 291.0 
458.0009973389255 21359.0 850.0 1282.9165073295085 0.5018013615529897 401.0 11.0 290.0 
460.0009973389255 21362.0 850.0 1280.0433397068184 0.5012368356803628 400.0 11.0 289.0 
462.0009973389255 21370.0 851.0 1280.0688336520063 0.5042615202366548 400.0 11.0 289.0 
464.00099601892555 21336.0 850.0 1280.0892288081589 0.50505939665424 400.0 11.0 289.0 
466.00100261892555 21313.0 849.0 1274.2281708094322 0.5032199621850503 398.0 11.0 287.0 
468.0009973389255 21305.0 849.0 1274.1720841300203 0.5099100101481103 396.0 11.0 287.0 
470.0009973389255 21285.0 848.0 1268.280433397067 0.5059880072287503 397.0 11.0 285.0 
472.0009973389255 21298.0 848.0 1271.212237093691 0.5062655510466673 397.0 11.0 286.0 
474.0009973389255 21239.0 846.0 1268.224346717654 0.5043822865974877 394.0 11.0 285.0 
476.00100261892555 21251.0 848.0 1265.3894200127486 0.5042072825221806 397.0 7.0 288.0 
478.00100261892555 21242.0 847.0 1265.3052899936247 0.5013449493315669 398.0 6.0 289.0 
480.0010039389255 21243.0 847.0 1262.4372211599753 0.50301639252475 394.0 9.0 285.0 
482.00100261892555 21223.0 848.0 1265.374123645633 0.5121389024300474 396.0 7.0 288.0 
484.00100261892555 21166.0 846.0 1259.5920968769908 0.5043605457089405 393.0 9.0 284.0 
486.00100261892555 21152.0 845.0 1253.590822179734 0.501689893086537 396.0 5.0 286.0 
488.0009999789255 21167.0 845.0 1253.6851497769278 0.5064502098487244 394.0 6.0 285.0 
490.0009999789255 21110.0 844.0 1247.7374123645639 0.5014340088362567 393.0 5.0 284.0 
492.0010039389255 21110.0 844.0 1244.8616953473559 0.5023052439443527 389.0 5.0 283.0 
494.00100261892555 21095.0 844.0 1235.9821542383693 0.5021097624933393 390.0 5.0 280.0 
496.0009999789255 21111.0 844.0 1236.1555130656461 0.5025623350769102 387.0 5.0 280.0 
498.0009973389255 21265.0 847.0 1233.0783938814516 0.5031462306969814 385.0 6.0 278.0 
500.0009973389255 21325.0 847.0 1233.2772466539209 0.5021392480982959 387.0 6.0 278.0 
502.0009973389255 21361.0 848.0 1238.9929891650731 0.5023672597661921 389.0 6.0 280.0 
504.0009973389255 21421.0 851.0 1233.210962396431 0.5039185940868098 385.0 9.0 275.0 
506.0009973389255 21447.0 849.0 1233.1854684512432 0.5036862789305073 388.0 6.0 278.0 
508.0009973389255 21438.0 849.0 1233.1727214786479 0.5031012218182681 387.0 8.0 276.0 
510.0009973389255 21437.0 850.0 1221.4072657743773 0.504010165301652 383.0 6.0 274.0 
512.0009973389256 21453.0 850.0 1218.4856596558313 0.5017452396545522 385.0 6.0 273.0 
514.0009973389256 21454.0 850.0 1212.5685149776934 0.5021547195836331 383.0 6.0 271.0 
516.0009973389256 21453.0 850.0 1203.8725302740613 0.5028057288779596 383.0 6.0 268.0 
518.0009973389256 21450.0 850.0 1203.8266411727207 0.5023238494700587 381.0 6.0 268.0 
520.0009973389256 21448.0 850.0 1206.8221797323135 0.5035549003271195 381.0 7.0 268.0 
522.0009973389256 21468.0 851.0 1206.7431485022303 0.5051734449928854 382.0 6.0 269.0 
524.0010039389256 21380.0 850.0 1197.9910771191837 0.5018455845567313 385.0 6.0 266.0 
526.0009933789255 21380.0 850.0 1192.1121733588263 0.5061740454920806 381.0 6.0 264.0 
528.0009933789255 21325.0 848.0 1194.9878903760368 0.5042502465098868 383.0 5.0 266.0 
530.0009933789255 21325.0 848.0 1189.0630975143388 0.5069986871982176 384.0 5.0 264.0 
532.0009933789255 21323.0 846.0 1189.1676226896125 0.5083713915075769 383.0 6.0 263.0 
534.0009933789255 21311.0 846.0 1192.0254939451902 0.5014074255672145 380.0 6.0 264.0 
536.0009933789255 21422.0 848.0 1189.3078393881462 0.5015498540851485 381.0 5.0 264.0 
538.0009933789255 21429.0 849.0 1192.1708094327582 0.5031394333616825 383.0 6.0 264.0 
540.0009434989255 21425.0 849.0 1192.3441682600378 0.5091514066359466 384.0 6.0 264.0 
542.0009434989255 21340.0 848.0 1189.267049075843 0.502513277159525 384.0 6.0 263.0 
544.0009933789255 21401.0 850.0 1189.218610579989 0.5037245542316682 384.0 6.0 263.0 
546.0010026189256 21404.0 849.0 1186.1669853409796 0.5096931745831602 386.0 5.0 263.0 
548.0009960189255 21267.0 848.0 1192.0968769917129 0.5035884958649175 386.0 5.0 265.0 
550.0010026189256 21260.0 849.0 1192.0637348629714 0.5058834739829653 386.0 5.0 265.0 
552.0009960189255 21266.0 850.0 1192.1963033779487 0.5010525059742185 386.0 5.0 265.0 
554.0010026189256 21281.0 850.0 1192.122370936904 0.5018799597113843 386.0 5.0 265.0 
556.0009960189255 21346.0 852.0 1189.3052899936238 0.5035912218343219 385.0 5.0 264.0 
558.0010026189256 21400.0 853.0 1189.2594008922867 0.5042282257214216 386.0 5.0 264.0 
560.0009960189255 21442.0 852.0 1186.393881453153 0.5016450880163009 386.0 5.0 263.0 
562.0010026189256 21557.0 854.0 1192.221797323134 0.5020104332746546 385.0 5.0 265.0 
564.0009960189255 21563.0 854.0 1192.2370936902464 0.5031782351838553 384.0 5.0 265.0 
566.0010026189256 21574.0 854.0 1192.1325685149768 0.5018453047131267 385.0 5.0 265.0 
568.0009960189255 21579.0 854.0 1201.0172084130013 0.5035916684680508 384.0 5.0 268.0 
570.0010026189256 21547.0 853.0 1203.8852772466525 0.5088537573213356 388.0 5.0 269.0 
572.0009960189255 21510.0 852.0 1203.9745060548094 0.5036552874664152 389.0 5.0 269.0 
574.0010026189256 21529.0 853.0 1209.8585086042056 0.5044587572170853 389.0 5.0 271.0 
576.0009960189255 21503.0 853.0 1212.693435309115 0.5027486439935679 391.0 5.0 272.0 
578.0010026189256 21505.0 854.0 1209.7514340344148 0.5026438226573483 388.0 6.0 270.0 
580.0009960189255 21492.0 854.0 1209.6927979604864 0.5019817468897501 388.0 6.0 270.0 
582.0010026189256 21536.0 856.0 1209.6316124920324 0.506877176619207 388.0 6.0 270.0 
584.0009960189255 21546.0 855.0 1209.7029955385603 0.5082298700113997 388.0 6.0 270.0 
586.0010026189256 21452.0 853.0 1215.551306564692 0.5046728266072008 386.0 6.0 272.0 
588.0009960189255 21465.0 853.0 1218.564690885915 0.5082571471532894 385.0 6.0 273.0 
590.0010026189256 21538.0 853.0 1218.495857233906 0.5046503137769546 385.0 7.0 272.0 
592.0009960189255 21617.0 854.0 1221.4200127469717 0.5064442200633181 385.0 7.0 273.0 
594.0010026189256 21589.0 852.0 1215.518164435946 0.5028149736151452 385.0 6.0 272.0 
596.0009960189255 21579.0 852.0 1215.551306564692 0.5050390981363437 385.0 6.0 272.0 
598.0010026189256 21561.0 853.0 1212.5328234544304 0.5076114504686252 384.0 6.0 271.0 
600.0009960189255 21523.0 852.0 1212.6577437858514 0.5043443044412674 379.0 6.0 271.0 
602.0010026189256 21516.0 852.0 1209.6545570427008 0.504133117115837 379.0 6.0 270.0 
604.0009960189255 21506.0 851.0 1209.7667304015313 0.5051613162977788 381.0 6.0 270.0 
606.0010026189256 21472.0 852.0 1206.7966857871238 0.5079883677508551 381.0 6.0 269.0 
608.0009960189255 21444.0 850.0 1212.7061822817097 0.5046412203818411 379.0 6.0 271.0 
610.0010026189256 21453.0 851.0 1212.588910133845 0.5027893903276834 381.0 5.0 272.0 
612.0009960189255 21548.0 851.0 1212.5583173996165 0.5062560885529905 382.0 5.0 272.0 
614.0010026189256 21512.0 851.0 1212.458891013386 0.5020056079137989 381.0 6.0 271.0 
616.0009960189255 21534.0 852.0 1206.7355003186738 0.5048110523353654 379.0 6.0 269.0 
618.0010026189256 21528.0 851.0 1215.4875717017212 0.5096100937144248 380.0 5.0 273.0 
620.0010459789255 21413.0 850.0 1215.5742511153614 0.5028299623493738 378.0 6.0 272.0 
622.0010527789256 21448.0 851.0 1218.5519439133209 0.5045223101393008 378.0 6.0 273.0 
624.0010459789255 21418.0 850.0 1218.4652644996804 0.504970853472589 379.0 6.0 273.0 
626.0010527789256 21511.0 851.0 1221.4047163798593 0.5039919845092482 377.0 7.0 273.0 
628.0010459789255 21545.0 853.0 1224.38495857234 0.5056278622469645 377.0 6.0 275.0 
630.0010527789256 21545.0 850.0 1224.4333970681957 0.509434362967686 377.0 5.0 276.0 
632.0010459789255 21477.0 850.0 1227.4620777565315 0.5046316825830575 376.0 5.0 277.0 
634.0010527789256 21610.0 852.0 1227.4340344168272 0.5060442083357303 376.0 5.0 277.0 
636.0010459789255 21674.0 852.0 1224.484384958571 0.5030857612329812 377.0 5.0 276.0 
638.0010527789256 21667.0 852.0 1227.3652007648175 0.5054698439376138 379.0 5.0 277.0 
640.0010459789255 21571.0 852.0 1227.3065646908856 0.5023862332362722 376.0 6.0 276.0 
642.0010527789256 21589.0 853.0 1224.3798597833015 0.5078750598424405 377.0 6.0 275.0 
644.0010459789255 21572.0 852.0 1221.583173996178 0.5029419894792896 376.0 6.0 274.0 
646.0010527789256 21567.0 852.0 1224.4130019120441 0.5058841543572674 374.0 6.0 275.0 
648.0010459789255 21539.0 852.0 1224.5073295092404 0.5032014326459477 375.0 5.0 276.0 
650.0010527789256 21528.0 852.0 1221.5500318674317 0.5030710546059285 375.0 5.0 275.0 
652.0010459789255 21521.0 852.0 1218.6207775653268 0.5039770142748582 374.0 5.0 274.0 
654.0010527789256 21524.0 853.0 1215.6430847673669 0.5044586090318464 373.0 5.0 273.0 
656.0010459789255 21518.0 853.0 1221.560229445506 0.5027197235881745 374.0 5.0 275.0 
658.0010527789256 21549.0 854.0 1224.466539196941 0.506975891806942 375.0 5.0 276.0 
660.0010459789255 21425.0 852.0 1224.4537922243462 0.5115478656616407 373.0 5.0 276.0 
662.0010527789256 21330.0 851.0 1224.476736775015 0.5042722016929891 372.0 5.0 276.0 
664.0010459789255 21315.0 851.0 1224.5149776927963 0.5026118564430982 372.0 5.0 276.0 
#####################################################################
# End of data export. Simulation finished at: 2019-03-06T20:53+0000 #
#####################################################################
