#####################################################################
# Alchemist log file - simulation started at: 2019-03-10T07:39+0000 #
#####################################################################
# seed = 3.0, bandwidth = 1.0E8, accessPointCount = 2000.0, baserange = 100.0
#
# The columns have the following meaning: 
# time neighbor_count[Sum] <value>@neighbor_count[Sum] packet_size[Mean] mean_delay[Mean] crowd[Sum] overcrowded[Sum] risk[Sum] 
0.0 NaN NaN NaN NaN NaN NaN NaN 
2.00001362055676 3483.0 2348.0 4978.94309408064 0.5018904156040478 1497.0 0.0 1497.0 
4.00001362055676 4042.0 2388.0 4982.227051758649 0.5264601628545378 1497.0 0.0 1497.0 
6.00001362055676 4633.0 2390.0 4979.963397197597 0.5233681365592744 1497.0 0.0 1497.0 
8.00001362055676 5064.0 2377.0 4982.521018015441 0.5252561374021255 1495.0 2.0 1495.0 
10.00001362055676 5328.0 2381.0 4980.910494709751 0.5283813951077991 1490.0 7.0 1490.0 
12.00001362055676 5304.0 2355.0 4982.108092650844 0.5182065504815914 1489.0 8.0 1489.0 
14.00001362055676 5224.0 2336.0 4980.668001143838 0.4995532653713903 1489.0 8.0 1489.0 
16.00001362055676 5224.0 2336.0 4981.713468687447 0.4995532132663106 1484.0 13.0 1484.0 
18.00001362055676 5224.0 2336.0 4980.060623391478 0.49955333233186466 1487.0 10.0 1487.0 
20.00001362055676 5238.0 2337.0 4981.617386331141 0.5025330270995079 1486.0 11.0 1486.0 
22.00001362055676 5226.0 2335.0 4980.042321990278 0.4995652781524849 1486.0 11.0 1486.0 
24.00001362055676 5226.0 2335.0 4981.445810694881 0.4995652085534659 1487.0 10.0 1487.0 
26.00001362055676 5227.0 2335.0 4980.014869888475 0.5006998876668926 1485.0 12.0 1485.0 
28.00001362055676 5226.0 2335.0 4981.2525021446945 0.4996534403119901 1486.0 11.0 1486.0 
30.00001362055676 5225.0 2335.0 4979.9153560194445 0.4997749861668768 1485.0 12.0 1485.0 
32.00001362055676 5223.0 2335.0 4981.305118673148 0.499688535341274 1485.0 12.0 1485.0 
34.00001362055676 5224.0 2335.0 4979.829568201316 0.5007813835223883 1486.0 11.0 1486.0 
36.00001362055676 5248.0 2336.0 4981.362310551902 0.5001870937138154 1485.0 12.0 1485.0 
38.00001362055676 5250.0 2337.0 4980.021732913926 0.4998477279070935 1485.0 12.0 1485.0 
40.00001362055676 5251.0 2338.0 4981.2319130683445 0.5001829393174083 1486.0 11.0 1486.0 
42.00001362055676 5238.0 2337.0 4979.987417786675 0.5012683840099141 1485.0 12.0 1485.0 
44.00001362055676 5238.0 2338.0 4981.258221332571 0.50101360517479 1485.0 12.0 1485.0 
46.00001362055676 5276.0 2338.0 4979.842150414642 0.500281286956921 1486.0 11.0 1486.0 
48.00001362055676 5291.0 2339.0 4981.382899628253 0.5015653964332716 1484.0 13.0 1484.0 
50.00001362055676 5289.0 2338.0 4979.886760080068 0.5043923027996664 1487.0 10.0 1487.0 
52.00001362055676 5271.0 2337.0 4981.306262510723 0.502565694902744 1485.0 12.0 1485.0 
54.00001362055676 5286.0 2337.0 4979.939376608522 0.49970507141835935 1484.0 13.0 1484.0 
56.00001362055676 5286.0 2336.0 4981.24907063197 0.501154207698903 1485.0 12.0 1485.0 
58.00001362055676 5284.0 2337.0 4979.9050614812695 0.5010049466923278 1485.0 12.0 1485.0 
60.00001362055676 5291.0 2339.0 4981.2502144695445 0.5023812562663845 1486.0 11.0 1486.0 
62.00001362055676 5306.0 2340.0 751.3560194452457 0.5017872612564367 608.0 19.0 248.0 
64.00001362055676 5296.0 2339.0 751.2210466113701 0.5000375920940433 457.0 17.0 250.0 
66.00001362055676 5302.0 2340.0 749.9342293394286 0.5003349087514638 403.0 17.0 249.0 
68.00001362055676 5307.0 2341.0 749.902201887328 0.5055139829204045 366.0 17.0 249.0 
70.00001362055676 5318.0 2339.0 749.8907635115905 0.5007748982216174 354.0 17.0 249.0 
72.00001362055676 5365.0 2341.0 742.0360308836043 0.5023065225181109 349.0 17.0 243.0 
74.00001362055676 5374.0 2341.0 740.6897340577691 0.4999517700508213 340.0 17.0 242.0 
76.00001362055676 5378.0 2343.0 740.6817271947427 0.5024047660635457 332.0 17.0 242.0 
78.00001362055676 5350.0 2341.0 741.977695167278 0.5022193619383261 325.0 18.0 242.0 
80.00001362055676 5350.0 2340.0 740.67600800686 0.5000675756093925 326.0 17.0 242.0 
82.00001362055676 5355.0 2341.0 740.6588504432389 0.5021117124328213 325.0 18.0 241.0 
84.00001362055676 5339.0 2340.0 740.6805833571722 0.5024804031890907 323.0 17.0 242.0 
86.00001362055676 5349.0 2342.0 742.0017157563569 0.5006946620768046 321.0 18.0 242.0 
88.00001362055676 5352.0 2341.0 743.3194166428274 0.5047816280518551 320.0 19.0 242.0 
90.00001362055676 5363.0 2341.0 743.2965398913487 0.5005294086041401 324.0 18.0 243.0 
92.00001362055676 5355.0 2341.0 743.3136974549483 0.5012605782809773 323.0 19.0 242.0 
94.00001362055676 5369.0 2341.0 743.3159851301101 0.49955696007466216 325.0 18.0 243.0 
96.00001362055676 5376.0 2345.0 743.277094652559 0.50151870609704 325.0 18.0 243.0 
98.00001362055676 5383.0 2344.0 743.2908207034603 0.5031599560759725 324.0 18.0 243.0 
100.00001362055676 5377.0 2343.0 741.9662567915426 0.5007504713636312 324.0 17.0 243.0 
102.00001362055676 5373.0 2344.0 741.9811266799954 0.5014151455942271 320.0 21.0 239.0 
104.00001362055676 5368.0 2343.0 743.3091221046591 0.49973840825410987 323.0 18.0 243.0 
106.00001362055676 5379.0 2345.0 743.263368601648 0.5005624467459339 324.0 17.0 244.0 
108.00001362055676 5384.0 2344.0 744.6062339147934 0.5030949751137066 321.0 22.0 240.0 
110.00001362055676 5397.0 2345.0 744.6394052044701 0.5013368387412791 325.0 18.0 244.0 
112.00001362055676 5375.0 2344.0 743.2919645410323 0.5006060771911702 326.0 17.0 244.0 
114.00001362055676 5371.0 2343.0 741.9845581927335 0.4991604157446076 322.0 20.0 240.0 
116.00001362055676 5379.0 2345.0 743.2633686016482 0.5029627399982396 323.0 21.0 240.0 
118.00001362055676 5392.0 2344.0 745.9388046897468 0.502422970048437 326.0 21.0 242.0 
120.00001362055676 5385.0 2344.0 745.9319416642668 0.5018822708795436 328.0 20.0 243.0 
122.00001362055676 5373.0 2344.0 747.2382041749984 0.5013210054868042 327.0 20.0 244.0 
124.00001362055676 5367.0 2344.0 748.5936517014541 0.501824378267011 329.0 18.0 247.0 
126.00001362055676 5356.0 2343.0 748.5684872748045 0.5012914071085306 329.0 17.0 248.0 
128.00001362055676 5356.0 2343.0 748.5639119245167 0.5054989928375521 329.0 17.0 248.0 
130.00001362055676 5341.0 2340.0 748.5307406348148 0.5022188031612131 330.0 16.0 249.0 
132.00001362055676 5328.0 2341.0 748.5570488990658 0.5033680487261004 330.0 16.0 249.0 
134.00001362055676 5325.0 2340.0 748.5090077209089 0.49999504715322923 330.0 16.0 249.0 
136.00001362055676 5353.0 2343.0 752.4815556191173 0.5016182296300408 331.0 16.0 252.0 
138.00001362055676 5367.0 2342.0 753.7615098655931 0.500376612060707 332.0 16.0 253.0 
140.00001362055676 5375.0 2344.0 756.4529596797194 0.5002006346418877 333.0 16.0 255.0 
142.00001362055676 5376.0 2346.0 757.7649413783101 0.5044506031246171 333.0 16.0 256.0 
144.00001362055676 5356.0 2342.0 759.1318272805363 0.4991735758574635 333.0 16.0 257.0 
146.00001362055676 5411.0 2345.0 759.0826422648081 0.5011415079888623 334.0 17.0 256.0 
148.00001362055676 5431.0 2345.0 763.0460394623877 0.5008221155003552 331.0 21.0 255.0 
150.00001362055676 5418.0 2345.0 764.358021160979 0.5045726434821751 328.0 26.0 251.0 
152.00001362055676 5397.0 2345.0 763.078066914504 0.5022438594057339 331.0 23.0 253.0 
154.00001362055676 5381.0 2344.0 763.0220188733135 0.500074151443106 328.0 26.0 250.0 
156.00001362055676 5398.0 2345.0 763.0746354017866 0.5013777558131901 328.0 25.0 251.0 
158.00001362055676 5410.0 2347.0 765.6688590220274 0.5006359329586164 332.0 20.0 258.0 
160.00001362055676 5435.0 2349.0 765.6860165856433 0.4996429921839247 332.0 21.0 257.0 
162.00001362055676 5450.0 2349.0 765.6482699456852 0.5022229927602588 327.0 27.0 251.0 
164.00001362055676 5439.0 2347.0 765.6539891335445 0.4996652434829116 334.0 20.0 258.0 
166.00001362055676 5446.0 2348.0 766.9613954818467 0.5005979641673257 333.0 20.0 259.0 
168.00001362055676 5443.0 2348.0 767.0185873605952 0.5027941451194922 332.0 20.0 259.0 
170.00001362055676 5421.0 2345.0 766.9694023448671 0.5025803893302128 336.0 18.0 261.0 
172.00001362055676 5417.0 2346.0 766.9831283957805 0.5000789254868298 337.0 18.0 261.0 
174.00001362055676 5427.0 2348.0 766.9453817557882 0.5020249613452926 336.0 19.0 260.0 
176.00001362055676 5410.0 2347.0 766.9854160709259 0.5028086707032583 338.0 17.0 262.0 
178.00001362055676 5365.0 2345.0 766.9202173291386 0.5049124411841217 337.0 18.0 261.0 
180.00001362055676 5325.0 2343.0 766.9488132685053 0.5078650899900085 337.0 18.0 261.0 
182.00001362055676 5264.0 2339.0 762.9339433800517 0.502036591177786 338.0 16.0 260.0 
184.00001362055676 5244.0 2339.0 764.3214183585912 0.4995789172297457 338.0 16.0 261.0 
186.00001362055676 5267.0 2340.0 762.9362310551973 0.5017648902361668 338.0 16.0 260.0 
188.00001362055676 5256.0 2338.0 761.6905919359327 0.505660481485928 337.0 16.0 259.0 
190.00001362055676 5229.0 2336.0 762.9305118673179 0.5021189058057004 337.0 16.0 260.0 
192.00001362055676 5205.0 2335.0 762.9751215327275 0.500910550976692 337.0 16.0 260.0 
194.00001362055676 5200.0 2335.0 762.9648269945603 0.49915599687884743 335.0 18.0 258.0 
196.00001362055676 5220.0 2337.0 761.681441235336 0.4995853839872945 335.0 18.0 257.0 
198.00001362055676 5219.0 2337.0 761.661995996565 0.5008981945352966 335.0 18.0 257.0 
200.00001362055676 5214.0 2338.0 761.6608521589943 0.5020666707405496 335.0 18.0 257.0 
202.00001362055676 5225.0 2339.0 764.2493565913555 0.5028403613844797 336.0 18.0 259.0 
204.00001362055676 5222.0 2337.0 761.6860165856439 0.4999873890263023 336.0 18.0 257.0 
206.00001362055676 5238.0 2339.0 762.9362310551973 0.5042608675119993 333.0 19.0 257.0 
208.00001362055676 5213.0 2338.0 761.6677151844553 0.5030649491769039 332.0 19.0 256.0 
210.00001362055676 5243.0 2341.0 761.6425507578057 0.5012999882495105 333.0 19.0 256.0 
212.00001362055676 5264.0 2341.0 759.044895624818 0.5030864787465057 335.0 19.0 254.0 
214.00001362055676 5242.0 2339.0 757.7260509007801 0.500887705345182 334.0 19.0 253.0 
216.00001362055676 5250.0 2340.0 760.3889047755397 0.5040101990436052 334.0 19.0 255.0 
218.00001362055676 5243.0 2337.0 760.346582785241 0.5014473600563073 333.0 19.0 255.0 
220.00001362055676 5256.0 2337.0 761.6745782099063 0.50016960863521 334.0 19.0 256.0 
222.00001362055676 5268.0 2339.0 762.9831283957802 0.5022116185152624 333.0 21.0 255.0 
224.00001362055676 5261.0 2339.0 762.9785530454759 0.5022463238596305 335.0 20.0 256.0 
226.00001362055676 5250.0 2340.0 762.9819845582085 0.5008600447093292 336.0 19.0 257.0 
228.00001362055676 5272.0 2340.0 762.9579639691297 0.5008380002216837 336.0 20.0 256.0 
230.00001362055676 5298.0 2341.0 762.9865599084973 0.5051110364184723 338.0 19.0 257.0 
232.00001362055676 5288.0 2339.0 762.9842722333509 0.50180525280509 338.0 19.0 257.0 
234.00001362055676 5278.0 2339.0 762.9705461824386 0.501573330504143 337.0 19.0 257.0 
236.00001362055676 5276.0 2339.0 764.3134114955711 0.501675731709483 338.0 19.0 258.0 
238.00001362055676 5268.0 2339.0 760.3340005719316 0.5035554149927192 336.0 19.0 255.0 
240.00001362055676 5252.0 2337.0 759.0700600514674 0.505290970609777 335.0 19.0 254.0 
242.00001362055676 5227.0 2336.0 758.9968544466601 0.5073159078163819 334.0 19.0 254.0 
244.00001362055676 5196.0 2333.0 759.0506148127073 0.5031293890691567 335.0 19.0 254.0 
246.00001362055676 5183.0 2333.0 756.3774663997702 0.5018683835111393 333.0 19.0 252.0 
248.00001362055676 5188.0 2333.0 756.4014869888491 0.501627996415602 331.0 19.0 252.0 
250.00001362055676 5176.0 2332.0 755.0437517872466 0.5048067136188126 330.0 19.0 251.0 
252.00001362055676 5173.0 2332.0 755.0792107520747 0.502148935275103 331.0 19.0 251.0 
254.00001362055676 5182.0 2334.0 756.3625965112981 0.5037228968201216 335.0 19.0 252.0 
256.00001362055673 5169.0 2333.0 756.4003431512581 0.5020515178375237 335.0 19.0 252.0 
258.00001362055673 5179.0 2333.0 757.681441235336 0.5012819403447126 337.0 19.0 253.0 
260.00001362055673 5190.0 2336.0 757.7169002001837 0.5027253521941184 336.0 19.0 253.0 
262.00001362055673 5190.0 2334.0 758.9774092079007 0.5019808782051268 336.0 18.0 255.0 
264.00001362055673 5188.0 2333.0 759.0529024878538 0.5015247636086012 337.0 17.0 256.0 
266.00001362055673 5202.0 2336.0 762.9442379181985 0.5023608318024312 336.0 17.0 259.0 
268.00001362055673 5218.0 2338.0 765.6356877323244 0.5020531535683538 339.0 17.0 261.0 
270.00001362055673 5232.0 2337.0 764.2722333428626 0.5003398404041823 339.0 17.0 260.0 
272.00001362055673 5234.0 2338.0 764.3008292822293 0.5030628572914719 339.0 17.0 260.0 
274.00001362055673 5213.0 2336.0 761.6288247068948 0.5019175924829851 335.0 17.0 258.0 
276.00001362055673 5203.0 2336.0 759.0677723763051 0.5029992170227181 332.0 17.0 256.0 
278.00001362055673 5201.0 2332.0 758.9922790963567 0.5021261879726306 333.0 17.0 256.0 
280.00001362055673 5201.0 2334.0 759.0631970260163 0.5013417953314203 333.0 17.0 256.0 
282.00001362055673 5204.0 2335.0 758.9808407206181 0.5018530420649338 333.0 17.0 256.0 
284.00001362055673 5213.0 2336.0 756.4300829282158 0.4999460133858703 335.0 17.0 254.0 
286.00001362055673 5206.0 2335.0 756.3831855876599 0.49930574430307334 334.0 18.0 253.0 
288.00001362055673 5206.0 2336.0 756.391192450682 0.5015470979438885 331.0 20.0 251.0 
290.00001362055673 5201.0 2338.0 755.0757792393575 0.5070293989703546 328.0 20.0 250.0 
292.00001362055673 5190.0 2337.0 755.0895052902374 0.4991404331753745 327.0 20.0 250.0 
294.00001362055673 5202.0 2338.0 755.0940806405456 0.5024738764710827 327.0 20.0 250.0 
296.00001362055673 5190.0 2339.0 755.1478410065632 0.5012214425210592 326.0 20.0 250.0 
298.00001362055673 5190.0 2337.0 751.1043751787232 0.5073480378636399 323.0 20.0 247.0 
300.00001362055673 5202.0 2336.0 749.8610237346228 0.5023083187356949 322.0 20.0 246.0 
302.00001362055673 5193.0 2334.0 744.5433228481551 0.5021859683812727 319.0 20.0 242.0 
304.00001362055673 5192.0 2334.0 743.2988275664902 0.5006396859051628 319.0 19.0 242.0 
306.00001362055673 5191.0 2335.0 741.9468115527691 0.5008359642255339 318.0 19.0 241.0 
308.00001362055673 5180.0 2333.0 743.3102659422309 0.5030903477378854 318.0 19.0 242.0 
310.00001362055673 5185.0 2335.0 741.9548184157741 0.5044615708173273 317.0 19.0 241.0 
312.00001362055673 5176.0 2332.0 741.9914212181911 0.5017477577031815 317.0 19.0 241.0 
314.00001362055673 5174.0 2331.0 744.5719187875219 0.5043780443837721 319.0 19.0 243.0 
316.00001362055673 5160.0 2331.0 741.9834143551592 0.4998532385757351 321.0 17.0 243.0 
318.00001362055673 5160.0 2330.0 741.9502430654865 0.5001655352616008 320.0 17.0 243.0 
320.00001362055673 5147.0 2330.0 741.9582499285084 0.5062290931316564 320.0 17.0 243.0 
322.00001362055673 5108.0 2324.0 741.9170717758132 0.5039221422655994 318.0 17.0 243.0 
324.00001362055673 5099.0 2325.0 743.2690877895292 0.5010324464405544 317.0 17.0 244.0 
326.00001362055673 5091.0 2325.0 743.2542179010712 0.5013652617094326 317.0 17.0 244.0 
328.00001362055673 5106.0 2327.0 744.5890763511665 0.5003243091695455 318.0 17.0 245.0 
330.00001362055673 5123.0 2328.0 744.5341721475612 0.5056837574533655 319.0 17.0 245.0 
332.00001362055673 5111.0 2326.0 743.2828138404393 0.49958986150437823 318.0 17.0 244.0 
334.00001362055673 5113.0 2327.0 743.2324849871391 0.4991723168880078 318.0 17.0 244.0 
336.00001362055673 5120.0 2330.0 741.9445238776269 0.5021181259195604 317.0 17.0 243.0 
338.00001362055673 5105.0 2327.0 737.9857020303052 0.5017279432250996 316.0 17.0 240.0 
340.00001362055673 5098.0 2326.0 737.9982842436431 0.5016366517071742 315.0 17.0 240.0 
342.00001362055673 5084.0 2324.0 737.9651129539661 0.4991985931098951 315.0 17.0 240.0 
344.00001362055673 5098.0 2327.0 740.6325421790134 0.5017842798002292 315.0 17.0 242.0 
346.00001362055673 5089.0 2325.0 740.5947955390257 0.5026053401157043 315.0 17.0 242.0 
348.00001362055673 5086.0 2325.0 740.6199599656752 0.5004343641540328 315.0 17.0 242.0 
350.00001362055673 5091.0 2325.0 739.2873891907269 0.5058137159571695 316.0 17.0 241.0 
352.00001362055673 5110.0 2324.0 740.6062339147921 0.5006072816104273 315.0 17.0 242.0 
354.00001362055673 5115.0 2327.0 740.5822133257143 0.5034124785418814 313.0 18.0 241.0 
356.00001362055673 5091.0 2327.0 739.3445810694794 0.4999626630864493 310.0 20.0 238.0 
358.00001362055673 5106.0 2328.0 739.2382041749984 0.49870917958187794 311.0 20.0 238.0 
360.00001362055673 5122.0 2332.0 739.3468687446467 0.5000599838852835 311.0 19.0 239.0 
362.00001362055673 5125.0 2331.0 740.5684872748045 0.49921119798449937 312.0 18.0 241.0 
364.00001362055673 5125.0 2331.0 739.3422933943325 0.49986572176289684 311.0 18.0 240.0 
366.00001362055673 5152.0 2336.0 735.3342865313086 0.49943130360216115 308.0 21.0 234.0 
368.00001362055673 5156.0 2335.0 732.7629396625766 0.5005305938674122 305.0 22.0 231.0 
370.00001362055673 5157.0 2335.0 734.0509007720841 0.5050539496006916 307.0 21.0 233.0 
372.00001362055673 5147.0 2333.0 732.7515012868097 0.4990238135946299 313.0 18.0 235.0 
374.00001362055673 5155.0 2335.0 730.0817843866158 0.5037336821430204 310.0 21.0 230.0 
376.00001362055673 5139.0 2335.0 730.1435516156831 0.49947167007829396 311.0 20.0 231.0 
378.00001362055673 5145.0 2335.0 728.7606519874297 0.5019196630060982 310.0 19.0 231.0 
380.00001362055673 5155.0 2336.0 726.2316271089489 0.502771548673053 312.0 17.0 231.0 
382.00001362055673 5166.0 2334.0 727.4772662282065 0.5012778108325375 313.0 19.0 230.0 
384.00001362055673 5173.0 2337.0 730.1595653417119 0.5018929731674264 315.0 19.0 232.0 
386.00001362055673 5159.0 2337.0 730.0989419502423 0.5045133281135686 315.0 19.0 232.0 
388.00001362055673 5159.0 2334.0 724.8956248212778 0.50127105887356 314.0 19.0 228.0 
390.00001362055673 5168.0 2334.0 727.4955676294034 0.5015758411091366 316.0 18.0 231.0 
392.00001362055673 5176.0 2333.0 731.5184443808846 0.5037841307381368 317.0 16.0 236.0 
394.00001362055673 5141.0 2330.0 731.4566771518449 0.5008032212433988 318.0 16.0 236.0 
396.00001362055673 5176.0 2333.0 731.5321704317934 0.5088309687837128 316.0 18.0 234.0 
398.00001362055673 5172.0 2328.0 731.4246496997431 0.5007225660839184 313.0 21.0 231.0 
400.00001362055673 5171.0 2328.0 731.5092936802907 0.5075707080505151 312.0 22.0 230.0 
402.00001362055673 5150.0 2325.0 731.4475264512454 0.5038076142540809 313.0 21.0 231.0 
404.00001362055673 5130.0 2326.0 731.4738347154715 0.501535588889404 317.0 20.0 232.0 
406.00001362055673 5133.0 2326.0 730.143551615683 0.5009919167031184 321.0 16.0 235.0 
408.00001362055673 5134.0 2325.0 728.8327137546444 0.50020978358729 320.0 16.0 234.0 
410.00001362055673 5167.0 2327.0 728.7949671146575 0.5011395499923087 318.0 17.0 233.0 
412.00001362055673 5197.0 2330.0 727.5527595081599 0.500584357358457 317.0 19.0 230.0 
414.00001362055673 5185.0 2330.0 726.1732913926203 0.5054238240835175 316.0 19.0 229.0 
416.00001362055673 5189.0 2332.0 727.5424649699652 0.5019763392093238 316.0 17.0 232.0 
418.00001362055673 5188.0 2331.0 727.5001429797137 0.5007241798383619 317.0 16.0 233.0 
420.00001362055673 5185.0 2332.0 726.2419216471388 0.5027501259454614 317.0 16.0 232.0 
422.00001362055673 5186.0 2331.0 726.1732913926203 0.4992020583121589 315.0 16.0 232.0 
424.00001362055673 5179.0 2333.0 726.2316271089489 0.5026482142336647 315.0 16.0 232.0 
426.00001362055673 5181.0 2333.0 730.1183871890321 0.5001689725226819 315.0 16.0 235.0 
428.00001362055673 5187.0 2334.0 732.7720903631708 0.5004381774007872 318.0 16.0 237.0 
430.00001362055673 5197.0 2338.0 732.7835287389163 0.5021805430830042 317.0 17.0 236.0 
432.00001362055673 5262.0 2339.0 732.7755218758887 0.5042672234133112 314.0 19.0 234.0 
434.00001362055673 5252.0 2336.0 732.7686588504363 0.5024789673112295 313.0 19.0 234.0 
436.00001362055673 5255.0 2334.0 738.0783528738808 0.5008519844148147 312.0 20.0 237.0 
438.00001362055673 5274.0 2336.0 739.3342865313086 0.500722360401433 313.0 20.0 238.0 
440.00001362055673 5274.0 2337.0 740.7057477838212 0.5035816685596013 316.0 19.0 240.0 
442.00001362055673 5291.0 2338.0 738.009722619384 0.5006546915253804 316.0 21.0 236.0 
444.00001362055673 5267.0 2339.0 738.0577637975372 0.5005878539754457 317.0 21.0 236.0 
446.00001362055673 5265.0 2339.0 738.007434944237 0.5014995194224382 317.0 21.0 236.0 
448.00001362055673 5271.0 2338.0 738.0040034315028 0.5027044515977781 317.0 22.0 235.0 
450.00001362055673 5278.0 2337.0 737.9948527309256 0.5036927234559189 318.0 21.0 236.0 
452.00001362055673 5268.0 2336.0 739.3297111810208 0.5000656723768759 320.0 18.0 240.0 
454.00001362055673 5249.0 2336.0 740.655418930521 0.500274477916891 317.0 17.0 242.0 
456.00001362055673 5249.0 2336.0 742.0165856448413 0.4995799758879792 316.0 18.0 242.0 
458.00001362055673 5258.0 2336.0 740.6279668287021 0.5004769908340911 314.0 19.0 240.0 
460.00001362055673 5260.0 2336.0 742.0177294824126 0.5016455003588565 315.0 19.0 241.0 
462.00001362055673 5263.0 2338.0 739.3182728052577 0.5021079774885514 319.0 17.0 241.0 
464.00001362055673 5229.0 2336.0 739.3114097798015 0.4998632146262906 319.0 17.0 241.0 
466.00001362055673 5229.0 2335.0 739.3194166428283 0.5023986768695682 319.0 17.0 241.0 
468.00001362055673 5236.0 2334.0 740.58335716329 0.501887715834814 320.0 17.0 242.0 
470.00001362055673 5237.0 2334.0 741.9422362024636 0.5019670616716447 320.0 17.0 243.0 
472.00001362055673 5229.0 2333.0 744.551329711178 0.499166803847923 323.0 17.0 245.0 
474.00001362055673 5231.0 2334.0 744.551329711178 0.4982468363761155 323.0 17.0 245.0 
476.00001362055673 5234.0 2336.0 743.2462110380217 0.49936246417015967 323.0 17.0 244.0 
478.00001362055673 5238.0 2337.0 743.2164712610828 0.5032385401966466 323.0 17.0 244.0 
480.00001362055673 5215.0 2336.0 744.554761223895 0.5024248040694763 324.0 17.0 245.0 
482.00001362055673 5199.0 2334.0 743.2404918501408 0.5030679864060895 321.0 18.0 243.0 
484.00001362055673 5191.0 2332.0 743.22790963683 0.5016315661741981 318.0 19.0 242.0 
486.00001362055673 5187.0 2331.0 743.2050328853425 0.49765360672797754 318.0 19.0 242.0 
488.00001362055673 5202.0 2335.0 744.5341721475621 0.5005523151149724 319.0 18.0 244.0 
490.00001362055673 5207.0 2335.0 745.8553045467463 0.5017176584197212 320.0 17.0 246.0 
492.00001362055673 5204.0 2336.0 744.5376036602955 0.5015318531592374 319.0 17.0 245.0 
494.00001362055673 5194.0 2335.0 745.8564483843168 0.5014041067349766 319.0 17.0 246.0 
496.00001362055673 5193.0 2336.0 745.8472976837413 0.49820726779389995 318.0 17.0 246.0 
498.00001362055673 5210.0 2339.0 745.8301401200921 0.5019360703841879 322.0 17.0 246.0 
500.00001362055673 5197.0 2338.0 744.5547612238954 0.5012649993170116 320.0 17.0 245.0 
502.00001362055673 5202.0 2338.0 743.2279096368297 0.5000004866508089 319.0 17.0 244.0 
504.00001362055673 5214.0 2342.0 740.617672290533 0.5008741450869457 315.0 17.0 242.0 
506.00001362055673 5218.0 2345.0 740.6108092650819 0.5025220851111427 315.0 17.0 242.0 
508.00001362055673 5220.0 2344.0 739.2965398913477 0.5042866610820893 319.0 17.0 241.0 
510.00001362055673 5207.0 2342.0 738.0028595939274 0.5041189611001066 317.0 17.0 240.0 
512.0000136205567 5200.0 2340.0 739.2885330282976 0.5044233950921136 318.0 17.0 241.0 
514.0000136205567 5168.0 2337.0 739.2908207034612 0.5010964922515372 315.0 17.0 241.0 
516.0000136205567 5180.0 2340.0 740.5936517014541 0.5007526002990598 316.0 17.0 242.0 
518.0000136205567 5171.0 2337.0 740.5810694881428 0.502320666621281 319.0 17.0 242.0 
520.0000136205567 5155.0 2335.0 736.693165570483 0.5023488963575153 317.0 17.0 239.0 
522.0000136205567 5148.0 2336.0 735.3159851301114 0.5047922273679466 316.0 17.0 238.0 
524.0000136205567 5128.0 2335.0 731.4120674864057 0.4996240163695561 314.0 17.0 235.0 
526.0000136205567 5158.0 2340.0 728.7560766371192 0.5012929344059945 314.0 17.0 233.0 
528.0000136205567 5159.0 2338.0 728.7354875607801 0.5037602680991684 316.0 17.0 233.0 
530.0000136205567 5135.0 2335.0 726.1561338289954 0.5027401083604076 316.0 17.0 231.0 
532.0000136205567 5126.0 2335.0 724.8018301401108 0.5014227716934753 315.0 17.0 230.0 
534.0000136205567 5126.0 2334.0 728.7617958250015 0.49925722695627295 313.0 17.0 233.0 
536.0000136205567 5125.0 2337.0 731.4177866742863 0.5037361942570154 315.0 17.0 235.0 
538.0000136205567 5123.0 2334.0 730.0646268229934 0.502159964921626 316.0 17.0 234.0 
540.0000136205567 5127.0 2337.0 728.8121246783052 0.5016028301850096 315.0 17.0 233.0 
542.0000136205567 5121.0 2336.0 724.8189877037355 0.501712180188447 313.0 17.0 230.0 
544.0000136205567 5104.0 2336.0 726.1732913926203 0.502113261855263 311.0 17.0 231.0 
546.0000136205567 5099.0 2335.0 724.8361452673794 0.49944032658163545 308.0 17.0 230.0 
548.0000136205567 5104.0 2338.0 726.1687160423323 0.49981277949166225 307.0 17.0 231.0 
550.0000136205567 5103.0 2338.0 727.5173005433155 0.4995996105043958 307.0 17.0 232.0 
552.0000136205567 5109.0 2339.0 726.1858736059571 0.502846230618952 307.0 17.0 231.0 
554.0000136205567 5123.0 2340.0 726.157277666566 0.5029752709790689 307.0 17.0 231.0 
556.0000136205567 5135.0 2342.0 726.2144695453244 0.5031805619205808 308.0 17.0 231.0 
558.0000136205567 5097.0 2341.0 724.8086931655877 0.5001700603666398 309.0 16.0 231.0 
560.0000136205567 5119.0 2342.0 727.5138690305968 0.5009720378162925 311.0 16.0 233.0 
562.0000136205567 5124.0 2343.0 728.7766657134609 0.5035316154279937 310.0 17.0 233.0 
564.0000136205567 5124.0 2343.0 730.1298255647741 0.5060909562340162 310.0 17.0 234.0 
566.0000136205567 5091.0 2343.0 731.397197597946 0.5034338947715086 312.0 16.0 236.0 
568.0000136205567 5108.0 2345.0 731.4109236488338 0.5041511643407203 313.0 16.0 236.0 
570.0000136205567 5123.0 2343.0 732.7583643122663 0.5006361255804574 313.0 16.0 237.0 
572.0000136205567 5123.0 2343.0 732.7903917643682 0.5071248922849682 314.0 16.0 237.0 
574.0000136205567 5089.0 2342.0 734.0669144981405 0.5045379042991093 318.0 16.0 238.0 
576.0000136205567 5073.0 2341.0 734.0760651987349 0.5020597827306601 317.0 16.0 238.0 
578.0000136205567 5095.0 2342.0 735.3434372319081 0.4996029685279954 319.0 16.0 239.0 
580.0000136205567 5113.0 2344.0 735.3994852730924 0.49828815864398984 320.0 16.0 239.0 
582.0000136205567 5134.0 2346.0 735.3365742064558 0.5010757280244036 319.0 16.0 239.0 
584.0000136205567 5128.0 2344.0 738.0634829854241 0.5034916706962336 321.0 16.0 241.0 
586.0000136205567 5114.0 2344.0 737.9685444666845 0.5030879663195582 318.0 16.0 241.0 
588.0000136205567 5115.0 2341.0 738.0200171575751 0.5015192893366789 318.0 16.0 241.0 
590.0000136205567 5140.0 2345.0 741.9433800400359 0.504317325994651 320.0 16.0 244.0 
592.0000136205567 5161.0 2347.0 743.2805261652925 0.5022379131104139 324.0 16.0 245.0 
594.0000136205567 5167.0 2347.0 744.5490420360146 0.5041261868356054 326.0 16.0 246.0 
596.0000136205567 5155.0 2345.0 745.9456677151973 0.503230745689223 326.0 16.0 247.0 
598.0000136205567 5142.0 2343.0 748.4987131827154 0.5042770738433018 326.0 17.0 248.0 
600.0000136205567 5133.0 2340.0 747.2404918501405 0.5039616316848485 328.0 17.0 247.0 
602.0000136205567 5132.0 2340.0 749.8049756934427 0.5009134402100447 330.0 16.0 250.0 
604.0000136205567 5171.0 2342.0 748.5559050614952 0.505686223041006 333.0 16.0 249.0 
606.0000136205567 5153.0 2338.0 751.1226765799134 0.5002152179076318 331.0 16.0 251.0 
608.0000136205567 5172.0 2340.0 753.7866742922428 0.5029142062363295 333.0 16.0 253.0 
610.0000136205567 5190.0 2343.0 755.1386903059661 0.5009865111527958 333.0 16.0 254.0 
612.0000136205567 5189.0 2341.0 755.1375464683956 0.501055596718889 335.0 16.0 254.0 
614.0000136205567 5177.0 2342.0 752.5353159851336 0.5001580247087131 334.0 16.0 252.0 
616.0000136205567 5174.0 2341.0 752.5387474978675 0.5024236102200345 335.0 16.0 252.0 
618.0000136205567 5199.0 2342.0 751.1364026308238 0.5016457348759015 334.0 17.0 250.0 
620.0000136205567 5181.0 2344.0 749.8987703746154 0.504460876412484 331.0 16.0 250.0 
622.0000136205567 5164.0 2345.0 747.2061767229143 0.5041062912301667 328.0 16.0 248.0 
624.0000136205567 5149.0 2346.0 747.2336288247106 0.5039745029716833 327.0 16.0 248.0 
626.0000136205567 5135.0 2342.0 748.4929939948561 0.5024891275405152 325.0 16.0 249.0 
628.0000136205567 5137.0 2342.0 748.5147269087885 0.5049418863423822 326.0 16.0 249.0 
630.0000136205567 5119.0 2341.0 749.8072633685895 0.5087107408950154 327.0 16.0 250.0 
632.0000136205567 5117.0 2340.0 749.8164140692124 0.5058404038065312 325.0 16.0 250.0 
634.0000136205567 5101.0 2340.0 751.1592793823326 0.5049277951728173 326.0 16.0 251.0 
636.0000136205567 5086.0 2336.0 751.129539605375 0.5014266815098426 327.0 16.0 251.0 
638.0000136205567 5086.0 2336.0 751.1158135544636 0.5036235548979683 326.0 16.0 251.0 
640.0000136205567 5075.0 2333.0 751.1181012296244 0.501656815367912 326.0 16.0 251.0 
642.0000136205567 5078.0 2334.0 751.074635401786 0.5024416534108579 326.0 16.0 251.0 
644.0000136205567 5084.0 2336.0 751.105519016315 0.5047258543039742 326.0 16.0 251.0 
646.0000136205567 5068.0 2333.0 749.7740920789338 0.5007600494861716 323.0 16.0 250.0 
648.0000136205567 5069.0 2332.0 748.4472404918401 0.5020632669805886 321.0 16.0 249.0 
650.0000136205567 5065.0 2331.0 748.4483843294155 0.503439959197672 322.0 16.0 249.0 
652.0000136205567 5088.0 2332.0 744.5158707463635 0.5037779700152907 322.0 16.0 246.0 
654.0000136205567 5089.0 2334.0 744.5112953960542 0.5023315232186438 323.0 16.0 246.0 
656.0000136205567 5094.0 2335.0 748.4929939948561 0.501714000868861 324.0 16.0 249.0 
658.0000136205567 5105.0 2334.0 748.4643980554879 0.5030066634440833 324.0 16.0 249.0 
660.0000136205567 5101.0 2333.0 751.1672862453537 0.5006326894328319 327.0 16.0 251.0 
662.0000136205567 5116.0 2336.0 749.8004003431585 0.5012281786070324 329.0 16.0 250.0 
664.0000136205567 5103.0 2336.0 749.7992565055831 0.5072401522697524 329.0 16.0 250.0 
#####################################################################
# End of data export. Simulation finished at: 2019-03-10T08:11+0000 #
#####################################################################
