#####################################################################
# Alchemist log file - simulation started at: 2019-03-11T05:31+0000 #
#####################################################################
# seed = 4.0, bandwidth = 316227.76601683797, accessPointCount = 531.8295896944988, baserange = 562.341325190349
#
# The columns have the following meaning: 
# time neighbor_count[Sum] <value>@neighbor_count[Sum] packet_size[Mean] mean_delay[Mean] crowd[Sum] overcrowded[Sum] risk[Sum] 
0.0 NaN NaN NaN NaN NaN NaN NaN 
2.0000042429967895 6410.0 4311.0 4982.396449704142 0.439014080111114 1497.0 0.0 1497.0 
4.0000042429967895 10772.0 4956.0 4984.01775147929 0.6017016968646111 1497.0 0.0 1497.0 
6.0000042429967895 14521.0 4990.0 4985.193293885602 0.5879453642537764 1497.0 0.0 1497.0 
8.00000424299679 16642.0 4989.0 4986.248520710059 0.5916752793399225 1497.0 0.0 1497.0 
10.00000424299679 18588.0 4994.0 4987.431952662722 0.6125766147054778 1497.0 0.0 1497.0 
12.00000424299679 18052.0 4890.0 4988.055226824457 0.5703838263949501 1497.0 0.0 1497.0 
14.00000424299679 17254.0 4821.0 4988.033530571992 0.5018698145465154 1494.0 3.0 1494.0 
16.000004242996788 17379.0 4823.0 4988.007889546351 0.5035438484347661 1493.0 4.0 1493.0 
18.000004242996788 17328.0 4821.0 4987.909270216963 0.5020956517882769 1493.0 4.0 1493.0 
20.000004242996788 17355.0 4822.0 4988.246548323472 0.5018465105204316 1491.0 6.0 1491.0 
22.000004242996788 17294.0 4822.0 4987.925049309664 0.5022340759075962 1488.0 9.0 1488.0 
24.000004242996788 17262.0 4821.0 4987.917159763314 0.5013959312543921 1485.0 12.0 1485.0 
26.000004242996788 17273.0 4823.0 4987.996055226825 0.501747889027283 1487.0 10.0 1487.0 
28.000004242996788 17271.0 4822.0 4988.057199211045 0.5039978305718764 1489.0 8.0 1489.0 
30.000004242996788 17274.0 4822.0 4988.069033530572 0.5019410720377723 1489.0 8.0 1489.0 
32.00000424299679 17333.0 4824.0 4988.098619329388 0.5031491925525824 1488.0 9.0 1488.0 
34.00000424299679 17322.0 4822.0 4987.934911242603 0.5017242541578273 1489.0 8.0 1489.0 
36.00000424299679 17323.0 4823.0 4988.108481262328 0.5019469493994203 1488.0 9.0 1488.0 
38.00000424299679 17324.0 4822.0 4988.039447731755 0.5029721068955547 1484.0 13.0 1484.0 
40.00000424299679 17322.0 4822.0 4988.234714003945 0.5017763968121421 1483.0 14.0 1483.0 
42.00000424299679 17435.0 4824.0 4987.9783037475345 0.503119530384065 1481.0 16.0 1481.0 
44.00000424299679 17461.0 4824.0 4987.986193293886 0.5029928837407096 1485.0 12.0 1485.0 
46.00000424299679 17477.0 4824.0 4987.857988165681 0.5034118388708628 1487.0 10.0 1487.0 
48.00000424299679 17532.0 4823.0 4988.15976331361 0.5035125177706934 1485.0 12.0 1485.0 
50.00000424299679 17530.0 4824.0 4988.108481262328 0.5038320526865594 1485.0 12.0 1485.0 
52.00000424299679 17525.0 4823.0 4988.057199211045 0.5022889150234204 1487.0 10.0 1487.0 
54.00000424299679 17516.0 4823.0 4987.842209072978 0.5012152017687779 1486.0 11.0 1486.0 
56.00000424299679 17520.0 4824.0 4987.9763313609465 0.5028093609148464 1487.0 10.0 1487.0 
58.00000424299679 17514.0 4824.0 4987.925049309664 0.5038342994927815 1487.0 10.0 1487.0 
60.00000424299679 17513.0 4823.0 4985.962524654833 0.5031199377463715 1487.0 10.0 1487.0 
62.00000424299679 17530.0 4825.0 1174.8106508875787 0.49680315870602465 753.0 8.0 333.0 
64.0000042429968 17488.0 4823.0 1174.5049309664653 0.5039721268828278 585.0 10.0 331.0 
66.0000042429968 17483.0 4823.0 1176.6153846153898 0.5041026030111073 540.0 14.0 328.0 
68.0000042429968 17468.0 4823.0 1169.8500986193244 0.5034595321466903 500.0 14.0 325.0 
70.0000042429968 17479.0 4822.0 1169.7258382643045 0.5034258815217175 479.0 17.0 322.0 
72.0000042429968 17493.0 4824.0 1158.2386587771143 0.5064157455854912 475.0 16.0 318.0 
74.0000042429968 17459.0 4820.0 1153.623274161739 0.5026039770182273 468.0 19.0 313.0 
76.0000042429968 17497.0 4821.0 1153.5601577909206 0.5037216432507626 462.0 19.0 313.0 
78.0000042429968 17498.0 4823.0 1153.6390532544328 0.5050660798904082 459.0 19.0 313.0 
80.0000042429968 17440.0 4820.0 1158.1045364891474 0.5032151352537845 453.0 20.0 314.0 
82.0000042429968 17462.0 4821.0 1158.061143984222 0.5043878278872578 453.0 20.0 314.0 
84.0000042429968 17440.0 4820.0 1158.065088757401 0.5023610956270486 450.0 21.0 313.0 
86.0000042429968 17440.0 4820.0 1158.0769230769154 0.5023898437212436 445.0 24.0 310.0 
88.0000042429968 17446.0 4821.0 1158.0670611439832 0.5034091496252231 444.0 22.0 312.0 
90.0000042429968 17460.0 4823.0 1160.3451676528587 0.5039290404416175 442.0 22.0 313.0 
92.0000042429968 17456.0 4824.0 1160.2268244575996 0.5042047204537892 444.0 20.0 315.0 
94.0000042429968 17414.0 4822.0 1160.3491124260288 0.5019053003477921 441.0 23.0 312.0 
96.0000042429968 17420.0 4823.0 1160.3116370808739 0.5028172164164524 443.0 21.0 314.0 
98.0000042429968 17422.0 4822.0 1160.2741617356958 0.5046942353872681 443.0 21.0 314.0 
100.0000042429968 17414.0 4822.0 1162.5049309664655 0.5034975275306424 445.0 19.0 317.0 
102.0000042429968 17414.0 4822.0 1162.5838264299878 0.5030698624882175 443.0 21.0 315.0 
104.0000042429968 17412.0 4822.0 1160.1893491124217 0.501765988231654 447.0 18.0 317.0 
106.0000042429968 17440.0 4821.0 1158.033530571999 0.5021449563371198 444.0 21.0 313.0 
108.0000042429968 17440.0 4823.0 1157.9684418145982 0.5024490273020826 445.0 19.0 315.0 
110.0000042429968 17438.0 4823.0 1157.964497041418 0.50216551980449 443.0 22.0 312.0 
112.0000042429968 17432.0 4823.0 1157.934911242599 0.5034103447403895 445.0 20.0 314.0 
114.0000042429968 17428.0 4822.0 1157.97041420118 0.5022560493229749 442.0 23.0 311.0 
116.0000042429968 17524.0 4825.0 1157.9191321499056 0.5045990558065278 443.0 22.0 312.0 
118.0000042429968 17511.0 4826.0 1157.9684418145982 0.5057873677786706 441.0 25.0 309.0 
120.0000042429968 17432.0 4823.0 1167.0887573964542 0.503190871410449 444.0 23.0 315.0 
122.0000042429968 17432.0 4823.0 1167.112426035497 0.5038023947373538 442.0 24.0 314.0 
124.0000042429968 17422.0 4822.0 1166.9940828402387 0.5022980193183793 443.0 22.0 316.0 
126.0000042429968 17425.0 4822.0 1162.5838264299875 0.5020468576737341 439.0 25.0 311.0 
128.0000042429968 17481.0 4824.0 1162.5207100591747 0.5046438266526836 440.0 23.0 313.0 
130.0000042429968 17444.0 4823.0 1160.2800788954632 0.5023908184238015 438.0 24.0 311.0 
132.0000042429968 17509.0 4825.0 1160.301775147933 0.5047561441484474 439.0 22.0 313.0 
134.0000042429968 17451.0 4824.0 1158.037475345164 0.5033179368514333 435.0 26.0 308.0 
136.0000042429968 17467.0 4824.0 1158.0197238658732 0.5028973569374733 436.0 25.0 309.0 
138.0000042429968 17470.0 4824.0 1160.2603550295844 0.5035536261309428 436.0 25.0 310.0 
140.0000042429968 17545.0 4827.0 1157.9940828402382 0.5071324358522923 437.0 23.0 311.0 
142.0000042429968 17412.0 4824.0 1160.2899408284047 0.5038233982233319 435.0 26.0 309.0 
144.0000042429968 17371.0 4823.0 1167.1735700197285 0.5025563908699531 439.0 24.0 314.0 
146.0000042429968 17370.0 4823.0 1167.1301775147874 0.5025651091599665 437.0 27.0 311.0 
148.0000042429968 17369.0 4823.0 1167.069033530566 0.502416513943843 438.0 26.0 312.0 
150.0000042429968 17368.0 4822.0 1167.1735700197285 0.5021048480896787 433.0 30.0 308.0 
152.0000042429968 17376.0 4823.0 1164.8422090729805 0.5035693870373078 435.0 27.0 310.0 
154.0000042429968 17368.0 4822.0 1160.372781065096 0.5019973806143274 432.0 27.0 308.0 
156.0000042429968 17469.0 4823.0 1158.065088757401 0.5034705853107639 432.0 26.0 308.0 
158.0000042429968 17430.0 4825.0 1155.8007889546325 0.5053555265693664 430.0 28.0 305.0 
160.0000042429968 17388.0 4824.0 1155.8086785009814 0.5023451596292576 431.0 27.0 306.0 
162.0000042429968 17328.0 4825.0 1158.0848126232743 0.5040187823213819 430.0 27.0 307.0 
164.0000042429968 17294.0 4823.0 1158.037475345164 0.5025592011196075 431.0 24.0 310.0 
166.0000042429968 17332.0 4825.0 1158.0907297830358 0.5032022247334652 427.0 28.0 306.0 
168.0000042429968 17221.0 4826.0 1158.0966469428035 0.5054325871920142 431.0 24.0 310.0 
170.0000042429968 17150.0 4823.0 1155.8284023668687 0.5020472789563954 431.0 24.0 309.0 
172.0000042429968 17151.0 4823.0 1158.023668639052 0.5019773310830868 431.0 22.0 312.0 
174.0000042429968 17152.0 4824.0 1153.5147928994065 0.501948155619988 428.0 25.0 307.0 
176.0000042429968 17153.0 4825.0 1155.7199211045368 0.5027336953070175 431.0 23.0 310.0 
178.0000042429968 17146.0 4824.0 1153.5009861932865 0.5032230204355992 430.0 24.0 308.0 
180.0000042429968 17261.0 4828.0 1151.2426035502936 0.5052461308429068 433.0 22.0 309.0 
182.0000042429968 17241.0 4826.0 1151.2524654832403 0.5049169732426038 427.0 26.0 305.0 
184.0000042429968 17232.0 4825.0 1151.2544378698228 0.5038132935887238 427.0 25.0 306.0 
186.0000042429968 17230.0 4825.0 1153.5029585798839 0.5031985896832754 425.0 26.0 306.0 
188.0000042429968 17316.0 4825.0 1153.4792899408255 0.5033998501792902 428.0 24.0 308.0 
190.0000042429968 17329.0 4825.0 1148.958579881657 0.50272665317241 426.0 27.0 303.0 
192.0000042429968 17310.0 4824.0 1151.2248520710027 0.5053482143954164 429.0 24.0 307.0 
194.0000042429968 17285.0 4824.0 1153.4773175542437 0.5036429277083185 429.0 24.0 308.0 
196.0000042429968 17346.0 4825.0 1153.4181459566096 0.5035266459217301 430.0 22.0 310.0 
198.0000042429968 17257.0 4824.0 1153.4437869822445 0.5029887404469588 428.0 25.0 307.0 
200.0000042429968 17260.0 4824.0 1153.4497041420116 0.5037538000480569 430.0 24.0 308.0 
202.0000042429968 17308.0 4824.0 1153.4832347139957 0.5036286759521069 431.0 25.0 307.0 
204.0000042429968 17324.0 4825.0 1158.0295857988203 0.5055012394392135 430.0 23.0 311.0 
206.0000042429968 17209.0 4823.0 1155.7751479289977 0.5037583465816944 421.0 26.0 307.0 
208.0000042429968 17189.0 4825.0 1155.749506903357 0.502992105566886 422.0 24.0 309.0 
210.0000042429968 17228.0 4826.0 1153.465483234714 0.5087652577787722 422.0 25.0 307.0 
212.0000042429968 17062.0 4822.0 1153.396449704148 0.5034329727552852 427.0 23.0 309.0 
214.0000042429968 17044.0 4822.0 1155.7001972386636 0.50252125425156 423.0 26.0 307.0 
216.0000042429968 17085.0 4823.0 1153.41814595661 0.5034473345438901 427.0 24.0 308.0 
218.0000042429968 17146.0 4824.0 1155.7080867850132 0.5044234557089561 425.0 25.0 308.0 
220.0000042429968 17080.0 4826.0 1155.7337278106477 0.5034009722866021 426.0 23.0 310.0 
222.0000042429968 17019.0 4824.0 1151.250493096643 0.503025240494279 424.0 26.0 305.0 
224.0000042429968 17010.0 4824.0 1146.6725838264324 0.5024673391616051 425.0 24.0 305.0 
226.0000042429968 17012.0 4824.0 1148.9191321499056 0.5025740000042968 422.0 25.0 305.0 
228.0000042429968 17017.0 4824.0 1151.157790927019 0.502761803693529 425.0 23.0 308.0 
230.0000042429968 17024.0 4825.0 1151.2169625246586 0.502719013050666 422.0 26.0 305.0 
232.0000042429968 17022.0 4824.0 1151.2307692307709 0.5023117339639176 421.0 24.0 307.0 
234.0000042429968 17140.0 4826.0 1155.725838264304 0.5056975791979605 423.0 25.0 308.0 
236.0000042429968 17103.0 4826.0 1153.4457593688408 0.5041056488284966 424.0 23.0 309.0 
238.0000042429968 16975.0 4825.0 1151.1854043392564 0.5038832489840046 420.0 26.0 305.0 
240.0000042429968 17005.0 4827.0 1153.4654832347142 0.5064209551581573 424.0 24.0 308.0 
242.0000042429968 16924.0 4823.0 1151.1735700197285 0.5040608619597294 422.0 25.0 306.0 
244.0000042429968 16886.0 4823.0 1151.126232741617 0.5021596865849581 422.0 23.0 308.0 
246.0000042429968 16921.0 4824.0 1151.1558185404376 0.5034515732140429 420.0 26.0 305.0 
248.0000042429968 16996.0 4826.0 1151.1360946745497 0.5054432024269128 421.0 24.0 307.0 
250.0000042429968 16948.0 4823.0 1153.4536489151903 0.5021185858278109 420.0 25.0 307.0 
252.0000042429968 16960.0 4825.0 1151.195266272189 0.5038831552847411 423.0 23.0 308.0 
254.0000042429968 16949.0 4824.0 1146.6429980276118 0.5042724400332851 420.0 26.0 303.0 
256.0000042429968 16981.0 4824.0 1146.6252465483212 0.5040638429814316 423.0 24.0 305.0 
258.0000042429968 16968.0 4825.0 1148.9013806706148 0.5036096295072126 422.0 25.0 305.0 
260.0000042429968 16994.0 4827.0 1146.591715976337 0.5038823260092887 427.0 23.0 306.0 
262.0000042429968 17033.0 4827.0 1148.850098619325 0.5091030838892735 423.0 25.0 305.0 
264.0000042429968 16904.0 4825.0 1153.5147928994063 0.5028496393605886 429.0 23.0 309.0 
266.0000042429968 16952.0 4826.0 1151.092702169633 0.5044432689920954 427.0 24.0 307.0 
268.0000042429968 16816.0 4824.0 1151.2406311637117 0.502958415503533 429.0 21.0 310.0 
270.0000042429968 16820.0 4826.0 1148.9506903353076 0.5045811251840638 425.0 25.0 305.0 
272.0000042429968 16817.0 4825.0 1144.3688362919163 0.5045076160198315 426.0 23.0 305.0 
274.0000042429968 16800.0 4825.0 1144.3155818540451 0.503068213094125 426.0 23.0 305.0 
276.0000042429968 16830.0 4826.0 1144.3648915187377 0.5043925920285944 428.0 21.0 307.0 
278.0000042429968 16812.0 4824.0 1146.6173570019716 0.5029624922450306 426.0 24.0 305.0 
280.0000042429968 16831.0 4826.0 1146.6153846153895 0.5041462208127918 429.0 22.0 307.0 
282.0000042429968 16877.0 4825.0 1146.5305719921155 0.5061768683622322 430.0 23.0 306.0 
284.0000042429968 16774.0 4825.0 1144.2761341222927 0.5043160471399856 431.0 21.0 307.0 
286.0000042429968 16833.0 4828.0 1144.325443786986 0.5055570200116605 427.0 24.0 304.0 
288.0000042429968 16859.0 4828.0 1144.313609467447 0.510163384281659 430.0 22.0 306.0 
290.0000042429968 16635.0 4825.0 1144.3037475345152 0.5039663784881088 429.0 23.0 305.0 
292.0000042429968 16637.0 4823.0 1144.291913214987 0.5029734635855216 431.0 21.0 307.0 
294.0000042429968 16643.0 4824.0 1146.6429980276118 0.5044697208638774 428.0 24.0 305.0 
296.0000042429968 16601.0 4824.0 1146.6094674556277 0.5042445590236718 428.0 22.0 307.0 
298.0000042429968 16582.0 4825.0 1144.25246548324 0.5062565198507469 426.0 23.0 305.0 
300.0000042429968 16545.0 4823.0 1146.585798816561 0.504024077678861 427.0 21.0 308.0 
302.0000042429968 16579.0 4824.0 1144.2564102564056 0.503905831284368 425.0 24.0 304.0 
304.0000042429968 16510.0 4825.0 1146.59368836292 0.5032819893229854 427.0 22.0 307.0 
306.0000042429968 16530.0 4825.0 1148.8441814595626 0.5051112196693813 428.0 23.0 307.0 
308.0000042429968 16480.0 4824.0 1151.1637080867868 0.5018658932503915 430.0 21.0 310.0 
310.0000042429968 16494.0 4826.0 1151.2366863905315 0.5041947069625556 427.0 24.0 307.0 
312.0000042429968 16476.0 4825.0 1155.7317554240663 0.5031267933156058 430.0 22.0 311.0 
314.0000042429968 16456.0 4825.0 1155.684418145955 0.5031838996474656 429.0 23.0 310.0 
316.0000042429968 16506.0 4826.0 1153.402366863901 0.5027119415673017 431.0 21.0 311.0 
318.0000042429968 16520.0 4825.0 1153.4595660749533 0.5030974871252646 427.0 24.0 308.0 
320.0000042429968 16568.0 4830.0 1146.6666666666645 0.50668552943642 424.0 23.0 306.0 
322.0000042429968 16527.0 4824.0 1139.8579881656747 0.5041392367413027 423.0 24.0 302.0 
324.0000042429968 16604.0 4827.0 1139.842209072981 0.5055035123085699 425.0 22.0 304.0 
326.0000042429968 16560.0 4825.0 1139.932938856017 0.5025243114956243 418.0 25.0 301.0 
328.0000042429968 16541.0 4824.0 1139.8579881656747 0.5028180712630109 419.0 23.0 303.0 
330.0000042429968 16580.0 4827.0 1137.6074950690304 0.503783576464057 417.0 24.0 301.0 
332.0000042429968 16598.0 4826.0 1137.625246548321 0.5068100929039635 417.0 22.0 303.0 
334.0000042429968 16554.0 4825.0 1137.5818540433897 0.504228683448135 415.0 25.0 300.0 
336.0000042429968 16569.0 4826.0 1130.7810650887593 0.5029916709178935 418.0 22.0 300.0 
338.0000042429968 16532.0 4825.0 1130.769230769229 0.5047464616389393 417.0 23.0 299.0 
340.0000042429968 16586.0 4826.0 1133.0631163708044 0.5045048842279805 419.0 21.0 302.0 
342.0000042429968 16594.0 4825.0 1139.8362919132126 0.5045328103486949 420.0 24.0 302.0 
344.0000042429968 16588.0 4826.0 1142.1301775147876 0.5034121945524357 427.0 22.0 305.0 
346.0000042429968 16576.0 4825.0 1146.6410256410304 0.5039100782900685 427.0 23.0 306.0 
348.0000042429968 16572.0 4826.0 1144.4260355029535 0.5047388071363222 429.0 21.0 307.0 
350.0000042429968 16630.0 4828.0 1146.7159763313578 0.5094903137090699 428.0 24.0 305.0 
352.0000042429968 16486.0 4824.0 1144.420118343191 0.5036659011489907 432.0 22.0 306.0 
354.0000042429968 16447.0 4824.0 1142.108481262326 0.5032796800429311 431.0 23.0 304.0 
356.0000042429968 16435.0 4824.0 1139.836291913213 0.5044377518940343 432.0 21.0 305.0 
358.0000042429968 16464.0 4824.0 1139.8875739645034 0.5029676198266558 428.0 24.0 302.0 
360.0000042429968 16478.0 4824.0 1139.8560157790928 0.5036873152107691 432.0 22.0 304.0 
362.0000042429968 16410.0 4823.0 1139.8343195266318 0.5037684935793696 431.0 23.0 303.0 
364.0000042429968 16403.0 4824.0 1139.8106508875783 0.503774831812338 433.0 21.0 305.0 
366.0000042429968 16407.0 4824.0 1137.5996055226808 0.5038003100109413 428.0 24.0 301.0 
368.0000042429968 16405.0 4824.0 1137.6074950690304 0.5035774133522307 429.0 22.0 303.0 
370.0000042429968 16363.0 4824.0 1135.3037475345152 0.5030134894667955 430.0 23.0 301.0 
372.0000042429968 16370.0 4823.0 1139.802761341229 0.5059781087009038 435.0 21.0 305.0 
374.0000042429968 16333.0 4823.0 1135.285996055224 0.5064181407568348 433.0 24.0 300.0 
376.0000042429968 16426.0 4825.0 1137.5345167652865 0.5052609547967317 435.0 22.0 303.0 
378.0000042429968 16332.0 4822.0 1135.2721893491141 0.5030411331292968 435.0 23.0 301.0 
380.0000042429968 16317.0 4824.0 1137.5187376725776 0.506431388646218 438.0 22.0 303.0 
382.0000042429968 16294.0 4823.0 1137.5167652860046 0.5067787734269334 435.0 25.0 300.0 
384.0000042429968 16268.0 4823.0 1137.5581854043378 0.5031737410657278 435.0 23.0 302.0 
386.0000042429968 16420.0 4824.0 1142.0749506903423 0.5102261764196395 433.0 24.0 303.0 
388.0000042429968 16299.0 4821.0 1142.039447731761 0.5031079716815785 432.0 22.0 305.0 
390.0000042429968 16320.0 4823.0 1137.6489151873732 0.5031087420518511 428.0 25.0 300.0 
392.0000042429968 16342.0 4825.0 1139.8086785009814 0.5097626508840004 434.0 22.0 304.0 
394.0000042429968 16234.0 4822.0 1139.8205128205198 0.5041277452783508 435.0 23.0 303.0 
396.0000042429968 16201.0 4820.0 1142.1124260354966 0.5050076808475429 435.0 24.0 303.0 
398.0000042429968 16195.0 4821.0 1139.7909270216905 0.5037157041632753 435.0 24.0 302.0 
400.0000042429968 16216.0 4822.0 1135.2899408284047 0.5049165463731158 435.0 21.0 303.0 
402.0000042429968 16228.0 4824.0 1139.877712031562 0.5071999339641157 434.0 22.0 304.0 
404.0000042429968 16136.0 4822.0 1139.8303747534515 0.5032807463620895 439.0 20.0 306.0 
406.0000042429968 16206.0 4822.0 1139.8717948717936 0.5042039440721463 436.0 23.0 303.0 
408.0000042429968 16205.0 4826.0 1139.8895463510846 0.505639123436982 441.0 21.0 305.0 
410.0000042429968 16132.0 4825.0 1135.3096646942759 0.5042887156536354 439.0 22.0 302.0 
412.0000042429968 16127.0 4826.0 1142.1124260354966 0.5095619422139547 433.0 25.0 302.0 
414.0000042429968 16005.0 4822.0 1144.435897435901 0.5057690231458283 436.0 23.0 305.0 
416.0000042429968 16004.0 4822.0 1139.8106508875794 0.5035759442877819 438.0 21.0 305.0 
418.0000042429968 16079.0 4823.0 1139.8481262327425 0.5043176808911566 437.0 22.0 304.0 
420.0000042429968 16083.0 4824.0 1137.5897435897398 0.5061544474557249 439.0 20.0 305.0 
422.0000042429968 16123.0 4825.0 1142.1577909270184 0.5077753480058027 433.0 23.0 304.0 
424.0000042429968 16068.0 4822.0 1142.1025641025656 0.5024945524720655 433.0 21.0 306.0 
426.0000042429968 16107.0 4823.0 1139.802761341229 0.5046067082103729 430.0 22.0 304.0 
428.0000042429968 16076.0 4821.0 1142.0453648915134 0.5023654359973624 432.0 20.0 307.0 
430.0000042429968 16153.0 4823.0 1137.5108481262264 0.5032961014103897 434.0 23.0 302.0 
432.0000042429968 16107.0 4822.0 1135.2090729783095 0.5027315284133453 436.0 21.0 303.0 
434.0000042429968 16125.0 4821.0 1139.7948717948696 0.5029187998218765 437.0 22.0 304.0 
436.0000042429968 16238.0 4826.0 1142.009861932932 0.5097888298138638 442.0 20.0 307.0 
438.0000042429968 16137.0 4823.0 1142.0887573964542 0.5034526298434708 438.0 23.0 304.0 
440.0000042429968 16227.0 4824.0 1142.0473372781112 0.5091296802001217 444.0 21.0 306.0 
442.0000042429968 16149.0 4823.0 1139.7120315581788 0.5077125370906891 445.0 22.0 304.0 
444.0000042429968 16070.0 4821.0 1139.8126232741604 0.5031323296191146 447.0 20.0 306.0 
446.0000042429968 16084.0 4823.0 1137.4832347139954 0.5041027951733308 444.0 23.0 302.0 
448.0000042429968 16069.0 4822.0 1142.0650887574018 0.5051539767329614 444.0 21.0 306.0 
450.0000042429968 16165.0 4825.0 1148.9526627218893 0.5087317547651454 445.0 22.0 308.0 
452.0000042429968 16198.0 4827.0 1155.6883629191261 0.5095643347084118 447.0 21.0 312.0 
454.0000042429968 16099.0 4823.0 1155.7061143984165 0.5049743089525646 444.0 23.0 310.0 
456.0000042429968 16105.0 4824.0 1157.97830374753 0.505277074671199 444.0 21.0 313.0 
458.0000042429968 16090.0 4823.0 1157.934911242598 0.5065348539519638 443.0 22.0 312.0 
460.0000042429968 16005.0 4821.0 1155.698224852066 0.5047461439188178 445.0 20.0 313.0 
462.0000042429968 16030.0 4822.0 1151.0690335305649 0.5054965597371366 439.0 23.0 308.0 
464.0000042429968 16010.0 4822.0 1151.1203155818562 0.5032367072562555 439.0 22.0 309.0 
466.0000042429968 16004.0 4822.0 1150.99605522682 0.503390371499687 439.0 23.0 308.0 
468.0000042429968 16059.0 4826.0 1151.0788954635138 0.5060364429303277 439.0 21.0 310.0 
470.0000042429968 15959.0 4824.0 1151.0887573964542 0.5040199081130371 436.0 24.0 307.0 
472.0000042429968 15953.0 4824.0 1151.0453648915134 0.503315857894383 438.0 22.0 309.0 
474.0000042429968 15960.0 4825.0 1144.2761341222927 0.5051084488347187 434.0 23.0 305.0 
476.0000042429968 15945.0 4824.0 1135.2406311637117 0.5053901783400399 433.0 21.0 303.0 
478.0000042429968 15930.0 4824.0 1135.2307692307716 0.5034753464645367 430.0 24.0 300.0 
480.0000042429968 15941.0 4825.0 1135.2642998027547 0.5025242117910196 431.0 22.0 302.0 
482.0000042429968 16004.0 4828.0 1139.7376725838183 0.5075050545864497 434.0 23.0 303.0 
484.0000042429968 15895.0 4826.0 1139.8343195266316 0.504275972257085 435.0 21.0 305.0 
486.0000042429968 15917.0 4827.0 1132.9980276134177 0.5058998535763878 430.0 24.0 299.0 
488.0000042429968 15880.0 4825.0 1133.001972386582 0.5020019668750615 432.0 22.0 301.0 
490.0000042429968 15905.0 4827.0 1121.6568047337228 0.5069928052248082 432.0 23.0 295.0 
492.0000042429968 15891.0 4827.0 1121.6587771203217 0.5045959872707475 431.0 21.0 297.0 
494.0000042429968 15937.0 4828.0 1123.8816568047257 0.5069415684981478 429.0 24.0 295.0 
496.0000042429968 15909.0 4828.0 1123.8461538461606 0.505191997697019 428.0 22.0 297.0 
498.0000042429968 15903.0 4829.0 1119.2840236686425 0.5044952558915685 425.0 23.0 294.0 
500.0000042429968 15935.0 4828.0 1119.3037475345152 0.5042075324105386 429.0 21.0 296.0 
502.0000042429968 15873.0 4828.0 1114.8264299802713 0.5053030231607202 428.0 25.0 290.0 
504.0000042429968 15864.0 4827.0 1114.741617356997 0.5057327132331922 427.0 24.0 291.0 
506.0000042429968 15923.0 4828.0 1114.702169625246 0.50658303713663 427.0 25.0 290.0 
508.0000042429968 15892.0 4829.0 1112.5246548323532 0.5056644265769494 426.0 23.0 291.0 
510.0000042429968 15920.0 4829.0 1114.8244575936894 0.5064374452659847 421.0 27.0 288.0 
512.0000042429967 15877.0 4827.0 1114.7988165680497 0.5025499150618645 427.0 22.0 293.0 
514.0000042429967 15892.0 4828.0 1114.755424063109 0.5040405717409782 426.0 23.0 292.0 
516.0000042429967 15980.0 4830.0 1114.7455621301772 0.5069918216714835 428.0 21.0 294.0 
518.0000042429967 15970.0 4829.0 1108.0197238658736 0.5057591132966368 426.0 24.0 288.0 
520.0000042429967 15958.0 4830.0 1105.7120315581797 0.503876983361694 427.0 22.0 289.0 
522.0000042429967 15983.0 4830.0 1107.9861932938888 0.5073876382388933 427.0 23.0 289.0 
524.0000042429967 15958.0 4830.0 1107.9270216962545 0.5053490592600364 432.0 21.0 291.0 
526.0000042429967 15911.0 4828.0 1105.7041420118346 0.505553821033117 427.0 24.0 287.0 
528.0000042429967 15886.0 4827.0 1101.1913214990186 0.5024371446114106 427.0 22.0 287.0 
530.0000042429967 15957.0 4832.0 1098.8796844181438 0.5058548481523205 425.0 23.0 285.0 
532.0000042429967 15849.0 4830.0 1110.2662721893523 0.5059490957416192 430.0 21.0 292.0 
534.0000042429967 15838.0 4828.0 1112.5542406311588 0.5025119632871458 424.0 24.0 290.0 
536.0000042429967 15870.0 4829.0 1112.5108481262273 0.5042489023229002 429.0 22.0 292.0 
538.0000042429967 15883.0 4828.0 1117.0867850098564 0.505373872368572 428.0 23.0 293.0 
540.0000042429967 15901.0 4832.0 1121.6725838264326 0.5076906408245684 433.0 21.0 297.0 
542.0000042429967 15880.0 4830.0 1128.4950690335345 0.5063993922410394 430.0 24.0 297.0 
544.0000042429967 15860.0 4828.0 1133.0118343195295 0.5032433312616799 434.0 22.0 301.0 
546.0000042429967 15873.0 4830.0 1130.686390532553 0.5041116292429197 434.0 23.0 299.0 
548.0000042429967 15892.0 4830.0 1130.6942800789027 0.505464220129978 434.0 21.0 301.0 
550.0000042429967 15864.0 4829.0 1126.2031558185483 0.502341363034201 430.0 24.0 296.0 
552.0000042429967 15894.0 4831.0 1126.1873767258396 0.5072760427631607 427.0 22.0 298.0 
554.0000042429967 15865.0 4830.0 1126.1814595660783 0.5057387059136845 426.0 23.0 297.0 
556.0000042429967 15893.0 4831.0 1128.4891518737732 0.5054985398087133 431.0 21.0 300.0 
558.0000042429967 15899.0 4829.0 1128.5502958579873 0.5052428261421286 429.0 24.0 297.0 
560.0000042429967 15901.0 4829.0 1121.6548323471427 0.5056080980555526 428.0 22.0 296.0 
562.0000042429967 15952.0 4830.0 1121.6844181459537 0.5090344262678806 429.0 23.0 295.0 
564.0000042429967 15859.0 4828.0 1121.672583826434 0.5044592625748352 432.0 21.0 297.0 
566.0000042429967 15850.0 4829.0 1121.680473372775 0.5043232336459655 428.0 24.0 294.0 
568.0000042429967 15811.0 4829.0 1135.3510848126273 0.5036039678088043 431.0 22.0 302.0 
570.0000042429967 15838.0 4828.0 1135.3431952662772 0.5048699152987852 427.0 23.0 301.0 
572.0000042429967 15780.0 4829.0 1132.998027613418 0.5043943989157503 428.0 21.0 302.0 
574.0000042429967 15835.0 4832.0 1133.0532544378725 0.5070695308155739 422.0 25.0 298.0 
576.0000042429967 15813.0 4831.0 1133.0236686390517 0.5097668195444939 423.0 23.0 300.0 
578.0000042429967 15737.0 4828.0 1135.285996055224 0.5033844319233455 422.0 23.0 301.0 
580.0000042429967 15826.0 4830.0 1139.7475345167593 0.5046885882607688 427.0 21.0 305.0 
582.0000042429967 15868.0 4829.0 1144.4161735700122 0.505296356463709 433.0 23.0 305.0 
584.0000042429967 15832.0 4829.0 1146.6272189349033 0.5044012576068344 435.0 21.0 308.0 
586.0000042429967 15879.0 4830.0 1146.5897435897398 0.5064508047420291 440.0 22.0 307.0 
588.0000042429967 15881.0 4828.0 1146.6548323471416 0.5075065499174409 445.0 20.0 309.0 
590.0000042429967 15820.0 4826.0 1144.3333333333353 0.5069384797386821 442.0 23.0 305.0 
592.0000042429967 15885.0 4830.0 1146.6508875739712 0.5067912133931016 444.0 21.0 308.0 
594.0000042429967 15858.0 4829.0 1146.5956607495016 0.5030000535362389 443.0 22.0 307.0 
596.0000042429967 15897.0 4827.0 1146.6035502958516 0.5043979242775307 447.0 20.0 309.0 
598.0000042429967 15852.0 4826.0 1146.652859960544 0.50253597392424 442.0 23.0 306.0 
600.0000042429967 15860.0 4827.0 1144.319526627224 0.5025066381377657 447.0 21.0 307.0 
602.0000042429967 15841.0 4828.0 1151.1005917159825 0.5028015493774494 450.0 22.0 309.0 
604.0000042429967 15920.0 4831.0 1148.8954635108528 0.5031912915881974 453.0 20.0 310.0 
606.0000042429967 15965.0 4832.0 1144.3846153846102 0.5075765611491306 448.0 23.0 305.0 
608.0000042429967 15887.0 4829.0 1148.8954635108532 0.5030402416637972 450.0 21.0 309.0 
610.0000042429967 15912.0 4830.0 1155.670611439835 0.503649561212051 447.0 23.0 310.0 
612.0000042429967 15913.0 4830.0 1153.4654832347135 0.5031559589014608 450.0 20.0 312.0 
614.0000042429967 15944.0 4831.0 1151.1952662721894 0.5043387423238939 447.0 23.0 308.0 
616.0000042429967 15976.0 4832.0 1151.1538461538396 0.5054068733194793 451.0 21.0 310.0 
618.0000042429967 15933.0 4832.0 1148.9072978303668 0.5033994316818031 449.0 22.0 308.0 
620.0000042429967 15975.0 4830.0 1151.157790927019 0.503891553085137 449.0 21.0 310.0 
622.0000042429967 16090.0 4833.0 1167.0788954635134 0.507757672321705 447.0 24.0 314.0 
624.0000042429967 16056.0 4830.0 1162.5404339250467 0.5042465608043327 444.0 22.0 314.0 
626.0000042429967 16052.0 4830.0 1162.4418145956622 0.5045444888533476 443.0 22.0 314.0 
628.0000042429967 16099.0 4830.0 1162.5147928994058 0.503123154368884 447.0 20.0 316.0 
630.0000042429967 16106.0 4830.0 1160.2938856015835 0.5038728112626555 444.0 23.0 312.0 
632.0000042429967 16143.0 4831.0 1157.964497041418 0.5059976654582082 444.0 21.0 313.0 
634.0000042429967 16229.0 4836.0 1155.698224852066 0.5061127343453763 445.0 22.0 311.0 
636.0000042429967 16317.0 4834.0 1162.5798816568088 0.5094634784791228 450.0 20.0 316.0 
638.0000042429967 16168.0 4829.0 1158.1065088757443 0.5022241304539244 450.0 23.0 311.0 
640.0000042429967 16197.0 4830.0 1158.0414201183423 0.5027313119335824 449.0 21.0 313.0 
642.0000042429967 16210.0 4832.0 1162.6114398422108 0.5049928070022307 449.0 22.0 314.0 
644.0000042429967 16175.0 4830.0 1153.4753451676456 0.5015394284502931 447.0 20.0 312.0 
646.0000042429967 16202.0 4831.0 1155.875739644965 0.5034715523093702 440.0 23.0 310.0 
648.0000042429967 16162.0 4831.0 1158.1143984220942 0.5021073101411148 440.0 21.0 313.0 
650.0000042429967 16165.0 4832.0 1155.8224852070925 0.5018667605486018 437.0 22.0 311.0 
652.0000042429967 16204.0 4832.0 1160.3530571992078 0.5066628267100487 441.0 20.0 315.0 
654.0000042429967 16158.0 4831.0 1158.1203155818562 0.5037404376708535 438.0 23.0 311.0 
656.0000042429967 16156.0 4833.0 1169.4280078895513 0.5065920609806577 438.0 21.0 318.0 
658.0000042429967 16176.0 4835.0 1178.5719921104487 0.5049971070900628 438.0 22.0 321.0 
660.0000042429967 16183.0 4834.0 1178.4990138067135 0.5064017976660354 440.0 20.0 323.0 
662.0000042429967 16114.0 4833.0 1178.6153846153898 0.5059801570906676 436.0 23.0 320.0 
664.0000042429967 16079.0 4834.0 1176.1558185404376 0.5040135072321734 437.0 21.0 321.0 
#####################################################################
# End of data export. Simulation finished at: 2019-03-11T05:51+0000 #
#####################################################################
