#####################################################################
# Alchemist log file - simulation started at: 2019-03-05T03:30+0000 #
#####################################################################
# seed = 6.0, bandwidth = 17782.79410038923, accessPointCount = 2000.0, baserange = 100.0
#
# The columns have the following meaning: 
# time neighbor_count[Sum] <value>@neighbor_count[Sum] packet_size[Mean] mean_delay[Mean] crowd[Sum] overcrowded[Sum] risk[Sum] 
0.0 NaN NaN NaN NaN NaN NaN NaN 
2.000066164899353 1704.0 1381.0 4975.567629396626 0.42198307629994075 1497.0 0.0 1497.0 
4.000066164899353 3208.0 2280.0 4981.203317128968 0.6432864420295555 1497.0 0.0 1497.0 
6.000066164899353 4197.0 2442.0 4979.981698598798 0.7711458473037031 1497.0 0.0 1497.0 
8.000066164899353 4989.0 2505.0 4980.891049470975 0.9075993870648722 1497.0 0.0 1497.0 
10.000066164899353 5442.0 2545.0 4981.4240777809555 1.0157909135996908 1497.0 0.0 1497.0 
12.000066164899353 5739.0 2572.0 4980.668001143838 1.1286279816490519 1495.0 2.0 1495.0 
14.000066164899353 5815.0 2575.0 4980.948241349728 1.222709354926685 1496.0 1.0 1496.0 
16.00006616489935 5815.0 2575.0 4980.505576208178 1.3360814524926699 1494.0 3.0 1494.0 
18.00006616489935 5815.0 2575.0 4980.744638261367 1.4949641545216839 1494.0 3.0 1494.0 
20.00006616489935 5815.0 2575.0 4980.645124392337 1.5493311468525135 1491.0 6.0 1491.0 
22.00006616489935 5815.0 2575.0 4980.064054904204 1.698149849520694 1486.0 11.0 1486.0 
24.00006616489935 5811.0 2572.0 4980.848727480698 1.7970155385798905 1487.0 10.0 1487.0 
26.00006616489935 5751.0 2546.0 4979.485273091221 1.6674589583473949 1482.0 15.0 1482.0 
28.00006616489935 5593.0 2506.0 4980.797254789819 1.4012191731116814 1485.0 12.0 1485.0 
30.00006616489935 5447.0 2471.0 4980.577637975407 1.187509154141001 1482.0 15.0 1482.0 
32.00006616489935 5355.0 2443.0 4979.755218758937 0.8630016596308242 1474.0 23.0 1474.0 
34.00006616489935 5334.0 2435.0 4980.394623963397 0.8334745114499683 1469.0 28.0 1469.0 
36.00006616489935 5334.0 2435.0 4979.873034029168 0.8390307039185668 1473.0 24.0 1473.0 
38.00006616489935 5334.0 2435.0 4980.168144123534 0.8102456873195828 1468.0 29.0 1468.0 
40.00006616489935 5332.0 2435.0 4980.78810408922 0.8116140030855585 1469.0 28.0 1469.0 
42.00006616489935 5337.0 2436.0 4979.574492422076 0.8462915490294068 1463.0 34.0 1463.0 
44.00006616489935 5340.0 2437.0 4980.395767800972 0.7865659489417416 1465.0 32.0 1465.0 
46.00006616489935 5343.0 2438.0 4979.665999428081 0.8338791542925055 1474.0 23.0 1474.0 
48.00006616489935 5355.0 2439.0 4980.407206176724 0.849076434855494 1472.0 25.0 1472.0 
50.00006616489935 5374.0 2440.0 4979.959965684873 0.8385765633504344 1470.0 27.0 1470.0 
52.00006616489935 5398.0 2443.0 4980.043465827852 0.8423664502926264 1462.0 35.0 1462.0 
54.00006616489935 5406.0 2443.0 4980.339719759793 0.9033084677475832 1464.0 33.0 1464.0 
56.00006616489935 5416.0 2445.0 4979.394909922791 0.8434362030532356 1464.0 33.0 1464.0 
58.00006616489935 5430.0 2446.0 4980.451815842151 0.8922990853968854 1465.0 32.0 1465.0 
60.00006616489935 5445.0 2449.0 4979.118101229626 0.9193525712756128 1465.0 32.0 1465.0 
62.00006616489935 5461.0 2449.0 731.5973691735799 0.7712788821630921 572.0 33.0 219.0 
64.00006616489935 5463.0 2449.0 732.8121246783052 0.7612381766204223 432.0 31.0 222.0 
66.00006616489935 5464.0 2450.0 732.7881040892262 0.8068941546982029 393.0 26.0 227.0 
68.00006616489935 5455.0 2448.0 731.4418072633646 0.7378158302018044 352.0 31.0 221.0 
70.00006616489935 5470.0 2450.0 731.4006291106648 0.8025848845768944 328.0 31.0 221.0 
72.00006616489935 5486.0 2450.0 731.4269373749061 0.8179510560144169 320.0 31.0 221.0 
74.00006616489935 5494.0 2452.0 731.3880468973266 0.8245882171215939 317.0 30.0 222.0 
76.00006616489935 5512.0 2454.0 731.4097798112588 0.8224776799607018 313.0 30.0 222.0 
78.00006616489935 5510.0 2452.0 731.4074921361163 0.8569374185587881 312.0 30.0 222.0 
80.00006616489935 5516.0 2452.0 731.3857592221793 0.8001624650260427 309.0 31.0 221.0 
82.00006616489935 5492.0 2451.0 731.3743208464435 0.8217624538311273 300.0 37.0 215.0 
84.00006616489935 5494.0 2452.0 731.3708893337256 0.8023710904763146 303.0 31.0 221.0 
86.00006616489935 5487.0 2452.0 728.7160423219902 0.7983316662219285 302.0 31.0 219.0 
88.00006616489935 5485.0 2451.0 724.7938232770861 0.8220884822641822 299.0 31.0 216.0 
90.00006616489935 5474.0 2450.0 720.8418644552394 0.815195880493284 299.0 31.0 213.0 
92.00006616489935 5461.0 2449.0 719.5184443808878 0.7388796385834319 296.0 31.0 212.0 
94.00006616489935 5470.0 2450.0 719.542464969967 0.7758760690519986 294.0 31.0 212.0 
96.00006616489935 5501.0 2454.0 722.1561338289968 0.7551980147076471 300.0 25.0 220.0 
98.00006616489935 5499.0 2453.0 724.7983986273935 0.7667689674164819 296.0 29.0 218.0 
100.00006616489935 5519.0 2454.0 724.7743780383145 0.7746847793841114 296.0 31.0 216.0 
102.00006616489935 5516.0 2454.0 724.7766657134617 0.8090879308285592 289.0 38.0 209.0 
104.00006616489935 5517.0 2454.0 724.7698026880071 0.7678397334758129 287.0 38.0 209.0 
106.00006616489935 5523.0 2456.0 724.7812410637728 0.8082706243175162 290.0 35.0 212.0 
108.00006616489935 5544.0 2457.0 726.0852158993353 0.8293140978052566 292.0 35.0 213.0 
110.00006616489935 5558.0 2457.0 727.3869030597549 0.7801988515165642 292.0 34.0 215.0 
112.00006616489935 5572.0 2456.0 727.3880468973267 0.8203861078373916 293.0 34.0 215.0 
114.00006616489935 5587.0 2459.0 727.4063482985459 0.8232797201475511 294.0 34.0 215.0 
116.00006616489935 5580.0 2457.0 727.3823277094671 0.7590828474067388 293.0 35.0 214.0 
118.00006616489935 5591.0 2458.0 727.410923648834 0.8260576648988405 293.0 34.0 215.0 
120.00006616489935 5603.0 2459.0 726.0829282241879 0.8280329108927938 296.0 32.0 216.0 
122.00006616489935 5634.0 2461.0 727.399485273092 0.8266577512176254 297.0 32.0 217.0 
124.00006616489935 5638.0 2460.0 727.3869030597549 0.849011528092164 299.0 31.0 218.0 
126.00006616489935 5625.0 2457.0 726.0909350872178 0.8487624103705541 298.0 31.0 217.0 
128.00006616489935 5623.0 2456.0 727.4086359736867 0.8216172030719834 298.0 31.0 218.0 
130.00006616489935 5620.0 2456.0 726.0966542751003 0.8696689521495663 298.0 31.0 217.0 
132.00006616489935 5592.0 2457.0 723.485273091212 0.8549469453484524 297.0 31.0 215.0 
134.00006616489935 5584.0 2458.0 726.1080926508421 0.8512940669929813 295.0 31.0 217.0 
136.00006616489935 5580.0 2458.0 727.4315127251955 0.8598565649651682 295.0 31.0 218.0 
138.00006616489935 5571.0 2457.0 727.4406634257903 0.8607862924999572 295.0 31.0 218.0 
140.00006616489935 5558.0 2456.0 730.044037746654 0.8277750372576366 296.0 31.0 220.0 
142.00006616489935 5544.0 2454.0 727.412067486406 0.8784534063969894 297.0 31.0 218.0 
144.00006616489935 5532.0 2455.0 727.4074921361163 0.8700705931329653 297.0 31.0 218.0 
146.00006616489935 5526.0 2453.0 727.4006291106639 0.8394341218443317 298.0 31.0 218.0 
148.00006616489935 5517.0 2453.0 727.4097798112588 0.8373076827876723 300.0 31.0 218.0 
150.00006616489935 5511.0 2454.0 726.0989419502423 0.8624197896910731 299.0 31.0 217.0 
152.00006616489935 5507.0 2455.0 726.0863597369055 0.843072919236031 300.0 31.0 217.0 
154.00006616489935 5494.0 2452.0 726.0817843866158 0.857810882383373 300.0 31.0 217.0 
156.00006616489935 5491.0 2454.0 726.0897912496473 0.8557141763083115 300.0 31.0 217.0 
158.00006616489935 5480.0 2454.0 728.6988847583638 0.8442362290095301 302.0 31.0 219.0 
160.00006616489935 5484.0 2456.0 730.0406062339191 0.8732689046753163 302.0 31.0 220.0 
162.00006616489935 5492.0 2457.0 730.0211609951466 0.9053758757437594 302.0 31.0 220.0 
164.00006616489935 5489.0 2458.0 731.3331426937384 0.8491448176535833 301.0 31.0 221.0 
166.00006616489935 5483.0 2455.0 733.9616814412276 0.875359885076039 303.0 31.0 223.0 
168.00006616489935 5450.0 2453.0 733.9857020303054 0.8332301038402581 303.0 31.0 223.0 
170.00006616489935 5446.0 2452.0 735.2633686016483 0.7776371071502953 303.0 31.0 224.0 
172.00006616489935 5473.0 2455.0 735.2896768658695 0.7761936058966307 305.0 31.0 224.0 
174.00006616489935 5485.0 2454.0 733.9799828424251 0.801548901757009 304.0 31.0 223.0 
176.00006616489935 5508.0 2458.0 733.9525307406283 0.7521019104989723 305.0 31.0 223.0 
178.00006616489935 5504.0 2457.0 735.2885330282977 0.8133481655750641 305.0 31.0 224.0 
180.00006616489935 5504.0 2457.0 735.2931083786042 0.8112492869535618 304.0 31.0 224.0 
182.00006616489935 5509.0 2459.0 735.2656562768123 0.799762729161354 304.0 31.0 224.0 
184.00006616489935 5500.0 2457.0 733.9719759794182 0.8278667738618426 303.0 31.0 223.0 
186.00006616489935 5510.0 2460.0 732.6577066056673 0.8144964273867529 303.0 31.0 222.0 
188.00006616489935 5509.0 2459.0 733.9731198169936 0.7919829336512981 301.0 31.0 223.0 
190.00006616489935 5523.0 2459.0 735.2896768658696 0.8417875302624518 302.0 31.0 224.0 
192.00006616489935 5525.0 2463.0 736.6062339147919 0.8240155062179796 303.0 31.0 225.0 
194.00006616489935 5527.0 2462.0 736.5833571632894 0.8180712020059163 303.0 31.0 225.0 
196.00006616489935 5539.0 2463.0 737.915927938238 0.825538623966475 305.0 32.0 225.0 
198.00006616489935 5556.0 2463.0 737.9285101515494 0.8518388709483846 306.0 32.0 225.0 
200.00006616489935 5572.0 2464.0 737.9193594509555 0.8079103732622333 306.0 32.0 225.0 
202.00006616489935 5576.0 2461.0 737.9193594509555 0.8368594760354154 304.0 34.0 223.0 
204.00006616489935 5568.0 2461.0 737.923934801265 0.8125032594731649 303.0 35.0 222.0 
206.00006616489935 5569.0 2463.0 736.6108092650816 0.7916303499791951 306.0 32.0 224.0 
208.00006616489935 5576.0 2462.0 735.3171289676831 0.8142427866182449 303.0 34.0 221.0 
210.00006616489935 5577.0 2462.0 734.0062911066667 0.8502073138476097 300.0 36.0 218.0 
212.00006616489935 5567.0 2460.0 732.6599942808097 0.8104209310573942 300.0 36.0 217.0 
214.00006616489935 5542.0 2457.0 732.6645696311195 0.8508865986070425 300.0 36.0 217.0 
216.00006616489935 5553.0 2459.0 733.9857020303054 0.8613152259108564 300.0 36.0 218.0 
218.00006616489935 5537.0 2457.0 732.6863025450514 0.8628233521877656 300.0 36.0 217.0 
220.00006616489935 5542.0 2457.0 732.6714326565511 0.8833667994836784 300.0 36.0 217.0 
222.00006616489935 5536.0 2458.0 731.3468687446463 0.8990982917811395 299.0 36.0 216.0 
224.00006616489935 5535.0 2456.0 731.3400057191903 0.856021191718184 299.0 35.0 217.0 
226.00006616489935 5519.0 2455.0 731.3468687446463 0.8831651441375008 301.0 32.0 220.0 
228.00006616489935 5496.0 2453.0 727.4212181870238 0.8822519770648404 301.0 32.0 217.0 
230.00006616489935 5498.0 2453.0 726.078352873881 0.8246347833189797 300.0 32.0 216.0 
232.00006616489935 5494.0 2455.0 726.103517300532 0.8512509437217537 299.0 32.0 216.0 
234.00006616489935 5477.0 2450.0 726.1080926508423 0.8065811349754205 297.0 32.0 216.0 
236.00006616489935 5473.0 2451.0 726.0955104375247 0.7191666316287502 296.0 32.0 216.0 
238.00006616489935 5482.0 2454.0 726.1080926508423 0.7867696655891346 298.0 32.0 216.0 
240.00006616489935 5489.0 2455.0 726.1241063768916 0.7669302626598891 298.0 32.0 216.0 
242.00006616489935 5484.0 2454.0 724.7698026880071 0.7513218902712586 297.0 32.0 215.0 
244.00006616489935 5493.0 2457.0 726.1046611381023 0.7848515239928713 298.0 32.0 216.0 
246.00006616489935 5498.0 2458.0 727.4177866742866 0.7884629437222616 299.0 32.0 217.0 
248.00006616489935 5486.0 2456.0 730.0360308836063 0.7600076297016615 302.0 32.0 219.0 
250.00006616489935 5480.0 2456.0 727.4246496997428 0.7822393401517044 301.0 33.0 216.0 
252.00006616489935 5481.0 2458.0 727.4235058621708 0.800726453148652 300.0 34.0 215.0 
254.00006616489935 5496.0 2458.0 728.7183299971324 0.7877298616299642 300.0 36.0 214.0 
256.00006616489935 5510.0 2459.0 728.7091792965379 0.7775709575872161 304.0 34.0 216.0 
258.00006616489935 5528.0 2461.0 730.0451815842257 0.8056559425538619 306.0 32.0 219.0 
260.00006616489935 5550.0 2466.0 731.350300257365 0.7629896507282732 307.0 32.0 220.0 
262.00006616489935 5544.0 2466.0 730.0497569345135 0.8197842071800215 305.0 32.0 219.0 
264.00006616489935 5546.0 2469.0 730.050900772084 0.8290375582908227 307.0 32.0 219.0 
266.00006616489935 5560.0 2470.0 731.3686016585577 0.8114961346968443 307.0 32.0 220.0 
268.00006616489935 5567.0 2472.0 732.6954532456289 0.8609373179275656 306.0 32.0 221.0 
270.00006616489935 5567.0 2472.0 731.376608521607 0.8601454447364298 309.0 32.0 220.0 
272.00006616489935 5557.0 2470.0 731.3548756076704 0.8262624065177386 307.0 32.0 220.0 
274.00006616489935 5550.0 2467.0 731.3697454961297 0.862368436121056 306.0 32.0 220.0 
276.00006616489935 5548.0 2468.0 732.7011724335105 0.8660760762856753 305.0 32.0 221.0 
278.00006616489935 5534.0 2468.0 735.3342865313086 0.8750435588133161 303.0 32.0 223.0 
280.00006616489935 5536.0 2467.0 736.6416928796124 0.8702934325675061 303.0 32.0 224.0 
282.00006616489935 5523.0 2466.0 736.6325421790133 0.9233287661702033 306.0 32.0 224.0 
284.00006616489935 5529.0 2471.0 736.6085215899391 0.9028522439642349 305.0 32.0 224.0 
286.00006616489935 5519.0 2467.0 732.7011724335107 0.8842318687338911 303.0 32.0 221.0 
288.00006616489935 5510.0 2468.0 735.3354303688803 0.8270207600214221 304.0 32.0 223.0 
290.00006616489935 5512.0 2468.0 736.6233914783929 0.8268150307494851 302.0 32.0 224.0 
292.00006616489935 5509.0 2467.0 736.6359736917524 0.8553579988410999 300.0 32.0 224.0 
294.00006616489935 5512.0 2469.0 736.6211038032505 0.9058880790967848 299.0 32.0 224.0 
296.00006616489935 5516.0 2468.0 736.6130969402452 0.8305911068838865 300.0 32.0 224.0 
298.00006616489935 5538.0 2469.0 737.9445238776266 0.8916345695907396 300.0 32.0 225.0 
300.00006616489935 5533.0 2467.0 740.5536173863243 0.8808161273473875 300.0 32.0 227.0 
302.00006616489935 5523.0 2465.0 741.845010008578 0.8273137594428243 303.0 32.0 228.0 
304.00006616489935 5525.0 2465.0 741.8587360594801 0.8342908633756078 303.0 32.0 228.0 
306.00006616489935 5531.0 2466.0 740.5524735487533 0.831114185510541 302.0 32.0 227.0 
308.00006616489935 5529.0 2464.0 739.2382041749985 0.8159670686462946 301.0 32.0 226.0 
310.00006616489935 5533.0 2465.0 740.5364598227043 0.8600199526148238 301.0 32.0 227.0 
312.00006616489935 5532.0 2465.0 739.2370603374235 0.8742809108105472 302.0 32.0 226.0 
314.00006616489935 5525.0 2464.0 737.9113525879262 0.8391293326094277 300.0 32.0 225.0 
316.00006616489935 5518.0 2462.0 737.912496425498 0.8394065098083252 303.0 32.0 225.0 
318.00006616489935 5517.0 2462.0 737.9273663139774 0.8439432701215639 300.0 32.0 225.0 
320.00006616489935 5527.0 2463.0 739.2038890477719 0.7903502104412781 300.0 32.0 226.0 
322.00006616489935 5538.0 2465.0 739.2324849871391 0.8363596407742631 299.0 32.0 226.0 
324.00006616489935 5541.0 2466.0 739.2336288247106 0.8470309716948675 299.0 32.0 226.0 
326.00006616489935 5566.0 2470.0 737.9170717758142 0.8365293576153773 297.0 32.0 225.0 
328.00006616489935 5566.0 2469.0 736.6016585644769 0.8613001694291813 298.0 32.0 224.0 
330.00006616489935 5561.0 2468.0 739.2553617386427 0.8485466088667607 298.0 32.0 226.0 
332.00006616489935 5564.0 2469.0 739.2279096368305 0.8149475711321262 299.0 32.0 226.0 
334.00006616489935 5563.0 2468.0 739.2416356877319 0.858990155145119 299.0 32.0 226.0 
336.00006616489935 5546.0 2468.0 739.2633686016482 0.8579028329206636 300.0 32.0 226.0 
338.00006616489935 5554.0 2469.0 740.5593365742116 0.8606861632319104 300.0 32.0 227.0 
340.00006616489935 5553.0 2468.0 740.5501858736059 0.9083752831256949 299.0 32.0 227.0 
342.00006616489935 5561.0 2472.0 739.2370603374234 0.9392796604589162 299.0 32.0 226.0 
344.00006616489935 5536.0 2469.0 739.2267657992586 0.8840422568530285 299.0 32.0 226.0 
346.00006616489935 5514.0 2465.0 737.9365170145757 0.8674982607221896 299.0 32.0 225.0 
348.00006616489935 5511.0 2465.0 739.2416356877322 0.8737967284968932 299.0 32.0 226.0 
350.00006616489935 5503.0 2465.0 737.8964826994684 0.8267030085333611 297.0 32.0 225.0 
352.00006616489935 5498.0 2463.0 737.9079210752086 0.8303903181560285 298.0 32.0 225.0 
354.00006616489935 5496.0 2463.0 739.2336288247106 0.8382944639900648 299.0 32.0 226.0 
356.00006616489935 5486.0 2463.0 740.5364598227045 0.7681532437920954 299.0 32.0 227.0 
358.00006616489935 5502.0 2463.0 739.2507863883375 0.8211549969983062 301.0 32.0 226.0 
360.00006616489935 5516.0 2465.0 740.5536173863236 0.8442169906585066 302.0 32.0 227.0 
362.00006616489935 5527.0 2466.0 741.8667429225103 0.8000872935524911 303.0 32.0 228.0 
364.00006616489935 5514.0 2465.0 741.8667429225103 0.8212654899539606 303.0 32.0 228.0 
366.00006616489935 5523.0 2468.0 739.2439233628792 0.8348405240319783 302.0 32.0 226.0 
368.00006616489935 5517.0 2467.0 733.9674006291127 0.8377161174818432 301.0 31.0 223.0 
370.00006616489935 5508.0 2466.0 733.9754074921357 0.8592600672946253 300.0 31.0 223.0 
372.00006616489935 5520.0 2469.0 732.669144981404 0.8854507239787885 298.0 31.0 222.0 
374.00006616489935 5525.0 2468.0 730.0268801830064 0.8690484418375176 297.0 31.0 220.0 
376.00006616489935 5521.0 2467.0 728.7469259365203 0.8848004477328665 291.0 31.0 219.0 
378.00006616489935 5521.0 2466.0 727.4166428367108 0.906437800250575 292.0 31.0 218.0 
380.00006616489935 5538.0 2469.0 730.0154418072652 0.8710152634994498 294.0 31.0 220.0 
382.00006616489935 5538.0 2467.0 730.0394623963444 0.9236181171844874 293.0 31.0 220.0 
384.00006616489935 5536.0 2470.0 727.4235058621713 0.89877653072561 291.0 31.0 218.0 
386.00006616489935 5544.0 2470.0 727.398341435522 0.8957937365076665 287.0 31.0 218.0 
388.00006616489935 5529.0 2469.0 724.799542464968 0.9036905812513533 286.0 31.0 216.0 
390.00006616489935 5517.0 2468.0 726.1069488132663 0.9235616199494419 287.0 31.0 217.0 
392.00006616489935 5519.0 2466.0 727.3857592221794 0.8734708651051435 288.0 31.0 218.0 
394.00006616489935 5544.0 2468.0 728.7229053474423 0.9257476125894067 288.0 31.0 219.0 
396.00006616489935 5550.0 2467.0 728.7343437231877 0.9093065428199286 287.0 32.0 218.0 
398.00006616489935 5548.0 2466.0 728.7240491850142 0.9234596615893624 287.0 32.0 218.0 
400.00006616489935 5543.0 2468.0 731.3491564197932 0.9310070104126401 286.0 32.0 220.0 
402.00006616489935 5522.0 2466.0 731.34458106948 0.9792087922537887 286.0 32.0 220.0 
404.00006616489935 5501.0 2464.0 730.0211609951466 0.9360420321901151 287.0 31.0 220.0 
406.00006616489935 5467.0 2464.0 730.0451815842257 0.9223174357246868 287.0 31.0 220.0 
408.00006616489935 5463.0 2465.0 730.0371747212015 0.9642912097559757 288.0 31.0 220.0 
410.00006616489935 5466.0 2466.0 730.0165856448401 0.9435365419266483 289.0 31.0 220.0 
412.00006616489935 5459.0 2466.0 730.023448670294 0.9419413760755176 289.0 31.0 220.0 
414.00006616489935 5460.0 2466.0 730.0577637975379 0.9729737861873128 289.0 31.0 220.0 
416.00006616489935 5450.0 2463.0 730.0200171575748 0.8938694088547641 290.0 31.0 220.0 
418.00006616489935 5453.0 2466.0 731.3537317700997 0.896411021282593 291.0 31.0 221.0 
420.00006616489935 5452.0 2468.0 731.3319988561678 0.9376940740973692 291.0 31.0 221.0 
422.00006616489935 5463.0 2469.0 731.3422933943328 0.9579684542906635 292.0 31.0 221.0 
424.00006616489935 5468.0 2468.0 730.0554761223736 0.9715710645869664 291.0 32.0 219.0 
426.00006616489935 5463.0 2469.0 731.3560194452456 1.0133683288260282 291.0 32.0 220.0 
428.00006616489935 5415.0 2463.0 727.3914784100617 0.9253015439524059 294.0 32.0 217.0 
430.00006616489935 5418.0 2462.0 727.4052044609741 0.9262481932851803 294.0 32.0 217.0 
432.00006616489935 5410.0 2460.0 724.7617958250013 0.9256739071101182 292.0 32.0 215.0 
434.00006616489935 5389.0 2458.0 724.7823849013439 0.8657123949878102 293.0 33.0 214.0 
436.00006616489935 5381.0 2459.0 726.0966542751003 0.8763055094262974 295.0 33.0 215.0 
438.00006616489935 5360.0 2458.0 726.0726336860226 0.8620645874786628 295.0 33.0 215.0 
440.00006616489935 5359.0 2458.0 726.0646268229931 0.8152006813544571 295.0 33.0 215.0 
442.00006616489935 5348.0 2456.0 722.1424077781109 0.8602953823783306 295.0 32.0 213.0 
444.00006616489935 5340.0 2454.0 719.5310265942229 0.8240077554685763 297.0 31.0 212.0 
446.00006616489935 5347.0 2454.0 723.4498141263919 0.8025892815925711 297.0 31.0 215.0 
448.00006616489935 5363.0 2454.0 724.7755218758896 0.837893235414712 299.0 31.0 216.0 
450.00006616489935 5365.0 2456.0 724.7515012868103 0.8630538100477532 300.0 31.0 216.0 
452.00006616489935 5368.0 2457.0 724.758364312266 0.8352608730873258 301.0 31.0 216.0 
454.00006616489935 5372.0 2459.0 726.1103803259847 0.8155086303357936 299.0 31.0 217.0 
456.00006616489935 5374.0 2459.0 724.7629396625765 0.8175560971698328 299.0 31.0 216.0 
458.00006616489935 5382.0 2458.0 727.4109236488339 0.7958205694602499 298.0 32.0 217.0 
460.00006616489935 5386.0 2456.0 728.7080354589662 0.7626535414485579 297.0 32.0 218.0 
462.00006616489935 5389.0 2459.0 728.7423505862116 0.8128720464134367 297.0 32.0 218.0 
464.00006616489935 5391.0 2460.0 727.4326565627656 0.7530754050142732 295.0 32.0 217.0 
466.00006616489935 5397.0 2462.0 726.0932227623823 0.8070197869959266 295.0 32.0 216.0 
468.00006616489935 5396.0 2462.0 726.1092364884125 0.8188769850846874 296.0 32.0 216.0 
470.00006616489935 5400.0 2464.0 726.1080926508421 0.8204547349501099 296.0 32.0 216.0 
472.00006616489935 5399.0 2465.0 726.0955104375247 0.8499283299259093 296.0 32.0 216.0 
474.00006616489935 5401.0 2465.0 723.5115813554337 0.9072812248317941 294.0 32.0 214.0 
476.00006616489935 5380.0 2461.0 720.8544466685755 0.8565831865817182 291.0 32.0 212.0 
478.00006616489935 5376.0 2462.0 720.8487274806926 0.8658016758844767 292.0 32.0 212.0 
480.00006616489935 5371.0 2461.0 722.1675722047604 0.8705495819865653 291.0 32.0 213.0 
482.00006616489935 5365.0 2462.0 722.1755790677627 0.8765751814001819 291.0 32.0 213.0 
484.00006616489935 5360.0 2462.0 722.1801544180734 0.8661990333637841 292.0 32.0 213.0 
486.00006616489935 5354.0 2461.0 722.1469831284005 0.9027987573114319 292.0 32.0 213.0 
488.00006616489935 5354.0 2459.0 722.1549899914237 0.802297970955158 293.0 32.0 213.0 
490.00006616489935 5362.0 2461.0 723.4555333142745 0.826504237804477 291.0 32.0 214.0 
492.00006616489935 5355.0 2461.0 723.4623963397049 0.8681305674532127 290.0 32.0 214.0 
494.00006616489935 5360.0 2463.0 723.4589648269871 0.8376341310597564 289.0 32.0 214.0 
496.00006616489935 5366.0 2463.0 720.8292822419254 0.8644948930079612 289.0 32.0 212.0 
498.00006616489935 5370.0 2462.0 720.854446668575 0.9194406996256257 287.0 32.0 212.0 
500.00006616489935 5366.0 2464.0 720.7995424649694 0.8820746570452683 287.0 32.0 212.0 
502.00006616489935 5355.0 2461.0 720.8315699170714 0.9421089923866175 286.0 32.0 212.0 
504.00006616489935 5355.0 2462.0 720.8338575922368 0.9523072826996857 286.0 32.0 212.0 
506.00006616489935 5354.0 2462.0 719.4989991421195 0.9670403840543292 286.0 32.0 211.0 
508.00006616489935 5358.0 2461.0 722.1515584786887 0.9393741975557585 289.0 32.0 213.0 
510.00006616489935 5339.0 2459.0 722.1263940520341 0.9455506601076035 289.0 32.0 213.0 
512.0000661648994 5341.0 2462.0 723.4235058621701 0.9092905534800361 290.0 32.0 214.0 
514.0000661648994 5333.0 2461.0 723.4475264512442 0.9023957023200765 290.0 32.0 214.0 
516.0000661648994 5335.0 2463.0 724.774378038314 0.9433695808632604 291.0 32.0 215.0 
518.0000661648994 5340.0 2462.0 726.0749213611634 0.9273859457979268 292.0 32.0 216.0 
520.0000661648994 5339.0 2460.0 726.0669144981401 0.9361149108503253 292.0 32.0 216.0 
522.0000661648994 5340.0 2459.0 726.0806405490454 0.9604807716699246 292.0 32.0 216.0 
524.0000661648994 5332.0 2458.0 724.7640835001484 0.9041859769775666 291.0 32.0 215.0 
526.0000661648994 5320.0 2456.0 720.832713754644 0.8509263395174609 291.0 32.0 212.0 
528.0000661648994 5321.0 2454.0 718.2098941950348 0.8486679086603682 287.0 32.0 210.0 
530.0000661648994 5324.0 2454.0 719.5081498427157 0.8312055411454479 287.0 32.0 211.0 
532.0000661648994 5320.0 2452.0 719.5115813554338 0.8530207537262673 287.0 32.0 211.0 
534.0000661648994 5322.0 2453.0 718.2133257077533 0.9061667358908932 288.0 32.0 210.0 
536.0000661648994 5326.0 2453.0 716.8796110952246 0.840350510715983 288.0 32.0 209.0 
538.0000661648994 5322.0 2452.0 718.2087503574425 0.8952181909298923 288.0 32.0 210.0 
540.0000661648994 5313.0 2449.0 719.5207320560519 0.8625696996147665 288.0 32.0 211.0 
542.0000661648994 5320.0 2447.0 720.8167000285896 0.822888619403124 287.0 32.0 212.0 
544.0000661648994 5335.0 2450.0 720.8430082928147 0.8139427782588295 288.0 32.0 212.0 
546.0000661648994 5351.0 2453.0 718.2098941950356 0.8741643184938708 288.0 32.0 210.0 
548.0000661648994 5350.0 2454.0 715.5699170717801 0.8607064419137785 285.0 32.0 208.0 
550.0000661648994 5336.0 2453.0 715.5722047469263 0.8795150871272152 284.0 32.0 208.0 
552.0000661648994 5340.0 2454.0 716.8876179582551 0.8914263622993063 283.0 32.0 209.0 
554.0000661648994 5336.0 2452.0 716.8784672576543 0.8491241572632002 282.0 32.0 209.0 
556.0000661648994 5340.0 2449.0 715.5802116099514 0.8156144621815012 278.0 32.0 208.0 
558.0000661648994 5348.0 2451.0 715.5950814984301 0.8710715581346021 277.0 32.0 208.0 
560.0000661648994 5371.0 2456.0 722.1252502144637 0.8157166067279863 282.0 32.0 213.0 
562.0000661648994 5368.0 2454.0 722.1561338289952 0.8559276946620991 283.0 32.0 213.0 
564.0000661648994 5372.0 2454.0 722.1858736059572 0.8688285200194664 283.0 32.0 213.0 
566.0000661648994 5378.0 2455.0 723.4635401772972 0.8246636328105375 285.0 32.0 214.0 
568.0000661648994 5391.0 2457.0 723.4806977409239 0.8472793791394968 286.0 32.0 214.0 
570.0000661648994 5398.0 2459.0 723.4795539033522 0.9038578014763735 288.0 32.0 214.0 
572.0000661648994 5397.0 2460.0 723.4338004003376 0.8808857301319319 288.0 32.0 214.0 
574.0000661648994 5384.0 2457.0 722.1629968544501 0.8484491419845281 288.0 32.0 213.0 
576.0000661648994 5392.0 2459.0 722.1618530168781 0.8550854279523771 287.0 32.0 213.0 
578.0000661648994 5396.0 2458.0 724.7983986273928 0.8048752248689219 286.0 32.0 215.0 
580.0000661648994 5397.0 2458.0 726.1058049756949 0.8065463528543992 287.0 31.0 217.0 
582.0000661648994 5411.0 2461.0 726.0875035745003 0.8869114691776864 288.0 31.0 217.0 
584.0000661648994 5424.0 2462.0 726.0932227623822 0.8327196152315104 288.0 31.0 217.0 
586.0000661648994 5434.0 2465.0 724.7812410637731 0.9147967868335909 288.0 31.0 216.0 
588.0000661648994 5440.0 2467.0 724.8041178152769 0.964608112593196 288.0 31.0 216.0 
590.0000661648994 5445.0 2467.0 727.4006291106641 0.8896596028432141 288.0 31.0 218.0 
592.0000661648994 5456.0 2471.0 727.4097798112588 0.9284957374615465 288.0 31.0 218.0 
594.0000661648994 5461.0 2472.0 727.4074921361163 0.9906372992184795 288.0 31.0 218.0 
596.0000661648994 5459.0 2472.0 728.7160423219902 0.9654051981350931 289.0 31.0 219.0 
598.0000661648994 5445.0 2472.0 727.4303688876237 1.026209673401281 289.0 31.0 218.0 
600.0000661648994 5421.0 2469.0 727.4086359736868 1.000125639752078 288.0 31.0 218.0 
602.0000661648994 5407.0 2468.0 726.0772090363104 0.9496839756001441 288.0 31.0 217.0 
604.0000661648994 5391.0 2468.0 727.398341435522 0.9266530676730036 289.0 31.0 218.0 
606.0000661648994 5391.0 2469.0 728.7274806977317 0.9612575777229543 289.0 31.0 219.0 
608.0000661648994 5400.0 2468.0 730.0474692593716 0.8867571572127332 288.0 31.0 220.0 
610.0000661648994 5377.0 2461.0 730.0371747212023 0.8884878406140405 290.0 31.0 220.0 
612.0000661648994 5407.0 2465.0 731.3571632828173 0.9200967487620046 293.0 31.0 221.0 
614.0000661648994 5414.0 2466.0 728.7206176722785 0.8378420251055686 293.0 31.0 219.0 
616.0000661648994 5431.0 2471.0 727.4177866742863 0.8847102059139643 292.0 31.0 218.0 
618.0000661648994 5437.0 2470.0 727.4223620245962 0.9497752586640241 288.0 31.0 218.0 
620.0000661648994 5437.0 2469.0 727.382327709467 0.9152849325005404 287.0 31.0 218.0 
622.0000661648994 5437.0 2467.0 732.6714326565511 0.9557212807295392 289.0 31.0 222.0 
624.0000661648994 5444.0 2466.0 732.6668573062617 0.9687073166491601 297.0 31.0 222.0 
626.0000661648994 5434.0 2463.0 731.3342865313087 0.9136139033646228 298.0 31.0 221.0 
628.0000661648994 5442.0 2465.0 730.0611953102552 0.9500820172938534 298.0 31.0 220.0 
630.0000661648994 5434.0 2465.0 730.0657706605692 0.9941524545098273 298.0 31.0 220.0 
632.0000661648994 5438.0 2464.0 731.3640263082477 0.9345276880628022 298.0 31.0 221.0 
634.0000661648994 5433.0 2463.0 731.3514440949361 0.9280766597614888 299.0 31.0 221.0 
636.0000661648994 5442.0 2461.0 731.3468687446467 0.9572800628246506 302.0 31.0 221.0 
638.0000661648994 5473.0 2460.0 736.6062339147927 0.889589863174156 302.0 31.0 225.0 
640.0000661648994 5483.0 2460.0 737.941092364888 0.9059942553610301 301.0 31.0 226.0 
642.0000661648994 5500.0 2461.0 739.2656562768112 0.9972352102181916 302.0 31.0 227.0 
644.0000661648994 5508.0 2462.0 740.5456105232973 0.9294890370341158 305.0 31.0 228.0 
646.0000661648994 5523.0 2461.0 741.8758936231084 0.9510910178815747 304.0 31.0 229.0 
648.0000661648994 5506.0 2457.0 740.5581927366366 0.9972308017055265 303.0 31.0 228.0 
650.0000661648994 5503.0 2458.0 739.2107520732021 0.9597159571585813 303.0 31.0 227.0 
652.0000661648994 5506.0 2459.0 739.2336288247106 0.9689507656216182 302.0 32.0 226.0 
654.0000661648994 5501.0 2459.0 739.2313411495636 0.988497576028654 302.0 32.0 226.0 
656.0000661648994 5518.0 2459.0 739.2096082356318 0.8994666923340848 299.0 34.0 224.0 
658.0000661648994 5524.0 2458.0 737.9365170145757 0.8586293907056994 299.0 34.0 223.0 
660.0000661648994 5529.0 2459.0 736.6108092650825 0.8866553748108131 301.0 31.0 225.0 
662.0000661648994 5537.0 2462.0 733.9788390048534 0.8469986008652992 300.0 31.0 223.0 
664.0000661648994 5522.0 2459.0 731.3400057191894 0.8202928363682153 298.0 31.0 221.0 
#####################################################################
# End of data export. Simulation finished at: 2019-03-05T03:37+0000 #
#####################################################################
