#####################################################################
# Alchemist log file - simulation started at: 2019-03-06T17:07+0000 #
#####################################################################
# seed = 2.0, bandwidth = 1000.0, accessPointCount = 531.8295896944988, baserange = 1000.0
#
# The columns have the following meaning: 
# time neighbor_count[Sum] <value>@neighbor_count[Sum] packet_size[Mean] mean_delay[Mean] crowd[Sum] overcrowded[Sum] risk[Sum] 
0.0 NaN NaN NaN NaN NaN NaN NaN 
10.000582979052751 40.0 16.0 4981.715976331361 3.9970648550543024 1497.0 0.0 1497.0 
20.00058297905275 292.0 134.0 4981.7712031558185 6.431314060139115 1497.0 0.0 1497.0 
30.00058297905275 773.0 340.0 4981.783037475345 8.315759000711488 1497.0 0.0 1497.0 
40.00058297905275 1287.0 613.0 4981.879684418146 11.141969437370564 1497.0 0.0 1497.0 
50.00058297905275 1931.0 908.0 4982.03550295858 12.41258267602252 1497.0 0.0 1497.0 
60.00058297905275 2578.0 1246.0 4979.962524654832 12.549195250068022 1496.0 0.0 1496.0 
70.00016644111454 3114.0 1563.0 402.27416173570026 12.12900473703439 88.0 0.0 1.0 
80.00058297905275 3459.0 1856.0 402.26232741617366 8.617104799202433 54.0 0.0 1.0 
90.00058297905275 3503.0 1983.0 402.26232741617366 3.532132211136138 7.0 0.0 1.0 
100.00058297905275 4539.0 2711.0 406.7869822485207 3.5737562154996545 6.0 0.0 3.0 
110.00058297905275 5570.0 3321.0 406.79684418145956 3.5207443773061837 8.0 0.0 3.0 
120.00058297905275 6470.0 3930.0 409.0552268244577 3.7073496521393694 10.0 0.0 4.0 
130.00058297905275 6994.0 4318.0 409.0552268244577 4.0167304729009565 14.0 0.0 4.0 
140.00058297905275 7597.0 4667.0 411.3116370808678 4.166984938612881 15.0 0.0 5.0 
150.00058297905275 8700.0 5158.0 434.00197238658757 4.1853683720280666 25.0 0.0 15.0 
160.00058297905275 9166.0 5475.0 438.51479289940823 4.768798850709735 29.0 0.0 17.0 
170.00058297905275 9545.0 5729.0 436.25641025641033 4.758274919029753 27.0 0.0 16.0 
180.00058297905275 9708.0 5857.0 443.07297830374785 4.76155548128325 30.0 0.0 19.0 
190.00058297905275 9832.0 6007.0 443.0118343195264 4.927285794259655 28.0 0.0 19.0 
200.00058297905275 10320.0 6215.0 486.00986193293966 4.511414583887387 48.0 0.0 38.0 
210.00058297905275 10675.0 6453.0 495.2248520710063 5.060249129175491 52.0 0.0 42.0 
220.00058297905275 10750.0 6564.0 497.4556213017734 5.266837289606696 51.0 0.0 43.0 
230.00058297905275 11218.0 6925.0 508.78303747534414 5.13287451911648 59.0 0.0 48.0 
240.00058297905275 11479.0 7244.0 504.1420118343175 4.900057514631253 61.0 0.0 46.0 
250.00058297905275 11833.0 7448.0 499.607495069035 4.970087010805173 56.0 0.0 44.0 
260.00058297905275 11999.0 7695.0 499.5857988165693 5.00340983706952 54.0 0.0 44.0 
270.00058297905275 12393.0 8083.0 499.58974358974444 5.186125055644738 53.0 0.0 44.0 
280.00058297905275 13430.0 8634.0 499.54240631163714 5.131436527178972 51.0 0.0 44.0 
290.00058297905275 14575.0 8932.0 544.9467455621302 5.743457832242015 75.0 0.0 64.0 
300.00058297905275 15223.0 9038.0 526.9388560157771 5.419158652974981 80.0 0.0 56.0 
310.00058297905275 15202.0 9034.0 520.1479289940823 5.621938238131516 80.0 0.0 53.0 
320.00058297905275 14771.0 8983.0 517.828402366862 5.837579041933154 79.0 0.0 52.0 
330.00058297905275 14484.0 9008.0 519.9783037475338 5.7199881653764315 78.0 0.0 53.0 
340.00058297905275 14491.0 9009.0 513.1558185404326 5.264795097999196 68.0 0.0 50.0 
350.00058297905275 14899.0 9033.0 533.5167652859957 6.030302438146502 80.0 0.0 59.0 
360.00058297905275 15382.0 9105.0 549.3786982248521 5.399715347012298 87.0 0.0 66.0 
370.0001899781745 16029.0 9155.0 560.7514792899407 5.791223724408405 92.0 0.0 71.0 
380.00058297905275 18073.0 9232.0 603.8895463510844 5.750685570839013 115.0 0.0 90.0 
390.00058297905275 18527.0 9257.0 631.2011834319525 5.569928255488594 137.0 0.0 102.0 
400.00058297905275 18397.0 9279.0 660.6232741617342 6.3006899012650655 155.0 0.0 115.0 
410.00058297905275 17446.0 9268.0 726.3510848126235 6.097096935356839 182.0 0.0 144.0 
420.00058297905275 17495.0 9277.0 771.8323471400407 5.7611928384437805 195.0 0.0 164.0 
430.00058297905275 17054.0 9260.0 776.1104536489131 6.0983025797631 199.0 0.0 166.0 
440.00058297905275 16640.0 9243.0 780.5798816568071 5.970549028288308 199.0 0.0 168.0 
450.00058297905275 16140.0 9208.0 771.2347140039432 5.625150708401848 192.0 0.0 164.0 
460.00058297905275 15988.0 9195.0 723.5345167652843 5.8831609801874825 160.0 0.0 143.0 
470.00058297905275 15980.0 9193.0 676.0453648915196 5.545414911190461 137.0 0.0 122.0 
480.00058297905275 16188.0 9202.0 667.0236686390521 5.550906797005455 137.0 0.0 118.0 
490.00058297905275 16193.0 9203.0 621.8067061143996 5.843003444371155 116.0 0.0 98.0 
500.00058297905275 16146.0 9206.0 569.7672583826422 5.636570748180802 99.0 0.0 75.0 
510.00058297905275 16055.0 9204.0 495.0690335305722 5.791233531332239 58.0 0.0 42.0 
520.0005829790528 16283.0 9219.0 517.7021696252465 5.813890753660228 71.0 0.0 52.0 
530.0005829790528 16474.0 9267.0 538.1459566074958 5.564619046921573 88.0 0.0 61.0 
540.0005829790528 16640.0 9277.0 560.8520710059171 5.757264162371755 96.0 0.0 71.0 
550.0005829790528 17078.0 9308.0 606.2327416173583 5.513749628214228 120.0 0.0 91.0 
560.0005829790528 17515.0 9345.0 644.9309664694267 5.871150158172765 145.0 0.0 108.0 
570.0005829790528 17619.0 9344.0 644.8441814595651 6.1698195467976165 143.0 0.0 108.0 
580.0005829790528 17375.0 9334.0 653.8145956607508 5.825399171933864 157.0 0.0 112.0 
590.0005829790528 17108.0 9351.0 685.2978303747534 5.92174010666908 164.0 0.0 126.0 
600.0005829790528 17231.0 9342.0 710.136094674557 5.586589024926475 179.0 0.0 137.0 
610.0005829790528 17547.0 9382.0 753.0848126232743 5.791279409516272 197.0 0.0 156.0 
620.0005829790528 18014.0 9409.0 823.3905325443797 5.5343370089810175 237.0 0.0 187.0 
630.0005829790528 18370.0 9391.0 760.1676528599584 6.319098858814855 207.0 0.0 159.0 
640.0005829790528 18378.0 9412.0 744.3786982248541 5.8019577178873485 199.0 0.0 152.0 
650.0005829790528 18215.0 9403.0 724.1045364891546 5.873790738210623 205.0 0.0 143.0 
660.0005829790528 17974.0 9392.0 753.3747534516787 6.290307813256433 220.0 0.0 156.0 
#####################################################################
# End of data export. Simulation finished at: 2019-03-06T17:18+0000 #
#####################################################################
