#####################################################################
# Alchemist log file - simulation started at: 2019-03-03T04:15+0000 #
#####################################################################
# seed = 0.0, bandwidth = 4216.965034285822, accessPointCount = 2000.0, baserange = 56.234132519034915
#
# The columns have the following meaning: 
# time neighbor_count[Sum] <value>@neighbor_count[Sum] packet_size[Mean] mean_delay[Mean] crowd[Sum] overcrowded[Sum] risk[Sum] 
0.0 NaN NaN NaN NaN NaN NaN NaN 
10.000079805693462 1782.0 1015.0 4979.945095796397 1.4153973366071568 1497.0 0.0 1497.0 
20.00007980569346 2093.0 1063.0 4979.272519302259 2.185842139629598 1497.0 0.0 1497.0 
30.00007980569346 2254.0 1087.0 4979.615670574778 2.5939011651833432 1496.0 1.0 1496.0 
40.00007980569346 2188.0 1055.0 4979.351444094938 1.9961411126847048 1495.0 2.0 1495.0 
50.00007980569346 2202.0 1056.0 4979.239348012582 1.85995965986859 1495.0 2.0 1495.0 
60.00007980569346 2213.0 1059.0 4978.176722905348 2.199671802450488 1494.0 3.0 1494.0 
70.00007980569346 2218.0 1062.0 594.5999428081275 1.0845001443087001 209.0 5.0 143.0 
80.00007980569346 2219.0 1063.0 597.2284815556293 1.0602324812796196 179.0 9.0 141.0 
90.00007980569346 2224.0 1065.0 597.2078924792731 1.0853978623692369 173.0 9.0 141.0 
100.00007980569346 2233.0 1066.0 587.9805547612183 1.0004877118743947 172.0 9.0 134.0 
110.00007980569346 2229.0 1064.0 591.9393766085175 1.0462679736772542 172.0 9.0 137.0 
120.00007980569346 2247.0 1068.0 593.2387760937904 1.342276410243699 170.0 9.0 138.0 
130.00007980569347 2253.0 1066.0 595.8753217043225 1.1874671269892723 171.0 9.0 140.0 
140.00007980569347 2256.0 1069.0 593.2467829568207 1.3321977823548292 171.0 9.0 138.0 
150.00007980569347 2258.0 1071.0 595.8558764655385 1.4418336861116408 171.0 9.0 140.0 
160.00007980569347 2243.0 1066.0 595.8764655418934 1.2905138064224748 169.0 9.0 140.0 
170.00007980569347 2249.0 1070.0 595.8673148412922 1.2333221953831008 171.0 9.0 140.0 
180.00007980569347 2227.0 1064.0 595.8398627394894 1.3640509119284 167.0 9.0 140.0 
190.00007980569347 2212.0 1062.0 593.2433514440968 1.2350073698427613 165.0 9.0 138.0 
200.00007980569347 2215.0 1065.0 591.9199313697538 1.059219376349046 163.0 9.0 137.0 
210.00007980569347 2231.0 1067.0 591.9393766085175 1.210015590152427 169.0 9.0 137.0 
220.00007980569347 2246.0 1067.0 591.9348012582229 1.1350174934138808 165.0 11.0 135.0 
230.00007980569347 2265.0 1071.0 597.1712896768718 1.0985379274424436 167.0 9.0 141.0 
240.00007980569347 2265.0 1073.0 602.4523877609433 1.3577030245264134 172.0 9.0 145.0 
250.00007980569347 2255.0 1073.0 603.759794109244 1.3225768858187725 173.0 9.0 146.0 
260.0000798056935 2269.0 1075.0 607.7037460680581 1.2233238972350735 178.0 9.0 149.0 
270.0000798056935 2270.0 1074.0 605.0626251072316 1.3750147339173713 175.0 9.0 147.0 
280.0000798056935 2268.0 1073.0 605.0603374320898 1.3896021806488803 171.0 9.0 147.0 
290.0000798056935 2272.0 1074.0 606.3768944809921 1.1889885708788284 170.0 9.0 148.0 
300.0000798056935 2269.0 1077.0 603.726622819564 1.24964654639583 170.0 9.0 146.0 
310.0000798056935 2278.0 1078.0 603.7529310837867 1.365774246078286 168.0 10.0 145.0 
320.0000798056935 2275.0 1080.0 597.187303402911 1.477077775904687 168.0 9.0 141.0 
330.0000798056935 2244.0 1075.0 595.8753217043225 1.4476715279468118 164.0 9.0 140.0 
340.0000798056935 2244.0 1077.0 597.1335430368952 1.3790204553167016 168.0 9.0 141.0 
350.0000798056935 2243.0 1075.0 599.786102373467 1.3647108254604612 170.0 9.0 143.0 
360.0000798056935 2255.0 1081.0 601.0900772090332 1.3904508546498648 174.0 9.0 144.0 
370.0000798056935 2258.0 1083.0 602.41807263369 1.3468253054108483 176.0 9.0 145.0 
380.0000798056935 2253.0 1083.0 601.0969402344914 1.374981736932795 171.0 9.0 144.0 
390.0000798056935 2251.0 1081.0 595.829568201309 1.6477512769023024 168.0 9.0 140.0 
400.0000798056935 2235.0 1075.0 595.84786960252 1.5407803984393638 167.0 9.0 140.0 
410.0000798056935 2256.0 1081.0 595.8661710037123 1.3642856098615934 167.0 9.0 140.0 
420.0000798056935 2273.0 1083.0 598.4786960251723 1.4888528013368831 164.0 9.0 142.0 
430.0000798056935 2277.0 1082.0 599.8204175007075 1.2415915754482976 163.0 9.0 143.0 
440.0000798056935 2294.0 1087.0 597.1747211895862 1.4260198587364044 164.0 9.0 141.0 
450.0000798056935 2288.0 1088.0 597.1873034029111 1.6718304184104393 165.0 9.0 141.0 
460.0000798056935 2281.0 1085.0 595.8558764655382 1.640899539969004 167.0 9.0 140.0 
470.0000798056935 2253.0 1080.0 590.5839290820679 1.501681353088668 161.0 9.0 136.0 
480.0000798056935 2239.0 1076.0 586.6582785244468 1.5680548201574618 159.0 9.0 133.0 
490.0000798056935 2229.0 1072.0 585.3405776379802 1.5632904477231353 157.0 9.0 132.0 
500.0000798056935 2175.0 1066.0 582.6811552759451 1.42268566209767 155.0 9.0 130.0 
510.0000798056935 2142.0 1058.0 577.4423791821614 1.2690518490260372 149.0 9.0 126.0 
520.0000798056935 2145.0 1061.0 573.477838146984 1.2605274684670589 148.0 9.0 123.0 
530.0000798056935 2160.0 1067.0 573.5018587360624 1.271942491481132 148.0 9.0 123.0 
540.0000798056935 2175.0 1068.0 577.4435230197344 1.2799344496482297 153.0 9.0 126.0 
550.0000798056935 2190.0 1069.0 580.0789247926765 1.1789174816427905 153.0 9.0 128.0 
560.0000798056935 2197.0 1068.0 578.773806119533 1.346563230421948 153.0 9.0 127.0 
570.0000798056935 2219.0 1073.0 582.72805261653 1.5486665476272792 158.0 9.0 130.0 
580.0000798056935 2221.0 1069.0 585.3211323991986 1.3198438774839585 157.0 9.0 132.0 
590.0000798056935 2214.0 1069.0 584.027452101794 1.3597648245311105 156.0 10.0 130.0 
600.0000798056935 2221.0 1071.0 582.7086073777481 1.6932388152094109 155.0 9.0 130.0 
610.0000798056935 2218.0 1071.0 582.7074635401746 1.381946567477728 157.0 9.0 130.0 
620.0000798056935 2219.0 1069.0 582.7166142407755 1.306252913846202 160.0 9.0 130.0 
630.0000798056935 2225.0 1068.0 587.9576780097287 1.3589915728265616 158.0 9.0 134.0 
640.0000798056935 2245.0 1073.0 589.2948241349784 1.440510931619774 165.0 9.0 135.0 
650.0000798056935 2236.0 1069.0 590.5965112953922 1.2181943367345032 166.0 9.0 136.0 
660.0000798056935 2292.0 1080.0 601.1038032599312 1.5498240705041415 173.0 9.0 144.0 
#####################################################################
# End of data export. Simulation finished at: 2019-03-03T04:44+0000 #
#####################################################################
