#####################################################################
# Alchemist log file - simulation started at: 2019-03-08T21:25+0000 #
#####################################################################
# seed = 3.0, bandwidth = 4216.965034285822, accessPointCount = 2000.0, baserange = 177.82794100389228
#
# The columns have the following meaning: 
# time neighbor_count[Sum] <value>@neighbor_count[Sum] packet_size[Mean] mean_delay[Mean] crowd[Sum] overcrowded[Sum] risk[Sum] 
0.0 NaN NaN NaN NaN NaN NaN NaN 
2.00001362055676 149.0 117.0 4974.297969688304 0.3006353811905344 1497.0 0.0 1497.0 
4.00001362055676 1314.0 1046.0 4975.079210752074 0.8626359225264875 1497.0 0.0 1497.0 
6.00001362055676 2636.0 2102.0 4976.106376894481 1.379352336098796 1497.0 0.0 1497.0 
8.00001362055676 3784.0 2973.0 4976.907063197026 1.7513804845358738 1497.0 0.0 1497.0 
10.00001362055676 5048.0 3865.0 4977.472118959108 1.8301450612910166 1497.0 0.0 1497.0 
12.00001362055676 6051.0 4520.0 4978.2339147841 2.4769164403363195 1497.0 0.0 1497.0 
14.00001362055676 6915.0 4917.0 4978.800114383757 2.559128128825715 1497.0 0.0 1497.0 
16.00001362055676 7644.0 5263.0 4979.303402916786 2.8435183549010734 1497.0 0.0 1497.0 
18.00001362055676 8650.0 5472.0 4979.589362310552 3.2117758355068466 1497.0 0.0 1497.0 
20.00001362055676 9209.0 5572.0 4979.75407492136 3.6216771740756477 1497.0 0.0 1497.0 
22.00001362055676 9788.0 5668.0 4979.956534172148 3.4257829287829553 1497.0 0.0 1497.0 
24.00001362055676 9859.0 5689.0 4979.81927366314 4.0600100354813025 1497.0 0.0 1497.0 
26.00001362055676 10255.0 5740.0 4979.722047469259 3.878647642970429 1497.0 0.0 1497.0 
28.00001362055676 10536.0 5748.0 4979.662567915357 4.164991491249397 1497.0 0.0 1497.0 
30.00001362055676 10711.0 5775.0 4979.790677723764 4.513881082247658 1497.0 0.0 1497.0 
32.00001362055676 10721.0 5778.0 4979.630540463254 4.3010610025404965 1497.0 0.0 1497.0 
34.00001362055676 10945.0 5801.0 4979.63397197598 3.9582479030672606 1497.0 0.0 1497.0 
36.00001362055676 11134.0 5804.0 4979.821561338291 4.299707370876775 1497.0 0.0 1497.0 
38.00001362055676 11185.0 5803.0 4979.935945095796 3.84930484531361 1497.0 0.0 1497.0 
40.00001362055676 11169.0 5791.0 4979.979410923648 4.106201835281987 1497.0 0.0 1497.0 
42.00001362055676 11229.0 5797.0 4979.8959107806695 3.9176755043407763 1497.0 0.0 1497.0 
44.00001362055676 11161.0 5796.0 4979.822705175865 3.9915385416819325 1497.0 0.0 1497.0 
46.00001362055676 11079.0 5789.0 4979.8924792679445 3.725463989665761 1497.0 0.0 1497.0 
48.00001362055676 10999.0 5791.0 4980.025164426651 4.28651089340269 1496.0 1.0 1496.0 
50.00001362055676 10837.0 5797.0 4979.9176436945945 4.043959044369848 1496.0 1.0 1496.0 
52.00001362055676 10642.0 5810.0 4979.795253074064 3.4872576988136976 1496.0 1.0 1496.0 
54.00001362055676 10827.0 5819.0 4979.791821561338 3.712113431484118 1494.0 3.0 1494.0 
56.00001362055676 10912.0 5820.0 4979.74263654561 3.631671038433214 1490.0 7.0 1490.0 
58.00001362055676 11188.0 5831.0 4979.799828424363 3.645177459780898 1490.0 7.0 1490.0 
60.00001362055676 11337.0 5836.0 4979.83528738919 4.038286202638161 1490.0 7.0 1490.0 
62.00001362055676 11547.0 5846.0 827.7575064340733 3.2468882937323595 818.0 5.0 320.0 
64.00001362055676 11551.0 5847.0 829.0649127823767 2.94143329463718 697.0 5.0 321.0 
66.00001362055676 11548.0 5845.0 829.0855018587398 2.5826539756167084 621.0 6.0 320.0 
68.00001362055676 11557.0 5845.0 830.3837575064507 2.3985779281063997 569.0 6.0 321.0 
70.00001362055676 11623.0 5850.0 830.3299971403936 2.2127160109779376 522.0 6.0 321.0 
72.00001362055676 11611.0 5850.0 830.3505862167433 2.083979342960511 484.0 6.0 321.0 
74.00001362055676 11614.0 5852.0 831.6557048898999 2.104617206106212 476.0 6.0 322.0 
76.00001362055676 11632.0 5851.0 831.6396911638421 2.016810975798322 465.0 7.0 321.0 
78.00001362055676 11622.0 5852.0 831.6293966256802 1.930626306876389 446.0 8.0 320.0 
80.00001362055676 11644.0 5854.0 834.2625107234901 1.979574897665833 437.0 9.0 321.0 
82.00001362055676 11639.0 5854.0 834.2625107234901 1.7847244719785198 435.0 7.0 323.0 
84.00001362055676 11468.0 5847.0 834.2110380326156 1.7769064542587636 432.0 8.0 322.0 
86.00001362055676 11384.0 5844.0 834.148126965971 1.8804168277773805 430.0 7.0 323.0 
88.00001362055676 11118.0 5833.0 834.1584215041328 1.8677924853948356 426.0 7.0 323.0 
90.00001362055676 10969.0 5828.0 834.148126965971 1.9469376204995938 424.0 7.0 323.0 
92.00001362055676 10806.0 5820.0 834.0623391478595 1.8414798935770982 420.0 7.0 323.0 
94.00001362055676 10960.0 5827.0 834.1504146411125 1.8311571255650065 420.0 7.0 323.0 
96.00001362055676 11021.0 5828.0 835.4738347154786 1.7392410969743122 422.0 7.0 324.0 
98.00001362055676 11234.0 5837.0 835.4612525021314 1.6645320539716997 416.0 13.0 318.0 
100.00001362055676 11245.0 5838.0 835.4841292536362 1.6450635287916189 416.0 13.0 318.0 
102.00001362055676 11495.0 5847.0 835.4852730912104 1.6331412845829603 416.0 13.0 318.0 
104.00001362055676 11485.0 5847.0 835.4578209894152 1.6660367916595467 416.0 13.0 318.0 
106.00001362055676 11476.0 5846.0 835.4532456391288 1.7185764608359968 416.0 13.0 318.0 
108.00001362055676 11479.0 5846.0 835.4669716900067 1.6456112432538248 415.0 14.0 317.0 
110.00001362055676 11495.0 5846.0 835.4944237918401 1.6637366036980854 416.0 13.0 318.0 
112.00001362055676 11507.0 5847.0 835.4498141263992 1.6190188165804107 415.0 13.0 318.0 
114.00001362055676 11505.0 5847.0 835.4349442379076 1.6939312518562923 414.0 13.0 318.0 
116.00001362055676 11521.0 5845.0 835.3971975979545 1.7046755588213356 414.0 13.0 318.0 
118.00001362055676 11552.0 5849.0 838.008578781802 1.8381098274809202 414.0 13.0 320.0 
120.00001362055676 11550.0 5848.0 839.3480125822265 1.9679651055818823 414.0 13.0 321.0 
122.00001362055676 11543.0 5849.0 839.3537317701013 2.0166193128056618 415.0 13.0 321.0 
124.00001362055676 11401.0 5843.0 838.0417500714984 2.0023769936620095 415.0 13.0 320.0 
126.00001362055676 11341.0 5839.0 836.6885902201991 1.9204691582568696 415.0 13.0 319.0 
128.00001362055676 11188.0 5835.0 836.6885902201991 1.9240563462919362 416.0 13.0 319.0 
130.00001362055676 11072.0 5827.0 838.0017157563567 1.7819898003448287 417.0 14.0 319.0 
132.00001362055676 10840.0 5820.0 837.9776951672776 1.5460971608301346 416.0 14.0 319.0 
134.00001362055676 10888.0 5820.0 837.9033457248994 1.542559558985289 418.0 13.0 320.0 
136.00001362055676 11009.0 5825.0 835.2965398913556 1.5799639965951806 416.0 15.0 316.0 
138.00001362055676 11166.0 5831.0 835.3628824706756 1.6274341886562458 416.0 15.0 316.0 
140.00001362055676 11246.0 5836.0 834.0817843866084 1.6355652228192115 417.0 15.0 315.0 
142.00001362055676 11436.0 5847.0 838.0497569345135 1.6197763061656407 417.0 15.0 318.0 
144.00001362055676 11443.0 5847.0 838.010866456948 1.7037305324358687 417.0 15.0 318.0 
146.00001362055676 11437.0 5847.0 836.6851587074667 1.8205957463800029 415.0 15.0 317.0 
148.00001362055676 11421.0 5843.0 836.6760080068531 1.9053088697806133 416.0 15.0 317.0 
150.00001362055676 11477.0 5848.0 836.690877895341 1.9429772454520897 416.0 15.0 317.0 
152.00001362055676 11514.0 5849.0 836.7011724335025 1.8034463152871463 417.0 15.0 317.0 
154.00001362055676 11491.0 5850.0 836.6794395196075 1.7534315744019369 417.0 15.0 317.0 
156.00001362055676 11509.0 5854.0 835.3491564198002 1.684879799884398 415.0 15.0 316.0 
158.00001362055676 11501.0 5855.0 838.0028595939269 1.5961895209276813 415.0 15.0 318.0 
160.00001362055676 11458.0 5854.0 836.6977409207863 1.7660216504365243 414.0 15.0 317.0 
162.00001362055676 11463.0 5856.0 836.6588504432448 1.888011262991642 413.0 16.0 316.0 
164.00001362055676 11409.0 5856.0 837.9742636545654 1.9994139627380327 418.0 15.0 318.0 
166.00001362055676 11280.0 5846.0 840.5742064626795 1.9496068478968809 418.0 15.0 320.0 
168.00001362055676 11129.0 5840.0 840.5707749499463 1.8935085636444868 418.0 15.0 320.0 
170.00001362055676 11099.0 5836.0 843.1592793823328 1.8283221466237198 419.0 16.0 321.0 
172.00001362055676 11059.0 5833.0 844.519302259076 1.6343989031859687 418.0 16.0 322.0 
174.00001362055676 11216.0 5840.0 844.5387474978686 1.6487032948569396 419.0 16.0 322.0 
176.00001362055676 11436.0 5850.0 844.5501858736002 1.6970344905135482 419.0 16.0 322.0 
178.00001362055676 11442.0 5851.0 844.5398913354389 1.7729230478108777 419.0 16.0 322.0 
180.00001362055676 11405.0 5848.0 844.5364598227102 1.745477335954181 419.0 15.0 323.0 
182.00001362055676 11402.0 5851.0 841.91707177582 1.8475268226206785 419.0 15.0 321.0 
184.00001362055676 11373.0 5853.0 840.6142407778211 1.6880072663830639 419.0 14.0 321.0 
186.00001362055676 11330.0 5850.0 837.9593937660736 1.704672399397246 419.0 14.0 319.0 
188.00001362055676 11320.0 5848.0 837.9788390048519 1.782147875813482 418.0 14.0 319.0 
190.00001362055676 11341.0 5848.0 839.2942522161713 1.8302101000808633 423.0 14.0 320.0 
192.00001362055676 11360.0 5849.0 837.9754074921357 1.7487707944028708 423.0 14.0 319.0 
194.00001362055676 11378.0 5850.0 837.9696883042775 1.845496055132454 421.0 15.0 318.0 
196.00001362055676 11399.0 5851.0 836.6634257935455 1.8689269062239118 421.0 15.0 317.0 
198.00001362055676 11414.0 5853.0 836.6760080068532 1.933709054001809 421.0 15.0 317.0 
200.00001362055676 11342.0 5849.0 836.6874463826246 1.9333840420982873 421.0 15.0 317.0 
202.00001362055676 11174.0 5840.0 840.6211038032492 1.831538594805885 421.0 16.0 319.0 
204.00001362055676 11019.0 5832.0 840.6153846153913 1.7637862197481542 420.0 16.0 319.0 
206.00001362055676 10893.0 5827.0 841.9090649127745 1.67376707396065 420.0 16.0 320.0 
208.00001362055676 11022.0 5831.0 841.9124964254908 1.6032022641161838 420.0 16.0 320.0 
210.00001362055676 11144.0 5840.0 840.5810694881507 1.553484407229663 420.0 16.0 319.0 
212.00001362055676 11306.0 5846.0 840.5959393765997 1.6644009360107987 420.0 16.0 319.0 
214.00001362055676 11330.0 5847.0 840.6451243923283 1.6935726784810412 420.0 16.0 319.0 
216.00001362055676 11340.0 5848.0 841.9628252787896 1.7592196722646722 412.0 19.0 317.0 
218.00001362055676 11349.0 5850.0 841.9353731769983 1.7277250630319374 407.0 23.0 313.0 
220.00001362055676 11322.0 5852.0 839.3251358307214 1.8412535872679994 404.0 23.0 311.0 
222.00001362055676 11308.0 5852.0 839.3171289676764 1.8932834268528411 405.0 23.0 311.0 
224.00001362055676 11309.0 5854.0 839.3491564198004 1.8782614595996756 407.0 23.0 311.0 
226.00001362055676 11315.0 5856.0 836.6474120674706 1.8851777080816583 407.0 23.0 309.0 
228.00001362055676 11307.0 5854.0 835.309122104659 1.8114110618680823 406.0 23.0 308.0 
230.00001362055676 11287.0 5851.0 835.3148412925334 1.8477773911438795 406.0 23.0 308.0 
232.00001362055676 11284.0 5850.0 832.690877895341 1.7891970074405188 406.0 23.0 306.0 
234.00001362055676 11297.0 5850.0 834.0291678581507 1.6941363032547898 408.0 23.0 307.0 
236.00001362055676 11154.0 5843.0 835.3731770088756 1.7819288144631147 409.0 23.0 308.0 
238.00001362055676 10994.0 5835.0 833.9925650557693 1.8178470118829428 409.0 23.0 307.0 
240.00001362055676 10967.0 5830.0 832.6897340577693 1.6972020730770812 407.0 23.0 306.0 
242.00001362055676 10934.0 5829.0 832.6737203317073 1.5419929594092878 408.0 23.0 306.0 
244.00001362055676 11028.0 5833.0 832.6691449814036 1.6393226399158924 407.0 23.0 306.0 
246.00001362055676 11165.0 5842.0 832.6474120674706 1.7512623325762926 407.0 23.0 306.0 
248.00001362055676 11188.0 5847.0 831.3548756076718 1.8578733630149264 407.0 23.0 305.0 
250.00001362055676 11183.0 5847.0 831.3788961967508 1.8568780661764743 406.0 23.0 305.0 
252.00001362055676 11174.0 5847.0 831.3697454961211 1.719551986633259 405.0 23.0 305.0 
254.00001362055676 11183.0 5850.0 832.6771518444234 1.646856027376957 405.0 23.0 306.0 
256.00001362055673 11171.0 5847.0 831.3674578209792 1.725265063559321 406.0 23.0 305.0 
258.00001362055673 11164.0 5846.0 832.6702888189778 1.702406998912526 407.0 24.0 305.0 
260.00001362055673 11183.0 5848.0 833.9971404060731 1.5902644992428605 410.0 25.0 305.0 
262.00001362055673 11180.0 5849.0 836.5650557620924 1.682750545192019 409.0 25.0 307.0 
264.00001362055673 11093.0 5847.0 836.5833571632963 1.6685658577105926 407.0 25.0 307.0 
266.00001362055673 11112.0 5852.0 837.8873319988398 1.7668953665103664 408.0 25.0 308.0 
268.00001362055673 11123.0 5855.0 841.851873034029 1.8796088898610288 408.0 25.0 311.0 
270.00001362055673 11048.0 5855.0 841.8701744352335 1.9508244857877957 409.0 25.0 311.0 
272.00001362055673 10916.0 5849.0 841.8678867600916 1.9925981706868459 407.0 25.0 311.0 
274.00001362055673 10930.0 5847.0 843.1661424077611 1.9337083562846025 407.0 25.0 312.0 
276.00001362055673 10932.0 5849.0 843.1604232199031 1.6800287167260048 409.0 24.0 313.0 
278.00001362055673 11015.0 5848.0 843.1100943666041 1.608150966968138 408.0 24.0 313.0 
280.00001362055673 11092.0 5856.0 843.156991707187 1.6397274223628047 410.0 24.0 313.0 
282.00001362055673 11093.0 5858.0 843.1386903059657 1.7410582813706328 417.0 17.0 320.0 
284.00001362055673 11045.0 5854.0 841.8530168715995 1.6621938805967365 419.0 15.0 321.0 
286.00001362055673 11044.0 5853.0 839.2690877895217 1.7783051654481978 417.0 16.0 318.0 
288.00001362055673 11018.0 5852.0 839.2873891907257 1.777237565262833 416.0 16.0 318.0 
290.00001362055673 10978.0 5852.0 840.5764941378213 1.8007467509159827 420.0 16.0 319.0 
292.00001362055673 10976.0 5851.0 840.5467543608712 1.8322760338432906 421.0 16.0 319.0 
294.00001362055673 10994.0 5850.0 841.858736059474 1.806923563531395 421.0 16.0 320.0 
296.00001362055673 10994.0 5849.0 841.9022018873279 1.7604233904419357 421.0 16.0 320.0 
298.00001362055673 10996.0 5849.0 841.8736059479664 1.826221970380664 421.0 16.0 320.0 
300.00001362055673 11022.0 5851.0 836.6611381184036 1.7401062377072531 418.0 17.0 315.0 
302.00001362055673 11056.0 5855.0 836.694309408053 1.7227288574933874 418.0 17.0 315.0 
304.00001362055673 11088.0 5857.0 836.6851587074668 1.772828571393292 418.0 17.0 315.0 
306.00001362055673 11095.0 5856.0 837.9845581927269 1.7422823826692078 419.0 17.0 316.0 
308.00001362055673 11065.0 5855.0 836.6462682298987 1.6958157622942343 420.0 17.0 315.0 
310.00001362055673 11032.0 5855.0 835.3400057191838 1.617894086113215 420.0 17.0 314.0 
312.00001362055673 11039.0 5856.0 836.6714326565493 1.5453061594658346 421.0 17.0 315.0 
314.00001362055673 11048.0 5857.0 836.6428367171826 1.6393139645497161 420.0 17.0 315.0 
316.00001362055673 11027.0 5856.0 834.0108664569483 1.7223843813373203 412.0 24.0 306.0 
318.00001362055673 11007.0 5851.0 834.0120102945186 1.830518163294877 408.0 24.0 306.0 
320.00001362055673 11005.0 5854.0 831.4109236488324 1.9020992294175765 409.0 24.0 304.0 
322.00001362055673 11023.0 5856.0 828.768658850435 1.8975776933815747 408.0 24.0 302.0 
324.00001362055673 11013.0 5857.0 827.4395195882116 1.7779160785428707 407.0 24.0 301.0 
326.00001362055673 10993.0 5856.0 830.0680583357348 1.7735415479128862 408.0 24.0 303.0 
328.00001362055673 10988.0 5855.0 828.7560766371271 1.7563869822253795 406.0 24.0 302.0 
330.00001362055673 10999.0 5855.0 831.4006291106707 1.6819975551809256 405.0 24.0 304.0 
332.00001362055673 10980.0 5855.0 832.7126108092743 1.727415257988307 404.0 24.0 305.0 
334.00001362055673 10945.0 5854.0 831.3937660852002 1.7508550607435596 403.0 24.0 304.0 
336.00001362055673 10943.0 5855.0 830.0783528738795 1.7603879582480362 402.0 24.0 303.0 
338.00001362055673 10930.0 5853.0 831.3640263082457 1.7871154982186281 402.0 24.0 304.0 
340.00001362055673 10922.0 5851.0 830.047469259372 1.7933215817489974 402.0 24.0 303.0 
342.00001362055673 10898.0 5849.0 830.0303116957224 1.7875897354708192 403.0 23.0 304.0 
344.00001362055673 10901.0 5852.0 830.0509007720839 1.7344381132967195 402.0 23.0 304.0 
346.00001362055673 10914.0 5853.0 831.3560194452459 1.7480485366356915 401.0 23.0 305.0 
348.00001362055673 10907.0 5854.0 830.0406062339262 1.7058158015089253 401.0 23.0 304.0 
350.00001362055673 10917.0 5853.0 830.0451815842272 1.6887845841471094 407.0 16.0 311.0 
352.00001362055673 10890.0 5852.0 830.039462396352 1.5480012809527917 404.0 16.0 311.0 
354.00001362055673 10891.0 5852.0 831.3468687446544 1.6169956717522134 405.0 16.0 312.0 
356.00001362055673 10890.0 5854.0 830.0383185587802 1.75039161117992 403.0 16.0 311.0 
358.00001362055673 10873.0 5856.0 830.0577637975308 1.859798522832729 402.0 16.0 311.0 
360.00001362055673 10890.0 5855.0 830.073777523593 1.8071504065022779 402.0 16.0 311.0 
362.00001362055673 10888.0 5857.0 830.0486130969437 1.8126473289774927 401.0 16.0 311.0 
364.00001362055673 10896.0 5857.0 826.1115241635878 1.8265541493173763 400.0 16.0 308.0 
366.00001362055673 10869.0 5857.0 824.7858164140818 1.8079521645425034 400.0 16.0 307.0 
368.00001362055673 10897.0 5858.0 822.1698598799084 1.72333293753276 400.0 16.0 305.0 
370.00001362055673 10902.0 5859.0 819.5035744924317 1.7450818396927719 396.0 16.0 303.0 
372.00001362055673 10895.0 5857.0 818.1744352301919 1.6717637420934086 395.0 16.0 302.0 
374.00001362055673 10905.0 5857.0 815.5687732342175 1.6601360913970578 393.0 16.0 300.0 
376.00001362055673 10904.0 5859.0 815.5676293966065 1.6300427290427582 394.0 16.0 300.0 
378.00001362055673 10905.0 5858.0 814.2682299113612 1.5870224706017058 392.0 16.0 299.0 
380.00001362055673 10918.0 5861.0 816.9139262224749 1.7043682345462532 395.0 16.0 301.0 
382.00001362055673 10896.0 5862.0 818.2030311695578 1.7852459380542387 395.0 16.0 302.0 
384.00001362055673 10909.0 5861.0 819.5253074063646 1.7295355616589794 395.0 16.0 303.0 
386.00001362055673 10944.0 5866.0 819.5115813554319 1.7404622417413698 395.0 16.0 303.0 
388.00001362055673 10944.0 5864.0 816.8807549328081 1.835233934738633 399.0 16.0 301.0 
390.00001362055673 10922.0 5862.0 815.5744924220934 1.856632359614091 400.0 16.0 300.0 
392.00001362055673 10912.0 5862.0 816.905919359459 1.9566309593559967 400.0 16.0 301.0 
394.00001362055673 10910.0 5862.0 816.8944809836837 1.855018897714569 403.0 15.0 302.0 
396.00001362055673 10919.0 5862.0 818.2041750071452 1.570203018651775 402.0 16.0 302.0 
398.00001362055673 10933.0 5865.0 818.1778667429081 1.5760783251655477 401.0 16.0 302.0 
400.00001362055673 10949.0 5868.0 822.1721475550503 1.626604039998107 405.0 17.0 304.0 
402.00001362055673 10938.0 5869.0 820.8178438661594 1.7288359001206601 403.0 17.0 303.0 
404.00001362055673 10919.0 5868.0 823.4818415784941 1.8160380996645547 404.0 17.0 305.0 
406.00001362055673 10892.0 5863.0 824.762939662577 1.8626307282357115 407.0 17.0 306.0 
408.00001362055673 10888.0 5861.0 824.7858164140818 1.8333878960785432 406.0 17.0 306.0 
410.00001362055673 10896.0 5867.0 822.1595653417043 1.7805641297182933 406.0 17.0 304.0 
412.00001362055673 10933.0 5868.0 822.1515584786872 1.6491251935593632 407.0 17.0 304.0 
414.00001362055673 10910.0 5867.0 823.4589648269865 1.672061626687541 406.0 17.0 305.0 
416.00001362055673 10911.0 5867.0 819.5207320560608 1.6885824707401311 405.0 16.0 303.0 
418.00001362055673 10906.0 5869.0 822.1469831284005 1.7818692645972027 404.0 16.0 305.0 
420.00001362055673 10931.0 5866.0 822.1618530168869 1.6642502103184569 406.0 16.0 305.0 
422.00001362055673 10956.0 5866.0 820.8144123534477 1.8210665858665611 407.0 15.0 305.0 
424.00001362055673 10944.0 5867.0 820.8395767800969 1.9083986905865116 407.0 15.0 305.0 
426.00001362055673 10927.0 5862.0 822.1538461538291 1.8618380248922684 403.0 15.0 306.0 
428.00001362055673 10941.0 5860.0 820.8590220188884 1.7041401108245722 402.0 15.0 305.0 
430.00001362055673 10950.0 5861.0 820.849871318259 1.680409072131949 401.0 15.0 305.0 
432.00001362055673 10962.0 5863.0 820.8601658564596 1.5851254325079884 401.0 15.0 305.0 
434.00001362055673 10954.0 5863.0 818.2316271089409 1.6153507024097014 401.0 15.0 303.0 
436.00001362055673 10927.0 5858.0 819.5481841578562 1.6585203296997395 399.0 15.0 304.0 
438.00001362055673 10909.0 5855.0 819.5321704317932 1.7144329008812746 399.0 15.0 304.0 
440.00001362055673 10904.0 5855.0 822.2224764083488 1.7134813585134048 399.0 15.0 306.0 
442.00001362055673 10907.0 5856.0 819.5401772948151 1.7801263460271346 400.0 15.0 304.0 
444.00001362055673 10916.0 5857.0 820.8350014298104 1.7771252647429456 401.0 15.0 305.0 
446.00001362055673 10915.0 5856.0 820.8269945667515 1.7457289620992968 403.0 15.0 305.0 
448.00001362055673 10938.0 5856.0 824.8372891049553 1.7634197670186746 403.0 15.0 308.0 
450.00001362055673 10963.0 5859.0 823.4795539033527 1.7449995384844497 403.0 15.0 307.0 
452.00001362055673 10971.0 5862.0 826.090935087225 1.7939128079083864 403.0 15.0 309.0 
454.00001362055673 10968.0 5862.0 827.4097798112583 1.9181434384826501 402.0 15.0 310.0 
456.00001362055673 10971.0 5862.0 827.4109236488325 1.833718035774301 403.0 15.0 310.0 
458.00001362055673 10927.0 5861.0 826.108092650834 1.7779577608564014 403.0 15.0 309.0 
460.00001362055673 10888.0 5860.0 828.7503574492312 1.7815297099265115 407.0 15.0 311.0 
462.00001362055673 10836.0 5856.0 828.7023162710743 1.7737659025897494 408.0 15.0 311.0 
464.00001362055673 10846.0 5858.0 827.3548756076717 1.709948428368748 409.0 15.0 310.0 
466.00001362055673 10839.0 5859.0 826.069202173305 1.7832902179796934 412.0 14.0 310.0 
468.00001362055673 10853.0 5857.0 824.7297683729062 1.7416429904292305 411.0 14.0 309.0 
470.00001362055673 10873.0 5859.0 824.7537889619852 1.8299804319429853 413.0 14.0 309.0 
472.00001362055673 10874.0 5856.0 823.4143551615618 1.839334820807009 413.0 14.0 308.0 
474.00001362055673 10861.0 5855.0 823.4360880754822 1.795597076066748 411.0 14.0 308.0 
476.00001362055673 10870.0 5857.0 823.4395195882115 1.8328358721182425 411.0 14.0 308.0 
478.00001362055673 10833.0 5855.0 823.4269373749075 1.8002720978013695 411.0 14.0 308.0 
480.00001362055673 10836.0 5855.0 824.7698026880056 1.6373202171006094 410.0 14.0 309.0 
482.00001362055673 10835.0 5855.0 826.0554761223719 1.6485179736715554 410.0 14.0 310.0 
484.00001362055673 10846.0 5856.0 826.073777523593 1.7102005640240607 410.0 14.0 310.0 
486.00001362055673 10864.0 5858.0 826.0943665999556 1.7863591447044227 410.0 14.0 310.0 
488.00001362055673 10869.0 5857.0 822.1652845296043 1.7258792844542965 409.0 14.0 307.0 
490.00001362055673 10883.0 5861.0 820.8510151558307 1.8149103291892932 408.0 14.0 306.0 
492.00001362055673 10898.0 5861.0 820.8178438661596 1.72793105118793 409.0 14.0 306.0 
494.00001362055673 10900.0 5863.0 820.8189877037341 1.7495844929368134 405.0 14.0 306.0 
496.00001362055673 10892.0 5862.0 820.8029739777137 1.6836487835174136 404.0 14.0 306.0 
498.00001362055673 10906.0 5861.0 820.8224192164636 1.6778755633299607 405.0 14.0 306.0 
500.00001362055673 10907.0 5862.0 820.8407206176672 1.7483784462979879 405.0 14.0 306.0 
502.00001362055673 10893.0 5862.0 818.1995996568413 1.78335970735841 404.0 14.0 304.0 
504.00001362055673 10885.0 5861.0 818.2041750071453 1.7734784230486156 404.0 14.0 304.0 
506.00001362055673 10890.0 5864.0 819.511581355432 1.825241386878616 405.0 14.0 305.0 
508.00001362055673 10880.0 5866.0 819.5344581069393 1.8179390479516822 407.0 14.0 305.0 
510.00001362055673 10888.0 5871.0 818.2041750071452 1.8631874489631306 408.0 14.0 304.0 
512.0000136205567 10869.0 5869.0 820.8384329425268 1.9237626421923513 410.0 14.0 306.0 
514.0000136205567 10871.0 5868.0 820.8178438661596 1.8644528523546409 410.0 14.0 306.0 
516.0000136205567 10874.0 5869.0 820.8029739777137 1.6738081214413048 408.0 15.0 305.0 
518.0000136205567 10869.0 5866.0 822.1321132399091 1.640431372195725 409.0 14.0 307.0 
520.0000136205567 10870.0 5866.0 818.2041750071452 1.6969974661365919 408.0 15.0 303.0 
522.0000136205567 10876.0 5865.0 818.1881612811077 1.6757299723351966 407.0 15.0 303.0 
524.0000136205567 10892.0 5867.0 812.9207892479209 1.837861555824394 407.0 15.0 299.0 
526.0000136205567 10917.0 5868.0 811.6133828996185 1.863034853921147 407.0 15.0 298.0 
528.0000136205567 10937.0 5872.0 811.6396911638428 1.8207971257736995 411.0 15.0 298.0 
530.0000136205567 10942.0 5874.0 809.0020017157696 1.7715465308987546 411.0 14.0 297.0 
532.0000136205567 10948.0 5876.0 808.9642550757737 1.7405208157026737 410.0 14.0 297.0 
534.0000136205567 10937.0 5873.0 807.6671432656742 1.796313020287092 413.0 14.0 296.0 
536.0000136205567 10916.0 5869.0 811.6042321990309 1.8563723697921681 413.0 14.0 299.0 
538.0000136205567 10885.0 5867.0 815.5859307978097 1.8527894566641423 411.0 14.0 302.0 
540.0000136205567 10895.0 5870.0 814.2579353731616 1.7761510801985698 412.0 14.0 301.0 
542.0000136205567 10879.0 5868.0 812.900200171559 1.830788965153254 410.0 14.0 300.0 
544.0000136205567 10898.0 5868.0 812.9230769230667 1.8010753871716083 408.0 14.0 300.0 
546.0000136205567 10886.0 5865.0 811.5870746353971 1.7644051588383691 414.0 14.0 299.0 
548.0000136205567 10887.0 5867.0 811.6202459250883 1.6782103437470977 414.0 14.0 299.0 
550.0000136205567 10875.0 5864.0 808.9779811266907 1.7213038480661942 411.0 14.0 297.0 
552.0000136205567 10863.0 5865.0 808.9688304260619 1.7086377523627392 412.0 14.0 297.0 
554.0000136205567 10874.0 5868.0 810.2830997998115 1.7962956333261602 411.0 14.0 298.0 
556.0000136205567 10918.0 5867.0 810.3105519016437 1.808604630765444 414.0 14.0 298.0 
558.0000136205567 10906.0 5864.0 811.6133828996185 1.836777961676089 414.0 14.0 299.0 
560.0000136205567 10910.0 5866.0 811.6110952244592 1.8030600879315617 416.0 14.0 299.0 
562.0000136205567 10904.0 5867.0 812.8807549328079 1.7700003189682905 415.0 14.0 300.0 
564.0000136205567 10916.0 5871.0 815.5264512439363 1.5869538334825237 416.0 14.0 302.0 
566.0000136205567 10935.0 5873.0 818.1469831284006 1.6111305080096439 417.0 14.0 304.0 
568.0000136205567 10928.0 5873.0 819.4989991421279 1.7495381717333525 418.0 14.0 305.0 
570.0000136205567 10951.0 5876.0 822.1126680011597 1.8112457494215999 417.0 14.0 307.0 
572.0000136205567 10941.0 5875.0 822.1046611381005 1.906810285901699 418.0 14.0 307.0 
574.0000136205567 10953.0 5879.0 826.0749213611632 1.914425290069641 421.0 14.0 310.0 
576.0000136205567 10906.0 5875.0 830.009722619376 1.865405978715835 420.0 14.0 313.0 
578.0000136205567 10932.0 5874.0 833.9822705175807 1.8283699727369667 420.0 14.0 316.0 
580.0000136205567 10942.0 5875.0 835.3136974549468 1.8932576463837627 419.0 14.0 317.0 
582.0000136205567 10956.0 5878.0 836.616528452963 1.7695692475665177 420.0 14.0 318.0 
584.0000136205567 10954.0 5874.0 839.2496425507697 1.7425216536002939 422.0 14.0 320.0 
586.0000136205567 10913.0 5872.0 840.5764941378209 1.8087993181212119 421.0 14.0 321.0 
588.0000136205567 10891.0 5870.0 840.577637975395 1.7470788219042386 421.0 14.0 321.0 
590.0000136205567 10877.0 5866.0 840.549042036013 1.770419142045229 422.0 14.0 321.0 
592.0000136205567 10874.0 5865.0 841.8633114097611 1.7849404967948348 421.0 14.0 322.0 
594.0000136205567 10886.0 5872.0 841.8438661710131 1.9307094124747453 423.0 14.0 322.0 
596.0000136205567 10878.0 5870.0 839.2221904489339 2.030007763157562 422.0 14.0 320.0 
598.0000136205567 10889.0 5873.0 843.218758936218 2.0657233990290575 428.0 14.0 323.0 
600.0000136205567 10919.0 5874.0 844.5604804117899 1.9338887571627934 428.0 14.0 324.0 
602.0000136205567 10960.0 5877.0 844.5261652845203 1.8500201863978347 426.0 14.0 324.0 
604.0000136205567 10977.0 5880.0 844.4929939948562 1.8321029416821373 428.0 14.0 324.0 
606.0000136205567 10971.0 5878.0 845.7969688304424 1.8759350567645066 427.0 14.0 325.0 
608.0000136205567 10907.0 5874.0 845.8324277952374 1.8337782790374437 426.0 14.0 325.0 
610.0000136205567 10905.0 5872.0 845.8255647698081 1.8473074150948445 427.0 14.0 325.0 
612.0000136205567 10892.0 5869.0 844.4952816699968 1.7834608583160005 428.0 14.0 324.0 
614.0000136205567 10867.0 5868.0 844.498713182714 1.8934991154736112 429.0 14.0 324.0 
616.0000136205567 10868.0 5866.0 841.8861881612689 1.8501140720304667 428.0 15.0 321.0 
618.0000136205567 10908.0 5865.0 840.5707749499463 1.8105418986541724 431.0 14.0 321.0 
620.0000136205567 10944.0 5870.0 841.9159279382466 1.8635732302098926 434.0 14.0 322.0 
622.0000136205567 10949.0 5869.0 843.199313697471 1.8659358501587362 433.0 14.0 323.0 
624.0000136205567 10946.0 5871.0 843.1924506719971 1.8283953012105532 433.0 14.0 323.0 
626.0000136205567 10951.0 5869.0 843.1890191592685 1.8504117617835476 434.0 14.0 323.0 
628.0000136205567 10915.0 5866.0 843.2187589362181 1.8269291357121886 434.0 14.0 323.0 
630.0000136205567 10944.0 5868.0 845.8164140692191 1.863707754471427 437.0 14.0 325.0 
632.0000136205567 10954.0 5869.0 843.1512725193162 1.83226419772996 435.0 14.0 323.0 
634.0000136205567 10967.0 5871.0 847.1009436660134 1.787809554864321 437.0 14.0 326.0 
636.0000136205567 11000.0 5872.0 848.4335144409655 1.6503416447197878 437.0 14.0 327.0 
638.0000136205567 11001.0 5870.0 851.0769230769348 1.6952755801864026 435.0 15.0 328.0 
640.0000136205567 10984.0 5867.0 851.0929368029695 1.7685640335427213 432.0 15.0 328.0 
642.0000136205567 10996.0 5864.0 849.7523591650018 1.855333045273966 429.0 14.0 328.0 
644.0000136205567 11027.0 5871.0 847.1352587932538 1.9324121694497176 430.0 14.0 326.0 
646.0000136205567 11016.0 5870.0 847.1352587932538 1.9947853906000361 429.0 14.0 326.0 
648.0000136205567 10996.0 5870.0 844.5364598227106 2.0331082638445888 431.0 14.0 324.0 
650.0000136205567 10980.0 5869.0 844.527309122092 1.9562243306578178 424.0 14.0 324.0 
652.0000136205567 10968.0 5866.0 843.198169859899 1.886891781654188 422.0 14.0 323.0 
654.0000136205567 10977.0 5868.0 840.5856448384391 1.8121053763327795 422.0 14.0 321.0 
656.0000136205567 10985.0 5869.0 840.5547612238875 1.8430458300768942 420.0 14.0 321.0 
658.0000136205567 10970.0 5869.0 840.5353159851388 1.8893419169830004 420.0 14.0 321.0 
660.0000136205567 10939.0 5869.0 841.8907635115967 1.7848907413501829 423.0 14.0 322.0 
662.0000136205567 10913.0 5864.0 840.5776379753951 1.8337764735815325 421.0 14.0 321.0 
664.0000136205567 10912.0 5864.0 840.5444666857253 1.8049974547561902 421.0 14.0 321.0 
#####################################################################
# End of data export. Simulation finished at: 2019-03-08T21:54+0000 #
#####################################################################
