#####################################################################
# Alchemist log file - simulation started at: 2019-03-05T21:36+0000 #
#####################################################################
# seed = 8.0, bandwidth = 1333521.4321633242, accessPointCount = 19.39227447486858, baserange = 10.0
#
# The columns have the following meaning: 
# time neighbor_count[Sum] <value>@neighbor_count[Sum] packet_size[Mean] mean_delay[Mean] crowd[Sum] overcrowded[Sum] risk[Sum] 
0.0 NaN NaN NaN NaN NaN NaN NaN 
2.000927030832833 4.0 2.0 4987.736147757256 0.6016439028441154 1497.0 0.0 1497.0 
4.000927030832833 4.0 2.0 4987.749340369393 0.6016159067936339 1497.0 0.0 1497.0 
6.000198348008885 4.0 2.0 4987.7414248021105 0.6016109074989048 1497.0 0.0 1497.0 
8.000927030832834 4.0 2.0 4987.736147757256 0.6016269052420373 1497.0 0.0 1497.0 
10.000927030832834 6.0 2.0 4987.730870712401 0.4925050573424586 1497.0 0.0 1497.0 
12.000927030832834 6.0 2.0 4987.730870712401 0.4925070570603503 1497.0 0.0 1497.0 
14.000927030832834 6.0 2.0 4987.730870712401 0.4925070570603503 1497.0 0.0 1497.0 
16.000198348008887 6.0 2.0 4987.730870712401 0.4925070570603503 1497.0 0.0 1497.0 
18.000927030832834 6.0 2.0 4987.730870712401 0.49250705706034975 1497.0 0.0 1497.0 
20.000927030832834 6.0 2.0 4987.730870712401 0.49250705706034975 1497.0 0.0 1497.0 
22.000927030832834 6.0 2.0 4987.730870712401 0.49250705706034975 1497.0 0.0 1497.0 
24.000927030832834 6.0 2.0 4987.730870712401 0.49250705706034975 1497.0 0.0 1497.0 
26.000198348008887 6.0 2.0 4987.730870712401 0.49250705706034975 1497.0 0.0 1497.0 
28.000927030832834 6.0 2.0 4987.730870712401 0.49250705706034975 1497.0 0.0 1497.0 
30.000927030832834 6.0 2.0 4987.730870712401 0.49250705706034975 1497.0 0.0 1497.0 
32.000927030832834 6.0 2.0 4987.730870712401 0.49250705706034975 1497.0 0.0 1497.0 
34.000927030832834 6.0 2.0 4987.730870712401 0.49250705706034853 1497.0 0.0 1497.0 
36.00019834800889 6.0 2.0 4987.730870712401 0.49250705706034853 1497.0 0.0 1497.0 
38.000927030832834 6.0 2.0 4987.730870712401 0.49250705706034853 1497.0 0.0 1497.0 
40.000927030832834 6.0 2.0 4987.730870712401 0.49250705706034853 1497.0 0.0 1497.0 
42.000927030832834 6.0 2.0 4987.730870712401 0.49250705706034853 1497.0 0.0 1497.0 
44.000927030832834 6.0 2.0 4987.730870712401 0.49250705706034853 1497.0 0.0 1497.0 
46.00019834800889 6.0 2.0 4987.730870712401 0.49250705706034853 1497.0 0.0 1497.0 
48.000927030832834 6.0 2.0 4987.730870712401 0.49250705706034853 1497.0 0.0 1497.0 
50.000927030832834 6.0 2.0 4987.730870712401 0.49250705706034853 1497.0 0.0 1497.0 
52.000927030832834 6.0 2.0 4987.730870712401 0.49250705706034853 1497.0 0.0 1497.0 
54.000927030832834 6.0 2.0 4987.730870712401 0.49250705706034853 1497.0 0.0 1497.0 
56.00019834800889 6.0 2.0 4987.730870712401 0.49250705706034853 1497.0 0.0 1497.0 
58.000927030832834 6.0 2.0 4987.730870712401 0.49250705706034853 1497.0 0.0 1497.0 
60.000927030832834 6.0 2.0 4984.704485488127 0.49250705706034853 1496.0 0.0 1496.0 
62.000927030832834 6.0 2.0 400.0 0.4994000846325335 2.0 0.0 0.0 
64.00092703083283 6.0 2.0 400.0 0.4994000846325335 2.0 0.0 0.0 
66.0001983480089 6.0 2.0 400.0 0.4994000846325406 2.0 0.0 0.0 
68.00092703083283 6.0 2.0 400.0 0.4994000846325406 2.0 0.0 0.0 
70.00092703083283 6.0 2.0 400.0 0.4994000846325406 2.0 0.0 0.0 
72.00092703083283 6.0 2.0 400.0 0.4994000846325406 2.0 0.0 0.0 
74.00092703083283 6.0 2.0 400.0 0.4994000846325406 2.0 0.0 0.0 
76.0001983480089 6.0 2.0 400.0 0.4994000846325406 2.0 0.0 0.0 
78.00092703083283 6.0 2.0 400.0 0.4994000846325406 0.0 0.0 0.0 
80.00092703083283 6.0 2.0 400.0 0.4994000846325406 0.0 0.0 0.0 
82.00092703083283 6.0 2.0 400.0 0.4994000846325406 0.0 0.0 0.0 
84.00092703083283 6.0 2.0 400.0 0.4994000846325406 0.0 0.0 0.0 
86.0001983480089 6.0 2.0 400.0 0.4994000846325406 0.0 0.0 0.0 
88.00092703083283 6.0 2.0 400.0 0.4994000846325406 0.0 0.0 0.0 
90.00092703083283 6.0 2.0 400.0 0.4994000846325406 0.0 0.0 0.0 
92.00092703083283 6.0 2.0 400.0 0.4994000846325406 0.0 0.0 0.0 
94.00092703083283 6.0 2.0 400.0 0.4994000846325406 0.0 0.0 0.0 
96.0001983480089 6.0 2.0 400.0 0.4994000846325406 0.0 0.0 0.0 
98.00092703083283 6.0 2.0 400.0 0.4994000846325406 0.0 0.0 0.0 
100.00092703083283 6.0 2.0 400.0 0.4994000846325406 0.0 0.0 0.0 
102.00092703083283 6.0 2.0 400.0 0.4994000846325406 0.0 0.0 0.0 
104.00092703083283 6.0 2.0 400.0 0.4994000846325406 0.0 0.0 0.0 
106.0001983480089 6.0 2.0 400.0 0.4994000846325406 0.0 0.0 0.0 
108.00092703083283 6.0 2.0 400.0 0.4994000846325406 0.0 0.0 0.0 
110.00092703083283 6.0 2.0 400.0 0.4994000846325406 0.0 0.0 0.0 
112.00092703083283 6.0 2.0 400.0 0.4994000846325406 0.0 0.0 0.0 
114.00092703083283 6.0 2.0 400.0 0.4994000846325406 0.0 0.0 0.0 
116.0001983480089 6.0 2.0 400.0 0.4994000846325406 0.0 0.0 0.0 
118.00092703083283 6.0 2.0 400.0 0.4994000846325406 0.0 0.0 0.0 
120.00092703083283 6.0 2.0 400.0 0.4994000846325406 0.0 0.0 0.0 
122.00092703083283 6.0 2.0 400.0 0.4994000846325406 0.0 0.0 0.0 
124.00092703083283 6.0 2.0 400.0 0.4994000846325406 0.0 0.0 0.0 
126.0001983480089 6.0 2.0 400.0 0.4994000846325406 0.0 0.0 0.0 
128.00092703083283 6.0 2.0 400.0 0.4994000846325406 0.0 0.0 0.0 
130.00092703083283 6.0 2.0 400.0 0.4994000846325264 0.0 0.0 0.0 
132.00092703083283 6.0 2.0 400.0 0.4994000846325264 0.0 0.0 0.0 
134.00092703083283 6.0 2.0 400.0 0.4994000846325264 0.0 0.0 0.0 
136.0001983480089 6.0 2.0 400.0 0.4994000846325264 0.0 0.0 0.0 
138.00092703083283 6.0 2.0 400.0 0.4994000846325264 0.0 0.0 0.0 
140.00092703083283 6.0 2.0 400.0 0.4994000846325264 0.0 0.0 0.0 
142.00092703083283 6.0 2.0 400.0 0.4994000846325264 0.0 0.0 0.0 
144.00092703083283 6.0 2.0 400.0 0.4994000846325264 0.0 0.0 0.0 
146.0001983480089 6.0 2.0 400.0 0.4994000846325264 0.0 0.0 0.0 
148.00092703083283 6.0 2.0 400.0 0.4994000846325264 0.0 0.0 0.0 
150.00092703083283 6.0 2.0 400.0 0.4994000846325264 0.0 0.0 0.0 
152.00092703083283 6.0 2.0 400.0 0.4994000846325264 0.0 0.0 0.0 
154.00092703083283 6.0 2.0 400.0 0.4994000846325264 0.0 0.0 0.0 
156.0001983480089 6.0 2.0 400.0 0.4994000846325264 0.0 0.0 0.0 
158.00092703083283 6.0 2.0 400.0 0.4994000846325264 0.0 0.0 0.0 
160.00092703083283 6.0 2.0 400.0 0.4994000846325264 0.0 0.0 0.0 
162.00092703083283 7.0 3.0 400.0 0.49655156297575964 0.0 0.0 0.0 
164.00092703083283 8.0 3.0 400.0 0.584991576778472 0.0 0.0 0.0 
166.0001983480089 8.0 3.0 400.0 0.584991576778472 0.0 0.0 0.0 
168.00092703083283 8.0 3.0 400.0 0.584991576778472 0.0 0.0 0.0 
170.00092703083283 8.0 3.0 400.0 0.584991576778472 0.0 0.0 0.0 
172.00092703083283 8.0 3.0 400.0 0.6684123977695577 0.0 0.0 0.0 
174.00092703083283 7.0 2.0 400.0 1.087240452152443 0.0 0.0 0.0 
176.0001983480089 6.0 2.0 400.0 0.4994000846325264 0.0 0.0 0.0 
178.00092703083283 6.0 2.0 400.0 0.4994000846325264 0.0 0.0 0.0 
180.00092703083283 6.0 2.0 400.0 0.4994000846325264 0.0 0.0 0.0 
182.00092703083283 6.0 2.0 400.0 0.4994000846325264 0.0 0.0 0.0 
184.00092703083283 6.0 2.0 400.0 0.4994000846325264 0.0 0.0 0.0 
186.0001983480089 6.0 2.0 400.0 0.4994000846325264 0.0 0.0 0.0 
188.00092703083283 6.0 2.0 400.0 0.4994000846325264 0.0 0.0 0.0 
190.00092703083283 6.0 2.0 400.0 0.4994000846325264 0.0 0.0 0.0 
192.00092703083283 6.0 2.0 400.0 0.4994000846325264 0.0 0.0 0.0 
194.00092703083283 6.0 2.0 400.0 0.4994000846325264 0.0 0.0 0.0 
196.0001983480089 6.0 2.0 400.0 0.4994000846325264 0.0 0.0 0.0 
198.00092703083283 6.0 2.0 400.0 0.4994000846325264 0.0 0.0 0.0 
200.00092703083283 6.0 2.0 400.0 0.4994000846325264 0.0 0.0 0.0 
202.00092703083283 6.0 2.0 400.0 0.4994000846325264 0.0 0.0 0.0 
204.00092703083283 6.0 2.0 400.0 0.4994000846325264 0.0 0.0 0.0 
206.0001983480089 6.0 2.0 400.0 0.4994000846325264 0.0 0.0 0.0 
208.00092703083283 6.0 2.0 400.0 0.4994000846325264 0.0 0.0 0.0 
210.00092703083283 6.0 2.0 400.0 0.4994000846325264 0.0 0.0 0.0 
212.00092703083283 6.0 2.0 400.0 0.4994000846325264 0.0 0.0 0.0 
214.00092703083283 6.0 2.0 400.0 0.4994000846325264 0.0 0.0 0.0 
216.0001983480089 6.0 2.0 400.0 0.4994000846325264 0.0 0.0 0.0 
218.00092703083283 6.0 2.0 400.0 0.4994000846325264 0.0 0.0 0.0 
220.00092703083283 6.0 2.0 400.0 0.4994000846325264 0.0 0.0 0.0 
222.00092703083283 6.0 2.0 400.0 0.4994000846325264 0.0 0.0 0.0 
224.00092703083283 6.0 2.0 400.0 0.4994000846325264 0.0 0.0 0.0 
226.0001983480089 6.0 2.0 400.0 0.4994000846325264 0.0 0.0 0.0 
228.00092703083283 6.0 2.0 400.0 0.4994000846325264 0.0 0.0 0.0 
230.00092703083283 6.0 2.0 400.0 0.4994000846325264 0.0 0.0 0.0 
232.00092703083283 6.0 2.0 400.0 0.4994000846325264 0.0 0.0 0.0 
234.00092703083283 6.0 2.0 400.0 0.4994000846325264 0.0 0.0 0.0 
236.0001983480089 6.0 2.0 400.0 0.4994000846325264 0.0 0.0 0.0 
238.00092703083283 6.0 2.0 400.0 0.4994000846325264 0.0 0.0 0.0 
240.00092703083283 6.0 2.0 400.0 0.4994000846325264 0.0 0.0 0.0 
242.00092703083283 6.0 2.0 400.0 0.4994000846325264 0.0 0.0 0.0 
244.00092703083283 6.0 2.0 400.0 0.4994000846325264 0.0 0.0 0.0 
246.0001983480089 6.0 2.0 400.0 0.4994000846325264 0.0 0.0 0.0 
248.00092703083283 6.0 2.0 400.0 0.4994000846325264 0.0 0.0 0.0 
250.00092703083283 6.0 2.0 400.0 0.4994000846325264 0.0 0.0 0.0 
252.00092703083283 6.0 2.0 400.0 0.4994000846325264 0.0 0.0 0.0 
254.00092703083283 6.0 2.0 400.0 0.4994000846325264 0.0 0.0 0.0 
256.0001983480089 6.0 2.0 400.0 0.4994000846325264 0.0 0.0 0.0 
258.0009270308328 6.0 2.0 400.0 0.4994000846325548 0.0 0.0 0.0 
260.0009270308328 6.0 2.0 400.0 0.4994000846325548 0.0 0.0 0.0 
262.0009270308328 6.0 2.0 400.0 0.4994000846325548 0.0 0.0 0.0 
264.0009270308328 6.0 2.0 400.0 0.4994000846325548 0.0 0.0 0.0 
266.0001983480089 6.0 2.0 400.0 0.4994000846325548 0.0 0.0 0.0 
268.0009270308328 6.0 2.0 400.0 0.4994000846325548 0.0 0.0 0.0 
270.0009270308328 6.0 2.0 400.0 0.4994000846325548 0.0 0.0 0.0 
272.0009270308328 6.0 2.0 400.0 0.4994000846325548 0.0 0.0 0.0 
274.0009270308328 6.0 2.0 400.0 0.4994000846325548 0.0 0.0 0.0 
276.0001983480089 6.0 2.0 400.0 0.4994000846325548 0.0 0.0 0.0 
278.0009270308328 6.0 2.0 400.0 0.4994000846325548 0.0 0.0 0.0 
280.0009270308328 6.0 2.0 400.0 0.4994000846325548 0.0 0.0 0.0 
282.0009270308328 6.0 2.0 400.0 0.4994000846325548 0.0 0.0 0.0 
284.0009270308328 6.0 2.0 400.0 0.4994000846325548 0.0 0.0 0.0 
286.0001983480089 6.0 2.0 400.0 0.4994000846325548 0.0 0.0 0.0 
288.0009270308328 6.0 2.0 400.0 0.4994000846325548 0.0 0.0 0.0 
290.0009270308328 6.0 2.0 400.0 0.4994000846325548 0.0 0.0 0.0 
292.0009270308328 6.0 2.0 400.0 0.4994000846325548 0.0 0.0 0.0 
294.0009270308328 6.0 2.0 400.0 0.4994000846325548 0.0 0.0 0.0 
296.0001983480089 6.0 2.0 400.0 0.4994000846325548 0.0 0.0 0.0 
298.0009270308328 6.0 2.0 400.0 0.4994000846325548 0.0 0.0 0.0 
300.0009270308328 6.0 2.0 400.0 0.4994000846325548 0.0 0.0 0.0 
302.0009270308328 6.0 2.0 400.0 0.4994000846325548 0.0 0.0 0.0 
304.0009270308328 6.0 2.0 400.0 0.4994000846325548 0.0 0.0 0.0 
306.0001983480089 6.0 2.0 400.0 0.4994000846325548 0.0 0.0 0.0 
308.0009270308328 6.0 2.0 400.0 0.4994000846325548 0.0 0.0 0.0 
310.0009270308328 6.0 2.0 400.0 0.4994000846325548 0.0 0.0 0.0 
312.0009270308328 6.0 2.0 400.0 0.4994000846325548 0.0 0.0 0.0 
314.0009270308328 6.0 2.0 400.0 0.4994000846325548 0.0 0.0 0.0 
316.0001983480089 6.0 2.0 400.0 0.4994000846325548 0.0 0.0 0.0 
318.0009270308328 6.0 2.0 400.0 0.4994000846325548 0.0 0.0 0.0 
320.0009270308328 6.0 2.0 400.0 0.4994000846325548 0.0 0.0 0.0 
322.0009270308328 6.0 2.0 400.0 0.4994000846325548 0.0 0.0 0.0 
324.0009270308328 6.0 2.0 400.0 0.4994000846325548 0.0 0.0 0.0 
326.0001983480089 6.0 2.0 400.0 0.4994000846325548 0.0 0.0 0.0 
328.0009270308328 6.0 2.0 400.0 0.4994000846325548 0.0 0.0 0.0 
330.0009270308328 6.0 2.0 400.0 0.4994000846325548 0.0 0.0 0.0 
332.0009270308328 6.0 2.0 400.0 0.4994000846325548 0.0 0.0 0.0 
334.0009270308328 6.0 2.0 400.0 0.4994000846325548 0.0 0.0 0.0 
336.0001983480089 6.0 2.0 400.0 0.4994000846325548 0.0 0.0 0.0 
338.0009270308328 6.0 2.0 400.0 0.4994000846325548 0.0 0.0 0.0 
340.0009270308328 6.0 2.0 400.0 0.4994000846325548 0.0 0.0 0.0 
342.0009270308328 6.0 2.0 400.0 0.4994000846325548 0.0 0.0 0.0 
344.0009270308328 6.0 2.0 400.0 0.4994000846325548 0.0 0.0 0.0 
346.0001983480089 6.0 2.0 400.0 0.4994000846325548 0.0 0.0 0.0 
348.0009270308328 6.0 2.0 400.0 0.4994000846325548 0.0 0.0 0.0 
350.0009270308328 6.0 2.0 400.0 0.4994000846325548 0.0 0.0 0.0 
352.0009270308328 6.0 2.0 400.0 0.4994000846325548 0.0 0.0 0.0 
354.0009270308328 6.0 2.0 400.0 0.4994000846325548 0.0 0.0 0.0 
356.0001983480089 6.0 2.0 400.0 0.4994000846325548 0.0 0.0 0.0 
358.0009270308328 6.0 2.0 400.0 0.4994000846325548 0.0 0.0 0.0 
360.0009270308328 8.0 3.0 400.0 0.49952006770603247 0.0 0.0 0.0 
362.0009270308328 8.0 3.0 400.0 0.49952006770603247 0.0 0.0 0.0 
364.0009270308328 8.0 3.0 400.0 0.49952006770603247 0.0 0.0 0.0 
366.0001983480089 8.0 3.0 400.0 0.49952006770603247 0.0 0.0 0.0 
368.0009270308328 8.0 3.0 400.0 0.49952006770603247 0.0 0.0 0.0 
370.0009270308328 8.0 3.0 400.0 1.2995200677060326 0.0 0.0 0.0 
372.0009270308328 6.0 2.0 400.0 0.4994000846325548 0.0 0.0 0.0 
374.0009270308328 6.0 2.0 400.0 0.4994000846325548 0.0 0.0 0.0 
376.0001983480089 6.0 2.0 400.0 0.4994000846325548 0.0 0.0 0.0 
378.0009270308328 6.0 2.0 400.0 0.4994000846325548 0.0 0.0 0.0 
380.0009270308328 6.0 2.0 400.0 0.4994000846325548 0.0 0.0 0.0 
382.0009270308328 6.0 2.0 400.0 0.4994000846325548 0.0 0.0 0.0 
384.0009270308328 6.0 2.0 400.0 0.4994000846325548 0.0 0.0 0.0 
386.0001983480089 6.0 2.0 400.0 0.4994000846325548 0.0 0.0 0.0 
388.0009270308328 6.0 2.0 400.0 0.4994000846325548 0.0 0.0 0.0 
390.0009270308328 6.0 2.0 400.0 0.4994000846325548 0.0 0.0 0.0 
392.0009270308328 7.0 2.0 400.0 0.5160810707966164 0.0 0.0 0.0 
394.0009270308328 8.0 3.0 400.0 0.49952006770603247 0.0 0.0 0.0 
396.0001983480089 8.0 3.0 400.0 0.49952006770603247 0.0 0.0 0.0 
398.0009270308328 8.0 3.0 400.0 0.49952006770603247 0.0 0.0 0.0 
400.0009270308328 8.0 3.0 400.0 0.49952006770603247 0.0 0.0 0.0 
402.0009270308328 8.0 3.0 400.0 0.6995200677060325 0.0 0.0 0.0 
404.0009270308328 7.0 3.0 400.0 0.9828690773103403 0.0 0.0 0.0 
406.0001983480089 6.0 2.0 400.0 0.4994000846325548 0.0 0.0 0.0 
408.0009270308328 6.0 2.0 400.0 0.4994000846325548 0.0 0.0 0.0 
410.0009270308328 6.0 2.0 400.0 0.4994000846325548 0.0 0.0 0.0 
412.0009270308328 6.0 2.0 400.0 0.4994000846325548 0.0 0.0 0.0 
414.0009270308328 6.0 2.0 400.0 0.4994000846325548 0.0 0.0 0.0 
416.0001983480089 6.0 2.0 400.0 0.4994000846325548 0.0 0.0 0.0 
418.0009270308328 6.0 2.0 400.0 0.4994000846325548 0.0 0.0 0.0 
420.0009270308328 6.0 2.0 400.0 0.4994000846325548 0.0 0.0 0.0 
422.0009270308328 6.0 2.0 400.0 0.4994000846325548 0.0 0.0 0.0 
424.0009270308328 6.0 2.0 400.0 0.4994000846325548 0.0 0.0 0.0 
426.0001983480089 6.0 2.0 400.0 0.4994000846325548 0.0 0.0 0.0 
428.0009270308328 6.0 2.0 400.0 0.4994000846325548 0.0 0.0 0.0 
430.0009270308328 6.0 2.0 400.0 0.4994000846325548 0.0 0.0 0.0 
432.0009270308328 6.0 2.0 400.0 0.4994000846325548 0.0 0.0 0.0 
434.0009270308328 6.0 2.0 400.0 0.4994000846325548 0.0 0.0 0.0 
436.0001983480089 6.0 2.0 400.0 0.4994000846325548 0.0 0.0 0.0 
438.0009270308328 6.0 2.0 400.0 0.4994000846325548 0.0 0.0 0.0 
440.0009270308328 6.0 2.0 400.0 0.4994000846325548 0.0 0.0 0.0 
442.0009270308328 6.0 2.0 400.0 0.4994000846325548 0.0 0.0 0.0 
444.0009270308328 6.0 2.0 400.0 0.4994000846325548 0.0 0.0 0.0 
446.0001983480089 6.0 2.0 400.0 0.4994000846325548 0.0 0.0 0.0 
448.0009270308328 6.0 2.0 400.0 0.4994000846325548 0.0 0.0 0.0 
450.0009270308328 6.0 2.0 400.0 0.4994000846325548 0.0 0.0 0.0 
452.0009270308328 6.0 2.0 400.0 0.4994000846325548 0.0 0.0 0.0 
454.0009270308328 6.0 2.0 400.0 0.4994000846325548 0.0 0.0 0.0 
456.0001983480089 6.0 2.0 400.0 0.4994000846325548 0.0 0.0 0.0 
458.0009270308328 6.0 2.0 400.0 0.4994000846325548 0.0 0.0 0.0 
460.0009270308328 6.0 2.0 400.0 0.4994000846325548 0.0 0.0 0.0 
462.0009270308328 6.0 2.0 400.0 0.4994000846325548 0.0 0.0 0.0 
464.0009270308328 6.0 2.0 400.0 0.4994000846325548 0.0 0.0 0.0 
466.0001983480089 6.0 2.0 400.0 0.4994000846325548 0.0 0.0 0.0 
468.0009270308328 6.0 2.0 400.0 0.4994000846325548 0.0 0.0 0.0 
470.0009270308328 6.0 2.0 400.0 0.4994000846325548 0.0 0.0 0.0 
472.0009270308328 6.0 2.0 400.0 0.4994000846325548 0.0 0.0 0.0 
474.0009270308328 6.0 2.0 400.0 0.4994000846325548 0.0 0.0 0.0 
476.0001983480089 6.0 2.0 400.0 0.4994000846325548 0.0 0.0 0.0 
478.0009270308328 6.0 2.0 400.0 0.4994000846325548 0.0 0.0 0.0 
480.0009270308328 6.0 2.0 400.0 0.4994000846325548 0.0 0.0 0.0 
482.0009270308328 6.0 2.0 400.0 0.4994000846325548 0.0 0.0 0.0 
484.0009270308328 6.0 2.0 400.0 0.4994000846325548 0.0 0.0 0.0 
486.0001983480089 6.0 2.0 400.0 0.4994000846325548 0.0 0.0 0.0 
488.0009270308328 7.0 2.0 400.0 0.5136497137131926 0.0 0.0 0.0 
490.0009270308328 8.0 3.0 400.0 0.49952006770603247 0.0 0.0 0.0 
492.0009270308328 8.0 3.0 400.0 0.49952006770603247 0.0 0.0 0.0 
494.0009270308328 8.0 3.0 400.0 0.49952006770603247 0.0 0.0 0.0 
496.0001983480089 8.0 3.0 400.0 0.49952006770603247 0.0 0.0 0.0 
498.0009270308328 8.0 3.0 400.0 0.49952006770603247 0.0 0.0 0.0 
500.0009270308328 8.0 3.0 400.0 0.49952006770603247 0.0 0.0 0.0 
502.0009270308328 8.0 3.0 400.0 0.49952006770603247 0.0 0.0 0.0 
504.0009270308328 8.0 3.0 400.0 0.49952006770603247 0.0 0.0 0.0 
506.0001983480089 8.0 3.0 400.0 0.49952006770603247 0.0 0.0 0.0 
508.0009270308328 8.0 3.0 400.0 0.49952006770603247 0.0 0.0 0.0 
510.0009270308328 8.0 3.0 400.0 0.49952006770603247 0.0 0.0 0.0 
512.0009270308328 8.0 3.0 400.0 0.49952006770603247 0.0 0.0 0.0 
514.0009270308328 8.0 3.0 400.0 0.4995200677059984 0.0 0.0 0.0 
516.0001983480089 8.0 3.0 400.0 0.4995200677059984 0.0 0.0 0.0 
518.0009270308328 8.0 3.0 400.0 0.4995200677059984 0.0 0.0 0.0 
520.0009270308328 8.0 3.0 400.0 0.4995200677059984 0.0 0.0 0.0 
522.0009270308328 8.0 3.0 400.0 0.4995200677059984 0.0 0.0 0.0 
524.0009270308328 8.0 3.0 400.0 0.4995200677059984 0.0 0.0 0.0 
526.0001983480089 8.0 3.0 400.0 0.4995200677059984 0.0 0.0 0.0 
528.0009270308328 8.0 3.0 400.0 0.6995200677059984 0.0 0.0 0.0 
530.0009270308328 7.0 3.0 400.0 0.9853004343937073 0.0 0.0 0.0 
532.0009270308328 6.0 2.0 400.0 0.49940008463249796 0.0 0.0 0.0 
534.0009270308328 6.0 2.0 400.0 0.49940008463249796 0.0 0.0 0.0 
536.0001983480089 6.0 2.0 400.0 0.49940008463249796 0.0 0.0 0.0 
538.0009270308328 6.0 2.0 400.0 0.49940008463249796 0.0 0.0 0.0 
540.0009270308328 6.0 2.0 400.0 0.49940008463249796 0.0 0.0 0.0 
542.0009270308328 6.0 2.0 400.0 0.49940008463249796 0.0 0.0 0.0 
544.0009270308328 6.0 2.0 400.0 0.49940008463249796 0.0 0.0 0.0 
546.0001983480089 6.0 2.0 400.0 0.49940008463249796 0.0 0.0 0.0 
548.0009270308328 6.0 2.0 400.0 0.49940008463249796 0.0 0.0 0.0 
550.0009270308328 6.0 2.0 400.0 0.49940008463249796 0.0 0.0 0.0 
552.0009270308328 6.0 2.0 400.0 0.49940008463249796 0.0 0.0 0.0 
554.0009270308328 6.0 2.0 400.0 0.49940008463249796 0.0 0.0 0.0 
556.0001983480089 6.0 2.0 400.0 0.49940008463249796 0.0 0.0 0.0 
558.0009270308328 6.0 2.0 400.0 0.49940008463249796 0.0 0.0 0.0 
560.0009270308328 6.0 2.0 400.0 0.49940008463249796 0.0 0.0 0.0 
562.0009270308328 6.0 2.0 400.0 0.49940008463249796 0.0 0.0 0.0 
564.0009270308328 6.0 2.0 400.0 0.49940008463249796 0.0 0.0 0.0 
566.0001983480089 6.0 2.0 400.0 0.49940008463249796 0.0 0.0 0.0 
568.0009270308328 6.0 2.0 400.0 0.49940008463249796 0.0 0.0 0.0 
570.0009270308328 6.0 2.0 400.0 0.49940008463249796 0.0 0.0 0.0 
572.0009270308328 6.0 2.0 400.0 0.49940008463249796 0.0 0.0 0.0 
574.0009270308328 6.0 2.0 400.0 0.49940008463249796 0.0 0.0 0.0 
576.0001983480089 6.0 2.0 400.0 0.49940008463249796 0.0 0.0 0.0 
578.0009270308328 6.0 2.0 400.0 0.49940008463249796 0.0 0.0 0.0 
580.0009270308328 6.0 2.0 400.0 0.49940008463249796 0.0 0.0 0.0 
582.0009270308328 6.0 2.0 400.0 0.49940008463249796 0.0 0.0 0.0 
584.0009270308328 6.0 2.0 400.0 0.49940008463249796 0.0 0.0 0.0 
586.0001983480089 6.0 2.0 400.0 0.49940008463249796 0.0 0.0 0.0 
588.0009270308328 6.0 2.0 400.0 0.49940008463249796 0.0 0.0 0.0 
590.0009270308328 6.0 2.0 400.0 0.49940008463249796 0.0 0.0 0.0 
592.0009270308328 6.0 2.0 400.0 0.49940008463249796 0.0 0.0 0.0 
594.0009270308328 6.0 2.0 400.0 0.49940008463249796 0.0 0.0 0.0 
596.0001983480089 6.0 2.0 400.0 0.49940008463249796 0.0 0.0 0.0 
598.0009270308328 8.0 3.0 400.0 0.4995200677059984 0.0 0.0 0.0 
600.0009270308328 10.0 4.0 400.0 0.49957148902321286 0.0 0.0 0.0 
602.0009270308328 10.0 4.0 400.0 0.49957148902321286 0.0 0.0 0.0 
604.0009270308328 10.0 4.0 400.0 0.49957148902321286 0.0 0.0 0.0 
606.0001983480089 10.0 4.0 400.0 0.49957148902321286 0.0 0.0 0.0 
608.0009270308328 10.0 4.0 400.0 0.49957148902321286 0.0 0.0 0.0 
610.0009270308328 10.0 4.0 400.0 0.49957148902321286 0.0 0.0 0.0 
612.0009270308328 10.0 4.0 400.0 0.49957148902321286 0.0 0.0 0.0 
614.0009270308328 10.0 4.0 400.0 0.49957148902321286 0.0 0.0 0.0 
616.0001983480089 10.0 4.0 400.0 0.49957148902321286 0.0 0.0 0.0 
618.0009270308328 10.0 4.0 400.0 0.49957148902321286 0.0 0.0 0.0 
620.0009270308328 10.0 4.0 400.0 0.49957148902321286 0.0 0.0 0.0 
622.0009270308328 10.0 4.0 400.0 0.49957148902321286 0.0 0.0 0.0 
624.0009270308328 10.0 4.0 400.0 0.49957148902321286 0.0 0.0 0.0 
626.0001983480089 12.0 5.0 400.0 0.48729004775506723 0.0 0.0 0.0 
628.0009270308328 12.0 5.0 400.0 0.48729004775506723 0.0 0.0 0.0 
630.0009270308328 12.0 5.0 400.0 0.48729004775506723 0.0 0.0 0.0 
632.0009270308328 12.0 5.0 400.0 0.48729004775506723 0.0 0.0 0.0 
634.0009270308328 12.0 5.0 400.0 0.48729004775506723 0.0 0.0 0.0 
636.0001983480089 12.0 5.0 400.0 0.48729004775506723 0.0 0.0 0.0 
638.0009270308328 12.0 5.0 400.0 0.7998462898207706 0.0 0.0 0.0 
640.0009270308328 10.0 4.0 400.0 0.49957148902321286 0.0 0.0 0.0 
642.0009270308328 10.0 4.0 400.0 0.49957148902321286 0.0 0.0 0.0 
644.0009270308328 10.0 4.0 400.0 0.49957148902321286 0.0 0.0 0.0 
646.0001983480089 10.0 4.0 400.0 1.0710000604517842 0.0 0.0 0.0 
648.0009270308328 8.0 3.0 400.0 0.4995200677059984 0.0 0.0 0.0 
650.0009270308328 8.0 3.0 400.0 0.4995200677059984 0.0 0.0 0.0 
652.0009270308328 8.0 3.0 400.0 0.4995200677059984 0.0 0.0 0.0 
654.0009270308328 8.0 3.0 400.0 0.4995200677059984 0.0 0.0 0.0 
656.0001983480089 8.0 3.0 400.0 0.4995200677059984 0.0 0.0 0.0 
658.0009270308328 8.0 3.0 400.0 0.4995200677059984 0.0 0.0 0.0 
660.0009270308328 8.0 3.0 400.0 0.4995200677059984 0.0 0.0 0.0 
662.0009270308328 8.0 3.0 400.0 0.4995200677059984 0.0 0.0 0.0 
664.0009270308328 8.0 3.0 400.0 0.4995200677059984 0.0 0.0 0.0 
#####################################################################
# End of data export. Simulation finished at: 2019-03-05T21:38+0000 #
#####################################################################
