#####################################################################
# Alchemist log file - simulation started at: 2019-03-04T04:04+0000 #
#####################################################################
# seed = 0.0, bandwidth = 5623413.251903491, accessPointCount = 274.2481756762073, baserange = 17.78279410038923
#
# The columns have the following meaning: 
# time neighbor_count[Sum] <value>@neighbor_count[Sum] packet_size[Mean] mean_delay[Mean] crowd[Sum] overcrowded[Sum] risk[Sum] 
0.0 NaN NaN NaN NaN NaN NaN NaN 
10.000199674752503 92.0 20.0 4984.652738565782 0.49144490576932714 1497.0 0.0 1497.0 
20.000199674752505 92.0 20.0 4984.569169960474 0.491454261777156 1497.0 0.0 1497.0 
30.000199674752505 92.0 20.0 4984.564652738566 0.49145434385159026 1497.0 0.0 1497.0 
40.0001996747525 92.0 20.0 4984.544325239977 0.4914547268656194 1497.0 0.0 1497.0 
50.0001996747525 92.0 20.0 4984.533032185206 0.49145459007489545 1497.0 0.0 1497.0 
60.0001996747525 92.0 20.0 4984.56691134952 0.4914543164934478 1497.0 0.0 1497.0 
70.00040553626063 92.0 20.0 423.38114059853194 0.4925668298051811 12.0 0.0 9.0 
80.00040553626063 92.0 20.0 423.38114059853194 0.4925668298051811 10.0 0.0 9.0 
90.00040553626063 92.0 20.0 423.38114059853194 0.4925668298051811 10.0 0.0 9.0 
100.00040553626063 92.0 20.0 423.38114059853194 0.4925668298051811 10.0 0.0 9.0 
110.00040553626063 92.0 20.0 423.38114059853194 0.4925668298051811 10.0 0.0 9.0 
120.00040553626063 92.0 20.0 423.38114059853194 0.4925668298051811 10.0 0.0 9.0 
130.00040553626064 92.0 20.0 423.38114059853194 0.4925668298051731 10.0 0.0 9.0 
140.00040553626064 92.0 20.0 423.38114059853194 0.4925668298051731 10.0 0.0 9.0 
150.00040553626064 92.0 20.0 423.38114059853194 0.4925668298051731 10.0 0.0 9.0 
160.00040553626064 92.0 20.0 423.38114059853194 0.4925668298051731 10.0 0.0 9.0 
170.00040553626064 94.0 21.0 423.38114059853194 0.4930926897350598 10.0 0.0 9.0 
180.00040553626064 94.0 21.0 423.38114059853194 0.4930926897350598 10.0 0.0 9.0 
190.00040553626064 94.0 21.0 423.38114059853194 0.4930926897350598 10.0 0.0 9.0 
200.00040553626064 94.0 21.0 423.38114059853194 0.4930926897350598 10.0 0.0 9.0 
210.00040553626064 94.0 21.0 423.38114059853194 0.4930926897350598 10.0 0.0 9.0 
220.00040553626064 92.0 20.0 423.38114059853194 0.4925668298051731 10.0 0.0 9.0 
230.00040553626064 92.0 20.0 423.38114059853194 0.4925668298051731 10.0 0.0 9.0 
240.00040553626064 88.0 20.0 423.38114059853194 0.4938920504996911 10.0 0.0 9.0 
250.00040553626064 88.0 20.0 423.38114059853194 0.4938928000260058 10.0 0.0 9.0 
260.00040553626064 88.0 20.0 423.38114059853194 0.49389280002600106 10.0 0.0 9.0 
270.00040553626064 88.0 20.0 423.38114059853194 0.49389280002600106 10.0 0.0 9.0 
280.00040553626064 88.0 20.0 423.38114059853194 0.49389280002600106 10.0 0.0 9.0 
290.00040553626064 88.0 20.0 423.38114059853194 0.49389280002600106 10.0 0.0 9.0 
300.00040553626064 88.0 20.0 423.38114059853194 0.49389280002600106 10.0 0.0 9.0 
310.00040553626064 88.0 20.0 423.38114059853194 0.49389280002600106 10.0 0.0 9.0 
320.00040553626064 90.0 21.0 423.38114059853194 0.49538047641469024 10.0 0.0 9.0 
330.00040553626064 92.0 21.0 423.38114059853194 0.4941084546655696 10.0 0.0 9.0 
340.00040553626064 92.0 21.0 423.38114059853194 0.4941084546655696 10.0 0.0 9.0 
350.00040553626064 93.0 22.0 423.38114059853194 0.4958146362243097 10.0 0.0 9.0 
360.00040553626064 94.0 22.0 423.38114059853194 0.5289926211592261 10.0 0.0 9.0 
370.00040553626064 92.0 21.0 423.38114059853194 0.4941084546655696 10.0 0.0 9.0 
380.00040553626064 92.0 21.0 423.38114059853194 0.4941084546655696 10.0 0.0 9.0 
390.00040553626064 92.0 21.0 423.38114059853194 0.4941084546655696 10.0 0.0 9.0 
400.00040553626064 92.0 21.0 423.38114059853194 0.4941084546655696 10.0 0.0 9.0 
410.00040553626064 92.0 21.0 423.38114059853194 0.4941084546655696 10.0 0.0 9.0 
420.00040553626064 94.0 22.0 423.38114059853194 0.49450986253853635 10.0 0.0 9.0 
430.00040553626064 90.0 21.0 423.38114059853194 0.49432394779725725 10.0 0.0 9.0 
440.00040553626064 90.0 21.0 423.38114059853194 0.49432394779725725 10.0 0.0 9.0 
450.00040553626064 88.0 20.0 423.38114059853194 0.49389280002600106 10.0 0.0 9.0 
460.00040553626064 88.0 20.0 423.38114059853194 0.49389280002600106 10.0 0.0 9.0 
470.00040553626064 88.0 20.0 423.38114059853194 0.49389280002600106 10.0 0.0 9.0 
480.00040553626064 90.0 21.0 423.38114059853194 0.49432394779725725 10.0 0.0 9.0 
490.00040553626064 89.0 20.0 423.38114059853194 0.5786399934330784 10.0 0.0 9.0 
500.00040553626064 88.0 20.0 423.38114059853194 0.49389280002600106 10.0 0.0 9.0 
510.00040553626064 88.0 20.0 423.38114059853194 0.49389280002600106 10.0 0.0 9.0 
520.0004055362606 88.0 20.0 423.38114059853194 0.49389280002602914 10.0 0.0 9.0 
530.0004055362606 88.0 20.0 423.38114059853194 0.49389280002602914 10.0 0.0 9.0 
540.0004055362606 92.0 20.0 423.38114059853194 0.4925668298051967 10.0 0.0 9.0 
550.0004055362606 92.0 20.0 423.38114059853194 0.4925668298051967 10.0 0.0 9.0 
560.0004055362606 92.0 20.0 423.38114059853194 0.4925668298051967 10.0 0.0 9.0 
570.0004055362606 92.0 20.0 423.38114059853194 0.4925668298051967 10.0 0.0 9.0 
580.0004055362606 92.0 20.0 423.38114059853194 0.4925668298051967 10.0 0.0 9.0 
590.0004055362606 92.0 20.0 423.38114059853194 0.4925668298051967 10.0 0.0 9.0 
600.0004055362606 94.0 21.0 423.38114059853194 0.4930926897350859 10.0 0.0 9.0 
610.0004055362606 94.0 21.0 423.38114059853194 0.4930926897350859 10.0 0.0 9.0 
620.0004055362606 94.0 21.0 423.38114059853194 0.4930926897350859 10.0 0.0 9.0 
630.0004055362606 96.0 22.0 423.38114059853194 0.4935484350076565 10.0 0.0 9.0 
640.0004055362606 94.0 21.0 423.38114059853194 0.4930926897350859 10.0 0.0 9.0 
650.0004055362606 92.0 20.0 423.38114059853194 0.4925668298051967 10.0 0.0 9.0 
660.0004055362606 92.0 20.0 423.38114059853194 0.4925668298051967 10.0 0.0 9.0 
#####################################################################
# End of data export. Simulation finished at: 2019-03-04T04:10+0000 #
#####################################################################
