#####################################################################
# Alchemist log file - simulation started at: 2019-03-10T23:27+0000 #
#####################################################################
# seed = 4.0, bandwidth = 74989.42093324558, accessPointCount = 141.4213562373095, baserange = 562.341325190349
#
# The columns have the following meaning: 
# time neighbor_count[Sum] <value>@neighbor_count[Sum] packet_size[Mean] mean_delay[Mean] crowd[Sum] overcrowded[Sum] risk[Sum] 
0.0 NaN NaN NaN NaN NaN NaN NaN 
2.0000042429967895 1167.0 483.0 4986.046398046398 0.4160948920915992 1497.0 0.0 1497.0 
4.0000042429967895 4289.0 762.0 4987.106227106227 0.5874707988892179 1497.0 0.0 1497.0 
6.0000042429967895 13878.0 1147.0 4989.462759462759 0.842505168580627 1497.0 0.0 1497.0 
8.00000424299679 21688.0 1251.0 4990.822954822955 1.2590149341812193 1497.0 0.0 1497.0 
10.00000424299679 25098.0 1286.0 4991.645909645909 1.1914704000552796 1497.0 0.0 1497.0 
12.00000424299679 24840.0 1255.0 4991.523809523809 1.505726965157001 1497.0 0.0 1497.0 
14.00000424299679 21385.0 1133.0 4991.042735042735 0.9716121525098054 1497.0 0.0 1497.0 
16.000004242996788 25767.0 1197.0 4991.663003663004 1.1854019258636537 1497.0 0.0 1497.0 
18.000004242996788 25765.0 1197.0 4991.660561660562 1.1688418097739008 1497.0 0.0 1497.0 
20.000004242996788 19648.0 1160.0 4991.257631257631 1.3218758390732916 1497.0 0.0 1497.0 
22.000004242996788 25674.0 1184.0 4991.514041514041 0.9366991462463584 1497.0 0.0 1497.0 
24.000004242996788 25772.0 1197.0 4991.7680097680095 1.2598575915600008 1497.0 0.0 1497.0 
26.000004242996788 25166.0 1197.0 4991.492063492064 1.2720572194925472 1497.0 0.0 1497.0 
28.000004242996788 20956.0 1105.0 4991.025641025641 1.073656137746816 1497.0 0.0 1497.0 
30.000004242996788 25809.0 1198.0 4991.584859584859 1.007160482242771 1497.0 0.0 1497.0 
32.00000424299679 25808.0 1198.0 4991.48717948718 1.3699961518827082 1497.0 0.0 1497.0 
34.00000424299679 19695.0 1161.0 4991.557997557998 1.1395908504287569 1497.0 0.0 1497.0 
36.00000424299679 25711.0 1185.0 4991.506715506715 1.092788029739563 1497.0 0.0 1497.0 
38.00000424299679 25815.0 1198.0 4991.557997557998 1.1134382030372008 1497.0 0.0 1497.0 
40.00000424299679 25173.0 1197.0 4991.748473748474 1.443290536566455 1497.0 0.0 1497.0 
42.00000424299679 20917.0 1104.0 4991.120879120879 0.8738617239118294 1497.0 0.0 1497.0 
44.00000424299679 25778.0 1197.0 4991.416361416362 1.1994203819958529 1497.0 0.0 1497.0 
46.00000424299679 25778.0 1197.0 4991.611721611722 1.1876136153254575 1497.0 0.0 1497.0 
48.00000424299679 19670.0 1160.0 4991.521367521367 1.2975151734869184 1497.0 0.0 1497.0 
50.00000424299679 25744.0 1186.0 4991.347985347986 0.9463846656365792 1497.0 0.0 1497.0 
52.00000424299679 25897.0 1199.0 4991.626373626374 1.284966334844271 1497.0 0.0 1497.0 
54.00000424299679 25294.0 1199.0 4991.6996336996335 1.2506142682803338 1497.0 0.0 1497.0 
56.00000424299679 20615.0 1106.0 4990.923076923077 1.1221235130779097 1497.0 0.0 1497.0 
58.00000424299679 25820.0 1199.0 4991.628815628816 1.0170783830992225 1497.0 0.0 1497.0 
60.00000424299679 25907.0 1200.0 4988.793650793651 1.343105994728766 1497.0 0.0 1497.0 
62.00000424299679 20065.0 1172.0 1372.6300366300359 1.0855420697512201 679.0 0.0 346.0 
64.0000042429968 25654.0 1178.0 1372.5616605616592 0.8492707318020711 574.0 1.0 345.0 
66.0000042429968 25867.0 1197.0 1372.6080586080577 0.853081017502966 539.0 3.0 343.0 
68.0000042429968 25621.0 1199.0 1372.520146520145 1.1039119342622916 508.0 3.0 343.0 
70.0000042429968 21477.0 1122.0 1366.4737484737504 0.707247490058161 482.0 9.0 335.0 
72.0000042429968 25786.0 1197.0 1366.9230769230762 0.8914668616315501 481.0 10.0 334.0 
74.0000042429968 25830.0 1198.0 1366.8717948717936 0.9472253889899943 478.0 10.0 334.0 
76.0000042429968 21082.0 1174.0 1366.7765567765553 0.9269712333040032 473.0 12.0 332.0 
78.0000042429968 25697.0 1186.0 1369.55067155067 0.7246222154747328 474.0 14.0 331.0 
80.0000042429968 25799.0 1197.0 1372.454212454214 0.9771434346518978 474.0 14.0 332.0 
82.0000042429968 25370.0 1199.0 1372.4566544566562 1.001909609843977 473.0 15.0 331.0 
84.0000042429968 21557.0 1119.0 1371.8998778998769 0.8163112580258889 466.0 15.0 331.0 
86.0000042429968 25615.0 1194.0 1372.3467643467654 0.8018430233663119 468.0 15.0 331.0 
88.0000042429968 25736.0 1197.0 1372.371184371185 1.0344261119322573 468.0 15.0 331.0 
90.0000042429968 20851.0 1168.0 1372.1831501831516 0.8351499744836091 463.0 15.0 331.0 
92.0000042429968 25453.0 1190.0 1372.3638583638597 0.8464098968414696 466.0 15.0 331.0 
94.0000042429968 25561.0 1196.0 1372.4737484737502 0.8690694853556129 466.0 15.0 331.0 
96.0000042429968 24947.0 1197.0 1372.4273504273517 1.0904255957058717 466.0 15.0 331.0 
98.0000042429968 22140.0 1119.0 1371.8754578754563 0.7126113256391728 463.0 15.0 331.0 
100.0000042429968 25434.0 1195.0 1375.0451770451775 0.9075472043017946 466.0 15.0 332.0 
102.0000042429968 25518.0 1195.0 1375.091575091576 0.9419209449019931 466.0 15.0 332.0 
104.0000042429968 20420.0 1154.0 1374.9450549450544 0.907795599134058 464.0 15.0 332.0 
106.0000042429968 25404.0 1188.0 1375.1868131868146 0.7337281037208876 467.0 15.0 332.0 
108.0000042429968 25564.0 1194.0 1375.2576312576334 0.9738709451969593 466.0 15.0 332.0 
110.0000042429968 24847.0 1194.0 1375.2429792429814 1.0098514423991154 467.0 15.0 332.0 
112.0000042429968 22173.0 1116.0 1374.7155067155068 0.8023031783117196 464.0 15.0 332.0 
114.0000042429968 25441.0 1192.0 1377.8290598290585 0.8014085114823623 467.0 15.0 333.0 
116.0000042429968 25522.0 1193.0 1377.7753357753338 1.0517000137496064 465.0 15.0 333.0 
118.0000042429968 20442.0 1153.0 1380.5738705738695 0.8155652022386012 463.0 15.0 334.0 
120.0000042429968 25298.0 1190.0 1380.6544566544558 0.8380872842144211 467.0 15.0 334.0 
122.0000042429968 25373.0 1191.0 1386.3589743589755 0.8878699966242637 467.0 15.0 336.0 
124.0000042429968 24453.0 1192.0 1386.3614163614175 1.0999024480613366 467.0 15.0 336.0 
126.0000042429968 22872.0 1136.0 1386.2759462759466 0.7227696039834788 467.0 15.0 336.0 
128.0000042429968 25333.0 1191.0 1386.3296703296712 0.9372788385504232 467.0 15.0 336.0 
130.0000042429968 24868.0 1192.0 1386.307692307693 0.9545643660457636 467.0 15.0 336.0 
132.0000042429968 22097.0 1162.0 1383.5091575091556 0.8688088969355896 467.0 15.0 335.0 
134.0000042429968 25102.0 1189.0 1386.4322344322359 0.8053130904831466 468.0 15.0 336.0 
136.0000042429968 24784.0 1192.0 1386.429792429794 1.022412824764094 465.0 15.0 336.0 
138.0000042429968 24015.0 1168.0 1386.3101343101353 0.899854165721695 465.0 15.0 336.0 
140.0000042429968 23853.0 1158.0 1380.593406593406 0.8771738363163724 461.0 15.0 334.0 
142.0000042429968 25049.0 1190.0 1383.6336996336984 0.8684722884925619 463.0 15.0 335.0 
144.0000042429968 24671.0 1180.0 1383.6117216117207 0.9953800962558393 463.0 15.0 335.0 
146.0000042429968 23987.0 1166.0 1386.3687423687434 0.7843044386895234 463.0 15.0 336.0 
148.0000042429968 25061.0 1190.0 1386.429792429794 0.9821416270422348 462.0 15.0 336.0 
150.0000042429968 24590.0 1181.0 1389.2600732600729 0.8934145184267654 463.0 15.0 337.0 
152.0000042429968 24021.0 1165.0 1389.2625152625146 0.8953389932200864 463.0 15.0 337.0 
154.0000042429968 25030.0 1189.0 1386.388278388279 0.872611874190923 460.0 15.0 336.0 
156.0000042429968 24565.0 1180.0 1380.7570207570193 1.0016867670387921 457.0 15.0 334.0 
158.0000042429968 23925.0 1164.0 1377.997557997558 0.7775348636392589 459.0 15.0 333.0 
160.0000042429968 24956.0 1188.0 1378.0122100122103 0.9755267200358694 459.0 15.0 333.0 
162.0000042429968 24515.0 1180.0 1377.997557997558 0.8906437195682367 460.0 15.0 333.0 
164.0000042429968 23856.0 1166.0 1377.9658119658116 0.8899228389478934 459.0 15.0 333.0 
166.0000042429968 24886.0 1189.0 1377.992673992674 0.8640873831593768 458.0 15.0 333.0 
168.0000042429968 24448.0 1183.0 1375.2307692307702 1.0041429098269725 457.0 15.0 332.0 
170.0000042429968 23727.0 1163.0 1372.3736263736273 0.7941690167852904 455.0 15.0 331.0 
172.0000042429968 24451.0 1184.0 1369.5360195360176 0.9726572745372151 455.0 15.0 330.0 
174.0000042429968 24070.0 1183.0 1366.7472527472512 0.8796284164933416 455.0 15.0 329.0 
176.0000042429968 24136.0 1166.0 1363.8510378510366 0.8870337556453569 452.0 15.0 328.0 
178.0000042429968 24355.0 1185.0 1361.0573870573871 0.8745128012335383 451.0 15.0 327.0 
180.0000042429968 23862.0 1183.0 1361.0158730158728 0.9903969335054594 451.0 15.0 327.0 
182.0000042429968 24035.0 1162.0 1361.0769230769233 0.778213281341425 452.0 15.0 327.0 
184.0000042429968 24213.0 1184.0 1361.0842490842494 0.9812924090157972 452.0 15.0 327.0 
186.0000042429968 23747.0 1182.0 1366.620268620268 0.8729800260168193 452.0 15.0 329.0 
188.0000042429968 24126.0 1166.0 1363.8485958485946 0.8938922658402768 455.0 15.0 328.0 
190.0000042429968 24229.0 1186.0 1361.0378510378512 0.8794336785653146 455.0 15.0 327.0 
192.0000042429968 23767.0 1182.0 1358.285714285715 0.9792020084037809 453.0 15.0 326.0 
194.0000042429968 24093.0 1163.0 1355.433455433457 0.7868965798513089 453.0 15.0 325.0 
196.0000042429968 24207.0 1184.0 1355.438339438341 0.9776013343620227 453.0 15.0 325.0 
198.0000042429968 23744.0 1182.0 1355.4676434676455 0.8672089993256822 453.0 15.0 325.0 
200.0000042429968 24105.0 1165.0 1355.4676434676455 0.8919747752929562 452.0 16.0 324.0 
202.0000042429968 24240.0 1186.0 1361.089133089134 0.8782270814663607 453.0 16.0 326.0 
204.0000042429968 23773.0 1182.0 1361.103785103786 0.975452297327888 453.0 16.0 326.0 
206.0000042429968 24074.0 1164.0 1361.098901098902 0.7815326798871507 452.0 16.0 326.0 
208.0000042429968 24213.0 1185.0 1352.6837606837596 0.9809367527216224 451.0 16.0 323.0 
210.0000042429968 23674.0 1182.0 1349.8339438339424 0.8730618567114408 449.0 16.0 322.0 
212.0000042429968 24061.0 1166.0 1344.2197802197823 0.892854899785538 447.0 16.0 320.0 
214.0000042429968 24103.0 1183.0 1347.0451770451775 0.8728366274470681 447.0 16.0 321.0 
216.0000042429968 23659.0 1181.0 1341.4041514041535 0.9712428344587805 447.0 16.0 319.0 
218.0000042429968 24055.0 1165.0 1341.4041514041535 0.77560254223945 443.0 16.0 319.0 
220.0000042429968 24061.0 1184.0 1341.3748473748492 0.9780839636243976 443.0 16.0 319.0 
222.0000042429968 23631.0 1180.0 1338.6275946275928 0.8664093218237656 443.0 16.0 318.0 
224.0000042429968 24048.0 1165.0 1338.6202686202666 0.8754901119524294 443.0 16.0 318.0 
226.0000042429968 24057.0 1183.0 1341.3870573870593 0.8654666538625813 444.0 16.0 319.0 
228.0000042429968 23641.0 1180.0 1347.0183150183152 0.9697422234617815 443.0 16.0 321.0 
230.0000042429968 24070.0 1167.0 1333.0231990231991 0.7873076984305475 443.0 16.0 316.0 
232.0000042429968 24041.0 1184.0 1333.0573870573878 0.9813386709822883 444.0 16.0 316.0 
234.0000042429968 23616.0 1180.0 1333.0183150183152 0.8682656966368612 443.0 16.0 316.0 
236.0000042429968 23994.0 1164.0 1333.0158730158732 0.8773549363982089 443.0 16.0 316.0 
238.0000042429968 23996.0 1182.0 1330.2515262515285 0.8678345563804152 442.0 16.0 315.0 
240.0000042429968 23531.0 1179.0 1330.202686202688 0.9716989340572398 441.0 16.0 315.0 
242.0000042429968 23894.0 1167.0 1330.202686202688 0.7803593651555701 442.0 16.0 315.0 
244.0000042429968 23840.0 1179.0 1330.202686202688 0.9684447678993644 442.0 16.0 315.0 
246.0000042429968 23452.0 1178.0 1330.1978021978039 0.8591405329608812 442.0 16.0 315.0 
248.0000042429968 23864.0 1168.0 1332.998778998779 0.8862390760869051 442.0 16.0 316.0 
250.0000042429968 23680.0 1178.0 1332.991452991453 0.8690674935717716 442.0 16.0 316.0 
252.0000042429968 23325.0 1177.0 1332.9670329670325 0.9646454546878588 446.0 16.0 316.0 
254.0000042429968 23855.0 1172.0 1332.9645909645906 0.7770281786832537 449.0 16.0 316.0 
256.0000042429968 23484.0 1177.0 1335.8070818070803 0.9765306225601259 448.0 16.0 317.0 
258.0000042429968 23256.0 1172.0 1332.9474969474963 0.8440048421118637 446.0 16.0 316.0 
260.0000042429968 23766.0 1174.0 1332.913308913308 0.8945149725535732 448.0 16.0 316.0 
262.0000042429968 23397.0 1177.0 1333.0158730158732 0.8696652323896259 448.0 16.0 316.0 
264.0000042429968 23147.0 1169.0 1332.9548229548225 0.9605609721849185 448.0 16.0 316.0 
266.0000042429968 23691.0 1172.0 1330.1367521367533 0.7708026958918547 446.0 16.0 315.0 
268.0000042429968 23334.0 1176.0 1330.1416361416373 0.9769338399207006 446.0 16.0 315.0 
270.0000042429968 23130.0 1170.0 1330.0952380952392 0.8378994443391375 445.0 16.0 315.0 
272.0000042429968 23623.0 1172.0 1324.51526251526 0.8862228011330314 444.0 16.0 313.0 
274.0000042429968 23270.0 1177.0 1327.306471306473 0.8672943977853238 444.0 16.0 314.0 
276.0000042429968 23096.0 1171.0 1324.420024420027 0.9557963661564401 443.0 16.0 313.0 
278.0000042429968 23553.0 1176.0 1327.306471306473 0.779956366075288 444.0 16.0 314.0 
280.0000042429968 23200.0 1178.0 1330.083028083029 0.9733955630242307 444.0 16.0 315.0 
282.0000042429968 23031.0 1172.0 1330.0586080586088 0.8324458049726766 445.0 16.0 315.0 
284.0000042429968 23526.0 1181.0 1330.1098901098912 0.8946132581117903 447.0 16.0 315.0 
286.0000042429968 23249.0 1181.0 1327.2698412698423 0.842653491165519 447.0 16.0 314.0 
288.0000042429968 22976.0 1173.0 1327.2625152625164 0.9460187262786657 446.0 16.0 314.0 
290.0000042429968 23516.0 1182.0 1327.1794871794887 0.7850052597142673 447.0 16.0 314.0 
292.0000042429968 23277.0 1182.0 1327.2649572649584 0.9598483064143433 447.0 16.0 314.0 
294.0000042429968 22896.0 1173.0 1327.2771672771685 0.8264233670821308 447.0 16.0 314.0 
296.0000042429968 23496.0 1182.0 1324.4297924297948 0.8923071374163656 445.0 16.0 313.0 
298.0000042429968 23290.0 1182.0 1324.4664224664252 0.8594970568308326 444.0 16.0 313.0 
300.0000042429968 22844.0 1172.0 1327.2161172161188 0.9603554393990656 444.0 16.0 314.0 
302.0000042429968 23366.0 1180.0 1327.2722832722848 0.7795774848883062 444.0 16.0 314.0 
304.0000042429968 23148.0 1182.0 1324.505494505498 0.9698560988668625 443.0 16.0 313.0 
306.0000042429968 22862.0 1175.0 1318.8571428571418 0.8017240721632609 443.0 16.0 311.0 
308.0000042429968 23415.0 1185.0 1318.8498168498156 0.9111873242981716 442.0 16.0 311.0 
310.0000042429968 23429.0 1185.0 1316.0610500610508 0.8503519229400834 442.0 16.0 310.0 
312.0000042429968 23392.0 1184.0 1316.0415140415146 0.8610609093497984 441.0 16.0 310.0 
314.0000042429968 23399.0 1185.0 1321.6385836385812 0.8285530588813962 442.0 16.0 312.0 
316.0000042429968 23423.0 1186.0 1321.6312576312553 0.9191223788471949 445.0 16.0 312.0 
318.0000042429968 23427.0 1186.0 1318.8229548229533 0.7929467250926966 444.0 16.0 311.0 
320.0000042429968 23433.0 1186.0 1324.3907203907231 0.9641162611792878 443.0 16.0 313.0 
322.0000042429968 23457.0 1188.0 1324.4590964590998 0.7596965226461109 442.0 16.0 313.0 
324.0000042429968 23468.0 1189.0 1324.4200244200276 0.9453250853996522 441.0 16.0 313.0 
326.0000042429968 23404.0 1189.0 1324.4517704517739 0.8038802948143405 441.0 16.0 313.0 
328.0000042429968 23377.0 1188.0 1327.3113553113576 0.9267582308936547 439.0 16.0 314.0 
330.0000042429968 23425.0 1186.0 1321.623931623929 0.8433203499707648 437.0 16.0 312.0 
332.0000042429968 23428.0 1188.0 1324.468864468868 0.8781171527102987 436.0 16.0 313.0 
334.0000042429968 23427.0 1189.0 1327.3357753357773 0.8390361243218277 436.0 16.0 314.0 
336.0000042429968 23384.0 1190.0 1327.3333333333353 0.8954810051586347 435.0 16.0 314.0 
338.0000042429968 23381.0 1189.0 1327.3113553113574 0.8043490007915611 435.0 16.0 314.0 
340.0000042429968 23345.0 1187.0 1324.5299145299114 0.9607830272505987 436.0 15.0 314.0 
342.0000042429968 23319.0 1186.0 1327.352869352872 0.7481339693637579 436.0 16.0 314.0 
344.0000042429968 23316.0 1186.0 1327.1746031746045 0.9457079973752797 438.0 16.0 314.0 
346.0000042429968 23347.0 1187.0 1335.7240537240518 0.784930358241987 443.0 15.0 318.0 
348.0000042429968 23349.0 1186.0 1332.9328449328443 0.9132759780049141 442.0 15.0 317.0 
350.0000042429968 23377.0 1187.0 1335.7191697191677 0.8601023168546641 443.0 15.0 318.0 
352.0000042429968 23320.0 1185.0 1335.7704517704499 0.88122069109517 444.0 16.0 317.0 
354.0000042429968 23298.0 1184.0 1335.7240537240518 0.8270305653722875 444.0 16.0 317.0 
356.0000042429968 23345.0 1186.0 1335.731379731378 0.8908565492911333 445.0 16.0 317.0 
358.0000042429968 23351.0 1186.0 1335.7997557997542 0.7979588027736019 443.0 16.0 317.0 
360.0000042429968 23350.0 1187.0 1335.78266178266 0.9572008646368604 442.0 17.0 316.0 
362.0000042429968 23342.0 1187.0 1335.6874236874214 0.7646144073729394 443.0 17.0 316.0 
364.0000042429968 23332.0 1188.0 1335.6996336996317 0.9568841685556769 443.0 16.0 317.0 
366.0000042429968 23330.0 1187.0 1335.7045177045156 0.7772907590513668 444.0 16.0 317.0 
368.0000042429968 23350.0 1188.0 1341.3040293040312 0.9186837960754392 445.0 16.0 319.0 
370.0000042429968 23349.0 1188.0 1338.4981684981722 0.851900915490337 446.0 17.0 317.0 
372.0000042429968 23288.0 1189.0 1335.6947496947473 0.8776425172425502 448.0 16.0 317.0 
374.0000042429968 23277.0 1189.0 1335.641025641023 0.8490111981719486 448.0 16.0 317.0 
376.0000042429968 23255.0 1188.0 1335.6898656898634 0.9050429327237486 446.0 16.0 317.0 
378.0000042429968 23271.0 1188.0 1335.6923076923053 0.8090011175092499 445.0 17.0 316.0 
380.0000042429968 23270.0 1189.0 1335.6971916971895 0.9674035894469998 446.0 18.0 315.0 
382.0000042429968 23271.0 1188.0 1335.7509157509135 0.7714171034032405 446.0 17.0 316.0 
384.0000042429968 23215.0 1187.0 1335.7045177045156 0.9488362479814527 446.0 17.0 316.0 
386.0000042429968 23206.0 1187.0 1338.478632478636 0.7792933905720093 449.0 17.0 317.0 
388.0000042429968 23212.0 1187.0 1338.5421245421214 0.9213559125368124 446.0 18.0 316.0 
390.0000042429968 23222.0 1189.0 1332.9645909645906 0.8478302649251621 447.0 16.0 316.0 
392.0000042429968 23320.0 1190.0 1335.736263736262 0.8853770917359335 451.0 16.0 317.0 
394.0000042429968 23319.0 1190.0 1332.9059829059822 0.8471499743620582 453.0 16.0 316.0 
396.0000042429968 23277.0 1191.0 1335.6971916971897 0.9079437837492658 451.0 18.0 315.0 
398.0000042429968 23222.0 1191.0 1332.9401709401702 0.8084012363734839 453.0 17.0 315.0 
400.0000042429968 23210.0 1190.0 1332.9572649572644 0.9622842879489513 454.0 16.0 316.0 
402.0000042429968 23203.0 1190.0 1335.7338217338204 0.7620499414637345 456.0 15.0 318.0 
404.0000042429968 23198.0 1190.0 1330.1465201465212 0.9549927373114961 455.0 15.0 316.0 
406.0000042429968 23186.0 1190.0 1330.1978021978039 0.7770138922637109 454.0 16.0 315.0 
408.0000042429968 23225.0 1191.0 1327.3699633699653 0.9162688948103715 455.0 15.0 315.0 
410.0000042429968 23172.0 1192.0 1332.9450549450548 0.8484292595947996 455.0 15.0 317.0 
412.0000042429968 23125.0 1190.0 1338.5592185592166 0.8820101079125292 455.0 15.0 319.0 
414.0000042429968 23119.0 1191.0 1338.644688644687 0.8419610752738422 454.0 16.0 318.0 
416.0000042429968 23098.0 1192.0 1338.637362637361 0.8947274625950814 455.0 16.0 318.0 
418.0000042429968 23083.0 1189.0 1341.4310134310156 0.8136593932224234 453.0 15.0 320.0 
420.0000042429968 23063.0 1188.0 1335.7411477411463 0.9691228948875202 452.0 15.0 318.0 
422.0000042429968 23075.0 1191.0 1344.2588522588537 0.770933873889066 452.0 16.0 320.0 
424.0000042429968 23102.0 1192.0 1341.435897435899 0.9611051210561831 455.0 15.0 320.0 
426.0000042429968 23108.0 1192.0 1341.3870573870586 0.773159584443907 456.0 15.0 320.0 
428.0000042429968 23124.0 1191.0 1338.5885225885213 0.9293580938010516 456.0 15.0 319.0 
430.0000042429968 23103.0 1190.0 1335.78266178266 0.8484458990003122 455.0 15.0 318.0 
432.0000042429968 23113.0 1191.0 1333.0158730158726 0.8783693368010779 453.0 15.0 317.0 
434.0000042429968 23090.0 1190.0 1335.780219780218 0.8295834893443315 453.0 15.0 318.0 
436.0000042429968 23104.0 1192.0 1335.7460317460295 0.8888439196958379 452.0 15.0 318.0 
438.0000042429968 23114.0 1193.0 1335.78266178266 0.7994121274472058 452.0 15.0 318.0 
440.0000042429968 23128.0 1191.0 1338.5347985347964 0.9543934615538964 453.0 15.0 319.0 
442.0000042429968 23196.0 1193.0 1347.0305250305244 0.7675919077631196 454.0 16.0 321.0 
444.0000042429968 23197.0 1193.0 1344.1391941391953 0.9485246174957839 455.0 15.0 321.0 
446.0000042429968 23141.0 1192.0 1344.2637362637374 0.7836535407423227 455.0 15.0 321.0 
448.0000042429968 23140.0 1193.0 1352.6910866910866 0.9257284078710233 456.0 16.0 323.0 
450.0000042429968 23184.0 1193.0 1366.6691086691085 0.8422435166243973 462.0 16.0 328.0 
452.0000042429968 23107.0 1194.0 1369.5409035409016 0.8982738827717516 461.0 16.0 329.0 
454.0000042429968 23084.0 1193.0 1369.5457875457855 0.8386084605427973 462.0 16.0 329.0 
456.0000042429968 23075.0 1193.0 1366.7130647130655 0.8936021496183799 460.0 16.0 328.0 
458.0000042429968 23044.0 1192.0 1366.6398046398044 0.8096121822289875 460.0 16.0 328.0 
460.0000042429968 23029.0 1193.0 1363.8290598290582 0.9686437931281283 460.0 16.0 327.0 
462.0000042429968 22893.0 1193.0 1363.8510378510364 0.781696143297879 461.0 16.0 327.0 
464.0000042429968 22852.0 1191.0 1361.069597069597 0.9462651275547362 460.0 16.0 326.0 
466.0000042429968 22759.0 1190.0 1361.030525030524 0.7738673180578575 461.0 16.0 326.0 
468.0000042429968 22738.0 1189.0 1363.6971916971904 0.9277493884368087 461.0 16.0 327.0 
470.0000042429968 22710.0 1188.0 1366.6080586080586 0.8370206387634819 462.0 16.0 328.0 
472.0000042429968 22669.0 1187.0 1366.617826617827 0.8897410872415026 462.0 16.0 328.0 
474.0000042429968 22664.0 1188.0 1366.5006105006137 0.8263420579347722 460.0 16.0 328.0 
476.0000042429968 22673.0 1189.0 1355.286935286935 0.8960235202094811 460.0 16.0 324.0 
478.0000042429968 22648.0 1189.0 1355.3211233211234 0.8159305644944895 460.0 16.0 324.0 
480.0000042429968 22634.0 1188.0 1355.296703296703 0.9486059725380426 458.0 16.0 324.0 
482.0000042429968 22644.0 1189.0 1355.3357753357755 0.7911070893527627 459.0 17.0 323.0 
484.0000042429968 22623.0 1190.0 1355.3186813186815 0.9372777671719664 460.0 16.0 324.0 
486.0000042429968 22625.0 1190.0 1349.714285714284 0.7682113521624898 458.0 16.0 322.0 
488.0000042429968 22675.0 1191.0 1346.9133089133095 0.9348101057493532 458.0 16.0 321.0 
490.0000042429968 22674.0 1190.0 1338.4810744810782 0.8270221859530493 458.0 16.0 318.0 
492.0000042429968 22696.0 1191.0 1335.719169719168 0.8967287933804349 456.0 17.0 316.0 
494.0000042429968 22731.0 1193.0 1338.5470085470063 0.8226593128372508 456.0 16.0 318.0 
496.0000042429968 22753.0 1194.0 1338.4932844932882 0.8828843291191442 453.0 17.0 317.0 
498.0000042429968 22810.0 1196.0 1338.4468864468895 0.8037234882785759 452.0 17.0 317.0 
500.0000042429968 22809.0 1195.0 1335.643467643465 0.9453282765846724 454.0 17.0 316.0 
502.0000042429968 22839.0 1195.0 1335.716727716726 0.7791368550129804 452.0 17.0 316.0 
504.0000042429968 22852.0 1196.0 1332.8962148962148 0.9343456212549569 453.0 16.0 316.0 
506.0000042429968 22897.0 1198.0 1332.9084249084249 0.7817007330227481 453.0 16.0 316.0 
508.0000042429968 22936.0 1199.0 1332.8522588522587 0.9350156528927315 452.0 16.0 316.0 
510.0000042429968 22940.0 1201.0 1330.1318681318696 0.839026408040605 449.0 17.0 314.0 
512.0000042429967 22861.0 1198.0 1330.1367521367533 0.9285086535459195 452.0 16.0 315.0 
514.0000042429967 22808.0 1195.0 1327.2820512820524 0.8201915303056917 450.0 16.0 314.0 
516.0000042429967 22817.0 1196.0 1330.083028083029 0.8772143092410744 448.0 17.0 314.0 
518.0000042429967 22853.0 1197.0 1321.7460317460293 0.8136854459717439 448.0 17.0 311.0 
520.0000042429967 22883.0 1197.0 1310.5103785103763 0.9325900480925399 450.0 16.0 308.0 
522.0000042429967 22924.0 1198.0 1302.0512820512827 0.7830630907315114 445.0 16.0 305.0 
524.0000042429967 22957.0 1199.0 1299.1477411477417 0.9473794409801537 442.0 16.0 304.0 
526.0000042429967 22955.0 1199.0 1299.277167277169 0.7792007360709294 440.0 16.0 304.0 
528.0000042429967 22870.0 1194.0 1299.2967032967051 0.9210760905981994 438.0 16.0 304.0 
530.0000042429967 22836.0 1194.0 1296.4542124542158 0.8147463575449462 438.0 16.0 303.0 
532.0000042429967 22752.0 1193.0 1302.007326007326 0.8966646703005854 439.0 16.0 305.0 
534.0000042429967 22702.0 1192.0 1301.9804639804638 0.8117883433979135 438.0 16.0 305.0 
536.0000042429967 22619.0 1190.0 1299.1965811965827 0.8764177083131688 438.0 16.0 304.0 
538.0000042429967 22572.0 1190.0 1301.9877899877897 0.7887888125890353 439.0 16.0 305.0 
540.0000042429967 22576.0 1190.0 1301.9902319902317 0.9066698997191578 439.0 16.0 305.0 
542.0000042429967 22564.0 1190.0 1307.6288156288128 0.7853502323091465 441.0 16.0 307.0 
544.0000042429967 22581.0 1192.0 1313.2112332112342 0.9296046519043589 444.0 16.0 309.0 
546.0000042429967 22623.0 1193.0 1310.334554334557 0.7537475997921367 445.0 16.0 308.0 
548.0000042429967 22647.0 1194.0 1307.5726495726462 0.9320261597971673 446.0 16.0 307.0 
550.0000042429967 22669.0 1193.0 1307.5873015872983 0.8030385416924883 445.0 16.0 307.0 
552.0000042429967 22656.0 1196.0 1304.739926739925 0.9013069280882917 445.0 16.0 306.0 
554.0000042429967 22636.0 1197.0 1304.715506715505 0.823736932483104 446.0 16.0 306.0 
556.0000042429967 22677.0 1196.0 1307.5384615384578 0.8680948437917813 447.0 16.0 307.0 
558.0000042429967 22706.0 1197.0 1310.3736263736291 0.8020033781346153 446.0 16.0 308.0 
560.0000042429967 22646.0 1195.0 1307.5164835164796 0.9297170468861681 445.0 16.0 307.0 
562.0000042429967 22547.0 1196.0 1304.6691086691083 0.7755504710601133 444.0 16.0 306.0 
564.0000042429967 22516.0 1195.0 1304.6617826617826 0.9234645659248671 445.0 16.0 306.0 
566.0000042429967 22431.0 1192.0 1307.5018315018274 0.7619222410535351 443.0 16.0 307.0 
568.0000042429967 22461.0 1194.0 1318.7203907203896 0.9104676851729364 448.0 16.0 311.0 
570.0000042429967 22377.0 1193.0 1321.5262515262477 0.7526876440291601 448.0 16.0 312.0 
572.0000042429967 22371.0 1192.0 1321.5726495726462 0.9145820250183735 447.0 16.0 312.0 
574.0000042429967 22336.0 1191.0 1318.8107448107437 0.7444133740650025 445.0 16.0 311.0 
576.0000042429967 22365.0 1192.0 1318.7741147741135 0.898915901332091 445.0 16.0 311.0 
578.0000042429967 22390.0 1192.0 1315.897435897435 0.7686801643206607 446.0 16.0 310.0 
580.0000042429967 22384.0 1192.0 1321.5360195360158 0.9027539161197151 445.0 16.0 312.0 
582.0000042429967 22403.0 1193.0 1329.9877899877897 0.7542588759996413 449.0 15.0 316.0 
584.0000042429967 22427.0 1195.0 1332.7887667887653 0.913620993718103 452.0 15.0 317.0 
586.0000042429967 22457.0 1194.0 1332.8131868131857 0.7566749819903792 456.0 12.0 320.0 
588.0000042429967 22446.0 1194.0 1327.1501831501841 0.9073117974043334 460.0 12.0 318.0 
590.0000042429967 22424.0 1192.0 1330.0268620268625 0.7675533862462414 460.0 11.0 320.0 
592.0000042429967 22410.0 1191.0 1327.1965811965827 0.9027478449039138 460.0 10.0 320.0 
594.0000042429967 22354.0 1191.0 1327.1721611721625 0.7508029481880493 461.0 9.0 321.0 
596.0000042429967 22351.0 1191.0 1321.5311355311321 0.9165315754010238 465.0 9.0 319.0 
598.0000042429967 22293.0 1188.0 1321.5531135531103 0.7525103481445449 464.0 9.0 319.0 
600.0000042429967 22295.0 1190.0 1327.162393162394 0.8993213335192375 463.0 9.0 321.0 
602.0000042429967 22305.0 1192.0 1329.9755799755796 0.7688961386912059 467.0 9.0 322.0 
604.0000042429967 22288.0 1192.0 1329.9829059829058 0.8981667568164979 467.0 9.0 322.0 
606.0000042429967 22312.0 1192.0 1332.8351648351636 0.7514157501928974 467.0 9.0 323.0 
608.0000042429967 22314.0 1193.0 1335.641025641023 0.9174401414199524 467.0 9.0 324.0 
610.0000042429967 22333.0 1193.0 1338.4004884004912 0.7523708780885375 469.0 9.0 325.0 
612.0000042429967 22408.0 1194.0 1338.395604395607 0.9108515626915357 464.0 9.0 325.0 
614.0000042429967 22452.0 1195.0 1335.6532356532332 0.7773188147554205 463.0 9.0 324.0 
616.0000042429967 22389.0 1193.0 1335.609279609277 0.901752301100685 464.0 9.0 324.0 
618.0000042429967 22324.0 1192.0 1335.6019536019512 0.7565741541296783 465.0 9.0 324.0 
620.0000042429967 22319.0 1192.0 1330.0 0.9083772563682582 463.0 9.0 322.0 
622.0000042429967 22405.0 1195.0 1338.4493284493317 0.7583075850565955 463.0 10.0 324.0 
624.0000042429967 22394.0 1194.0 1335.6263736263713 0.9126135346752992 462.0 10.0 323.0 
626.0000042429967 22335.0 1193.0 1332.8131868131861 0.7755262265230525 461.0 10.0 322.0 
628.0000042429967 22264.0 1191.0 1329.919413919413 0.918864139787486 460.0 10.0 321.0 
630.0000042429967 22300.0 1191.0 1321.592185592183 0.7741174189039199 456.0 10.0 318.0 
632.0000042429967 22319.0 1193.0 1321.5897435897407 0.9312077331478317 457.0 9.0 319.0 
634.0000042429967 22302.0 1190.0 1327.1892551892558 0.7820285090761192 456.0 9.0 321.0 
636.0000042429967 22348.0 1191.0 1324.346764346767 0.9114680167931607 457.0 10.0 319.0 
638.0000042429967 22332.0 1191.0 1327.1550671550672 0.7950015134778236 461.0 9.0 321.0 
640.0000042429967 22299.0 1190.0 1327.142857142857 0.9121181352229277 458.0 11.0 319.0 
642.0000042429967 22300.0 1189.0 1329.9560439560435 0.7564937839393263 456.0 13.0 318.0 
644.0000042429967 22294.0 1189.0 1332.7741147741142 0.9281387294714041 457.0 12.0 320.0 
646.0000042429967 22302.0 1189.0 1329.9877899877897 0.7709237229407531 455.0 12.0 319.0 
648.0000042429967 22266.0 1188.0 1330.0268620268625 0.898417444127886 452.0 11.0 320.0 
650.0000042429967 22239.0 1189.0 1327.1990231990233 0.7773067071552682 445.0 11.0 319.0 
652.0000042429967 22248.0 1189.0 1329.929181929181 0.9082635188479231 446.0 11.0 320.0 
654.0000042429967 22223.0 1191.0 1330.0366300366304 0.7593710830809391 445.0 10.0 321.0 
656.0000042429967 22209.0 1189.0 1335.653235653233 0.9242463472236552 444.0 10.0 323.0 
658.0000042429967 22274.0 1192.0 1338.3760683760706 0.7717260424721457 445.0 10.0 324.0 
660.0000042429967 22302.0 1194.0 1341.1404151404138 0.9059350406408455 445.0 9.0 326.0 
662.0000042429967 22228.0 1192.0 1341.2185592185585 0.7906106256407418 443.0 9.0 326.0 
664.0000042429967 22201.0 1190.0 1338.4078144078173 0.9069219866913933 442.0 9.0 325.0 
#####################################################################
# End of data export. Simulation finished at: 2019-03-10T23:48+0000 #
#####################################################################
