#####################################################################
# Alchemist log file - simulation started at: 2019-03-11T14:12+0000 #
#####################################################################
# seed = 4.0, bandwidth = 5623413.251903491, accessPointCount = 37.60603093086394, baserange = 562.341325190349
#
# The columns have the following meaning: 
# time neighbor_count[Sum] <value>@neighbor_count[Sum] packet_size[Mean] mean_delay[Mean] crowd[Sum] overcrowded[Sum] risk[Sum] 
0.0 NaN NaN NaN NaN NaN NaN NaN 
2.0004793365590676 5133.0 542.0 4988.485006518905 0.42966930189653463 1497.0 0.0 1497.0 
4.00042902272939 12169.0 551.0 4990.0469361147325 0.4774525734993652 1497.0 0.0 1497.0 
6.000479336559067 18060.0 550.0 4990.9178617992175 0.49623224592223736 1496.0 1.0 1496.0 
8.000479336559067 21222.0 552.0 4991.434159061278 0.5045746813242703 1496.0 1.0 1496.0 
10.000479336559067 22929.0 548.0 4991.679269882659 0.5012097780636907 1495.0 2.0 1495.0 
12.000479336559067 23188.0 548.0 4991.436766623207 0.5010555141492944 1495.0 2.0 1495.0 
14.00042902272939 23162.0 547.0 4991.3611473272495 0.49905057422081817 1496.0 1.0 1496.0 
16.000479336559067 23166.0 547.0 4991.395045632334 0.49907166448818746 1496.0 1.0 1496.0 
18.000479336559067 23166.0 547.0 4991.4185136897 0.4990697524578979 1496.0 1.0 1496.0 
20.000479336559067 23166.0 547.0 4991.48109517601 0.49911739267542693 1496.0 1.0 1496.0 
22.000479336559067 23166.0 547.0 4991.405475880052 0.4990661005325862 1496.0 1.0 1496.0 
24.000429022729392 23166.0 547.0 4991.366362451108 0.499065819900953 1496.0 1.0 1496.0 
26.000479336559067 23170.0 547.0 4991.413298565841 0.49913421533943836 1496.0 1.0 1496.0 
28.000479336559067 23171.0 547.0 4991.457627118644 0.499144868483448 1496.0 1.0 1496.0 
30.000479336559067 23171.0 547.0 4991.501955671447 0.49918413806121914 1496.0 1.0 1496.0 
32.00047933655907 23170.0 547.0 4991.428943937419 0.4991917102217814 1496.0 1.0 1496.0 
34.00042902272939 23168.0 547.0 4991.434159061278 0.49907750482033764 1496.0 1.0 1496.0 
36.00047933655907 23174.0 547.0 4991.439374185137 0.4991431644371282 1496.0 1.0 1496.0 
38.00047933655907 23171.0 547.0 4991.431551499348 0.4991255239845891 1496.0 1.0 1496.0 
40.00047933655907 23171.0 547.0 4991.470664928292 0.49913914664190173 1496.0 1.0 1496.0 
42.00047933655907 23173.0 547.0 4991.345501955671 0.4991302947798666 1496.0 1.0 1496.0 
44.00042902272939 23174.0 547.0 4991.368970013038 0.49908965907522945 1496.0 1.0 1496.0 
46.00047933655907 23278.0 548.0 4991.507170795307 0.4983727548122961 1496.0 1.0 1496.0 
48.00047933655907 23334.0 549.0 4991.541069100391 0.49939224965993717 1496.0 1.0 1496.0 
50.00047933655907 23336.0 549.0 4991.569752281616 0.4999510051044721 1496.0 1.0 1496.0 
52.00047933655907 23325.0 549.0 4991.431551499348 0.49948130007990993 1496.0 1.0 1496.0 
54.00042902272939 23322.0 549.0 4991.308996088657 0.49978501501982936 1496.0 1.0 1496.0 
56.00047933655907 23333.0 549.0 4991.329856584094 0.5013007786325248 1496.0 1.0 1496.0 
58.00047933655907 23322.0 549.0 4991.426336375489 0.5006517720280399 1496.0 1.0 1496.0 
60.00047933655907 23318.0 549.0 4988.524119947849 0.49958236673199513 1496.0 1.0 1495.0 
62.0002253135668 23312.0 549.0 1138.427640156452 0.49884316691995706 412.0 0.0 246.0 
64.0002253135668 23310.0 549.0 1138.4354628422411 0.5001296149393517 372.0 5.0 241.0 
66.0002253135668 23365.0 549.0 1141.4054758800542 0.49939051019641767 348.0 11.0 236.0 
68.0002253135668 23395.0 549.0 1141.4289439374197 0.5053099785059527 333.0 10.0 237.0 
70.0002253135668 23366.0 548.0 1141.3741851368964 0.5019242839191165 332.0 9.0 238.0 
72.0002253135668 23286.0 548.0 1144.4302477183844 0.5057178465097457 333.0 7.0 241.0 
74.0002253135668 23242.0 547.0 1144.344198174707 0.5000170016763622 333.0 6.0 242.0 
76.0002253135668 23238.0 547.0 1144.357235984356 0.5003376148427018 329.0 11.0 237.0 
78.0002253135668 23231.0 547.0 1147.4159061277708 0.5016787305255187 326.0 12.0 237.0 
80.0002253135668 23236.0 546.0 1150.466753585399 0.5064654750218134 327.0 12.0 238.0 
82.0002253135668 23142.0 546.0 1150.5162972620597 0.5058163258087663 329.0 10.0 240.0 
84.0002253135668 23102.0 545.0 1150.5554106910038 0.5001257288193607 331.0 8.0 242.0 
86.0002253135668 23100.0 545.0 1150.4328552803117 0.5001781277884155 330.0 9.0 241.0 
88.0002253135668 23098.0 545.0 1150.505867014341 0.5001597352899064 331.0 8.0 242.0 
90.0002253135668 23099.0 545.0 1150.4093872229462 0.500397866911531 331.0 8.0 242.0 
92.0002253135668 23095.0 545.0 1150.4823989569752 0.5005031960546018 332.0 7.0 243.0 
94.0002253135668 23086.0 545.0 1150.4823989569752 0.5001587922736882 333.0 6.0 244.0 
96.0002253135668 23083.0 545.0 1150.4823989569752 0.5005901257775386 331.0 8.0 242.0 
98.0002253135668 23171.0 546.0 1150.5084745762704 0.5003894287156949 332.0 8.0 242.0 
100.0002253135668 23183.0 546.0 1153.4863102998695 0.5001037926777017 331.0 9.0 242.0 
102.0002253135668 23189.0 547.0 1153.4628422425042 0.5001601887113927 331.0 9.0 242.0 
104.0002253135668 23182.0 547.0 1153.5045632333754 0.4999150001119282 333.0 7.0 244.0 
106.0002253135668 23183.0 547.0 1153.4289439374195 0.5001560667969761 331.0 9.0 242.0 
108.0002253135668 23189.0 547.0 1153.522816166884 0.5003344068307006 331.0 9.0 242.0 
110.0002253135668 23176.0 547.0 1153.42112125163 0.5023091862551962 330.0 9.0 242.0 
112.0002253135668 23079.0 547.0 1153.5019556714462 0.5059558503349959 332.0 7.0 244.0 
114.0002253135668 23003.0 546.0 1153.5019556714462 0.504778706488976 333.0 6.0 245.0 
116.0002253135668 22879.0 545.0 1153.4863102998695 0.5009090690002059 332.0 8.0 243.0 
118.0002253135668 22865.0 545.0 1159.5488917861794 0.5003046831916498 333.0 8.0 245.0 
120.0002253135668 22862.0 545.0 1162.4641460234666 0.5006133528919616 333.0 8.0 246.0 
122.0002253135668 22844.0 545.0 1162.4745762711887 0.500784421434983 334.0 7.0 247.0 
124.0002253135668 22830.0 545.0 1162.5084745762704 0.5002548151758911 335.0 6.0 248.0 
126.0002253135668 22826.0 545.0 1162.4380704041741 0.5006044803632602 333.0 8.0 246.0 
128.0002253135668 22816.0 545.0 1162.5058670143405 0.5008164425165099 333.0 8.0 246.0 
130.0002253135668 22810.0 545.0 1159.4263363754903 0.5009236658012616 333.0 8.0 245.0 
132.0002253135668 22801.0 546.0 1159.5097783572353 0.5046090964807217 334.0 7.0 246.0 
134.0002253135668 22644.0 546.0 1156.4954367666246 0.5130225539239806 335.0 6.0 246.0 
136.0002253135668 22508.0 544.0 1156.51368970013 0.5068790296254577 334.0 7.0 245.0 
138.0002253135668 22433.0 543.0 1156.4745762711887 0.5003053661034479 333.0 7.0 245.0 
140.0002253135668 22429.0 543.0 1150.445893089961 0.5011841670140055 329.0 8.0 242.0 
142.0002253135668 22400.0 543.0 1150.4719687092556 0.5010929149121319 328.0 8.0 242.0 
144.0002253135668 22382.0 543.0 1153.4889178617996 0.5002963546728388 329.0 7.0 244.0 
146.0002253135668 22384.0 543.0 1150.4485006518905 0.5004221979408697 328.0 7.0 243.0 
148.0002253135668 22380.0 543.0 1153.4993481095187 0.5002610820572228 327.0 8.0 243.0 
150.0002253135668 22379.0 543.0 1153.4889178617996 0.5016844356950061 327.0 7.0 244.0 
152.0002253135668 22325.0 543.0 1153.5645371577589 0.506937214757685 326.0 7.0 244.0 
154.0002253135668 22244.0 542.0 1147.5358539765332 0.4999092985962633 325.0 8.0 241.0 
156.0002253135668 22246.0 542.0 1147.4993481095187 0.5001854442027023 325.0 8.0 241.0 
158.0002253135668 22238.0 542.0 1150.477183833116 0.500214942255716 325.0 8.0 242.0 
160.0002253135668 22234.0 542.0 1150.5084745762704 0.5051054021337921 325.0 8.0 242.0 
162.0002253135668 22108.0 541.0 1150.4641460234668 0.5000723570804795 326.0 7.0 243.0 
164.0002253135668 22106.0 541.0 1150.466753585399 0.49996347925572976 327.0 6.0 244.0 
166.0002253135668 22110.0 541.0 1150.4146023468059 0.5066640763278011 327.0 6.0 244.0 
168.0002253135668 21935.0 539.0 1150.5423728813555 0.516258151790973 327.0 6.0 244.0 
170.0002253135668 21749.0 537.0 1147.4628422425042 0.4995734801423008 327.0 6.0 243.0 
172.0002253135668 21742.0 537.0 1144.5371577574958 0.5116948570185526 325.0 7.0 241.0 
174.0002253135668 21620.0 536.0 1135.4706649282937 0.4995111933491683 323.0 7.0 238.0 
176.0002253135668 21618.0 536.0 1135.4576271186447 0.4997711947692833 321.0 8.0 237.0 
178.0002253135668 21608.0 536.0 1135.4419817470664 0.49956063420118063 321.0 8.0 237.0 
180.0002253135668 21604.0 536.0 1135.4784876140807 0.5032360175184122 322.0 7.0 238.0 
182.0002253135668 21499.0 535.0 1135.4498044328557 0.4993538649629362 323.0 6.0 239.0 
184.0002253135668 21498.0 535.0 1135.4863102998695 0.49933030331443207 323.0 6.0 239.0 
186.0002253135668 21496.0 535.0 1138.4302477183844 0.4996039502399136 323.0 6.0 240.0 
188.0002253135668 21544.0 535.0 1135.4889178617996 0.4989011121592426 324.0 6.0 239.0 
190.0002253135668 21596.0 536.0 1138.4771838331158 0.49936919204627345 324.0 6.0 240.0 
192.0002253135668 21594.0 536.0 1138.5032594524137 0.4994667887136424 325.0 5.0 241.0 
194.0002253135668 21590.0 536.0 1129.473272490221 0.4992860458912962 322.0 6.0 237.0 
196.0002253135668 21593.0 536.0 1129.4654498044315 0.4994663896627899 322.0 6.0 237.0 
198.0002253135668 21583.0 537.0 1129.4706649282934 0.499679203275333 323.0 5.0 238.0 
200.0002253135668 21583.0 537.0 1129.4680573663616 0.5005375964596173 322.0 6.0 237.0 
202.0002253135668 21583.0 537.0 1129.473272490221 0.4996417043369393 322.0 6.0 237.0 
204.0002253135668 21590.0 538.0 1129.5202086049549 0.4992066823801256 322.0 6.0 237.0 
206.0002253135668 21596.0 538.0 1129.4419817470664 0.5015034084980328 319.0 8.0 235.0 
208.0002253135668 21524.0 538.0 1123.5202086049549 0.5054533374444735 318.0 8.0 233.0 
210.0002253135668 21474.0 537.0 1123.4863102998693 0.5053977801722025 319.0 7.0 234.0 
212.0002253135668 21451.0 536.0 1120.5136897001307 0.499471429695363 317.0 8.0 232.0 
214.0002253135668 21454.0 536.0 1120.4771838331162 0.49914484924834135 317.0 8.0 232.0 
216.0002253135668 21463.0 536.0 1120.4850065189046 0.4993601571839534 318.0 7.0 233.0 
218.0002253135668 21463.0 536.0 1120.4563233376778 0.4994951040917152 316.0 8.0 232.0 
220.0002253135668 21454.0 536.0 1120.4980443285535 0.4993934341137572 316.0 8.0 232.0 
222.0002253135668 21450.0 536.0 1117.5176010430246 0.49905087882532834 317.0 7.0 232.0 
224.0002253135668 21452.0 536.0 1117.5332464146018 0.499183650337922 318.0 6.0 233.0 
226.0002253135668 21462.0 536.0 1120.4641460234673 0.4997728598673873 319.0 5.0 235.0 
228.0002253135668 21474.0 536.0 1114.5397653194273 0.5000054204646339 319.0 3.0 235.0 
230.0002253135668 21454.0 536.0 1114.4850065189046 0.5000017446980602 320.0 2.0 236.0 
232.0002253135668 21440.0 536.0 1111.5593220338983 0.4997866337113725 318.0 3.0 234.0 
234.0002253135668 21434.0 536.0 1108.4850065189046 0.49929556562490557 318.0 3.0 233.0 
236.0002253135668 21441.0 536.0 1108.4876140808349 0.5026901883311661 317.0 4.0 232.0 
238.0002253135668 21364.0 535.0 1105.488917861799 0.5031295372627981 315.0 5.0 230.0 
240.0002253135668 21262.0 534.0 1105.5462842242505 0.4994246637118629 316.0 4.0 231.0 
242.0002253135668 21250.0 534.0 1105.4941329856586 0.5002980174413575 314.0 6.0 229.0 
244.0002253135668 21234.0 534.0 1105.543676662322 0.4990630354254311 319.0 3.0 232.0 
246.0002253135668 21240.0 534.0 1105.4002607561924 0.5035820166064096 318.0 4.0 231.0 
248.0002253135668 21148.0 534.0 1105.4524119947846 0.4993514677771768 317.0 4.0 231.0 
250.0002253135668 21145.0 533.0 1105.4263363754903 0.500221842897514 318.0 4.0 231.0 
252.0002253135668 21120.0 533.0 1105.4784876140811 0.5056844398285472 319.0 3.0 232.0 
254.0002253135668 21074.0 532.0 1102.456323337678 0.49927056005098397 318.0 3.0 231.0 
256.0002253135668 21069.0 532.0 1102.4537157757493 0.49989154028325583 317.0 4.0 230.0 
258.00022531356683 21052.0 532.0 1102.469361147327 0.49972808183855655 316.0 4.0 230.0 
260.00022531356683 21047.0 532.0 1102.5084745762704 0.499655008664939 315.0 5.0 229.0 
262.00022531356683 21035.0 532.0 1102.5084745762704 0.5005299312512473 314.0 6.0 228.0 
264.00022531356683 21027.0 532.0 1102.5084745762704 0.49914586682386786 313.0 6.0 228.0 
266.00022531356683 21027.0 533.0 1099.460234680573 0.5003734672890164 310.0 6.0 227.0 
268.00022531356683 21001.0 533.0 1099.5019556714467 0.5000103547753902 310.0 6.0 227.0 
270.00022531356683 20990.0 533.0 1099.4706649282928 0.500184618931667 311.0 5.0 228.0 
272.00022531356683 20960.0 533.0 1096.4719687092559 0.505012506447058 312.0 5.0 227.0 
274.00022531356683 20886.0 532.0 1099.460234680573 0.4992644842043985 312.0 5.0 228.0 
276.00022531356683 20890.0 532.0 1102.4745762711877 0.5031468563854193 312.0 6.0 228.0 
278.00022531356683 20786.0 532.0 1105.4393741851359 0.4996104282289495 312.0 6.0 229.0 
280.00022531356683 20789.0 533.0 1105.4810951760098 0.49921823649266694 316.0 4.0 231.0 
282.00022531356683 20797.0 534.0 1105.4393741851359 0.4998365970594912 316.0 4.0 231.0 
284.00022531356683 20788.0 534.0 1102.4250325945243 0.4992039157663407 314.0 6.0 228.0 
286.00022531356683 20782.0 534.0 1102.4093872229466 0.5000509280296725 314.0 6.0 228.0 
288.00022531356683 20767.0 534.0 1102.4302477183837 0.500043220689467 314.0 6.0 228.0 
290.00022531356683 20757.0 535.0 1102.385919165581 0.4987044219058915 314.0 6.0 228.0 
292.00022531356683 20757.0 535.0 1102.4823989569757 0.49976726801675475 314.0 6.0 228.0 
294.00022531356683 20744.0 535.0 1102.419817470665 0.5015087320695187 314.0 5.0 229.0 
296.00022531356683 20679.0 535.0 1099.449804432856 0.5056967581164713 313.0 5.0 228.0 
298.00022531356683 20627.0 534.0 1102.469361147327 0.5057636361803014 311.0 7.0 227.0 
300.00022531356683 20551.0 533.0 1102.466753585398 0.49948472807251737 309.0 8.0 226.0 
302.00022531356683 20549.0 533.0 1102.4876140808349 0.4995763201270434 311.0 6.0 228.0 
304.00022531356683 20561.0 535.0 1099.4863102998688 0.499307685334758 310.0 6.0 227.0 
306.00022531356683 20570.0 536.0 1093.439374185136 0.49820523247635196 310.0 6.0 225.0 
308.00022531356683 20654.0 537.0 1084.4146023468059 0.5037110920132635 309.0 7.0 221.0 
310.00022531356683 20576.0 537.0 1084.4354628422413 0.4991558268802436 307.0 9.0 219.0 
312.00022531356683 20579.0 537.0 1087.4758800521504 0.49921588536846456 307.0 9.0 220.0 
314.00022531356683 20584.0 538.0 1090.4015645371585 0.49903344623668316 309.0 8.0 222.0 
316.00022531356683 20613.0 539.0 1087.3741851368964 0.49965229388792365 312.0 10.0 219.0 
318.00022531356683 20616.0 539.0 1087.387222946544 0.4992056467461403 310.0 9.0 220.0 
320.00022531356683 20624.0 539.0 1090.4041720990874 0.4985920134421857 311.0 10.0 220.0 
322.00022531356683 20672.0 541.0 1090.4511082138206 0.5050476054258837 313.0 8.0 222.0 
324.00022531356683 20574.0 541.0 1093.4889178617993 0.4995258840760405 314.0 8.0 223.0 
326.00022531356683 20575.0 541.0 1093.4159061277703 0.5008443839099934 312.0 10.0 221.0 
328.00022531356683 20560.0 541.0 1093.4159061277703 0.5001274730753524 312.0 7.0 224.0 
330.00022531356683 20638.0 542.0 1087.4185136897006 0.5004019358012108 312.0 6.0 223.0 
332.00022531356683 20625.0 542.0 1087.4419817470662 0.5077306147563339 309.0 8.0 221.0 
334.00022531356683 20548.0 541.0 1090.45893089961 0.5024826178282348 311.0 8.0 222.0 
336.00022531356683 20548.0 540.0 1090.45893089961 0.4999727945259043 309.0 10.0 220.0 
338.00022531356683 20539.0 540.0 1090.4432855280306 0.499893595944829 306.0 10.0 220.0 
340.00022531356683 20535.0 540.0 1090.4224250325954 0.49895056935020177 311.0 8.0 222.0 
342.00022531356683 20532.0 540.0 1093.392438070404 0.50105393733393 313.0 8.0 223.0 
344.00022531356683 20530.0 540.0 1093.3767926988269 0.5009963693414657 312.0 10.0 221.0 
346.00022531356683 20558.0 540.0 1099.4237288135582 0.5004443227893149 311.0 7.0 226.0 
348.00022531356683 20545.0 540.0 1099.4367666232074 0.5013457483397386 314.0 6.0 227.0 
350.00022531356683 20513.0 540.0 1096.4172099087357 0.5054526767698599 311.0 8.0 224.0 
352.00022531356683 20478.0 539.0 1096.4719687092559 0.4993974594283318 314.0 9.0 223.0 
354.00022531356683 20484.0 539.0 1093.4106910039109 0.4994222013631317 311.0 11.0 220.0 
356.00022531356683 20542.0 541.0 1093.4080834419822 0.5012714994830628 310.0 9.0 222.0 
358.00022531356683 20531.0 541.0 1093.2959582790097 0.5051710645350189 310.0 10.0 221.0 
360.00022531356683 20517.0 541.0 1093.3585397653187 0.5007314814620176 309.0 8.0 223.0 
362.00022531356683 20504.0 541.0 1093.2907431551505 0.5069642013746914 313.0 8.0 223.0 
364.00022531356683 20494.0 541.0 1093.3741851368964 0.5019491956008572 309.0 10.0 221.0 
366.00022531356683 20515.0 541.0 1093.4185136897006 0.5000460025822678 311.0 7.0 224.0 
368.00022531356683 20531.0 542.0 1087.4445893089967 0.50110325285056 314.0 6.0 223.0 
370.00022531356683 20518.0 542.0 1087.3950456323334 0.5006820276325858 313.0 8.0 221.0 
372.00022531356683 20505.0 542.0 1087.3689700130387 0.5041599586015608 315.0 8.0 221.0 
374.00022531356683 20482.0 542.0 1087.3376792698818 0.505233684509795 312.0 10.0 219.0 
376.00022531356683 20491.0 541.0 1087.3976531942637 0.4997789014622221 309.0 10.0 219.0 
378.00022531356683 20519.0 542.0 1087.384615384615 0.5013125320474108 313.0 8.0 221.0 
380.00022531356683 20497.0 542.0 1087.4498044328557 0.49961736157131065 315.0 8.0 221.0 
382.00022531356683 20491.0 542.0 1090.4041720990874 0.5018347267361486 311.0 10.0 220.0 
384.00022531356683 20472.0 542.0 1096.440677966102 0.49975931810436225 312.0 8.0 224.0 
386.00022531356683 20478.0 542.0 1096.378096479791 0.5000033355762311 321.0 6.0 226.0 
388.00022531356683 20466.0 542.0 1096.4067796610161 0.5014833312508762 319.0 8.0 224.0 
390.00022531356683 20480.0 542.0 1084.438070404173 0.4993072590259658 320.0 8.0 220.0 
392.00022531356683 20535.0 544.0 1093.41590612777 0.503234242329964 320.0 10.0 221.0 
394.00022531356683 20514.0 544.0 1093.5202086049549 0.5003995814473943 319.0 9.0 222.0 
396.00022531356683 20523.0 544.0 1096.4354628422411 0.5012911856102626 320.0 9.0 223.0 
398.00022531356683 20488.0 545.0 1090.4093872229466 0.5070143199648065 320.0 8.0 222.0 
400.00022531356683 20426.0 543.0 1090.3624511082132 0.5002128191200937 321.0 10.0 220.0 
402.00022531356683 20425.0 543.0 1093.395045632333 0.5037108371837882 321.0 10.0 221.0 
404.00022531356683 20400.0 543.0 1087.3794002607558 0.49915738157905193 322.0 7.0 222.0 
406.00022531356683 20441.0 544.0 1090.4641460234675 0.5005591260540764 325.0 5.0 225.0 
408.00022531356683 20440.0 544.0 1093.4863102998693 0.4992119961375573 320.0 10.0 221.0 
410.00022531356683 20442.0 544.0 1096.4797913950451 0.5015424233714403 320.0 9.0 223.0 
412.00022531356683 20415.0 544.0 1102.4406779661015 0.5135699119501271 321.0 9.0 225.0 
414.00022531356683 20359.0 541.0 1105.4237288135578 0.5040805584522462 319.0 11.0 224.0 
416.00022531356683 20364.0 541.0 1108.4198174706648 0.5008859370563141 320.0 10.0 226.0 
418.00022531356683 20383.0 542.0 1108.362451108213 0.499661790902659 322.0 10.0 226.0 
420.00022531356683 20387.0 542.0 1105.4367666232067 0.5006352722539086 322.0 8.0 227.0 
422.00022531356683 20392.0 543.0 1105.4810951760096 0.5004035463174371 323.0 8.0 227.0 
424.00022531356683 20377.0 543.0 1105.4471968709254 0.5003986008843452 320.0 10.0 225.0 
426.00022531356683 20384.0 543.0 1102.4146023468059 0.5005993653598365 320.0 9.0 225.0 
428.00022531356683 20376.0 543.0 1099.3168187744468 0.5039735637126213 323.0 6.0 227.0 
430.00022531356683 20374.0 542.0 1099.3272490221632 0.5051739613625942 322.0 8.0 225.0 
432.00022531356683 20338.0 541.0 1102.32333767927 0.5012787972048033 322.0 8.0 226.0 
434.00022531356683 20315.0 541.0 1105.4185136897008 0.5019524380991619 322.0 8.0 227.0 
436.00022531356683 20308.0 541.0 1105.4367666232072 0.5062570143181031 322.0 8.0 227.0 
438.00022531356683 20289.0 540.0 1105.4002607561924 0.49931802636396483 327.0 3.0 232.0 
440.00022531356683 20295.0 540.0 1111.3898305084758 0.5014091042522073 329.0 3.0 234.0 
442.00022531356683 20378.0 541.0 1117.3715775749672 0.502649279598488 330.0 3.0 236.0 
444.00022531356683 20353.0 541.0 1117.3637548891777 0.5014495581596451 330.0 3.0 236.0 
446.00022531356683 20369.0 541.0 1117.3455019556714 0.5072492083180202 330.0 3.0 236.0 
448.0001541823904 20335.0 541.0 1123.3689700130396 0.5013504960774348 331.0 3.0 238.0 
450.0001541823904 20349.0 541.0 1129.4211212516302 0.5125184490917376 332.0 3.0 240.0 
452.0001541823904 20081.0 540.0 1129.3272490221627 0.5048070515885272 331.0 3.0 240.0 
454.0001541823904 20072.0 540.0 1129.3376792698818 0.5010329120542889 329.0 5.0 238.0 
456.0001541823904 20068.0 540.0 1126.344198174707 0.5073387394767436 327.0 5.0 237.0 
458.0001541823904 20032.0 538.0 1126.39374185137 0.49919922243504034 327.0 5.0 237.0 
460.0001541823904 20040.0 538.0 1123.4159061277703 0.5063486762389323 326.0 6.0 235.0 
462.0001541823904 19863.0 537.0 1120.4093872229466 0.512961826678294 324.0 5.0 235.0 
464.0001541823904 19794.0 535.0 1120.3259452411983 0.5020406398507277 324.0 4.0 236.0 
466.0001541823904 19782.0 535.0 1120.385919165581 0.5063297712224246 325.0 5.0 235.0 
468.0001541823904 19695.0 535.0 1120.3911342894378 0.5055849435170552 325.0 5.0 235.0 
470.0001541823904 19703.0 533.0 1120.3363754889199 0.5001319603864015 325.0 5.0 235.0 
472.0001541823904 19698.0 533.0 1117.3142112125165 0.5005749155485705 326.0 4.0 235.0 
474.0001541823904 19689.0 533.0 1111.371577574967 0.5023470746938943 325.0 3.0 234.0 
476.0001541823904 19679.0 533.0 1102.391134289438 0.5051156910082687 323.0 3.0 231.0 
478.0001541823904 19657.0 533.0 1102.4380704041737 0.49943152761671933 322.0 4.0 230.0 
480.0001541823904 19717.0 533.0 1102.4015645371592 0.4991191572631014 322.0 5.0 229.0 
482.0001541823904 19770.0 535.0 1102.3233376792707 0.49987001838543627 322.0 4.0 230.0 
484.0001541823904 19769.0 535.0 1102.3207301173413 0.5052070591816197 321.0 3.0 231.0 
486.0001541823904 19694.0 534.0 1096.344198174707 0.5051299428409926 321.0 3.0 229.0 
488.0001541823904 19776.0 535.0 1090.3102998696218 0.4993426900821133 321.0 3.0 227.0 
490.0001541823904 19785.0 535.0 1081.3872229465435 0.5029138970543238 321.0 3.0 224.0 
492.0001541823904 19808.0 535.0 1084.4041720990874 0.5004208342216516 320.0 3.0 225.0 
494.0001541823904 19801.0 535.0 1087.379400260756 0.5011437200233761 320.0 3.0 226.0 
496.0001541823904 19798.0 535.0 1087.368970013039 0.5000584428523327 317.0 4.0 225.0 
498.0001541823904 19893.0 537.0 1087.3116036505871 0.5005017977289095 317.0 4.0 225.0 
500.0001541823904 19889.0 537.0 1078.3389830508477 0.5000247675518731 319.0 3.0 223.0 
502.0001541823904 19900.0 537.0 1078.3520208604955 0.5042053542962625 315.0 5.0 221.0 
504.0001541823904 19878.0 537.0 1078.4406779661017 0.5132499302768742 312.0 6.0 220.0 
506.0001541823904 19853.0 535.0 1075.382007822686 0.5012905528252473 312.0 6.0 219.0 
508.0001541823904 19851.0 535.0 1069.4237288135582 0.4994977271881339 311.0 6.0 217.0 
510.0001541823904 19853.0 536.0 1066.3807040417212 0.502156655787825 310.0 6.0 216.0 
512.0001541823905 19850.0 536.0 1063.4028683181216 0.5111518614864916 309.0 6.0 215.0 
514.0001541823905 19747.0 535.0 1051.4732724902217 0.5001311648659129 307.0 6.0 211.0 
516.0001541823905 19746.0 535.0 1048.4224250325951 0.5004307918766917 304.0 8.0 208.0 
518.0001541823905 19744.0 535.0 1048.4093872229462 0.5003861470648874 305.0 7.0 209.0 
520.0001541823905 19737.0 535.0 1048.4067796610163 0.501091992392112 307.0 6.0 210.0 
522.0001541823905 19800.0 535.0 1045.4289439374188 0.49957715188109025 304.0 7.0 208.0 
524.0001541823905 19838.0 536.0 1042.4146023468059 0.5064405552503254 305.0 4.0 210.0 
526.0001541823905 19808.0 534.0 1036.4432855280306 0.5126556351590519 304.0 5.0 207.0 
528.0001541823905 19716.0 533.0 1036.438070404173 0.5000914480641873 302.0 7.0 205.0 
530.0001541823905 19717.0 533.0 1036.4485006518908 0.504112502161006 300.0 6.0 206.0 
532.0001541823905 19621.0 532.0 1036.4458930899607 0.5063833875131072 301.0 6.0 206.0 
534.0001541823905 19530.0 531.0 1036.4615384615383 0.5050290717085737 300.0 7.0 205.0 
536.0001541823905 19443.0 530.0 1033.4550195567153 0.5036022144930211 300.0 6.0 205.0 
538.0001541823905 19437.0 530.0 1036.4224250325954 0.5010412138609699 301.0 7.0 205.0 
540.0001541823905 19424.0 530.0 1039.3976531942637 0.5009589954015647 300.0 6.0 207.0 
542.0001541823905 19438.0 531.0 1042.3963494132988 0.5059760373035033 302.0 6.0 208.0 
544.0001541823905 19436.0 530.0 1042.385919165581 0.4996514699765763 301.0 7.0 207.0 
546.0001541823905 19463.0 530.0 1042.456323337678 0.5010158725615982 302.0 6.0 208.0 
548.0001541823905 19468.0 531.0 1039.4471968709254 0.5067602292575945 303.0 7.0 206.0 
550.0001541823905 19437.0 530.0 1039.4628422425035 0.4998738648710948 300.0 6.0 207.0 
552.0001541823905 19436.0 530.0 1039.4185136897006 0.4999499744984913 302.0 6.0 207.0 
554.0001541823905 19469.0 530.0 1039.3689700130387 0.49932574185879075 302.0 7.0 206.0 
556.0001541823905 19500.0 531.0 1039.4028683181214 0.5017774840926781 303.0 6.0 207.0 
558.0001541823905 19490.0 531.0 1039.3663624511069 0.5133850790913875 302.0 7.0 206.0 
560.0001541823905 19411.0 528.0 1033.3820078226863 0.5043496502922646 298.0 6.0 205.0 
562.0001541823905 19349.0 528.0 1033.4315514993475 0.5222573373402754 300.0 6.0 205.0 
564.0001541823905 19242.0 524.0 1033.3820078226863 0.5055910010169071 300.0 7.0 204.0 
566.0001541823905 19182.0 524.0 1036.3415906127766 0.5017809626445151 300.0 6.0 206.0 
568.0001541823905 19168.0 524.0 1048.3468057366367 0.5009037073760705 299.0 6.0 210.0 
570.0001541823905 19128.0 524.0 1045.3741851368964 0.5051783109278473 298.0 7.0 208.0 
572.0001541823905 19085.0 523.0 1045.3585397653187 0.5001131905745956 298.0 6.0 209.0 
574.0001541823905 19120.0 523.0 1042.3546284224242 0.49925905380934793 299.0 6.0 208.0 
576.0001541823905 19134.0 523.0 1048.359843546284 0.5012015841551333 299.0 6.0 210.0 
578.0001541823905 19128.0 523.0 1048.331160365059 0.4991810078993855 299.0 6.0 210.0 
580.0001541823905 19133.0 523.0 1051.2959582790095 0.498907398264589 299.0 6.0 211.0 
582.0001541823905 19238.0 525.0 1051.3298565840935 0.49893888994675784 303.0 5.0 212.0 
584.0001541823905 19245.0 525.0 1051.2568448500647 0.49969927424152 304.0 4.0 213.0 
586.0001541823905 19237.0 525.0 1048.354628422424 0.5032207092192191 303.0 4.0 212.0 
588.0001541823905 19220.0 524.0 1048.2555410691007 0.4989958371387935 302.0 5.0 211.0 
590.0001541823905 19223.0 524.0 1048.3024771838336 0.5014035638079466 303.0 4.0 212.0 
592.0001541823905 19187.0 524.0 1042.2998696219045 0.5110112876047285 300.0 5.0 209.0 
594.0001541823905 19152.0 522.0 1042.2711864406772 0.5000295035636714 301.0 4.0 210.0 
596.0002253135668 19256.0 523.0 1039.2438070404176 0.5043724310011216 304.0 4.0 209.0 
598.0002253135668 19186.0 523.0 1039.275097783572 0.5031234792673835 302.0 5.0 208.0 
600.0002253135668 19139.0 523.0 1036.3181225554115 0.5000094281444567 304.0 4.0 208.0 
602.0002253135668 19142.0 523.0 1039.3324641460242 0.5015754105392037 304.0 5.0 208.0 
604.0002253135668 19196.0 524.0 1042.4015645371585 0.49979277491366936 305.0 4.0 210.0 
606.0002253135668 19190.0 524.0 1045.366362451107 0.5014654272881172 305.0 4.0 211.0 
608.0002253135668 19181.0 525.0 1045.2933507170792 0.49865053957274924 305.0 5.0 210.0 
610.0002253135668 19185.0 525.0 1042.2998696219042 0.5008785857817336 309.0 2.0 212.0 
612.0002253135668 19188.0 525.0 1042.31551499348 0.5083956253347175 308.0 3.0 211.0 
614.0002253135668 19108.0 523.0 1042.3181225554113 0.5001757596568546 307.0 4.0 210.0 
616.0002253135668 19107.0 523.0 1042.3468057366365 0.5060290973757571 307.0 4.0 210.0 
618.0002253135668 19027.0 522.0 1039.3455019556714 0.5013672677770414 306.0 4.0 209.0 
620.0002253135668 19029.0 521.0 1036.375488917863 0.5070524251960282 305.0 4.0 208.0 
622.0002253135668 18996.0 522.0 1036.3494132985663 0.5057758434965898 305.0 4.0 208.0 
624.0002253135668 18952.0 521.0 1033.3507170795313 0.5048595375683107 304.0 4.0 207.0 
626.0002253135668 18903.0 521.0 1036.359843546284 0.5068123794612903 303.0 5.0 207.0 
628.0002253135668 18823.0 520.0 1033.3324641460242 0.5011169993188724 304.0 2.0 209.0 
630.0002253135668 18788.0 520.0 1030.3676662320736 0.506509312335927 299.0 3.0 207.0 
632.0002253135668 18752.0 519.0 1033.3950456323334 0.5017258533197801 296.0 5.0 206.0 
634.0002253135668 18746.0 519.0 1027.4837027379403 0.5043101603286223 297.0 4.0 205.0 
636.0002253135668 18735.0 518.0 1027.4810951760107 0.5103162264229832 297.0 4.0 205.0 
638.0002253135668 18654.0 517.0 1030.432855280313 0.4995489189828999 296.0 5.0 205.0 
640.0002253135668 18660.0 517.0 1030.52151238592 0.49916215246148615 296.0 4.0 206.0 
642.0002253135668 18666.0 518.0 1030.4745762711877 0.5008335432109668 296.0 4.0 206.0 
644.0002253135668 18659.0 518.0 1030.461538461538 0.49921467494622873 295.0 5.0 205.0 
646.0002253135668 18658.0 518.0 1024.4563233376778 0.49930657987740046 289.0 7.0 201.0 
648.0002253135668 18660.0 518.0 1024.4406779661028 0.4998688247090539 291.0 4.0 204.0 
650.0002253135668 18654.0 518.0 1021.436766623208 0.4996707372664699 290.0 5.0 202.0 
652.0002253135668 18658.0 518.0 1021.5019556714474 0.5034161064184279 288.0 6.0 201.0 
654.0002253135668 18625.0 518.0 1021.5097783572371 0.5060831840941067 287.0 6.0 201.0 
656.0002253135668 18575.0 517.0 1021.5254237288149 0.49972621586410604 286.0 6.0 201.0 
658.0002253135668 18608.0 518.0 1024.5501955671455 0.4997986092074959 283.0 9.0 199.0 
660.0002253135668 18610.0 519.0 1024.464146023467 0.49979494143932013 283.0 9.0 199.0 
662.0002253135668 18609.0 519.0 1024.4432855280306 0.49873086221654356 284.0 8.0 200.0 
664.0002253135668 18608.0 519.0 1024.4067796610161 0.4993481593670791 285.0 7.0 201.0 
#####################################################################
# End of data export. Simulation finished at: 2019-03-11T14:33+0000 #
#####################################################################
