#####################################################################
# Alchemist log file - simulation started at: 2019-03-12T20:02+0000 #
#####################################################################
# seed = 5.0, bandwidth = 74989.42093324558, accessPointCount = 274.2481756762073, baserange = 562.341325190349
#
# The columns have the following meaning: 
# time neighbor_count[Sum] <value>@neighbor_count[Sum] packet_size[Mean] mean_delay[Mean] crowd[Sum] overcrowded[Sum] risk[Sum] 
0.0 NaN NaN NaN NaN NaN NaN NaN 
2.000101793669918 2137.0 1190.0 4984.458498023715 0.4170544349426257 1497.0 0.0 1497.0 
4.000019156531917 4844.0 1735.0 4985.431959345003 0.5768085852935535 1497.0 0.0 1497.0 
6.000101793669918 11186.0 2196.0 4988.130999435347 0.8295200289949201 1497.0 0.0 1497.0 
8.000101793669918 14085.0 2299.0 4988.849237718803 1.0256555884939458 1497.0 0.0 1497.0 
10.000101793669918 17099.0 2303.0 4989.773009599096 0.9830396620763837 1497.0 0.0 1497.0 
12.000101793669918 19288.0 2245.0 4990.407679277245 1.0633830102134423 1497.0 0.0 1497.0 
14.000101793669918 19038.0 2145.0 4990.525127046866 1.0319355056518984 1495.0 2.0 1495.0 
16.00010179366992 18449.0 2068.0 4990.615471485036 0.7820815090444496 1494.0 3.0 1494.0 
18.00010179366992 18442.0 2067.0 4990.4483342744215 0.8803289418080362 1494.0 3.0 1494.0 
20.00010179366992 18485.0 2068.0 4990.457368718238 0.7893306893515698 1490.0 7.0 1490.0 
22.00010179366992 18432.0 2067.0 4990.461885940147 0.860247909661526 1490.0 7.0 1490.0 
24.00010179366992 18426.0 2066.0 4990.348955392434 0.8082630497647051 1491.0 6.0 1491.0 
26.00010179366992 18443.0 2066.0 4990.425748164878 0.855464230241286 1490.0 7.0 1490.0 
28.00010179366992 18502.0 2068.0 4990.317334839074 0.7871125600517412 1489.0 8.0 1489.0 
30.00010179366992 18504.0 2068.0 4990.428006775833 0.8798136159804818 1490.0 7.0 1490.0 
32.00010179366992 18513.0 2069.0 4990.308300395257 0.7870668100591977 1489.0 8.0 1489.0 
34.00010179366992 18520.0 2069.0 4990.367024280068 0.8621325713802347 1489.0 8.0 1489.0 
36.00010179366992 18473.0 2068.0 4990.407679277245 0.8100822532513264 1490.0 7.0 1490.0 
38.00010179366992 18442.0 2067.0 4990.306041784303 0.8541847183956401 1489.0 8.0 1489.0 
40.00010179366992 18444.0 2067.0 4990.335403726708 0.7907591004324455 1489.0 8.0 1489.0 
42.00010179366992 18443.0 2067.0 4990.317334839074 0.8859880710317434 1490.0 7.0 1490.0 
44.00010179366992 18441.0 2066.0 4990.378317334839 0.7865403724322667 1489.0 8.0 1489.0 
46.00010179366992 18408.0 2065.0 4990.26764539808 0.8592977658870415 1489.0 8.0 1489.0 
48.00010179366992 18380.0 2065.0 4990.310559006211 0.8084195828139744 1490.0 7.0 1490.0 
50.00010179366992 18411.0 2066.0 4990.231507622812 0.8579883899810601 1489.0 8.0 1489.0 
52.00010179366992 18505.0 2066.0 4990.23602484472 0.790937613567442 1489.0 8.0 1489.0 
54.00010179366992 18448.0 2066.0 4990.319593450028 0.8801215285410025 1490.0 7.0 1490.0 
56.00010179366992 18506.0 2067.0 4990.348955392434 0.7864460227863683 1489.0 8.0 1489.0 
58.00010179366992 18555.0 2067.0 4990.385093167702 0.8567763810806789 1489.0 8.0 1489.0 
60.00010179366992 18568.0 2068.0 4987.719932241672 0.8051423553844087 1489.0 7.0 1489.0 
62.00010179366992 18588.0 2070.0 1307.6160361377783 0.7605382492894057 739.0 7.0 342.0 
64.00010179366993 18577.0 2069.0 1307.4669678147907 0.7280805821913204 589.0 8.0 341.0 
66.00010179366993 18563.0 2067.0 1307.1981931112402 0.7043264089009261 543.0 10.0 339.0 
68.00010179366993 18570.0 2069.0 1307.1485036702466 0.7401273597188404 510.0 10.0 339.0 
70.00010179366993 18533.0 2069.0 1307.1010728402068 0.6728987833997625 485.0 13.0 336.0 
72.00010179366993 18545.0 2069.0 1307.0649350649364 0.7359440317811812 488.0 10.0 339.0 
74.00010179366993 18477.0 2068.0 1296.5872388481043 0.694583214687895 483.0 11.0 334.0 
76.00010179366993 18479.0 2069.0 1296.5759457933407 0.6910335805730751 479.0 12.0 333.0 
78.00010179366993 18498.0 2068.0 1299.1733483907415 0.6991657795780716 478.0 12.0 334.0 
80.00010179366993 18608.0 2071.0 1299.153020892154 0.6968115900131735 472.0 12.0 334.0 
82.00010179366993 18587.0 2068.0 1299.107848673064 0.6926315386049515 472.0 11.0 335.0 
84.00010179366993 18574.0 2068.0 1299.107848673064 0.7025159090450916 469.0 12.0 334.0 
86.00010179366993 18574.0 2068.0 1299.0559006211217 0.6836960061739731 468.0 13.0 333.0 
88.00010179366993 18564.0 2067.0 1301.6939582156956 0.6896262376589551 469.0 12.0 335.0 
90.00010179366993 18569.0 2067.0 1301.5855448898963 0.6970679448847078 471.0 12.0 335.0 
92.00010179366993 18582.0 2068.0 1301.6126482213438 0.6857607584591778 470.0 13.0 334.0 
94.00010179366993 18581.0 2068.0 1301.5629587803467 0.68883869997099 471.0 12.0 335.0 
96.00010179366993 18552.0 2067.0 1301.651044607564 0.700586390352016 471.0 12.0 335.0 
98.00010179366993 18554.0 2068.0 1301.623941276117 0.682971802892326 470.0 13.0 334.0 
100.00010179366993 18571.0 2069.0 1301.6465273856568 0.6941818371257343 471.0 12.0 335.0 
102.00010179366993 18564.0 2068.0 1301.6284584980278 0.7018452316844411 469.0 12.0 335.0 
104.00010179366993 18540.0 2067.0 1304.2936194240551 0.68627271947252 468.0 13.0 335.0 
106.00010179366993 18541.0 2068.0 1301.6284584980278 0.6916373221167713 468.0 12.0 335.0 
108.00010179366993 18506.0 2067.0 1301.6284584980278 0.7082449293587182 468.0 12.0 335.0 
110.00010179366993 18475.0 2067.0 1301.5719932241648 0.6903458878246059 467.0 13.0 334.0 
112.00010179366993 18557.0 2066.0 1301.5855448898963 0.6906674442704491 468.0 12.0 335.0 
114.00010179366993 18615.0 2069.0 1301.6036137775293 0.7028751918519247 468.0 12.0 335.0 
116.00010179366993 18533.0 2067.0 1301.5923207227524 0.6918317541011135 467.0 13.0 334.0 
118.00010179366993 18601.0 2069.0 1301.594579333711 0.6935862859905163 469.0 12.0 335.0 
120.00010179366993 18483.0 2069.0 1301.6307171089766 0.7099163100477747 469.0 12.0 335.0 
122.00010179366993 18477.0 2069.0 1301.5968379446597 0.6818349758946646 468.0 13.0 334.0 
124.00010179366993 18462.0 2068.0 1301.617165443251 0.6959404844038793 469.0 12.0 335.0 
126.00010179366993 18414.0 2067.0 1298.999435347259 0.6918986549776207 469.0 12.0 334.0 
128.00010179366993 18380.0 2066.0 1296.4675324675316 0.6890516794272152 468.0 13.0 332.0 
130.00010179366993 18391.0 2067.0 1296.4223602484456 0.6752110291939006 469.0 12.0 333.0 
132.00010179366993 18394.0 2068.0 1299.0559006211217 0.7116647179652564 469.0 12.0 334.0 
134.00010179366993 18386.0 2067.0 1296.4426877470332 0.6775906112220217 467.0 14.0 331.0 
136.00010179366993 18307.0 2066.0 1296.38622247318 0.6966723516564973 463.0 14.0 331.0 
138.00010179366993 18288.0 2066.0 1296.4359119141768 0.6852174852616641 461.0 14.0 331.0 
140.00010179366993 18303.0 2066.0 1296.4223602484456 0.6927897043750049 459.0 15.0 330.0 
142.00010179366993 18320.0 2067.0 1296.4336533032188 0.6747328840311168 464.0 13.0 332.0 
144.00010179366993 18361.0 2067.0 1296.4381705251258 0.7119568559275592 465.0 12.0 333.0 
146.00010179366993 18405.0 2067.0 1296.4675324675316 0.6719085759451038 463.0 13.0 332.0 
148.00010179366993 18354.0 2066.0 1293.836250705814 0.698869378310816 462.0 13.0 331.0 
150.00010179366993 18356.0 2066.0 1291.2049689440962 0.6795249142258599 462.0 13.0 330.0 
152.00010179366993 18341.0 2066.0 1286.0869565217415 0.6935161433834703 462.0 13.0 328.0 
154.00010179366993 18323.0 2066.0 1285.9988706945237 0.6698724416433618 460.0 12.0 329.0 
156.00010179366993 18326.0 2066.0 1288.6256352343341 0.7110900611190223 459.0 12.0 330.0 
158.00010179366993 18316.0 2067.0 1286.0756634669685 0.672758461820706 460.0 13.0 328.0 
160.00010179366993 18181.0 2066.0 1291.1936758893232 0.705490615569731 461.0 13.0 330.0 
162.00010179366993 18155.0 2066.0 1288.5736871823785 0.6849695860950458 462.0 12.0 330.0 
164.00010179366993 18259.0 2067.0 1288.6188594014686 0.6911890527660872 459.0 17.0 325.0 
166.00010179366993 18285.0 2068.0 1288.5691699604713 0.6740623987602998 458.0 18.0 324.0 
168.00010179366993 18359.0 2070.0 1293.8317334839066 0.7114795837569134 462.0 13.0 331.0 
170.00010179366993 18411.0 2072.0 1296.3997741389057 0.672776272309253 462.0 13.0 332.0 
172.00010179366993 18364.0 2070.0 1296.3546019198159 0.7163761157618987 462.0 12.0 333.0 
174.00010179366993 18363.0 2068.0 1298.979107848677 0.6835246578593548 465.0 12.0 334.0 
176.00010179366993 18446.0 2069.0 1296.4901185770723 0.6912139998603054 464.0 13.0 332.0 
178.00010179366993 18489.0 2070.0 1296.3749294184067 0.6831567666115762 465.0 12.0 333.0 
180.00010179366993 18577.0 2072.0 1296.3952569169985 0.7167049070229664 467.0 12.0 333.0 
182.00010179366993 18577.0 2071.0 1296.4065499717706 0.6932042763957733 466.0 13.0 332.0 
184.00010179366993 18583.0 2071.0 1296.411067193678 0.7115416223870165 468.0 12.0 333.0 
186.00010179366993 18588.0 2073.0 1296.3997741389057 0.7022858431555536 467.0 12.0 333.0 
188.00010179366993 18565.0 2073.0 1296.481084133257 0.7153485513292409 464.0 13.0 332.0 
190.00010179366993 18561.0 2071.0 1296.3636363636338 0.698678650596372 465.0 12.0 333.0 
192.00010179366993 18543.0 2070.0 1296.377188029365 0.7123544759161375 467.0 11.0 334.0 
194.00010179366993 18539.0 2070.0 1298.990400903441 0.6893764704649866 470.0 8.0 338.0 
196.00010179366993 18542.0 2070.0 1299.0016939582176 0.7114008819238437 466.0 12.0 334.0 
198.00010179366993 18541.0 2070.0 1299.0468661773034 0.6945161652628782 467.0 12.0 334.0 
200.00010179366993 18542.0 2070.0 1306.8413325804659 0.7104828735520663 466.0 14.0 335.0 
202.00010179366993 18537.0 2070.0 1306.757763975156 0.6966164830067592 469.0 11.0 338.0 
204.00010179366993 18497.0 2070.0 1306.8006775832837 0.7201093499677177 469.0 10.0 339.0 
206.00010179366993 18478.0 2069.0 1304.221343873521 0.6952987538739511 466.0 13.0 335.0 
208.00010179366993 18433.0 2068.0 1301.6352343308838 0.7135415097357656 467.0 12.0 335.0 
210.00010179366993 18432.0 2068.0 1301.5539243365317 0.6959752199981345 470.0 8.0 339.0 
212.00010179366993 18402.0 2068.0 1301.5426312817597 0.7114024212818533 468.0 9.0 338.0 
214.00010179366993 18450.0 2070.0 1298.897797854316 0.6920038408973855 464.0 13.0 333.0 
216.00010179366993 18399.0 2069.0 1298.967814793904 0.7132886379951987 463.0 13.0 333.0 
218.00010179366993 18398.0 2069.0 1299.022021456805 0.6888767145948977 461.0 13.0 333.0 
220.00010179366993 18386.0 2071.0 1298.86843591191 0.7165856536745111 462.0 13.0 333.0 
222.00010179366993 18395.0 2072.0 1301.470355731222 0.7013900803467912 468.0 9.0 338.0 
224.00010179366993 18413.0 2074.0 1301.5539243365317 0.7195071699868182 464.0 14.0 333.0 
226.00010179366993 18401.0 2073.0 1298.8639186900027 0.7029950038603915 464.0 13.0 333.0 
228.00010179366993 18411.0 2072.0 1299.0062111801249 0.7235346329932697 463.0 13.0 333.0 
230.00010179366993 18362.0 2070.0 1301.6149068323018 0.6906409699016339 460.0 15.0 332.0 
232.00010179366993 18353.0 2071.0 1301.5268210050842 0.7157194057836335 460.0 13.0 334.0 
234.00010179366993 18350.0 2071.0 1301.5313382269921 0.6908814684595779 463.0 10.0 337.0 
236.00010179366993 18400.0 2073.0 1301.585544889896 0.7138072438686418 462.0 11.0 336.0 
238.00010179366993 18466.0 2076.0 1296.3433088650518 0.7010909566983426 466.0 9.0 336.0 
240.00010179366993 18387.0 2075.0 1296.322981366461 0.7260835994232466 464.0 10.0 335.0 
242.00010179366993 18311.0 2071.0 1296.3049124788224 0.6886129797652165 463.0 11.0 334.0 
244.00010179366993 18292.0 2072.0 1298.8955392433672 0.7170746352316995 465.0 9.0 337.0 
246.00010179366993 18366.0 2073.0 1296.2891022021477 0.6941659511453537 464.0 10.0 335.0 
248.00010179366993 18311.0 2072.0 1291.2027103331477 0.7121915010168777 462.0 11.0 332.0 
250.00010179366993 18373.0 2072.0 1291.13721061547 0.685095610476814 462.0 9.0 334.0 
252.00010179366993 18326.0 2072.0 1291.143986448336 0.7155308607161753 462.0 10.0 333.0 
254.00010179366993 18327.0 2072.0 1293.7459062676476 0.6903222747601874 463.0 11.0 333.0 
256.00010179366996 18206.0 2071.0 1293.761716544322 0.7170107953403367 468.0 9.0 335.0 
258.00010179366996 18195.0 2071.0 1293.7210615471529 0.6825040461754579 467.0 10.0 334.0 
260.00010179366996 18152.0 2070.0 1293.7775268210023 0.7058955411999125 466.0 11.0 333.0 
262.00010179366996 18199.0 2072.0 1291.123658949748 0.6841854752598954 468.0 9.0 334.0 
264.00010179366996 18087.0 2071.0 1293.7662337662293 0.7100843118570771 467.0 10.0 334.0 
266.00010179366996 18125.0 2071.0 1301.6126482213438 0.6872048838105359 465.0 11.0 336.0 
268.00010179366996 18105.0 2072.0 1301.6307171089763 0.7179917100882955 466.0 9.0 338.0 
270.00010179366996 18085.0 2075.0 1301.585544889896 0.6901602497661016 463.0 10.0 337.0 
272.00010179366996 18008.0 2073.0 1301.6036137775288 0.7200021941260494 463.0 11.0 336.0 
274.00010179366996 17974.0 2071.0 1301.549407114625 0.6800969493827804 465.0 9.0 338.0 
276.00010179366996 18007.0 2073.0 1301.5561829474902 0.716110847705822 462.0 10.0 337.0 
278.00010179366996 18069.0 2073.0 1304.169395821566 0.6771098119490335 465.0 11.0 337.0 
280.00010179366996 18078.0 2072.0 1301.515527950312 0.7168919391846426 469.0 9.0 338.0 
282.00010179366996 18056.0 2071.0 1296.277809147375 0.6858796176461478 468.0 10.0 335.0 
284.00010179366996 17992.0 2071.0 1298.9113495200418 0.7134987145466928 467.0 11.0 335.0 
286.00010179366996 17983.0 2071.0 1296.2665160926017 0.6826687927034653 468.0 9.0 336.0 
288.00010179366996 17981.0 2072.0 1296.3139469226458 0.7163422091635574 467.0 10.0 335.0 
290.00010179366996 18000.0 2072.0 1296.2823263692817 0.6823664777753807 466.0 11.0 334.0 
292.00010179366996 17955.0 2071.0 1296.2461885940108 0.7172467658878069 467.0 10.0 335.0 
294.00010179366996 17987.0 2073.0 1293.6103896103857 0.6844214759852938 467.0 9.0 335.0 
296.00010179366996 17916.0 2071.0 1293.6939582156956 0.7111528355106416 466.0 10.0 334.0 
298.00010179366996 17912.0 2073.0 1296.2665160926017 0.6804948871699268 468.0 9.0 336.0 
300.00010179366996 17872.0 2073.0 1298.843591191415 0.7079362638938536 467.0 9.0 337.0 
302.00010179366996 17823.0 2072.0 1296.277809147375 0.6819466865784395 466.0 10.0 335.0 
304.00010179366996 17796.0 2070.0 1296.2552230378342 0.7130658258646809 466.0 9.0 336.0 
306.00010179366996 17896.0 2074.0 1304.097120271032 0.6902211400294432 466.0 9.0 339.0 
308.00010179366996 17894.0 2074.0 1306.7645398080213 0.6939613031036451 465.0 10.0 339.0 
310.00010179366996 17894.0 2073.0 1309.242236024844 0.70448448067501 464.0 9.0 341.0 
312.00010179366996 17873.0 2072.0 1309.3077357425216 0.7125905713342535 464.0 9.0 341.0 
314.00010179366996 17810.0 2073.0 1311.957086391872 0.6980118389255701 464.0 10.0 341.0 
316.00010179366996 17807.0 2074.0 1309.3393562958765 0.7136876115199554 470.0 9.0 341.0 
318.00010179366996 17730.0 2071.0 1309.3664596273331 0.688295858934872 470.0 9.0 341.0 
320.00010179366996 17707.0 2070.0 1309.3551665725604 0.6985714301841488 470.0 10.0 340.0 
322.00010179366996 17705.0 2071.0 1309.3596837944679 0.6947098304928028 470.0 9.0 341.0 
324.00010179366996 17683.0 2071.0 1306.7261434217917 0.6927270063444056 470.0 9.0 340.0 
326.00010179366996 17559.0 2071.0 1309.3393562958765 0.6884893659036038 467.0 10.0 340.0 
328.00010179366996 17550.0 2071.0 1309.3393562958765 0.7003677195292579 471.0 9.0 341.0 
330.00010179366996 17549.0 2072.0 1309.2964426877486 0.6848992042906241 471.0 9.0 341.0 
332.00010179366996 17562.0 2073.0 1309.300959909656 0.7020163981500622 470.0 10.0 340.0 
334.00010179366996 17512.0 2072.0 1309.3529079616017 0.6969892229826312 471.0 9.0 341.0 
336.00010179366996 17417.0 2070.0 1309.303218520614 0.6793231039719416 470.0 9.0 341.0 
338.00010179366996 17408.0 2073.0 1309.3732354601898 0.6864155727850578 470.0 10.0 340.0 
340.00010179366996 17417.0 2074.0 1309.341614906835 0.67818643602493 472.0 9.0 341.0 
342.00010179366996 17391.0 2072.0 1306.6448334274396 0.6682476641866815 471.0 9.0 340.0 
344.00010179366996 17404.0 2073.0 1309.3687182382823 0.6888497232096882 470.0 10.0 340.0 
346.00010179366996 17403.0 2072.0 1301.5968379446597 0.6737491111891504 470.0 9.0 338.0 
348.00010179366996 17411.0 2072.0 1301.5968379446597 0.6742195569257109 467.0 9.0 338.0 
350.00010179366996 17449.0 2074.0 1306.805194805191 0.6908468758409709 468.0 10.0 339.0 
352.00010179366996 17433.0 2072.0 1304.1693958215658 0.6801835525788635 470.0 9.0 339.0 
354.00010179366996 17425.0 2072.0 1298.9429700734058 0.6748990752676642 470.0 9.0 337.0 
356.00010179366996 17347.0 2072.0 1298.9949181253517 0.6901266755899242 469.0 10.0 336.0 
358.00010179366996 17233.0 2070.0 1298.92941840768 0.6798092627953779 469.0 9.0 337.0 
360.00010179366996 17195.0 2069.0 1298.8639186900025 0.6663267798190297 468.0 9.0 337.0 
362.00010179366996 17159.0 2068.0 1298.9113495200415 0.6852089517891061 466.0 10.0 336.0 
364.00010179366996 17171.0 2070.0 1291.1033314511567 0.6754978559139704 468.0 9.0 334.0 
366.00010179366996 17171.0 2071.0 1288.4856013551646 0.6642304150996249 469.0 9.0 333.0 
368.00010179366996 17128.0 2071.0 1283.2840203274995 0.6798860851934193 467.0 10.0 330.0 
370.00010179366996 17179.0 2073.0 1288.499153020896 0.6733683886934954 467.0 10.0 332.0 
372.00010179366996 17161.0 2074.0 1291.0988142292497 0.6709361776945298 469.0 9.0 334.0 
374.00010179366996 17072.0 2072.0 1288.4743083003975 0.6825126830501528 467.0 11.0 331.0 
376.00010179366996 17043.0 2071.0 1288.553359683791 0.6704462114898698 471.0 9.0 333.0 
378.00010179366996 17097.0 2072.0 1285.9040090344404 0.6605560519125796 471.0 9.0 332.0 
380.00010179366996 17126.0 2074.0 1283.326933935627 0.6884028446319751 469.0 10.0 330.0 
382.00010179366996 17059.0 2072.0 1278.0801806888755 0.6667358281098844 471.0 9.0 329.0 
384.00010179366996 17041.0 2071.0 1275.4985883681552 0.6575227283301385 471.0 9.0 328.0 
386.00010179366996 17044.0 2072.0 1275.5595708639153 0.6738178784936916 469.0 10.0 327.0 
388.00010179366996 17081.0 2073.0 1275.5415019762827 0.6770167339850466 469.0 9.0 328.0 
390.00010179366996 17000.0 2071.0 1278.0598531902842 0.6696910154192832 469.0 9.0 329.0 
392.00010179366996 16938.0 2072.0 1283.320158102771 0.6864610654468227 473.0 10.0 330.0 
394.00010179366996 16844.0 2070.0 1285.9017504234919 0.6826425088676107 476.0 9.0 332.0 
396.00010179366996 16741.0 2069.0 1285.955957086396 0.6725482314152554 476.0 9.0 332.0 
398.00010179366996 16721.0 2067.0 1285.9333709768464 0.6854385197710173 474.0 10.0 331.0 
400.00010179366996 16808.0 2069.0 1280.679841897229 0.6796500758995548 474.0 9.0 330.0 
402.00010179366996 16749.0 2067.0 1283.234330886502 0.6652197075643842 476.0 8.0 332.0 
404.00010179366996 16793.0 2069.0 1285.8859401468112 0.6885134927519316 477.0 10.0 331.0 
406.00010179366996 16789.0 2068.0 1291.15979672501 0.6726020647364901 479.0 9.0 334.0 
408.00010179366996 16754.0 2067.0 1293.696216826654 0.6567035906917842 485.0 7.0 337.0 
410.00010179366996 16779.0 2070.0 1301.4771315640912 0.6897729543858203 481.0 11.0 336.0 
412.00010179366996 16690.0 2067.0 1298.9136081309998 0.6732622479956858 484.0 9.0 337.0 
414.00010179366996 16800.0 2070.0 1293.6804065499703 0.6554018545315962 489.0 8.0 336.0 
416.00010179366996 16753.0 2069.0 1285.9401468097155 0.6799972295003177 482.0 14.0 327.0 
418.00010179366996 16703.0 2067.0 1278.068887634102 0.6598374870083207 484.0 11.0 327.0 
420.00010179366996 16714.0 2068.0 1272.9440993788783 0.6536773375745989 488.0 8.0 328.0 
422.00010179366996 16742.0 2069.0 1272.907961603617 0.6777260716105341 479.0 14.0 322.0 
424.00010179366996 16776.0 2070.0 1272.8808582721592 0.6656102921838757 478.0 11.0 325.0 
426.00010179366996 16766.0 2069.0 1270.2586109542585 0.6527403866410496 480.0 8.0 327.0 
428.00010179366996 16770.0 2068.0 1267.706380575944 0.6736237014312182 476.0 14.0 320.0 
430.00010179366996 16833.0 2070.0 1265.0547713156452 0.6663385416629627 480.0 11.0 322.0 
432.00010179366996 16892.0 2072.0 1280.6821005081874 0.6656854093345749 484.0 8.0 331.0 
434.00010179366996 16895.0 2070.0 1285.879164313945 0.680171048835778 481.0 14.0 327.0 
436.00010179366996 16941.0 2070.0 1283.3043478260906 0.6664821639003344 482.0 12.0 328.0 
438.00010179366996 17011.0 2072.0 1285.9220779220727 0.6542220286529671 481.0 8.0 333.0 
440.00010179366996 16979.0 2072.0 1288.5194805194776 0.6858144849909693 476.0 14.0 328.0 
442.00010179366996 16938.0 2073.0 1291.0942970073422 0.6785638628188589 477.0 13.0 330.0 
444.00010179366996 16898.0 2070.0 1296.3410502540937 0.6604512222927815 481.0 9.0 336.0 
446.00010179366996 16910.0 2070.0 1298.8706945228719 0.6717904679998215 486.0 14.0 332.0 
448.00010179366996 16973.0 2072.0 1298.832298136648 0.6749012608577499 488.0 12.0 334.0 
450.00010179366996 16937.0 2071.0 1301.4568040655 0.6574110446014967 492.0 8.0 339.0 
452.00010179366996 16915.0 2070.0 1293.6352343308838 0.677838036303512 485.0 14.0 330.0 
454.00010179366996 16917.0 2070.0 1296.313946922646 0.6683793718290023 488.0 11.0 334.0 
456.00010179366996 16868.0 2070.0 1298.9271597967215 0.6637655956760066 491.0 8.0 338.0 
458.00010179366996 16832.0 2068.0 1296.2190852625629 0.66965582120036 479.0 15.0 330.0 
460.00010179366996 16830.0 2068.0 1298.8481084133223 0.6694919034995417 481.0 13.0 333.0 
462.00010179366996 16839.0 2069.0 1298.7893845285105 0.653716322946514 484.0 10.0 336.0 
464.00010179366996 16756.0 2069.0 1298.8345567475967 0.6763121202329219 481.0 15.0 331.0 
466.00010179366996 16688.0 2066.0 1296.2168266516144 0.6692875548645983 482.0 13.0 332.0 
468.00010179366996 16701.0 2069.0 1293.6149068323023 0.6543911065315069 485.0 10.0 334.0 
470.00010179366996 16769.0 2069.0 1293.6081309994365 0.6642190650741759 476.0 15.0 329.0 
472.00010179366996 16916.0 2071.0 1288.472049689439 0.6770324643469139 478.0 12.0 330.0 
474.00010179366996 16984.0 2074.0 1285.8385093167728 0.6596768554150143 480.0 9.0 332.0 
476.00010179366996 16920.0 2071.0 1285.8475437605907 0.6885004792182089 474.0 15.0 326.0 
478.00010179366996 16893.0 2072.0 1285.8068887634083 0.6763621267995271 476.0 12.0 329.0 
480.00010179366996 16891.0 2071.0 1285.8249576510407 0.6753938730641489 479.0 9.0 332.0 
482.00010179366996 16850.0 2070.0 1278.1072840203224 0.6655537300163903 471.0 15.0 323.0 
484.00010179366996 16869.0 2073.0 1267.7515527950313 0.6786060119286318 472.0 12.0 322.0 
486.00010179366996 16863.0 2073.0 1262.4980237154123 0.6653282707242779 473.0 9.0 323.0 
488.00010179366996 16825.0 2069.0 1262.4686617730065 0.6577364093069437 465.0 15.0 317.0 
490.00010179366996 16856.0 2069.0 1262.482213438741 0.664881405382536 469.0 12.0 320.0 
492.00010179366996 16865.0 2070.0 1262.538678712593 0.6574907493963422 471.0 9.0 323.0 
494.00010179366996 16930.0 2071.0 1262.507058159227 0.6527563177885151 461.0 15.0 317.0 
496.00010179366996 16963.0 2072.0 1259.900621118008 0.6814898187709442 465.0 12.0 319.0 
498.00010179366996 16963.0 2072.0 1259.8938452851532 0.6523016403332625 466.0 9.0 322.0 
500.00010179366996 16960.0 2071.0 1257.334839073969 0.6861661425874265 460.0 15.0 315.0 
502.00010179366996 17023.0 2072.0 1265.1270468661803 0.6701496209482444 465.0 12.0 321.0 
504.00010179366996 17024.0 2072.0 1262.5228684359088 0.6810798690163365 467.0 9.0 323.0 
506.00010179366996 17025.0 2071.0 1270.3286278938444 0.662933443848653 461.0 15.0 320.0 
508.00010179366996 17037.0 2072.0 1267.722190852625 0.6950935925899646 468.0 12.0 322.0 
510.00010179366996 17045.0 2073.0 1265.0999435347221 0.650629187846036 466.0 9.0 324.0 
512.00010179367 17082.0 2074.0 1257.375494071149 0.6866691286230765 461.0 15.0 315.0 
514.00010179367 17076.0 2074.0 1257.328063241102 0.6724330744287339 462.0 12.0 318.0 
516.00010179367 16996.0 2072.0 1252.1309994353453 0.6753623273713334 462.0 9.0 319.0 
518.00010179367 16956.0 2070.0 1252.0903444381652 0.6563137237400664 457.0 15.0 313.0 
520.00010179367 16923.0 2070.0 1244.3320158102792 0.6718444458081958 460.0 12.0 313.0 
522.00010179367 16958.0 2071.0 1246.9339356295907 0.6505340324009584 459.0 9.0 317.0 
524.00010179367 16966.0 2075.0 1246.9813664596259 0.6829476872837719 453.0 15.0 311.0 
526.00010179367 16899.0 2074.0 1246.9858836815333 0.6683892099324789 454.0 13.0 313.0 
528.00010179367 16830.0 2069.0 1246.9881422924934 0.6583585562762136 458.0 10.0 316.0 
530.00010179367 16825.0 2069.0 1244.345567476001 0.6536687742947798 453.0 15.0 310.0 
532.00010179367 16850.0 2071.0 1234.0417843026553 0.6543362719231895 454.0 13.0 308.0 
534.00010179367 16868.0 2072.0 1233.9762845849757 0.6549896897644483 457.0 10.0 311.0 
536.00010179367 16878.0 2073.0 1234.0350084697875 0.6635450614363977 450.0 15.0 306.0 
538.00010179367 16882.0 2072.0 1241.818181818185 0.6533496422153334 456.0 12.0 312.0 
540.00010179367 16926.0 2073.0 1241.7639751552806 0.663291975273043 459.0 9.0 315.0 
542.00010179367 17003.0 2074.0 1244.3862224731818 0.6628126437722972 452.0 16.0 309.0 
544.00010179367 17018.0 2073.0 1247.0242800677559 0.6842504300398258 452.0 13.0 313.0 
546.00010179367 17009.0 2072.0 1246.9610389610345 0.6669658151989425 455.0 10.0 316.0 
548.00010179367 16964.0 2070.0 1249.5516657255848 0.6779573406566557 452.0 16.0 311.0 
550.00010179367 16944.0 2071.0 1246.9407114624455 0.6655765651292264 454.0 13.0 313.0 
552.00010179367 16964.0 2071.0 1246.888763410501 0.6815756621388619 458.0 10.0 316.0 
554.00010179367 16926.0 2071.0 1249.4974590626803 0.6635657733374705 453.0 16.0 311.0 
556.00010179367 16941.0 2072.0 1241.7233201580996 0.6703469561861594 455.0 13.0 311.0 
558.00010179367 16974.0 2074.0 1239.125917560695 0.6594615839884667 453.0 10.0 313.0 
560.00010179367 16969.0 2074.0 1233.9762845849755 0.6729696879230016 441.0 16.0 305.0 
562.00010179367 16949.0 2075.0 1239.1101072840252 0.6711133583664474 443.0 14.0 309.0 
564.00010179367 17029.0 2076.0 1241.74590626765 0.6739837745045657 452.0 10.0 314.0 
566.00010179367 17047.0 2075.0 1244.3365330321865 0.6583978373133313 449.0 13.0 312.0 
568.00010179367 17021.0 2074.0 1249.5471485036642 0.679088831824795 453.0 12.0 315.0 
570.00010179367 17052.0 2074.0 1252.0835686053106 0.6567540114069846 460.0 11.0 317.0 
572.00010179367 17108.0 2075.0 1257.3890457368736 0.6691486516050421 458.0 14.0 316.0 
574.00010179367 17201.0 2077.0 1259.950310559003 0.6636235891900351 457.0 13.0 318.0 
576.00010179367 17181.0 2076.0 1259.9774138904618 0.6868041035755896 458.0 12.0 319.0 
578.00010179367 17174.0 2077.0 1257.3709768492427 0.6570517759204432 456.0 14.0 316.0 
580.00010179367 17218.0 2080.0 1259.9751552795012 0.6898072450049322 458.0 12.0 319.0 
582.00010179367 17267.0 2079.0 1262.507058159227 0.6815762024656266 461.0 12.0 320.0 
584.00010179367 17379.0 2084.0 1267.8260869565247 0.6963981837614646 462.0 13.0 321.0 
586.00010179367 17317.0 2080.0 1265.158667419534 0.6953597169511839 465.0 12.0 321.0 
588.00010179367 17194.0 2074.0 1265.1473743647593 0.6918988112667306 467.0 11.0 322.0 
590.00010179367 17174.0 2075.0 1270.3263692828968 0.6633566309707332 464.0 13.0 322.0 
592.00010179367 17136.0 2075.0 1275.5527950310595 0.6889726053356254 467.0 12.0 325.0 
594.00010179367 17179.0 2076.0 1275.5437605872426 0.6730629841582614 470.0 12.0 325.0 
596.00010179367 17187.0 2077.0 1280.7521174477733 0.6801166507253413 469.0 13.0 326.0 
598.00010179367 17166.0 2075.0 1283.2862789384471 0.679528616234309 470.0 12.0 328.0 
600.00010179367 17240.0 2081.0 1285.9649915302116 0.701666240079519 468.0 11.0 330.0 
602.00010179367 17240.0 2077.0 1283.4353472614362 0.6712252595557885 468.0 13.0 327.0 
604.00010179367 17155.0 2076.0 1286.01016374929 0.6879887121690408 471.0 12.0 329.0 
606.00010179367 17112.0 2075.0 1288.5759457933407 0.6760961993273136 472.0 11.0 331.0 
608.00010179367 17091.0 2076.0 1291.2049689440962 0.6757293167843803 471.0 13.0 330.0 
610.00010179367 17107.0 2077.0 1296.3320158102792 0.685481003983443 472.0 12.0 333.0 
612.00010179367 17075.0 2077.0 1296.3997741389057 0.6920056137213421 473.0 12.0 333.0 
614.00010179367 17020.0 2075.0 1298.9768492377189 0.6679293244604061 472.0 13.0 333.0 
616.00010179367 17118.0 2077.0 1301.6284584980278 0.686223652898972 471.0 13.0 334.0 
618.00010179367 17209.0 2081.0 1301.5832862789377 0.6847642030634603 468.0 16.0 331.0 
620.00010179367 17173.0 2081.0 1304.2077922077892 0.6940484260173196 473.0 13.0 335.0 
622.00010179367 17096.0 2077.0 1304.1400338791625 0.6829309792423823 472.0 12.0 336.0 
624.00010179367 17087.0 2077.0 1309.4093732354618 0.6898864875310036 472.0 12.0 338.0 
626.00010179367 17121.0 2078.0 1309.4161490683205 0.6772825033046553 470.0 13.0 337.0 
628.00010179367 17222.0 2082.0 1312.0180688876324 0.7000147796404071 471.0 12.0 339.0 
630.00010179367 17239.0 2081.0 1311.948051948055 0.6925246916572476 474.0 12.0 339.0 
632.00010179367 17220.0 2076.0 1314.565782044039 0.7020533793442566 471.0 16.0 336.0 
634.00010179367 17183.0 2077.0 1314.493506493503 0.692338412813528 468.0 21.0 331.0 
636.00010179367 17218.0 2076.0 1314.5544889892747 0.6908027123375293 471.0 21.0 331.0 
638.00010179367 17229.0 2075.0 1311.9232072275593 0.6684229785549819 470.0 21.0 330.0 
640.00010179367 17249.0 2075.0 1304.1626199887107 0.6941873325349669 470.0 20.0 328.0 
642.00010179367 17249.0 2074.0 1301.5855448898976 0.6711086246689275 469.0 18.0 329.0 
644.00010179367 17277.0 2074.0 1301.5923207227524 0.6758070980612926 465.0 20.0 327.0 
646.00010179367 17299.0 2075.0 1304.178430265383 0.6776038307840695 464.0 19.0 329.0 
648.00010179367 17320.0 2076.0 1306.8074534161528 0.6903829386180663 465.0 18.0 331.0 
650.00010179367 17354.0 2076.0 1304.1829474872898 0.6714231963522053 463.0 19.0 329.0 
652.00010179367 17333.0 2077.0 1312.0180688876314 0.6940652266691156 466.0 17.0 334.0 
654.00010179367 17305.0 2077.0 1311.9887069452254 0.674053120811064 464.0 18.0 333.0 
656.00010179367 17330.0 2077.0 1312.0451722190876 0.6817436192615813 465.0 15.0 336.0 
658.00010179367 17326.0 2078.0 1311.984189723316 0.6828845861658086 467.0 12.0 339.0 
660.00010179367 17274.0 2078.0 1319.846414455116 0.694780927303679 467.0 12.0 342.0 
662.00010179367 17253.0 2076.0 1317.2106154714909 0.6647892888764048 461.0 15.0 338.0 
664.00010179367 17321.0 2077.0 1314.5499717673672 0.6929119505871443 467.0 12.0 340.0 
#####################################################################
# End of data export. Simulation finished at: 2019-03-12T20:21+0000 #
#####################################################################
