#####################################################################
# Alchemist log file - simulation started at: 2019-03-09T18:45+0000 #
#####################################################################
# seed = 3.0, bandwidth = 5623413.251903491, accessPointCount = 72.92664737217109, baserange = 56.234132519034915
#
# The columns have the following meaning: 
# time neighbor_count[Sum] <value>@neighbor_count[Sum] packet_size[Mean] mean_delay[Mean] crowd[Sum] overcrowded[Sum] risk[Sum] 
0.0 NaN NaN NaN NaN NaN NaN NaN 
2.000510814717038 56.0 26.0 4987.349904397705 0.5045096536010679 1497.0 0.0 1497.0 
4.000510814717038 66.0 26.0 4987.816443594646 0.5111071596004001 1497.0 0.0 1497.0 
6.000084666035003 99.0 26.0 4987.44678138942 0.49050479663873064 1497.0 0.0 1497.0 
8.000510814717037 108.0 26.0 4987.625239005736 0.4949623350315961 1497.0 0.0 1497.0 
10.00033353340315 113.0 26.0 4987.365200764818 0.49465330480167774 1497.0 0.0 1497.0 
12.000510814717037 114.0 26.0 4987.581899298916 0.4963413308893523 1497.0 0.0 1497.0 
14.000510814717037 114.0 26.0 4987.344805608668 0.4963447597768303 1497.0 0.0 1497.0 
16.000084666035004 114.0 26.0 4987.495219885277 0.49634282646793304 1497.0 0.0 1497.0 
18.00051081471704 114.0 26.0 4987.329509241556 0.49634574467004183 1497.0 0.0 1497.0 
20.00033353340315 114.0 26.0 4987.528362014022 0.49634284470669615 1497.0 0.0 1497.0 
22.00051081471704 114.0 26.0 4987.337157425111 0.49634565347622595 1497.0 0.0 1497.0 
24.00051081471704 114.0 26.0 4987.507966857871 0.49634310004938065 1497.0 0.0 1497.0 
26.000084666035004 114.0 26.0 4987.334608030593 0.49634565347622595 1497.0 0.0 1497.0 
28.00051081471704 114.0 26.0 4987.53091140854 0.4963428082291698 1497.0 0.0 1497.0 
30.00033353340315 114.0 26.0 4987.293817718292 0.49634572643127867 1497.0 0.0 1497.0 
32.00051081471704 114.0 26.0 4987.53091140854 0.49634284470669615 1497.0 0.0 1497.0 
34.00051081471704 114.0 26.0 4987.332058636074 0.4963456717149892 1497.0 0.0 1497.0 
36.00008466603501 114.0 26.0 4987.533460803059 0.49634282646793265 1497.0 0.0 1497.0 
38.00051081471704 114.0 26.0 4987.3116634799235 0.49634592705767383 1497.0 0.0 1497.0 
40.00033353340315 114.0 26.0 4987.53091140854 0.49634282646793265 1497.0 0.0 1497.0 
42.00051081471704 114.0 26.0 4987.334608030593 0.4963456352374629 1497.0 0.0 1497.0 
44.00051081471704 114.0 26.0 4987.49012109624 0.4963428994229855 1497.0 0.0 1497.0 
46.00008466603501 114.0 26.0 4987.334608030593 0.4963456717149892 1497.0 0.0 1497.0 
48.00051081471704 114.0 26.0 4987.528362014022 0.4963428447066958 1497.0 0.0 1497.0 
50.00033353340315 114.0 26.0 4987.337157425111 0.49634565347622606 1497.0 0.0 1497.0 
52.00051081471704 114.0 26.0 4987.507966857871 0.4963431000493804 1497.0 0.0 1497.0 
54.00051081471704 114.0 26.0 4987.334608030593 0.49634565347622606 1497.0 0.0 1497.0 
56.00008466603501 114.0 26.0 4987.53091140854 0.49634280822916954 1497.0 0.0 1497.0 
58.00051081471704 114.0 26.0 4987.293817718292 0.4963457264312789 1497.0 0.0 1497.0 
60.00033353340315 114.0 26.0 4987.53091140854 0.4963428447066958 1497.0 0.0 1497.0 
62.00059236981081 114.0 26.0 432.23964308476724 0.4973864278264864 25.0 0.0 11.0 
64.00059236981082 114.0 26.0 432.23964308476724 0.497428294299407 16.0 0.0 11.0 
66.00008466603501 114.0 26.0 432.23964308476724 0.49742829429940844 15.0 0.0 11.0 
68.00059236981082 114.0 26.0 432.23964308476724 0.49742829429940844 13.0 0.0 11.0 
70.00033353340315 114.0 26.0 432.23964308476724 0.49742829429940844 12.0 0.0 11.0 
72.00059236981082 114.0 26.0 432.23964308476724 0.49742829429940844 12.0 0.0 11.0 
74.00059236981082 114.0 26.0 432.23964308476724 0.49742829429940844 12.0 0.0 11.0 
76.00008466603501 114.0 26.0 432.23964308476724 0.49742829429940844 12.0 0.0 11.0 
78.00059236981082 114.0 26.0 432.23964308476724 0.49742829429940844 12.0 0.0 11.0 
80.00033353340315 114.0 26.0 432.23964308476724 0.49742829429940844 12.0 0.0 11.0 
82.00059236981082 114.0 26.0 432.23964308476724 0.49742829429940844 12.0 0.0 11.0 
84.00059236981082 114.0 26.0 432.23964308476724 0.49742829429940844 12.0 0.0 11.0 
86.00008466603501 114.0 26.0 432.23964308476724 0.49742829429940844 12.0 0.0 11.0 
88.00059236981082 114.0 26.0 432.23964308476724 0.49742829429940844 12.0 0.0 11.0 
90.00033353340315 114.0 26.0 432.23964308476724 0.49742829429940844 12.0 0.0 11.0 
92.00059236981082 114.0 26.0 432.23964308476724 0.49742829429940844 12.0 0.0 11.0 
94.00059236981082 114.0 26.0 432.23964308476724 0.49742829429940844 12.0 0.0 11.0 
96.00008466603501 114.0 26.0 432.23964308476724 0.49742829429940844 12.0 0.0 11.0 
98.00059236981082 114.0 26.0 432.23964308476724 0.49742829429940844 12.0 0.0 11.0 
100.00033353340315 114.0 26.0 432.23964308476724 0.49742829429940844 12.0 0.0 11.0 
102.00059236981082 114.0 26.0 432.23964308476724 0.49742829429940844 12.0 0.0 11.0 
104.00059236981082 117.0 26.0 432.23964308476724 0.49359160882362463 12.0 0.0 11.0 
106.00008466603501 120.0 27.0 432.23964308476724 0.4974819172654632 12.0 0.0 11.0 
108.00059236981082 120.0 27.0 432.23964308476724 0.4974819172654632 12.0 0.0 11.0 
110.00033353340315 120.0 27.0 432.23964308476724 0.4974819172654632 12.0 0.0 11.0 
112.00059236981082 120.0 27.0 432.23964308476724 0.4974819172654632 12.0 0.0 11.0 
114.00059236981082 120.0 27.0 432.23964308476724 0.4974819172654632 12.0 0.0 11.0 
116.00008466603501 120.0 27.0 432.23964308476724 0.4974819172654632 12.0 0.0 11.0 
118.00059236981082 120.0 27.0 432.23964308476724 0.4974819172654632 12.0 0.0 11.0 
120.00033353340315 120.0 27.0 432.23964308476724 0.4974819172654632 12.0 0.0 11.0 
122.00059236981082 120.0 27.0 432.23964308476724 0.4974819172654632 12.0 0.0 11.0 
124.00059236981082 120.0 27.0 432.23964308476724 0.4974819172654632 12.0 0.0 11.0 
126.00008466603501 120.0 27.0 432.23964308476724 0.4974819172654632 12.0 0.0 11.0 
128.00059236981082 120.0 27.0 432.23964308476724 0.4974819172654632 12.0 0.0 11.0 
130.00033353340314 120.0 27.0 432.23964308476724 0.49748191726545915 12.0 0.0 11.0 
132.00059236981082 130.0 29.0 441.05289993626525 0.49750800693805364 15.0 0.0 14.0 
134.00059236981082 130.0 29.0 441.05289993626525 0.4974122279819224 16.0 0.0 14.0 
136.000084666035 130.0 29.0 441.03250478011483 0.4974127573302125 16.0 0.0 14.0 
138.00059236981082 130.0 29.0 441.0274059910771 0.49741293929368746 16.0 0.0 14.0 
140.00033353340314 130.0 29.0 441.0274059910771 0.49741297237795573 16.0 0.0 14.0 
142.00059236981082 130.0 29.0 441.0274059910771 0.6253482403068956 16.0 0.0 14.0 
144.00059236981082 129.0 28.0 443.9719566602933 0.4922095263396255 17.0 0.0 15.0 
146.000084666035 134.0 28.0 443.9566602931803 0.49955360318694664 17.0 0.0 15.0 
148.00059236981082 134.0 28.0 443.95156150414294 0.4995538609445194 17.0 0.0 15.0 
150.00033353340314 136.0 29.0 443.95156150414294 0.48759512263007787 18.0 0.0 15.0 
152.00059236981082 144.0 29.0 449.81516889738685 0.5002914912787081 18.0 0.0 17.0 
154.00059236981082 144.0 29.0 449.853409815169 0.5295195187184519 18.0 0.0 17.0 
156.000084666035 135.0 28.0 449.80752071383046 0.5859334670335316 18.0 0.0 17.0 
158.00059236981082 130.0 28.0 449.83301465901854 0.498395608254281 18.0 0.0 17.0 
160.00033353340314 131.0 28.0 449.80752071383046 0.4967845824368646 18.0 0.0 17.0 
162.00059236981082 134.0 28.0 449.8304652644996 0.49731087695172016 18.0 0.0 17.0 
164.00059236981082 134.0 28.0 449.8100701083492 0.49731180967063066 18.0 0.0 17.0 
166.000084666035 134.0 28.0 449.8049713193116 0.4973121731749002 18.0 0.0 17.0 
168.00059236981082 134.0 28.0 449.8049713193116 0.4973121731749002 18.0 0.0 17.0 
170.00033353340314 134.0 28.0 449.8100701083492 0.49731213847676536 18.0 0.0 17.0 
172.00059236981082 136.0 28.0 449.7998725302742 0.4974549945913783 18.0 0.0 17.0 
174.00059236981082 136.0 28.0 449.7998725302742 0.49745513834079386 18.0 0.0 17.0 
176.000084666035 136.0 28.0 449.7998725302742 0.49745513834079386 18.0 0.0 17.0 
178.00059236981082 136.0 28.0 449.7998725302742 0.49745513834079386 18.0 0.0 17.0 
180.00033353340314 136.0 28.0 449.8049713193116 0.4974551036426591 18.0 0.0 17.0 
182.00059236981082 136.0 28.0 449.7998725302742 0.49745513834079386 18.0 0.0 17.0 
184.00059236981082 136.0 28.0 449.7998725302742 0.49745513834079386 18.0 0.0 17.0 
186.000084666035 136.0 28.0 449.7998725302742 0.49745513834079386 18.0 0.0 17.0 
188.00059236981082 136.0 28.0 449.7998725302742 0.49745513834079386 18.0 0.0 17.0 
190.00033353340314 136.0 28.0 449.8049713193116 0.4974551036426591 18.0 0.0 17.0 
192.00059236981082 136.0 28.0 449.7998725302742 0.49745513834079386 18.0 0.0 17.0 
194.00059236981082 136.0 28.0 449.7998725302742 0.49745513834079386 18.0 0.0 17.0 
196.000084666035 136.0 28.0 449.7998725302742 0.49745513834079386 18.0 0.0 17.0 
198.00059236981082 136.0 28.0 449.7998725302742 0.49745513834079386 18.0 0.0 17.0 
200.00033353340314 136.0 28.0 446.8808158062461 0.4974551036426591 17.0 0.0 16.0 
202.00059236981082 136.0 28.0 446.8757170172084 0.49745513834079386 17.0 0.0 16.0 
204.00059236981082 136.0 28.0 441.0197578075208 0.49757469076435046 17.0 0.0 14.0 
206.000084666035 136.0 28.0 441.0197578075208 0.49757469076435046 15.0 0.0 14.0 
208.00059236981082 136.0 28.0 441.0197578075208 0.49757469076435046 14.0 0.0 14.0 
210.00033353340314 136.0 28.0 441.0248565965584 0.49757465606621565 14.0 0.0 14.0 
212.00059236981082 136.0 28.0 441.0197578075208 0.49757469076435046 14.0 0.0 14.0 
214.00059236981082 136.0 28.0 438.0956022944552 0.49757469076435046 13.0 0.0 13.0 
216.000084666035 136.0 28.0 438.0956022944552 0.49757469076435046 13.0 0.0 13.0 
218.00059236981082 136.0 28.0 438.0956022944552 0.49757469076435046 13.0 0.0 13.0 
220.00033353340314 136.0 28.0 438.10070108349254 0.49757465606621565 13.0 0.0 13.0 
222.00059236981082 136.0 28.0 438.0956022944552 0.49757469076435046 13.0 0.0 13.0 
224.00059236981082 140.0 29.0 438.0956022944552 0.49994080143157404 13.0 0.0 13.0 
226.000084666035 140.0 29.0 438.0956022944552 0.49994080143157404 13.0 0.0 13.0 
228.00059236981082 140.0 29.0 438.0956022944552 0.49994080143157404 13.0 0.0 13.0 
230.00033353340314 140.0 29.0 438.10070108349254 0.49994076755958533 13.0 0.0 13.0 
232.00059236981082 140.0 29.0 438.0956022944552 0.49994080143157404 13.0 0.0 13.0 
234.00059236981082 140.0 29.0 438.0956022944552 0.5555003087191526 13.0 0.0 13.0 
236.000084666035 136.0 28.0 438.0956022944552 0.49757469076435046 13.0 0.0 13.0 
238.00059236981082 136.0 28.0 438.0956022944552 0.49757469076435046 13.0 0.0 13.0 
240.00033353340314 136.0 28.0 438.10070108349254 0.49757465606621565 13.0 0.0 13.0 
242.00059236981082 136.0 28.0 438.0956022944552 0.49757469076435046 13.0 0.0 13.0 
244.00059236981082 136.0 28.0 441.03505417463344 0.49757469076435046 14.0 0.0 14.0 
246.000084666035 136.0 28.0 443.9770554493307 0.49745489545384974 16.0 0.0 15.0 
248.00059236981082 136.0 28.0 443.96940726577435 0.4974544964252991 16.0 0.0 15.0 
250.00033353340314 136.0 28.0 443.9821542383682 0.49745489545384985 16.0 0.0 15.0 
252.00059236981082 136.0 28.0 443.96940726577435 0.5116821387017219 16.0 0.0 15.0 
254.00059236981082 134.0 28.0 443.9770554493307 0.49673636739835786 16.0 0.0 15.0 
256.00008466603504 134.0 28.0 443.96940726577435 0.4967359336716723 16.0 0.0 15.0 
258.0005923698108 134.0 28.0 443.9770554493307 0.4967363673983552 16.0 0.0 15.0 
260.00033353340314 134.0 28.0 443.9745060548119 0.49673589897353515 16.0 0.0 15.0 
262.0005923698108 134.0 28.0 443.9821542383682 0.4967358964950949 16.0 0.0 15.0 
264.0005923698108 134.0 28.0 443.9745060548119 0.4967356808709725 16.0 0.0 15.0 
266.00008466603504 134.0 28.0 443.9821542383682 0.4967361145976576 16.0 0.0 15.0 
268.0005923698108 134.0 28.0 443.97195666029324 0.4967357155691076 16.0 0.0 15.0 
270.00033353340314 134.0 28.0 443.96685787125574 0.49673620134299423 16.0 0.0 15.0 
272.0005923698108 134.0 28.0 443.9898024219247 0.5106726582530389 16.0 0.0 15.0 
274.0005923698108 132.0 28.0 443.9898024219247 0.49655407695531834 16.0 0.0 15.0 
276.00008466603504 132.0 28.0 443.9745060548119 0.49655463212547507 16.0 0.0 15.0 
278.0005923698108 132.0 28.0 443.9872530274059 0.49655407695531834 16.0 0.0 15.0 
280.00033353340314 132.0 28.0 443.9770554493307 0.5077411361782899 16.0 0.0 15.0 
282.0005923698108 129.0 27.0 441.03505417463344 0.5835778532244046 16.0 0.0 14.0 
284.0005923698108 129.0 28.0 443.97960484384953 0.49220838361438196 17.0 0.0 15.0 
286.00008466603504 134.0 28.0 443.9719566602932 0.49955275952657796 17.0 0.0 15.0 
288.0005923698108 134.0 28.0 443.9566602931803 0.499553573445683 17.0 0.0 15.0 
290.00033353340314 134.0 28.0 443.9566602931803 0.49955367754008767 17.0 0.0 15.0 
292.0005923698108 134.0 28.0 443.9566602931803 0.49955367754008767 17.0 0.0 15.0 
294.0005923698108 134.0 28.0 443.9719566602932 0.499553390041256 17.0 0.0 15.0 
296.00008466603504 134.0 28.0 443.9566602931803 0.49955318581794894 17.0 0.0 15.0 
298.0005923698108 134.0 28.0 443.951561504143 0.49955393034078527 17.0 0.0 15.0 
300.00033353340314 134.0 28.0 443.951561504143 0.49955393034078527 17.0 0.0 15.0 
302.0005923698108 134.0 28.0 443.951561504143 0.49955393034078527 17.0 0.0 15.0 
304.0005923698108 134.0 28.0 443.961759082218 0.49955371223822315 17.0 0.0 15.0 
306.00008466603504 134.0 28.0 443.9566602931803 0.49955364779883027 17.0 0.0 15.0 
308.0005923698108 134.0 28.0 443.951561504143 0.49955393034078527 17.0 0.0 15.0 
310.00033353340314 134.0 28.0 443.951561504143 0.49955393034078527 17.0 0.0 15.0 
312.0005923698108 134.0 28.0 443.951561504143 0.49955393034078527 17.0 0.0 15.0 
314.0005923698108 134.0 28.0 443.961759082218 0.49955371223822315 17.0 0.0 15.0 
316.00008466603504 134.0 28.0 443.9566602931803 0.49955364779883027 17.0 0.0 15.0 
318.0005923698108 134.0 28.0 443.951561504143 0.49955393034078527 17.0 0.0 15.0 
320.00033353340314 134.0 28.0 443.951561504143 0.49955393034078527 17.0 0.0 15.0 
322.0005923698108 134.0 28.0 443.951561504143 0.49955393034078527 17.0 0.0 15.0 
324.0005923698108 134.0 28.0 443.961759082218 0.49955371223822315 17.0 0.0 15.0 
326.00008466603504 134.0 28.0 443.9566602931803 0.49955364779883027 17.0 0.0 15.0 
328.0005923698108 134.0 28.0 443.951561504143 0.49955393034078527 17.0 0.0 15.0 
330.00033353340314 134.0 28.0 443.951561504143 0.49955393034078527 17.0 0.0 15.0 
332.0005923698108 134.0 28.0 443.951561504143 0.49955393034078527 17.0 0.0 15.0 
334.0005923698108 134.0 28.0 443.961759082218 0.49955371223822315 17.0 0.0 15.0 
336.00008466603504 134.0 28.0 443.961759082218 0.4995531511198137 17.0 0.0 15.0 
338.0005923698108 135.0 29.0 443.9566602931803 0.48896344299293504 17.0 0.0 15.0 
340.00033353340314 136.0 29.0 441.03250478011483 0.49957112829745975 16.0 0.0 14.0 
342.0005923698108 136.0 29.0 441.03250478011483 0.49957112829745975 16.0 0.0 14.0 
344.0005923698108 136.0 29.0 441.03760356915245 0.5228348336366084 16.0 0.0 14.0 
346.00008466603504 133.0 29.0 441.03250478011483 0.5509278980884852 16.0 0.0 14.0 
348.0005923698108 130.0 28.0 441.0299553855959 0.5234582878788255 16.0 0.0 14.0 
350.00033353340314 129.0 27.0 441.0248565965584 0.5592802774992351 16.0 0.0 14.0 
352.0005923698108 128.0 27.0 441.0248565965584 0.4996349366595286 16.0 0.0 14.0 
354.0005923698108 128.0 27.0 441.0299553855959 0.49963482488196526 16.0 0.0 14.0 
356.00008466603504 128.0 27.0 441.0248565965584 0.4996343157859745 16.0 0.0 14.0 
358.0005923698108 128.0 27.0 441.0248565965584 0.4996349366595286 16.0 0.0 14.0 
360.00033353340314 128.0 27.0 441.0248565965584 0.4996349366595286 16.0 0.0 14.0 
362.0005923698108 128.0 27.0 441.0248565965584 0.4996349366595286 16.0 0.0 14.0 
364.0005923698108 128.0 27.0 441.0299553855959 0.5032062534533939 16.0 0.0 14.0 
366.00008466603504 127.0 27.0 441.0248565965584 0.5082386086585496 16.0 0.0 14.0 
368.0005923698108 126.0 27.0 441.0248565965584 0.4992632401631948 16.0 0.0 14.0 
370.00033353340314 126.0 27.0 441.0248565965584 0.4992632401631948 16.0 0.0 14.0 
372.0005923698108 126.0 27.0 441.0248565965584 0.4992632401631948 16.0 0.0 14.0 
374.0005923698108 126.0 27.0 441.0299553855959 0.4992631283856314 16.0 0.0 14.0 
376.00008466603504 126.0 27.0 441.0248565965584 0.49926263283843636 16.0 0.0 14.0 
378.0005923698108 126.0 27.0 441.0248565965584 0.4992632401631948 16.0 0.0 14.0 
380.00033353340314 126.0 27.0 441.0248565965584 0.4992632401631948 16.0 0.0 14.0 
382.0005923698108 126.0 27.0 441.0248565965584 0.4992632401631948 16.0 0.0 14.0 
384.0005923698108 126.0 27.0 441.0299553855959 0.4992631283856314 16.0 0.0 14.0 
386.00008466603504 126.0 27.0 441.0248565965584 0.49926263283843636 16.0 0.0 14.0 
388.0005923698108 126.0 27.0 441.0248565965584 0.4992632401631948 16.0 0.0 14.0 
390.00033353340314 126.0 27.0 441.0248565965584 0.4992632401631948 16.0 0.0 14.0 
392.0005923698108 126.0 27.0 441.0248565965584 0.4992632401631948 16.0 0.0 14.0 
394.0005923698108 126.0 27.0 441.0299553855959 0.4992631283856314 16.0 0.0 14.0 
396.00008466603504 126.0 27.0 441.0248565965584 0.49926263283843636 16.0 0.0 14.0 
398.0005923698108 126.0 27.0 441.0248565965584 0.4992632401631948 16.0 0.0 14.0 
400.00033353340314 126.0 27.0 441.0248565965584 0.4992632401631948 16.0 0.0 14.0 
402.0005923698108 126.0 27.0 441.0248565965584 0.4992632401631948 16.0 0.0 14.0 
404.0005923698108 126.0 27.0 438.1057998725304 0.4992631283856314 15.0 0.0 13.0 
406.00008466603504 126.0 27.0 435.176545570427 0.49928302970326927 15.0 0.0 12.0 
408.0005923698108 126.0 27.0 435.176545570427 0.4993040338928605 15.0 0.0 12.0 
410.00033353340314 126.0 27.0 435.176545570427 0.4993040338928605 13.0 0.0 12.0 
412.0005923698108 126.0 27.0 435.176545570427 0.4993040338928605 13.0 0.0 12.0 
414.0005923698108 126.0 27.0 435.1816443594647 0.49930392211529717 13.0 0.0 12.0 
416.00008466603504 126.0 27.0 435.176545570427 0.4993034265681021 13.0 0.0 12.0 
418.0005923698108 126.0 27.0 435.176545570427 0.4993040338928605 13.0 0.0 12.0 
420.00033353340314 126.0 27.0 435.176545570427 0.4993040338928605 13.0 0.0 12.0 
422.0005923698108 126.0 27.0 435.176545570427 0.4993040338928605 13.0 0.0 12.0 
424.0005923698108 126.0 27.0 435.1816443594647 0.49930392211529717 13.0 0.0 12.0 
426.00008466603504 126.0 27.0 435.176545570427 0.4993034265681021 13.0 0.0 12.0 
428.0005923698108 126.0 27.0 435.176545570427 0.4993040338928605 13.0 0.0 12.0 
430.00033353340314 126.0 27.0 435.176545570427 0.4993040338928605 13.0 0.0 12.0 
432.0005923698108 126.0 27.0 435.176545570427 0.4993040338928605 13.0 0.0 12.0 
434.0005923698108 126.0 27.0 435.1816443594647 0.5034705887819638 13.0 0.0 12.0 
436.00008466603504 125.0 27.0 435.176545570427 0.5072106137427548 13.0 0.0 12.0 
438.0005923698108 124.0 27.0 435.176545570427 0.49999438252641765 13.0 0.0 12.0 
440.00033353340314 124.0 27.0 435.176545570427 0.49999438252641765 13.0 0.0 12.0 
442.0005923698108 124.0 27.0 435.176545570427 0.49999438252641765 13.0 0.0 12.0 
444.0005923698108 124.0 27.0 435.1816443594647 0.49999427074885433 13.0 0.0 12.0 
446.00008466603504 125.0 27.0 435.176545570427 0.49265970874024095 13.0 0.0 12.0 
448.0005923698108 126.0 28.0 435.176545570427 0.4999912628262829 13.0 0.0 12.0 
450.00033353340314 126.0 28.0 435.176545570427 0.4999912628262829 13.0 0.0 12.0 
452.0005923698108 126.0 28.0 435.176545570427 0.4999912628262829 13.0 0.0 12.0 
454.0005923698108 126.0 28.0 435.1816443594647 0.4999911563714607 13.0 0.0 12.0 
456.00008466603504 126.0 28.0 435.176545570427 0.4999906905509683 13.0 0.0 12.0 
458.0005923698108 126.0 28.0 435.176545570427 0.4999912628262829 13.0 0.0 12.0 
460.00033353340314 126.0 28.0 435.176545570427 0.4999912628262829 13.0 0.0 12.0 
462.0005923698108 126.0 28.0 435.176545570427 0.4999912628262829 13.0 0.0 12.0 
464.0005923698108 126.0 28.0 435.176545570427 0.4999912628262829 13.0 0.0 12.0 
466.00008466603504 126.0 28.0 435.176545570427 0.4999912628262829 13.0 0.0 12.0 
468.0005923698108 126.0 28.0 435.176545570427 0.4999912628262829 13.0 0.0 12.0 
470.00033353340314 126.0 28.0 435.176545570427 0.4999912628262829 13.0 0.0 12.0 
472.0005923698108 126.0 28.0 435.176545570427 0.4999912628262829 13.0 0.0 12.0 
474.0005923698108 126.0 28.0 435.176545570427 0.4999912628262829 13.0 0.0 12.0 
476.00008466603504 126.0 28.0 435.176545570427 0.4999912628262829 13.0 0.0 12.0 
478.0005923698108 128.0 29.0 435.176545570427 0.49998842673525135 13.0 0.0 12.0 
480.00033353340314 128.0 29.0 435.176545570427 0.49998842673525135 13.0 0.0 12.0 
482.0005923698108 128.0 29.0 435.176545570427 0.49998842673525135 13.0 0.0 12.0 
484.0005923698108 128.0 29.0 435.176545570427 0.49998842673525135 13.0 0.0 12.0 
486.00008466603504 128.0 29.0 435.176545570427 0.49998842673525135 13.0 0.0 12.0 
488.0005923698108 128.0 29.0 435.176545570427 0.49998842673525135 13.0 0.0 12.0 
490.00033353340314 128.0 29.0 435.176545570427 0.49998842673525135 13.0 0.0 12.0 
492.0005923698108 128.0 29.0 435.176545570427 0.49998842673525135 13.0 0.0 12.0 
494.0005923698108 128.0 29.0 435.176545570427 0.49998842673525135 13.0 0.0 12.0 
496.00008466603504 128.0 29.0 435.176545570427 0.49998842673525135 13.0 0.0 12.0 
498.0005923698108 128.0 29.0 435.176545570427 0.49998842673525135 13.0 0.0 12.0 
500.00033353340314 128.0 29.0 435.176545570427 0.49998842673525135 13.0 0.0 12.0 
502.0005923698108 128.0 29.0 435.176545570427 0.49998842673525135 13.0 0.0 12.0 
504.0005923698108 128.0 29.0 435.176545570427 0.49998842673525135 13.0 0.0 12.0 
506.00008466603504 128.0 29.0 435.176545570427 0.49998842673525135 13.0 0.0 12.0 
508.0005923698108 128.0 29.0 435.176545570427 0.5681702449170695 13.0 0.0 12.0 
510.00033353340314 126.0 28.0 435.176545570427 0.4999912628262829 13.0 0.0 12.0 
512.0005923698109 126.0 28.0 435.176545570427 0.4999912628262829 13.0 0.0 12.0 
514.0005923698109 126.0 28.0 435.176545570427 0.499991262826309 13.0 0.0 12.0 
516.000084666035 128.0 29.0 435.176545570427 0.49998842673527877 13.0 0.0 12.0 
518.0005923698109 128.0 29.0 435.176545570427 0.49998842673527877 13.0 0.0 12.0 
520.0003335334031 128.0 29.0 435.176545570427 0.49998842673527877 13.0 0.0 12.0 
522.0005923698109 128.0 29.0 435.176545570427 0.49998842673527877 13.0 0.0 12.0 
524.0005923698109 128.0 29.0 435.176545570427 0.49998842673527877 13.0 0.0 12.0 
526.000084666035 128.0 29.0 435.176545570427 0.5454429721898243 13.0 0.0 12.0 
528.0005923698109 126.0 28.0 435.176545570427 0.499991262826309 13.0 0.0 12.0 
530.0003335334031 126.0 28.0 435.176545570427 0.499991262826309 13.0 0.0 12.0 
532.0005923698109 126.0 28.0 435.176545570427 0.499991262826309 13.0 0.0 12.0 
534.0005923698109 126.0 28.0 435.18929254302105 0.5284976728475697 13.0 0.0 12.0 
536.000084666035 119.0 27.0 435.1790949649459 0.5712477647260888 13.0 0.0 12.0 
538.0005923698109 116.0 27.0 435.16379859783297 0.49754989533483596 13.0 0.0 12.0 
540.0003335334031 116.0 27.0 435.16379859783297 0.49755027354450465 13.0 0.0 12.0 
542.0005923698109 116.0 27.0 435.16379859783297 0.49755027354450465 13.0 0.0 12.0 
544.0005923698109 116.0 27.0 435.16379859783297 0.49755027354450465 13.0 0.0 12.0 
546.000084666035 116.0 27.0 435.16379859783297 0.49755027354450465 13.0 0.0 12.0 
548.0005923698109 116.0 27.0 435.16379859783297 0.49755027354450465 13.0 0.0 12.0 
550.0003335334031 116.0 27.0 435.16379859783297 0.49755027354450465 13.0 0.0 12.0 
552.0005923698109 116.0 27.0 435.16379859783297 0.49755027354450465 13.0 0.0 12.0 
554.0005923698109 116.0 27.0 435.16379859783297 0.49755027354450465 13.0 0.0 12.0 
556.000084666035 116.0 27.0 435.16379859783297 0.5219405174469437 13.0 0.0 12.0 
558.0005923698109 115.0 27.0 435.16379859783297 0.5550066105617061 13.0 0.0 12.0 
560.0003335334031 114.0 26.0 435.16379859783297 0.49742829429942054 13.0 0.0 12.0 
562.0005923698109 114.0 26.0 435.16379859783297 0.49742829429942054 13.0 0.0 12.0 
564.0005923698109 114.0 26.0 435.16379859783297 0.49742829429942054 13.0 0.0 12.0 
566.000084666035 114.0 26.0 435.16379859783297 0.49742829429942054 13.0 0.0 12.0 
568.0005923698109 114.0 26.0 435.16379859783297 0.49742829429942054 13.0 0.0 12.0 
570.0003335334031 114.0 26.0 435.16379859783297 0.49742829429942054 13.0 0.0 12.0 
572.0005923698109 114.0 26.0 435.16379859783297 0.49742829429942054 13.0 0.0 12.0 
574.0005923698109 114.0 26.0 435.16379859783297 0.49742829429942054 13.0 0.0 12.0 
576.000084666035 114.0 26.0 435.16379859783297 0.49742829429942054 13.0 0.0 12.0 
578.0005923698109 114.0 26.0 435.16379859783297 0.49742829429942054 13.0 0.0 12.0 
580.0003335334031 114.0 26.0 435.16379859783297 0.49742829429942054 13.0 0.0 12.0 
582.0005923698109 114.0 26.0 435.16379859783297 0.49742829429942054 13.0 0.0 12.0 
584.0005923698109 114.0 26.0 435.16379859783297 0.49742829429942054 13.0 0.0 12.0 
586.000084666035 114.0 26.0 435.16379859783297 0.49742829429942054 13.0 0.0 12.0 
588.0005923698109 114.0 26.0 435.16379859783297 0.49742829429942054 13.0 0.0 12.0 
590.0003335334031 114.0 26.0 435.16379859783297 0.49742829429942054 13.0 0.0 12.0 
592.0005923698109 114.0 26.0 435.16379859783297 0.49742829429942054 13.0 0.0 12.0 
594.0005923698109 114.0 26.0 432.23964308476724 0.49742829429942054 12.0 0.0 11.0 
596.000084666035 114.0 26.0 432.23964308476724 0.49742829429942054 12.0 0.0 11.0 
598.0005923698109 114.0 26.0 432.23964308476724 0.49742829429942054 12.0 0.0 11.0 
600.0003335334031 114.0 26.0 432.23964308476724 0.49742829429942054 12.0 0.0 11.0 
602.0005923698109 114.0 26.0 432.23964308476724 0.49742829429942054 12.0 0.0 11.0 
604.0005923698109 114.0 26.0 432.23964308476724 0.49742829429942054 12.0 0.0 11.0 
606.000084666035 114.0 26.0 432.23964308476724 0.49742829429942054 12.0 0.0 11.0 
608.0005923698109 114.0 26.0 432.23964308476724 0.49742829429942054 12.0 0.0 11.0 
610.0003335334031 114.0 26.0 432.23964308476724 0.49742829429942054 12.0 0.0 11.0 
612.0005923698109 114.0 26.0 432.23964308476724 0.49742829429942054 12.0 0.0 11.0 
614.0005923698109 114.0 26.0 432.23964308476724 0.49742829429942054 12.0 0.0 11.0 
616.000084666035 114.0 26.0 432.23964308476724 0.49742829429942054 12.0 0.0 11.0 
618.0005923698109 114.0 26.0 432.23964308476724 0.49742829429942054 12.0 0.0 11.0 
620.0003335334031 114.0 26.0 432.23964308476724 0.49742829429942054 12.0 0.0 11.0 
622.0005923698109 114.0 26.0 432.23964308476724 0.49742829429942054 12.0 0.0 11.0 
624.0005923698109 114.0 26.0 432.23964308476724 0.49742829429942054 12.0 0.0 11.0 
626.000084666035 114.0 26.0 432.23964308476724 0.49742829429942054 12.0 0.0 11.0 
628.0005923698109 114.0 26.0 432.23964308476724 0.49742829429942054 12.0 0.0 11.0 
630.0003335334031 114.0 26.0 432.23964308476724 0.49742829429942054 12.0 0.0 11.0 
632.0005923698109 114.0 26.0 432.23964308476724 0.49742829429942054 12.0 0.0 11.0 
634.0005923698109 114.0 26.0 432.23964308476724 0.49742829429942054 12.0 0.0 11.0 
636.000084666035 114.0 26.0 432.23964308476724 0.49742829429942054 12.0 0.0 11.0 
638.0005923698109 114.0 26.0 432.23964308476724 0.49742829429942054 12.0 0.0 11.0 
640.0003335334031 114.0 26.0 432.23964308476724 0.49742829429942054 12.0 0.0 11.0 
642.0005923698109 116.0 27.0 432.23964308476724 0.4946158010643912 12.0 0.0 11.0 
644.0005923698109 118.0 28.0 432.23964308476724 0.4948688042910223 12.0 0.0 11.0 
646.000084666035 118.0 28.0 432.23964308476724 0.4948688042910223 12.0 0.0 11.0 
648.0005923698109 118.0 28.0 432.23964308476724 0.4948688042910223 12.0 0.0 11.0 
650.0003335334031 118.0 28.0 432.23964308476724 0.4948688042910223 12.0 0.0 11.0 
652.0005923698109 118.0 28.0 432.23964308476724 0.4948688042910223 12.0 0.0 11.0 
654.0005923698109 118.0 28.0 432.23964308476724 0.5662973757195937 12.0 0.0 11.0 
656.000084666035 116.0 27.0 432.23964308476724 0.4946158010643912 12.0 0.0 11.0 
658.0005923698109 116.0 27.0 432.23964308476724 0.4946158010643912 12.0 0.0 11.0 
660.0003335334031 116.0 27.0 432.23964308476724 0.4946158010643912 12.0 0.0 11.0 
662.0005923698109 118.0 27.0 432.23964308476724 0.497485473824291 12.0 0.0 11.0 
664.0005923698109 118.0 27.0 432.23964308476724 0.497485473824291 12.0 0.0 11.0 
#####################################################################
# End of data export. Simulation finished at: 2019-03-09T18:51+0000 #
#####################################################################
