#####################################################################
# Alchemist log file - simulation started at: 2019-03-07T17:26+0000 #
#####################################################################
# seed = 7.0, bandwidth = 4216.965034285822, accessPointCount = 1031.338537721246, baserange = 177.82794100389228
#
# The columns have the following meaning: 
# time neighbor_count[Sum] <value>@neighbor_count[Sum] packet_size[Mean] mean_delay[Mean] crowd[Sum] overcrowded[Sum] risk[Sum] 
0.0 NaN NaN NaN NaN NaN NaN NaN 
2.0003100135960743 111.0 74.0 4978.2468354430375 0.26439624439916454 1497.0 0.0 1497.0 
4.000114457243907 822.0 590.0 4979.207278481013 0.8935911036686809 1497.0 0.0 1497.0 
6.000297418119471 1586.0 1084.0 4980.161392405063 1.341802469208609 1497.0 0.0 1497.0 
8.00082008174915 2271.0 1421.0 4980.645569620253 1.7555302095045384 1497.0 0.0 1497.0 
10.00082008174915 2810.0 1607.0 4980.976265822785 1.9774246592126332 1497.0 0.0 1497.0 
12.00082008174915 3370.0 1736.0 4981.577531645569 2.4190317876384886 1497.0 0.0 1497.0 
14.00082008174915 3859.0 1852.0 4981.742088607594 2.5936523450805433 1497.0 0.0 1497.0 
16.000297418119473 4185.0 1901.0 4982.047468354431 2.85145719634677 1497.0 0.0 1497.0 
18.00082008174915 4810.0 1987.0 4982.710443037975 3.118450159500833 1497.0 0.0 1497.0 
20.00082008174915 5194.0 2037.0 4982.623417721519 3.3633947339864556 1497.0 0.0 1497.0 
22.00082008174915 5273.0 2053.0 4982.639240506329 3.400983040927262 1497.0 0.0 1497.0 
24.00082008174915 5281.0 2056.0 4982.492088607594 3.8700014153740705 1497.0 0.0 1497.0 
26.000297418119473 5444.0 2061.0 4982.208860759494 3.9190186401421436 1497.0 0.0 1497.0 
28.00082008174915 6092.0 2112.0 4982.447784810127 3.84276027169793 1497.0 0.0 1497.0 
30.00082008174915 6202.0 2122.0 4982.493670886076 4.058646334078533 1497.0 0.0 1497.0 
32.000820081749154 6897.0 2145.0 4982.441455696202 3.936379259740662 1497.0 0.0 1497.0 
34.000820081749154 7227.0 2169.0 4982.694620253164 3.922152322452213 1497.0 0.0 1497.0 
36.00029741811947 7183.0 2150.0 4982.768987341772 3.9567009548258243 1497.0 0.0 1497.0 
38.000820081749154 7195.0 2141.0 4982.808544303798 3.840128995579451 1497.0 0.0 1497.0 
40.000820081749154 7209.0 2137.0 4982.8781645569625 3.8266463412139835 1497.0 0.0 1497.0 
42.000820081749154 7277.0 2150.0 4982.912974683544 3.728959049376745 1497.0 0.0 1497.0 
44.000820081749154 7272.0 2149.0 4982.647151898735 3.721821501293216 1495.0 2.0 1495.0 
46.00029741811947 7310.0 2151.0 4982.723101265823 3.728896336847865 1495.0 2.0 1495.0 
48.000820081749154 7339.0 2153.0 4982.7468354430375 4.265533248877629 1495.0 2.0 1495.0 
50.000820081749154 7338.0 2153.0 4982.6281645569625 4.430774227818347 1495.0 2.0 1495.0 
52.000820081749154 7344.0 2153.0 4982.718354430379 3.992573867262741 1495.0 2.0 1495.0 
54.000820081749154 7404.0 2155.0 4982.7009493670885 3.9028169187713435 1495.0 2.0 1495.0 
56.00029741811947 7405.0 2156.0 4982.5490506329115 3.8814498325149267 1494.0 3.0 1494.0 
58.000820081749154 7329.0 2154.0 4982.6155063291135 3.9568525147938307 1494.0 3.0 1494.0 
60.000820081749154 7333.0 2153.0 4982.6740506329115 4.254581678117608 1494.0 3.0 1494.0 
62.000820081749154 6895.0 2147.0 840.6772151898809 3.4368737837976147 652.0 2.0 240.0 
64.00082008174915 6669.0 2127.0 840.537974683538 3.1221008379013897 549.0 4.0 238.0 
66.00029741811947 6799.0 2127.0 840.4731012658178 2.6602458310391213 487.0 5.0 237.0 
68.00082008174915 7290.0 2152.0 847.889240506324 2.1868414576538044 443.0 7.0 239.0 
70.00082008174915 7293.0 2152.0 847.8575949366995 2.0873732455403844 415.0 7.0 239.0 
72.00082008174915 7307.0 2152.0 847.8781645569557 2.117960524851685 383.0 7.0 239.0 
74.00082008174915 7329.0 2155.0 847.8243670886038 2.118033290009527 366.0 7.0 239.0 
76.00029741811947 7296.0 2153.0 847.8386075949338 2.1663724589125164 357.0 8.0 238.0 
78.00082008174915 7326.0 2154.0 849.6772151898809 1.8664708218059267 350.0 8.0 239.0 
80.00082008174915 7341.0 2155.0 849.6787974683457 1.890423346854752 342.0 12.0 235.0 
82.00082008174915 7380.0 2156.0 849.6344936708816 1.9677522948561974 338.0 12.0 235.0 
84.00082008174915 7338.0 2156.0 849.5917721519045 1.822115449576944 336.0 12.0 235.0 
86.00029741811947 7334.0 2155.0 849.5917721519045 2.018898924096071 330.0 12.0 235.0 
88.00082008174915 7333.0 2155.0 849.5917721519045 2.0722037041609465 329.0 12.0 235.0 
90.00082008174915 7358.0 2157.0 849.6060126582348 2.2125333608107165 327.0 11.0 236.0 
92.00082008174915 7368.0 2158.0 849.6170886076019 2.1599709850692403 327.0 10.0 237.0 
94.00082008174915 7370.0 2159.0 849.5712025316543 2.319609918684044 325.0 10.0 237.0 
96.00029741811947 7252.0 2159.0 849.5617088607647 2.483591652658247 323.0 10.0 237.0 
98.00082008174915 6809.0 2135.0 851.3338607594856 2.2539492080079104 321.0 10.0 238.0 
100.00082008174915 6818.0 2135.0 851.2215189873457 2.3666067447921457 322.0 10.0 238.0 
102.00082008174915 7245.0 2148.0 853.1582278480955 1.6866190518584572 318.0 14.0 235.0 
104.00082008174915 7305.0 2156.0 853.110759493676 1.7413506628032016 318.0 14.0 235.0 
106.00029741811947 7305.0 2156.0 854.919303797464 1.7052260771556318 320.0 14.0 236.0 
108.00082008174915 7265.0 2154.0 854.9493670886037 1.9080206072685022 319.0 14.0 236.0 
110.00082008174915 7229.0 2154.0 854.9604430379785 2.0541016180997693 319.0 14.0 236.0 
112.00082008174915 7203.0 2151.0 856.7958860759558 1.9945503744731805 321.0 12.0 239.0 
114.00082008174915 7192.0 2149.0 856.7484177215149 2.04037566766062 322.0 11.0 240.0 
116.00029741811947 7222.0 2150.0 856.7341772151842 2.0249995728481993 320.0 13.0 238.0 
118.00082008174915 7245.0 2153.0 856.7136075949337 2.1167789231629217 320.0 13.0 238.0 
120.00082008174915 7241.0 2151.0 856.7294303797418 2.254705845125755 320.0 13.0 238.0 
122.00082008174915 7243.0 2151.0 858.5901898734196 2.382784535279186 320.0 13.0 239.0 
124.00082008174915 7272.0 2153.0 858.5933544303749 2.4410294449378567 320.0 13.0 239.0 
126.00029741811947 7329.0 2154.0 860.4920886076022 1.9182298061975303 320.0 14.0 239.0 
128.00082008174917 7352.0 2153.0 860.4113924050663 1.8547913907242917 323.0 12.0 241.0 
130.00082008174917 7414.0 2157.0 860.3924050633009 1.9692419058837194 323.0 12.0 241.0 
132.00082008174917 7306.0 2152.0 858.6107594936761 1.8298167495630637 323.0 12.0 240.0 
134.00082008174917 7354.0 2157.0 858.6234177215149 1.9355157475258096 322.0 12.0 240.0 
136.0002974181195 7372.0 2159.0 858.6091772151842 2.1240049274245516 321.0 13.0 239.0 
138.00082008174917 7385.0 2158.0 862.2689873417651 2.1718507278515946 322.0 13.0 241.0 
140.00082008174917 7389.0 2156.0 862.2420886076021 2.037735995840737 323.0 13.0 241.0 
142.00082008174917 7415.0 2157.0 862.2325949366992 2.0120529788084287 322.0 13.0 241.0 
144.00082008174917 7411.0 2156.0 862.2136075949338 2.1326104331057274 322.0 13.0 241.0 
146.0002974181195 7388.0 2154.0 860.4319620253224 2.2688243803584105 321.0 13.0 240.0 
148.00082008174917 7399.0 2153.0 860.4082278480954 2.464045501993718 318.0 14.0 239.0 
150.00082008174917 7387.0 2154.0 860.4208860759558 2.242692419892342 321.0 11.0 242.0 
152.00082008174917 7387.0 2155.0 860.4335443037941 2.118123294299151 323.0 10.0 243.0 
154.00082008174917 7372.0 2154.0 854.9446202531612 2.160102129002939 323.0 10.0 240.0 
156.0002974181195 7299.0 2151.0 851.3560126582348 2.0981448571982764 323.0 11.0 237.0 
158.00082008174917 7313.0 2154.0 853.1740506329052 2.1275064573134808 317.0 15.0 234.0 
160.00082008174917 7275.0 2154.0 853.1566455696247 2.2504785424302702 315.0 17.0 232.0 
162.00082008174917 7266.0 2154.0 853.1835443037944 1.9552770594280222 312.0 17.0 232.0 
164.00082008174917 7272.0 2156.0 853.1360759493747 1.8038338599154944 314.0 17.0 232.0 
166.0002974181195 7286.0 2157.0 853.1155063291184 1.9990901017947003 314.0 17.0 232.0 
168.00082008174917 7282.0 2157.0 853.1360759493747 2.1310852956460997 314.0 17.0 232.0 
170.00082008174917 7262.0 2154.0 854.9446202531614 2.1413445276857463 313.0 18.0 232.0 
172.00082008174917 7263.0 2153.0 854.985759493676 2.1782227928324738 311.0 17.0 233.0 
174.00082008174917 7292.0 2156.0 858.6044303797418 1.9438911249807684 310.0 18.0 234.0 
176.0002974181195 7297.0 2156.0 856.8022151898809 1.9195617338199726 310.0 17.0 234.0 
178.00082008174917 7300.0 2156.0 856.75 2.047138380028744 309.0 18.0 233.0 
180.00082008174917 7292.0 2157.0 856.7405063291184 2.210041330697285 310.0 18.0 233.0 
182.00082008174917 7283.0 2155.0 856.7262658227867 2.365335666080073 310.0 18.0 233.0 
184.00082008174917 7266.0 2155.0 854.9414556962057 2.3054068462944874 309.0 17.0 233.0 
186.0002974181195 7213.0 2154.0 854.968354430375 2.2455789498181637 310.0 17.0 233.0 
188.00082008174917 7172.0 2153.0 856.792721518979 2.119977841242815 317.0 15.0 236.0 
190.00082008174917 7201.0 2158.0 858.5870253164624 1.9514299584867636 322.0 14.0 238.0 
192.00082008174917 7181.0 2157.0 860.4208860759558 1.9885977709196758 322.0 14.0 239.0 
194.00082008174917 7194.0 2157.0 860.4113924050663 2.042651726294601 322.0 14.0 239.0 
196.0002974181195 7193.0 2159.0 860.3987341772131 2.1288983909751327 322.0 14.0 239.0 
198.00082008174917 7180.0 2157.0 860.3987341772131 2.0276346612171805 323.0 13.0 240.0 
200.00082008174917 7160.0 2156.0 858.5537974683456 2.11895211590285 323.0 13.0 239.0 
202.00082008174917 7153.0 2154.0 862.2072784810213 1.9126701721808748 326.0 12.0 242.0 
204.00082008174917 7155.0 2155.0 862.1598101265804 1.9755111840320638 324.0 13.0 241.0 
206.0002974181195 7160.0 2155.0 862.2136075949336 1.992601864227982 324.0 13.0 241.0 
208.00082008174917 7170.0 2158.0 862.1962025316544 2.0304223029810022 325.0 14.0 240.0 
210.00082008174917 7145.0 2156.0 862.2009493670948 2.081083504509715 325.0 14.0 240.0 
212.00082008174917 7146.0 2156.0 860.3908227848158 1.9955837696844783 326.0 14.0 239.0 
214.00082008174917 7108.0 2155.0 856.7104430379785 2.102219288227834 323.0 15.0 236.0 
216.0002974181195 7100.0 2154.0 856.7167721519047 2.188513134267789 324.0 15.0 236.0 
218.00082008174917 7123.0 2156.0 854.9208860759558 2.000018741691242 320.0 18.0 232.0 
220.00082008174917 7086.0 2155.0 854.941455696206 2.0711137330274156 320.0 18.0 232.0 
222.00082008174917 7094.0 2158.0 849.5094936708816 1.988595662796424 319.0 19.0 228.0 
224.00082008174917 7120.0 2162.0 849.471518987346 1.9987040201939004 319.0 19.0 228.0 
226.0002974181195 7139.0 2163.0 849.5079113923979 1.9469794074338755 317.0 21.0 226.0 
228.00082008174917 7145.0 2166.0 847.6344936708816 1.9649153543551194 317.0 20.0 226.0 
230.00082008174917 7132.0 2165.0 847.6186708860737 2.1032763127977354 315.0 20.0 226.0 
232.00082008174917 7109.0 2163.0 847.639240506324 2.074248943333562 313.0 20.0 226.0 
234.00082008174917 7111.0 2165.0 847.6424050633009 2.1225938660163366 312.0 20.0 226.0 
236.0002974181195 7109.0 2165.0 849.4810126582348 2.015944431697019 315.0 18.0 229.0 
238.00082008174917 7139.0 2167.0 849.455696202536 2.148902384333322 316.0 18.0 229.0 
240.00082008174917 7136.0 2166.0 849.4287974683456 2.228907629582487 316.0 18.0 229.0 
242.00082008174917 7143.0 2166.0 851.2863924050663 2.289917303775963 318.0 18.0 230.0 
244.00082008174917 7168.0 2165.0 851.2547468354404 2.2883989717365507 318.0 17.0 231.0 
246.0002974181195 7207.0 2168.0 854.8939873417652 2.0219372476113824 319.0 15.0 235.0 
248.00082008174917 7155.0 2165.0 851.2389240506253 2.0483472060036547 316.0 15.0 233.0 
250.00082008174917 7140.0 2166.0 851.221518987346 2.1259119312264723 318.0 15.0 233.0 
252.00082008174917 7164.0 2168.0 851.2547468354404 1.9312040512183963 316.0 18.0 230.0 
254.00082008174917 7151.0 2168.0 851.2610759493747 2.015350425539294 316.0 18.0 230.0 
256.0002974181195 7145.0 2166.0 853.080696202536 2.058755803871498 315.0 18.0 231.0 
258.00082008174917 7148.0 2167.0 853.0838607594856 2.0148849813686733 318.0 18.0 231.0 
260.00082008174917 7147.0 2168.0 853.0712025316544 1.9310267908411283 317.0 18.0 231.0 
262.00082008174917 7137.0 2167.0 851.2832278480953 1.9781550694198136 317.0 18.0 230.0 
264.00082008174917 7161.0 2168.0 854.9050632911399 2.092422665664845 316.0 18.0 232.0 
266.0002974181195 7154.0 2166.0 856.7515822784852 2.189268038026239 317.0 18.0 233.0 
268.00082008174917 7152.0 2168.0 856.7753164556995 2.2348449168298665 318.0 16.0 235.0 
270.00082008174917 7153.0 2169.0 856.7373417721611 2.100975699383735 317.0 16.0 235.0 
272.00082008174917 7137.0 2168.0 858.6028481012578 1.86817634036299 313.0 16.0 236.0 
274.00082008174917 7109.0 2167.0 858.5648734177202 2.0147430998946154 313.0 16.0 236.0 
276.0002974181195 7062.0 2163.0 860.4003164556995 1.981467276167521 313.0 15.0 238.0 
278.00082008174917 7059.0 2163.0 860.3164556962062 2.049425072271762 315.0 15.0 238.0 
280.00082008174917 7056.0 2163.0 860.3022151898814 2.1102708359197266 316.0 15.0 238.0 
282.00082008174917 7057.0 2163.0 860.3560126582349 2.07548146643712 315.0 14.0 239.0 
284.00082008174917 7055.0 2159.0 860.3322784810213 1.9221174462135715 315.0 14.0 239.0 
286.0002974181195 7083.0 2160.0 858.4889240506252 2.0552485087494317 314.0 14.0 238.0 
288.00082008174917 7072.0 2161.0 856.6629746835375 2.110784825558728 312.0 14.0 237.0 
290.00082008174917 7066.0 2161.0 858.517405063301 2.236280316619029 313.0 14.0 238.0 
292.00082008174917 7075.0 2162.0 860.3401898734196 2.216923685749682 311.0 16.0 237.0 
294.00082008174917 7063.0 2162.0 867.5949367088601 2.0859227399852482 313.0 15.0 242.0 
296.0002974181195 7022.0 2161.0 867.6123417721612 2.149356171801947 313.0 15.0 242.0 
298.00082008174917 7040.0 2160.0 873.0696202531614 1.9889497982775224 314.0 15.0 245.0 
300.00082008174917 7062.0 2164.0 873.0791139240441 2.0503267970218193 314.0 15.0 245.0 
302.00082008174917 7072.0 2165.0 873.1234177215146 1.9554852984206366 313.0 15.0 245.0 
304.00082008174917 7085.0 2168.0 873.1139240506251 1.9666073916625952 313.0 15.0 245.0 
306.0002974181195 7083.0 2167.0 873.1234177215146 2.0809893032106235 312.0 15.0 245.0 
308.00082008174917 7094.0 2168.0 876.7689873417648 2.0311652928034714 315.0 15.0 247.0 
310.00082008174917 7122.0 2171.0 876.7373417721626 2.1039014736981456 317.0 15.0 247.0 
312.00082008174917 7111.0 2169.0 873.1012658227876 2.1069305009380104 315.0 15.0 245.0 
314.00082008174917 7106.0 2169.0 874.9256329113965 2.221235052254741 317.0 15.0 246.0 
316.0002974181195 7128.0 2172.0 874.9145569620214 2.3322248310613287 318.0 15.0 246.0 
318.00082008174917 7130.0 2169.0 876.7943037974637 2.256082029914821 320.0 14.0 248.0 
320.00082008174917 7123.0 2169.0 876.737341772162 2.256127771653068 320.0 14.0 248.0 
322.00082008174917 7117.0 2165.0 874.9414556962071 2.051936937716468 320.0 14.0 247.0 
324.00082008174917 7108.0 2164.0 874.9224683544408 2.091073182011782 321.0 14.0 247.0 
326.0002974181195 7087.0 2162.0 873.0981012658162 1.9619642628522063 326.0 15.0 245.0 
328.00082008174917 7063.0 2162.0 873.0981012658162 1.9822316517876775 325.0 15.0 245.0 
330.00082008174917 7049.0 2162.0 871.2705696202584 2.12144104719391 326.0 15.0 244.0 
332.00082008174917 7040.0 2161.0 865.8401898734197 1.9562222753610763 323.0 16.0 240.0 
334.00082008174917 7035.0 2161.0 865.8164556962068 2.0922632824821776 324.0 16.0 240.0 
336.0002974181195 7042.0 2161.0 863.9841772151839 2.2138005620970564 325.0 16.0 239.0 
338.00082008174917 7038.0 2161.0 862.1819620253232 2.2275542821392507 324.0 16.0 238.0 
340.00082008174917 7038.0 2161.0 862.1962025316548 2.2341351654729666 324.0 16.0 238.0 
342.00082008174917 7034.0 2159.0 860.3892405063237 1.908817492488196 324.0 17.0 236.0 
344.00082008174917 7012.0 2159.0 860.3275316455594 1.9567023438764735 327.0 17.0 236.0 
346.0002974181195 6979.0 2155.0 862.1344936708815 1.9669788069578853 328.0 17.0 237.0 
348.00082008174917 6974.0 2154.0 862.1613924050673 2.0908763935637453 328.0 17.0 237.0 
350.00082008174917 6972.0 2157.0 863.9509493670952 2.1853392782119534 328.0 17.0 238.0 
352.00082008174917 6915.0 2154.0 863.9699367088601 1.9553951779626217 327.0 17.0 238.0 
354.00082008174917 6904.0 2155.0 863.9462025316549 1.933749283453145 327.0 17.0 238.0 
356.0002974181195 6912.0 2154.0 863.916139240515 1.7702567198497778 325.0 17.0 238.0 
358.00082008174917 6922.0 2157.0 862.1234177215138 1.9846091155108618 329.0 17.0 237.0 
360.00082008174917 6931.0 2158.0 860.2800632911399 2.0689936144742815 328.0 16.0 237.0 
362.00082008174917 6945.0 2160.0 858.5031645569545 2.064869293098277 326.0 16.0 236.0 
364.00082008174917 6968.0 2162.0 858.4920886076034 2.0532612641778347 324.0 16.0 236.0 
366.0002974181195 6948.0 2159.0 853.0569620253236 2.0060097431476667 322.0 15.0 234.0 
368.00082008174917 6922.0 2158.0 856.7072784810223 1.9969751063599417 324.0 13.0 238.0 
370.00082008174917 6917.0 2160.0 854.875 2.0680032052660073 324.0 13.0 237.0 
372.00082008174917 6957.0 2166.0 854.8797468354404 2.0708916187425097 324.0 13.0 237.0 
374.00082008174917 6953.0 2166.0 851.2357594936763 2.2236062325849963 323.0 13.0 235.0 
376.0002974181195 6936.0 2165.0 851.2674050633016 2.199389329192713 327.0 13.0 235.0 
378.00082008174917 6905.0 2161.0 847.6155063291184 2.0725655784982275 325.0 13.0 233.0 
380.00082008174917 6906.0 2163.0 843.9541139240441 1.995407680154877 323.0 13.0 231.0 
382.00082008174917 6906.0 2162.0 838.4620253164624 2.001304849678189 324.0 13.0 228.0 
384.00082008174917 6934.0 2165.0 836.6408227848158 1.9789819235698791 328.0 13.0 227.0 
386.0002974181195 6962.0 2166.0 827.5379746835379 1.970613082461447 327.0 13.0 222.0 
388.00082008174917 6995.0 2169.0 825.7310126582348 2.016430267404237 326.0 14.0 220.0 
390.00082008174917 7042.0 2172.0 831.2262658227867 1.9050768279908408 327.0 13.0 224.0 
392.00082008174917 7058.0 2173.0 833.0110759493749 1.993865444645362 326.0 15.0 223.0 
394.00082008174917 7062.0 2171.0 832.9683544303753 1.987370148433777 324.0 15.0 223.0 
396.0002974181195 7069.0 2170.0 834.8243670886037 2.0413240786947404 322.0 15.0 224.0 
398.00082008174917 7050.0 2169.0 833.0110759493749 2.1577280496278743 321.0 15.0 223.0 
400.00082008174917 7047.0 2166.0 833.031645569625 2.1765932639061623 321.0 15.0 223.0 
402.00082008174917 7063.0 2167.0 840.3702531645596 2.043396482790014 324.0 15.0 227.0 
404.00082008174917 7081.0 2169.0 840.3512658227869 1.9886935903940304 323.0 15.0 227.0 
406.0002974181195 7071.0 2167.0 842.1550632911399 1.9232354519729815 323.0 15.0 228.0 
408.00082008174917 7085.0 2169.0 843.9683544303749 2.0005228529167356 320.0 15.0 229.0 
410.00082008174917 7135.0 2174.0 843.9620253164622 2.0103450747190488 321.0 15.0 229.0 
412.00082008174917 7177.0 2178.0 847.6487341772131 2.069356914450314 320.0 15.0 231.0 
414.00082008174917 7173.0 2177.0 847.6155063291184 2.12420553606436 318.0 17.0 229.0 
416.0002974181195 7163.0 2175.0 849.4382911392349 2.068049051721114 326.0 16.0 231.0 
418.00082008174917 7148.0 2173.0 853.0712025316544 1.9952412841769078 327.0 15.0 234.0 
420.00082008174917 7109.0 2170.0 853.0680379746775 2.0951478420267016 327.0 15.0 234.0 
422.00082008174917 7118.0 2169.0 858.5617088607652 2.168028855194758 329.0 15.0 237.0 
424.00082008174917 7109.0 2170.0 858.5522151898814 2.2050722291361344 330.0 15.0 237.0 
426.0002974181195 7106.0 2169.0 854.8955696202584 2.0197774344334243 330.0 15.0 235.0 
428.00082008174917 7109.0 2170.0 851.2262658227871 1.8059809980054244 332.0 15.0 233.0 
430.00082008174917 7127.0 2171.0 849.3686708860735 1.9121072938013852 331.0 15.0 232.0 
432.00082008174917 7153.0 2170.0 851.2136075949336 1.9662417355315491 331.0 15.0 233.0 
434.00082008174917 7161.0 2171.0 851.1882911392349 2.135927737742896 331.0 15.0 233.0 
436.0002974181195 7168.0 2171.0 849.3939873417652 2.234372377779896 331.0 15.0 232.0 
438.0001779288132 7174.0 2170.0 851.2278481012579 2.1281920072905294 331.0 14.0 234.0 
440.00082008174917 7169.0 2168.0 851.2009493670948 1.9792243222490629 331.0 14.0 234.0 
442.00082008174917 7213.0 2171.0 851.1946202531612 2.0132362119646223 328.0 17.0 231.0 
444.00082008174917 7204.0 2172.0 851.1629746835375 2.1561849844437737 327.0 17.0 231.0 
446.0002974181195 7195.0 2171.0 851.1471518987421 2.136295249472534 327.0 17.0 231.0 
448.00082008174917 7182.0 2172.0 854.8212025316544 2.1792220747744215 330.0 17.0 233.0 
450.00082008174917 7203.0 2173.0 854.7674050633009 2.350616772948065 328.0 17.0 233.0 
452.00082008174917 7203.0 2173.0 858.4778481012579 2.0112699709940705 330.0 17.0 235.0 
454.00082008174917 7221.0 2174.0 858.4351265822798 2.2014653086431135 331.0 17.0 235.0 
456.0002974181195 7234.0 2177.0 860.2484177215147 2.281831078729861 332.0 17.0 236.0 
458.00082008174917 7228.0 2174.0 860.1898734177202 2.268804220663366 332.0 17.0 236.0 
460.00082008174917 7206.0 2174.0 862.0126582278389 2.242704739176861 333.0 17.0 237.0 
462.00082008174917 7201.0 2173.0 862.0569620253226 2.0959181656761285 335.0 16.0 238.0 
464.00082008174917 7215.0 2172.0 862.0284810126537 2.1362729918574446 331.0 19.0 235.0 
466.0002974181195 7186.0 2170.0 862.0759493670948 2.2518108667516725 332.0 19.0 235.0 
468.00082008174917 7123.0 2167.0 863.9335443037937 2.0860659909823505 333.0 17.0 238.0 
470.00082008174917 7176.0 2171.0 865.7246835443005 2.2479360193175912 334.0 17.0 239.0 
472.00082008174917 7145.0 2168.0 862.0996835443005 2.328733924651033 332.0 17.0 237.0 
474.00082008174917 7176.0 2175.0 860.2626582278389 2.316430492925608 332.0 17.0 236.0 
476.0002974181195 7177.0 2177.0 858.476265822787 2.238798200597956 332.0 17.0 235.0 
478.00082008174917 7131.0 2173.0 856.6518987341826 2.218018414617987 332.0 17.0 234.0 
480.00082008174917 7103.0 2171.0 856.610759493676 2.1662898046666816 330.0 17.0 234.0 
482.00082008174917 7104.0 2169.0 853.0063291139264 2.2168868358480154 330.0 17.0 232.0 
484.00082008174917 7050.0 2167.0 852.9905063291184 2.350036175715257 329.0 17.0 232.0 
486.0002974181195 7059.0 2167.0 849.360759493676 2.3522318146044077 325.0 18.0 229.0 
488.00082008174917 7077.0 2166.0 847.5569620253226 2.1787945250173775 327.0 15.0 231.0 
490.00082008174917 6993.0 2158.0 836.6677215189789 2.066401303671276 328.0 16.0 224.0 
492.00082008174917 7046.0 2161.0 834.862341772161 1.7980203010487938 325.0 18.0 221.0 
494.00082008174917 7017.0 2161.0 834.794303797464 1.9343142406275105 324.0 18.0 221.0 
496.0002974181195 7005.0 2162.0 836.6075949366988 1.9516195075747924 326.0 18.0 222.0 
498.00082008174917 7028.0 2167.0 834.7784810126534 2.0654814228293534 324.0 18.0 221.0 
500.00082008174917 7025.0 2168.0 832.9462025316544 1.92835005437174 325.0 18.0 220.0 
502.00082008174917 7042.0 2171.0 833.0031645569552 1.7088503394191088 324.0 18.0 220.0 
504.00082008174917 7044.0 2172.0 834.7879746835376 1.824023918640793 325.0 18.0 221.0 
506.0002974181195 7061.0 2175.0 838.4335443037938 2.012960869165541 330.0 18.0 223.0 
508.00082008174917 7066.0 2171.0 836.6424050633012 2.0968950558061237 329.0 18.0 222.0 
510.00082008174917 7077.0 2175.0 836.6376582278386 1.9898790456037723 332.0 15.0 225.0 
512.0008200817492 7100.0 2179.0 836.6471518987423 2.05560539383495 328.0 19.0 221.0 
514.0008200817492 7102.0 2182.0 833.0094936708816 2.153428798384132 322.0 21.0 217.0 
516.0002974181195 7095.0 2180.0 829.3417721519052 2.2330998667500777 324.0 20.0 216.0 
518.0008200817492 7119.0 2184.0 829.3354430379786 2.2848175156652033 327.0 18.0 218.0 
520.0008200817492 7127.0 2185.0 825.7231012658167 2.343614278013785 321.0 18.0 216.0 
522.0008200817492 7112.0 2185.0 823.9398734177202 2.3350373461514145 320.0 18.0 215.0 
524.0008200817492 7113.0 2186.0 823.9620253164634 2.187924192764861 320.0 18.0 215.0 
526.0002974181195 7116.0 2185.0 825.7737341772121 2.0899334448015803 318.0 18.0 216.0 
528.0008200817492 7108.0 2182.0 825.7452531645596 2.0525229834652627 318.0 18.0 216.0 
530.0008200817492 7130.0 2184.0 827.5395569620214 2.039356250449731 318.0 19.0 216.0 
532.0008200817492 7118.0 2182.0 827.5427215189776 2.0044818180643635 318.0 19.0 216.0 
534.0008200817492 7113.0 2181.0 829.3354430379786 1.9843946587083157 318.0 20.0 216.0 
536.0002974181195 7102.0 2178.0 823.8765822784864 2.041583291329375 318.0 20.0 213.0 
538.0008200817492 7070.0 2175.0 823.8702531645596 2.1865270973092117 321.0 19.0 214.0 
540.0008200817492 7081.0 2176.0 825.6708860759558 2.26484302236705 321.0 19.0 215.0 
542.0008200817492 7086.0 2178.0 827.4889240506251 2.252018049298869 319.0 21.0 214.0 
544.0008200817492 7095.0 2179.0 832.9430379746761 2.280653842933779 322.0 21.0 217.0 
546.0002974181195 7074.0 2179.0 834.7610759493751 2.2449550352402503 322.0 21.0 218.0 
548.0008200817492 7064.0 2179.0 831.1028481012567 2.014633981309261 321.0 21.0 216.0 
550.0008200817492 7062.0 2178.0 832.9335443037928 2.1284337876046893 322.0 21.0 217.0 
552.0008200817492 7053.0 2175.0 834.7705696202582 1.784571167100388 323.0 21.0 218.0 
554.0008200817492 7072.0 2179.0 834.731012658235 1.9449471153256264 323.0 21.0 218.0 
556.0002974181195 7067.0 2180.0 834.7610759493749 2.0424850587745307 320.0 23.0 216.0 
558.0008200817492 7063.0 2179.0 834.737341772162 1.9679914380403722 321.0 22.0 217.0 
560.0008200817492 7044.0 2179.0 834.7246835443005 2.1220665214034167 322.0 22.0 217.0 
562.0008200817492 7037.0 2179.0 834.7705696202582 2.134809673107177 321.0 22.0 217.0 
564.0008200817492 7045.0 2179.0 834.7056962025363 2.1401726192322545 321.0 22.0 217.0 
566.0002974181195 7057.0 2178.0 836.5443037974637 2.1955143672891713 324.0 22.0 218.0 
568.0008200817492 7072.0 2182.0 840.1930379746764 2.2445045576725002 325.0 20.0 222.0 
570.0008200817492 7064.0 2180.0 842.0253164556995 2.3687597406569636 323.0 21.0 222.0 
572.0008200817492 7057.0 2177.0 845.7357594936763 2.0968037120108223 322.0 20.0 225.0 
574.0008200817492 7073.0 2179.0 843.881329113927 2.2167719428416346 321.0 20.0 224.0 
576.0002974181195 7082.0 2182.0 843.8892405063237 2.3019110948558037 324.0 19.0 225.0 
578.0008200817492 7044.0 2175.0 845.7056962025363 2.228501407497733 326.0 19.0 226.0 
580.0008200817492 7043.0 2177.0 842.0775316455597 2.029471256168605 326.0 17.0 226.0 
582.0002946297 7022.0 2175.0 842.1107594936763 2.0743116835004085 326.0 17.0 226.0 
584.0008200817492 7001.0 2171.0 842.0537974683454 2.1133159749533506 326.0 17.0 226.0 
586.0002974181195 6993.0 2172.0 845.7088607594853 2.1487947645069903 328.0 17.0 228.0 
588.0008200817492 6974.0 2167.0 843.9303797468386 2.1163374207328616 326.0 17.0 227.0 
590.0008200817492 6978.0 2171.0 842.0917721519047 2.2097743575760656 324.0 17.0 226.0 
592.0008200817492 6970.0 2170.0 842.0838607594852 2.169040990697737 322.0 19.0 224.0 
594.0008200817492 6979.0 2171.0 840.2151898734196 2.1879334606044467 318.0 19.0 223.0 
596.0002974181195 6938.0 2172.0 843.886075949375 2.090318866591505 318.0 19.0 225.0 
598.0008200817492 6961.0 2178.0 843.8623417721624 2.296527555905929 321.0 19.0 225.0 
600.0008200817492 6971.0 2179.0 843.8813291139274 2.4095727694117985 324.0 19.0 225.0 
602.0008200817492 6972.0 2176.0 849.3734177215143 2.0147852449971997 324.0 19.0 228.0 
604.0008200817492 6987.0 2179.0 845.7325949366983 2.0649077406097596 324.0 19.0 226.0 
606.0002974181195 6991.0 2180.0 849.3781645569551 2.0276076955664286 328.0 19.0 228.0 
608.0008200817492 6950.0 2178.0 842.109177215184 2.10351966652871 328.0 19.0 224.0 
610.0008200817492 6960.0 2179.0 842.1060126582352 2.2368855146709508 329.0 19.0 224.0 
612.0008200817492 6946.0 2178.0 840.3212025316546 2.2415450012638125 330.0 19.0 223.0 
614.0008200817492 6925.0 2176.0 838.4224683544404 2.3015030324789665 331.0 19.0 222.0 
616.0002974181195 6922.0 2172.0 843.8987341772125 2.260995257155595 329.0 19.0 225.0 
618.0008200817492 6913.0 2172.0 843.8955696202584 2.325459000897976 331.0 17.0 227.0 
620.0008200817492 6922.0 2177.0 845.7215189873465 2.2987697287671813 330.0 17.0 228.0 
622.0008200817492 6919.0 2177.0 845.7515822784857 2.349226600389286 329.0 17.0 228.0 
624.0008200817492 6911.0 2175.0 840.2547468354404 2.225409977264927 329.0 17.0 225.0 
626.0002974181195 6897.0 2172.0 840.2563291139264 2.1172879789119534 329.0 17.0 225.0 
628.0008200817492 6897.0 2169.0 834.7737341772132 1.9765141422896437 322.0 17.0 222.0 
630.0008200817492 6903.0 2170.0 836.6028481012581 1.9972872947603724 324.0 17.0 223.0 
632.0008200817492 6900.0 2169.0 836.610759493676 2.062296057012008 323.0 17.0 223.0 
634.0008200817492 6895.0 2168.0 832.9667721519046 2.161691886247331 322.0 17.0 221.0 
636.0002974181195 6864.0 2168.0 832.9636075949339 2.1332007527549703 322.0 17.0 221.0 
638.0008200817492 6832.0 2166.0 834.7626582278391 2.1969276017134383 323.0 17.0 222.0 
640.0008022865248 6828.0 2167.0 838.4082278480952 2.329179485307108 321.0 17.0 224.0 
642.0008022865248 6804.0 2165.0 840.2484177215148 2.2703033622654405 320.0 19.0 223.0 
644.0008022865248 6801.0 2166.0 838.3844936708815 2.1170103310045194 320.0 19.0 222.0 
646.0002974181195 6807.0 2167.0 838.4177215189789 1.995950325578146 321.0 19.0 222.0 
648.0008200817492 6825.0 2168.0 840.2373417721611 2.047243062839551 322.0 19.0 223.0 
650.0008200817492 6843.0 2171.0 840.2009493670948 2.138164521675889 319.0 19.0 223.0 
652.0008200817492 6820.0 2167.0 842.0680379746773 1.872791867880127 319.0 19.0 224.0 
654.0008200817492 6805.0 2164.0 840.2231012658174 2.012781823524334 317.0 20.0 222.0 
656.0002974181195 6803.0 2165.0 845.7009493670948 2.0218962333506028 320.0 19.0 226.0 
658.0008200817492 6765.0 2161.0 845.7215189873463 1.915356970956152 319.0 19.0 226.0 
660.0008200817492 6761.0 2161.0 845.6835443037937 1.9540468445451338 317.0 19.0 226.0 
662.0008200817492 6764.0 2164.0 845.6851265822798 2.070249210922231 316.0 19.0 226.0 
664.0008200817492 6762.0 2163.0 847.4667721519049 2.154932732546885 316.0 19.0 227.0 
#####################################################################
# End of data export. Simulation finished at: 2019-03-07T17:32+0000 #
#####################################################################
