#####################################################################
# Alchemist log file - simulation started at: 2019-03-03T13:14+0000 #
#####################################################################
# seed = 0.0, bandwidth = 74989.42093324558, accessPointCount = 1031.338537721246, baserange = 562.341325190349
#
# The columns have the following meaning: 
# time neighbor_count[Sum] <value>@neighbor_count[Sum] packet_size[Mean] mean_delay[Mean] crowd[Sum] overcrowded[Sum] risk[Sum] 
0.0 NaN NaN NaN NaN NaN NaN NaN 
10.000170975296044 21338.0 13531.0 4982.922468354431 0.9878870074155522 1497.0 0.0 1497.0 
20.000170975296044 21952.0 13341.0 4984.227848101265 0.8406788491372135 1491.0 6.0 1491.0 
30.000170975296044 21930.0 13340.0 4983.770569620253 0.9278262978456817 1483.0 14.0 1483.0 
40.000170975296044 21956.0 13340.0 4983.786392405063 0.8335410338679828 1483.0 14.0 1483.0 
50.000170975296044 22023.0 13342.0 4983.718354430379 0.8670722994227557 1484.0 13.0 1484.0 
60.000170975296044 22013.0 13345.0 4982.226265822785 0.9099848114365467 1484.0 13.0 1484.0 
70.00017097529604 22039.0 13345.0 1004.3449367088684 0.6352290647902987 460.0 21.0 311.0 
80.00017097529604 22030.0 13344.0 1004.2088607594848 0.6013456731288905 433.0 27.0 305.0 
90.00017097529604 22061.0 13344.0 1009.5806962025283 0.6341926904791193 437.0 20.0 315.0 
100.00017097529604 22080.0 13344.0 1011.3813291139217 0.6171208704230057 438.0 20.0 316.0 
110.00017097529604 22107.0 13344.0 1009.6297468354405 0.6209070937811999 439.0 20.0 315.0 
120.00017097529604 22115.0 13346.0 1011.4161392405152 0.6156766670759924 439.0 22.0 314.0 
130.00017097529604 22157.0 13345.0 1007.7183544303715 0.6347439879375744 438.0 22.0 312.0 
140.00017097529604 22316.0 13347.0 1005.9762658227907 0.6047196629806076 429.0 26.0 307.0 
150.00017097529604 22377.0 13344.0 996.837025316466 0.6286677793622447 427.0 30.0 298.0 
160.00017097529604 22440.0 13348.0 998.6661392405152 0.6227387617372215 439.0 21.0 308.0 
170.00017097529604 22325.0 13347.0 1004.1977848101229 0.623131439413832 437.0 21.0 311.0 
180.00017097529604 22300.0 13347.0 1002.346518987349 0.6194479713120153 440.0 21.0 310.0 
190.00017097529604 22224.0 13343.0 995.0015822784812 0.6327736051924958 431.0 21.0 306.0 
200.00017097529604 22180.0 13349.0 996.9193037974711 0.6105105883900981 437.0 17.0 311.0 
210.00017097529604 22012.0 13346.0 998.7120253164668 0.626673758755754 432.0 21.0 308.0 
220.00017097529604 22029.0 13345.0 1000.4303797468388 0.6146124159981791 429.0 21.0 309.0 
230.00017097529604 22103.0 13347.0 1007.8148734177202 0.6258150359410252 431.0 22.0 312.0 
240.00017097529604 21983.0 13345.0 1004.0838607594847 0.6073448099312518 425.0 21.0 311.0 
250.00017097529604 21893.0 13344.0 1002.237341772157 0.6240820057699697 423.0 22.0 309.0 
260.00017097529604 21992.0 13348.0 1002.2911392405152 0.6031459326252372 424.0 21.0 310.0 
270.00017097529604 22046.0 13348.0 1004.022151898746 0.6258182931641499 423.0 21.0 311.0 
280.00017097529604 22010.0 13354.0 1000.3718354430399 0.613206336473849 423.0 21.0 309.0 
290.00017097529604 21906.0 13348.0 998.552215189877 0.6176034319088631 424.0 20.0 309.0 
300.00017097529604 21990.0 13348.0 991.2389240506322 0.6071968828925518 419.0 20.0 305.0 
310.00017097529604 21914.0 13350.0 987.6582278480912 0.6284638916979796 414.0 20.0 303.0 
320.00017097529604 21845.0 13347.0 993.1297468354404 0.5984190234811415 420.0 20.0 306.0 
330.00017097529604 22041.0 13351.0 993.0981012658127 0.6305413619289345 422.0 20.0 306.0 
340.00017097529604 21882.0 13347.0 998.6060126582357 0.6127179680873314 430.0 20.0 309.0 
350.00017097529604 21820.0 13349.0 998.6265822784815 0.6172086385564721 431.0 20.0 309.0 
360.00017097529604 21774.0 13349.0 1009.4588607594844 0.6031141248867625 430.0 20.0 315.0 
370.00017097529604 21783.0 13345.0 1005.8829113924013 0.6172250452497116 435.0 20.0 313.0 
380.00017097529604 21842.0 13352.0 1007.6882911392394 0.6047432824522422 436.0 20.0 314.0 
390.00017097529604 21776.0 13349.0 1011.3465189873502 0.6237295503758593 435.0 20.0 316.0 
400.00017097529604 21691.0 13354.0 1016.7642405063235 0.6099341925143099 444.0 20.0 319.0 
410.00017097529604 21726.0 13347.0 1014.9477848101224 0.6162626147653101 444.0 21.0 317.0 
420.00017097529604 21804.0 13352.0 1004.0316455696293 0.6080640620820488 433.0 20.0 312.0 
430.00017097529604 21748.0 13346.0 1002.1629746835328 0.6218818350132467 437.0 22.0 309.0 
440.00017097529604 21779.0 13354.0 1002.2009493670878 0.6014438335653893 435.0 20.0 311.0 
450.00017097529604 21613.0 13351.0 1005.822784810122 0.6244263730443228 443.0 20.0 313.0 
460.00017097529604 21651.0 13355.0 1007.6613924050704 0.6091302384971422 437.0 21.0 313.0 
470.00017097529604 21566.0 13348.0 994.898734177209 0.6101823705377499 429.0 21.0 306.0 
480.00017097529604 21597.0 13351.0 996.6708860759562 0.6009382270617009 429.0 21.0 307.0 
490.00017097529604 21657.0 13355.0 985.7484177215177 0.626476810279425 420.0 21.0 301.0 
500.00017097529604 21655.0 13350.0 983.9556962025293 0.593492477973393 418.0 21.0 300.0 
510.00017097529604 21720.0 13356.0 985.811708860762 0.6219437508229274 425.0 21.0 301.0 
520.000170975296 21687.0 13356.0 976.7056962025297 0.6086435959854075 422.0 21.0 296.0 
530.000170975296 21634.0 13351.0 967.623417721517 0.6066310267052532 423.0 21.0 291.0 
540.000170975296 21761.0 13355.0 971.2310126582356 0.6060081952891755 423.0 21.0 293.0 
550.000170975296 21706.0 13356.0 971.2689873417643 0.6280726195561762 426.0 21.0 293.0 
560.000170975296 21878.0 13356.0 982.148734177209 0.5999146578063763 435.0 21.0 299.0 
570.000170975296 21887.0 13353.0 987.6186708860763 0.6214064476985807 428.0 20.0 303.0 
580.000170975296 21972.0 13353.0 991.2927215189736 0.6189365811107278 433.0 20.0 305.0 
590.000170975296 21814.0 13352.0 991.3212025316479 0.6197612095811149 432.0 20.0 305.0 
600.000170975296 21783.0 13349.0 993.0996835443079 0.5983927791595431 432.0 20.0 306.0 
610.000170975296 21849.0 13352.0 1004.0537974683529 0.6286099066641296 434.0 20.0 312.0 
620.000170975296 21904.0 13354.0 994.8892405063236 0.6038410017664301 437.0 20.0 307.0 
630.000170975296 22083.0 13356.0 1004.0806962025276 0.6252892526997029 432.0 20.0 312.0 
640.000170975296 22336.0 13352.0 1007.6930379746824 0.6225051526229727 438.0 20.0 314.0 
650.000170975296 22245.0 13353.0 1015.0205696202485 0.6267212263378605 442.0 20.0 318.0 
660.000170975296 22175.0 13351.0 1025.90664556963 0.6122433742134666 439.0 20.0 324.0 
#####################################################################
# End of data export. Simulation finished at: 2019-03-03T13:38+0000 #
#####################################################################
