#####################################################################
# Alchemist log file - simulation started at: 2019-03-12T20:50+0000 #
#####################################################################
# seed = 5.0, bandwidth = 74989.42093324558, accessPointCount = 1031.338537721246, baserange = 31.622776601683796
#
# The columns have the following meaning: 
# time neighbor_count[Sum] <value>@neighbor_count[Sum] packet_size[Mean] mean_delay[Mean] crowd[Sum] overcrowded[Sum] risk[Sum] 
0.0 NaN NaN NaN NaN NaN NaN NaN 
2.000101793669918 289.0 172.0 4979.85759493671 0.5044117717754732 1497.0 0.0 1497.0 
4.000101793669918 304.0 174.0 4981.8718354430375 0.5163854145113569 1497.0 0.0 1497.0 
6.000101793669918 329.0 176.0 4980.462025316456 0.5339242384825057 1497.0 0.0 1497.0 
8.000101793669918 340.0 178.0 4980.908227848102 0.5401096458248625 1497.0 0.0 1497.0 
10.000101793669918 349.0 177.0 4980.7927215189875 0.5473808421156416 1497.0 0.0 1497.0 
12.000101793669918 347.0 176.0 4980.643987341772 0.536307210650167 1497.0 0.0 1497.0 
14.000101793669918 342.0 174.0 4980.564873417721 0.5200982196448305 1497.0 0.0 1497.0 
16.00010179366992 340.0 173.0 4980.875 0.4985663172713079 1497.0 0.0 1497.0 
18.00010179366992 340.0 173.0 4980.303797468355 0.4986475985776494 1497.0 0.0 1497.0 
20.00010179366992 340.0 173.0 4980.893987341772 0.49856308449207837 1497.0 0.0 1497.0 
22.00010179366992 340.0 173.0 4980.248417721519 0.498662261540583 1497.0 0.0 1497.0 
24.00010179366992 340.0 173.0 4980.844936708861 0.4985764774346005 1497.0 0.0 1497.0 
26.00010179366992 340.0 173.0 4980.322784810127 0.49862208271301667 1497.0 0.0 1497.0 
28.00010179366992 340.0 173.0 4980.764240506329 0.498583982100669 1497.0 0.0 1497.0 
30.00010179366992 340.0 173.0 4980.428797468355 0.4986298182918872 1497.0 0.0 1497.0 
32.00010179366992 340.0 173.0 4980.699367088608 0.49859656684838377 1497.0 0.0 1497.0 
34.00010179366992 340.0 173.0 4980.287974683544 0.49864517399322744 1497.0 0.0 1497.0 
36.00010179366992 342.0 174.0 4980.683544303798 0.49688065658871655 1497.0 0.0 1497.0 
38.00010179366992 342.0 174.0 4980.427215189873 0.4969184780155425 1497.0 0.0 1497.0 
40.00010179366992 342.0 174.0 4980.7072784810125 0.4968789322075543 1497.0 0.0 1497.0 
42.00010179366992 342.0 174.0 4980.2405063291135 0.4969533105150206 1497.0 0.0 1497.0 
44.00010179366992 342.0 174.0 4980.833860759494 0.4968475484704009 1497.0 0.0 1497.0 
46.00010179366992 344.0 174.0 4980.291139240506 0.4975106230185099 1497.0 0.0 1497.0 
48.00010179366992 344.0 174.0 4980.76740506329 0.49743842892718243 1497.0 0.0 1497.0 
50.00010179366992 344.0 174.0 4980.213607594937 0.49749625317549095 1497.0 0.0 1497.0 
52.00010179366992 344.0 174.0 4980.854430379747 0.49745245389396897 1497.0 0.0 1497.0 
54.00010179366992 350.0 175.0 4980.367088607594 0.49720483743023813 1497.0 0.0 1497.0 
56.00010179366992 350.0 175.0 4980.485759493671 0.4971883544185441 1497.0 0.0 1497.0 
58.00010179366992 350.0 175.0 4980.568037974684 0.49720987390603333 1497.0 0.0 1497.0 
60.00010179366992 350.0 175.0 4978.875 0.4971505808500797 1496.0 0.0 1496.0 
62.00010179366992 354.0 177.0 440.0126582278491 0.4816891852923802 96.0 0.0 22.0 
64.00010179366993 354.0 177.0 439.99050632911326 0.49049020167774976 82.0 0.0 22.0 
66.00010179366993 354.0 177.0 439.98417721518956 0.5190082499353798 67.0 0.0 22.0 
68.00010179366993 356.0 178.0 438.1693037974677 0.5525370257350655 46.0 0.0 21.0 
70.00010179366993 348.0 176.0 436.36708860759524 0.48913383417670375 36.0 0.0 20.0 
72.00010179366993 348.0 176.0 434.53006329113975 0.5023669020449357 32.0 0.0 19.0 
74.00010179366993 348.0 176.0 430.90348101265835 0.5203525849750884 29.0 0.0 17.0 
76.00010179366993 346.0 175.0 430.90031645569604 0.4906585110641339 29.0 0.0 17.0 
78.00010179366993 346.0 175.0 430.90031645569604 0.5034790238846467 29.0 0.0 17.0 
80.00010179366993 346.0 175.0 430.90664556962025 0.5205707614548482 27.0 0.0 17.0 
82.00010179366993 346.0 175.0 430.90031645569604 0.4906580551593707 24.0 0.0 17.0 
84.00010179366993 346.0 175.0 430.90348101265835 0.49065759925460756 22.0 0.0 17.0 
86.00010179366993 346.0 175.0 430.90031645569604 0.49065851106413383 22.0 0.0 17.0 
88.00010179366993 346.0 175.0 430.90031645569604 0.49065851106413383 21.0 0.0 17.0 
90.00010179366993 346.0 175.0 430.90031645569604 0.49065851106413383 21.0 0.0 17.0 
92.00010179366993 346.0 175.0 430.90031645569604 0.5034790238846467 21.0 0.0 17.0 
94.00010179366993 348.0 176.0 430.90348101265835 0.5203525849750884 21.0 0.0 17.0 
96.00010179366993 346.0 175.0 430.90031645569604 0.49065851106413383 21.0 0.0 17.0 
98.00010179366993 348.0 176.0 430.90031645569604 0.49069247210826283 19.0 0.0 17.0 
100.00010179366993 348.0 176.0 430.90664556962025 0.4906902119024456 19.0 0.0 17.0 
102.00010179366993 348.0 176.0 430.90348101265835 0.490690663943609 19.0 0.0 17.0 
104.00010179366993 348.0 176.0 430.90348101265835 0.509758912594942 19.0 0.0 17.0 
106.00010179366993 348.0 176.0 430.90031645569604 0.5351839975319918 19.0 0.0 17.0 
108.00010179366993 345.0 175.0 430.9082278481017 0.5043528432824479 20.0 0.0 17.0 
110.00010179366993 346.0 176.0 430.90189873417745 0.5207769650205489 20.0 0.0 17.0 
112.00010179366993 344.0 175.0 430.89873417721503 0.4909586336180295 20.0 0.0 17.0 
114.00010179366993 344.0 175.0 430.89873417721503 0.49095909147946537 20.0 0.0 17.0 
116.00010179366993 344.0 175.0 430.89556962025273 0.4909604650637733 20.0 0.0 17.0 
118.00010179366993 345.0 175.0 430.89556962025273 0.49011208197781236 20.0 0.0 17.0 
120.00010179366993 346.0 175.0 430.90189873417745 0.4899583445431457 20.0 0.0 17.0 
122.00010179366993 346.0 175.0 430.89873417721503 0.4899588024045816 20.0 0.0 17.0 
124.00010179366993 346.0 175.0 429.0838607594942 0.5071266422402665 19.0 0.0 16.0 
126.00010179366993 346.0 175.0 429.08069620253224 0.5242953977988233 19.0 0.0 16.0 
128.00010179366993 344.0 174.0 427.2658227848096 0.49018475247571763 19.0 0.0 15.0 
130.00010179366993 346.0 174.0 427.2863924050641 0.4923885116994878 19.0 0.0 15.0 
132.00010179366993 347.0 174.0 427.29113924050574 0.48957576157830196 17.0 0.0 15.0 
134.00010179366993 349.0 175.0 427.29588607594894 0.49026248135032857 17.0 0.0 15.0 
136.00010179366993 350.0 176.0 427.2832278481018 0.4914382905790681 17.0 0.0 15.0 
138.00010179366993 354.0 176.0 427.27689873417745 0.4914213433368303 17.0 0.0 15.0 
140.00010179366993 354.0 176.0 427.2832278481018 0.49142442177946893 17.0 0.0 15.0 
142.00010179366993 354.0 176.0 427.27689873417745 0.49142795178492066 17.0 0.0 15.0 
144.00010179366993 354.0 176.0 427.27373417721503 0.5000109768082166 17.0 0.0 15.0 
146.00010179366993 354.0 176.0 427.27373417721503 0.5128314896287294 17.0 0.0 15.0 
148.00010179366993 353.0 175.0 427.27689873417745 0.4905999496432382 17.0 0.0 15.0 
150.00010179366993 356.0 175.0 427.28006329113975 0.4913474105009902 17.0 0.0 15.0 
152.00010179366993 356.0 175.0 427.27373417721503 0.49135496739497575 17.0 0.0 15.0 
154.00010179366993 356.0 175.0 427.27056962025273 0.4956486443342818 17.0 0.0 15.0 
156.00010179366993 356.0 175.0 427.27056962025273 0.5128160263085307 17.0 0.0 15.0 
158.00010179366993 356.0 175.0 427.27373417721503 0.5299834082827796 17.0 0.0 15.0 
160.00010179366993 354.0 174.0 427.27689873417745 0.49132219753788514 17.0 0.0 15.0 
162.00010179366993 354.0 174.0 427.27056962025273 0.49566823663417625 17.0 0.0 15.0 
164.00010179366993 354.0 174.0 427.27056962025273 0.5130078070560083 17.0 0.0 15.0 
166.00010179366993 354.0 174.0 427.27056962025273 0.5433108373590386 17.0 0.0 15.0 
168.00010179366993 354.0 173.0 427.27373417721503 0.530760900556721 17.0 0.0 15.0 
170.00010179366993 352.0 172.0 427.27689873417745 0.49159727503267603 17.0 0.0 15.0 
172.00010179366993 352.0 172.0 427.27056962025273 0.4916033711306516 17.0 0.0 15.0 
174.00010179366993 352.0 172.0 427.27056962025273 0.4916038390329085 17.0 0.0 15.0 
176.00010179366993 352.0 172.0 427.27056962025273 0.4916038390329085 17.0 0.0 15.0 
178.00010179366993 353.0 172.0 427.27373417721503 0.5028950571374666 17.0 0.0 15.0 
180.00010179366993 356.0 174.0 427.27689873417745 0.5203216251437398 17.0 0.0 15.0 
182.00010179366993 354.0 173.0 427.27056962025273 0.48985101695112243 17.0 0.0 15.0 
184.00010179366993 354.0 173.0 427.27056962025273 0.4898514848533793 17.0 0.0 15.0 
186.00010179366993 354.0 173.0 427.27056962025273 0.4898514848533793 17.0 0.0 15.0 
188.00010179366993 354.0 173.0 427.27056962025273 0.4942491473220825 17.0 0.0 15.0 
190.00010179366993 356.0 174.0 427.27056962025273 0.5063303429819517 17.0 0.0 15.0 
192.00010179366993 358.0 174.0 427.27056962025273 0.5181243548192268 17.0 0.0 15.0 
194.00010179366993 356.0 173.0 427.27056962025273 0.4919194132853768 17.0 0.0 15.0 
196.00010179366993 356.0 173.0 427.27056962025273 0.4919194132853768 17.0 0.0 15.0 
198.00010179366993 358.0 174.0 427.27373417721503 0.49228029072451496 17.0 0.0 15.0 
200.00010179366993 358.0 174.0 427.27056962025273 0.49227608468311684 17.0 0.0 15.0 
202.00010179366993 358.0 174.0 427.27056962025273 0.49228029072451496 17.0 0.0 15.0 
204.00010179366993 358.0 174.0 427.27056962025273 0.49228029072451496 17.0 0.0 15.0 
206.00010179366993 358.0 174.0 427.27056962025273 0.49228029072451496 17.0 0.0 15.0 
208.00010179366993 362.0 175.0 427.27373417721503 0.49952930925337297 17.0 0.0 15.0 
210.00010179366993 364.0 175.0 427.27056962025273 0.5106673442066423 17.0 0.0 15.0 
212.00010179366993 362.0 174.0 427.27056962025273 0.49140757398347934 17.0 0.0 15.0 
214.00010179366993 362.0 174.0 427.27056962025273 0.49140757398347934 17.0 0.0 15.0 
216.00010179366993 362.0 174.0 427.27056962025273 0.49140757398347934 17.0 0.0 15.0 
218.00010179366993 364.0 175.0 427.27373417721503 0.5046862896044482 17.0 0.0 15.0 
220.00010179366993 364.0 175.0 427.27689873417745 0.5293174638418988 17.0 0.0 15.0 
222.00010179366993 362.0 174.0 429.08544303797544 0.5083386191648173 18.0 0.0 16.0 
224.00010179366993 361.0 175.0 429.08544303797544 0.48983673236269804 19.0 0.0 16.0 
226.00010179366993 362.0 175.0 429.08544303797544 0.4915340375602248 19.0 0.0 16.0 
228.00010179366993 362.0 175.0 429.08860759493587 0.5003974815178196 19.0 0.0 16.0 
230.00010179366993 362.0 175.0 429.0917721518982 0.5308489488816266 19.0 0.0 16.0 
232.00010179366993 361.0 174.0 429.08544303797544 0.5360477444372882 19.0 0.0 16.0 
234.00010179366993 358.0 174.0 429.08544303797544 0.4932866750480619 18.0 0.0 16.0 
236.00010179366993 358.0 174.0 429.08544303797544 0.5049431541289833 18.0 0.0 16.0 
238.00010179366993 360.0 175.0 429.08860759493587 0.5163981852413269 18.0 0.0 16.0 
240.00010179366993 358.0 174.0 429.0917721518982 0.5040372745047715 18.0 0.0 16.0 
242.00010179366993 358.0 174.0 429.08544303797544 0.5214346219410257 18.0 0.0 16.0 
244.00010179366993 358.0 174.0 430.90981012658284 0.4896778164730411 19.0 0.0 17.0 
246.00010179366993 360.0 174.0 430.90031645569616 0.49203412369898647 20.0 0.0 17.0 
248.00010179366993 360.0 174.0 430.9034810126585 0.5056825082741637 21.0 0.0 17.0 
250.00010179366993 360.0 174.0 430.90981012658284 0.5259814634499765 21.0 0.0 17.0 
252.00010179366993 358.0 173.0 430.90031645569616 0.5115059730595869 21.0 0.0 17.0 
254.00010179366993 360.0 174.0 430.90031645569616 0.5238307564192846 22.0 0.0 17.0 
256.00010179366996 360.0 173.0 434.5601265822793 0.4986082464306495 22.0 0.0 19.0 
258.00010179366996 364.0 175.0 434.5553797468357 0.504334234497034 22.0 0.0 19.0 
260.00010179366996 362.0 175.0 434.5775316455699 0.49178377223433123 22.0 0.0 19.0 
262.00010179366996 362.0 175.0 434.53955696202485 0.49179603069221695 22.0 0.0 19.0 
264.00010179366996 363.0 176.0 434.5569620253169 0.5018842751251147 22.0 0.0 19.0 
266.00010179366996 364.0 176.0 434.5506329113925 0.5348097068221943 22.0 0.0 19.0 
268.00010179366996 359.0 175.0 434.5617088607601 0.5356538608280735 21.0 0.0 19.0 
270.00010179366996 356.0 174.0 434.5632911392399 0.5225118720565017 21.0 0.0 19.0 
272.00010179366996 356.0 174.0 434.53481012658267 0.49208772448829646 21.0 0.0 19.0 
274.00010179366996 356.0 174.0 434.53955696202485 0.4920884202386088 21.0 0.0 19.0 
276.00010179366996 356.0 174.0 434.55379746835484 0.4920851734038174 21.0 0.0 19.0 
278.00010179366996 356.0 174.0 434.53797468354327 0.4976434682584538 21.0 0.0 19.0 
280.00010179366996 356.0 174.0 434.5458860759492 0.5258649624346873 21.0 0.0 19.0 
282.00010179366996 354.0 175.0 432.73892405063225 0.5559451641589505 21.0 0.0 18.0 
284.00010179366996 344.0 174.0 432.7183544303795 0.4968045913379959 21.0 0.0 18.0 
286.00010179366996 344.0 174.0 432.71993670886025 0.5141213013924195 21.0 0.0 18.0 
288.00010179366996 344.0 174.0 432.73417721519036 0.5400920945872161 21.0 0.0 18.0 
290.00010179366996 342.0 173.0 432.7151898734172 0.5186573308756958 21.0 0.0 18.0 
292.00010179366996 341.0 172.0 432.71993670886025 0.49147057813419587 21.0 0.0 18.0 
294.00010179366996 342.0 173.0 432.73417721519036 0.5079406861004913 21.0 0.0 18.0 
296.00010179366996 342.0 173.0 432.7151898734172 0.52256314260384 21.0 0.0 18.0 
298.00010179366996 338.0 172.0 432.71993670886025 0.4925176541053548 21.0 0.0 18.0 
300.00010179366996 342.0 173.0 432.7405063291132 0.4941006318162271 22.0 0.0 18.0 
302.00010179366996 343.0 173.0 432.7151898734172 0.511419465707526 23.0 0.0 18.0 
304.00010179366996 346.0 174.0 432.71993670886025 0.5469293797369782 23.0 0.0 18.0 
306.00010179366996 344.0 173.0 432.73417721519036 0.5342238537222496 23.0 0.0 18.0 
308.00010179366996 342.0 172.0 432.7151898734172 0.49475728771361427 22.0 0.0 18.0 
310.00010179366996 342.0 172.0 432.72943037974727 0.4947532753482431 22.0 0.0 18.0 
312.00010179366996 342.0 172.0 432.73734177215084 0.49697357144877036 21.0 0.0 18.0 
314.00010179366996 342.0 172.0 432.7151898734172 0.5121787881720801 21.0 0.0 18.0 
316.00010179366996 342.0 172.0 432.71993670886025 0.5249317049850417 21.0 0.0 18.0 
318.00010179366996 340.0 172.0 429.0933544303794 0.4943397353623369 20.0 0.0 16.0 
320.00010179366996 342.0 173.0 429.0870253164566 0.4908061240863221 20.0 0.0 16.0 
322.00010179366996 344.0 173.0 429.08386075949426 0.5058271714141845 20.0 0.0 16.0 
324.00010179366996 350.0 174.0 434.53006329113975 0.5286298659442977 23.0 0.0 19.0 
326.00010179366996 348.0 173.0 434.5553797468355 0.501857319565781 23.0 0.0 19.0 
328.00010179366996 348.0 173.0 434.5553797468355 0.5151307117629972 23.0 0.0 19.0 
330.00010179366996 348.0 173.0 434.54113924050574 0.5271264130003568 23.0 0.0 19.0 
332.00010179366996 346.0 172.0 434.54430379746776 0.5138853073892007 23.0 0.0 19.0 
334.00010179366996 346.0 172.0 434.53639240506413 0.5391762260070517 23.0 0.0 19.0 
336.00010179366996 340.0 171.0 434.5332278481018 0.5226519975025491 23.0 0.0 19.0 
338.00010179366996 336.0 170.0 434.5379746835434 0.49212432604304723 23.0 0.0 19.0 
340.00010179366996 336.0 170.0 434.53164556962014 0.5100849870475948 23.0 0.0 19.0 
342.00010179366996 336.0 170.0 432.71044303797504 0.528024120351892 23.0 0.0 18.0 
344.00010179366996 335.0 170.0 432.71044303797504 0.4898852602118262 22.0 0.0 18.0 
346.00010179366996 336.0 171.0 432.71044303797504 0.490559802482625 21.0 0.0 18.0 
348.00010179366996 336.0 171.0 432.71044303797504 0.490559802482625 21.0 0.0 18.0 
350.00010179366996 338.0 172.0 432.7167721518983 0.49059348149580306 21.0 0.0 18.0 
352.00010179366996 338.0 172.0 432.71044303797504 0.49059535310483066 21.0 0.0 18.0 
354.00010179366996 340.0 173.0 432.71044303797504 0.5080225174702552 21.0 0.0 18.0 
356.00010179366996 340.0 173.0 432.71044303797504 0.5428051261659075 21.0 0.0 18.0 
358.00010179366996 339.0 173.0 432.71044303797504 0.5081497823310681 21.0 0.0 18.0 
360.00010179366996 340.0 172.0 432.7167721518983 0.4902355226708284 22.0 0.0 18.0 
362.00010179366996 342.0 173.0 432.71044303797504 0.4902760794833148 22.0 0.0 18.0 
364.00010179366996 342.0 173.0 432.71044303797504 0.4902765453423304 22.0 0.0 18.0 
366.00010179366996 342.0 173.0 432.71044303797504 0.4902765453423304 22.0 0.0 18.0 
368.00010179366996 344.0 174.0 432.71044303797504 0.49478752699763867 22.0 0.0 18.0 
370.00010179366996 344.0 174.0 432.7167721518983 0.5121127808257403 22.0 0.0 18.0 
372.00010179366996 343.0 173.0 432.71044303797504 0.5308675373315912 22.0 0.0 18.0 
374.00010179366996 340.0 173.0 432.71044303797504 0.5297616479050379 21.0 0.0 18.0 
376.00010179366996 338.0 172.0 430.89556962025273 0.5174482943694353 21.0 0.0 17.0 
378.00010179366996 336.0 171.0 430.89556962025273 0.4911012357862324 21.0 0.0 17.0 
380.00010179366996 336.0 171.0 430.90189873417745 0.49109887557130816 20.0 0.0 17.0 
382.00010179366996 337.0 172.0 430.89556962025273 0.48985217094052363 19.0 0.0 17.0 
384.00010179366996 339.0 172.0 430.89556962025273 0.49092800466958264 19.0 0.0 17.0 
386.00010179366996 340.0 173.0 430.89556962025273 0.49140039395066937 19.0 0.0 17.0 
388.00010179366996 340.0 173.0 430.89556962025273 0.49140039395066937 19.0 0.0 17.0 
390.00010179366996 340.0 173.0 430.90189873417745 0.5044985013368141 19.0 0.0 17.0 
392.00010179366996 340.0 173.0 429.08069620253224 0.5219676136811734 18.0 0.0 16.0 
394.00010179366996 340.0 172.0 425.4509493670887 0.49572125510168047 17.0 0.0 14.0 
396.00010179366996 340.0 172.0 425.4509493670887 0.5133424004761298 17.0 0.0 14.0 
398.00010179366996 339.0 172.0 425.4509493670887 0.5094623815468016 17.0 0.0 14.0 
400.00010179366996 338.0 171.0 425.4572784810131 0.4912838207598483 16.0 0.0 14.0 
402.00010179366996 340.0 172.0 425.4509493670887 0.4935181419663739 16.0 0.0 14.0 
404.00010179366996 340.0 172.0 425.4509493670887 0.5111632554793399 16.0 0.0 14.0 
406.00010179366996 340.0 172.0 425.4509493670887 0.5287844008537893 16.0 0.0 14.0 
408.00010179366996 336.0 171.0 425.4509493670887 0.49137195243803616 16.0 0.0 14.0 
410.00010179366996 337.0 172.0 425.45411392405106 0.4895738810606947 16.0 0.0 14.0 
412.00010179366996 342.0 174.0 425.4509493670887 0.4914571411061395 16.0 0.0 14.0 
414.00010179366996 342.0 174.0 425.4509493670887 0.4914571411061395 16.0 0.0 14.0 
416.00010179366996 342.0 174.0 425.4509493670887 0.4914571411061395 16.0 0.0 14.0 
418.00010179366996 343.0 174.0 425.4509493670887 0.4998637198380177 16.0 0.0 14.0 
420.00010179366996 344.0 175.0 425.4572784810131 0.5213968169085224 16.0 0.0 14.0 
422.00010179366996 345.0 175.0 425.4509493670887 0.5489637990348637 16.0 0.0 14.0 
424.00010179366996 352.0 176.0 427.27689873417745 0.5648436915294294 17.0 0.0 15.0 
426.00010179366996 348.0 174.0 427.2863924050641 0.49134831257896006 17.0 0.0 15.0 
428.00010179366996 349.0 175.0 427.292721518987 0.49015674486624156 17.0 0.0 15.0 
430.00010179366996 352.0 176.0 427.2895569620246 0.4913961335761201 17.0 0.0 15.0 
432.00010179366996 353.0 176.0 427.2911392405058 0.4949681666906985 17.0 0.0 15.0 
434.00010179366996 357.0 177.0 427.2974683544301 0.5115684145989475 17.0 0.0 15.0 
436.00010179366996 358.0 178.0 427.2832278481017 0.5293478852279033 17.0 0.0 15.0 
438.00010179366996 356.0 178.0 427.28006329113975 0.49564205813999473 17.0 0.0 15.0 
440.00010179366996 356.0 178.0 427.27689873417745 0.5292568482456403 17.0 0.0 15.0 
442.00010179366996 356.0 178.0 427.27056962025273 0.5670791461760317 17.0 0.0 15.0 
444.00010179366996 352.0 176.0 427.27056962025273 0.5085093468948508 17.0 0.0 15.0 
446.00010179366996 352.0 176.0 427.27056962025273 0.521331683334416 17.0 0.0 15.0 
448.00010179366996 350.0 175.0 427.27056962025273 0.5048475686933207 17.0 0.0 15.0 
450.00010179366996 350.0 175.0 427.27689873417745 0.5220126613603899 17.0 0.0 15.0 
452.00010179366996 348.0 174.0 427.27056962025273 0.4919482467328416 17.0 0.0 15.0 
454.00010179366996 348.0 174.0 427.27056962025273 0.491946861256029 17.0 0.0 15.0 
456.00010179366996 348.0 174.0 427.27056962025273 0.49194870855844575 17.0 0.0 15.0 
458.00010179366996 348.0 174.0 427.27056962025273 0.49194870855844575 17.0 0.0 15.0 
460.00010179366996 348.0 174.0 427.27689873417745 0.49194639943042473 17.0 0.0 15.0 
462.00010179366996 348.0 174.0 427.27056962025273 0.4919482467328416 17.0 0.0 15.0 
464.00010179366996 350.0 175.0 427.27056962025273 0.4943812035991645 17.0 0.0 15.0 
466.00010179366996 352.0 176.0 427.27056962025273 0.5132715546131339 17.0 0.0 15.0 
468.00010179366996 355.0 176.0 429.09018987341705 0.5293116342472081 18.0 0.0 16.0 
470.00010179366996 365.0 177.0 429.09968354430373 0.49172107410630317 18.0 0.0 16.0 
472.00010179366996 366.0 177.0 429.09968354430373 0.510493795446767 18.0 0.0 16.0 
474.00010179366996 366.0 177.0 429.0965189873414 0.5317687050366888 18.0 0.0 16.0 
476.00010179366996 364.0 176.0 429.0933544303794 0.5149260157869029 18.0 0.0 16.0 
478.00010179366996 364.0 176.0 429.09968354430373 0.5320977801491815 18.0 0.0 16.0 
480.00010179366996 362.0 175.0 429.09968354430373 0.49562968312719724 18.0 0.0 16.0 
482.00010179366996 362.0 175.0 429.0933544303794 0.5086465168532254 18.0 0.0 16.0 
484.00010179366996 363.0 176.0 429.0933544303794 0.522847039901587 18.0 0.0 16.0 
486.00010179366996 362.0 175.0 429.0933544303794 0.4983127361001044 18.0 0.0 16.0 
488.00010179366996 362.0 176.0 429.09968354430373 0.4916462687517995 18.0 0.0 16.0 
490.00010179366996 362.0 176.0 429.0965189873414 0.49163916966334487 18.0 0.0 16.0 
492.00010179366996 362.0 176.0 429.09018987341705 0.49164718056132567 18.0 0.0 16.0 
494.00010179366996 362.0 176.0 429.09018987341705 0.4959197730253037 18.0 0.0 16.0 
496.00010179366996 362.0 176.0 429.09018987341705 0.5130151578336102 18.0 0.0 16.0 
498.00010179366996 363.0 177.0 429.0933544303794 0.5375053322439556 18.0 0.0 16.0 
500.00010179366996 362.0 176.0 429.0965189873414 0.5172829958622011 18.0 0.0 16.0 
502.00010179366996 361.0 175.0 429.09018987341705 0.5123557658255632 18.0 0.0 16.0 
504.00010179366996 360.0 175.0 429.09018987341705 0.49162023732490673 18.0 0.0 16.0 
506.00010179366996 360.0 175.0 429.09018987341705 0.4916216168298365 18.0 0.0 16.0 
508.00010179366996 360.0 175.0 429.0965189873414 0.49593196165742265 18.0 0.0 16.0 
510.00010179366996 360.0 175.0 429.0965189873414 0.5131661806802745 18.0 0.0 16.0 
512.00010179367 360.0 175.0 429.09018987341705 0.5304142604431357 18.0 0.0 16.0 
514.00010179367 359.0 174.0 429.09018987341705 0.49170994157928966 18.0 0.0 16.0 
516.00010179367 360.0 175.0 429.09018987341705 0.491621616829813 18.0 0.0 16.0 
518.00010179367 360.0 175.0 429.0965189873414 0.491621616829813 18.0 0.0 16.0 
520.00010179367 360.0 175.0 429.0965189873414 0.4916144565423198 18.0 0.0 16.0 
522.00010179367 361.0 176.0 429.09018987341705 0.4902937293271223 18.0 0.0 16.0 
524.00010179367 364.0 177.0 429.09018987341705 0.5086210115104157 18.0 0.0 16.0 
526.00010179367 364.0 177.0 429.09018987341705 0.5425206727186518 18.0 0.0 16.0 
528.00010179367 363.0 177.0 429.0933544303794 0.508370677777325 18.0 0.0 16.0 
530.00010179367 364.0 177.0 429.0965189873414 0.49138554097298304 18.0 0.0 16.0 
532.00010179367 365.0 178.0 429.0933544303794 0.4937649110822429 18.0 0.0 16.0 
534.00010179367 368.0 178.0 429.0933544303794 0.5107593589948286 18.0 0.0 16.0 
536.00010179367 370.0 179.0 429.0933544303794 0.5291780456587022 18.0 0.0 16.0 
538.00010179367 370.0 178.0 429.0933544303794 0.49153424472243035 18.0 0.0 16.0 
540.00010179367 371.0 179.0 429.09968354430373 0.49065515268231086 18.0 0.0 16.0 
542.00010179367 374.0 180.0 429.0933544303794 0.49993044071970205 18.0 0.0 16.0 
544.00010179367 376.0 181.0 429.0933544303794 0.5309011502839432 18.0 0.0 16.0 
546.00010179367 376.0 181.0 429.0933544303794 0.5680912329285714 18.0 0.0 16.0 
548.00010179367 374.0 180.0 429.0933544303794 0.5105525498143225 18.0 0.0 16.0 
550.00010179367 372.0 180.0 429.0965189873414 0.49168062512094324 18.0 0.0 16.0 
552.00010179367 372.0 180.0 429.09018987341705 0.5041338169034958 18.0 0.0 16.0 
554.00010179367 372.0 180.0 429.09018987341705 0.5373403468810014 18.0 0.0 16.0 
556.00010179367 370.0 179.0 429.09018987341705 0.5377197734540055 18.0 0.0 16.0 
558.00010179367 368.0 178.0 429.0965189873414 0.5379324039715208 18.0 0.0 16.0 
560.00010179367 368.0 178.0 429.0965189873414 0.5387298576358691 18.0 0.0 16.0 
562.00010179367 363.0 177.0 429.09018987341705 0.5290847600608406 18.0 0.0 16.0 
564.00010179367 360.0 178.0 429.09018987341705 0.5304778519956993 18.0 0.0 16.0 
566.00010179367 361.0 178.0 429.09018987341705 0.49229626215482697 18.0 0.0 16.0 
568.00010179367 362.0 178.0 429.0965189873414 0.49472977160027254 18.0 0.0 16.0 
570.00010179367 362.0 178.0 429.0965189873414 0.5197926335483775 18.0 0.0 16.0 
572.00010179367 361.0 178.0 429.09018987341705 0.5477703776900532 18.0 0.0 16.0 
574.00010179367 361.0 178.0 432.73575949367165 0.4903124798106104 20.0 0.0 18.0 
576.00010179367 362.0 178.0 434.5474683544301 0.4958312562976087 21.0 0.0 19.0 
578.00010179367 362.0 178.0 434.56329113923994 0.5084627011836133 21.0 0.0 19.0 
580.00010179367 365.0 179.0 434.56487341772083 0.5233725135542034 21.0 0.0 19.0 
582.00010179367 363.0 179.0 434.56803797468314 0.5107323562303124 21.0 0.0 19.0 
584.00010179367 363.0 178.0 434.54272151898715 0.5059107966520162 21.0 0.0 19.0 
586.00010179367 364.0 179.0 434.5474683544301 0.5466219026707393 21.0 0.0 19.0 
588.00010179367 361.0 178.0 434.55221518987344 0.5361564514113839 21.0 0.0 19.0 
590.00010179367 357.0 177.0 434.54430379746776 0.529503131474391 21.0 0.0 19.0 
592.00010179367 358.0 177.0 434.53955696202485 0.5317656046162436 21.0 0.0 19.0 
594.00010179367 358.0 178.0 434.55379746835484 0.5395552336074785 21.0 0.0 19.0 
596.00010179367 356.0 177.0 434.53481012658267 0.5399738145295864 21.0 0.0 19.0 
598.00010179367 354.0 176.0 434.53955696202485 0.5231960283625833 21.0 0.0 19.0 
600.00010179367 352.0 175.0 434.56012658227917 0.4936353008627219 21.0 0.0 19.0 
602.00010179367 352.0 175.0 434.53481012658267 0.4979615099970016 21.0 0.0 19.0 
604.00010179367 352.0 175.0 434.53955696202485 0.5224172231009419 21.0 0.0 19.0 
606.00010179367 352.0 175.0 434.55379746835484 0.5554613607725305 21.0 0.0 19.0 
608.00010179367 346.0 173.0 434.53481012658267 0.4930317747031379 21.0 0.0 19.0 
610.00010179367 346.0 173.0 434.54588607594917 0.49303014419658214 21.0 0.0 19.0 
612.00010179367 347.0 173.0 434.55379746835484 0.49092437090888386 21.0 0.0 19.0 
614.00010179367 350.0 175.0 434.53481012658267 0.49305845501699597 21.0 0.0 19.0 
616.00010179367 350.0 175.0 434.53955696202485 0.4930605153934572 21.0 0.0 19.0 
618.00010179367 350.0 175.0 434.55379746835484 0.5016410013505307 21.0 0.0 19.0 
620.00010179367 350.0 175.0 434.54113924050574 0.5188086122554971 21.0 0.0 19.0 
622.00010179367 350.0 174.0 434.53955696202485 0.5160892248283584 21.0 0.0 19.0 
624.00010179367 350.0 175.0 434.55379746835484 0.5101022810357098 21.0 0.0 19.0 
626.00010179367 350.0 175.0 434.53481012658267 0.5230372241157698 21.0 0.0 19.0 
628.00010179367 348.0 174.0 434.53955696202485 0.49304661583607323 21.0 0.0 19.0 
630.00010179367 348.0 174.0 434.56012658227917 0.49304107392882274 21.0 0.0 19.0 
632.00010179367 348.0 174.0 432.71993670886025 0.4930454612720632 20.0 0.0 18.0 
634.00010179367 348.0 174.0 432.7246835443039 0.49304523035926046 20.0 0.0 18.0 
636.00010179367 348.0 174.0 432.7389240506324 0.4930433830568443 20.0 0.0 18.0 
638.00010179367 348.0 174.0 432.71993670886025 0.4930459230976675 20.0 0.0 18.0 
640.00010179367 348.0 174.0 432.7310126582283 0.4930443067080517 20.0 0.0 18.0 
642.00010179367 351.0 176.0 432.7389240506324 0.49602585105908625 20.0 0.0 18.0 
644.00010179367 352.0 176.0 430.90506329113975 0.5143487312659688 19.0 0.0 17.0 
646.00010179367 352.0 176.0 430.9098101265827 0.5313720507030559 19.0 0.0 17.0 
648.00010179367 354.0 176.0 427.27056962025273 0.4919108191764073 19.0 0.0 15.0 
650.00010179367 354.0 176.0 427.27689873417745 0.4919085396525912 19.0 0.0 15.0 
652.00010179367 354.0 176.0 427.27056962025273 0.49618386754514837 19.0 0.0 15.0 
654.00010179367 356.0 177.0 427.27056962025273 0.513119251994399 17.0 0.0 15.0 
656.00010179367 356.0 177.0 427.27056962025273 0.5300584596311763 17.0 0.0 15.0 
658.00010179367 363.0 179.0 430.90031645569627 0.5009773483449808 19.0 0.0 17.0 
660.00010179367 365.0 181.0 430.9034810126586 0.514557591159146 20.0 0.0 17.0 
662.00010179367 363.0 180.0 430.90031645569627 0.5105434417860614 20.0 0.0 17.0 
664.00010179367 362.0 180.0 430.90031645569627 0.5015526170654414 20.0 0.0 17.0 
#####################################################################
# End of data export. Simulation finished at: 2019-03-12T21:02+0000 #
#####################################################################
