#####################################################################
# Alchemist log file - simulation started at: 2019-03-09T15:25+0000 #
#####################################################################
# seed = 3.0, bandwidth = 1333521.4321633242, accessPointCount = 531.8295896944988, baserange = 1000.0
#
# The columns have the following meaning: 
# time neighbor_count[Sum] <value>@neighbor_count[Sum] packet_size[Mean] mean_delay[Mean] crowd[Sum] overcrowded[Sum] risk[Sum] 
0.0 NaN NaN NaN NaN NaN NaN NaN 
2.0005923698108097 13269.0 10602.0 4982.465483234714 0.47748789750642534 1497.0 0.0 1497.0 
4.00015623739366 15957.0 10937.0 4983.4773175542405 0.5468741950514586 1497.0 0.0 1497.0 
6.000084666035003 18949.0 10956.0 4984.865877712032 0.553520037419534 1497.0 0.0 1497.0 
8.00030993628611 22581.0 10961.0 4986.337278106509 0.5839738842380914 1496.0 1.0 1496.0 
10.000274929829798 25097.0 10912.0 4987.459566074951 0.5778565893688334 1497.0 0.0 1497.0 
12.000332341642231 26038.0 10798.0 4988.205128205128 0.5555501343117314 1492.0 5.0 1492.0 
14.000332341642231 25228.0 10686.0 4988.2268244575935 0.49786773491429925 1490.0 7.0 1490.0 
16.000084666035004 25283.0 10687.0 4988.358974358975 0.4980313197400584 1487.0 10.0 1487.0 
18.00012495098793 25278.0 10686.0 4988.4812623274165 0.4975337997815032 1488.0 9.0 1488.0 
20.00012495098793 25284.0 10687.0 4988.613412228797 0.4975195078780315 1487.0 10.0 1487.0 
22.00012495098793 25284.0 10687.0 4988.08875739645 0.49778436837482376 1488.0 9.0 1488.0 
24.00012495098793 25288.0 10688.0 4988.029585798817 0.4987168190483199 1484.0 13.0 1484.0 
26.000084666035004 25287.0 10687.0 4987.8540433925045 0.49784103821028436 1487.0 10.0 1487.0 
28.00012495098793 25313.0 10690.0 4988.282051282052 0.5008988084712107 1483.0 14.0 1483.0 
30.00012495098793 25273.0 10687.0 4988.319526627219 0.49824274186214323 1483.0 14.0 1483.0 
32.00012495098793 25272.0 10687.0 4988.10650887574 0.4983882790411401 1483.0 14.0 1483.0 
34.00012495098793 25275.0 10689.0 4987.9388560157795 0.49969471463182635 1483.0 14.0 1483.0 
36.00008466603501 25327.0 10689.0 4987.994082840237 0.4991868801132038 1483.0 14.0 1483.0 
38.00012495098793 25261.0 10690.0 4988.112426035503 0.5000058589953399 1484.0 13.0 1484.0 
40.00012495098793 25233.0 10688.0 4988.232741617357 0.49848701677025825 1485.0 12.0 1485.0 
42.00012495098793 25232.0 10688.0 4988.013806706114 0.4985965259375084 1488.0 9.0 1488.0 
44.00012495098793 25234.0 10689.0 4987.990138067062 0.4989887867213399 1488.0 9.0 1488.0 
46.00008466603501 25320.0 10689.0 4987.865877712032 0.49926834606976844 1487.0 10.0 1487.0 
48.00012495098793 25280.0 10690.0 4988.19526627219 0.49958989112033925 1488.0 9.0 1488.0 
50.00012495098793 25268.0 10689.0 4988.22090729783 0.4984180828407647 1487.0 10.0 1487.0 
52.00012495098793 25282.0 10690.0 4987.968441814595 0.4999195413190378 1488.0 9.0 1488.0 
54.00012495098793 25314.0 10692.0 4987.857988165681 0.5006816830869826 1487.0 10.0 1487.0 
56.00008466603501 25285.0 10689.0 4987.919132149901 0.4994240861497237 1487.0 10.0 1487.0 
58.00012495098793 25230.0 10690.0 4988.207100591716 0.4987779850040265 1487.0 10.0 1487.0 
60.00012495098793 25238.0 10689.0 4988.39842209073 0.4997580798403977 1487.0 10.0 1487.0 
62.0001659326001 25243.0 10690.0 1165.2406311637117 0.49828326536142953 776.0 9.0 328.0 
64.0001659326001 25252.0 10692.0 1165.1913214990182 0.5043936844418554 600.0 12.0 325.0 
66.00008466603501 25244.0 10691.0 1165.088757396454 0.5043751811472134 535.0 18.0 319.0 
68.0001659326001 25250.0 10692.0 1164.9585798816584 0.5044623910409178 497.0 16.0 321.0 
70.0001659326001 25242.0 10689.0 1167.1104536489158 0.5041645177415746 477.0 16.0 322.0 
72.0001659326001 25240.0 10689.0 1167.0493096646926 0.5035161529133383 468.0 18.0 320.0 
74.0001659326001 25257.0 10690.0 1167.0414201183419 0.5045348998690259 467.0 17.0 321.0 
76.00008466603501 25272.0 10691.0 1167.0197238658725 0.5038108460717149 465.0 18.0 320.0 
78.0001659326001 25295.0 10690.0 1173.7869822485193 0.5048286054583921 460.0 17.0 324.0 
80.0001659326001 25280.0 10689.0 1173.8224852070928 0.5034836203097395 456.0 18.0 323.0 
82.0001659326001 25324.0 10690.0 1173.8224852070928 0.505070318196131 457.0 17.0 324.0 
84.00046589028382 25382.0 10691.0 1178.3471400394556 0.506397218505329 457.0 18.0 325.0 
86.00008466603501 25317.0 10689.0 1178.3984220907216 0.5039342079542346 457.0 17.0 326.0 
88.00046589028382 25314.0 10690.0 1178.2998027613362 0.5051024124595177 457.0 17.0 326.0 
90.00033353340315 25326.0 10690.0 1180.6883629191261 0.5052782081824717 458.0 16.0 328.0 
92.00046589028382 25258.0 10690.0 1180.6587771203215 0.5042025314276674 457.0 17.0 327.0 
94.00046589028382 25242.0 10689.0 1180.642998027612 0.5030366681865223 456.0 18.0 326.0 
96.00008466603501 25249.0 10690.0 1182.9250493096579 0.503804917917601 455.0 19.0 326.0 
98.00046589028382 25261.0 10691.0 1185.1755424063088 0.5050386569707993 456.0 19.0 327.0 
100.00033353340315 25271.0 10692.0 1189.7514792899372 0.5051052874374972 456.0 19.0 329.0 
102.00046589028382 25257.0 10690.0 1189.6962524654848 0.5041194753873436 454.0 21.0 327.0 
104.00046589028382 25252.0 10689.0 1189.7159763313568 0.5045554706364956 454.0 21.0 327.0 
106.00008466603501 25262.0 10689.0 1189.6469428007922 0.5041433405324152 454.0 21.0 327.0 
108.00046589028382 25268.0 10689.0 1187.4437869822434 0.5046571312382798 453.0 21.0 326.0 
110.00033353340315 25263.0 10689.0 1187.4082840236617 0.5033929378055788 454.0 20.0 327.0 
112.00046589028382 25333.0 10692.0 1187.4319526627298 0.5064560815070003 456.0 18.0 329.0 
114.00046589028382 25324.0 10691.0 1182.8974358974347 0.5050231850766567 458.0 17.0 328.0 
116.00008466603501 25268.0 10690.0 1185.0650887574018 0.505134206049809 460.0 17.0 329.0 
118.00046589028382 25248.0 10689.0 1187.355029585806 0.5041495225816496 462.0 16.0 331.0 
120.00033353340315 25294.0 10690.0 1189.6410256410306 0.5046493322907326 463.0 16.0 332.0 
122.00046589028382 25210.0 10690.0 1189.6666666666633 0.5045038896761357 463.0 16.0 332.0 
124.00046589028382 25224.0 10690.0 1187.3708086784984 0.503477999522176 463.0 16.0 331.0 
126.00008466603501 25258.0 10690.0 1185.1932938855996 0.503501194385758 463.0 16.0 330.0 
128.0002324647904 25391.0 10692.0 1187.349112426029 0.5066135352045158 463.0 16.0 331.0 
130.0002324647904 25265.0 10690.0 1187.3530571992078 0.5041235994460472 463.0 16.0 331.0 
132.0002324647904 25283.0 10689.0 1189.7001972386636 0.5040916656762244 463.0 16.0 332.0 
134.0002324647904 25278.0 10689.0 1189.5759368836286 0.5034187507476712 458.0 18.0 330.0 
136.000084666035 25286.0 10690.0 1189.5917159763383 0.5045874288143682 456.0 17.0 331.0 
138.0002324647904 25344.0 10690.0 1189.5601577909194 0.5042938855633651 456.0 18.0 330.0 
140.0002324647904 25294.0 10691.0 1191.9072978303673 0.5041058761400057 459.0 17.0 332.0 
142.0002324647904 25284.0 10690.0 1194.1735700197285 0.5051601394942138 458.0 18.0 332.0 
144.0002324647904 25240.0 10690.0 1196.4950690335345 0.5039518752235701 458.0 17.0 334.0 
146.000084666035 25318.0 10691.0 1189.702169625245 0.5051704423288316 455.0 19.0 329.0 
148.0002324647904 25259.0 10691.0 1192.0019723865817 0.5051776965969378 449.0 23.0 326.0 
150.0002324647904 25388.0 10694.0 1191.976331360949 0.5080694061669694 449.0 26.0 323.0 
152.0002324647904 25312.0 10691.0 1191.986193293889 0.5057198715367334 449.0 25.0 324.0 
154.0002324647904 25221.0 10689.0 1189.6587771203215 0.5031605244217681 450.0 25.0 323.0 
156.000084666035 25230.0 10690.0 1192.0177514792908 0.5042754389448416 450.0 24.0 325.0 
158.00046589028383 25248.0 10692.0 1198.6824457593727 0.5047227450467552 450.0 25.0 327.0 
160.00033353340314 25200.0 10689.0 1198.715976331357 0.5029802624753139 453.0 22.0 330.0 
162.00046589028383 25200.0 10689.0 1198.708086785014 0.5030475003066789 456.0 20.0 332.0 
164.00046589028383 25195.0 10689.0 1198.715976331357 0.5031821842407905 454.0 21.0 331.0 
166.000084666035 25307.0 10691.0 1201.0098619329322 0.5051944481904982 456.0 21.0 332.0 
168.00046589028383 25227.0 10690.0 1200.9526627218888 0.5038278786840312 461.0 17.0 336.0 
170.00016593260008 25218.0 10689.0 1200.9644970414183 0.5032815328354477 460.0 19.0 334.0 
172.00016593260008 25358.0 10692.0 1200.8698224852121 0.5066848185029523 460.0 18.0 335.0 
174.00016593260008 25274.0 10690.0 1198.781065088759 0.5044553660879192 460.0 19.0 333.0 
176.000084666035 25239.0 10689.0 1194.1617357001899 0.504075270686797 459.0 18.0 332.0 
178.00016593260008 25239.0 10690.0 1194.1735700197285 0.5049588842835998 458.0 19.0 331.0 
180.00016593260008 25270.0 10692.0 1196.483234713996 0.5079754866792774 459.0 18.0 333.0 
182.00016593260008 25236.0 10690.0 1196.4792899408242 0.5048131325201767 459.0 19.0 332.0 
184.00016593260008 25203.0 10689.0 1196.5364891518684 0.5054118332406352 457.0 18.0 333.0 
186.000084666035 25162.0 10689.0 1194.260355029583 0.503705483896529 457.0 19.0 331.0 
188.00016593260008 25162.0 10689.0 1194.2662721893532 0.5037730774411118 456.0 18.0 332.0 
190.00016593260008 25198.0 10689.0 1194.2209072978226 0.5038487885282994 454.0 19.0 331.0 
192.00016593260008 25211.0 10691.0 1192.0019723865814 0.5047373222891545 453.0 18.0 331.0 
194.00016593260008 25183.0 10691.0 1191.962524654837 0.5048631463681369 453.0 19.0 330.0 
196.000084666035 25180.0 10691.0 1189.6725838264335 0.5035633352953984 453.0 18.0 330.0 
198.00016593260008 25180.0 10691.0 1189.6331360946801 0.5035783649636891 453.0 20.0 328.0 
200.00016593260008 25270.0 10693.0 1191.9289940828369 0.5053708406246373 450.0 21.0 328.0 
202.00016593260008 25188.0 10691.0 1198.7573964497078 0.5034089037380801 450.0 23.0 329.0 
204.00016593260008 25330.0 10695.0 1198.8126232741606 0.5059849147871442 450.0 22.0 330.0 
206.000084666035 25277.0 10695.0 1198.8067061144004 0.5058763325186154 451.0 22.0 330.0 
208.00016593260008 25248.0 10694.0 1198.7475345167588 0.5053251668565437 450.0 23.0 329.0 
210.00016593260008 25242.0 10694.0 1192.0197238658723 0.5058291485213049 452.0 22.0 327.0 
212.00016593260008 25267.0 10692.0 1189.6528599605442 0.5059828241952135 456.0 18.0 330.0 
214.00016593260008 25274.0 10693.0 1187.4023668639015 0.5046234830726204 455.0 19.0 328.0 
216.000084666035 25198.0 10692.0 1185.1479289940787 0.5041852277977893 452.0 19.0 327.0 
218.00016593260008 25194.0 10691.0 1182.8244575936917 0.5034092022023611 451.0 21.0 324.0 
220.00016593260008 25204.0 10692.0 1180.5502958579866 0.5048076256989892 453.0 18.0 326.0 
222.00016593260008 25130.0 10692.0 1180.528599605517 0.5044751413976992 451.0 19.0 325.0 
224.00016593260008 25108.0 10692.0 1180.5581854043378 0.5048064556038826 449.0 21.0 323.0 
226.000084666035 25141.0 10695.0 1180.562130177518 0.5070438222798164 450.0 20.0 324.0 
228.00016593260008 25176.0 10693.0 1180.5897435897398 0.5052756747358013 452.0 16.0 328.0 
230.00016593260008 25160.0 10694.0 1180.6449704141933 0.509598095535126 451.0 18.0 326.0 
232.00016593260008 25034.0 10691.0 1182.8934911242561 0.50383279266545 450.0 16.0 329.0 
234.00016593260008 25034.0 10691.0 1185.228796844173 0.5040312404076087 451.0 16.0 330.0 
236.000084666035 25035.0 10692.0 1189.7554240631096 0.5050139586344098 454.0 15.0 333.0 
238.00016593260008 25075.0 10692.0 1189.571992110449 0.5060531788520284 456.0 16.0 332.0 
240.00033353340314 25015.0 10695.0 1182.8974358974347 0.5049663118137956 456.0 15.0 330.0 
242.00046589028383 25104.0 10695.0 1182.8264299802715 0.5072557036815751 456.0 15.0 330.0 
244.00043528008587 25013.0 10693.0 1185.1814595660792 0.5046949911422092 456.0 14.0 332.0 
246.000084666035 25051.0 10695.0 1185.1597633136164 0.5047312665422341 456.0 15.0 331.0 
248.00046589028383 25068.0 10694.0 1180.6114398422108 0.505143631736193 454.0 14.0 330.0 
250.00033353340314 25027.0 10694.0 1180.5877712031597 0.5038241970545275 452.0 15.0 329.0 
252.00046589028383 25022.0 10692.0 1178.319526627225 0.5031487907604669 450.0 15.0 328.0 
254.00016593260008 25055.0 10694.0 1178.2524654832416 0.5051050055621261 447.0 17.0 326.0 
256.00008466603504 25117.0 10696.0 1178.3017751479342 0.5061174411127545 451.0 15.0 328.0 
258.0001659326001 24944.0 10693.0 1178.2761341222924 0.5065345288445371 450.0 19.0 324.0 
260.0001659326001 24884.0 10694.0 1178.2879684418215 0.5066817087859574 450.0 18.0 325.0 
262.0001659326001 24896.0 10693.0 1180.40631163708 0.5039288857348134 450.0 17.0 327.0 
264.0001659326001 24842.0 10694.0 1180.5522682445783 0.505712692019489 451.0 16.0 328.0 
266.00008466603504 24830.0 10694.0 1189.660749506903 0.5043227301466277 450.0 16.0 332.0 
268.0001659326001 24804.0 10694.0 1191.9309664694356 0.5059602142721353 453.0 14.0 335.0 
270.0001659326001 24798.0 10695.0 1191.9329388560168 0.5055070567036833 451.0 16.0 333.0 
272.0001659326001 24844.0 10694.0 1191.885601577905 0.5050604494167346 450.0 16.0 333.0 
274.0001659326001 24771.0 10693.0 1191.9408284023687 0.5034880950988693 450.0 17.0 332.0 
276.00008466603504 24782.0 10694.0 1191.972386587777 0.5044681335042194 450.0 16.0 333.0 
278.0001659326001 24711.0 10693.0 1196.3767258382595 0.5031529570798072 454.0 17.0 334.0 
280.0001659326001 24709.0 10693.0 1196.3708086784984 0.5030964480791854 454.0 16.0 335.0 
282.0001659326001 24716.0 10693.0 1196.351084812628 0.504067035368024 453.0 17.0 334.0 
284.0001659326001 24702.0 10694.0 1196.4240631163714 0.5044973364934635 451.0 16.0 335.0 
286.00008466603504 24624.0 10692.0 1196.357001972388 0.5030517009991153 451.0 17.0 334.0 
288.0001659326001 24626.0 10692.0 1196.414201183439 0.5033550344825132 451.0 16.0 335.0 
290.0001659326001 24625.0 10693.0 1196.3017751479344 0.5049663705768069 448.0 20.0 331.0 
292.0001659326001 24629.0 10692.0 1196.3629191321475 0.5033660020575853 448.0 18.0 333.0 
294.0001659326001 24676.0 10693.0 1196.3530571992078 0.5054099194714169 448.0 20.0 331.0 
296.00008466603504 24609.0 10695.0 1198.58777120316 0.5062144335093238 449.0 19.0 333.0 
298.0001659326001 24549.0 10695.0 1196.3648915187391 0.5073533767510244 451.0 17.0 334.0 
300.0001659326001 24489.0 10692.0 1191.7928994082888 0.5038305253449792 451.0 16.0 333.0 
302.0001659326001 24472.0 10692.0 1187.3017751479342 0.5054046727621645 450.0 17.0 330.0 
304.0001659326001 24372.0 10692.0 1187.357001972388 0.5029508864832075 447.0 16.0 331.0 
306.00008466603504 24396.0 10693.0 1185.108481262325 0.5040104488840972 448.0 17.0 329.0 
308.0001659326001 24413.0 10694.0 1187.3491124260288 0.5074203494908559 448.0 16.0 331.0 
310.0001659326001 24434.0 10692.0 1187.3057199210966 0.5062935210433925 446.0 17.0 330.0 
312.0001659326001 24390.0 10693.0 1185.1400394477268 0.505207611615281 446.0 16.0 330.0 
314.0001659326001 24332.0 10693.0 1189.58974358974 0.5053483130099307 449.0 17.0 331.0 
316.00008466603504 24311.0 10692.0 1192.0019723865812 0.5041962171386511 451.0 16.0 333.0 
318.0001659326001 24347.0 10695.0 1194.1735700197285 0.5052501489911722 451.0 18.0 332.0 
320.0001659326001 24376.0 10696.0 1196.4161735700127 0.5067757203694249 450.0 17.0 334.0 
322.0001659326001 24365.0 10693.0 1201.017751479291 0.5046242644650432 450.0 18.0 335.0 
324.0001659326001 24406.0 10695.0 1198.6804733727747 0.5063291514648061 451.0 17.0 335.0 
326.00008466603504 24320.0 10691.0 1198.6785009861942 0.5025107641895936 452.0 18.0 334.0 
328.0001659326001 24320.0 10691.0 1196.4220907297904 0.502505918509796 450.0 17.0 334.0 
330.0001659326001 24328.0 10692.0 1189.6134122287908 0.5032373231090959 449.0 18.0 330.0 
332.0001659326001 24351.0 10692.0 1189.5759368836286 0.5036454103216332 449.0 17.0 331.0 
334.0001659326001 24305.0 10693.0 1187.3412228796776 0.505132074218656 449.0 18.0 329.0 
336.00008466603504 24312.0 10693.0 1180.5660749506967 0.5052906027613548 449.0 16.0 328.0 
338.0001659326001 24226.0 10692.0 1178.185404339258 0.5037729405809719 445.0 17.0 326.0 
340.0001659326001 24222.0 10691.0 1175.9842209072901 0.5030940814140636 444.0 16.0 326.0 
342.0001659326001 24216.0 10692.0 1178.2544378698228 0.5038905680416346 444.0 17.0 326.0 
344.0001659326001 24215.0 10692.0 1182.7830374753394 0.50371103629576 448.0 16.0 329.0 
346.00008466603504 24269.0 10694.0 1185.098619329385 0.50640680479661 448.0 17.0 329.0 
348.0001659326001 24237.0 10694.0 1185.0788954635145 0.506607203602653 446.0 16.0 330.0 
350.0001659326001 24222.0 10693.0 1182.7258382643056 0.505916573468512 448.0 17.0 328.0 
352.0001659326001 24233.0 10693.0 1180.4694280078843 0.5048243517837269 448.0 16.0 328.0 
354.0001659326001 24175.0 10692.0 1182.7692307692278 0.5037264170289161 447.0 17.0 328.0 
356.00008466603504 24183.0 10692.0 1182.7238658777073 0.5046254356352883 446.0 16.0 329.0 
358.0001659326001 24115.0 10693.0 1182.7948717948698 0.5078053636181926 445.0 17.0 328.0 
360.0001659326001 24042.0 10692.0 1184.9881656804694 0.5050293927214307 447.0 16.0 330.0 
362.0001659326001 23996.0 10691.0 1184.9861932938888 0.5046641238465097 448.0 17.0 329.0 
364.0001659326001 23996.0 10693.0 1182.7416173569973 0.5050054702308187 448.0 16.0 329.0 
366.00008466603504 24034.0 10694.0 1169.1439842209056 0.5060927495326916 449.0 17.0 322.0 
368.0001659326001 24016.0 10692.0 1166.8382642998104 0.5044421149245043 447.0 16.0 322.0 
370.0001659326001 24028.0 10692.0 1171.400394477321 0.5063014427717166 446.0 17.0 323.0 
372.0001659326001 23961.0 10692.0 1171.4023668639013 0.5052070638800539 446.0 17.0 323.0 
374.0001659326001 23929.0 10691.0 1171.3491124260288 0.5051721815793115 447.0 18.0 322.0 
376.00008466603504 23947.0 10694.0 1171.40631163708 0.5042087822680467 449.0 16.0 324.0 
378.0001659326001 23959.0 10694.0 1171.4497041420132 0.5057946924560246 452.0 17.0 323.0 
380.0001659326001 23944.0 10691.0 1171.3806706114383 0.5042217901643231 450.0 16.0 324.0 
382.0001659326001 24007.0 10693.0 1169.1637080867883 0.5052769911571587 448.0 18.0 321.0 
384.0001659326001 24022.0 10695.0 1169.1873767258396 0.5067240936920303 447.0 20.0 319.0 
386.00008466603504 24049.0 10695.0 1178.2623274161813 0.5061010746389013 449.0 19.0 324.0 
388.0001659326001 23976.0 10692.0 1164.6942800789036 0.5054147221002177 443.0 21.0 316.0 
390.00033353340314 23968.0 10692.0 1162.4635108481318 0.5039671572485034 444.0 18.0 318.0 
392.0005324224741 23975.0 10693.0 1164.6528599605442 0.5069614761962672 442.0 18.0 319.0 
394.00043528008587 23894.0 10691.0 1164.6785009861942 0.5030477476895681 442.0 18.0 319.0 
396.00008466603504 23896.0 10692.0 1166.893491124256 0.503519122126182 442.0 18.0 320.0 
398.0005324224741 23919.0 10693.0 1166.9408284023687 0.5057957348506944 444.0 18.0 320.0 
400.00033353340314 23889.0 10693.0 1169.207100591711 0.5072690344661249 443.0 18.0 321.0 
402.0005324224741 23920.0 10693.0 1169.1913214990184 0.505171214426269 444.0 19.0 320.0 
404.0005324224741 23846.0 10693.0 1173.7337278106465 0.504895327865992 445.0 17.0 324.0 
406.00008466603504 23918.0 10695.0 1176.00591715976 0.5064501543645743 447.0 17.0 325.0 
408.0005324224741 23947.0 10695.0 1178.3116370808739 0.5077599737297014 447.0 16.0 327.0 
410.00033353340314 23971.0 10697.0 1180.5522682445778 0.5067102189652718 447.0 17.0 327.0 
412.00023246479043 23957.0 10693.0 1178.3293885601645 0.506377336908012 449.0 16.0 327.0 
414.00023246479043 23872.0 10692.0 1176.0631163708044 0.5046375804970326 450.0 17.0 325.0 
416.00008466603504 23896.0 10693.0 1173.7534516765356 0.504133722938701 449.0 16.0 325.0 
418.00023246479043 23907.0 10693.0 1173.7475345167586 0.5053769455155545 448.0 17.0 324.0 
420.00023246479043 23938.0 10696.0 1166.9211045364855 0.5061282893939815 448.0 16.0 322.0 
422.00023246479043 23916.0 10692.0 1164.6173570019703 0.5046258648801187 448.0 17.0 320.0 
424.00023246479043 23900.0 10693.0 1160.057199211051 0.5067002736965552 444.0 16.0 319.0 
426.00008466603504 23927.0 10694.0 1164.6213017751422 0.5053140415552125 441.0 17.0 320.0 
428.00023246479043 23894.0 10691.0 1157.7179487179549 0.5027321835505405 442.0 16.0 318.0 
430.00023246479043 23960.0 10693.0 1155.4990138067133 0.505014723213148 443.0 17.0 316.0 
432.00023246479043 23870.0 10691.0 1153.2110453648897 0.5032387112976547 443.0 16.0 316.0 
434.00023246479043 23875.0 10692.0 1150.9723865877775 0.5030523740938959 444.0 17.0 314.0 
436.00008466603504 23876.0 10692.0 1159.9842209072901 0.5028590842905996 448.0 16.0 319.0 
438.00023246479043 23921.0 10692.0 1159.99408284024 0.5036604274532517 448.0 17.0 318.0 
440.00023246479043 23965.0 10694.0 1157.7554240631093 0.5050583456193939 447.0 16.0 318.0 
442.00023246479043 23967.0 10692.0 1160.0729783037434 0.5044426040906383 449.0 17.0 318.0 
444.00023246479043 23925.0 10695.0 1162.2919132149852 0.5054152147506259 447.0 16.0 320.0 
446.00008466603504 23923.0 10692.0 1162.272189349114 0.5031469625705354 447.0 17.0 319.0 
448.00023246479043 24045.0 10697.0 1166.7692307692278 0.5079176941761843 450.0 16.0 322.0 
450.00023246479043 23978.0 10695.0 1169.0591715976316 0.5063481971855169 450.0 17.0 322.0 
452.00023246479043 23975.0 10695.0 1171.362919132148 0.505393504627906 449.0 16.0 324.0 
454.00023246479043 23916.0 10694.0 1171.3609467455667 0.5025945162442707 448.0 17.0 323.0 
456.00008466603504 23972.0 10694.0 1171.36686390532 0.5035745610064346 447.0 16.0 324.0 
458.00023246479043 23925.0 10693.0 1169.088757396454 0.5029001196892134 447.0 17.0 322.0 
460.00023246479043 23931.0 10695.0 1169.0690335305646 0.5044849611486478 447.0 16.0 323.0 
462.00023246479043 23945.0 10694.0 1169.0788954635143 0.5026114457057532 448.0 17.0 322.0 
464.00023246479043 23961.0 10696.0 1169.112426035497 0.5056801647676495 448.0 16.0 323.0 
466.00008466603504 23952.0 10698.0 1166.8145956607423 0.5067270447082423 449.0 17.0 321.0 
468.00023246479043 24025.0 10696.0 1169.0532544378725 0.5080558096358126 449.0 16.0 323.0 
470.00023246479043 23881.0 10696.0 1166.8106508875796 0.5089378242420022 445.0 17.0 321.0 
472.00023246479043 23804.0 10695.0 1155.455621301773 0.5038234463940716 444.0 16.0 317.0 
474.00023246479043 23805.0 10696.0 1153.177514792907 0.5056877079041804 440.0 17.0 315.0 
476.00008466603504 23780.0 10694.0 1148.7100591715955 0.5030890449729771 437.0 16.0 314.0 
478.00023246479043 23812.0 10693.0 1146.3688362919174 0.5031991656931225 439.0 17.0 312.0 
480.00023246479043 23867.0 10697.0 1148.6627218934843 0.5095455633564763 435.0 16.0 314.0 
482.00023246479043 23899.0 10694.0 1148.684418145954 0.504518288376158 437.0 17.0 313.0 
484.00023246479043 23780.0 10693.0 1144.110453648916 0.5025722816071917 436.0 16.0 312.0 
486.00008466603504 23789.0 10695.0 1139.5917159763385 0.5044313762717594 435.0 17.0 309.0 
488.00023246479043 23825.0 10695.0 1132.755424063109 0.5055067858176986 433.0 16.0 307.0 
490.00023246479043 23781.0 10692.0 1130.585798816561 0.5038279164988078 433.0 17.0 305.0 
492.00023246479043 23802.0 10694.0 1128.1913214990186 0.5035478614538158 432.0 16.0 305.0 
494.00023246479043 23938.0 10694.0 1130.4930966469358 0.5062617513662873 428.0 17.0 305.0 
496.00008466603504 23902.0 10694.0 1128.213017751481 0.5040631217548077 427.0 16.0 305.0 
498.00023246479043 23983.0 10695.0 1128.244575936891 0.5059889038865144 428.0 17.0 304.0 
500.00023246479043 24021.0 10693.0 1128.1499013806763 0.5060814746258774 428.0 16.0 305.0 
502.00023246479043 23946.0 10692.0 1121.4003944773203 0.5027126217770542 435.0 17.0 301.0 
504.00023246479043 24060.0 10696.0 1119.0729783037439 0.5071792905365733 436.0 16.0 301.0 
506.00008466603504 23915.0 10691.0 1119.112426035497 0.5031612399236188 434.0 17.0 300.0 
508.00023246479043 23899.0 10693.0 1121.3885601577895 0.5053761059466066 432.0 16.0 302.0 
510.0001659326001 23918.0 10695.0 1119.1262327416161 0.5059754799289584 431.0 17.0 300.0 
512.0001659326001 23947.0 10694.0 1121.3925049309696 0.5069909579760996 430.0 16.0 302.0 
514.0001659326001 23989.0 10696.0 1125.9802761341273 0.5086903428453057 431.0 17.0 303.0 
516.000084666035 23903.0 10693.0 1128.2781065088743 0.5037974999870322 429.0 17.0 304.0 
518.0001659326001 23960.0 10692.0 1119.222879684421 0.5045595317795875 427.0 16.0 301.0 
520.0001659326001 24019.0 10694.0 1116.990138067068 0.5044698815217161 427.0 16.0 300.0 
522.0001659326001 23954.0 10692.0 1112.4733727810637 0.5030929685112742 431.0 14.0 300.0 
524.0001659326001 23949.0 10691.0 1105.5522682445771 0.5029731579652483 425.0 14.0 297.0 
526.000084666035 23993.0 10694.0 1103.3629191321488 0.5034434224965566 424.0 15.0 295.0 
528.0001659326001 24024.0 10694.0 1107.9250493096577 0.5061518067728318 422.0 15.0 297.0 
530.0001659326001 24048.0 10694.0 1107.8106508875787 0.5062377427949123 421.0 16.0 296.0 
532.0001659326001 24022.0 10692.0 1117.0295857988203 0.5043907728248525 430.0 15.0 301.0 
534.0001659326001 24010.0 10694.0 1119.2603550295835 0.504836681790768 430.0 15.0 302.0 
536.000084666035 24056.0 10693.0 1123.7672583826472 0.5054820888870637 432.0 15.0 304.0 
538.0002324647904 24053.0 10695.0 1123.8244575936906 0.5058760176798922 435.0 15.0 304.0 
540.0001659326001 24091.0 10695.0 1121.5325443786971 0.5085087661403448 434.0 15.0 303.0 
542.0001659326001 24023.0 10692.0 1119.252465483241 0.5051095210714955 435.0 15.0 302.0 
544.0001659326001 23958.0 10692.0 1119.272189349114 0.5040975494382121 437.0 15.0 302.0 
546.000084666035 24057.0 10696.0 1123.790927021691 0.5065811618336675 438.0 15.0 304.0 
548.0001659326001 24065.0 10694.0 1123.8106508875787 0.5054692900868256 438.0 15.0 304.0 
550.0001659326001 24024.0 10695.0 1119.287968441821 0.5056119739428168 437.0 15.0 302.0 
552.0001659326001 24023.0 10694.0 1123.7593688362883 0.5036933984327945 442.0 15.0 304.0 
554.0001659326001 24022.0 10693.0 1123.7376725838187 0.5037778001315718 443.0 15.0 304.0 
556.000084666035 24083.0 10697.0 1126.0414201183428 0.5077532075905625 445.0 15.0 305.0 
558.0001659326001 23981.0 10698.0 1126.0394477317607 0.5092293964349252 447.0 15.0 305.0 
560.0001659326001 23900.0 10693.0 1119.1715976331307 0.5033001814221797 446.0 15.0 302.0 
562.0001659326001 23959.0 10695.0 1119.2130177514803 0.505546694210354 447.0 15.0 302.0 
564.0001659326001 24024.0 10697.0 1121.4753451676459 0.5065700557718789 447.0 15.0 303.0 
566.000084666035 23948.0 10696.0 1128.325443786986 0.5079472265795731 448.0 15.0 306.0 
568.0001659326001 23870.0 10693.0 1126.0611439842228 0.5032685025616848 451.0 14.0 306.0 
570.0001659326001 23880.0 10694.0 1126.0394477317607 0.5040366004823122 450.0 14.0 306.0 
572.0001659326001 23903.0 10696.0 1126.02169625247 0.5073232627378226 446.0 14.0 306.0 
574.0001659326001 23842.0 10696.0 1130.6370808678514 0.5053902594438114 443.0 14.0 308.0 
576.000084666035 23865.0 10693.0 1135.1558185404374 0.5042154488959237 446.0 14.0 310.0 
578.0001659326001 23871.0 10694.0 1137.4437869822439 0.5041120606743862 447.0 14.0 311.0 
580.0001659326001 23956.0 10694.0 1135.1617357001896 0.5048653429422589 447.0 14.0 310.0 
582.0001659326001 23891.0 10693.0 1132.8540433925034 0.5039664270682178 445.0 14.0 309.0 
584.0001659326001 23956.0 10696.0 1130.585798816561 0.5062277286533542 449.0 14.0 308.0 
586.000084666035 23940.0 10694.0 1135.1814595660785 0.5043273116532185 445.0 14.0 310.0 
588.0001659326001 23945.0 10693.0 1135.1400394477275 0.5039691073109414 445.0 14.0 310.0 
590.0001659326001 23950.0 10695.0 1144.1499013806765 0.5062236057631397 450.0 14.0 314.0 
592.0001659326001 23902.0 10693.0 1139.682445759373 0.5066551568577645 451.0 14.0 312.0 
594.0001659326001 23902.0 10696.0 1139.60552268245 0.5087880256940077 449.0 14.0 312.0 
596.000084666035 23834.0 10691.0 1137.4082840236617 0.5036712055824234 449.0 14.0 311.0 
598.0001659326001 23946.0 10693.0 1137.3747534516788 0.5060683959234463 448.0 14.0 311.0 
600.0001659326001 23936.0 10695.0 1141.9289940828369 0.508325107028178 450.0 14.0 313.0 
602.0001659326001 23943.0 10695.0 1139.686390532553 0.5088916082779676 450.0 14.0 312.0 
604.0001659326001 23900.0 10694.0 1132.875739644965 0.5065880224304944 452.0 14.0 309.0 
606.000084666035 23810.0 10690.0 1135.1360946745483 0.502815937534672 449.0 13.0 311.0 
608.0001659326001 23794.0 10691.0 1137.299802761336 0.5042414019700784 454.0 11.0 314.0 
610.0001659326001 23842.0 10693.0 1142.007889546359 0.5042150129195283 452.0 11.0 316.0 
612.0001659326001 23930.0 10694.0 1146.4891518737736 0.5052348488283558 456.0 11.0 318.0 
614.0001659326001 23986.0 10693.0 1146.471400394483 0.5071958186439552 456.0 11.0 318.0 
616.000084666035 23938.0 10691.0 1144.2287968441728 0.5050452282647252 455.0 12.0 316.0 
618.0005379909967 23973.0 10692.0 1139.6094674556293 0.508238386111256 451.0 15.0 311.0 
620.0003335334031 23986.0 10690.0 1144.1794871794802 0.5090176093902214 450.0 16.0 312.0 
622.0005379909967 23977.0 10689.0 1146.5009861932865 0.5056086245897696 449.0 15.0 314.0 
624.0005379909967 23916.0 10691.0 1146.5187376725776 0.5047922181553793 445.0 16.0 313.0 
626.000084666035 23933.0 10691.0 1155.6232741617405 0.5047261772755505 442.0 16.0 317.0 
628.0005379909967 23944.0 10691.0 1155.5719921104487 0.5042991891628736 448.0 15.0 318.0 
630.0003335334031 23970.0 10691.0 1153.331360946738 0.5058238458425246 448.0 16.0 316.0 
632.0005379909967 24005.0 10692.0 1157.8441814595626 0.5062217142380349 447.0 16.0 318.0 
634.0005379909967 23992.0 10690.0 1160.145956607498 0.505183650463284 447.0 15.0 320.0 
636.000084666035 23966.0 10690.0 1160.1203155818562 0.504950975663248 450.0 16.0 319.0 
638.0005379909967 24012.0 10690.0 1160.1025641025656 0.5046645273782266 450.0 16.0 319.0 
640.0003335334031 24019.0 10690.0 1157.7968441814505 0.5056656040632788 451.0 15.0 319.0 
642.0005379909967 23972.0 10691.0 1160.0571992110513 0.5051164639157388 451.0 16.0 319.0 
644.0005379909967 23975.0 10692.0 1151.0098619329317 0.5057120594114822 449.0 16.0 315.0 
646.000084666035 23986.0 10690.0 1151.0552268244523 0.5044013835520378 445.0 15.0 316.0 
648.0005379909967 23997.0 10690.0 1157.8343195266316 0.5042191088651136 445.0 16.0 318.0 
650.0003335334031 24024.0 10689.0 1160.1222879684362 0.504485253724933 440.0 16.0 319.0 
652.0005379909967 24108.0 10690.0 1162.4082840236608 0.5049284254344072 445.0 15.0 321.0 
654.0005379909967 24079.0 10691.0 1162.465483234712 0.50522214779519 444.0 16.0 320.0 
656.000084666035 24085.0 10692.0 1162.402366863901 0.5055497147855108 443.0 16.0 320.0 
658.0005379909967 24175.0 10694.0 1167.007889546359 0.5098679352086224 442.0 15.0 323.0 
660.0003335334031 24117.0 10693.0 1171.4615384615333 0.5073248616123465 442.0 16.0 324.0 
662.0005379909967 24100.0 10689.0 1171.5463510848074 0.5048625232909284 444.0 16.0 324.0 
664.0005379909967 24050.0 10691.0 1169.1518737672575 0.5092193675425093 446.0 15.0 324.0 
#####################################################################
# End of data export. Simulation finished at: 2019-03-09T15:47+0000 #
#####################################################################
