#####################################################################
# Alchemist log file - simulation started at: 2019-03-04T03:12+0000 #
#####################################################################
# seed = 0.0, bandwidth = 5623413.251903491, accessPointCount = 72.92664737217109, baserange = 31.622776601683796
#
# The columns have the following meaning: 
# time neighbor_count[Sum] <value>@neighbor_count[Sum] packet_size[Mean] mean_delay[Mean] crowd[Sum] overcrowded[Sum] risk[Sum] 
0.0 NaN NaN NaN NaN NaN NaN NaN 
10.00022733547309 116.0 15.0 4987.171446781389 0.5001045268853267 1495.0 2.0 1495.0 
20.00022733547309 116.0 15.0 4987.219885277246 0.5001166304759769 1490.0 7.0 1490.0 
30.00022733547309 116.0 15.0 4987.074569789675 0.5001193703435126 1490.0 7.0 1490.0 
40.00022733547309 116.0 15.0 4987.209687699172 0.500117913847997 1490.0 7.0 1490.0 
50.00022733547309 116.0 15.0 4987.074569789675 0.5001192348555594 1490.0 7.0 1490.0 
60.00022733547309 116.0 15.0 4987.209687699172 0.500117913847997 1490.0 7.0 1490.0 
70.00040553626063 116.0 15.0 429.3027405991076 0.5009161768889445 3.0 7.0 3.0 
80.00040553626063 116.0 15.0 429.3027405991076 0.5009161768889445 3.0 7.0 3.0 
90.00040553626063 116.0 15.0 429.3027405991076 0.5009163123768996 3.0 7.0 3.0 
100.00040553626063 116.0 15.0 429.3027405991076 0.5009163123768996 3.0 7.0 3.0 
110.00040553626063 116.0 15.0 429.3027405991076 0.5009163123768996 3.0 7.0 3.0 
120.00040553626063 116.0 15.0 429.3027405991076 0.5009163123768996 3.0 7.0 3.0 
130.00040553626064 116.0 15.0 429.3027405991076 0.5009163123768908 3.0 7.0 3.0 
140.00040553626064 116.0 15.0 429.3027405991076 0.5009163123768908 3.0 7.0 3.0 
150.00040553626064 116.0 15.0 429.3027405991076 0.500916176888936 3.0 7.0 3.0 
160.00040553626064 116.0 15.0 429.3027405991076 0.500916176888936 3.0 7.0 3.0 
170.00040553626064 116.0 15.0 429.3027405991076 0.500916176888936 3.0 7.0 3.0 
180.00040553626064 116.0 15.0 429.3027405991076 0.500916176888936 3.0 7.0 3.0 
190.00040553626064 116.0 15.0 429.3027405991076 0.5009163123768908 3.0 7.0 3.0 
200.00040553626064 116.0 15.0 429.3027405991076 0.5009163123768908 3.0 7.0 3.0 
210.00040553626064 116.0 15.0 429.3027405991076 0.5009163123768908 3.0 7.0 3.0 
220.00040553626064 116.0 15.0 429.3027405991076 0.5009163123768908 3.0 7.0 3.0 
230.00040553626064 116.0 15.0 429.3027405991076 0.5009163123768908 3.0 7.0 3.0 
240.00040553626064 116.0 15.0 429.3027405991076 0.5009163123768908 3.0 7.0 3.0 
250.00040553626064 116.0 15.0 429.3027405991076 0.5009163123768908 3.0 7.0 3.0 
260.00040553626064 116.0 15.0 429.3027405991076 0.5009163123768894 3.0 7.0 3.0 
270.00040553626064 116.0 15.0 429.3027405991076 0.5009163123768894 3.0 7.0 3.0 
280.00040553626064 116.0 15.0 429.3027405991076 0.5009163123768894 3.0 7.0 3.0 
290.00040553626064 116.0 15.0 429.3027405991076 0.5009163123768894 3.0 7.0 3.0 
300.00040553626064 116.0 15.0 429.3027405991076 0.5009163123768894 3.0 7.0 3.0 
310.00040553626064 116.0 15.0 429.3027405991076 0.5009163123768894 3.0 7.0 3.0 
320.00040553626064 116.0 15.0 429.3027405991076 0.5009163123768894 3.0 7.0 3.0 
330.00040553626064 116.0 15.0 429.3027405991076 0.5009163123768894 3.0 7.0 3.0 
340.00040553626064 117.0 16.0 429.3027405991076 0.502778368101135 3.0 7.0 3.0 
350.00040553626064 122.0 17.0 429.3027405991076 0.5007839905356751 3.0 7.0 3.0 
360.00040553626064 122.0 17.0 429.3027405991076 0.5007839905356751 3.0 7.0 3.0 
370.00040553626064 122.0 17.0 429.3027405991076 0.5424506572023419 3.0 7.0 3.0 
380.00040553626064 120.0 16.0 429.3027405991076 0.5008617288731376 3.0 7.0 3.0 
390.00040553626064 120.0 16.0 429.3027405991076 0.5008617288731376 3.0 7.0 3.0 
400.00040553626064 120.0 16.0 429.3027405991076 0.5008617288731376 3.0 7.0 3.0 
410.00040553626064 122.0 17.0 429.3027405991076 0.5007839905356751 3.0 7.0 3.0 
420.00040553626064 124.0 18.0 429.3027405991076 0.6161028273270531 3.0 7.0 3.0 
430.00040553626064 122.0 17.0 429.3027405991076 0.5007839905356751 3.0 7.0 3.0 
440.00040553626064 122.0 17.0 429.3027405991076 0.5007839905356751 3.0 7.0 3.0 
450.00040553626064 120.0 16.0 429.3027405991076 0.5008617288731376 3.0 7.0 3.0 
460.00040553626064 120.0 16.0 429.3027405991076 0.5008617288731376 3.0 7.0 3.0 
470.00040553626064 120.0 16.0 429.3027405991076 0.5008617288731376 3.0 7.0 3.0 
480.00040553626064 120.0 16.0 429.3027405991076 0.5008617288731376 3.0 7.0 3.0 
490.00040553626064 120.0 16.0 429.3027405991076 0.5008617288731376 3.0 7.0 3.0 
500.00040553626064 120.0 16.0 429.3027405991076 0.5008617288731376 3.0 7.0 3.0 
510.00040553626064 120.0 16.0 429.3027405991076 0.5008617288731376 3.0 7.0 3.0 
520.0004055362606 120.0 16.0 429.3027405991076 0.5008617288731578 3.0 7.0 3.0 
530.0004055362606 120.0 16.0 429.3027405991076 0.5008617288731578 3.0 7.0 3.0 
540.0004055362606 120.0 16.0 429.3027405991076 0.5008617288731578 3.0 7.0 3.0 
550.0004055362606 120.0 16.0 429.3027405991076 0.5008617288731578 3.0 7.0 3.0 
560.0004055362606 120.0 16.0 429.3027405991076 0.5008617288731578 3.0 7.0 3.0 
570.0004055362606 120.0 16.0 429.3027405991076 0.5008617288731578 3.0 7.0 3.0 
580.0004055362606 120.0 16.0 429.3027405991076 0.5008617288731578 3.0 7.0 3.0 
590.0004055362606 124.0 18.0 429.3027405991076 0.5007182119424635 3.0 7.0 3.0 
600.0004055362606 122.0 17.0 429.3027405991076 0.5007839905356984 3.0 7.0 3.0 
610.0004055362606 122.0 17.0 429.3027405991076 0.5007839905356984 3.0 7.0 3.0 
620.0004055362606 122.0 17.0 429.3027405991076 0.5007839905356984 3.0 7.0 3.0 
630.0004055362606 122.0 17.0 429.3027405991076 0.5007839905356984 3.0 7.0 3.0 
640.0004055362606 122.0 17.0 429.3027405991076 0.5007839905356984 3.0 7.0 3.0 
650.0004055362606 122.0 17.0 429.3027405991076 0.5007839905356984 3.0 7.0 3.0 
660.0004055362606 122.0 17.0 429.3027405991076 0.5007839905356984 3.0 7.0 3.0 
#####################################################################
# End of data export. Simulation finished at: 2019-03-04T03:18+0000 #
#####################################################################
