#####################################################################
# Alchemist log file - simulation started at: 2019-03-08T23:58+0000 #
#####################################################################
# seed = 7.0, bandwidth = 5623413.251903491, accessPointCount = 1031.338537721246, baserange = 316.2277660168379
#
# The columns have the following meaning: 
# time neighbor_count[Sum] <value>@neighbor_count[Sum] packet_size[Mean] mean_delay[Mean] crowd[Sum] overcrowded[Sum] risk[Sum] 
0.0 NaN NaN NaN NaN NaN NaN NaN 
2.0008200817491506 7001.0 5216.0 4980.256329113924 0.4954479483918202 1497.0 0.0 1497.0 
4.00071777846586 8725.0 5318.0 4981.047468354431 0.534186185361838 1497.0 0.0 1497.0 
6.000297418119471 10804.0 5361.0 4981.909810126583 0.5561651930431004 1496.0 1.0 1496.0 
8.000232337487532 12271.0 5338.0 4983.617088607594 0.5580761005873907 1494.0 3.0 1494.0 
10.000668870059808 13894.0 5337.0 4984.580696202532 0.5630864508057207 1496.0 1.0 1496.0 
12.000657489071584 13983.0 5266.0 4984.792721518987 0.5598432283947131 1495.0 2.0 1495.0 
14.00067456055392 13510.0 5187.0 4984.356012658228 0.5012086577066025 1494.0 3.0 1494.0 
16.000297418119473 13510.0 5187.0 4984.39240506329 0.5012079447759243 1491.0 6.0 1491.0 
18.000674560553918 13511.0 5187.0 4984.367088607594 0.500987068755365 1486.0 11.0 1486.0 
20.000657489071582 13543.0 5191.0 4984.835443037975 0.50217567736652 1489.0 8.0 1489.0 
22.000674560553918 13532.0 5189.0 4984.2990506329115 0.5021543952921258 1489.0 8.0 1489.0 
24.000657489071582 13529.0 5190.0 4984.039556962025 0.5027123502587348 1492.0 5.0 1492.0 
26.000297418119473 13524.0 5189.0 4983.998417721519 0.5014319216145212 1494.0 3.0 1494.0 
28.000657489071582 13524.0 5189.0 4984.308544303798 0.5014312651201901 1494.0 3.0 1494.0 
30.000674560553918 13524.0 5189.0 4984.48259493671 0.501471335564533 1493.0 4.0 1493.0 
32.00065748907158 13528.0 5191.0 4984.373417721519 0.5030302003721409 1492.0 5.0 1492.0 
34.00067456055392 13531.0 5190.0 4983.794303797468 0.5022511332472072 1493.0 4.0 1493.0 
36.00029741811947 13526.0 5190.0 4983.93670886076 0.5011534347262145 1491.0 6.0 1491.0 
38.00067456055392 13526.0 5190.0 4984.2468354430375 0.5011530759232777 1491.0 6.0 1491.0 
40.00065748907158 13544.0 5191.0 4984.511075949367 0.5025757211245313 1493.0 4.0 1493.0 
42.00067456055392 13602.0 5191.0 4984.096518987341 0.502063904650939 1489.0 8.0 1489.0 
44.00065748907158 13629.0 5193.0 4983.911392405063 0.503663509826611 1490.0 7.0 1490.0 
46.00029741811947 13669.0 5192.0 4983.800632911392 0.5038485146481153 1491.0 6.0 1491.0 
48.00065748907158 13667.0 5190.0 4984.129746835443 0.503602512401698 1489.0 8.0 1489.0 
50.00067456055392 13615.0 5188.0 4984.492088607594 0.5017342566965727 1490.0 7.0 1490.0 
52.00065748907158 13614.0 5188.0 4984.1281645569625 0.5017125906742361 1491.0 6.0 1491.0 
54.00067456055392 13618.0 5190.0 4983.764240506329 0.5036700505388421 1489.0 8.0 1489.0 
56.00029741811947 13608.0 5188.0 4983.916139240506 0.5029869154549482 1490.0 7.0 1490.0 
58.00067456055392 13645.0 5190.0 4984.072784810127 0.5038009959866789 1491.0 6.0 1491.0 
60.00065748907158 13595.0 5189.0 4984.495253164557 0.5027167565618174 1489.0 8.0 1489.0 
62.000820081749154 13598.0 5190.0 988.4082278480914 0.5030544209544612 747.0 7.0 316.0 
64.00082008174915 13560.0 5190.0 988.1629746835333 0.5023012339164832 560.0 17.0 306.0 
66.00029741811947 13598.0 5190.0 986.2674050633053 0.5024443394192223 517.0 19.0 303.0 
68.00082008174915 13552.0 5189.0 982.5822784810252 0.5013499445613943 469.0 18.0 302.0 
70.00082008174915 13637.0 5191.0 975.3291139240436 0.5046673840019176 447.0 18.0 298.0 
72.00082008174915 13555.0 5191.0 977.0854430379729 0.5045427250752417 444.0 16.0 301.0 
74.00082008174915 13537.0 5190.0 975.1867088607621 0.5028921016694404 441.0 16.0 300.0 
76.00029741811947 13570.0 5189.0 977.0490506329105 0.5024214798953857 436.0 16.0 301.0 
78.00082008174915 13520.0 5188.0 977.0110759493695 0.5010643240799761 433.0 16.0 301.0 
80.00082008174915 13520.0 5190.0 977.0047468354403 0.5036003063051009 430.0 16.0 301.0 
82.00082008174915 13540.0 5190.0 978.8401898734136 0.5035656102983552 430.0 17.0 301.0 
84.00082008174915 13534.0 5191.0 978.8591772151899 0.5050689205449824 432.0 13.0 305.0 
86.00029741811947 13498.0 5188.0 982.4636075949311 0.5008942984282917 429.0 14.0 306.0 
88.00082008174915 13499.0 5189.0 982.5 0.5012579990596651 428.0 15.0 305.0 
90.00082008174915 13553.0 5191.0 982.4620253164654 0.5051521744759524 427.0 16.0 304.0 
92.00082008174915 13512.0 5189.0 982.4098101265865 0.5018115421667431 426.0 18.0 302.0 
94.00082008174915 13507.0 5189.0 982.4430379746807 0.5028387615526753 425.0 16.0 304.0 
96.00029741811947 13533.0 5189.0 984.2231012658144 0.5026611880747515 425.0 17.0 304.0 
98.00078882277444 13494.0 5191.0 984.2515822784818 0.5030414088763978 429.0 15.0 306.0 
100.00069786173647 13484.0 5191.0 986.0569620253192 0.5035187008638362 427.0 17.0 305.0 
102.00071777846586 13459.0 5190.0 986.1155063291187 0.5024053109671027 428.0 15.0 307.0 
104.00082008174915 13467.0 5190.0 986.0791139240437 0.5035212259274394 426.0 17.0 305.0 
106.00029741811947 13438.0 5189.0 987.9145569620276 0.5026485414056302 426.0 18.0 305.0 
108.00082008174915 13421.0 5188.0 987.8734177215183 0.5013700211960892 424.0 20.0 303.0 
110.00082008174915 13424.0 5188.0 987.9129746835345 0.5019055852133655 426.0 18.0 305.0 
112.00082008174915 13459.0 5189.0 987.9003164556931 0.5017803160938319 424.0 19.0 304.0 
114.00082008174915 13485.0 5191.0 987.911392405069 0.502453287976597 426.0 17.0 306.0 
116.00029741811947 13459.0 5191.0 989.6582278480922 0.5029962658753571 425.0 19.0 305.0 
118.00082008174915 13558.0 5193.0 989.7436708860776 0.5037325360513201 428.0 17.0 307.0 
120.00082008174915 13530.0 5192.0 991.5632911392389 0.5015999926853858 428.0 18.0 307.0 
122.00082008174915 13596.0 5194.0 995.1851265822798 0.5029329420634144 431.0 17.0 310.0 
124.00082008174915 13529.0 5195.0 995.1740506329115 0.5020932594849007 428.0 20.0 307.0 
126.00029741811947 13589.0 5194.0 996.9920886075984 0.5014371158330935 431.0 17.0 311.0 
128.00069748743303 13558.0 5193.0 995.153481012651 0.5007385645434262 430.0 18.0 309.0 
130.00069748743303 13568.0 5194.0 995.1424050633046 0.5026655314934706 429.0 16.0 311.0 
132.00069748743303 13581.0 5194.0 993.2927215189751 0.5010893007320024 424.0 18.0 308.0 
134.00069748743303 13596.0 5193.0 991.5965189873491 0.5019293179429721 425.0 16.0 309.0 
136.0002974181195 13588.0 5196.0 991.4794303797485 0.5027901021204964 424.0 16.0 309.0 
138.000721672033 13626.0 5195.0 995.1772151898779 0.5025434689378764 426.0 16.0 311.0 
140.00082008174917 13732.0 5198.0 1002.4367088607604 0.5038807857674608 428.0 19.0 312.0 
142.00082008174917 13665.0 5198.0 1000.6344936708812 0.5031378406088544 431.0 15.0 315.0 
144.00082008174917 13645.0 5196.0 998.863924050632 0.5046988855178015 425.0 20.0 309.0 
146.0002974181195 13599.0 5193.0 998.792721518975 0.5015418097406872 424.0 20.0 309.0 
148.00082008174917 13609.0 5195.0 1000.6075949366952 0.5036724627694673 426.0 18.0 312.0 
150.00082008174917 13526.0 5197.0 1000.613924050632 0.5045441497037383 424.0 20.0 310.0 
152.00082008174917 13493.0 5195.0 997.042721518975 0.5040548725146963 424.0 21.0 307.0 
154.00082008174917 13444.0 5193.0 995.1313291139221 0.5021394235902117 426.0 19.0 308.0 
156.0002974181195 13502.0 5193.0 993.3496835443076 0.5021869697782992 426.0 18.0 308.0 
158.00082008174917 13487.0 5195.0 995.1360759493682 0.503262826893203 426.0 16.0 311.0 
160.00082008174917 13476.0 5193.0 995.1202531645597 0.5034226902274735 425.0 17.0 310.0 
162.00082008174917 13485.0 5194.0 998.7610759493681 0.5023780402380102 427.0 16.0 313.0 
164.00082008174917 13444.0 5195.0 998.7610759493681 0.5050590959205414 424.0 17.0 312.0 
166.0002974181195 13398.0 5194.0 996.9604430379718 0.5035545041543668 425.0 16.0 312.0 
168.00082008174917 13415.0 5194.0 998.7389240506319 0.5027072958343433 423.0 17.0 312.0 
170.00082008174917 13398.0 5194.0 996.9556962025293 0.5036790551336897 426.0 16.0 312.0 
172.00082008174917 13394.0 5191.0 993.3164556962017 0.5013063239261093 426.0 17.0 309.0 
174.00082008174917 13427.0 5194.0 996.9952531645597 0.5044633959087433 428.0 17.0 311.0 
176.0002974181195 13350.0 5191.0 997.0079113924022 0.5009991791713223 424.0 21.0 307.0 
178.00082008174917 13371.0 5192.0 1000.6091772151915 0.5025530260876461 424.0 20.0 310.0 
180.00082008174917 13350.0 5193.0 998.8227848101226 0.5023256247135371 424.0 19.0 310.0 
182.00082008174917 13356.0 5196.0 996.9715189873489 0.5049902577149536 421.0 21.0 307.0 
184.00082008174917 13297.0 5193.0 997.009493670881 0.5025160299236051 418.0 23.0 305.0 
186.0002974181195 13290.0 5192.0 998.7832278480921 0.5017011294156277 419.0 22.0 307.0 
188.00082008174917 13287.0 5191.0 998.7895569620283 0.5008871172962663 419.0 23.0 306.0 
190.00082008174917 13289.0 5191.0 997.0015822784812 0.501216307217963 419.0 22.0 306.0 
192.00082008174917 13319.0 5193.0 998.8528481012547 0.5019596923086097 418.0 23.0 306.0 
194.00082008174917 13302.0 5192.0 997.0253164556925 0.5020328170459033 418.0 22.0 306.0 
196.0002974181195 13304.0 5192.0 993.3797468354403 0.5034599508907082 417.0 23.0 303.0 
198.00082008174917 13325.0 5193.0 995.1977848101221 0.5050937978502752 419.0 22.0 305.0 
200.00082008174917 13260.0 5189.0 993.3496835443074 0.5008591283482473 417.0 24.0 302.0 
202.00082008174917 13262.0 5190.0 995.1914556962017 0.5016414277064368 420.0 23.0 304.0 
204.00082008174917 13246.0 5193.0 991.6028481012548 0.5045220433089441 423.0 19.0 306.0 
206.0002974181195 13214.0 5190.0 991.6376582278425 0.5023959386014369 423.0 18.0 307.0 
208.00082008174917 13214.0 5190.0 993.368670886078 0.5011760385155237 422.0 19.0 307.0 
210.00082008174917 13208.0 5189.0 989.719936708867 0.5009052319278718 422.0 18.0 306.0 
212.00082008174917 13289.0 5194.0 987.8955696202519 0.504040573763788 420.0 19.0 304.0 
214.00082008174917 13285.0 5192.0 987.8924050633044 0.5051569447886464 424.0 18.0 305.0 
216.0002974181195 13221.0 5191.0 987.8971518987453 0.5017477850036243 423.0 19.0 304.0 
218.00082008174917 13188.0 5190.0 987.8892405063235 0.5026692796652558 424.0 19.0 304.0 
220.00082008174917 13186.0 5191.0 987.8496835443073 0.504087501132246 418.0 25.0 298.0 
222.00082008174917 13180.0 5191.0 986.0949367088668 0.5031105749072426 421.0 23.0 299.0 
224.00082008174917 13144.0 5190.0 986.0569620253189 0.503930771592052 420.0 20.0 302.0 
226.0002974181195 13129.0 5190.0 986.0696202531609 0.5018703092566541 410.0 24.0 298.0 
228.00082008174917 13139.0 5190.0 986.036392405069 0.5045711861001465 409.0 24.0 298.0 
230.00082008174917 13104.0 5189.0 986.1170886075986 0.5036189991562113 410.0 22.0 300.0 
232.00082008174917 13104.0 5189.0 986.036392405069 0.5023627255401726 410.0 20.0 302.0 
234.00082008174917 13118.0 5188.0 986.1075949366957 0.5036246562876063 413.0 20.0 302.0 
236.0002974181195 13183.0 5191.0 987.8702531645597 0.5042799997405615 409.0 24.0 299.0 
238.00082008174917 13172.0 5189.0 987.8829113924018 0.5049300377452727 411.0 22.0 301.0 
240.00082008174917 13209.0 5190.0 986.0680379746814 0.5042519143388641 416.0 19.0 303.0 
242.00082008174917 13160.0 5186.0 987.8734177215189 0.5007374586275677 415.0 18.0 305.0 
244.00082008174917 13176.0 5186.0 985.9968354430407 0.5011135344310189 415.0 19.0 303.0 
246.0002974181195 13153.0 5188.0 984.2373417721575 0.5019884965692282 416.0 18.0 303.0 
248.00082008174917 13132.0 5187.0 982.354430379748 0.502059425839121 415.0 19.0 301.0 
250.00082008174917 13245.0 5190.0 982.3939873417644 0.5037445263112218 416.0 18.0 302.0 
252.00082008174917 13200.0 5190.0 984.1534810126512 0.5040446840044465 416.0 19.0 302.0 
254.00082008174917 13156.0 5189.0 984.2199367088671 0.5058261938919935 419.0 18.0 303.0 
256.0002974181195 13141.0 5188.0 982.3892405063235 0.5023656055249524 418.0 19.0 301.0 
258.00082008174917 13152.0 5189.0 982.4034810126512 0.5034174521925207 421.0 18.0 302.0 
260.00082008174917 13154.0 5189.0 982.3829113924015 0.5024943450604288 422.0 18.0 302.0 
262.00082008174917 13148.0 5193.0 982.4145569620277 0.5050074508965404 423.0 17.0 303.0 
264.00082008174917 13128.0 5191.0 982.4193037974703 0.5040885696525095 423.0 17.0 303.0 
266.0002974181195 13086.0 5190.0 978.8148734177202 0.5010716690503217 423.0 15.0 303.0 
268.00082008174917 13109.0 5192.0 982.4477848101224 0.5024477270745585 424.0 15.0 305.0 
270.00082008174917 13136.0 5192.0 987.9414556962014 0.5038022483345984 420.0 15.0 308.0 
272.00082008174917 13049.0 5190.0 986.0981012658144 0.5023598366148144 416.0 15.0 307.0 
274.00082008174917 13075.0 5191.0 986.0886075949311 0.5022880035402588 416.0 15.0 307.0 
276.0002974181195 13087.0 5191.0 987.9556962025291 0.5015843567597271 416.0 14.0 309.0 
278.00082008174917 13143.0 5192.0 987.9303797468391 0.5049949057101476 422.0 9.0 314.0 
280.0004372509308 13138.0 5194.0 986.1044303797486 0.5062083149491505 421.0 10.0 312.0 
282.0004372509308 13002.0 5190.0 987.8544303797487 0.502275122430753 420.0 8.0 315.0 
284.0004372509308 12996.0 5190.0 989.6772151898772 0.5030627680282961 422.0 8.0 316.0 
286.0002974181195 13030.0 5194.0 984.2341772151908 0.5045136089049546 421.0 8.0 313.0 
288.0004600129073 13016.0 5192.0 984.2025316455628 0.502884299404284 421.0 8.0 313.0 
290.0004372509308 13029.0 5192.0 984.3006329113969 0.5053465480918458 421.0 8.0 313.0 
292.0004600129073 13017.0 5193.0 984.1693037974707 0.5030615558209124 420.0 8.0 313.0 
294.0004372509308 13015.0 5191.0 987.8924050633044 0.5048258861394953 419.0 8.0 315.0 
296.0002974181195 13031.0 5192.0 987.843354430372 0.50651056318518 416.0 9.0 314.0 
298.0004600129073 13001.0 5190.0 987.8401898734124 0.5043432135417094 414.0 11.0 312.0 
300.0004600129073 13057.0 5195.0 991.5395569620285 0.5066197552164423 416.0 11.0 314.0 
302.0004600129073 12942.0 5190.0 991.5648734177202 0.501940431551602 417.0 11.0 314.0 
304.0004372509308 12978.0 5192.0 996.9889240506322 0.5062049684823049 422.0 11.0 317.0 
306.0002974181195 12959.0 5190.0 997.0553797468392 0.502562465703459 423.0 11.0 317.0 
308.00082008174917 12969.0 5190.0 996.9873417721568 0.5046480106461914 423.0 11.0 317.0 
310.00082008174917 12961.0 5191.0 998.8053797468392 0.5039900837980552 421.0 11.0 318.0 
312.00082008174917 12923.0 5188.0 996.9556962025285 0.5030063168723712 421.0 10.0 318.0 
314.00082008174917 12914.0 5187.0 998.770569620251 0.5014593697415889 429.0 10.0 319.0 
316.0002974181195 12969.0 5188.0 998.7515822784806 0.5021961527340123 430.0 10.0 319.0 
318.00082008174917 12954.0 5187.0 998.7927215189751 0.5011576083772704 430.0 10.0 319.0 
320.00082008174917 13028.0 5191.0 1000.5791139240438 0.5052392429828165 429.0 11.0 319.0 
322.00082008174917 12945.0 5187.0 1000.6170886075976 0.5020535849823186 429.0 10.0 320.0 
324.00082008174917 12938.0 5188.0 1002.3987341772099 0.5033009054469917 428.0 10.0 321.0 
326.0002974181195 12940.0 5189.0 998.7863924050696 0.5021255097428022 429.0 10.0 319.0 
328.00082008174917 12949.0 5188.0 998.7215189873493 0.5020050675154643 429.0 10.0 319.0 
330.00082008174917 12950.0 5188.0 998.8117088607607 0.5040358178828143 430.0 10.0 319.0 
332.00082008174917 12949.0 5187.0 998.6946202531608 0.503514638579865 429.0 10.0 319.0 
334.00082008174917 12966.0 5191.0 996.9588607594845 0.5048378333536853 429.0 10.0 318.0 
336.0002974181195 12927.0 5189.0 996.9303797468392 0.5034091334728387 428.0 10.0 318.0 
338.00082008174917 12926.0 5191.0 995.1424050633053 0.5061768488758565 428.0 10.0 317.0 
340.00082008174917 12921.0 5188.0 991.4762658227907 0.5036336557771017 427.0 10.0 315.0 
342.00082008174917 12918.0 5188.0 987.8955696202515 0.5058738183146366 430.0 10.0 313.0 
344.00082008174917 12869.0 5185.0 987.8069620253192 0.5030173078178489 431.0 9.0 314.0 
346.0002974181195 12879.0 5185.0 989.6645569620284 0.5028987672972843 429.0 8.0 316.0 
348.00082008174917 12918.0 5187.0 989.6424050633058 0.5053729926672742 432.0 8.0 316.0 
350.00082008174917 12866.0 5186.0 984.2484177215177 0.5060519589262983 432.0 8.0 313.0 
352.00082008174917 12877.0 5186.0 984.1977848101211 0.5050145607945125 431.0 8.0 313.0 
354.00082008174917 12852.0 5184.0 984.1882911392378 0.5017683092780045 432.0 8.0 313.0 
356.0002974181195 12864.0 5187.0 984.1803797468392 0.5037520888963297 431.0 8.0 313.0 
358.00082008174917 12826.0 5185.0 982.3844936708809 0.5019885082671212 431.0 8.0 312.0 
360.00082008174917 12872.0 5188.0 978.7848101265874 0.506076333976484 432.0 8.0 310.0 
362.00082008174917 12823.0 5187.0 976.9462025316485 0.5037695369147299 430.0 8.0 309.0 
364.00082008174917 12826.0 5187.0 973.2626582278409 0.5020238410670388 427.0 8.0 307.0 
366.0002974181195 12836.0 5187.0 969.6598101265865 0.5026933402858521 430.0 7.0 306.0 
368.00082008174917 12821.0 5189.0 967.81012658228 0.50358173883423 433.0 7.0 305.0 
370.00082008174917 12824.0 5187.0 969.6613924050702 0.5058562943827051 432.0 7.0 306.0 
372.00082008174917 12834.0 5189.0 967.7895569620273 0.5057632358425063 429.0 7.0 305.0 
374.00082008174917 12810.0 5188.0 967.8275316455616 0.5049360256195604 427.0 7.0 305.0 
376.0002974181195 12826.0 5187.0 965.9841772151901 0.5048821262716721 428.0 7.0 304.0 
378.00082008174917 12820.0 5189.0 967.8433544303716 0.5051632446652287 431.0 7.0 305.0 
380.00082008174917 12768.0 5183.0 967.7515822784821 0.501691920324956 432.0 7.0 305.0 
382.00082008174917 12785.0 5186.0 964.1155063291186 0.5039121741156016 432.0 7.0 303.0 
384.00082008174917 12763.0 5183.0 962.3512658227895 0.5026809999288808 435.0 7.0 302.0 
386.0002974181195 12773.0 5184.0 964.2167721519075 0.5030568396337971 429.0 8.0 302.0 
388.00082008174917 12817.0 5185.0 960.5648734177202 0.5036170806342418 414.0 18.0 290.0 
390.00082008174917 12893.0 5190.0 964.215189873414 0.5073509537260957 424.0 8.0 302.0 
392.00082008174917 12868.0 5190.0 964.1613924050688 0.5040549661379486 419.0 8.0 302.0 
394.00082008174917 12842.0 5187.0 964.1867088607622 0.5018596340385477 418.0 10.0 300.0 
396.0002974181195 12872.0 5190.0 964.1708860759562 0.5043354185995685 417.0 11.0 299.0 
398.00082008174917 12853.0 5188.0 960.5901898734144 0.5016871025121701 420.0 8.0 300.0 
400.00082008174917 12895.0 5191.0 964.19303797468 0.5033697666759319 419.0 8.0 302.0 
402.00082008174917 12896.0 5191.0 967.9034810126514 0.5028690788325902 422.0 7.0 305.0 
404.00082008174917 12891.0 5189.0 969.5949367088658 0.501402449484778 429.0 7.0 306.0 
406.0002974181195 12890.0 5188.0 971.5 0.5004620799249941 429.0 7.0 307.0 
408.00082008174917 12943.0 5190.0 971.4430379746802 0.5032091224365296 431.0 7.0 307.0 
410.00082008174917 12948.0 5189.0 973.335443037973 0.5041781214121577 432.0 7.0 308.0 
412.00082008174917 12937.0 5190.0 973.2389240506304 0.5047915819842471 433.0 8.0 307.0 
414.00082008174917 12836.0 5188.0 973.3623417721585 0.5009426878968142 433.0 9.0 306.0 
416.0002974181195 12837.0 5190.0 973.2468354430418 0.5010758034371989 432.0 8.0 307.0 
418.00082008174917 12858.0 5190.0 969.6772151898789 0.5018406553193393 435.0 8.0 305.0 
420.00082008174917 12865.0 5188.0 969.6344936708812 0.5016417720865296 436.0 7.0 306.0 
422.00082008174917 12860.0 5188.0 973.280063291134 0.5027841472774554 440.0 7.0 308.0 
424.00082008174917 12833.0 5188.0 973.2610759493696 0.5037673140495972 439.0 7.0 308.0 
426.0002974181195 12864.0 5187.0 971.4952531645596 0.5036073578348049 438.0 7.0 307.0 
428.00082008174917 12861.0 5188.0 969.5917721519085 0.5035297139045867 438.0 7.0 306.0 
430.00082008174917 12888.0 5187.0 965.9446202531609 0.502671284424236 439.0 7.0 304.0 
432.00082008174917 12889.0 5186.0 969.5237341772104 0.5013462921603835 439.0 7.0 306.0 
434.00082008174917 12885.0 5186.0 976.8686708860771 0.5005001391723346 440.0 7.0 310.0 
436.0002974181195 12890.0 5187.0 973.1835443037971 0.5022782121275398 440.0 7.0 308.0 
438.00082008174917 12943.0 5187.0 969.6376582278409 0.5018690471436792 440.0 7.0 306.0 
440.00082008174917 12936.0 5189.0 969.5743670886033 0.5023820721500968 440.0 7.0 306.0 
442.00082008174917 12990.0 5188.0 969.5632911392377 0.503243297493446 435.0 7.0 306.0 
444.00082008174917 12969.0 5187.0 971.3591772151897 0.501001851735278 432.0 11.0 303.0 
446.0002974181195 13000.0 5188.0 973.1946202531609 0.5027910308876699 437.0 11.0 304.0 
448.00082008174917 13067.0 5189.0 971.3227848101212 0.5066492357772565 444.0 7.0 307.0 
450.00082008174917 13009.0 5185.0 974.993670886077 0.5050790499792347 443.0 7.0 309.0 
452.00082008174917 13019.0 5187.0 974.9382911392379 0.5044919793847665 441.0 7.0 309.0 
454.00082008174917 13021.0 5187.0 982.2642405063234 0.5050761547879791 439.0 7.0 313.0 
456.0002974181195 13014.0 5183.0 982.322784810122 0.5020245340150965 438.0 7.0 313.0 
458.00082008174917 13065.0 5185.0 984.1693037974703 0.503470412349276 438.0 7.0 314.0 
460.00082008174917 13085.0 5191.0 984.1329113924013 0.5065780225295737 437.0 7.0 314.0 
462.00082008174917 13038.0 5187.0 984.1186708860777 0.5027271389974711 437.0 7.0 314.0 
464.00082008174917 13046.0 5191.0 978.593354430372 0.5037828596355299 436.0 7.0 311.0 
466.0002974181195 13032.0 5188.0 976.8955696202515 0.5007838856494228 437.0 7.0 310.0 
468.00082008174917 13037.0 5190.0 973.1882911392386 0.5020840407694264 435.0 7.0 308.0 
470.00082008174917 13029.0 5191.0 971.4034810126508 0.5019621566849292 433.0 7.0 307.0 
472.00082008174917 13028.0 5191.0 971.3196202531611 0.5038515049025106 432.0 7.0 307.0 
474.00082008174917 13039.0 5191.0 975.0632911392388 0.5022992019413302 430.0 7.0 309.0 
476.0002974181195 13037.0 5190.0 975.039556962028 0.5040690107689468 430.0 7.0 309.0 
478.00082008174917 12964.0 5189.0 975.0838607594845 0.5019141174745015 430.0 7.0 309.0 
480.00082008174917 13005.0 5193.0 980.433544303798 0.5037406078882574 434.0 7.0 312.0 
482.00082008174917 12978.0 5188.0 980.5427215189751 0.5013624890049049 432.0 7.0 312.0 
484.00082008174917 12980.0 5187.0 980.4715189873489 0.5037977843756184 432.0 7.0 312.0 
486.0002974181195 13012.0 5188.0 980.566455696202 0.5034213222845432 432.0 7.0 312.0 
488.00082008174917 12981.0 5187.0 978.7025316455621 0.5003116594974143 432.0 7.0 311.0 
490.00082008174917 13013.0 5191.0 967.8465189873496 0.501590052608733 431.0 8.0 304.0 
492.00082008174917 13069.0 5198.0 965.928797468351 0.506133857372604 428.0 8.0 303.0 
494.00082008174917 13039.0 5192.0 965.9731012658134 0.5020406154966855 427.0 8.0 303.0 
496.0002974181195 13045.0 5191.0 967.7563291139232 0.5007139228598233 430.0 9.0 303.0 
498.00082008174917 13079.0 5194.0 967.8132911392378 0.5038283965285496 434.0 8.0 304.0 
500.00082008174917 13057.0 5196.0 969.6344936708813 0.50644631380169 435.0 7.0 306.0 
502.00082008174917 12982.0 5193.0 967.80696202532 0.5034771717751391 434.0 7.0 305.0 
504.00082008174917 12969.0 5192.0 969.5949367088667 0.5017918435939397 433.0 7.0 306.0 
506.0002974181195 12964.0 5189.0 971.4810126582357 0.5009107838110802 434.0 7.0 307.0 
508.00082008174917 13017.0 5194.0 969.6155063291187 0.5024004107843905 435.0 7.0 306.0 
510.00082008174917 13044.0 5194.0 967.8781645569575 0.5044222911777446 434.0 7.0 305.0 
512.0008200817492 13042.0 5196.0 969.6329113923998 0.5042501586605683 431.0 8.0 305.0 
514.0008200817492 13019.0 5192.0 967.8354430379728 0.5033416036244847 428.0 10.0 302.0 
516.0002974181195 13008.0 5190.0 965.9794303797473 0.5012897607359594 431.0 7.0 304.0 
518.0008200817492 13000.0 5190.0 964.2088607594844 0.5023689357335999 432.0 7.0 303.0 
520.0008200817492 13002.0 5193.0 960.5537974683504 0.5050725049506819 432.0 7.0 301.0 
522.0008200817492 12954.0 5190.0 958.7136075949301 0.502947861589221 428.0 8.0 299.0 
524.0008200817492 12959.0 5190.0 956.8892405063233 0.5017621824067456 429.0 7.0 299.0 
526.0002974181195 12957.0 5189.0 949.625 0.5019307520386251 429.0 7.0 295.0 
528.0008200817492 12936.0 5189.0 946.0522151898809 0.5018143018731012 430.0 7.0 293.0 
530.0008200817492 12906.0 5192.0 949.6708860759563 0.5016104947552785 432.0 7.0 295.0 
532.0008200817492 12947.0 5195.0 947.7563291139251 0.5042727714437495 435.0 7.0 294.0 
534.0008200817492 12973.0 5193.0 947.8180379746783 0.5053268748277348 434.0 7.0 294.0 
536.0002974181195 12922.0 5190.0 945.9066455696292 0.5020837767919196 432.0 7.0 293.0 
538.0008200817492 12912.0 5189.0 942.3306962025321 0.5016199940869126 431.0 7.0 291.0 
540.0008200817492 12906.0 5189.0 942.3101265822798 0.5026139300326904 429.0 7.0 291.0 
542.000289440951 12946.0 5190.0 949.5917721519088 0.5042985230796436 430.0 7.0 295.0 
544.0002595658569 12933.0 5189.0 953.2674050633055 0.5026639709759663 430.0 7.0 297.0 
546.0002296907628 12939.0 5189.0 953.2784810126502 0.5016859071369147 432.0 7.0 297.0 
548.0002595658569 12958.0 5193.0 951.4731012658135 0.5045078609297904 428.0 7.0 296.0 
550.0002296907628 12986.0 5193.0 949.6297468354403 0.5040077707368292 429.0 7.0 295.0 
552.000289440951 12971.0 5192.0 949.6028481012538 0.5044000600180623 427.0 7.0 295.0 
554.0002147532158 12977.0 5193.0 949.5886075949301 0.5056698484943206 427.0 7.0 295.0 
556.000274503404 12930.0 5188.0 947.7737341772096 0.5013742997880246 427.0 7.0 294.0 
558.000274503404 12960.0 5187.0 946.020569620254 0.5003680182882196 420.0 7.0 293.0 
560.0001848781217 12960.0 5190.0 949.6455696202536 0.503391724810674 418.0 8.0 294.0 
562.000274503404 12927.0 5190.0 949.6550632911346 0.5022336981856718 415.0 11.0 291.0 
564.000274503404 12918.0 5187.0 953.2278481012537 0.501293804248147 415.0 13.0 291.0 
566.0001848781217 12918.0 5187.0 955.0791139240437 0.5012749669280103 416.0 13.0 292.0 
568.000274503404 12980.0 5190.0 956.86234177216 0.5054013361448774 419.0 13.0 293.0 
570.000274503404 12963.0 5189.0 958.7246835443063 0.5035301022299783 421.0 13.0 294.0 
572.0001848781217 12946.0 5188.0 960.4873417721598 0.5053077339029101 422.0 13.0 295.0 
574.000274503404 12945.0 5188.0 960.5553797468392 0.5008707339769787 424.0 13.0 295.0 
576.000274503404 12950.0 5188.0 960.4367088607636 0.5047521121679485 424.0 13.0 295.0 
578.0001848781217 12925.0 5185.0 960.5079113923991 0.5016797100467433 426.0 13.0 295.0 
580.000274503404 12914.0 5188.0 960.5490506329097 0.5054368328259642 423.0 13.0 295.0 
582.000274503404 12862.0 5184.0 960.5 0.5004717485366343 425.0 13.0 295.0 
584.0001848781217 12870.0 5186.0 962.3196202531608 0.5006608138727194 424.0 13.0 296.0 
586.000274503404 12886.0 5188.0 966.0348101265864 0.5042474939214869 422.0 13.0 298.0 
588.000274503404 12891.0 5191.0 967.7642405063234 0.5056285938583402 426.0 13.0 299.0 
590.0001848781217 12872.0 5188.0 967.8797468354403 0.5069684235624078 426.0 13.0 299.0 
592.000274503404 12844.0 5188.0 969.5522151898796 0.5034174311993741 428.0 13.0 300.0 
594.000274503404 12826.0 5189.0 969.6740506329105 0.5034666859991911 430.0 13.0 300.0 
596.0001848781217 12837.0 5188.0 971.4003164556931 0.5035598527272731 430.0 13.0 301.0 
598.000274503404 12839.0 5188.0 973.3132911392374 0.502870871822423 431.0 13.0 302.0 
600.000274503404 12907.0 5194.0 971.3844936708809 0.5077833848751956 431.0 13.0 301.0 
602.0001848781217 12858.0 5189.0 973.2468354430423 0.5025797230244963 430.0 13.0 302.0 
604.000274503404 12859.0 5190.0 971.3765822784827 0.5033179631827509 434.0 13.0 301.0 
606.000274503404 12865.0 5190.0 975.1297468354403 0.503290270918388 435.0 13.0 303.0 
608.0001848781217 12955.0 5192.0 976.8623417721589 0.5047721046959329 435.0 13.0 304.0 
610.000274503404 12963.0 5191.0 978.8370253164666 0.5040733232566968 432.0 17.0 301.0 
612.0006978617365 12935.0 5189.0 975.0680379746802 0.5062807558854714 433.0 15.0 301.0 
614.0006978617365 12910.0 5188.0 980.6360759493685 0.5047998964501125 435.0 14.0 305.0 
616.0002974181195 12932.0 5187.0 984.2167721519088 0.5046799007577396 436.0 14.0 307.0 
618.0004372509309 12929.0 5189.0 984.2484177215181 0.5041935710527985 433.0 18.0 303.0 
620.0004372509309 12917.0 5194.0 984.2199367088674 0.5074571730116116 437.0 15.0 306.0 
622.0004144889543 12866.0 5190.0 980.5743670886033 0.5031549147795698 433.0 19.0 300.0 
624.0004372509309 12877.0 5191.0 978.7104430379721 0.5020972703419566 431.0 18.0 300.0 
626.0002974181195 12963.0 5193.0 982.4066455696287 0.5061503537207604 430.0 19.0 301.0 
628.0004486319191 12973.0 5194.0 978.6851265822798 0.5040092175138833 435.0 18.0 300.0 
630.0006978617365 12948.0 5196.0 978.7943037974705 0.5070449069034881 437.0 16.0 302.0 
632.0006978617365 12857.0 5191.0 973.2420886075995 0.5021451465400969 437.0 14.0 301.0 
634.0006978617365 12826.0 5190.0 971.5174050633054 0.501714539507878 437.0 13.0 301.0 
636.0002974181195 12837.0 5193.0 973.2911392405155 0.5031120866900158 432.0 14.0 301.0 
638.0004486319191 12851.0 5192.0 969.727848101254 0.5052620105747161 429.0 14.0 299.0 
640.0004486319191 12878.0 5192.0 973.2990506329111 0.50591301487213 425.0 16.0 299.0 
642.0004486319191 12791.0 5186.0 971.4715189873489 0.5014508186448945 423.0 16.0 298.0 
644.0006978617365 12825.0 5190.0 969.626582278482 0.5020787304896125 420.0 16.0 297.0 
646.0002974181195 12892.0 5195.0 971.5126582278414 0.5092450451801984 417.0 16.0 298.0 
648.0006978617365 12734.0 5189.0 973.2943037974703 0.5042870637329236 417.0 15.0 300.0 
650.0006978617365 12760.0 5192.0 986.1392405063236 0.5044554586803198 423.0 14.0 308.0 
652.0006978617365 12691.0 5187.0 986.0537974683527 0.5032727689763238 423.0 14.0 308.0 
654.0006978617365 12637.0 5186.0 986.1107594936764 0.5009286368889527 422.0 15.0 307.0 
656.0002974181195 12630.0 5185.0 987.7753164556909 0.5026479813586872 423.0 13.0 310.0 
658.0008200817492 12609.0 5185.0 987.875 0.5011249063747597 425.0 13.0 310.0 
660.0008200817492 12673.0 5193.0 989.647151898746 0.5082293749409901 424.0 13.0 311.0 
662.0008200817492 12626.0 5188.0 989.7389240506335 0.5048445594913931 424.0 13.0 311.0 
664.0008200817492 12575.0 5188.0 989.6186708860793 0.5042681423921301 425.0 13.0 311.0 
#####################################################################
# End of data export. Simulation finished at: 2019-03-09T00:04+0000 #
#####################################################################
