#####################################################################
# Alchemist log file - simulation started at: 2019-03-08T07:39+0000 #
#####################################################################
# seed = 2.0, bandwidth = 1.0E8, accessPointCount = 37.60603093086394, baserange = 100.0
#
# The columns have the following meaning: 
# time neighbor_count[Sum] <value>@neighbor_count[Sum] packet_size[Mean] mean_delay[Mean] crowd[Sum] overcrowded[Sum] risk[Sum] 
0.0 NaN NaN NaN NaN NaN NaN NaN 
10.000582979052751 130.0 30.0 4987.718383311603 0.49907994929125093 1497.0 0.0 1497.0 
20.00058297905275 130.0 30.0 4987.705345501956 0.49907992741090934 1497.0 0.0 1497.0 
30.00058297905275 130.0 30.0 4987.684485006519 0.49908013606048174 1497.0 0.0 1497.0 
40.00058297905275 130.0 30.0 4987.6375488917865 0.49908011265877267 1497.0 0.0 1497.0 
50.00058297905275 131.0 30.0 4987.707953063885 0.49016112747282015 1497.0 0.0 1497.0 
60.00058297905275 132.0 31.0 4984.633637548892 0.49912255696810065 1496.0 0.0 1496.0 
70.00058297905275 132.0 31.0 420.9804432855281 0.4992606319111888 13.0 0.0 7.0 
80.00058297905275 132.0 31.0 420.9804432855281 0.5236508758136278 11.0 0.0 7.0 
90.00058297905275 131.0 30.0 420.9804432855281 0.49030143123948555 11.0 0.0 7.0 
100.00058297905275 132.0 31.0 420.9804432855281 0.4992606319111888 11.0 0.0 7.0 
110.00058297905275 132.0 31.0 420.9804432855281 0.4992606319111888 11.0 0.0 7.0 
120.00058297905275 132.0 31.0 420.9804432855281 0.5236508758136278 11.0 0.0 7.0 
130.00058297905275 130.0 30.0 420.9804432855281 0.4992229207271528 11.0 0.0 7.0 
140.00058297905275 130.0 30.0 420.9804432855281 0.4992229207271528 11.0 0.0 7.0 
150.00058297905275 130.0 30.0 420.9804432855281 0.4992229207271528 11.0 0.0 7.0 
160.00058297905275 130.0 30.0 420.9804432855281 0.4992229207271528 11.0 0.0 7.0 
170.00058297905275 132.0 31.0 420.9804432855281 0.49926063191119463 11.0 0.0 7.0 
180.00058297905275 132.0 31.0 420.9804432855281 0.49926063191119463 11.0 0.0 7.0 
190.00058297905275 132.0 31.0 420.9804432855281 0.49926063191119463 11.0 0.0 7.0 
200.00058297905275 132.0 31.0 420.9804432855281 0.49926063191119463 11.0 0.0 7.0 
210.00058297905275 132.0 31.0 420.9804432855281 0.49926063191119463 11.0 0.0 7.0 
220.00058297905275 130.0 30.0 420.9804432855281 0.4992229207271528 11.0 0.0 7.0 
230.00058297905275 130.0 30.0 420.9804432855281 0.4992229207271528 11.0 0.0 7.0 
240.00058297905275 130.0 30.0 420.9804432855281 0.4992229207271528 11.0 0.0 7.0 
250.00058297905275 130.0 30.0 420.9804432855281 0.4992229207271528 11.0 0.0 7.0 
260.00058297905275 130.0 30.0 420.9804432855281 0.49922292072714985 11.0 0.0 7.0 
270.00058297905275 130.0 30.0 420.9804432855281 0.49922292072714985 11.0 0.0 7.0 
280.00058297905275 130.0 30.0 420.9804432855281 0.49922292072714985 11.0 0.0 7.0 
290.00058297905275 130.0 30.0 420.9804432855281 0.49922292072714985 11.0 0.0 7.0 
300.00058297905275 130.0 30.0 420.9804432855281 0.49922292072714985 11.0 0.0 7.0 
310.00058297905275 130.0 30.0 420.9804432855281 0.49922292072714985 11.0 0.0 7.0 
320.00058297905275 130.0 30.0 420.9804432855281 0.49922292072714985 11.0 0.0 7.0 
330.00058297905275 130.0 30.0 420.9804432855281 0.49922292072714985 11.0 0.0 7.0 
340.00058297905275 130.0 30.0 420.9804432855281 0.49922292072714985 11.0 0.0 7.0 
350.00058297905275 130.0 30.0 420.9804432855281 0.49922292072714985 11.0 0.0 7.0 
360.00058297905275 130.0 30.0 420.9804432855281 0.49922292072714985 11.0 0.0 7.0 
370.00058297905275 130.0 30.0 420.9804432855281 0.49922292072714985 11.0 0.0 7.0 
380.00058297905275 130.0 30.0 420.9804432855281 0.49922292072714985 11.0 0.0 7.0 
390.00058297905275 130.0 30.0 420.9804432855281 0.49922292072714985 11.0 0.0 7.0 
400.00058297905275 130.0 30.0 420.9804432855281 0.49922292072714985 11.0 0.0 7.0 
410.00058297905275 130.0 30.0 420.9804432855281 0.49922292072714985 11.0 0.0 7.0 
420.00058297905275 134.0 31.0 420.9804432855281 0.4992419477089721 11.0 0.0 7.0 
430.00058297905275 130.0 30.0 420.9804432855281 0.49922292072714985 11.0 0.0 7.0 
440.00058297905275 130.0 30.0 420.9804432855281 0.49922292072714985 11.0 0.0 7.0 
450.00058297905275 130.0 30.0 420.9804432855281 0.49922292072714985 11.0 0.0 7.0 
460.00058297905275 130.0 30.0 420.9804432855281 0.49922292072714985 11.0 0.0 7.0 
470.00058297905275 131.0 30.0 423.9713168187746 0.4902935051394892 11.0 0.0 8.0 
480.00058297905275 134.0 31.0 423.9661016949152 0.5001744007692448 11.0 0.0 8.0 
490.00058297905275 134.0 31.0 423.9661016949152 0.5245646446716838 11.0 0.0 8.0 
500.00058297905275 132.0 30.0 423.9661016949152 0.5001835495266415 11.0 0.0 8.0 
510.00058297905275 132.0 30.0 423.9661016949152 0.5001835495266415 11.0 0.0 8.0 
520.0005829790528 132.0 30.0 423.9661016949152 0.5001835495266393 11.0 0.0 8.0 
530.0005829790528 132.0 30.0 423.9661016949152 0.5001835495266393 11.0 0.0 8.0 
540.0005829790528 132.0 30.0 423.9661016949152 0.5001835495266393 11.0 0.0 8.0 
550.0005829790528 132.0 30.0 423.9661016949152 0.5001835495266393 11.0 0.0 8.0 
560.0005829790528 132.0 30.0 423.9661016949152 0.5001835495266393 11.0 0.0 8.0 
570.0005829790528 132.0 30.0 420.9752281616686 0.500189431577921 11.0 0.0 7.0 
580.0005829790528 132.0 30.0 420.9752281616686 0.500189431577921 11.0 0.0 7.0 
590.0005829790528 130.0 30.0 420.9674054758802 0.49882045587788293 11.0 0.0 7.0 
600.0005829790528 120.0 29.0 420.9674054758802 0.49973560603182976 11.0 0.0 7.0 
610.0005829790528 120.0 29.0 420.9674054758802 0.49973560603182976 11.0 0.0 7.0 
620.0005829790528 120.0 29.0 420.9674054758802 0.49973560603182976 11.0 0.0 7.0 
630.0005829790528 120.0 29.0 420.9674054758802 0.49973560603182976 11.0 0.0 7.0 
640.0005829790528 120.0 29.0 420.9674054758802 0.49973560603182976 11.0 0.0 7.0 
650.0005829790528 120.0 29.0 414.97783572359856 0.49974226392656956 10.0 0.0 5.0 
660.0005829790528 124.0 31.0 414.97783572359856 0.5005725187153253 10.0 0.0 5.0 
#####################################################################
# End of data export. Simulation finished at: 2019-03-08T07:45+0000 #
#####################################################################
