#####################################################################
# Alchemist log file - simulation started at: 2019-03-06T23:15+0000 #
#####################################################################
# seed = 8.0, bandwidth = 1.0E8, accessPointCount = 1031.338537721246, baserange = 1000.0
#
# The columns have the following meaning: 
# time neighbor_count[Sum] <value>@neighbor_count[Sum] packet_size[Mean] mean_delay[Mean] crowd[Sum] overcrowded[Sum] risk[Sum] 
0.0 NaN NaN NaN NaN NaN NaN NaN 
2.000927030832833 38444.0 36382.0 4979.659810126583 0.5018053279603629 1497.0 0.0 1497.0 
4.000160262680415 40446.0 36586.0 4980.147151898735 0.5535719561533216 1497.0 0.0 1497.0 
6.000198348008885 42064.0 36581.0 4981.112341772152 0.5657679945906177 1497.0 0.0 1497.0 
8.000927030832834 43818.0 36598.0 4982.791139240506 0.5877081049980186 1497.0 0.0 1497.0 
10.000927030832834 45872.0 36605.0 4984.593354430379 0.5952989221070246 1496.0 1.0 1496.0 
12.000927030832834 45773.0 36451.0 4985.113924050633 0.5655795265844384 1495.0 2.0 1495.0 
14.000927030832834 44892.0 36318.0 4984.60759493671 0.5017234025647231 1493.0 4.0 1493.0 
16.000198348008887 44892.0 36318.0 4984.363924050633 0.5017230998400369 1488.0 9.0 1488.0 
18.000927030832834 44892.0 36318.0 4984.656645569621 0.502015978838502 1492.0 5.0 1492.0 
20.000927030832834 44890.0 36318.0 4985.112341772152 0.5017429325141257 1488.0 9.0 1488.0 
22.000927030832834 44893.0 36318.0 4984.449367088608 0.5019173828753769 1489.0 8.0 1489.0 
24.000927030832834 44899.0 36319.0 4984.162974683544 0.5023613376684004 1493.0 4.0 1493.0 
26.000198348008887 44900.0 36319.0 4983.916139240506 0.5026612195658091 1490.0 7.0 1490.0 
28.000927030832834 44890.0 36318.0 4984.474683544304 0.5032802369034816 1481.0 16.0 1481.0 
30.000927030832834 44880.0 36317.0 4985.012658227848 0.5018306094089694 1487.0 10.0 1487.0 
32.000927030832834 44889.0 36317.0 4984.422468354431 0.5018957816067795 1489.0 8.0 1489.0 
34.000927030832834 44917.0 36319.0 4983.716772151898 0.5035635648725458 1482.0 15.0 1482.0 
36.00019834800889 44880.0 36320.0 4983.963607594937 0.5028983275202156 1478.0 19.0 1478.0 
38.000927030832834 44878.0 36319.0 4984.3781645569625 0.5027624516084782 1475.0 22.0 1475.0 
40.000927030832834 44874.0 36318.0 4984.840189873417 0.5017269272677812 1479.0 18.0 1479.0 
42.000927030832834 44949.0 36321.0 4984.507911392406 0.5034057491845733 1481.0 16.0 1481.0 
44.000927030832834 44959.0 36319.0 4983.784810126582 0.5032251239180909 1474.0 23.0 1474.0 
46.00019834800889 44931.0 36321.0 4983.678797468355 0.5026418349328272 1475.0 22.0 1475.0 
48.000927030832834 44912.0 36318.0 4984.261075949367 0.5021767053943429 1480.0 17.0 1480.0 
50.000927030832834 44926.0 36320.0 4984.786392405063 0.5021542237351633 1475.0 22.0 1475.0 
52.000927030832834 44965.0 36320.0 4984.2405063291135 0.5030343349818309 1475.0 22.0 1475.0 
54.000927030832834 44943.0 36320.0 4983.844936708861 0.5022794622053507 1478.0 19.0 1478.0 
56.00019834800889 44945.0 36320.0 4983.819620253164 0.5030602690769448 1475.0 22.0 1475.0 
58.000927030832834 44944.0 36320.0 4984.126582278481 0.5020753607552046 1475.0 22.0 1475.0 
60.000927030832834 45022.0 36321.0 4984.911392405063 0.5029640728956656 1474.0 23.0 1474.0 
62.000927030832834 45030.0 36319.0 1006.7167721519081 0.5023427729691706 807.0 24.0 309.0 
64.00092703083283 45023.0 36319.0 1010.12816455696 0.5026229119359882 598.0 20.0 315.0 
66.0001983480089 45017.0 36320.0 1010.0981012658135 0.5020454238188967 529.0 24.0 311.0 
68.00092703083283 45029.0 36320.0 1009.8734177215196 0.5039347889625654 478.0 32.0 303.0 
70.00092703083283 45000.0 36320.0 1009.9636075949302 0.5030951679062283 474.0 19.0 316.0 
72.00092703083283 45022.0 36320.0 1008.0886075949296 0.5042531476700894 461.0 23.0 311.0 
74.00092703083283 44994.0 36320.0 1008.0015822784812 0.5040143839576436 456.0 25.0 309.0 
76.0001983480089 45003.0 36322.0 1011.626582278481 0.5040345507754607 455.0 19.0 317.0 
78.00092703083283 44977.0 36320.0 1011.6028481012532 0.5023147698851601 450.0 22.0 314.0 
80.00092703083283 45038.0 36323.0 1013.4018987341872 0.5056477623937417 444.0 27.0 310.0 
82.00092703083283 44962.0 36320.0 1013.376582278481 0.503694435026169 441.0 27.0 310.0 
84.00092703083283 44971.0 36320.0 1017.0332278480911 0.5028889311652286 440.0 26.0 313.0 
86.0001983480089 44984.0 36321.0 1020.6503164556905 0.5054697092962659 441.0 27.0 314.0 
88.00092703083283 44897.0 36319.0 1020.6740506329136 0.5026910200218581 440.0 26.0 315.0 
90.00092703083283 44886.0 36319.0 1020.6297468354404 0.5025733121466371 443.0 23.0 318.0 
92.00092703083283 44882.0 36318.0 1020.6408227848073 0.5020206587093446 438.0 29.0 312.0 
94.00092703083283 44883.0 36318.0 1020.625 0.5021542358031517 440.0 27.0 314.0 
96.0001983480089 44883.0 36319.0 1026.1028481012531 0.501895737776243 441.0 26.0 318.0 
98.00092703083283 44892.0 36319.0 1026.1012658227912 0.5026987201919044 439.0 29.0 315.0 
100.00092703083283 44946.0 36323.0 1027.9034810126495 0.5070096638343004 443.0 26.0 319.0 
102.00092703083283 44861.0 36320.0 1026.0949367088695 0.5038299096024276 448.0 23.0 321.0 
104.00092703083283 44837.0 36319.0 1026.0870253164674 0.503224279187211 443.0 28.0 316.0 
106.0001983480089 44831.0 36319.0 1026.06329113924 0.5019443247178925 445.0 26.0 318.0 
108.00092703083283 44906.0 36321.0 1026.0886075949295 0.5035467227718705 445.0 25.0 319.0 
110.00092703083283 44856.0 36321.0 1026.0775316455636 0.5034191689919386 442.0 28.0 316.0 
112.00092703083283 44902.0 36321.0 1026.0395569620305 0.5041819413925988 442.0 27.0 317.0 
114.00092703083283 44902.0 36320.0 1027.9066455696295 0.5031655726302112 446.0 22.0 323.0 
116.0001983480089 44893.0 36321.0 1029.7642405063236 0.5043338187660749 441.0 29.0 317.0 
118.00092703083283 44880.0 36320.0 1031.5379746835326 0.5028620183108543 441.0 27.0 320.0 
120.00092703083283 44876.0 36319.0 1035.1803797468388 0.5026706749699144 449.0 21.0 328.0 
122.00092703083283 44880.0 36318.0 1038.8575949366939 0.5021392959728699 446.0 25.0 326.0 
124.00092703083283 44900.0 36322.0 1037.0094936708813 0.504662622383343 447.0 23.0 327.0 
126.0001983480089 44862.0 36319.0 1037.0047468354405 0.503636596481042 449.0 21.0 329.0 
128.00092703083283 44864.0 36321.0 1037.0031645569613 0.5041536903987095 446.0 25.0 325.0 
130.00092703083283 44841.0 36320.0 1033.3481012658126 0.5033674584199161 447.0 23.0 325.0 
132.00092703083283 44818.0 36320.0 1029.822784810124 0.5039906989185646 446.0 21.0 325.0 
134.00092703083283 44879.0 36323.0 1026.0537974683548 0.5035655065698811 440.0 25.0 319.0 
136.0001983480089 44845.0 36319.0 1026.0933544303705 0.5030617752341655 441.0 23.0 321.0 
138.00092703083283 44887.0 36320.0 1026.0806962025267 0.5026191910207036 441.0 21.0 323.0 
140.00092703083283 44883.0 36321.0 1027.9129746835329 0.5060810455470233 438.0 26.0 319.0 
142.00092703083283 44851.0 36321.0 1029.8132911392406 0.5034415122610364 440.0 25.0 321.0 
144.00092703083283 44844.0 36320.0 1031.6487341772088 0.5029133296595563 443.0 22.0 325.0 
146.0001983480089 44841.0 36319.0 1031.5996835443104 0.5024808306087051 436.0 30.0 317.0 
148.00092703083283 44824.0 36319.0 1033.4066455696295 0.5029552078007383 442.0 24.0 324.0 
150.00092703083283 44808.0 36319.0 1033.4588607594849 0.5030826865549598 444.0 25.0 323.0 
152.00092703083283 44789.0 36321.0 1026.125 0.5040533548297144 446.0 26.0 318.0 
154.00092703083283 44771.0 36322.0 1022.4477848101233 0.5041460060315452 444.0 26.0 316.0 
156.0001983480089 44726.0 36320.0 1022.4699367088696 0.503245425667476 441.0 28.0 314.0 
158.00092703083283 44728.0 36319.0 1022.4272151898767 0.5025835232078047 442.0 30.0 312.0 
160.00092703083283 44732.0 36320.0 1020.640822784807 0.5032409332525486 442.0 28.0 313.0 
162.00092703083283 44718.0 36319.0 1020.6693037974725 0.5026890865074205 444.0 25.0 316.0 
164.00092703083283 44737.0 36318.0 1022.462025316467 0.502509893047238 437.0 31.0 311.0 
166.0001983480089 44728.0 36319.0 1022.462025316467 0.5018780112329408 443.0 24.0 318.0 
168.00092703083283 44731.0 36317.0 1024.2848101265895 0.5018634283241044 441.0 24.0 319.0 
170.00092703083283 44756.0 36319.0 1020.6329113924024 0.5029024639336803 440.0 26.0 315.0 
172.00092703083283 44779.0 36322.0 1022.419303797473 0.5058723618091049 439.0 27.0 315.0 
174.00092703083283 44740.0 36319.0 1020.6424050633059 0.5035391754591341 444.0 23.0 318.0 
176.0001983480089 44708.0 36317.0 1020.6724683544361 0.5021768094519395 439.0 27.0 314.0 
178.00092703083283 44718.0 36319.0 1020.6218354430395 0.5027097096058473 440.0 24.0 317.0 
180.00092703083283 44756.0 36323.0 1020.6360759493656 0.5071978210302311 442.0 24.0 317.0 
182.00092703083283 44673.0 36320.0 1018.8718354430395 0.5032164194199659 441.0 25.0 315.0 
184.00092703083283 44652.0 36317.0 1018.8085443037994 0.5014802997243224 438.0 26.0 314.0 
186.0001983480089 44652.0 36317.0 1018.8481012658128 0.5014801863614488 443.0 21.0 319.0 
188.00092703083283 44702.0 36319.0 1018.8117088607596 0.5031387417432321 437.0 28.0 312.0 
190.00092703083283 44699.0 36319.0 1017.0332278480907 0.5029755675938594 440.0 23.0 316.0 
192.00092703083283 44713.0 36323.0 1016.9778481012532 0.5055788392923996 443.0 23.0 316.0 
194.00092703083283 44655.0 36318.0 1016.9746835443101 0.5033305153838001 440.0 26.0 313.0 
196.0001983480089 44673.0 36319.0 1016.96518987341 0.5040575260685242 440.0 27.0 312.0 
198.00092703083283 44667.0 36320.0 1018.8702531645596 0.5037351500476487 443.0 25.0 315.0 
200.00092703083283 44709.0 36323.0 1018.81170886076 0.5053352895767594 441.0 30.0 310.0 
202.00092703083283 44662.0 36319.0 1018.832278481026 0.5030808393273817 444.0 28.0 312.0 
204.00092703083283 44685.0 36321.0 1018.7515822784802 0.5051770074707658 446.0 26.0 314.0 
206.0001983480089 44656.0 36318.0 1016.9778481012532 0.5034560203837039 443.0 27.0 312.0 
208.00092703083283 44680.0 36323.0 1018.7151898734102 0.5063215623298986 442.0 27.0 313.0 
210.00092703083283 44641.0 36320.0 1015.131329113921 0.505290535945691 444.0 23.0 315.0 
212.00092703083283 44614.0 36319.0 1013.3291139240439 0.503177234455387 438.0 29.0 308.0 
214.00092703083283 44610.0 36318.0 1013.2246835443103 0.5040370992630383 436.0 26.0 311.0 
216.0001983480089 44590.0 36318.0 1013.2768987341872 0.5030974221548904 436.0 26.0 311.0 
218.00092703083283 44608.0 36319.0 1015.0696202531611 0.5041934096369346 436.0 27.0 311.0 
220.00092703083283 44598.0 36318.0 1015.1376582278438 0.5035825339048127 436.0 26.0 312.0 
222.00092703083283 44585.0 36318.0 1013.297468354436 0.5041897796934237 436.0 25.0 312.0 
224.00092703083283 44582.0 36320.0 1013.3101265822798 0.5048448634578642 434.0 28.0 309.0 
226.0001983480089 44581.0 36320.0 1015.1265822784796 0.5043532451667293 437.0 26.0 312.0 
228.00092703083283 44551.0 36318.0 1015.0791139240439 0.50389225972836 436.0 26.0 312.0 
230.00092703083283 44524.0 36316.0 1015.1629746835331 0.5025088624402758 429.0 31.0 307.0 
232.00092703083283 44540.0 36318.0 1013.2753164556897 0.5038566782544145 431.0 29.0 308.0 
234.00092703083283 44533.0 36320.0 1013.3053797468389 0.5037432979666759 436.0 26.0 311.0 
236.0001983480089 44557.0 36322.0 1013.3053797468389 0.5050723319240265 432.0 31.0 306.0 
238.00092703083283 44577.0 36322.0 1013.3512658227908 0.5069734647849945 432.0 29.0 308.0 
240.00092703083283 44520.0 36320.0 1011.3955696202487 0.5045802149960273 434.0 27.0 309.0 
242.00092703083283 44515.0 36321.0 1009.6566455696294 0.5048781855703152 428.0 31.0 304.0 
244.00092703083283 44498.0 36319.0 1007.75 0.5039447603751576 427.0 29.0 305.0 
246.0001983480089 44516.0 36319.0 1007.8655063291187 0.502804335895818 430.0 26.0 308.0 
248.00092703083283 44548.0 36319.0 1004.1803797468389 0.5036411602158971 430.0 28.0 304.0 
250.00092703083283 44597.0 36321.0 1004.2072784810259 0.5068613691507289 432.0 26.0 306.0 
252.00092703083283 44571.0 36323.0 1004.1613924050705 0.5071381731933787 432.0 24.0 308.0 
254.00092703083283 44571.0 36322.0 1005.9920886075973 0.5060266425941838 428.0 28.0 305.0 
256.0001983480089 44547.0 36319.0 1005.9588607594848 0.5031037938255742 431.0 26.0 307.0 
258.0009270308328 44575.0 36322.0 1005.9746835443101 0.5049385846817456 433.0 24.0 309.0 
260.0009270308328 44568.0 36323.0 1006.0015822784801 0.5065876762576322 430.0 28.0 305.0 
262.0009270308328 44537.0 36320.0 1005.9398734177202 0.5056095487152878 432.0 26.0 307.0 
264.0009270308328 44509.0 36319.0 1005.96518987341 0.5042218488913245 432.0 24.0 309.0 
266.0001983480089 44554.0 36323.0 1004.148734177209 0.5058343517587384 430.0 27.0 305.0 
268.0009270308328 44505.0 36321.0 1002.3322784810259 0.5054460250537323 429.0 24.0 307.0 
270.0009270308328 44508.0 36321.0 1007.835443037969 0.5052130487128701 431.0 22.0 312.0 
272.0009270308328 44495.0 36321.0 1005.9905063291187 0.5058308452315328 427.0 26.0 307.0 
274.0009270308328 44493.0 36321.0 1006.0427215189741 0.5065385262162688 427.0 24.0 309.0 
276.0001983480089 44453.0 36321.0 1005.9936708860791 0.5046747416089011 430.0 22.0 311.0 
278.0009270308328 44461.0 36321.0 1004.1946202531611 0.5062670959561796 424.0 26.0 306.0 
280.0009270308328 44427.0 36321.0 1002.4050632911309 0.5044667666018452 425.0 25.0 306.0 
282.0009270308328 44412.0 36321.0 1007.825949367086 0.5042931193624978 426.0 25.0 309.0 
284.0009270308328 44403.0 36321.0 1007.8591772151931 0.5042019620531843 424.0 29.0 305.0 
286.0001983480089 44399.0 36320.0 1005.9667721519087 0.5045514679189944 424.0 27.0 306.0 
288.0009270308328 44429.0 36320.0 1006.0822784810256 0.5050897859463029 426.0 25.0 308.0 
290.0009270308328 44449.0 36321.0 1005.9762658227908 0.5061167819155946 425.0 29.0 304.0 
292.0009270308328 44413.0 36320.0 1007.8844936708814 0.5030236639239242 426.0 27.0 307.0 
294.0009270308328 44441.0 36321.0 1007.8212025316456 0.5050658916061546 427.0 25.0 309.0 
296.0001983480089 44460.0 36320.0 1009.6218354430398 0.5038600933565627 424.0 29.0 306.0 
298.0009270308328 44481.0 36322.0 1004.177215189877 0.5060244830243184 424.0 27.0 305.0 
300.0009270308328 44430.0 36320.0 1006.0031645569601 0.5041186114352562 427.0 25.0 308.0 
302.0009270308328 44455.0 36322.0 1004.1392405063236 0.5064562226556707 424.0 29.0 303.0 
304.0009270308328 44434.0 36321.0 998.7041139240439 0.5062140680949482 423.0 27.0 302.0 
306.0001983480089 44411.0 36318.0 1000.4873417721569 0.5034863007063755 425.0 25.0 305.0 
308.0009270308328 44404.0 36322.0 1000.5854430379704 0.5054621645405475 422.0 28.0 302.0 
310.0009270308328 44420.0 36322.0 1000.4810126582353 0.5067505132946752 423.0 26.0 304.0 
312.0009270308328 44373.0 36319.0 1000.5443037974717 0.5038412847203984 423.0 24.0 306.0 
314.0009270308328 44382.0 36320.0 1002.3449367088683 0.5044070980953969 421.0 28.0 303.0 
316.0001983480089 44372.0 36320.0 1002.3481012658135 0.5039120814145586 423.0 26.0 305.0 
318.0009270308328 44424.0 36321.0 1002.3417721519083 0.5051129017997746 424.0 24.0 307.0 
320.0009270308328 44408.0 36319.0 1002.3939873417647 0.5041165781245258 419.0 28.0 303.0 
322.0009270308328 44453.0 36321.0 1002.3496835443088 0.505149372426321 424.0 27.0 304.0 
324.0009270308328 44458.0 36321.0 1005.9382911392399 0.5049649143302375 426.0 27.0 306.0 
326.0001983480089 44456.0 36320.0 1004.1344936708815 0.5055637980347346 422.0 33.0 299.0 
328.0009270308328 44472.0 36322.0 1007.7515822784806 0.5048761326472616 424.0 32.0 302.0 
330.0009270308328 44503.0 36323.0 1009.6313291139214 0.5077432835537845 427.0 29.0 306.0 
332.0009270308328 44490.0 36323.0 1009.5917721519085 0.505887680888014 424.0 32.0 303.0 
334.0009270308328 44484.0 36322.0 1009.5886075949301 0.5056256763239088 431.0 24.0 311.0 
336.0001983480089 44445.0 36318.0 1011.4129746835332 0.5031842615004282 435.0 22.0 314.0 
338.0009270308328 44472.0 36322.0 1011.4636075949296 0.5052477975000692 432.0 26.0 310.0 
340.0009270308328 44481.0 36319.0 1011.4161392405151 0.5039958633418797 432.0 24.0 312.0 
342.0009270308328 44465.0 36320.0 1011.5047468354404 0.5052786950005705 433.0 22.0 314.0 
344.0009270308328 44470.0 36322.0 1018.7310126582354 0.5047121560867485 435.0 26.0 314.0 
346.0001983480089 44426.0 36318.0 1018.7515822784804 0.5028106094068946 435.0 24.0 316.0 
348.0009270308328 44438.0 36320.0 1016.9541139240439 0.5038931710299985 436.0 22.0 317.0 
350.0009270308328 44453.0 36320.0 1015.0743670886033 0.5043881375741277 433.0 26.0 312.0 
352.0009270308328 44438.0 36320.0 1015.0553797468388 0.5033514344366973 435.0 24.0 314.0 
354.0009270308328 44437.0 36321.0 1015.0806962025279 0.5037625663033164 436.0 22.0 316.0 
356.0001983480089 44479.0 36322.0 1015.0949367088688 0.5062105037286974 433.0 26.0 312.0 
358.0009270308328 44424.0 36319.0 1015.0886075949295 0.5039356437803014 434.0 24.0 314.0 
360.0009270308328 44440.0 36321.0 1015.087025316467 0.5047486704355033 434.0 24.0 314.0 
362.0009270308328 44438.0 36320.0 1007.8117088607609 0.5051891349851295 437.0 26.0 308.0 
364.0009270308328 44461.0 36321.0 1009.6297468354404 0.5050926803527079 438.0 27.0 308.0 
366.0001983480089 44450.0 36320.0 1009.5648734177202 0.5050334662835709 443.0 23.0 312.0 
368.0009270308328 44445.0 36321.0 996.9224683544376 0.5029475816645355 437.0 28.0 300.0 
370.0009270308328 44487.0 36320.0 998.6534810126498 0.50606610882752 444.0 24.0 305.0 
372.0009270308328 44492.0 36325.0 1000.4683544303705 0.5084367153843695 447.0 22.0 308.0 
374.0009270308328 44453.0 36323.0 1004.1186708860778 0.5069333499293046 444.0 26.0 306.0 
376.0001983480089 44411.0 36318.0 1007.7056962025281 0.5032778848877183 445.0 24.0 310.0 
378.0009270308328 44462.0 36321.0 1007.7689873417646 0.5055868959867363 447.0 22.0 312.0 
380.0009270308328 44443.0 36323.0 1007.7816455696295 0.5059254037684849 443.0 26.0 308.0 
382.0009270308328 44421.0 36320.0 1007.6772151898778 0.5061248362251524 443.0 24.0 310.0 
384.0009270308328 44431.0 36323.0 1007.7563291139222 0.5073683197619556 444.0 23.0 311.0 
386.0001983480089 44345.0 36319.0 1007.7167721519091 0.5040905726334737 441.0 26.0 308.0 
388.0009270308328 44391.0 36324.0 1007.765822784808 0.5065079678964196 441.0 24.0 310.0 
390.0009270308328 44359.0 36324.0 1007.8291139240439 0.5073194950352556 443.0 22.0 312.0 
392.0009270308328 44324.0 36320.0 1007.7958860759561 0.504768260948497 435.0 26.0 308.0 
394.0009270308328 44347.0 36319.0 1005.9889240506329 0.5058152212772504 438.0 25.0 308.0 
396.0001983480089 44332.0 36323.0 1005.9462025316468 0.5065709201291542 440.0 23.0 310.0 
398.0009270308328 44399.0 36325.0 1005.9034810126498 0.505700454897184 439.0 27.0 306.0 
400.0009270308328 44350.0 36319.0 1002.2943037974715 0.5027346768563978 439.0 25.0 306.0 
402.0009270308328 44365.0 36321.0 1000.4905063291186 0.5037739273527682 440.0 23.0 307.0 
404.0009270308328 44388.0 36322.0 1004.216772151909 0.506128045040078 436.0 27.0 305.0 
406.0001983480089 44356.0 36322.0 1004.1819620253189 0.505025483363548 442.0 24.0 308.0 
408.0009270308328 44385.0 36324.0 1004.1724683544372 0.5063050323681058 443.0 22.0 310.0 
410.0009270308328 44380.0 36319.0 1005.9746835443087 0.5023645177081844 440.0 26.0 307.0 
412.0009270308328 44427.0 36322.0 1007.8370253164665 0.5057306417597833 442.0 24.0 310.0 
414.0009270308328 44408.0 36319.0 1009.6661392405151 0.5036516020485965 444.0 23.0 312.0 
416.0001983480089 44409.0 36323.0 1007.8132911392398 0.5055589435784993 439.0 28.0 306.0 
418.0009270308328 44412.0 36322.0 1007.7642405063236 0.5056876339547777 438.0 27.0 307.0 
420.0009270308328 44392.0 36323.0 1007.797468354437 0.5086401498751384 444.0 24.0 310.0 
422.0009270308328 44302.0 36318.0 1005.9303797468388 0.5041831578116137 445.0 27.0 306.0 
424.0009270308328 44354.0 36321.0 1005.9446202531611 0.5064130754001753 443.0 25.0 308.0 
426.0001983480089 44287.0 36319.0 1002.2563291139226 0.5042437092224522 441.0 23.0 308.0 
428.0009270308328 44278.0 36317.0 1002.2705696202506 0.5040270659715043 439.0 27.0 304.0 
430.0009270308328 44306.0 36318.0 1002.2768987341871 0.504012050035254 439.0 25.0 306.0 
432.0009270308328 44323.0 36319.0 1009.651898734187 0.5063683781432416 439.0 23.0 312.0 
434.0009270308328 44309.0 36318.0 1013.2563291139215 0.5034539140579352 440.0 27.0 310.0 
436.0001983480089 44320.0 36318.0 1016.8306962025277 0.5038223428495453 445.0 25.0 314.0 
438.0009270308328 44318.0 36318.0 1015.0569620253184 0.5039070032125295 446.0 24.0 314.0 
440.0009270308328 44326.0 36319.0 1015.0458860759561 0.5051169531103905 443.0 28.0 310.0 
442.0009270308328 44326.0 36321.0 1018.6693037974724 0.5070880595485873 445.0 26.0 314.0 
444.0009270308328 44325.0 36323.0 1016.8338607594849 0.507377351782633 449.0 24.0 315.0 
446.0001983480089 44295.0 36319.0 1016.7816455696288 0.5044815348004045 442.0 28.0 311.0 
448.0009270308328 44324.0 36319.0 1013.1534810126501 0.5032617185874497 441.0 26.0 311.0 
450.0009270308328 44334.0 36319.0 1013.1677215189745 0.5054163976086405 444.0 23.0 314.0 
452.0009270308328 44330.0 36317.0 1013.2420886075979 0.5029159198196371 441.0 27.0 310.0 
454.0009270308328 44341.0 36318.0 1016.8354430379699 0.5038820685108906 444.0 24.0 315.0 
456.0001983480089 44335.0 36319.0 1016.8544303797504 0.5039708328020063 447.0 24.0 315.0 
458.0009270308328 44406.0 36319.0 1016.8686708860785 0.5045127995323685 445.0 26.0 313.0 
460.0009270308328 44409.0 36321.0 1016.9414556962008 0.5060105941487332 443.0 26.0 313.0 
462.0009270308328 44414.0 36319.0 1013.2389240506337 0.5045985007085826 448.0 23.0 314.0 
464.0009270308328 44405.0 36319.0 1013.1977848101233 0.5046666714037136 448.0 26.0 311.0 
466.0001983480089 44402.0 36321.0 1013.2420886075975 0.5059243097025278 449.0 24.0 313.0 
468.0009270308328 44353.0 36319.0 1015.0506329113967 0.5042386522308973 450.0 24.0 314.0 
470.0009270308328 44355.0 36318.0 1015.0712025316458 0.5032850784708989 447.0 28.0 310.0 
472.0009270308328 44380.0 36319.0 1015.0379746835335 0.50421934072427 448.0 27.0 311.0 
474.0009270308328 44405.0 36321.0 1013.1993670886033 0.5069589522287868 451.0 24.0 313.0 
476.0001983480089 44319.0 36316.0 1013.2405063291185 0.5025441765390646 447.0 29.0 308.0 
478.0009270308328 44401.0 36320.0 1011.3955696202493 0.5053353309680126 448.0 27.0 309.0 
480.0009270308328 44394.0 36318.0 1007.7832278480913 0.505022017635431 449.0 25.0 309.0 
482.0009270308328 44358.0 36316.0 1002.3117088607611 0.5041489123232158 447.0 29.0 302.0 
484.0009270308328 44348.0 36321.0 1000.4968354430409 0.5068504588704428 449.0 27.0 303.0 
486.0001983480089 44332.0 36319.0 1000.537974683533 0.5053293730851108 446.0 25.0 305.0 
488.0009270308328 44305.0 36317.0 1002.3164556962021 0.504395912563744 437.0 28.0 303.0 
490.0009270308328 44334.0 36321.0 1004.1708860759562 0.5068398378914045 439.0 25.0 307.0 
492.0009270308328 44334.0 36320.0 1004.1075949366942 0.5036795378529307 440.0 24.0 308.0 
494.0009270308328 44327.0 36321.0 1004.1455696202502 0.5040052941528852 438.0 28.0 304.0 
496.0001983480089 44310.0 36316.0 1002.2405063291186 0.5017806479561702 438.0 26.0 305.0 
498.0009270308328 44359.0 36322.0 1004.1455696202502 0.504893647603455 443.0 22.0 310.0 
500.0009270308328 44341.0 36321.0 1004.1075949366942 0.5050086470173345 441.0 27.0 305.0 
502.0009270308328 44318.0 36320.0 1002.25 0.5049775792359561 442.0 27.0 304.0 
504.0009270308328 44312.0 36321.0 1000.4762658227911 0.5051108563917999 444.0 25.0 305.0 
506.0001983480089 44279.0 36319.0 1002.2373417721576 0.5042409611510319 444.0 29.0 302.0 
508.0009270308328 44264.0 36318.0 1002.234177215192 0.5047208157567419 448.0 27.0 304.0 
510.0009270308328 44269.0 36320.0 1004.0221518987468 0.5055678885964265 452.0 25.0 307.0 
512.0009270308328 44258.0 36319.0 998.6186708860774 0.5040174292786553 448.0 29.0 300.0 
514.0009270308328 44281.0 36321.0 993.1534810126496 0.5041391861005334 448.0 27.0 299.0 
516.0001983480089 44277.0 36318.0 989.544303797471 0.5050745490460719 445.0 24.0 300.0 
518.0009270308328 44300.0 36322.0 985.8591772151912 0.5047235602464292 438.0 28.0 294.0 
520.0009270308328 44291.0 36319.0 984.0696202531611 0.5048180696497112 431.0 29.0 292.0 
522.0009270308328 44290.0 36320.0 976.8275316455605 0.5040533049280286 431.0 27.0 290.0 
524.0009270308328 44325.0 36319.0 969.5316455696294 0.5049073950552538 420.0 31.0 282.0 
526.0001983480089 44314.0 36319.0 969.4873417721604 0.5051364173092349 416.0 28.0 285.0 
528.0009270308328 44309.0 36322.0 969.5348101265857 0.506232525284939 421.0 23.0 290.0 
530.0009270308328 44286.0 36317.0 975.01265822784 0.5040623293724876 416.0 27.0 289.0 
532.0009270308328 44252.0 36317.0 976.8765822784833 0.5032466697778899 422.0 25.0 292.0 
534.0009270308328 44278.0 36320.0 978.6724683544392 0.505352513092632 424.0 23.0 295.0 
536.0001983480089 44253.0 36318.0 978.6772151898796 0.503960813293437 421.0 27.0 291.0 
538.0009270308328 44304.0 36319.0 978.6091772151902 0.503344060360458 425.0 25.0 293.0 
540.0009270308328 44328.0 36320.0 980.5047468354404 0.5051038448503155 428.0 23.0 296.0 
542.0009270308328 44301.0 36318.0 980.45569620253 0.5036506010742756 428.0 27.0 292.0 
544.0009270308328 44293.0 36318.0 980.4841772151901 0.5020871689391273 429.0 25.0 294.0 
546.0001983480089 44330.0 36318.0 980.4905063291186 0.5040576493695259 431.0 23.0 296.0 
548.0009270308328 44345.0 36320.0 980.4731012658128 0.5053722920589587 427.0 27.0 292.0 
550.0009270308328 44345.0 36321.0 980.4604430379724 0.5056209121114968 425.0 25.0 294.0 
552.0009270308328 44346.0 36320.0 989.6424050633059 0.5041185694434005 430.0 23.0 301.0 
554.0009270308328 44326.0 36318.0 991.4651898734122 0.5029950296530878 426.0 27.0 298.0 
556.0001983480089 44355.0 36321.0 995.0854430379711 0.505184972487689 427.0 26.0 301.0 
558.0009270308328 44296.0 36316.0 996.9541139240437 0.5027977206457369 432.0 22.0 306.0 
560.0009270308328 44346.0 36321.0 996.8275316455621 0.5043948792227059 429.0 26.0 302.0 
562.0009270308328 44336.0 36319.0 995.0632911392385 0.5035390198288004 429.0 24.0 303.0 
564.0009270308328 44456.0 36322.0 996.857594936694 0.5076654117843928 433.0 22.0 306.0 
566.0001983480089 44388.0 36318.0 996.892405063306 0.5030020523296165 432.0 26.0 302.0 
568.0009270308328 44393.0 36317.0 998.6677215189737 0.5024437724415532 433.0 24.0 305.0 
570.0009270308328 44443.0 36322.0 996.9082278480909 0.5052287405626462 435.0 22.0 306.0 
572.0009270308328 44460.0 36321.0 998.7072784810262 0.5055430764542144 431.0 26.0 303.0 
574.0009270308328 44473.0 36320.0 998.7009493670877 0.5057347123916012 430.0 24.0 305.0 
576.0001983480089 44431.0 36319.0 998.7151898734119 0.5044327207664866 433.0 22.0 307.0 
578.0009270308328 44406.0 36317.0 998.7895569620291 0.5027337989129395 431.0 26.0 303.0 
580.0009270308328 44429.0 36321.0 996.8908227848087 0.5047624617486305 434.0 24.0 304.0 
582.0009270308328 44446.0 36320.0 998.7405063291187 0.5050345518641578 435.0 22.0 307.0 
584.0009270308328 44468.0 36323.0 998.6962025316474 0.5076210221048041 429.0 26.0 303.0 
586.0001983480089 44403.0 36320.0 995.1439873417645 0.5058204539700797 427.0 24.0 303.0 
588.0009270308328 44433.0 36320.0 995.1170886075994 0.5060608948864406 429.0 22.0 305.0 
590.0009270308328 44358.0 36320.0 996.9224683544383 0.5064234313741192 430.0 26.0 302.0 
592.0009270308328 44322.0 36316.0 1000.4841772151915 0.5018006420355112 433.0 24.0 306.0 
594.0009270308328 44380.0 36321.0 1002.3860759493674 0.5040392464970438 435.0 22.0 309.0 
596.0001983480089 44382.0 36318.0 1002.3180379746808 0.5037231670825045 432.0 26.0 305.0 
598.0009270308328 44379.0 36319.0 1000.4936708860771 0.5032840861515933 433.0 24.0 306.0 
600.0009270308328 44417.0 36318.0 1004.1313291139227 0.5035663761600332 434.0 22.0 310.0 
602.0009270308328 44431.0 36320.0 1004.1914556962024 0.5034436447498507 430.0 26.0 306.0 
604.0009270308328 44599.0 36327.0 1006.007911392401 0.5104247880957404 430.0 24.0 309.0 
606.0001983480089 44500.0 36322.0 1006.0110759493674 0.5067552615246874 431.0 22.0 311.0 
608.0009270308328 44457.0 36320.0 1004.1265822784818 0.5034816081283648 427.0 27.0 305.0 
610.0009270308328 44467.0 36321.0 1005.9889240506326 0.5059802452764532 427.0 26.0 307.0 
612.0009270308328 44459.0 36319.0 1009.6392405063236 0.5048871596691721 426.0 26.0 309.0 
614.0009270308328 44473.0 36323.0 1016.9541139240438 0.5063204135476602 425.0 31.0 308.0 
616.0001983480089 44435.0 36320.0 1015.0712025316462 0.5052405020246074 430.0 24.0 314.0 
618.0009270308328 44376.0 36316.0 1013.2863924050706 0.502289757880013 432.0 22.0 315.0 
620.0009270308328 44435.0 36320.0 1015.0917721519094 0.5041134113719956 429.0 26.0 312.0 
622.0009270308328 44422.0 36318.0 1016.8655063291187 0.5038913225052882 431.0 24.0 315.0 
624.0009270308328 44519.0 36326.0 1018.7167721519094 0.5092703630006393 431.0 22.0 318.0 
626.0001983480089 44510.0 36320.0 1018.7515822784795 0.5063481531780835 432.0 27.0 313.0 
628.0009270308328 44512.0 36320.0 1018.7405063291187 0.5048215587618986 438.0 25.0 315.0 
630.0009270308328 44539.0 36318.0 1024.169303797474 0.5038527361044628 442.0 24.0 319.0 
632.0009270308328 44520.0 36317.0 1020.5110759493651 0.5030576524367163 440.0 27.0 314.0 
634.0009270308328 44526.0 36318.0 1020.5585443037999 0.5039832393860953 441.0 25.0 316.0 
636.0001983480089 44520.0 36320.0 1020.5189873417645 0.5043926744162697 442.0 23.0 318.0 
638.0009270308328 44534.0 36321.0 1020.5348101265906 0.5044277447255311 437.0 27.0 314.0 
640.0009270308328 44498.0 36320.0 1015.1107594936764 0.5064557990755566 437.0 26.0 312.0 
642.0009270308328 44445.0 36319.0 1015.052215189876 0.5038645093392843 437.0 23.0 315.0 
644.0009270308328 44501.0 36322.0 1016.9287974683552 0.5069814048105635 437.0 26.0 313.0 
646.0001983480089 44444.0 36318.0 1015.0316455696297 0.5028282732775218 440.0 24.0 314.0 
648.0009270308328 44512.0 36322.0 1011.4667721519094 0.5063419230061758 442.0 22.0 314.0 
650.0009270308328 44563.0 36321.0 1011.3702531645596 0.5060981500818011 432.0 28.0 308.0 
652.0009270308328 44552.0 36319.0 1013.306962025317 0.5034762948801907 435.0 24.0 313.0 
654.0009270308328 44574.0 36321.0 1013.2753164556893 0.5066570660331452 436.0 22.0 315.0 
656.0001983480089 44476.0 36319.0 1015.0759493670853 0.5048686953002339 431.0 26.0 312.0 
658.0009270308328 44443.0 36319.0 1015.0664556962 0.5069508866246086 430.0 24.0 314.0 
660.0009270308328 44431.0 36317.0 1015.0886075949294 0.5047223869156867 433.0 22.0 316.0 
662.0009270308328 44441.0 36320.0 1015.0965189873504 0.5058380732968389 428.0 27.0 311.0 
664.0009270308328 44390.0 36320.0 1018.7325949366939 0.5070957754966403 428.0 25.0 315.0 
#####################################################################
# End of data export. Simulation finished at: 2019-03-06T23:25+0000 #
#####################################################################
