#####################################################################
# Alchemist log file - simulation started at: 2019-03-10T00:49+0000 #
#####################################################################
# seed = 3.0, bandwidth = 2.3713737056616552E7, accessPointCount = 274.2481756762073, baserange = 562.341325190349
#
# The columns have the following meaning: 
# time neighbor_count[Sum] <value>@neighbor_count[Sum] packet_size[Mean] mean_delay[Mean] crowd[Sum] overcrowded[Sum] risk[Sum] 
0.0 NaN NaN NaN NaN NaN NaN NaN 
2.0005923698108097 5503.0 2023.0 4985.309994353473 0.49841240949110455 1497.0 0.0 1497.0 
4.000465177810951 9193.0 2114.0 4986.717108977979 0.5389702876774587 1497.0 0.0 1497.0 
6.000084666035003 13213.0 2139.0 4988.040654997177 0.5458876664992027 1497.0 0.0 1497.0 
8.000465177810952 17375.0 2127.0 4989.289666854885 0.5598690617389365 1497.0 0.0 1497.0 
10.000139803577166 20409.0 2106.0 4990.111801242236 0.5659910115942097 1496.0 1.0 1496.0 
12.000134405861923 21259.0 2046.0 4990.746470920384 0.5558707695745464 1496.0 1.0 1496.0 
14.000177587583874 20722.0 1980.0 4990.678712591756 0.5011850794411413 1496.0 1.0 1496.0 
16.000084666035004 20722.0 1980.0 4990.570299265952 0.5011851701640846 1496.0 1.0 1496.0 
18.00012900814668 20723.0 1980.0 4990.723884810841 0.5011856777964311 1494.0 3.0 1494.0 
20.000139803577166 20729.0 1980.0 4990.7487295313385 0.5012300467120384 1491.0 6.0 1491.0 
22.00013440586192 20731.0 1980.0 4990.367024280068 0.5014042607144579 1494.0 3.0 1494.0 
24.000177587583874 20730.0 1980.0 4990.568040654997 0.5012346258950164 1496.0 1.0 1496.0 
26.000084666035004 20734.0 1980.0 4990.723884810841 0.5013820402725486 1495.0 2.0 1495.0 
28.00012900814668 20747.0 1982.0 4990.888763410502 0.5035298485992017 1496.0 1.0 1496.0 
30.000139803577166 20723.0 1980.0 4990.800677583286 0.5011383337626448 1495.0 2.0 1495.0 
32.00013440586192 20725.0 1980.0 4990.601919819311 0.5012585565987763 1496.0 1.0 1496.0 
34.00017758758387 20722.0 1980.0 4990.4528514963295 0.5011034439921422 1495.0 2.0 1495.0 
36.00008466603501 20856.0 1981.0 4990.60643704122 0.5019167819135317 1495.0 2.0 1495.0 
38.00012900814668 20839.0 1981.0 4990.71259175607 0.5028588167816349 1495.0 2.0 1495.0 
40.00013980357717 20816.0 1980.0 4990.825522303783 0.5036815336157171 1494.0 3.0 1494.0 
42.00013440586192 20802.0 1979.0 4990.563523433088 0.5010926028557664 1494.0 3.0 1494.0 
44.00017758758387 20800.0 1979.0 4990.400903444382 0.5010122275236791 1495.0 2.0 1495.0 
46.00008466603501 20828.0 1979.0 4990.493506493506 0.5019281766845902 1494.0 3.0 1494.0 
48.00012900814668 20839.0 1980.0 4990.710333145115 0.5028069149603911 1493.0 4.0 1493.0 
50.00013980357717 20828.0 1979.0 4990.635798983625 0.5019218581180663 1494.0 3.0 1494.0 
52.00013440586192 20827.0 1980.0 4990.418972332016 0.5028430697082241 1495.0 2.0 1495.0 
54.00017758758387 20812.0 1979.0 4990.403162055336 0.5015798724599115 1495.0 2.0 1495.0 
56.00008466603501 20817.0 1979.0 4990.626764539808 0.5013232891352245 1495.0 2.0 1495.0 
58.00012900814668 20823.0 1980.0 4990.581592320723 0.5011858052860346 1494.0 3.0 1494.0 
60.00013980357717 20825.0 1980.0 4990.77583286279 0.5038179703589294 1494.0 3.0 1494.0 
62.00059236981081 20836.0 1980.0 1294.699040090344 0.5030863179879427 742.0 0.0 344.0 
64.00059236981082 20828.0 1980.0 1294.538678712593 0.5022649577399851 593.0 1.0 343.0 
66.00008466603501 20830.0 1982.0 1294.3557312252922 0.504170626050946 538.0 6.0 338.0 
68.00059236981082 20842.0 1980.0 1294.3218520609792 0.5043065227187663 504.0 10.0 334.0 
70.00033353340315 20827.0 1981.0 1296.876341050252 0.5042296309634788 490.0 10.0 335.0 
72.00059236981082 20800.0 1980.0 1291.6837944664048 0.5020015798072422 487.0 9.0 334.0 
74.00059236981082 20806.0 1981.0 1291.7244494635834 0.502621397238337 480.0 12.0 331.0 
76.00008466603501 20815.0 1982.0 1291.722190852625 0.502834381148485 485.0 6.0 337.0 
78.00059236981082 20868.0 1981.0 1296.9621682665204 0.5040729077504982 481.0 8.0 337.0 
80.00033353340315 20842.0 1980.0 1296.9328063241146 0.5014646720754551 474.0 12.0 333.0 
82.00059236981082 20845.0 1980.0 1296.8356860530732 0.503290406880738 476.0 9.0 336.0 
84.00059236981082 20850.0 1979.0 1296.8447204968968 0.5014416216778763 475.0 9.0 336.0 
86.00008466603501 20874.0 1979.0 1296.720496894408 0.5014341660755611 475.0 8.0 337.0 
88.00059236981082 20892.0 1979.0 1296.792772444945 0.5015979041102654 475.0 8.0 337.0 
90.00033353340315 20892.0 1979.0 1299.3201581027708 0.5016241652523479 474.0 9.0 337.0 
92.00059236981082 20900.0 1980.0 1299.4172783738031 0.5015345014068259 473.0 10.0 336.0 
94.00059236981082 20904.0 1980.0 1299.3178994918126 0.5015733743946411 476.0 7.0 339.0 
96.00008466603501 20908.0 1980.0 1301.9695087521213 0.5034322790606703 477.0 6.0 341.0 
98.00059236981082 20905.0 1982.0 1304.5759457933405 0.5074659366634399 478.0 6.0 342.0 
100.00033353340315 20890.0 1980.0 1309.8701298701274 0.5027484079094002 477.0 7.0 343.0 
102.00059236981082 20894.0 1979.0 1309.8114059853158 0.5017187838925455 477.0 7.0 343.0 
104.00059236981082 20893.0 1979.0 1309.8046301524594 0.5017419888197402 476.0 8.0 342.0 
106.00008466603501 20913.0 1981.0 1309.7865612648204 0.5026757378485118 475.0 10.0 340.0 
108.00059236981082 20953.0 1980.0 1309.8023715415006 0.5032229575230891 475.0 9.0 341.0 
110.00033353340315 20908.0 1980.0 1309.7255787690597 0.5033432602629112 471.0 13.0 337.0 
112.00059236981082 20878.0 1981.0 1309.8159232072262 0.5034473776119269 477.0 7.0 343.0 
114.00059236981082 20895.0 1981.0 1309.7526821005072 0.5025238347604344 474.0 11.0 339.0 
116.00008466603501 20949.0 1982.0 1312.4020327498545 0.5025704959736329 481.0 6.0 345.0 
118.00059236981082 20963.0 1981.0 1314.886504799552 0.5033205647969876 482.0 7.0 345.0 
120.00033353340315 20951.0 1982.0 1317.5674760022573 0.5018559159290057 483.0 6.0 347.0 
122.00059236981082 20959.0 1984.0 1317.486166007906 0.5063497727052347 484.0 6.0 347.0 
124.00059236981082 20866.0 1982.0 1317.5268210050845 0.5043633196818826 485.0 5.0 348.0 
126.00008466603501 20775.0 1981.0 1317.5719932241645 0.5020800868902429 482.0 7.0 346.0 
128.00059236981082 20786.0 1983.0 1315.0717108978017 0.5033195564845653 480.0 9.0 343.0 
130.00033353340314 20774.0 1983.0 1314.949745906271 0.5040384427035963 478.0 11.0 341.0 
132.00059236981082 20799.0 1982.0 1317.7278373800086 0.5028404534741816 483.0 6.0 347.0 
134.00059236981082 20792.0 1981.0 1320.1739130434764 0.5020534243396304 472.0 15.0 339.0 
136.000084666035 20793.0 1981.0 1320.3026538678732 0.5028312694325555 479.0 6.0 348.0 
138.00059236981082 20783.0 1981.0 1322.7916431394688 0.502332735314382 475.0 9.0 346.0 
140.00033353340314 20770.0 1981.0 1322.9136081309998 0.5029923434257723 477.0 8.0 347.0 
142.00059236981082 20750.0 1982.0 1325.3709768492402 0.5036506802906949 477.0 8.0 348.0 
144.00059236981082 20740.0 1982.0 1325.3800112930587 0.5030354141230853 477.0 8.0 348.0 
146.000084666035 20743.0 1982.0 1317.6103896103857 0.5058586870445152 476.0 8.0 345.0 
148.00059236981082 20706.0 1980.0 1317.6216826651587 0.5041809749915851 475.0 8.0 345.0 
150.00033353340314 20737.0 1982.0 1317.5652173913056 0.5056156635467415 471.0 13.0 340.0 
152.00059236981082 20588.0 1980.0 1317.6713721061556 0.501713882622639 477.0 7.0 346.0 
154.00059236981082 20588.0 1981.0 1315.0559006211215 0.5016786823862595 473.0 11.0 341.0 
156.000084666035 20589.0 1981.0 1317.689440993785 0.5022909625649682 477.0 6.0 347.0 
158.00059061283145 20539.0 1981.0 1322.8277809147403 0.5058008011965719 475.0 9.0 346.0 
160.00033353340314 20444.0 1981.0 1322.8255223037818 0.5025570768677111 475.0 9.0 346.0 
162.00059061283145 20445.0 1981.0 1322.7216261998844 0.5028967503679779 476.0 8.0 347.0 
164.00059061283145 20430.0 1980.0 1322.8887634105013 0.5016217677421437 475.0 9.0 346.0 
166.000084666035 20480.0 1981.0 1322.6854884246218 0.5042466149249815 478.0 7.0 348.0 
168.00038027061555 20422.0 1981.0 1322.8074534161526 0.5046967754586412 474.0 13.0 342.0 
170.00016992839963 20412.0 1981.0 1325.3190287972886 0.5035538360367956 478.0 9.0 347.0 
172.00016992839963 20302.0 1980.0 1325.4364765669088 0.5019025792555942 481.0 7.0 349.0 
174.00016992839963 20296.0 1980.0 1322.8435911914148 0.5016474296766952 479.0 8.0 347.0 
176.000084666035 20317.0 1980.0 1320.266516092601 0.5017568602265441 480.0 7.0 347.0 
178.00059236981082 20355.0 1982.0 1320.216826651614 0.5024070669472922 479.0 8.0 346.0 
180.00033353340314 20315.0 1984.0 1320.2145680406559 0.5061027137269395 475.0 11.0 343.0 
182.00059236981082 20195.0 1982.0 1320.277809147375 0.5044970957930546 475.0 11.0 343.0 
184.00059236981082 20178.0 1981.0 1320.124223602489 0.5017877726212068 478.0 6.0 348.0 
186.000084666035 20174.0 1981.0 1320.1897233201566 0.5019743469818421 477.0 7.0 347.0 
188.00059236981082 20163.0 1983.0 1320.216826651614 0.5033325694419742 476.0 7.0 347.0 
190.00033353340314 20188.0 1982.0 1320.1264822134378 0.5034503618052331 471.0 9.0 345.0 
192.00059236981082 20128.0 1981.0 1317.6352343308838 0.5031592651724549 474.0 7.0 346.0 
194.00059236981082 20090.0 1981.0 1314.9768492377189 0.5018263888820096 471.0 10.0 342.0 
196.000084666035 20086.0 1981.0 1314.99717673631 0.5021344810768783 473.0 7.0 345.0 
198.00059236981082 20063.0 1981.0 1315.0084697910818 0.501533054760149 472.0 9.0 343.0 
200.00033353340314 20070.0 1982.0 1317.651044607564 0.501704967485524 471.0 10.0 343.0 
202.00059236981082 20071.0 1982.0 1322.789384528511 0.5020993387036671 472.0 9.0 346.0 
204.00059236981082 20144.0 1985.0 1320.2823263692817 0.5047728783977287 471.0 10.0 344.0 
206.000084666035 20154.0 1984.0 1320.2145680406559 0.504005257505416 473.0 8.0 346.0 
208.00059236981082 19963.0 1983.0 1320.225861095429 0.5030008589172424 470.0 12.0 342.0 
210.00033353340314 19941.0 1982.0 1312.3726708074569 0.5014969940878032 475.0 8.0 343.0 
212.00059236981082 19955.0 1983.0 1312.3704121964997 0.505374796098506 477.0 9.0 342.0 
214.00059236981082 19826.0 1983.0 1309.6713721061558 0.5036680459385228 475.0 8.0 342.0 
216.000084666035 19810.0 1982.0 1307.112365894972 0.5039469230763913 475.0 7.0 342.0 
218.00059236981082 19815.0 1983.0 1309.743647656689 0.5055840027758313 473.0 9.0 341.0 
220.00033353340314 19793.0 1982.0 1309.7684923771876 0.5036372053690907 471.0 9.0 341.0 
222.00059236981082 19652.0 1982.0 1309.7300959909671 0.5036316295545724 471.0 8.0 342.0 
224.00059236981082 19590.0 1981.0 1307.1620553359687 0.5012047153569937 472.0 8.0 341.0 
226.000084666035 19667.0 1985.0 1307.1349520045208 0.5068550510235271 474.0 5.0 344.0 
228.00059236981082 19556.0 1982.0 1309.7978543195936 0.5048416996343796 475.0 4.0 346.0 
230.00033353340314 19517.0 1984.0 1309.7684923771876 0.5071461516431689 475.0 4.0 346.0 
232.00059236981082 19437.0 1982.0 1312.4675324675316 0.50122258513837 474.0 3.0 348.0 
234.00059236981082 19438.0 1982.0 1315.0649350649362 0.501285308726567 475.0 2.0 350.0 
236.000084666035 19450.0 1983.0 1315.1033314511567 0.5035417646718838 474.0 3.0 349.0 
238.00059236981082 19478.0 1984.0 1312.4020327498545 0.5042142132951051 472.0 6.0 345.0 
240.00033353340314 19359.0 1983.0 1307.1643139469268 0.5034487653698302 470.0 8.0 341.0 
242.00059236981082 19330.0 1982.0 1309.7526821005072 0.5014724882841571 473.0 5.0 345.0 
244.00059236981082 19326.0 1982.0 1312.3929983060398 0.5010180040878366 472.0 6.0 345.0 
246.000084666035 19453.0 1986.0 1315.0107284020316 0.5036580431442943 474.0 4.0 348.0 
248.00059236981082 19545.0 1985.0 1307.2840203274995 0.5043033372621774 470.0 6.0 343.0 
250.00033353340314 19560.0 1985.0 1307.2591756070005 0.5065549956547597 473.0 3.0 346.0 
252.00059236981082 19504.0 1982.0 1304.7182382834592 0.5013426318760221 472.0 3.0 345.0 
254.00059236981082 19570.0 1983.0 1304.6414455110087 0.5028548150692469 468.0 4.0 344.0 
256.00008466603504 19615.0 1984.0 1304.6821005081874 0.5032758679262627 473.0 4.0 344.0 
258.0005923698108 19571.0 1984.0 1304.643704121967 0.5023696245533814 467.0 9.0 339.0 
260.00033353340314 19575.0 1984.0 1304.6595143986474 0.5028753900171509 464.0 11.0 337.0 
262.0005923698108 19544.0 1983.0 1307.2140033879145 0.5013821896937591 465.0 10.0 339.0 
264.0005923698108 19580.0 1985.0 1307.1710897797834 0.5046132869519143 469.0 6.0 343.0 
266.00008466603504 19512.0 1987.0 1317.5787690570307 0.5063182325070401 467.0 6.0 347.0 
268.0005923698108 19340.0 1983.0 1320.146809712029 0.5070612757543023 469.0 6.0 348.0 
270.00033353340314 19251.0 1983.0 1317.511010728404 0.5039841197337871 467.0 7.0 346.0 
272.0005923698108 19197.0 1982.0 1317.5245623941262 0.5012742972145168 467.0 7.0 346.0 
274.0005923698108 19174.0 1982.0 1317.5268210050845 0.5004753324217419 467.0 7.0 346.0 
276.00008466603504 19204.0 1983.0 1314.9632975719965 0.5005125729851368 468.0 7.0 345.0 
278.0005923698108 19240.0 1982.0 1322.7103331451178 0.500163511838552 470.0 7.0 348.0 
280.00033353340314 19267.0 1984.0 1322.757763975156 0.5009768870846774 471.0 6.0 349.0 
282.0005923698108 19285.0 1985.0 1322.6854884246213 0.504514590355193 470.0 6.0 349.0 
284.0005923698108 19216.0 1984.0 1322.748729531341 0.5018781661417201 469.0 6.0 349.0 
286.00008466603504 19190.0 1984.0 1320.0564652738533 0.5028759669981447 468.0 7.0 347.0 
288.0005923698108 19127.0 1984.0 1320.140033879163 0.5013221221247038 468.0 7.0 347.0 
290.00033353340314 19139.0 1985.0 1322.64483342744 0.5015057481948566 467.0 7.0 348.0 
292.0005923698108 19179.0 1985.0 1322.7758328627879 0.5034679098565968 468.0 7.0 348.0 
294.0005923698108 19075.0 1984.0 1322.6945228684372 0.5018162452546684 467.0 7.0 348.0 
296.00008466603504 19044.0 1984.0 1325.2512704686592 0.5010525017829635 469.0 6.0 350.0 
298.0005923698108 19040.0 1984.0 1327.8283455674725 0.5013493578638611 469.0 6.0 351.0 
300.00033353340314 19075.0 1985.0 1327.8712591756034 0.5045899467313036 469.0 6.0 351.0 
302.0005923698108 19016.0 1985.0 1327.8893280632428 0.5045213911556319 466.0 7.0 350.0 
304.0005923698108 18937.0 1983.0 1325.35516657256 0.501152157594359 464.0 7.0 349.0 
306.00008466603504 18982.0 1984.0 1322.7103331451176 0.5041534347118577 466.0 7.0 348.0 
308.0005923698108 18933.0 1985.0 1317.5335968379416 0.5094927182425035 466.0 6.0 347.0 
310.00033353340314 18814.0 1982.0 1320.0361377752715 0.5030395265041899 461.0 9.0 345.0 
312.0005923698108 18815.0 1982.0 1317.5652173913059 0.502113076868726 464.0 6.0 347.0 
314.0005923698108 18755.0 1981.0 1320.0429136081282 0.5024742499268691 464.0 6.0 348.0 
316.00008466603504 18739.0 1982.0 1322.7532467532485 0.5036724193727166 467.0 5.0 350.0 
318.0005923698108 18739.0 1982.0 1322.5815923207206 0.5016539218246956 466.0 7.0 348.0 
320.00033353340314 18749.0 1983.0 1322.6945228684372 0.5035713137116267 466.0 6.0 349.0 
322.0005923698108 18754.0 1981.0 1325.2987012986978 0.5014052544838644 466.0 6.0 350.0 
324.0005923698108 18824.0 1984.0 1325.3822699040072 0.5043436883692961 467.0 6.0 350.0 
326.00008466603504 18847.0 1983.0 1325.3370976849271 0.5031287402774853 469.0 6.0 350.0 
328.0005923698108 18861.0 1982.0 1322.7238848108425 0.5026153533906799 466.0 6.0 349.0 
330.00033353340314 18843.0 1984.0 1314.8910220214595 0.5081292780735182 466.0 6.0 346.0 
332.0005923698108 18780.0 1981.0 1312.3771880293652 0.5023540088748453 466.0 5.0 346.0 
334.0005923698108 18785.0 1982.0 1312.3049124788222 0.5024175765418432 465.0 7.0 344.0 
336.00008466603504 18782.0 1981.0 1304.5759457933402 0.5013317761344549 465.0 6.0 342.0 
338.0005923698108 18844.0 1982.0 1304.4946357989795 0.5022716641927895 462.0 6.0 342.0 
340.00033353340314 18825.0 1981.0 1301.8994918125331 0.5030996973652694 460.0 6.0 341.0 
342.0005923698108 18810.0 1981.0 1299.3020892151287 0.5057025271788801 461.0 6.0 340.0 
344.0005923698108 18721.0 1980.0 1304.5285149633019 0.5026938872489122 464.0 6.0 342.0 
346.00008466603504 18758.0 1981.0 1307.1033314511567 0.5062983758175353 465.0 6.0 343.0 
348.0005923698108 18680.0 1981.0 1307.1756070016909 0.5067259522086661 463.0 5.0 344.0 
350.00033353340314 18652.0 1978.0 1304.501411631845 0.5016073888358933 462.0 7.0 341.0 
352.0005923698108 18651.0 1978.0 1301.9333709768466 0.5013709518969691 462.0 6.0 341.0 
354.0005923698108 18658.0 1978.0 1301.8723884810859 0.5014907354065238 462.0 6.0 341.0 
356.00008466603504 18660.0 1979.0 1301.8859401468112 0.5042533566079904 459.0 6.0 341.0 
358.0005923698108 18621.0 1977.0 1301.800112930552 0.5036282087401379 460.0 6.0 341.0 
360.00033353340314 18599.0 1978.0 1304.472049689439 0.50622199878643 459.0 6.0 342.0 
362.0005923698108 18582.0 1977.0 1301.8114059853158 0.5040141139706674 462.0 6.0 341.0 
364.0005923698108 18559.0 1976.0 1299.2772444946336 0.5035508181760915 461.0 5.0 341.0 
366.00008466603504 18568.0 1976.0 1280.984754376061 0.5023001121453797 461.0 7.0 332.0 
368.0005923698108 18588.0 1977.0 1275.9006211180094 0.5032638418974187 462.0 6.0 331.0 
370.00033353340314 18567.0 1977.0 1280.9937888198754 0.5083789221834693 462.0 6.0 333.0 
372.0005923698108 18409.0 1975.0 1281.102202145684 0.502511437274876 462.0 6.0 333.0 
374.0005923698108 18407.0 1975.0 1280.9757199322428 0.5038695244415264 463.0 6.0 333.0 
376.00008466603504 18411.0 1976.0 1281.0570299265944 0.5023122297525245 462.0 6.0 333.0 
378.0005923698108 18412.0 1975.0 1281.0231507622811 0.5017909577574133 463.0 6.0 333.0 
380.00033353340314 18447.0 1976.0 1281.0841332580417 0.5015423513018052 463.0 5.0 334.0 
382.0005923698108 18475.0 1977.0 1280.9328063241148 0.5028858164956097 460.0 7.0 332.0 
384.0005923698108 18472.0 1977.0 1286.2428006775856 0.5058387494436853 465.0 6.0 335.0 
386.00008466603504 18455.0 1977.0 1294.0598531902847 0.505403782796205 464.0 6.0 338.0 
388.0005923698108 18504.0 1975.0 1283.7538114059894 0.5047366646308356 462.0 6.0 334.0 
390.00033353340314 18456.0 1975.0 1278.5251270468675 0.5039489742236605 462.0 7.0 331.0 
392.0005923698108 18396.0 1974.0 1278.5454545454584 0.5031231265946596 461.0 7.0 331.0 
394.0005923698108 18380.0 1973.0 1278.4776962168228 0.5023504557441798 461.0 6.0 332.0 
396.00008466603504 18377.0 1975.0 1278.5115753811358 0.5019017206825327 463.0 5.0 333.0 
398.0005923698108 18386.0 1975.0 1278.4844720496883 0.504278852382201 462.0 6.0 332.0 
400.00033353340314 18407.0 1977.0 1278.5522303783148 0.5040650421535514 463.0 6.0 332.0 
402.0005923698108 18427.0 1976.0 1278.5025409373213 0.5026651249845521 463.0 5.0 333.0 
404.0005923698108 18511.0 1978.0 1281.124788255221 0.5070008392017108 464.0 6.0 333.0 
406.00008466603504 18412.0 1976.0 1281.1044607566332 0.5038336939686854 465.0 6.0 333.0 
408.0005923698108 18399.0 1974.0 1275.968379446636 0.5046980668746517 464.0 5.0 332.0 
410.00033353340314 18463.0 1977.0 1278.583850931679 0.5047303550474806 462.0 6.0 332.0 
412.0005923698108 18442.0 1974.0 1273.3709768492406 0.5015751171593682 463.0 6.0 330.0 
414.0005923698108 18432.0 1974.0 1270.7216261998844 0.5012727718018438 462.0 5.0 330.0 
416.00008466603504 18464.0 1975.0 1270.760022586114 0.5026749774685163 462.0 6.0 329.0 
418.0005923698108 18382.0 1974.0 1270.696781479386 0.5036440218754853 462.0 5.0 330.0 
420.00033353340314 18362.0 1974.0 1268.1287408243963 0.5032144639636982 461.0 6.0 328.0 
422.0005923698108 18337.0 1973.0 1257.7278373800082 0.5026816616073846 462.0 6.0 324.0 
424.0005923698108 18335.0 1972.0 1252.5691699604713 0.5055042567528064 460.0 5.0 323.0 
426.00008466603504 18332.0 1973.0 1260.3320158102792 0.5048462391306265 452.0 8.0 323.0 
428.0005923698108 18303.0 1971.0 1257.754940711466 0.5036832149982249 455.0 7.0 323.0 
430.00033353340314 18307.0 1972.0 1257.5855448898974 0.5068170964417328 456.0 5.0 325.0 
432.0005923698108 18280.0 1970.0 1255.062676453977 0.5014366047664919 453.0 6.0 323.0 
434.0005923698108 18301.0 1971.0 1252.36815358554 0.5014155846956991 455.0 5.0 323.0 
436.00008466603504 18306.0 1972.0 1262.9226425748143 0.5026392868506963 457.0 7.0 325.0 
438.0005923698108 18370.0 1973.0 1268.0180688876326 0.5043171760624419 457.0 8.0 326.0 
440.00033353340314 18321.0 1972.0 1265.5539243365322 0.5037993515032559 456.0 7.0 326.0 
442.0005923698108 18307.0 1972.0 1265.4635798983657 0.502839895810725 459.0 5.0 328.0 
444.0005923698108 18318.0 1972.0 1265.5561829474907 0.501208420499192 457.0 7.0 326.0 
446.00008466603504 18343.0 1973.0 1265.4680971202731 0.5031264544949411 455.0 8.0 325.0 
448.0005923698108 18350.0 1974.0 1270.748729531341 0.5079470732303033 459.0 7.0 328.0 
450.00033353340314 18313.0 1974.0 1273.2648221343843 0.5052168028830681 461.0 6.0 330.0 
452.0005923698108 18340.0 1974.0 1275.891586674191 0.5017707233516832 461.0 6.0 331.0 
454.0005923698108 18410.0 1974.0 1275.812535290792 0.5017157240862289 461.0 5.0 332.0 
456.00008466603504 18426.0 1975.0 1275.8644833427472 0.5022104950738785 459.0 6.0 331.0 
458.0005923698108 18492.0 1976.0 1275.7583286278968 0.5080295298793206 461.0 5.0 332.0 
460.00033353340314 18452.0 1976.0 1278.4844720496883 0.5062931218471541 460.0 6.0 332.0 
462.0005923698108 18441.0 1974.0 1278.3986448334292 0.506343165283771 460.0 5.0 333.0 
464.0005923698108 18425.0 1974.0 1278.5251270468675 0.5042929677464724 458.0 6.0 332.0 
466.00008466603504 18440.0 1974.0 1275.7357425183473 0.5031711742441526 460.0 5.0 332.0 
468.0005923698108 18448.0 1974.0 1275.902879728968 0.5026066904386846 459.0 6.0 331.0 
470.00033353340314 18478.0 1975.0 1280.9237718802904 0.5031323952049767 460.0 5.0 334.0 
472.0005923698108 18448.0 1975.0 1273.3258046301548 0.5024750348736472 461.0 6.0 330.0 
474.0005923698108 18479.0 1976.0 1273.1744776962182 0.5058357112196078 461.0 5.0 331.0 
476.00008466603504 18425.0 1974.0 1270.665160926031 0.5016676584271362 457.0 6.0 329.0 
478.0005923698108 18441.0 1975.0 1270.466403162059 0.5011802105656664 457.0 7.0 328.0 
480.00033353340314 18469.0 1976.0 1268.029361942406 0.5026146906238498 456.0 6.0 328.0 
482.0005923698108 18464.0 1975.0 1267.8825522303764 0.5016309391280483 453.0 7.0 327.0 
484.0005923698108 18466.0 1976.0 1262.825522303782 0.5019020583771655 452.0 7.0 325.0 
486.00008466603504 18470.0 1978.0 1260.1038961038983 0.504952089973867 454.0 5.0 326.0 
488.0005923698108 18453.0 1976.0 1249.8317334839066 0.5031388891063943 452.0 5.0 322.0 
490.00033353340314 18452.0 1975.0 1249.72557876906 0.5048034339840882 454.0 5.0 322.0 
492.0005923698108 18479.0 1977.0 1244.700169395819 0.505888668374293 452.0 5.0 320.0 
494.0005923698108 18359.0 1976.0 1247.1507622811946 0.5028473994455747 447.0 6.0 320.0 
496.00008466603504 18416.0 1979.0 1244.7295313382253 0.5038348621355366 444.0 8.0 317.0 
498.0005923698108 18459.0 1977.0 1244.5556182947494 0.5062536330214594 440.0 12.0 313.0 
500.00033353340314 18436.0 1976.0 1244.6391869000597 0.5031823594663337 444.0 7.0 318.0 
502.0005923698108 18449.0 1976.0 1239.3043478260906 0.5019227720420576 444.0 9.0 314.0 
504.0005923698108 18460.0 1978.0 1236.8289102202168 0.5052067154162299 448.0 7.0 315.0 
506.00008466603504 18410.0 1976.0 1236.799548277811 0.5022442145539932 443.0 9.0 313.0 
508.0005923698108 18376.0 1977.0 1234.3444381705283 0.504445728638292 444.0 7.0 314.0 
510.00033353340314 18342.0 1977.0 1231.6115189158681 0.5043555178346003 442.0 7.0 313.0 
512.0005923698109 18342.0 1976.0 1236.919254658383 0.5055552565064357 443.0 7.0 315.0 
514.0005923698109 18289.0 1978.0 1236.8198757763992 0.5073197083270808 442.0 9.0 313.0 
516.000084666035 18265.0 1976.0 1236.975719932243 0.5025365251805881 443.0 7.0 315.0 
518.0005923698109 18350.0 1978.0 1226.4528514963345 0.5038174498883814 438.0 5.0 313.0 
520.0003335334031 18346.0 1980.0 1223.9751552795012 0.5045759351057325 436.0 7.0 310.0 
522.0005923698109 18366.0 1980.0 1221.2783738001165 0.5023802514147341 436.0 9.0 307.0 
524.0005923698109 18365.0 1979.0 1213.5990965556218 0.5020483138701269 431.0 7.0 306.0 
526.000084666035 18420.0 1982.0 1210.8390739695062 0.5028709758556225 432.0 7.0 305.0 
528.0005923698109 18459.0 1982.0 1216.191981931117 0.5035005007369295 434.0 7.0 307.0 
530.0003335334031 18467.0 1983.0 1218.6357989836251 0.5053533436876689 434.0 9.0 306.0 
532.0005923698109 18443.0 1981.0 1229.255787690566 0.501704633512811 441.0 7.0 312.0 
534.0005923698109 18448.0 1981.0 1226.4776962168212 0.5015194726417503 442.0 5.0 313.0 
536.000084666035 18449.0 1981.0 1226.6809712027127 0.5015167855087491 441.0 7.0 311.0 
538.0005923698109 18472.0 1982.0 1226.5251270468689 0.5012117442697038 441.0 8.0 310.0 
540.0003335334031 18486.0 1983.0 1226.6741953698452 0.5030590092263635 441.0 6.0 312.0 
542.0005923698109 18514.0 1984.0 1226.4912478825556 0.5048787461458752 443.0 6.0 312.0 
544.0005923698109 18431.0 1983.0 1229.2015810276641 0.5034966048156737 447.0 5.0 314.0 
546.000084666035 18494.0 1984.0 1234.2428006775867 0.5062463890767583 448.0 5.0 316.0 
548.0005923698109 18509.0 1982.0 1234.389610389616 0.5030727789330529 449.0 5.0 316.0 
550.0003335334031 18499.0 1981.0 1229.0276679841884 0.5031799966228248 448.0 5.0 314.0 
552.0005923698109 18513.0 1982.0 1234.3692828910248 0.5044052292465943 455.0 5.0 316.0 
554.0005923698109 18492.0 1981.0 1236.8673066064373 0.5025431952009651 457.0 5.0 317.0 
556.000084666035 18523.0 1983.0 1237.0005646527427 0.5045440530248749 458.0 5.0 317.0 
558.0005923698109 18503.0 1986.0 1234.2721626199925 0.5087013497177971 459.0 5.0 316.0 
560.0003335334031 18411.0 1984.0 1231.7560700169383 0.5077274722660031 457.0 6.0 314.0 
562.0005923698109 18450.0 1984.0 1231.5957086391873 0.503484478151787 457.0 8.0 312.0 
564.0005923698109 18518.0 1985.0 1236.9666854884294 0.5080579722633587 459.0 6.0 316.0 
566.000084666035 18451.0 1986.0 1239.4172783738047 0.5086965652772453 458.0 7.0 316.0 
568.0005923698109 18399.0 1982.0 1244.6979107848717 0.5013016518423223 461.0 7.0 318.0 
570.0003335334031 18405.0 1982.0 1244.5398080180655 0.5014491102527444 461.0 9.0 316.0 
572.0005923698109 18427.0 1984.0 1244.7069452286862 0.5035097222972855 461.0 7.0 318.0 
574.0005923698109 18480.0 1985.0 1247.1846414455076 0.5048075312634219 459.0 7.0 319.0 
576.000084666035 18341.0 1982.0 1255.0852625635277 0.502985533113182 463.0 7.0 322.0 
578.0005923698109 18374.0 1984.0 1254.9678147939042 0.5020234846560655 462.0 9.0 320.0 
580.0003335334031 18379.0 1984.0 1257.6826651609292 0.5065495837526366 463.0 7.0 323.0 
582.0005923698109 18336.0 1984.0 1255.015245623939 0.5056878573956576 460.0 6.0 323.0 
584.0005923698109 18343.0 1982.0 1252.4697910784912 0.5075922464468552 464.0 7.0 321.0 
586.000084666035 18333.0 1982.0 1254.979107848678 0.503728378005552 458.0 9.0 320.0 
588.0005923698109 18359.0 1981.0 1260.2732919254674 0.5032008585615684 461.0 7.0 324.0 
590.0003335334031 18331.0 1981.0 1262.7396950875236 0.504153648293362 467.0 6.0 326.0 
592.0005923698109 18322.0 1981.0 1262.8345567475967 0.5042425119245133 468.0 7.0 325.0 
594.0005923698109 18237.0 1980.0 1260.133258046304 0.5031773279467764 469.0 9.0 322.0 
596.000084666035 18221.0 1981.0 1257.594579333711 0.5026553298514557 470.0 7.0 323.0 
598.0005923698109 18349.0 1982.0 1254.9294184076812 0.5038167483596151 471.0 6.0 323.0 
600.0003335334031 18392.0 1984.0 1260.2484472049687 0.5061693179572111 476.0 5.0 326.0 
602.0005923698109 18431.0 1985.0 1257.5832862789377 0.5095821173722355 479.0 4.0 326.0 
604.0005923698109 18217.0 1983.0 1255.0491247882526 0.5059441445949374 480.0 6.0 323.0 
606.000084666035 18235.0 1981.0 1254.8819875776353 0.5032852376413562 480.0 3.0 326.0 
608.0005923698109 18228.0 1980.0 1260.1874647092084 0.5038973994259521 483.0 1.0 330.0 
610.0003335334031 18260.0 1982.0 1267.9954827780928 0.5076793106402393 482.0 2.0 332.0 
612.0005923698109 18258.0 1980.0 1270.6357989836251 0.5027872550510598 482.0 2.0 333.0 
614.0005923698109 18228.0 1980.0 1270.5680406549989 0.5014811123788158 483.0 1.0 334.0 
616.000084666035 18306.0 1982.0 1270.6335403726666 0.5047736891411763 483.0 2.0 333.0 
618.0005923698109 18273.0 1981.0 1265.3551665725602 0.5041832578978896 479.0 5.0 328.0 
620.0003335334031 18279.0 1986.0 1267.9728966685525 0.5059564310272542 479.0 4.0 330.0 
622.0005923698109 18245.0 1983.0 1270.556747600222 0.5057816604788032 479.0 1.0 334.0 
624.0005923698109 18121.0 1983.0 1270.6177300959923 0.5034127330083963 474.0 3.0 332.0 
626.000084666035 18089.0 1984.0 1283.6137775268198 0.5028478759903524 470.0 5.0 335.0 
628.0005923698109 18126.0 1984.0 1286.1727837380004 0.5050900364270279 475.0 5.0 336.0 
630.0003335334031 18137.0 1984.0 1286.1931112365917 0.5044654727830109 476.0 5.0 336.0 
632.0005923698109 18103.0 1984.0 1288.8153585544917 0.5046498930040288 473.0 6.0 336.0 
634.0005923698109 18021.0 1982.0 1291.4330886504772 0.5072623895878071 473.0 6.0 337.0 
636.000084666035 17936.0 1981.0 1291.399209486164 0.502524541144859 476.0 4.0 339.0 
638.0005923698109 18048.0 1983.0 1291.3540372670843 0.5053592392604667 477.0 4.0 339.0 
640.0003335334031 17897.0 1981.0 1291.3472614342184 0.5064678674767303 477.0 5.0 338.0 
642.0005923698109 17813.0 1981.0 1291.326933935627 0.5024179630814555 476.0 7.0 336.0 
644.0005923698109 17795.0 1981.0 1286.1614906832267 0.5051515744107036 478.0 4.0 337.0 
646.000084666035 17699.0 1981.0 1286.1230942970035 0.5042674192764652 474.0 3.0 338.0 
648.0005923698109 17663.0 1979.0 1291.3856578204388 0.5026661041590363 472.0 4.0 339.0 
650.0003335334031 17687.0 1981.0 1293.978543195936 0.5035815949849961 466.0 7.0 337.0 
652.0005923698109 17649.0 1980.0 1291.4263128176215 0.5048941303201409 468.0 5.0 338.0 
654.0005923698109 17637.0 1981.0 1291.4330886504765 0.5036299490507896 469.0 4.0 339.0 
656.000084666035 17679.0 1982.0 1291.5053642010216 0.5079624643808563 470.0 4.0 339.0 
658.0005923698109 17654.0 1981.0 1299.2388481084097 0.5065074757529978 465.0 7.0 339.0 
660.0003335334031 17610.0 1979.0 1304.4630152456248 0.5046852741734015 468.0 5.0 343.0 
662.0005923698109 17599.0 1978.0 1304.3681535855405 0.5022704370977474 470.0 3.0 345.0 
664.0005923698109 17590.0 1978.0 1301.8068887634083 0.5034166961502313 472.0 3.0 344.0 
#####################################################################
# End of data export. Simulation finished at: 2019-03-10T01:11+0000 #
#####################################################################
