#####################################################################
# Alchemist log file - simulation started at: 2019-03-11T16:12+0000 #
#####################################################################
# seed = 4.0, bandwidth = 5623413.251903491, accessPointCount = 1031.338537721246, baserange = 10.0
#
# The columns have the following meaning: 
# time neighbor_count[Sum] <value>@neighbor_count[Sum] packet_size[Mean] mean_delay[Mean] crowd[Sum] overcrowded[Sum] risk[Sum] 
0.0 NaN NaN NaN NaN NaN NaN NaN 
2.0000042429967895 40.0 23.0 4978.525316455696 0.4943562878140938 1497.0 0.0 1497.0 
4.0000042429967895 40.0 23.0 4978.737341772152 0.4943517646008252 1497.0 0.0 1497.0 
6.0000042429967895 41.0 23.0 4978.626582278481 0.49338221321137754 1497.0 0.0 1497.0 
8.00000424299679 42.0 23.0 4978.507911392406 0.49904346806503097 1497.0 0.0 1497.0 
10.00000424299679 42.0 23.0 4978.51740506329 0.49904392403411046 1497.0 0.0 1497.0 
12.00000424299679 42.0 23.0 4978.552215189873 0.49904312152853053 1497.0 0.0 1497.0 
14.00000424299679 42.0 23.0 4978.542721518987 0.49904321272234653 1497.0 0.0 1497.0 
16.000004242996788 42.0 23.0 4978.476265822785 0.49904381460153135 1497.0 0.0 1497.0 
18.000004242996788 42.0 23.0 4978.541139240506 0.4990432856773991 1497.0 0.0 1497.0 
20.000004242996788 42.0 23.0 4978.523734177215 0.4990433768712149 1497.0 0.0 1497.0 
22.000004242996788 43.0 23.0 4978.487341772152 0.4931904614397247 1497.0 0.0 1497.0 
24.000004242996788 44.0 24.0 4978.556962025317 0.5234369473461188 1497.0 0.0 1497.0 
26.000004242996788 43.0 24.0 4978.545886075949 0.5599878456162424 1497.0 0.0 1497.0 
28.000004242996788 42.0 23.0 4978.525316455696 0.49904339510997825 1497.0 0.0 1497.0 
30.000004242996788 42.0 23.0 4978.493670886076 0.49904390579534724 1497.0 0.0 1497.0 
32.00000424299679 42.0 23.0 4978.514240506329 0.5246845119448197 1497.0 0.0 1497.0 
34.00000424299679 41.0 23.0 4978.4968354430375 0.5578369676795956 1497.0 0.0 1497.0 
36.00000424299679 40.0 22.0 4978.476265822785 0.49904020973463775 1497.0 0.0 1497.0 
38.00000424299679 40.0 22.0 4978.473101265823 0.49904020973463775 1497.0 0.0 1497.0 
40.00000424299679 40.0 22.0 4978.473101265823 0.49904020973463775 1497.0 0.0 1497.0 
42.00000424299679 40.0 22.0 4978.473101265823 0.49904020973463775 1497.0 0.0 1497.0 
44.00000424299679 40.0 22.0 4978.473101265823 0.49904020973463775 1497.0 0.0 1497.0 
46.00000424299679 40.0 22.0 4978.473101265823 0.49904020973463775 1497.0 0.0 1497.0 
48.00000424299679 40.0 22.0 4978.473101265823 0.49904020973463775 1497.0 0.0 1497.0 
50.00000424299679 40.0 22.0 4978.473101265823 0.49904020973463775 1497.0 0.0 1497.0 
52.00000424299679 40.0 22.0 4978.473101265823 0.49904020973463775 1497.0 0.0 1497.0 
54.00000424299679 40.0 22.0 4978.473101265823 0.49904020973463775 1497.0 0.0 1497.0 
56.00000424299679 40.0 22.0 4978.473101265823 0.49904020973463775 1497.0 0.0 1497.0 
58.00000424299679 40.0 22.0 4978.473101265823 0.49904020973463775 1497.0 0.0 1497.0 
60.00000424299679 40.0 22.0 4976.667721518987 0.49904020973463775 1497.0 0.0 1497.0 
62.00000424299679 40.0 22.0 400.0 0.4998125597378581 16.0 0.0 0.0 
64.0000042429968 40.0 22.0 400.0 0.4999231014309141 16.0 0.0 0.0 
66.0000042429968 40.0 22.0 400.0 0.49992310143092006 16.0 0.0 0.0 
68.0000042429968 40.0 22.0 400.0 0.49992310143092006 14.0 0.0 0.0 
70.0000042429968 40.0 22.0 400.0 0.49992310143092006 9.0 0.0 0.0 
72.0000042429968 40.0 22.0 400.0 0.49992310143092006 4.0 0.0 0.0 
74.0000042429968 40.0 22.0 400.0 0.49992310143092006 3.0 0.0 0.0 
76.0000042429968 40.0 22.0 400.0 0.49992310143092006 3.0 0.0 0.0 
78.0000042429968 40.0 22.0 400.0 0.49992310143092006 2.0 0.0 0.0 
80.0000042429968 40.0 22.0 400.0 0.49992310143092006 1.0 0.0 0.0 
82.0000042429968 40.0 22.0 400.0 0.5810041825120011 1.0 0.0 0.0 
84.0000042429968 38.0 21.0 400.0 0.49992277186562395 1.0 0.0 0.0 
86.0000042429968 38.0 21.0 400.0 0.49992277186562395 1.0 0.0 0.0 
88.0000042429968 38.0 21.0 400.0 0.49992277186562395 1.0 0.0 0.0 
90.0000042429968 38.0 21.0 400.0 0.49992277186562395 1.0 0.0 0.0 
92.0000042429968 38.0 21.0 400.0 0.49992277186562395 1.0 0.0 0.0 
94.0000042429968 38.0 21.0 400.0 0.49992277186562395 1.0 0.0 0.0 
96.0000042429968 38.0 21.0 400.0 0.49992277186562395 1.0 0.0 0.0 
98.0000042429968 38.0 21.0 400.0 0.49992277186562395 1.0 0.0 0.0 
100.0000042429968 40.0 22.0 400.0 0.49992310143092006 1.0 0.0 0.0 
102.0000042429968 40.0 22.0 400.0 0.49992310143092006 1.0 0.0 0.0 
104.0000042429968 40.0 22.0 400.0 0.49992310143092006 1.0 0.0 0.0 
106.0000042429968 40.0 22.0 400.0 0.49992310143092006 1.0 0.0 0.0 
108.0000042429968 40.0 22.0 400.0 0.49992310143092006 1.0 0.0 0.0 
110.0000042429968 40.0 22.0 400.0 0.49992310143092006 1.0 0.0 0.0 
112.0000042429968 40.0 22.0 400.0 0.49992310143092006 1.0 0.0 0.0 
114.0000042429968 40.0 22.0 400.0 0.49992310143092006 1.0 0.0 0.0 
116.0000042429968 40.0 22.0 400.0 0.49992310143092006 1.0 0.0 0.0 
118.0000042429968 40.0 22.0 400.0 0.49992310143092006 1.0 0.0 0.0 
120.0000042429968 40.0 22.0 400.0 0.49992310143092006 1.0 0.0 0.0 
122.0000042429968 40.0 22.0 400.0 0.49992310143092006 1.0 0.0 0.0 
124.0000042429968 40.0 22.0 400.0 0.49992310143092006 1.0 0.0 0.0 
126.0000042429968 40.0 22.0 400.0 0.49992310143092006 1.0 0.0 0.0 
128.0000042429968 42.0 23.0 400.0 0.49992339719464735 1.0 0.0 0.0 
130.0000042429968 43.0 23.0 400.0 0.4952042546586107 1.0 0.0 0.0 
132.0000042429968 44.0 24.0 400.0 0.4999236641033647 1.0 0.0 0.0 
134.0000042429968 44.0 24.0 400.0 0.4999236641033647 1.0 0.0 0.0 
136.0000042429968 44.0 24.0 400.0 0.4999236641033647 1.0 0.0 0.0 
138.0000042429968 44.0 24.0 400.0 0.5730943958106818 1.0 0.0 0.0 
140.0000042429968 42.0 23.0 400.0 0.525564422835661 1.0 0.0 0.0 
142.0000042429968 41.0 23.0 400.0 0.5575224946009769 1.0 0.0 0.0 
144.0000042429968 40.0 22.0 400.0 0.4999231014309081 1.0 0.0 0.0 
146.0000042429968 40.0 22.0 400.0 0.4999231014309081 1.0 0.0 0.0 
148.0000042429968 40.0 22.0 400.0 0.4999231014309081 1.0 0.0 0.0 
150.0000042429968 40.0 22.0 400.0 0.4999231014309081 1.0 0.0 0.0 
152.0000042429968 40.0 22.0 400.0 0.4999231014309081 1.0 0.0 0.0 
154.0000042429968 42.0 23.0 400.0 0.5052416586531003 0.0 0.0 0.0 
156.0000042429968 42.0 23.0 400.0 0.5052416586531003 0.0 0.0 0.0 
158.0000042429968 44.0 24.0 400.0 0.5049760191616247 0.0 0.0 0.0 
160.0000042429968 44.0 24.0 400.0 0.5799786865807391 0.0 0.0 0.0 
162.0000042429968 42.0 23.0 400.0 0.4999233971946353 0.0 0.0 0.0 
164.0000042429968 42.0 23.0 400.0 0.4999233971946353 0.0 0.0 0.0 
166.0000042429968 42.0 23.0 400.0 0.4999233971946353 0.0 0.0 0.0 
168.0000042429968 42.0 23.0 400.0 0.4999233971946353 0.0 0.0 0.0 
170.0000042429968 42.0 23.0 400.0 0.4999233971946353 0.0 0.0 0.0 
172.0000042429968 42.0 23.0 400.0 0.4999233971946353 0.0 0.0 0.0 
174.0000042429968 42.0 23.0 400.0 0.4999233971946353 0.0 0.0 0.0 
176.0000042429968 43.0 23.0 400.0 0.5025325804339289 0.0 0.0 0.0 
178.0000042429968 44.0 24.0 400.0 0.4999236641033647 0.0 0.0 0.0 
180.0000042429968 44.0 24.0 400.0 0.4999236641033647 0.0 0.0 0.0 
182.0000042429968 44.0 24.0 400.0 0.4999236641033647 0.0 0.0 0.0 
184.0000042429968 44.0 24.0 400.0 0.4999236641033647 0.0 0.0 0.0 
186.0000042429968 44.0 24.0 400.0 0.4999236641033647 0.0 0.0 0.0 
188.0000042429968 44.0 24.0 400.0 0.4999236641033647 0.0 0.0 0.0 
190.0000042429968 44.0 24.0 400.0 0.4999236641033647 0.0 0.0 0.0 
192.0000042429968 44.0 24.0 400.0 0.4999236641033647 0.0 0.0 0.0 
194.0000042429968 44.0 24.0 400.0 0.4999236641033647 0.0 0.0 0.0 
196.0000042429968 44.0 24.0 400.0 0.5243139080058037 0.0 0.0 0.0 
198.0000042429968 43.0 24.0 400.0 0.5473144875367894 0.0 0.0 0.0 
200.0000042429968 42.0 23.0 400.0 0.4999233971946353 0.0 0.0 0.0 
202.0000042429968 42.0 23.0 400.0 0.4999233971946353 0.0 0.0 0.0 
204.0000042429968 42.0 23.0 400.0 0.4999233971946353 0.0 0.0 0.0 
206.0000042429968 42.0 23.0 400.0 0.4999233971946353 0.0 0.0 0.0 
208.0000042429968 42.0 23.0 400.0 0.4999233971946353 0.0 0.0 0.0 
210.0000042429968 42.0 23.0 400.0 0.4999233971946353 0.0 0.0 0.0 
212.0000042429968 42.0 23.0 400.0 0.4999233971946353 0.0 0.0 0.0 
214.0000042429968 42.0 23.0 400.0 0.4999233971946353 0.0 0.0 0.0 
216.0000042429968 42.0 23.0 400.0 0.4999233971946353 0.0 0.0 0.0 
218.0000042429968 42.0 23.0 400.0 0.4999233971946353 0.0 0.0 0.0 
220.0000042429968 42.0 23.0 400.0 0.4999233971946353 0.0 0.0 0.0 
222.0000042429968 42.0 23.0 400.0 0.4999233971946353 0.0 0.0 0.0 
224.0000042429968 42.0 23.0 400.0 0.4999233971946353 0.0 0.0 0.0 
226.0000042429968 42.0 23.0 400.0 0.4999233971946353 0.0 0.0 0.0 
228.0000042429968 42.0 23.0 400.0 0.6024874997587378 0.0 0.0 0.0 
230.0000042429968 40.0 22.0 400.0 0.4999231014309081 0.0 0.0 0.0 
232.0000042429968 40.0 22.0 400.0 0.4999231014309081 0.0 0.0 0.0 
234.0000042429968 40.0 22.0 400.0 0.4999231014309081 0.0 0.0 0.0 
236.0000042429968 40.0 22.0 400.0 0.4999231014309081 0.0 0.0 0.0 
238.0000042429968 40.0 22.0 400.0 0.4999231014309081 0.0 0.0 0.0 
240.0000042429968 40.0 22.0 400.0 0.4999231014309081 0.0 0.0 0.0 
242.0000042429968 40.0 22.0 400.0 0.4999231014309081 0.0 0.0 0.0 
244.0000042429968 40.0 22.0 400.0 0.4999231014309081 0.0 0.0 0.0 
246.0000042429968 40.0 22.0 400.0 0.4999231014309081 0.0 0.0 0.0 
248.0000042429968 40.0 22.0 400.0 0.4999231014309081 0.0 0.0 0.0 
250.0000042429968 42.0 23.0 400.0 0.4999233971946353 0.0 0.0 0.0 
252.0000042429968 42.0 23.0 400.0 0.4999233971946353 0.0 0.0 0.0 
254.0000042429968 42.0 23.0 400.0 0.5768464741177122 0.0 0.0 0.0 
256.0000042429968 40.0 22.0 400.0 0.4999231014309082 0.0 0.0 0.0 
258.0000042429968 40.0 22.0 400.0 0.49992310143090585 0.0 0.0 0.0 
260.0000042429968 40.0 22.0 400.0 0.5810041825119869 0.0 0.0 0.0 
262.0000042429968 38.0 21.0 400.0 0.49992277186560974 0.0 0.0 0.0 
264.0000042429968 38.0 21.0 400.0 0.49992277186560974 0.0 0.0 0.0 
266.0000042429968 38.0 21.0 400.0 0.49992277186560974 0.0 0.0 0.0 
268.0000042429968 38.0 21.0 400.0 0.49992277186560974 0.0 0.0 0.0 
270.0000042429968 38.0 21.0 400.0 0.49992277186560974 0.0 0.0 0.0 
272.0000042429968 38.0 21.0 400.0 0.49992277186560974 0.0 0.0 0.0 
274.0000042429968 38.0 21.0 400.0 0.49992277186560974 0.0 0.0 0.0 
276.0000042429968 39.0 21.0 400.0 0.487327670042218 0.0 0.0 0.0 
278.0000042429968 40.0 22.0 400.0 0.49992310143090585 0.0 0.0 0.0 
280.0000042429968 40.0 22.0 400.0 0.49992310143090585 0.0 0.0 0.0 
282.0000042429968 40.0 22.0 400.0 0.49992310143090585 0.0 0.0 0.0 
284.0000042429968 40.0 22.0 400.0 0.49992310143090585 0.0 0.0 0.0 
286.0000042429968 40.0 22.0 400.0 0.49992310143090585 0.0 0.0 0.0 
288.0000042429968 40.0 22.0 400.0 0.49992310143090585 0.0 0.0 0.0 
290.0000042429968 40.0 22.0 400.0 0.49992310143090585 0.0 0.0 0.0 
292.0000042429968 40.0 22.0 400.0 0.49992310143090585 0.0 0.0 0.0 
294.0000042429968 40.0 22.0 400.0 0.49992310143090585 0.0 0.0 0.0 
296.0000042429968 40.0 22.0 400.0 0.49992310143090585 0.0 0.0 0.0 
298.0000042429968 40.0 22.0 400.0 0.49992310143090585 0.0 0.0 0.0 
300.0000042429968 41.0 22.0 400.0 0.4935693967829638 0.0 0.0 0.0 
302.0000042429968 42.0 23.0 400.0 0.49992339719463313 0.0 0.0 0.0 
304.0000042429968 42.0 23.0 400.0 0.49992339719463313 0.0 0.0 0.0 
306.0000042429968 42.0 23.0 400.0 0.5255644228356587 0.0 0.0 0.0 
308.0000042429968 41.0 23.0 400.0 0.5644871943254521 0.0 0.0 0.0 
310.0000042429968 40.0 22.0 400.0 0.5269501284579329 0.0 0.0 0.0 
312.0000042429968 39.0 22.0 400.0 0.5621853452259558 0.0 0.0 0.0 
314.0000042429968 38.0 21.0 400.0 0.49992277186560974 0.0 0.0 0.0 
316.0000042429968 38.0 21.0 400.0 0.49992277186560974 0.0 0.0 0.0 
318.0000042429968 38.0 21.0 400.0 0.49992277186560974 0.0 0.0 0.0 
320.0000042429968 38.0 21.0 400.0 0.49992277186560974 0.0 0.0 0.0 
322.0000042429968 38.0 21.0 400.0 0.49992277186560974 0.0 0.0 0.0 
324.0000042429968 38.0 21.0 400.0 0.49992277186560974 0.0 0.0 0.0 
326.0000042429968 38.0 21.0 400.0 0.49992277186560974 0.0 0.0 0.0 
328.0000042429968 38.0 21.0 400.0 0.49992277186560974 0.0 0.0 0.0 
330.0000042429968 38.0 21.0 400.0 0.49992277186560974 0.0 0.0 0.0 
332.0000042429968 38.0 21.0 400.0 0.49992277186560974 0.0 0.0 0.0 
334.0000042429968 38.0 21.0 400.0 0.49992277186560974 0.0 0.0 0.0 
336.0000042429968 40.0 22.0 400.0 0.49992310143090585 0.0 0.0 0.0 
338.0000042429968 40.0 22.0 400.0 0.49992310143090585 0.0 0.0 0.0 
340.0000042429968 40.0 22.0 400.0 0.49992310143090585 0.0 0.0 0.0 
342.0000042429968 40.0 22.0 400.0 0.49992310143090585 0.0 0.0 0.0 
344.0000042429968 41.0 22.0 400.0 0.49191762381951326 0.0 0.0 0.0 
346.0000042429968 42.0 23.0 400.0 0.5512054484766844 0.0 0.0 0.0 
348.0000042429968 40.0 22.0 400.0 0.49992310143090585 0.0 0.0 0.0 
350.0000042429968 40.0 22.0 400.0 0.49992310143090585 0.0 0.0 0.0 
352.0000042429968 40.0 22.0 400.0 0.49992310143090585 0.0 0.0 0.0 
354.0000042429968 40.0 22.0 400.0 0.5269501284579329 0.0 0.0 0.0 
356.0000042429968 39.0 22.0 400.0 0.5639288833540423 0.0 0.0 0.0 
358.0000042429968 38.0 21.0 400.0 0.49992277186560974 0.0 0.0 0.0 
360.0000042429968 40.0 22.0 400.0 0.49992310143090585 0.0 0.0 0.0 
362.0000042429968 40.0 22.0 400.0 0.49992310143090585 0.0 0.0 0.0 
364.0000042429968 40.0 22.0 400.0 0.49992310143090585 0.0 0.0 0.0 
366.0000042429968 42.0 23.0 400.0 0.49992339719463313 0.0 0.0 0.0 
368.0000042429968 43.0 24.0 400.0 0.4925974453595174 0.0 0.0 0.0 
370.0000042429968 44.0 24.0 400.0 0.5730943958106797 0.0 0.0 0.0 
372.0000042429968 42.0 23.0 400.0 0.49992339719463313 0.0 0.0 0.0 
374.0000042429968 42.0 23.0 400.0 0.49992339719463313 0.0 0.0 0.0 
376.0000042429968 42.0 23.0 400.0 0.5768464741177101 0.0 0.0 0.0 
378.0000042429968 40.0 22.0 400.0 0.49992310143090585 0.0 0.0 0.0 
380.0000042429968 40.0 22.0 400.0 0.49992310143090585 0.0 0.0 0.0 
382.0000042429968 40.0 22.0 400.0 0.49992310143090585 0.0 0.0 0.0 
384.0000042429968 40.0 22.0 400.0 0.49992310143090585 0.0 0.0 0.0 
386.0000042429968 41.0 23.0 400.0 0.4928249960273167 0.0 0.0 0.0 
388.0000042429968 42.0 23.0 400.0 0.5255644228356587 0.0 0.0 0.0 
390.0000042429968 43.0 23.0 400.0 0.5572496226111966 0.0 0.0 0.0 
392.0000042429968 42.0 23.0 400.0 0.49992339719463313 0.0 0.0 0.0 
394.0000042429968 42.0 23.0 400.0 0.49992339719463313 0.0 0.0 0.0 
396.0000042429968 42.0 23.0 400.0 0.49992339719463313 0.0 0.0 0.0 
398.0000042429968 42.0 23.0 400.0 0.49992339719463313 0.0 0.0 0.0 
400.0000042429968 42.0 23.0 400.0 0.6024874997587357 0.0 0.0 0.0 
402.0000042429968 40.0 22.0 400.0 0.49992310143090585 0.0 0.0 0.0 
404.0000042429968 40.0 22.0 400.0 0.49992310143090585 0.0 0.0 0.0 
406.0000042429968 40.0 22.0 400.0 0.5269501284579329 0.0 0.0 0.0 
408.0000042429968 39.0 21.0 400.0 0.5629711015791388 0.0 0.0 0.0 
410.0000042429968 38.0 21.0 400.0 0.49992277186560974 0.0 0.0 0.0 
412.0000042429968 38.0 21.0 400.0 0.49992277186560974 0.0 0.0 0.0 
414.0000042429968 38.0 21.0 400.0 0.49992277186560974 0.0 0.0 0.0 
416.0000042429968 38.0 21.0 400.0 0.49992277186560974 0.0 0.0 0.0 
418.0000042429968 38.0 21.0 400.0 0.49992277186560974 0.0 0.0 0.0 
420.0000042429968 38.0 21.0 400.0 0.49992277186560974 0.0 0.0 0.0 
422.0000042429968 38.0 21.0 400.0 0.49992277186560974 0.0 0.0 0.0 
424.0000042429968 39.0 22.0 400.0 0.4891748781956693 0.0 0.0 0.0 
426.0000042429968 40.0 22.0 400.0 0.49992310143090585 0.0 0.0 0.0 
428.0000042429968 42.0 23.0 400.0 0.49992339719463313 0.0 0.0 0.0 
430.0000042429968 42.0 23.0 400.0 0.49992339719463313 0.0 0.0 0.0 
432.0000042429968 42.0 23.0 400.0 0.49992339719463313 0.0 0.0 0.0 
434.0000042429968 42.0 23.0 400.0 0.5255644228356587 0.0 0.0 0.0 
436.0000042429968 41.0 22.0 400.0 0.5627372076537615 0.0 0.0 0.0 
438.0000042429968 41.0 23.0 400.0 0.540246173671284 0.0 0.0 0.0 
440.0000042429968 41.0 23.0 400.0 0.49510283930585264 0.0 0.0 0.0 
442.0000042429968 42.0 23.0 400.0 0.49992339719463313 0.0 0.0 0.0 
444.0000042429968 42.0 23.0 400.0 0.49992339719463313 0.0 0.0 0.0 
446.0000042429968 42.0 23.0 400.0 0.49992339719463313 0.0 0.0 0.0 
448.0000042429968 42.0 23.0 400.0 0.5255644228356587 0.0 0.0 0.0 
450.0000042429968 43.0 23.0 400.0 0.5866167595418148 0.0 0.0 0.0 
452.0000042429968 41.0 22.0 400.0 0.5573752460503107 0.0 0.0 0.0 
454.0000042429968 40.0 22.0 400.0 0.49992310143090585 0.0 0.0 0.0 
456.0000042429968 40.0 22.0 400.0 0.49992310143090585 0.0 0.0 0.0 
458.0000042429968 40.0 22.0 400.0 0.49992310143090585 0.0 0.0 0.0 
460.0000042429968 40.0 22.0 400.0 0.49992310143090585 0.0 0.0 0.0 
462.0000042429968 40.0 22.0 400.0 0.49992310143090585 0.0 0.0 0.0 
464.0000042429968 40.0 22.0 400.0 0.49992310143090585 0.0 0.0 0.0 
466.0000042429968 40.0 22.0 400.0 0.49992310143090585 0.0 0.0 0.0 
468.0000042429968 40.0 22.0 400.0 0.49992310143090585 0.0 0.0 0.0 
470.0000042429968 42.0 23.0 400.0 0.49992339719463313 0.0 0.0 0.0 
472.0000042429968 42.0 23.0 400.0 0.49992339719463313 0.0 0.0 0.0 
474.0000042429968 42.0 23.0 400.0 0.49992339719463313 0.0 0.0 0.0 
476.0000042429968 42.0 23.0 400.0 0.49992339719463313 0.0 0.0 0.0 
478.0000042429968 42.0 23.0 400.0 0.49992339719463313 0.0 0.0 0.0 
480.0000042429968 42.0 23.0 400.0 0.57684647411771 0.0 0.0 0.0 
482.0000042429968 40.0 22.0 400.0 0.49992310143090585 0.0 0.0 0.0 
484.0000042429968 42.0 23.0 400.0 0.49992339719463313 0.0 0.0 0.0 
486.0000042429968 42.0 23.0 400.0 0.49992339719463313 0.0 0.0 0.0 
488.0000042429968 42.0 23.0 400.0 0.49992339719463313 0.0 0.0 0.0 
490.0000042429968 42.0 23.0 400.0 0.49992339719463313 0.0 0.0 0.0 
492.0000042429968 46.0 25.0 400.0 0.49992390618337307 0.0 0.0 0.0 
494.0000042429968 46.0 25.0 400.0 0.49992390618337307 0.0 0.0 0.0 
496.0000042429968 46.0 25.0 400.0 0.49992390618337307 0.0 0.0 0.0 
498.0000042429968 46.0 25.0 400.0 0.49992390618337307 0.0 0.0 0.0 
500.0000042429968 46.0 25.0 400.0 0.49992390618337307 0.0 0.0 0.0 
502.0000042429968 52.0 28.0 400.0 0.6165826565968497 0.0 0.0 0.0 
504.0000042429968 48.0 26.0 400.0 0.566590793411827 0.0 0.0 0.0 
506.0000042429968 46.0 25.0 400.0 0.49992390618337307 0.0 0.0 0.0 
508.0000042429968 46.0 25.0 400.0 0.49992390618337307 0.0 0.0 0.0 
510.0000042429968 46.0 25.0 400.0 0.5929471619973266 0.0 0.0 0.0 
512.0000042429967 44.0 24.0 400.0 0.6706553714204357 0.0 0.0 0.0 
514.0000042429967 40.0 22.0 400.0 0.4999231014309581 0.0 0.0 0.0 
516.0000042429967 40.0 22.0 400.0 0.4999231014309581 0.0 0.0 0.0 
518.0000042429967 40.0 22.0 400.0 0.4999231014309581 0.0 0.0 0.0 
520.0000042429967 40.0 22.0 400.0 0.4999231014309581 0.0 0.0 0.0 
522.0000042429967 40.0 22.0 400.0 0.4999231014309581 0.0 0.0 0.0 
524.0000042429967 40.0 22.0 400.0 0.4999231014309581 0.0 0.0 0.0 
526.0000042429967 40.0 22.0 400.0 0.4999231014309581 0.0 0.0 0.0 
528.0000042429967 40.0 22.0 400.0 0.4999231014309581 0.0 0.0 0.0 
530.0000042429967 40.0 22.0 400.0 0.4999231014309581 0.0 0.0 0.0 
532.0000042429967 40.0 22.0 400.0 0.4999231014309581 0.0 0.0 0.0 
534.0000042429967 40.0 22.0 400.0 0.4999231014309581 0.0 0.0 0.0 
536.0000042429967 40.0 22.0 400.0 0.4999231014309581 0.0 0.0 0.0 
538.0000042429967 42.0 23.0 400.0 0.4999233971946856 0.0 0.0 0.0 
540.0000042429967 42.0 23.0 400.0 0.4999233971946856 0.0 0.0 0.0 
542.0000042429967 42.0 23.0 400.0 0.4999233971946856 0.0 0.0 0.0 
544.0000042429967 42.0 23.0 400.0 0.4999233971946856 0.0 0.0 0.0 
546.0000042429967 42.0 23.0 400.0 0.4999233971946856 0.0 0.0 0.0 
548.0000042429967 42.0 23.0 400.0 0.6024874997587881 0.0 0.0 0.0 
550.0000042429967 40.0 22.0 400.0 0.4999231014309581 0.0 0.0 0.0 
552.0000042429967 40.0 22.0 400.0 0.4999231014309581 0.0 0.0 0.0 
554.0000042429967 40.0 22.0 400.0 0.4999231014309581 0.0 0.0 0.0 
556.0000042429967 40.0 22.0 400.0 0.4999231014309581 0.0 0.0 0.0 
558.0000042429967 40.0 22.0 400.0 0.4999231014309581 0.0 0.0 0.0 
560.0000042429967 40.0 22.0 400.0 0.4999231014309581 0.0 0.0 0.0 
562.0000042429967 40.0 22.0 400.0 0.5269501284579851 0.0 0.0 0.0 
564.0000042429967 39.0 22.0 400.0 0.5598474629859488 0.0 0.0 0.0 
566.0000042429967 38.0 21.0 400.0 0.4999227718656617 0.0 0.0 0.0 
568.0000042429967 38.0 21.0 400.0 0.4999227718656617 0.0 0.0 0.0 
570.0000042429967 38.0 21.0 400.0 0.4999227718656617 0.0 0.0 0.0 
572.0000042429967 38.0 21.0 400.0 0.5570656290085189 0.0 0.0 0.0 
574.0000042429967 36.0 20.0 400.0 0.4999224023530566 0.0 0.0 0.0 
576.0000042429967 38.0 21.0 400.0 0.4999227718656617 0.0 0.0 0.0 
578.0000042429967 38.0 21.0 400.0 0.4999227718656617 0.0 0.0 0.0 
580.0000042429967 38.0 21.0 400.0 0.4999227718656617 0.0 0.0 0.0 
582.0000042429967 39.0 21.0 400.0 0.5023356528422513 0.0 0.0 0.0 
584.0000042429967 40.0 22.0 400.0 0.4999231014309581 0.0 0.0 0.0 
586.0000042429967 40.0 22.0 400.0 0.5539771554850121 0.0 0.0 0.0 
588.0000042429967 38.0 21.0 400.0 0.4999227718656617 0.0 0.0 0.0 
590.0000042429967 41.0 22.0 400.0 0.49976082677855066 0.0 0.0 0.0 
592.0000042429967 42.0 23.0 400.0 0.5255644228357113 0.0 0.0 0.0 
594.0000042429967 41.0 23.0 400.0 0.5502691053571012 0.0 0.0 0.0 
596.0000042429967 40.0 22.0 400.0 0.4999231014309581 0.0 0.0 0.0 
598.0000042429967 40.0 22.0 400.0 0.4999231014309581 0.0 0.0 0.0 
600.0000042429967 40.0 22.0 400.0 0.5269501284579851 0.0 0.0 0.0 
602.0000042429967 39.0 22.0 400.0 0.5556499468973881 0.0 0.0 0.0 
604.0000042429967 38.0 21.0 400.0 0.4999227718656617 0.0 0.0 0.0 
606.0000042429967 38.0 21.0 400.0 0.4999227718656617 0.0 0.0 0.0 
608.0000042429967 38.0 21.0 400.0 0.4999227718656617 0.0 0.0 0.0 
610.0000042429967 40.0 22.0 400.0 0.4999231014309581 0.0 0.0 0.0 
612.0000042429967 40.0 22.0 400.0 0.4999231014309581 0.0 0.0 0.0 
614.0000042429967 40.0 22.0 400.0 0.4999231014309581 0.0 0.0 0.0 
616.0000042429967 40.0 22.0 400.0 0.4999231014309581 0.0 0.0 0.0 
618.0000042429967 40.0 22.0 400.0 0.4999231014309581 0.0 0.0 0.0 
620.0000042429967 40.0 22.0 400.0 0.5810041825120391 0.0 0.0 0.0 
622.0000042429967 38.0 21.0 400.0 0.4999227718656617 0.0 0.0 0.0 
624.0000042429967 40.0 22.0 400.0 0.4999231014309581 0.0 0.0 0.0 
626.0000042429967 40.0 22.0 400.0 0.4999231014309581 0.0 0.0 0.0 
628.0000042429967 40.0 22.0 400.0 0.4999231014309581 0.0 0.0 0.0 
630.0000042429967 40.0 22.0 400.0 0.4999231014309581 0.0 0.0 0.0 
632.0000042429967 40.0 22.0 400.0 0.4999231014309581 0.0 0.0 0.0 
634.0000042429967 40.0 22.0 400.0 0.6080312095390662 0.0 0.0 0.0 
636.0000042429967 38.0 21.0 400.0 0.4999227718656617 0.0 0.0 0.0 
638.0000042429967 38.0 21.0 400.0 0.4999227718656617 0.0 0.0 0.0 
640.0000042429967 38.0 21.0 400.0 0.4999227718656617 0.0 0.0 0.0 
642.0000042429967 38.0 21.0 400.0 0.4999227718656617 0.0 0.0 0.0 
644.0000042429967 39.0 21.0 400.0 0.49149922650382094 0.0 0.0 0.0 
646.0000042429967 40.0 22.0 400.0 0.49992310143095803 0.0 0.0 0.0 
648.0000042429967 40.0 22.0 400.0 0.49992310143095803 0.0 0.0 0.0 
650.0000042429967 40.0 22.0 400.0 0.6080312095390662 0.0 0.0 0.0 
652.0000042429967 38.0 21.0 400.0 0.4999227718656617 0.0 0.0 0.0 
654.0000042429967 38.0 21.0 400.0 0.5284942004370903 0.0 0.0 0.0 
656.0000042429967 37.0 21.0 400.0 0.5676653493076107 0.0 0.0 0.0 
658.0000042429967 36.0 20.0 400.0 0.4999224023530566 0.0 0.0 0.0 
660.0000042429967 36.0 20.0 400.0 0.4999224023530566 0.0 0.0 0.0 
662.0000042429967 36.0 20.0 400.0 0.4999224023530566 0.0 0.0 0.0 
664.0000042429967 36.0 20.0 400.0 0.4999224023530566 0.0 0.0 0.0 
#####################################################################
# End of data export. Simulation finished at: 2019-03-11T16:22+0000 #
#####################################################################
