#####################################################################
# Alchemist log file - simulation started at: 2019-03-05T23:20+0000 #
#####################################################################
# seed = 8.0, bandwidth = 1333521.4321633242, accessPointCount = 72.92664737217109, baserange = 1000.0
#
# The columns have the following meaning: 
# time neighbor_count[Sum] <value>@neighbor_count[Sum] packet_size[Mean] mean_delay[Mean] crowd[Sum] overcrowded[Sum] risk[Sum] 
0.0 NaN NaN NaN NaN NaN NaN NaN 
2.000927030832833 6570.0 1227.0 4987.576800509879 0.4388629758461728 1497.0 0.0 1497.0 
4.0006800544519905 15970.0 1403.0 4989.282345442957 0.5227420472589316 1497.0 0.0 1497.0 
6.000198348008885 22941.0 1399.0 4990.521351179095 0.543028107016615 1497.0 0.0 1497.0 
8.00088963702151 29511.0 1410.0 4991.518164435946 0.5809137759913293 1497.0 0.0 1497.0 
10.000927030832834 34160.0 1404.0 4992.336520076482 0.6038159029260041 1497.0 0.0 1497.0 
12.000927030832834 34590.0 1358.0 4993.050350541746 0.5825120112534733 1496.0 1.0 1496.0 
14.000927030832834 32798.0 1293.0 4993.083492670491 0.5008877473659825 1494.0 3.0 1494.0 
16.000198348008887 32798.0 1293.0 4993.131931166348 0.500843037220749 1494.0 3.0 1494.0 
18.000927030832834 32798.0 1293.0 4992.9687699171445 0.5008479127364138 1494.0 3.0 1494.0 
20.000927030832834 32798.0 1293.0 4993.070745697897 0.5008234532400636 1494.0 3.0 1494.0 
22.000927030832834 32798.0 1293.0 4993.1931166347995 0.5010650475502385 1494.0 3.0 1494.0 
24.000927030832834 32796.0 1293.0 4993.052899936265 0.500898018456869 1494.0 3.0 1494.0 
26.000198348008887 32796.0 1293.0 4993.029955385596 0.5010347459638085 1494.0 3.0 1494.0 
28.000927030832834 32792.0 1293.0 4993.035054174634 0.5008809996127902 1494.0 3.0 1494.0 
30.000927030832834 32792.0 1293.0 4992.986615678777 0.5008499144663066 1494.0 3.0 1494.0 
32.000927030832834 32800.0 1293.0 4993.210962396431 0.5005307526113308 1494.0 3.0 1494.0 
34.000927030832834 32804.0 1294.0 4993.134480560867 0.5008858472026099 1494.0 3.0 1494.0 
36.00019834800889 32832.0 1295.0 4992.984066284257 0.5028320465641634 1494.0 3.0 1494.0 
38.000927030832834 32762.0 1294.0 4992.9126832377315 0.5006400073325412 1494.0 3.0 1494.0 
40.000927030832834 32762.0 1294.0 4993.088591459528 0.5006726726131541 1494.0 3.0 1494.0 
42.000927030832834 32761.0 1294.0 4993.1803696622055 0.5008887358313371 1494.0 3.0 1494.0 
44.000927030832834 32762.0 1294.0 4993.162523900573 0.5006710352738808 1494.0 3.0 1494.0 
46.00019834800889 32764.0 1294.0 4993.139579349904 0.500690495202571 1494.0 3.0 1494.0 
48.000927030832834 32921.0 1297.0 4992.945825366475 0.501062772212393 1494.0 3.0 1494.0 
50.000927030832834 32977.0 1296.0 4992.9815168897385 0.5013957531190927 1494.0 3.0 1494.0 
52.000927030832834 33013.0 1296.0 4993.177820267686 0.5008629155664948 1494.0 3.0 1494.0 
54.000927030832834 33123.0 1298.0 4993.009560229446 0.5053797924086059 1494.0 3.0 1494.0 
56.00019834800889 32930.0 1297.0 4993.052899936265 0.5023914929537404 1493.0 4.0 1493.0 
58.000927030832834 32920.0 1296.0 4993.037603569152 0.502407771517758 1490.0 7.0 1490.0 
60.000927030832834 32936.0 1296.0 4993.073295092416 0.5029908532448075 1490.0 7.0 1490.0 
62.00033564804412 32999.0 1296.0 1418.4856596558307 0.49651333045386975 667.0 8.0 339.0 
64.00033564804411 32840.0 1295.0 1421.4506054811984 0.4989228544493478 534.0 16.0 332.0 
66.0001983480089 32921.0 1296.0 1415.4212874442328 0.5010644852088716 503.0 13.0 333.0 
68.00033564804411 32934.0 1296.0 1415.5717017208412 0.5003419020309967 474.0 14.0 332.0 
70.00033564804411 32920.0 1295.0 1418.4270235819 0.4995697087814582 472.0 9.0 338.0 
72.00033564804411 32917.0 1295.0 1412.4996813256837 0.49860432834658747 465.0 12.0 333.0 
74.00033564804411 32920.0 1295.0 1412.474187380496 0.4986246687000166 462.0 12.0 333.0 
76.0001983480089 33082.0 1296.0 1418.261312938176 0.5002778876582729 462.0 12.0 335.0 
78.00033564804411 33006.0 1295.0 1418.3887826641185 0.49920071081016437 459.0 13.0 334.0 
80.00033564804411 33077.0 1297.0 1418.3097514340352 0.5033843631701099 452.0 13.0 334.0 
82.00033564804411 32968.0 1296.0 1421.3409815168902 0.5008434226130598 454.0 10.0 338.0 
84.00033564804411 32934.0 1295.0 1424.0917782026766 0.4985912584869343 457.0 7.0 342.0 
86.0001983480089 32936.0 1295.0 1424.226896112173 0.49857606715843594 451.0 10.0 339.0 
88.00033564804411 32936.0 1295.0 1424.0994263862328 0.5011744162729566 455.0 7.0 342.0 
90.00033564804411 32878.0 1295.0 1424.2217973231363 0.5014545905131034 450.0 12.0 337.0 
92.00033564804411 32837.0 1294.0 1424.1147227533454 0.4984284091559214 449.0 13.0 336.0 
94.00033564804411 32834.0 1294.0 1424.1835564053551 0.4984957813279318 451.0 10.0 339.0 
96.0001983480089 32831.0 1294.0 1427.112810707456 0.49850144430608145 452.0 10.0 340.0 
98.00033564804411 32890.0 1295.0 1427.1714467813906 0.5000015334195795 451.0 13.0 337.0 
100.00033564804411 32857.0 1294.0 1427.0567240280413 0.49894958409116397 453.0 10.0 340.0 
102.00033564804411 32917.0 1294.0 1427.1663479923536 0.49844780397999716 453.0 11.0 339.0 
104.00033564804411 32962.0 1295.0 1427.1816443594662 0.4986084484179734 452.0 11.0 339.0 
106.0001983480089 33050.0 1296.0 1427.1051625238997 0.5004883248371423 455.0 9.0 341.0 
108.00033564804411 32891.0 1295.0 1427.0975143403437 0.49868614248598775 447.0 17.0 333.0 
110.00033564804411 32889.0 1295.0 1427.1408540471657 0.49857164603198906 445.0 18.0 332.0 
112.00033564804411 32988.0 1296.0 1427.1586998087937 0.5012694617783697 449.0 15.0 335.0 
114.00033564804411 32980.0 1296.0 1427.1485022307218 0.5000100297892159 449.0 14.0 336.0 
116.0001983480089 32911.0 1295.0 1424.2141491395803 0.4990913571035834 451.0 13.0 336.0 
118.00033564804411 32895.0 1295.0 1430.0930528999372 0.4988110980723114 446.0 19.0 332.0 
120.00033564804411 32901.0 1295.0 1432.984066284257 0.4991723355019525 450.0 16.0 336.0 
122.00033564804411 33057.0 1297.0 1435.8852772466546 0.5011796202264892 453.0 14.0 339.0 
124.00033564804411 33059.0 1297.0 1432.9713193116643 0.5020281142084569 452.0 15.0 337.0 
126.0001983480089 32896.0 1295.0 1433.0478011472264 0.4986405331774885 447.0 17.0 335.0 
128.0003356480441 32933.0 1296.0 1435.9923518164437 0.5002263876853582 450.0 15.0 338.0 
130.00033564804414 33026.0 1296.0 1432.994263862333 0.5015800553935423 449.0 16.0 336.0 
132.00033564804414 32919.0 1295.0 1432.996813256852 0.4985383322652056 445.0 17.0 335.0 
134.00033564804414 33009.0 1296.0 1430.057361376672 0.4994713662767667 444.0 17.0 334.0 
136.0001983480089 32875.0 1295.0 1424.1912045889112 0.4989375334584697 445.0 15.0 334.0 
138.00033564804414 32851.0 1295.0 1427.217335882728 0.49869352024676733 436.0 19.0 331.0 
140.00033564804414 32888.0 1296.0 1430.1108986615673 0.5002442101117779 446.0 12.0 339.0 
142.00033564804414 32858.0 1295.0 1424.2166985340978 0.4985177566176438 444.0 15.0 334.0 
144.00033564804414 32858.0 1295.0 1427.2122370936906 0.4985313071353956 446.0 13.0 337.0 
146.0001983480089 32983.0 1298.0 1427.1485022307218 0.5040051956567302 442.0 16.0 334.0 
148.00033564804414 32722.0 1295.0 1432.9254302103266 0.49921990011565975 446.0 13.0 339.0 
150.00033564804414 32733.0 1295.0 1432.9305289993615 0.4983910412125172 447.0 13.0 339.0 
152.00033564804414 32777.0 1296.0 1427.0031867431478 0.5007961084517814 446.0 13.0 337.0 
154.00033564804414 32656.0 1295.0 1424.1147227533456 0.4981608525445827 446.0 13.0 336.0 
156.0001983480089 32656.0 1295.0 1427.0235818992992 0.4984015466907897 446.0 13.0 337.0 
158.00033564804414 32645.0 1296.0 1427.0898661567874 0.49848858589351785 446.0 14.0 336.0 
160.00033564804414 32647.0 1296.0 1426.9267049075836 0.49830680607225375 447.0 15.0 335.0 
162.00033564804414 32672.0 1297.0 1426.9572976418087 0.5005097488007708 446.0 14.0 336.0 
164.00033564804414 32555.0 1296.0 1429.8992989165065 0.4983844297728112 444.0 16.0 335.0 
166.0001983480089 32554.0 1296.0 1429.9885277246658 0.49849398704729986 445.0 15.0 336.0 
168.00033564804414 32636.0 1297.0 1429.9553855959196 0.4984922572865652 446.0 14.0 337.0 
170.00033564804414 32632.0 1297.0 1429.9808795411097 0.49839433107955206 448.0 13.0 338.0 
172.00033564804414 32636.0 1297.0 1429.8865519439132 0.4982253628138396 450.0 13.0 338.0 
174.00033564804414 32646.0 1298.0 1435.8011472275325 0.4983810575730934 452.0 13.0 340.0 
176.0001983480089 32640.0 1298.0 1429.8967495219895 0.49839501161866895 453.0 12.0 339.0 
178.00033564804414 32648.0 1298.0 1429.957934990441 0.4982123599270492 450.0 15.0 336.0 
180.00033564804414 32647.0 1298.0 1429.9502868068844 0.49829447931904575 451.0 12.0 339.0 
182.00033564804414 32642.0 1298.0 1424.1172721478647 0.49820146645963054 454.0 8.0 341.0 
184.00033564804414 32642.0 1298.0 1424.0280433397056 0.5010512998374436 453.0 8.0 341.0 
186.0001983480089 32634.0 1297.0 1424.1019757807526 0.4985280113002176 454.0 8.0 341.0 
188.00033564804414 32617.0 1297.0 1426.9929891650743 0.4982442378089215 454.0 8.0 342.0 
190.00033564804414 32616.0 1297.0 1421.1268323773097 0.4981842284036166 452.0 8.0 340.0 
192.00033564804414 32717.0 1298.0 1421.1191841937537 0.49987551130229646 452.0 8.0 340.0 
194.00033564804414 32706.0 1297.0 1424.0917782026766 0.4982695378633999 452.0 9.0 340.0 
196.0001983480089 32706.0 1297.0 1424.1223709369017 0.49822991505816056 454.0 7.0 342.0 
198.00033564804414 32804.0 1298.0 1424.063734862971 0.5004042608668485 454.0 8.0 341.0 
200.00033564804414 32783.0 1298.0 1430.0216698534105 0.5000361421343685 456.0 7.0 344.0 
202.00033564804414 32684.0 1297.0 1429.9273422562158 0.49860546726559485 455.0 10.0 341.0 
204.00033564804414 32684.0 1297.0 1429.8508604206515 0.4993691938116936 458.0 7.0 344.0 
206.0001983480089 32670.0 1297.0 1429.8559592096885 0.49836251880927374 456.0 9.0 342.0 
208.00033564804414 32683.0 1297.0 1424.0280433397056 0.4988677028521533 455.0 8.0 341.0 
210.00033564804414 32802.0 1299.0 1421.1548757170153 0.5032192919755847 450.0 10.0 338.0 
212.00033564804414 32624.0 1297.0 1418.189929891649 0.498560285196579 451.0 8.0 339.0 
214.00033564804414 32624.0 1297.0 1421.159974506056 0.500466096052699 448.0 10.0 338.0 
216.0001983480089 32606.0 1296.0 1424.132568514977 0.49875192699667714 452.0 7.0 342.0 
218.00033564804414 32606.0 1296.0 1421.0758444869357 0.49865306188756037 448.0 10.0 338.0 
220.00033564804414 32608.0 1296.0 1421.0885914595292 0.4986748958194631 449.0 8.0 340.0 
222.00033564804414 32608.0 1296.0 1418.205226258763 0.4985687795208913 448.0 9.0 338.0 
224.00033564804414 32632.0 1297.0 1415.25302740599 0.4986051836899493 449.0 8.0 338.0 
226.0001983480089 32632.0 1297.0 1418.1414913957922 0.4985066757792218 447.0 10.0 337.0 
228.00033564804414 32630.0 1297.0 1421.1370299553876 0.4986235600039836 445.0 10.0 338.0 
230.00033564804414 32630.0 1297.0 1421.1013384321213 0.49845396505499684 445.0 9.0 339.0 
232.00033564804414 32630.0 1297.0 1423.9923518164437 0.49860916656992316 446.0 9.0 340.0 
234.00033564804414 32632.0 1297.0 1423.9872530274072 0.49877078580758394 444.0 10.0 339.0 
236.0001983480089 32648.0 1298.0 1424.0305927342247 0.5004129305578716 445.0 10.0 339.0 
238.00033564804414 32618.0 1297.0 1426.9623964308496 0.4985828571861815 445.0 9.0 341.0 
240.00033564804414 32616.0 1297.0 1421.1293817718301 0.5007103864906788 446.0 9.0 339.0 
242.00033564804414 32618.0 1297.0 1421.1191841937537 0.5011378204626813 445.0 10.0 338.0 
244.00033564804414 32516.0 1296.0 1415.189292543023 0.4982822229028579 447.0 9.0 337.0 
246.0001983480089 32516.0 1296.0 1415.1943913320595 0.4983928410247065 446.0 9.0 337.0 
248.00033564804414 32622.0 1297.0 1418.123645634163 0.5007094539934837 448.0 8.0 339.0 
250.00033564804414 32477.0 1296.0 1415.2351816443604 0.4983191972259262 445.0 10.0 336.0 
252.00033564804414 32473.0 1296.0 1415.2632249840651 0.4982660326790663 444.0 11.0 335.0 
254.00033564804414 32567.0 1297.0 1415.1969407265792 0.49952553600195876 444.0 9.0 337.0 
256.0001983480089 32454.0 1296.0 1415.2071383046518 0.4988341043302931 447.0 8.0 338.0 
258.00033564804414 32478.0 1297.0 1415.1994901210953 0.5001280884722248 447.0 9.0 337.0 
260.00033564804414 32545.0 1298.0 1412.2217973231368 0.5001885872378126 445.0 11.0 334.0 
262.00033564804414 32418.0 1299.0 1409.2721478648798 0.5037965922366837 446.0 9.0 335.0 
264.00033564804414 32305.0 1299.0 1409.4480560866791 0.5011151430562071 447.0 8.0 336.0 
266.0001983480089 32232.0 1299.0 1409.3970681963056 0.5005305483226029 443.0 11.0 333.0 
268.00033564804414 32143.0 1298.0 1412.288081580623 0.4985562108635142 447.0 9.0 336.0 
270.00033564804414 32177.0 1299.0 1421.0758444869361 0.50238461721688 444.0 11.0 337.0 
272.00033564804414 32109.0 1299.0 1418.1007010834942 0.5032994583201102 447.0 9.0 338.0 
274.00033564804414 31991.0 1299.0 1420.9330783938829 0.5010233137356576 444.0 13.0 335.0 
276.0001983480089 32121.0 1300.0 1421.06819630338 0.5010187339678251 444.0 15.0 333.0 
278.00033564804414 31896.0 1301.0 1415.1739961759104 0.5008990140395811 444.0 14.0 332.0 
280.00033564804414 31872.0 1302.0 1418.1134480560868 0.5021704355402901 447.0 12.0 335.0 
282.00033564804414 31749.0 1302.0 1418.0471637985959 0.49924620937052344 445.0 13.0 334.0 
284.00033564804414 31832.0 1303.0 1418.0905035054184 0.5030956074452192 453.0 8.0 339.0 
286.0001983480089 31702.0 1301.0 1418.1312938177193 0.49909504840243696 451.0 8.0 339.0 
288.00033564804414 31644.0 1301.0 1418.146590184833 0.5022699135431211 452.0 7.0 340.0 
290.00033564804414 31610.0 1299.0 1420.9840662842566 0.4985448389480733 445.0 12.0 336.0 
292.00033564804414 31655.0 1300.0 1421.009560229445 0.5019194151805862 445.0 11.0 337.0 
294.00033564804414 31638.0 1301.0 1421.0783938814513 0.5044733474762997 446.0 10.0 338.0 
296.0001983480089 31444.0 1300.0 1424.0178457616323 0.4991833773552386 449.0 8.0 341.0 
298.00033564804414 31528.0 1300.0 1423.987253027407 0.5023056759201548 445.0 10.0 339.0 
300.00033564804414 31390.0 1298.0 1426.936902485661 0.49899422800592136 450.0 6.0 344.0 
302.00033564804414 31368.0 1298.0 1426.8986615678784 0.4983247357480956 447.0 8.0 342.0 
304.00033564804414 31367.0 1298.0 1418.1032504780103 0.49802581231297666 449.0 7.0 340.0 
306.0001983480089 31367.0 1298.0 1426.9343530911399 0.4983964395092632 444.0 10.0 340.0 
308.00033564804414 31369.0 1298.0 1424.0484384958584 0.49828029418117664 445.0 8.0 341.0 
310.00033564804414 31370.0 1298.0 1418.0446144040804 0.49829911457066656 443.0 8.0 339.0 
312.00033564804414 31420.0 1301.0 1418.1567877629043 0.501966441505297 444.0 8.0 339.0 
314.00033564804414 31294.0 1299.0 1418.1720841300207 0.5014462297153686 442.0 8.0 339.0 
316.0001983480089 31249.0 1299.0 1415.2198852772478 0.49868872592862373 445.0 6.0 340.0 
318.00033564804414 31309.0 1299.0 1418.0905035054182 0.5013472630898012 445.0 6.0 341.0 
320.00033564804414 31186.0 1299.0 1415.2300828553207 0.4996074535084194 442.0 8.0 338.0 
322.00033564804414 31149.0 1298.0 1415.1612492033132 0.49836819758471373 439.0 10.0 336.0 
324.00033564804414 31153.0 1299.0 1418.1720841300207 0.4990182652114187 442.0 8.0 339.0 
326.0001983480089 31152.0 1298.0 1418.1975780752064 0.4982774145361521 443.0 7.0 340.0 
328.00033564804414 31153.0 1298.0 1421.134480560866 0.5010650895962034 443.0 8.0 340.0 
330.00033564804414 31077.0 1297.0 1424.0560866794149 0.5016712867565372 443.0 8.0 341.0 
332.00033564804414 31062.0 1297.0 1418.0828553218619 0.49818375178999874 444.0 6.0 341.0 
334.00033564804414 31063.0 1297.0 1418.133843212236 0.49872982898779983 444.0 6.0 341.0 
336.0001983480089 31069.0 1297.0 1415.329509241556 0.4986371136627406 444.0 8.0 338.0 
338.00033564804414 31179.0 1298.0 1412.203951561505 0.5000724684631408 441.0 10.0 335.0 
340.00033564804414 31088.0 1298.0 1412.265137029954 0.5005616107627113 444.0 8.0 337.0 
342.00033564804414 30981.0 1297.0 1421.0503505417475 0.4986353199734083 444.0 7.0 341.0 
344.00033564804414 30977.0 1297.0 1421.009560229445 0.49848573113450834 446.0 8.0 340.0 
346.0001983480089 31010.0 1298.0 1420.996813256852 0.5008604323640545 448.0 8.0 340.0 
348.00033564804414 30916.0 1297.0 1418.2460165710636 0.4987066550195991 450.0 7.0 340.0 
350.00033564804414 30949.0 1298.0 1415.1867431485032 0.5011216620980552 450.0 6.0 340.0 
352.00033564804414 30882.0 1298.0 1415.151051625238 0.5009708776324434 450.0 8.0 338.0 
354.00033564804414 30791.0 1297.0 1412.2753346080317 0.49997845008694847 447.0 10.0 335.0 
356.0001983480089 30901.0 1297.0 1412.2727852135106 0.5048746358318997 449.0 9.0 336.0 
358.00033564804414 30856.0 1295.0 1412.2243467176543 0.4991752758890546 449.0 7.0 338.0 
360.00033564804414 30878.0 1296.0 1412.239643084767 0.5015088295537481 450.0 7.0 338.0 
362.00033564804414 30842.0 1296.0 1412.2676864244756 0.5017401343440369 450.0 8.0 337.0 
364.00033564804414 30834.0 1296.0 1409.2772466539209 0.5017882626335298 453.0 7.0 337.0 
366.0001983480089 30742.0 1295.0 1406.3938814531537 0.4986008053977745 454.0 6.0 337.0 
368.00033564804414 30756.0 1296.0 1394.6513702995544 0.5021513709758277 452.0 8.0 331.0 
370.00033564804414 30706.0 1295.0 1388.6806883365196 0.5009175226420635 449.0 10.0 327.0 
372.00033564804414 30684.0 1294.0 1391.676226896112 0.4987271366593354 451.0 9.0 329.0 
374.00033564804414 30760.0 1296.0 1394.5774378585083 0.5014429128254153 453.0 7.0 332.0 
376.0001983480089 30645.0 1295.0 1403.4518801784575 0.5010743642987512 454.0 7.0 335.0 
378.00033564804414 30666.0 1295.0 1400.5404716379865 0.5003925151030978 456.0 8.0 333.0 
380.00033564804414 30567.0 1295.0 1400.5506692160614 0.500000189874749 458.0 7.0 334.0 
382.00033564804414 30547.0 1294.0 1397.5729764181 0.5003994564579957 459.0 6.0 334.0 
384.00033564804414 30587.0 1297.0 1400.5200764818362 0.5048362686937237 459.0 7.0 334.0 
386.0001983480089 30539.0 1294.0 1400.4410452517527 0.4983208145622387 458.0 8.0 333.0 
388.00033564804414 30627.0 1295.0 1394.610579987252 0.5010225271629891 455.0 10.0 329.0 
390.00033564804414 30597.0 1296.0 1394.6054811982144 0.5046679413233534 457.0 8.0 331.0 
392.00033564804414 30459.0 1294.0 1394.646271510517 0.5014783118487214 455.0 10.0 329.0 
394.00033564804414 30402.0 1293.0 1397.5602294455066 0.5014083614830919 456.0 9.0 331.0 
396.0001983480089 30423.0 1293.0 1397.6112173358815 0.5008233811601467 457.0 9.0 331.0 
398.00033564804414 30378.0 1293.0 1394.6513702995544 0.500742240356197 458.0 9.0 330.0 
400.00033564804414 30383.0 1293.0 1394.574888463989 0.501034762623228 458.0 9.0 330.0 
402.00033564804414 30270.0 1292.0 1394.6131293817707 0.49899806733013247 457.0 8.0 331.0 
404.00033564804414 30317.0 1294.0 1400.499681325684 0.5027151468841444 460.0 7.0 334.0 
406.0001983480089 30303.0 1291.0 1403.4620777565326 0.49888789049241383 460.0 7.0 335.0 
408.00033564804414 30347.0 1292.0 1406.409177820266 0.4999764295162524 462.0 6.0 337.0 
410.00033564804414 30444.0 1292.0 1409.346080305927 0.5005004971792619 460.0 7.0 337.0 
412.00033564804414 30390.0 1293.0 1406.3250478011475 0.501219420271511 461.0 8.0 335.0 
414.00033564804414 30459.0 1295.0 1409.2364563416184 0.5022646331472339 460.0 8.0 336.0 
416.0001983480089 30270.0 1293.0 1406.289356277885 0.49822814237035823 462.0 7.0 336.0 
418.00033564804414 30278.0 1294.0 1409.2492033142123 0.5006309052287661 462.0 8.0 336.0 
420.00033564804414 30257.0 1293.0 1397.5525812619503 0.498254491622973 466.0 6.0 334.0 
422.00033564804414 30337.0 1294.0 1394.5825366475453 0.5011872877769664 465.0 5.0 334.0 
424.00033564804414 30301.0 1293.0 1391.643084767368 0.49890931601864646 462.0 6.0 332.0 
426.0001983480089 30280.0 1293.0 1391.688973868706 0.5020747174614858 462.0 6.0 332.0 
428.00033564804414 30233.0 1292.0 1391.6915232632248 0.49873165816985376 461.0 5.0 333.0 
430.00033564804414 30384.0 1295.0 1385.7361376673025 0.5019823289450839 460.0 6.0 330.0 
432.00033564804414 30253.0 1294.0 1397.5092415551292 0.5021308083449186 458.0 8.0 332.0 
434.00033564804414 30172.0 1294.0 1400.4869343530927 0.5013141227328588 457.0 9.0 332.0 
436.0001983480089 30165.0 1293.0 1400.2957297641792 0.5001346263104582 459.0 9.0 332.0 
438.00033564804414 30191.0 1294.0 1397.4862970044603 0.5081146885856327 460.0 8.0 332.0 
440.00033564804414 30073.0 1292.0 1397.4659018483105 0.49942963005739277 452.0 11.0 329.0 
442.00033564804414 30063.0 1292.0 1406.2128744423196 0.5008068189583205 452.0 11.0 332.0 
444.00033564804414 30094.0 1292.0 1403.2989165073302 0.5026691929913215 456.0 9.0 333.0 
446.0001983480089 29952.0 1290.0 1406.2995538559574 0.497883976955771 453.0 11.0 332.0 
448.00033564804414 29970.0 1291.0 1403.3575525812612 0.4999380810711382 456.0 10.0 332.0 
450.00033564804414 29997.0 1291.0 1409.1676226896125 0.5004587089682667 456.0 11.0 333.0 
452.00033564804414 29961.0 1290.0 1409.2721478648803 0.5014272647343514 458.0 8.0 336.0 
454.00033564804414 29929.0 1290.0 1415.0108349267039 0.5003633233097996 457.0 9.0 337.0 
456.0001983480089 29928.0 1290.0 1415.0898661567871 0.49876700381357086 460.0 7.0 339.0 
458.00033564804414 30030.0 1291.0 1412.1606118546829 0.5001889334042039 457.0 8.0 337.0 
460.00033564804414 29921.0 1290.0 1412.181007010836 0.5019060866849712 458.0 6.0 339.0 
462.00033564804414 29931.0 1291.0 1406.266411727213 0.5018868198762286 458.0 8.0 335.0 
464.00033564804414 29904.0 1290.0 1406.2766093052887 0.5013866967744339 459.0 6.0 337.0 
466.0001983480089 29826.0 1289.0 1403.2938177182903 0.49916571443582025 455.0 8.0 334.0 
468.00033564804414 29940.0 1291.0 1403.3193116634804 0.5024955925647224 457.0 6.0 336.0 
470.00033564804414 29836.0 1289.0 1397.4633524537915 0.5017785410899706 453.0 8.0 332.0 
472.00033564804414 29815.0 1289.0 1394.546845124284 0.5013850546771992 455.0 6.0 333.0 
474.00033564804414 29815.0 1288.0 1391.630337794772 0.49894735345370383 451.0 8.0 330.0 
476.0000356903604 29839.0 1288.0 1388.744423199491 0.49957573702815283 453.0 6.0 331.0 
478.0000356903604 29794.0 1290.0 1391.5869980879559 0.5023575188707312 446.0 12.0 326.0 
480.0000356903604 29653.0 1288.0 1394.6207775653268 0.5025228563941693 443.0 13.0 326.0 
482.0000356903604 29667.0 1288.0 1385.782026768642 0.5001812672124953 441.0 14.0 322.0 
484.0000356903604 29661.0 1287.0 1385.7896749521985 0.4995517622428359 444.0 12.0 324.0 
486.0000356903604 29756.0 1288.0 1379.877629063098 0.4999080518964475 446.0 8.0 326.0 
488.0000356903604 29820.0 1289.0 1377.0503505417475 0.500252692334943 445.0 7.0 326.0 
490.0000356903604 29748.0 1289.0 1376.981516889739 0.5005945681229738 445.0 7.0 326.0 
492.0000356903604 29734.0 1288.0 1371.140854047166 0.4985530036800695 445.0 6.0 325.0 
494.0000356903604 29743.0 1288.0 1365.30019120459 0.499553457275524 443.0 8.0 321.0 
496.0000356903604 29702.0 1289.0 1362.3836838750788 0.5005812296336455 438.0 10.0 318.0 
498.0000356903604 29654.0 1288.0 1365.2441045251744 0.49856806450122354 434.0 12.0 317.0 
500.0000356903604 29652.0 1288.0 1365.205863607394 0.49865765964532827 440.0 8.0 321.0 
502.0000356903604 29648.0 1288.0 1371.0796685787127 0.502169721643097 447.0 6.0 325.0 
504.0000356903604 29576.0 1287.0 1368.2243467176545 0.5019980354339775 446.0 7.0 323.0 
506.0000356903604 29580.0 1287.0 1368.1784576163145 0.5005541508473986 446.0 6.0 324.0 
508.0000356903604 29483.0 1286.0 1365.3103887826642 0.4987343958749166 446.0 6.0 323.0 
510.0000356903604 29493.0 1287.0 1365.241555130657 0.5013585888152325 446.0 6.0 323.0 
512.0000356903604 29465.0 1286.0 1362.3913320586355 0.49964867472027574 443.0 9.0 319.0 
514.0000356903605 29503.0 1286.0 1359.3652007648172 0.5004516814795726 443.0 9.0 318.0 
516.0000356903605 29493.0 1285.0 1359.4442319949012 0.49989299334642434 441.0 9.0 318.0 
518.0000356903605 29496.0 1285.0 1353.5449330783936 0.5028843366526565 441.0 7.0 318.0 
520.0000356903605 29523.0 1285.0 1350.579987253028 0.4986780682043537 443.0 6.0 318.0 
522.0000356903605 29521.0 1285.0 1341.802421924792 0.4988056229251897 441.0 6.0 315.0 
524.0000356903605 29520.0 1285.0 1336.0 0.4993510225921568 432.0 9.0 310.0 
526.0000356903605 29510.0 1285.0 1335.877629063097 0.4989186629302851 422.0 15.0 304.0 
528.0000356903605 29514.0 1286.0 1335.9311663479941 0.4989637076033884 426.0 10.0 309.0 
530.0000356903605 29512.0 1286.0 1341.8508604206497 0.5014530217437382 424.0 9.0 312.0 
532.0000356903605 29478.0 1285.0 1333.0936902485678 0.5000101155950438 428.0 9.0 309.0 
534.0000356903605 29514.0 1285.0 1336.0178457616298 0.5031135844963578 427.0 9.0 310.0 
536.0000356903605 29519.0 1286.0 1336.0280433397074 0.4985968174037218 432.0 7.0 312.0 
538.0000356903605 29528.0 1287.0 1336.0025493945175 0.5012041896005577 432.0 8.0 311.0 
540.0000356903605 29485.0 1286.0 1335.9974506054825 0.49900637611941606 431.0 8.0 311.0 
542.0000356903605 29478.0 1286.0 1333.042702358192 0.49833075300941737 435.0 7.0 311.0 
544.0000356903605 29507.0 1287.0 1333.042702358192 0.4985651980576422 435.0 8.0 310.0 
546.0000356903605 29510.0 1288.0 1333.068196303378 0.4993230364622815 431.0 11.0 307.0 
548.0000356903605 29587.0 1288.0 1336.0076481835563 0.5022221375742558 434.0 9.0 310.0 
550.0000356903605 29571.0 1289.0 1333.0554493307823 0.5049591535126047 431.0 9.0 309.0 
552.0000356903605 29434.0 1287.0 1335.9770554493316 0.49931078232077536 437.0 7.0 312.0 
554.0000356903605 29426.0 1286.0 1335.987253027405 0.5011394966322338 436.0 7.0 312.0 
556.0000356903605 29408.0 1286.0 1333.0248565965574 0.4983913851929915 436.0 8.0 310.0 
558.0000356903605 29477.0 1286.0 1330.136392606755 0.5017995702253479 434.0 9.0 308.0 
560.0000356903605 29444.0 1286.0 1327.2224346717653 0.5003986044151248 433.0 7.0 309.0 
562.0000356903605 29394.0 1285.0 1327.2045889101341 0.4987204686996885 427.0 10.0 306.0 
564.0000356903605 29393.0 1285.0 1330.2077756532829 0.5004017539996125 429.0 10.0 307.0 
566.0000356903605 29409.0 1285.0 1330.131293817718 0.4985767674712241 429.0 8.0 309.0 
568.0000356903605 29444.0 1286.0 1327.1918419375374 0.5022889326432004 432.0 6.0 310.0 
570.0000356903605 29430.0 1285.0 1327.1485022307222 0.5068634823607926 430.0 10.0 306.0 
572.0000356903605 29382.0 1283.0 1327.2632249840647 0.49970478968845045 430.0 10.0 306.0 
574.0000356903605 29452.0 1284.0 1330.1312938177175 0.5015826931816444 429.0 9.0 308.0 
576.0000356903605 29374.0 1283.0 1330.082855321862 0.49915684559834156 431.0 7.0 310.0 
578.0000356903605 29421.0 1284.0 1330.2026768642443 0.5025002283742391 432.0 7.0 310.0 
580.0000356903605 29438.0 1283.0 1330.0956022944563 0.5030408494075052 432.0 6.0 311.0 
582.0000356903605 29325.0 1282.0 1330.1695347355017 0.5044052241907551 431.0 7.0 310.0 
584.0000356903605 29295.0 1282.0 1335.956660293181 0.5009917542383427 430.0 7.0 312.0 
586.0000356903605 29336.0 1283.0 1332.9891650732945 0.5052643426490303 436.0 5.0 313.0 
588.0000356903605 29194.0 1280.0 1330.0369662205248 0.4990561693249238 435.0 6.0 311.0 
590.0000356903605 29250.0 1281.0 1333.0146590184838 0.5006432045450863 434.0 6.0 312.0 
592.0003356480441 29207.0 1280.0 1332.961121733586 0.4987578306690532 432.0 7.0 311.0 
594.0003356480441 29340.0 1281.0 1332.9458253664739 0.5004599186243258 431.0 8.0 310.0 
596.0001983480089 29344.0 1281.0 1332.9483747609959 0.500611827814816 430.0 6.0 312.0 
598.0003356480441 29264.0 1280.0 1335.9311663479943 0.5004027120451264 432.0 4.0 315.0 
600.0003356480441 29270.0 1281.0 1335.9337157425107 0.49838188116994825 433.0 5.0 314.0 
602.0003356480441 29278.0 1281.0 1335.877629063097 0.4986096005955652 432.0 6.0 313.0 
604.0003356480441 29447.0 1283.0 1335.8189929891635 0.5019648187697782 435.0 6.0 313.0 
606.0001983480089 29306.0 1281.0 1335.8954748247297 0.5012569839139602 436.0 6.0 313.0 
608.0003356480441 29228.0 1281.0 1333.0121096239632 0.502760357168256 436.0 6.0 312.0 
610.0003356480441 29321.0 1282.0 1335.9005736137656 0.49988945547226976 434.0 6.0 313.0 
612.0003356480441 29294.0 1281.0 1335.8623326959844 0.504992250280838 431.0 6.0 313.0 
614.0003356480441 29209.0 1279.0 1344.6857871255581 0.49877335160477504 433.0 6.0 316.0 
616.0001983480089 29204.0 1279.0 1341.733588272786 0.5012372302313064 431.0 6.0 315.0 
618.0003356480441 29182.0 1278.0 1341.741236456342 0.4985345792435039 430.0 6.0 315.0 
620.0003356480441 29190.0 1278.0 1338.8298279158691 0.4984615964458931 429.0 6.0 314.0 
622.0003356480441 29190.0 1278.0 1341.741236456342 0.4986871441743723 428.0 6.0 315.0 
624.0003356480441 29300.0 1280.0 1344.6679413639258 0.500296156088551 426.0 6.0 316.0 
626.0001983480089 29212.0 1279.0 1341.6545570427022 0.4987421360729251 425.0 6.0 315.0 
628.0003356480441 29221.0 1279.0 1341.7463352453804 0.498861828109777 426.0 6.0 315.0 
630.0003356480441 29222.0 1279.0 1347.5971956660285 0.49857888645769716 429.0 6.0 317.0 
632.0003356480441 29303.0 1280.0 1353.5194391332072 0.49950440041570154 429.0 6.0 319.0 
634.0003356480441 29357.0 1285.0 1356.4512428298274 0.5059922618396689 429.0 6.0 320.0 
636.0001983480089 29179.0 1281.0 1359.4187380497106 0.5005728539555339 434.0 6.0 321.0 
638.0003356480441 29150.0 1281.0 1359.3932441045267 0.49875876718365086 434.0 6.0 321.0 
640.0003356480441 29162.0 1281.0 1356.4563416188655 0.49884157106086463 434.0 6.0 320.0 
642.0003356480441 29174.0 1282.0 1356.4257488846404 0.5000170952393643 433.0 6.0 320.0 
644.0002033448444 29193.0 1283.0 1356.46653919694 0.5042290669520725 431.0 6.0 320.0 
646.0001983480089 29140.0 1280.0 1359.3473550031863 0.5011888060070773 431.0 6.0 321.0 
648.0003356480441 29142.0 1280.0 1359.4365838113451 0.4987333699857791 429.0 6.0 321.0 
650.0003356480441 29140.0 1280.0 1359.4340344168259 0.49855591821664386 429.0 6.0 321.0 
652.0003356480441 29177.0 1281.0 1362.388782664119 0.499400229886395 429.0 6.0 322.0 
654.0003356480441 29195.0 1281.0 1362.3199490121103 0.49977682820463415 428.0 6.0 322.0 
656.0001983480089 29177.0 1280.0 1362.3224984066283 0.4992151115735525 428.0 6.0 322.0 
658.0003356480441 29236.0 1281.0 1362.228170809432 0.5000549436439524 427.0 6.0 322.0 
660.0003356480441 29223.0 1280.0 1362.2536647546196 0.50067259411731 428.0 6.0 322.0 
662.0003356480441 29213.0 1279.0 1362.2383683875073 0.49946305035340255 428.0 6.0 322.0 
664.0003356480441 29215.0 1279.0 1368.1580624601675 0.5003553924092927 427.0 6.0 324.0 
#####################################################################
# End of data export. Simulation finished at: 2019-03-05T23:29+0000 #
#####################################################################
