#####################################################################
# Alchemist log file - simulation started at: 2019-03-04T14:01+0000 #
#####################################################################
# seed = 6.0, bandwidth = 1000.0, accessPointCount = 1031.338537721246, baserange = 56.234132519034915
#
# The columns have the following meaning: 
# time neighbor_count[Sum] <value>@neighbor_count[Sum] packet_size[Mean] mean_delay[Mean] crowd[Sum] overcrowded[Sum] risk[Sum] 
0.0 NaN NaN NaN NaN NaN NaN NaN 
2.0013042135964882 NaN NaN 4978.212025316456 NaN 1497.0 0.0 1497.0 
4.001304213596488 NaN NaN 4978.212025316456 NaN 1497.0 0.0 1497.0 
6.001304213596488 129.0 92.0 4978.389240506329 0.32888903349914117 1497.0 0.0 1497.0 
8.001304213596487 232.0 171.0 4980.949367088608 2.0293446715717445 1497.0 0.0 1497.0 
10.001304213596487 232.0 171.0 4980.56170886076 4.007353482144432 1497.0 0.0 1497.0 
12.001304213596487 420.0 261.0 4981.337025316456 1.0571457665903257 1497.0 0.0 1497.0 
14.001304213596487 420.0 261.0 4979.977848101265 3.0571457665903257 1497.0 0.0 1497.0 
16.001304213596487 455.0 274.0 4980.1281645569625 3.110980955066186 1497.0 0.0 1497.0 
18.001304213596487 486.0 285.0 4981.795886075949 3.43653636334022 1497.0 0.0 1497.0 
20.001304213596487 486.0 285.0 4981.368670886076 5.43653636334022 1497.0 0.0 1497.0 
22.001304213596487 618.0 317.0 4981.7531645569625 3.097393517673893 1497.0 0.0 1497.0 
24.001304213596487 618.0 317.0 4980.060126582279 3.7451553042743893 1497.0 0.0 1497.0 
26.001304213596487 670.0 326.0 4980.050632911392 4.512317671252399 1497.0 0.0 1497.0 
28.001304213596487 710.0 337.0 4980.870253164557 4.878846068734665 1497.0 0.0 1497.0 
30.001304213596487 710.0 337.0 4981.449367088608 5.983239511357616 1497.0 0.0 1497.0 
32.001304213596484 818.0 355.0 4981.7072784810125 3.4934988628831753 1497.0 0.0 1497.0 
34.001304213596484 818.0 355.0 4981.21835443038 3.8261925565768693 1497.0 0.0 1497.0 
36.001304213596484 867.0 359.0 4980.473101265823 5.1618171574917096 1497.0 0.0 1497.0 
38.001304213596484 906.0 369.0 4980.745253164557 5.719560511838367 1497.0 0.0 1497.0 
40.000955337593325 906.0 369.0 4981.164556962025 6.735038772707932 1497.0 0.0 1497.0 
42.001304213596484 955.0 377.0 4981.645569620253 5.239953212836939 1497.0 0.0 1497.0 
44.001304213596484 955.0 377.0 4981.460443037975 5.1825544921546385 1497.0 0.0 1497.0 
46.001304213596484 986.0 385.0 4980.588607594937 5.3826416727525395 1497.0 0.0 1497.0 
48.001304213596484 1014.0 388.0 4980.5031645569625 6.151806629093423 1497.0 0.0 1497.0 
50.001304213596484 1014.0 388.0 4981.026898734177 6.921285315326826 1497.0 0.0 1497.0 
52.001304213596484 1020.0 388.0 4981.5031645569625 5.8840696196853015 1497.0 0.0 1497.0 
54.001304213596484 1020.0 388.0 4981.397151898735 6.3780933295876725 1497.0 0.0 1497.0 
56.001304213596484 1073.0 394.0 4981.303797468355 6.450372899195493 1497.0 0.0 1497.0 
58.001304213596484 1109.0 398.0 4980.727848101265 7.373517015049672 1497.0 0.0 1497.0 
60.001304213596484 1108.0 398.0 4980.783227848102 8.448595034646473 1497.0 0.0 1497.0 
62.000711085740605 1069.0 393.0 571.0806962025324 5.586077867606971 241.0 0.0 94.0 
64.0007110857406 1068.0 393.0 571.025316455699 4.78656013048869 220.0 0.0 94.0 
66.00071108574062 1038.0 392.0 571.0585443038001 4.489862747529104 190.0 0.0 94.0 
68.00071108574062 1016.0 383.0 572.8053797468377 4.085256185525993 170.0 0.0 95.0 
70.00071108574062 1021.0 384.0 572.7579113924077 4.517189528182584 157.0 0.0 95.0 
72.00071108574062 1065.0 391.0 572.9066455696184 3.7610008915020936 147.0 0.0 95.0 
74.00071108574062 1065.0 391.0 572.7689873417697 3.6812672472757573 140.0 0.0 95.0 
76.00071108574062 1136.0 393.0 592.8702531645592 3.319624159675356 151.0 0.0 106.0 
78.00071108574062 1194.0 398.0 601.8370253164527 2.723088292957813 146.0 0.0 111.0 
80.00071108574062 1194.0 398.0 601.7768987341728 3.0116655740558467 143.0 0.0 111.0 
82.00071108574062 1277.0 411.0 603.8481012658272 2.911523568915385 142.0 0.0 112.0 
84.00071108574062 1279.0 411.0 603.7341772151875 3.069452399921822 141.0 0.0 112.0 
86.00071108574062 1229.0 405.0 603.7848101265806 3.2639665195504897 142.0 0.0 112.0 
88.00071108574062 1199.0 403.0 605.52373417722 3.1883020024378017 141.0 0.0 113.0 
90.00071108574062 1199.0 403.0 605.5047468354408 3.572122410601068 141.0 0.0 113.0 
92.00071108574062 1201.0 403.0 605.5411392405105 3.312480250398851 141.0 0.0 113.0 
94.00071108574062 1201.0 403.0 605.5158227848126 3.575189429881962 140.0 0.0 113.0 
96.00071108574062 1186.0 401.0 605.528481012661 3.8089774008473536 140.0 0.0 113.0 
98.00071108574062 1174.0 400.0 605.5047468354408 3.7411543559378515 139.0 0.0 113.0 
100.00071108574062 1174.0 400.0 605.4794303797428 4.11349395061548 139.0 0.0 113.0 
102.00071108574062 1117.0 391.0 603.7420886075922 3.4872662245053645 138.0 0.0 112.0 
104.00071108574062 1126.0 393.0 603.6455696202572 3.1803013189772105 138.0 0.0 112.0 
106.00071108574062 1086.0 386.0 605.4620253164525 3.2755297959902556 140.0 0.0 113.0 
108.00071108574062 1019.0 385.0 605.4541139240471 3.115617598410859 140.0 0.0 113.0 
110.00071108574062 1021.0 385.0 609.0838607594893 3.3032678870314665 140.0 0.0 115.0 
112.00071108574062 1074.0 388.0 609.305379746838 2.3202280311898376 141.0 0.0 115.0 
114.00071108574062 1072.0 388.0 609.0363924050594 2.696942949012788 141.0 0.0 115.0 
116.00071108574062 1086.0 393.0 609.058544303801 3.0142586627011645 140.0 0.0 115.0 
118.00071108574062 1110.0 394.0 614.5490506329083 3.1205999994523235 144.0 0.0 118.0 
120.00071108574062 1112.0 395.0 612.7151898734195 3.4470956991270802 143.0 0.0 117.0 
122.00071108574062 1130.0 398.0 612.8148734177202 3.070999969360378 145.0 0.0 117.0 
124.00071108574062 1153.0 402.0 612.7674050632901 2.7099207376852625 145.0 0.0 117.0 
126.00071108574062 1154.0 402.0 612.7610759493715 3.056164171684024 145.0 0.0 117.0 
128.00071108574062 1156.0 403.0 612.7547468354406 3.303926016123921 145.0 0.0 117.0 
130.00071108574062 1160.0 404.0 610.9398734177202 3.4512811397878727 145.0 0.0 116.0 
132.00071108574062 1139.0 400.0 609.156645569617 3.8171134618063456 144.0 0.0 115.0 
134.00071108574062 1133.0 399.0 607.2927215189895 3.9114842358498496 144.0 0.0 114.0 
136.00071108574062 1123.0 397.0 607.3291139240471 3.9932428517863205 144.0 0.0 114.0 
138.00071108574062 1109.0 391.0 607.3085443038015 4.094430154943254 143.0 0.0 114.0 
140.00071108574062 1083.0 387.0 607.2816455696171 4.050230719803837 142.0 0.0 114.0 
142.00071108574062 1102.0 388.0 609.3069620253124 3.2779118905111817 141.0 0.0 115.0 
144.00071108574062 1123.0 392.0 609.1914556961984 3.267928098766651 140.0 0.0 115.0 
146.00071108574062 1108.0 386.0 609.1946202531619 3.1464259852480447 141.0 0.0 115.0 
148.00071108574062 1101.0 387.0 609.1772151898707 2.9774341542487415 141.0 0.0 115.0 
150.00071108574062 1108.0 389.0 609.0775316455699 3.0528432560061387 141.0 0.0 115.0 
152.00071108574062 1148.0 392.0 609.2753164556992 2.5146589352560658 140.0 0.0 115.0 
154.00071108574062 1140.0 391.0 609.125 2.3460452759100154 139.0 0.0 115.0 
156.00071108574062 1143.0 392.0 610.9351265822798 2.458757676434583 139.0 0.0 116.0 
158.00071108574062 1165.0 397.0 610.928797468349 2.624712307635892 139.0 0.0 116.0 
160.00071108574062 1179.0 399.0 610.9430379746874 2.8982777823574697 139.0 0.0 116.0 
162.00071108574062 1223.0 408.0 609.1898734177202 3.013898794047121 139.0 0.0 115.0 
164.00071108574062 1224.0 408.0 609.1740506329083 3.2429082571743417 139.0 0.0 115.0 
166.00071108574062 1281.0 419.0 607.3765822784771 3.2981636584306386 138.0 0.0 114.0 
168.00071108574062 1312.0 420.0 605.6075949367099 3.6860207123144053 139.0 0.0 113.0 
170.00071108574062 1320.0 421.0 605.5775316455699 4.0586537929503725 140.0 0.0 113.0 
172.00071108574062 1179.0 406.0 605.625 3.9527372753350756 140.0 0.0 113.0 
174.00071108574062 1168.0 404.0 607.3655063291174 4.018166216922045 139.0 1.0 113.0 
176.00071108574062 1177.0 405.0 610.9968354430363 3.9206409584618904 140.0 1.0 115.0 
178.00071108574062 1163.0 408.0 609.1424050632901 3.621613876141828 140.0 0.0 115.0 
180.00071108574062 1159.0 406.0 607.3022151898707 3.7844826190153844 140.0 0.0 114.0 
182.00071108574062 1068.0 393.0 607.3829113924078 3.111754092667087 140.0 0.0 114.0 
184.00071108574062 1057.0 391.0 607.2658227848132 2.913287707894612 139.0 0.0 114.0 
186.00071108574062 1082.0 397.0 603.6265822784769 2.971034523685984 138.0 0.0 112.0 
188.00071108574062 1077.0 392.0 605.4920886075922 3.137088333870721 139.0 0.0 113.0 
190.00071108574062 1070.0 391.0 607.2800632911399 3.0192716692884227 139.0 0.0 114.0 
192.00071108574062 1097.0 395.0 607.4129746835475 2.9941614354572805 138.0 0.0 114.0 
194.00071108574062 1124.0 400.0 607.3085443038015 3.3243929569768533 137.0 0.0 114.0 
196.00071108574062 1080.0 392.0 607.3655063291176 3.187765339746642 137.0 0.0 114.0 
198.00071108574062 1052.0 392.0 607.2689873417684 3.0693943662221614 137.0 0.0 114.0 
200.00071108574062 1056.0 392.0 607.2594936708824 3.3037517090909416 137.0 0.0 114.0 
202.00071108574062 1095.0 399.0 607.3370253164525 3.1483553654658647 137.0 0.0 114.0 
204.00071108574062 1079.0 396.0 607.295886075953 3.2154336045036285 137.0 0.0 114.0 
206.00071108574062 1057.0 393.0 607.3101265822798 2.737894689049634 137.0 0.0 114.0 
208.00071108574062 1065.0 391.0 603.6566455696169 2.880678677885051 137.0 0.0 112.0 
210.00071108574062 1065.0 391.0 603.6629746835474 3.083317118928802 135.0 0.0 112.0 
212.00071108574062 1136.0 398.0 603.7072784810105 3.3073939964648407 136.0 0.0 112.0 
214.00071108574062 1228.0 409.0 605.6218354430364 3.567698814414905 136.0 0.0 113.0 
216.00071108574062 1208.0 401.0 605.618670886081 3.387929698358091 136.0 0.0 113.0 
218.00071108574062 1225.0 404.0 605.5727848101293 3.55216694588445 136.0 0.0 113.0 
220.00071108574062 1227.0 405.0 605.5648734177202 3.8171865631776405 136.0 0.0 113.0 
222.00071108574062 1281.0 411.0 605.7547468354406 3.4789369680005096 137.0 0.0 113.0 
224.00071108574062 1252.0 407.0 605.618670886081 3.536481889937513 137.0 0.0 113.0 
226.00071108574062 1270.0 409.0 605.5727848101293 3.5623530540321657 136.0 0.0 113.0 
228.00071108574062 1294.0 414.0 605.6012658227795 3.533913891031283 136.0 0.0 113.0 
230.00071108574062 1291.0 413.0 605.5981012658274 3.714560265868462 136.0 0.0 113.0 
232.00071108574062 1249.0 404.0 605.6060126582315 3.412660091269018 136.0 0.0 113.0 
234.00071108574062 1268.0 405.0 607.4382911392431 3.6846175665348806 137.0 0.0 114.0 
236.00071108574062 1286.0 410.0 607.4272151898708 3.6785851935781197 136.0 0.0 114.0 
238.00071108574062 1276.0 409.0 607.4414556961984 3.9023903899909906 136.0 0.0 114.0 
240.00071108574062 1274.0 408.0 607.3623417721502 4.159429836840446 136.0 0.0 114.0 
242.00071108574062 1242.0 409.0 607.4430379746873 3.905999236733566 137.0 0.0 114.0 
244.00071108574062 1160.0 401.0 607.3607594936735 3.758575139345958 137.0 0.0 114.0 
246.00071108574062 1179.0 404.0 607.3496835443009 3.6255523177357714 136.0 0.0 114.0 
248.00071108574062 1160.0 407.0 607.329113924047 3.3118601283972597 136.0 0.0 114.0 
250.00071108574062 1157.0 407.0 607.2911392405111 3.4627095922950333 136.0 0.0 114.0 
252.00071108574062 1043.0 393.0 607.3481012658273 2.755780173038249 136.0 0.0 114.0 
254.00071108574062 1045.0 394.0 607.2056962025337 3.0699195908322703 136.0 0.0 114.0 
256.0007110857406 1022.0 392.0 607.2484177215229 3.0529478675838115 134.0 0.0 114.0 
258.0007110857406 1002.0 388.0 609.0 2.9382884891082575 135.0 0.0 115.0 
260.0007110857406 1001.0 389.0 608.9857594936736 3.2899236665792473 135.0 0.0 115.0 
262.0007110857406 1084.0 401.0 609.1155063291174 3.2009617946358344 136.0 0.0 115.0 
264.0007110857406 1063.0 400.0 609.0680379746873 3.359631269901479 136.0 0.0 115.0 
266.0007110857406 1040.0 396.0 609.045886075953 2.9324928667857475 137.0 0.0 115.0 
268.0007110857406 1041.0 398.0 610.8354430379777 3.0546703551762677 138.0 0.0 116.0 
270.0007110857406 1041.0 399.0 610.8433544303829 3.3006908080132815 138.0 0.0 116.0 
272.0007110857406 1005.0 392.0 612.6756329113939 3.121282493152168 138.0 0.0 117.0 
274.0007110857406 998.0 391.0 612.6487341772206 3.2013957175037424 138.0 0.0 117.0 
276.0007110857406 1051.0 404.0 612.7009493670919 3.0945805620228577 138.0 0.0 117.0 
278.0007110857406 1086.0 404.0 612.6835443038017 3.1513175095915815 140.0 0.0 117.0 
280.0007110857406 1086.0 403.0 614.5 3.2853948470231207 140.0 0.0 118.0 
282.0007110857406 1163.0 416.0 612.8227848101292 3.0945076154777675 141.0 0.0 117.0 
284.0007110857406 1269.0 426.0 612.829113924047 3.099561412612438 141.0 0.0 117.0 
286.0007110857406 1279.0 425.0 612.8386075949412 3.2172554610028303 141.0 0.0 117.0 
288.0007110857406 1315.0 427.0 612.8275316455699 3.445909249499252 142.0 0.0 117.0 
290.0007110857406 1329.0 430.0 618.2753164556992 3.713375034470407 145.0 0.0 120.0 
292.0007110857406 1249.0 418.0 618.3686708860812 3.2769647936855337 145.0 0.0 120.0 
294.0007110857406 1254.0 419.0 618.2167721518963 3.6342108013929786 146.0 0.0 120.0 
296.0007110857406 1306.0 428.0 623.7136075949413 3.95693735755394 146.0 0.0 123.0 
298.0007110857406 1345.0 432.0 625.6028481012681 4.144552659855246 148.0 0.0 124.0 
300.0007110857406 1346.0 432.0 625.574367088606 4.59393727426542 148.0 0.0 124.0 
302.0007110857406 1341.0 429.0 631.0506329113941 4.5421646422047335 148.0 0.0 127.0 
304.0007110857406 1339.0 429.0 629.226265822779 4.60945016495343 148.0 0.0 126.0 
306.0007110857406 1290.0 418.0 627.4572784810105 4.0670389161926925 147.0 0.0 125.0 
308.0007110857406 1266.0 419.0 627.3560126582319 4.017850993136856 147.0 0.0 125.0 
310.0007110857406 1264.0 418.0 627.3275316455699 4.263665351002114 147.0 0.0 125.0 
312.0007110857406 1185.0 406.0 627.3623417721502 3.9046756257471955 145.0 0.0 125.0 
314.0007110857406 1078.0 397.0 625.4778481012681 3.8024109171229767 143.0 0.0 124.0 
316.0007110857406 1072.0 395.0 623.6471518987319 3.7513837080356067 142.0 1.0 122.0 
318.0007110857406 1048.0 397.0 623.7136075949414 3.472266998137069 143.0 0.0 123.0 
320.0007110857406 1043.0 395.0 621.7515822784767 3.8127277221004703 142.0 0.0 122.0 
322.0007110857406 1077.0 400.0 621.824367088606 3.606653897626835 143.0 0.0 122.0 
324.0007110857406 1072.0 400.0 618.1645569620222 3.8243899276922786 143.0 0.0 120.0 
326.0007110857406 1037.0 394.0 614.574367088606 3.798444352751852 142.0 0.0 118.0 
328.0007110857406 989.0 387.0 612.6962025316514 3.302018781601335 141.0 0.0 117.0 
330.0007110857406 991.0 387.0 612.6329113924079 3.2181540174939984 141.0 0.0 117.0 
332.0007110857406 1142.0 407.0 614.6962025316512 3.2167962030361275 142.0 0.0 118.0 
334.0007110857406 1150.0 408.0 614.5696202531619 3.2401774190919244 143.0 0.0 118.0 
336.0007110857406 1127.0 404.0 614.5727848101293 3.1136852127977366 143.0 0.0 118.0 
338.0007110857406 1130.0 404.0 614.5569620253125 3.2527534647020144 143.0 0.0 118.0 
340.0007110857406 1139.0 406.0 614.5537974683488 3.5958503112192455 143.0 0.0 118.0 
342.0007110857406 1131.0 402.0 614.5601265822798 3.5508510912934406 143.0 0.0 118.0 
344.0007110857406 1128.0 402.0 614.5569620253125 3.7223957372571954 143.0 0.0 118.0 
346.0007110857406 1119.0 401.0 612.75 3.803119458604089 141.0 0.0 117.0 
348.0007110857406 1122.0 401.0 614.5617088607567 3.7816116706569862 142.0 0.0 118.0 
350.0007110857406 1124.0 401.0 614.5395569620222 3.8759993932296384 141.0 0.0 118.0 
352.0007110857406 1118.0 399.0 614.625 3.4822467897959846 141.0 0.0 118.0 
354.0007110857406 1158.0 401.0 614.5838607594886 3.5741087757654735 141.0 0.0 118.0 
356.0007110857406 1233.0 409.0 614.5996835443008 3.8010225576723156 141.0 0.0 118.0 
358.0007110857406 1251.0 411.0 614.5965189873382 3.9738229109077103 141.0 0.0 118.0 
360.0007110857406 1277.0 413.0 614.5901898734194 4.298087756471676 142.0 0.0 118.0 
362.0007110857406 1158.0 399.0 616.5933544303832 3.1531409454933788 143.0 0.0 119.0 
364.0007110857406 1150.0 398.0 614.5379746835474 3.129341948032891 142.0 0.0 118.0 
366.0007110857406 1185.0 406.0 614.5474683544301 3.0497232417700744 140.0 0.0 118.0 
368.0007110857406 1231.0 411.0 616.4208860759533 3.1025827490352773 141.0 0.0 119.0 
370.0007110857406 1243.0 413.0 618.2136075949412 3.2964818722854545 142.0 0.0 120.0 
372.0007110857406 1240.0 411.0 616.4082278481037 3.3542941542813898 141.0 0.0 119.0 
374.0007110857406 1237.0 411.0 616.3955696202573 3.7230221241981885 141.0 0.0 119.0 
376.0007110857406 1226.0 408.0 616.4098101265806 3.6616068136688913 140.0 0.0 119.0 
378.0007110857406 1226.0 407.0 616.397151898732 3.8299178400319547 140.0 0.0 119.0 
380.0007110857406 1230.0 407.0 616.3844936708826 4.203866776883881 141.0 0.0 119.0 
382.0007110857406 1193.0 402.0 616.4208860759531 4.229799544869072 141.0 0.0 119.0 
384.0007110857406 1149.0 401.0 616.3924050632901 4.304217613611092 140.0 0.0 119.0 
386.0007110857406 1139.0 404.0 614.618670886081 4.1443512649314185 139.0 1.0 117.0 
388.0007110857406 1159.0 405.0 614.6598101265807 4.223049938819808 140.0 1.0 117.0 
390.0007110857406 1138.0 404.0 614.583860759489 4.063589118877714 141.0 0.0 118.0 
392.0007110857406 1085.0 395.0 612.7468354430362 3.644097424722193 140.0 0.0 117.0 
394.0007110857406 1082.0 394.0 610.8686708860811 3.574203035861391 139.0 0.0 116.0 
396.0007110857406 1043.0 387.0 610.9082278481037 3.6434710503332166 139.0 0.0 116.0 
398.0007110857406 1004.0 382.0 610.8512658227794 3.239633854414714 140.0 0.0 116.0 
400.0007110857406 1004.0 382.0 610.8227848101292 3.111587358175537 140.0 0.0 116.0 
402.0007110857406 1108.0 396.0 610.9651898734193 2.964890081651883 139.0 0.0 116.0 
404.0007110857406 1106.0 395.0 610.9113924050589 3.153597571188708 138.0 0.0 116.0 
406.0007110857406 1125.0 398.0 612.7405063291174 3.2587129651130247 140.0 0.0 117.0 
408.0007110857406 1110.0 394.0 616.3607594936733 3.335314543290336 140.0 0.0 119.0 
410.0007110857406 1107.0 394.0 616.352848101268 3.49912429594971 140.0 0.0 119.0 
412.0007110857406 1104.0 393.0 616.3512658227797 3.515515337510679 140.0 0.0 119.0 
414.0007110857406 1125.0 399.0 614.5348101265807 3.5996246368473748 140.0 0.0 118.0 
416.0007110857406 1056.0 389.0 614.6170886075922 3.4946532203665472 139.0 0.0 118.0 
418.0007110857406 1010.0 384.0 614.4762658227801 3.340075575198935 138.0 0.0 118.0 
420.0007110857406 1003.0 382.0 610.8101265822798 3.576125270936574 138.0 0.0 116.0 
422.0007110857406 1036.0 387.0 610.8829113924078 3.438064618380777 137.0 0.0 116.0 
424.0007110857406 1057.0 389.0 610.9208860759521 3.408774232126254 139.0 0.0 116.0 
426.0007110857406 1152.0 398.0 607.305379746838 3.411390730822205 136.0 0.0 114.0 
428.0007110857406 1160.0 401.0 610.9208860759521 3.5429074969453564 138.0 0.0 116.0 
430.0007110857406 1201.0 405.0 610.9287974683499 3.53473881715971 138.0 0.0 116.0 
432.0007110857406 1089.0 386.0 609.1851265822798 2.736429495762584 136.0 0.0 115.0 
434.0007110857406 1085.0 385.0 607.2246835443009 2.805653759941387 135.0 0.0 114.0 
436.0007110857406 1120.0 393.0 603.6044303797429 2.6689909342258304 134.0 0.0 112.0 
438.0007110857406 1147.0 396.0 603.6313291139192 2.8281580211814603 133.0 0.0 112.0 
440.0007110857406 1143.0 395.0 603.6123417721502 3.0724269171019727 133.0 0.0 112.0 
442.0007110857406 1273.0 415.0 601.9731012658272 3.2220150624482655 135.0 0.0 111.0 
444.0007110857406 1272.0 416.0 600.0727848101293 3.4224462404104803 135.0 0.0 110.0 
446.0007110857406 1280.0 418.0 600.0759493670912 3.6640652544015095 137.0 0.0 110.0 
448.0007110857406 1278.0 418.0 600.0680379746873 3.898429275029008 138.0 0.0 110.0 
450.0007110857406 1279.0 418.0 601.8876582278498 3.9972913162226487 140.0 0.0 111.0 
452.0007110857406 1245.0 411.0 601.9129746835474 3.7943722809190317 140.0 0.0 111.0 
454.0007110857406 1231.0 411.0 600.0601265822798 3.6517249489555983 140.0 0.0 110.0 
456.0007110857406 1153.0 402.0 601.9034810126615 3.6431380390006685 140.0 1.0 110.0 
458.0007110857406 1148.0 404.0 601.9177215189894 3.843362860536602 139.0 1.0 110.0 
460.0007110857406 1107.0 398.0 600.1123417721502 3.423735087343767 139.0 0.0 110.0 
462.0007110857406 1120.0 402.0 599.9952531645594 3.590238640343507 139.0 0.0 110.0 
464.0007110857406 1112.0 401.0 599.9984177215229 3.7472980719821893 141.0 0.0 110.0 
466.0007110857406 1077.0 394.0 601.8702531645594 3.7276579194534323 141.0 0.0 111.0 
468.0007110857406 1047.0 391.0 601.7895569620224 3.529536024606941 141.0 0.0 111.0 
470.0007110857406 1046.0 390.0 601.765822784813 3.678237156403076 141.0 0.0 111.0 
472.0007110857406 992.0 384.0 603.7420886075923 2.5667179024312254 140.0 0.0 112.0 
474.0007110857406 994.0 385.0 601.7373417721502 2.761988733232832 140.0 0.0 111.0 
476.0007110857406 996.0 385.0 601.7373417721502 2.8964643408758253 139.0 0.0 111.0 
478.0007110857406 1005.0 387.0 601.7310126582315 3.00823868538899 139.0 0.0 111.0 
480.0007110857406 1009.0 389.0 599.916139240511 3.4115235873992615 139.0 0.0 110.0 
482.0007110857406 1048.0 395.0 601.8243670886062 3.4381364305409177 140.0 0.0 111.0 
484.0007110857406 1043.0 395.0 599.9556962025335 3.3153259664978605 141.0 0.0 110.0 
486.0007110857406 1028.0 393.0 599.968354430383 3.0013713327986298 141.0 0.0 110.0 
488.0007110857406 1019.0 388.0 599.9477848101293 3.1553007238932773 142.0 0.0 110.0 
490.0007110857406 1041.0 390.0 600.0348101265806 3.164840449263475 142.0 0.0 110.0 
492.0007110857406 1128.0 397.0 600.0490506329085 3.023307231456472 142.0 0.0 110.0 
494.0007110857406 1127.0 397.0 600.0110759493714 3.240090084990053 141.0 0.0 110.0 
496.0007110857406 1221.0 409.0 598.213607594941 3.079375079941267 140.0 0.0 109.0 
498.0007110857406 1261.0 413.0 598.2658227848129 3.479509526846114 140.0 0.0 109.0 
500.0007110857406 1265.0 415.0 598.2468354430363 3.809383461996406 140.0 0.0 109.0 
502.0007110857406 1196.0 403.0 598.313291139243 3.398269557890067 140.0 0.0 109.0 
504.0007110857406 1189.0 401.0 600.031645569617 3.5548847384937106 140.0 0.0 110.0 
506.0007110857406 1234.0 410.0 600.0395569620223 3.774907237839696 140.0 0.0 110.0 
508.0007110857406 1274.0 417.0 600.0791139240471 4.074728336947249 140.0 0.0 110.0 
510.0007110857406 1274.0 416.0 600.0664556961984 4.182964796470888 139.0 0.0 110.0 
512.0007110857406 1231.0 408.0 598.291139240511 3.822193762785313 138.0 0.0 109.0 
514.0007110857406 1236.0 410.0 598.2231012658272 3.769568837370528 138.0 0.0 109.0 
516.0007110857406 1228.0 408.0 598.2056962025337 3.8507138141655304 138.0 0.0 109.0 
518.0007110857406 1237.0 410.0 598.224683544301 4.044099042439331 139.0 0.0 109.0 
520.0007110857406 1214.0 410.0 598.25 4.3058125241420315 139.0 0.0 109.0 
522.0007110857406 1163.0 407.0 598.3433544303829 3.949201604840429 139.0 0.0 109.0 
524.0007110857406 1159.0 406.0 600.0965189873384 4.1231574708386 139.0 0.0 110.0 
526.0007110857406 1059.0 392.0 600.1772151898709 3.465827493274512 139.0 0.0 110.0 
528.0007110857406 1024.0 389.0 601.7642405063265 3.3573998064509154 137.0 0.0 111.0 
530.0007110857406 1020.0 388.0 601.7515822784771 3.458892764035827 137.0 0.0 111.0 
532.0007110857406 1015.0 388.0 601.7357594936735 3.4528652593942657 135.0 0.0 111.0 
534.0007110857406 1012.0 388.0 601.7325949367099 3.688025143218061 135.0 0.0 111.0 
536.0007110857406 988.0 382.0 601.7800632911399 3.41246133144223 135.0 0.0 111.0 
538.0007110857406 955.0 378.0 607.25 2.757034292180145 138.0 0.0 114.0 
540.0007110857406 969.0 380.0 607.1867088607569 2.9884154696379452 138.0 0.0 114.0 
542.0007110857406 1029.0 389.0 607.2832278481037 3.10230424429719 138.0 0.0 114.0 
544.0007110857406 1053.0 393.0 609.0759493670919 2.9458641051538934 139.0 0.0 115.0 
546.0007110857406 1057.0 393.0 609.0443037974662 3.085520057898882 140.0 0.0 115.0 
548.0007110857406 1084.0 400.0 610.8670886075922 3.375965902136293 140.0 0.0 116.0 
550.0007110857406 1085.0 399.0 610.8639240506284 3.4261256848531154 140.0 0.0 116.0 
552.0007110857406 1131.0 402.0 609.170886075953 3.125452525123825 140.0 0.0 115.0 
554.0007110857406 1131.0 400.0 609.0965189873383 3.0258102799775464 139.0 0.0 115.0 
556.0007110857406 1157.0 402.0 609.123417721523 3.184370215332491 139.0 0.0 115.0 
558.0007110857406 1240.0 410.0 609.1518987341727 3.300275568547978 140.0 0.0 115.0 
560.0007110857406 1239.0 411.0 609.125 3.7398338371118514 141.0 0.0 115.0 
562.0007110857406 1296.0 420.0 607.3829113924078 3.7702196068713407 142.0 0.0 114.0 
564.0007110857406 1292.0 418.0 607.3512658227795 4.010550047192539 142.0 0.0 114.0 
566.0007110857406 1274.0 417.0 607.368670886081 4.121709218509216 142.0 0.0 114.0 
568.0007110857406 1265.0 413.0 607.3401898734194 4.418225093644597 142.0 0.0 114.0 
570.0007110857406 1251.0 412.0 607.3401898734194 4.556911331110559 142.0 0.0 114.0 
572.0007110857406 1187.0 402.0 607.3702531645592 4.083762032490025 140.0 0.0 114.0 
574.0007110857406 1145.0 395.0 605.4651898734194 3.945084529186465 140.0 0.0 113.0 
576.0007110857406 1188.0 401.0 605.4889240506286 3.951718112494651 141.0 0.0 113.0 
578.0007110857406 1200.0 405.0 605.541139240511 3.746364971467658 142.0 0.0 113.0 
580.0007110857406 1230.0 409.0 607.343354430383 3.9928913253337055 141.0 0.0 114.0 
582.0007110857406 1158.0 399.0 605.5474683544301 3.2399123551380486 142.0 0.0 113.0 
584.0007110857406 1185.0 406.0 605.4746835443009 3.6726819308881917 144.0 0.0 113.0 
586.0007110857406 1165.0 403.0 609.1281645569637 3.6288634268461646 143.0 0.0 115.0 
588.0007110857406 1095.0 397.0 609.1455696202571 3.3883697589049095 143.0 0.0 115.0 
590.0007110857406 1098.0 398.0 609.0917721518964 3.763784418785998 144.0 0.0 115.0 
592.0007110857406 1044.0 391.0 609.1044303797429 3.186106220827103 144.0 0.0 115.0 
594.0007110857406 1038.0 390.0 610.8417721518965 3.153206489348742 143.0 0.0 116.0 
596.0007110857406 1032.0 388.0 610.8243670886063 3.16715571155916 142.0 0.0 116.0 
598.0007110857406 1034.0 388.0 610.8164556961987 3.2490605195278115 143.0 0.0 116.0 
600.0007110857406 1036.0 389.0 608.9825949367099 3.6118174548322655 143.0 0.0 115.0 
602.0007110857406 1081.0 397.0 610.8939873417683 3.53478593412137 142.0 0.0 116.0 
604.0007110857406 1081.0 396.0 612.6661392405113 3.798252909671969 143.0 0.0 117.0 
606.0007110857406 1092.0 402.0 610.9367088607569 3.5159059427515795 143.0 0.0 116.0 
608.0007110857406 1080.0 391.0 612.7325949367099 3.29557888487213 144.0 0.0 117.0 
610.0007110857406 1042.0 385.0 614.5443037974662 3.322577175747745 144.0 0.0 118.0 
612.0007110857406 1082.0 393.0 614.5981012658273 3.0511963703893756 142.0 0.0 118.0 
614.0007110857406 1066.0 390.0 612.7231012658272 2.8215507789936534 141.0 0.0 117.0 
616.0007110857406 1107.0 395.0 612.7531645569638 2.8335734069136205 140.0 0.0 117.0 
618.0007110857406 1111.0 398.0 610.9525316455699 2.6955260596396617 135.0 0.0 116.0 
620.0007110857406 1134.0 401.0 611.022151898732 3.0236490841106365 135.0 0.0 116.0 
622.0007110857406 1201.0 408.0 611.0363924050589 3.2394215375270345 137.0 0.0 116.0 
624.0007110857406 1278.0 417.0 611.0237341772206 3.676669213337654 137.0 0.0 116.0 
626.0007110857406 1277.0 417.0 611.0126582278498 3.8058687611090405 137.0 0.0 116.0 
628.0007110857406 1277.0 418.0 605.5458860759524 4.12582654189709 136.0 0.0 113.0 
630.0007110857406 1299.0 421.0 607.3702531645591 4.52396851575966 139.0 0.0 114.0 
632.0007110857406 1252.0 411.0 607.3876582278498 4.2351836734054364 139.0 0.0 114.0 
634.0007110857406 1249.0 410.0 609.150316455699 4.351460734032436 139.0 0.0 115.0 
636.0007110857406 1188.0 399.0 609.1867088607574 4.094536479439892 138.0 0.0 115.0 
638.0007110857406 1156.0 397.0 610.930379746838 3.7275762628679265 138.0 0.0 116.0 
640.0007110857406 1152.0 395.0 610.9256329113933 3.8439152794601537 137.0 0.0 116.0 
642.0007110857406 1103.0 390.0 610.9810126582312 3.3104724410592494 137.0 0.0 116.0 
644.0007110857406 1101.0 390.0 610.9034810126611 3.6044009118442872 137.0 0.0 116.0 
646.0007110857406 1132.0 396.0 612.77373417722 3.2477858133132753 140.0 0.0 117.0 
648.0007110857406 1160.0 397.0 610.9873417721502 3.2451872497081515 140.0 0.0 116.0 
650.0007110857406 1165.0 399.0 616.4177215189893 3.343559353278388 140.0 0.0 119.0 
652.0007110857406 1133.0 398.0 616.4651898734193 3.3383164635274807 140.0 0.0 119.0 
654.0007110857406 1073.0 393.0 618.2594936708826 2.845079758306335 140.0 0.0 120.0 
656.0007110857406 1093.0 395.0 618.1756329113933 2.688236452052047 140.0 0.0 120.0 
658.0007110857406 1118.0 401.0 616.3797468354409 2.7599921403320558 140.0 0.0 119.0 
660.0007110857406 1132.0 402.0 618.194620253162 3.001893391618963 141.0 0.0 120.0 
662.0007110857406 1222.0 413.0 618.2990506329087 2.9953765541443684 141.0 0.0 120.0 
664.0007110857406 1224.0 414.0 618.2199367088601 3.0772558109414656 142.0 0.0 120.0 
#####################################################################
# End of data export. Simulation finished at: 2019-03-04T14:05+0000 #
#####################################################################
