#####################################################################
# Alchemist log file - simulation started at: 2019-03-06T01:17+0000 #
#####################################################################
# seed = 1.0, bandwidth = 5623413.251903491, accessPointCount = 531.8295896944988, baserange = 10.0
#
# The columns have the following meaning: 
# time neighbor_count[Sum] <value>@neighbor_count[Sum] packet_size[Mean] mean_delay[Mean] crowd[Sum] overcrowded[Sum] risk[Sum] 
0.0 NaN NaN NaN NaN NaN NaN NaN 
10.000097218150408 28.0 17.0 4981.960552268245 0.4990058422261414 1497.0 0.0 1497.0 
20.000097218150408 28.0 17.0 4981.96449704142 0.4990055007964945 1497.0 0.0 1497.0 
30.000097218150408 28.0 17.0 4981.927021696252 0.4990060698459058 1497.0 0.0 1497.0 
40.00009721815041 30.0 18.0 4981.956607495069 0.499013700376994 1497.0 0.0 1497.0 
50.00009721815041 30.0 18.0 4981.952662721894 0.49901380575651477 1497.0 0.0 1497.0 
60.00009721815041 28.0 17.0 4981.9388560157795 0.4990059560360257 1497.0 0.0 1497.0 
70.00041737428027 30.0 18.0 400.0 0.4999209653595564 7.0 0.0 0.0 
80.00041737428027 30.0 18.0 400.0 0.4999209653595564 3.0 0.0 0.0 
90.00041737428027 30.0 18.0 400.0 0.4999209653595564 1.0 0.0 0.0 
100.00041737428027 30.0 18.0 400.0 0.4999209653595564 1.0 0.0 0.0 
110.00041737428027 30.0 18.0 400.0 0.4999209653595563 0.0 0.0 0.0 
120.00041737428027 30.0 18.0 400.0 0.4999209653595563 0.0 0.0 0.0 
130.0004173742803 30.0 18.0 400.0 0.4999209653595452 0.0 0.0 0.0 
140.0004173742803 30.0 18.0 400.0 0.4999209653595452 0.0 0.0 0.0 
150.0004173742803 30.0 18.0 400.0 0.4999209653595452 0.0 0.0 0.0 
160.0004173742803 32.0 19.0 400.0 0.499921510426031 0.0 0.0 0.0 
170.0004173742803 32.0 19.0 400.0 0.6378525449087895 0.0 0.0 0.0 
180.0004173742803 28.0 17.0 400.0 0.4999203330824219 0.0 0.0 0.0 
190.0004173742803 30.0 18.0 400.0 0.4999209653595452 0.0 0.0 0.0 
200.0004173742803 28.0 17.0 400.0 0.4999203330824219 0.0 0.0 0.0 
210.0004173742803 28.0 17.0 400.0 0.4999203330824219 0.0 0.0 0.0 
220.0004173742803 28.0 17.0 400.0 0.4999203330824219 0.0 0.0 0.0 
230.0004173742803 30.0 18.0 400.0 0.4999209653595452 0.0 0.0 0.0 
240.0004173742803 30.0 18.0 400.0 0.4999209653595452 0.0 0.0 0.0 
250.0004173742803 32.0 19.0 400.0 0.499921510426031 0.0 0.0 0.0 
260.0004173742803 34.0 20.0 400.0 0.4999219851613545 0.0 0.0 0.0 
270.0004173742803 32.0 19.0 400.0 0.6033697862880969 0.0 0.0 0.0 
280.0004173742803 30.0 18.0 400.0 0.4999209653595421 0.0 0.0 0.0 
290.0004173742803 30.0 18.0 400.0 0.4999209653595421 0.0 0.0 0.0 
300.0004173742803 30.0 18.0 400.0 0.4999209653595421 0.0 0.0 0.0 
310.0004173742803 30.0 18.0 400.0 0.4999209653595421 0.0 0.0 0.0 
320.0004173742803 32.0 19.0 400.0 0.49992151042602806 0.0 0.0 0.0 
330.0004173742803 36.0 21.0 400.0 0.5038918653288524 0.0 0.0 0.0 
340.0004173742803 32.0 19.0 400.0 0.49992151042602806 0.0 0.0 0.0 
350.0004173742803 32.0 19.0 400.0 0.49992151042602806 0.0 0.0 0.0 
360.0004173742803 31.0 19.0 400.0 0.5777386339592913 0.0 0.0 0.0 
370.0004173742803 30.0 18.0 400.0 0.4999209653595421 0.0 0.0 0.0 
380.0004173742803 30.0 18.0 400.0 0.4999209653595421 0.0 0.0 0.0 
390.0004173742803 30.0 18.0 400.0 0.4999209653595421 0.0 0.0 0.0 
400.0004173742803 30.0 18.0 400.0 0.4999209653595421 0.0 0.0 0.0 
410.0004173742803 30.0 18.0 400.0 0.4999209653595421 0.0 0.0 0.0 
420.0004173742803 30.0 18.0 400.0 0.4999209653595421 0.0 0.0 0.0 
430.0004173742803 30.0 18.0 400.0 0.4999209653595421 0.0 0.0 0.0 
440.0004173742803 30.0 18.0 400.0 0.4999209653595421 0.0 0.0 0.0 
450.0004173742803 32.0 19.0 400.0 0.49992151042602806 0.0 0.0 0.0 
460.0004173742803 30.0 18.0 400.0 0.4999209653595421 0.0 0.0 0.0 
470.0004173742803 30.0 18.0 400.0 0.4999209653595421 0.0 0.0 0.0 
480.0004173742803 30.0 18.0 400.0 0.4999209653595421 0.0 0.0 0.0 
490.0004173742803 32.0 19.0 400.0 0.49992151042602806 0.0 0.0 0.0 
500.0004173742803 32.0 19.0 400.0 0.49992151042602806 0.0 0.0 0.0 
510.0004173742803 32.0 19.0 400.0 0.49992151042602806 0.0 0.0 0.0 
520.0004173742802 32.0 19.0 400.0 0.49992151042607896 0.0 0.0 0.0 
530.0004173742802 36.0 20.0 400.0 0.49991464258835094 0.0 0.0 0.0 
540.0004173742802 36.0 20.0 400.0 0.49991464258835094 0.0 0.0 0.0 
550.0004173742802 35.0 20.0 400.0 0.5750481802122694 0.0 0.0 0.0 
560.0004173742802 36.0 20.0 400.0 0.49991464258835094 0.0 0.0 0.0 
570.0004173742802 36.0 20.0 400.0 0.5999146425883509 0.0 0.0 0.0 
580.0004173742802 30.0 18.0 400.0 0.49992096535959263 0.0 0.0 0.0 
590.0004173742802 30.0 18.0 400.0 0.49992096535959263 0.0 0.0 0.0 
600.0004173742802 30.0 18.0 400.0 0.49992096535959263 0.0 0.0 0.0 
610.0004173742802 32.0 19.0 400.0 0.49992151042607896 0.0 0.0 0.0 
620.0004173742802 30.0 18.0 400.0 0.49992096535959263 0.0 0.0 0.0 
630.0004173742802 32.0 19.0 400.0 0.49992151042607896 0.0 0.0 0.0 
640.0004173742802 30.0 18.0 400.0 0.49992096535959263 0.0 0.0 0.0 
650.0004173742802 30.0 18.0 400.0 0.49992096535959263 0.0 0.0 0.0 
660.0004173742802 30.0 18.0 400.0 0.49992096535959263 0.0 0.0 0.0 
#####################################################################
# End of data export. Simulation finished at: 2019-03-06T01:25+0000 #
#####################################################################
