#####################################################################
# Alchemist log file - simulation started at: 2019-03-04T20:08+0000 #
#####################################################################
# seed = 1.0, bandwidth = 1000.0, accessPointCount = 274.2481756762073, baserange = 10.0
#
# The columns have the following meaning: 
# time neighbor_count[Sum] <value>@neighbor_count[Sum] packet_size[Mean] mean_delay[Mean] crowd[Sum] overcrowded[Sum] risk[Sum] 
0.0 NaN NaN NaN NaN NaN NaN NaN 
10.000417374280275 4.0 2.0 4984.341050254094 4.015999999999999 1497.0 0.0 1497.0 
20.000417374280275 10.0 4.0 4984.3613777526825 6.149142857142857 1497.0 0.0 1497.0 
30.000417374280275 10.0 4.0 4984.354601919819 5.4468571428571435 1497.0 0.0 1497.0 
40.000417374280275 12.0 5.0 4984.38170525127 5.4462222222222225 1497.0 0.0 1497.0 
50.000417374280275 12.0 5.0 4984.374929418408 4.890222222222222 1497.0 0.0 1497.0 
60.000417374280275 12.0 5.0 4984.374929418408 6.005777777777777 1497.0 0.0 1497.0 
70.0001875928288 14.0 6.0 400.0 2.913565257043272 5.0 0.0 0.0 
80.0001875928288 14.0 6.0 400.0 4.413565257043272 5.0 0.0 0.0 
90.0001875928288 12.0 5.0 400.0 0.2444444444444416 3.0 0.0 0.0 
100.0001875928288 12.0 5.0 400.0 0.2444444444444416 0.0 0.0 0.0 
110.0001875928288 14.0 6.0 400.0 1.9454545454545422 0.0 0.0 0.0 
120.0001875928288 14.0 6.0 400.0 3.76363636363636 0.0 0.0 0.0 
130.00018759282878 14.0 6.0 400.0 5.581818181818175 0.0 0.0 0.0 
140.00018759282878 12.0 5.0 400.0 0.35555555555554796 0.0 0.0 0.0 
150.00018759282878 12.0 5.0 400.0 0.35555555555554796 0.0 0.0 0.0 
160.00018759282878 12.0 5.0 400.0 0.35555555555554796 0.0 0.0 0.0 
170.00018759282878 12.0 5.0 400.0 0.35555555555554796 0.0 0.0 0.0 
180.00018759282878 12.0 5.0 400.0 2.0222222222222146 0.0 0.0 0.0 
190.00018759282878 14.0 6.0 400.0 3.581818181818174 0.0 0.0 0.0 
200.00018759282878 14.0 6.0 400.0 6.763636363636356 0.0 0.0 0.0 
210.00018759282878 12.0 5.0 400.0 4.2444444444444365 0.0 0.0 0.0 
220.00018759282878 12.0 5.0 400.0 6.46666666666666 0.0 0.0 0.0 
230.00018759282878 12.0 5.0 400.0 0.35555555555554796 0.0 0.0 0.0 
240.00018759282878 12.0 5.0 400.0 0.35555555555554796 0.0 0.0 0.0 
250.00018759282878 14.0 6.0 400.0 0.39999999999999275 0.0 0.0 0.0 
260.00018759282875 14.0 6.0 400.0 2.0363636363636473 0.0 0.0 0.0 
270.00018759282875 14.0 6.0 400.0 3.854545454545465 0.0 0.0 0.0 
280.00018759282875 14.0 6.0 400.0 5.6727272727272835 0.0 0.0 0.0 
290.00018759282875 12.0 5.0 400.0 0.35555555555556695 0.0 0.0 0.0 
300.00018759282875 12.0 5.0 400.0 0.35555555555556695 0.0 0.0 0.0 
310.00018759282875 12.0 5.0 400.0 0.35555555555556695 0.0 0.0 0.0 
320.00018759282875 14.0 6.0 400.0 0.40000000000001346 0.0 0.0 0.0 
330.00018759282875 18.0 8.0 400.0 0.4733744768019323 0.0 0.0 0.0 
340.00018759282875 18.0 8.0 400.0 2.366231619659075 0.0 0.0 0.0 
350.00018759282875 18.0 8.0 400.0 4.509088762516218 0.0 0.0 0.0 
360.00018759282875 17.0 7.0 400.0 6.90118004567928 0.0 0.0 0.0 
370.00018759282875 14.0 6.0 400.0 2.581818181818195 0.0 0.0 0.0 
380.00018759282875 14.0 6.0 400.0 4.400000000000014 0.0 0.0 0.0 
390.00018759282875 12.0 5.0 400.0 0.35555555555556695 0.0 0.0 0.0 
400.00018759282875 12.0 5.0 400.0 0.35555555555556695 0.0 0.0 0.0 
410.00018759282875 12.0 5.0 400.0 0.35555555555556695 0.0 0.0 0.0 
420.00018759282875 12.0 5.0 400.0 0.35555555555556695 0.0 0.0 0.0 
430.00018759282875 12.0 5.0 400.0 0.35555555555556695 0.0 0.0 0.0 
440.00018759282875 12.0 5.0 400.0 0.35555555555556695 0.0 0.0 0.0 
450.00018759282875 14.0 6.0 400.0 0.3090909090909225 0.0 0.0 0.0 
460.00018759282875 14.0 6.0 400.0 1.4000000000000132 0.0 0.0 0.0 
470.00018759282875 14.0 6.0 400.0 3.218181818181832 0.0 0.0 0.0 
480.00018759282875 14.0 6.0 400.0 5.0363636363636495 0.0 0.0 0.0 
490.00018759282875 14.0 6.0 400.0 0.40000000000001346 0.0 0.0 0.0 
500.00018759282875 14.0 6.0 400.0 0.40000000000001346 0.0 0.0 0.0 
510.00018759282875 14.0 6.0 400.0 0.40000000000001346 0.0 0.0 0.0 
520.0001875928288 14.0 6.0 400.0 0.40000000000002894 0.0 0.0 0.0 
530.0001875928288 18.0 7.0 400.0 0.4000000000000341 0.0 0.0 0.0 
540.0001875928288 18.0 7.0 400.0 0.4000000000000341 0.0 0.0 0.0 
550.0001875928288 18.0 7.0 400.0 0.7333333333333674 0.0 0.0 0.0 
560.0001875928288 18.0 7.0 400.0 2.400000000000034 0.0 0.0 0.0 
570.0001875928288 18.0 7.0 400.0 4.066666666666701 0.0 0.0 0.0 
580.0001875928288 16.0 6.0 400.0 2.1000000000000343 0.0 0.0 0.0 
590.0001875928288 16.0 6.0 400.0 4.100000000000034 0.0 0.0 0.0 
600.0001875928288 16.0 6.0 400.0 6.100000000000034 0.0 0.0 0.0 
610.0001875928288 12.0 5.0 400.0 0.3555555555555859 0.0 0.0 0.0 
620.0001875928288 12.0 5.0 400.0 0.3555555555555859 0.0 0.0 0.0 
630.0001875928288 12.0 5.0 400.0 0.3555555555555859 0.0 0.0 0.0 
640.0001875928288 12.0 5.0 400.0 0.3555555555555859 0.0 0.0 0.0 
650.0001875928288 12.0 5.0 400.0 0.3555555555555859 0.0 0.0 0.0 
660.0001875928288 12.0 5.0 400.0 0.3555555555555859 0.0 0.0 0.0 
#####################################################################
# End of data export. Simulation finished at: 2019-03-04T20:15+0000 #
#####################################################################
