#####################################################################
# Alchemist log file - simulation started at: 2019-03-03T02:45+0000 #
#####################################################################
# seed = 0.0, bandwidth = 4216.965034285822, accessPointCount = 274.2481756762073, baserange = 177.82794100389228
#
# The columns have the following meaning: 
# time neighbor_count[Sum] <value>@neighbor_count[Sum] packet_size[Mean] mean_delay[Mean] crowd[Sum] overcrowded[Sum] risk[Sum] 
0.0 NaN NaN NaN NaN NaN NaN NaN 
10.000373874325726 1056.0 324.0 4985.418407679277 1.6240607905203213 1497.0 0.0 1497.0 
20.000405536260626 1847.0 426.0 4986.330886504799 3.585615602967665 1497.0 0.0 1497.0 
30.000405536260626 3207.0 527.0 4986.961038961039 4.057566038872455 1497.0 0.0 1497.0 
40.00040553626063 3482.0 545.0 4987.14172783738 5.262182282939648 1497.0 0.0 1497.0 
50.00040553626063 3496.0 548.0 4986.863918690005 3.7492577292477884 1497.0 0.0 1497.0 
60.00040553626063 3496.0 549.0 4984.359119141728 5.185872532569752 1496.0 0.0 1496.0 
70.00040553626063 3523.0 548.0 777.0005646527369 3.0081416910089076 242.0 0.0 145.0 
80.00040553626063 3527.0 550.0 776.8921513269358 2.6389426879608795 209.0 0.0 145.0 
90.00040553626063 3561.0 550.0 776.8176171654407 2.7421876901056095 207.0 0.0 145.0 
100.00040553626063 3598.0 551.0 781.8498023715438 1.9568143473479205 201.0 1.0 146.0 
110.00040553626063 3593.0 552.0 784.4720496894391 2.7470324556554147 199.0 1.0 147.0 
120.00040553626063 3636.0 555.0 787.1236589497476 2.6296621887441964 200.0 3.0 146.0 
130.00040553626064 3572.0 553.0 789.7165443252376 2.2909349381181654 199.0 5.0 145.0 
140.00040553626064 3627.0 556.0 781.9085262563556 3.095924488895985 197.0 5.0 142.0 
150.00040553626064 3555.0 554.0 787.1010728402032 2.5633582019181644 194.0 8.0 141.0 
160.00040553626064 3549.0 554.0 787.0084697910783 3.280766725944942 195.0 8.0 141.0 
170.00040553626064 3538.0 553.0 787.0265386787153 2.5431685666199404 196.0 8.0 141.0 
180.00040553626064 3484.0 553.0 787.0852625635272 2.3723143626102963 198.0 9.0 140.0 
190.00040553626064 3501.0 551.0 789.6623376623404 2.8654715375866955 196.0 8.0 142.0 
200.00040553626064 3483.0 551.0 787.0107284020319 2.062581485043085 192.0 9.0 140.0 
210.00040553626064 3500.0 552.0 781.836250705814 2.9439357367672976 190.0 9.0 138.0 
220.00040553626064 3484.0 554.0 781.8091473743622 2.237708463521477 191.0 8.0 139.0 
230.00040553626064 3517.0 555.0 776.616600790515 2.542673202049984 190.0 8.0 137.0 
240.00040553626064 3549.0 557.0 779.1688311688295 2.915206774865365 192.0 8.0 138.0 
250.00040553626064 3538.0 556.0 776.6391869000591 2.880359326123524 193.0 8.0 137.0 
260.00040553626064 3536.0 555.0 779.177865612645 2.6426795107063152 195.0 8.0 138.0 
270.00040553626064 3523.0 552.0 773.9672501411599 2.5678075947516414 195.0 7.0 137.0 
280.00040553626064 3569.0 554.0 774.014680971203 2.6806704952120155 192.0 7.0 137.0 
290.00040553626064 3515.0 554.0 781.7504234895504 3.0620781777040773 195.0 7.0 140.0 
300.00040553626064 3543.0 553.0 781.7617165443269 2.143915908804628 198.0 7.0 140.0 
310.00040553626064 3544.0 552.0 792.2303783173318 2.796865275346892 198.0 7.0 144.0 
320.00040553626064 3555.0 550.0 784.3952569169984 2.741165341542748 198.0 8.0 140.0 
330.00040553626064 3548.0 551.0 792.1558441558439 2.7530445939709804 199.0 8.0 143.0 
340.00040553626064 3545.0 549.0 797.3687182382822 3.166210551570086 199.0 8.0 145.0 
350.00040553626064 3607.0 551.0 802.5228684359092 2.6392216621030027 204.0 7.0 148.0 
360.00040553626064 3574.0 548.0 802.5002823263721 3.1346838447117134 206.0 6.0 149.0 
370.00040553626064 3654.0 553.0 799.9209486165975 2.103655969566072 203.0 6.0 148.0 
380.00040553626064 3673.0 555.0 805.1360813099969 2.8719239118794166 203.0 7.0 149.0 
390.00040553626064 3699.0 558.0 812.9373235460173 2.7038241856940513 203.0 7.0 152.0 
400.00040553626064 3719.0 561.0 823.2953133822681 3.0648671674889476 208.0 6.0 157.0 
410.00040553626064 3744.0 561.0 825.996612083566 2.693584836145041 209.0 6.0 158.0 
420.00040553626064 3720.0 559.0 825.906267645395 3.2087387630268913 210.0 6.0 158.0 
430.00040553626064 3729.0 559.0 823.3314511575352 3.2528868782408065 212.0 5.0 158.0 
440.00040553626064 3742.0 558.0 836.3387916431401 3.1244118120970903 212.0 5.0 163.0 
450.00040553626064 3721.0 555.0 828.5398080180664 2.9317792413634227 217.0 5.0 160.0 
460.00040553626064 3715.0 556.0 825.8385093167684 2.9787768937360513 213.0 5.0 159.0 
470.00040553626064 3664.0 555.0 828.4991530208912 2.5233224823479437 213.0 6.0 159.0 
480.00040553626064 3660.0 559.0 810.3263692828907 3.113859507425007 208.0 6.0 152.0 
490.00040553626064 3602.0 558.0 810.3015245623923 2.638955492153398 205.0 6.0 152.0 
500.00040553626064 3521.0 555.0 810.3534726143431 2.732508070308309 206.0 6.0 152.0 
510.00040553626064 3483.0 551.0 810.3805759457953 2.6387835600196525 203.0 6.0 152.0 
520.0004055362606 3418.0 548.0 805.0683229813636 2.9793488033071274 202.0 6.0 150.0 
530.0004055362606 3418.0 547.0 799.9164313946903 2.4330972827498836 199.0 7.0 147.0 
540.0004055362606 3423.0 547.0 807.6973461321267 2.782725505911324 203.0 8.0 149.0 
550.0004055362606 3485.0 549.0 807.6883116883123 2.1730353335178076 203.0 6.0 151.0 
560.0004055362606 3470.0 550.0 805.0728402032777 2.8869905837801455 201.0 7.0 149.0 
570.0004055362606 3480.0 551.0 789.55844155844 2.593418696844529 201.0 6.0 144.0 
580.0004055362606 3436.0 551.0 794.7148503670273 2.489330599495419 199.0 5.0 147.0 
590.0004055362606 3459.0 554.0 794.6832298136676 2.550007312819334 200.0 5.0 147.0 
600.0004055362606 3444.0 554.0 802.5002823263718 3.0303515488285595 199.0 5.0 150.0 
610.0004055362606 3478.0 558.0 807.7357425183478 2.8668248603772692 200.0 6.0 151.0 
620.0004055362606 3442.0 553.0 802.4844720496882 3.045178253733475 199.0 6.0 149.0 
630.0004055362606 3487.0 557.0 799.9299830604194 2.971773014252361 197.0 7.0 147.0 
640.0004055362606 3473.0 556.0 807.7221908526252 3.0191858962046654 195.0 8.0 149.0 
650.0004055362606 3483.0 553.0 802.5160926030479 2.4809083228986637 200.0 6.0 149.0 
660.0004055362606 3454.0 548.0 802.556747600223 2.757542620821618 196.0 5.0 150.0 
#####################################################################
# End of data export. Simulation finished at: 2019-03-03T02:55+0000 #
#####################################################################
