#####################################################################
# Alchemist log file - simulation started at: 2019-03-04T13:13+0000 #
#####################################################################
# seed = 6.0, bandwidth = 1000.0, accessPointCount = 531.8295896944988, baserange = 17.78279410038923
#
# The columns have the following meaning: 
# time neighbor_count[Sum] <value>@neighbor_count[Sum] packet_size[Mean] mean_delay[Mean] crowd[Sum] overcrowded[Sum] risk[Sum] 
0.0 NaN NaN NaN NaN NaN NaN NaN 
2.0013042135964882 NaN NaN 4981.715976331361 NaN 1497.0 0.0 1497.0 
4.001304213596488 NaN NaN 4981.715976331361 NaN 1497.0 0.0 1497.0 
6.001304213596488 24.0 15.0 4981.763313609467 0.25376004105822053 1497.0 0.0 1497.0 
8.001304213596487 44.0 26.0 4982.406311637081 2.0181818181818176 1497.0 0.0 1497.0 
10.001304213596487 44.0 26.0 4982.284023668639 4.018181818181818 1497.0 0.0 1497.0 
12.001304213596487 62.0 32.0 4982.570019723866 1.0239999999999998 1497.0 0.0 1497.0 
14.001304213596487 62.0 32.0 4982.207100591716 3.024 1497.0 0.0 1497.0 
16.001304213596487 62.0 32.0 4982.2702169625245 2.938037735849057 1497.0 0.0 1497.0 
18.001304213596487 62.0 32.0 4982.203155818541 2.8466415094339625 1497.0 0.0 1497.0 
20.001304213596487 62.0 32.0 4982.191321499014 4.8466415094339625 1497.0 0.0 1497.0 
22.001304213596487 82.0 36.0 4982.287968441815 2.7129655172413796 1497.0 0.0 1497.0 
24.001304213596487 82.0 36.0 4982.236686390533 2.444137931034483 1497.0 0.0 1497.0 
26.001304213596487 82.0 36.0 4982.236686390533 3.926896551724138 1497.0 0.0 1497.0 
28.001304213596487 82.0 36.0 4982.236686390533 3.4619310344827587 1497.0 0.0 1497.0 
30.001304213596487 82.0 36.0 4982.236686390533 4.324965517241379 1497.0 0.0 1497.0 
32.001304213596484 82.0 36.0 4982.264299802761 3.5420689655172413 1497.0 0.0 1497.0 
34.001304213596484 82.0 36.0 4982.236686390533 3.335172413793104 1497.0 0.0 1497.0 
36.001304213596484 82.0 36.0 4982.236686390533 4.283448275862069 1497.0 0.0 1497.0 
38.001304213596484 82.0 36.0 4982.236686390533 4.473103448275862 1497.0 0.0 1497.0 
40.001304213596484 82.0 36.0 4982.236686390533 5.128275862068965 1497.0 0.0 1497.0 
42.001304213596484 82.0 36.0 4982.242603550296 2.9055172413793104 1497.0 0.0 1497.0 
44.001304213596484 82.0 36.0 4982.234714003945 2.8037241379310345 1497.0 0.0 1497.0 
46.001304213596484 82.0 36.0 4982.2307692307695 3.0795862068965523 1497.0 0.0 1497.0 
48.001304213596484 82.0 36.0 4982.2307692307695 3.32096551724138 1497.0 0.0 1497.0 
50.001304213596484 82.0 36.0 4982.2307692307695 4.700275862068966 1497.0 0.0 1497.0 
52.001304213596484 82.0 36.0 4982.234714003945 3.4847586206896555 1497.0 0.0 1497.0 
54.001304213596484 82.0 36.0 4982.234714003945 3.7011034482758625 1497.0 0.0 1497.0 
56.001304213596484 82.0 36.0 4982.2307692307695 4.390758620689655 1497.0 0.0 1497.0 
58.001304213596484 82.0 36.0 4982.2307692307695 3.6321379310344826 1497.0 0.0 1497.0 
60.001304213596484 82.0 36.0 4982.2307692307695 5.37351724137931 1497.0 0.0 1497.0 
62.001304213596484 82.0 36.0 409.08284023668654 3.071241379310346 28.0 0.0 4.0 
64.00130421359648 82.0 36.0 409.0710059171598 1.2536551724137945 28.0 0.0 4.0 
66.00130421359648 82.0 36.0 409.06706114398423 0.8267586206896516 27.0 0.0 4.0 
68.00130421359648 82.0 36.0 409.06706114398423 0.9469655172413756 23.0 0.0 4.0 
70.00130421359648 82.0 36.0 409.06706114398423 1.0848965517241345 15.0 0.0 4.0 
72.00130421359648 82.0 36.0 409.06706114398423 1.222827586206893 15.0 0.0 4.0 
74.00130421359648 82.0 36.0 409.06706114398423 1.3607586206896516 12.0 0.0 4.0 
76.00130421359648 82.0 36.0 409.06706114398423 1.4986896551724103 12.0 0.0 4.0 
78.00130421359648 84.0 36.0 409.06706114398423 1.641070533168065 12.0 0.0 4.0 
80.00130421359648 88.0 37.0 415.87771203155796 1.8196158192090355 11.0 0.0 7.0 
82.00130421359648 88.0 37.0 415.87771203155796 1.2565988700564934 10.0 0.0 7.0 
84.00130421359648 88.0 37.0 415.87771203155796 0.8720903954802223 10.0 0.0 7.0 
86.00130421359648 88.0 37.0 415.87771203155796 1.1093785310734425 10.0 0.0 7.0 
88.00130421359648 88.0 37.0 415.87771203155796 1.3466666666666625 9.0 0.0 7.0 
90.00130421359648 88.0 37.0 415.87771203155796 1.5839548022598833 9.0 0.0 7.0 
92.00130421359648 88.0 37.0 415.87771203155796 1.8212429378531036 9.0 0.0 7.0 
94.00130421359648 88.0 37.0 415.8796844181463 1.9691299435028211 9.0 0.0 7.0 
96.00130421359648 88.0 37.0 415.87771203155796 1.4922259887005618 9.0 0.0 7.0 
98.00130421359648 88.0 37.0 415.87771203155796 1.7295141242937815 9.0 0.0 7.0 
100.00130421359648 88.0 37.0 415.8737672583826 1.9668022598870016 9.0 0.0 7.0 
102.00130421359648 88.0 37.0 415.8737672583826 2.034598870056494 9.0 0.0 7.0 
104.00130421359648 89.0 38.0 415.8737672583826 1.0253178478526754 9.0 0.0 7.0 
106.00130421359648 90.0 38.0 415.8737672583826 1.2519562841530016 9.0 0.0 7.0 
108.00130421359648 90.0 38.0 415.87771203155796 1.481464480874313 9.0 0.0 7.0 
110.00130421359648 90.0 38.0 415.87771203155796 1.3777704918032745 9.0 0.0 7.0 
112.00130421359648 90.0 38.0 415.87771203155796 1.1703825136611983 9.0 0.0 7.0 
114.00130421359648 90.0 38.0 415.8737672583826 1.4162841530054608 9.0 0.0 7.0 
116.00130421359648 90.0 38.0 415.8737672583826 1.7113661202185757 9.0 0.0 7.0 
118.00130421359648 90.0 38.0 415.87771203155796 2.00644808743169 9.0 0.0 7.0 
120.00130421359648 90.0 38.0 415.8737672583826 2.301530054644805 9.0 0.0 7.0 
122.00130421359648 90.0 38.0 415.8737672583826 2.432677595628411 9.0 0.0 7.0 
124.00130421359648 90.0 38.0 415.8737672583826 1.8220218579234935 9.0 0.0 7.0 
126.00130421359648 90.0 38.0 415.87771203155796 1.366710382513657 9.0 0.0 7.0 
128.00130421359648 90.0 38.0 415.87771203155796 1.399497267759559 9.0 0.0 7.0 
130.00130421359648 90.0 38.0 415.8698224852072 1.694579234972672 9.0 0.0 7.0 
132.00130421359648 90.0 38.0 415.8698224852072 1.9896612021857867 9.0 0.0 7.0 
134.00130421359648 90.0 38.0 415.8698224852072 2.284743169398902 9.0 0.0 7.0 
136.00130421359648 90.0 38.0 415.8698224852072 2.579825136612017 9.0 0.0 7.0 
138.00130421359648 90.0 38.0 415.8698224852072 2.8749071038251315 9.0 0.0 7.0 
140.00130421359648 90.0 38.0 415.8698224852072 2.924087431693983 9.0 0.0 7.0 
142.00130421359648 90.0 38.0 415.86587771203165 2.792939890710377 9.0 0.0 7.0 
144.00130421359648 88.0 37.0 415.86587771203165 1.0749039548022545 9.0 0.0 7.0 
146.00130421359648 88.0 37.0 415.86587771203165 0.8672768361581864 9.0 0.0 7.0 
148.00130421359648 88.0 37.0 415.86587771203165 1.1045649717514068 9.0 0.0 7.0 
150.00130421359648 88.0 37.0 415.86587771203165 1.3418531073446271 9.0 0.0 7.0 
152.00130421359648 88.0 37.0 415.86587771203165 1.5791412429378475 9.0 0.0 7.0 
154.00130421359648 88.0 37.0 415.86587771203165 1.8164293785310675 9.0 0.0 7.0 
156.00130421359648 88.0 37.0 415.86587771203165 1.7994802259886953 9.0 0.0 7.0 
158.00130421359648 88.0 37.0 415.86587771203165 1.7659887005649666 9.0 0.0 7.0 
160.00130421359648 88.0 37.0 415.86587771203165 1.8227570621468874 9.0 0.0 7.0 
162.00130421359648 88.0 37.0 415.86587771203165 1.890553672316379 9.0 0.0 7.0 
164.00130421359648 88.0 37.0 415.86587771203165 1.7041129943502773 9.0 0.0 7.0 
166.00130421359648 88.0 37.0 415.86587771203165 1.4117401129943454 9.0 0.0 7.0 
168.00130421359648 88.0 37.0 415.8639053254434 1.3752994350282435 9.0 0.0 7.0 
170.00130421359648 88.0 37.0 415.859960552268 1.4543954802259833 9.0 0.0 7.0 
172.00130421359648 88.0 37.0 415.859960552268 1.7029830508474526 9.0 0.0 7.0 
174.00130421359648 87.0 37.0 415.859960552268 1.594953051397352 9.0 0.0 7.0 
176.00130421359648 89.0 38.0 415.859960552268 1.797304317471755 9.0 0.0 7.0 
178.00130421359648 89.0 38.0 415.859960552268 2.032276995067383 9.0 0.0 7.0 
180.00130421359648 89.0 38.0 415.859960552268 2.15782890763569 9.0 0.0 7.0 
182.00130421359648 89.0 38.0 415.859960552268 2.228867159001811 9.0 0.0 7.0 
184.00130421359648 89.0 38.0 415.859960552268 2.0540037710236687 9.0 0.0 7.0 
186.00130421359648 88.0 38.0 415.859960552268 1.7241801333999496 9.0 0.0 7.0 
188.00130421359648 87.0 38.0 415.859960552268 1.606156368930448 9.0 0.0 7.0 
190.00130421359648 85.0 37.0 415.859960552268 1.4687525759239177 9.0 0.0 7.0 
192.00130421359648 89.0 39.0 415.859960552268 1.6768293404824461 9.0 0.0 7.0 
194.00130421359648 89.0 39.0 415.859960552268 1.9537524174055232 9.0 0.0 7.0 
196.00130421359648 88.0 39.0 415.859960552268 1.6386249999999947 9.0 0.0 7.0 
198.00130421359648 88.0 39.0 415.859960552268 1.8886249999999947 9.0 0.0 7.0 
200.00130421359648 88.0 39.0 415.859960552268 1.9823749999999947 9.0 0.0 7.0 
202.00130421359648 88.0 39.0 415.859960552268 2.169874999999995 9.0 0.0 7.0 
204.00130421359648 88.0 39.0 415.859960552268 2.3886249999999944 9.0 0.0 7.0 
206.00130421359648 88.0 39.0 415.859960552268 1.9511249999999947 9.0 0.0 7.0 
208.00130421359648 88.0 39.0 415.859960552268 2.2440937499999944 9.0 0.0 7.0 
210.00130421359648 88.0 39.0 415.859960552268 2.2167499999999944 9.0 0.0 7.0 
212.00130421359648 88.0 39.0 415.859960552268 2.5917499999999944 9.0 0.0 7.0 
214.00130421359648 88.0 39.0 415.859960552268 2.9667499999999944 9.0 0.0 7.0 
216.00130421359648 86.0 38.0 415.859960552268 2.2527741935483814 9.0 0.0 7.0 
218.00130421359648 86.0 38.0 415.859960552268 2.575354838709672 9.0 0.0 7.0 
220.00130421359648 86.0 38.0 415.859960552268 2.7366451612903173 9.0 0.0 7.0 
222.00130421359648 86.0 38.0 415.859960552268 2.8979354838709623 9.0 0.0 7.0 
224.00130421359648 86.0 38.0 415.859960552268 3.0592258064516074 9.0 0.0 7.0 
226.00130421359648 86.0 38.0 413.5976331360948 2.575354838709672 8.0 0.0 6.0 
228.00130421359648 86.0 38.0 413.5976331360948 2.8172903225806394 8.0 0.0 6.0 
230.00130421359648 84.0 37.0 413.5976331360948 1.8078666666666607 8.0 0.0 6.0 
232.00130421359648 82.0 36.0 411.3353057199209 1.0736551724137875 8.0 0.0 5.0 
234.00130421359648 82.0 36.0 411.3353057199209 1.2805517241379254 8.0 0.0 5.0 
236.00130421359648 82.0 36.0 411.3353057199209 1.487448275862063 8.0 0.0 5.0 
238.00130421359648 82.0 36.0 411.3353057199209 1.5046896551724085 8.0 0.0 5.0 
240.00130421359648 82.0 36.0 411.3451676528598 1.539172413793098 8.0 0.0 5.0 
242.00130421359648 82.0 36.0 411.32938856015767 1.5422068965517184 8.0 0.0 5.0 
244.00130421359648 82.0 36.0 411.32938856015767 1.5422068965517184 8.0 0.0 5.0 
246.00130421359648 82.0 36.0 411.32938856015767 1.4430689655172355 8.0 0.0 5.0 
248.00130421359648 82.0 36.0 409.06706114398423 0.8870344827586149 8.0 0.0 4.0 
250.00130421359648 84.0 37.0 409.06706114398423 0.7557999999999941 8.0 0.0 4.0 
252.00130421359648 86.0 38.0 409.06706114398423 0.8798064516128973 8.0 0.0 4.0 
254.00130421359648 86.0 38.0 409.06706114398423 1.0088387096774134 8.0 0.0 4.0 
256.0013042135965 86.0 38.0 409.06706114398423 1.1378709677419299 8.0 0.0 4.0 
258.0013042135965 86.0 38.0 409.06706114398423 1.266903225806469 8.0 0.0 4.0 
260.0013042135965 86.0 38.0 409.06706114398423 1.3959354838709837 8.0 0.0 4.0 
262.0013042135965 88.0 39.0 409.06706114398423 1.3710625000000163 8.0 0.0 4.0 
264.0013042135965 88.0 39.0 409.06706114398423 1.4023125000000163 8.0 0.0 4.0 
266.0013042135965 88.0 39.0 409.06706114398423 1.5898125000000163 8.0 0.0 4.0 
268.0013042135965 88.0 39.0 409.06706114398423 1.136687500000016 7.0 0.0 4.0 
270.0013042135965 88.0 39.0 409.06706114398423 0.9960625000000158 7.0 0.0 4.0 
272.0013042135965 88.0 39.0 409.06706114398423 1.2304375000000158 6.0 0.0 4.0 
274.0013042135965 88.0 39.0 409.06706114398423 1.480437500000016 6.0 0.0 4.0 
276.0013042135965 88.0 39.0 409.06706114398423 1.730437500000016 6.0 0.0 4.0 
278.0013042135965 88.0 39.0 409.06706114398423 1.980437500000016 6.0 0.0 4.0 
280.0013042135965 90.0 40.0 409.06706114398423 2.165878787878804 6.0 0.0 4.0 
282.0013042135965 92.0 41.0 409.06706114398423 2.2080588235294285 6.0 0.0 4.0 
284.0013042135965 92.0 41.0 409.06706114398423 2.296294117647075 6.0 0.0 4.0 
286.0013042135965 92.0 41.0 409.06706114398423 2.5315882352941337 6.0 0.0 4.0 
288.0013042135965 92.0 41.0 409.06706114398423 2.2264411764706047 6.0 0.0 4.0 
290.0013042135965 91.0 40.0 409.06706114398423 1.9802830337418122 6.0 0.0 4.0 
292.0013042135965 92.0 41.0 409.06706114398423 1.619823529411781 6.0 0.0 4.0 
294.0013042135965 92.0 41.0 409.06706114398423 1.9727647058823692 6.0 0.0 4.0 
296.0013042135965 92.0 41.0 409.06706114398423 2.3257058823529575 6.0 0.0 4.0 
298.0013042135965 92.0 41.0 409.06706114398423 2.6786470588235454 6.0 0.0 4.0 
300.0013042135965 91.0 40.0 409.06706114398423 2.6282440956379967 6.0 0.0 4.0 
302.0013042135965 92.0 41.0 409.06706114398423 2.2986162487058026 6.0 0.0 4.0 
304.0013042135965 92.0 41.0 409.06706114398423 2.492646099452071 6.0 0.0 4.0 
306.0013042135965 92.0 41.0 409.06706114398423 2.835929681541624 6.0 0.0 4.0 
308.0013042135965 92.0 41.0 409.06706114398423 2.656825203929683 6.0 0.0 4.0 
310.0013042135965 92.0 41.0 409.06706114398423 2.8508550546759515 6.0 0.0 4.0 
312.0013042135965 92.0 41.0 409.06706114398423 2.9926460994520716 6.0 0.0 4.0 
314.0013042135965 92.0 41.0 409.06706114398423 3.3807058009446087 6.0 0.0 4.0 
316.0013042135965 92.0 41.0 409.06706114398423 3.7687655024371454 6.0 0.0 4.0 
318.0013042135965 90.0 40.0 409.06706114398423 3.343189056358289 6.0 0.0 4.0 
320.0013042135965 88.0 39.0 409.06706114398423 2.811226804179186 6.0 0.0 4.0 
322.0013042135965 86.0 38.0 409.06706114398423 2.3152903225806605 6.0 0.0 4.0 
324.0013042135965 86.0 38.0 409.06706114398423 2.412064516129048 6.0 0.0 4.0 
326.0013042135965 86.0 38.0 409.06706114398423 2.67012903225808 6.0 0.0 4.0 
328.0013042135965 86.0 38.0 409.06706114398423 2.9281935483871124 6.0 0.0 4.0 
330.0013042135965 86.0 38.0 409.06706114398423 2.4281935483871124 6.0 0.0 4.0 
332.0013042135965 84.0 37.0 409.06706114398423 1.4724666666666821 6.0 0.0 4.0 
334.0013042135965 84.0 37.0 409.06706114398423 1.6724666666666819 6.0 0.0 4.0 
336.0013042135965 84.0 37.0 409.06706114398423 1.872466666666682 6.0 0.0 4.0 
338.0013042135965 84.0 37.0 409.06706114398423 2.0724666666666822 6.0 0.0 4.0 
340.0013042135965 84.0 37.0 409.06706114398423 2.272466666666682 6.0 0.0 4.0 
342.0013042135965 82.0 36.0 409.06706114398423 1.2956551724138083 6.0 0.0 4.0 
344.0013042135965 82.0 36.0 409.06706114398423 1.2611724137931182 6.0 0.0 4.0 
346.0013042135965 82.0 36.0 409.06706114398423 1.3991034482758773 6.0 0.0 4.0 
348.0013042135965 82.0 36.0 409.06706114398423 1.537034482758636 6.0 0.0 4.0 
350.0013042135965 82.0 36.0 409.06706114398423 0.9680689655172566 6.0 0.0 4.0 
352.0013042135965 82.0 36.0 409.06706114398423 0.7439310344827736 6.0 0.0 4.0 
354.0013042135965 82.0 36.0 409.06706114398423 0.8818620689655324 6.0 0.0 4.0 
356.0013042135965 82.0 36.0 409.06706114398423 1.019793103448291 6.0 0.0 4.0 
358.0013042135965 82.0 36.0 409.06706114398423 1.1577241379310497 6.0 0.0 4.0 
360.0013042135965 82.0 36.0 409.06706114398423 1.2956551724138083 6.0 0.0 4.0 
362.0013042135965 82.0 36.0 409.06706114398423 1.2611724137931184 6.0 0.0 4.0 
364.0013042135965 82.0 36.0 409.06706114398423 1.2266896551724291 6.0 0.0 4.0 
366.0013042135965 82.0 36.0 409.06706114398423 1.3646206896551878 6.0 0.0 4.0 
368.0013042135965 82.0 36.0 409.06706114398423 1.5025517241379462 6.0 0.0 4.0 
370.0013042135965 82.0 36.0 409.06706114398423 0.9508275862069117 6.0 0.0 4.0 
372.0013042135965 82.0 36.0 409.06706114398423 0.7439310344827736 6.0 0.0 4.0 
374.0013042135965 82.0 36.0 409.06706114398423 0.8818620689655324 6.0 0.0 4.0 
376.0013042135965 82.0 36.0 409.06706114398423 1.019793103448291 6.0 0.0 4.0 
378.0013042135965 82.0 36.0 409.06706114398423 1.1577241379310497 6.0 0.0 4.0 
380.0013042135965 82.0 36.0 409.06706114398423 1.2956551724138083 6.0 0.0 4.0 
382.0013042135965 82.0 36.0 409.06706114398423 1.2611724137931184 6.0 0.0 4.0 
384.0013042135965 82.0 36.0 409.06706114398423 1.2266896551724291 6.0 0.0 4.0 
386.0013042135965 82.0 36.0 409.06706114398423 1.3646206896551878 6.0 0.0 4.0 
388.0013042135965 82.0 36.0 409.06706114398423 1.5025517241379462 6.0 0.0 4.0 
390.0013042135965 82.0 36.0 409.06706114398423 0.9508275862069117 6.0 0.0 4.0 
392.0013042135965 82.0 36.0 409.06706114398423 0.7439310344827736 6.0 0.0 4.0 
394.0013042135965 82.0 36.0 409.06706114398423 0.8818620689655324 6.0 0.0 4.0 
396.0013042135965 82.0 36.0 409.06706114398423 1.019793103448291 6.0 0.0 4.0 
398.0013042135965 82.0 36.0 409.06706114398423 1.1577241379310497 6.0 0.0 4.0 
400.0013042135965 82.0 36.0 409.06706114398423 1.2956551724138083 6.0 0.0 4.0 
402.0013042135965 82.0 36.0 409.06706114398423 1.2611724137931184 6.0 0.0 4.0 
404.0013042135965 82.0 36.0 409.06706114398423 1.2266896551724291 6.0 0.0 4.0 
406.0013042135965 82.0 36.0 409.06706114398423 1.3646206896551878 6.0 0.0 4.0 
408.0013042135965 82.0 36.0 409.06706114398423 1.5025517241379462 6.0 0.0 4.0 
410.0013042135965 82.0 36.0 409.06706114398423 1.3689310344827736 6.0 0.0 4.0 
412.0013042135965 82.0 36.0 409.06706114398423 0.709448275862084 6.0 0.0 4.0 
414.0013042135965 82.0 36.0 409.06706114398423 0.8473793103448427 6.0 0.0 4.0 
416.0013042135965 82.0 36.0 409.06706114398423 0.9853103448276014 6.0 0.0 4.0 
418.0013042135965 82.0 36.0 409.06706114398423 1.12324137931036 6.0 0.0 4.0 
420.0013042135965 82.0 36.0 409.06706114398423 1.2611724137931184 6.0 0.0 4.0 
422.0013042135965 82.0 36.0 409.06706114398423 1.2266896551724291 6.0 0.0 4.0 
424.0013042135965 82.0 36.0 409.06706114398423 1.1922068965517394 6.0 0.0 4.0 
426.0013042135965 86.0 38.0 409.06706114398423 1.2830322580645317 6.0 0.0 4.0 
428.0013042135965 86.0 38.0 409.06706114398423 1.4120645161290477 6.0 0.0 4.0 
430.0013042135965 86.0 38.0 409.06706114398423 1.2991612903225962 6.0 0.0 4.0 
432.0013042135965 86.0 38.0 409.06706114398423 0.7023870967742092 6.0 0.0 4.0 
434.0013042135965 86.0 38.0 409.06706114398423 0.8314193548387253 6.0 0.0 4.0 
436.0013042135965 86.0 38.0 409.06706114398423 1.0572258064516287 6.0 0.0 4.0 
438.0013042135965 86.0 38.0 409.06706114398423 1.3152903225806607 6.0 0.0 4.0 
440.0013042135965 86.0 38.0 409.06706114398423 1.573354838709693 6.0 0.0 4.0 
442.0013042135965 86.0 38.0 409.06706114398423 1.6701290322580802 6.0 0.0 4.0 
444.0013042135965 86.0 38.0 409.06706114398423 1.7669032258064672 6.0 0.0 4.0 
446.0013042135965 86.0 38.0 409.06706114398423 2.0249677419354994 6.0 0.0 4.0 
448.0013042135965 86.0 38.0 409.06706114398423 2.283032258064532 6.0 0.0 4.0 
450.0013042135965 86.0 38.0 409.06706114398423 2.541096774193564 6.0 0.0 4.0 
452.0013042135965 86.0 38.0 409.06706114398423 1.799161290322596 6.0 0.0 4.0 
454.0013042135965 86.0 38.0 409.06706114398423 2.0572258064516284 6.0 0.0 4.0 
456.0013042135965 86.0 38.0 409.06706114398423 2.3152903225806605 6.0 0.0 4.0 
458.0013042135965 86.0 38.0 409.06706114398423 2.5733548387096925 6.0 0.0 4.0 
460.0013042135965 86.0 38.0 409.06706114398423 2.831419354838725 6.0 0.0 4.0 
462.0013042135965 86.0 38.0 409.06706114398423 2.928193548387112 6.0 0.0 4.0 
464.0013042135965 84.0 37.0 409.06706114398423 2.105800000000015 6.0 0.0 4.0 
466.0013042135965 82.0 36.0 409.06706114398423 1.2956551724138083 6.0 0.0 4.0 
468.0013042135965 82.0 36.0 409.06706114398423 1.4335862068965666 6.0 0.0 4.0 
470.0013042135965 82.0 36.0 409.06706114398423 1.5715172413793255 6.0 0.0 4.0 
472.0013042135965 82.0 36.0 409.06706114398423 1.002551724137946 6.0 0.0 4.0 
474.0013042135965 82.0 36.0 409.06706114398423 0.7784137931034634 6.0 0.0 4.0 
476.0013042135965 82.0 36.0 409.06706114398423 0.9163448275862219 6.0 0.0 4.0 
478.0013042135965 82.0 36.0 409.06706114398423 1.0542758620689807 6.0 0.0 4.0 
480.0013042135965 82.0 36.0 409.06706114398423 1.1922068965517394 6.0 0.0 4.0 
482.0013042135965 86.0 38.0 409.06706114398423 1.163763464608524 6.0 0.0 4.0 
484.0013042135965 88.0 38.0 409.06706114398423 1.111889270042527 6.0 0.0 4.0 
486.0013042135965 90.0 39.0 409.06706114398423 1.2309629717927788 6.0 0.0 4.0 
488.0013042135965 90.0 39.0 409.06706114398423 1.362110512776385 6.0 0.0 4.0 
490.0013042135965 90.0 39.0 409.06706114398423 1.4932580537599924 6.0 0.0 4.0 
492.0013042135965 90.0 39.0 409.06706114398423 1.5817826439239273 6.0 0.0 4.0 
494.0013042135965 90.0 39.0 409.06706114398423 0.8440777258911402 6.0 0.0 4.0 
496.0013042135965 90.0 39.0 409.06706114398423 1.0407990373665499 6.0 0.0 4.0 
498.0013042135965 90.0 39.0 409.06706114398423 1.2375203488419597 6.0 0.0 4.0 
500.0013042135965 90.0 39.0 409.06706114398423 1.4342416603173698 6.0 0.0 4.0 
502.0013042135965 90.0 39.0 409.06706114398423 1.4670285455632714 6.0 0.0 4.0 
504.0013042135965 90.0 39.0 409.06706114398423 1.5080121521206482 6.0 0.0 4.0 
506.0013042135965 90.0 39.0 409.06706114398423 1.7637498570386816 6.0 0.0 4.0 
508.0013042135965 90.0 39.0 409.06706114398423 2.009651496382945 6.0 0.0 4.0 
510.0013042135965 90.0 39.0 409.06706114398423 2.255553135727207 6.0 0.0 4.0 
512.0013042135965 90.0 39.0 409.06706114398423 2.419487561956715 6.0 0.0 4.0 
514.0013042135965 90.0 39.0 409.06706114398423 1.7637498570386931 6.0 0.0 4.0 
516.0013042135965 90.0 39.0 409.06706114398423 2.009651496382956 6.0 0.0 4.0 
518.0013042135965 90.0 39.0 409.06706114398423 2.2555531357272187 6.0 0.0 4.0 
520.0013042135965 90.0 39.0 409.06706114398423 2.1812267237539986 6.0 0.0 4.0 
522.0013042135965 88.0 39.0 409.06706114398423 1.5159474399896842 6.0 0.0 4.0 
524.0013042135965 88.0 39.0 409.06706114398423 1.532076472247749 6.0 0.0 4.0 
526.0013042135965 88.0 39.0 409.06706114398423 1.7094958270864586 6.0 0.0 4.0 
528.0013042135965 88.0 39.0 409.06706114398423 1.886915181925168 6.0 0.0 4.0 
530.0013042135965 88.0 39.0 409.06706114398423 2.064334536763878 6.0 0.0 4.0 
532.0013042135965 89.0 39.0 409.06706114398423 2.160683833938851 6.0 0.0 4.0 
534.0013042135965 88.0 38.0 409.06706114398423 0.7704590163934676 6.0 0.0 4.0 
536.0013042135965 88.0 38.0 409.06706114398423 0.8155409836065824 6.0 0.0 4.0 
538.0013042135965 92.0 39.0 409.06706114398423 0.9378709677419617 6.0 0.0 4.0 
540.0013042135965 92.0 39.0 409.06706114398423 1.1152903225806712 6.0 0.0 4.0 
542.0013042135965 92.0 39.0 409.06706114398423 1.1475483870968002 6.0 0.0 4.0 
544.0013042135965 92.0 39.0 409.06706114398423 1.1798064516129292 6.0 0.0 4.0 
546.0013042135965 92.0 39.0 409.06706114398423 1.3733548387097034 6.0 0.0 4.0 
548.0013042135965 92.0 39.0 409.06706114398423 1.6217419354838967 6.0 0.0 4.0 
550.0013042135965 92.0 39.0 409.06706114398423 1.8798064516129291 6.0 0.0 4.0 
552.0013042135965 92.0 39.0 409.06706114398423 2.057225806451638 6.0 0.0 4.0 
554.0013042135965 92.0 39.0 409.06706114398423 2.073354838709703 6.0 0.0 4.0 
556.0013042135965 92.0 39.0 409.06706114398423 1.654000000000026 6.0 0.0 4.0 
558.0013042135965 92.0 39.0 409.06706114398423 1.912064516129058 6.0 0.0 4.0 
560.0013042135965 92.0 39.0 409.06706114398423 2.17012903225809 6.0 0.0 4.0 
562.0013042135965 92.0 39.0 409.06706114398423 2.2669032258064776 6.0 0.0 4.0 
564.0013042135965 94.0 39.0 409.06706114398423 2.328805710776533 6.0 0.0 4.0 
566.0013042135965 98.0 41.0 411.3412228796846 2.5524228111412044 7.0 0.0 5.0 
568.0013042135965 98.0 40.0 411.32938856015767 2.3812857778586287 7.0 0.0 5.0 
570.0013042135965 98.0 41.0 411.32938856015767 2.1729356316540254 7.0 0.0 5.0 
572.0013042135965 98.0 41.0 411.32938856015767 2.321653580371974 7.0 0.0 5.0 
574.0013042135965 98.0 41.0 411.32938856015767 2.3165253752437684 7.0 0.0 5.0 
576.0013042135965 96.0 41.0 411.32938856015767 1.5096757943626504 7.0 0.0 5.0 
578.0013042135965 94.0 40.0 411.32938856015767 1.2985544175652848 7.0 0.0 5.0 
580.0013042135965 94.0 40.0 411.32938856015767 1.5902210842319517 7.0 0.0 5.0 
582.0013042135965 94.0 40.0 411.32938856015767 1.395721084231951 9.0 0.0 5.0 
584.0013042135965 94.0 40.0 411.32938856015767 1.5311377508986181 9.0 0.0 5.0 
586.0013042135965 96.0 40.0 415.8796844181463 1.8001875000000194 9.0 0.0 7.0 
588.0013042135965 96.0 40.0 415.8678500986195 2.1439375000000194 9.0 0.0 7.0 
590.0013042135965 96.0 40.0 415.8678500986195 2.4876875000000194 9.0 0.0 7.0 
592.0013042135965 98.0 41.0 415.8678500986195 2.688060606060626 9.0 0.0 7.0 
594.0013042135965 100.0 42.0 415.871794871795 2.729588235294137 9.0 0.0 7.0 
596.0013042135965 100.0 42.0 415.8678500986195 2.4648823529411965 9.0 0.0 7.0 
598.0013042135965 100.0 42.0 415.871794871795 2.554176470588255 9.0 0.0 7.0 
600.0013042135965 100.0 42.0 415.871794871795 2.877705882352961 9.0 0.0 7.0 
602.0013042135965 102.0 43.0 415.8796844181463 2.5458857142857356 9.0 0.0 7.0 
604.0013042135965 102.0 43.0 415.87573964497034 2.831600000000021 9.0 0.0 7.0 
606.0013042135965 100.0 42.0 415.87573964497034 2.4266470588235496 9.0 0.0 7.0 
608.0013042135965 98.0 41.0 415.87573964497034 1.9516969696969906 9.0 0.0 7.0 
610.0013042135965 98.0 41.0 415.87573964497034 2.285030303030324 9.0 0.0 7.0 
612.0013042135965 98.0 41.0 415.87771203155796 2.450606060606082 9.0 0.0 7.0 
614.0013042135965 98.0 41.0 415.8698224852071 2.5263636363636572 9.0 0.0 7.0 
616.0013042135965 98.0 41.0 415.8658777120317 2.363484848484869 9.0 0.0 7.0 
618.0013042135965 98.0 41.0 415.8658777120317 2.1932121212121425 9.0 0.0 7.0 
620.0013042135965 98.0 41.0 415.8658777120317 2.5871515151515365 9.0 0.0 7.0 
622.0013042135965 98.0 41.0 415.8658777120317 2.8295757575757796 9.0 0.0 7.0 
624.0013042135965 98.0 41.0 415.8658777120317 3.0720000000000214 9.0 0.0 7.0 
626.0013042135965 98.0 41.0 415.8658777120317 3.465939393939416 9.0 0.0 7.0 
628.0013042135965 98.0 41.0 415.8658777120317 3.618545454545476 9.0 0.0 7.0 
630.0013042135965 98.0 41.0 415.8658777120317 4.0124848484848705 9.0 0.0 7.0 
632.0013042135965 94.0 39.0 415.8658777120317 2.684258064516151 9.0 0.0 7.0 
634.0013042135965 94.0 39.0 415.8658777120317 2.374741935483892 9.0 0.0 7.0 
636.0013042135965 94.0 39.0 415.8658777120317 2.411032258064537 9.0 0.0 7.0 
638.0013042135965 94.0 39.0 415.8658777120317 2.0239354838709884 9.0 0.0 7.0 
640.0013042135965 92.0 38.0 415.8658777120317 1.3880666666666872 9.0 0.0 7.0 
642.0013042135965 92.0 38.0 415.8658777120317 1.4547333333333536 9.0 0.0 7.0 
644.0013042135965 92.0 38.0 415.8658777120317 1.2714000000000205 9.0 0.0 7.0 
646.0013042135965 92.0 38.0 415.8658777120317 1.5047333333333541 9.0 0.0 7.0 
648.0013042135965 92.0 38.0 415.8658777120317 1.5714000000000203 9.0 0.0 7.0 
650.0013042135965 92.0 38.0 415.8658777120317 1.4547333333333539 9.0 0.0 7.0 
652.0013042135965 95.0 39.0 415.8658777120317 1.642289998726992 10.0 0.0 7.0 
654.0013042135965 99.0 40.0 415.8658777120317 1.78162472567583 10.0 0.0 7.0 
656.0013042135965 99.0 40.0 415.8658777120317 1.646704090755195 10.0 0.0 7.0 
658.0013042135965 100.0 40.0 415.8658777120317 1.0140890800497462 10.0 0.0 7.0 
660.0013042135965 100.0 40.0 415.8658777120317 1.2283747943354604 10.0 0.0 7.0 
662.0013042135965 100.0 40.0 415.8658777120317 1.3632954292560953 10.0 0.0 7.0 
664.0013042135965 100.0 40.0 415.8658777120317 1.3561525721132377 10.0 0.0 7.0 
#####################################################################
# End of data export. Simulation finished at: 2019-03-04T13:16+0000 #
#####################################################################
