#####################################################################
# Alchemist log file - simulation started at: 2019-03-13T10:00+0000 #
#####################################################################
# seed = 5.0, bandwidth = 5623413.251903491, accessPointCount = 37.60603093086394, baserange = 100.0
#
# The columns have the following meaning: 
# time neighbor_count[Sum] <value>@neighbor_count[Sum] packet_size[Mean] mean_delay[Mean] crowd[Sum] overcrowded[Sum] risk[Sum] 
0.0 NaN NaN NaN NaN NaN NaN NaN 
2.000101793669918 255.0 65.0 4987.801825293351 0.5191680162205783 1497.0 0.0 1497.0 
4.000101793669918 385.0 65.0 4988.185136897001 0.5078700413425411 1496.0 1.0 1496.0 
6.000101793669918 459.0 65.0 4988.12516297262 0.5072764269198744 1497.0 0.0 1497.0 
8.000101793669918 509.0 66.0 4988.166883963494 0.528216244936614 1496.0 1.0 1496.0 
10.000101793669918 524.0 65.0 4988.057366362451 0.5005590466014418 1492.0 5.0 1492.0 
12.000101793669918 530.0 65.0 4988.099087353325 0.5013956408081419 1492.0 5.0 1492.0 
14.000101793669918 530.0 65.0 4987.99739243807 0.501400467425904 1492.0 5.0 1492.0 
16.00010179366992 530.0 65.0 4987.966101694915 0.5014023461573663 1492.0 5.0 1492.0 
18.00010179366992 530.0 65.0 4987.960886571056 0.5014013669572001 1492.0 5.0 1492.0 
20.00010179366992 530.0 65.0 4988.023468057367 0.5014026372089714 1492.0 5.0 1492.0 
22.00010179366992 530.0 65.0 4987.911342894394 0.5014041377450431 1492.0 5.0 1492.0 
24.00010179366992 530.0 65.0 4988.005215123859 0.5014019561938194 1492.0 5.0 1492.0 
26.00010179366992 530.0 65.0 4987.963494132986 0.5014023253636494 1491.0 6.0 1491.0 
28.00010179366992 530.0 65.0 4987.921773142112 0.501403516688887 1492.0 5.0 1492.0 
30.00010179366992 530.0 65.0 4987.947848761408 0.5014020845031432 1491.0 6.0 1491.0 
32.00010179366992 530.0 65.0 4988.020860495437 0.501401910968442 1491.0 6.0 1491.0 
34.00010179366992 530.0 65.0 4987.903520208605 0.5014033699381485 1492.0 5.0 1492.0 
36.00010179366992 530.0 65.0 4987.984354628423 0.5014015908293625 1491.0 6.0 1491.0 
38.00010179366992 530.0 65.0 4987.908735332464 0.5014031133682881 1491.0 6.0 1491.0 
40.00010179366992 530.0 65.0 4988.005215123859 0.5014031070747889 1492.0 5.0 1492.0 
42.00010179366992 530.0 65.0 4987.911342894394 0.5014017758289653 1491.0 6.0 1491.0 
44.00010179366992 532.0 66.0 4987.9713168187745 0.5013472514098075 1491.0 6.0 1491.0 
46.00010179366992 532.0 66.0 4987.940026075619 0.5013482550069075 1492.0 5.0 1492.0 
48.00010179366992 532.0 66.0 4987.973924380704 0.5013463793625336 1491.0 6.0 1491.0 
50.00010179366992 532.0 66.0 4987.932203389831 0.5013470417299543 1491.0 6.0 1491.0 
52.00010179366992 532.0 66.0 4987.979139504563 0.5013482161561446 1492.0 5.0 1492.0 
54.00010179366992 532.0 66.0 4987.911342894394 0.5013466518892095 1491.0 6.0 1491.0 
56.00010179366992 532.0 66.0 4987.976531942633 0.5013472514098075 1491.0 6.0 1491.0 
58.00010179366992 532.0 66.0 4987.9530638852675 0.5013480213309947 1492.0 5.0 1492.0 
60.00010179366992 532.0 66.0 4984.97001303781 0.5013463645078301 1490.0 6.0 1490.0 
62.00000817355984 532.0 66.0 493.01694915254234 0.5027136243355238 48.0 6.0 25.0 
64.00000817355983 532.0 66.0 492.97001303780945 0.5029468837277239 38.0 5.0 26.0 
66.00000817355983 532.0 66.0 492.93872229465444 0.5029481920202094 37.0 6.0 25.0 
68.00000817355983 532.0 66.0 492.9282920469361 0.5029488953332868 33.0 6.0 25.0 
70.00000817355983 532.0 66.0 492.9282920469361 0.5029490304539553 34.0 5.0 26.0 
72.00000817355983 532.0 66.0 492.9282920469361 0.5029490518790084 33.0 6.0 25.0 
74.00000817355983 532.0 66.0 492.9282920469361 0.5029490518790084 33.0 6.0 25.0 
76.00000817355983 532.0 66.0 492.9335071707953 0.5029490518790084 34.0 5.0 26.0 
78.00000817355983 532.0 66.0 492.9282920469361 0.50294891675834 33.0 6.0 25.0 
80.00000817355983 532.0 66.0 492.9282920469361 0.5029490518790084 33.0 6.0 25.0 
82.00000817355983 532.0 66.0 492.9282920469361 0.5029490518790084 34.0 5.0 26.0 
84.00000817355983 532.0 66.0 492.9282920469361 0.5029490518790084 33.0 6.0 25.0 
86.00000817355983 532.0 66.0 492.9335071707953 0.5029490518790084 33.0 6.0 25.0 
88.00000817355983 532.0 66.0 492.9282920469361 0.50294891675834 34.0 5.0 26.0 
90.00000817355983 532.0 66.0 492.9282920469361 0.5029490518790084 33.0 6.0 25.0 
92.00000817355983 532.0 66.0 492.9282920469361 0.5029490518790084 33.0 6.0 25.0 
94.00000817355983 536.0 67.0 492.9282920469361 0.5284084903529518 34.0 5.0 26.0 
96.00000817355983 534.0 66.0 492.9335071707953 0.506745391691066 33.0 6.0 25.0 
98.00000817355983 533.0 66.0 492.9282920469361 0.5101381112403116 33.0 6.0 25.0 
100.00000817355983 532.0 66.0 492.9282920469361 0.5041368372837751 34.0 5.0 26.0 
102.00000817355983 532.0 66.0 492.9282920469361 0.5041368372837751 33.0 6.0 25.0 
104.00000817355983 532.0 66.0 492.9282920469361 0.5346266662196889 33.0 6.0 25.0 
106.00000817355983 528.0 65.0 492.9413298565843 0.5148031516098103 34.0 5.0 26.0 
108.00000817355983 523.0 65.0 492.9204693611472 0.5387648676429085 33.0 6.0 25.0 
110.00000817355983 517.0 64.0 492.9204693611472 0.5335331506410412 33.0 6.0 25.0 
112.00000817355983 516.0 63.0 492.9204693611472 0.5027999822031105 34.0 5.0 26.0 
114.00000817355983 516.0 63.0 492.9204693611472 0.5027999822031105 33.0 6.0 25.0 
116.00000817355983 516.0 63.0 492.9204693611472 0.5027999822031105 33.0 6.0 25.0 
118.00000817355983 516.0 63.0 492.9204693611472 0.5027999822031105 34.0 5.0 26.0 
120.00000817355983 520.0 64.0 492.9204693611472 0.5020581680171723 33.0 6.0 25.0 
122.00000817355983 520.0 64.0 492.9204693611472 0.5020581680171723 33.0 6.0 25.0 
124.00000817355983 520.0 64.0 492.9204693611472 0.5020581680171723 34.0 5.0 26.0 
126.00000817355983 520.0 64.0 492.9204693611472 0.5020581680171723 33.0 6.0 25.0 
128.00000817355985 521.0 64.0 492.9204693611472 0.4984712170421126 33.0 6.0 25.0 
130.00000817355985 522.0 65.0 492.9204693611472 0.5308140797763702 34.0 5.0 26.0 
132.00000817355985 518.0 64.0 492.9204693611472 0.5027282043686226 33.0 6.0 25.0 
134.00000817355985 518.0 64.0 492.9204693611472 0.5027282043686226 33.0 6.0 25.0 
136.00000817355985 518.0 64.0 492.9204693611472 0.5027282043686226 34.0 5.0 26.0 
138.00000817355985 531.0 64.0 495.91916558018244 0.49903685425064065 34.0 6.0 26.0 
140.00000817355985 550.0 65.0 495.9530638852675 0.5028871088911754 32.0 8.0 24.0 
142.00000817355985 550.0 65.0 495.9374185136897 0.5028876987864872 32.0 8.0 24.0 
144.00000817355985 550.0 65.0 495.9322033898306 0.5028883517553084 31.0 9.0 23.0 
146.00000817355985 550.0 65.0 495.92698826597115 0.5028886428358745 31.0 9.0 23.0 
148.00000817355985 550.0 65.0 495.9322033898306 0.5152341989640044 32.0 8.0 24.0 
150.00000817355985 551.0 65.0 495.9322033898306 0.5320289411918492 31.0 9.0 23.0 
152.00000817355985 550.0 64.0 495.92698826597115 0.503514202440997 31.0 9.0 23.0 
154.00000817355985 550.0 64.0 495.92698826597115 0.5035142204488897 32.0 8.0 24.0 
156.00000817355985 550.0 64.0 495.92698826597115 0.5035142204488897 31.0 9.0 23.0 
158.00000817355985 550.0 64.0 495.9322033898306 0.503514094453681 31.0 9.0 23.0 
160.00000817355985 550.0 64.0 495.9374185136897 0.5035133016132566 32.0 8.0 24.0 
162.00000817355985 550.0 64.0 495.92698826597115 0.503514202440997 31.0 9.0 23.0 
164.00000817355985 550.0 64.0 495.92698826597115 0.5035142204488897 31.0 9.0 23.0 
166.00000817355985 550.0 64.0 492.93611473272466 0.5035142204488897 31.0 8.0 23.0 
168.00000817355985 551.0 64.0 492.94132985658416 0.5035575128425382 30.0 9.0 22.0 
170.00000817355985 552.0 64.0 489.9582790091266 0.5003490040517704 30.0 9.0 21.0 
172.00000817355985 552.0 64.0 489.9322033898307 0.5003501975313078 31.0 8.0 22.0 
174.00000817355985 552.0 64.0 489.9322033898307 0.5003503661051927 30.0 9.0 21.0 
176.00000817355985 552.0 64.0 489.9322033898307 0.5003503661051927 30.0 9.0 21.0 
178.00000817355985 552.0 64.0 489.93741851368975 0.500350240109984 31.0 8.0 22.0 
180.00000817355985 552.0 64.0 489.9322033898307 0.500350034896201 30.0 9.0 21.0 
182.00000817355985 552.0 64.0 489.9322033898307 0.5003503661051927 30.0 9.0 21.0 
184.00000817355985 552.0 64.0 489.9322033898307 0.5003503661051927 31.0 8.0 22.0 
186.00000817355985 552.0 64.0 489.9322033898307 0.5003503661051927 30.0 9.0 21.0 
188.00000817355985 552.0 64.0 489.9322033898307 0.5003503661051927 30.0 9.0 21.0 
190.00000817355985 552.0 64.0 489.9322033898307 0.5003503435953268 31.0 8.0 22.0 
192.00000817355985 552.0 64.0 489.9322033898307 0.5003503661051927 30.0 9.0 21.0 
194.00000817355985 552.0 64.0 489.9322033898307 0.5003503661051927 30.0 9.0 21.0 
196.00000817355985 552.0 64.0 489.9322033898307 0.5003503661051927 31.0 8.0 22.0 
198.00000817355985 552.0 64.0 489.93741851368975 0.5108993635798271 30.0 9.0 21.0 
200.00000817355985 550.0 63.0 489.9322033898307 0.5300631109280998 30.0 9.0 21.0 
202.00000817355985 548.0 63.0 489.9322033898307 0.502815431536871 31.0 8.0 22.0 
204.00000817355985 548.0 63.0 489.9322033898307 0.502815431536871 30.0 9.0 21.0 
206.00000817355985 548.0 63.0 489.9322033898307 0.502815431536871 30.0 9.0 21.0 
208.00000817355985 548.0 63.0 489.93741851368975 0.5028153039263391 31.0 8.0 22.0 
210.00000817355985 548.0 63.0 489.9322033898307 0.5028151549764399 30.0 9.0 21.0 
212.00000817355985 548.0 63.0 489.9322033898307 0.502815431536871 30.0 9.0 21.0 
214.00000817355985 548.0 63.0 489.9322033898307 0.502815431536871 31.0 8.0 22.0 
216.00000817355985 548.0 63.0 489.9322033898307 0.502815431536871 30.0 9.0 21.0 
218.00000817355985 548.0 63.0 489.93741851368975 0.5028153039263391 30.0 9.0 21.0 
220.00000817355985 548.0 63.0 489.9322033898307 0.5028151549764399 31.0 8.0 22.0 
222.00000817355985 548.0 63.0 489.9322033898307 0.502815431536871 30.0 9.0 21.0 
224.00000817355985 548.0 63.0 489.9322033898307 0.502815431536871 30.0 9.0 21.0 
226.00000817355985 548.0 63.0 489.9322033898307 0.502815431536871 31.0 8.0 22.0 
228.00000817355985 548.0 63.0 489.93741851368975 0.5028153039263391 30.0 9.0 21.0 
230.00000817355985 548.0 63.0 489.9322033898307 0.5028151549764399 30.0 9.0 21.0 
232.00000817355985 548.0 63.0 489.9322033898307 0.502815431536871 31.0 8.0 22.0 
234.00000817355985 548.0 63.0 489.9322033898307 0.502815431536871 30.0 9.0 21.0 
236.00000817355985 548.0 63.0 489.9322033898307 0.502815431536871 30.0 9.0 21.0 
238.00000817355985 548.0 63.0 489.93741851368975 0.5028153039263391 31.0 8.0 22.0 
240.00000817355985 550.0 63.0 489.9322033898307 0.5033224503505441 30.0 9.0 21.0 
242.00000817355985 550.0 63.0 489.9322033898307 0.5033227529663513 30.0 9.0 21.0 
244.00000817355985 550.0 63.0 489.9322033898307 0.5033227529663513 31.0 8.0 22.0 
246.00000817355985 550.0 63.0 489.9322033898307 0.5033227529663513 30.0 9.0 21.0 
248.00000817355985 550.0 63.0 489.93741851368975 0.5033226253558194 30.0 9.0 21.0 
250.00000817355985 550.0 63.0 486.94132985658433 0.5033977618514663 31.0 8.0 21.0 
252.00000817355985 550.0 63.0 486.94132985658433 0.5033980644672735 30.0 9.0 20.0 
254.00000817355985 550.0 63.0 486.94132985658433 0.5033980644672735 30.0 9.0 20.0 
256.0000081735598 550.0 63.0 486.94132985658433 0.5033980644672735 31.0 8.0 21.0 
258.0000081735598 550.0 63.0 486.94654498044326 0.5033979368567345 30.0 9.0 20.0 
260.0000081735598 550.0 63.0 486.94132985658433 0.5033977846499134 30.0 9.0 20.0 
262.0000081735598 550.0 63.0 486.94132985658433 0.5033980644672662 31.0 8.0 21.0 
264.0000081735598 550.0 63.0 486.94132985658433 0.5033980644672662 30.0 9.0 20.0 
266.0000081735598 550.0 63.0 486.94132985658433 0.5033980644672662 30.0 9.0 20.0 
268.0000081735598 550.0 63.0 486.94654498044326 0.5033979368567345 31.0 8.0 21.0 
270.0000081735598 550.0 63.0 489.947848761408 0.5033325938386796 30.0 9.0 21.0 
272.0000081735598 550.0 63.0 489.9322033898307 0.503322752966344 30.0 9.0 21.0 
274.0000081735598 550.0 63.0 489.9322033898307 0.503322752966344 31.0 8.0 22.0 
276.0000081735598 550.0 63.0 489.9322033898307 0.503322752966344 30.0 9.0 21.0 
278.0000081735598 551.0 63.0 489.93741851368975 0.5032543276263387 30.0 9.0 21.0 
280.0000081735598 552.0 63.0 489.9322033898307 0.5034391176963872 31.0 8.0 22.0 
282.0000081735598 552.0 63.0 489.9322033898307 0.5034394496244919 30.0 9.0 21.0 
284.0000081735598 552.0 63.0 489.9322033898307 0.5034394496244919 30.0 9.0 21.0 
286.0000081735598 552.0 63.0 489.9322033898307 0.5034394496244919 31.0 8.0 22.0 
288.0000081735598 552.0 63.0 489.93741851368975 0.5034393220139602 30.0 9.0 21.0 
290.0000081735598 552.0 63.0 489.9322033898307 0.5034391176963872 30.0 9.0 21.0 
292.0000081735598 552.0 63.0 489.9322033898307 0.5034394496244919 31.0 8.0 22.0 
294.0000081735598 552.0 63.0 489.9322033898307 0.5034394496244919 30.0 9.0 21.0 
296.0000081735598 552.0 63.0 489.9322033898307 0.5034394496244919 30.0 9.0 21.0 
298.0000081735598 552.0 63.0 489.93741851368975 0.5034393220139602 31.0 8.0 22.0 
300.0000081735598 552.0 63.0 489.9322033898307 0.5034391176963872 30.0 9.0 21.0 
302.0000081735598 552.0 63.0 489.9322033898307 0.5034394496244919 30.0 9.0 21.0 
304.0000081735598 552.0 63.0 489.9322033898307 0.5034394496244919 31.0 8.0 22.0 
306.0000081735598 552.0 63.0 489.9322033898307 0.5034394496244919 30.0 9.0 21.0 
308.0000081735598 552.0 63.0 489.9322033898307 0.5034394496244919 30.0 9.0 21.0 
310.0000081735598 552.0 63.0 489.9322033898307 0.5034394496244919 31.0 8.0 22.0 
312.0000081735598 552.0 63.0 489.9322033898307 0.5034394496244919 30.0 9.0 21.0 
314.0000081735598 552.0 63.0 489.9322033898307 0.5034394496244919 30.0 9.0 21.0 
316.0000081735598 552.0 63.0 489.9322033898307 0.5034394496244919 31.0 8.0 22.0 
318.0000081735598 552.0 63.0 489.93741851368975 0.5034393220139602 30.0 9.0 21.0 
320.0000081735598 552.0 63.0 489.9322033898307 0.5034391176963872 30.0 9.0 21.0 
322.0000081735598 552.0 63.0 489.9322033898307 0.5034394496244919 31.0 8.0 22.0 
324.0000081735598 552.0 63.0 489.9322033898307 0.5034394496244919 30.0 9.0 21.0 
326.0000081735598 552.0 63.0 489.9322033898307 0.5034394496244919 30.0 9.0 21.0 
328.0000081735598 552.0 63.0 489.93741851368975 0.5034393220139602 31.0 8.0 22.0 
330.0000081735598 552.0 63.0 489.9322033898307 0.5034391176963872 30.0 9.0 21.0 
332.0000081735598 552.0 63.0 489.9322033898307 0.5034394496244919 30.0 9.0 21.0 
334.0000081735598 552.0 63.0 489.9322033898307 0.5034394496244919 31.0 8.0 22.0 
336.0000081735598 552.0 63.0 489.9322033898307 0.5034394496244919 30.0 9.0 21.0 
338.0000081735598 552.0 63.0 489.93741851368975 0.5034393220139602 30.0 9.0 21.0 
340.0000081735598 552.0 63.0 489.9322033898307 0.5034391176963872 31.0 8.0 22.0 
342.0000081735598 552.0 63.0 489.9322033898307 0.5034394496244919 30.0 9.0 21.0 
344.0000081735598 554.0 64.0 489.9322033898307 0.5033516851044694 30.0 9.0 21.0 
346.0000081735598 554.0 64.0 489.9322033898307 0.5033516851044694 31.0 8.0 22.0 
348.0000081735598 554.0 64.0 489.93741851368975 0.503351560684201 30.0 9.0 21.0 
350.0000081735598 554.0 64.0 489.9322033898307 0.5033513614745672 30.0 9.0 21.0 
352.0000081735598 558.0 65.0 489.9322033898307 0.5010120624089511 31.0 8.0 22.0 
354.0000081735598 562.0 65.0 489.9322033898307 0.5052008198746559 30.0 9.0 21.0 
356.0000081735598 562.0 65.0 489.9322033898307 0.5052008198746559 30.0 9.0 21.0 
358.0000081735598 562.0 65.0 489.93741851368975 0.5052006928727586 32.0 7.0 23.0 
360.0000081735598 562.0 65.0 489.9322033898307 0.5052004937493728 31.0 8.0 22.0 
362.0000081735598 565.0 65.0 489.9322033898307 0.5030493188679417 31.0 8.0 22.0 
364.0000081735598 570.0 65.0 489.9322033898307 0.541818002652715 32.0 7.0 23.0 
366.0000081735598 568.0 64.0 489.9322033898307 0.5049038035091485 31.0 8.0 22.0 
368.0000081735598 568.0 64.0 489.93741851368975 0.5049036732920132 31.0 8.0 22.0 
370.0000081735598 568.0 64.0 489.9322033898307 0.5049034250634793 32.0 7.0 23.0 
372.0000081735598 572.0 64.0 492.9387222946543 0.5040325972797007 32.0 8.0 23.0 
374.0000081735598 580.0 64.0 492.92829204693624 0.5038182830859914 32.0 8.0 23.0 
376.0000081735598 580.0 64.0 492.92829204693624 0.5038182830859914 33.0 7.0 24.0 
378.0000081735598 580.0 64.0 492.93350717079517 0.5038181557595968 32.0 8.0 23.0 
380.0000081735598 580.0 64.0 492.92829204693624 0.5038179285955585 32.0 8.0 23.0 
382.0000081735598 585.0 64.0 492.93089960886573 0.5023716732244116 32.0 8.0 23.0 
384.0000081735598 594.0 64.0 492.93089960886573 0.53467410017003 31.0 9.0 22.0 
386.0000081735598 558.0 63.0 492.9439374185139 0.5031126589814554 31.0 9.0 22.0 
388.0000081735598 558.0 63.0 492.92829204693624 0.5031125548325518 32.0 8.0 23.0 
390.0000081735598 558.0 63.0 492.923076923077 0.5031123173326911 31.0 9.0 22.0 
392.0000081735598 558.0 63.0 492.93350717079517 0.5031122305923544 31.0 9.0 22.0 
394.0000081735598 558.0 63.0 492.923076923077 0.5031121391430936 32.0 8.0 23.0 
396.0000081735598 558.0 63.0 492.923076923077 0.5031126589814554 31.0 9.0 22.0 
398.0000081735598 558.0 63.0 492.92829204693624 0.5031125548325518 31.0 9.0 22.0 
400.0000081735598 558.0 63.0 492.923076923077 0.5031123173326911 32.0 8.0 23.0 
402.0000081735598 558.0 63.0 492.93350717079517 0.5037532562333801 32.0 8.0 23.0 
404.0000081735598 557.0 63.0 492.9621903520211 0.5064574863203368 32.0 8.0 23.0 
406.0000081735598 556.0 63.0 492.9621903520211 0.5028895499959668 32.0 8.0 23.0 
408.0000081735598 556.0 63.0 492.94132985658433 0.5028910564249046 30.0 10.0 21.0 
410.0000081735598 556.0 63.0 492.93089960886573 0.5028931443411313 29.0 11.0 20.0 
412.0000081735598 556.0 63.0 492.93089960886573 0.5047252415373016 31.0 9.0 22.0 
414.0000081735598 554.0 63.0 492.92568448500685 0.5063126106577449 30.0 10.0 21.0 
416.0000081735598 552.0 63.0 492.92568448500685 0.5033249184375304 30.0 10.0 21.0 
418.0000081735598 552.0 63.0 492.93089960886573 0.503324812284367 31.0 9.0 22.0 
420.0000081735598 552.0 63.0 492.92568448500685 0.5033245650520571 30.0 10.0 21.0 
422.0000081735598 552.0 63.0 492.93089960886573 0.5120755426022773 30.0 10.0 21.0 
424.0000081735598 540.0 62.0 492.923076923077 0.5457002480340971 31.0 9.0 22.0 
426.0000081735598 518.0 62.0 492.9178617992175 0.503447717068525 30.0 10.0 21.0 
428.0000081735598 518.0 62.0 492.923076923077 0.5034476106461313 30.0 10.0 21.0 
430.0000081735598 518.0 62.0 492.9178617992175 0.5034473826554707 31.0 9.0 22.0 
432.0000081735598 518.0 62.0 492.9178617992175 0.503447717068525 30.0 10.0 21.0 
434.0000081735598 518.0 62.0 492.9178617992175 0.503447717068525 30.0 10.0 21.0 
436.0000081735598 518.0 62.0 492.9178617992175 0.503447717068525 31.0 9.0 22.0 
438.0000081735598 518.0 62.0 492.923076923077 0.5041311376454478 30.0 10.0 21.0 
440.0000081735598 517.0 62.0 492.9178617992175 0.5072245002612378 30.0 10.0 21.0 
442.0000081735598 516.0 62.0 492.9178617992175 0.5033258007141668 31.0 9.0 22.0 
444.0000081735598 516.0 62.0 489.9269882659711 0.5033258007141668 29.0 10.0 20.0 
446.0000081735598 516.0 62.0 489.9269882659711 0.5033258007141668 29.0 10.0 20.0 
448.0000081735598 516.0 62.0 489.9322033898307 0.5033256942917732 30.0 9.0 21.0 
450.0000081735598 516.0 62.0 489.9269882659711 0.5033255164492518 29.0 10.0 20.0 
452.0000081735598 516.0 62.0 489.9269882659711 0.5033258007141668 29.0 10.0 20.0 
454.0000081735598 516.0 62.0 489.9269882659711 0.5033258007141668 30.0 9.0 21.0 
456.0000081735598 516.0 62.0 489.9269882659711 0.5033258007141668 29.0 10.0 20.0 
458.0000081735598 518.0 63.0 489.9322033898307 0.5032396987103002 29.0 10.0 20.0 
460.0000081735598 518.0 63.0 489.9269882659711 0.5032395253701211 30.0 9.0 21.0 
462.0000081735598 518.0 63.0 489.9269882659711 0.503239802438456 29.0 10.0 20.0 
464.0000081735598 518.0 63.0 489.9269882659711 0.503239802438456 29.0 10.0 20.0 
466.0000081735598 518.0 63.0 489.9269882659711 0.503239802438456 30.0 9.0 21.0 
468.0000081735598 518.0 63.0 489.9322033898307 0.5032396987103002 29.0 10.0 20.0 
470.0000081735598 518.0 63.0 489.9269882659711 0.5032395253701211 29.0 10.0 20.0 
472.0000081735598 518.0 63.0 489.9269882659711 0.503239802438456 30.0 9.0 21.0 
474.0000081735598 518.0 63.0 489.9269882659711 0.5158980302865572 29.0 10.0 20.0 
476.0000081735598 517.0 63.0 489.9269882659711 0.5351151132376093 29.0 10.0 20.0 
478.0000081735598 516.0 62.0 489.9322033898307 0.5033256942917732 30.0 9.0 21.0 
480.0000081735598 516.0 62.0 489.9269882659711 0.5033255164492518 29.0 10.0 20.0 
482.0000081735598 516.0 62.0 486.93611473272466 0.5033258007141668 28.0 10.0 19.0 
484.0000081735598 516.0 62.0 486.93611473272466 0.5033258007141668 29.0 9.0 20.0 
486.0000081735598 516.0 62.0 486.93611473272466 0.5033258007141668 28.0 10.0 19.0 
488.0000081735598 516.0 62.0 486.9413298565843 0.5033256942917732 28.0 10.0 19.0 
490.0000081735598 516.0 62.0 486.9413298565843 0.5033251257619431 29.0 9.0 20.0 
492.0000081735598 516.0 62.0 486.9413298565843 0.5033254100268582 28.0 10.0 19.0 
494.0000081735598 516.0 62.0 486.9413298565843 0.5033254100268582 28.0 10.0 19.0 
496.0000081735598 516.0 62.0 486.9413298565843 0.5033254100268582 29.0 9.0 20.0 
498.0000081735598 516.0 62.0 486.9413298565843 0.5033254100268582 28.0 10.0 19.0 
500.0000081735598 516.0 62.0 486.9413298565843 0.5033251026674054 28.0 10.0 19.0 
502.0000081735598 516.0 62.0 486.9413298565843 0.5033254100268582 29.0 9.0 20.0 
504.0000081735598 516.0 62.0 486.9413298565843 0.5033254100268582 28.0 10.0 19.0 
506.0000081735598 516.0 62.0 486.9413298565843 0.5033254100268582 28.0 10.0 19.0 
508.0000081735598 516.0 62.0 486.9413298565843 0.5292994360008841 29.0 9.0 20.0 
510.0000081735598 514.0 61.0 486.9413298565843 0.5034156689032404 28.0 10.0 19.0 
512.0000081735598 514.0 61.0 486.9413298565843 0.5034159844589453 28.0 10.0 19.0 
514.0000081735598 514.0 61.0 486.9413298565843 0.503415984458945 29.0 9.0 20.0 
516.0000081735598 514.0 61.0 486.9413298565843 0.503415984458945 28.0 10.0 19.0 
518.0000081735598 514.0 61.0 486.9413298565843 0.503415984458945 28.0 10.0 19.0 
520.0000081735598 514.0 61.0 486.9413298565843 0.5034156689032413 29.0 9.0 20.0 
522.0000081735598 515.0 62.0 486.9413298565843 0.501643889079351 28.0 10.0 19.0 
524.0000081735598 518.0 62.0 486.9413298565843 0.5069569494717959 28.0 10.0 19.0 
526.0000081735598 518.0 62.0 486.9413298565843 0.5069569494717959 29.0 9.0 20.0 
528.0000081735598 518.0 62.0 486.9413298565843 0.5069569494717959 28.0 10.0 19.0 
530.0000081735598 518.0 62.0 486.9413298565843 0.510442945228355 28.0 10.0 19.0 
532.0000081735598 517.0 62.0 486.9413298565843 0.5001836629211234 29.0 9.0 20.0 
534.0000081735598 520.0 63.0 486.9413298565843 0.5220081029039737 28.0 10.0 19.0 
536.0000081735598 518.0 63.0 486.9413298565843 0.5009234200942654 28.0 10.0 19.0 
538.0000081735598 518.0 63.0 486.9413298565843 0.5016775679072367 29.0 9.0 20.0 
540.0000081735598 517.0 63.0 486.9413298565843 0.5025763937456378 28.0 10.0 19.0 
542.0000081735598 516.0 63.0 486.9413298565843 0.5010130919490042 28.0 10.0 19.0 
544.0000081735598 516.0 63.0 486.9413298565843 0.501013322810409 29.0 9.0 20.0 
546.0000081735598 516.0 63.0 486.9413298565843 0.501013322810409 28.0 10.0 19.0 
548.0000081735598 516.0 63.0 486.9413298565843 0.501013322810409 28.0 10.0 19.0 
550.0000081735598 516.0 63.0 486.9413298565843 0.5010130691505502 29.0 9.0 20.0 
552.0000081735598 516.0 63.0 486.9413298565843 0.5116973874735559 28.0 10.0 19.0 
554.0000081735598 514.0 62.0 486.9413298565843 0.5344022493003685 28.0 10.0 19.0 
556.0000081735598 512.0 62.0 486.9413298565843 0.5028514590399832 29.0 9.0 20.0 
558.0000081735598 512.0 62.0 486.94654498044326 0.5028513526175901 28.0 10.0 19.0 
560.0000081735598 512.0 62.0 486.93611473272466 0.5060982956145923 28.0 10.0 19.0 
562.0000081735598 510.0 62.0 486.93611473272466 0.5022296398442128 29.0 9.0 20.0 
564.0000081735598 510.0 62.0 486.93611473272466 0.5022296398442128 28.0 10.0 19.0 
566.0000081735598 514.0 62.0 486.93611473272466 0.5016005430928716 29.0 10.0 19.0 
568.0000081735598 518.0 63.0 486.94654498044326 0.5118872952831282 30.0 9.0 20.0 
570.0000081735598 506.0 63.0 486.949152542373 0.5473337476463753 30.0 9.0 20.0 
572.0000081735598 488.0 62.0 486.928292046936 0.5016834411060792 30.0 9.0 20.0 
574.0000081735598 488.0 62.0 486.928292046936 0.5016834411060792 31.0 8.0 21.0 
576.0000081735598 489.0 62.0 489.93741851368975 0.5016546673830622 30.0 9.0 21.0 
578.0000081735598 490.0 62.0 492.9595827900908 0.5048201916483694 30.0 9.0 22.0 
580.0000081735598 490.0 62.0 492.96740547588024 0.5048200439972913 31.0 8.0 23.0 
582.0000081735598 490.0 62.0 492.96740547588024 0.5048201000400362 30.0 9.0 22.0 
584.0000081735598 490.0 62.0 492.94132985658416 0.504821018894712 30.0 9.0 22.0 
586.0000081735598 491.0 62.0 492.9647979139503 0.5042372809835798 31.0 8.0 23.0 
588.0000081735598 492.0 62.0 492.94132985658416 0.505433966643489 30.0 9.0 22.0 
590.0000081735598 492.0 62.0 492.92568448500685 0.5054344279183901 30.0 9.0 22.0 
592.0000081735598 492.0 62.0 492.92568448500685 0.5054346151381094 31.0 8.0 23.0 
594.0000081735598 492.0 62.0 492.92568448500685 0.5054346151381094 30.0 9.0 22.0 
596.0000081735598 492.0 62.0 492.93089960886573 0.5054346151381094 30.0 9.0 22.0 
598.0000081735598 492.0 62.0 492.92568448500685 0.5054344694885581 31.0 8.0 23.0 
600.0000081735598 492.0 62.0 492.92568448500685 0.5054345920435716 30.0 9.0 22.0 
602.0000081735598 492.0 62.0 492.92568448500685 0.5054346151381094 30.0 9.0 22.0 
604.0000081735598 492.0 62.0 492.92568448500685 0.5054346151381094 31.0 8.0 23.0 
606.0000081735598 492.0 62.0 492.93089960886573 0.5054346151381094 30.0 9.0 22.0 
608.0000081735598 492.0 62.0 492.92568448500685 0.5054344694885581 30.0 9.0 22.0 
610.0000081735598 492.0 62.0 492.92568448500685 0.5054345920435716 31.0 8.0 23.0 
612.0000081735598 492.0 62.0 492.92568448500685 0.5054346151381094 30.0 9.0 22.0 
614.0000081735598 492.0 62.0 492.92568448500685 0.5054346151381094 30.0 9.0 22.0 
616.0000081735598 492.0 62.0 492.93089960886573 0.5054346151381094 31.0 8.0 23.0 
618.0000081735598 492.0 62.0 492.92568448500685 0.5054344694885581 30.0 9.0 22.0 
620.0000081735598 492.0 62.0 492.92568448500685 0.5054346151381094 30.0 9.0 22.0 
622.0000081735598 492.0 62.0 492.92568448500685 0.5054346151381094 31.0 8.0 23.0 
624.0000081735598 492.0 62.0 492.92568448500685 0.5054346151381094 30.0 9.0 22.0 
626.0000081735598 492.0 62.0 492.93089960886573 0.5054346151381094 30.0 9.0 22.0 
628.0000081735598 492.0 62.0 489.9348109517603 0.5054344694885581 30.0 8.0 22.0 
630.0000081735598 492.0 62.0 489.9348109517603 0.5054346151381094 29.0 9.0 21.0 
632.0000081735598 504.0 63.0 489.9348109517603 0.5037069301679642 29.0 9.0 21.0 
634.0000081735598 504.0 63.0 489.9348109517603 0.5036985153245922 30.0 8.0 22.0 
636.0000081735598 504.0 63.0 489.94002607561936 0.5036985153245922 29.0 9.0 21.0 
638.0000081735598 504.0 63.0 489.9348109517603 0.5036983715423428 29.0 9.0 21.0 
640.0000081735598 504.0 63.0 489.9348109517603 0.5036985153245922 30.0 8.0 22.0 
642.0000081735598 504.0 63.0 489.9348109517603 0.5036985153245922 29.0 9.0 21.0 
644.0000081735598 504.0 63.0 489.9348109517603 0.5036985153245922 29.0 9.0 21.0 
646.0000081735598 504.0 63.0 489.94002607561936 0.5036985153245922 30.0 8.0 22.0 
648.0000081735598 504.0 63.0 489.9348109517603 0.5036983715423428 29.0 9.0 21.0 
650.0000081735598 504.0 63.0 489.9348109517603 0.5036985153245922 29.0 9.0 21.0 
652.0000081735598 504.0 63.0 489.9348109517603 0.5036985153245922 30.0 8.0 22.0 
654.0000081735598 504.0 63.0 489.9348109517603 0.5036985153245922 29.0 9.0 21.0 
656.0000081735598 504.0 63.0 489.94002607561936 0.5036985153245922 29.0 9.0 21.0 
658.0000081735598 504.0 63.0 489.9348109517603 0.5036983715423428 30.0 8.0 22.0 
660.0000081735598 504.0 63.0 489.9348109517603 0.5036985153245922 29.0 9.0 21.0 
662.0000081735598 506.0 63.0 489.9348109517603 0.5042548440020409 29.0 9.0 21.0 
664.0000081735598 506.0 63.0 489.9348109517603 0.5042548440020409 30.0 8.0 22.0 
#####################################################################
# End of data export. Simulation finished at: 2019-03-13T10:07+0000 #
#####################################################################
