#####################################################################
# Alchemist log file - simulation started at: 2019-03-04T20:45+0000 #
#####################################################################
# seed = 6.0, bandwidth = 4216.965034285822, accessPointCount = 2000.0, baserange = 31.622776601683796
#
# The columns have the following meaning: 
# time neighbor_count[Sum] <value>@neighbor_count[Sum] packet_size[Mean] mean_delay[Mean] crowd[Sum] overcrowded[Sum] risk[Sum] 
0.0 NaN NaN NaN NaN NaN NaN NaN 
2.000024957581648 104.0 83.0 4974.3906205318835 0.293962656428658 1497.0 0.0 1497.0 
4.000066164899353 481.0 348.0 4977.971975979412 0.9927906451968208 1497.0 0.0 1497.0 
6.000066164899353 621.0 406.0 4979.080354589648 1.3828537814246629 1497.0 0.0 1497.0 
8.000066164899353 713.0 428.0 4977.711181012297 1.4756422267528222 1497.0 0.0 1497.0 
10.000066164899353 734.0 431.0 4977.58764655419 1.3446479976859158 1497.0 0.0 1497.0 
12.000066164899353 792.0 441.0 4977.286817271948 1.6880010864558697 1497.0 0.0 1497.0 
14.000066164899353 806.0 442.0 4977.285673434372 1.4827411206772456 1497.0 0.0 1497.0 
16.00006616489935 806.0 442.0 4977.297111810123 1.458403841472926 1497.0 0.0 1497.0 
18.00006616489935 807.0 442.0 4977.074063482985 1.7975759456008185 1497.0 0.0 1497.0 
20.00006616489935 808.0 443.0 4976.993994852731 1.8086353217104947 1497.0 0.0 1497.0 
22.00006616489935 808.0 443.0 4976.963111238204 1.4939985370897269 1497.0 0.0 1497.0 
24.00006616489935 808.0 443.0 4977.172433514441 1.9368933655880658 1497.0 0.0 1497.0 
26.00006616489935 808.0 443.0 4976.979124964255 1.553487657065688 1497.0 0.0 1497.0 
28.00006616489935 808.0 443.0 4976.952816700029 1.6737327520737604 1497.0 0.0 1497.0 
30.00006616489935 808.0 443.0 4977.136974549614 2.0724920481919127 1497.0 0.0 1497.0 
32.00006616489935 808.0 443.0 4976.754932799542 1.879092627662188 1497.0 0.0 1497.0 
34.00006616489935 806.0 442.0 4977.08207034601 1.615487807649692 1497.0 0.0 1497.0 
36.00006616489935 803.0 441.0 4977.0511867314835 1.9646220203549039 1497.0 0.0 1497.0 
38.00006616489935 800.0 439.0 4976.813268515871 1.6074210942722658 1497.0 0.0 1497.0 
40.00006616489935 798.0 438.0 4976.965398913354 1.6758504822786218 1497.0 0.0 1497.0 
42.00006616489935 798.0 438.0 4976.825850729196 1.8316765277892872 1497.0 0.0 1497.0 
44.00006616489935 798.0 438.0 4976.904775521875 1.8650857476241391 1497.0 0.0 1497.0 
46.00006616489935 799.0 438.0 4976.996282527881 1.4061772703223223 1497.0 0.0 1497.0 
48.00006616489935 800.0 439.0 4976.942522161853 1.9785386277136054 1497.0 0.0 1497.0 
50.00006616489935 799.0 438.0 4976.912782384901 1.7101043289471922 1497.0 0.0 1497.0 
52.00006616489935 799.0 439.0 4976.749213611667 1.581388619397863 1497.0 0.0 1497.0 
54.00006616489935 802.0 440.0 4977.080926508435 1.9688549813912601 1497.0 0.0 1497.0 
56.00006616489935 802.0 440.0 4976.932227623677 1.6032156870069985 1497.0 0.0 1497.0 
58.00006616489935 802.0 440.0 4976.867028881899 1.3789591088736215 1497.0 0.0 1497.0 
60.00006616489935 802.0 440.0 4975.7060337432085 1.9787233322366127 1497.0 0.0 1497.0 
62.00006616489935 802.0 440.0 451.2965398913345 0.9866341738911147 194.0 0.0 39.0 
64.00006616489935 798.0 439.0 451.28395767800964 0.9654637536107412 184.0 0.0 39.0 
66.00006616489935 800.0 439.0 451.2862453531606 0.9657807982665685 150.0 0.0 39.0 
68.00006616489935 807.0 441.0 451.28395767800964 0.7558035549928305 121.0 0.0 39.0 
70.00006616489935 809.0 442.0 451.28395767800964 0.8664707633904472 99.0 0.0 39.0 
72.00006616489935 811.0 443.0 451.2862453531606 0.9141886114167282 88.0 0.0 39.0 
74.00006616489935 812.0 443.0 452.6016585644847 0.9589890946282433 79.0 0.0 40.0 
76.00006616489935 813.0 443.0 452.6039462396357 1.0169479714670875 72.0 0.0 40.0 
78.00006616489935 822.0 443.0 459.1684300829313 0.9926404917879075 75.0 0.0 45.0 
80.00006616489935 823.0 443.0 459.15927938233034 1.0584179396091316 71.0 0.0 45.0 
82.00006616489935 830.0 443.0 463.097512153277 1.0209341352361914 71.0 0.0 48.0 
84.00006616489935 833.0 444.0 465.7535030025722 1.0862838523128793 71.0 0.0 50.0 
86.00006616489935 836.0 445.0 465.76036602802156 1.1039176183319812 72.0 0.0 50.0 
88.00006616489935 833.0 444.0 465.7569345152961 1.1410166479384087 70.0 0.0 50.0 
90.00006616489935 834.0 444.0 467.0734915641999 1.065014917538424 70.0 0.0 51.0 
92.00006616489935 836.0 445.0 467.05633400057076 1.0527659855494769 69.0 0.0 51.0 
94.00006616489935 836.0 445.0 465.7374892765234 1.222988375274306 69.0 0.0 50.0 
96.00006616489935 838.0 446.0 465.7489276522756 1.1636379145015168 69.0 0.0 50.0 
98.00006616489935 838.0 446.0 465.72147555047457 1.2170432228730241 67.0 0.0 50.0 
100.00006616489935 836.0 444.0 465.71918787532155 1.2009698448416701 67.0 0.0 50.0 
102.00006616489935 834.0 444.0 465.7294824134949 1.0793795148091077 66.0 0.0 50.0 
104.00006616489935 836.0 443.0 467.03460108664376 1.1421705188233262 67.0 0.0 51.0 
106.00006616489935 837.0 444.0 467.03460108664376 1.1742990243482336 66.0 0.0 51.0 
108.00006616489935 835.0 443.0 467.04260794967325 1.174304358266331 66.0 0.0 51.0 
110.00006616489935 838.0 444.0 469.66428367171704 1.2768504633796365 66.0 0.0 53.0 
112.00006616489935 838.0 445.0 469.65742064626914 1.20246696659413 66.0 0.0 53.0 
114.00006616489935 829.0 443.0 469.67457820989637 1.1642454980532027 66.0 0.0 53.0 
116.00006616489935 836.0 444.0 470.98084072062 1.2121446471689878 63.0 0.0 54.0 
118.00006616489935 836.0 444.0 470.98541607091744 1.308760474572046 63.0 0.0 54.0 
120.00006616489935 834.0 444.0 470.9796968830405 1.3247480923236628 63.0 0.0 54.0 
122.00006616489935 834.0 444.0 470.9774092078935 1.1521391641545489 62.0 0.0 54.0 
124.00006616489935 831.0 442.0 470.9796968830405 1.1819393548980688 62.0 0.0 54.0 
126.00006616489935 829.0 441.0 470.9865599084956 1.2116319294515245 62.0 0.0 54.0 
128.00006616489935 828.0 441.0 470.9774092078935 1.272852866158721 62.0 0.0 54.0 
130.00006616489935 830.0 441.0 470.9819845581909 1.4103190048923737 62.0 0.0 54.0 
132.00006616489935 830.0 441.0 470.9819845581909 1.4845563636294674 62.0 0.0 54.0 
134.00006616489935 827.0 439.0 470.97512153274323 1.2889591951669852 62.0 0.0 54.0 
136.00006616489935 828.0 440.0 470.97855304546795 1.3278823109998064 62.0 0.0 54.0 
138.00006616489935 828.0 440.0 470.96711466971556 1.4418854097052236 62.0 0.0 54.0 
140.00006616489935 822.0 438.0 470.9739776951707 1.4733128754674523 62.0 0.0 54.0 
142.00006616489935 822.0 439.0 470.9648269945685 1.3997526770763802 62.0 0.0 54.0 
144.00006616489935 810.0 437.0 470.96940234486596 1.1701184343530417 62.0 0.0 54.0 
146.00006616489935 810.0 437.0 470.971690020018 1.0821711594596384 62.0 0.0 54.0 
148.00006616489935 810.0 437.0 470.97626537031533 1.2262027362528636 62.0 0.0 54.0 
150.00006616489935 810.0 437.0 470.98084072062 1.358932034794181 62.0 0.0 54.0 
152.00006616489935 806.0 436.0 470.96825850729374 1.2049170992573919 62.0 0.0 54.0 
154.00006616489935 806.0 436.0 470.96825850729374 1.2940810541818817 62.0 0.0 54.0 
156.00006616489935 800.0 433.0 470.97054618243845 0.9404884320245828 62.0 0.0 54.0 
158.00006616489935 797.0 432.0 470.963683156989 0.8429964144783462 62.0 0.0 54.0 
160.00006616489935 794.0 432.0 470.9625393194181 0.9408135513716973 62.0 0.0 54.0 
162.00006616489935 794.0 432.0 469.64826994566715 0.8949876953396291 61.0 0.0 53.0 
164.00006616489935 793.0 432.0 469.647126108095 0.8698417516946089 62.0 0.0 53.0 
166.00006616489935 802.0 434.0 472.28710323134214 0.7447267544490314 63.0 0.0 55.0 
168.00006616489935 803.0 434.0 472.2802402058918 0.850948532410693 63.0 0.0 55.0 
170.00006616489935 810.0 436.0 472.2802402058918 0.9042310064836954 64.0 0.0 55.0 
172.00006616489935 815.0 438.0 470.97054618243845 0.8803867126386458 63.0 0.0 54.0 
174.00006616489935 817.0 438.0 468.34200743494563 0.9965486346845216 62.0 0.0 52.0 
176.00006616489935 821.0 440.0 468.3442951100979 1.0118467300991472 62.0 0.0 52.0 
178.00006616489935 825.0 440.0 469.6585644838416 0.9918139589954899 62.0 0.0 53.0 
180.00006616489935 826.0 440.0 469.6585644838416 1.1700748827434926 61.0 0.0 53.0 
182.00006616489935 831.0 441.0 469.6539891335444 1.1119724764735006 61.0 0.0 53.0 
184.00006616489935 830.0 442.0 469.6562768086951 1.3045797551549847 61.0 0.0 53.0 
186.00006616489935 832.0 442.0 468.34658278524256 1.2803277338510664 60.0 0.0 52.0 
188.00006616489935 835.0 443.0 468.34658278524256 1.362126497672746 60.0 0.0 52.0 
190.00006616489935 835.0 444.0 468.34429511009796 1.2597914969861865 60.0 0.0 52.0 
192.00006616489935 836.0 446.0 468.34429511009796 1.2332145204188614 60.0 0.0 52.0 
194.00006616489935 839.0 446.0 468.34200743494563 1.350682025858733 60.0 0.0 52.0 
196.00006616489935 838.0 446.0 468.34429511009796 1.4273993312010649 60.0 0.0 52.0 
198.00006616489935 840.0 447.0 469.66428367171693 1.537351383423178 62.0 0.0 53.0 
200.00006616489935 842.0 447.0 469.6574206462691 1.69368144894913 63.0 0.0 53.0 
202.00006616489935 845.0 448.0 465.71804403774905 1.447482994622095 63.0 0.0 50.0 
204.00006616489935 845.0 447.0 464.4026308264193 1.60220491099882 63.0 0.0 49.0 
206.00006616489935 845.0 446.0 464.4072061767237 1.3708055401193255 63.0 0.0 49.0 
208.00006616489935 842.0 445.0 464.41292536460054 1.3711233691336235 63.0 0.0 49.0 
210.00006616489935 846.0 445.0 464.39691163855014 1.463098577976902 64.0 0.0 49.0 
212.00006616489935 847.0 445.0 465.72490706319826 1.4743556056939044 64.0 0.0 50.0 
214.00006616489935 850.0 446.0 465.72147555047457 1.4332439180696126 61.0 0.0 50.0 
216.00006616489935 851.0 446.0 465.72147555047457 1.3769487455999818 61.0 0.0 50.0 
218.00006616489935 851.0 446.0 467.0391764369475 1.2771555566178783 61.0 0.0 51.0 
220.00006616489935 845.0 445.0 467.02888189876825 1.3576096342921085 61.0 0.0 51.0 
222.00006616489935 841.0 444.0 467.0243065484717 1.3169484618101306 61.0 0.0 51.0 
224.00006616489935 840.0 444.0 467.0243065484717 1.4318418660344718 61.0 0.0 51.0 
226.00006616489935 838.0 443.0 467.02659422362234 1.2210867563661663 61.0 0.0 51.0 
228.00006616489935 840.0 443.0 469.6814412353461 1.3371775730158446 61.0 0.0 53.0 
230.00006616489935 835.0 441.0 469.66313983414415 1.2336757838468402 61.0 0.0 53.0 
232.00006616489935 831.0 439.0 469.6597083214196 1.04739732229785 61.0 0.0 53.0 
234.00006616489935 831.0 439.0 469.66313983414415 1.1546458513089144 61.0 0.0 53.0 
236.00006616489935 831.0 439.0 468.35344581069785 1.1627483437651895 61.0 0.0 52.0 
238.00006616489935 836.0 441.0 469.66657134686915 1.0171688458386339 61.0 0.0 53.0 
240.00006616489935 836.0 442.0 469.6574206462691 1.1294998657598478 61.0 0.0 53.0 
242.00006616489935 836.0 442.0 469.65513297111676 1.0116820019973445 61.0 0.0 53.0 
244.00006616489935 832.0 440.0 469.6597083214196 1.127718156372279 61.0 0.0 53.0 
246.00006616489935 833.0 441.0 469.6574206462691 1.131233273236733 61.0 0.0 53.0 
248.00006616489935 830.0 441.0 469.6597083214196 1.0805311166471026 61.0 0.0 53.0 
250.00006616489935 827.0 440.0 468.34887046039495 0.9543551603584123 61.0 0.0 52.0 
252.00006616489935 829.0 442.0 468.33857592222085 1.011600907498421 61.0 0.0 52.0 
254.00006616489935 833.0 444.0 468.33857592222085 1.0501957033742368 61.0 0.0 52.0 
256.00006616489935 833.0 444.0 468.3362882470687 1.0962778329519343 61.0 0.0 52.0 
258.00006616489935 835.0 445.0 469.6585644838419 1.1582069516944755 62.0 0.0 53.0 
260.00006616489935 834.0 445.0 469.6471261080949 1.2320162361894975 62.0 0.0 53.0 
262.00006616489935 834.0 445.0 469.6436945953697 1.01795914187893 63.0 0.0 53.0 
264.00006616489935 832.0 445.0 469.6414069202193 1.177000392704735 63.0 0.0 53.0 
266.00006616489935 832.0 446.0 465.7066056619966 1.1016480750663613 64.0 0.0 50.0 
268.00006616489935 830.0 447.0 465.7066056619966 1.1707386442481134 64.0 0.0 50.0 
270.00006616489935 829.0 447.0 465.7020303116929 1.3567114008712526 64.0 0.0 50.0 
272.00006616489935 830.0 448.0 465.7020303116929 1.3536466173242838 64.0 0.0 50.0 
274.00006616489935 836.0 450.0 465.7043179868438 1.335502486700637 64.0 0.0 50.0 
276.00006616489935 831.0 449.0 465.7020303116929 1.4825199189952745 64.0 0.0 50.0 
278.00006616489935 829.0 448.0 465.7066056619966 1.4302039077948248 64.0 0.0 50.0 
280.00006616489935 831.0 449.0 465.7020303116929 1.6092810770976018 64.0 0.0 50.0 
282.00006616489935 832.0 450.0 464.3900486130949 1.59124010595621 63.0 0.0 49.0 
284.00006616489935 833.0 451.0 464.38890477552184 1.7136105574352265 63.0 0.0 49.0 
286.00006616489935 828.0 450.0 464.38661710037064 1.4798521983414157 62.0 0.0 49.0 
288.00006616489935 826.0 447.0 464.391192450673 1.5137333464812401 63.0 0.0 49.0 
290.00006616489935 826.0 448.0 464.38661710037064 1.5772615533521028 63.0 0.0 49.0 
292.00006616489935 820.0 445.0 464.38661710037064 1.4607731989362351 63.0 0.0 49.0 
294.00006616489935 818.0 445.0 463.074635401771 1.533443169319819 62.0 0.0 48.0 
296.00006616489935 818.0 445.0 461.76265370317293 1.4117986870501171 61.0 0.0 47.0 
298.00006616489935 826.0 447.0 461.76722905347697 1.3257090539107363 62.0 0.0 47.0 
300.00006616489935 825.0 446.0 461.76265370317293 1.499263392485666 61.0 0.0 47.0 
302.00006616489935 820.0 444.0 460.4495281670023 1.3730870016507677 60.0 0.0 46.0 
304.00006616489935 811.0 445.0 459.13411495567345 1.2469345295746226 59.0 0.0 45.0 
306.00006616489935 809.0 444.0 459.13182728052743 1.2764612237497532 59.0 0.0 45.0 
308.00006616489935 816.0 446.0 459.13411495567345 1.1100341673990906 60.0 0.0 45.0 
310.00006616489935 820.0 447.0 461.7695167286228 1.2421865744088554 60.0 0.0 47.0 
312.00006616489935 818.0 445.0 461.76265370317293 1.090699357846255 60.0 0.0 47.0 
314.00006616489935 817.0 445.0 461.76265370317293 1.1980951296353768 60.0 0.0 47.0 
316.00006616489935 814.0 444.0 460.4506720045751 1.2325133904605898 59.0 0.0 46.0 
318.00006616489935 814.0 444.0 460.45753503002317 1.2378851036382972 59.0 0.0 46.0 
320.00006616489935 814.0 444.0 459.1386903059774 1.3450845043706383 58.0 0.0 45.0 
322.00006616489935 810.0 442.0 457.82899628253017 1.2564266192640154 57.0 0.0 44.0 
324.00006616489935 813.0 444.0 457.82899628253017 1.416103110122755 58.0 0.0 44.0 
326.00006616489935 813.0 444.0 456.51472690878126 1.4629837620974426 57.0 0.0 43.0 
328.00006616489935 808.0 443.0 456.5204460966561 1.513397340674313 57.0 0.0 43.0 
330.00006616489935 806.0 442.0 456.5112953960555 1.4231096365052538 57.0 0.0 43.0 
332.00006616489935 807.0 442.0 456.5112953960555 1.449123117932766 56.0 0.0 43.0 
334.00006616489935 806.0 441.0 455.20160137260365 1.5145530676278915 56.0 0.0 42.0 
336.00006616489935 806.0 441.0 455.1993136974573 1.6933549257632485 56.0 0.0 42.0 
338.00006616489935 803.0 441.0 455.20388904775444 1.492797526917972 57.0 0.0 42.0 
340.00006616489935 797.0 438.0 455.1993136974573 1.4058646238326933 57.0 0.0 42.0 
342.00006616489935 791.0 435.0 456.5181584215056 1.13823411402025 57.0 0.0 43.0 
344.00006616489935 790.0 435.0 456.5135830712017 1.130075480136095 57.0 0.0 43.0 
346.00006616489935 791.0 435.0 457.83128395767625 1.1308623614233777 57.0 0.0 44.0 
348.00006616489935 792.0 435.0 457.8335716328272 1.1168470811796962 58.0 0.0 44.0 
350.00006616489935 793.0 434.0 459.14669716900494 1.0430443949083283 58.0 0.0 45.0 
352.00006616489935 794.0 434.0 459.1512725193021 0.9268798294345166 58.0 0.0 45.0 
354.00006616489935 799.0 436.0 459.14669716900494 1.0448139170428652 58.0 0.0 45.0 
356.00006616489935 798.0 436.0 459.144409493854 1.0223149641272569 57.0 0.0 45.0 
358.00006616489935 798.0 436.0 459.1512725193021 1.0812523340707985 57.0 0.0 45.0 
360.00006616489935 799.0 437.0 459.144409493854 1.2635356566501734 57.0 0.0 45.0 
362.00006616489935 800.0 437.0 457.8335716328272 0.8744370230203978 56.0 0.0 44.0 
364.00006616489935 799.0 437.0 457.83471547040074 0.9842514640761966 56.0 0.0 44.0 
366.00006616489935 800.0 438.0 457.8255647697998 1.096245350787493 56.0 0.0 44.0 
368.00006616489935 802.0 438.0 459.1466971690047 1.0399258403445326 57.0 0.0 45.0 
370.00006616489935 802.0 438.0 459.13754646840385 1.1705975018062587 57.0 0.0 45.0 
372.00006616489935 804.0 439.0 459.1421218187011 1.2343313632231012 57.0 0.0 45.0 
374.00006616489935 812.0 441.0 459.1364026308245 1.176138021963646 58.0 0.0 45.0 
376.00006616489935 812.0 441.0 459.1364026308245 1.224776912570469 58.0 0.0 45.0 
378.00006616489935 816.0 441.0 460.45639119245186 1.3591685089392618 58.0 0.0 46.0 
380.00006616489935 824.0 442.0 461.7695167286228 1.380427342866401 60.0 0.0 47.0 
382.00006616489935 822.0 443.0 460.45524735487913 1.4076864884480667 59.0 0.0 46.0 
384.00006616489935 825.0 443.0 461.7878181298246 1.3216020161038875 57.0 0.0 47.0 
386.00006616489935 827.0 443.0 461.7695167286227 1.211913804420646 58.0 0.0 47.0 
388.00006616489935 827.0 444.0 461.7740920789268 1.3284474512468754 57.0 0.0 47.0 
390.00006616489935 828.0 444.0 461.767229053477 1.4473375889345705 58.0 0.0 47.0 
392.00006616489935 829.0 444.0 463.08721761509764 1.4726327130389598 58.0 0.0 48.0 
394.00006616489935 825.0 441.0 461.777523591651 1.3633512920537982 57.0 0.0 47.0 
396.00006616489935 828.0 442.0 461.7740920789268 1.313726945012146 58.0 0.0 47.0 
398.00006616489935 828.0 442.0 461.7740920789268 1.4240123185694573 58.0 0.0 47.0 
400.00006616489935 828.0 442.0 461.76608521589714 1.5307406517723445 58.0 0.0 47.0 
402.00006616489935 830.0 442.0 461.76379754074605 1.4938927360293532 59.0 0.0 47.0 
404.00006616489935 827.0 441.0 461.76608521589714 1.422003045191253 59.0 0.0 47.0 
406.00006616489935 839.0 442.0 464.40835001429633 1.2654019228847524 60.0 0.0 49.0 
408.00006616489935 846.0 442.0 465.71690020017024 1.364007745331921 60.0 0.0 50.0 
410.00006616489935 851.0 444.0 465.7123248498734 1.4487641106258817 60.0 0.0 50.0 
412.00006616489935 849.0 443.0 465.7146125250247 1.4557297955127642 60.0 0.0 50.0 
414.00006616489935 843.0 441.0 465.71690020017024 1.453857738423145 60.0 0.0 50.0 
416.00006616489935 841.0 439.0 464.4129253646005 1.441880055481281 59.0 0.0 49.0 
418.00006616489935 839.0 439.0 464.40835001429633 1.435206386026399 59.0 0.0 49.0 
420.00006616489935 836.0 438.0 464.40835001429633 1.3644076183987501 59.0 0.0 49.0 
422.00006616489935 836.0 438.0 463.09064912782145 1.2040359471972168 59.0 0.0 48.0 
424.00006616489935 835.0 437.0 463.0963683156968 1.2097483027435334 59.0 0.0 48.0 
426.00006616489935 840.0 438.0 460.46211038032726 1.1514396923244214 57.0 0.0 46.0 
428.00006616489935 841.0 438.0 461.775235916498 1.2474001814963267 57.0 0.0 47.0 
430.00006616489935 840.0 438.0 461.77066056620123 1.2404478663784537 57.0 0.0 47.0 
432.00006616489935 838.0 437.0 461.77066056620123 1.2592347192838733 57.0 0.0 47.0 
434.00006616489935 838.0 437.0 461.77294824134685 1.3410802869195806 57.0 0.0 47.0 
436.00006616489935 834.0 438.0 461.78095510437475 1.4453878820614938 57.0 0.0 47.0 
438.00006616489935 820.0 437.0 461.7695167286227 1.4063460888946808 57.0 0.0 47.0 
440.00006616489935 819.0 436.0 461.76608521589714 1.3561607268420928 57.0 0.0 47.0 
442.00006616489935 815.0 435.0 461.76379754074605 1.213270506883798 57.0 0.0 47.0 
444.00006616489935 812.0 435.0 460.4518158421482 1.273170462292846 56.0 0.0 46.0 
446.00006616489935 814.0 437.0 460.4541035172993 1.2838381476056586 56.0 0.0 46.0 
448.00006616489935 813.0 437.0 460.4541035172993 1.3842873525219734 56.0 0.0 46.0 
450.00006616489935 809.0 437.0 460.4575350300231 1.2889843695454872 56.0 0.0 46.0 
452.00006616489935 805.0 435.0 460.44838432942396 1.0680735376406187 56.0 0.0 46.0 
454.00006616489935 803.0 434.0 459.1364026308244 1.0838521587260828 55.0 0.0 45.0 
456.00006616489935 800.0 434.0 459.1386903059774 1.048378139507949 55.0 0.0 45.0 
458.00006616489935 800.0 434.0 459.1386903059774 1.112059989059364 55.0 0.0 45.0 
460.00006616489935 800.0 434.0 459.1364026308244 1.290723579336957 55.0 0.0 45.0 
462.00006616489935 802.0 435.0 459.1364026308244 1.216664750905067 55.0 0.0 45.0 
464.00006616489935 800.0 435.0 459.1386903059774 1.1613300405533469 55.0 0.0 45.0 
466.00006616489935 800.0 435.0 459.14097798112846 1.1692715613747748 55.0 0.0 45.0 
468.00006616489935 800.0 435.0 459.14097798112846 1.2878573914990663 55.0 0.0 45.0 
470.00006616489935 800.0 435.0 459.1386903059774 1.2931329909154012 55.0 0.0 45.0 
472.00006616489935 812.0 438.0 461.7786674292236 1.3837199260675104 57.0 0.0 47.0 
474.00006616489935 811.0 438.0 461.7626537031729 1.236855484980147 57.0 0.0 47.0 
476.00006616489935 814.0 439.0 461.7649413783259 1.123222374275813 58.0 0.0 47.0 
478.00006616489935 814.0 439.0 461.7740920789268 1.2376596878578816 60.0 0.0 47.0 
480.00006616489935 816.0 440.0 460.4575350300231 1.3897465957356383 59.0 0.0 46.0 
482.00006616489935 828.0 442.0 461.78324277952777 1.4038740548899118 61.0 0.0 47.0 
484.00006616489935 831.0 443.0 461.786674292252 1.4371541503376146 60.0 0.0 47.0 
486.00006616489935 824.0 439.0 461.7683728910501 1.1362667292989899 62.0 0.0 47.0 
488.00006616489935 825.0 440.0 460.46554189305283 1.211097177601592 60.0 0.0 46.0 
490.00006616489935 824.0 440.0 460.46096654274885 1.2256562235689277 60.0 0.0 46.0 
492.00006616489935 820.0 439.0 460.4724049185008 1.1680133589312789 60.0 0.0 46.0 
494.00006616489935 822.0 440.0 460.45867886760294 1.2367465550021797 60.0 0.0 46.0 
496.00006616489935 823.0 440.0 459.1421218187011 1.2427518321688282 59.0 0.0 45.0 
498.00006616489935 828.0 442.0 459.1512725193021 1.3236457375851607 59.0 0.0 45.0 
500.00006616489935 828.0 442.0 459.14669716900505 1.4611408112563236 59.0 0.0 45.0 
502.00006616489935 827.0 441.0 457.8438661710013 1.4332153654032591 59.0 0.0 44.0 
504.00006616489935 825.0 440.0 457.83700314555153 1.4158106230077758 59.0 0.0 44.0 
506.00006616489935 822.0 440.0 459.148984844151 1.237958261286672 60.0 0.0 45.0 
508.00006616489935 821.0 440.0 459.148984844151 1.2525853491385779 60.0 0.0 45.0 
510.00006616489935 820.0 439.0 457.83471547040045 1.3390631902613193 60.0 0.0 44.0 
512.0000661648994 820.0 439.0 457.8415784958553 1.4213351344809364 60.0 0.0 44.0 
514.0000661648994 821.0 439.0 457.83700314555153 1.5621148012482937 60.0 0.0 44.0 
516.0000661648994 823.0 440.0 457.83700314555153 1.6035364973761983 60.0 0.0 44.0 
518.0000661648994 823.0 440.0 457.83700314555153 1.533999222174833 60.0 0.0 44.0 
520.0000661648994 821.0 439.0 457.83700314555153 1.5525488792163455 60.0 0.0 44.0 
522.0000661648994 820.0 439.0 457.8415784958553 1.4687851721795857 60.0 0.0 44.0 
524.0000661648994 818.0 438.0 457.83700314555153 1.4902698703983008 59.0 0.0 44.0 
526.0000661648994 811.0 438.0 457.8358593079801 1.4386090913979817 59.0 0.0 44.0 
528.0000661648994 809.0 437.0 459.1592793823299 1.351115913926534 60.0 0.0 45.0 
530.0000661648994 807.0 436.0 459.14669716900505 1.4016938012262845 60.0 0.0 45.0 
532.0000661648994 809.0 439.0 459.1421218187011 1.3537732876960664 60.0 0.0 45.0 
534.0000661648994 801.0 437.0 459.1386903059774 1.2040719921406933 59.0 0.0 45.0 
536.0000661648994 802.0 437.0 460.45181584214816 1.1019463124217912 60.0 0.0 46.0 
538.0000661648994 802.0 438.0 463.0689162138956 1.0333440717926432 62.0 0.0 48.0 
540.0000661648994 799.0 436.0 463.0689162138956 0.9663095307369325 63.0 0.0 48.0 
542.0000661648994 802.0 436.0 464.40034315127417 0.9521753172083964 65.0 0.0 49.0 
544.0000661648994 802.0 436.0 464.3934801258185 1.0316339485429693 65.0 0.0 49.0 
546.0000661648994 804.0 437.0 464.4049185015708 0.9546204658880947 65.0 0.0 49.0 
548.0000661648994 807.0 437.0 465.69631112382297 0.9595805554289415 66.0 0.0 50.0 
550.0000661648994 809.0 438.0 467.0140120102974 1.0868023348844036 66.0 0.0 51.0 
552.0000661648994 807.0 439.0 467.0140120102974 1.0843107430732435 66.0 0.0 51.0 
554.0000661648994 806.0 438.0 467.0140120102974 1.1256015384563145 66.0 0.0 51.0 
556.0000661648994 806.0 438.0 467.0117243351465 1.1422625273468119 66.0 0.0 51.0 
558.0000661648994 812.0 440.0 467.01286817271773 1.2018780152915696 66.0 0.0 51.0 
560.0000661648994 812.0 440.0 467.0082928224207 1.3347591522424755 66.0 0.0 51.0 
562.0000661648994 812.0 440.0 467.0105804975668 1.4000155395147345 66.0 0.0 51.0 
564.0000661648994 810.0 439.0 467.0105804975668 1.4323598418645003 66.0 0.0 51.0 
566.0000661648994 810.0 440.0 467.0082928224207 1.330160303914962 66.0 0.0 51.0 
568.0000661648994 812.0 440.0 467.0105804975668 1.4533895744425298 66.0 0.0 51.0 
570.0000661648994 812.0 440.0 467.0082928224207 1.3420259615697852 66.0 0.0 51.0 
572.0000661648994 810.0 439.0 467.0105804975668 1.264744499735644 66.0 0.0 51.0 
574.0000661648994 810.0 439.0 465.69859879896825 1.2187698339974082 66.0 0.0 50.0 
576.0000661648994 808.0 441.0 465.69974263654706 0.9204543454188285 66.0 0.0 50.0 
578.0000661648994 811.0 442.0 465.7043179868438 0.9452288754467343 65.0 0.0 50.0 
580.0000661648994 817.0 443.0 465.7066056619966 1.0948955705292363 66.0 0.0 50.0 
582.0000661648994 820.0 444.0 467.02659422362217 0.9945776130142855 66.0 0.0 51.0 
584.0000661648994 820.0 444.0 465.7146125250247 1.0728671419895266 67.0 0.0 50.0 
586.0000661648994 826.0 446.0 465.7203317128946 1.0186451907540108 68.0 0.0 50.0 
588.0000661648994 826.0 446.0 463.0917929654 1.0339741734479029 68.0 0.0 48.0 
590.0000661648994 826.0 445.0 463.0803545896478 1.0772659884828624 67.0 0.0 48.0 
592.0000661648994 831.0 446.0 467.044895624824 1.1008962550025214 68.0 0.0 51.0 
594.0000661648994 834.0 447.0 467.0197311981673 1.1950633087020943 68.0 0.0 51.0 
596.0000661648994 835.0 447.0 467.0254503860425 1.1398794249234385 67.0 0.0 51.0 
598.0000661648994 840.0 449.0 468.35573348584444 1.2349276030593885 65.0 0.0 52.0 
600.0000661648994 840.0 449.0 468.35344581069774 1.367536118611997 65.0 0.0 52.0 
602.0000661648994 839.0 449.0 467.03574492422365 1.2559635126191806 64.0 0.0 51.0 
604.0000661648994 837.0 448.0 467.03688876179643 1.360654914852132 64.0 0.0 51.0 
606.0000661648994 839.0 447.0 465.7294824134949 1.2735801317676096 63.0 0.0 50.0 
608.0000661648994 841.0 446.0 469.6551329711167 1.1375506684884111 66.0 0.0 53.0 
610.0000661648994 844.0 447.0 469.6436945953698 1.2970098959564416 66.0 0.0 53.0 
612.0000661648994 852.0 450.0 469.66771518444153 1.3915664973313349 66.0 0.0 53.0 
614.0000661648994 852.0 450.0 469.67000285959375 1.3736055639299685 66.0 0.0 53.0 
616.0000661648994 851.0 449.0 469.6711466971665 1.324635549131887 66.0 0.0 53.0 
618.0000661648994 852.0 450.0 469.6551329711167 1.4010709796271836 66.0 0.0 53.0 
620.0000661648994 850.0 449.0 469.657420646269 1.490049636030738 66.0 0.0 53.0 
622.0000661648994 856.0 451.0 469.656276808695 1.5499972750666986 66.0 0.0 53.0 
624.0000661648994 857.0 452.0 469.65970832141966 1.6590082915768773 66.0 0.0 53.0 
626.0000661648994 850.0 449.0 468.3545896482709 1.5530960594743717 66.0 0.0 52.0 
628.0000661648994 848.0 449.0 468.34658278524273 1.6069061360144417 66.0 0.0 52.0 
630.0000661648994 851.0 451.0 468.3488704603946 1.6593771883392654 66.0 0.0 52.0 
632.0000661648994 847.0 449.0 468.34200743494574 1.5454494131714867 67.0 0.0 52.0 
634.0000661648994 840.0 445.0 467.0300257363469 1.418920741656314 67.0 0.0 51.0 
636.0000661648994 837.0 445.0 465.7214755504744 1.3366196277180913 67.0 0.0 50.0 
638.0000661648994 836.0 445.0 465.7146125250248 1.277071660308315 69.0 0.0 50.0 
640.0000661648994 841.0 445.0 468.3568773234227 1.4028757229452338 69.0 0.0 52.0 
642.0000661648994 840.0 444.0 468.3545896482709 1.2867681512325273 70.0 0.0 52.0 
644.0000661648994 834.0 443.0 469.6757220474692 1.369630237384499 68.0 0.0 53.0 
646.0000661648994 836.0 444.0 469.68372891049825 1.2246447880791025 69.0 0.0 53.0 
648.0000661648994 841.0 446.0 469.66885902201983 1.3333943637014918 70.0 0.0 53.0 
650.0000661648994 847.0 447.0 470.9785530454679 1.4201877327111903 71.0 0.0 54.0 
652.0000661648994 851.0 447.0 470.9796968830406 1.368549507904225 73.0 0.0 54.0 
654.0000661648994 852.0 447.0 472.2882470689147 1.3278412292739357 74.0 0.0 55.0 
656.0000661648994 853.0 447.0 473.6093794681137 1.1563509050012413 74.0 0.0 56.0 
658.0000661648994 862.0 449.0 476.2367743780384 1.2733632732500817 75.0 0.0 58.0 
660.0000661648994 857.0 447.0 476.23448670288855 1.3097523836861635 75.0 0.0 58.0 
662.0000661648994 855.0 446.0 476.23448670288855 1.2360545863370878 75.0 0.0 58.0 
664.0000661648994 856.0 447.0 476.2276236774406 1.4006815341546675 75.0 0.0 58.0 
#####################################################################
# End of data export. Simulation finished at: 2019-03-04T20:51+0000 #
#####################################################################
