#####################################################################
# Alchemist log file - simulation started at: 2019-03-03T02:34+0000 #
#####################################################################
# seed = 0.0, bandwidth = 4216.965034285822, accessPointCount = 274.2481756762073, baserange = 10.0
#
# The columns have the following meaning: 
# time neighbor_count[Sum] <value>@neighbor_count[Sum] packet_size[Mean] mean_delay[Mean] crowd[Sum] overcrowded[Sum] risk[Sum] 
0.0 NaN NaN NaN NaN NaN NaN NaN 
10.000405536260626 30.0 11.0 4984.510446075664 2.178181113333534 1497.0 0.0 1497.0 
20.000405536260626 32.0 11.0 4984.440429136082 2.178153863262548 1497.0 0.0 1497.0 
30.000405536260626 32.0 11.0 4984.4562394127615 2.1807205265674994 1497.0 0.0 1497.0 
40.00040553626063 32.0 11.0 4984.440429136082 2.1812784968511836 1497.0 0.0 1497.0 
50.00040553626063 32.0 11.0 4984.4562394127615 2.182059655248344 1497.0 0.0 1497.0 
60.00040553626063 32.0 11.0 4981.849802371542 2.181278496851185 1496.0 0.0 1496.0 
70.00040553626063 32.0 11.0 410.3828345567476 1.4425125751100263 7.0 0.0 4.0 
80.00040553626063 32.0 11.0 410.3828345567476 1.4425125751100263 5.0 0.0 4.0 
90.00040553626063 32.0 11.0 410.3828345567476 1.4425125751100263 4.0 0.0 4.0 
100.00040553626063 32.0 11.0 410.3828345567476 1.4425125751100263 4.0 0.0 4.0 
110.00040553626063 32.0 11.0 410.3828345567476 1.4425125751100263 4.0 0.0 4.0 
120.00040553626063 32.0 11.0 410.3828345567476 1.4425125751100263 4.0 0.0 4.0 
130.00040553626064 32.0 11.0 410.3828345567476 1.4425125751100272 4.0 0.0 4.0 
140.00040553626064 32.0 11.0 410.3828345567476 1.4425125751100256 4.0 0.0 4.0 
150.00040553626064 32.0 11.0 410.3828345567476 1.4425125751100256 4.0 0.0 4.0 
160.00040553626064 32.0 11.0 410.3828345567476 1.4425125751100256 4.0 0.0 4.0 
170.00040553626064 32.0 11.0 410.3828345567476 1.4425125751100256 4.0 0.0 4.0 
180.00040553626064 34.0 12.0 410.3828345567476 1.3333159937061838 4.0 0.0 4.0 
190.00040553626064 34.0 12.0 410.3828345567476 1.3333159937061838 4.0 0.0 4.0 
200.00040553626064 34.0 12.0 410.3828345567476 1.3333159937061838 4.0 0.0 4.0 
210.00040553626064 34.0 12.0 410.3828345567476 1.3333159937061838 4.0 0.0 4.0 
220.00040553626064 34.0 12.0 410.3828345567476 1.9122633621272365 4.0 0.0 4.0 
230.00040553626064 34.0 12.0 410.3828345567476 2.964894941074605 4.0 0.0 4.0 
240.00040553626064 34.0 12.0 410.3828345567476 4.017526520021973 4.0 0.0 4.0 
250.00040553626064 32.0 11.0 410.3828345567476 1.4425125751100256 4.0 0.0 4.0 
260.00040553626064 32.0 11.0 410.3828345567476 1.4425125751100456 4.0 0.0 4.0 
270.00040553626064 32.0 11.0 410.3828345567476 1.4425125751100456 4.0 0.0 4.0 
280.00040553626064 32.0 11.0 410.3828345567476 1.4425125751100456 4.0 0.0 4.0 
290.00040553626064 32.0 11.0 410.3828345567476 1.4425125751100456 4.0 0.0 4.0 
300.00040553626064 32.0 11.0 410.3828345567476 1.4425125751100456 4.0 0.0 4.0 
310.00040553626064 32.0 11.0 410.3828345567476 1.4425125751100456 4.0 0.0 4.0 
320.00040553626064 32.0 11.0 410.3828345567476 1.4425125751100456 4.0 0.0 4.0 
330.00040553626064 34.0 12.0 410.3828345567476 1.3987576983995054 4.0 0.0 4.0 
340.00040553626064 36.0 12.0 410.3828345567476 1.3968496657758243 4.0 0.0 4.0 
350.00040553626064 37.0 13.0 410.3828345567476 1.346862721327637 4.0 0.0 4.0 
360.00040553626064 38.0 13.0 410.3828345567476 1.3476792043755979 4.0 0.0 4.0 
370.00040553626064 38.0 13.0 410.3828345567476 2.3476792043755976 4.0 0.0 4.0 
380.00040553626064 38.0 13.0 410.3828345567476 3.3476792043755976 4.0 0.0 4.0 
390.00040553626064 36.0 12.0 410.3828345567476 1.3968496657758243 4.0 0.0 4.0 
400.00040553626064 36.0 12.0 410.3828345567476 1.3968496657758243 4.0 0.0 4.0 
410.00040553626064 36.0 12.0 410.3828345567476 2.0687860517884076 4.0 0.0 4.0 
420.00040553626064 38.0 13.0 410.3828345567476 2.9024219517869225 4.0 0.0 4.0 
430.00040553626064 38.0 13.0 410.3828345567476 3.9024219517869225 4.0 0.0 4.0 
440.00040553626064 34.0 12.0 410.3828345567476 2.122789677916731 4.0 0.0 4.0 
450.00040553626064 34.0 12.0 410.3828345567476 3.1754212568640994 4.0 0.0 4.0 
460.00040553626064 34.0 12.0 410.3828345567476 4.228052835811468 4.0 0.0 4.0 
470.00040553626064 32.0 11.0 410.3828345567476 1.4425125751100456 4.0 0.0 4.0 
480.00040553626064 34.0 12.0 410.3828345567476 1.3333159937062047 4.0 0.0 4.0 
490.00040553626064 34.0 12.0 410.3828345567476 1.596473888443047 4.0 0.0 4.0 
500.00040553626064 34.0 12.0 410.3828345567476 2.6491054673904153 4.0 0.0 4.0 
510.00040553626064 34.0 12.0 410.3828345567476 3.701737046337784 4.0 0.0 4.0 
520.0004055362606 32.0 11.0 410.3828345567476 1.4425125751099919 4.0 0.0 4.0 
530.0004055362606 32.0 11.0 410.3828345567476 1.4425125751100052 4.0 0.0 4.0 
540.0004055362606 32.0 11.0 410.3828345567476 1.4425125751100052 4.0 0.0 4.0 
550.0004055362606 32.0 11.0 410.3828345567476 1.4425125751100052 4.0 0.0 4.0 
560.0004055362606 32.0 11.0 410.3828345567476 1.4425125751100052 4.0 0.0 4.0 
570.0004055362606 32.0 11.0 410.3828345567476 1.4425125751100052 4.0 0.0 4.0 
580.0004055362606 32.0 11.0 410.3828345567476 1.4425125751100052 4.0 0.0 4.0 
590.0004055362606 32.0 11.0 410.3828345567476 1.4425125751100052 4.0 0.0 4.0 
600.0004055362606 32.0 11.0 410.3828345567476 1.4425125751100052 4.0 0.0 4.0 
610.0004055362606 32.0 11.0 410.3828345567476 1.4425125751100052 4.0 0.0 4.0 
620.0004055362606 32.0 11.0 410.3828345567476 1.4425125751100052 4.0 0.0 4.0 
630.0004055362606 32.0 11.0 410.3828345567476 1.4425125751100052 4.0 0.0 4.0 
640.0004055362606 32.0 11.0 410.3828345567476 1.4425125751100052 4.0 0.0 4.0 
650.0004055362606 32.0 11.0 410.3828345567476 1.4425125751100052 4.0 0.0 4.0 
660.0004055362606 32.0 11.0 410.3828345567476 1.4425125751100052 4.0 0.0 4.0 
#####################################################################
# End of data export. Simulation finished at: 2019-03-03T02:41+0000 #
#####################################################################
