#####################################################################
# Alchemist log file - simulation started at: 2019-03-05T11:47+0000 #
#####################################################################
# seed = 1.0, bandwidth = 74989.42093324558, accessPointCount = 2000.0, baserange = 1000.0
#
# The columns have the following meaning: 
# time neighbor_count[Sum] <value>@neighbor_count[Sum] packet_size[Mean] mean_delay[Mean] crowd[Sum] overcrowded[Sum] risk[Sum] 
0.0 NaN NaN NaN NaN NaN NaN NaN 
10.000417374280275 86506.0 83000.0 4977.729482413498 1.5067237883688571 1497.0 0.0 1497.0 
20.000269578681433 84139.0 79180.0 4979.798684586789 1.9246081303228433 1496.0 1.0 1496.0 
30.00015852660062 93544.0 88523.0 4979.65913640263 1.9334355736720008 1494.0 3.0 1494.0 
40.000417374280275 96855.0 91795.0 4979.456677151845 1.9300916841722497 1493.0 4.0 1493.0 
50.000417374280275 103593.0 98423.0 4979.820417500714 1.6886096074128134 1489.0 8.0 1489.0 
60.00015852660062 94987.0 89925.0 4979.736917357735 2.171000988473904 1493.0 4.0 1493.0 
70.0002992861042 127967.0 122575.0 826.1629968544584 0.6299144407770516 460.0 4.0 320.0 
80.0002992861042 133069.0 127537.0 833.8678867600906 0.6524540008872257 447.0 1.0 329.0 
90.0002992861042 132840.0 127514.0 835.2610809265021 0.6419708404459258 445.0 0.0 331.0 
100.0002992861042 132947.0 127534.0 835.2931083785975 0.6237052170204592 441.0 0.0 331.0 
110.0002992861042 133216.0 127530.0 835.2931083785975 0.6690874600198988 436.0 0.0 331.0 
120.0002992861042 133062.0 127535.0 833.8987703746154 0.6330773616962102 438.0 0.0 330.0 
130.0002992861042 132949.0 127523.0 835.1775807835363 0.6339950770751003 442.0 0.0 331.0 
140.0002992861042 133172.0 127547.0 836.7068916214025 0.6483473224224205 440.0 0.0 332.0 
150.0002992861042 133333.0 127562.0 841.9033457248994 0.6562525487424716 439.0 0.0 336.0 
160.0002992861042 132817.0 127510.0 839.2084643980614 0.6286250813827093 431.0 0.0 334.0 
170.0002992861042 132816.0 127508.0 836.463254217919 0.6489857356909167 436.0 0.0 332.0 
180.0002992861042 132966.0 127532.0 836.6691449814037 0.6573784025635311 435.0 0.0 332.0 
190.0002992861042 133017.0 127539.0 838.0108664569484 0.6326844977027355 437.0 0.0 333.0 
200.0002992861042 132914.0 127517.0 836.6279668286951 0.6383189809606491 437.0 0.0 332.0 
210.0002992861042 132909.0 127515.0 837.8861881612697 0.626616928994078 438.0 0.0 333.0 
220.0002992861042 133173.0 127549.0 837.8690305976626 0.6388297358330358 435.0 0.0 333.0 
230.0002992861042 133104.0 127544.0 837.851873034029 0.6615357095967853 435.0 0.0 333.0 
240.0002992861042 133007.0 127541.0 836.5410351730133 0.6409676766977933 433.0 0.0 332.0 
250.0002992861042 132975.0 127530.0 832.7023162710747 0.6402075129632049 430.0 0.0 329.0 
260.0002992861042 133053.0 127549.0 833.976551329706 0.6439760991161652 434.0 0.0 330.0 
270.0002992861042 132809.0 127534.0 830.002859593927 0.6570627526096915 436.0 0.0 327.0 
280.0002992861042 132634.0 127520.0 835.2450672004431 0.624256228274433 435.0 0.0 331.0 
290.0002992861042 132760.0 127526.0 837.7889619673845 0.635359520706457 422.0 0.0 333.0 
300.0002992861042 132624.0 127522.0 837.7580783528595 0.6259067147082924 424.0 0.0 333.0 
310.0002992861042 132630.0 127520.0 833.8816128109662 0.6171905930073289 424.0 0.0 330.0 
320.0002992861042 133008.0 127545.0 828.7114669717039 0.6678994709870291 428.0 0.0 326.0 
330.0002992861042 132978.0 127546.0 834.0451815842273 0.6400063537953763 429.0 0.0 330.0 
340.0002992861042 132840.0 127540.0 830.015441807273 0.6313576684480158 420.0 0.0 327.0 
350.0002992861042 132731.0 127523.0 831.2370603374233 0.6514059960090834 418.0 0.0 328.0 
360.0002992861042 133040.0 127563.0 832.6439805547542 0.6519720577562627 417.0 0.0 329.0 
370.0002992861042 132868.0 127532.0 831.3949099227706 0.617955872149807 420.0 0.0 328.0 
380.0002992861042 132559.0 127513.0 824.6794395196072 0.6256654573394173 416.0 0.0 323.0 
390.0002992861042 132682.0 127533.0 820.7080354589726 0.65365015373793 416.0 0.0 320.0 
400.0002992861042 132795.0 127542.0 828.6954532456273 0.6269224030317093 427.0 0.0 326.0 
410.0002992861042 132801.0 127532.0 832.507863883344 0.6532680721315723 434.0 0.0 329.0 
420.0002992861042 132779.0 127531.0 828.6931655704827 0.6363708195742697 436.0 0.0 326.0 
430.0002992861042 132915.0 127549.0 827.414355161562 0.6341483822813995 437.0 0.0 325.0 
440.0002992861042 132707.0 127530.0 832.5902201887415 0.6565756064997534 438.0 0.0 329.0 
450.0002992861042 132714.0 127540.0 840.385473262808 0.6515370437899888 444.0 0.0 335.0 
460.0002992861042 132726.0 127537.0 843.2096082356318 0.6357979299845218 436.0 0.0 337.0 
470.0002992861042 132674.0 127528.0 835.2953960537426 0.6313376130921364 419.0 0.0 331.0 
480.0002992861042 132602.0 127535.0 829.8347154703955 0.6361022305859001 417.0 0.0 327.0 
490.0002992861042 132441.0 127522.0 824.7183299971321 0.6146617015183196 423.0 0.0 323.0 
500.0002992861042 132787.0 127562.0 818.1446954532548 0.6459613355640541 420.0 0.0 318.0 
510.0002992861042 132483.0 127531.0 822.0325993708818 0.6384543813505884 424.0 0.0 321.0 
520.0002992861042 132361.0 127521.0 815.3663139834057 0.6168907712332308 422.0 0.0 316.0 
530.0002992861042 132457.0 127535.0 811.575636259665 0.6475108617319313 436.0 0.0 313.0 
540.0002992861042 132635.0 127554.0 815.5824992850935 0.6360009320378704 437.0 0.0 316.0 
550.0002992861042 132447.0 127530.0 818.1549899914162 0.6212985327951691 436.0 0.0 318.0 
560.0002992861042 132413.0 127527.0 810.2236202459192 0.6367952260707881 433.0 0.0 312.0 
570.0002992861042 132575.0 127549.0 818.097798112672 0.6282392190465322 434.0 0.0 318.0 
580.0002992861042 132578.0 127530.0 828.6313983414508 0.6254912764946199 439.0 0.0 326.0 
590.0002992861042 132719.0 127540.0 828.593651701454 0.6258038185022896 436.0 0.0 326.0 
600.0002992861042 132585.0 127533.0 832.6233914783911 0.6583325704549888 430.0 0.0 329.0 
610.0002494954272 132545.0 127531.0 833.9754074921357 0.6176046074336665 430.0 0.0 330.0 
620.0002494954272 132575.0 127538.0 832.5799256505384 0.6564011374797007 442.0 0.0 329.0 
630.0002494954272 132654.0 127543.0 828.7126108092745 0.6374902291467612 433.0 0.0 326.0 
640.0002494954272 132569.0 127540.0 822.1286817271795 0.6213637212694129 426.0 1.0 320.0 
650.0002494954272 132517.0 127516.0 827.3468687446542 0.6387974280867825 423.0 1.0 324.0 
660.0002494954272 132574.0 127536.0 829.9708321418494 0.6372941652152446 428.0 0.0 327.0 
#####################################################################
# End of data export. Simulation finished at: 2019-03-05T12:49+0000 #
#####################################################################
