#####################################################################
# Alchemist log file - simulation started at: 2019-03-06T06:48+0000 #
#####################################################################
# seed = 8.0, bandwidth = 5623413.251903491, accessPointCount = 141.4213562373095, baserange = 562.341325190349
#
# The columns have the following meaning: 
# time neighbor_count[Sum] <value>@neighbor_count[Sum] packet_size[Mean] mean_delay[Mean] crowd[Sum] overcrowded[Sum] risk[Sum] 
0.0 NaN NaN NaN NaN NaN NaN NaN 
2.0003516722809263 4751.0 1304.0 4986.798534798535 0.4798252970562489 1497.0 0.0 1497.0 
4.000351672280926 9989.0 1379.0 4988.319902319902 0.5366200827026621 1497.0 0.0 1497.0 
6.000198348008885 14077.0 1377.0 4989.514041514041 0.5499027651881367 1497.0 0.0 1497.0 
8.000258466888484 17859.0 1381.0 4990.490842490843 0.5675283034392394 1497.0 0.0 1497.0 
10.000351672280924 20880.0 1380.0 4991.308913308913 0.589339894627438 1496.0 1.0 1496.0 
12.000351672280924 21101.0 1342.0 4992.087912087912 0.5898789458090999 1493.0 4.0 1493.0 
14.000351672280924 19898.0 1282.0 4992.26862026862 0.4990652687428762 1493.0 4.0 1493.0 
16.000198348008887 19898.0 1282.0 4992.105006105006 0.4990650350083373 1492.0 5.0 1492.0 
18.000351672280924 19898.0 1282.0 4991.956043956044 0.5012717579427349 1491.0 6.0 1491.0 
20.000351672280924 19894.0 1281.0 4992.058608058608 0.5003374413403793 1491.0 6.0 1491.0 
22.000351672280924 19915.0 1280.0 4991.95115995116 0.499422595953265 1491.0 6.0 1491.0 
24.000351672280924 19942.0 1280.0 4992.026862026862 0.5003873250623083 1491.0 6.0 1491.0 
26.000198348008887 19928.0 1280.0 4992.007326007326 0.5001995983493088 1491.0 6.0 1491.0 
28.000351672280924 19891.0 1280.0 4991.946275946276 0.4988745301002058 1491.0 6.0 1491.0 
30.000351672280924 19890.0 1280.0 4991.916971916972 0.49878624682248507 1489.0 8.0 1489.0 
32.00035167228093 19893.0 1280.0 4992.01221001221 0.4994425524301489 1490.0 7.0 1490.0 
34.00035167228093 19895.0 1280.0 4991.997557997558 0.49886122686190154 1490.0 7.0 1490.0 
36.00019834800889 19894.0 1280.0 4991.96336996337 0.5004711696828928 1490.0 7.0 1490.0 
38.00035167228093 19864.0 1279.0 4991.982905982906 0.4987971737991102 1491.0 6.0 1491.0 
40.00035167228093 19864.0 1279.0 4992.056166056166 0.49911483707384224 1491.0 6.0 1491.0 
42.00035167228093 19861.0 1279.0 4991.9682539682535 0.5004439115081305 1491.0 6.0 1491.0 
44.00035167228093 19860.0 1279.0 4992.068376068376 0.49905228398005386 1491.0 6.0 1491.0 
46.00019834800889 19877.0 1280.0 4991.965811965812 0.49900272787225297 1491.0 6.0 1491.0 
48.00035167228093 19878.0 1280.0 4991.931623931624 0.4991040914838556 1491.0 6.0 1491.0 
50.00035167228093 19998.0 1281.0 4992.063492063492 0.5013888628495925 1491.0 6.0 1491.0 
52.00035167228093 20010.0 1281.0 4992.07326007326 0.5000626019967039 1491.0 6.0 1491.0 
54.00035167228093 20034.0 1281.0 4992.039072039072 0.5023686604211237 1492.0 5.0 1492.0 
56.00019834800889 19934.0 1280.0 4992.0317460317465 0.4993237734448295 1493.0 4.0 1493.0 
58.00035167228093 19956.0 1281.0 4991.916971916972 0.5004065617061351 1493.0 4.0 1493.0 
60.00035167228093 19948.0 1280.0 4992.009768009768 0.5018142863843277 1494.0 3.0 1494.0 
62.000305031247024 19991.0 1280.0 1316.67155067155 0.5021251417677692 667.0 2.0 324.0 
64.00030503124702 19884.0 1279.0 1319.5873015873008 0.5006903638515233 546.0 6.0 321.0 
66.0001983480089 19924.0 1280.0 1316.6691086691083 0.5029784918494651 506.0 7.0 319.0 
68.00037616242342 19906.0 1279.0 1316.644688644688 0.5007644824301913 471.0 5.0 321.0 
70.00037616242342 19910.0 1280.0 1319.09645909646 0.5032402060033386 458.0 6.0 321.0 
72.00037616242342 19935.0 1281.0 1322.063492063493 0.5030155933277526 452.0 9.0 319.0 
74.00037616242342 19917.0 1280.0 1321.8998778998769 0.5004183959362424 440.0 17.0 311.0 
76.0001983480089 20029.0 1281.0 1324.8229548229538 0.5023194235236141 443.0 14.0 315.0 
78.00037616242342 19984.0 1280.0 1324.664224664224 0.5010049492607164 439.0 15.0 314.0 
80.00037616242342 20071.0 1284.0 1330.319902319903 0.5053158038953416 439.0 13.0 318.0 
82.00037616242342 19890.0 1281.0 1330.2197802197818 0.5035729717437386 444.0 12.0 319.0 
84.00037616242342 19842.0 1280.0 1333.1501831501841 0.5028269984929179 444.0 12.0 320.0 
86.0001983480089 19837.0 1280.0 1333.0231990231991 0.505048077482558 447.0 9.0 323.0 
88.00037616242342 19854.0 1280.0 1333.101343101344 0.5035425754053794 441.0 14.0 318.0 
90.00037616242342 19856.0 1281.0 1333.1746031746043 0.5036860702522431 443.0 11.0 321.0 
92.00037616242342 19826.0 1280.0 1333.103785103786 0.5022856735914394 442.0 12.0 320.0 
94.00037616242342 19822.0 1279.0 1333.0915750915758 0.5010293757640929 441.0 13.0 319.0 
96.0001983480089 19821.0 1279.0 1333.0061050061051 0.5010747051774931 443.0 11.0 321.0 
98.00037616242342 19869.0 1281.0 1333.003663003663 0.505046330380351 441.0 13.0 319.0 
100.00037616242342 19752.0 1279.0 1333.0695970695976 0.5007873458675839 439.0 13.0 319.0 
102.00037616242342 19755.0 1279.0 1333.0012210012212 0.5007989337091127 441.0 11.0 321.0 
104.00037616242342 19754.0 1279.0 1332.9377289377283 0.50077875987742 439.0 14.0 318.0 
106.0001983480089 19817.0 1280.0 1335.7484737484717 0.502873718166553 439.0 14.0 319.0 
108.00037616242342 19705.0 1279.0 1335.8192918192906 0.500711237582418 442.0 12.0 321.0 
110.00037616242342 19720.0 1280.0 1335.7509157509137 0.5044060881381871 441.0 12.0 321.0 
112.00037616242342 19822.0 1280.0 1335.8070818070805 0.504899177647789 443.0 11.0 322.0 
114.00037616242342 19755.0 1280.0 1335.8144078144066 0.5021840917645972 440.0 13.0 320.0 
116.0001983480089 19775.0 1280.0 1335.8510378510368 0.5023160552303572 441.0 13.0 320.0 
118.00037616242342 19810.0 1280.0 1338.7081807081804 0.5012608698669232 446.0 9.0 325.0 
120.00037616242342 19822.0 1279.0 1341.4017094017101 0.5012735746746403 443.0 12.0 323.0 
122.00037616242342 19915.0 1281.0 1344.3076923076928 0.5029771418690459 443.0 12.0 324.0 
124.00037616242342 19909.0 1282.0 1341.4920634920645 0.5038894340097003 443.0 12.0 323.0 
126.0001983480089 19790.0 1280.0 1341.391941391942 0.5004870200291142 445.0 10.0 325.0 
128.00037616242344 19806.0 1281.0 1341.3675213675217 0.5024881753674219 442.0 11.0 324.0 
130.0003761624234 19869.0 1281.0 1338.5347985347973 0.505577430070956 442.0 11.0 323.0 
132.0003761624234 19808.0 1279.0 1335.7973137973124 0.503180331761475 440.0 11.0 322.0 
134.0003761624234 19894.0 1280.0 1333.013431013431 0.5018608290539922 439.0 10.0 322.0 
136.0001983480089 19782.0 1279.0 1327.3919413919418 0.5007600771195864 434.0 12.0 318.0 
138.0003761624234 19777.0 1279.0 1327.4652014652027 0.5005589265423815 429.0 14.0 316.0 
140.0003761624234 19794.0 1280.0 1333.0647130647137 0.5009274935191466 430.0 14.0 318.0 
142.0003761624234 19792.0 1280.0 1338.6471306471299 0.5035818180503433 435.0 10.0 324.0 
144.0003761624234 19794.0 1279.0 1338.6910866910864 0.5004982340923658 433.0 12.0 322.0 
146.0001983480089 19849.0 1279.0 1338.6251526251526 0.5023913170376173 434.0 11.0 323.0 
148.0003761624234 19759.0 1280.0 1344.1758241758253 0.5022721039784436 433.0 12.0 324.0 
150.0003761624234 19755.0 1279.0 1344.22954822955 0.5010963558154721 433.0 13.0 323.0 
152.0003761624234 19797.0 1282.0 1338.5421245421237 0.5055373135813419 437.0 11.0 323.0 
154.0003761624234 19638.0 1280.0 1332.9645909645908 0.5030466943540041 432.0 14.0 318.0 
156.0001983480089 19600.0 1279.0 1335.7484737484717 0.502772208514187 426.0 18.0 315.0 
158.0003761624234 19540.0 1279.0 1335.7851037851021 0.5009206787631113 431.0 15.0 318.0 
160.0003761624234 19542.0 1279.0 1335.75824175824 0.5009502277781241 434.0 13.0 320.0 
162.0003761624234 19550.0 1281.0 1338.5421245421237 0.5027858867236333 435.0 12.0 322.0 
164.0003761624234 19488.0 1280.0 1341.3894993894996 0.5007910513908259 436.0 12.0 323.0 
166.0001983480089 19488.0 1280.0 1341.3382173382179 0.5023036379781328 438.0 11.0 324.0 
168.0003761624234 19475.0 1279.0 1338.5152625152616 0.5007468246003576 437.0 12.0 322.0 
170.0003761624234 19477.0 1280.0 1338.5128205128196 0.5006799836974727 439.0 11.0 323.0 
172.0003761624234 19532.0 1281.0 1346.9059829059822 0.5040502020170436 442.0 11.0 326.0 
174.0003761624234 19516.0 1280.0 1344.141636141637 0.5003336641311836 446.0 6.0 330.0 
176.0001983480089 19515.0 1280.0 1344.1001221001231 0.5003906256807231 445.0 6.0 330.0 
178.0003761624234 19514.0 1280.0 1344.0586080586088 0.5004432535862356 447.0 5.0 331.0 
180.0003761624234 19558.0 1282.0 1344.1098901098912 0.5048076467464905 447.0 6.0 330.0 
182.0003761624234 19511.0 1283.0 1338.5372405372395 0.5069207467139479 446.0 7.0 327.0 
184.0003761624234 19458.0 1280.0 1338.5323565323554 0.5007361060052354 444.0 8.0 326.0 
186.0001983480089 19456.0 1280.0 1338.5518925518916 0.5006222072772075 447.0 6.0 328.0 
188.0003761624234 19552.0 1281.0 1344.1514041514054 0.5024671731088696 445.0 8.0 328.0 
190.0003761624234 19512.0 1280.0 1338.5445665445654 0.5010004004296768 445.0 6.0 328.0 
192.0003761624234 19557.0 1282.0 1338.5079365079355 0.5039127606109549 445.0 7.0 327.0 
194.0003761624234 19518.0 1281.0 1341.3382173382179 0.5043378967144788 443.0 9.0 326.0 
196.0001983480089 19423.0 1280.0 1341.3357753357757 0.5005580930377105 443.0 9.0 326.0 
198.0003761624234 19422.0 1280.0 1341.2698412698412 0.500797309306473 444.0 8.0 327.0 
200.0003761624234 19480.0 1281.0 1344.1098901098912 0.5061121189881133 443.0 9.0 327.0 
202.0003761624234 19351.0 1279.0 1344.075702075703 0.5007941136254204 446.0 7.0 329.0 
204.0003761624234 19348.0 1279.0 1344.085470085471 0.5025361630938239 444.0 9.0 327.0 
206.0001983480089 19366.0 1279.0 1341.3089133089136 0.5016151598064194 443.0 10.0 325.0 
208.0003761624234 19349.0 1280.0 1338.5470085470074 0.5015745291452723 440.0 11.0 323.0 
210.0003761624234 19403.0 1281.0 1335.7216117216115 0.5045012919061653 439.0 9.0 324.0 
212.0003761624234 19276.0 1279.0 1332.9206349206343 0.5005816801946583 438.0 10.0 322.0 
214.0003761624234 19274.0 1279.0 1335.680097680097 0.5005372420906238 439.0 9.0 324.0 
216.0001983480089 19270.0 1279.0 1335.6996336996335 0.500412770535158 439.0 10.0 323.0 
218.0003761624234 19318.0 1280.0 1332.8473748473739 0.502223111121148 438.0 10.0 322.0 
220.0003761624234 19286.0 1279.0 1330.0146520146523 0.500621471059341 435.0 11.0 320.0 
222.0003761624234 19306.0 1279.0 1327.1526251526261 0.5025292699720894 438.0 8.0 322.0 
224.0003761624234 19276.0 1279.0 1324.4273504273513 0.5003878159540965 438.0 8.0 321.0 
226.0001983480089 19351.0 1280.0 1324.4249084249093 0.5012524759139371 439.0 6.0 323.0 
228.0003761624234 19338.0 1280.0 1327.2234432234447 0.5032896268444547 437.0 7.0 323.0 
230.0003761624234 19319.0 1281.0 1327.2991452991457 0.50063632291656 436.0 7.0 323.0 
232.0003761624234 19317.0 1281.0 1332.8766788766775 0.5006738625113922 435.0 8.0 324.0 
234.0003761624234 19327.0 1282.0 1332.8766788766775 0.5009482535993196 437.0 6.0 326.0 
236.0001983480089 19384.0 1283.0 1332.90354090354 0.5028346321368732 436.0 7.0 325.0 
238.0003761624234 19326.0 1282.0 1332.8009768009754 0.5006463459999679 437.0 6.0 326.0 
240.0003761624234 19331.0 1282.0 1327.2014652014666 0.5005848413672814 436.0 7.0 323.0 
242.0003761624234 19375.0 1283.0 1327.1868131868143 0.5027509907542863 437.0 7.0 323.0 
244.0003761624234 19318.0 1283.0 1321.5799755799746 0.502721922159565 436.0 8.0 320.0 
246.0001983480089 19296.0 1282.0 1321.6532356532348 0.5002203424574401 438.0 6.0 322.0 
248.0003761624234 19367.0 1284.0 1318.9010989010978 0.5022111318343211 437.0 7.0 320.0 
250.0003761624234 19320.0 1283.0 1318.8498168498159 0.5013176175621139 436.0 6.0 321.0 
252.0003761624234 19341.0 1282.0 1318.857142857142 0.5082135674867414 435.0 7.0 320.0 
254.0003761624234 19311.0 1283.0 1318.8156288156276 0.5060269369622211 433.0 8.0 319.0 
256.0001983480089 19215.0 1280.0 1318.759462759461 0.5009033426325614 434.0 8.0 319.0 
258.00037616242344 19213.0 1281.0 1318.8156288156276 0.5066082039890426 438.0 6.0 321.0 
260.00037616242344 19232.0 1280.0 1315.8803418803404 0.5044535015256353 437.0 7.0 319.0 
262.00037616242344 19122.0 1280.0 1313.1892551892565 0.502930687085695 437.0 7.0 318.0 
264.00037616242344 19073.0 1279.0 1313.2087912087927 0.5006511583568671 435.0 7.0 318.0 
266.0001983480089 19104.0 1280.0 1313.2747252747254 0.5017828654206317 431.0 10.0 315.0 
268.00037616242344 19058.0 1279.0 1316.0244200244204 0.4999848225691334 430.0 12.0 314.0 
270.00037616242344 19077.0 1279.0 1327.2869352869354 0.5048093305123144 431.0 10.0 320.0 
272.00037616242344 19047.0 1278.0 1327.2210012210026 0.5039813420903305 431.0 9.0 321.0 
274.00037616242344 18979.0 1278.0 1330.0390720390726 0.5068365455219817 430.0 11.0 320.0 
276.0001983480089 19002.0 1278.0 1330.1001221001231 0.5055782124384327 432.0 10.0 321.0 
278.00037616242344 18834.0 1277.0 1330.009768009768 0.5008662009386204 431.0 11.0 320.0 
280.00037616242344 18830.0 1277.0 1329.990231990232 0.5030623888659538 433.0 10.0 321.0 
282.00037616242344 18802.0 1276.0 1330.0366300366304 0.5003817860096279 434.0 9.0 322.0 
284.00037616242344 18809.0 1277.0 1330.007326007326 0.5010674235746736 432.0 11.0 320.0 
286.0001983480089 18813.0 1278.0 1329.9438339438332 0.5011582081074756 432.0 10.0 321.0 
288.00037616242344 18810.0 1278.0 1329.9877899877897 0.5025610983951054 433.0 9.0 322.0 
290.00037616242344 18766.0 1277.0 1332.8180708180698 0.5003959271015709 430.0 12.0 320.0 
292.00037616242344 18789.0 1278.0 1329.9804639804638 0.5011877726572028 429.0 11.0 320.0 
294.00037616242344 18849.0 1280.0 1330.0561660561668 0.5058487732810222 429.0 11.0 320.0 
296.0001983480089 18755.0 1278.0 1330.0317460317465 0.5015643624313764 431.0 9.0 322.0 
298.00037616242344 18802.0 1278.0 1329.9609279609274 0.5051777324578035 430.0 9.0 322.0 
300.00037616242344 18766.0 1280.0 1329.9536019536015 0.5048060619191818 427.0 12.0 319.0 
302.00037616242344 18658.0 1279.0 1327.1379731379739 0.5045731244799692 428.0 11.0 319.0 
304.00037616242344 18589.0 1278.0 1324.2930402930415 0.503253563828865 427.0 11.0 318.0 
306.0001983480089 18575.0 1278.0 1332.7814407814396 0.4998862749129785 432.0 9.0 323.0 
308.00037616242344 18577.0 1278.0 1327.1452991452998 0.5004489806400865 428.0 10.0 320.0 
310.00037616242344 18596.0 1280.0 1327.0671550671555 0.5012739328173812 426.0 12.0 318.0 
312.00037616242344 18612.0 1282.0 1321.52625152625 0.5048911233636642 428.0 9.0 319.0 
314.00037616242344 18600.0 1282.0 1321.4822954822964 0.5023825758843903 426.0 11.0 317.0 
316.0001983480089 18533.0 1280.0 1318.6984126984125 0.503293461334652 427.0 11.0 316.0 
318.00037616242344 18566.0 1279.0 1324.4297924297935 0.5063749476517481 426.0 10.0 319.0 
320.00037616242344 18500.0 1279.0 1327.2014652014664 0.5032174361892112 426.0 11.0 319.0 
322.00037616242344 18496.0 1281.0 1329.919413919413 0.5011265670816658 429.0 9.0 322.0 
324.00037616242344 18486.0 1281.0 1332.7106227106228 0.5045432731726459 427.0 11.0 321.0 
326.0001983480089 18462.0 1280.0 1332.7716727716713 0.5007844921912419 426.0 11.0 321.0 
328.00037616242344 18460.0 1280.0 1332.7741147741135 0.5006983079343775 427.0 10.0 322.0 
330.00037616242344 18461.0 1280.0 1335.5457875457862 0.5062964318790676 427.0 11.0 322.0 
332.00037616242344 18427.0 1279.0 1330.0488400488405 0.5011877791058301 425.0 10.0 321.0 
334.00037616242344 18422.0 1279.0 1329.9365079365073 0.5012921370724355 425.0 11.0 320.0 
336.0001983480089 18430.0 1280.0 1327.2405372405385 0.5000156287773551 428.0 9.0 321.0 
338.00037616242344 18506.0 1281.0 1324.2857142857144 0.5026138998967657 427.0 10.0 319.0 
340.00037616242344 18420.0 1281.0 1324.319902319903 0.5029933793270981 423.0 13.0 316.0 
342.00037616242344 18414.0 1281.0 1332.8107448107437 0.5015694101962266 425.0 10.0 322.0 
344.00037616242344 18423.0 1282.0 1330.0415140415146 0.5037891975065041 424.0 10.0 321.0 
346.0001983480089 18400.0 1282.0 1329.9609279609274 0.5034215770682101 425.0 9.0 322.0 
348.00037616242344 18374.0 1281.0 1327.1965811965824 0.5010671092577859 423.0 10.0 320.0 
350.00037616242344 18372.0 1281.0 1324.2588522588526 0.5010232784946362 420.0 13.0 316.0 
352.00037616242344 18379.0 1282.0 1324.339438339439 0.5026524801498772 424.0 10.0 319.0 
354.00037616242344 18372.0 1281.0 1321.4188034188041 0.5034911416463241 425.0 10.0 318.0 
356.0001983480089 18324.0 1280.0 1321.5433455433445 0.5009327087192837 424.0 9.0 319.0 
358.00037616242344 18328.0 1281.0 1321.5409035409023 0.5029691705097382 424.0 9.0 319.0 
360.00037616242344 18357.0 1282.0 1321.6239316239312 0.5019312992809638 424.0 10.0 318.0 
362.00037616242344 18375.0 1281.0 1315.9096459096447 0.5027137221499005 427.0 9.0 317.0 
364.00037616242344 18416.0 1282.0 1321.523809523808 0.5068611674501275 424.0 14.0 314.0 
366.0001983480089 18356.0 1280.0 1324.327228327229 0.5007804993890953 426.0 11.0 318.0 
368.00037616242344 18356.0 1280.0 1310.388278388279 0.5011200733392854 427.0 9.0 315.0 
370.00037616242344 18348.0 1279.0 1310.2393162393184 0.5038282842991041 424.0 11.0 313.0 
372.00037616242344 18406.0 1280.0 1313.1916971916985 0.5057965849281335 426.0 10.0 315.0 
374.00037616242344 18328.0 1278.0 1313.103785103786 0.5047960072327115 424.0 12.0 313.0 
376.0001983480089 18289.0 1276.0 1318.7789987789972 0.5037232875571064 427.0 10.0 317.0 
378.00037616242344 18347.0 1279.0 1315.9462759462754 0.5038928179366775 428.0 9.0 317.0 
380.00037616242344 18282.0 1278.0 1315.997557997558 0.5025972904024659 425.0 12.0 314.0 
382.00037616242344 18274.0 1277.0 1313.1452991453 0.5045621339049842 427.0 10.0 315.0 
384.00037616242344 18242.0 1276.0 1313.2454212454234 0.5020252718643671 425.0 11.0 314.0 
386.0001983480089 18238.0 1275.0 1313.1990231990249 0.5017243897484311 427.0 10.0 315.0 
388.00037616242344 18308.0 1275.0 1310.4371184371196 0.5057392707511911 424.0 11.0 313.0 
390.00037616242344 18248.0 1275.0 1310.3907203907208 0.5037807068701168 424.0 12.0 312.0 
392.00037616242344 18193.0 1273.0 1307.6239316239314 0.5040617430887387 425.0 9.0 314.0 
394.0004472935998 18378.0 1278.0 1310.3003663003665 0.5059320158678877 427.0 11.0 313.0 
396.0001983480089 18316.0 1279.0 1310.3638583638592 0.50682607004133 428.0 11.0 313.0 
398.0004472935998 18180.0 1279.0 1307.5189255189239 0.5050676356357755 429.0 12.0 311.0 
400.0004472935998 18225.0 1278.0 1307.594627594627 0.5068667376445396 427.0 13.0 310.0 
402.0004472935998 18166.0 1278.0 1310.4151404151414 0.505309030858272 433.0 10.0 314.0 
404.0004472935998 18171.0 1278.0 1316.0366300366304 0.5039482655590348 432.0 10.0 316.0 
406.0001983480089 18190.0 1278.0 1318.8058608058595 0.5080223849095152 435.0 9.0 318.0 
408.0004472935998 18135.0 1276.0 1321.604395604395 0.5008923095593605 436.0 8.0 320.0 
410.0004472935998 18261.0 1277.0 1324.2979242979247 0.5079900321648994 433.0 11.0 318.0 
412.0004472935998 18190.0 1277.0 1321.53846153846 0.5056324681228219 435.0 10.0 318.0 
414.0004472935998 18236.0 1278.0 1324.329670329671 0.5060157184135885 436.0 10.0 319.0 
416.0001983480089 18129.0 1276.0 1321.5848595848586 0.5012452001175357 438.0 8.0 320.0 
418.0004472935998 18147.0 1277.0 1321.5042735042716 0.5010312081442504 441.0 8.0 320.0 
420.0004472935998 18154.0 1278.0 1304.703296703296 0.5032824309957011 437.0 11.0 311.0 
422.0004472935998 18143.0 1278.0 1307.5262515262496 0.5040484375930347 436.0 10.0 313.0 
424.0003929048119 18187.0 1279.0 1304.808302808301 0.504941039032589 432.0 10.0 312.0 
426.0001983480089 18148.0 1277.0 1304.7936507936488 0.5013276979959603 430.0 9.0 313.0 
428.0003929048119 18155.0 1278.0 1304.8766788766773 0.50380601074724 432.0 7.0 315.0 
430.0003929048119 18237.0 1279.0 1299.1062271062285 0.5056049988817466 433.0 7.0 313.0 
432.0003929048119 18197.0 1277.0 1310.4004884004896 0.5066850220879734 435.0 5.0 319.0 
434.0003929048119 18126.0 1276.0 1315.931623931623 0.5046578803008922 434.0 7.0 319.0 
436.0001983480089 18157.0 1276.0 1321.5213675213654 0.5030135357043554 441.0 7.0 321.0 
438.0003929048119 18137.0 1274.0 1321.477411477413 0.5066283584140612 443.0 7.0 321.0 
440.0003929048119 18120.0 1273.0 1324.3394383394395 0.505134224010358 445.0 6.0 323.0 
442.0003929048119 18139.0 1273.0 1329.9023199023188 0.5041794211204552 447.0 5.0 326.0 
444.0003929048119 18138.0 1273.0 1327.1111111111122 0.5078140050915139 447.0 6.0 324.0 
446.0001983480089 18072.0 1271.0 1332.7814407814392 0.503656328714069 445.0 7.0 325.0 
448.0003929048119 18053.0 1271.0 1332.7887667887653 0.5019941502333891 446.0 6.0 326.0 
450.0003929048119 18046.0 1271.0 1335.6434676434665 0.5040800179855831 447.0 5.0 328.0 
452.0003929048119 18026.0 1270.0 1335.6605616605607 0.5013075935178826 445.0 6.0 327.0 
454.00035449397666 18032.0 1270.0 1335.5824175824164 0.501601769479988 445.0 6.0 327.0 
456.0001983480089 18027.0 1270.0 1335.531135531134 0.5015552884412224 447.0 5.0 328.0 
458.0003160831414 18095.0 1271.0 1332.6471306471299 0.5028181022772906 444.0 6.0 326.0 
460.0003160831414 18053.0 1271.0 1332.68376068376 0.5050981947562421 442.0 7.0 325.0 
462.0003160831414 18056.0 1271.0 1327.0695970695974 0.5041270464441846 445.0 6.0 324.0 
464.0003160831414 18048.0 1270.0 1327.1184371184381 0.5055034066307927 446.0 5.0 325.0 
466.0001983480089 17980.0 1269.0 1327.0183150183148 0.5011640536905505 443.0 6.0 324.0 
468.0003160831414 18070.0 1271.0 1327.0573870573874 0.5027942285633586 442.0 7.0 323.0 
470.0003160831414 18016.0 1271.0 1321.3650793650802 0.5064923871311243 439.0 9.0 319.0 
472.0003160831414 18039.0 1271.0 1318.644688644688 0.5040014804331742 439.0 7.0 320.0 
474.0003160831414 18023.0 1267.0 1315.8510378510368 0.5055534292859771 438.0 6.0 320.0 
476.0001983480089 18019.0 1267.0 1313.0647130647135 0.5016114973285879 437.0 7.0 318.0 
478.0003160831414 17998.0 1268.0 1315.8144078144064 0.5024312471392969 436.0 7.0 319.0 
480.0003160831414 17980.0 1268.0 1315.7606837606818 0.5028684139074153 435.0 6.0 320.0 
482.0003160831414 17908.0 1268.0 1307.362637362638 0.5017315185169688 432.0 7.0 316.0 
484.0003160831414 17910.0 1268.0 1304.6056166056162 0.501507410577865 432.0 8.0 314.0 
486.0001983480089 18054.0 1270.0 1301.7582417582396 0.504597043721283 430.0 7.0 314.0 
488.0003160831414 18033.0 1269.0 1299.0818070818077 0.5048590986697742 429.0 6.0 314.0 
490.0003160831414 17987.0 1268.0 1299.001221001221 0.5027474797807928 429.0 6.0 314.0 
492.0003160831414 17982.0 1267.0 1296.2368742368765 0.5007033614826024 426.0 7.0 312.0 
494.0003160831414 17979.0 1267.0 1287.8485958485944 0.5017481416921985 424.0 8.0 308.0 
496.0001983480089 17965.0 1267.0 1287.80708180708 0.5050880979711672 425.0 7.0 309.0 
498.00035449397666 17938.0 1266.0 1287.7777777777756 0.5035652128771799 422.0 6.0 310.0 
500.00035449397666 17931.0 1265.0 1287.7533577533552 0.5039972910605807 422.0 8.0 308.0 
502.00035449397666 17911.0 1265.0 1290.5567765567755 0.5036350406333158 424.0 9.0 308.0 
504.00035449397666 17877.0 1266.0 1287.7899877899858 0.5079422927647884 425.0 8.0 308.0 
506.0001983480089 17835.0 1262.0 1287.7802197802175 0.5028652684348827 425.0 8.0 308.0 
508.00035449397666 17805.0 1261.0 1284.9621489621486 0.5002641082275741 426.0 8.0 307.0 
510.00035449397666 17822.0 1262.0 1284.8888888888875 0.5032521147034461 424.0 8.0 307.0 
512.0003544939766 17818.0 1261.0 1282.190476190478 0.5050270424889256 424.0 7.0 307.0 
514.0003544939766 17844.0 1261.0 1279.255189255192 0.5000133322644859 425.0 6.0 307.0 
516.0001983480089 17848.0 1262.0 1279.3821733821735 0.5027032882098393 421.0 7.0 306.0 
518.0003544939766 17848.0 1262.0 1273.7509157509132 0.5009702863308246 418.0 9.0 302.0 
520.0003544939766 17872.0 1263.0 1270.9670329670325 0.5004043645201212 415.0 10.0 300.0 
522.0003544939766 17872.0 1263.0 1268.0927960927972 0.5008959334904567 418.0 6.0 303.0 
524.0003544939766 17872.0 1263.0 1254.1538461538478 0.5002313826643192 416.0 7.0 297.0 
526.0001983480089 17875.0 1263.0 1254.0317460317465 0.5001045805588761 414.0 7.0 297.0 
528.0003544939766 17928.0 1265.0 1254.1562881562897 0.5013519855125043 411.0 8.0 296.0 
530.0003544939766 17915.0 1264.0 1254.1343101343114 0.501167755230094 410.0 8.0 296.0 
532.0003544939766 17905.0 1263.0 1251.3772893772905 0.5029992386779177 412.0 9.0 294.0 
534.0003544939766 17896.0 1263.0 1254.1538461538476 0.5002538778722012 414.0 8.0 296.0 
536.0001983480089 17906.0 1264.0 1254.183150183152 0.5002657556326111 416.0 7.0 297.0 
538.0003544939766 17912.0 1264.0 1254.0927960927972 0.5027703504577979 418.0 6.0 298.0 
540.0003544939766 17910.0 1264.0 1254.2124542124564 0.5024912958622592 417.0 7.0 297.0 
542.0003544939766 17904.0 1263.0 1251.3089133089145 0.5006307758975397 418.0 7.0 296.0 
544.0003544939766 17904.0 1263.0 1248.5494505494482 0.5007132900273591 415.0 8.0 294.0 
546.0001983480089 17904.0 1263.0 1248.5470085470063 0.5005901717228709 414.0 6.0 296.0 
548.0003544939766 17915.0 1263.0 1248.5934065934048 0.5008312446195127 409.0 10.0 292.0 
550.0003544939766 18002.0 1266.0 1245.711843711843 0.506121872349828 399.0 21.0 280.0 
552.0003544939766 17932.0 1265.0 1248.5152625152602 0.503069345778011 411.0 9.0 293.0 
554.0003544939766 17941.0 1267.0 1251.2747252747265 0.507537965895455 410.0 7.0 296.0 
556.0001983480089 17888.0 1264.0 1248.4761904761936 0.502612170308438 408.0 8.0 294.0 
558.0003160831413 17910.0 1265.0 1245.7118437118422 0.5017413555110064 409.0 7.0 294.0 
560.0003160831413 17870.0 1265.0 1242.920634920634 0.5046699886192191 406.0 8.0 292.0 
562.0003160831413 17830.0 1264.0 1242.8864468864456 0.5006265912916318 404.0 9.0 291.0 
564.0003160831413 17894.0 1265.0 1245.706959706958 0.501846933991429 406.0 8.0 293.0 
566.0001983480089 17917.0 1265.0 1245.6825396825377 0.5032018886004127 405.0 9.0 292.0 
568.0003160831413 17888.0 1266.0 1245.7753357753338 0.5006579906021988 404.0 9.0 292.0 
570.0003160831413 17886.0 1266.0 1242.8791208791192 0.5028685329179718 410.0 6.0 294.0 
572.0003160831413 17900.0 1266.0 1245.8803418803404 0.5007832112975771 412.0 7.0 294.0 
574.0003160831413 17994.0 1269.0 1248.5396825396801 0.5075119916075336 410.0 9.0 293.0 
576.0001983480089 17855.0 1267.0 1245.8241758241743 0.5031118762424693 412.0 9.0 292.0 
578.0005184247763 17810.0 1266.0 1245.7631257631235 0.5007725473334677 413.0 7.0 294.0 
580.0005184247763 17932.0 1269.0 1248.6568986568975 0.5050089566603377 413.0 9.0 293.0 
582.0005184247763 17923.0 1269.0 1248.6129426129419 0.5071019785895167 417.0 8.0 294.0 
584.0005184247763 17887.0 1267.0 1251.3821733821742 0.5016493344329773 424.0 6.0 297.0 
586.0001983480089 17848.0 1267.0 1248.4297924297941 0.5038660187866312 425.0 6.0 296.0 
588.0005184247763 17926.0 1269.0 1245.6874236874232 0.5041775305417051 424.0 7.0 294.0 
590.0005184247763 17908.0 1268.0 1248.4957264957286 0.5049189262784155 424.0 6.0 296.0 
592.0005184247763 17853.0 1266.0 1248.515262515261 0.5010135890294347 419.0 8.0 294.0 
594.0005184247763 17951.0 1268.0 1248.5543345543329 0.5029174005093623 419.0 6.0 296.0 
596.0001983480089 17923.0 1267.0 1248.6080586080575 0.5037362637424146 416.0 9.0 293.0 
598.0005184247763 17869.0 1266.0 1248.5299145299123 0.5014160934682461 404.0 21.0 281.0 
600.0005184247763 17878.0 1267.0 1251.4139194139213 0.5004924971451703 421.0 9.0 294.0 
602.0005184247763 17891.0 1268.0 1251.3968253968271 0.5021047861066869 424.0 6.0 297.0 
604.0005184247763 17994.0 1272.0 1256.91575091575 0.5142654935784984 423.0 8.0 297.0 
606.0001983480089 17901.0 1267.0 1256.8498168498156 0.5059784608297019 423.0 7.0 298.0 
608.0005184247763 17814.0 1267.0 1256.8962148962137 0.5039491696129973 424.0 6.0 299.0 
610.0005184247763 17732.0 1266.0 1256.8278388278375 0.5011625688195619 424.0 6.0 299.0 
612.0005184247763 17738.0 1268.0 1256.8693528693514 0.5037638345617246 423.0 7.0 298.0 
614.0005184247763 17730.0 1268.0 1265.3577533577552 0.5023248710805077 424.0 7.0 301.0 
616.0001983480089 17722.0 1268.0 1262.517704517702 0.5015609147435351 423.0 9.0 298.0 
618.0005184247763 17720.0 1268.0 1259.6214896214874 0.5011208049335302 425.0 6.0 300.0 
620.0005184247763 17780.0 1269.0 1265.3968253968274 0.5037762629933341 426.0 6.0 302.0 
622.0005184247763 17756.0 1268.0 1265.2918192918207 0.5060229785063411 425.0 7.0 301.0 
624.0005184247763 17861.0 1269.0 1268.2368742368762 0.5049931706869707 422.0 8.0 301.0 
626.0001983480089 17753.0 1267.0 1271.064713064714 0.5039239443719976 425.0 7.0 303.0 
628.0005184247763 17745.0 1267.0 1273.7826617826597 0.5017303295143223 428.0 9.0 302.0 
630.0005184247763 17773.0 1268.0 1282.2148962148983 0.5032911587858615 432.0 8.0 306.0 
632.0005184247763 17776.0 1269.0 1279.3772893772907 0.5019418733091314 436.0 6.0 307.0 
634.0005184247763 17818.0 1269.0 1284.923076923076 0.5069107673654477 436.0 6.0 309.0 
636.0001983480089 17786.0 1267.0 1285.0158730158732 0.5042319677737562 437.0 8.0 307.0 
638.0005184247763 17794.0 1268.0 1284.9841269841268 0.5066959000119028 434.0 7.0 308.0 
640.0005184247763 17731.0 1268.0 1279.5189255189227 0.5037018066390991 431.0 9.0 304.0 
642.0005184247763 17683.0 1268.0 1279.5335775335752 0.5026153481640154 429.0 7.0 306.0 
644.0005184247763 17730.0 1270.0 1279.4969474969446 0.5137032515805526 427.0 7.0 306.0 
646.0001983480089 17594.0 1266.0 1279.467643467646 0.50426703130021 427.0 7.0 306.0 
648.0005184247763 17561.0 1264.0 1282.283272283273 0.5021159739850903 422.0 10.0 304.0 
650.0005184247763 17606.0 1266.0 1282.2393162393187 0.5030244325403938 427.0 5.0 309.0 
652.0005184247763 17585.0 1266.0 1279.4065934065954 0.5032861367077587 424.0 8.0 305.0 
654.0005184247763 17569.0 1265.0 1279.4090354090374 0.5014522752845709 423.0 8.0 305.0 
656.0001983480089 17567.0 1265.0 1279.340659340661 0.5009962995038256 425.0 6.0 307.0 
658.0005184247763 17612.0 1267.0 1279.3894993895012 0.5052174565560256 424.0 6.0 307.0 
660.0005184247763 17637.0 1267.0 1279.4065934065954 0.5052862856632155 422.0 7.0 306.0 
662.0005184247763 17566.0 1266.0 1279.369963369965 0.5005688574726966 423.0 6.0 307.0 
664.0005184247763 17604.0 1268.0 1282.197802197804 0.5028646848933009 419.0 8.0 306.0 
#####################################################################
# End of data export. Simulation finished at: 2019-03-06T06:55+0000 #
#####################################################################
