#####################################################################
# Alchemist log file - simulation started at: 2019-03-05T16:25+0000 #
#####################################################################
# seed = 6.0, bandwidth = 316227.76601683797, accessPointCount = 531.8295896944988, baserange = 1000.0
#
# The columns have the following meaning: 
# time neighbor_count[Sum] <value>@neighbor_count[Sum] packet_size[Mean] mean_delay[Mean] crowd[Sum] overcrowded[Sum] risk[Sum] 
0.0 NaN NaN NaN NaN NaN NaN NaN 
2.000046043178321 9631.0 8227.0 4981.919132149901 0.4391737239923709 1497.0 0.0 1497.0 
4.001022434378216 14397.0 10370.0 4983.161735700197 0.615305986901955 1497.0 0.0 1497.0 
6.000822029452522 17333.0 10501.0 4984.347140039447 0.6659709049592922 1497.0 0.0 1497.0 
8.000229316095627 20777.0 10477.0 4985.696252465483 0.613983944064939 1497.0 0.0 1497.0 
10.000229316095627 24123.0 10481.0 4987.0631163708085 0.6103276097292395 1497.0 0.0 1497.0 
12.000229316095627 25651.0 10382.0 4988.049309664694 0.5954831890513719 1497.0 0.0 1497.0 
14.000229316095627 25098.0 10274.0 4987.798816568047 0.5318692195621021 1496.0 1.0 1496.0 
16.000229316095627 25086.0 10273.0 4987.879684418146 0.5304191672827124 1495.0 2.0 1495.0 
18.000229316095627 25086.0 10273.0 4987.7712031558185 0.5307064872374262 1495.0 2.0 1495.0 
20.000229316095627 25086.0 10273.0 4987.7258382642995 0.5304958162246189 1495.0 2.0 1495.0 
22.000229316095627 25179.0 10276.0 4987.8126232741615 0.5335556607134394 1495.0 2.0 1495.0 
24.000229316095627 25166.0 10273.0 4987.836291913215 0.5309969126798196 1495.0 2.0 1495.0 
26.000229316095627 25180.0 10274.0 4987.485207100592 0.5323530380832624 1495.0 2.0 1495.0 
28.000229316095627 25251.0 10274.0 4987.846153846154 0.5325209591528991 1495.0 2.0 1495.0 
30.000229316095627 25234.0 10273.0 4987.954635108481 0.5312842933789833 1495.0 2.0 1495.0 
32.00022931609563 25234.0 10273.0 4987.652859960553 0.5312197084218602 1495.0 2.0 1495.0 
34.00022931609563 25234.0 10273.0 4987.6883629191325 0.5315040217781755 1495.0 2.0 1495.0 
36.00022931609563 25259.0 10275.0 4987.763313609467 0.5335298488967644 1495.0 2.0 1495.0 
38.00022931609563 25242.0 10273.0 4987.443786982249 0.5314632772004756 1494.0 3.0 1494.0 
40.00022931609563 25242.0 10273.0 4987.842209072978 0.5315063462556588 1493.0 4.0 1493.0 
42.00022931609563 25242.0 10273.0 4987.883629191321 0.5315091281577083 1493.0 4.0 1493.0 
44.00022931609563 25247.0 10274.0 4987.577909270217 0.5315268059250667 1493.0 4.0 1493.0 
46.00022931609563 25255.0 10276.0 4987.597633136094 0.5313773406177482 1493.0 4.0 1493.0 
48.00022931609563 25255.0 10274.0 4987.755424063116 0.5319225946963427 1493.0 4.0 1493.0 
50.00022931609563 25252.0 10274.0 4987.593688362919 0.5310016466926194 1493.0 4.0 1493.0 
52.00022931609563 25256.0 10274.0 4987.871794871795 0.5310990849571634 1493.0 4.0 1493.0 
54.00022931609563 25262.0 10275.0 4987.710059171598 0.5328288775491434 1493.0 4.0 1493.0 
56.00022931609563 25254.0 10277.0 4987.471400394477 0.5345856035019784 1493.0 4.0 1493.0 
58.00022931609563 25279.0 10277.0 4987.633136094674 0.5341611319262023 1493.0 4.0 1493.0 
60.00022931609563 25168.0 10276.0 4987.899408284024 0.5326474839618104 1493.0 4.0 1493.0 
62.000794862157704 25158.0 10274.0 1174.552268244578 0.5107290187370541 753.0 5.0 336.0 
64.00087109014757 25188.0 10279.0 1174.506903353064 0.5225908817446542 589.0 13.0 328.0 
66.00087109014756 25171.0 10278.0 1172.124260355035 0.5219941220920113 536.0 18.0 322.0 
68.0007948621577 25169.0 10274.0 1174.335305719917 0.5210519569952636 516.0 9.0 332.0 
70.0007948621577 25171.0 10276.0 1174.2741617356949 0.5210953274294624 489.0 13.0 328.0 
72.0007948621577 25179.0 10274.0 1174.1676528599667 0.5200262274110762 486.0 15.0 326.0 
74.0007948621577 25175.0 10275.0 1174.2544378698228 0.5200678101759652 480.0 19.0 322.0 
76.0007948621577 25222.0 10275.0 1176.378698224858 0.520426602266757 477.0 16.0 326.0 
78.0007948621577 25218.0 10274.0 1176.4240631163714 0.5193866100769824 475.0 15.0 327.0 
80.0007948621577 25228.0 10275.0 1176.4161735700125 0.519586618577388 476.0 12.0 330.0 
82.0007948621577 25241.0 10275.0 1176.3155818540463 0.5214634756902619 475.0 12.0 330.0 
84.0007948621577 25133.0 10275.0 1178.625246548321 0.5191902787820325 470.0 13.0 330.0 
86.0007948621577 25151.0 10276.0 1178.6548323471422 0.5220043392072049 468.0 13.0 330.0 
88.0007948621577 25060.0 10274.0 1178.5621301775177 0.519253958402165 468.0 13.0 330.0 
90.0007948621577 25061.0 10274.0 1178.5798816568088 0.5196178517895017 470.0 12.0 331.0 
92.0007948621577 25140.0 10276.0 1178.5621301775177 0.5232311994850857 469.0 13.0 330.0 
94.0007948621577 25107.0 10276.0 1178.591715976338 0.5191672711916339 470.0 12.0 331.0 
96.0007948621577 25108.0 10275.0 1180.8796844181436 0.5218321347935184 469.0 12.0 332.0 
98.0007948621577 25099.0 10274.0 1183.0848126232743 0.5191892834405138 470.0 12.0 333.0 
100.0007948621577 25102.0 10274.0 1183.1715976331302 0.519185940411608 469.0 13.0 332.0 
102.0007948621577 25107.0 10275.0 1183.067061143983 0.5190597754246407 468.0 14.0 331.0 
104.0007948621577 25108.0 10275.0 1183.1420118343253 0.5189835266665379 467.0 14.0 331.0 
106.0007948621577 25207.0 10277.0 1185.364891518739 0.5201256171660663 469.0 13.0 333.0 
108.0007948621577 25198.0 10274.0 1187.656804733723 0.5186190899661093 470.0 13.0 334.0 
110.0007948621577 25206.0 10275.0 1187.656804733723 0.518771778870613 470.0 13.0 334.0 
112.0007948621577 25227.0 10276.0 1187.5483234714065 0.5202003900771752 471.0 13.0 334.0 
114.0004257173198 25221.0 10277.0 1187.6193293885613 0.5207949784004141 470.0 14.0 333.0 
116.0004257173198 25109.0 10274.0 1187.6844181459537 0.5192487997336785 471.0 14.0 333.0 
118.0004257173198 25147.0 10276.0 1189.8343195266316 0.5201327165431558 473.0 12.0 336.0 
120.0004257173198 25155.0 10275.0 1185.3530571992078 0.5196862887305802 473.0 12.0 334.0 
122.0007948621577 25230.0 10274.0 1187.6449704141935 0.5193636415471047 472.0 12.0 335.0 
124.0007948621577 25228.0 10274.0 1185.3944773175497 0.5180996229367034 472.0 12.0 334.0 
126.0007948621577 25320.0 10276.0 1178.510848126226 0.5201095882692145 472.0 12.0 331.0 
128.0007948621577 25222.0 10274.0 1178.585798816561 0.5179701012455622 472.0 12.0 331.0 
130.0007948621577 25222.0 10274.0 1178.5285996055168 0.5180001876926148 472.0 12.0 331.0 
132.00087109014757 25238.0 10275.0 1178.5226824457563 0.51877652927781 470.0 12.0 331.0 
134.00087109014757 25263.0 10278.0 1178.6055226824506 0.520502424918772 470.0 12.0 331.0 
136.00087109014757 25179.0 10276.0 1176.2485207100626 0.5192018152669283 468.0 12.0 330.0 
138.00087109014757 25260.0 10277.0 1176.3214990138058 0.5206108312160134 469.0 12.0 330.0 
140.00087109014757 25164.0 10275.0 1176.331360946738 0.5194939641421614 468.0 13.0 329.0 
142.00087109014757 25158.0 10274.0 1176.2485207100626 0.5181808043129703 467.0 12.0 330.0 
144.00087109014757 25158.0 10274.0 1178.5424063116463 0.518135362200006 466.0 12.0 331.0 
146.00087109014757 25158.0 10274.0 1178.5502958579868 0.5180722276302081 465.0 13.0 330.0 
148.00087109014757 25167.0 10275.0 1178.5285996055168 0.5182246637898201 467.0 12.0 331.0 
150.00087109014757 25168.0 10274.0 1178.4852071005953 0.5203001678460849 467.0 12.0 331.0 
152.0007948621577 25184.0 10275.0 1180.8027613412294 0.518535011596155 466.0 13.0 331.0 
154.0007948621577 25260.0 10276.0 1180.7337278106465 0.5186046978085896 470.0 12.0 332.0 
156.0007948621577 25271.0 10277.0 1178.560157790919 0.5207225268643143 471.0 12.0 331.0 
158.00087109014757 25200.0 10276.0 1178.5542406311588 0.5217499659470158 470.0 13.0 330.0 
160.00087109014757 25207.0 10274.0 1183.1321499013861 0.5198191120661353 468.0 12.0 333.0 
162.00087109014757 25210.0 10275.0 1187.6074950690306 0.5203809128811712 469.0 12.0 335.0 
164.00087109014757 25196.0 10274.0 1189.8954635108541 0.519018829399337 465.0 15.0 333.0 
166.00087109014757 25205.0 10275.0 1187.59368836292 0.5189265454608125 469.0 12.0 335.0 
168.00087109014757 25216.0 10276.0 1189.9309664694358 0.5198485825407022 468.0 12.0 336.0 
170.00087109014757 25222.0 10275.0 1194.4516765285937 0.5207425762710016 466.0 13.0 337.0 
172.00087109014757 25206.0 10274.0 1194.4201183431915 0.5188421993555201 468.0 12.0 338.0 
174.00087109014757 25206.0 10274.0 1194.4220907297904 0.5188034078206575 467.0 12.0 338.0 
176.00087109014757 25206.0 10274.0 1194.347140039456 0.518848777827488 466.0 13.0 337.0 
178.00087109014757 25230.0 10276.0 1194.3786982248578 0.5216018382744052 470.0 12.0 338.0 
180.00087109014757 25118.0 10275.0 1194.433925049303 0.5194288467057606 470.0 12.0 338.0 
182.00087109014757 25140.0 10277.0 1196.5562130177573 0.5221619062378775 469.0 13.0 338.0 
184.00087109014757 25204.0 10275.0 1196.6587771203224 0.5202547934408122 469.0 12.0 339.0 
186.00087109014757 25134.0 10276.0 1196.59368836292 0.5203207562697248 469.0 12.0 339.0 
188.00087109014757 25042.0 10274.0 1196.656804733723 0.5186653278604585 467.0 13.0 338.0 
190.00087109014757 25056.0 10275.0 1196.6844181459535 0.5193542317140845 468.0 12.0 339.0 
192.00042571731979 25024.0 10277.0 1196.6213017751422 0.5221191468904737 471.0 12.0 339.0 
194.00087109014757 24912.0 10275.0 1196.6153846153898 0.5207693065912382 468.0 13.0 338.0 
196.00087109014757 24903.0 10277.0 1196.6785009861942 0.5226877889176353 469.0 12.0 339.0 
198.00087109014757 24884.0 10275.0 1194.4220907297904 0.5203379483904357 469.0 12.0 338.0 
200.00087109014757 24813.0 10274.0 1194.4299802761313 0.5195372441802796 468.0 13.0 337.0 
202.00087109014757 24800.0 10274.0 1194.339250493097 0.5191105745195899 469.0 12.0 338.0 
204.00087109014757 24804.0 10274.0 1194.40631163708 0.5195644431667432 470.0 12.0 338.0 
206.00042571731979 24971.0 10276.0 1192.1222879684367 0.5219775426875509 469.0 13.0 336.0 
208.00087109014757 24863.0 10274.0 1192.1360946745478 0.5209018503575088 464.0 13.0 336.0 
210.00042571731979 24863.0 10275.0 1192.116370808676 0.519998105009366 466.0 13.0 336.0 
212.00042571731979 24843.0 10277.0 1192.0887573964542 0.5204269047336648 466.0 14.0 335.0 
214.00042571731979 24813.0 10277.0 1192.1084812623249 0.5233330603929025 466.0 13.0 336.0 
216.00087109014757 24826.0 10276.0 1189.8126232741604 0.5207667317921844 469.0 13.0 335.0 
218.00087109014757 24738.0 10275.0 1189.7850098619383 0.5190327050889575 467.0 14.0 334.0 
220.00087109014757 24752.0 10276.0 1189.8461538461613 0.519784858361664 466.0 13.0 335.0 
222.00087109014757 24748.0 10275.0 1182.9625246548376 0.5190559524209597 467.0 13.0 332.0 
224.00087109014757 24759.0 10278.0 1182.9684418145982 0.5204089860997667 462.0 14.0 331.0 
226.00087109014757 24712.0 10276.0 1183.0098619329317 0.5217872674369827 460.0 13.0 332.0 
228.0007948621577 24742.0 10280.0 1185.2781065088734 0.5248037636964374 460.0 13.0 333.0 
230.0007948621577 24643.0 10276.0 1180.7968441814508 0.5202971989414237 459.0 14.0 330.0 
232.00035757522153 24717.0 10276.0 1180.7297830374675 0.5203957375685089 458.0 13.0 331.0 
234.0007948621577 24639.0 10279.0 1180.6844181459537 0.5215259957310577 458.0 13.0 331.0 
236.0007948621577 24544.0 10275.0 1180.765285996049 0.5195368520255241 456.0 14.0 330.0 
238.0007948621577 24633.0 10277.0 1180.7317554240665 0.5210797723209852 462.0 13.0 331.0 
240.0007948621577 24610.0 10277.0 1178.4201183431912 0.5201998201890705 463.0 14.0 329.0 
242.0007948621577 24559.0 10276.0 1178.4122287968403 0.519561768294436 461.0 16.0 327.0 
244.0007948621577 24556.0 10278.0 1176.1873767258396 0.5190588646439477 461.0 15.0 327.0 
246.0007948621577 24617.0 10278.0 1173.9092702169658 0.5208761885063399 462.0 15.0 326.0 
248.0007948621577 24601.0 10276.0 1173.917159763307 0.5202841800996335 461.0 16.0 325.0 
250.0007948621577 24603.0 10278.0 1169.3925049309694 0.5212877763185557 457.0 15.0 324.0 
252.0007948621577 24611.0 10279.0 1169.3944773175494 0.5208052041840558 456.0 15.0 324.0 
254.0007948621577 24523.0 10277.0 1169.4201183431912 0.5193148239058596 456.0 16.0 323.0 
256.0007948621577 24554.0 10280.0 1169.386587771209 0.5227762559854576 457.0 15.0 324.0 
258.0007948621577 24498.0 10279.0 1167.0493096646921 0.5206153387021945 461.0 14.0 324.0 
260.0007948621577 24418.0 10279.0 1162.5917159763387 0.5206675928397281 460.0 14.0 322.0 
262.0007948621577 24380.0 10277.0 1164.800788954631 0.5187717413635086 460.0 13.0 324.0 
264.0007948621577 24394.0 10278.0 1162.536489151868 0.5195967446327839 458.0 13.0 323.0 
266.0007948621577 24449.0 10280.0 1162.5443786982275 0.521418367987064 455.0 14.0 322.0 
268.0007948621577 24329.0 10279.0 1178.5029585798854 0.5222444873637582 456.0 13.0 330.0 
270.00062218850803 24295.0 10279.0 1178.3708086784982 0.5239729383393672 455.0 13.0 330.0 
272.00062218850803 24268.0 10277.0 1180.7199211045354 0.5206869743851296 452.0 15.0 329.0 
274.00062218850803 24257.0 10277.0 1178.4240631163714 0.5212058411943109 451.0 15.0 328.0 
276.00062218850803 24291.0 10278.0 1180.6331360946806 0.5200205919821173 451.0 15.0 329.0 
278.00062218850803 24335.0 10279.0 1180.7514792899372 0.5201353471777934 450.0 16.0 328.0 
280.00062218850803 24330.0 10279.0 1180.6883629191261 0.5202423003891946 452.0 15.0 329.0 
282.00062218850803 24349.0 10281.0 1178.4181459566114 0.5203659768147314 452.0 15.0 328.0 
284.0007948621577 24389.0 10282.0 1180.7258382643058 0.5223412949187867 453.0 15.0 329.0 
286.0007948621577 24346.0 10281.0 1178.4477317554217 0.5201852959095011 454.0 13.0 330.0 
288.0007948621577 24358.0 10280.0 1178.4181459566114 0.5214746698282563 455.0 13.0 330.0 
290.0007948621577 24353.0 10281.0 1178.4950690335347 0.52166273925067 456.0 14.0 329.0 
292.0007948621577 24300.0 10280.0 1178.4792899408237 0.5204674503149196 457.0 13.0 330.0 
294.0007948621577 24303.0 10283.0 1178.4299802761311 0.5233374910934071 457.0 13.0 330.0 
296.0007948621577 24246.0 10282.0 1178.437869822482 0.5225190339730513 455.0 14.0 329.0 
298.0007948621577 24181.0 10281.0 1176.2130177514812 0.5225872626342981 455.0 13.0 329.0 
300.0007948621577 24136.0 10279.0 1176.2090729783095 0.5196927265757824 459.0 13.0 329.0 
302.0007948621577 24140.0 10280.0 1176.1696252465485 0.5199562132956723 458.0 14.0 328.0 
304.0007948621577 24156.0 10281.0 1176.2149901380617 0.5222785471095464 459.0 13.0 329.0 
306.0007948621577 24173.0 10281.0 1171.6173570019703 0.5220349772324054 458.0 13.0 327.0 
308.00062218850803 24170.0 10281.0 1176.2642998027545 0.523700655461042 455.0 14.0 328.0 
310.0007188955481 24048.0 10280.0 1180.7909270216905 0.520578363438152 455.0 13.0 331.0 
312.0007948621577 24025.0 10280.0 1180.6844181459535 0.5199317546485773 455.0 13.0 331.0 
314.0007948621577 24066.0 10281.0 1180.7357001972455 0.522079714061671 455.0 13.0 331.0 
316.0007948621577 24032.0 10280.0 1183.0098619329317 0.5209217047295417 458.0 13.0 332.0 
318.0007948621577 23974.0 10280.0 1187.5680473372697 0.5212196516052334 455.0 13.0 334.0 
320.0007948621577 23950.0 10280.0 1187.5601577909188 0.5198487762079688 456.0 13.0 334.0 
322.0007948621577 23984.0 10281.0 1187.5641025640978 0.5220821175862433 455.0 13.0 334.0 
324.0007948621577 23978.0 10281.0 1187.4753451676447 0.5233497454864875 456.0 13.0 334.0 
326.0007948621577 23908.0 10283.0 1187.5759368836286 0.5232661755287368 456.0 13.0 334.0 
328.0007948621577 23917.0 10280.0 1189.8205128205198 0.5220332959007911 456.0 12.0 336.0 
330.0007948621577 23866.0 10281.0 1185.2919132149852 0.5206082257354577 455.0 12.0 334.0 
332.0007948621577 23879.0 10281.0 1182.9802761341284 0.5225303207512896 456.0 12.0 333.0 
334.0007948621577 23851.0 10282.0 1183.0414201183414 0.5228464045504173 457.0 12.0 333.0 
336.0007948621577 23829.0 10280.0 1180.7238658777073 0.5203663906153374 458.0 12.0 332.0 
338.0007948621577 23876.0 10281.0 1183.1025641025656 0.5223089546387225 460.0 12.0 333.0 
340.0007948621577 23751.0 10280.0 1180.8027613412291 0.521896623053246 460.0 12.0 332.0 
342.0007948621577 23730.0 10280.0 1180.7455621301772 0.5215142631399272 459.0 12.0 332.0 
344.0007948621577 23740.0 10282.0 1178.4911242603544 0.5227252078694337 459.0 12.0 331.0 
346.0007948621577 23796.0 10281.0 1180.8461538461615 0.5224940432247401 458.0 12.0 332.0 
348.0007948621577 23777.0 10280.0 1176.157790927018 0.5221993659954803 459.0 12.0 330.0 
350.0007948621577 23714.0 10281.0 1176.1952662721903 0.5231870552130171 457.0 12.0 330.0 
352.0007948621577 23775.0 10283.0 1171.6785009861942 0.5240243168879177 457.0 12.0 328.0 
354.0007948621577 23752.0 10279.0 1171.6508875739712 0.5206863439766021 454.0 12.0 328.0 
356.0007948621577 23770.0 10280.0 1171.625246548321 0.52194181870527 454.0 12.0 328.0 
358.0007948621577 23816.0 10280.0 1173.9428007889487 0.521140014453058 455.0 12.0 329.0 
360.0007948621577 23812.0 10281.0 1178.5088757396456 0.5219875592984995 457.0 12.0 331.0 
362.0007948621577 23809.0 10279.0 1176.2090729783095 0.5221848970312417 460.0 12.0 330.0 
364.0007948621577 23818.0 10280.0 1176.2248520710007 0.5205677520502118 459.0 12.0 330.0 
366.0007948621577 23834.0 10279.0 1171.631163708082 0.5206745440545053 458.0 12.0 328.0 
368.0007948621577 23842.0 10281.0 1169.3727810650983 0.5227763082960099 458.0 12.0 327.0 
370.0007948621577 23863.0 10280.0 1169.465483234712 0.5205226293706882 461.0 12.0 327.0 
372.0007948621577 23837.0 10279.0 1164.7751479289998 0.5191358709652619 460.0 12.0 325.0 
374.0007948621577 23863.0 10281.0 1162.5443786982275 0.5214214462276798 460.0 12.0 324.0 
376.0007948621577 23842.0 10278.0 1160.2682445759335 0.5202728651820445 459.0 12.0 323.0 
378.0007948621577 23947.0 10282.0 1153.4792899408228 0.5225241027234211 463.0 12.0 320.0 
380.0007948621577 23855.0 10279.0 1153.4378698224818 0.5195357723881674 461.0 12.0 320.0 
382.0007948621577 23884.0 10281.0 1155.714003944776 0.5214768269704433 459.0 12.0 321.0 
384.0007948621577 23950.0 10280.0 1160.1972386587709 0.5212173800490998 462.0 13.0 322.0 
386.0007948621577 23997.0 10280.0 1162.4694280078845 0.5251115275626778 462.0 13.0 323.0 
388.0007948621577 23938.0 10278.0 1167.1479289940785 0.5198477243362762 465.0 13.0 325.0 
390.0007948621577 23939.0 10278.0 1164.8343195266318 0.519243235162519 464.0 13.0 324.0 
392.0007948621577 23949.0 10278.0 1164.7633136094685 0.5203726790025404 462.0 14.0 323.0 
394.0007948621577 23932.0 10278.0 1162.570019723869 0.5203910272308429 463.0 12.0 324.0 
396.0007948621577 23958.0 10279.0 1160.2149901380617 0.5208117848035271 466.0 12.0 323.0 
398.0007948621577 23912.0 10280.0 1160.287968441822 0.5227502819526945 466.0 12.0 323.0 
400.0007948621577 23874.0 10277.0 1160.2919132149852 0.5187108884761691 462.0 12.0 323.0 
402.0007948621577 23898.0 10280.0 1162.4852071005953 0.5222489088100186 465.0 12.0 324.0 
404.0007948621577 23852.0 10281.0 1167.1400394477264 0.5224258645771509 467.0 12.0 326.0 
406.0007948621577 23868.0 10281.0 1164.8599605522736 0.5226760934343699 468.0 12.0 325.0 
408.0007948621577 23843.0 10279.0 1162.5798816568088 0.5205780133971758 468.0 12.0 324.0 
410.0007948621577 23882.0 10279.0 1164.8086785009816 0.520922444728158 466.0 12.0 325.0 
412.0007948621577 23865.0 10280.0 1171.672583826434 0.520311904997852 467.0 12.0 328.0 
414.0007948621577 23819.0 10278.0 1178.4832347139954 0.5228014042343326 467.0 12.0 331.0 
416.0007948621577 23874.0 10277.0 1176.1637080867888 0.519395433134095 467.0 12.0 330.0 
418.0007948621577 23868.0 10276.0 1171.7613412228875 0.5184312262695187 466.0 12.0 328.0 
420.0007948621577 23889.0 10277.0 1169.4142011834392 0.5200180669729775 466.0 12.0 327.0 
422.0007948621577 23830.0 10278.0 1164.8461538461618 0.5223499971824431 466.0 12.0 325.0 
424.0007948621577 23754.0 10278.0 1158.0591715976313 0.5199976667468243 462.0 12.0 322.0 
426.0007948621577 23752.0 10279.0 1164.8244575936917 0.5210024247598781 458.0 12.0 325.0 
428.0007948621577 23761.0 10279.0 1164.875739644965 0.5225045497849586 457.0 12.0 325.0 
430.0007948621577 23666.0 10278.0 1164.8875739645034 0.5194266422914156 459.0 12.0 325.0 
432.0007948621577 23682.0 10278.0 1160.2031558185495 0.5197547945763292 459.0 12.0 323.0 
434.0007948621577 23714.0 10277.0 1164.7948717948693 0.520015808969451 462.0 12.0 325.0 
436.0007948621577 23748.0 10279.0 1178.5029585798857 0.5208182767757717 464.0 12.0 331.0 
438.0007948621577 23822.0 10283.0 1183.029585798822 0.5254756133424868 464.0 12.0 333.0 
440.0007948621577 23740.0 10280.0 1182.9151873767257 0.5194251424763981 464.0 12.0 333.0 
442.0007948621577 23693.0 10278.0 1180.7021696252443 0.5202708740729974 464.0 12.0 332.0 
444.0007948621577 23680.0 10280.0 1182.9723865877777 0.5217116204120608 465.0 12.0 333.0 
446.0007948621577 23629.0 10278.0 1192.0197238658714 0.5215009214544974 472.0 12.0 337.0 
448.0007948621577 23550.0 10278.0 1198.9901380670683 0.5201715015607727 473.0 13.0 339.0 
450.0007948621577 23559.0 10277.0 1196.5424063116463 0.5186949384696911 474.0 12.0 339.0 
452.0007948621577 23638.0 10279.0 1196.5680473372697 0.5200278742045261 473.0 12.0 339.0 
454.0007948621577 23654.0 10278.0 1196.654832347143 0.5199943134945177 471.0 13.0 338.0 
456.0007948621577 23664.0 10278.0 1201.114398422095 0.52271836027005 473.0 12.0 341.0 
458.0007948621577 23640.0 10277.0 1198.8461538461615 0.5199189645871645 470.0 13.0 339.0 
460.0007948621577 23637.0 10277.0 1196.6291913215018 0.5204724861321168 467.0 13.0 338.0 
462.0007948621577 23611.0 10276.0 1196.5739644970483 0.5197597389773773 467.0 14.0 337.0 
464.0007948621577 23606.0 10276.0 1196.6252465483212 0.5185078556836262 468.0 13.0 338.0 
466.0007948621577 23695.0 10279.0 1196.6114398422108 0.5228286204848671 467.0 13.0 338.0 
468.0007948621577 23661.0 10277.0 1192.0788954635143 0.5214005573548539 463.0 13.0 336.0 
470.0007948621577 23657.0 10276.0 1189.8244575936915 0.5195142145382906 463.0 13.0 335.0 
472.0007948621577 23712.0 10278.0 1185.2800788954648 0.519463288304764 464.0 13.0 333.0 
474.0007948621577 23710.0 10275.0 1185.2169625246606 0.5190794222499487 465.0 13.0 333.0 
476.0007948621577 23720.0 10275.0 1182.98422090729 0.5197830545607983 462.0 13.0 332.0 
478.0007948621577 23706.0 10277.0 1183.0295857988217 0.5230899281622735 463.0 13.0 332.0 
480.0007948621577 23675.0 10276.0 1180.7455621301772 0.5196703736110759 462.0 13.0 331.0 
482.0007948621577 23677.0 10276.0 1180.654832347143 0.5212797864971631 461.0 14.0 330.0 
484.0007948621577 23710.0 10281.0 1178.5147928994047 0.5229587760680169 461.0 13.0 330.0 
486.0007948621577 23661.0 10276.0 1171.5641025640975 0.521522017929138 460.0 13.0 327.0 
488.0007948621577 23631.0 10277.0 1171.6351084812607 0.5210398433561385 457.0 13.0 327.0 
490.0007948621577 23610.0 10275.0 1169.355029585807 0.5213163268191421 458.0 13.0 326.0 
492.0007948621577 23602.0 10274.0 1169.2504930966427 0.5196361911895087 459.0 13.0 326.0 
494.0007948621577 23614.0 10276.0 1169.2366863905315 0.5214672041589102 460.0 13.0 326.0 
496.0007948621577 23588.0 10273.0 1169.331360946738 0.5183273664939279 461.0 13.0 326.0 
498.0007948621577 23675.0 10276.0 1167.0236686390501 0.5207720409007399 462.0 13.0 325.0 
500.0007948621577 23654.0 10273.0 1164.7909270216905 0.5184930004879985 462.0 13.0 324.0 
502.0007948621577 23689.0 10274.0 1167.0493096646921 0.5208277549239974 464.0 13.0 325.0 
504.0007948621577 23704.0 10277.0 1169.285996055224 0.5213688363227216 462.0 13.0 326.0 
506.0007948621577 23662.0 10274.0 1160.3057199210964 0.5210917268110792 461.0 13.0 322.0 
508.0007948621577 23714.0 10275.0 1164.9072978303668 0.5215743809021889 461.0 13.0 324.0 
510.0007948621577 23689.0 10277.0 1164.8086785009814 0.5222841604842825 459.0 13.0 324.0 
512.0007948621577 23707.0 10275.0 1167.0729783037434 0.5203175929674717 459.0 14.0 324.0 
514.0007948621577 23691.0 10275.0 1167.1321499013861 0.5192792869893388 456.0 15.0 323.0 
516.0007948621577 23723.0 10275.0 1162.613412228791 0.5204828499916605 457.0 13.0 323.0 
518.0007948621577 23709.0 10273.0 1153.4891518737736 0.5188713686149018 456.0 13.0 319.0 
520.0007948621577 23712.0 10274.0 1153.5483234714063 0.518695511601362 454.0 13.0 319.0 
522.0007948621577 23729.0 10277.0 1151.116370808676 0.5212810569713495 455.0 13.0 318.0 
524.0007948621577 23733.0 10275.0 1146.6982248520656 0.5215874969994594 451.0 14.0 315.0 
526.0007948621577 23725.0 10274.0 1135.3412228796778 0.5196369891945384 450.0 14.0 310.0 
528.0007948621577 23718.0 10274.0 1137.552268244578 0.520165045558313 451.0 14.0 311.0 
530.0007948621577 23699.0 10273.0 1135.2919132149855 0.518966729675396 450.0 14.0 310.0 
532.0007948621577 23711.0 10275.0 1137.6232741617403 0.5192545128923277 447.0 14.0 311.0 
534.0007948621577 23726.0 10275.0 1137.5167652860046 0.5207788753336112 447.0 13.0 312.0 
536.0007948621577 23766.0 10275.0 1139.8382642998106 0.5213748230307397 448.0 13.0 313.0 
538.0007948621577 23898.0 10277.0 1144.4280078895515 0.5229173758621782 453.0 13.0 315.0 
540.0007948621577 23795.0 10274.0 1146.668639053262 0.5200328960919839 453.0 13.0 316.0 
542.0007948621577 23796.0 10274.0 1146.6508875739712 0.5204996114387476 454.0 13.0 316.0 
544.0007948621577 23783.0 10274.0 1146.7021696252446 0.5202451367143344 453.0 13.0 316.0 
546.0007948621577 23794.0 10276.0 1151.157790927018 0.5228307343503318 456.0 13.0 318.0 
548.0007948621577 23721.0 10275.0 1151.2820512820451 0.5217603131069721 456.0 13.0 318.0 
550.0007948621577 23673.0 10276.0 1151.2426035502922 0.52034240079304 458.0 13.0 318.0 
552.0007948621577 23667.0 10275.0 1151.1992110453689 0.5202571977519799 459.0 13.0 318.0 
554.0007948621577 23662.0 10275.0 1151.1873767258396 0.5200215471571566 459.0 13.0 318.0 
556.0007948621577 23672.0 10277.0 1144.4260355029514 0.523311159911084 457.0 13.0 315.0 
558.0007948621577 23646.0 10279.0 1139.8422090729828 0.5236649965477883 456.0 13.0 313.0 
560.0007948621577 23665.0 10277.0 1142.1439842209054 0.522513719704883 452.0 13.0 314.0 
562.0007948621577 23641.0 10275.0 1137.5463510848078 0.5193401119114686 450.0 13.0 312.0 
564.0007948621577 23709.0 10277.0 1139.8086785009814 0.5233223784920393 449.0 13.0 313.0 
566.0007948621577 23724.0 10277.0 1142.1045364891454 0.5221193955408692 456.0 13.0 314.0 
568.0007948621577 23702.0 10275.0 1144.3846153846102 0.5190307701889434 458.0 13.0 315.0 
570.0007948621577 23769.0 10276.0 1146.660749506903 0.5203818470797555 458.0 13.0 316.0 
572.0007948621577 23792.0 10278.0 1146.6232741617407 0.5214679034956455 461.0 13.0 316.0 
574.0007948621577 23742.0 10275.0 1146.690335305725 0.5203176718022741 463.0 13.0 316.0 
576.0007948621577 23833.0 10278.0 1144.333333333337 0.5212392657868037 462.0 13.0 315.0 
578.0007948621577 23919.0 10277.0 1148.9132149901443 0.5234636793780986 461.0 13.0 317.0 
580.0007948621577 23850.0 10276.0 1148.960552268239 0.5214421759951469 462.0 12.0 318.0 
582.0007948621577 23825.0 10278.0 1151.0808678500941 0.5224052781337752 461.0 12.0 319.0 
584.0007948621577 23855.0 10280.0 1151.1597633136166 0.5262837474225195 465.0 12.0 319.0 
586.0007948621577 23760.0 10280.0 1153.4477317554215 0.5244681813097909 465.0 12.0 320.0 
588.0007948621577 23867.0 10280.0 1157.9940828402398 0.5251707713877395 464.0 12.0 322.0 
590.0007948621577 23845.0 10274.0 1160.2642998027547 0.520627152025104 468.0 10.0 325.0 
592.0007948621577 23837.0 10276.0 1160.2938856015835 0.5208909399027775 466.0 11.0 324.0 
594.0007948621577 23815.0 10275.0 1157.9408284023687 0.5189008561900978 464.0 12.0 322.0 
596.0007948621577 23826.0 10278.0 1155.7357001972453 0.5218949938087724 466.0 12.0 321.0 
598.0007948621577 23905.0 10277.0 1155.7712031558274 0.5232926708155733 468.0 11.0 322.0 
600.0007948621577 23860.0 10277.0 1157.9447731755479 0.5215024450747748 467.0 10.0 324.0 
602.0007948621577 23860.0 10276.0 1157.9921104536409 0.5217243478429503 465.0 10.0 324.0 
604.0007948621577 23851.0 10275.0 1155.747534516758 0.5191175676022111 465.0 10.0 323.0 
606.0004257173198 23977.0 10279.0 1155.710059171595 0.5247847431615801 464.0 11.0 322.0 
608.0004257173198 23916.0 10274.0 1160.3116370808739 0.5205456010967086 464.0 11.0 324.0 
610.0004257173198 23924.0 10275.0 1160.3333333333371 0.5202280088635295 465.0 10.0 325.0 
612.0004257173198 23932.0 10276.0 1160.1656804733684 0.5228525419815623 463.0 10.0 325.0 
614.0004257173198 23983.0 10277.0 1158.0197238658716 0.5235961893360492 465.0 10.0 324.0 
616.0004257173198 23969.0 10276.0 1158.0512820512736 0.5219155253679282 463.0 10.0 324.0 
618.0007948621577 23964.0 10277.0 1157.9625246548376 0.521229658837918 461.0 10.0 324.0 
620.0007948621577 23934.0 10278.0 1153.475345167645 0.5235230959906937 461.0 10.0 322.0 
622.0007948621577 23893.0 10276.0 1153.479289940824 0.5227805858100519 464.0 10.0 322.0 
624.0007948621577 23861.0 10277.0 1155.6982248520653 0.5221700934167747 465.0 10.0 323.0 
626.0007948621577 23960.0 10277.0 1155.7159763313566 0.5216925296253963 464.0 10.0 323.0 
628.0004257173198 24108.0 10279.0 1158.092702169633 0.5233150790263387 463.0 10.0 324.0 
630.0007948621577 24056.0 10276.0 1160.234714003951 0.5214917290056105 462.0 10.0 325.0 
632.0007948621577 24068.0 10280.0 1158.0473372781116 0.5244015446384143 462.0 10.0 324.0 
634.0007948621577 24004.0 10277.0 1162.6094674556296 0.5223794376808156 462.0 10.0 326.0 
636.0007948621577 24060.0 10277.0 1162.5207100591763 0.5222690747718896 466.0 10.0 326.0 
638.0007948621577 24031.0 10278.0 1162.5700197238687 0.5226435675392859 466.0 10.0 326.0 
640.0007948621577 23884.0 10276.0 1160.337278106516 0.5224136207613455 468.0 10.0 325.0 
642.0007948621577 23968.0 10276.0 1160.2781065088734 0.5220626533261841 468.0 10.0 325.0 
644.0007948621577 23950.0 10275.0 1160.3688362919174 0.5216456848716111 468.0 10.0 325.0 
646.0007948621577 24021.0 10276.0 1158.1203155818562 0.5224878008317382 468.0 10.0 324.0 
648.0007948621577 24058.0 10277.0 1158.0946745562062 0.5242642236949846 464.0 10.0 324.0 
650.0007948621577 23931.0 10274.0 1158.0552268244526 0.5215954980210659 465.0 10.0 324.0 
652.0007948621577 24011.0 10276.0 1158.124260355035 0.5243429212691688 464.0 10.0 324.0 
654.0007948621577 23948.0 10276.0 1158.0315581854018 0.5213436590919197 461.0 10.0 324.0 
656.0007948621577 23995.0 10277.0 1169.3925049309694 0.5243415763430717 463.0 10.0 329.0 
658.0007948621577 23996.0 10277.0 1176.309664694275 0.5227542591535729 462.0 10.0 332.0 
660.0007948621577 23986.0 10274.0 1173.9743589743578 0.5216036780395621 459.0 10.0 331.0 
662.0007948621577 24001.0 10277.0 1173.9428007889487 0.5257765865474258 458.0 10.0 331.0 
664.0007948621577 23996.0 10277.0 1174.0256410256422 0.5237518936596622 459.0 10.0 331.0 
#####################################################################
# End of data export. Simulation finished at: 2019-03-05T16:33+0000 #
#####################################################################
