#####################################################################
# Alchemist log file - simulation started at: 2019-03-11T19:00+0000 #
#####################################################################
# seed = 4.0, bandwidth = 2.3713737056616552E7, accessPointCount = 19.39227447486858, baserange = 56.234132519034915
#
# The columns have the following meaning: 
# time neighbor_count[Sum] <value>@neighbor_count[Sum] packet_size[Mean] mean_delay[Mean] crowd[Sum] overcrowded[Sum] risk[Sum] 
0.0 NaN NaN NaN NaN NaN NaN NaN 
2.0001809942482502 12.0 6.0 4987.786279683377 0.4539229425709761 1497.0 0.0 1497.0 
4.00018099424825 17.0 6.0 4987.87598944591 0.3964346217705643 1497.0 0.0 1497.0 
6.00018099424825 22.0 6.0 4987.8073878627965 0.5038445448822749 1497.0 0.0 1497.0 
8.00018099424825 23.0 6.0 4987.862796833773 0.4945315327584025 1497.0 0.0 1497.0 
10.00018099424825 24.0 6.0 4987.833773087072 0.4994376630271613 1497.0 0.0 1497.0 
12.00018099424825 24.0 6.0 4987.831134564643 0.49943717573342417 1497.0 0.0 1497.0 
14.00018099424825 24.0 6.0 4987.831134564643 0.49943781296369544 1497.0 0.0 1497.0 
16.00018099424825 24.0 6.0 4987.849604221636 0.4994377942216289 1497.0 0.0 1497.0 
18.00018099424825 24.0 6.0 4987.778364116095 0.4994386001305031 1497.0 0.0 1497.0 
20.00018099424825 24.0 6.0 4987.844327176781 0.49943805661056473 1497.0 0.0 1497.0 
22.00018099424825 24.0 6.0 4987.817941952507 0.4994383189995004 1497.0 0.0 1497.0 
24.00018099424825 24.0 6.0 4987.817941952507 0.4994383189995 1497.0 0.0 1497.0 
26.00018099424825 24.0 6.0 4987.820580474934 0.4994382815153667 1497.0 0.0 1497.0 
28.00018099424825 24.0 6.0 4987.833773087072 0.4994380003843639 1497.0 0.0 1497.0 
30.00018099424825 24.0 6.0 4987.815303430079 0.4994384314519016 1497.0 0.0 1497.0 
32.00018099424825 24.0 6.0 4987.841688654354 0.499438019126431 1497.0 0.0 1497.0 
34.00018099424825 24.0 6.0 4987.778364116095 0.49943850642016785 1497.0 0.0 1497.0 
36.00018099424825 24.0 6.0 4987.841688654354 0.4994380566105655 1497.0 0.0 1497.0 
38.00018099424825 24.0 6.0 4987.817941952507 0.49943833774156743 1497.0 0.0 1497.0 
40.00018099424825 24.0 6.0 4987.804749340369 0.4994383189995004 1497.0 0.0 1497.0 
42.00018099424825 24.0 6.0 4987.817941952507 0.49943833774156743 1497.0 0.0 1497.0 
44.00018099424825 24.0 6.0 4987.844327176781 0.49943803786849844 1497.0 0.0 1497.0 
46.00018099424825 24.0 6.0 4987.7915567282325 0.49943860013050234 1497.0 0.0 1497.0 
48.00018099424825 24.0 6.0 4987.846965699208 0.49943800038436437 1497.0 0.0 1497.0 
50.00018099424825 24.0 6.0 4987.8073878627965 0.4994382815153663 1497.0 0.0 1497.0 
52.00018099424825 24.0 6.0 4987.841688654354 0.4994381503208992 1497.0 0.0 1497.0 
54.00018099424825 24.0 6.0 4987.815303430079 0.49943830025743335 1497.0 0.0 1497.0 
56.00018099424825 24.0 6.0 4987.804749340369 0.49943822528916587 1497.0 0.0 1497.0 
58.00018099424825 24.0 6.0 4987.815303430079 0.49943833774156743 1497.0 0.0 1497.0 
60.00018099424825 24.0 6.0 4987.844327176781 0.4994380566105655 1497.0 0.0 1497.0 
62.00047933655907 24.0 6.0 412.14511873350904 0.49960986513709255 6.0 0.0 4.0 
64.00042902272939 24.0 6.0 412.1398416886543 0.4996100900418949 6.0 0.0 4.0 
66.00047933655907 24.0 6.0 412.1398416886543 0.49961009004189333 4.0 0.0 4.0 
68.00047933655907 24.0 6.0 412.1398416886543 0.49961009004189333 4.0 0.0 4.0 
70.00047933655907 24.0 6.0 412.1398416886543 0.49961009004189333 4.0 0.0 4.0 
72.00047933655907 24.0 6.0 412.1398416886543 0.49961009004189333 4.0 0.0 4.0 
74.00042902272939 24.0 6.0 412.1398416886543 0.49961009004189333 4.0 0.0 4.0 
76.00047933655907 24.0 6.0 412.1398416886543 0.49961009004189333 4.0 0.0 4.0 
78.00047933655907 24.0 6.0 412.1398416886543 0.49961009004189333 4.0 0.0 4.0 
80.00047933655907 24.0 6.0 412.1398416886543 0.49961009004189333 4.0 0.0 4.0 
82.00047933655907 24.0 6.0 412.1398416886543 0.49961009004189333 4.0 0.0 4.0 
84.00042902272939 24.0 6.0 412.1398416886543 0.49961009004189333 4.0 0.0 4.0 
86.00047933655907 24.0 6.0 412.1398416886543 0.49961009004189333 4.0 0.0 4.0 
88.00047933655907 24.0 6.0 412.1398416886543 0.49961009004189333 4.0 0.0 4.0 
90.00047933655907 24.0 6.0 412.1398416886543 0.49961009004189333 4.0 0.0 4.0 
92.00047933655907 24.0 6.0 412.1398416886543 0.49961009004189333 4.0 0.0 4.0 
94.00042902272939 24.0 6.0 412.1398416886543 0.49961009004189333 4.0 0.0 4.0 
96.00047933655907 24.0 6.0 412.1398416886543 0.49961009004189333 4.0 0.0 4.0 
98.00047933655907 24.0 6.0 412.1398416886543 0.49961009004189333 4.0 0.0 4.0 
100.00047933655907 24.0 6.0 412.1398416886543 0.49961009004189333 4.0 0.0 4.0 
102.00047933655907 24.0 6.0 412.1398416886543 0.49961009004189333 4.0 0.0 4.0 
104.00042902272939 24.0 6.0 412.1398416886543 0.49961009004189333 4.0 0.0 4.0 
106.00047933655907 24.0 6.0 412.1398416886543 0.49961009004189333 4.0 0.0 4.0 
108.00047933655907 24.0 6.0 412.1398416886543 0.49961009004189333 4.0 0.0 4.0 
110.00047933655907 24.0 6.0 412.1398416886543 0.49961009004189333 4.0 0.0 4.0 
112.00047933655907 24.0 6.0 412.1398416886543 0.49961009004189333 4.0 0.0 4.0 
114.00042902272939 24.0 6.0 412.1398416886543 0.49961009004189333 4.0 0.0 4.0 
116.00047933655907 24.0 6.0 412.1398416886543 0.49961009004189333 4.0 0.0 4.0 
118.00047933655907 24.0 6.0 412.1398416886543 0.49961009004189333 4.0 0.0 4.0 
120.00047933655907 24.0 6.0 412.1398416886543 0.49961009004189333 4.0 0.0 4.0 
122.00047933655907 24.0 6.0 412.1398416886543 0.49961009004189333 4.0 0.0 4.0 
124.00042902272939 24.0 6.0 412.1398416886543 0.49961009004189333 4.0 0.0 4.0 
126.00047933655907 24.0 6.0 412.1398416886543 0.49961009004189333 4.0 0.0 4.0 
128.00047933655907 24.0 6.0 412.1398416886543 0.49961009004189333 4.0 0.0 4.0 
130.00047933655907 24.0 6.0 412.1398416886543 0.4996100900419012 4.0 0.0 4.0 
132.00047933655907 24.0 6.0 412.1398416886543 0.4996100900419012 4.0 0.0 4.0 
134.0004290227294 24.0 6.0 412.1398416886543 0.4996100900419012 4.0 0.0 4.0 
136.00047933655907 24.0 6.0 412.1398416886543 0.4996100900419012 4.0 0.0 4.0 
138.00047933655907 24.0 6.0 412.1398416886543 0.4996100900419012 4.0 0.0 4.0 
140.00047933655907 24.0 6.0 412.1398416886543 0.4996100900419012 4.0 0.0 4.0 
142.00047933655907 24.0 6.0 412.1398416886543 0.4996100900419012 4.0 0.0 4.0 
144.0004290227294 24.0 6.0 412.1398416886543 0.4996100900419012 4.0 0.0 4.0 
146.00047933655907 24.0 6.0 412.1398416886543 0.4996100900419012 4.0 0.0 4.0 
148.00047933655907 24.0 6.0 412.1398416886543 0.4996100900419012 4.0 0.0 4.0 
150.00047933655907 24.0 6.0 412.1398416886543 0.4996100900419012 4.0 0.0 4.0 
152.00047933655907 24.0 6.0 412.1398416886543 0.4996100900419012 4.0 0.0 4.0 
154.0004290227294 24.0 6.0 412.1398416886543 0.4996100900419012 4.0 0.0 4.0 
156.00047933655907 24.0 6.0 412.1398416886543 0.4996100900419012 4.0 0.0 4.0 
158.00047933655907 24.0 6.0 412.1398416886543 0.4996100900419012 4.0 0.0 4.0 
160.00047933655907 24.0 6.0 412.1398416886543 0.4996100900419012 4.0 0.0 4.0 
162.00047933655907 24.0 6.0 412.1398416886543 0.4996100900419012 4.0 0.0 4.0 
164.0004290227294 24.0 6.0 412.1398416886543 0.4996100900419012 4.0 0.0 4.0 
166.00047933655907 24.0 6.0 412.1398416886543 0.4996100900419012 4.0 0.0 4.0 
168.00047933655907 24.0 6.0 412.1398416886543 0.4996100900419012 4.0 0.0 4.0 
170.00047933655907 24.0 6.0 412.1398416886543 0.4996100900419012 4.0 0.0 4.0 
172.00047933655907 24.0 6.0 412.1398416886543 0.4996100900419012 4.0 0.0 4.0 
174.0004290227294 24.0 6.0 412.1398416886543 0.4996100900419012 4.0 0.0 4.0 
176.00047933655907 24.0 6.0 412.1398416886543 0.4996100900419012 4.0 0.0 4.0 
178.00047933655907 24.0 6.0 412.1398416886543 0.4996100900419012 4.0 0.0 4.0 
180.00047933655907 24.0 6.0 412.1398416886543 0.4996100900419012 4.0 0.0 4.0 
182.00047933655907 24.0 6.0 412.1398416886543 0.4996100900419012 4.0 0.0 4.0 
184.0004290227294 24.0 6.0 412.1398416886543 0.4996100900419012 4.0 0.0 4.0 
186.00047933655907 24.0 6.0 412.1398416886543 0.4996100900419012 4.0 0.0 4.0 
188.00047933655907 24.0 6.0 412.1398416886543 0.4996100900419012 4.0 0.0 4.0 
190.00047933655907 24.0 6.0 412.1398416886543 0.4996100900419012 4.0 0.0 4.0 
192.00047933655907 24.0 6.0 412.1398416886543 0.4996100900419012 4.0 0.0 4.0 
194.0004290227294 24.0 6.0 412.1398416886543 0.4996100900419012 4.0 0.0 4.0 
196.00047933655907 24.0 6.0 412.1398416886543 0.4996100900419012 4.0 0.0 4.0 
198.00047933655907 24.0 6.0 412.1398416886543 0.4996100900419012 4.0 0.0 4.0 
200.00047933655907 24.0 6.0 412.1398416886543 0.4996100900419012 4.0 0.0 4.0 
202.00047933655907 24.0 6.0 412.1398416886543 0.4996100900419012 4.0 0.0 4.0 
204.0004290227294 24.0 6.0 412.1398416886543 0.4996100900419012 4.0 0.0 4.0 
206.00047933655907 24.0 6.0 412.1398416886543 0.4996100900419012 4.0 0.0 4.0 
208.00047933655907 24.0 6.0 412.1398416886543 0.4996100900419012 4.0 0.0 4.0 
210.00047933655907 24.0 6.0 412.1398416886543 0.4996100900419012 4.0 0.0 4.0 
212.00047933655907 24.0 6.0 412.1398416886543 0.4996100900419012 4.0 0.0 4.0 
214.0004290227294 24.0 6.0 412.1398416886543 0.4996100900419012 4.0 0.0 4.0 
216.00047933655907 24.0 6.0 412.1398416886543 0.4996100900419012 4.0 0.0 4.0 
218.00047933655907 24.0 6.0 412.1398416886543 0.4996100900419012 4.0 0.0 4.0 
220.00047933655907 24.0 6.0 412.1398416886543 0.4996100900419012 4.0 0.0 4.0 
222.00047933655907 24.0 6.0 412.1398416886543 0.4996100900419012 4.0 0.0 4.0 
224.0004290227294 24.0 6.0 412.1398416886543 0.4996100900419012 4.0 0.0 4.0 
226.00047933655907 24.0 6.0 412.1398416886543 0.4996100900419012 4.0 0.0 4.0 
228.00047933655907 26.0 7.0 412.1398416886543 0.48896325297757587 4.0 0.0 4.0 
230.00047933655907 26.0 7.0 412.1398416886543 0.48896325297757587 4.0 0.0 4.0 
232.00047933655907 26.0 7.0 412.1398416886543 0.48896325297757587 4.0 0.0 4.0 
234.0004290227294 26.0 7.0 412.1398416886543 0.48896325297757587 4.0 0.0 4.0 
236.00047933655907 26.0 7.0 412.1398416886543 0.48896325297757587 4.0 0.0 4.0 
238.00047933655907 26.0 7.0 412.1398416886543 0.48896325297757587 4.0 0.0 4.0 
240.00047933655907 26.0 7.0 412.1398416886543 0.48896325297757587 4.0 0.0 4.0 
242.00047933655907 26.0 7.0 412.1398416886543 0.48896325297757587 4.0 0.0 4.0 
244.0004290227294 26.0 7.0 412.1398416886543 0.48896325297757587 4.0 0.0 4.0 
246.00047933655907 26.0 7.0 412.1398416886543 0.48896325297757587 4.0 0.0 4.0 
248.00047933655907 26.0 7.0 412.1398416886543 0.48896325297757587 4.0 0.0 4.0 
250.00047933655907 26.0 7.0 412.1398416886543 0.48896325297757587 4.0 0.0 4.0 
252.00047933655907 26.0 7.0 412.1398416886543 0.48896325297757587 4.0 0.0 4.0 
254.0004290227294 26.0 7.0 412.1398416886543 0.48896325297757587 4.0 0.0 4.0 
256.00047933655907 26.0 7.0 412.1398416886543 0.48896325297757587 4.0 0.0 4.0 
258.00047933655907 26.0 7.0 412.1398416886543 0.48896325297756393 4.0 0.0 4.0 
260.00047933655907 26.0 7.0 412.1398416886543 0.48896325297756393 4.0 0.0 4.0 
262.00047933655907 26.0 7.0 412.1398416886543 0.48896325297756393 4.0 0.0 4.0 
264.0004290227294 26.0 7.0 412.1398416886543 0.48896325297756393 4.0 0.0 4.0 
266.00047933655907 26.0 7.0 412.1398416886543 0.48896325297756393 4.0 0.0 4.0 
268.00047933655907 26.0 7.0 412.1398416886543 0.48896325297756393 4.0 0.0 4.0 
270.00047933655907 26.0 7.0 412.1398416886543 0.48896325297756393 4.0 0.0 4.0 
272.00047933655907 26.0 7.0 412.1398416886543 0.48896325297756393 4.0 0.0 4.0 
274.0004290227294 26.0 7.0 412.1398416886543 0.48896325297756393 4.0 0.0 4.0 
276.00047933655907 26.0 7.0 412.1398416886543 0.48896325297756393 4.0 0.0 4.0 
278.00047933655907 26.0 7.0 412.1398416886543 0.48896325297756393 4.0 0.0 4.0 
280.00047933655907 26.0 7.0 412.1398416886543 0.48896325297756393 4.0 0.0 4.0 
282.00047933655907 26.0 7.0 412.1398416886543 0.48896325297756393 4.0 0.0 4.0 
284.0004290227294 26.0 7.0 412.1398416886543 0.48896325297756393 4.0 0.0 4.0 
286.00047933655907 26.0 7.0 412.1398416886543 0.48896325297756393 4.0 0.0 4.0 
288.00047933655907 26.0 7.0 412.1398416886543 0.48896325297756393 4.0 0.0 4.0 
290.00047933655907 26.0 7.0 412.1398416886543 0.48896325297756393 4.0 0.0 4.0 
292.00047933655907 26.0 7.0 412.1398416886543 0.48896325297756393 4.0 0.0 4.0 
294.0004290227294 26.0 7.0 412.1398416886543 0.48896325297756393 4.0 0.0 4.0 
296.00047933655907 26.0 7.0 412.1398416886543 0.48896325297756393 4.0 0.0 4.0 
298.00047933655907 26.0 7.0 412.1398416886543 0.48896325297756393 4.0 0.0 4.0 
300.00047933655907 26.0 7.0 412.1398416886543 0.48896325297756393 4.0 0.0 4.0 
302.00047933655907 26.0 7.0 412.1398416886543 0.48896325297756393 4.0 0.0 4.0 
304.0004290227294 26.0 7.0 412.1398416886543 0.48896325297756393 4.0 0.0 4.0 
306.00047933655907 26.0 7.0 412.1398416886543 0.48896325297756393 4.0 0.0 4.0 
308.00047933655907 26.0 7.0 412.1398416886543 0.48896325297756393 4.0 0.0 4.0 
310.00047933655907 26.0 7.0 412.1398416886543 0.48896325297756393 4.0 0.0 4.0 
312.00047933655907 26.0 7.0 412.1398416886543 0.48896325297756393 4.0 0.0 4.0 
314.0004290227294 26.0 7.0 412.1398416886543 0.48896325297756393 4.0 0.0 4.0 
316.00047933655907 26.0 7.0 412.1398416886543 0.48896325297756393 4.0 0.0 4.0 
318.00047933655907 26.0 7.0 412.1398416886543 0.48896325297756393 4.0 0.0 4.0 
320.00047933655907 26.0 7.0 412.1398416886543 0.48896325297756393 4.0 0.0 4.0 
322.00047933655907 26.0 7.0 412.1398416886543 0.48896325297756393 4.0 0.0 4.0 
324.0004290227294 26.0 7.0 412.1398416886543 0.48896325297756393 4.0 0.0 4.0 
326.00047933655907 26.0 7.0 412.1398416886543 0.48896325297756393 4.0 0.0 4.0 
328.00047933655907 26.0 7.0 412.1398416886543 0.48896325297756393 4.0 0.0 4.0 
330.00047933655907 26.0 7.0 412.1398416886543 0.48896325297756393 4.0 0.0 4.0 
332.00047933655907 26.0 7.0 412.1398416886543 0.48896325297756393 4.0 0.0 4.0 
334.0004290227294 27.0 7.0 412.1398416886543 0.4623092495718078 4.0 0.0 4.0 
336.00047933655907 28.0 8.0 412.1398416886543 0.49079989950461095 4.0 0.0 4.0 
338.00047933655907 28.0 8.0 412.1398416886543 0.49079989950461095 4.0 0.0 4.0 
340.00047933655907 28.0 8.0 412.1398416886543 0.49079989950461095 4.0 0.0 4.0 
342.00047933655907 28.0 8.0 412.1398416886543 0.49079989950461095 4.0 0.0 4.0 
344.0004290227294 28.0 8.0 412.1398416886543 0.49079989950461095 4.0 0.0 4.0 
346.00047933655907 28.0 8.0 412.1398416886543 0.49079989950461095 4.0 0.0 4.0 
348.00047933655907 28.0 8.0 412.1398416886543 0.49079989950461095 4.0 0.0 4.0 
350.00047933655907 28.0 8.0 412.1398416886543 0.49079989950461095 4.0 0.0 4.0 
352.00047933655907 28.0 8.0 412.1398416886543 0.49079989950461095 4.0 0.0 4.0 
354.0004290227294 28.0 8.0 412.1398416886543 0.5741332328379443 4.0 0.0 4.0 
356.00047933655907 27.0 8.0 412.1398416886543 0.699439052594644 4.0 0.0 4.0 
358.00047933655907 26.0 7.0 412.1398416886543 0.709045078123695 4.0 0.0 4.0 
360.00047933655907 24.0 6.0 412.1398416886543 0.49961009004188855 4.0 0.0 4.0 
362.00047933655907 24.0 6.0 412.1398416886543 0.49961009004188855 4.0 0.0 4.0 
364.0004290227294 24.0 6.0 412.1398416886543 0.49961009004188855 4.0 0.0 4.0 
366.00047933655907 24.0 6.0 412.1398416886543 0.49961009004188855 4.0 0.0 4.0 
368.00047933655907 24.0 6.0 412.1398416886543 0.49961009004188855 4.0 0.0 4.0 
370.00047933655907 24.0 6.0 412.1398416886543 0.49961009004188855 4.0 0.0 4.0 
372.00047933655907 24.0 6.0 412.1398416886543 0.49961009004188855 4.0 0.0 4.0 
374.0004290227294 24.0 6.0 412.1398416886543 0.49961009004188855 4.0 0.0 4.0 
376.00047933655907 24.0 6.0 412.1398416886543 0.49961009004188855 4.0 0.0 4.0 
378.00047933655907 24.0 6.0 412.1398416886543 0.49961009004188855 4.0 0.0 4.0 
380.00047933655907 24.0 6.0 412.1398416886543 0.49961009004188855 4.0 0.0 4.0 
382.00047933655907 24.0 6.0 412.1398416886543 0.49961009004188855 4.0 0.0 4.0 
384.0004290227294 24.0 6.0 412.1398416886543 0.49961009004188855 4.0 0.0 4.0 
386.00047933655907 24.0 6.0 412.1398416886543 0.49961009004188855 4.0 0.0 4.0 
388.00047933655907 24.0 6.0 412.1398416886543 0.49961009004188855 4.0 0.0 4.0 
390.00047933655907 29.0 8.0 412.1398416886543 0.4896992056710398 4.0 0.0 4.0 
392.00047933655907 34.0 9.0 412.1398416886543 0.4997170870596768 4.0 0.0 4.0 
394.0004290227294 34.0 9.0 412.1398416886543 0.4997170870596768 4.0 0.0 4.0 
396.00047933655907 40.0 10.0 421.2295514511874 0.49963306379966155 7.0 0.0 7.0 
398.00047933655907 40.0 10.0 421.26385224274395 0.4996050631518336 7.0 0.0 7.0 
400.00047933655907 40.0 10.0 421.26385224274395 0.4996050390548906 7.0 0.0 7.0 
402.00047933655907 44.0 10.0 424.28759894459097 0.6525949310941099 8.0 0.0 8.0 
404.0004290227294 50.0 11.0 424.3192612137203 0.5010489381605338 9.0 0.0 8.0 
406.00047933655907 50.0 11.0 424.27440633245385 0.5899382749848198 9.0 0.0 8.0 
408.00047933655907 46.0 11.0 424.31398416886555 0.4957072258137703 9.0 0.0 8.0 
410.00047933655907 46.0 11.0 424.2612137203165 0.7557347908959654 9.0 0.0 8.0 
412.00047933655907 33.0 9.0 424.24538258575205 0.6981442863563116 9.0 0.0 8.0 
414.0004290227294 33.0 9.0 427.29287598944603 0.7689028802742192 9.0 0.0 9.0 
416.00047933655907 30.0 8.0 427.28759894459097 0.7496439546138755 9.0 0.0 9.0 
418.00047933655907 26.0 7.0 427.29287598944603 0.49966020462473826 9.0 0.0 9.0 
420.00047933655907 26.0 7.0 427.2717678100265 0.4996603273000863 9.0 0.0 9.0 
422.00047933655907 26.0 7.0 427.2717678100265 0.4996603273000863 9.0 0.0 9.0 
424.0004290227294 26.0 7.0 427.2717678100265 0.7723876000273591 9.0 0.0 9.0 
426.00047933655907 26.0 7.0 427.2717678100265 0.49967791587788085 9.0 0.0 9.0 
428.00047933655907 26.0 7.0 427.2717678100265 0.49967791587788085 9.0 0.0 9.0 
430.00047933655907 26.0 7.0 427.2717678100265 0.49967791587788085 9.0 0.0 9.0 
432.00047933655907 26.0 7.0 427.2717678100265 0.49967791587788085 9.0 0.0 9.0 
434.0004290227294 26.0 7.0 427.2717678100265 0.49967791587788085 9.0 0.0 9.0 
436.00047933655907 26.0 7.0 427.2717678100265 0.49967791587788085 9.0 0.0 9.0 
438.00047933655907 26.0 7.0 427.2717678100265 0.49967791587788085 9.0 0.0 9.0 
440.00047933655907 26.0 7.0 427.2717678100265 0.49967791587788085 9.0 0.0 9.0 
442.00047933655907 26.0 7.0 427.2717678100265 0.49967791587788085 9.0 0.0 9.0 
444.0004290227294 26.0 7.0 427.2717678100265 0.49967791587788085 9.0 0.0 9.0 
446.00047933655907 26.0 7.0 427.2717678100265 0.49967791587788085 9.0 0.0 9.0 
448.00047933655907 28.0 8.0 427.2717678100265 0.47466250260633086 9.0 0.0 9.0 
450.00047933655907 28.0 8.0 427.2717678100265 0.47466250260633086 9.0 0.0 9.0 
452.00047933655907 28.0 8.0 427.2717678100265 0.47466250260633086 9.0 0.0 9.0 
454.0004290227294 28.0 8.0 427.2717678100265 0.47466250260633086 9.0 0.0 9.0 
456.00047933655907 28.0 8.0 427.2717678100265 0.5996639082613389 9.0 0.0 9.0 
458.00047933655907 30.0 8.0 427.2717678100265 0.49969913360135365 9.0 0.0 9.0 
460.00047933655907 30.0 8.0 427.2717678100265 0.49969913360135365 9.0 0.0 9.0 
462.00047933655907 30.0 8.0 427.2717678100265 0.49969913360135365 9.0 0.0 9.0 
464.0004290227294 30.0 8.0 424.24538258575205 0.49969913360135365 8.0 0.0 8.0 
466.00047933655907 30.0 8.0 424.24538258575205 0.49969913360135365 8.0 0.0 8.0 
468.00047933655907 30.0 8.0 421.2189973614775 0.49969913360135365 7.0 0.0 7.0 
470.00047933655907 30.0 8.0 418.1926121372032 0.49969913360135365 6.0 0.0 6.0 
472.00047933655907 30.0 8.0 415.16622691292895 0.49969913360135365 5.0 0.0 5.0 
474.0004290227294 30.0 8.0 412.1398416886543 0.49969913360135365 4.0 0.0 4.0 
476.00047933655907 30.0 8.0 412.1398416886543 0.49969913360135365 4.0 0.0 4.0 
478.00047933655907 30.0 8.0 412.1398416886543 0.9580324669346869 4.0 0.0 4.0 
480.00047933655907 24.0 6.0 412.1398416886543 0.49961009004188855 4.0 0.0 4.0 
482.00047933655907 24.0 6.0 412.1398416886543 0.49961009004188855 4.0 0.0 4.0 
484.0004290227294 24.0 6.0 412.1398416886543 0.49961009004188855 4.0 0.0 4.0 
486.00047933655907 24.0 6.0 412.1398416886543 0.49961009004188855 4.0 0.0 4.0 
488.00047933655907 24.0 6.0 412.1398416886543 0.49961009004188855 4.0 0.0 4.0 
490.00047933655907 24.0 6.0 412.1398416886543 0.49961009004188855 4.0 0.0 4.0 
492.00047933655907 26.0 7.0 412.1398416886543 0.49967791587788085 4.0 0.0 4.0 
494.0004290227294 26.0 7.0 412.1398416886543 0.49967791587788085 4.0 0.0 4.0 
496.00047933655907 28.0 8.0 412.1398416886543 0.47899900821415525 4.0 0.0 4.0 
498.00047933655907 32.0 9.0 412.1398416886543 0.4710135583648827 4.0 0.0 4.0 
500.00047933655907 35.0 9.0 418.20052770448547 0.490642693234729 7.0 0.0 6.0 
502.00047933655907 36.0 9.0 418.2242744063325 0.49962469011194344 7.0 0.0 6.0 
504.0004290227294 36.0 9.0 418.2058047493405 0.49962480688943656 7.0 0.0 6.0 
506.00047933655907 36.0 9.0 418.2137203166227 0.6534823227531745 7.0 0.0 6.0 
508.00047933655907 30.0 8.0 418.2084432717678 0.49966671919678635 7.0 0.0 6.0 
510.00047933655907 30.0 8.0 418.1926121372032 0.49966688787538754 7.0 0.0 6.0 
512.000479336559 30.0 8.0 418.1926121372032 0.8330096882952229 7.0 0.0 6.0 
514.0004290227293 26.0 7.0 418.1926121372032 0.499660327300076 6.0 0.0 6.0 
516.000479336559 26.0 7.0 418.1926121372032 0.499660327300076 6.0 0.0 6.0 
518.000479336559 26.0 7.0 418.1926121372032 0.5905694182091669 6.0 0.0 6.0 
520.000479336559 25.0 6.0 418.1926121372032 0.7168881758244083 6.0 0.0 6.0 
522.000479336559 24.0 6.0 418.1926121372032 0.4996100900418823 6.0 0.0 6.0 
524.0004290227293 24.0 6.0 418.1926121372032 0.4996100900418823 6.0 0.0 6.0 
526.000479336559 24.0 6.0 418.1926121372032 0.4996100900418823 6.0 0.0 6.0 
528.000479336559 24.0 6.0 418.1926121372032 0.4996100900418823 6.0 0.0 6.0 
530.000479336559 24.0 6.0 418.1926121372032 0.4996100900418823 6.0 0.0 6.0 
532.000479336559 24.0 6.0 418.1926121372032 0.4996100900418823 6.0 0.0 6.0 
534.0004290227293 25.0 7.0 418.1926121372032 0.48570317246458217 6.0 0.0 6.0 
536.000479336559 26.0 7.0 418.1926121372032 0.4996779158778757 6.0 0.0 6.0 
538.000479336559 26.0 7.0 418.1926121372032 0.4996779158778757 6.0 0.0 6.0 
540.000479336559 26.0 7.0 418.1926121372032 0.4996779158778757 6.0 0.0 6.0 
542.000479336559 26.0 7.0 418.1926121372032 0.4996779158778757 6.0 0.0 6.0 
544.0004290227293 26.0 7.0 418.1926121372032 0.5905870067869666 6.0 0.0 6.0 
546.000479336559 25.0 6.0 418.1926121372032 0.7135916160387751 6.0 0.0 6.0 
548.000479336559 24.0 6.0 418.1926121372032 0.4996100900418823 6.0 0.0 6.0 
550.000479336559 24.0 6.0 418.1926121372032 0.4996100900418823 6.0 0.0 6.0 
552.000479336559 24.0 6.0 418.1926121372032 0.4996100900418823 6.0 0.0 6.0 
554.0004290227293 24.0 6.0 418.1926121372032 0.4996100900418823 6.0 0.0 6.0 
556.000479336559 24.0 6.0 418.1926121372032 0.4996100900418823 6.0 0.0 6.0 
558.000479336559 24.0 6.0 418.1926121372032 0.4996100900418823 6.0 0.0 6.0 
560.000479336559 24.0 6.0 415.1662269129289 0.4996100900418823 5.0 0.0 5.0 
562.000479336559 24.0 6.0 415.1662269129289 0.4996100900418823 5.0 0.0 5.0 
564.0004290227293 24.0 6.0 412.1398416886543 0.4996100900418823 4.0 0.0 4.0 
566.000479336559 24.0 6.0 412.1398416886543 0.4996100900418823 4.0 0.0 4.0 
568.000479336559 24.0 6.0 412.1398416886543 0.4996100900418823 4.0 0.0 4.0 
570.000479336559 24.0 6.0 412.1398416886543 0.4996100900418823 4.0 0.0 4.0 
572.000479336559 24.0 6.0 412.1398416886543 0.4996100900418823 4.0 0.0 4.0 
574.0004290227293 24.0 6.0 412.1398416886543 0.4996100900418823 4.0 0.0 4.0 
576.000479336559 24.0 6.0 412.1398416886543 0.4996100900418823 4.0 0.0 4.0 
578.000479336559 24.0 6.0 412.1398416886543 0.4996100900418823 4.0 0.0 4.0 
580.000479336559 24.0 6.0 412.1398416886543 0.4996100900418823 4.0 0.0 4.0 
582.000479336559 26.0 7.0 412.1398416886543 0.4996779158778757 4.0 0.0 4.0 
584.0004290227293 26.0 7.0 412.1398416886543 0.4996779158778757 4.0 0.0 4.0 
586.000479336559 26.0 7.0 412.1398416886543 0.4996779158778757 4.0 0.0 4.0 
588.000479336559 26.0 7.0 412.1398416886543 0.4996779158778757 4.0 0.0 4.0 
590.000479336559 26.0 7.0 412.1398416886543 0.4996779158778757 4.0 0.0 4.0 
592.000479336559 26.0 7.0 412.1398416886543 0.4996779158778757 4.0 0.0 4.0 
594.0004290227293 26.0 7.0 412.1398416886543 0.4996779158778757 4.0 0.0 4.0 
596.000479336559 26.0 7.0 412.1398416886543 0.4996779158778757 4.0 0.0 4.0 
598.000479336559 26.0 7.0 412.1398416886543 0.4996779158778757 4.0 0.0 4.0 
600.000479336559 26.0 7.0 412.1398416886543 0.4996779158778757 4.0 0.0 4.0 
602.000479336559 28.0 8.0 412.1398416886543 0.662688141910948 4.0 0.0 4.0 
604.0004290227293 26.0 7.0 412.1398416886543 0.4996779158778757 4.0 0.0 4.0 
606.000479336559 26.0 7.0 412.1398416886543 0.4996779158778757 4.0 0.0 4.0 
608.000479336559 26.0 7.0 412.1398416886543 0.4996779158778757 4.0 0.0 4.0 
610.000479336559 26.0 7.0 412.1398416886543 0.4996779158778757 4.0 0.0 4.0 
612.000479336559 26.0 7.0 412.1398416886543 0.4996779158778757 4.0 0.0 4.0 
614.0004290227293 26.0 7.0 412.1398416886543 0.4996779158778757 4.0 0.0 4.0 
616.000479336559 26.0 7.0 412.1398416886543 0.4996779158778757 4.0 0.0 4.0 
618.000479336559 26.0 7.0 412.1398416886543 0.4996779158778757 4.0 0.0 4.0 
620.000479336559 26.0 7.0 412.1398416886543 0.4996779158778757 4.0 0.0 4.0 
622.000479336559 26.0 7.0 412.1398416886543 0.8633142795142393 4.0 0.0 4.0 
624.0004290227293 24.0 6.0 412.1398416886543 0.4996100900418823 4.0 0.0 4.0 
626.000479336559 24.0 6.0 412.1398416886543 0.4996100900418823 4.0 0.0 4.0 
628.000479336559 26.0 7.0 412.1398416886543 0.4996779158778757 4.0 0.0 4.0 
630.000479336559 26.0 7.0 412.1398416886543 0.4996779158778757 4.0 0.0 4.0 
632.000479336559 26.0 7.0 412.1398416886543 0.4996779158778757 4.0 0.0 4.0 
634.0004290227293 26.0 7.0 412.1398416886543 0.4996779158778757 4.0 0.0 4.0 
636.000479336559 26.0 7.0 412.1398416886543 0.4996779158778757 4.0 0.0 4.0 
638.000479336559 26.0 7.0 412.1398416886543 0.4996779158778757 4.0 0.0 4.0 
640.000479336559 26.0 7.0 412.1398416886543 0.4996779158778757 4.0 0.0 4.0 
642.000479336559 26.0 7.0 412.1398416886543 0.4996779158778757 4.0 0.0 4.0 
644.0004290227293 26.0 7.0 412.1398416886543 0.4996779158778757 4.0 0.0 4.0 
646.000479336559 26.0 7.0 412.1398416886543 0.4996779158778757 4.0 0.0 4.0 
648.000479336559 26.0 7.0 412.1398416886543 0.7724051886051484 4.0 0.0 4.0 
650.000479336559 24.0 6.0 412.1398416886543 0.4996100900418823 4.0 0.0 4.0 
652.000479336559 24.0 6.0 412.1398416886543 0.4996100900418823 4.0 0.0 4.0 
654.0004290227293 24.0 6.0 412.1398416886543 0.4996100900418823 4.0 0.0 4.0 
656.000479336559 24.0 6.0 412.1398416886543 0.4996100900418823 4.0 0.0 4.0 
658.000479336559 24.0 6.0 412.1398416886543 0.4996100900418823 4.0 0.0 4.0 
660.000479336559 24.0 6.0 412.1398416886543 0.4996098276529545 4.0 0.0 4.0 
662.000479336559 24.0 6.0 412.1398416886543 0.4996100900418823 4.0 0.0 4.0 
664.0004290227293 24.0 6.0 412.1398416886543 0.4996100900418823 4.0 0.0 4.0 
#####################################################################
# End of data export. Simulation finished at: 2019-03-11T19:07+0000 #
#####################################################################
