#####################################################################
# Alchemist log file - simulation started at: 2019-03-05T05:12+0000 #
#####################################################################
# seed = 1.0, bandwidth = 17782.79410038923, accessPointCount = 531.8295896944988, baserange = 562.341325190349
#
# The columns have the following meaning: 
# time neighbor_count[Sum] <value>@neighbor_count[Sum] packet_size[Mean] mean_delay[Mean] crowd[Sum] overcrowded[Sum] risk[Sum] 
0.0 NaN NaN NaN NaN NaN NaN NaN 
10.000417374280275 8947.0 3717.0 4984.394477317554 1.8282293943782233 1497.0 0.0 1497.0 
20.000417374280275 16769.0 4223.0 4986.702169625247 3.214839389912792 1497.0 0.0 1497.0 
30.000417374280275 17637.0 4128.0 4987.078895463511 2.6701652364928936 1496.0 1.0 1496.0 
40.000417374280275 17336.0 4065.0 4987.027613412229 2.1970798031296592 1494.0 3.0 1494.0 
50.000417374280275 17422.0 4067.0 4986.921104536489 2.3630437045255084 1492.0 5.0 1492.0 
60.000417374280275 17574.0 4070.0 4987.072978303748 2.3889998558712677 1491.0 6.0 1491.0 
70.00041737428027 17647.0 4074.0 1178.6193293885615 1.3527019425461062 512.0 4.0 339.0 
80.00041737428027 17595.0 4076.0 1185.3057199210964 1.210893683121739 482.0 10.0 336.0 
90.00041376116482 17594.0 4078.0 1189.8284023668703 1.2522449832965405 480.0 8.0 340.0 
100.00041737428027 17534.0 4075.0 1192.0453648915134 1.404421038673201 482.0 7.0 342.0 
110.00041737428027 17488.0 4072.0 1191.960552268239 1.3285410864596934 481.0 6.0 343.0 
120.00041376116482 17446.0 4076.0 1196.4437869822427 1.2978706907341853 483.0 6.0 345.0 
130.0004173742803 17399.0 4076.0 1185.2228796844208 1.3023107512122212 480.0 6.0 340.0 
140.0004173742803 17386.0 4071.0 1180.6587771203224 1.204789914708754 473.0 6.0 338.0 
150.00041376116482 17447.0 4076.0 1194.276134122293 1.34670614970729 476.0 7.0 343.0 
160.0004173742803 17422.0 4073.0 1196.5246548323546 1.3359980836849075 471.0 7.0 344.0 
170.0004173742803 17483.0 4076.0 1201.0670611439832 1.2969560732057348 472.0 9.0 344.0 
180.00041376116482 17503.0 4080.0 1198.7633136094682 1.4048029674305114 474.0 8.0 344.0 
190.0004173742803 17364.0 4074.0 1196.4694280078845 1.2203632037545635 464.0 13.0 338.0 
200.0004173742803 17513.0 4074.0 1198.8560157790937 1.2683781045366143 460.0 18.0 334.0 
210.00041376116482 17627.0 4078.0 1203.3570019723882 1.3541581467250206 465.0 18.0 336.0 
220.0004173742803 17553.0 4078.0 1201.0414201183423 1.502123036824254 472.0 14.0 339.0 
230.0004173742803 17487.0 4077.0 1205.3727810650971 1.3588377829912521 466.0 13.0 342.0 
240.00041376116482 17547.0 4079.0 1209.9940828402393 1.3548655194717434 468.0 13.0 344.0 
250.0004173742803 17238.0 4071.0 1207.729783037468 1.2226828453855256 466.0 13.0 343.0 
260.0004173742803 17336.0 4081.0 1200.9329388560168 1.3400648229337884 466.0 14.0 339.0 
270.0004137611648 17198.0 4080.0 1198.6903353057244 1.2920515155227679 464.0 13.0 339.0 
280.0004173742803 17157.0 4082.0 1198.6745562130138 1.2879703745053284 467.0 13.0 339.0 
290.0004173742803 17032.0 4076.0 1196.335305719917 1.3106490889579219 463.0 14.0 337.0 
300.0004137611648 17221.0 4088.0 1189.5029585798848 1.3333981715845034 466.0 13.0 335.0 
310.0004173742803 17096.0 4084.0 1189.6153846153898 1.2199057857683937 464.0 13.0 335.0 
320.0004173742803 17001.0 4084.0 1182.7317554240663 1.2770815858853029 460.0 13.0 332.0 
330.0004137611648 17013.0 4083.0 1189.536489151868 1.3146910587605114 459.0 13.0 335.0 
340.0004173742803 17036.0 4080.0 1185.0729783037439 1.3000261047817896 460.0 13.0 333.0 
350.0004173742803 17046.0 4081.0 1180.4299802761316 1.246039393773894 459.0 13.0 331.0 
360.0004137611648 17212.0 4090.0 1184.9763313609492 1.323578114712525 460.0 14.0 332.0 
370.0004173742803 17090.0 4088.0 1178.2426035502922 1.3302112520550164 461.0 13.0 330.0 
380.0004173742803 16956.0 4086.0 1166.8658777120334 1.2755963302997675 466.0 13.0 325.0 
390.0004137611648 16967.0 4088.0 1175.9230769230846 1.3573614477006326 468.0 14.0 328.0 
400.0004173742803 17007.0 4089.0 1178.2051282051304 1.373137979581397 467.0 15.0 328.0 
410.0004173742803 16991.0 4092.0 1187.21696252466 1.3676247701381978 471.0 14.0 333.0 
420.0004137611648 16994.0 4087.0 1178.1577909270181 1.4469975231423453 468.0 14.0 329.0 
430.0004173742803 16872.0 4078.0 1164.5483234714063 1.2736500685884142 462.0 14.0 323.0 
440.0004173742803 17039.0 4091.0 1184.9723865877772 1.345542172162023 467.0 13.0 333.0 
450.0004137611648 17025.0 4092.0 1196.345167652857 1.4196384583686101 470.0 13.0 338.0 
460.0004173742803 17041.0 4097.0 1203.2169625246604 1.3616028592425213 473.0 13.0 341.0 
470.0004173742803 16961.0 4095.0 1194.0493096646924 1.2501264203866285 468.0 15.0 335.0 
480.0004137611648 16840.0 4095.0 1189.548323471406 1.263701893960231 467.0 13.0 335.0 
490.0004173742803 17116.0 4102.0 1187.2879684418215 1.3438055114554333 464.0 14.0 333.0 
500.0004173742803 17034.0 4098.0 1178.1755424063088 1.422304716906891 460.0 14.0 329.0 
510.0004137611648 16873.0 4094.0 1178.17159763313 1.4174209460804805 466.0 13.0 330.0 
520.0004173742802 16898.0 4097.0 1162.299802761336 1.3868985757712498 456.0 16.0 320.0 
530.0004173742802 16920.0 4089.0 1144.0946745562062 1.299937603764047 450.0 15.0 313.0 
540.0004137611649 17105.0 4091.0 1150.9506903353076 1.2979481086328248 454.0 13.0 318.0 
550.0004173742802 16953.0 4084.0 1160.0433925049329 1.173077957713212 454.0 13.0 322.0 
560.0004173742802 17006.0 4087.0 1162.323471400387 1.2003770742164552 458.0 13.0 323.0 
570.0004137611649 17164.0 4092.0 1173.5838264299878 1.307102300179794 473.0 13.0 328.0 
580.0004173742802 17222.0 4095.0 1173.6015779092788 1.4066151573256083 472.0 12.0 329.0 
590.0004173742802 17313.0 4094.0 1182.7869822485186 1.2947677542180067 473.0 12.0 333.0 
600.0004137611649 17337.0 4098.0 1187.2899408284047 1.4260719560733517 471.0 12.0 335.0 
610.0004173742802 17280.0 4094.0 1196.2603550295828 1.384009787492354 471.0 14.0 337.0 
620.0004173742802 17254.0 4093.0 1201.0197238658716 1.3873329468463929 471.0 13.0 340.0 
630.0004137611649 17287.0 4094.0 1194.1656804733684 1.5050033036971957 472.0 12.0 338.0 
640.0004173742802 17308.0 4092.0 1194.2130177514814 1.429248086475276 473.0 13.0 337.0 
650.0004173742802 17376.0 4096.0 1198.6666666666629 1.4544981269345536 471.0 12.0 340.0 
660.0004137611649 17264.0 4091.0 1200.9171597633065 1.3986997321641752 463.0 12.0 341.0 
#####################################################################
# End of data export. Simulation finished at: 2019-03-05T05:31+0000 #
#####################################################################
