#####################################################################
# Alchemist log file - simulation started at: 2019-03-07T14:22+0000 #
#####################################################################
# seed = 7.0, bandwidth = 4216.965034285822, accessPointCount = 19.39227447486858, baserange = 100.0
#
# The columns have the following meaning: 
# time neighbor_count[Sum] <value>@neighbor_count[Sum] packet_size[Mean] mean_delay[Mean] crowd[Sum] overcrowded[Sum] risk[Sum] 
0.0 NaN NaN NaN NaN NaN NaN NaN 
2.0002458590828063 1.0 NaN 4987.699208443271 0.2366436693602363 1497.0 0.0 1497.0 
4.000798617819165 8.0 3.0 4987.704485488127 0.7082129125713579 1497.0 0.0 1497.0 
6.000297418119471 8.0 3.0 4987.736147757256 1.9085923323642637 1497.0 0.0 1497.0 
8.000798617819164 8.0 3.0 4987.736147757256 1.310110011535887 1497.0 0.0 1497.0 
10.000798617819164 8.0 3.0 4987.7255936675465 0.7044187146422989 1497.0 0.0 1497.0 
12.000798617819164 8.0 3.0 4987.730870712401 1.9044187146422993 1497.0 0.0 1497.0 
14.000798617819164 8.0 3.0 4987.736147757256 1.3070746531926403 1497.0 0.0 1497.0 
16.000297418119473 229.0 27.0 4988.034300791557 0.7943864070577367 1497.0 0.0 1497.0 
18.000798617819164 240.0 27.0 4988.055408970976 2.6452013808765087 1497.0 0.0 1497.0 
20.000798617819164 240.0 27.0 4988.047493403694 4.22627491935237 1497.0 0.0 1497.0 
22.000798617819164 240.0 27.0 4988.042216358839 5.806430506716363 1497.0 0.0 1497.0 
24.000798617819164 240.0 27.0 4988.058047493404 7.677398248651846 1497.0 0.0 1497.0 
26.000297418119473 240.0 27.0 4988.058047493404 9.258961361054038 1497.0 0.0 1497.0 
28.000798617819164 240.0 27.0 4988.058047493404 10.839239341899614 1497.0 0.0 1497.0 
30.000798617819164 240.0 27.0 4988.071240105541 8.400633086679807 1497.0 0.0 1497.0 
32.000798617819164 240.0 27.0 4987.984168865435 1.6814095003905087 1495.0 2.0 1495.0 
34.000798617819164 240.0 27.0 4987.936675461741 3.2620546616808315 1495.0 2.0 1495.0 
36.00029741811947 240.0 27.0 4987.936675461741 5.133022403616315 1495.0 2.0 1495.0 
38.000798617819164 240.0 27.0 4987.936675461741 6.713667564906638 1495.0 2.0 1495.0 
40.000798617819164 240.0 27.0 4987.936675461741 8.29431272619696 1495.0 2.0 1495.0 
42.000798617819164 240.0 27.0 4987.936675461741 10.165280468132444 1495.0 2.0 1495.0 
44.000798617819164 240.0 27.0 4987.936675461741 11.745925629422766 1495.0 2.0 1495.0 
46.00029741811947 240.0 27.0 4988.005277044855 1.3355498685185234 1493.0 4.0 1493.0 
48.000798617819164 240.0 27.0 4987.997361477573 2.627121307159544 1494.0 3.0 1494.0 
50.000798617819164 240.0 27.0 4987.992084432718 4.207766468449867 1494.0 3.0 1494.0 
52.000798617819164 240.0 27.0 4987.992084432718 5.788411629740189 1494.0 3.0 1494.0 
54.000798617819164 240.0 27.0 4987.992084432718 7.659379371675673 1494.0 3.0 1494.0 
56.00029741811947 240.0 27.0 4987.992084432718 9.240024532965995 1494.0 3.0 1494.0 
58.000798617819164 242.0 28.0 4987.992084432718 10.214568770002163 1494.0 3.0 1494.0 
60.000798617819164 242.0 28.0 4988.0448548812665 7.992320851008098 1496.0 1.0 1496.0 
62.000418815792834 242.0 28.0 448.60949868073897 1.3759548099254133 26.0 0.0 16.0 
64.00041881579283 242.0 28.0 448.5910290237466 2.458432350965402 23.0 1.0 15.0 
66.00029741811947 242.0 28.0 448.56992084432704 3.550692615952939 22.0 1.0 15.0 
68.00041881579284 242.0 28.0 448.56992084432704 4.642952880940477 22.0 1.0 15.0 
70.00041881579284 242.0 28.0 448.56992084432704 5.735213145928015 22.0 1.0 15.0 
72.00041881579284 244.0 29.0 448.56992084432704 6.636675501239076 22.0 1.0 15.0 
74.00041881579284 244.0 29.0 448.56992084432704 7.696810464315215 22.0 1.0 15.0 
76.00029741811947 244.0 29.0 448.56992084432704 1.3334763536481464 15.0 9.0 7.0 
78.00041881579284 244.0 29.0 448.5593667546175 1.7980080117072923 14.0 9.0 7.0 
80.00041881579284 244.0 29.0 448.5593667546175 2.754602730870721 13.0 9.0 7.0 
82.00041881579284 244.0 29.0 448.5593667546175 3.8007852161725384 12.0 9.0 7.0 
84.00041881579284 244.0 29.0 448.5593667546175 4.842782924346717 11.0 9.0 7.0 
86.00029741811947 244.0 29.0 448.5593667546175 5.856571989614896 11.0 9.0 7.0 
88.00041881579284 244.0 29.0 448.5593667546175 6.978740505847088 11.0 9.0 7.0 
90.00041881579284 244.0 29.0 448.57519788918194 5.720211800516829 10.0 9.0 7.0 
92.00041881579284 244.0 29.0 448.56200527704493 2.84313105463 10.0 9.0 7.0 
94.00041881579284 244.0 29.0 448.55672823219004 3.9880699392747667 10.0 9.0 7.0 
96.00029741811947 244.0 29.0 448.55672823219004 5.133008823919534 10.0 9.0 7.0 
98.00041881579284 244.0 29.0 448.55672823219004 6.277947708564301 10.0 9.0 7.0 
100.00041881579284 244.0 29.0 448.55672823219004 7.422886593209068 10.0 9.0 7.0 
102.00041881579284 244.0 29.0 448.55672823219004 8.567825477853836 10.0 9.0 7.0 
104.00041881579284 244.0 29.0 448.55672823219004 8.773059199840088 10.0 9.0 7.0 
106.00029741811947 230.0 28.0 448.55672823219004 3.881240993794837 9.0 9.0 7.0 
108.00041881579284 230.0 28.0 448.55672823219004 4.8079224475608315 9.0 9.0 7.0 
110.00041881579284 228.0 27.0 448.55672823219004 5.100240861637132 9.0 9.0 7.0 
112.00041881579284 228.0 27.0 448.55672823219004 6.200883653189015 9.0 9.0 7.0 
114.00041881579284 226.0 27.0 448.55672823219004 6.540922972117184 9.0 9.0 7.0 
116.00029741811947 225.0 26.0 448.55672823219004 6.885479495870893 9.0 9.0 7.0 
118.00041881579284 224.0 26.0 448.55672823219004 5.835895798592278 9.0 9.0 7.0 
120.00041881579284 224.0 26.0 448.5461741424801 3.7330716454415405 9.0 9.0 7.0 
122.00041881579284 224.0 26.0 448.5461741424801 1.76769646506636 9.0 9.0 7.0 
124.00041881579284 224.0 26.0 448.5461741424801 2.778403535773431 9.0 9.0 7.0 
126.00029741811947 224.0 26.0 448.5461741424801 3.7891106064805014 9.0 9.0 7.0 
128.00041881579284 224.0 26.0 448.5461741424801 4.799817677187572 9.0 9.0 7.0 
130.00041881579284 224.0 26.0 448.5461741424801 5.810524747894639 9.0 9.0 7.0 
132.00041881579284 224.0 26.0 448.5461741424801 5.408666898919577 9.0 9.0 7.0 
134.00041881579284 224.0 26.0 448.5461741424801 5.2194816706427245 9.0 9.0 7.0 
136.0002974181195 224.0 26.0 448.5461741424801 1.6796476158086713 9.0 9.0 7.0 
138.00041881579284 224.0 26.0 448.5461741424801 2.4630819592430147 9.0 9.0 7.0 
140.00041881579284 224.0 26.0 448.5461741424801 3.4737890299500855 9.0 9.0 7.0 
142.00041881579284 224.0 26.0 448.5461741424801 4.484496100657156 9.0 9.0 7.0 
144.00041881579284 224.0 26.0 448.5461741424801 5.495203171364227 9.0 9.0 7.0 
146.0002974181195 224.0 26.0 448.5461741424801 5.0921991584314314 9.0 9.0 7.0 
148.00041881579284 224.0 26.0 448.5461741424801 4.90216098843759 9.0 9.0 7.0 
150.00041881579284 224.0 26.0 448.5461741424801 4.111136457413061 8.0 9.0 7.0 
152.00041881579284 224.0 26.0 448.5461741424801 2.1457612770378827 8.0 9.0 7.0 
154.00041881579284 224.0 26.0 448.5461741424801 3.1564683477449536 8.0 9.0 7.0 
156.0002974181195 224.0 26.0 448.5461741424801 4.167175418452024 8.0 9.0 7.0 
158.00041881579284 224.0 26.0 448.5461741424801 5.177882489159095 8.0 9.0 7.0 
160.00041881579284 224.0 26.0 448.5461741424801 4.774616495893102 8.0 9.0 7.0 
162.00041881579284 224.0 26.0 448.5461741424801 4.58364006491667 8.0 9.0 7.0 
164.00041881579284 224.0 26.0 448.5461741424801 5.5943471356237415 8.0 9.0 7.0 
166.0002974181195 224.0 26.0 445.51978891820585 2.0545130807896865 7.0 9.0 6.0 
168.00041881579284 224.0 26.0 445.51978891820585 2.83794742422403 7.0 9.0 6.0 
170.00041881579284 224.0 26.0 445.51978891820585 3.848654494931101 7.0 9.0 6.0 
172.00041881579284 224.0 26.0 445.51978891820585 4.859361565638172 7.0 9.0 6.0 
174.00041881579284 226.0 26.0 445.51978891820585 4.314327828063367 8.0 9.0 6.0 
176.0002974181195 238.0 27.0 448.5593667546175 4.218521570623204 8.0 9.0 7.0 
178.00041881579284 238.0 27.0 448.5540897097625 5.258751399259759 8.0 9.0 7.0 
180.00041881579284 238.0 27.0 448.5540897097625 4.565964079053083 8.0 9.0 7.0 
182.00041881579284 238.0 27.0 448.5540897097625 2.7367083885070707 8.0 9.0 7.0 
184.00041881579284 238.0 27.0 448.5593667546175 3.7875322957825905 8.0 9.0 7.0 
186.0002974181195 238.0 27.0 448.5540897097625 4.838356203058111 8.0 9.0 7.0 
188.00041881579284 238.0 27.0 448.5540897097625 5.889180110333631 8.0 9.0 7.0 
190.00041881579284 238.0 27.0 448.5540897097625 3.8065884575832345 8.0 9.0 7.0 
192.00041881579284 238.0 27.0 448.5540897097625 4.694909697731586 8.0 9.0 7.0 
194.00041881579284 238.0 27.0 448.5540897097625 5.745733605007107 8.0 9.0 7.0 
196.0002974181195 238.0 27.0 448.5540897097625 2.3928080359525055 8.0 9.0 7.0 
198.00041881579284 238.0 27.0 448.5540897097625 3.2236905942544185 8.0 9.0 7.0 
200.00041881579284 238.0 27.0 448.5540897097625 4.274514501529938 8.0 9.0 7.0 
202.00041881579284 238.0 27.0 448.5540897097625 5.325338408805459 8.0 9.0 7.0 
204.00041881579284 238.0 27.0 448.5540897097625 5.536108552640119 8.0 9.0 7.0 
206.0002974181195 238.0 27.0 448.5540897097625 4.170079113131344 8.0 9.0 7.0 
208.00041881579284 238.0 27.0 448.5540897097625 5.220903020406864 8.0 9.0 7.0 
210.00041881579284 238.0 27.0 448.5540897097625 4.528115700200188 8.0 9.0 7.0 
212.00041881579284 238.0 27.0 448.5540897097625 2.6988600096541755 8.0 9.0 7.0 
214.00041881579284 238.0 27.0 448.5540897097625 3.7496839169296954 8.0 9.0 7.0 
216.0002974181195 238.0 27.0 448.5540897097625 4.800507824205216 8.0 9.0 7.0 
218.00041881579284 238.0 27.0 448.5540897097625 5.851331731480736 8.0 9.0 7.0 
220.00041881579284 238.0 27.0 448.5540897097625 3.8059574820742283 8.0 9.0 7.0 
222.00041881579284 238.0 27.0 448.5540897097625 4.695491066769104 8.0 9.0 7.0 
224.00041881579284 238.0 27.0 448.5540897097625 5.7463149740446235 8.0 9.0 7.0 
226.0002974181195 238.0 27.0 448.5540897097625 2.3933894049900224 8.0 9.0 7.0 
228.00041881579284 238.0 27.0 448.5540897097625 3.2242719632919354 8.0 9.0 7.0 
230.00041881579284 238.0 27.0 448.5540897097625 4.275095870567456 8.0 9.0 7.0 
232.00041881579284 238.0 27.0 448.5540897097625 5.325919777842976 8.0 9.0 7.0 
234.00041881579284 240.0 28.0 448.5540897097625 5.2256872022895084 8.0 9.0 7.0 
236.0002974181195 240.0 28.0 448.5540897097625 3.9419012912308697 8.0 9.0 7.0 
238.00041881579284 240.0 28.0 448.5540897097625 4.929038901095752 8.0 9.0 7.0 
240.00041881579284 240.0 28.0 448.5540897097625 4.278238691204633 8.0 9.0 7.0 
242.00041881579284 240.0 28.0 448.5540897097625 2.559846981903833 8.0 9.0 7.0 
244.00041881579284 240.0 28.0 448.5540897097625 3.546984591768716 8.0 9.0 7.0 
246.0002974181195 250.0 29.0 448.5540897097625 4.337505077124013 8.0 9.0 7.0 
248.00041881579284 253.0 29.0 448.5540897097625 5.238106873465706 8.0 9.0 7.0 
250.00041881579284 253.0 29.0 448.5540897097625 3.3328393468746498 8.0 9.0 7.0 
252.00041881579284 253.0 29.0 448.5540897097625 4.103517198434854 8.0 9.0 7.0 
254.00041881579284 253.0 29.0 448.5593667546175 5.138900932348 8.0 9.0 7.0 
256.0002974181195 263.0 29.0 451.59894459102895 2.411935851540647 8.0 10.0 7.0 
258.0004188157928 263.0 29.0 451.5883905013191 3.3495766421226167 8.0 10.0 7.0 
260.0004188157928 263.0 29.0 451.5883905013191 4.480844883684977 8.0 10.0 7.0 
262.0004188157928 263.0 29.0 451.5883905013191 5.612113125247337 8.0 10.0 7.0 
264.0004188157928 263.0 29.0 451.59366754617406 5.977449994260676 8.0 10.0 7.0 
266.0002974181195 264.0 29.0 451.5883905013191 4.9495477052852035 8.0 10.0 7.0 
268.0004188157928 264.0 29.0 451.5883905013191 6.082776731161288 8.0 10.0 7.0 
270.0004188157928 264.0 29.0 451.5883905013191 7.216005757037372 8.0 10.0 7.0 
272.0004188157928 264.0 29.0 451.5883905013191 4.04980107749796 8.0 10.0 7.0 
274.0004188157928 264.0 29.0 451.59366754617406 4.432590548915901 8.0 10.0 7.0 
276.0002974181195 265.0 29.0 451.5883905013191 5.55933950802918 8.0 10.0 7.0 
278.0004188157928 265.0 29.0 451.5883905013191 6.688557838718099 8.0 10.0 7.0 
280.0004188157928 265.0 29.0 451.5883905013191 5.071452639995256 8.0 10.0 7.0 
282.0004188157928 263.0 28.0 451.5883905013191 4.48476634061609 8.0 10.0 7.0 
284.0004188157928 263.0 28.0 451.59366754617406 5.5595608169730655 8.0 10.0 7.0 
286.0002974181195 263.0 28.0 451.5883905013191 6.634355293330042 8.0 10.0 7.0 
288.0004188157928 264.0 28.0 451.5883905013191 3.212331484365619 8.0 10.0 7.0 
290.0004188157928 264.0 28.0 451.5883905013191 3.517135367326574 8.0 10.0 7.0 
292.0004188157928 264.0 28.0 451.5883905013191 4.598179843683551 8.0 10.0 7.0 
294.0004188157928 264.0 28.0 451.59366754617406 4.865422236707193 8.0 10.0 7.0 
296.0002974181195 264.0 28.0 451.5883905013191 3.639175046397503 8.0 10.0 7.0 
298.0004188157928 264.0 28.0 451.5883905013191 4.72021952275448 8.0 10.0 7.0 
300.0004188157928 264.0 28.0 451.5883905013191 5.801263999111456 8.0 10.0 7.0 
302.0004188157928 264.0 28.0 451.5883905013191 6.882308475468432 8.0 10.0 7.0 
304.0004188157928 264.0 28.0 451.59366754617406 3.420720584193041 8.0 10.0 7.0 
306.0002974181195 264.0 28.0 451.5883905013191 3.7252082839932408 8.0 10.0 7.0 
308.0004188157928 264.0 28.0 451.5883905013191 4.806252760350217 8.0 10.0 7.0 
310.0004188157928 264.0 28.0 451.5883905013191 2.9693284867071936 8.0 10.0 7.0 
312.0004188157928 264.0 28.0 451.5883905013191 3.84724796306417 8.0 10.0 7.0 
314.0004188157928 264.0 28.0 451.5883905013191 4.9282924394211465 8.0 10.0 7.0 
316.0002974181195 264.0 28.0 451.5883905013191 6.009336915778123 8.0 10.0 7.0 
318.0004188157928 264.0 28.0 451.5883905013191 7.090381392135098 8.0 10.0 7.0 
320.0004188157928 264.0 28.0 451.5883905013191 3.6287935008597074 8.0 10.0 7.0 
322.0004188157928 264.0 28.0 451.5883905013191 3.9332812006599074 8.0 10.0 7.0 
324.0004188157928 265.0 29.0 451.5883905013191 4.084834905772792 8.0 10.0 7.0 
326.0002974181195 266.0 29.0 451.5883905013191 2.823151029750313 8.0 10.0 7.0 
328.0004188157928 266.0 29.0 451.5883905013191 3.840604654556879 8.0 10.0 7.0 
330.0004188157928 266.0 29.0 451.5883905013191 4.858058279363445 8.0 10.0 7.0 
332.0004188157928 266.0 29.0 451.5883905013191 5.875511904170011 8.0 10.0 7.0 
334.0004188157928 266.0 29.0 451.5883905013191 6.8929655289765766 8.0 10.0 7.0 
336.0002974181195 266.0 29.0 451.5883905013191 3.635000454835032 8.0 10.0 7.0 
338.0004188157928 266.0 29.0 451.5883905013191 3.9215771134705144 8.0 10.0 7.0 
340.0004188157928 266.0 29.0 451.5883905013191 2.1927072088653157 8.0 10.0 7.0 
342.0004188157928 266.0 29.0 451.5883905013191 3.0189843630836464 8.0 10.0 7.0 
344.0004188157928 266.0 29.0 451.5883905013191 4.036437987890213 8.0 10.0 7.0 
346.0002974181195 266.0 29.0 451.5883905013191 5.053891612696778 8.0 10.0 7.0 
348.0004188157928 266.0 29.0 451.5883905013191 6.071345237503344 8.0 10.0 7.0 
350.0004188157928 266.0 29.0 451.5883905013191 7.08879886230991 8.0 10.0 7.0 
352.0004188157928 266.0 29.0 451.5883905013191 3.830833788168366 8.0 10.0 7.0 
354.0004188157928 266.0 29.0 451.5883905013191 3.38089083896071 8.0 10.0 7.0 
356.0002974181195 266.0 29.0 451.5883905013191 2.3444228951398256 8.0 10.0 7.0 
358.0004188157928 266.0 29.0 451.5883905013191 3.479523578769921 8.0 10.0 7.0 
360.0004188157928 266.0 29.0 451.5883905013191 4.614624262400016 8.0 10.0 7.0 
362.0004188157928 266.0 29.0 451.5883905013191 5.749724946030112 8.0 10.0 7.0 
364.0004188157928 266.0 29.0 451.5883905013191 6.884825629660207 8.0 10.0 7.0 
366.0002974181195 266.0 29.0 451.5883905013191 8.019926313290302 8.0 10.0 7.0 
368.0004188157928 266.0 29.0 451.5883905013191 4.879608297972287 8.0 10.0 7.0 
370.0004188157928 266.0 29.0 451.5883905013191 2.537508486019534 8.0 10.0 7.0 
372.0004188157928 266.0 29.0 451.5883905013191 3.481432699061394 8.0 10.0 7.0 
374.0004188157928 266.0 29.0 451.59366754617406 4.61653338269149 8.0 10.0 7.0 
376.0002974181195 266.0 29.0 451.5883905013191 5.751634066321585 8.0 10.0 7.0 
378.0004188157928 266.0 29.0 451.5883905013191 6.88673474995168 8.0 10.0 7.0 
380.0004188157928 266.0 29.0 451.5883905013191 8.021835433581776 8.0 10.0 7.0 
382.0004188157928 266.0 29.0 451.5883905013191 9.15693611721187 8.0 10.0 7.0 
384.0004188157928 264.0 28.0 451.59366754617406 3.6472830841930413 8.0 10.0 7.0 
386.0002974181195 264.0 28.0 451.5883905013191 1.644479117326574 8.0 10.0 7.0 
388.0004188157928 264.0 28.0 451.5883905013191 2.7255235936835507 8.0 10.0 7.0 
390.0004188157928 264.0 28.0 451.5883905013191 3.806568070040527 8.0 10.0 7.0 
392.0004188157928 264.0 28.0 451.5883905013191 4.892820879730836 8.0 10.0 7.0 
394.0004188157928 264.0 28.0 451.59366754617406 5.9790736894211465 8.0 10.0 7.0 
396.0002974181195 264.0 28.0 451.5883905013191 7.065326499111456 8.0 10.0 7.0 
398.0004188157928 280.0 29.0 451.5883905013191 7.6447045662078885 8.0 10.0 7.0 
400.0004188157928 286.0 29.0 454.63324538258604 1.7664082590152685 8.0 11.0 7.0 
402.0004188157928 290.0 29.0 454.62005277044847 1.9777454721317802 9.0 10.0 8.0 
404.0004188157928 290.0 29.0 454.62005277044847 3.094456538842847 9.0 10.0 8.0 
406.0002974181195 290.0 29.0 454.6253298153035 4.211167605553913 9.0 10.0 8.0 
408.0004188157928 291.0 29.0 454.62005277044847 5.3214243569009385 9.0 10.0 8.0 
410.0004188157928 291.0 29.0 454.62005277044847 6.439134424611006 9.0 10.0 8.0 
412.0004188157928 291.0 29.0 454.62005277044847 7.530069410877034 9.0 10.0 8.0 
414.0004188157928 290.0 29.0 454.6253298153035 7.831956782540419 9.0 10.0 8.0 
416.0002974181195 290.0 29.0 454.6253298153035 6.135818837715982 9.0 10.0 8.0 
418.0004188157928 291.0 29.0 454.6147757255936 2.831420686458949 9.0 10.0 8.0 
420.0004188157928 290.0 29.0 454.6147757255936 3.933975722332021 9.0 10.0 8.0 
422.0004188157928 290.0 29.0 454.6147757255936 5.0656440540003524 9.0 10.0 8.0 
424.0004188157928 290.0 29.0 454.62005277044847 6.197312385668684 9.0 10.0 8.0 
426.0002974181195 290.0 29.0 454.6253298153035 7.328980717337016 9.0 10.0 8.0 
428.0004188157928 290.0 29.0 454.612137203166 8.460649049005347 10.0 9.0 9.0 
430.0004188157928 268.0 28.0 454.60686015831146 5.909484480139564 10.0 9.0 9.0 
432.0004188157928 266.0 28.0 454.612137203166 5.549432577354877 10.0 9.0 9.0 
434.0004188157928 266.0 28.0 454.61741424802096 2.895057366162739 11.0 9.0 9.0 
436.0002974181195 265.0 28.0 454.612137203166 3.9530764253153494 11.0 9.0 9.0 
438.0004188157928 265.0 28.0 454.612137203166 5.066100270157376 11.0 9.0 9.0 
440.0004188157928 264.0 28.0 454.612137203166 6.1532580628586615 11.0 9.0 9.0 
442.0004188157928 263.0 28.0 454.612137203166 6.496289142301377 11.0 9.0 9.0 
444.0004188157928 263.0 28.0 454.61741424802096 6.767792898961384 11.0 9.0 9.0 
446.0002974181195 262.0 28.0 454.612137203166 5.506365281581159 11.0 9.0 9.0 
448.0004188157928 258.0 28.0 454.612137203166 5.193436099772172 11.0 9.0 9.0 
450.0004188157928 258.0 28.0 454.612137203166 2.2608156515110704 11.0 9.0 9.0 
452.0004188157928 258.0 28.0 454.612137203166 3.3453007844337033 11.0 9.0 9.0 
454.0004188157928 258.0 28.0 454.61741424802096 4.4297859173563365 11.0 9.0 9.0 
456.0002974181195 258.0 28.0 454.612137203166 5.514271050278969 11.0 9.0 9.0 
458.0004188157928 258.0 28.0 454.612137203166 6.598756183201602 11.0 9.0 9.0 
460.0004188157928 258.0 28.0 451.5857519788919 4.765272566124235 10.0 9.0 8.0 
462.0004188157928 258.0 28.0 451.5857519788919 5.646632699046868 10.0 9.0 8.0 
464.0004188157928 257.0 28.0 451.59102902374667 5.350087661225465 10.0 9.0 8.0 
466.0002974181195 261.0 29.0 451.5857519788919 2.394896880413362 10.0 9.0 8.0 
468.0004188157928 263.0 29.0 454.61213720316607 3.4432189902832957 11.0 9.0 9.0 
470.0004188157928 263.0 29.0 454.61213720316607 4.539523958131435 11.0 9.0 9.0 
472.0004188157928 263.0 29.0 454.61213720316607 5.678441942503964 11.0 9.0 9.0 
474.0004188157928 262.0 29.0 454.617414248021 5.997225511482911 11.0 9.0 9.0 
476.0002974181195 263.0 29.0 454.61213720316607 4.905517541011702 11.0 9.0 9.0 
478.0004188157928 264.0 29.0 454.61213720316607 6.021799447172857 11.0 9.0 9.0 
480.0004188157928 263.0 29.0 454.61213720316607 5.8857435066558415 11.0 9.0 9.0 
482.0004188157928 263.0 29.0 454.61213720316607 3.1424433724466163 11.0 9.0 9.0 
484.0004188157928 263.0 29.0 454.617414248021 4.13382873639511 12.0 9.0 9.0 
486.0002974181195 263.0 29.0 451.5857519788919 4.645472231759063 13.0 9.0 8.0 
488.0004188157928 263.0 29.0 451.5857519788919 5.772330222253418 13.0 9.0 8.0 
490.0004188157928 263.0 29.0 451.5857519788919 6.353714949097133 13.0 9.0 8.0 
492.0004188157928 263.0 29.0 451.5857519788919 4.83398359879902 13.0 9.0 8.0 
494.0004188157928 263.0 29.0 451.59102902374667 5.960841589293374 13.0 9.0 8.0 
496.0002974181195 265.0 29.0 451.5857519788919 5.95548947776643 13.0 9.0 8.0 
498.0004188157928 265.0 29.0 451.5857519788919 3.72581991443449 13.0 9.0 8.0 
500.0004188157928 265.0 29.0 451.5857519788919 4.72492766491492 13.0 9.0 8.0 
502.0004188157928 265.0 29.0 451.5857519788919 5.258121743563544 13.0 9.0 8.0 
504.0004188157928 265.0 29.0 451.59102902374667 6.3848879066933435 13.0 9.0 8.0 
506.0002974181195 265.0 29.0 454.63060686015837 6.970533557356962 13.0 9.0 9.0 
508.0004188157928 268.0 29.0 454.6200527704485 5.624520427535219 13.0 9.0 9.0 
510.0004188157928 264.0 28.0 454.6253298153035 6.631727293560317 13.0 9.0 9.0 
512.0004188157928 254.0 28.0 454.61477572559363 3.949734108979854 12.0 9.0 9.0 
514.0004188157928 254.0 28.0 454.6200527704485 4.940493165110418 12.0 9.0 9.0 
516.0002974181195 254.0 28.0 454.6200527704485 6.001029934738101 12.0 9.0 9.0 
518.0004188157928 255.0 28.0 454.61477572559363 6.638073766948533 12.0 9.0 9.0 
520.0004188157928 255.0 28.0 454.61477572559363 7.828547266512942 12.0 9.0 9.0 
522.0004188157928 256.0 28.0 454.61477572559363 8.085176524574495 12.0 9.0 9.0 
524.0004188157928 256.0 28.0 454.6200527704485 6.583660195785436 12.0 9.0 9.0 
526.0002974181195 254.0 28.0 454.61741424802096 3.6741574357564626 13.0 8.0 10.0 
528.0004188157928 236.0 27.0 454.6068601583114 3.823269928633844 13.0 8.0 10.0 
530.0004188157928 236.0 27.0 454.6068601583114 4.982069462433378 13.0 8.0 10.0 
532.0004188157928 236.0 27.0 454.6068601583114 6.0024074577713735 13.0 8.0 10.0 
534.0004188157928 235.0 27.0 454.61213720316607 6.6097610457082165 13.0 8.0 10.0 
536.0002974181195 234.0 27.0 454.61213720316607 7.005676242579017 13.0 8.0 10.0 
538.0004188157928 234.0 27.0 454.6068601583114 7.059608719447471 13.0 8.0 10.0 
540.0004188157928 234.0 27.0 454.6068601583114 1.497988753064893 14.0 7.0 11.0 
542.0004188157928 234.0 27.0 454.5963060686015 2.5844914976321536 14.0 7.0 11.0 
544.0004188157928 234.0 27.0 454.60158311345646 3.716155532521995 14.0 7.0 11.0 
546.0002974181195 234.0 27.0 454.60158311345646 4.847819567411836 14.0 7.0 11.0 
548.0004188157928 234.0 27.0 454.5963060686015 5.836555562599445 14.0 7.0 11.0 
550.0004188157928 234.0 27.0 454.5963060686015 6.426675120460938 14.0 7.0 11.0 
552.0004188157928 234.0 27.0 454.5963060686015 7.5583391553507795 14.0 7.0 11.0 
554.0004188157928 234.0 27.0 454.60158311345646 3.7934445517464983 22.0 0.0 18.0 
556.0002974181195 234.0 27.0 454.60158311345646 2.0052738070480456 22.0 0.0 18.0 
558.0004188157928 234.0 27.0 454.5963060686015 3.136937841937887 22.0 0.0 18.0 
560.0004188157928 234.0 27.0 454.5963060686015 4.268601876827728 22.0 0.0 18.0 
562.0004188157928 235.0 27.0 454.5963060686015 5.235182800873928 22.0 0.0 18.0 
564.0004188157928 236.0 28.0 454.60158311345646 6.026343915685077 22.0 0.0 18.0 
566.0002974181195 236.0 28.0 454.60158311345646 6.580698651857994 22.0 0.0 18.0 
568.0004188157928 236.0 28.0 454.5963060686015 4.0592113417454145 24.0 0.0 18.0 
570.0004188157928 236.0 28.0 454.5963060686015 4.065987730339985 24.0 0.0 18.0 
572.0004188157928 236.0 28.0 454.5963060686015 2.45828835900425 24.0 0.0 18.0 
574.0004188157928 236.0 28.0 454.60158311345646 3.6425788160219796 24.0 0.0 18.0 
576.0002974181195 236.0 28.0 454.6068601583114 4.826869273039709 24.0 0.0 18.0 
578.0004188157928 236.0 28.0 454.5963060686015 6.011159730057439 24.0 0.0 18.0 
580.0004188157928 236.0 28.0 454.5963060686015 7.061184452809434 24.0 0.0 18.0 
582.0004188157928 236.0 28.0 454.5963060686015 4.150831506092851 24.0 0.0 18.0 
584.0004188157928 236.0 28.0 451.57519788918194 5.292697720686339 23.0 0.0 17.0 
586.0002974181195 240.0 28.0 454.62269129287597 5.4421437772796235 23.0 0.0 18.0 
588.0004188157928 244.0 28.0 454.5963060686015 4.101807726788092 23.0 0.0 18.0 
590.0004188157928 244.0 28.0 454.5963060686015 5.381669279376917 23.0 0.0 18.0 
592.0004188157928 244.0 28.0 454.5963060686015 6.6615308319657425 23.0 0.0 18.0 
594.0004188157928 244.0 28.0 454.60158311345646 7.941392384554567 23.0 0.0 18.0 
596.0002974181195 244.0 28.0 454.6068601583114 5.501068398776036 23.0 0.0 18.0 
598.0004188157928 244.0 28.0 454.60158311345646 6.255034634560454 23.0 0.0 18.0 
600.0004188157928 243.0 28.0 454.60158311345646 7.3663032167575 23.0 0.0 18.0 
602.0004188157928 241.0 27.0 454.60158311345646 5.7621207468638 23.0 0.0 18.0 
604.0004188157928 241.0 27.0 454.6068601583114 3.887059446430776 23.0 0.0 18.0 
606.0002974181195 241.0 27.0 454.60158311345646 5.116159378756515 23.0 0.0 18.0 
608.0004188157928 241.0 27.0 454.60158311345646 6.345259311082254 23.0 0.0 18.0 
610.0004188157928 241.0 27.0 454.60158311345646 3.7570897745256207 23.0 0.0 18.0 
612.0004188157928 241.0 27.0 454.60158311345646 4.798100376826546 23.0 0.0 18.0 
614.0004188157928 241.0 27.0 454.6068601583114 5.5243655095432915 23.0 0.0 18.0 
616.0002974181195 239.0 27.0 454.6068601583114 6.538224933438665 23.0 0.0 18.0 
618.0004188157928 239.0 27.0 454.5963060686015 6.353858421762356 23.0 0.0 18.0 
620.0004188157928 239.0 27.0 454.5963060686015 4.441441893876851 23.0 0.0 18.0 
622.0004188157928 239.0 27.0 454.5963060686015 5.66360145474609 23.0 0.0 18.0 
624.0004188157928 239.0 27.0 454.60158311345646 3.0684915467329557 23.0 0.0 18.0 
626.0002974181195 238.0 27.0 454.6068601583114 4.17522670936555 23.0 0.0 18.0 
628.0004188157928 237.0 27.0 454.59366754617406 5.1685464933795435 23.0 0.0 18.0 
630.0004188157928 237.0 27.0 454.58839050131905 5.893736357279085 23.0 0.0 18.0 
632.0004188157928 236.0 27.0 454.58839050131905 7.036961011378182 23.0 0.0 18.0 
634.0004188157928 236.0 27.0 454.59366754617406 7.296516054247243 23.0 0.0 18.0 
636.0002974181195 236.0 27.0 454.58839050131905 5.764458787735924 23.0 0.0 18.0 
638.0004188157928 236.0 27.0 454.58839050131905 3.171629752971405 23.0 0.0 18.0 
640.0004188157928 236.0 27.0 454.58839050131905 4.350908896766677 23.0 0.0 18.0 
642.0004188157928 236.0 27.0 454.58839050131905 5.575349330884531 23.0 0.0 18.0 
644.0004188157928 237.0 28.0 454.59366754617406 5.996771992423625 23.0 0.0 18.0 
646.0002974181195 238.0 28.0 454.58839050131905 6.978237891700848 23.0 0.0 18.0 
648.0004188157928 229.0 27.0 454.58839050131905 7.597852548455497 23.0 0.0 18.0 
650.0004188157928 221.0 27.0 454.58839050131905 5.202890414335853 23.0 0.0 18.0 
652.0004188157928 221.0 27.0 454.58839050131905 2.565016513505257 23.0 0.0 18.0 
654.0004188157928 221.0 27.0 454.59366754617406 3.6651695591128477 23.0 0.0 18.0 
656.0002974181195 220.0 27.0 454.58839050131905 3.9760232267645668 23.0 0.0 18.0 
658.0004188157928 220.0 27.0 454.58839050131905 4.766285221714062 23.0 0.0 18.0 
660.0004188157928 220.0 27.0 451.56200527704493 5.5747763833302235 23.0 0.0 17.0 
662.0004188157928 220.0 27.0 451.56200527704493 6.690559211613052 23.0 0.0 17.0 
664.0004188157928 220.0 27.0 451.56728232189994 6.581081623229213 23.0 0.0 17.0 
#####################################################################
# End of data export. Simulation finished at: 2019-03-07T14:25+0000 #
#####################################################################
