#####################################################################
# Alchemist log file - simulation started at: 2019-03-06T01:03+0000 #
#####################################################################
# seed = 6.0, bandwidth = 1333521.4321633242, accessPointCount = 1031.338537721246, baserange = 1000.0
#
# The columns have the following meaning: 
# time neighbor_count[Sum] <value>@neighbor_count[Sum] packet_size[Mean] mean_delay[Mean] crowd[Sum] overcrowded[Sum] risk[Sum] 
0.0 NaN NaN NaN NaN NaN NaN NaN 
2.000224634629756 36585.0 34860.0 4979.221518987341 0.4882906257913784 1497.0 0.0 1497.0 
4.000165081536582 39041.0 36089.0 4980.10759493671 0.5541408871072953 1497.0 0.0 1497.0 
6.000432509660224 40959.0 36139.0 4981.705696202532 0.5584592833156925 1497.0 0.0 1497.0 
8.000432509660225 42959.0 36121.0 4982.784810126583 0.56525613479839 1497.0 0.0 1497.0 
10.000077107329957 45198.0 36102.0 4984.51582278481 0.5749716794682185 1494.0 3.0 1494.0 
12.000125844952924 45891.0 35948.0 4985.221518987341 0.5443525163854522 1496.0 1.0 1496.0 
14.000738453424983 45486.0 35834.0 4984.352848101265 0.5009218778407067 1487.0 10.0 1487.0 
16.000738453424983 45474.0 35833.0 4984.477848101265 0.499772990334541 1480.0 17.0 1480.0 
18.0007330968242 45484.0 35835.0 4985.088607594937 0.5013076835506783 1473.0 24.0 1473.0 
20.000434861490678 45509.0 35835.0 4984.897151898735 0.5021897008325988 1474.0 23.0 1474.0 
22.000738453424983 45465.0 35834.0 4984.533227848102 0.5003607392173616 1475.0 22.0 1475.0 
24.000738453424983 45464.0 35833.0 4984.471518987341 0.5001365052008724 1477.0 20.0 1477.0 
26.000738453424983 45472.0 35834.0 4984.050632911392 0.5009626652815501 1482.0 15.0 1482.0 
28.000738453424983 45512.0 35834.0 4984.488924050633 0.5009929313771726 1481.0 16.0 1481.0 
30.000738453424983 45502.0 35833.0 4985.226265822785 0.5005611198800132 1477.0 20.0 1477.0 
32.00073845342498 45548.0 35835.0 4984.291139240506 0.502151524885939 1479.0 18.0 1479.0 
34.00073845342498 45499.0 35833.0 4983.965189873417 0.5004562102636662 1478.0 19.0 1478.0 
36.00073845342498 45508.0 35835.0 4984.620253164557 0.5018267665170012 1479.0 18.0 1479.0 
38.00073845342498 45526.0 35833.0 4984.386075949367 0.5004440746331178 1478.0 19.0 1478.0 
40.00073845342498 45533.0 35833.0 4984.658227848102 0.500883018954103 1477.0 20.0 1477.0 
42.00073845342498 45520.0 35833.0 4984.667721518987 0.5002508421187336 1477.0 20.0 1477.0 
44.00073845342498 45524.0 35834.0 4983.917721518987 0.5008665255365449 1477.0 20.0 1477.0 
46.00073845342498 45532.0 35835.0 4984.083860759494 0.5017338742406497 1476.0 21.0 1476.0 
48.00073845342498 45553.0 35835.0 4984.805379746836 0.5023216639522008 1477.0 20.0 1477.0 
50.00073845342498 45494.0 35833.0 4984.64240506329 0.5001018711835764 1476.0 21.0 1476.0 
52.00073845342498 45506.0 35833.0 4984.332278481013 0.5003588810047235 1473.0 24.0 1473.0 
54.00073845342498 45576.0 35835.0 4984.31170886076 0.5017041514548599 1472.0 25.0 1472.0 
56.00073845342498 45528.0 35837.0 4983.908227848102 0.5015486314575519 1471.0 26.0 1471.0 
58.00073845342498 45555.0 35836.0 4984.280063291139 0.501596183672889 1470.0 27.0 1470.0 
60.00073845342498 45536.0 35835.0 4985.167721518987 0.5009889055622436 1475.0 22.0 1475.0 
62.00013152488013 45548.0 35834.0 1036.0221518987473 0.4952303800458388 781.0 20.0 329.0 
64.00013152488013 45516.0 35837.0 1035.8322784810266 0.5022869620397983 594.0 21.0 328.0 
66.00013152488013 45533.0 35839.0 1035.8022151898758 0.5040889781022081 534.0 26.0 323.0 
68.00013152488013 45581.0 35836.0 1037.4256329113985 0.5019721006627212 502.0 22.0 328.0 
70.00005091565549 45601.0 35837.0 1037.4667721519095 0.5024825930610344 482.0 20.0 330.0 
72.00013152488013 45583.0 35836.0 1037.3132911392413 0.5019921173706 476.0 21.0 329.0 
74.00013152488013 45579.0 35835.0 1040.9651898734087 0.500723456713007 466.0 24.0 328.0 
76.00005091565549 45628.0 35837.0 1042.751582278479 0.503066166089539 466.0 21.0 332.0 
78.00005091565549 45560.0 35835.0 1042.6977848101244 0.5008353629788918 461.0 20.0 333.0 
80.00005091565549 45561.0 35834.0 1042.7341772151944 0.5007268897635075 455.0 21.0 332.0 
82.00005091565549 45573.0 35835.0 1042.664556962032 0.5017062659584012 455.0 21.0 332.0 
84.00005091565549 45553.0 35835.0 1044.4287974683555 0.5009354377297692 456.0 20.0 334.0 
86.00005091565549 45508.0 35835.0 1044.4731012658124 0.5017833692662693 453.0 21.0 333.0 
88.00005091565549 45515.0 35835.0 1044.4825949366937 0.5002667898556833 449.0 22.0 332.0 
90.00005091565549 45496.0 35834.0 1044.4113924050705 0.500663136502354 452.0 21.0 333.0 
92.00005091565549 45484.0 35834.0 1044.4398734177203 0.5000388189592421 448.0 25.0 329.0 
94.00005091565549 45530.0 35837.0 1044.4098101265913 0.5015703951523905 451.0 21.0 333.0 
96.00005091565549 45495.0 35837.0 1044.4082278480903 0.5026333884276529 453.0 20.0 334.0 
98.00005091565549 45452.0 35834.0 1046.251582278479 0.4999589681596227 452.0 21.0 334.0 
100.00005091565549 45452.0 35834.0 1046.2041139240437 0.5003462619390027 452.0 21.0 334.0 
102.00005091565549 45456.0 35835.0 1046.1661392405156 0.5002934204203675 454.0 20.0 335.0 
104.00005091565549 45462.0 35836.0 1046.2136075949293 0.5003718608631694 452.0 21.0 334.0 
106.00005091565549 45467.0 35836.0 1044.3844936708813 0.5003484011612158 452.0 21.0 333.0 
108.00005091565549 45505.0 35835.0 1046.1693037974742 0.5001724864794892 454.0 20.0 335.0 
110.00005091565549 45507.0 35836.0 1046.2246835443116 0.501046308435715 452.0 22.0 333.0 
112.00005091565549 45533.0 35836.0 1046.1471518987473 0.5018414444825746 452.0 22.0 333.0 
114.00005091565549 45482.0 35835.0 1046.1281645569616 0.4997706385174927 452.0 20.0 335.0 
116.00005091565549 45534.0 35836.0 1046.2373417721556 0.5008348402112421 452.0 21.0 334.0 
118.00005091565549 45497.0 35835.0 1048.0585443038003 0.5003645904649021 451.0 22.0 334.0 
120.00005091565549 45498.0 35835.0 1040.7547468354405 0.4999290939080211 452.0 21.0 331.0 
122.00005091565549 45556.0 35836.0 1040.7136075949293 0.5014682717212197 450.0 22.0 330.0 
124.00005091565549 45512.0 35834.0 1040.7863924050707 0.5000513380128708 450.0 22.0 330.0 
126.00005091565549 45514.0 35835.0 1038.9003164556887 0.5002523942887794 451.0 20.0 331.0 
128.0000509156555 45514.0 35835.0 1039.0316455696297 0.5012950223396727 449.0 21.0 330.0 
130.0000509156555 45514.0 35834.0 1038.905063291129 0.5006232882379041 449.0 21.0 330.0 
132.0000509156555 45523.0 35834.0 1038.950949367085 0.5015938108390793 450.0 20.0 331.0 
134.0000509156555 45561.0 35837.0 1038.9462025316448 0.5017456358664283 449.0 21.0 330.0 
136.0000509156555 45636.0 35837.0 1037.1772151898758 0.5025853338306125 447.0 21.0 329.0 
138.0000509156555 45603.0 35835.0 1037.1202531645595 0.501691268949203 449.0 20.0 330.0 
140.0000509156555 45588.0 35834.0 1037.1487341772088 0.5009379684696439 445.0 23.0 327.0 
142.0000509156555 45648.0 35834.0 1037.11867088608 0.5010728963689651 440.0 26.0 324.0 
144.0000509156555 45688.0 35834.0 1037.1297468354405 0.5011930868364557 440.0 27.0 323.0 
146.0000509156555 45670.0 35833.0 1037.1787974683552 0.5005344405027989 439.0 30.0 320.0 
148.0000509156555 45674.0 35834.0 1037.0870253164676 0.5014769699431006 441.0 29.0 321.0 
150.0000509156555 45659.0 35833.0 1037.0981012658124 0.5007621005395142 447.0 23.0 327.0 
152.0000509156555 45720.0 35835.0 1040.7231012658124 0.5008928839646379 446.0 25.0 327.0 
154.0000509156555 45733.0 35834.0 1033.4952531645595 0.5011374904258744 447.0 25.0 323.0 
156.0000509156555 45748.0 35838.0 1035.2563291139202 0.5036296339201914 448.0 25.0 324.0 
158.0000509156555 45688.0 35835.0 1035.3623417721558 0.5028434834945471 444.0 29.0 320.0 
160.0000509156555 45622.0 35833.0 1035.2895569620318 0.5001910574931454 443.0 26.0 323.0 
162.0000509156555 45624.0 35834.0 1037.0965189873505 0.50083286000214 445.0 24.0 326.0 
164.0000509156555 45620.0 35833.0 1037.11867088608 0.49993365847901633 445.0 25.0 325.0 
166.0000509156555 45661.0 35837.0 1035.3465189873505 0.5021787534678211 444.0 25.0 324.0 
168.0000509156555 45683.0 35835.0 1037.1882911392413 0.5021157440967483 444.0 25.0 325.0 
170.0000509156555 45682.0 35834.0 1037.1123417721556 0.5012771571237433 445.0 25.0 325.0 
172.0000509156555 45694.0 35835.0 1035.3623417721558 0.5020145844972085 444.0 26.0 323.0 
174.0000509156555 45681.0 35833.0 1033.4857594936768 0.5007989260121914 445.0 24.0 324.0 
176.0000509156555 45711.0 35834.0 1033.5126582278442 0.5015861222673413 443.0 27.0 321.0 
178.0000509156555 45716.0 35835.0 1033.4746835443113 0.5029025483941965 444.0 28.0 320.0 
180.0000509156555 45634.0 35834.0 1035.2753164556887 0.5014713278916623 443.0 28.0 321.0 
182.0000509156555 45646.0 35835.0 1035.3196202531612 0.5014907046142444 444.0 27.0 322.0 
184.0000509156555 45720.0 35834.0 1035.335443037968 0.5015759758659161 442.0 29.0 320.0 
186.0000509156555 45743.0 35836.0 1033.5268987341876 0.5022082993435761 440.0 29.0 319.0 
188.0000509156555 45719.0 35835.0 1035.3575949366937 0.5031773612257999 438.0 31.0 318.0 
190.0000509156555 45705.0 35836.0 1037.1613924050705 0.5018640674008414 439.0 30.0 320.0 
192.0000509156555 45666.0 35836.0 1037.1487341772088 0.5036620808570185 440.0 29.0 321.0 
194.0000509156555 45597.0 35835.0 1037.0474683544353 0.5030721625933391 442.0 27.0 323.0 
196.0000509156555 45527.0 35836.0 1037.169303797474 0.5028420577707045 443.0 27.0 323.0 
198.0000509156555 45543.0 35836.0 1035.2689873417642 0.501358100781466 442.0 28.0 321.0 
200.0000509156555 45489.0 35833.0 1035.335443037968 0.5009825063118831 443.0 27.0 322.0 
202.0000509156555 45480.0 35836.0 1035.299050632915 0.5020328498639358 442.0 29.0 320.0 
204.0000509156555 45521.0 35837.0 1035.280063291129 0.5021360551213626 446.0 25.0 324.0 
206.0000509156555 45523.0 35836.0 1037.1566455696297 0.5004905253300421 442.0 29.0 321.0 
208.0000509156555 45538.0 35837.0 1037.1202531645595 0.5030978777990113 444.0 27.0 323.0 
210.0000509156555 45438.0 35835.0 1035.2642405063232 0.5014593688418597 441.0 31.0 318.0 
212.0000509156555 45427.0 35836.0 1037.1139240506352 0.5003781593081249 440.0 33.0 317.0 
214.0000509156555 45461.0 35836.0 1037.090189873409 0.5025659773172485 436.0 37.0 313.0 
216.0000509156555 45448.0 35835.0 1037.0996835443113 0.5008516183978421 440.0 33.0 317.0 
218.0000509156555 45392.0 35836.0 1037.1075949366937 0.5008139857808689 437.0 36.0 314.0 
220.0000509156555 45429.0 35835.0 1037.080696202526 0.5019261692280291 441.0 31.0 319.0 
222.0000509156555 45390.0 35835.0 1037.0822784810266 0.500532770489615 441.0 31.0 319.0 
224.0000509156555 45388.0 35835.0 1037.0791139240434 0.500577636105839 440.0 32.0 318.0 
226.0000509156555 45454.0 35836.0 1037.0933544303703 0.5024077429944672 436.0 35.0 315.0 
228.0000509156555 45448.0 35836.0 1038.8939873417642 0.5023069419153672 439.0 31.0 320.0 
230.0000509156555 45399.0 35836.0 1031.6234177215208 0.500631816149389 433.0 35.0 312.0 
232.0000509156555 45397.0 35836.0 1031.6265822784792 0.5018669572635127 437.0 31.0 316.0 
234.0000509156555 45351.0 35837.0 1031.5822784810266 0.5021730198367321 434.0 35.0 312.0 
236.0000509156555 45290.0 35834.0 1033.4810126582358 0.5001867256218461 431.0 33.0 315.0 
238.0000509156555 45349.0 35838.0 1033.4303797468388 0.5023104362127561 429.0 37.0 311.0 
240.0000509156555 45317.0 35836.0 1033.4224683544355 0.5020542959050155 433.0 33.0 315.0 
242.0000509156555 45266.0 35836.0 1033.4129746835324 0.5017753635157971 431.0 35.0 313.0 
244.0000509156555 45235.0 35837.0 1033.436708860759 0.5011526406271156 436.0 30.0 318.0 
246.0000509156555 45240.0 35838.0 1031.602848101253 0.501666835166359 433.0 32.0 315.0 
248.0000509156555 45234.0 35836.0 1031.6297468354405 0.5021777545075461 439.0 29.0 318.0 
250.0000509156555 45230.0 35838.0 1026.1756329113985 0.5010444240434002 430.0 33.0 311.0 
252.0000509156555 45239.0 35837.0 1026.1534810126495 0.5015254674287948 434.0 29.0 315.0 
254.0000509156555 45199.0 35838.0 1026.1851265822797 0.5015288337415311 431.0 32.0 312.0 
256.0000509156555 45233.0 35840.0 1024.3955696202481 0.5021817894569066 432.0 31.0 312.0 
258.0000509156555 45236.0 35840.0 1027.9905063291187 0.5036992929814389 436.0 33.0 312.0 
260.0000509156555 45163.0 35836.0 1022.53006329113 0.5009766008204879 438.0 30.0 312.0 
262.0000509156555 45146.0 35836.0 1020.7025316455636 0.5003437271072142 435.0 32.0 309.0 
264.0000509156555 45169.0 35839.0 1020.6503164556898 0.5016740751013286 441.0 27.0 314.0 
266.0000509156555 45191.0 35839.0 1022.4920886075977 0.504178747633478 437.0 29.0 313.0 
268.0000509156555 45109.0 35839.0 1029.830696202527 0.5032902676461565 440.0 27.0 319.0 
270.0000509156555 45091.0 35839.0 1031.5886075949295 0.5048525003504196 440.0 26.0 321.0 
272.0000509156555 45049.0 35835.0 1033.4367088607592 0.49981196425547375 439.0 27.0 321.0 
274.0000509156555 45054.0 35836.0 1031.6060126582358 0.4999801533964236 438.0 27.0 320.0 
276.0000509156555 45059.0 35838.0 1031.5870253164676 0.5000554877609357 440.0 25.0 322.0 
278.0000509156555 45139.0 35840.0 1035.2832278480905 0.5025967256031711 437.0 27.0 322.0 
280.0000509156555 45105.0 35835.0 1037.0822784810266 0.5005018366735249 436.0 28.0 322.0 
282.0000509156555 45118.0 35837.0 1037.0284810126495 0.5003228900865783 432.0 31.0 319.0 
284.0000509156555 45116.0 35837.0 1038.9034810126495 0.5007216001683987 435.0 29.0 322.0 
286.0000509156555 45113.0 35837.0 1038.9430379746832 0.5005161751228491 436.0 27.0 324.0 
288.0000509156555 45139.0 35841.0 1038.8829113924032 0.5024756802099296 438.0 25.0 326.0 
290.0000509156555 45174.0 35837.0 1038.9082278480905 0.5025413153542234 437.0 26.0 325.0 
292.0000509156555 45138.0 35837.0 1038.9050632911292 0.5016231751286199 438.0 25.0 326.0 
294.0000509156555 45096.0 35836.0 1037.0917721519093 0.5001565693699763 439.0 24.0 326.0 
296.0000509156555 45129.0 35840.0 1037.1487341772088 0.5025443662509398 438.0 25.0 325.0 
298.0000509156555 45068.0 35837.0 1038.9161392405153 0.5020301237236173 436.0 25.0 326.0 
300.0000509156555 45057.0 35837.0 1038.9050632911292 0.5004610699327797 436.0 24.0 327.0 
302.0000509156555 45072.0 35837.0 1038.8987341772088 0.5012180445309539 436.0 25.0 326.0 
304.0000509156555 45041.0 35838.0 1033.4240506329143 0.5010386095790079 436.0 25.0 323.0 
306.0000509156555 45096.0 35838.0 1031.5933544303705 0.5027107527451712 437.0 24.0 323.0 
308.0000509156555 45104.0 35839.0 1033.5094936708815 0.503239918295373 436.0 25.0 323.0 
310.0000509156555 45030.0 35839.0 1037.1439873417642 0.5002212582119927 434.0 25.0 325.0 
312.0000509156555 45040.0 35836.0 1037.0870253164678 0.5002096483783897 435.0 24.0 326.0 
314.0000509156555 45041.0 35839.0 1037.0981012658124 0.5019614197745833 434.0 25.0 325.0 
316.0000509156555 45044.0 35838.0 1035.340189873409 0.5012904634774158 433.0 25.0 324.0 
318.0000509156555 45017.0 35835.0 1037.1060126582358 0.4993430992879755 431.0 25.0 325.0 
320.0000509156555 45016.0 35835.0 1037.094936708871 0.4992730667592628 429.0 27.0 323.0 
322.0000509156555 45029.0 35838.0 1038.8829113924035 0.500079104429834 429.0 26.0 325.0 
324.0000509156555 45063.0 35840.0 1038.8939873417642 0.503423019833768 432.0 24.0 327.0 
326.0000509156555 45019.0 35841.0 1035.2341772151942 0.5053350491102001 429.0 26.0 323.0 
328.0000509156555 44963.0 35838.0 1039.0 0.5019537476644806 430.0 25.0 326.0 
330.0000509156555 44947.0 35837.0 1035.3069620253168 0.5007392010523566 432.0 23.0 326.0 
332.0000509156555 44967.0 35838.0 1035.270569620248 0.5013101061437532 429.0 24.0 325.0 
334.0000509156555 44953.0 35837.0 1035.3449367088708 0.5013780112425448 431.0 24.0 325.0 
336.0000509156555 44992.0 35838.0 1033.4541139240434 0.502151286909626 431.0 23.0 325.0 
338.0000509156555 44980.0 35838.0 1037.159810126591 0.5027817192400366 432.0 24.0 326.0 
340.0000509156555 44891.0 35835.0 1035.3022151898758 0.49957340583500354 431.0 24.0 325.0 
342.0000509156555 44946.0 35838.0 1035.284810126591 0.5015359207621681 432.0 23.0 326.0 
344.0000509156555 44916.0 35837.0 1035.3291139240434 0.5007968567270471 429.0 24.0 325.0 
346.0000509156555 44910.0 35836.0 1033.5079113924032 0.49923256256599696 427.0 24.0 324.0 
348.0000509156555 44944.0 35838.0 1035.3243670886015 0.5009217396433276 430.0 23.0 326.0 
350.0000509156555 44927.0 35836.0 1035.3037974683548 0.5002976101823972 428.0 24.0 325.0 
352.0000509156555 44971.0 35837.0 1031.6202531645597 0.501602569470116 427.0 24.0 323.0 
354.0000509156555 44941.0 35839.0 1031.6835443038 0.5008163760542552 425.0 23.0 324.0 
356.0000509156555 45003.0 35840.0 1031.6376582278442 0.504541021701732 425.0 24.0 323.0 
358.0000509156555 44941.0 35835.0 1031.697784810124 0.4997314056826384 425.0 24.0 323.0 
360.0000509156555 44909.0 35835.0 1033.4778481012527 0.5012853172931792 425.0 23.0 325.0 
362.0000509156555 44933.0 35837.0 1033.4825949366937 0.5031408668624278 427.0 24.0 324.0 
364.0000509156555 44892.0 35834.0 1033.498417721521 0.499872289328133 427.0 24.0 324.0 
366.0000509156555 44931.0 35835.0 1027.9825949366937 0.5018692430949481 427.0 23.0 322.0 
368.0000509156555 44901.0 35834.0 1024.3655063291187 0.5000158356455411 426.0 24.0 319.0 
370.0000509156555 44894.0 35835.0 1022.5015822784794 0.499911989438857 427.0 24.0 318.0 
372.0000509156555 44902.0 35835.0 1022.4620253164675 0.5003603148989945 430.0 23.0 319.0 
374.0000509156555 44905.0 35836.0 1022.476265822791 0.5006933403118417 430.0 24.0 318.0 
376.0000509156555 44912.0 35835.0 1018.7895569620313 0.49984243903397474 428.0 24.0 316.0 
378.0000509156555 45003.0 35836.0 1017.0316455696296 0.5005707747114648 433.0 23.0 316.0 
380.0000509156555 45002.0 35836.0 1016.9905063291187 0.5021381607114284 432.0 24.0 315.0 
382.0000509156555 45047.0 35839.0 1020.643987341764 0.5022385245896986 434.0 24.0 317.0 
384.0000509156555 44999.0 35837.0 1022.4636075949294 0.5018073384080375 438.0 23.0 319.0 
386.0000509156555 45021.0 35834.0 1024.3291139240437 0.5013001249069944 432.0 24.0 319.0 
388.0000509156555 44997.0 35837.0 1026.1408227848062 0.5028773375833454 434.0 24.0 320.0 
390.0000509156555 44953.0 35837.0 1024.3164556962004 0.5010254406879004 435.0 23.0 320.0 
392.0000509156555 44951.0 35834.0 1022.4651898734095 0.4999058773907815 434.0 24.0 318.0 
394.0000509156555 44929.0 35834.0 1020.6930379746825 0.5001066326451259 434.0 24.0 317.0 
396.0000509156555 44970.0 35837.0 1020.6376582278436 0.5027383631342133 436.0 23.0 318.0 
398.0000509156555 44948.0 35837.0 1022.6186708860791 0.5033381767976473 435.0 24.0 318.0 
400.0000509156555 44884.0 35836.0 1024.3117088607594 0.5011229645360861 436.0 24.0 319.0 
402.0000509156555 44854.0 35835.0 1027.9636075949293 0.5009654050438099 437.0 23.0 322.0 
404.0000509156555 44902.0 35838.0 1029.7784810126495 0.5025362151634004 436.0 24.0 322.0 
406.0000509156555 44911.0 35839.0 1029.8259493670855 0.502920131819967 439.0 24.0 322.0 
408.0000509156555 44976.0 35839.0 1026.1360759493657 0.5036958364531433 441.0 23.0 321.0 
410.0000509156555 44947.0 35837.0 1027.9113924050705 0.5014252090625324 438.0 24.0 321.0 
412.0000509156555 44949.0 35834.0 1033.4224683544358 0.500515931369553 438.0 24.0 324.0 
414.0000509156555 45052.0 35836.0 1035.2056962025263 0.5036955844476372 440.0 23.0 326.0 
416.0000509156555 45086.0 35836.0 1033.3813291139202 0.5028387202985606 440.0 24.0 324.0 
418.0000509156555 45120.0 35838.0 1029.8006329113985 0.5026061665119819 438.0 24.0 322.0 
420.0000509156555 45102.0 35834.0 1029.7879746835324 0.5007475391892635 439.0 23.0 323.0 
422.0000509156555 45087.0 35835.0 1022.5142405063233 0.5016065364557762 441.0 24.0 318.0 
424.0000509156555 45046.0 35834.0 1018.9952531645596 0.5015325903498276 440.0 24.0 316.0 
426.0000509156555 45028.0 35835.0 1022.4604430379686 0.501952971250918 440.0 23.0 319.0 
428.0000509156555 45009.0 35836.0 1022.5712025316451 0.5034020809136898 439.0 24.0 318.0 
430.0000509156555 45008.0 35835.0 1022.5474683544359 0.5013744577115303 441.0 24.0 318.0 
432.0000509156555 44982.0 35836.0 1020.6392405063233 0.5009083939412673 442.0 23.0 318.0 
434.0000509156555 44968.0 35835.0 1024.3481012658126 0.5003369372080627 444.0 24.0 319.0 
436.0000509156555 45016.0 35837.0 1038.9541139240437 0.5034908047810654 449.0 24.0 327.0 
438.0000509156555 44976.0 35837.0 1042.5917721519095 0.5014376757649343 452.0 23.0 330.0 
440.0000509156555 44930.0 35838.0 1042.5585443038005 0.5001660942360454 451.0 24.0 329.0 
442.0000509156555 44987.0 35836.0 1038.8987341772088 0.5028279685962657 449.0 25.0 326.0 
444.0000509156555 44929.0 35836.0 1040.7468354430384 0.5012570080526345 447.0 24.0 328.0 
446.0000509156555 44995.0 35839.0 1048.0047468354403 0.5028024079829537 449.0 27.0 329.0 
448.0000509156555 44964.0 35834.0 1048.0522151898754 0.5003164989746707 450.0 25.0 331.0 
450.0000509156555 44979.0 35834.0 1046.172468354435 0.49958593611677266 452.0 23.0 332.0 
452.0000509156555 44974.0 35835.0 1047.9525316455652 0.499524332036669 451.0 24.0 332.0 
454.0000509156555 45011.0 35837.0 1044.321202531644 0.502544210488512 450.0 24.0 330.0 
456.0000509156555 44950.0 35835.0 1047.9699367088715 0.5000264456562622 450.0 23.0 333.0 
458.0000509156555 44935.0 35834.0 1046.1708860759563 0.4992573148855405 447.0 25.0 330.0 
460.0000509156555 44944.0 35835.0 1044.3734177215213 0.4994608984556182 446.0 25.0 329.0 
462.0000509156555 45030.0 35837.0 1044.2958860759563 0.5008015316983295 448.0 24.0 330.0 
464.0000509156555 45023.0 35835.0 1044.3401898734085 0.5010528754966532 447.0 25.0 329.0 
466.0000509156555 45071.0 35837.0 1042.498417721521 0.5032431004979862 447.0 25.0 328.0 
468.0000509156555 45016.0 35834.0 1042.4715189873505 0.4996756720378159 445.0 24.0 329.0 
470.0000509156555 45018.0 35834.0 1038.8575949366937 0.49929019550397463 442.0 25.0 326.0 
472.0000509156555 45034.0 35836.0 1042.4952531645597 0.5012843212570418 441.0 27.0 326.0 
474.0000509156555 45006.0 35834.0 1038.8560126582358 0.4997758347672876 437.0 29.0 322.0 
476.0000509156555 45040.0 35835.0 1037.049050632915 0.4998125002115295 439.0 27.0 323.0 
478.0001315248801 45056.0 35837.0 1036.9952531645597 0.5014009403553479 436.0 28.0 322.0 
480.0001315248801 45081.0 35837.0 1035.147151898747 0.5026330551132935 437.0 26.0 323.0 
482.0001315248801 45066.0 35836.0 1036.9841772151944 0.5023897210287994 437.0 27.0 323.0 
484.0001315248801 45045.0 35840.0 1033.340189873409 0.5028401413500697 434.0 28.0 320.0 
486.0001315248801 45044.0 35837.0 1029.7167721519095 0.5027379436024714 433.0 28.0 318.0 
488.0001315248801 45037.0 35836.0 1026.0743670886015 0.5021723859687655 433.0 25.0 319.0 
490.0001315248801 44991.0 35835.0 1024.2120253164674 0.4999632217343304 432.0 25.0 318.0 
492.0001315248801 45007.0 35835.0 1024.2167721519095 0.4989967563239247 433.0 24.0 319.0 
494.0001315248801 45029.0 35837.0 1024.1867088607592 0.5015852960977222 434.0 25.0 318.0 
496.0001315248801 45086.0 35835.0 1020.5743670886029 0.5009208343106254 433.0 25.0 316.0 
498.0001315248801 45064.0 35835.0 1018.7468354430396 0.500509555161098 434.0 24.0 316.0 
500.0001315248801 45134.0 35835.0 1018.7626582278434 0.5006264125720854 432.0 25.0 315.0 
502.0001315248801 45161.0 35837.0 1018.7579113924025 0.5018986889564554 434.0 25.0 315.0 
504.0001315248801 45149.0 35837.0 1015.1534810126496 0.501271627116901 433.0 24.0 314.0 
506.0001315248801 45146.0 35836.0 1016.9667721519094 0.500753497345662 432.0 25.0 314.0 
508.0001315248801 45227.0 35837.0 1018.8069620253176 0.5020645700670147 436.0 25.0 315.0 
510.0001315248801 45212.0 35836.0 1013.2832278480906 0.501609595461953 433.0 24.0 313.0 
512.0001315248801 45268.0 35837.0 1015.1629746835328 0.5018300003022701 433.0 25.0 313.0 
514.0001315248801 45216.0 35836.0 1015.1566455696296 0.5007370257310795 430.0 25.0 313.0 
516.0001315248801 45262.0 35836.0 1000.6424050633061 0.5010263797134801 430.0 24.0 306.0 
518.0001315248801 45245.0 35835.0 1002.425632911397 0.5004237458566393 426.0 26.0 305.0 
520.0001315248801 45253.0 35837.0 1000.6329113924008 0.5006459332429742 426.0 25.0 305.0 
522.0001315248801 45246.0 35839.0 1000.5886075949295 0.5025601136224501 425.0 24.0 306.0 
524.0001315248801 45262.0 35837.0 998.7515822784816 0.5010458045780886 423.0 26.0 303.0 
526.0001315248801 45256.0 35833.0 987.9145569620282 0.4998258534860203 420.0 27.0 296.0 
528.0001315248801 45308.0 35838.0 993.352848101253 0.505300983870072 426.0 24.0 302.0 
530.0001315248801 45254.0 35837.0 987.8908227848095 0.5009182075901827 429.0 25.0 298.0 
532.0001315248801 45262.0 35838.0 987.8908227848095 0.502108523813721 426.0 25.0 298.0 
534.0001315248801 45264.0 35839.0 986.0458860759563 0.503203873621146 424.0 24.0 298.0 
536.0001315248801 45230.0 35835.0 984.2357594936766 0.5005849601762855 420.0 25.0 296.0 
538.0001315248801 45222.0 35834.0 986.0632911392374 0.5001121674826551 419.0 25.0 297.0 
540.0001315248801 45230.0 35835.0 989.6977848101207 0.5005848975974708 416.0 25.0 299.0 
542.0001315248801 45223.0 35834.0 987.8449367088672 0.5003433514345469 415.0 26.0 297.0 
544.0001315248801 45227.0 35834.0 989.6930379746799 0.5003997352495759 416.0 26.0 298.0 
546.0001315248801 45298.0 35839.0 991.517405063306 0.5043183515209388 421.0 27.0 298.0 
548.0001315248801 45237.0 35838.0 997.0158227848088 0.5043862339684612 425.0 26.0 302.0 
550.0001315248801 45183.0 35838.0 996.9636075949296 0.5022771152546607 426.0 26.0 302.0 
552.0001315248801 45166.0 35835.0 996.9556962025291 0.5014629188198856 428.0 25.0 303.0 
554.0001315248801 45189.0 35837.0 996.9224683544385 0.5019425311162334 428.0 26.0 302.0 
556.0001315248801 45239.0 35840.0 993.3291139240436 0.5038789941979716 424.0 26.0 300.0 
558.0001315248801 45194.0 35836.0 993.2515822784823 0.501854202214104 424.0 25.0 301.0 
560.0001315248801 45193.0 35837.0 995.1471518987468 0.5016291295900986 425.0 26.0 301.0 
562.0001315248801 45218.0 35837.0 993.3101265822798 0.5022218541133138 426.0 26.0 300.0 
564.0001315248801 45225.0 35839.0 993.2927215189737 0.5035311097519543 426.0 25.0 301.0 
566.0001315248801 45153.0 35836.0 996.9462025316475 0.5010099915431181 431.0 26.0 302.0 
568.0001315248801 45203.0 35839.0 1000.6471518987469 0.5037186258758116 434.0 26.0 304.0 
570.0001315248801 45165.0 35836.0 1000.6297468354404 0.5045448772546343 434.0 25.0 305.0 
572.0001315248801 45170.0 35837.0 1000.6265822784815 0.5033671800851722 431.0 26.0 304.0 
574.0001315248801 45152.0 35837.0 1002.4382911392383 0.502659916779302 432.0 26.0 305.0 
576.0001315248801 45133.0 35836.0 1009.6946202531609 0.5018657185707376 436.0 25.0 310.0 
578.0001315248801 45157.0 35838.0 1007.9050632911315 0.5042699857983904 435.0 26.0 308.0 
580.0001315248801 45119.0 35836.0 1011.6123417721576 0.5017298571005672 435.0 25.0 311.0 
582.0001315248801 45131.0 35838.0 1013.3322784810264 0.5036380589705916 436.0 24.0 313.0 
584.0001315248801 45172.0 35840.0 1013.3892405063233 0.5052147842467286 438.0 25.0 312.0 
586.0001315248801 45129.0 35840.0 1016.9746835443103 0.5044281820222799 441.0 25.0 314.0 
588.0001315248801 45134.0 35839.0 1020.6772151898765 0.5038111517795022 443.0 23.0 318.0 
590.0001315248801 45128.0 35836.0 1022.4240506329141 0.5027411272988398 447.0 22.0 320.0 
592.0001315248801 45106.0 35835.0 1020.6661392405158 0.5007962117532272 447.0 21.0 320.0 
594.0001315248801 45130.0 35839.0 1018.7816455696296 0.5035918320964305 447.0 21.0 319.0 
596.0001315248801 45144.0 35841.0 1018.8322784810265 0.5039167478820686 448.0 22.0 318.0 
598.0001315248801 45233.0 35841.0 1016.955696202527 0.5051272612834706 447.0 22.0 317.0 
600.0001315248801 45216.0 35843.0 1015.2104430379692 0.5039506830776855 445.0 21.0 317.0 
602.0001315248801 45218.0 35836.0 1016.9477848101233 0.5027293364945227 442.0 22.0 317.0 
604.0001315248801 45262.0 35838.0 1016.9857594936768 0.5020727264724542 445.0 22.0 317.0 
606.0001315248801 45247.0 35837.0 1015.200949367086 0.5028857656480409 444.0 21.0 317.0 
608.0001315248801 45275.0 35834.0 1013.4208860759564 0.5007514148192811 442.0 22.0 315.0 
610.0001315248801 45385.0 35836.0 1013.3718354430397 0.5026539947919035 442.0 22.0 315.0 
612.0001315248801 45326.0 35835.0 1013.3560126582361 0.5022052015671361 442.0 21.0 316.0 
614.0001315248801 45314.0 35836.0 1011.5015822784799 0.5023909752824358 441.0 22.0 314.0 
616.0001315248801 45375.0 35839.0 1013.3955696202486 0.5041323979437861 439.0 22.0 315.0 
618.0001315248801 45425.0 35841.0 1013.3655063291186 0.5066230219833874 438.0 22.0 315.0 
620.0001315248801 45366.0 35838.0 1015.1471518987471 0.5039720445274398 436.0 24.0 314.0 
622.0001315248801 45403.0 35840.0 1018.75 0.503494303922653 442.0 24.0 316.0 
624.0001315248801 45430.0 35841.0 1020.5901898734093 0.5056555529193036 443.0 26.0 315.0 
626.0001315248801 45455.0 35839.0 1022.4841772151939 0.5026237949892896 444.0 24.0 318.0 
628.0001315248801 45537.0 35837.0 1024.3433544303705 0.5018060205002131 443.0 25.0 318.0 
630.0001315248801 45517.0 35837.0 1024.302215189876 0.5036331563028521 445.0 22.0 321.0 
632.0001315248801 45474.0 35837.0 1027.9715189873505 0.5031767745252339 444.0 22.0 323.0 
634.0001315248801 45464.0 35837.0 1027.9525316455645 0.5014554576772341 442.0 24.0 321.0 
636.0001315248801 45489.0 35837.0 1026.136075949365 0.5019327770561276 439.0 27.0 317.0 
638.0001315248801 45553.0 35841.0 1024.272151898747 0.5054452074309274 440.0 26.0 317.0 
640.0001315248801 45364.0 35836.0 1026.150316455689 0.5026719416393108 443.0 23.0 321.0 
642.0001315248801 45373.0 35836.0 1024.2563291139204 0.5028012273450023 443.0 23.0 320.0 
644.0001315248801 45364.0 35839.0 1022.4857594936767 0.5036076824257162 445.0 22.0 320.0 
646.0001315248801 45393.0 35837.0 1020.6455696202484 0.5040617916482271 441.0 23.0 318.0 
648.0001315248801 45487.0 35840.0 1020.6408227848063 0.5058946414043725 440.0 21.0 320.0 
650.0001315248801 45415.0 35837.0 1018.8291139240436 0.5040859471471517 439.0 22.0 318.0 
652.0001315248801 45343.0 35838.0 1016.9920886075971 0.502811921577341 438.0 22.0 317.0 
654.0001315248801 45362.0 35839.0 1016.9699367088704 0.5028832116487302 439.0 21.0 318.0 
656.0001315248801 45419.0 35840.0 1026.1550632911292 0.5055679941754587 438.0 22.0 322.0 
658.0001315248801 45398.0 35837.0 1027.9398734177203 0.5021491037302555 438.0 23.0 322.0 
660.0001315248801 45409.0 35837.0 1026.1344936708813 0.5024792338796287 436.0 22.0 322.0 
662.0001315248801 45423.0 35840.0 1027.9161392405153 0.5057207957458666 430.0 27.0 318.0 
664.0001315248801 45395.0 35840.0 1027.9841772151944 0.5030660749181056 431.0 27.0 318.0 
#####################################################################
# End of data export. Simulation finished at: 2019-03-06T01:14+0000 #
#####################################################################
