#####################################################################
# Alchemist log file - simulation started at: 2019-03-03T14:48+0000 #
#####################################################################
# seed = 0.0, bandwidth = 316227.76601683797, accessPointCount = 10.0, baserange = 31.622776601683796
#
# The columns have the following meaning: 
# time neighbor_count[Sum] <value>@neighbor_count[Sum] packet_size[Mean] mean_delay[Mean] crowd[Sum] overcrowded[Sum] risk[Sum] 
0.0 NaN NaN NaN NaN NaN NaN NaN 
10.000405536260626 4.0 2.0 4987.86197743862 0.48419493625447885 1497.0 0.0 1497.0 
20.000405536260626 4.0 2.0 4987.941605839416 0.48415066436723464 1497.0 0.0 1497.0 
30.000405536260626 4.0 2.0 4987.867285998673 0.4841822871438364 1497.0 0.0 1497.0 
40.00040553626063 4.0 2.0 4987.941605839416 0.4841506643672364 1497.0 0.0 1497.0 
50.00040553626063 4.0 2.0 4987.867285998673 0.4841822871438364 1497.0 0.0 1497.0 
60.00040553626063 4.0 2.0 4984.897146648971 0.4841506643672364 1496.0 0.0 1496.0 
70.00012214328426 4.0 2.0 400.0 0.49873508893593055 0.0 0.0 0.0 
80.00012214328426 4.0 2.0 400.0 0.49873508893593055 0.0 0.0 0.0 
90.00012214328426 4.0 2.0 400.0 0.49873508893593055 0.0 0.0 0.0 
100.00012214328426 4.0 2.0 400.0 0.49873508893593055 0.0 0.0 0.0 
110.00012214328426 4.0 2.0 400.0 0.49873508893593055 0.0 0.0 0.0 
120.00012214328426 4.0 2.0 400.0 0.49873508893593055 0.0 0.0 0.0 
130.00012214328424 4.0 2.0 400.0 0.49873508893594476 0.0 0.0 0.0 
140.00012214328424 4.0 2.0 400.0 0.49873508893594476 0.0 0.0 0.0 
150.00012214328424 4.0 2.0 400.0 0.49873508893594476 0.0 0.0 0.0 
160.00012214328424 4.0 2.0 400.0 0.49873508893594476 0.0 0.0 0.0 
170.00012214328424 4.0 2.0 400.0 0.49873508893594476 0.0 0.0 0.0 
180.00012214328424 4.0 2.0 400.0 0.49873508893594476 0.0 0.0 0.0 
190.00012214328424 4.0 2.0 400.0 0.49873508893594476 0.0 0.0 0.0 
200.00012214328424 4.0 2.0 400.0 0.49873508893594476 0.0 0.0 0.0 
210.00012214328424 4.0 2.0 400.0 0.49873508893594476 0.0 0.0 0.0 
220.00012214328424 4.0 2.0 400.0 0.49873508893594476 0.0 0.0 0.0 
230.00012214328424 4.0 2.0 400.0 0.49873508893594476 0.0 0.0 0.0 
240.00012214328424 4.0 2.0 400.0 0.49873508893594476 0.0 0.0 0.0 
250.00012214328424 4.0 2.0 400.0 0.49873508893594476 0.0 0.0 0.0 
260.0001221432843 4.0 2.0 400.0 0.49873508893591634 0.0 0.0 0.0 
270.0001221432843 4.0 2.0 400.0 0.49873508893591634 0.0 0.0 0.0 
280.0001221432843 4.0 2.0 400.0 0.49873508893591634 0.0 0.0 0.0 
290.0001221432843 4.0 2.0 400.0 0.49873508893591634 0.0 0.0 0.0 
300.0001221432843 4.0 2.0 400.0 0.49873508893591634 0.0 0.0 0.0 
310.0001221432843 4.0 2.0 400.0 0.49873508893591634 0.0 0.0 0.0 
320.0001221432843 4.0 2.0 400.0 0.49873508893591634 0.0 0.0 0.0 
330.0001221432843 4.0 2.0 400.0 0.49873508893591634 0.0 0.0 0.0 
340.0001221432843 5.0 3.0 400.0 0.5071256228332572 0.0 0.0 0.0 
350.0001221432843 10.0 4.0 400.0 0.49819298419419056 0.0 0.0 0.0 
360.0001221432843 10.0 4.0 400.0 0.49819298419419056 0.0 0.0 0.0 
370.0001221432843 10.0 4.0 400.0 0.6410501270513335 0.0 0.0 0.0 
380.0001221432843 8.0 3.0 400.0 0.49797614229750026 0.0 0.0 0.0 
390.0001221432843 8.0 3.0 400.0 0.49797614229750026 0.0 0.0 0.0 
400.0001221432843 8.0 3.0 400.0 0.49797614229750026 0.0 0.0 0.0 
410.0001221432843 8.0 3.0 400.0 0.49797614229750026 0.0 0.0 0.0 
420.0001221432843 10.0 4.0 400.0 0.49819298419419056 0.0 0.0 0.0 
430.0001221432843 10.0 4.0 400.0 0.49819298419419056 0.0 0.0 0.0 
440.0001221432843 10.0 4.0 400.0 0.49819298419419056 0.0 0.0 0.0 
450.0001221432843 8.0 3.0 400.0 0.49797614229750026 0.0 0.0 0.0 
460.0001221432843 8.0 3.0 400.0 0.49797614229750026 0.0 0.0 0.0 
470.0001221432843 8.0 3.0 400.0 0.49797614229750026 0.0 0.0 0.0 
480.0001221432843 8.0 3.0 400.0 0.49797614229750026 0.0 0.0 0.0 
490.0001221432843 8.0 3.0 400.0 0.49797614229750026 0.0 0.0 0.0 
500.0001221432843 8.0 3.0 400.0 0.49797614229750026 0.0 0.0 0.0 
510.0001221432843 8.0 3.0 400.0 0.49797614229750026 0.0 0.0 0.0 
520.0001221432842 8.0 3.0 400.0 0.4979761422974889 0.0 0.0 0.0 
530.0001221432842 8.0 3.0 400.0 0.4979761422974889 0.0 0.0 0.0 
540.0001221432842 8.0 3.0 400.0 0.4979761422974889 0.0 0.0 0.0 
550.0001221432842 8.0 3.0 400.0 0.4979761422974889 0.0 0.0 0.0 
560.0001221432842 8.0 3.0 400.0 0.4979761422974889 0.0 0.0 0.0 
570.0001221432842 8.0 3.0 400.0 0.4979761422974889 0.0 0.0 0.0 
580.0001221432842 8.0 3.0 400.0 0.4979761422974889 0.0 0.0 0.0 
590.0001221432842 10.0 4.0 400.0 0.49819298419419866 0.0 0.0 0.0 
600.0001221432842 10.0 4.0 400.0 0.49819298419419866 0.0 0.0 0.0 
610.0001221432842 10.0 4.0 400.0 0.49819298419419866 0.0 0.0 0.0 
620.0001221432842 10.0 4.0 400.0 0.49819298419419866 0.0 0.0 0.0 
630.0001221432842 10.0 4.0 400.0 0.49819298419419866 0.0 0.0 0.0 
640.0001221432842 10.0 4.0 400.0 0.49819298419419866 0.0 0.0 0.0 
650.0001221432842 10.0 4.0 400.0 0.49819298419419866 0.0 0.0 0.0 
660.0001221432842 10.0 4.0 400.0 0.49819298419419866 0.0 0.0 0.0 
#####################################################################
# End of data export. Simulation finished at: 2019-03-03T14:54+0000 #
#####################################################################
