#####################################################################
# Alchemist log file - simulation started at: 2019-03-06T16:30+0000 #
#####################################################################
# seed = 2.0, bandwidth = 1000.0, accessPointCount = 274.2481756762073, baserange = 17.78279410038923
#
# The columns have the following meaning: 
# time neighbor_count[Sum] <value>@neighbor_count[Sum] packet_size[Mean] mean_delay[Mean] crowd[Sum] overcrowded[Sum] risk[Sum] 
0.0 NaN NaN NaN NaN NaN NaN NaN 
10.000299305750211 7.0 4.0 4984.388481084134 3.9625670940521505 1497.0 0.0 1497.0 
20.00029930575021 10.0 6.0 4984.379446640316 5.452760576401656 1497.0 0.0 1497.0 
30.00029930575021 10.0 6.0 4984.39751552795 4.560982798623877 1497.0 0.0 1497.0 
40.00029930575021 10.0 6.0 4984.39751552795 4.607205020846099 1497.0 0.0 1497.0 
50.00029930575021 10.0 6.0 4984.39751552795 4.444538354179434 1497.0 0.0 1497.0 
60.00029930575021 10.0 6.0 4984.388481084134 4.1112050208461 1497.0 0.0 1497.0 
70.00058297905275 10.0 6.0 400.0 0.5987605764016521 2.0 0.0 0.0 
80.00058297905275 12.0 7.0 400.0 0.5989859261468052 1.0 0.0 0.0 
90.00058297905275 12.0 7.0 400.0 0.5989859261468052 1.0 0.0 0.0 
100.00058297905275 14.0 8.0 400.0 0.5991419375088344 0.0 0.0 0.0 
110.00058297905275 14.0 8.0 400.0 2.5222188605857574 0.0 0.0 0.0 
120.00058297905275 14.0 8.0 400.0 5.5991419375088345 0.0 0.0 0.0 
130.00058297905275 14.0 8.0 400.0 8.676065014431911 0.0 0.0 0.0 
140.00058297905275 12.0 7.0 400.0 0.598985926146802 0.0 0.0 0.0 
150.00058297905275 12.0 7.0 400.0 0.7808041079649839 0.0 0.0 0.0 
160.00058297905275 12.0 7.0 400.0 2.598985926146802 0.0 0.0 0.0 
170.00058297905275 12.0 7.0 400.0 4.41716774432862 0.0 0.0 0.0 
180.00058297905275 12.0 7.0 400.0 0.598985926146802 0.0 0.0 0.0 
190.00058297905275 12.0 7.0 400.0 0.598985926146802 0.0 0.0 0.0 
200.00058297905275 12.0 7.0 400.0 0.598985926146802 0.0 0.0 0.0 
210.00058297905275 12.0 7.0 400.0 2.053531380692257 0.0 0.0 0.0 
220.00058297905275 12.0 7.0 400.0 3.8717131988740747 0.0 0.0 0.0 
230.00058297905275 12.0 7.0 400.0 5.689895017055893 0.0 0.0 0.0 
240.00058297905275 10.0 6.0 400.0 0.5987605764016481 0.0 0.0 0.0 
250.00058297905275 10.0 6.0 400.0 0.5987605764016481 0.0 0.0 0.0 
260.00058297905275 10.0 6.0 400.0 0.5987605764016671 0.0 0.0 0.0 
270.00058297905275 10.0 6.0 400.0 0.5987605764016671 0.0 0.0 0.0 
280.00058297905275 10.0 6.0 400.0 0.5987605764016671 0.0 0.0 0.0 
290.00058297905275 10.0 6.0 400.0 0.5987605764016671 0.0 0.0 0.0 
300.00058297905275 10.0 6.0 400.0 0.5987605764016671 0.0 0.0 0.0 
310.00058297905275 10.0 6.0 400.0 0.5987605764016671 0.0 0.0 0.0 
320.00058297905275 10.0 6.0 400.0 0.5987605764016671 0.0 0.0 0.0 
330.00058297905275 10.0 6.0 400.0 0.5987605764016671 0.0 0.0 0.0 
340.00058297905275 10.0 6.0 400.0 0.5987605764016671 0.0 0.0 0.0 
350.00058297905275 10.0 6.0 400.0 0.5987605764016671 0.0 0.0 0.0 
360.00058297905275 12.0 7.0 400.0 0.5989859261468227 0.0 0.0 0.0 
370.00058297905275 12.0 7.0 400.0 1.9626222897831864 0.0 0.0 0.0 
380.00058297905275 12.0 7.0 400.0 3.7808041079650048 0.0 0.0 0.0 
390.00058297905275 12.0 7.0 400.0 5.598985926146822 0.0 0.0 0.0 
400.00058297905275 10.0 6.0 400.0 0.5987605764016671 0.0 0.0 0.0 
410.00058297905275 10.0 6.0 400.0 0.5987605764016671 0.0 0.0 0.0 
420.00058297905275 12.0 7.0 400.0 0.5989859261468227 0.0 0.0 0.0 
430.00058297905275 14.0 8.0 400.0 1.7529880913550073 0.0 0.0 0.0 
440.00058297905275 14.0 8.0 400.0 3.8299111682780844 0.0 0.0 0.0 
450.00058297905275 16.0 9.0 400.0 5.99925634584101 0.0 0.0 0.0 
460.00058297905275 18.0 10.0 400.0 3.1875791286832458 0.0 0.0 0.0 
470.00058297905275 18.0 10.0 400.0 0.8239692457839549 0.0 0.0 0.0 
480.00058297905275 18.0 10.0 400.0 2.073969245783955 0.0 0.0 0.0 
490.00058297905275 24.0 12.0 402.5906267645398 4.323649101174529 1.0 0.0 1.0 
500.00058297905275 22.0 11.0 402.5906267645398 4.26458009244224 1.0 0.0 1.0 
510.00058297905275 22.0 11.0 402.5906267645398 6.719913425775575 2.0 0.0 1.0 
520.0005829790528 18.0 9.0 402.5906267645398 4.646881634472513 2.0 0.0 1.0 
530.0005829790528 18.0 9.0 402.5906267645398 7.210984198575078 2.0 0.0 1.0 
540.0005829790528 12.0 7.0 402.5906267645398 0.5080768352377525 2.0 0.0 1.0 
550.0005829790528 12.0 7.0 402.5906267645398 0.5080768352377525 2.0 0.0 1.0 
560.0005829790528 12.0 7.0 402.5906267645398 0.5080768352377525 1.0 0.0 1.0 
570.0005829790528 12.0 7.0 402.5906267645398 0.5080768352377525 1.0 0.0 1.0 
580.0005829790528 16.0 9.0 400.0 0.4659230125076912 0.0 0.0 0.0 
590.0005829790528 16.0 9.0 400.0 1.532589679174358 0.0 0.0 0.0 
600.0005829790528 16.0 9.0 400.0 3.3992563458410245 0.0 0.0 0.0 
610.0005829790528 16.0 9.0 400.0 6.065923012507691 0.0 0.0 0.0 
620.0005829790528 18.0 10.0 400.0 3.7758144228009067 0.0 0.0 0.0 
630.0005829790528 16.0 9.0 400.0 3.4659230125076914 0.0 0.0 0.0 
640.0005829790528 16.0 9.0 400.0 6.132589679174357 0.0 0.0 0.0 
650.0005829790528 14.0 8.0 400.0 4.829911168278102 0.0 0.0 0.0 
660.0005829790528 12.0 7.0 400.0 0.5989859261468434 0.0 0.0 0.0 
#####################################################################
# End of data export. Simulation finished at: 2019-03-06T16:38+0000 #
#####################################################################
