#####################################################################
# Alchemist log file - simulation started at: 2019-03-10T09:38+0000 #
#####################################################################
# seed = 4.0, bandwidth = 1000.0, accessPointCount = 37.60603093086394, baserange = 1000.0
#
# The columns have the following meaning: 
# time neighbor_count[Sum] <value>@neighbor_count[Sum] packet_size[Mean] mean_delay[Mean] crowd[Sum] overcrowded[Sum] risk[Sum] 
0.0 NaN NaN NaN NaN NaN NaN NaN 
2.0004793365590676 NaN NaN 4987.421121251629 NaN 1497.0 0.0 1497.0 
4.00042902272939 NaN NaN 4987.421121251629 NaN 1497.0 0.0 1497.0 
6.000479336559067 NaN NaN 4987.421121251629 NaN 1497.0 0.0 1497.0 
8.000479336559067 NaN NaN 4987.421121251629 NaN 1497.0 0.0 1497.0 
10.000479336559067 NaN NaN 4987.421121251629 NaN 1497.0 0.0 1497.0 
12.000479336559067 16.0 6.0 4987.421121251629 0.9364175726234398 1497.0 0.0 1497.0 
14.00042902272939 16.0 6.0 4987.421121251629 2.93641757262344 1497.0 0.0 1497.0 
16.000479336559067 28.0 6.0 4987.421121251629 3.4089802285798005 1497.0 0.0 1497.0 
18.000479336559067 40.0 12.0 4987.421121251629 4.973850543574064 1497.0 0.0 1497.0 
20.000479336559067 40.0 12.0 4987.421121251629 6.973850543574064 1497.0 0.0 1497.0 
22.000479336559067 65.0 21.0 4987.421121251629 3.2855001702631275 1497.0 0.0 1497.0 
24.000429022729392 65.0 21.0 4987.421121251629 5.285500170263128 1497.0 0.0 1497.0 
26.000479336559067 82.0 25.0 4987.421121251629 5.770788379535193 1497.0 0.0 1497.0 
28.000479336559067 92.0 27.0 4987.421121251629 7.42703318938982 1497.0 0.0 1497.0 
30.000479336559067 92.0 27.0 4987.421121251629 9.427033189389821 1497.0 0.0 1497.0 
32.00047933655907 92.0 27.0 4987.421121251629 8.216176046532677 1497.0 0.0 1497.0 
34.00042902272939 92.0 27.0 4987.421121251629 10.216176046532677 1497.0 0.0 1497.0 
36.00047933655907 94.0 28.0 4987.421121251629 11.786330968209793 1497.0 0.0 1497.0 
38.00047933655907 94.0 28.0 4987.421121251629 13.786330968209793 1497.0 0.0 1497.0 
40.00047933655907 95.0 28.0 4987.421121251629 15.514515060581141 1497.0 0.0 1497.0 
42.00047933655907 182.0 44.0 4987.457627118644 10.796878038739942 1497.0 0.0 1497.0 
44.00042902272939 182.0 44.0 4987.468057366363 12.796878038739942 1497.0 0.0 1497.0 
46.00047933655907 234.0 47.0 4987.468057366363 11.880423016083114 1497.0 0.0 1497.0 
48.00047933655907 272.0 53.0 4987.468057366363 12.624468857711713 1497.0 0.0 1497.0 
50.00047933655907 276.0 53.0 4987.468057366363 13.972266535814656 1497.0 0.0 1497.0 
52.00047933655907 566.0 85.0 4987.522816166884 7.255798272521046 1497.0 0.0 1497.0 
54.00042902272939 566.0 85.0 4987.538461538462 9.255798272521046 1497.0 0.0 1497.0 
56.00047933655907 978.0 100.0 4987.561929595828 3.336850078026102 1497.0 0.0 1497.0 
58.00047933655907 1152.0 118.0 4987.645371577575 4.795349381340892 1497.0 0.0 1497.0 
60.00047933655907 1152.0 118.0 4984.654498044329 6.795349381340892 1496.0 0.0 1496.0 
62.00047933655907 1385.0 137.0 400.0 7.493792727906943 58.0 0.0 0.0 
64.00042902272939 1385.0 137.0 400.0 9.41567508084812 58.0 0.0 0.0 
66.00047933655907 1468.0 148.0 400.0 10.830218436001966 53.0 0.0 0.0 
68.00047933655907 1534.0 154.0 400.0 12.509720838641584 53.0 0.0 0.0 
70.00047933655907 1537.0 154.0 400.0 14.086762244483866 51.0 0.0 0.0 
72.00047933655907 1598.0 155.0 400.0 13.924742786941554 47.0 0.0 0.0 
74.00042902272939 1651.0 156.0 400.0 14.384771598412584 46.0 0.0 0.0 
76.00047933655907 1622.0 155.0 400.0 15.69637309080685 43.0 0.0 0.0 
78.00047933655907 1584.0 149.0 400.0 16.935257045880903 42.0 0.0 0.0 
80.00047933655907 1583.0 149.0 400.0 18.356944615045467 41.0 0.0 0.0 
82.00047933655907 1359.0 129.0 400.0 17.54417744376425 28.0 0.0 0.0 
84.00042902272939 1359.0 129.0 400.0 18.984657368601322 28.0 0.0 0.0 
86.00047933655907 987.0 114.0 400.0 10.00633549636357 6.0 0.0 0.0 
88.00047933655907 826.0 97.0 400.0 5.49009598374083 0.0 0.0 0.0 
90.00047933655907 829.0 97.0 400.0 6.235158759954097 0.0 0.0 0.0 
92.00047933655907 896.0 104.0 400.0 6.842434305922946 0.0 0.0 0.0 
94.00042902272939 896.0 104.0 400.0 8.017258488175699 0.0 0.0 0.0 
96.00047933655907 901.0 104.0 400.0 8.169418312325314 0.0 0.0 0.0 
98.00047933655907 901.0 104.0 400.0 9.061965811122812 0.0 0.0 0.0 
100.00047933655907 911.0 104.0 400.0 10.080246902178088 0.0 0.0 0.0 
102.00047933655907 1359.0 135.0 415.00130378096475 9.28036510327524 5.0 0.0 5.0 
104.00042902272939 1307.0 134.0 414.9543676662321 6.209908823893592 5.0 0.0 5.0 
106.00047933655907 1418.0 149.0 414.9543676662321 6.161514917054338 5.0 0.0 5.0 
108.00047933655907 1474.0 154.0 414.9543676662321 6.965286157862353 5.0 0.0 5.0 
110.00047933655907 1477.0 154.0 415.01955671447195 2.4087099495929394 8.0 0.0 5.0 
112.00047933655907 1815.0 176.0 414.993481095176 2.570063267192331 8.0 0.0 5.0 
114.00042902272939 1815.0 176.0 414.993481095176 3.7965824139883506 8.0 0.0 5.0 
116.00047933655907 1887.0 190.0 414.993481095176 3.332761496502051 8.0 0.0 5.0 
118.00047933655907 1923.0 191.0 414.99869621903525 4.386363613073927 8.0 0.0 5.0 
120.00047933655907 1923.0 191.0 414.993481095176 4.68376465149924 8.0 0.0 5.0 
122.00047933655907 1933.0 192.0 414.993481095176 5.125430537051268 8.0 0.0 5.0 
124.00042902272939 1991.0 193.0 414.993481095176 4.602382359284184 8.0 0.0 5.0 
126.00047933655907 1991.0 193.0 414.993481095176 5.1814373936565445 8.0 0.0 5.0 
128.00047933655907 1991.0 193.0 414.99869621903525 6.228481774020405 8.0 0.0 5.0 
130.00047933655907 2038.0 195.0 414.993481095176 6.264684050916178 8.0 0.0 5.0 
132.00047933655907 3639.0 255.0 456.95958279009113 5.1550556649886214 22.0 0.0 19.0 
134.0004290227294 3644.0 255.0 456.8657105606258 4.068746609373934 22.0 0.0 19.0 
136.00047933655907 4608.0 291.0 505.01694915254234 4.387992193003275 39.0 0.0 35.0 
138.00047933655907 5214.0 316.0 534.8265971316818 5.1455778619296195 49.0 0.0 45.0 
140.00047933655907 5160.0 313.0 534.8396349413296 6.226753205565386 46.0 0.0 45.0 
142.00047933655907 5163.0 313.0 534.7822685788793 6.536415123910556 46.0 0.0 45.0 
144.0004290227294 5166.0 313.0 534.7822685788793 7.229887838941972 46.0 0.0 45.0 
146.00047933655907 5675.0 345.0 534.7848761408083 7.108630451616082 46.0 0.0 45.0 
148.00047933655907 5900.0 347.0 534.9178617992173 7.76560003278036 50.0 0.0 45.0 
150.00047933655907 5900.0 347.0 534.946544980443 8.421052943287766 55.0 0.0 45.0 
152.00047933655907 5988.0 350.0 534.9100391134285 7.99570730366047 55.0 0.0 45.0 
154.0004290227294 5932.0 349.0 534.9100391134285 6.966819648721521 55.0 0.0 45.0 
156.00047933655907 5976.0 350.0 534.972620599739 6.185784284304794 55.0 0.0 45.0 
158.00047933655907 5983.0 351.0 534.972620599739 5.0546266714375925 55.0 0.0 45.0 
160.00047933655907 5995.0 351.0 534.972620599739 6.028374119800178 55.0 0.0 45.0 
162.00047933655907 6627.0 371.0 534.972620599739 4.949939165112215 55.0 0.0 45.0 
164.0004290227294 6627.0 371.0 534.972620599739 5.643386411413482 55.0 0.0 45.0 
166.00047933655907 6285.0 367.0 535.0039113428946 5.976175695796254 55.0 0.0 45.0 
168.00047933655907 6091.0 356.0 534.8917861799222 7.016780011420902 55.0 0.0 45.0 
170.00047933655907 6091.0 356.0 534.8865710560625 6.451384544406276 55.0 0.0 45.0 
172.00047933655907 6088.0 356.0 534.8865710560625 7.373292343602617 55.0 0.0 45.0 
174.0004290227294 6143.0 357.0 534.8865710560625 7.378098584225724 55.0 0.0 45.0 
176.00047933655907 6139.0 357.0 534.8865710560625 8.00439476438235 55.0 0.0 45.0 
178.00047933655907 6041.0 351.0 534.7874837027383 8.656785355622308 54.0 0.0 45.0 
180.00047933655907 5772.0 346.0 534.7301173402866 7.334236997754434 50.0 0.0 45.0 
182.00047933655907 5736.0 344.0 534.6466753585396 6.254507907089919 50.0 0.0 45.0 
184.0004290227294 5712.0 344.0 534.6492829204697 7.169146967388628 50.0 0.0 45.0 
186.00047933655907 5647.0 342.0 534.615384615385 7.564184061369585 49.0 0.0 45.0 
188.00047933655907 5649.0 342.0 534.589308996089 7.695585345058264 48.0 0.0 45.0 
190.00047933655907 5649.0 342.0 534.589308996089 9.243412816092036 48.0 0.0 45.0 
192.00047933655907 5648.0 342.0 525.6166883963497 7.175848909871015 45.0 0.0 42.0 
194.0004290227294 5647.0 342.0 525.6166883963497 7.0406524335920535 45.0 0.0 42.0 
196.00047933655907 5635.0 341.0 525.6166883963497 7.7857429737624555 45.0 0.0 42.0 
198.00047933655907 5646.0 342.0 519.6349413298569 8.185499660681058 43.0 0.0 40.0 
200.00047933655907 5672.0 342.0 519.6349413298569 9.023805548834295 43.0 0.0 40.0 
202.00047933655907 5966.0 352.0 522.6258148631033 8.727431280893486 44.0 0.0 41.0 
204.0004290227294 5917.0 351.0 522.6258148631033 7.117169129166361 44.0 0.0 41.0 
206.00047933655907 6535.0 372.0 525.6323337679266 5.438670668752376 45.0 0.0 42.0 
208.00047933655907 6982.0 383.0 528.607561929596 5.242628847732965 45.0 0.0 43.0 
210.00047933655907 7060.0 386.0 543.572359843546 6.399902424012695 50.0 0.0 48.0 
212.00047933655907 7062.0 387.0 543.6271186440675 6.691138754925604 52.0 0.0 48.0 
214.0004290227294 7078.0 387.0 543.6010430247716 7.373870999691411 52.0 0.0 48.0 
216.00047933655907 7081.0 387.0 543.6010430247716 8.090764240067037 52.0 0.0 48.0 
218.00047933655907 7085.0 387.0 543.6010430247716 8.739294568739403 52.0 0.0 48.0 
220.00047933655907 7085.0 387.0 537.6245110821385 8.958202400627938 50.0 0.0 46.0 
222.00047933655907 6875.0 383.0 525.6558018252931 8.024862443386834 46.0 0.0 42.0 
224.0004290227294 7145.0 388.0 525.6558018252931 8.331999457890488 46.0 0.0 42.0 
226.00047933655907 7148.0 388.0 453.8930899608867 7.878935247101407 26.0 0.0 18.0 
228.00047933655907 7162.0 389.0 453.88787483702725 8.000212125168112 26.0 0.0 18.0 
230.00047933655907 7145.0 388.0 453.88787483702725 7.50279346346403 26.0 0.0 18.0 
232.00047933655907 7144.0 388.0 453.8826597131681 8.322952089455562 26.0 0.0 18.0 
234.0004290227294 7135.0 387.0 453.8826597131681 9.36253370475332 26.0 0.0 18.0 
236.00047933655907 7079.0 386.0 444.910039113429 8.809628585314494 23.0 0.0 15.0 
238.00047933655907 7088.0 386.0 444.910039113429 7.477989544720018 23.0 0.0 15.0 
240.00047933655907 7020.0 383.0 429.97653194263364 8.288904371619182 18.0 0.0 10.0 
242.00047933655907 6933.0 380.0 429.9374185136897 8.486566800946987 16.0 0.0 10.0 
244.0004290227294 6984.0 380.0 429.916558018253 9.062660608765468 16.0 0.0 10.0 
246.00047933655907 6973.0 379.0 429.916558018253 8.970445046373175 16.0 0.0 10.0 
248.00047933655907 6974.0 379.0 429.916558018253 9.976303482261226 16.0 0.0 10.0 
250.00047933655907 6986.0 379.0 429.916558018253 10.77445307024035 16.0 0.0 10.0 
252.00047933655907 6861.0 378.0 429.916558018253 9.624319440171162 16.0 0.0 10.0 
254.0004290227294 7004.0 380.0 429.916558018253 6.676540300107095 16.0 0.0 10.0 
256.00047933655907 6951.0 379.0 429.91395045632333 6.677138062026675 12.0 0.0 10.0 
258.00047933655907 6976.0 379.0 429.90873533246423 7.1198022682268025 12.0 0.0 10.0 
260.00047933655907 6977.0 379.0 429.90873533246423 8.276444336962332 12.0 0.0 10.0 
262.00047933655907 6978.0 379.0 429.90873533246423 9.180944060508235 12.0 0.0 10.0 
264.0004290227294 6986.0 380.0 429.90873533246423 8.681280098476488 12.0 0.0 10.0 
266.00047933655907 6996.0 381.0 429.90873533246423 9.061930298931392 12.0 0.0 10.0 
268.00047933655907 6956.0 380.0 429.90873533246423 7.163345350923198 12.0 0.0 10.0 
270.00047933655907 7015.0 381.0 429.90873533246423 7.093285131329676 12.0 0.0 10.0 
272.00047933655907 7184.0 388.0 444.9569752281617 7.132054365769565 17.0 0.0 15.0 
274.0004290227294 7184.0 388.0 444.8631029986962 7.6261354139876945 17.0 0.0 15.0 
276.00047933655907 7192.0 387.0 444.8631029986962 8.158467494286276 17.0 0.0 15.0 
278.00047933655907 7194.0 387.0 444.8631029986962 8.278688575792128 17.0 0.0 15.0 
280.00047933655907 7196.0 387.0 444.8631029986962 8.522261848023001 17.0 0.0 15.0 
282.00047933655907 7255.0 393.0 459.90612777053434 8.131923674647785 26.0 0.0 20.0 
284.0004290227294 7382.0 395.0 462.8813559322032 6.666552125949527 27.0 0.0 21.0 
286.00047933655907 7379.0 395.0 462.8865710560628 7.757272416097316 27.0 0.0 21.0 
288.00047933655907 7382.0 395.0 462.8865710560628 8.535065020833668 27.0 0.0 21.0 
290.00047933655907 7376.0 395.0 462.8865710560628 8.994667742939283 27.0 0.0 21.0 
292.00047933655907 7384.0 395.0 462.8865710560628 9.462888029844608 27.0 0.0 21.0 
294.00012552719693 7383.0 395.0 462.90221642764027 10.292449690723364 27.0 0.0 21.0 
296.00047933655907 7379.0 395.0 459.91134289439395 11.21768835249129 26.0 0.0 20.0 
298.00047933655907 7324.0 394.0 450.9387222946544 11.79056606272691 23.0 0.0 17.0 
300.00047933655907 7387.0 395.0 444.95697522816164 9.984585974486489 21.0 0.0 15.0 
302.00012552719693 7312.0 390.0 444.95697522816164 5.704418808708274 21.0 0.0 15.0 
304.0004290227294 7341.0 392.0 444.95697522816164 5.752937527662602 21.0 0.0 15.0 
306.00047933655907 9463.0 423.0 490.00260756192966 6.590847571283453 36.0 0.0 30.0 
308.00047933655907 10318.0 452.0 498.9439374185138 7.234300075966838 39.0 0.0 33.0 
310.00012552719693 10356.0 454.0 498.9439374185138 8.184845064279113 39.0 0.0 33.0 
312.00047933655907 10194.0 449.0 510.9595827900909 8.542110071136234 42.0 0.0 37.0 
314.0004290227294 10144.0 448.0 507.8800521512387 7.033551626821162 41.0 0.0 36.0 
316.00047933655907 10255.0 450.0 507.86440677966095 7.783560245762297 41.0 0.0 36.0 
318.00012552719693 10322.0 451.0 507.87483702737956 8.226436780226551 43.0 0.0 36.0 
320.00047933655907 10517.0 455.0 513.908735332464 8.702685884246087 45.0 0.0 38.0 
322.00047933655907 13439.0 499.0 609.5853976531941 8.334439606688354 77.0 0.0 70.0 
324.0004290227294 13427.0 498.0 609.5488917861796 9.138450065386536 74.0 0.0 70.0 
326.00047933655907 13970.0 505.0 609.5723598435465 9.209125903503951 78.0 0.0 70.0 
328.00047933655907 14621.0 516.0 618.9830508474578 9.878444876869775 82.0 0.0 73.0 
330.00047933655907 14591.0 515.0 618.9387222946549 7.287803480298217 89.0 0.0 73.0 
332.00047933655907 14582.0 515.0 618.9439374185134 7.011962247304141 89.0 0.0 73.0 
334.0004290227294 14581.0 514.0 618.9439374185134 7.562881468894628 89.0 0.0 73.0 
336.00047933655907 14065.0 509.0 618.9543676662324 8.152505626944578 89.0 0.0 73.0 
338.00047933655907 13747.0 499.0 618.9413298565838 8.693320509643117 89.0 0.0 73.0 
340.00047933655907 13766.0 499.0 618.9413298565838 8.275447445726515 89.0 0.0 73.0 
342.00047933655907 13741.0 497.0 618.9413298565838 9.425085791717617 89.0 0.0 73.0 
344.0004290227294 13574.0 496.0 621.9322033898308 10.41411557727366 92.0 0.0 74.0 
346.00047933655907 13917.0 501.0 621.9322033898308 8.888866903110674 93.0 0.0 74.0 
348.00047933655907 13808.0 498.0 621.9843546284222 8.815826652559972 91.0 0.0 74.0 
350.00047933655907 13708.0 497.0 621.9009126466747 9.35164967945999 91.0 0.0 74.0 
352.00047933655907 12007.0 472.0 622.0078226857892 9.269994488142968 96.0 0.0 74.0 
354.0004290227294 12005.0 472.0 621.9400260756187 8.859694317589575 96.0 0.0 74.0 
356.00047933655907 11564.0 466.0 621.9165580182531 8.858600746638755 94.0 0.0 74.0 
358.00047933655907 11442.0 464.0 621.5932203389834 9.000545831958837 93.0 0.0 74.0 
360.00047933655907 11246.0 461.0 618.5397653194266 7.841098053920588 86.0 0.0 73.0 
362.00047933655907 11612.0 468.0 627.4863102998696 6.126058046227397 89.0 0.0 76.0 
364.0004290227294 11641.0 469.0 627.3611473272492 6.572792977893123 89.0 0.0 76.0 
366.00047933655907 11902.0 475.0 645.4211212516293 7.521009470878946 95.0 0.0 82.0 
368.00047933655907 12111.0 479.0 660.3728813559314 8.06338499539746 100.0 0.0 87.0 
370.00012552719693 12106.0 479.0 660.3415906127767 9.139490564222212 100.0 0.0 87.0 
372.00047933655907 12103.0 479.0 645.3872229465458 10.189306115635317 95.0 0.0 82.0 
374.0004290227294 12035.0 477.0 642.3963494132986 10.364629862115345 94.0 0.0 81.0 
376.00047933655907 12018.0 477.0 642.3963494132986 10.564710251188497 93.0 0.0 81.0 
378.00012552719693 11979.0 476.0 642.3963494132986 9.159157776507294 91.0 0.0 81.0 
380.00047933655907 12098.0 477.0 642.4980443285526 9.01647349905197 94.0 0.0 81.0 
382.00047933655907 11947.0 478.0 657.5306388526725 8.535390497574697 96.0 0.0 86.0 
384.0004290227294 12153.0 482.0 660.4850065189054 9.494657607456793 99.0 0.0 87.0 
386.00012552719693 12165.0 483.0 666.4850065189054 9.8775795016205 99.0 0.0 89.0 
388.00047933655907 12213.0 483.0 666.4902216427637 9.9630491089463 99.0 0.0 89.0 
390.00047933655907 12248.0 484.0 666.4902216427637 8.975718784461542 99.0 0.0 89.0 
392.00047933655907 11935.0 477.0 666.4902216427637 6.8905451652901 99.0 0.0 89.0 
394.0004290227294 11875.0 476.0 666.4902216427637 7.62032363626344 99.0 0.0 89.0 
396.00047933655907 11764.0 473.0 627.6062581486304 8.347694367466778 86.0 0.0 76.0 
398.00047933655907 11676.0 471.0 627.5202086049547 8.116000115823336 86.0 0.0 76.0 
400.00047933655907 11687.0 471.0 627.5149934810946 8.322609226790455 86.0 0.0 76.0 
402.00047933655907 11723.0 471.0 615.5514993481089 7.226495499911132 82.0 0.0 72.0 
404.0004290227294 11618.0 470.0 615.5514993481089 7.726405445588615 82.0 0.0 72.0 
406.00047933655907 11655.0 470.0 615.5514993481089 8.122609725483144 82.0 0.0 72.0 
408.00047933655907 11831.0 477.0 633.590612777054 9.006017777680896 88.0 0.0 78.0 
410.00047933655907 11727.0 475.0 591.6375488917867 9.512717166146468 73.0 0.0 64.0 
412.00047933655907 11414.0 469.0 570.6675358539767 9.240314779063592 65.0 0.0 57.0 
414.0004290227294 11611.0 472.0 570.6023468057368 9.332031417531224 63.0 0.0 57.0 
416.00047933655907 11283.0 466.0 525.6844850065193 9.550563454917457 47.0 0.0 42.0 
418.00047933655907 11314.0 473.0 531.7548891786183 8.859390732980442 52.0 0.0 44.0 
420.00047933655907 11440.0 474.0 543.6245110821386 9.102126036444735 56.0 0.0 48.0 
422.00047933655907 11423.0 474.0 546.6440677966107 7.69154692696125 59.0 0.0 49.0 
424.0004290227294 11454.0 476.0 546.6492829204695 8.117293574437769 59.0 0.0 49.0 
426.00047933655907 11459.0 476.0 546.6492829204695 7.639066401065484 59.0 0.0 49.0 
428.00047933655907 11473.0 477.0 546.6544980443284 8.684856642095669 59.0 0.0 49.0 
430.00047933655907 11450.0 476.0 546.7144719687092 9.639961903739199 59.0 0.0 49.0 
432.00047933655907 11492.0 477.0 546.7196870925682 9.242273110980907 59.0 0.0 49.0 
434.0004290227294 11469.0 476.0 546.7196870925682 9.42067138078502 59.0 0.0 49.0 
436.00047933655907 11367.0 475.0 546.7196870925682 8.458532695750343 57.0 0.0 49.0 
438.00047933655907 11385.0 471.0 546.7196870925682 8.752232202002315 57.0 0.0 49.0 
440.00047933655907 11378.0 471.0 546.7196870925682 9.223062344455789 57.0 0.0 49.0 
442.00047933655907 11125.0 469.0 549.7262059973928 8.92147364300002 58.0 0.0 50.0 
444.0004290227294 11353.0 472.0 549.7105606258147 7.660613039660816 58.0 0.0 50.0 
446.00047933655907 11401.0 472.0 549.7105606258147 7.926014142097078 58.0 0.0 50.0 
448.00047933655907 11103.0 462.0 549.6453715775749 8.366382968715204 57.0 0.0 50.0 
450.00047933655907 11314.0 466.0 549.6297262059978 7.693173271030836 57.0 0.0 50.0 
452.00047933655907 11223.0 463.0 534.7092568448503 7.8013098718956675 50.0 0.0 45.0 
454.0004290227294 11255.0 463.0 534.6414602346804 8.14868328412303 50.0 0.0 45.0 
456.00047933655907 11356.0 465.0 510.7144719687091 6.989586057985616 43.0 0.0 37.0 
458.00047933655907 11375.0 465.0 513.7105606258145 7.304446450738787 44.0 0.0 38.0 
460.00047933655907 11323.0 463.0 519.7340286831812 7.691523663598505 49.0 0.0 40.0 
462.00047933655907 11260.0 462.0 519.6505867014338 7.548030529534452 48.0 0.0 40.0 
464.0004290227294 11287.0 463.0 519.6558018252933 8.586309866271174 48.0 0.0 40.0 
466.00047933655907 11228.0 462.0 519.6558018252933 8.976048606256118 48.0 0.0 40.0 
468.00047933655907 11309.0 463.0 519.6558018252933 9.90381682085333 48.0 0.0 40.0 
470.00047933655907 11288.0 463.0 507.6923076923072 10.683101081768392 44.0 0.0 36.0 
472.00047933655907 11386.0 464.0 504.7014341590609 9.306276890091775 43.0 0.0 35.0 
474.00012552719693 11274.0 462.0 477.78357235984345 7.579825923542266 34.0 0.0 26.0 
476.00047933655907 11405.0 464.0 477.78357235984345 7.273001814313991 34.0 0.0 26.0 
478.00047933655907 11272.0 462.0 477.78357235984345 7.059392352077333 34.0 0.0 26.0 
480.00047933655907 11309.0 462.0 477.78357235984345 7.4873558167552625 34.0 0.0 26.0 
482.00047933655907 11315.0 462.0 474.7926988265971 7.691954867497935 34.0 0.0 25.0 
484.00012552719693 11370.0 463.0 474.7926988265971 8.677631833687961 34.0 0.0 25.0 
486.00047933655907 11238.0 461.0 474.7926988265971 8.366788292267932 33.0 0.0 25.0 
488.00047933655907 11287.0 461.0 474.7926988265971 9.318679077784523 31.0 0.0 25.0 
490.00047933655907 11284.0 460.0 474.80573663624534 9.824354334004228 31.0 0.0 25.0 
492.00047933655907 11314.0 460.0 474.7926988265971 9.071504161771216 31.0 0.0 25.0 
494.00012552719693 11315.0 460.0 474.7718383311604 10.02436395346957 31.0 0.0 25.0 
496.00047933655907 11148.0 457.0 471.78096479791407 9.741779377421462 29.0 0.0 24.0 
498.00047933655907 11221.0 458.0 456.8265971316821 7.851537938861212 24.0 0.0 19.0 
500.00047933655907 11348.0 457.0 453.83572359843544 7.891070703287498 23.0 0.0 18.0 
502.00047933655907 11024.0 454.0 453.83572359843544 7.600527154691701 23.0 0.0 18.0 
504.00012552719693 11210.0 458.0 453.83572359843544 7.421437759444683 23.0 0.0 18.0 
506.00047933655907 11215.0 456.0 453.83572359843544 8.18052340848018 20.0 0.0 18.0 
508.00047933655907 11126.0 455.0 432.8996088657105 8.996294056192397 13.0 0.0 11.0 
510.00047933655907 11085.0 454.0 432.8996088657105 9.53096354324484 13.0 0.0 11.0 
512.000479336559 11183.0 455.0 432.8996088657105 9.759857521832675 13.0 0.0 11.0 
514.0001255271969 11196.0 456.0 432.8996088657105 9.508469557847102 13.0 0.0 11.0 
516.000479336559 11212.0 456.0 432.8996088657105 8.83566985022982 13.0 0.0 11.0 
518.000479336559 11237.0 456.0 423.92698826597126 9.308143842092875 10.0 0.0 8.0 
520.000479336559 11208.0 457.0 423.92698826597126 9.818840280916577 10.0 0.0 8.0 
522.000479336559 11162.0 456.0 426.9335071707952 8.701210499511001 11.0 0.0 9.0 
524.0004290227293 11299.0 461.0 438.94393741851366 8.807590391943496 15.0 0.0 13.0 
526.000479336559 11328.0 463.0 435.93741851368975 9.27439623754935 14.0 0.0 12.0 
528.000479336559 11271.0 462.0 435.93741851368975 9.072661314916521 14.0 0.0 12.0 
530.000479336559 11326.0 462.0 435.960886571056 8.849188703172972 16.0 0.0 12.0 
532.000479336559 11191.0 460.0 435.9452411994783 9.091088335271047 16.0 0.0 12.0 
534.0004290227293 11051.0 458.0 435.94784876140824 8.357312596271779 17.0 0.0 12.0 
536.000479336559 11333.0 462.0 438.95176010430237 7.359152206118345 18.0 0.0 13.0 
538.000479336559 11394.0 463.0 438.9465449804434 7.145992846481903 18.0 0.0 13.0 
540.000479336559 11325.0 462.0 438.9465449804434 7.958541441844599 18.0 0.0 13.0 
542.000479336559 11410.0 463.0 438.9465449804434 8.76846591711236 18.0 0.0 13.0 
544.0004290227293 11391.0 465.0 456.9882659713169 8.94781779440036 24.0 0.0 19.0 
546.000479336559 11401.0 465.0 453.90091264667535 8.849771005704818 23.0 0.0 18.0 
548.000479336559 11393.0 465.0 453.89569752281625 9.297019260602761 23.0 0.0 18.0 
550.000479336559 11396.0 465.0 450.9048239895699 10.039245708471102 22.0 0.0 17.0 
552.000479336559 11471.0 468.0 447.92438070404165 10.54726636482835 25.0 0.0 16.0 
554.0004290227293 11463.0 468.0 447.9452411994783 8.843845905026942 25.0 0.0 16.0 
556.000479336559 13070.0 491.0 481.01694915254234 7.288198971576965 36.0 0.0 27.0 
558.000479336559 13063.0 491.0 480.84485006518906 8.128963502539952 36.0 0.0 27.0 
560.000479336559 13124.0 490.0 480.8396349413298 8.674438282547648 35.0 0.0 27.0 
562.000479336559 13801.0 498.0 483.82268578878757 9.384495172638513 36.0 0.0 28.0 
564.0004290227293 13850.0 504.0 498.81877444589315 9.20741217551487 39.0 0.0 33.0 
566.000479336559 15585.0 535.0 543.8800521512387 8.789848762141244 57.0 0.0 48.0 
568.000479336559 16434.0 543.0 570.7014341590607 8.488623713324571 67.0 0.0 57.0 
570.000479336559 16910.0 558.0 591.7731421121255 7.3899666443519685 77.0 0.0 64.0 
572.000479336559 19163.0 582.0 633.9400260756181 7.282648734157887 103.0 0.0 78.0 
574.0004290227293 19188.0 580.0 633.8513689700138 7.989741717568245 103.0 0.0 78.0 
576.000479336559 19185.0 580.0 639.8539765319418 8.239870370168745 105.0 0.0 80.0 
578.000479336559 19175.0 579.0 639.848761408084 8.962194663400796 105.0 0.0 80.0 
580.000479336559 19226.0 580.0 645.8644067796608 9.834583291216973 112.0 0.0 82.0 
582.000479336559 19147.0 577.0 645.8331160365066 10.949606446112153 111.0 0.0 82.0 
584.0004290227293 19018.0 576.0 645.8070404172095 11.27507422166033 111.0 0.0 82.0 
586.000479336559 17824.0 562.0 645.8174706649272 10.778101266750978 112.0 0.0 82.0 
588.000479336559 17687.0 559.0 645.7966101694919 11.14920242248118 109.0 0.0 82.0 
590.000479336559 17691.0 560.0 645.7966101694919 12.07873619131228 109.0 0.0 82.0 
592.000479336559 17868.0 563.0 648.8031290743148 11.26911537401108 116.0 0.0 83.0 
594.0004290227293 17939.0 564.0 669.7235984354627 10.361235820558102 123.0 0.0 90.0 
596.000479336559 17539.0 554.0 672.7457627118649 8.014154990141268 130.0 0.0 91.0 
598.000479336559 17791.0 566.0 687.7887874837022 8.420929720719368 130.0 0.0 96.0 
600.000479336559 17137.0 547.0 687.7262059973921 9.002970037059269 128.0 0.0 96.0 
602.000479336559 19448.0 590.0 798.4589308996101 7.017050937284679 166.0 0.0 133.0 
604.0004290227293 19789.0 597.0 795.2907431551516 7.567270278607611 165.0 0.0 132.0 
606.000479336559 20401.0 604.0 810.2816166883955 8.008230240421156 171.0 0.0 137.0 
608.000479336559 21317.0 611.0 813.282920469362 7.635805074617415 173.0 0.0 138.0 
610.000479336559 22027.0 610.0 825.3767926988271 7.844085882077536 177.0 0.0 142.0 
612.000479336559 30900.0 742.0 978.1799217731422 7.9937175057898076 234.0 0.0 193.0 
614.0004290227293 31002.0 745.0 984.101694915254 8.762486493990856 236.0 0.0 195.0 
616.000479336559 33004.0 774.0 1056.333767926987 8.482711095524957 265.0 0.0 219.0 
618.000479336559 33155.0 778.0 1056.226857887876 8.658433307552531 266.0 0.0 219.0 
620.000479336559 33640.0 782.0 1062.2007822685791 9.381108042854608 269.0 0.0 221.0 
622.000479336559 33948.0 790.0 1077.2073011734028 9.910284738946393 278.0 0.0 226.0 
624.0004290227293 33904.0 787.0 1077.2411994784873 10.334982994485761 281.0 0.0 226.0 
626.000479336559 32871.0 771.0 1080.2268578878757 10.340730006542872 285.0 0.0 227.0 
628.000479336559 32646.0 767.0 1080.1329856584093 10.884237081340165 289.0 0.0 227.0 
630.000479336559 33003.0 778.0 1080.156453715775 11.718494860656438 289.0 0.0 227.0 
632.000479336559 29196.0 728.0 1077.139504563233 10.878980242513439 286.0 0.0 226.0 
634.0004290227293 30170.0 736.0 1068.1668839634935 11.17869264166826 288.0 0.0 223.0 
636.000479336559 29670.0 731.0 1068.1512385919154 11.012469267683745 288.0 0.0 223.0 
638.000479336559 29390.0 731.0 1068.0521512385926 11.60252767260967 279.0 0.0 223.0 
640.000479336559 28581.0 729.0 1068.05736636245 12.810139130949922 279.0 0.0 223.0 
642.000479336559 20980.0 625.0 1073.8617992177315 8.988433016543556 278.0 0.0 225.0 
644.0004290227293 21516.0 630.0 1073.7288135593226 9.472251934075683 277.0 0.0 225.0 
646.000479336559 19656.0 604.0 1073.739243807041 8.429135483399849 273.0 0.0 225.0 
648.000479336559 20978.0 616.0 1082.5215123859196 8.549461936107544 277.0 0.0 228.0 
650.000479336559 23915.0 660.0 1076.7796610169503 8.212843010402207 282.0 0.0 226.0 
652.000479336559 23972.0 656.0 1082.7822685788785 8.400141052718903 282.0 0.0 228.0 
654.0004290227293 24213.0 658.0 1070.7588005215125 8.774057185106747 271.0 0.0 224.0 
656.000479336559 24242.0 660.0 1040.8083441981755 9.113733244933986 261.0 0.0 214.0 
658.000479336559 24223.0 661.0 1040.7170795306388 9.068507799177526 260.0 0.0 214.0 
660.000479336559 24187.0 655.0 971.9191655801814 9.740153309185642 238.0 0.0 191.0 
662.000479336559 24475.0 659.0 959.895697522816 10.131601937004232 231.0 0.0 187.0 
664.0004290227293 23188.0 642.0 950.8578878748366 10.095982251745484 222.0 0.0 184.0 
#####################################################################
# End of data export. Simulation finished at: 2019-03-10T09:47+0000 #
#####################################################################
