#####################################################################
# Alchemist log file - simulation started at: 2019-03-08T21:17+0000 #
#####################################################################
# seed = 3.0, bandwidth = 4216.965034285822, accessPointCount = 2000.0, baserange = 100.0
#
# The columns have the following meaning: 
# time neighbor_count[Sum] <value>@neighbor_count[Sum] packet_size[Mean] mean_delay[Mean] crowd[Sum] overcrowded[Sum] risk[Sum] 
0.0 NaN NaN NaN NaN NaN NaN NaN 
2.00001362055676 198.0 154.0 4974.341435516157 0.2766526484838598 1497.0 0.0 1497.0 
4.00001362055676 1245.0 996.0 4976.72290534744 0.927635453170699 1497.0 0.0 1497.0 
6.00001362055676 2077.0 1615.0 4978.7703746068055 1.374433250682144 1497.0 0.0 1497.0 
8.00001362055676 2668.0 1893.0 4978.93851873034 1.7032070878346894 1497.0 0.0 1497.0 
10.00001362055676 3281.0 2082.0 4979.151272519302 1.6525756267362957 1497.0 0.0 1497.0 
12.00001362055676 3744.0 2173.0 4979.235916499858 2.13256197332516 1497.0 0.0 1497.0 
14.00001362055676 4070.0 2234.0 4979.595081498427 2.2345473968132996 1497.0 0.0 1497.0 
16.00001362055676 4338.0 2259.0 4979.64998570203 2.4508429778424503 1497.0 0.0 1497.0 
18.00001362055676 4609.0 2288.0 4979.488704603946 2.6961990065801857 1497.0 0.0 1497.0 
20.00001362055676 4660.0 2292.0 4979.415498999142 2.849507984962091 1497.0 0.0 1497.0 
22.00001362055676 4924.0 2309.0 4979.38575922219 2.574762034993376 1497.0 0.0 1497.0 
24.00001362055676 4926.0 2309.0 4979.7117529310835 3.214080319556525 1497.0 0.0 1497.0 
26.00001362055676 5030.0 2328.0 4979.474978553046 2.804542230076399 1497.0 0.0 1497.0 
28.00001362055676 5097.0 2331.0 4979.239348012582 2.9272832250906506 1497.0 0.0 1497.0 
30.00001362055676 5179.0 2354.0 4979.563054046326 3.126302691729758 1497.0 0.0 1497.0 
32.00001362055676 5291.0 2372.0 4979.270231627109 3.0348608672521533 1497.0 0.0 1497.0 
34.00001362055676 5328.0 2376.0 4979.301115241635 2.987521729837972 1497.0 0.0 1497.0 
36.00001362055676 5300.0 2360.0 4979.37432084644 3.111607614255663 1497.0 0.0 1497.0 
38.00001362055676 5298.0 2352.0 4979.261080926508 2.869109029186704 1497.0 0.0 1497.0 
40.00001362055676 5270.0 2341.0 4979.372033171289 2.783572958426325 1496.0 1.0 1496.0 
42.00001362055676 5271.0 2342.0 4979.223334286531 2.748999225344883 1496.0 1.0 1496.0 
44.00001362055676 5276.0 2342.0 4979.070060051473 2.868767781308898 1496.0 1.0 1496.0 
46.00001362055676 5280.0 2342.0 4979.178724621104 2.414533366211967 1494.0 3.0 1494.0 
48.00001362055676 5314.0 2345.0 4979.253074063483 2.8410046704479908 1493.0 4.0 1493.0 
50.00001362055676 5311.0 2344.0 4979.242779525308 2.6285325465254186 1494.0 3.0 1494.0 
52.00001362055676 5315.0 2345.0 4978.9625393194165 2.685443537442194 1495.0 2.0 1495.0 
54.00001362055676 5316.0 2345.0 4979.28853302831 2.8461903123409917 1491.0 6.0 1491.0 
56.00001362055676 5335.0 2346.0 4979.293108378611 2.5971318749632033 1488.0 9.0 1488.0 
58.00001362055676 5357.0 2348.0 4979.1364026308265 2.547275835294487 1488.0 9.0 1488.0 
60.00001362055676 5361.0 2350.0 4979.346868744638 3.1133975193753067 1488.0 9.0 1488.0 
62.00001362055676 5378.0 2352.0 738.1893051186767 2.270131024129105 639.0 7.0 250.0 
64.00001362055676 5387.0 2353.0 738.1241063768916 2.1943033058039276 508.0 7.0 250.0 
66.00001362055676 5363.0 2352.0 738.0794967114526 1.9436863390729417 441.0 8.0 249.0 
68.00001362055676 5356.0 2353.0 738.1069488132653 1.634264483253429 401.0 10.0 247.0 
70.00001362055676 5352.0 2352.0 738.1023734629597 1.5820322033202439 376.0 11.0 246.0 
72.00001362055676 5398.0 2357.0 738.0955104375249 1.5510476648711908 362.0 11.0 246.0 
74.00001362055676 5425.0 2358.0 742.0325993708873 1.3742537462684299 354.0 13.0 247.0 
76.00001362055676 5427.0 2358.0 741.9971404060726 1.4972952132026813 349.0 13.0 247.0 
78.00001362055676 5416.0 2356.0 742.000571918785 1.5761071779380496 344.0 8.0 252.0 
80.00001362055676 5427.0 2356.0 742.0051472690743 1.57066182495329 344.0 8.0 252.0 
82.00001362055676 5427.0 2355.0 741.9742636545652 1.491639151130178 334.0 16.0 244.0 
84.00001362055676 5436.0 2355.0 741.9822705175872 1.5538852601209907 332.0 17.0 243.0 
86.00001362055676 5440.0 2356.0 741.9674006291127 1.5895153080362199 333.0 14.0 246.0 
88.00001362055676 5454.0 2355.0 743.2622247640728 1.6539174537041335 331.0 15.0 246.0 
90.00001362055676 5462.0 2357.0 743.2393480125703 1.7313651162804984 332.0 14.0 247.0 
92.00001362055676 5473.0 2360.0 743.2713754646712 1.5448042018084644 332.0 14.0 247.0 
94.00001362055676 5482.0 2360.0 743.2931083786034 1.4965816262990872 330.0 15.0 246.0 
96.00001362055676 5447.0 2359.0 744.5810694881437 1.4492149897460298 335.0 10.0 252.0 
98.00001362055676 5456.0 2360.0 744.5559050614941 1.4770882264090508 336.0 9.0 253.0 
100.00001362055676 5466.0 2357.0 743.263368601648 1.3941983085665148 334.0 9.0 252.0 
102.00001362055676 5471.0 2358.0 743.2199027737996 1.4825767551947 332.0 10.0 251.0 
104.00001362055676 5437.0 2357.0 744.5456105232973 1.5836605042360645 331.0 10.0 252.0 
106.00001362055676 5437.0 2356.0 744.5421790105847 1.6336990983119315 328.0 11.0 251.0 
108.00001362055676 5448.0 2358.0 744.5536173863235 1.7681328836972825 330.0 11.0 251.0 
110.00001362055676 5435.0 2356.0 744.5661995996626 1.5568764775994006 332.0 9.0 253.0 
112.00001362055676 5441.0 2357.0 744.5193022590761 1.594673503407866 332.0 9.0 253.0 
114.00001362055676 5454.0 2359.0 745.841578495861 1.721140462325931 333.0 9.0 254.0 
116.00001362055676 5459.0 2357.0 745.8575922218886 1.369744537691849 333.0 9.0 254.0 
118.00001362055676 5483.0 2358.0 748.4781241063695 1.3936420783671022 336.0 9.0 256.0 
120.00001362055676 5483.0 2358.0 749.7626537031688 1.4858012126736855 337.0 9.0 257.0 
122.00001362055676 5493.0 2359.0 749.7672290534836 1.500150582393931 337.0 9.0 257.0 
124.00001362055676 5455.0 2357.0 749.7420646268329 1.5274171708431605 338.0 11.0 255.0 
126.00001362055676 5454.0 2356.0 749.7637975407393 1.6048077876375622 333.0 15.0 251.0 
128.00001362055676 5463.0 2357.0 749.7786674292215 1.5574508739529944 333.0 15.0 251.0 
130.00001362055676 5451.0 2356.0 748.4701172433474 1.5340299400110287 334.0 15.0 250.0 
132.00001362055676 5462.0 2357.0 749.8118387188974 1.6402177967455591 334.0 15.0 251.0 
134.00001362055676 5480.0 2358.0 751.1146697168916 1.6551458249481659 334.0 15.0 252.0 
136.00001362055676 5498.0 2357.0 753.7237632256334 1.6523609424695032 335.0 15.0 254.0 
138.00001362055676 5512.0 2359.0 755.0323134115075 1.6343504399749782 335.0 15.0 255.0 
140.00001362055676 5522.0 2360.0 753.7592221904314 1.5691134907283424 338.0 14.0 255.0 
142.00001362055676 5532.0 2360.0 756.3889047755397 1.5887071511529005 337.0 14.0 257.0 
144.00001362055676 5515.0 2360.0 755.0677723763052 1.6803421984512434 336.0 14.0 256.0 
146.00001362055676 5488.0 2356.0 756.3980554761115 1.502983767762358 338.0 14.0 257.0 
148.00001362055676 5467.0 2357.0 756.3763225621792 1.6558922609719626 340.0 13.0 258.0 
150.00001362055676 5468.0 2356.0 756.3820417500588 1.7261236954654806 342.0 10.0 261.0 
152.00001362055676 5488.0 2356.0 760.3340005719318 1.604094993410097 343.0 10.0 264.0 
154.00001362055676 5511.0 2357.0 761.6665713468545 1.5600969133998184 342.0 11.0 264.0 
156.00001362055676 5517.0 2359.0 761.6368315699148 1.6034244367932977 343.0 11.0 264.0 
158.00001362055676 5530.0 2362.0 764.2653703174143 1.6287319527159605 346.0 10.0 267.0 
160.00001362055676 5531.0 2363.0 764.2722333428626 1.6433857422993607 346.0 10.0 267.0 
162.00001362055676 5541.0 2364.0 764.2310551901553 1.6903940797787096 346.0 10.0 267.0 
164.00001362055676 5530.0 2364.0 765.6025164426736 1.557814590804243 342.0 15.0 263.0 
166.00001362055676 5512.0 2362.0 765.5887903917578 1.6499107427480286 341.0 16.0 262.0 
168.00001362055676 5511.0 2362.0 765.6116671432646 1.6831609234867542 338.0 18.0 260.0 
170.00001362055676 5518.0 2360.0 765.5922219044745 1.4763082630261493 336.0 20.0 258.0 
172.00001362055676 5519.0 2360.0 765.5682013154286 1.4363392233219539 337.0 19.0 259.0 
174.00001362055676 5538.0 2362.0 765.5636259651077 1.5500093965449406 332.0 24.0 254.0 
176.00001362055676 5534.0 2360.0 765.5647698026785 1.5800470007929759 332.0 24.0 254.0 
178.00001362055676 5535.0 2360.0 765.5407492136037 1.699884690218376 333.0 23.0 255.0 
180.00001362055676 5532.0 2361.0 765.5727766657174 1.814274218221986 334.0 22.0 256.0 
182.00001362055676 5507.0 2360.0 765.5590506148043 1.7188196482143894 330.0 26.0 252.0 
184.00001362055676 5491.0 2361.0 765.5716328281455 1.7231177151886445 325.0 29.0 249.0 
186.00001362055676 5480.0 2359.0 761.6048041178159 1.726329442906841 326.0 28.0 247.0 
188.00001362055676 5493.0 2360.0 762.9636831569885 1.6621112466014552 326.0 28.0 248.0 
190.00001362055676 5488.0 2360.0 762.9362310551973 1.6647101284850536 327.0 26.0 250.0 
192.00001362055676 5494.0 2360.0 762.9385187303392 1.6131493558827705 327.0 26.0 250.0 
194.00001362055676 5494.0 2359.0 762.9030597655228 1.63819454445155 327.0 26.0 250.0 
196.00001362055676 5490.0 2360.0 762.892765227328 1.7722949347409298 326.0 27.0 249.0 
198.00001362055676 5457.0 2357.0 762.9019159279511 1.740557945912496 328.0 25.0 251.0 
200.00001362055676 5380.0 2354.0 762.9225050042818 1.6482243958337748 332.0 21.0 255.0 
202.00001362055676 5351.0 2353.0 764.1955962253427 1.6861213441660174 333.0 21.0 256.0 
204.00001362055676 5333.0 2352.0 764.2276236774231 1.7681028481577707 334.0 21.0 256.0 
206.00001362055676 5325.0 2350.0 764.1990277380551 1.7076502000652116 334.0 22.0 255.0 
208.00001362055676 5330.0 2350.0 765.5030025736418 1.498230392520323 333.0 22.0 256.0 
210.00001362055676 5337.0 2353.0 764.1921647126256 1.5471413887553627 333.0 22.0 255.0 
212.00001362055676 5358.0 2355.0 764.2241921647058 1.4356924401701463 333.0 22.0 255.0 
214.00001362055676 5347.0 2353.0 762.8996282527777 1.4671616332306268 329.0 22.0 254.0 
216.00001362055676 5350.0 2353.0 765.5258793251492 1.5476829813031197 329.0 22.0 256.0 
218.00001362055676 5347.0 2352.0 765.5132971118084 1.5203097022545093 329.0 22.0 256.0 
220.00001362055676 5359.0 2352.0 764.2047469259345 1.5734887459680884 331.0 22.0 255.0 
222.00001362055676 5376.0 2353.0 766.832141835862 1.5577003010925379 329.0 24.0 255.0 
224.00001362055676 5381.0 2354.0 765.5373177008872 1.4930692950150357 327.0 27.0 251.0 
226.00001362055676 5379.0 2354.0 765.5247354875786 1.5288916104407764 327.0 27.0 251.0 
228.00001362055676 5371.0 2353.0 764.2150414641142 1.5791826523121855 328.0 27.0 250.0 
230.00001362055676 5370.0 2352.0 764.2070346010809 1.5529066235692282 328.0 27.0 250.0 
232.00001362055676 5381.0 2353.0 761.5647698026793 1.6226598822927052 329.0 27.0 248.0 
234.00001362055676 5378.0 2353.0 761.5647698026793 1.7357677874650836 329.0 27.0 248.0 
236.00001362055676 5360.0 2351.0 762.9282241921726 1.5166760929473613 331.0 26.0 250.0 
238.00001362055676 5354.0 2351.0 760.2825278810307 1.547676602021301 331.0 25.0 249.0 
240.00001362055676 5361.0 2352.0 760.277952530742 1.547951306388509 332.0 25.0 249.0 
242.00001362055676 5363.0 2352.0 760.2573634543803 1.37486825197283 332.0 25.0 249.0 
244.00001362055676 5364.0 2353.0 760.2264798398513 1.4780075672726627 332.0 25.0 249.0 
246.00001362055676 5356.0 2352.0 757.6116671432657 1.5201936010521582 331.0 24.0 248.0 
248.00001362055676 5356.0 2353.0 756.3145553331414 1.6087177146616383 332.0 21.0 250.0 
250.00001362055676 5356.0 2354.0 756.2939662567995 1.6542059060828118 332.0 21.0 250.0 
252.00001362055676 5365.0 2356.0 756.2973977695123 1.6815492691157987 332.0 21.0 250.0 
254.00001362055676 5352.0 2356.0 757.617386331156 1.6522839469713848 334.0 21.0 251.0 
256.00001362055673 5360.0 2359.0 757.5807835287367 1.7134036076240047 335.0 21.0 251.0 
258.00001362055673 5357.0 2358.0 757.5750643408776 1.7508354807434223 336.0 21.0 251.0 
260.00001362055673 5371.0 2361.0 758.9259365169991 1.8039477053902757 337.0 21.0 252.0 
262.00001362055673 5388.0 2362.0 760.2573634543804 1.5987451891720361 336.0 22.0 252.0 
264.00001362055673 5373.0 2359.0 760.2470689162133 1.564591358772957 336.0 22.0 252.0 
266.00001362055673 5384.0 2361.0 765.5121532742179 1.60971844269747 336.0 22.0 256.0 
268.00001362055673 5372.0 2361.0 768.0903631684359 1.674488351908818 339.0 21.0 259.0 
270.00001362055673 5366.0 2360.0 766.7703746067926 1.6190688008709313 339.0 21.0 258.0 
272.00001362055673 5349.0 2360.0 766.8024020588932 1.5390523209076947 332.0 26.0 253.0 
274.00001362055673 5340.0 2358.0 768.1212467829647 1.5581728141597235 340.0 19.0 261.0 
276.00001362055673 5340.0 2359.0 766.8538747497945 1.7373371992279485 339.0 19.0 260.0 
278.00001362055673 5347.0 2357.0 768.1281098083954 1.6710128029135944 339.0 19.0 261.0 
280.00001362055673 5329.0 2358.0 768.1120960823685 1.7109786696912281 339.0 19.0 261.0 
282.00001362055673 5332.0 2360.0 766.7863883328663 1.6749237391010086 337.0 19.0 260.0 
284.00001362055673 5316.0 2358.0 766.7886760080128 1.6314968351206818 337.0 19.0 260.0 
286.00001362055673 5298.0 2355.0 766.8207034600919 1.5194094886263556 337.0 19.0 260.0 
288.00001362055673 5305.0 2357.0 768.1132399199403 1.551709142697096 341.0 17.0 263.0 
290.00001362055673 5313.0 2361.0 766.7623677437916 1.5085978082984726 339.0 17.0 262.0 
292.00001362055673 5311.0 2361.0 765.4789819845671 1.5255996263983742 341.0 17.0 261.0 
294.00001362055673 5315.0 2360.0 765.4492422076103 1.632628051285069 341.0 17.0 261.0 
296.00001362055673 5321.0 2359.0 765.4801258221388 1.5711750212780795 341.0 17.0 261.0 
298.00001362055673 5325.0 2361.0 762.8550185873692 1.6157936229539334 343.0 13.0 263.0 
300.00001362055673 5336.0 2362.0 761.5590506148043 1.679545150007711 343.0 13.0 262.0 
302.00001362055673 5331.0 2361.0 761.531598513008 1.597887281600861 342.0 13.0 262.0 
304.00001362055673 5324.0 2360.0 757.5773520160242 1.6843558478930831 341.0 13.0 259.0 
306.00001362055673 5318.0 2358.0 754.9522447812503 1.6210704354155396 338.0 14.0 256.0 
308.00001362055673 5295.0 2356.0 754.997998284236 1.6508488077933823 338.0 14.0 256.0 
310.00001362055673 5303.0 2358.0 753.6757220474767 1.7515183249890482 337.0 14.0 255.0 
312.00001362055673 5285.0 2357.0 751.0529024878524 1.554733529255689 332.0 15.0 252.0 
314.00001362055673 5280.0 2356.0 749.7008864741307 1.6154770377823 330.0 15.0 251.0 
316.00001362055673 5278.0 2359.0 749.7008864741307 1.704126125658183 330.0 15.0 251.0 
318.00001362055673 5256.0 2353.0 749.6974549613929 1.6238484115124237 330.0 15.0 251.0 
320.00001362055673 5256.0 2353.0 748.4152130397607 1.613478850690944 330.0 15.0 250.0 
322.00001362055673 5254.0 2352.0 751.0426079496558 1.5829165778286824 318.0 27.0 240.0 
324.00001362055673 5254.0 2351.0 751.0551901629948 1.6927529099575462 318.0 27.0 240.0 
326.00001362055673 5231.0 2346.0 751.0529024878525 1.6123748046114115 316.0 27.0 240.0 
328.00001362055673 5226.0 2345.0 748.4083500143082 1.728309041062245 314.0 27.0 238.0 
330.00001362055673 5246.0 2349.0 749.7271947383521 1.7709285848179963 315.0 27.0 239.0 
332.00001362055673 5247.0 2350.0 747.1123820417449 1.8043246156659025 313.0 27.0 237.0 
334.00001362055673 5257.0 2351.0 747.0952244781187 1.7792850565899143 312.0 27.0 237.0 
336.00001362055673 5245.0 2352.0 745.7958249928492 1.649924979144101 312.0 27.0 236.0 
338.00001362055673 5242.0 2349.0 745.7798112667931 1.4795286069247011 322.0 17.0 246.0 
340.00001362055673 5238.0 2347.0 744.4506720045779 1.4658252460826082 322.0 17.0 245.0 
342.00001362055673 5203.0 2344.0 744.4495281669869 1.4458264811566859 321.0 17.0 245.0 
344.00001362055673 5214.0 2345.0 744.471261080919 1.5637503930248362 320.0 17.0 245.0 
346.00001362055673 5208.0 2346.0 743.1581355447609 1.6839832759473183 319.0 17.0 244.0 
348.00001362055673 5209.0 2346.0 744.5135830712168 1.7002584372130598 324.0 12.0 250.0 
350.00001362055673 5199.0 2345.0 744.478124106371 1.6508784959182377 324.0 12.0 250.0 
352.00001362055673 5223.0 2348.0 745.7820989419388 1.6202123485696296 323.0 12.0 251.0 
354.00001362055673 5234.0 2350.0 745.7466399771204 1.6879756919645987 325.0 12.0 251.0 
356.00001362055673 5236.0 2350.0 745.7718044037916 1.6510927649423313 326.0 12.0 251.0 
358.00001362055673 5240.0 2350.0 745.7775235916512 1.6905488985527215 326.0 12.0 251.0 
360.00001362055673 5242.0 2351.0 745.7878181298198 1.7297652435735658 327.0 12.0 251.0 
362.00001362055673 5231.0 2350.0 747.0917929653841 1.366059707366755 326.0 13.0 251.0 
364.00001362055673 5233.0 2351.0 743.1375464683956 1.5190183554711594 325.0 13.0 248.0 
366.00001362055673 5237.0 2352.0 737.890763511588 1.6117565217047882 325.0 13.0 244.0 
368.00001362055673 5227.0 2354.0 737.9056334000455 1.5499690910900559 322.0 13.0 244.0 
370.00001362055673 5230.0 2356.0 737.8770374606785 1.5874538759205303 323.0 13.0 244.0 
372.00001362055673 5232.0 2354.0 736.579925650546 1.556743349416643 315.0 19.0 237.0 
374.00001362055673 5228.0 2353.0 736.5627680869452 1.5125120880310794 314.0 19.0 237.0 
376.00001362055673 5230.0 2355.0 735.2256219616867 1.5344981787847585 315.0 19.0 236.0 
378.00001362055673 5205.0 2351.0 733.9296539891244 1.5138089022336303 315.0 19.0 235.0 
380.00001362055673 5211.0 2352.0 735.2702316271015 1.526608312506566 316.0 19.0 236.0 
382.00001362055673 5214.0 2352.0 735.2576494137886 1.5953875587389448 316.0 19.0 236.0 
384.00001362055673 5223.0 2352.0 736.5707749499467 1.5421309002700871 315.0 19.0 237.0 
386.00001362055673 5231.0 2355.0 733.9376608521479 1.502323070555909 315.0 19.0 235.0 
388.00001362055673 5242.0 2355.0 731.2999714040654 1.515654012621102 317.0 17.0 235.0 
390.00001362055673 5260.0 2355.0 728.6691449814039 1.4814567814953963 317.0 17.0 233.0 
392.00001362055673 5269.0 2356.0 731.3182728052577 1.5139956657109366 318.0 17.0 235.0 
394.00001362055673 5278.0 2357.0 729.9959965684973 1.613235630796193 319.0 17.0 234.0 
396.00001362055673 5280.0 2357.0 728.7011724335104 1.7186130441426128 318.0 17.0 233.0 
398.00001362055673 5315.0 2356.0 730.0371747212018 1.5987933935140703 324.0 12.0 239.0 
400.00001362055673 5318.0 2355.0 728.7068916213958 1.5996196827915858 323.0 12.0 238.0 
402.00001362055673 5316.0 2356.0 727.3731770088672 1.7037884304490687 322.0 12.0 237.0 
404.00001362055673 5315.0 2357.0 727.4074921361163 1.7508024226070888 322.0 12.0 237.0 
406.00001362055673 5318.0 2357.0 730.0428939090614 1.81233438340519 324.0 11.0 240.0 
408.00001362055673 5327.0 2355.0 728.7331998856167 1.8596275403413387 324.0 11.0 239.0 
410.00001362055673 5321.0 2357.0 727.4326565627657 1.8800371057401548 327.0 11.0 238.0 
412.00001362055673 5354.0 2360.0 727.4269373749063 1.7275368005753982 324.0 14.0 235.0 
414.00001362055673 5349.0 2359.0 727.4086359736867 1.6516180197891386 323.0 14.0 235.0 
416.00001362055673 5342.0 2356.0 728.7412067486398 1.554796175759793 324.0 14.0 236.0 
418.00001362055673 5336.0 2359.0 731.3777523591779 1.6402213083027377 324.0 14.0 238.0 
420.00001362055673 5313.0 2358.0 731.3663139834118 1.718272164152257 324.0 14.0 238.0 
422.00001362055673 5302.0 2357.0 730.0428939090613 1.7402447227571156 324.0 14.0 237.0 
424.00001362055673 5285.0 2355.0 730.030311695724 1.7022174648676496 318.0 20.0 231.0 
426.00001362055673 5297.0 2354.0 733.9605376036558 1.7675968586838506 318.0 20.0 234.0 
428.00001362055673 5298.0 2352.0 735.2908207034615 1.651281857760658 318.0 20.0 235.0 
430.00001362055673 5310.0 2357.0 735.2770946525579 1.6881452379532198 318.0 20.0 235.0 
432.00001362055673 5344.0 2359.0 735.307978267089 1.6337204224419182 317.0 20.0 235.0 
434.00001362055673 5338.0 2358.0 736.6130969402453 1.6078130171800171 316.0 19.0 237.0 
436.00001362055673 5336.0 2358.0 736.6062339147921 1.6992084467426714 315.0 20.0 236.0 
438.00001362055673 5323.0 2357.0 737.9307978266963 1.6334005730129626 316.0 20.0 237.0 
440.00001362055673 5341.0 2361.0 740.5581927366359 1.6600188981628148 316.0 20.0 239.0 
442.00001362055673 5358.0 2362.0 740.5364598227037 1.6913829650491172 318.0 20.0 239.0 
444.00001362055673 5356.0 2364.0 740.5444666857256 1.662702564247142 320.0 20.0 239.0 
446.00001362055673 5352.0 2364.0 740.5433228481551 1.6532283577887112 320.0 20.0 239.0 
448.00001362055673 5366.0 2363.0 741.8415784958602 1.6441334012189976 321.0 20.0 240.0 
450.00001362055673 5370.0 2363.0 741.8358593079731 1.6101677573800304 326.0 14.0 246.0 
452.00001362055673 5373.0 2364.0 743.1924506720039 1.608530525961334 327.0 14.0 247.0 
454.00001362055673 5367.0 2363.0 744.5010008578776 1.74690489134293 325.0 14.0 248.0 
456.00001362055673 5369.0 2363.0 744.5158707463635 1.8753263842872927 322.0 15.0 247.0 
458.00001362055673 5351.0 2361.0 747.1466971689933 1.8239575271690331 322.0 15.0 249.0 
460.00001362055673 5368.0 2362.0 748.4541035172953 1.761744634993325 322.0 16.0 249.0 
462.00001362055673 5368.0 2359.0 748.4472404918401 1.7132844961188058 325.0 14.0 251.0 
464.00001362055673 5382.0 2360.0 751.0689162138959 1.4948638951453261 326.0 13.0 254.0 
466.00001362055673 5379.0 2360.0 748.4037746639917 1.6225271809815127 327.0 13.0 252.0 
468.00001362055673 5373.0 2360.0 747.1089505290324 1.7422683261857665 328.0 13.0 251.0 
470.00001362055673 5369.0 2360.0 747.1020875035814 1.7142619519805484 328.0 13.0 251.0 
472.00001362055673 5366.0 2357.0 751.0185873605961 1.6211120469361375 327.0 14.0 253.0 
474.00001362055673 5365.0 2358.0 749.6963111238224 1.5394679048452042 327.0 14.0 252.0 
476.00001362055673 5362.0 2358.0 749.729482413493 1.6482873922084038 327.0 14.0 252.0 
478.00001362055673 5357.0 2358.0 751.043751787247 1.6825867501880023 329.0 14.0 253.0 
480.00001362055673 5354.0 2359.0 751.035744924226 1.7204005944175622 329.0 14.0 253.0 
482.00001362055673 5352.0 2357.0 749.6997426365555 1.7090650512482435 330.0 14.0 252.0 
484.00001362055673 5355.0 2356.0 748.3820417500601 1.7781995667404484 329.0 14.0 251.0 
486.00001362055673 5359.0 2356.0 748.374034887037 1.8392710204937626 330.0 13.0 252.0 
488.00001362055673 5350.0 2358.0 749.7043179868433 1.644607570616388 328.0 13.0 253.0 
490.00001362055673 5344.0 2360.0 751.0208750357398 1.6351151772406198 328.0 13.0 254.0 
492.00001362055673 5338.0 2361.0 751.0128681727172 1.715274237809538 328.0 13.0 254.0 
494.00001362055673 5344.0 2363.0 751.0185873605966 1.6179714056262244 327.0 13.0 254.0 
496.00001362055673 5332.0 2359.0 751.0037174721245 1.5397549908279546 327.0 13.0 254.0 
498.00001362055673 5339.0 2360.0 749.6825850729111 1.657849157027516 326.0 13.0 253.0 
500.00001362055673 5349.0 2363.0 749.7123248498658 1.7484527514902293 331.0 13.0 253.0 
502.00001362055673 5347.0 2365.0 748.3877609379481 1.765803561642586 330.0 13.0 252.0 
504.00001362055673 5363.0 2368.0 748.3808979124883 1.7935765197406477 331.0 13.0 252.0 
506.00001362055673 5357.0 2370.0 747.078066914502 1.7371524043878859 330.0 13.0 251.0 
508.00001362055673 5354.0 2369.0 747.0643408635882 1.8262528393816353 328.0 13.0 251.0 
510.00001362055673 5333.0 2370.0 744.4598227051788 1.832759465530111 325.0 13.0 249.0 
512.0000136205567 5329.0 2368.0 744.4529596797211 1.7111587058909137 323.0 13.0 249.0 
514.0000136205567 5317.0 2367.0 743.1112382041745 1.5967098871236955 321.0 13.0 248.0 
516.0000136205567 5319.0 2369.0 744.4701172433474 1.5546708055042366 320.0 15.0 247.0 
518.0000136205567 5316.0 2367.0 744.4666857306348 1.5778344956481862 319.0 15.0 247.0 
520.0000136205567 5306.0 2367.0 743.1283957678022 1.6631410793617638 319.0 15.0 246.0 
522.0000136205567 5305.0 2367.0 743.1123820417449 1.7035494510854792 321.0 15.0 246.0 
524.0000136205567 5294.0 2367.0 740.5204460966477 1.7334109595884983 323.0 15.0 244.0 
526.0000136205567 5302.0 2368.0 739.1993136974627 1.7617094242663738 322.0 15.0 243.0 
528.0000136205567 5322.0 2373.0 737.8850443237023 1.8403859885512457 321.0 16.0 241.0 
530.0000136205567 5323.0 2374.0 735.2404918501409 1.765104057932819 320.0 16.0 239.0 
532.0000136205567 5328.0 2374.0 733.9056334000456 1.8391479004512337 323.0 16.0 238.0 
534.0000136205567 5331.0 2373.0 735.2336288247106 1.8374313569238698 322.0 16.0 239.0 
536.0000136205567 5331.0 2371.0 737.8655990849375 1.8715140773239298 322.0 16.0 241.0 
538.0000136205567 5307.0 2367.0 737.8633114097702 1.715992541530021 321.0 16.0 241.0 
540.0000136205567 5297.0 2366.0 737.8861881612775 1.7539150875530343 322.0 16.0 241.0 
542.0000136205567 5290.0 2364.0 739.2130397483488 1.6530266572313426 322.0 16.0 242.0 
544.0000136205567 5284.0 2364.0 739.1752931083837 1.6456740602296804 320.0 16.0 242.0 
546.0000136205567 5273.0 2362.0 736.5604804117824 1.6565768945925594 319.0 16.0 240.0 
548.0000136205567 5272.0 2365.0 733.9685444666837 1.6199467265507606 318.0 16.0 238.0 
550.0000136205567 5262.0 2363.0 733.9571060909383 1.623711641363548 319.0 16.0 238.0 
552.0000136205567 5257.0 2362.0 732.6233914783929 1.6840671454236813 317.0 16.0 237.0 
554.0000136205567 5274.0 2364.0 729.9925650557624 1.7989219489893287 318.0 16.0 235.0 
556.0000136205567 5252.0 2360.0 728.692021732911 1.7512290814011244 319.0 16.0 234.0 
558.0000136205567 5260.0 2364.0 728.6863025450515 1.714524528726513 320.0 15.0 235.0 
560.0000136205567 5254.0 2362.0 728.6794395195988 1.588056033051688 319.0 15.0 235.0 
562.0000136205567 5262.0 2364.0 729.9822705175883 1.6100606357526877 317.0 16.0 235.0 
564.0000136205567 5247.0 2366.0 730.0257363454348 1.5647678385010968 319.0 15.0 236.0 
566.0000136205567 5245.0 2369.0 731.3217043179963 1.5393366393546113 321.0 15.0 237.0 
568.0000136205567 5234.0 2369.0 729.9891335430433 1.5482271221162733 321.0 15.0 236.0 
570.0000136205567 5232.0 2368.0 733.9502430654865 1.5565835237809458 320.0 14.0 240.0 
572.0000136205567 5242.0 2368.0 733.9731198169937 1.514896848665411 322.0 13.0 241.0 
574.0000136205567 5255.0 2372.0 736.5570488990631 1.6237613129127089 321.0 13.0 243.0 
576.0000136205567 5253.0 2372.0 736.5478981984444 1.6682674808998346 321.0 12.0 244.0 
578.0000136205567 5265.0 2375.0 737.8850443237023 1.6936104891918797 322.0 12.0 245.0 
580.0000136205567 5275.0 2376.0 739.2061767229143 1.7833796745811592 323.0 12.0 246.0 
582.0000136205567 5292.0 2378.0 739.2084643980613 1.8166824398658272 323.0 12.0 246.0 
584.0000136205567 5290.0 2378.0 739.2324849871391 1.8561698441618089 324.0 12.0 246.0 
586.0000136205567 5275.0 2378.0 737.9182156133852 1.8355244303499012 324.0 12.0 245.0 
588.0000136205567 5260.0 2375.0 739.2290534744214 1.7431058081510031 324.0 12.0 246.0 
590.0000136205567 5281.0 2378.0 741.8598798970513 1.689427990599062 324.0 11.0 249.0 
592.0000136205567 5298.0 2378.0 744.4506720045769 1.5960807187953552 326.0 11.0 251.0 
594.0000136205567 5299.0 2379.0 744.4643980554879 1.6553772643433942 327.0 11.0 251.0 
596.0000136205567 5296.0 2375.0 743.1489848441639 1.667749670013787 329.0 11.0 250.0 
598.0000136205567 5310.0 2376.0 744.4678295682066 1.774440403560504 333.0 11.0 251.0 
600.0000136205567 5301.0 2376.0 744.4666857306348 1.8061408238675363 333.0 11.0 251.0 
602.0000136205567 5294.0 2373.0 748.3808979124871 1.7520854694091117 334.0 11.0 254.0 
604.0000136205567 5285.0 2374.0 748.374034887037 1.7060962881345618 334.0 11.0 254.0 
606.0000136205567 5287.0 2373.0 751.0300257363466 1.7121578834602205 335.0 11.0 256.0 
608.0000136205567 5302.0 2374.0 753.6768658850519 1.7563471159242534 339.0 11.0 258.0 
610.0000136205567 5328.0 2377.0 756.2859593937752 1.8307770527704608 341.0 11.0 260.0 
612.0000136205567 5319.0 2373.0 756.280240205884 1.7500837135362304 340.0 11.0 260.0 
614.0000136205567 5322.0 2372.0 756.2996854446588 1.679488188029497 339.0 11.0 260.0 
616.0000136205567 5319.0 2370.0 754.97169002001 1.7471088075973111 341.0 11.0 259.0 
618.0000136205567 5320.0 2371.0 754.9888475836384 1.7738953199745455 341.0 11.0 259.0 
620.0000136205567 5337.0 2374.0 752.3854732628025 1.8269652194649588 339.0 11.0 257.0 
622.0000136205567 5337.0 2371.0 751.079210752075 1.7340322136278874 336.0 11.0 256.0 
624.0000136205567 5348.0 2376.0 751.0483271375352 1.7775412716529786 337.0 11.0 256.0 
626.0000136205567 5342.0 2374.0 752.3831855876604 1.7083301133328157 339.0 11.0 257.0 
628.0000136205567 5325.0 2371.0 751.0620531884458 1.6603967207647388 339.0 11.0 256.0 
630.0000136205567 5330.0 2373.0 753.6665713468547 1.828571462138172 338.0 11.0 258.0 
632.0000136205567 5336.0 2374.0 753.6608521589939 1.8082962861517822 338.0 11.0 258.0 
634.0000136205567 5351.0 2376.0 754.9465255933604 1.9033878861746336 339.0 11.0 259.0 
636.0000136205567 5339.0 2373.0 754.9739776951568 1.733874565327985 340.0 11.0 259.0 
638.0000136205567 5334.0 2372.0 758.9476694309353 1.6857844564372935 342.0 11.0 262.0 
640.0000136205567 5327.0 2372.0 758.8824706891616 1.7095126966486056 342.0 11.0 262.0 
642.0000136205567 5331.0 2374.0 758.8676008006784 1.6971234403656126 342.0 11.0 262.0 
644.0000136205567 5329.0 2376.0 757.586502716615 1.7408726938384227 341.0 11.0 261.0 
646.0000136205567 5330.0 2374.0 757.5567629396577 1.7992101390660071 342.0 11.0 261.0 
648.0000136205567 5319.0 2374.0 756.2470689162133 1.833746726629922 341.0 11.0 260.0 
650.0000136205567 5302.0 2373.0 756.2527881040727 1.8468200752549628 339.0 11.0 260.0 
652.0000136205567 5300.0 2374.0 752.2973977695123 1.9172128996952187 336.0 11.0 257.0 
654.0000136205567 5293.0 2376.0 751.0014297969782 1.9883130971208356 337.0 11.0 256.0 
656.0000136205567 5282.0 2372.0 753.6562768086865 1.8571279291182223 338.0 11.0 258.0 
658.0000136205567 5276.0 2371.0 753.6642836717114 1.6706551733903447 340.0 11.0 258.0 
660.0000136205567 5277.0 2371.0 757.5945095796488 1.6251566228757819 339.0 11.0 261.0 
662.0000136205567 5260.0 2368.0 754.9396625679096 1.6028658403039635 339.0 11.0 259.0 
664.0000136205567 5246.0 2365.0 754.9110666285476 1.6344938123372816 338.0 11.0 259.0 
#####################################################################
# End of data export. Simulation finished at: 2019-03-08T21:45+0000 #
#####################################################################
