#####################################################################
# Alchemist log file - simulation started at: 2019-03-13T10:35+0000 #
#####################################################################
# seed = 5.0, bandwidth = 5623413.251903491, accessPointCount = 72.92664737217109, baserange = 1000.0
#
# The columns have the following meaning: 
# time neighbor_count[Sum] <value>@neighbor_count[Sum] packet_size[Mean] mean_delay[Mean] crowd[Sum] overcrowded[Sum] risk[Sum] 
0.0 NaN NaN NaN NaN NaN NaN NaN 
2.000101793669918 7846.0 1307.0 4987.793499043977 0.44914862966625974 1497.0 0.0 1497.0 
4.000101793669918 18305.0 1409.0 4989.358827278521 0.5151386362183042 1497.0 0.0 1497.0 
6.000101793669918 26814.0 1421.0 4990.911408540472 0.5595985508998708 1497.0 0.0 1497.0 
8.000101793669918 33235.0 1402.0 4992.137667304015 0.5852431454451049 1497.0 0.0 1497.0 
10.000101793669918 37155.0 1398.0 4992.882090503505 0.5848842024858292 1497.0 0.0 1497.0 
12.000101793669918 38501.0 1354.0 4993.34098151689 0.5853562402490415 1496.0 1.0 1496.0 
14.000101793669918 36732.0 1302.0 4993.491395793499 0.5001761397044113 1495.0 2.0 1495.0 
16.00010179366992 36732.0 1302.0 4993.476099426386 0.5002365435683873 1495.0 2.0 1495.0 
18.00010179366992 36734.0 1302.0 4993.631612492033 0.5004351887905379 1497.0 0.0 1497.0 
20.00010179366992 36738.0 1302.0 4993.616316124921 0.500566511037308 1497.0 0.0 1497.0 
22.00010179366992 36740.0 1302.0 4993.376673040153 0.5001833498106956 1497.0 0.0 1497.0 
24.00010179366992 36740.0 1302.0 4993.412364563416 0.5001922655714158 1495.0 2.0 1495.0 
26.00010179366992 36742.0 1302.0 4993.463352453792 0.5002336710013067 1495.0 2.0 1495.0 
28.00010179366992 36744.0 1302.0 4993.672402804334 0.5010772546082969 1497.0 0.0 1497.0 
30.00010179366992 36939.0 1303.0 4993.544933078394 0.5035577486617999 1496.0 1.0 1496.0 
32.00010179366992 36954.0 1303.0 4993.407265774378 0.5007337873947176 1495.0 2.0 1495.0 
34.00010179366992 36951.0 1302.0 4993.514340344168 0.5016006447446035 1494.0 3.0 1494.0 
36.00010179366992 36932.0 1302.0 4993.486297004461 0.5002360634454361 1495.0 2.0 1495.0 
38.00010179366992 36932.0 1302.0 4993.708094327597 0.5002650831817544 1497.0 0.0 1497.0 
40.00010179366992 36943.0 1302.0 4993.534735500319 0.5007671498871005 1496.0 1.0 1496.0 
42.00010179366992 36941.0 1302.0 4993.414913957935 0.5010716800624658 1496.0 1.0 1496.0 
44.00010179366992 36983.0 1303.0 4993.44805608668 0.5018252696628275 1494.0 3.0 1494.0 
46.00010179366992 36962.0 1303.0 4993.493945188018 0.5002381367874884 1495.0 2.0 1495.0 
48.00010179366992 36962.0 1303.0 4993.700446144041 0.5009618731523194 1497.0 0.0 1497.0 
50.00010179366992 36969.0 1302.0 4993.560229445507 0.5022454313564539 1497.0 0.0 1497.0 
52.00010179366992 36985.0 1303.0 4993.422562141492 0.5010254955371959 1496.0 1.0 1496.0 
54.00010179366992 36970.0 1302.0 4993.3613766730405 0.5022798933047009 1495.0 2.0 1495.0 
56.00010179366992 36952.0 1302.0 4993.445506692161 0.5004097567587175 1495.0 2.0 1495.0 
58.00010179366992 36952.0 1302.0 4993.690248565966 0.5004360528630173 1497.0 0.0 1497.0 
60.00010179366992 36971.0 1303.0 4990.61822817081 0.500665812545493 1495.0 1.0 1495.0 
62.00010179366992 37054.0 1305.0 1459.5156150414289 0.5011875346802669 719.0 0.0 361.0 
64.00010179366993 37007.0 1303.0 1459.6660293180366 0.49926081387756427 591.0 5.0 356.0 
66.00010179366993 37032.0 1304.0 1459.3830465264512 0.5010778680587757 554.0 6.0 355.0 
68.00010179366993 36988.0 1303.0 1456.5251752708741 0.5010938634971139 522.0 7.0 353.0 
70.00010179366993 36980.0 1303.0 1453.5525812619503 0.5041391860632731 513.0 6.0 353.0 
72.00010179366993 36998.0 1302.0 1450.6870618228168 0.49979745975959666 513.0 6.0 352.0 
74.00010179366993 37026.0 1301.0 1453.5806246016564 0.5003359025865879 509.0 6.0 353.0 
76.00010179366993 37018.0 1301.0 1453.6137667304026 0.49914870443619686 507.0 5.0 354.0 
78.00010179366993 37046.0 1302.0 1456.530274059909 0.5007083106203694 508.0 6.0 354.0 
80.00010179366993 37036.0 1301.0 1456.5430210325044 0.4991232272409519 504.0 8.0 352.0 
82.00010179366993 37048.0 1302.0 1456.448693435309 0.5013105841079022 505.0 7.0 353.0 
84.00010179366993 37059.0 1302.0 1456.4818355640532 0.5018781976870826 502.0 8.0 352.0 
86.00010179366993 37033.0 1302.0 1456.402804333971 0.500094658362729 501.0 7.0 353.0 
88.00010179366993 37031.0 1301.0 1456.4614404079025 0.4992328291852617 499.0 8.0 352.0 
90.00010179366993 37068.0 1302.0 1456.3416188655194 0.4992546127168579 501.0 7.0 353.0 
92.00010179366993 37067.0 1302.0 1456.4920331421279 0.4992673856386003 501.0 8.0 352.0 
94.00010179366993 37068.0 1302.0 1456.3951561504148 0.49924592826030656 502.0 7.0 353.0 
96.00010179366993 37068.0 1302.0 1456.5098789037613 0.4992459769686595 501.0 8.0 352.0 
98.00010179366993 37069.0 1302.0 1459.332058636074 0.49923552005893385 503.0 6.0 355.0 
100.00010179366993 37074.0 1302.0 1459.44678138942 0.4992792547933411 500.0 9.0 352.0 
102.00010179366993 37171.0 1303.0 1459.2938177182905 0.5010904274534786 501.0 7.0 354.0 
104.00010179366993 37132.0 1302.0 1462.327597195666 0.49923182022296947 499.0 9.0 353.0 
106.00010179366993 37132.0 1302.0 1462.2001274697266 0.49917900559297546 501.0 7.0 355.0 
108.00010179366993 37132.0 1302.0 1462.2689611217327 0.4997504135785335 499.0 9.0 353.0 
110.00010179366993 37132.0 1302.0 1462.1593371574243 0.4991947981255957 501.0 7.0 355.0 
112.00010179366993 37318.0 1303.0 1462.322498406629 0.5004153824714004 500.0 9.0 353.0 
114.00010179366993 37275.0 1302.0 1462.2077756532829 0.49978370908409814 502.0 7.0 355.0 
116.00010179366993 37311.0 1303.0 1462.3760356915227 0.501282952534892 501.0 9.0 353.0 
118.00010179366993 37321.0 1302.0 1462.248565965585 0.5000811097198139 504.0 7.0 355.0 
120.00010179366993 37362.0 1303.0 1465.2262587635437 0.50181886865222 502.0 9.0 354.0 
122.00010179366993 37344.0 1302.0 1468.08667941364 0.49911221333924194 503.0 8.0 356.0 
124.00010179366993 37342.0 1302.0 1465.2160611854686 0.49920924867057953 498.0 13.0 350.0 
126.00010179366993 37340.0 1302.0 1465.1217335882725 0.49905757059936345 499.0 12.0 351.0 
128.00010179366993 37340.0 1302.0 1453.4964945825377 0.4990703890780476 498.0 13.0 346.0 
130.00010179366993 37410.0 1304.0 1453.4531548757168 0.5020025887814643 498.0 9.0 350.0 
132.00010179366993 37370.0 1302.0 1453.527087316763 0.49910105022884893 496.0 8.0 351.0 
134.00010179366993 37494.0 1303.0 1453.4404079031233 0.5005329371003504 495.0 9.0 350.0 
136.00010179366993 37466.0 1302.0 1456.4588910133843 0.49928840094648963 494.0 6.0 354.0 
138.00010179366993 37463.0 1302.0 1453.4684512428294 0.49937724039509224 494.0 6.0 353.0 
140.00010179366993 37506.0 1303.0 1453.5066921606126 0.5008709068510763 493.0 9.0 350.0 
142.00010179366993 37464.0 1302.0 1453.4276609305293 0.49904795075665975 496.0 6.0 353.0 
144.00010179366993 37474.0 1302.0 1453.5449330783943 0.49902626316480964 495.0 6.0 353.0 
146.00010179366993 37474.0 1302.0 1450.521351179096 0.49896790481009196 490.0 9.0 349.0 
148.00010179366993 37474.0 1302.0 1450.572339069471 0.49908636007934254 493.0 6.0 352.0 
150.00009170082765 37465.0 1302.0 1447.5436583811345 0.49895035497010987 493.0 6.0 351.0 
152.00009170082765 37506.0 1303.0 1444.7265774378573 0.5009965246091654 489.0 9.0 347.0 
154.00009170082765 37500.0 1303.0 1444.6042065009572 0.5005038343132531 489.0 6.0 350.0 
156.00009170082765 37490.0 1302.0 1447.6532823454431 0.5000662106791038 489.0 6.0 351.0 
158.00009170082765 37488.0 1302.0 1450.516252390058 0.49935355292728156 490.0 9.0 349.0 
160.00009170082765 37472.0 1302.0 1450.5901848311016 0.4992490882831555 493.0 6.0 352.0 
162.00009170082765 37464.0 1302.0 1450.528999362652 0.49911735789057815 493.0 6.0 352.0 
164.00009170082765 37462.0 1302.0 1453.5372848948377 0.49905904631626546 490.0 9.0 350.0 
166.00009170082765 37481.0 1303.0 1453.491395793498 0.4998346909752145 493.0 6.0 353.0 
168.00009170082765 37660.0 1304.0 1456.5277246653932 0.5034512127071242 493.0 5.0 355.0 
170.00009170082765 37394.0 1301.0 1459.3448056086688 0.499194868913913 493.0 5.0 356.0 
172.00009170082765 37388.0 1301.0 1459.4365838113451 0.4990470576777165 491.0 5.0 356.0 
174.00009170082765 37388.0 1301.0 1462.2995538559576 0.49940273635923504 488.0 7.0 355.0 
176.00009170082765 37386.0 1301.0 1459.4161886551958 0.49901504316574136 490.0 5.0 356.0 
178.00009170082765 37386.0 1301.0 1459.3167622689605 0.4993525041768662 489.0 7.0 354.0 
180.00009170082765 37420.0 1303.0 1459.3779477374105 0.5011466527280949 492.0 5.0 356.0 
182.00009170082765 37388.0 1302.0 1459.3702995538547 0.4990538172499005 492.0 5.0 356.0 
184.00009170082765 37392.0 1303.0 1462.355640535372 0.4993409517063845 491.0 6.0 356.0 
186.00009170082765 37403.0 1304.0 1459.4008922880832 0.5010200743050716 491.0 5.0 356.0 
188.00009170082765 37406.0 1302.0 1465.3205863607384 0.502781357131243 491.0 5.0 358.0 
190.00009170082765 37298.0 1302.0 1459.3397068196289 0.50265210361742 491.0 5.0 356.0 
192.00009170082765 37150.0 1301.0 1459.3702995538545 0.4992496152690627 491.0 5.0 356.0 
194.00009170082765 37150.0 1301.0 1462.2766093052892 0.49977771638345236 491.0 5.0 357.0 
196.00009170082765 37136.0 1301.0 1462.3173996175915 0.4992807842285973 491.0 5.0 357.0 
198.00009170082765 37137.0 1301.0 1462.2332695984712 0.5048269381065595 491.0 5.0 357.0 
200.00009170082765 36659.0 1299.0 1462.3530911408532 0.5013088215814899 492.0 5.0 357.0 
202.00009170082765 36622.0 1298.0 1459.3957934990428 0.4994607452824485 489.0 5.0 356.0 
204.00009170082765 36623.0 1299.0 1459.4187380497112 0.5020443404637116 486.0 5.0 356.0 
206.00009170082765 36644.0 1298.0 1456.4767367750148 0.49852198996537395 486.0 5.0 355.0 
208.00009170082765 36744.0 1300.0 1456.4206500956016 0.5015509356948874 486.0 5.0 355.0 
210.00009170082765 36581.0 1299.0 1453.4684512428287 0.49891916161036365 488.0 5.0 354.0 
212.00009170082765 36587.0 1299.0 1453.42766093053 0.498856972707117 487.0 5.0 354.0 
214.00009170082765 36619.0 1300.0 1456.3288718929257 0.49970154463648586 487.0 5.0 355.0 
216.00009170082765 36600.0 1299.0 1450.4576163161244 0.5000636120399417 487.0 5.0 353.0 
218.00009170082765 36584.0 1299.0 1447.5283620140199 0.5016263809891188 484.0 5.0 352.0 
220.00009170082765 36415.0 1298.0 1450.4601657106446 0.49922984027192213 482.0 5.0 353.0 
222.00009170082765 36421.0 1299.0 1453.3945188017856 0.499854613107072 482.0 5.0 354.0 
224.00009170082765 36418.0 1299.0 1453.4302103250468 0.503402793461843 483.0 5.0 354.0 
226.00009170082765 36210.0 1297.0 1453.437858508603 0.4993393661964343 481.0 5.0 354.0 
228.00009170082765 36204.0 1297.0 1456.3671128107064 0.49940309022838947 481.0 5.0 355.0 
230.00009170082765 36197.0 1297.0 1456.3543658381143 0.4992905423348874 480.0 5.0 355.0 
232.00009170082765 36202.0 1297.0 1459.3142128744435 0.49936449679115485 480.0 5.0 356.0 
234.00009170082765 36194.0 1297.0 1459.2734225621427 0.5020356219792449 481.0 5.0 356.0 
236.00009170082765 36167.0 1298.0 1456.3263224984053 0.5078214261914661 486.0 5.0 355.0 
238.00009170082765 36008.0 1295.0 1453.3180369662216 0.4991710776949163 485.0 6.0 353.0 
240.00009170082765 36009.0 1295.0 1453.353728489483 0.49959857614838765 482.0 7.0 352.0 
242.00009170082765 36059.0 1297.0 1453.3792224346732 0.5014669730928506 484.0 6.0 353.0 
244.00009170082765 36053.0 1295.0 1453.465901848312 0.5000731585214223 487.0 6.0 353.0 
246.00009170082765 36059.0 1295.0 1453.3792224346732 0.49913643920895073 485.0 8.0 351.0 
248.00009170082765 36067.0 1295.0 1447.5436583811338 0.49914721746669327 484.0 7.0 350.0 
250.00009170082765 36071.0 1295.0 1447.5156150414289 0.5015694314219067 483.0 8.0 349.0 
252.00009170082765 35912.0 1294.0 1444.6577437858514 0.4991700795411428 483.0 8.0 348.0 
254.00009170082765 35910.0 1294.0 1444.624601657105 0.49974341716238513 484.0 7.0 349.0 
256.0000917008277 35850.0 1294.0 1438.7584448693447 0.502244529431315 484.0 7.0 347.0 
258.0000917008277 35746.0 1293.0 1438.6564690885928 0.49921631909147995 482.0 7.0 347.0 
260.0000917008277 35746.0 1293.0 1432.8999362651366 0.4991232458189465 479.0 10.0 342.0 
262.0000917008277 35764.0 1293.0 1426.9521988527736 0.4997703140465639 477.0 9.0 341.0 
264.0000917008277 35741.0 1294.0 1438.78903760357 0.5017534324163451 479.0 8.0 346.0 
266.0000917008277 35672.0 1293.0 1438.7202039515635 0.4992017412015314 476.0 7.0 347.0 
268.0000917008277 35671.0 1293.0 1435.8572339069456 0.49927522545085706 473.0 10.0 343.0 
270.0000917008277 35738.0 1295.0 1438.78648820905 0.5037777690862053 474.0 8.0 346.0 
272.0000917008277 35584.0 1293.0 1438.8170809432747 0.5015384268599844 474.0 8.0 346.0 
274.0000917008277 35429.0 1292.0 1438.7074569789663 0.4992973445954508 474.0 7.0 347.0 
276.0000917008277 35433.0 1293.0 1438.814531548756 0.500990240221639 471.0 11.0 343.0 
278.0000917008277 35352.0 1293.0 1441.5882727852127 0.5044309152389203 473.0 9.0 346.0 
280.0000917008277 35222.0 1291.0 1438.7355003186758 0.5020005620693272 477.0 8.0 346.0 
282.0000917008277 35095.0 1290.0 1435.7374123645648 0.49942845451367956 479.0 6.0 347.0 
284.0000917008277 35086.0 1290.0 1435.867431485023 0.5024348989893384 477.0 10.0 343.0 
286.0000917008277 34915.0 1289.0 1435.7425111536022 0.49960576188046996 478.0 8.0 345.0 
288.0000917008277 34916.0 1290.0 1435.7833014659027 0.4988825281015413 480.0 7.0 346.0 
290.0000917008277 34916.0 1290.0 1435.673677501594 0.49923196911364026 480.0 6.0 347.0 
292.0000917008277 35057.0 1292.0 1435.7578075207146 0.50205414376295 477.0 10.0 343.0 
294.0000917008277 35005.0 1291.0 1432.8056086679405 0.4991912115224007 476.0 8.0 344.0 
296.0000917008277 34990.0 1291.0 1426.9878903760355 0.49908133155359763 478.0 7.0 343.0 
298.0000917008277 34981.0 1291.0 1429.8942001274695 0.4991315708829408 477.0 6.0 345.0 
300.0000917008277 34972.0 1291.0 1430.001274697259 0.49926560446016155 475.0 10.0 341.0 
302.0000917008277 34939.0 1291.0 1421.1089866156788 0.5025240885369489 473.0 9.0 339.0 
304.0000917008277 34782.0 1290.0 1424.0611854684503 0.5055575429790103 470.0 8.0 341.0 
306.0000917008277 34650.0 1289.0 1441.6341618865504 0.5014001342153226 472.0 8.0 347.0 
308.0000917008277 34593.0 1288.0 1441.65965583174 0.502506520669863 473.0 11.0 344.0 
310.0000917008277 34567.0 1287.0 1438.6794136392605 0.5017772789853647 473.0 10.0 344.0 
312.0000917008277 34550.0 1286.0 1432.8667941363926 0.4991708061810321 476.0 7.0 345.0 
314.0000917008277 34572.0 1286.0 1429.8355640535385 0.49916181131286286 474.0 7.0 344.0 
316.0000917008277 34576.0 1286.0 1429.9885277246658 0.4991727694221167 472.0 10.0 341.0 
318.0000917008277 34584.0 1286.0 1432.8489483747617 0.4993161573489394 473.0 9.0 343.0 
320.0000917008277 34585.0 1286.0 1432.940726577439 0.4992773823252807 475.0 7.0 345.0 
322.0000917008277 34582.0 1286.0 1432.8387507966868 0.49942274727306574 475.0 7.0 345.0 
324.00010179366996 34599.0 1288.0 1432.9611217335869 0.5017811974926896 471.0 10.0 342.0 
326.00010179366996 34568.0 1286.0 1429.9145952836197 0.5018599045201352 470.0 9.0 342.0 
328.00010179366996 34504.0 1286.0 1429.8687061822818 0.5027452669166215 474.0 7.0 344.0 
330.00010179366996 34413.0 1285.0 1429.7947737412362 0.499545578861074 474.0 7.0 344.0 
332.00010179366996 34450.0 1286.0 1429.9324410452505 0.5013977353531055 471.0 10.0 341.0 
334.00010179366996 34401.0 1285.0 1429.8942001274695 0.4991831501559753 472.0 9.0 342.0 
336.0000336312693 34461.0 1285.0 1429.9936265137028 0.4996209031991022 476.0 7.0 344.0 
338.0000336312693 34488.0 1286.0 1429.9477374123635 0.5039319464997268 478.0 7.0 344.0 
340.0000336312693 34324.0 1284.0 1427.0898661567878 0.5030020848402126 475.0 10.0 340.0 
342.0000336312693 34202.0 1283.0 1427.0235818992987 0.49990508762891234 475.0 9.0 341.0 
344.0000336312693 34196.0 1283.0 1429.9400892288072 0.49919492926593356 478.0 7.0 344.0 
346.0000336312693 34196.0 1283.0 1421.0452517527083 0.49917061520440387 477.0 7.0 341.0 
348.0000336312693 34196.0 1283.0 1421.12683237731 0.49953328199474767 473.0 10.0 338.0 
350.0000336312693 34193.0 1283.0 1426.9420012746964 0.4992157116621517 475.0 9.0 341.0 
352.0000336312693 34234.0 1284.0 1424.033142128746 0.5008221341334228 479.0 7.0 342.0 
354.0000336312693 34134.0 1285.0 1423.9974506054816 0.5011276096276749 479.0 7.0 342.0 
356.0000336312693 34080.0 1283.0 1424.0509878903758 0.4991579761521382 476.0 10.0 339.0 
358.0000336312693 34079.0 1283.0 1423.9515615041419 0.5000675941826401 475.0 9.0 340.0 
360.0000336312693 34070.0 1283.0 1421.0987890376027 0.4991022706837023 478.0 7.0 341.0 
362.0000336312693 34118.0 1284.0 1412.252390057363 0.500789566263326 479.0 7.0 338.0 
364.0000336312693 34076.0 1283.0 1406.495857233906 0.49908700919359444 475.0 10.0 333.0 
366.0000336312693 34080.0 1283.0 1403.42383683875 0.49921576602007445 474.0 9.0 333.0 
368.0000336312693 34133.0 1284.0 1400.4920331421279 0.5006639450840308 477.0 7.0 334.0 
370.0000336312693 34116.0 1283.0 1409.3256851497765 0.4989566791853443 477.0 7.0 337.0 
372.0000336312693 34122.0 1283.0 1412.369662205228 0.49940530186113574 474.0 10.0 335.0 
374.0000336312693 34120.0 1284.0 1409.3231357552586 0.5011774782369186 476.0 9.0 335.0 
376.0000336312693 34098.0 1283.0 1409.3256851497765 0.4989894261801561 479.0 7.0 337.0 
378.0000336312693 34241.0 1284.0 1406.3275971956657 0.5008631567216341 480.0 7.0 336.0 
380.0000336312693 34196.0 1283.0 1409.3435309114086 0.49965288268765945 475.0 10.0 334.0 
382.0000336312693 34133.0 1283.0 1406.3046526449968 0.5011223815402673 478.0 9.0 334.0 
384.0000336312693 34087.0 1283.0 1400.5761631612495 0.49946257881276507 482.0 7.0 334.0 
386.0000336312693 34094.0 1283.0 1394.7151051625226 0.5008947125521804 481.0 7.0 332.0 
388.0000336312693 34111.0 1285.0 1391.788400254939 0.5014648471601016 477.0 9.0 329.0 
390.0000336312693 34067.0 1284.0 1394.722753346079 0.4993451078081729 476.0 9.0 330.0 
392.0000336312693 34086.0 1285.0 1388.8999362651366 0.5012102976954012 477.0 7.0 330.0 
394.0000336312693 33984.0 1284.0 1391.8138942001294 0.49891008163118195 474.0 7.0 331.0 
396.0000336312693 33984.0 1284.0 1391.8572339069449 0.4990860520888264 471.0 7.0 331.0 
398.0000336312693 33986.0 1284.0 1391.6660293180362 0.4994149597794188 471.0 7.0 331.0 
400.0000336312693 33980.0 1284.0 1385.9273422562162 0.4993118206980326 471.0 7.0 329.0 
402.0000336312693 34026.0 1285.0 1388.8005098789029 0.5012518100615115 470.0 7.0 330.0 
404.0000336312693 33940.0 1284.0 1391.8470363288716 0.5022775281289161 472.0 7.0 331.0 
406.0000336312693 33864.0 1283.0 1406.4525175270862 0.498863887504324 475.0 7.0 336.0 
408.0000336312693 33859.0 1283.0 1412.4461440407904 0.49919559743753017 485.0 7.0 338.0 
410.0000336312693 33915.0 1284.0 1409.3231357552586 0.5030294743028427 485.0 7.0 337.0 
412.0000336312693 33869.0 1282.0 1406.5188017845744 0.49875656927783757 485.0 8.0 335.0 
414.0000336312693 33872.0 1282.0 1403.543658381136 0.4987071059202538 485.0 8.0 334.0 
416.0000336312693 33872.0 1282.0 1397.6622052262578 0.5007032787754001 485.0 8.0 332.0 
418.0000336312693 33738.0 1281.0 1400.545570427025 0.5008869227487219 484.0 8.0 333.0 
420.0000336312693 33749.0 1283.0 1397.680050987891 0.4998638069543825 483.0 10.0 330.0 
422.0000336312693 33735.0 1282.0 1391.7578075207146 0.49877891407583635 482.0 9.0 329.0 
424.0000336312693 33735.0 1282.0 1400.6449968132567 0.49872955674686875 481.0 8.0 333.0 
426.0000336312693 33752.0 1282.0 1403.5181644359473 0.499260069776544 481.0 9.0 333.0 
428.0000336312693 33897.0 1283.0 1403.5971956660285 0.5014749058407549 476.0 13.0 329.0 
430.0000336312693 33858.0 1283.0 1400.5914595283623 0.5021236147613151 477.0 11.0 330.0 
432.0000336312693 33771.0 1283.0 1415.3269598470365 0.5040623476089497 480.0 11.0 335.0 
434.0000336312693 33697.0 1281.0 1415.2759719566595 0.49857801625712767 482.0 11.0 335.0 
436.0000336312693 33730.0 1282.0 1415.2912683237732 0.498890676841746 479.0 13.0 333.0 
438.0000336312693 33735.0 1282.0 1415.219885277246 0.4993170743862412 481.0 10.0 336.0 
440.0000336312693 33734.0 1282.0 1415.1816443594648 0.49880396585940767 481.0 11.0 335.0 
442.0000336312693 33736.0 1282.0 1426.8884639898024 0.4990886555909542 482.0 11.0 339.0 
444.0000336312693 33736.0 1283.0 1424.076481835562 0.5002450314183674 483.0 12.0 337.0 
446.0000336312693 33728.0 1282.0 1429.934990439772 0.4990538241690437 487.0 11.0 340.0 
448.0000336312693 33750.0 1282.0 1429.9681325685146 0.49922641673619245 488.0 10.0 341.0 
450.0000336312693 33789.0 1282.0 1432.8744423199505 0.5016369440849116 487.0 10.0 342.0 
452.0000336312693 33772.0 1283.0 1435.841937539833 0.5050100853535131 488.0 11.0 342.0 
454.0000336312693 33561.0 1283.0 1435.7195666029331 0.5013202654397436 490.0 9.0 344.0 
456.0000336312693 33588.0 1282.0 1438.7456978967477 0.5017353298379029 489.0 10.0 344.0 
458.0000336312693 33559.0 1281.0 1438.625876354366 0.49919349552244713 487.0 10.0 344.0 
460.0000336312693 33556.0 1281.0 1438.7355003186744 0.4989247122429808 486.0 11.0 343.0 
462.0000336312693 33575.0 1283.0 1438.625876354366 0.49931847259657747 487.0 9.0 345.0 
464.0000336312693 33631.0 1284.0 1438.7176545570442 0.5020136422524715 487.0 10.0 344.0 
466.0000336312693 33597.0 1283.0 1438.6896112173363 0.5006019932868399 487.0 10.0 344.0 
468.0000336312693 33628.0 1283.0 1435.8623326959844 0.49896370508939114 486.0 11.0 342.0 
470.0000336312693 33646.0 1284.0 1438.743148502231 0.49887614845447104 488.0 9.0 345.0 
472.0000336312693 33719.0 1284.0 1432.9356277883996 0.498840518235497 486.0 10.0 342.0 
474.0000336312693 33875.0 1288.0 1430.014021669853 0.5014211608388243 484.0 10.0 341.0 
476.0000336312693 33873.0 1285.0 1427.066921606117 0.5009530364533283 484.0 11.0 339.0 
478.0000336312693 33892.0 1286.0 1424.0866794136402 0.4988716455235576 485.0 8.0 341.0 
480.0000336312693 33894.0 1286.0 1421.1905672402816 0.4991002910489147 488.0 5.0 343.0 
482.0000336312693 33921.0 1286.0 1421.1242829827918 0.498398928403793 484.0 5.0 343.0 
484.0000336312693 33969.0 1287.0 1415.265774378587 0.49974793780131893 483.0 6.0 340.0 
486.0000336312693 33965.0 1288.0 1415.2122370936902 0.49945846206473477 483.0 5.0 341.0 
488.0000336312693 33962.0 1288.0 1412.303377947735 0.4987446732177732 482.0 5.0 340.0 
490.0000336312693 33962.0 1288.0 1412.3161249203313 0.498497609068299 483.0 5.0 340.0 
492.0000336312693 33962.0 1288.0 1403.561504142766 0.5013397097624432 484.0 5.0 337.0 
494.0000336312693 33929.0 1288.0 1397.6163161249215 0.5015527011553252 479.0 6.0 334.0 
496.0000336312693 33914.0 1286.0 1397.728489483746 0.5001980667543441 477.0 7.0 333.0 
498.0000336312693 33900.0 1286.0 1397.6800509878906 0.4986062984609131 478.0 6.0 334.0 
500.0000336312693 33901.0 1286.0 1403.6073932441032 0.4986472713140444 479.0 6.0 336.0 
502.0000336312693 34005.0 1287.0 1400.683237731038 0.5001459476455867 479.0 7.0 334.0 
504.0000336312693 33980.0 1286.0 1397.7157425111552 0.4985544432678066 480.0 5.0 335.0 
506.0000336312693 33978.0 1286.0 1403.5003186743163 0.4989611423913373 480.0 7.0 335.0 
508.0000336312693 33975.0 1287.0 1406.4703632887195 0.49860000629540424 477.0 10.0 333.0 
510.0000336312693 33975.0 1287.0 1406.4703632887195 0.49857937774932715 480.0 8.0 335.0 
512.0000336312693 34102.0 1288.0 1400.6577437858514 0.49891369455822715 477.0 10.0 331.0 
514.0000336312693 34128.0 1290.0 1394.7890376035682 0.5011524952255058 477.0 8.0 331.0 
516.0000336312693 34049.0 1290.0 1391.8648820905044 0.5000855544298847 477.0 5.0 333.0 
518.0000336312693 34052.0 1290.0 1391.8138942001297 0.4989394119153198 478.0 5.0 333.0 
520.0000336312693 34060.0 1290.0 1383.1204588910139 0.500757148250153 475.0 7.0 328.0 
522.0000336312693 34018.0 1289.0 1383.033779477374 0.4985631562809889 470.0 10.0 325.0 
524.0000336312693 34079.0 1290.0 1385.9808795411097 0.4992020131413698 473.0 6.0 330.0 
526.0000336312693 34029.0 1290.0 1385.9426386233285 0.5020983930199224 473.0 8.0 328.0 
528.0000336312693 33968.0 1289.0 1391.796048438495 0.499312617266682 473.0 7.0 331.0 
530.0000336312693 33989.0 1290.0 1380.0509878903754 0.49993200382711617 476.0 5.0 329.0 
532.0000336312693 33978.0 1289.0 1380.1376673040154 0.49833588052251193 476.0 7.0 327.0 
534.0000336312693 34024.0 1289.0 1380.0892288081586 0.4984689024356123 473.0 8.0 326.0 
536.0000336312693 34045.0 1290.0 1383.1128107074574 0.49886592555839065 471.0 10.0 325.0 
538.0000336312693 34044.0 1290.0 1388.910133843211 0.4997225535784434 474.0 7.0 330.0 
540.0000336312693 33940.0 1290.0 1388.9789674952208 0.5007976263866287 476.0 6.0 331.0 
542.0000336312693 33910.0 1289.0 1394.8374760994268 0.4987178212196742 477.0 7.0 332.0 
544.0000336312693 33906.0 1289.0 1397.7922243467171 0.498632204011186 477.0 7.0 333.0 
546.0000336312693 33910.0 1289.0 1394.8502230720217 0.49960647843982126 479.0 5.0 334.0 
548.0000336312693 33832.0 1289.0 1391.8878266411734 0.5005611749638126 477.0 8.0 330.0 
550.0000336312693 33794.0 1289.0 1388.8183556405352 0.500576073353739 476.0 9.0 328.0 
552.0000336312693 33742.0 1288.0 1388.8514977692776 0.5010141579221911 476.0 9.0 328.0 
554.0000336312693 33646.0 1287.0 1391.8368387507983 0.5042130759920391 480.0 5.0 333.0 
556.0000336312693 33593.0 1286.0 1385.9757807520723 0.4997301559435441 479.0 6.0 330.0 
558.0000336312693 33715.0 1289.0 1385.8891013384323 0.49785477263057004 478.0 5.0 331.0 
560.0000336312693 33887.0 1291.0 1386.0573613766712 0.5020512602202838 473.0 7.0 329.0 
562.0000336312693 33829.0 1290.0 1388.905035054174 0.4986530696494498 475.0 6.0 331.0 
564.0000336312693 33902.0 1291.0 1391.8929254302109 0.499925502624848 475.0 6.0 332.0 
566.0000336312693 33864.0 1290.0 1388.8260038240896 0.4989366948838483 475.0 6.0 331.0 
568.0000336312693 33856.0 1290.0 1394.720203951563 0.4990698695998972 482.0 6.0 333.0 
570.0000336312693 33881.0 1290.0 1400.5277246653916 0.5027348277354937 484.0 5.0 336.0 
572.0000336312693 34020.0 1291.0 1406.546845124282 0.5021663716576336 485.0 6.0 337.0 
574.0000336312693 33978.0 1290.0 1409.3409815168884 0.5010408947005829 481.0 10.0 334.0 
576.0000336312693 33928.0 1289.0 1409.453154875718 0.49923084353741515 483.0 7.0 337.0 
578.0000336312693 33990.0 1290.0 1406.4219247928609 0.4988845610942957 485.0 6.0 337.0 
580.0000336312693 34108.0 1291.0 1406.485659655832 0.49884683647199307 482.0 6.0 337.0 
582.0000336312693 34270.0 1293.0 1409.3384321223707 0.5024347590664447 484.0 6.0 338.0 
584.0000336312693 34407.0 1293.0 1415.329509241554 0.5043336940532082 488.0 6.0 340.0 
586.0000336312693 34226.0 1293.0 1409.3741236456344 0.5044513151877595 490.0 6.0 338.0 
588.0000336312693 34137.0 1290.0 1412.3339706819643 0.4987358150899524 490.0 6.0 339.0 
590.0000336312693 34229.0 1292.0 1418.177182919058 0.5010435047477035 494.0 7.0 340.0 
592.0000336312693 34209.0 1292.0 1418.2460165710634 0.5007838923239782 497.0 6.0 341.0 
594.0000336312693 34232.0 1292.0 1421.124282982793 0.4993026215123529 498.0 6.0 342.0 
596.0000336312693 34230.0 1292.0 1421.0885914595292 0.4987527400098357 499.0 5.0 343.0 
598.0000336312693 34244.0 1293.0 1423.9872530274047 0.49940423372590304 497.0 6.0 343.0 
600.0000336312693 34382.0 1294.0 1427.0286806883355 0.5019646669758072 499.0 6.0 344.0 
602.0000336312693 34434.0 1294.0 1423.9566602931802 0.49881573209724545 499.0 7.0 342.0 
604.0000336312693 34526.0 1296.0 1438.804333970684 0.5004707731333419 500.0 6.0 348.0 
606.0000336312693 34527.0 1295.0 1435.701720841299 0.5004236854590486 498.0 6.0 347.0 
608.0000336312693 34562.0 1296.0 1438.6717654557035 0.5031843709706516 501.0 5.0 349.0 
610.0000336312693 34468.0 1295.0 1438.6437221159983 0.49933777628117587 499.0 7.0 347.0 
612.0000336312693 34462.0 1295.0 1435.8087954110902 0.49899610606176775 498.0 7.0 346.0 
614.0000336312693 34470.0 1295.0 1435.694072657743 0.4990580205031952 496.0 7.0 346.0 
616.0000336312693 34501.0 1296.0 1435.8215423836855 0.5005534519008157 495.0 7.0 346.0 
618.0000336312693 34561.0 1296.0 1438.6666666666672 0.49935038287637445 493.0 9.0 345.0 
620.0000336312693 34550.0 1296.0 1447.6022944550682 0.501309664355816 494.0 10.0 347.0 
622.0000336312693 34634.0 1296.0 1447.515615041429 0.5006129062837347 492.0 11.0 346.0 
624.0000336312693 34608.0 1295.0 1447.5538559592096 0.5003045356989215 492.0 12.0 345.0 
626.0000336312693 34639.0 1295.0 1447.4926704907598 0.4989094778356855 493.0 11.0 346.0 
628.0000336312693 34746.0 1296.0 1450.5188017845744 0.5024705274469305 495.0 9.0 349.0 
630.0000336312693 34577.0 1295.0 1447.5538559592096 0.49979202635808273 495.0 11.0 346.0 
632.0000336312693 34564.0 1295.0 1456.4410452517532 0.4999916119199616 498.0 9.0 351.0 
634.0000336312693 34560.0 1295.0 1453.3868706182295 0.4993307556103826 503.0 9.0 350.0 
636.0000336312693 34556.0 1295.0 1453.4735500318698 0.4992664109024467 506.0 9.0 350.0 
638.0000336312693 34557.0 1295.0 1450.3887826641187 0.49969953830541225 506.0 9.0 349.0 
640.0000336312693 34538.0 1295.0 1447.6252390057377 0.5019450128276095 502.0 8.0 349.0 
642.0000336312693 34396.0 1294.0 1444.6832377310386 0.49953117981262296 499.0 8.0 348.0 
644.0000336312693 34386.0 1294.0 1450.5264499681302 0.4995761555936273 499.0 8.0 350.0 
646.0000336312693 34382.0 1294.0 1450.4678138942004 0.49995796946805876 495.0 11.0 347.0 
648.0000336312693 34345.0 1294.0 1450.5060548119834 0.5081661399152623 495.0 8.0 350.0 
650.0000336312693 34093.0 1291.0 1447.4977692797947 0.49952959731864577 494.0 9.0 348.0 
652.0000336312693 34086.0 1291.0 1462.3046526449982 0.49967145177656835 492.0 10.0 352.0 
654.0000336312693 34122.0 1292.0 1462.2689611217324 0.5008233917758179 490.0 10.0 352.0 
656.0000336312693 34048.0 1291.0 1462.2893562778859 0.5015632861259722 488.0 11.0 351.0 
658.0000917008276 34042.0 1290.0 1462.2077756532829 0.4996768220468188 490.0 10.0 352.0 
660.0000917008276 34071.0 1291.0 1468.137667304014 0.5036346192166639 489.0 7.0 357.0 
662.0000917008276 33987.0 1292.0 1468.0331421287465 0.5066039181144559 489.0 9.0 355.0 
664.0000917008276 33895.0 1288.0 1468.1861057998708 0.5017941716079156 489.0 9.0 355.0 
#####################################################################
# End of data export. Simulation finished at: 2019-03-13T11:04+0000 #
#####################################################################
