#####################################################################
# Alchemist log file - simulation started at: 2019-03-08T14:20+0000 #
#####################################################################
# seed = 7.0, bandwidth = 1333521.4321633242, accessPointCount = 37.60603093086394, baserange = 56.234132519034915
#
# The columns have the following meaning: 
# time neighbor_count[Sum] <value>@neighbor_count[Sum] packet_size[Mean] mean_delay[Mean] crowd[Sum] overcrowded[Sum] risk[Sum] 
0.0 NaN NaN NaN NaN NaN NaN NaN 
2.00001068303238 20.0 10.0 4987.577574967406 0.464278184285697 1497.0 0.0 1497.0 
4.0000106830323805 28.0 10.0 4987.655801825294 0.4649332384199716 1497.0 0.0 1497.0 
6.00001068303238 43.0 10.0 4987.61668839635 0.45913108383429513 1497.0 0.0 1497.0 
8.00001068303238 45.0 10.0 4987.661016949152 0.45888190964582687 1497.0 0.0 1497.0 
10.00001068303238 48.0 10.0 4987.627118644068 0.4688185127250046 1497.0 0.0 1497.0 
12.00001068303238 48.0 10.0 4987.621903520208 0.4688205432077866 1497.0 0.0 1497.0 
14.00001068303238 48.0 10.0 4987.554106910039 0.46884352458109396 1497.0 0.0 1497.0 
16.00001068303238 48.0 10.0 4987.569752281616 0.46884555506387615 1497.0 0.0 1497.0 
18.00001068303238 48.0 10.0 4987.54889178618 0.4688504005341519 1497.0 0.0 1497.0 
20.00001068303238 48.0 10.0 4987.569752281616 0.4688464780105952 1497.0 0.0 1497.0 
22.00001068303238 48.0 10.0 4987.54889178618 0.4688504005341519 1497.0 0.0 1497.0 
24.00001068303238 48.0 10.0 4987.569752281616 0.4688464780105952 1497.0 0.0 1497.0 
26.00001068303238 48.0 10.0 4987.54889178618 0.4688504005341519 1497.0 0.0 1497.0 
28.00001068303238 48.0 10.0 4987.569752281616 0.4688464780105952 1497.0 0.0 1497.0 
30.00001068303238 48.0 10.0 4987.54889178618 0.4688504005341519 1497.0 0.0 1497.0 
32.00001068303238 48.0 10.0 4987.569752281616 0.4688464780105952 1497.0 0.0 1497.0 
34.000010683032386 48.0 10.0 4987.54889178618 0.4688504005341502 1497.0 0.0 1497.0 
36.000010683032386 48.0 10.0 4987.569752281616 0.4688464780105941 1497.0 0.0 1497.0 
38.000010683032386 48.0 10.0 4987.54889178618 0.4688504005341502 1497.0 0.0 1497.0 
40.000010683032386 48.0 10.0 4987.569752281616 0.4688464780105941 1497.0 0.0 1497.0 
42.000010683032386 48.0 10.0 4987.54889178618 0.4688504005341502 1497.0 0.0 1497.0 
44.000010683032386 48.0 10.0 4987.569752281616 0.4688464780105941 1497.0 0.0 1497.0 
46.000010683032386 48.0 10.0 4987.54889178618 0.4688504005341502 1497.0 0.0 1497.0 
48.000010683032386 48.0 10.0 4987.569752281616 0.4688464780105941 1497.0 0.0 1497.0 
50.000010683032386 48.0 10.0 4987.54889178618 0.4688504005341502 1497.0 0.0 1497.0 
52.000010683032386 48.0 10.0 4987.569752281616 0.4688464780105941 1497.0 0.0 1497.0 
54.000010683032386 48.0 10.0 4987.54889178618 0.4688504005341502 1497.0 0.0 1497.0 
56.000010683032386 48.0 10.0 4987.569752281616 0.4688464780105941 1497.0 0.0 1497.0 
58.000010683032386 48.0 10.0 4987.54889178618 0.4688504005341502 1497.0 0.0 1497.0 
60.000010683032386 48.0 10.0 4987.569752281616 0.4688464780105941 1497.0 0.0 1497.0 
62.000820081749154 48.0 10.0 414.9856584093872 0.4751872373396908 9.0 0.0 5.0 
64.00082008174915 48.0 10.0 414.9856584093872 0.4754518923114153 8.0 0.0 5.0 
66.00029741811947 48.0 10.0 414.9856584093872 0.47545189231141494 8.0 0.0 5.0 
68.00082008174915 48.0 10.0 414.9856584093872 0.47545189231141494 8.0 0.0 5.0 
70.00082008174915 48.0 10.0 414.9856584093872 0.47545189231141494 8.0 0.0 5.0 
72.00082008174915 50.0 11.0 414.9856584093872 0.478684978978728 8.0 0.0 5.0 
74.00082008174915 50.0 11.0 414.9856584093872 0.478684978978728 8.0 0.0 5.0 
76.00029741811947 50.0 11.0 414.9856584093872 0.478684978978728 8.0 0.0 5.0 
78.00082008174915 50.0 11.0 414.9856584093872 0.478684978978728 8.0 0.0 5.0 
80.00082008174915 50.0 11.0 414.9856584093872 0.478684978978728 8.0 0.0 5.0 
82.00082008174915 50.0 11.0 414.9856584093872 0.7453516456453947 8.0 0.0 5.0 
84.00082008174915 48.0 10.0 414.9856584093872 0.47545189231141494 8.0 0.0 5.0 
86.00029741811947 48.0 10.0 414.9856584093872 0.47545189231141494 8.0 0.0 5.0 
88.00082008174915 48.0 10.0 414.9856584093872 0.47545189231141494 8.0 0.0 5.0 
90.00082008174915 48.0 10.0 414.9856584093872 0.47545189231141494 8.0 0.0 5.0 
92.00082008174915 48.0 10.0 414.9856584093872 0.47545189231141494 8.0 0.0 5.0 
94.00082008174915 48.0 10.0 414.9856584093872 0.47545189231141494 8.0 0.0 5.0 
96.00029741811947 48.0 10.0 414.9856584093872 0.47545189231141494 8.0 0.0 5.0 
98.00082008174915 48.0 10.0 414.9856584093872 0.47545189231141494 8.0 0.0 5.0 
100.00082008174915 48.0 10.0 414.9856584093872 0.47545189231141494 8.0 0.0 5.0 
102.00082008174915 48.0 10.0 414.9856584093872 0.47545189231141494 8.0 0.0 5.0 
104.00082008174915 48.0 10.0 414.9856584093872 0.47545189231141494 8.0 0.0 5.0 
106.00029741811947 48.0 10.0 414.9856584093872 0.47545189231141494 8.0 0.0 5.0 
108.00082008174915 48.0 10.0 414.9856584093872 0.47545189231141494 8.0 0.0 5.0 
110.00082008174915 48.0 10.0 414.9856584093872 0.47545189231141494 8.0 0.0 5.0 
112.00082008174915 48.0 10.0 414.9856584093872 0.47545189231141494 8.0 0.0 5.0 
114.00082008174915 48.0 10.0 414.9856584093872 0.47545189231141494 8.0 0.0 5.0 
116.00029741811947 48.0 10.0 414.9856584093872 0.47545189231141494 6.0 0.0 5.0 
118.00082008174915 48.0 10.0 414.9856584093872 0.47545189231141494 6.0 0.0 5.0 
120.00082008174915 48.0 10.0 414.9856584093872 0.47545189231141494 6.0 0.0 5.0 
122.00082008174915 48.0 10.0 414.9856584093872 0.47545189231141494 6.0 0.0 5.0 
124.00082008174915 48.0 10.0 414.9856584093872 0.47545189231141494 6.0 0.0 5.0 
126.00029741811947 48.0 10.0 414.9856584093872 0.47545189231141494 6.0 0.0 5.0 
128.00082008174917 48.0 10.0 414.9856584093872 0.47545189231141494 6.0 0.0 5.0 
130.00082008174917 48.0 10.0 414.9856584093872 0.4754518923114221 6.0 0.0 5.0 
132.00082008174917 48.0 10.0 414.9856584093872 0.4754518923114221 6.0 0.0 5.0 
134.00082008174917 48.0 10.0 414.9856584093872 0.4754518923114221 6.0 0.0 5.0 
136.0002974181195 48.0 10.0 414.9856584093872 0.4754518923114221 6.0 0.0 5.0 
138.00082008174917 48.0 10.0 414.9856584093872 0.4754518923114221 6.0 0.0 5.0 
140.00082008174917 48.0 10.0 414.9856584093872 0.4754518923114221 6.0 0.0 5.0 
142.00082008174917 48.0 10.0 414.9856584093872 0.4754518923114221 6.0 0.0 5.0 
144.00082008174917 48.0 10.0 414.9856584093872 0.4754518923114221 6.0 0.0 5.0 
146.0002974181195 48.0 10.0 414.9856584093872 0.4754518923114221 6.0 0.0 5.0 
148.00082008174917 48.0 10.0 414.9856584093872 0.4754518923114221 6.0 0.0 5.0 
150.00082008174917 48.0 10.0 414.9856584093872 0.4754518923114221 6.0 0.0 5.0 
152.00082008174917 48.0 10.0 414.9856584093872 0.4754518923114221 6.0 0.0 5.0 
154.00082008174917 48.0 10.0 414.9856584093872 0.4754518923114221 6.0 0.0 5.0 
156.0002974181195 48.0 10.0 414.9856584093872 0.4754518923114221 6.0 0.0 5.0 
158.00082008174917 48.0 10.0 414.9856584093872 0.4754518923114221 6.0 0.0 5.0 
160.00082008174917 48.0 10.0 414.9856584093872 0.4754518923114221 6.0 0.0 5.0 
162.00082008174917 48.0 10.0 414.9856584093872 0.4754518923114221 6.0 0.0 5.0 
164.00082008174917 48.0 10.0 414.9856584093872 0.4754518923114221 6.0 0.0 5.0 
166.0002974181195 48.0 10.0 414.9856584093872 0.4754518923114221 6.0 0.0 5.0 
168.00082008174917 48.0 10.0 414.9856584093872 0.4754518923114221 6.0 0.0 5.0 
170.00082008174917 48.0 10.0 414.9856584093872 0.4754518923114221 6.0 0.0 5.0 
172.00082008174917 48.0 10.0 414.9856584093872 0.4754518923114221 6.0 0.0 5.0 
174.00082008174917 48.0 10.0 414.9856584093872 0.4754518923114221 6.0 0.0 5.0 
176.0002974181195 48.0 10.0 414.9856584093872 0.4754518923114221 6.0 0.0 5.0 
178.00082008174917 48.0 10.0 414.9856584093872 0.4754518923114221 6.0 0.0 5.0 
180.00082008174917 48.0 10.0 414.9856584093872 0.4754518923114221 6.0 0.0 5.0 
182.00082008174917 48.0 10.0 414.9856584093872 0.4754518923114221 6.0 0.0 5.0 
184.00082008174917 48.0 10.0 414.9856584093872 0.4754518923114221 6.0 0.0 5.0 
186.0002974181195 48.0 10.0 414.9856584093872 0.4754518923114221 6.0 0.0 5.0 
188.00082008174917 48.0 10.0 414.9856584093872 0.4754518923114221 6.0 0.0 5.0 
190.00082008174917 48.0 10.0 414.9856584093872 0.4754518923114221 6.0 0.0 5.0 
192.00082008174917 48.0 10.0 414.9856584093872 0.4754518923114221 6.0 0.0 5.0 
194.00082008174917 48.0 10.0 414.9856584093872 0.4754518923114221 6.0 0.0 5.0 
196.0002974181195 48.0 10.0 414.9856584093872 0.4754518923114221 6.0 0.0 5.0 
198.00082008174917 48.0 10.0 414.9856584093872 0.4754518923114221 6.0 0.0 5.0 
200.00082008174917 48.0 10.0 414.9856584093872 0.4754518923114221 6.0 0.0 5.0 
202.00082008174917 48.0 10.0 414.9856584093872 0.4754518923114221 6.0 0.0 5.0 
204.00082008174917 48.0 10.0 414.9856584093872 0.4754518923114221 6.0 0.0 5.0 
206.0002974181195 48.0 10.0 414.9856584093872 0.4754518923114221 6.0 0.0 5.0 
208.00082008174917 48.0 10.0 414.9856584093872 0.4754518923114221 6.0 0.0 5.0 
210.00082008174917 48.0 10.0 414.9856584093872 0.4754518923114221 6.0 0.0 5.0 
212.00082008174917 48.0 10.0 414.9856584093872 0.4754518923114221 6.0 0.0 5.0 
214.00082008174917 48.0 10.0 414.9856584093872 0.4754518923114221 6.0 0.0 5.0 
216.0002974181195 48.0 10.0 414.9856584093872 0.4754518923114221 6.0 0.0 5.0 
218.00082008174917 48.0 10.0 414.9856584093872 0.4754518923114221 6.0 0.0 5.0 
220.00082008174917 48.0 10.0 414.9856584093872 0.4754518923114221 6.0 0.0 5.0 
222.00082008174917 48.0 10.0 414.9856584093872 0.4754518923114221 6.0 0.0 5.0 
224.00082008174917 48.0 10.0 414.9856584093872 0.4754518923114221 6.0 0.0 5.0 
226.0002974181195 48.0 10.0 414.9856584093872 0.4754518923114221 6.0 0.0 5.0 
228.00082008174917 48.0 10.0 414.9856584093872 0.4754518923114221 6.0 0.0 5.0 
230.00082008174917 48.0 10.0 414.9856584093872 0.4754518923114221 6.0 0.0 5.0 
232.00082008174917 48.0 10.0 414.9856584093872 0.4754518923114221 6.0 0.0 5.0 
234.00082008174917 52.0 12.0 414.9856584093872 0.48115733937138805 6.0 0.0 5.0 
236.0002974181195 52.0 12.0 414.9856584093872 0.48115733937138805 6.0 0.0 5.0 
238.00082008174917 52.0 12.0 414.9856584093872 0.48115733937138805 6.0 0.0 5.0 
240.00082008174917 52.0 12.0 414.9856584093872 0.48115733937138805 6.0 0.0 5.0 
242.00082008174917 52.0 12.0 414.9856584093872 0.48115733937138805 6.0 0.0 5.0 
244.00082008174917 52.0 12.0 414.9856584093872 0.7164514570184468 6.0 0.0 5.0 
246.0002974181195 50.0 11.0 414.9856584093872 0.47868497897873613 6.0 0.0 5.0 
248.00082008174917 50.0 11.0 414.9856584093872 0.47868497897873613 6.0 0.0 5.0 
250.00082008174917 50.0 11.0 414.9856584093872 0.47868497897873613 6.0 0.0 5.0 
252.00082008174917 50.0 11.0 414.9856584093872 0.47868497897873613 6.0 0.0 5.0 
254.00082008174917 50.0 11.0 414.9856584093872 0.6120183123120695 6.0 0.0 5.0 
256.0002974181195 48.0 10.0 414.9856584093872 0.4754518923114221 6.0 0.0 5.0 
258.00082008174917 48.0 10.0 414.9856584093872 0.47545189231141705 6.0 0.0 5.0 
260.00082008174917 48.0 10.0 414.9856584093872 0.47545189231141705 6.0 0.0 5.0 
262.00082008174917 48.0 10.0 414.9856584093872 0.47545189231141705 6.0 0.0 5.0 
264.00082008174917 48.0 10.0 414.9856584093872 0.47545189231141705 6.0 0.0 5.0 
266.0002974181195 48.0 10.0 414.9856584093872 0.47545189231141705 6.0 0.0 5.0 
268.00082008174917 50.0 11.0 414.9856584093872 0.47868497897872797 6.0 0.0 5.0 
270.00082008174917 50.0 11.0 414.9856584093872 0.47868497897872797 6.0 0.0 5.0 
272.00082008174917 50.0 11.0 414.9856584093872 0.47868497897872797 6.0 0.0 5.0 
274.00082008174917 50.0 11.0 414.9856584093872 0.47868497897872797 6.0 0.0 5.0 
276.0002974181195 50.0 11.0 414.9856584093872 0.47868497897872797 6.0 0.0 5.0 
278.00082008174917 50.0 11.0 414.9856584093872 0.6120183123120613 6.0 0.0 5.0 
280.00082008174917 48.0 10.0 414.9856584093872 0.47545189231141705 6.0 0.0 5.0 
282.00082008174917 48.0 10.0 414.9856584093872 0.47545189231141705 6.0 0.0 5.0 
284.00082008174917 48.0 10.0 414.9856584093872 0.47545189231141705 6.0 0.0 5.0 
286.0002974181195 48.0 10.0 414.9856584093872 0.47545189231141705 6.0 0.0 5.0 
288.00082008174917 48.0 10.0 414.9856584093872 0.47545189231141705 6.0 0.0 5.0 
290.00082008174917 48.0 10.0 414.9856584093872 0.47545189231141705 6.0 0.0 5.0 
292.00082008174917 48.0 10.0 414.9856584093872 0.47545189231141705 6.0 0.0 5.0 
294.00082008174917 48.0 10.0 414.9856584093872 0.47545189231141705 6.0 0.0 5.0 
296.0002974181195 48.0 10.0 414.9856584093872 0.47545189231141705 6.0 0.0 5.0 
298.00082008174917 48.0 10.0 414.9856584093872 0.47545189231141705 6.0 0.0 5.0 
300.00082008174917 48.0 10.0 414.9856584093872 0.47545189231141705 6.0 0.0 5.0 
302.00082008174917 48.0 10.0 414.9856584093872 0.47545189231141705 6.0 0.0 5.0 
304.00082008174917 48.0 10.0 414.9856584093872 0.47545189231141705 6.0 0.0 5.0 
306.0002974181195 48.0 10.0 414.9856584093872 0.47545189231141705 6.0 0.0 5.0 
308.00082008174917 48.0 10.0 414.9856584093872 0.47545189231141705 6.0 0.0 5.0 
310.00082008174917 48.0 10.0 414.9856584093872 0.47545189231141705 6.0 0.0 5.0 
312.00082008174917 48.0 10.0 414.9856584093872 0.47545189231141705 6.0 0.0 5.0 
314.00082008174917 48.0 10.0 414.9856584093872 0.47545189231141705 6.0 0.0 5.0 
316.0002974181195 48.0 10.0 414.9856584093872 0.47545189231141705 6.0 0.0 5.0 
318.00082008174917 48.0 10.0 414.9856584093872 0.47545189231141705 6.0 0.0 5.0 
320.00082008174917 48.0 10.0 414.9856584093872 0.47545189231141705 6.0 0.0 5.0 
322.00082008174917 48.0 10.0 414.9856584093872 0.47545189231141705 6.0 0.0 5.0 
324.00082008174917 48.0 10.0 414.9856584093872 0.47545189231141705 6.0 0.0 5.0 
326.0002974181195 50.0 11.0 414.9856584093872 0.47868497897872797 6.0 0.0 5.0 
328.00082008174917 50.0 11.0 414.9856584093872 0.47868497897872797 6.0 0.0 5.0 
330.00082008174917 50.0 11.0 414.9856584093872 0.47868497897872797 6.0 0.0 5.0 
332.00082008174917 50.0 11.0 414.9856584093872 0.47868497897872797 6.0 0.0 5.0 
334.00082008174917 50.0 11.0 414.9856584093872 0.47868497897872797 6.0 0.0 5.0 
336.0002974181195 50.0 11.0 414.9856584093872 0.47868497897872797 6.0 0.0 5.0 
338.00082008174917 50.0 11.0 414.9856584093872 0.47868497897872797 6.0 0.0 5.0 
340.00082008174917 50.0 11.0 414.9856584093872 0.47868497897872797 6.0 0.0 5.0 
342.00082008174917 50.0 11.0 414.9856584093872 0.47868497897872797 6.0 0.0 5.0 
344.00082008174917 50.0 11.0 414.9856584093872 0.47868497897872797 6.0 0.0 5.0 
346.0002974181195 50.0 11.0 414.9856584093872 0.7453516456453947 6.0 0.0 5.0 
348.00082008174917 48.0 10.0 414.9856584093872 0.47545189231141705 6.0 0.0 5.0 
350.00082008174917 48.0 10.0 414.9856584093872 0.47545189231141705 6.0 0.0 5.0 
352.00082008174917 48.0 10.0 414.9856584093872 0.47545189231141705 6.0 0.0 5.0 
354.00082008174917 48.0 10.0 414.9856584093872 0.47545189231141705 6.0 0.0 5.0 
356.0002974181195 48.0 10.0 414.9856584093872 0.47545189231141705 6.0 0.0 5.0 
358.00082008174917 48.0 10.0 414.9856584093872 0.47545189231141705 6.0 0.0 5.0 
360.00082008174917 48.0 10.0 414.9856584093872 0.47545189231141705 6.0 0.0 5.0 
362.00082008174917 48.0 10.0 414.9856584093872 0.47545189231141705 6.0 0.0 5.0 
364.00082008174917 48.0 10.0 414.9856584093872 0.47545189231141705 6.0 0.0 5.0 
366.0002974181195 48.0 10.0 414.9856584093872 0.47545189231141705 6.0 0.0 5.0 
368.00082008174917 48.0 10.0 414.9856584093872 0.47545189231141705 6.0 0.0 5.0 
370.00082008174917 48.0 10.0 414.9856584093872 0.47545189231141705 6.0 0.0 5.0 
372.00082008174917 48.0 10.0 414.9856584093872 0.47545189231141705 6.0 0.0 5.0 
374.00082008174917 48.0 10.0 414.9856584093872 0.47545189231141705 6.0 0.0 5.0 
376.0002974181195 48.0 10.0 414.9856584093872 0.47545189231141705 6.0 0.0 5.0 
378.00082008174917 48.0 10.0 414.9856584093872 0.47545189231141705 6.0 0.0 5.0 
380.00082008174917 48.0 10.0 414.9856584093872 0.47545189231141705 6.0 0.0 5.0 
382.00082008174917 48.0 10.0 414.9856584093872 0.47545189231141705 6.0 0.0 5.0 
384.00082008174917 48.0 10.0 414.9856584093872 0.47545189231141705 6.0 0.0 5.0 
386.0002974181195 48.0 10.0 414.9856584093872 0.47545189231141705 6.0 0.0 5.0 
388.00082008174917 48.0 10.0 414.9856584093872 0.47545189231141705 6.0 0.0 5.0 
390.00082008174917 48.0 10.0 414.9856584093872 0.47545189231141705 6.0 0.0 5.0 
392.00082008174917 48.0 10.0 414.9856584093872 0.47545189231141705 6.0 0.0 5.0 
394.00082008174917 48.0 10.0 414.9856584093872 0.47545189231141705 6.0 0.0 5.0 
396.0002974181195 48.0 10.0 414.9856584093872 0.47545189231141705 6.0 0.0 5.0 
398.00082008174917 48.0 10.0 414.9856584093872 0.47545189231141705 6.0 0.0 5.0 
400.00082008174917 48.0 10.0 414.9856584093872 0.47545189231141705 6.0 0.0 5.0 
402.00082008174917 48.0 10.0 414.9856584093872 0.47545189231141705 6.0 0.0 5.0 
404.00082008174917 48.0 10.0 414.9856584093872 0.47545189231141705 6.0 0.0 5.0 
406.0002974181195 48.0 10.0 414.9856584093872 0.47545189231141705 6.0 0.0 5.0 
408.00082008174917 48.0 10.0 414.9856584093872 0.47545189231141705 6.0 0.0 5.0 
410.00082008174917 48.0 10.0 414.9856584093872 0.47545189231141705 6.0 0.0 5.0 
412.00082008174917 48.0 10.0 414.9856584093872 0.47545189231141705 6.0 0.0 5.0 
414.00082008174917 48.0 10.0 414.9856584093872 0.47545189231141705 6.0 0.0 5.0 
416.0002974181195 48.0 10.0 414.9856584093872 0.47545189231141705 6.0 0.0 5.0 
418.00082008174917 48.0 10.0 414.9856584093872 0.47545189231141705 6.0 0.0 5.0 
420.00082008174917 48.0 10.0 414.9856584093872 0.47545189231141705 6.0 0.0 5.0 
422.00082008174917 48.0 10.0 414.9856584093872 0.47545189231141705 6.0 0.0 5.0 
424.00082008174917 48.0 10.0 414.9856584093872 0.47545189231141705 6.0 0.0 5.0 
426.0002974181195 48.0 10.0 414.9856584093872 0.47545189231141705 6.0 0.0 5.0 
428.00082008174917 48.0 10.0 414.9856584093872 0.47545189231141705 6.0 0.0 5.0 
430.00082008174917 48.0 10.0 414.9856584093872 0.47545189231141705 6.0 0.0 5.0 
432.00082008174917 48.0 10.0 414.9856584093872 0.47545189231141705 6.0 0.0 5.0 
434.00082008174917 48.0 10.0 414.9856584093872 0.47545189231141705 6.0 0.0 5.0 
436.0002974181195 48.0 10.0 414.9856584093872 0.47545189231141705 6.0 0.0 5.0 
438.00082008174917 48.0 10.0 414.9856584093872 0.47545189231141705 6.0 0.0 5.0 
440.00082008174917 48.0 10.0 414.9856584093872 0.47545189231141705 6.0 0.0 5.0 
442.00082008174917 48.0 10.0 414.9856584093872 0.47545189231141705 6.0 0.0 5.0 
444.00082008174917 48.0 10.0 414.9856584093872 0.47545189231141705 6.0 0.0 5.0 
446.0002974181195 48.0 10.0 414.9856584093872 0.47545189231141705 6.0 0.0 5.0 
448.00082008174917 48.0 10.0 414.9856584093872 0.47545189231141705 6.0 0.0 5.0 
450.00082008174917 48.0 10.0 414.9856584093872 0.47545189231141705 6.0 0.0 5.0 
452.00082008174917 48.0 10.0 414.9856584093872 0.47545189231141705 6.0 0.0 5.0 
454.00082008174917 48.0 10.0 414.9856584093872 0.47545189231141705 6.0 0.0 5.0 
456.0002974181195 48.0 10.0 414.9856584093872 0.47545189231141705 6.0 0.0 5.0 
458.00082008174917 48.0 10.0 414.9856584093872 0.47545189231141705 6.0 0.0 5.0 
460.00082008174917 48.0 10.0 414.9856584093872 0.47545189231141705 6.0 0.0 5.0 
462.00082008174917 48.0 10.0 414.9856584093872 0.47545189231141705 6.0 0.0 5.0 
464.00082008174917 48.0 10.0 414.9856584093872 0.47545189231141705 6.0 0.0 5.0 
466.0002974181195 48.0 10.0 414.9856584093872 0.47545189231141705 6.0 0.0 5.0 
468.00082008174917 48.0 10.0 414.9856584093872 0.47545189231141705 6.0 0.0 5.0 
470.00082008174917 48.0 10.0 414.9856584093872 0.47545189231141705 6.0 0.0 5.0 
472.00082008174917 48.0 10.0 414.9856584093872 0.47545189231141705 6.0 0.0 5.0 
474.00082008174917 48.0 10.0 414.9856584093872 0.47545189231141705 6.0 0.0 5.0 
476.0002974181195 48.0 10.0 414.9856584093872 0.47545189231141705 6.0 0.0 5.0 
478.00082008174917 48.0 10.0 414.9856584093872 0.47545189231141705 6.0 0.0 5.0 
480.00082008174917 48.0 10.0 414.9856584093872 0.47545189231141705 6.0 0.0 5.0 
482.00082008174917 48.0 10.0 414.9856584093872 0.47545189231141705 6.0 0.0 5.0 
484.00082008174917 48.0 10.0 414.9856584093872 0.47545189231141705 6.0 0.0 5.0 
486.0002974181195 48.0 10.0 414.9856584093872 0.47545189231141705 6.0 0.0 5.0 
488.00082008174917 48.0 10.0 414.9856584093872 0.47545189231141705 6.0 0.0 5.0 
490.00082008174917 48.0 10.0 414.9856584093872 0.47545189231141705 6.0 0.0 5.0 
492.00082008174917 48.0 10.0 414.9856584093872 0.47545189231141705 6.0 0.0 5.0 
494.00082008174917 48.0 10.0 414.9856584093872 0.47545189231141705 6.0 0.0 5.0 
496.0002974181195 52.0 11.0 414.9856584093872 0.4840621594346708 6.0 0.0 5.0 
498.00082008174917 52.0 11.0 414.9856584093872 0.48405144666025113 6.0 0.0 5.0 
500.00082008174917 52.0 11.0 414.9856584093872 0.48405144666025113 6.0 0.0 5.0 
502.00082008174917 52.0 11.0 414.9856584093872 0.48405144666025113 6.0 0.0 5.0 
504.00082008174917 52.0 11.0 414.9856584093872 0.48405144666025113 6.0 0.0 5.0 
506.0002974181195 52.0 11.0 414.9856584093872 0.48405144666025113 6.0 0.0 5.0 
508.00082008174917 52.0 11.0 414.9856584093872 0.48405144666025113 6.0 0.0 5.0 
510.00082008174917 52.0 11.0 414.9856584093872 0.48405144666025113 6.0 0.0 5.0 
512.0008200817492 52.0 11.0 414.9856584093872 0.48405144666025113 6.0 0.0 5.0 
514.0008200817492 52.0 11.0 414.9856584093872 0.48405144666027017 6.0 0.0 5.0 
516.0002974181195 52.0 11.0 414.9856584093872 0.48405144666027017 6.0 0.0 5.0 
518.0008200817492 52.0 11.0 414.9856584093872 0.48405144666027017 6.0 0.0 5.0 
520.0008200817492 52.0 11.0 414.9856584093872 0.48405144666027017 6.0 0.0 5.0 
522.0008200817492 52.0 11.0 414.9856584093872 0.48405144666027017 6.0 0.0 5.0 
524.0008200817492 52.0 11.0 414.9856584093872 0.48405144666027017 6.0 0.0 5.0 
526.0002974181195 52.0 11.0 414.9856584093872 0.48405144666027017 6.0 0.0 5.0 
528.0008200817492 52.0 11.0 414.9856584093872 0.48405144666027017 6.0 0.0 5.0 
530.0008200817492 52.0 11.0 414.9856584093872 0.48405144666027017 6.0 0.0 5.0 
532.0008200817492 52.0 11.0 414.9856584093872 0.48405144666027017 6.0 0.0 5.0 
534.0008200817492 52.0 11.0 414.9856584093872 0.48405144666027017 6.0 0.0 5.0 
536.0002974181195 52.0 11.0 414.9856584093872 0.48405144666027017 6.0 0.0 5.0 
538.0008200817492 52.0 11.0 414.9856584093872 0.48405144666027017 6.0 0.0 5.0 
540.0008200817492 52.0 11.0 414.9856584093872 0.48405144666027017 6.0 0.0 5.0 
542.0008200817492 52.0 11.0 414.9856584093872 0.48405144666027017 6.0 0.0 5.0 
544.0008200817492 52.0 11.0 414.9856584093872 0.48405144666027017 6.0 0.0 5.0 
546.0002974181195 52.0 11.0 414.9856584093872 0.48405144666027017 6.0 0.0 5.0 
548.0008200817492 52.0 11.0 414.9856584093872 0.48405144666027017 6.0 0.0 5.0 
550.0008200817492 52.0 11.0 414.9856584093872 0.48405144666027017 6.0 0.0 5.0 
552.0008200817492 52.0 11.0 414.9856584093872 0.48405144666027017 6.0 0.0 5.0 
554.0008200817492 52.0 11.0 414.9856584093872 0.48405144666027017 6.0 0.0 5.0 
556.0002974181195 52.0 11.0 414.9856584093872 0.48405144666027017 6.0 0.0 5.0 
558.0008200817492 52.0 11.0 414.9856584093872 0.48405144666027017 6.0 0.0 5.0 
560.0008200817492 52.0 11.0 414.9856584093872 0.48405144666027017 6.0 0.0 5.0 
562.0008200817492 53.0 11.0 414.9856584093872 0.4659254405671714 6.0 0.0 5.0 
564.0008200817492 54.0 12.0 414.9856584093872 0.4860075211172675 6.0 0.0 5.0 
566.0002974181195 54.0 12.0 414.9856584093872 0.4860075211172675 6.0 0.0 5.0 
568.0008200817492 54.0 12.0 414.9856584093872 0.4860075211172675 6.0 0.0 5.0 
570.0008200817492 54.0 12.0 414.9856584093872 0.4860075211172675 6.0 0.0 5.0 
572.0008200817492 54.0 12.0 414.9856584093872 0.5485075211172675 6.0 0.0 5.0 
574.0008200817492 53.0 12.0 414.9856584093872 0.6375972655074995 6.0 0.0 5.0 
576.0002974181195 54.0 11.0 414.9856584093872 0.4756699646701282 6.0 0.0 5.0 
578.0008200817492 56.0 11.0 414.9856584093872 0.4894784463367311 6.0 0.0 5.0 
580.0008200817492 56.0 11.0 414.9856584093872 0.4894784463367311 6.0 0.0 5.0 
582.0008200817492 56.0 11.0 414.9856584093872 0.4894784463367311 6.0 0.0 5.0 
584.0008200817492 56.0 11.0 414.9856584093872 0.4894784463367311 6.0 0.0 5.0 
586.0002974181195 56.0 11.0 417.9921773142111 0.5428028383300554 7.0 0.0 6.0 
588.0008200817492 54.0 11.0 424.0130378096479 0.47542891469793175 10.0 0.0 8.0 
590.0008200817492 54.0 11.0 423.994784876141 0.47542955746440163 10.0 0.0 8.0 
592.0008200817492 54.0 11.0 423.9843546284223 0.4754326998782371 10.0 0.0 8.0 
594.0008200817492 54.0 11.0 423.97913950456336 0.4754354137810885 10.0 0.0 8.0 
596.0002974181195 54.0 11.0 423.9843546284223 0.47543498527011196 10.0 0.0 8.0 
598.0008200817492 54.0 11.0 423.973924380704 0.4754364136400338 9.0 0.0 8.0 
600.0008200817492 54.0 11.0 423.973924380704 0.4754369849880025 9.0 0.0 8.0 
602.0008200817492 54.0 11.0 423.973924380704 0.4754369849880025 9.0 0.0 8.0 
604.0008200817492 54.0 11.0 423.973924380704 0.4754369849880025 9.0 0.0 8.0 
606.0002974181195 54.0 11.0 423.9843546284223 0.630462763238454 9.0 0.0 8.0 
608.0008200817492 48.0 10.0 423.9869621903521 0.4741268869276782 9.0 0.0 8.0 
610.0008200817492 48.0 10.0 423.9661016949154 0.4741268869276782 9.0 0.0 8.0 
612.0008200817492 48.0 10.0 423.9661016949154 0.4741268869276782 9.0 0.0 8.0 
614.0008200817492 48.0 10.0 423.9661016949154 0.4741268869276782 9.0 0.0 8.0 
616.0002974181195 48.0 10.0 423.9661016949154 0.4741268869276782 9.0 0.0 8.0 
618.0008200817492 48.0 10.0 423.9661016949154 0.4741268869276782 9.0 0.0 8.0 
620.0008200817492 48.0 10.0 423.9661016949154 0.4741268869276782 9.0 0.0 8.0 
622.0008200817492 48.0 10.0 423.9661016949154 0.4741268869276782 9.0 0.0 8.0 
624.0008200817492 48.0 10.0 423.9661016949154 0.4741268869276782 9.0 0.0 8.0 
626.0002974181195 48.0 10.0 423.9661016949154 0.4741268869276782 9.0 0.0 8.0 
628.0008200817492 48.0 10.0 423.9661016949154 0.4741268869276782 9.0 0.0 8.0 
630.0008200817492 48.0 10.0 423.9661016949154 0.4741268869276782 9.0 0.0 8.0 
632.0008200817492 48.0 10.0 423.9661016949154 0.4741268869276782 9.0 0.0 8.0 
634.0008200817492 48.0 10.0 423.9661016949154 0.4741268869276782 9.0 0.0 8.0 
636.0002974181195 48.0 10.0 423.9661016949154 0.4741268869276782 9.0 0.0 8.0 
638.0008200817492 48.0 10.0 423.9661016949154 0.4741268869276782 9.0 0.0 8.0 
640.0008200817492 48.0 10.0 423.9661016949154 0.4741268869276782 9.0 0.0 8.0 
642.0008200817492 48.0 10.0 423.9661016949154 0.4741268869276782 9.0 0.0 8.0 
644.0008200817492 48.0 10.0 423.9661016949154 0.4741268869276782 9.0 0.0 8.0 
646.0002974181195 50.0 11.0 423.9661016949154 0.4775366409794876 9.0 0.0 8.0 
648.0008200817492 50.0 11.0 423.9661016949154 0.4775366409794876 9.0 0.0 8.0 
650.0008200817492 50.0 11.0 423.9661016949154 0.4775366409794876 9.0 0.0 8.0 
652.0008200817492 50.0 11.0 423.9661016949154 0.4775366409794876 9.0 0.0 8.0 
654.0008200817492 50.0 11.0 423.9661016949154 0.4775366409794876 9.0 0.0 8.0 
656.0002974181195 50.0 11.0 423.9661016949154 0.7442033076461543 9.0 0.0 8.0 
658.0008200817492 48.0 10.0 423.9661016949154 0.4741268869276782 9.0 0.0 8.0 
660.0008200817492 48.0 10.0 423.9661016949154 0.4741268869276782 9.0 0.0 8.0 
662.0008200817492 48.0 10.0 423.9661016949154 0.4741268869276782 9.0 0.0 8.0 
664.0008200817492 48.0 10.0 423.9661016949154 0.4741268869276782 9.0 0.0 8.0 
#####################################################################
# End of data export. Simulation finished at: 2019-03-08T14:22+0000 #
#####################################################################
