#####################################################################
# Alchemist log file - simulation started at: 2019-03-13T21:31+0000 #
#####################################################################
# seed = 5.0, bandwidth = 1.0E8, accessPointCount = 141.4213562373095, baserange = 562.341325190349
#
# The columns have the following meaning: 
# time neighbor_count[Sum] <value>@neighbor_count[Sum] packet_size[Mean] mean_delay[Mean] crowd[Sum] overcrowded[Sum] risk[Sum] 
0.0 NaN NaN NaN NaN NaN NaN NaN 
2.000101793669918 4257.0 1253.0 4986.808302808303 0.46184426765910563 1497.0 0.0 1497.0 
4.000101793669918 8813.0 1336.0 4988.578754578754 0.5157892694045266 1497.0 0.0 1497.0 
6.000101793669918 12705.0 1340.0 4989.860805860806 0.5396407333544494 1497.0 0.0 1497.0 
8.000101793669918 15985.0 1320.0 4990.908424908425 0.5528772150217911 1497.0 0.0 1497.0 
10.000051249571806 18450.0 1318.0 4991.511599511599 0.5668072664461106 1497.0 0.0 1497.0 
12.000051249571806 19345.0 1295.0 4992.004884004884 0.5782652804445023 1497.0 0.0 1497.0 
14.000051249571806 18336.0 1240.0 4992.056166056166 0.4990001251693077 1496.0 1.0 1496.0 
16.000051249571804 18339.0 1240.0 4991.982905982906 0.4985935897477209 1493.0 4.0 1493.0 
18.000051249571804 18348.0 1241.0 4992.105006105006 0.4993860168904931 1495.0 2.0 1495.0 
20.000051249571804 18346.0 1241.0 4992.217338217338 0.5021572964340355 1493.0 4.0 1493.0 
22.000051249571804 18340.0 1240.0 4992.041514041514 0.4989475992073517 1494.0 3.0 1494.0 
24.000051249571804 18342.0 1240.0 4991.92673992674 0.4989242548285226 1493.0 4.0 1493.0 
26.000051249571804 18342.0 1240.0 4991.921855921856 0.49892428779098685 1492.0 5.0 1492.0 
28.000051249571804 18343.0 1240.0 4992.029304029304 0.49979353638224916 1492.0 5.0 1492.0 
30.000051249571804 18266.0 1240.0 4991.958485958486 0.5007645609804919 1492.0 5.0 1492.0 
32.000051249571804 18250.0 1239.0 4991.916971916972 0.4984921482014405 1489.0 8.0 1489.0 
34.00005124957181 18256.0 1239.0 4991.934065934066 0.4985629036698973 1487.0 10.0 1487.0 
36.00005124957181 18257.0 1239.0 4991.882783882784 0.49855928053117216 1487.0 10.0 1487.0 
38.00005124957181 18258.0 1239.0 4992.039072039072 0.4994405431956294 1485.0 12.0 1485.0 
40.00005124957181 18256.0 1238.0 4992.043956043956 0.500675128616013 1487.0 10.0 1487.0 
42.00005124957181 18256.0 1239.0 4991.936507936508 0.4993394273727161 1486.0 11.0 1486.0 
44.00005124957181 18239.0 1238.0 4991.882783882784 0.5009330113760913 1487.0 10.0 1487.0 
46.00005124957181 18223.0 1238.0 4991.885225885226 0.49857069371831625 1486.0 11.0 1486.0 
48.00005124957181 18224.0 1238.0 4991.985347985348 0.49857351001650946 1487.0 10.0 1487.0 
50.00005124957181 18332.0 1239.0 4992.04884004884 0.4986018298376532 1486.0 11.0 1486.0 
52.00005124957181 18337.0 1240.0 4991.997557997558 0.49927955656769324 1487.0 10.0 1487.0 
54.00005124957181 18448.0 1240.0 4991.841269841269 0.5000177173359168 1486.0 11.0 1486.0 
56.00005124957181 18444.0 1240.0 4991.811965811966 0.49868598341967263 1487.0 10.0 1487.0 
58.00005124957181 18444.0 1240.0 4992.019536019536 0.49873247250490826 1486.0 11.0 1486.0 
60.00005124957181 18462.0 1240.0 4992.034188034188 0.5016639332493715 1487.0 10.0 1487.0 
62.00010179366992 18525.0 1242.0 1330.6568986568973 0.5045937014616586 660.0 11.0 320.0 
64.00010179366993 18526.0 1240.0 1328.0293040293045 0.5010756365910535 539.0 12.0 318.0 
66.00010179366993 18503.0 1239.0 1327.7240537240523 0.49880240062797054 492.0 19.0 311.0 
68.00010179366993 18537.0 1240.0 1324.9377289377287 0.5007193686720112 470.0 12.0 317.0 
70.00010179366993 18512.0 1239.0 1324.847374847374 0.5028951334956623 450.0 22.0 307.0 
72.00010179366993 18436.0 1239.0 1324.9352869352867 0.49919920621123437 453.0 18.0 311.0 
74.00010179366993 18434.0 1238.0 1330.3516483516505 0.49838880212805925 452.0 14.0 317.0 
76.00010179366993 18436.0 1239.0 1330.4249084249109 0.49866976328265034 443.0 21.0 310.0 
78.00010179366993 18497.0 1238.0 1330.3467643467663 0.4998693977522405 443.0 21.0 310.0 
80.00010179366993 18540.0 1239.0 1330.3028083028098 0.49824979413456805 449.0 14.0 317.0 
82.00010179366993 18540.0 1239.0 1330.1562881562893 0.4982498224392311 440.0 23.0 308.0 
84.00010179366993 18554.0 1240.0 1330.2393162393182 0.500227693480728 440.0 20.0 311.0 
86.00010179366993 18541.0 1239.0 1330.1318681318694 0.4983183545495839 443.0 17.0 314.0 
88.00010179366993 18544.0 1239.0 1332.957264957265 0.5017757701564446 435.0 24.0 308.0 
90.00010179366993 18532.0 1239.0 1332.881562881562 0.4982763166085118 438.0 22.0 310.0 
92.00010179366993 18532.0 1239.0 1332.9865689865692 0.498276313268129 445.0 16.0 316.0 
94.00010179366993 18534.0 1239.0 1332.8669108669103 0.49806723122990443 446.0 16.0 316.0 
96.00010179366993 18536.0 1240.0 1332.9474969474968 0.49819710483133367 447.0 14.0 318.0 
98.00010179366993 18547.0 1241.0 1332.80586080586 0.5009340568941173 446.0 16.0 316.0 
100.00010179366993 18456.0 1241.0 1332.9597069597069 0.5002447060865677 440.0 22.0 310.0 
102.00010179366993 18486.0 1241.0 1332.8327228327219 0.49995612399080697 438.0 23.0 309.0 
104.00010179366993 18444.0 1240.0 1335.724053724052 0.49852082563399114 443.0 16.0 317.0 
106.00010179366993 18443.0 1240.0 1335.6556776556754 0.4981455194536003 435.0 26.0 307.0 
108.00010179366993 18445.0 1240.0 1335.780219780218 0.49810169719167324 437.0 22.0 311.0 
110.00010179366993 18446.0 1240.0 1335.6703296703276 0.4981053274624952 442.0 17.0 316.0 
112.00010179366993 18544.0 1241.0 1332.9890109890111 0.49965980367593116 436.0 25.0 307.0 
114.00010179366993 18509.0 1241.0 1332.869352869352 0.49970688141130437 436.0 23.0 309.0 
116.00010179366993 18502.0 1242.0 1332.9304029304026 0.49996751473110207 443.0 16.0 316.0 
118.00010179366993 18489.0 1241.0 1332.810744810744 0.5037518681187623 435.0 26.0 306.0 
120.00010179366993 18308.0 1241.0 1332.847374847374 0.504014073034869 437.0 22.0 310.0 
122.00010179366993 18297.0 1239.0 1335.5726495726472 0.501431768180105 443.0 17.0 316.0 
124.00010179366993 18250.0 1239.0 1332.8888888888882 0.5012976193035987 436.0 25.0 307.0 
126.00010179366993 18208.0 1238.0 1327.177045177046 0.5016128195538199 435.0 23.0 307.0 
128.00010179366993 18142.0 1238.0 1324.4639804639833 0.49976586411186924 442.0 16.0 313.0 
130.00010179366993 18124.0 1238.0 1324.4004884004908 0.5000694558213734 433.0 26.0 303.0 
132.00010179366993 18150.0 1238.0 1324.537240537238 0.49980252579027035 436.0 22.0 307.0 
134.00010179366993 18106.0 1237.0 1324.3711843711865 0.4996034219055114 439.0 17.0 312.0 
136.00010179366993 18009.0 1237.0 1324.4566544566574 0.49894215444032664 432.0 25.0 304.0 
138.00010179366993 17984.0 1236.0 1324.405372405375 0.49808915776061724 432.0 23.0 306.0 
140.00010179366993 17977.0 1236.0 1324.4713064713096 0.4987500842459525 440.0 16.0 313.0 
142.00010179366993 17978.0 1236.0 1324.3785103785126 0.5002113701533645 430.0 26.0 303.0 
144.00010179366993 17958.0 1235.0 1327.2844932844944 0.5002836102511644 432.0 22.0 308.0 
146.00010179366993 17862.0 1234.0 1324.3711843711865 0.4979529084347325 437.0 17.0 312.0 
148.00010179366993 17862.0 1234.0 1324.4688644688677 0.49829712375203566 429.0 25.0 304.0 
150.00010179366993 17842.0 1234.0 1321.570207570205 0.49867330579384544 430.0 23.0 305.0 
152.00010179366993 17826.0 1234.0 1318.8644688644679 0.4979791793423262 436.0 16.0 311.0 
154.00010179366993 17828.0 1234.0 1318.8327228327216 0.4979819417764768 423.0 26.0 301.0 
156.00010179366993 17830.0 1235.0 1321.7606837606818 0.49874368837625316 426.0 22.0 306.0 
158.00010179366993 17787.0 1235.0 1318.8717948717938 0.5018829817254302 434.0 17.0 310.0 
160.00010179366993 17713.0 1235.0 1318.9279609279604 0.5018556784529427 424.0 25.0 302.0 
162.00010179366993 17696.0 1235.0 1318.898656898656 0.49876402683419857 426.0 23.0 304.0 
164.00010179366993 17691.0 1235.0 1321.7264957264942 0.4996790850651135 434.0 16.0 312.0 
166.00010179366993 17680.0 1234.0 1321.6141636141615 0.4977310229208249 425.0 26.0 302.0 
168.00010179366993 17784.0 1236.0 1327.282051282052 0.49956803696985425 427.0 22.0 308.0 
170.00010179366993 17745.0 1235.0 1327.2429792429812 0.4988337056789501 432.0 17.0 313.0 
172.00010179366993 17744.0 1235.0 1327.3528693528708 0.49800952223992 423.0 25.0 305.0 
174.00010179366993 17744.0 1235.0 1330.0586080586088 0.4981329104417481 425.0 23.0 308.0 
176.00010179366993 17740.0 1235.0 1318.9230769230762 0.49800718106189795 430.0 16.0 311.0 
178.00010179366993 17746.0 1235.0 1318.896214896214 0.49783290119762336 421.0 26.0 301.0 
180.00010179366993 17800.0 1237.0 1310.5592185592166 0.49985531914877035 421.0 22.0 302.0 
182.00010179366993 17786.0 1236.0 1310.4713064713092 0.4977060558379207 426.0 17.0 307.0 
184.00010179366993 17787.0 1237.0 1307.7045177045163 0.49796188849776 417.0 25.0 298.0 
186.00010179366993 17792.0 1238.0 1307.6239316239298 0.5002790437064853 418.0 23.0 300.0 
188.00010179366993 17798.0 1236.0 1307.665445665444 0.49999883850458215 425.0 16.0 307.0 
190.00010179366993 17787.0 1236.0 1304.8156288156274 0.4979921059251945 416.0 26.0 296.0 
192.00010179366993 17814.0 1237.0 1304.8644688644679 0.4999161754368847 419.0 22.0 300.0 
194.00010179366993 17783.0 1237.0 1304.8302808302794 0.49827371744631715 422.0 17.0 305.0 
196.00010179366993 17775.0 1238.0 1304.9597069597066 0.49807659429507956 415.0 25.0 297.0 
198.00010179366993 17777.0 1238.0 1304.8864468864458 0.4982561263134222 416.0 23.0 299.0 
200.00010179366993 17775.0 1238.0 1310.5543345543322 0.4983391594733412 424.0 16.0 308.0 
202.00010179366993 17807.0 1239.0 1310.4981684981715 0.49843361530136926 415.0 26.0 298.0 
204.00010179366993 17805.0 1240.0 1310.5811965811945 0.5031908649343557 418.0 22.0 302.0 
206.00010179366993 17678.0 1238.0 1307.6678876678861 0.4994933412467026 423.0 17.0 306.0 
208.00010179366993 17670.0 1237.0 1307.7167277167266 0.4986133349984102 415.0 26.0 297.0 
210.00010179366993 17667.0 1237.0 1304.8278388278377 0.49864969160275624 416.0 24.0 298.0 
212.00010179366993 17666.0 1237.0 1304.9255189255182 0.4978317339551046 424.0 16.0 306.0 
214.00010179366993 17671.0 1238.0 1307.6361416361397 0.49789596174851775 415.0 26.0 297.0 
216.00010179366993 17666.0 1238.0 1302.075702075703 0.4978687981161619 418.0 22.0 299.0 
218.00010179366993 17674.0 1238.0 1296.3418803418826 0.49841131682182005 419.0 17.0 302.0 
220.00010179366993 17691.0 1240.0 1296.4542124542154 0.5015554049418655 413.0 25.0 294.0 
222.00010179366993 17687.0 1238.0 1296.3785103785126 0.4982683963821412 415.0 23.0 296.0 
224.00010179366993 17714.0 1240.0 1296.4468864468895 0.5014491654049615 423.0 16.0 303.0 
226.00010179366993 17690.0 1238.0 1296.3369963369987 0.5005189295143582 413.0 26.0 293.0 
228.00010179366993 17656.0 1237.0 1299.2478632478653 0.49808398576401786 417.0 22.0 298.0 
230.00010179366993 17652.0 1237.0 1299.1086691086703 0.4984237117583893 419.0 17.0 303.0 
232.00010179366993 17745.0 1238.0 1299.247863247865 0.4982257463697411 413.0 25.0 295.0 
234.00010179366993 17745.0 1238.0 1299.125763125764 0.5005092175734773 414.0 23.0 297.0 
236.00010179366993 17657.0 1238.0 1299.1965811965824 0.4986553112096946 421.0 16.0 304.0 
238.00010179366993 17654.0 1237.0 1299.130647130648 0.49900700071054405 412.0 26.0 294.0 
240.00010179366993 17653.0 1237.0 1299.2380952380968 0.4983688535621482 414.0 22.0 298.0 
242.00010179366993 17686.0 1239.0 1296.3272283272304 0.502121203903021 417.0 17.0 302.0 
244.00010179366993 17633.0 1239.0 1296.5006105006141 0.5042116404204147 411.0 25.0 294.0 
246.00010179366993 17664.0 1238.0 1296.3638583638608 0.49863158144443787 412.0 23.0 296.0 
248.00010179366993 17674.0 1237.0 1296.4517704517734 0.4983838073494132 420.0 16.0 303.0 
250.00010179366993 17668.0 1237.0 1293.5604395604366 0.49872365663495505 410.0 26.0 292.0 
252.00010179366993 17660.0 1237.0 1293.6385836385812 0.4988975660071759 413.0 22.0 296.0 
254.00010179366993 17628.0 1237.0 1293.5409035409004 0.5015765201947755 419.0 17.0 301.0 
256.00010179366996 17564.0 1236.0 1293.6263736263713 0.49818882345643195 412.0 25.0 293.0 
258.00010179366996 17576.0 1236.0 1293.494505494502 0.4987417796442499 412.0 23.0 295.0 
260.00010179366996 17552.0 1236.0 1293.5531135531105 0.5026341025247769 420.0 16.0 302.0 
262.00010179366996 17461.0 1235.0 1293.4920634920652 0.5017779359616681 419.0 17.0 301.0 
264.00010179366996 17418.0 1236.0 1299.2673992673997 0.5011190747924494 419.0 16.0 304.0 
266.00010179366996 17394.0 1234.0 1301.9877899877897 0.5016925630616854 414.0 17.0 304.0 
268.00010179366996 17294.0 1233.0 1299.2356532356544 0.4983235338112289 414.0 16.0 304.0 
270.00010179366996 17297.0 1234.0 1299.1330891330895 0.50378937129266 412.0 17.0 303.0 
272.00010179366996 17276.0 1233.0 1299.1770451770458 0.5002973157809614 413.0 16.0 304.0 
274.00010179366996 17265.0 1232.0 1299.067155067155 0.49859830271278927 412.0 17.0 303.0 
276.00010179366996 17263.0 1233.0 1299.203907203908 0.4990539433286093 413.0 16.0 304.0 
278.00010179366996 17266.0 1233.0 1301.8974358974347 0.4991380155210269 414.0 17.0 304.0 
280.00010179366996 17271.0 1233.0 1299.20634920635 0.5020940373350788 417.0 16.0 304.0 
282.00010179366996 17182.0 1232.0 1299.0940170940173 0.49931018045398684 416.0 17.0 303.0 
284.00010179366996 17173.0 1231.0 1299.184371184372 0.5008779935897991 417.0 16.0 304.0 
286.00010179366996 17160.0 1231.0 1299.1184371184377 0.4992251426010989 416.0 17.0 303.0 
288.00010179366996 17194.0 1233.0 1299.1355311355314 0.5016389399023297 417.0 16.0 304.0 
290.00010179366996 17188.0 1232.0 1299.0378510378507 0.501773534564251 416.0 17.0 303.0 
292.00010179366996 17166.0 1231.0 1299.1159951159955 0.49841876372474087 417.0 16.0 304.0 
294.00010179366996 17163.0 1231.0 1299.040293040293 0.49928626595561737 416.0 17.0 303.0 
296.00010179366996 17153.0 1231.0 1299.0915750915754 0.49876699331553015 417.0 16.0 304.0 
298.00010179366996 17153.0 1232.0 1301.8315018315004 0.5004234271493595 416.0 17.0 304.0 
300.00010179366996 17066.0 1231.0 1301.9365079365073 0.5023801007934303 417.0 16.0 305.0 
302.00010179366996 17031.0 1229.0 1301.907203907203 0.5025028953887177 416.0 17.0 304.0 
304.00010179366996 16946.0 1228.0 1293.597069597067 0.502918273522083 416.0 16.0 302.0 
306.00010179366996 16997.0 1229.0 1299.1648351648357 0.502466245288555 415.0 17.0 303.0 
308.00010179366996 17020.0 1228.0 1296.422466422469 0.49876680634533216 415.0 16.0 303.0 
310.00010179366996 17017.0 1228.0 1296.3223443223462 0.4996828371654832 414.0 17.0 302.0 
312.00010179366996 17015.0 1228.0 1296.3492063492083 0.4988285440117382 415.0 16.0 303.0 
314.00010179366996 17015.0 1229.0 1290.6398046398028 0.5002553944011137 413.0 17.0 300.0 
316.00010179366996 17009.0 1228.0 1290.6471306471287 0.5022829223951826 415.0 16.0 301.0 
318.00010179366996 17003.0 1228.0 1293.445665445668 0.4993782912912145 414.0 17.0 301.0 
320.00010179366996 16996.0 1228.0 1293.514041514038 0.49907459927360853 415.0 16.0 302.0 
322.00010179366996 17012.0 1229.0 1290.6349206349184 0.5037564644285184 413.0 17.0 300.0 
324.00010179366996 16923.0 1228.0 1290.752136752135 0.5005055586563039 413.0 16.0 301.0 
326.00010179366996 16910.0 1228.0 1290.708180708179 0.4989078070164053 412.0 17.0 300.0 
328.00010179366996 16908.0 1228.0 1290.757020757019 0.4989405578816 414.0 16.0 301.0 
330.00010179366996 16900.0 1228.0 1290.7399267399253 0.5032348381608883 413.0 17.0 300.0 
332.00010179366996 16852.0 1227.0 1290.837606837606 0.5012625766342522 414.0 16.0 301.0 
334.00010179366996 16823.0 1227.0 1290.7667887667872 0.4983031806466173 413.0 17.0 300.0 
336.00010179366996 16873.0 1227.0 1290.757020757019 0.4996339005307934 415.0 16.0 301.0 
338.00010179366996 16900.0 1229.0 1290.6935286935268 0.5045593401468798 416.0 17.0 300.0 
340.00010179366996 16846.0 1228.0 1285.118437118438 0.5013924422402251 415.0 16.0 299.0 
342.00010179366996 16842.0 1227.0 1285.037851037851 0.49917353489471517 414.0 17.0 298.0 
344.00010179366996 16844.0 1227.0 1287.9218559218552 0.49925096247861794 415.0 16.0 300.0 
346.00010179366996 16842.0 1227.0 1282.195360195362 0.4994282491792657 413.0 17.0 297.0 
348.00010179366996 16850.0 1227.0 1282.3076923076947 0.49981635352602016 413.0 16.0 298.0 
350.00010179366996 16846.0 1228.0 1287.8827838827826 0.4993343440426733 414.0 17.0 299.0 
352.00010179366996 16865.0 1228.0 1282.3711843711872 0.5007839213933066 416.0 16.0 298.0 
354.00010179366996 16851.0 1229.0 1282.3272283272308 0.5032371759118927 415.0 17.0 297.0 
356.00010179366996 16738.0 1227.0 1282.4420024420058 0.49924744036017693 416.0 16.0 298.0 
358.00010179366996 16755.0 1228.0 1282.3516483516512 0.49952795966343816 414.0 17.0 297.0 
360.00010179366996 16759.0 1228.0 1285.2014652014666 0.49935461569001904 415.0 16.0 299.0 
362.00010179366996 16772.0 1229.0 1282.2832722832745 0.5003406625951394 413.0 17.0 297.0 
364.00010179366996 16761.0 1230.0 1273.9511599511595 0.5038285735877486 413.0 16.0 295.0 
366.00010179366996 16734.0 1230.0 1271.0427350427353 0.4992005079813384 412.0 17.0 293.0 
368.00010179366996 16745.0 1231.0 1271.0183150183152 0.49883113608046303 413.0 16.0 294.0 
370.00010179366996 16746.0 1232.0 1273.6971916971895 0.5021030284571447 412.0 17.0 294.0 
372.00010179366996 16667.0 1231.0 1276.6422466422441 0.5023694052995725 414.0 16.0 296.0 
374.00010179366996 16648.0 1231.0 1273.8266178266165 0.4995889913111728 414.0 17.0 294.0 
376.00010179366996 16648.0 1230.0 1273.914529914529 0.49994547260378863 415.0 16.0 295.0 
378.00010179366996 16749.0 1232.0 1273.804639804638 0.5027143001463285 415.0 17.0 294.0 
380.00010179366996 16727.0 1232.0 1273.8778998778987 0.5011913275272761 416.0 16.0 295.0 
382.00010179366996 16716.0 1231.0 1273.8559218559208 0.4993169156337227 415.0 17.0 294.0 
384.00010179366996 16719.0 1232.0 1271.1086691086698 0.49995409282824005 416.0 16.0 294.0 
386.00010179366996 16699.0 1231.0 1271.030525030525 0.5010760813924766 415.0 17.0 293.0 
388.00010179366996 16700.0 1231.0 1271.035409035409 0.5021071805004367 416.0 16.0 294.0 
390.00010179366996 16628.0 1231.0 1270.9938949938946 0.5033445799256763 415.0 17.0 293.0 
392.00010179366996 16538.0 1231.0 1271.023199023199 0.504489032993417 417.0 16.0 294.0 
394.00010179366996 16553.0 1231.0 1273.8070818070803 0.5022332974438094 420.0 16.0 295.0 
396.00010179366996 16508.0 1230.0 1273.8437118437105 0.49959206354190105 420.0 15.0 296.0 
398.00010179366996 16503.0 1229.0 1273.7704517704499 0.5009784940172674 419.0 16.0 295.0 
400.00010179366996 16463.0 1229.0 1270.9597069597069 0.5023638784484488 420.0 15.0 295.0 
402.00010179366996 16512.0 1231.0 1270.9426129426126 0.50151467218296 419.0 16.0 294.0 
404.00010179366996 16533.0 1230.0 1273.902319902319 0.500645054032541 419.0 19.0 292.0 
406.00010179366996 16522.0 1231.0 1279.4554334554366 0.49987879802709323 419.0 20.0 293.0 
408.00010179366996 16538.0 1233.0 1285.140415140416 0.5057019353756733 427.0 16.0 299.0 
410.00010179366996 16512.0 1233.0 1282.2271062271082 0.50136043390588 426.0 17.0 297.0 
412.00010179366996 16511.0 1232.0 1279.4945054945015 0.4992129180799896 427.0 16.0 297.0 
414.00010179366996 16639.0 1236.0 1276.634920634918 0.5009630785738618 428.0 17.0 295.0 
416.00010179366996 16602.0 1235.0 1271.0402930402934 0.5002719641647713 428.0 16.0 294.0 
418.00010179366996 16616.0 1236.0 1285.0598290598298 0.5029991867692476 430.0 17.0 298.0 
420.00010179366996 16579.0 1235.0 1282.2564102564124 0.5041085504521365 432.0 16.0 298.0 
422.00010179366996 16564.0 1234.0 1279.3992673992702 0.4991865082983912 430.0 17.0 296.0 
424.00010179366996 16611.0 1235.0 1279.4481074481107 0.5034688820090385 430.0 15.0 298.0 
426.00010179366996 16536.0 1233.0 1279.404151404154 0.4998155952641672 429.0 16.0 297.0 
428.00010179366996 16608.0 1235.0 1276.6495726495712 0.5022929998807624 430.0 15.0 297.0 
430.00010179366996 16568.0 1234.0 1279.4212454212484 0.501781470440539 427.0 16.0 297.0 
432.00010179366996 16587.0 1236.0 1290.7350427350411 0.503838541520293 431.0 15.0 302.0 
434.00010179366996 16518.0 1234.0 1287.9365079365073 0.5002725289922192 433.0 16.0 300.0 
436.00010179366996 16488.0 1234.0 1287.897435897435 0.5031014407070294 434.0 15.0 301.0 
438.00010179366996 16481.0 1233.0 1285.079365079365 0.49961702782861867 432.0 15.0 300.0 
440.00010179366996 16490.0 1233.0 1285.1282051282055 0.5019453880220062 430.0 18.0 297.0 
442.00010179366996 16493.0 1234.0 1296.4078144078178 0.5009361285126706 429.0 20.0 299.0 
444.00010179366996 16475.0 1233.0 1293.5995115995083 0.5010138459048862 435.0 16.0 302.0 
446.00010179366996 16476.0 1232.0 1299.177045177046 0.5011224468989421 437.0 17.0 303.0 
448.00010179366996 16451.0 1232.0 1296.3101343101368 0.5045212733219074 436.0 16.0 303.0 
450.00010179366996 16418.0 1229.0 1296.2319902319923 0.5015493160243061 434.0 17.0 302.0 
452.00010179366996 16453.0 1230.0 1299.15750915751 0.5006927196888736 436.0 16.0 304.0 
454.00010179366996 16421.0 1231.0 1299.037851037851 0.5013588987758113 435.0 17.0 303.0 
456.00010179366996 16405.0 1230.0 1299.0818070818075 0.5002020613084869 436.0 16.0 304.0 
458.00010179366996 16395.0 1231.0 1299.0940170940175 0.5018571835534472 436.0 16.0 304.0 
460.00010179366996 16402.0 1231.0 1299.16971916972 0.5022700335136213 437.0 15.0 305.0 
462.00010179366996 16337.0 1230.0 1299.2210012210026 0.5036583785164954 435.0 16.0 304.0 
464.00010179366996 16284.0 1229.0 1299.1452991453 0.5010142201576718 438.0 15.0 305.0 
466.00010179366996 16275.0 1229.0 1299.0695970695974 0.4996096916176362 437.0 16.0 304.0 
468.00010179366996 16277.0 1230.0 1296.349206349209 0.498518556075884 438.0 15.0 304.0 
470.00010179366996 16284.0 1230.0 1299.0573870573874 0.4987804839639196 436.0 16.0 304.0 
472.00010179366996 16324.0 1232.0 1293.4578754578786 0.50061085838996 436.0 15.0 303.0 
474.00010179366996 16346.0 1234.0 1290.586080586078 0.5030012644331613 433.0 16.0 301.0 
476.00010179366996 16322.0 1232.0 1290.6544566544544 0.49926515448088654 434.0 15.0 302.0 
478.00010179366996 16330.0 1232.0 1290.6178266178244 0.4990657514094311 431.0 16.0 301.0 
480.00010179366996 16332.0 1232.0 1285.0720390720392 0.4989238585099142 432.0 15.0 300.0 
482.00010179366996 16337.0 1232.0 1279.416361416364 0.5033010136387368 428.0 16.0 297.0 
484.00010179366996 16329.0 1233.0 1265.4505494505515 0.5027994661872348 425.0 15.0 293.0 
486.00010179366996 16320.0 1231.0 1265.3528693528708 0.49949499440382217 422.0 16.0 292.0 
488.00010179366996 16327.0 1231.0 1265.4627594627618 0.5001337390483612 423.0 15.0 293.0 
490.00010179366996 16293.0 1231.0 1268.1587301587315 0.5019941722049055 423.0 16.0 293.0 
492.00010179366996 16300.0 1232.0 1265.426129426131 0.5015762758126029 425.0 15.0 293.0 
494.00010179366996 16300.0 1232.0 1262.5689865689847 0.500039718457781 420.0 16.0 291.0 
496.00010179366996 16294.0 1231.0 1259.8266178266165 0.5039698985473624 418.0 15.0 291.0 
498.00010179366996 16365.0 1233.0 1259.7191697191674 0.5034510061903819 418.0 16.0 290.0 
500.00010179366996 16323.0 1231.0 1262.656898656898 0.49913592251028693 418.0 15.0 292.0 
502.00010179366996 16370.0 1232.0 1256.9548229548243 0.49941705638975 417.0 16.0 289.0 
504.00010179366996 16476.0 1235.0 1254.1978021978039 0.5036254264868941 414.0 17.0 287.0 
506.00010179366996 16450.0 1231.0 1259.7142857142835 0.4987284888161388 415.0 20.0 286.0 
508.00010179366996 16478.0 1232.0 1262.6251526251506 0.4990548228714394 418.0 19.0 288.0 
510.00010179366996 16495.0 1234.0 1265.3724053724072 0.5006132049355246 415.0 20.0 288.0 
512.00010179367 16498.0 1234.0 1262.6398046398026 0.5031063028875247 415.0 19.0 288.0 
514.00010179367 16468.0 1234.0 1256.8962148962153 0.501570313447488 412.0 20.0 285.0 
516.00010179367 16440.0 1234.0 1254.1904761904777 0.4995679711410658 409.0 19.0 285.0 
518.00010179367 16444.0 1233.0 1254.097680097681 0.5028098169590299 410.0 20.0 284.0 
520.00010179367 16432.0 1233.0 1240.1245421245435 0.5004366635888047 409.0 19.0 280.0 
522.00010179367 16442.0 1235.0 1237.2796092796102 0.499007703002069 406.0 20.0 278.0 
524.00010179367 16469.0 1235.0 1240.219780219782 0.5019267590882108 408.0 19.0 280.0 
526.00010179367 16454.0 1233.0 1237.372405372407 0.501688267223034 407.0 20.0 278.0 
528.00010179367 16480.0 1234.0 1240.2295482295503 0.4992208524426612 409.0 19.0 280.0 
530.00010179367 16479.0 1234.0 1228.9279609279622 0.49951708295971825 408.0 20.0 275.0 
532.00010179367 16497.0 1236.0 1226.1318681318694 0.49976143695939096 407.0 19.0 275.0 
534.00010179367 16494.0 1235.0 1226.0268620268623 0.49899980431946106 404.0 20.0 274.0 
536.00010179367 16526.0 1235.0 1228.9230769230776 0.4991084161487101 405.0 19.0 276.0 
538.00010179367 16556.0 1237.0 1228.739926739926 0.5007681354272764 405.0 20.0 275.0 
540.00010179367 16562.0 1237.0 1228.9133089133095 0.504274855907183 407.0 19.0 276.0 
542.00010179367 16552.0 1236.0 1234.5347985347973 0.5003183306192723 408.0 20.0 277.0 
544.00010179367 16595.0 1237.0 1237.428571428572 0.5000247187133477 409.0 19.0 279.0 
546.00010179367 16576.0 1235.0 1240.087912087913 0.5016154617096629 409.0 20.0 279.0 
548.00010179367 16567.0 1235.0 1243.032967032964 0.49872567751682245 410.0 19.0 281.0 
550.00010179367 16580.0 1236.0 1240.100122100123 0.5009088622659718 409.0 20.0 279.0 
552.00010179367 16578.0 1236.0 1240.1709401709415 0.5016980417813077 411.0 19.0 280.0 
554.00010179367 16550.0 1236.0 1245.78266178266 0.4987898933879237 411.0 20.0 281.0 
556.00010179367 16562.0 1236.0 1243.0476190476159 0.49948076133749847 412.0 19.0 281.0 
558.00010179367 16568.0 1236.0 1243.0036630036595 0.4991946804284684 410.0 20.0 280.0 
560.00010179367 16610.0 1238.0 1242.9181929181957 0.5065076273982176 407.0 19.0 281.0 
562.00010179367 16527.0 1236.0 1245.6776556776529 0.4994901313360399 406.0 20.0 281.0 
564.00010179367 16552.0 1237.0 1248.661782661784 0.5009795713310341 410.0 19.0 283.0 
566.00010179367 16530.0 1237.0 1245.7655677655657 0.5023081977238889 409.0 20.0 281.0 
568.00010179367 16505.0 1235.0 1248.6471306471315 0.4989300255319142 416.0 19.0 283.0 
570.00010179367 16548.0 1236.0 1254.097680097681 0.4996976493366389 416.0 21.0 283.0 
572.00010179367 16614.0 1236.0 1257.167277167276 0.5034550171224855 417.0 20.0 285.0 
574.00010179367 16578.0 1235.0 1259.8363858363844 0.5020277840559149 415.0 20.0 286.0 
576.00010179367 16528.0 1234.0 1259.8656898656886 0.4990608530536813 416.0 19.0 287.0 
578.00010179367 16572.0 1235.0 1256.871794871796 0.5000313350933777 414.0 20.0 285.0 
580.00010179367 16546.0 1235.0 1257.0427350427333 0.4992533393825767 416.0 18.0 287.0 
582.00010179367 16618.0 1237.0 1259.7264957264933 0.506385523713643 416.0 19.0 287.0 
584.00010179367 16656.0 1236.0 1262.661782661782 0.507277727866846 420.0 18.0 289.0 
586.00010179367 16578.0 1234.0 1259.6971916971893 0.5005606031875205 418.0 19.0 287.0 
588.00010179367 16615.0 1235.0 1259.7728937728916 0.5030839638248634 419.0 18.0 288.0 
590.00010179367 16589.0 1235.0 1265.3455433455445 0.5063345256982347 420.0 19.0 289.0 
592.00010179367 16553.0 1235.0 1265.4139194139211 0.5010631594130087 423.0 18.0 290.0 
594.00010179367 16529.0 1234.0 1271.0012210012221 0.5031482795821862 425.0 19.0 291.0 
596.00010179367 16512.0 1232.0 1271.147741147741 0.4987094384155504 426.0 18.0 292.0 
598.00010179367 16514.0 1233.0 1273.792429792428 0.5001018228339794 425.0 19.0 292.0 
600.00010179367 16508.0 1235.0 1271.0500610500605 0.5033122049361886 427.0 18.0 292.0 
602.00010179367 16491.0 1233.0 1268.1782661782677 0.49925912568680747 424.0 19.0 290.0 
604.00010179367 16544.0 1236.0 1276.6617826617803 0.5002153368941965 425.0 18.0 294.0 
606.00010179367 16524.0 1235.0 1279.3772893772916 0.4991328019335638 423.0 19.0 294.0 
608.00010179367 16609.0 1238.0 1282.2979242979268 0.5002753953139105 424.0 18.0 296.0 
610.00010179367 16712.0 1239.0 1282.1611721611737 0.5049265421406255 423.0 19.0 295.0 
612.00010179367 16626.0 1236.0 1279.5042735042693 0.501598269871785 423.0 18.0 295.0 
614.00010179367 16652.0 1236.0 1279.4065934065964 0.5004849006392159 421.0 19.0 294.0 
616.00010179367 16674.0 1236.0 1279.4920634920657 0.5032881657006792 419.0 18.0 295.0 
618.00010179367 16680.0 1237.0 1282.20512820513 0.5026390120221823 419.0 19.0 295.0 
620.00010179367 16651.0 1236.0 1279.555555555552 0.4995455265545206 419.0 18.0 295.0 
622.00010179367 16679.0 1235.0 1282.2246642246662 0.499078431102136 418.0 19.0 295.0 
624.00010179367 16674.0 1235.0 1282.305250305253 0.49890761395956557 419.0 18.0 296.0 
626.00010179367 16673.0 1235.0 1282.1318681318694 0.4991704593098659 418.0 19.0 295.0 
628.00010179367 16693.0 1236.0 1287.8803418803407 0.5005159920410975 421.0 18.0 298.0 
630.00010179367 16687.0 1235.0 1287.7728937728918 0.5025296698092566 424.0 19.0 297.0 
632.00010179367 16690.0 1235.0 1296.4053724053756 0.5028653282188627 426.0 18.0 301.0 
634.00010179367 16697.0 1233.0 1296.222222222224 0.5042347584600434 432.0 19.0 300.0 
636.00010179367 16752.0 1234.0 1296.3711843711872 0.5023469396847826 434.0 18.0 301.0 
638.00010179367 16684.0 1232.0 1290.7277167277175 0.4991940246820377 432.0 19.0 298.0 
640.00010179367 16680.0 1233.0 1285.2112332112313 0.4995770971206214 428.0 18.0 297.0 
642.00010179367 16677.0 1233.0 1282.2954822954848 0.49964254076925013 424.0 19.0 295.0 
644.00010179367 16706.0 1234.0 1285.1868131868112 0.5004495188215135 424.0 18.0 297.0 
646.00010179367 16713.0 1235.0 1287.8388278388265 0.5010918958743387 420.0 19.0 297.0 
648.00010179367 16724.0 1235.0 1290.7301587301597 0.49972784256522434 420.0 18.0 299.0 
650.00010179367 16763.0 1235.0 1287.8583638583627 0.5020223181601241 418.0 19.0 297.0 
652.00010179367 16749.0 1235.0 1299.2649572649561 0.4986270446074256 419.0 18.0 302.0 
654.00010179367 16762.0 1237.0 1293.5726495726462 0.49996533379504954 415.0 19.0 299.0 
656.00010179367 16783.0 1238.0 1293.6166056166026 0.49949666275242594 418.0 18.0 300.0 
658.00010179367 16821.0 1238.0 1293.484737484737 0.5033116932392847 417.0 19.0 299.0 
660.00010179367 16851.0 1237.0 1293.6239316239287 0.5011669734251987 415.0 18.0 300.0 
662.00010179367 16814.0 1237.0 1293.5848595848563 0.5017543550483029 414.0 19.0 299.0 
664.00010179367 16800.0 1236.0 1296.468864468868 0.506799142009427 416.0 18.0 301.0 
#####################################################################
# End of data export. Simulation finished at: 2019-03-13T21:49+0000 #
#####################################################################
