#####################################################################
# Alchemist log file - simulation started at: 2019-03-08T00:53+0000 #
#####################################################################
# seed = 7.0, bandwidth = 74989.42093324558, accessPointCount = 10.0, baserange = 31.622776601683796
#
# The columns have the following meaning: 
# time neighbor_count[Sum] <value>@neighbor_count[Sum] packet_size[Mean] mean_delay[Mean] crowd[Sum] overcrowded[Sum] risk[Sum] 
0.0 NaN NaN NaN NaN NaN NaN NaN 
2.0001583893102293 NaN NaN 4987.840743198408 NaN 1497.0 0.0 1497.0 
4.000158389310229 NaN NaN 4987.840743198408 NaN 1497.0 0.0 1497.0 
6.000158389310229 NaN NaN 4987.840743198408 NaN 1497.0 0.0 1497.0 
8.00015838931023 NaN NaN 4987.840743198408 NaN 1497.0 0.0 1497.0 
10.000158389310231 NaN NaN 4987.840743198408 NaN 1497.0 0.0 1497.0 
12.000158389310231 NaN NaN 4987.840743198408 NaN 1497.0 0.0 1497.0 
14.000158389310231 NaN NaN 4987.840743198408 NaN 1497.0 0.0 1497.0 
16.00015838931023 NaN NaN 4987.840743198408 NaN 1497.0 0.0 1497.0 
18.00015838931023 NaN NaN 4987.840743198408 NaN 1497.0 0.0 1497.0 
20.00015838931023 NaN NaN 4987.840743198408 NaN 1497.0 0.0 1497.0 
22.00015838931023 NaN NaN 4987.840743198408 NaN 1497.0 0.0 1497.0 
24.00015838931023 NaN NaN 4987.840743198408 NaN 1497.0 0.0 1497.0 
26.00015838931023 NaN NaN 4987.840743198408 NaN 1497.0 0.0 1497.0 
28.00015838931023 NaN NaN 4987.840743198408 NaN 1497.0 0.0 1497.0 
30.00015838931023 NaN NaN 4987.840743198408 NaN 1497.0 0.0 1497.0 
32.00015838931023 NaN NaN 4987.840743198408 NaN 1497.0 0.0 1497.0 
34.00015838931023 NaN NaN 4987.840743198408 NaN 1497.0 0.0 1497.0 
36.00015838931023 NaN NaN 4987.840743198408 NaN 1497.0 0.0 1497.0 
38.00015838931023 NaN NaN 4987.840743198408 NaN 1497.0 0.0 1497.0 
40.00015838931023 NaN NaN 4987.840743198408 NaN 1497.0 0.0 1497.0 
42.00015838931023 NaN NaN 4987.840743198408 NaN 1497.0 0.0 1497.0 
44.00015838931023 NaN NaN 4987.840743198408 NaN 1497.0 0.0 1497.0 
46.00015838931023 NaN NaN 4987.840743198408 NaN 1497.0 0.0 1497.0 
48.00015838931023 NaN NaN 4987.840743198408 NaN 1497.0 0.0 1497.0 
50.00015838931023 NaN NaN 4987.840743198408 NaN 1497.0 0.0 1497.0 
52.00015838931023 NaN NaN 4987.840743198408 NaN 1497.0 0.0 1497.0 
54.00015838931023 NaN NaN 4987.840743198408 NaN 1497.0 0.0 1497.0 
56.00015838931023 NaN NaN 4987.840743198408 NaN 1497.0 0.0 1497.0 
58.00015838931023 NaN NaN 4987.840743198408 NaN 1497.0 0.0 1497.0 
60.00015838931023 NaN NaN 4987.840743198408 NaN 1497.0 0.0 1497.0 
62.00038832547422 NaN NaN 400.0 NaN 0.0 0.0 0.0 
64.00038832547422 NaN NaN 400.0 NaN 0.0 0.0 0.0 
66.00029741811947 NaN NaN 400.0 NaN 0.0 0.0 0.0 
68.00038832547422 NaN NaN 400.0 NaN 0.0 0.0 0.0 
70.00038832547422 NaN NaN 400.0 NaN 0.0 0.0 0.0 
72.00038832547422 NaN NaN 400.0 NaN 0.0 0.0 0.0 
74.00038832547422 NaN NaN 400.0 NaN 0.0 0.0 0.0 
76.00029741811947 NaN NaN 400.0 NaN 0.0 0.0 0.0 
78.00038832547422 NaN NaN 400.0 NaN 0.0 0.0 0.0 
80.00038832547422 NaN NaN 400.0 NaN 0.0 0.0 0.0 
82.00038832547422 NaN NaN 400.0 NaN 0.0 0.0 0.0 
84.00038832547422 NaN NaN 400.0 NaN 0.0 0.0 0.0 
86.00029741811947 NaN NaN 400.0 NaN 0.0 0.0 0.0 
88.00038832547422 NaN NaN 400.0 NaN 0.0 0.0 0.0 
90.00038832547422 NaN NaN 400.0 NaN 0.0 0.0 0.0 
92.00038832547422 NaN NaN 400.0 NaN 0.0 0.0 0.0 
94.00038832547422 NaN NaN 400.0 NaN 0.0 0.0 0.0 
96.00029741811947 NaN NaN 400.0 NaN 0.0 0.0 0.0 
98.00038832547422 NaN NaN 400.0 NaN 0.0 0.0 0.0 
100.00038832547422 NaN NaN 400.0 NaN 0.0 0.0 0.0 
102.00038832547422 NaN NaN 400.0 NaN 0.0 0.0 0.0 
104.00038832547422 NaN NaN 400.0 NaN 0.0 0.0 0.0 
106.00029741811947 NaN NaN 400.0 NaN 0.0 0.0 0.0 
108.00038832547422 NaN NaN 400.0 NaN 0.0 0.0 0.0 
110.00038832547422 NaN NaN 400.0 NaN 0.0 0.0 0.0 
112.00038832547422 NaN NaN 400.0 NaN 0.0 0.0 0.0 
114.00038832547422 NaN NaN 400.0 NaN 0.0 0.0 0.0 
116.00029741811947 NaN NaN 400.0 NaN 0.0 0.0 0.0 
118.00038832547422 NaN NaN 400.0 NaN 0.0 0.0 0.0 
120.00038832547422 NaN NaN 400.0 NaN 0.0 0.0 0.0 
122.00038832547422 NaN NaN 400.0 NaN 0.0 0.0 0.0 
124.00038832547422 NaN NaN 400.0 NaN 0.0 0.0 0.0 
126.00029741811947 NaN NaN 400.0 NaN 0.0 0.0 0.0 
128.00038832547423 NaN NaN 400.0 NaN 0.0 0.0 0.0 
130.00038832547423 NaN NaN 400.0 NaN 0.0 0.0 0.0 
132.00038832547423 NaN NaN 400.0 NaN 0.0 0.0 0.0 
134.00038832547423 NaN NaN 400.0 NaN 0.0 0.0 0.0 
136.0002974181195 NaN NaN 400.0 NaN 0.0 0.0 0.0 
138.00038832547423 NaN NaN 400.0 NaN 0.0 0.0 0.0 
140.00038832547423 NaN NaN 400.0 NaN 0.0 0.0 0.0 
142.00038832547423 NaN NaN 400.0 NaN 0.0 0.0 0.0 
144.00038832547423 NaN NaN 400.0 NaN 0.0 0.0 0.0 
146.0002974181195 NaN NaN 400.0 NaN 0.0 0.0 0.0 
148.00038832547423 NaN NaN 400.0 NaN 0.0 0.0 0.0 
150.00038832547423 NaN NaN 400.0 NaN 0.0 0.0 0.0 
152.00038832547423 NaN NaN 400.0 NaN 0.0 0.0 0.0 
154.00038832547423 NaN NaN 400.0 NaN 0.0 0.0 0.0 
156.0002974181195 NaN NaN 400.0 NaN 0.0 0.0 0.0 
158.00038832547423 NaN NaN 400.0 NaN 0.0 0.0 0.0 
160.00038832547423 NaN NaN 400.0 NaN 0.0 0.0 0.0 
162.00038832547423 NaN NaN 400.0 NaN 0.0 0.0 0.0 
164.00038832547423 NaN NaN 400.0 NaN 0.0 0.0 0.0 
166.0002974181195 NaN NaN 400.0 NaN 0.0 0.0 0.0 
168.00038832547423 NaN NaN 400.0 NaN 0.0 0.0 0.0 
170.00038832547423 NaN NaN 400.0 NaN 0.0 0.0 0.0 
172.00038832547423 NaN NaN 400.0 NaN 0.0 0.0 0.0 
174.00038832547423 NaN NaN 400.0 NaN 0.0 0.0 0.0 
176.0002974181195 NaN NaN 400.0 NaN 0.0 0.0 0.0 
178.00038832547423 NaN NaN 400.0 NaN 0.0 0.0 0.0 
180.00038832547423 NaN NaN 400.0 NaN 0.0 0.0 0.0 
182.00038832547423 NaN NaN 400.0 NaN 0.0 0.0 0.0 
184.00038832547423 NaN NaN 400.0 NaN 0.0 0.0 0.0 
186.0002974181195 NaN NaN 400.0 NaN 0.0 0.0 0.0 
188.00038832547423 NaN NaN 400.0 NaN 0.0 0.0 0.0 
190.00038832547423 NaN NaN 400.0 NaN 0.0 0.0 0.0 
192.00038832547423 NaN NaN 400.0 NaN 0.0 0.0 0.0 
194.00038832547423 NaN NaN 400.0 NaN 0.0 0.0 0.0 
196.0002974181195 NaN NaN 400.0 NaN 0.0 0.0 0.0 
198.00038832547423 NaN NaN 400.0 NaN 0.0 0.0 0.0 
200.00038832547423 NaN NaN 400.0 NaN 0.0 0.0 0.0 
202.00038832547423 NaN NaN 400.0 NaN 0.0 0.0 0.0 
204.00038832547423 NaN NaN 400.0 NaN 0.0 0.0 0.0 
206.0002974181195 NaN NaN 400.0 NaN 0.0 0.0 0.0 
208.00038832547423 NaN NaN 400.0 NaN 0.0 0.0 0.0 
210.00038832547423 NaN NaN 400.0 NaN 0.0 0.0 0.0 
212.00038832547423 NaN NaN 400.0 NaN 0.0 0.0 0.0 
214.00038832547423 NaN NaN 400.0 NaN 0.0 0.0 0.0 
216.0002974181195 NaN NaN 400.0 NaN 0.0 0.0 0.0 
218.00038832547423 NaN NaN 400.0 NaN 0.0 0.0 0.0 
220.00038832547423 NaN NaN 400.0 NaN 0.0 0.0 0.0 
222.00038832547423 NaN NaN 400.0 NaN 0.0 0.0 0.0 
224.00038832547423 NaN NaN 400.0 NaN 0.0 0.0 0.0 
226.0002974181195 NaN NaN 400.0 NaN 0.0 0.0 0.0 
228.00038832547423 NaN NaN 400.0 NaN 0.0 0.0 0.0 
230.00038832547423 NaN NaN 400.0 NaN 0.0 0.0 0.0 
232.00038832547423 NaN NaN 400.0 NaN 0.0 0.0 0.0 
234.00038832547423 NaN NaN 400.0 NaN 0.0 0.0 0.0 
236.0002974181195 NaN NaN 400.0 NaN 0.0 0.0 0.0 
238.00038832547423 NaN NaN 400.0 NaN 0.0 0.0 0.0 
240.00038832547423 NaN NaN 400.0 NaN 0.0 0.0 0.0 
242.00038832547423 NaN NaN 400.0 NaN 0.0 0.0 0.0 
244.00038832547423 NaN NaN 400.0 NaN 0.0 0.0 0.0 
246.0002974181195 NaN NaN 400.0 NaN 0.0 0.0 0.0 
248.00038832547423 NaN NaN 400.0 NaN 0.0 0.0 0.0 
250.00038832547423 NaN NaN 400.0 NaN 0.0 0.0 0.0 
252.00038832547423 NaN NaN 400.0 NaN 0.0 0.0 0.0 
254.00038832547423 NaN NaN 400.0 NaN 0.0 0.0 0.0 
256.0002974181195 NaN NaN 400.0 NaN 0.0 0.0 0.0 
258.0003883254742 NaN NaN 400.0 NaN 0.0 0.0 0.0 
260.0003883254742 NaN NaN 400.0 NaN 0.0 0.0 0.0 
262.0003883254742 NaN NaN 400.0 NaN 0.0 0.0 0.0 
264.0003883254742 NaN NaN 400.0 NaN 0.0 0.0 0.0 
266.0002974181195 NaN NaN 400.0 NaN 0.0 0.0 0.0 
268.0003883254742 NaN NaN 400.0 NaN 0.0 0.0 0.0 
270.0003883254742 NaN NaN 400.0 NaN 0.0 0.0 0.0 
272.0003883254742 NaN NaN 400.0 NaN 0.0 0.0 0.0 
274.0003883254742 NaN NaN 400.0 NaN 0.0 0.0 0.0 
276.0002974181195 NaN NaN 400.0 NaN 0.0 0.0 0.0 
278.0003883254742 NaN NaN 400.0 NaN 0.0 0.0 0.0 
280.0003883254742 NaN NaN 400.0 NaN 0.0 0.0 0.0 
282.0003883254742 NaN NaN 400.0 NaN 0.0 0.0 0.0 
284.0003883254742 NaN NaN 400.0 NaN 0.0 0.0 0.0 
286.0002974181195 NaN NaN 400.0 NaN 0.0 0.0 0.0 
288.0003883254742 NaN NaN 400.0 NaN 0.0 0.0 0.0 
290.0003883254742 NaN NaN 400.0 NaN 0.0 0.0 0.0 
292.0003883254742 NaN NaN 400.0 NaN 0.0 0.0 0.0 
294.0003883254742 NaN NaN 400.0 NaN 0.0 0.0 0.0 
296.0002974181195 NaN NaN 400.0 NaN 0.0 0.0 0.0 
298.0003883254742 NaN NaN 400.0 NaN 0.0 0.0 0.0 
300.0003883254742 NaN NaN 400.0 NaN 0.0 0.0 0.0 
302.0003883254742 NaN NaN 400.0 NaN 0.0 0.0 0.0 
304.0003883254742 NaN NaN 400.0 NaN 0.0 0.0 0.0 
306.0002974181195 NaN NaN 400.0 NaN 0.0 0.0 0.0 
308.0003883254742 NaN NaN 400.0 NaN 0.0 0.0 0.0 
310.0003883254742 NaN NaN 400.0 NaN 0.0 0.0 0.0 
312.0003883254742 NaN NaN 400.0 NaN 0.0 0.0 0.0 
314.0003883254742 NaN NaN 400.0 NaN 0.0 0.0 0.0 
316.0002974181195 NaN NaN 400.0 NaN 0.0 0.0 0.0 
318.0003883254742 NaN NaN 400.0 NaN 0.0 0.0 0.0 
320.0003883254742 NaN NaN 400.0 NaN 0.0 0.0 0.0 
322.0003883254742 NaN NaN 400.0 NaN 0.0 0.0 0.0 
324.0003883254742 NaN NaN 400.0 NaN 0.0 0.0 0.0 
326.0002974181195 NaN NaN 400.0 NaN 0.0 0.0 0.0 
328.0003883254742 NaN NaN 400.0 NaN 0.0 0.0 0.0 
330.0003883254742 NaN NaN 400.0 NaN 0.0 0.0 0.0 
332.0003883254742 NaN NaN 400.0 NaN 0.0 0.0 0.0 
334.0003883254742 NaN NaN 400.0 NaN 0.0 0.0 0.0 
336.0002974181195 2.0 1.0 400.0 0.49466591427136564 0.0 0.0 0.0 
338.0003883254742 2.0 1.0 400.0 0.49466591427136564 0.0 0.0 0.0 
340.0003883254742 2.0 1.0 400.0 0.49466591427136564 0.0 0.0 0.0 
342.0003883254742 2.0 1.0 400.0 0.49466591427136564 0.0 0.0 0.0 
344.0003883254742 2.0 1.0 400.0 0.49466591427136564 0.0 0.0 0.0 
346.0002974181195 2.0 1.0 400.0 2.4946659142713656 0.0 0.0 0.0 
348.0003883254742 2.0 1.0 400.0 4.494665914271366 0.0 0.0 0.0 
350.0003883254742 0.0 0.0 400.0 NaN 0.0 0.0 0.0 
352.0003883254742 0.0 0.0 400.0 NaN 0.0 0.0 0.0 
354.0003883254742 0.0 0.0 400.0 NaN 0.0 0.0 0.0 
356.0002974181195 0.0 0.0 400.0 NaN 0.0 0.0 0.0 
358.0003883254742 0.0 0.0 400.0 NaN 0.0 0.0 0.0 
360.0003883254742 0.0 0.0 400.0 NaN 0.0 0.0 0.0 
362.0003883254742 0.0 0.0 400.0 NaN 0.0 0.0 0.0 
364.0003883254742 0.0 0.0 400.0 NaN 0.0 0.0 0.0 
366.0002974181195 0.0 0.0 400.0 NaN 0.0 0.0 0.0 
368.0003883254742 0.0 0.0 400.0 NaN 0.0 0.0 0.0 
370.0003883254742 0.0 0.0 400.0 NaN 0.0 0.0 0.0 
372.0003883254742 0.0 0.0 400.0 NaN 0.0 0.0 0.0 
374.0003883254742 0.0 0.0 400.0 NaN 0.0 0.0 0.0 
376.0002974181195 0.0 0.0 400.0 NaN 0.0 0.0 0.0 
378.0003883254742 0.0 0.0 400.0 NaN 0.0 0.0 0.0 
380.0003883254742 0.0 0.0 400.0 NaN 0.0 0.0 0.0 
382.0003883254742 0.0 0.0 400.0 NaN 0.0 0.0 0.0 
384.0003883254742 0.0 0.0 400.0 NaN 0.0 0.0 0.0 
386.0002974181195 0.0 0.0 400.0 NaN 0.0 0.0 0.0 
388.0003883254742 0.0 0.0 400.0 NaN 0.0 0.0 0.0 
390.0003883254742 0.0 0.0 400.0 NaN 0.0 0.0 0.0 
392.0003883254742 0.0 0.0 400.0 NaN 0.0 0.0 0.0 
394.0003883254742 0.0 0.0 400.0 NaN 0.0 0.0 0.0 
396.0002974181195 0.0 0.0 400.0 NaN 0.0 0.0 0.0 
398.0003883254742 0.0 0.0 400.0 NaN 0.0 0.0 0.0 
400.0003883254742 0.0 0.0 400.0 NaN 0.0 0.0 0.0 
402.0003883254742 0.0 0.0 400.0 NaN 0.0 0.0 0.0 
404.0003883254742 0.0 0.0 400.0 NaN 0.0 0.0 0.0 
406.0002974181195 0.0 0.0 400.0 NaN 0.0 0.0 0.0 
408.0003883254742 0.0 0.0 400.0 NaN 0.0 0.0 0.0 
410.0003883254742 0.0 0.0 400.0 NaN 0.0 0.0 0.0 
412.0003883254742 0.0 0.0 400.0 NaN 0.0 0.0 0.0 
414.0003883254742 0.0 0.0 400.0 NaN 0.0 0.0 0.0 
416.0002974181195 0.0 0.0 400.0 NaN 0.0 0.0 0.0 
418.0003883254742 0.0 0.0 400.0 NaN 0.0 0.0 0.0 
420.0003883254742 0.0 0.0 400.0 NaN 0.0 0.0 0.0 
422.0003883254742 0.0 0.0 400.0 NaN 0.0 0.0 0.0 
424.0003883254742 0.0 0.0 400.0 NaN 0.0 0.0 0.0 
426.0002974181195 0.0 0.0 400.0 NaN 0.0 0.0 0.0 
428.0003883254742 0.0 0.0 400.0 NaN 0.0 0.0 0.0 
430.0003883254742 0.0 0.0 400.0 NaN 0.0 0.0 0.0 
432.0003883254742 0.0 0.0 400.0 NaN 0.0 0.0 0.0 
434.0003883254742 0.0 0.0 400.0 NaN 0.0 0.0 0.0 
436.0002974181195 0.0 0.0 400.0 NaN 0.0 0.0 0.0 
438.0003883254742 0.0 0.0 400.0 NaN 0.0 0.0 0.0 
440.0003883254742 0.0 0.0 400.0 NaN 0.0 0.0 0.0 
442.0003883254742 0.0 0.0 400.0 NaN 0.0 0.0 0.0 
444.0003883254742 0.0 0.0 400.0 NaN 0.0 0.0 0.0 
446.0002974181195 0.0 0.0 400.0 NaN 0.0 0.0 0.0 
448.0003883254742 0.0 0.0 400.0 NaN 0.0 0.0 0.0 
450.0003883254742 0.0 0.0 400.0 NaN 0.0 0.0 0.0 
452.0003883254742 0.0 0.0 400.0 NaN 0.0 0.0 0.0 
454.0003883254742 0.0 0.0 400.0 NaN 0.0 0.0 0.0 
456.0002974181195 0.0 0.0 400.0 NaN 0.0 0.0 0.0 
458.0003883254742 0.0 0.0 400.0 NaN 0.0 0.0 0.0 
460.0003883254742 0.0 0.0 400.0 NaN 0.0 0.0 0.0 
462.0003883254742 0.0 0.0 400.0 NaN 0.0 0.0 0.0 
464.0003883254742 0.0 0.0 400.0 NaN 0.0 0.0 0.0 
466.0002974181195 0.0 0.0 400.0 NaN 0.0 0.0 0.0 
468.0003883254742 0.0 0.0 400.0 NaN 0.0 0.0 0.0 
470.0003883254742 0.0 0.0 400.0 NaN 0.0 0.0 0.0 
472.0003883254742 0.0 0.0 400.0 NaN 0.0 0.0 0.0 
474.0003883254742 0.0 0.0 400.0 NaN 0.0 0.0 0.0 
476.0002974181195 0.0 0.0 400.0 NaN 0.0 0.0 0.0 
478.0003883254742 0.0 0.0 400.0 NaN 0.0 0.0 0.0 
480.0003883254742 0.0 0.0 400.0 NaN 0.0 0.0 0.0 
482.0003883254742 0.0 0.0 400.0 NaN 0.0 0.0 0.0 
484.0003883254742 0.0 0.0 400.0 NaN 0.0 0.0 0.0 
486.0002974181195 0.0 0.0 400.0 NaN 0.0 0.0 0.0 
488.0003883254742 0.0 0.0 400.0 NaN 0.0 0.0 0.0 
490.0003883254742 0.0 0.0 400.0 NaN 0.0 0.0 0.0 
492.0003883254742 0.0 0.0 400.0 NaN 0.0 0.0 0.0 
494.0003883254742 0.0 0.0 400.0 NaN 0.0 0.0 0.0 
496.0002974181195 0.0 0.0 400.0 NaN 0.0 0.0 0.0 
498.0003883254742 0.0 0.0 400.0 NaN 0.0 0.0 0.0 
500.0003883254742 0.0 0.0 400.0 NaN 0.0 0.0 0.0 
502.0003883254742 0.0 0.0 400.0 NaN 0.0 0.0 0.0 
504.0003883254742 0.0 0.0 400.0 NaN 0.0 0.0 0.0 
506.0002974181195 0.0 0.0 400.0 NaN 0.0 0.0 0.0 
508.0003883254742 0.0 0.0 400.0 NaN 0.0 0.0 0.0 
510.0003883254742 0.0 0.0 400.0 NaN 0.0 0.0 0.0 
512.0003883254742 0.0 0.0 400.0 NaN 0.0 0.0 0.0 
514.0003883254742 0.0 0.0 400.0 NaN 0.0 0.0 0.0 
516.0002974181195 0.0 0.0 400.0 NaN 0.0 0.0 0.0 
518.0003883254742 0.0 0.0 400.0 NaN 0.0 0.0 0.0 
520.0003883254742 0.0 0.0 400.0 NaN 0.0 0.0 0.0 
522.0003883254742 0.0 0.0 400.0 NaN 0.0 0.0 0.0 
524.0003883254742 0.0 0.0 400.0 NaN 0.0 0.0 0.0 
526.0002974181195 0.0 0.0 400.0 NaN 0.0 0.0 0.0 
528.0003883254742 0.0 0.0 400.0 NaN 0.0 0.0 0.0 
530.0003883254742 0.0 0.0 400.0 NaN 0.0 0.0 0.0 
532.0003883254742 0.0 0.0 400.0 NaN 0.0 0.0 0.0 
534.0003883254742 0.0 0.0 400.0 NaN 0.0 0.0 0.0 
536.0002974181195 0.0 0.0 400.0 NaN 0.0 0.0 0.0 
538.0003883254742 0.0 0.0 400.0 NaN 0.0 0.0 0.0 
540.0003883254742 0.0 0.0 400.0 NaN 0.0 0.0 0.0 
542.0003883254742 0.0 0.0 400.0 NaN 0.0 0.0 0.0 
544.0003883254742 0.0 0.0 400.0 NaN 0.0 0.0 0.0 
546.0002974181195 0.0 0.0 400.0 NaN 0.0 0.0 0.0 
548.0003883254742 0.0 0.0 400.0 NaN 0.0 0.0 0.0 
550.0003883254742 0.0 0.0 400.0 NaN 0.0 0.0 0.0 
552.0003883254742 0.0 0.0 400.0 NaN 0.0 0.0 0.0 
554.0003883254742 0.0 0.0 400.0 NaN 0.0 0.0 0.0 
556.0002974181195 0.0 0.0 400.0 NaN 0.0 0.0 0.0 
558.0003883254742 0.0 0.0 400.0 NaN 0.0 0.0 0.0 
560.0003883254742 0.0 0.0 400.0 NaN 0.0 0.0 0.0 
562.0003883254742 0.0 0.0 400.0 NaN 0.0 0.0 0.0 
564.0003883254742 0.0 0.0 400.0 NaN 0.0 0.0 0.0 
566.0002974181195 0.0 0.0 400.0 NaN 0.0 0.0 0.0 
568.0003883254742 0.0 0.0 400.0 NaN 0.0 0.0 0.0 
570.0003883254742 0.0 0.0 400.0 NaN 0.0 0.0 0.0 
572.0003883254742 0.0 0.0 400.0 NaN 0.0 0.0 0.0 
574.0003883254742 0.0 0.0 400.0 NaN 0.0 0.0 0.0 
576.0002974181195 2.0 1.0 400.0 0.4946659142713088 0.0 0.0 0.0 
578.0003883254742 2.0 1.0 400.0 0.4946659142713088 0.0 0.0 0.0 
580.0003883254742 2.0 1.0 400.0 0.4946659142713088 0.0 0.0 0.0 
582.0003883254742 2.0 1.0 400.0 0.4946659142713088 0.0 0.0 0.0 
584.0003883254742 2.0 1.0 400.0 0.4946659142713088 0.0 0.0 0.0 
586.0002974181195 2.0 1.0 400.0 0.4946659142713088 0.0 0.0 0.0 
588.0003883254742 2.0 1.0 400.0 0.4946659142713088 0.0 0.0 0.0 
590.0003883254742 2.0 1.0 400.0 0.4946659142713088 0.0 0.0 0.0 
592.0003883254742 2.0 1.0 400.0 0.4946659142713088 0.0 0.0 0.0 
594.0003883254742 2.0 1.0 400.0 0.4946659142713088 0.0 0.0 0.0 
596.0002974181195 2.0 1.0 400.0 1.4946659142713088 0.0 0.0 0.0 
598.0003883254742 2.0 1.0 400.0 3.494665914271309 0.0 0.0 0.0 
600.0003883254742 0.0 0.0 400.0 NaN 0.0 0.0 0.0 
602.0003883254742 0.0 0.0 400.0 NaN 0.0 0.0 0.0 
604.0003883254742 0.0 0.0 400.0 NaN 0.0 0.0 0.0 
606.0002974181195 0.0 0.0 400.0 NaN 0.0 0.0 0.0 
608.0003883254742 0.0 0.0 400.0 NaN 0.0 0.0 0.0 
610.0003883254742 0.0 0.0 400.0 NaN 0.0 0.0 0.0 
612.0003883254742 0.0 0.0 400.0 NaN 0.0 0.0 0.0 
614.0003883254742 0.0 0.0 400.0 NaN 0.0 0.0 0.0 
616.0002974181195 0.0 0.0 400.0 NaN 0.0 0.0 0.0 
618.0003883254742 0.0 0.0 400.0 NaN 0.0 0.0 0.0 
620.0003883254742 0.0 0.0 400.0 NaN 0.0 0.0 0.0 
622.0003883254742 0.0 0.0 400.0 NaN 0.0 0.0 0.0 
624.0003883254742 0.0 0.0 400.0 NaN 0.0 0.0 0.0 
626.0002974181195 0.0 0.0 400.0 NaN 0.0 0.0 0.0 
628.0003883254742 0.0 0.0 400.0 NaN 0.0 0.0 0.0 
630.0003883254742 0.0 0.0 400.0 NaN 0.0 0.0 0.0 
632.0003883254742 0.0 0.0 400.0 NaN 0.0 0.0 0.0 
634.0003883254742 0.0 0.0 400.0 NaN 0.0 0.0 0.0 
636.0002974181195 0.0 0.0 400.0 NaN 0.0 0.0 0.0 
638.0003883254742 0.0 0.0 400.0 NaN 0.0 0.0 0.0 
640.0003883254742 0.0 0.0 400.0 NaN 0.0 0.0 0.0 
642.0003883254742 0.0 0.0 400.0 NaN 0.0 0.0 0.0 
644.0003883254742 0.0 0.0 400.0 NaN 0.0 0.0 0.0 
646.0002974181195 0.0 0.0 400.0 NaN 0.0 0.0 0.0 
648.0003883254742 0.0 0.0 400.0 NaN 0.0 0.0 0.0 
650.0003883254742 0.0 0.0 400.0 NaN 0.0 0.0 0.0 
652.0003883254742 0.0 0.0 400.0 NaN 0.0 0.0 0.0 
654.0003883254742 0.0 0.0 400.0 NaN 0.0 0.0 0.0 
656.0002974181195 0.0 0.0 400.0 NaN 0.0 0.0 0.0 
658.0003883254742 0.0 0.0 400.0 NaN 0.0 0.0 0.0 
660.0003883254742 0.0 0.0 400.0 NaN 0.0 0.0 0.0 
662.0003883254742 0.0 0.0 400.0 NaN 0.0 0.0 0.0 
664.0003883254742 0.0 0.0 400.0 NaN 0.0 0.0 0.0 
#####################################################################
# End of data export. Simulation finished at: 2019-03-08T00:55+0000 #
#####################################################################
