#####################################################################
# Alchemist log file - simulation started at: 2019-03-03T02:17+0000 #
#####################################################################
# seed = 9.0, bandwidth = 74989.42093324558, accessPointCount = 531.8295896944988, baserange = 31.622776601683796
#
# The columns have the following meaning: 
# time neighbor_count[Sum] <value>@neighbor_count[Sum] packet_size[Mean] mean_delay[Mean] crowd[Sum] overcrowded[Sum] risk[Sum] 
0.0 NaN NaN NaN NaN NaN NaN NaN 
10.000337445961424 248.0 84.0 4983.205128205128 0.5403936096788753 1497.0 0.0 1497.0 
20.000337445961424 248.0 83.0 4983.157790927022 0.5004501842241136 1497.0 0.0 1497.0 
30.000337445961424 250.0 84.0 4982.92899408284 0.5516956650674438 1497.0 0.0 1497.0 
40.00033744596142 244.0 82.0 4983.12426035503 0.49102065335432893 1497.0 0.0 1497.0 
50.00033744596142 248.0 84.0 4982.8540433925045 0.48992026320006954 1497.0 0.0 1497.0 
60.00033744596142 248.0 84.0 4983.155818540434 0.4898854195755516 1497.0 0.0 1497.0 
70.0001766131494 252.0 85.0 456.65877712031556 0.4928682760301354 43.0 0.0 25.0 
80.0001766131494 252.0 85.0 454.39644970414224 0.4928682760301354 32.0 0.0 24.0 
90.0001766131494 255.0 86.0 454.39644970414224 0.4907138493456509 29.0 0.0 24.0 
100.0001766131494 259.0 87.0 456.6587771203154 0.5476944505813057 31.0 0.0 25.0 
110.0001766131494 259.0 87.0 456.6587771203154 0.5167888734005917 31.0 0.0 25.0 
120.0001766131494 265.0 88.0 458.9211045364887 0.5383415280380872 33.0 0.0 26.0 
130.00017661314942 259.0 86.0 458.9211045364887 0.5681063793962701 32.0 0.0 26.0 
140.00017661314942 254.0 85.0 458.9211045364887 0.5270479497945303 30.0 0.0 26.0 
150.00017661314942 252.0 84.0 458.9211045364887 0.486924080453444 29.0 0.0 26.0 
160.00017661314942 252.0 84.0 458.9211045364887 0.486924080453444 29.0 0.0 26.0 
170.00017661314942 254.0 84.0 456.662721893491 0.49076563162773373 28.0 0.0 25.0 
180.00017661314942 258.0 85.0 456.662721893491 0.49107562070870375 27.0 0.0 25.0 
190.00017661314942 260.0 85.0 454.4003944773176 0.4893920207097755 26.0 0.0 24.0 
200.00017661314942 260.0 85.0 454.4003944773176 0.5123346861862172 26.0 0.0 24.0 
210.00017661314942 256.0 84.0 454.4003944773176 0.4909589382826308 26.0 0.0 24.0 
220.00017661314942 258.0 85.0 454.4003944773176 0.4910182498984501 26.0 0.0 24.0 
230.00017661314942 264.0 86.0 456.6627218934909 0.4888300313176928 28.0 0.0 25.0 
240.00017661314942 272.0 88.0 463.4615384615381 0.522018425648392 30.0 0.0 28.0 
250.00017661314942 272.0 89.0 463.4635108481262 0.49572257383918333 28.0 0.0 28.0 
260.0001766131494 270.0 88.0 463.4595660749509 0.49573658379225044 28.0 0.0 28.0 
270.0001766131494 270.0 88.0 463.4595660749509 0.49573658379225044 28.0 0.0 28.0 
280.0001766131494 272.0 89.0 463.4595660749509 0.5380893514041833 28.0 0.0 28.0 
290.0001766131494 268.0 87.0 463.4595660749509 0.49820616182872945 28.0 0.0 28.0 
300.0001766131494 276.0 88.0 463.46548323471376 0.5003956982330909 28.0 0.0 28.0 
310.0001766131494 276.0 90.0 465.72189349112443 0.5045068692853402 31.0 0.0 29.0 
320.0001766131494 278.0 91.0 465.72189349112443 0.543528251576089 31.0 0.0 29.0 
330.0001766131494 277.0 90.0 465.72189349112443 0.5308504230737012 31.0 0.0 29.0 
340.0001766131494 268.0 87.0 465.72189349112443 0.4983578960660824 31.0 0.0 29.0 
350.0001766131494 266.0 87.0 465.72189349112443 0.5049249164605422 31.0 0.0 29.0 
360.0001766131494 266.0 88.0 465.72189349112443 0.5161818753755925 30.0 0.0 29.0 
370.0001766131494 262.0 87.0 463.4595660749509 0.5289260136083389 29.0 0.0 28.0 
380.0001766131494 260.0 86.0 463.4595660749509 0.5374063326454337 29.0 0.0 28.0 
390.0001766131494 262.0 87.0 463.4595660749509 0.4898635136083389 29.0 0.0 28.0 
400.0001766131494 262.0 87.0 463.4595660749509 0.5601760136083389 29.0 0.0 28.0 
410.0001766131494 260.0 87.0 461.19723865877717 0.5330766547737389 28.0 0.0 27.0 
420.0001766131494 254.0 84.0 461.19723865877717 0.4908847743609508 27.0 0.0 27.0 
430.0001766131494 254.0 84.0 461.19723865877717 0.4908847743609508 27.0 0.0 27.0 
440.0001766131494 254.0 84.0 461.19723865877717 0.4908847743609508 27.0 0.0 27.0 
450.0001766131494 258.0 85.0 463.45956607495054 0.4933335874402541 30.0 0.0 28.0 
460.0001766131494 268.0 86.0 465.727810650887 0.4977828419675087 30.0 0.0 29.0 
470.0001766131494 268.0 86.0 467.98422090729747 0.5597949933408475 33.0 0.0 30.0 
480.0001766131494 260.0 85.0 467.98422090729747 0.5008172854532836 33.0 0.0 30.0 
490.0001766131494 264.0 87.0 467.98422090729747 0.5006265452615962 33.0 0.0 30.0 
500.0001766131494 272.0 89.0 467.98422090729747 0.6352191485684292 33.0 0.0 30.0 
510.0001766131494 260.0 86.0 467.98422090729747 0.49762976297628886 31.0 0.0 30.0 
520.0001766131495 260.0 86.0 465.7218934911243 0.5655223923197003 31.0 0.0 29.0 
530.0001766131495 258.0 85.0 463.4595660749509 0.49465609596847454 28.0 0.0 28.0 
540.0001766131495 256.0 85.0 463.4595660749509 0.4947806358918468 28.0 0.0 28.0 
550.0001766131495 260.0 87.0 463.4595660749509 0.4947771059958302 28.0 0.0 28.0 
560.0001766131495 266.0 88.0 465.72189349112443 0.5290287201333631 31.0 0.0 29.0 
570.0001766131495 268.0 87.0 468.0118343195259 0.5450955368194779 30.0 0.0 30.0 
580.0001766131495 264.0 86.0 468.02761341222833 0.498361927795976 30.0 0.0 30.0 
590.0001766131495 264.0 86.0 468.01972386587767 0.4983585677419737 30.0 0.0 30.0 
600.0001766131495 268.0 88.0 468.01577909270236 0.5320477150832384 30.0 0.0 30.0 
610.0001766131495 266.0 89.0 468.0118343195259 0.50713842625944 30.0 0.0 30.0 
620.0001766131495 258.0 85.0 470.26429980276146 0.49902978159045064 33.0 0.0 31.0 
630.0001766131495 258.0 85.0 472.5404339250489 0.4997003701988933 34.0 0.0 32.0 
640.0001766131495 265.0 86.0 477.0552268244578 0.5547967726369136 35.0 0.0 34.0 
650.0001766131495 262.0 88.0 477.0571992110446 0.5052954419820553 35.0 0.0 34.0 
660.0001766131495 270.0 88.0 477.0453648915185 0.5024983401543143 36.0 0.0 34.0 
#####################################################################
# End of data export. Simulation finished at: 2019-03-03T02:23+0000 #
#####################################################################
