#####################################################################
# Alchemist log file - simulation started at: 2019-03-07T15:48+0000 #
#####################################################################
# seed = 7.0, bandwidth = 4216.965034285822, accessPointCount = 141.4213562373095, baserange = 562.341325190349
#
# The columns have the following meaning: 
# time neighbor_count[Sum] <value>@neighbor_count[Sum] packet_size[Mean] mean_delay[Mean] crowd[Sum] overcrowded[Sum] risk[Sum] 
0.0 NaN NaN NaN NaN NaN NaN NaN 
2.0003100135960743 9.0 7.0 4985.934065934066 0.288331942975276 1497.0 0.0 1497.0 
4.000820081749151 102.0 56.0 4985.941391941392 0.8776631141121621 1497.0 0.0 1497.0 
6.000297418119471 311.0 127.0 4985.958485958486 1.4074640125794238 1497.0 0.0 1497.0 
8.00082008174915 773.0 245.0 4986.043956043956 1.5277975063055198 1497.0 0.0 1497.0 
10.00082008174915 1201.0 328.0 4986.188034188034 2.0806684538389515 1497.0 0.0 1497.0 
12.00082008174915 1676.0 429.0 4986.37851037851 2.5160421357323357 1497.0 0.0 1497.0 
14.00082008174915 2227.0 495.0 4986.737484737485 3.0488003235050662 1497.0 0.0 1497.0 
16.000297418119473 2852.0 550.0 4986.788766788767 3.731790516921077 1497.0 0.0 1497.0 
18.00082008174915 3401.0 590.0 4987.189255189255 4.682573747491103 1497.0 0.0 1497.0 
20.00082008174915 4193.0 628.0 4987.450549450549 5.361272382040702 1497.0 0.0 1497.0 
22.00082008174915 4652.0 672.0 4987.62148962149 6.079423067338465 1497.0 0.0 1497.0 
24.00082008174915 4973.0 710.0 4987.74358974359 6.356794147417897 1497.0 0.0 1497.0 
26.000297418119473 5533.0 742.0 4988.117216117216 6.489246551154369 1497.0 0.0 1497.0 
28.00082008174915 6095.0 775.0 4988.393162393162 7.8280495831818495 1497.0 0.0 1497.0 
30.00082008174915 6371.0 797.0 4988.478632478633 8.884484220096596 1497.0 0.0 1497.0 
32.000820081749154 6468.0 803.0 4988.608058608059 9.32061722886056 1497.0 0.0 1497.0 
34.000820081749154 6767.0 825.0 4988.683760683761 10.160085980066528 1497.0 0.0 1497.0 
36.00029741811947 7536.0 874.0 4988.930402930403 10.258748919865731 1497.0 0.0 1497.0 
38.000820081749154 7580.0 875.0 4988.984126984127 10.439911073986268 1497.0 0.0 1497.0 
40.000820081749154 7638.0 882.0 4988.976800976801 10.225190911907248 1497.0 0.0 1497.0 
42.000820081749154 8015.0 889.0 4989.079365079365 9.929522517548195 1497.0 0.0 1497.0 
44.000820081749154 7673.0 873.0 4989.003663003663 9.068000849400926 1497.0 0.0 1497.0 
46.00029741811947 7454.0 883.0 4988.810744810745 9.023709514321583 1497.0 0.0 1497.0 
48.000820081749154 7530.0 907.0 4988.7716727716725 7.988203722519867 1497.0 0.0 1497.0 
50.000820081749154 7730.0 910.0 4989.101343101343 7.088042409286844 1497.0 0.0 1497.0 
52.000820081749154 8814.0 944.0 4989.076923076923 7.659009113183743 1497.0 0.0 1497.0 
54.000820081749154 8947.0 959.0 4989.150183150183 8.766152666065311 1497.0 0.0 1497.0 
56.00029741811947 9215.0 980.0 4989.186813186813 7.40118713311086 1497.0 0.0 1497.0 
58.000820081749154 9472.0 993.0 4989.091575091575 7.134566456083298 1497.0 0.0 1497.0 
60.000820081749154 9923.0 1008.0 4986.407814407815 7.5534791028222426 1496.0 0.0 1496.0 
62.000820081749154 11000.0 1060.0 861.1233211233223 7.6909542555224695 511.0 0.0 164.0 
64.00082008174915 10847.0 1056.0 861.1062271062281 7.66593974449342 480.0 0.0 164.0 
66.00029741811947 10837.0 1056.0 861.0256410256413 6.947446287065853 441.0 0.0 164.0 
68.00082008174915 10856.0 1056.0 861.0354090354094 6.639060050008331 423.0 0.0 164.0 
70.00082008174915 11321.0 1056.0 863.8754578754566 6.802419434604491 410.0 0.0 165.0 
72.00082008174915 11656.0 1080.0 877.9633699633696 6.324992262264069 395.0 0.0 170.0 
74.00082008174915 13955.0 1140.0 984.7570207570196 6.470889133490242 424.0 0.0 208.0 
76.00029741811947 14133.0 1144.0 984.5592185592187 6.879312671160095 409.0 0.0 208.0 
78.00082008174915 14073.0 1134.0 984.6886446886444 6.583483861669618 395.0 0.0 208.0 
80.0005577604618 13445.0 1118.0 987.4725274725278 6.61258869128297 377.0 0.0 209.0 
82.00082008174915 12476.0 1098.0 990.275946275946 6.108055459261328 358.0 0.0 210.0 
84.00082008174915 12372.0 1097.0 990.0708180708187 5.544762295829997 341.0 0.0 210.0 
86.00029741811947 12186.0 1084.0 990.1001221001231 5.0768651920821615 325.0 0.0 210.0 
88.00082008174915 12001.0 1076.0 990.0146520146523 4.112627098502514 317.0 0.0 210.0 
90.00082008174915 11722.0 1070.0 990.0610500610509 4.05870197952723 307.0 0.0 210.0 
92.0005577604618 11154.0 1050.0 990.0244200244204 3.7569223541748458 299.0 0.0 210.0 
94.00082008174915 11295.0 1058.0 989.8290598290594 4.089615389141991 297.0 0.0 210.0 
96.00029741811947 11412.0 1064.0 992.6300366300359 3.8698658640483226 297.0 0.0 211.0 
98.0005577604618 11495.0 1065.0 992.6568986568981 3.9616236579639663 294.0 0.0 211.0 
100.00082008174915 11409.0 1067.0 992.6862026862023 3.9382660285187128 291.0 0.0 211.0 
102.00082008174915 11527.0 1068.0 992.649572649572 4.092807853625212 290.0 0.0 211.0 
104.0005577604618 10839.0 1067.0 992.913308913308 3.337838384826599 297.0 0.0 211.0 
106.00029741811947 10989.0 1068.0 995.5457875457874 2.9630424942479907 298.0 0.0 212.0 
108.00082008174915 11456.0 1079.0 995.6117216117221 2.682411486812598 297.0 0.0 212.0 
110.0005577604618 14308.0 1179.0 1116.358974358975 2.615925521715571 341.0 0.0 255.0 
112.00082008174915 14637.0 1190.0 1144.380952380953 3.0430038263735817 360.0 0.0 265.0 
114.00082008174915 14647.0 1190.0 1147.3382173382183 3.2658519935958297 373.0 0.0 266.0 
116.00029741811947 14893.0 1198.0 1150.2002442002463 3.2146871913562305 374.0 0.0 267.0 
118.00082008174915 14989.0 1200.0 1150.2026862026883 3.458718305215435 374.0 0.0 267.0 
120.00082008174915 14993.0 1200.0 1150.1831501831518 3.6728648253295595 374.0 0.0 267.0 
122.0005577604618 14867.0 1195.0 1150.1562881562895 3.8086646948753393 373.0 0.0 267.0 
124.00082008174915 14828.0 1189.0 1150.1538461538476 3.89008009017571 371.0 0.0 267.0 
126.00029741811947 14817.0 1188.0 1150.061050061051 4.008604940753815 371.0 0.0 267.0 
128.0005577604618 15068.0 1194.0 1147.3919413919423 4.149417803723846 375.0 0.0 266.0 
130.00082008174917 16288.0 1226.0 1147.7826617826597 4.186101615410379 379.0 0.0 266.0 
132.00082008174917 16422.0 1230.0 1147.8363858363844 4.587608149116021 379.0 0.0 266.0 
134.0005577604618 15974.0 1212.0 1145.0158730158732 4.544268435053629 377.0 0.0 265.0 
136.0002974181195 15583.0 1205.0 1144.698412698412 4.593020959566212 375.0 0.0 265.0 
138.00082008174917 15162.0 1195.0 1141.8046398046379 4.69311326109423 375.0 0.0 264.0 
140.0005577604618 13974.0 1160.0 1141.6800976800969 4.2451683928160495 371.0 0.0 264.0 
142.00082008174917 13503.0 1145.0 1141.4652014652036 4.138517580757204 365.0 0.0 264.0 
144.00082008174917 13392.0 1141.0 1141.3748473748483 3.6864851535797953 356.0 0.0 264.0 
146.0002974181195 13147.0 1130.0 1141.2527472527497 3.2304324631789565 353.0 0.0 264.0 
148.00082008174917 13536.0 1145.0 1141.4676434676455 3.21462146235669 358.0 0.0 264.0 
150.00082008174917 13756.0 1154.0 1141.5067155067131 3.007055294811368 364.0 0.0 264.0 
152.0005577604618 13960.0 1159.0 1138.7838827838807 3.426939432323834 367.0 0.0 263.0 
154.00082008174917 14418.0 1171.0 1138.7716727716706 3.602178849197814 370.0 0.0 263.0 
156.0002974181195 15090.0 1195.0 1136.2735042735048 3.6846437928479574 374.0 0.0 262.0 
158.00054633228382 15070.0 1195.0 1141.8827838827824 3.7467107711912306 376.0 0.0 264.0 
160.00082008174917 13916.0 1166.0 1141.6239316239303 3.3535179108656896 368.0 0.0 264.0 
162.00082008174917 13736.0 1163.0 1138.6764346764332 3.2503316983803185 364.0 0.0 263.0 
164.00054633228382 14022.0 1170.0 1133.2356532356555 3.2053628322002647 367.0 0.0 261.0 
166.0002974181195 14666.0 1188.0 1138.9548229548222 3.3983939187893695 369.0 0.0 263.0 
168.00082008174917 15015.0 1197.0 1138.9450549450542 3.8514325083600505 370.0 0.0 263.0 
170.00054633228382 14961.0 1195.0 1138.9426129426122 3.9274818853861926 369.0 0.0 263.0 
172.00082008174917 14961.0 1195.0 1136.1269841269857 4.341483309286383 369.0 0.0 262.0 
174.00082008174917 14673.0 1184.0 1136.1538461538476 4.462156799988859 369.0 0.0 262.0 
176.0002974181195 14434.0 1174.0 1136.073260073261 4.281707857356403 364.0 0.0 262.0 
178.00082008174917 14058.0 1164.0 1136.087912087913 4.016856282588275 365.0 0.0 262.0 
180.00082008174917 13836.0 1156.0 1133.0525030525037 4.2043074913644976 367.0 0.0 261.0 
182.00054633228382 13856.0 1156.0 1132.9816849816848 4.157282602071289 366.0 0.0 261.0 
184.00082008174917 13650.0 1151.0 1133.003663003663 3.894420368455508 358.0 0.0 261.0 
186.0002974181195 13139.0 1133.0 1132.9401709401702 3.406821630987876 355.0 0.0 261.0 
188.0005577604618 13899.0 1148.0 1135.8608058608047 3.4017806556621855 361.0 0.0 262.0 
190.00082008174917 14127.0 1154.0 1138.6105006104985 3.0595939384635416 361.0 0.0 263.0 
192.00082008174917 15202.0 1189.0 1141.938949938949 3.050492019831436 372.0 0.0 264.0 
194.0005577604618 15116.0 1189.0 1139.0476190476197 3.0811876200162556 374.0 0.0 263.0 
196.0002974181195 14756.0 1182.0 1138.9645909645906 3.016354479474427 373.0 0.0 263.0 
198.00082008174917 14473.0 1175.0 1136.0195360195362 3.015349900805639 370.0 0.0 262.0 
200.00054633228382 14714.0 1182.0 1138.7985347985327 3.3205661012511767 376.0 0.0 263.0 
202.00082008174917 15181.0 1201.0 1144.6959706959703 3.5827139659700964 377.0 0.0 265.0 
204.00082008174917 15411.0 1208.0 1141.8901098901085 3.7546270878323345 378.0 0.0 264.0 
206.0002974181195 15452.0 1210.0 1136.2393162393184 4.006446791370303 378.0 0.0 262.0 
208.00082008174917 15436.0 1211.0 1136.2246642246664 4.168535376855698 375.0 0.0 262.0 
210.00082008174917 15455.0 1211.0 1136.2271062271086 4.502376089663067 376.0 0.0 262.0 
212.0005577604618 15202.0 1203.0 1136.2124542124564 4.7727010845875455 375.0 0.0 262.0 
214.00082008174917 14997.0 1198.0 1136.1489621489636 4.830504310062398 375.0 0.0 262.0 
216.0002974181195 14924.0 1195.0 1136.1196581196596 4.885589683762222 375.0 0.0 262.0 
218.0005577604618 13998.0 1175.0 1122.078144078145 4.699056926167173 371.0 0.0 257.0 
220.00082008174917 13628.0 1165.0 1121.8974358974347 4.482500329136816 368.0 0.0 257.0 
222.00082008174917 13047.0 1144.0 1119.2429792429814 3.7381422693480526 363.0 0.0 256.0 
224.0005577604618 12993.0 1134.0 1118.9426129426122 3.562618056793762 358.0 0.0 256.0 
226.0002974181195 13242.0 1139.0 1118.8253968253955 3.344000074066229 352.0 0.0 256.0 
228.00082008174917 13280.0 1143.0 1118.7619047619028 3.62947243961892 351.0 0.0 256.0 
230.0005577604618 13271.0 1143.0 1118.8913308913297 3.4430979272394366 352.0 0.0 256.0 
232.00082008174917 13191.0 1138.0 1121.7704517704497 3.2971727563317232 355.0 0.0 257.0 
234.00082008174917 13516.0 1150.0 1124.6862026862009 2.959658034427148 361.0 0.0 258.0 
236.0002974181195 14049.0 1167.0 1124.6544566544546 3.0379694037834324 365.0 0.0 258.0 
238.00082008174917 14079.0 1170.0 1124.7374847374833 3.15981641543905 364.0 0.0 258.0 
240.00082008174917 14197.0 1177.0 1124.7277167277155 3.4143110669715075 364.0 0.0 258.0 
242.0005577604618 14319.0 1180.0 1124.7008547008531 3.743106906156393 364.0 0.0 258.0 
244.00082008174917 14938.0 1199.0 1124.8253968253953 3.7037461524465747 365.0 0.0 258.0 
246.0002974181195 15513.0 1212.0 1124.9719169719165 3.4254226674218047 371.0 0.0 258.0 
248.0005577604618 15871.0 1224.0 1127.8852258852246 3.807930606712374 374.0 0.0 259.0 
250.00082008174917 16276.0 1234.0 1127.8363858363846 3.932168518279138 374.0 0.0 259.0 
252.00082008174917 15755.0 1220.0 1125.001221001221 4.116832847358782 374.0 0.0 258.0 
254.0005577604618 15519.0 1219.0 1124.935286935286 4.260665279058983 374.0 0.0 258.0 
256.0002974181195 15262.0 1215.0 1130.5470085470063 4.186901339269885 373.0 0.0 260.0 
258.00082008174917 15217.0 1212.0 1130.4200244200265 4.273311159339606 371.0 0.0 260.0 
260.0005577604618 14974.0 1204.0 1136.0293040293045 4.536830151817398 373.0 0.0 262.0 
262.00082008174917 14566.0 1188.0 1141.5970695970682 4.658603378394481 369.0 0.0 264.0 
264.00082008174917 14080.0 1172.0 1144.2930402930406 4.557827788836274 363.0 0.0 265.0 
266.0002974181195 13653.0 1157.0 1141.5506715506697 3.89628932385752 356.0 0.0 264.0 
268.00082008174917 13629.0 1155.0 1138.3321123321132 3.862145031864475 353.0 0.0 263.0 
270.00082008174917 13748.0 1160.0 1135.5775335775318 3.7997691383963224 354.0 0.0 262.0 
272.0005577604618 13919.0 1168.0 1138.5103785103765 3.952065160532188 363.0 0.0 263.0 
274.00082008174917 13843.0 1174.0 1138.6446886446874 3.7026546395202855 366.0 0.0 263.0 
276.0002974181195 13381.0 1163.0 1132.9816849816848 3.4478133377828075 364.0 0.0 261.0 
278.0005577604618 13467.0 1169.0 1127.384615384617 3.398771931450184 369.0 0.0 259.0 
280.00082008174917 13343.0 1164.0 1127.4969474969446 3.0708157755884495 363.0 0.0 259.0 
282.00082008174917 13694.0 1169.0 1121.9731379731375 3.216270012979837 362.0 0.0 257.0 
284.0005577604618 14132.0 1178.0 1121.9487179487173 3.385037528901471 362.0 0.0 257.0 
286.0002974181195 14292.0 1181.0 1116.2930402930417 3.3851883708080117 361.0 0.0 255.0 
288.00082008174917 14495.0 1187.0 1116.2490842490868 3.4980079140158282 362.0 0.0 255.0 
290.0005577604618 14741.0 1194.0 1119.0378510378514 3.6523330408819947 367.0 0.0 256.0 
292.00082008174917 14936.0 1202.0 1113.655677655676 4.031400343137665 367.0 0.0 254.0 
294.00082008174917 15043.0 1205.0 1113.645909645908 4.204943462647843 366.0 0.0 254.0 
296.0002974181195 15182.0 1210.0 1113.6923076923065 4.27862124724784 363.0 0.0 254.0 
298.00082008174917 15317.0 1213.0 1113.6703296703283 4.147450587485112 363.0 0.0 254.0 
300.00082008174917 15592.0 1217.0 1124.9548229548225 4.01352696950746 367.0 0.0 258.0 
302.0005577604618 15764.0 1221.0 1121.995115995116 4.015147270561306 365.0 0.0 257.0 
304.00082008174917 15456.0 1204.0 1121.8485958485944 3.904220722018875 360.0 0.0 257.0 
306.0002974181195 15549.0 1207.0 1121.7606837606816 3.9164708075551244 359.0 0.0 257.0 
308.0005577604618 15400.0 1202.0 1116.214896214898 3.8255262326141377 357.0 0.0 255.0 
310.00082008174917 15228.0 1200.0 1116.3711843711862 3.693623008713662 354.0 0.0 255.0 
312.00082008174917 14976.0 1196.0 1116.1489621489636 3.81023714961022 357.0 0.0 255.0 
314.0005577604618 14828.0 1200.0 1116.1196581196596 3.8138364780946508 362.0 0.0 255.0 
316.0002974181195 14589.0 1194.0 1118.796092796091 3.8057188586722575 360.0 0.0 256.0 
318.00082008174917 14583.0 1195.0 1118.7716727716706 3.92013481862638 364.0 0.0 256.0 
320.0005577604618 14610.0 1196.0 1124.4126984127006 3.9812544586821415 366.0 0.0 258.0 
322.00082008174917 14729.0 1200.0 1110.583638583636 4.06996588791269 371.0 0.0 253.0 
324.00082008174917 14725.0 1201.0 1110.6153846153825 4.249057680708982 369.0 0.0 253.0 
326.0002974181195 14447.0 1191.0 1104.9401709401702 3.7717273880885287 367.0 0.0 251.0 
328.00082008174917 14337.0 1189.0 1104.8058608058593 3.85663906489922 365.0 0.0 251.0 
330.00082008174917 14017.0 1181.0 1104.7521367521344 3.7943006133750226 363.0 0.0 251.0 
332.0005577604618 13700.0 1173.0 1101.9706959706955 3.8594629784743324 361.0 0.0 250.0 
334.00082008174917 13554.0 1172.0 1101.8803418803404 3.878075737784699 359.0 0.0 250.0 
336.0002974181195 13773.0 1179.0 1104.923076923076 3.6974687341954695 359.0 0.0 251.0 
338.0005577604618 13651.0 1172.0 1105.0158730158732 3.3660989332659645 361.0 0.0 251.0 
340.00082008174917 13987.0 1175.0 1104.9816849816848 3.4689423282243235 362.0 0.0 251.0 
342.00082008174917 14468.0 1186.0 1104.9841269841268 3.380506147794646 359.0 0.0 251.0 
344.0005577604618 14922.0 1199.0 1105.1208791208805 3.4327305096052307 358.0 0.0 251.0 
346.0002974181195 14945.0 1202.0 1107.863247863247 3.574137541129689 363.0 0.0 252.0 
348.00082008174917 14766.0 1197.0 1110.6324786324762 3.6951483174344504 363.0 0.0 253.0 
350.0005577604618 14763.0 1196.0 1113.5067155067118 3.663420115855298 365.0 0.0 254.0 
352.00082008174917 14694.0 1192.0 1116.412698412701 3.5974121428233783 371.0 0.0 255.0 
354.00082008174917 14754.0 1196.0 1116.4566544566576 3.4126377060835793 367.0 0.0 255.0 
356.0002974181195 15423.0 1217.0 1119.1941391941407 3.5173951320497325 370.0 0.0 256.0 
358.00082008174917 15497.0 1220.0 1122.0415140415146 3.7226421949339685 369.0 0.0 257.0 
360.00082008174917 15730.0 1225.0 1119.2307692307713 4.108557381658641 371.0 0.0 256.0 
362.0005577604618 15832.0 1229.0 1127.6630036630022 4.334460422052697 369.0 0.0 259.0 
364.00082008174917 16062.0 1236.0 1127.7484737484713 4.5341935182651545 378.0 0.0 259.0 
366.0002974181195 15920.0 1230.0 1127.8168498168482 4.2027859075209 378.0 0.0 259.0 
368.0005577604618 16073.0 1238.0 1130.5128205128183 4.48314754992496 379.0 0.0 260.0 
370.00082008174917 15673.0 1230.0 1130.5177045177024 4.593404904011701 382.0 0.0 260.0 
372.00082008174917 15070.0 1215.0 1136.0976800976812 4.373424294198795 378.0 0.0 262.0 
374.0005577604618 14248.0 1190.0 1132.9597069597064 3.985691790803894 374.0 0.0 261.0 
376.0002974181195 14115.0 1185.0 1130.004884004884 4.197685087700586 373.0 0.0 260.0 
378.00082008174917 14242.0 1193.0 1130.068376068377 4.308902710659015 372.0 0.0 260.0 
380.0005577604618 14023.0 1183.0 1127.3113553113567 4.313571603509815 374.0 0.0 259.0 
382.00082008174917 14080.0 1189.0 1127.4163614163635 4.29624005577005 373.0 0.0 259.0 
384.00082008174917 13944.0 1183.0 1135.7973137973117 4.27166684707333 370.0 0.0 262.0 
386.0002974181195 13536.0 1170.0 1138.503052503055 3.736431429185455 368.0 0.0 263.0 
388.00082008174917 13670.0 1173.0 1138.4053724053738 3.852566559177926 369.0 0.0 263.0 
390.00082008174917 13646.0 1176.0 1132.815628815627 3.8020548548579023 372.0 0.0 261.0 
392.0005577604618 13647.0 1177.0 1130.0244200244204 3.699526240893128 372.0 0.0 260.0 
394.00082008174917 13582.0 1174.0 1132.9084249084237 3.6911489613711423 371.0 0.0 261.0 
396.0002974181195 13422.0 1173.0 1132.9572649572644 3.2844881818097846 376.0 1.0 260.0 
398.0005577604618 13317.0 1166.0 1132.923076923076 3.1097506153682724 374.0 0.0 261.0 
400.00082008174917 13888.0 1182.0 1133.1184371184386 3.353698828323902 373.0 0.0 261.0 
402.00082008174917 14391.0 1191.0 1135.9511599511593 3.500058702912432 374.0 0.0 262.0 
404.0005577604618 14788.0 1203.0 1135.9413919413912 3.8651848524344747 376.0 0.0 262.0 
406.0002974181195 14909.0 1203.0 1138.7985347985327 3.8884976555543327 378.0 0.0 263.0 
408.00082008174917 15449.0 1216.0 1144.686202686202 3.705964376612751 383.0 0.0 265.0 
410.0005577604618 15468.0 1215.0 1144.5274725274705 4.047991658954708 383.0 0.0 265.0 
412.00082008174917 15538.0 1216.0 1144.5152625152607 4.317178837023874 383.0 0.0 265.0 
414.00082008174917 15568.0 1223.0 1147.4065934065948 4.38722788132981 385.0 0.0 266.0 
416.0002974181195 15449.0 1217.0 1150.2637362637365 4.3023450874522595 386.0 0.0 267.0 
418.00082008174917 15240.0 1211.0 1150.1172161172176 4.19480084679675 382.0 0.0 267.0 
420.00082008174917 15101.0 1204.0 1149.9804639804638 4.18939428212654 383.0 0.0 267.0 
422.0005577604618 15028.0 1201.0 1152.693528693528 4.234241490875968 379.0 0.0 268.0 
424.00082008174917 14903.0 1197.0 1149.8363858363844 4.452088567140001 374.0 0.0 267.0 
426.0002974181195 15129.0 1200.0 1149.9682539682535 4.3689617831666565 374.0 0.0 267.0 
428.0005577604618 14941.0 1194.0 1147.177045177047 4.478691579915383 375.0 0.0 266.0 
430.00082008174917 14504.0 1183.0 1150.0219780219782 4.102547813440204 379.0 0.0 267.0 
432.00082008174917 14271.0 1184.0 1150.075702075703 4.078143649033064 379.0 0.0 267.0 
434.0005577604618 14311.0 1186.0 1149.9096459096447 3.9128524653189345 376.0 0.0 267.0 
436.0002974181195 14258.0 1187.0 1147.0573870573878 4.05725724187425 374.0 0.0 266.0 
438.00082008174917 13794.0 1174.0 1144.3809523809534 3.920459271375641 375.0 0.0 265.0 
440.0005577604618 13714.0 1174.0 1144.251526251529 4.084034649182197 375.0 0.0 265.0 
442.00082008174917 13597.0 1169.0 1144.1416361416375 3.833237342530055 374.0 0.0 265.0 
444.00082008174917 13458.0 1161.0 1138.4200244200263 3.9203046380029654 373.0 0.0 263.0 
446.0002974181195 13333.0 1158.0 1132.7912087912068 3.5549448462519977 376.0 0.0 261.0 
448.00082008174917 13371.0 1160.0 1129.9877899877897 3.841920879782603 376.0 0.0 260.0 
450.00082008174917 13376.0 1165.0 1132.92796092796 3.8634598375218934 374.0 0.0 261.0 
452.0005577604618 13512.0 1172.0 1135.926739926739 3.9270165560710324 377.0 0.0 262.0 
454.00082008174917 13585.0 1173.0 1135.9462759462754 4.009711375577784 378.0 0.0 262.0 
456.0002974181195 13325.0 1166.0 1138.8644688644674 3.6878425511614825 377.0 0.0 263.0 
458.0005577604618 13692.0 1175.0 1136.078144078145 3.7556029472349084 375.0 0.0 262.0 
460.00082008174917 13983.0 1176.0 1133.3235653235668 3.8222082775248127 375.0 0.0 261.0 
462.00082008174917 14417.0 1186.0 1133.3382173382188 3.5821007843078285 373.0 0.0 261.0 
464.0005577604618 14309.0 1183.0 1136.0268620268625 3.4899613250252304 363.0 0.0 262.0 
466.0002974181195 14328.0 1183.0 1135.8339438339422 3.525100429170748 363.0 0.0 262.0 
468.00082008174917 14171.0 1175.0 1144.2417582417606 3.5950711739017343 362.0 0.0 265.0 
470.0005577604618 14551.0 1184.0 1144.3199023199031 3.694357952878139 367.0 0.0 265.0 
472.00082008174917 14611.0 1187.0 1144.498168498171 3.6407060738609793 367.0 0.0 265.0 
474.00082008174917 14807.0 1193.0 1141.6752136752125 3.650703867508997 366.0 0.0 264.0 
476.0002974181195 14824.0 1194.0 1136.0488400488407 3.9299650492684224 364.0 0.0 262.0 
478.00082008174917 15124.0 1202.0 1136.1001221001234 3.948965944053113 368.0 1.0 261.0 
480.00082008174917 15382.0 1207.0 1133.2747252747263 3.9116369770229844 368.0 1.0 260.0 
482.0005577604618 15517.0 1212.0 1133.2649572649584 4.049474134146296 374.0 0.0 261.0 
484.00082008174917 15557.0 1214.0 1127.5995115995092 4.304761955441145 375.0 0.0 259.0 
486.0002974181195 15528.0 1218.0 1130.3443223443242 4.161906707219169 374.0 0.0 260.0 
488.0005577604618 15114.0 1210.0 1130.3882783882805 4.3207132918922415 372.0 0.0 260.0 
490.00082008174917 14601.0 1200.0 1124.7057387057373 4.349120551693727 372.0 0.0 258.0 
492.00082008174917 13829.0 1181.0 1116.1221001221018 4.136159550743135 370.0 0.0 255.0 
494.0005577604618 13849.0 1184.0 1116.0366300366304 4.016243712324002 370.0 0.0 255.0 
496.0002974181195 13971.0 1187.0 1113.3479853479876 4.157001790815786 369.0 0.0 254.0 
498.00082008174917 14146.0 1190.0 1107.6849816849797 4.174484852660053 370.0 0.0 252.0 
500.00082008174917 13879.0 1186.0 1107.6947496947478 4.181335355746276 370.0 0.0 252.0 
502.00082008174917 13598.0 1175.0 1107.6361416361392 4.173889626872351 367.0 0.0 252.0 
504.00082008174917 13358.0 1168.0 1107.5775335775309 4.246886875760055 362.0 0.0 252.0 
506.0002974181195 13288.0 1166.0 1104.739926739925 4.251626001294441 358.0 0.0 251.0 
508.00082008174917 12876.0 1152.0 1104.7448107448083 4.175816626031599 354.0 0.0 251.0 
510.00082008174917 12707.0 1147.0 1104.7692307692284 3.9448014263923414 356.0 0.0 251.0 
512.000349254104 12575.0 1143.0 1104.7570207570182 3.7567445400262267 361.0 0.0 251.0 
514.000349254104 12680.0 1145.0 1113.2332112332135 3.394221111537437 360.0 0.0 254.0 
516.0002974181195 13193.0 1156.0 1113.2527472527497 2.8634188478732567 361.0 0.0 254.0 
518.000349254104 13704.0 1166.0 1113.5042735042698 2.9152971511960524 362.0 0.0 254.0 
520.000349254104 14614.0 1187.0 1116.4371184371214 3.1855953440527385 368.0 0.0 255.0 
522.000349254104 15178.0 1207.0 1110.9768009768009 3.339140395654096 369.0 0.0 253.0 
524.000349254104 15314.0 1207.0 1105.4017094017122 3.449930562217315 369.0 0.0 251.0 
526.0002974181195 15419.0 1213.0 1102.5811965811938 3.462853446490378 367.0 0.0 250.0 
528.000349254104 15336.0 1209.0 1096.9792429792428 3.309679888983647 364.0 0.0 248.0 
530.000349254104 15346.0 1209.0 1093.9706959706955 3.529601040132364 364.0 0.0 247.0 
532.000349254104 15408.0 1210.0 1093.9462759462754 3.884840496965206 363.0 0.0 247.0 
534.000349254104 15457.0 1211.0 1099.5946275946249 4.180661636952933 362.0 0.0 249.0 
536.0002974181195 15551.0 1211.0 1096.8131868131854 4.321360312933604 359.0 0.0 248.0 
538.000349254104 16003.0 1226.0 1097.0744810744818 4.433498371819929 364.0 0.0 248.0 
540.000349254104 15910.0 1224.0 1097.0280830280835 4.765853545188802 366.0 0.0 248.0 
542.000349254104 15793.0 1218.0 1099.8290598290585 4.766053932174578 361.0 0.0 249.0 
544.000349254104 15596.0 1214.0 1102.5396825396792 4.807294660713075 358.0 0.0 250.0 
546.0002974181195 14964.0 1196.0 1105.3333333333358 4.431626902051202 354.0 0.0 251.0 
548.000349254104 14444.0 1185.0 1099.5726495726465 4.569598408988956 353.0 0.0 249.0 
550.000349254104 13637.0 1168.0 1096.8302808302794 4.264924080926946 356.0 0.0 248.0 
552.000349254104 13199.0 1149.0 1099.2307692307713 3.877591486643311 354.0 0.0 249.0 
554.000349254104 13090.0 1146.0 1104.715506715505 3.4067641340829753 354.0 0.0 251.0 
556.0002974181195 13006.0 1144.0 1110.3736263736287 3.2653997599331017 352.0 0.0 253.0 
558.000349254104 13039.0 1150.0 1107.5457875457844 2.9118105795054645 349.0 0.0 252.0 
560.000349254104 13202.0 1154.0 1107.5531135531103 3.143072010120789 353.0 0.0 252.0 
562.000349254104 13479.0 1165.0 1107.7875457875439 3.3822816751924973 356.0 0.0 252.0 
564.000349254104 13627.0 1170.0 1107.7655677655657 3.7124555858848365 356.0 0.0 252.0 
566.0002974181195 13647.0 1171.0 1107.8412698412685 3.7236649103359882 356.0 0.0 252.0 
568.000349254104 13343.0 1161.0 1107.907203907203 3.415898323013435 354.0 0.0 252.0 
570.000349254104 13497.0 1163.0 1110.735042735041 3.2014550587236554 352.0 1.0 252.0 
572.000349254104 13996.0 1178.0 1127.5750915750887 3.215514455270254 353.0 0.0 259.0 
574.000349254104 14106.0 1182.0 1124.6715506715484 3.3136455770239905 358.0 0.0 258.0 
576.0002974181195 14559.0 1190.0 1124.739926739925 3.443483331886046 357.0 0.0 258.0 
578.000349254104 14895.0 1195.0 1124.8302808302792 3.6175088756351768 357.0 0.0 258.0 
580.000349254104 15518.0 1213.0 1124.935286935286 3.8102285916527507 365.0 0.0 258.0 
582.000349254104 15578.0 1214.0 1130.590964590962 3.780158073221311 372.0 0.0 260.0 
584.000349254104 15506.0 1212.0 1133.413919413922 3.8448503343878793 368.0 0.0 261.0 
586.0002974181195 15294.0 1205.0 1136.078144078145 3.7555071905723074 365.0 0.0 262.0 
588.000349254104 15259.0 1201.0 1138.7838827838807 3.8466362427204235 363.0 0.0 263.0 
590.000349254104 15284.0 1202.0 1138.8888888888878 3.9722382309146664 366.0 0.0 263.0 
592.000349254104 15428.0 1208.0 1138.910866910866 4.1146636770389735 371.0 0.0 263.0 
594.000349254104 15416.0 1207.0 1141.7411477411463 4.192997140119714 374.0 0.0 264.0 
596.0002974181195 15417.0 1206.0 1144.5445665445634 4.228233857022653 372.0 0.0 265.0 
598.000349254104 15397.0 1206.0 1144.5152625152598 4.3358304984462395 368.0 0.0 265.0 
600.000349254104 15095.0 1198.0 1144.5079365079337 4.579941505341305 370.0 0.0 265.0 
602.000349254104 14720.0 1191.0 1144.5445665445636 4.3081093840142115 375.0 0.0 265.0 
604.000349254104 14608.0 1188.0 1141.5628815628788 4.329722117643755 374.0 0.0 264.0 
606.0002974181195 14468.0 1190.0 1136.0634920634927 4.038341479097829 373.0 0.0 262.0 
608.000349254104 14193.0 1187.0 1136.1196581196596 4.192228365417247 374.0 0.0 262.0 
610.000349254104 13571.0 1170.0 1136.0634920634927 3.9904253331795165 373.0 0.0 262.0 
612.000349254104 13452.0 1166.0 1133.081807081808 3.9563472383065195 369.0 1.0 260.0 
614.000349254104 13254.0 1159.0 1130.312576312578 3.7201275299750343 366.0 0.0 260.0 
616.0002974181195 13325.0 1161.0 1127.3626373626396 3.8199612132208083 369.0 0.0 259.0 
618.000349254104 13464.0 1165.0 1135.8144078144062 3.950846368577337 369.0 0.0 262.0 
620.000349254104 13319.0 1161.0 1135.7411477411465 4.062164731709753 372.0 0.0 262.0 
622.000349254104 13066.0 1150.0 1135.7191697191683 3.688805146689701 369.0 0.0 262.0 
624.000349254104 13289.0 1159.0 1132.8620268620257 3.635609316619049 368.0 0.0 261.0 
626.0002974181195 13568.0 1168.0 1135.68498168498 3.424688631189024 373.0 0.0 262.0 
628.000349254104 14093.0 1186.0 1135.789987789986 3.4809267367927053 381.0 0.0 262.0 
630.000349254104 14442.0 1195.0 1141.6068376068356 3.5883721563604327 385.0 0.0 264.0 
632.000349254104 14400.0 1195.0 1150.0561660561668 3.608155071934777 392.0 0.0 267.0 
634.000349254104 14523.0 1198.0 1147.1819291819309 3.5373609124254854 392.0 0.0 266.0 
636.0002974181195 14616.0 1196.0 1150.19291819292 3.3318033882798406 392.0 0.0 267.0 
638.000349254104 15126.0 1204.0 1150.0610500610508 3.5591000966218798 389.0 0.0 267.0 
640.000349254104 15379.0 1211.0 1155.694749694748 3.9102842229881123 392.0 0.0 269.0 
642.000349254104 15406.0 1214.0 1144.4859584859616 3.958202667070479 393.0 0.0 265.0 
644.000349254104 15501.0 1218.0 1144.578754578752 4.212756928235536 394.0 0.0 265.0 
646.0002974181195 15428.0 1215.0 1144.5860805860782 4.373904539871574 393.0 0.0 265.0 
648.000349254104 15267.0 1210.0 1150.1684981684996 4.352405304151653 391.0 0.0 267.0 
650.000349254104 15221.0 1208.0 1150.083028083029 4.427909055263869 392.0 0.0 267.0 
652.000349254104 15205.0 1210.0 1150.195360195362 4.546707700276713 393.0 0.0 267.0 
654.000349254104 14854.0 1198.0 1147.3455433455454 4.575066549025406 393.0 0.0 266.0 
656.0002974181195 14692.0 1194.0 1147.4139194139218 4.337367164658805 390.0 1.0 265.0 
658.000349254104 14200.0 1175.0 1149.9438339438332 4.08726405807334 383.0 0.0 267.0 
660.000349254104 14109.0 1172.0 1147.0354090354094 4.2481133590042575 380.0 0.0 266.0 
662.000349254104 14108.0 1172.0 1138.5787545787523 4.061147403730651 378.0 0.0 263.0 
664.000349254104 14291.0 1183.0 1138.5909645909624 4.111482103123685 378.0 0.0 263.0 
#####################################################################
# End of data export. Simulation finished at: 2019-03-07T15:52+0000 #
#####################################################################
