#####################################################################
# Alchemist log file - simulation started at: 2019-03-02T22:20+0000 #
#####################################################################
# seed = 0.0, bandwidth = 1000.0, accessPointCount = 141.4213562373095, baserange = 562.341325190349
#
# The columns have the following meaning: 
# time neighbor_count[Sum] <value>@neighbor_count[Sum] packet_size[Mean] mean_delay[Mean] crowd[Sum] overcrowded[Sum] risk[Sum] 
0.0 NaN NaN NaN NaN NaN NaN NaN 
10.000405536260626 19.0 10.0 4985.934065934066 4.0778931116652055 1497.0 0.0 1497.0 
20.000405536260626 311.0 99.0 4986.051282051282 6.356450662023515 1497.0 0.0 1497.0 
30.000405536260626 945.0 220.0 4986.288156288157 9.325830377258063 1497.0 0.0 1497.0 
40.00040553626063 1601.0 336.0 4986.5030525030525 12.818982420282884 1497.0 0.0 1497.0 
50.00040553626063 2060.0 427.0 4986.588522588522 14.072376267948142 1497.0 0.0 1497.0 
60.00008645634176 2475.0 464.0 4987.010989010989 14.321060243052617 1497.0 0.0 1497.0 
70.00040553626063 2767.0 490.0 414.0415140415142 12.811653261935076 130.0 0.0 5.0 
80.00040553626063 3171.0 475.0 456.07081807081835 9.147451942659695 101.0 0.0 20.0 
90.00040553626063 2778.0 475.0 456.1123321123327 3.3495912187486336 41.0 0.0 20.0 
100.00040553626063 3433.0 525.0 489.736263736264 4.431755938775527 46.0 0.0 32.0 
110.00040553626063 3835.0 551.0 495.46764346764314 5.697770270767743 58.0 0.0 34.0 
120.00040553626063 4390.0 621.0 520.6275946275955 5.896929517958151 60.0 0.0 43.0 
130.00040553626064 4366.0 634.0 520.6910866910868 3.943093915690877 63.0 0.0 43.0 
140.00040553626064 4108.0 628.0 517.8290598290596 4.577762603361815 58.0 0.0 42.0 
150.00040553626064 4413.0 644.0 528.9768009768007 5.444695720024176 60.0 0.0 46.0 
160.00040553626064 4548.0 662.0 540.126984126985 2.9029502261148896 67.0 0.0 50.0 
170.00040553626064 5359.0 697.0 568.2564102564093 4.024326493694001 81.0 0.0 60.0 
180.00040553626064 5928.0 712.0 590.837606837606 5.3118856625393525 92.0 0.0 68.0 
190.00040553626064 6983.0 757.0 627.2283272283286 4.242237199749545 100.0 0.0 81.0 
200.00040553626064 7171.0 766.0 674.8937728937718 4.4928730100571075 127.0 0.0 98.0 
210.00040553626064 7212.0 780.0 675.0402930402935 4.710290402536242 132.0 0.0 98.0 
220.00040553626064 6998.0 775.0 675.0085470085471 5.891315106952814 132.0 0.0 98.0 
230.00040553626064 8886.0 861.0 767.6385836385816 4.736093403954091 168.0 0.0 131.0 
240.00040553626064 8607.0 847.0 767.4310134310157 5.922163108137104 164.0 0.0 131.0 
250.00040553626064 8581.0 841.0 761.7777777777759 5.498158931834322 151.0 0.0 129.0 
260.00040553626064 7990.0 813.0 739.1379731379741 4.420172292789742 145.0 0.0 121.0 
270.00040553626064 7920.0 812.0 708.129426129427 4.149755486045664 136.0 0.0 110.0 
280.00040553626064 8201.0 821.0 677.318681318682 4.8055008901623495 128.0 0.0 99.0 
290.00040553626064 8832.0 848.0 652.3711843711848 4.540224469342935 127.0 0.0 90.0 
300.00040553626064 10073.0 898.0 719.8681318681306 4.43264046228431 156.0 0.0 114.0 
310.00040553626064 10612.0 920.0 750.8302808302791 5.639832448681869 162.0 0.0 125.0 
320.00040553626064 10507.0 914.0 722.8791208791197 5.414356215128443 146.0 0.0 115.0 
330.00040553626064 9993.0 888.0 756.3247863247877 5.297557075322694 154.0 0.0 127.0 
340.00040553626064 9595.0 872.0 772.998778998779 5.219179762776059 169.0 0.0 133.0 
350.00040553626064 9243.0 858.0 775.6336996336977 4.82181166589725 161.0 0.0 134.0 
360.00040553626064 9175.0 868.0 778.5396825396798 4.973051468264425 159.0 0.0 135.0 
370.00040553626064 9285.0 875.0 820.6935286935269 5.064442913281255 175.0 0.0 150.0 
380.00040553626064 9392.0 884.0 792.6080586080571 5.43478831995188 178.0 0.0 140.0 
390.00040553626064 9391.0 876.0 753.4334554334575 5.450160771865155 163.0 0.0 126.0 
400.00040553626064 9149.0 859.0 756.105006105007 5.063163196919811 167.0 0.0 127.0 
410.00040553626064 9154.0 852.0 756.0463980463986 4.633227655247331 157.0 0.0 127.0 
420.00040553626064 9638.0 867.0 775.7411477411466 4.7307484162602345 167.0 0.0 134.0 
430.00040553626064 10112.0 896.0 756.2905982905991 5.611784625752608 169.0 0.0 127.0 
440.00040553626064 9859.0 893.0 784.4249084249105 5.578083114736564 178.0 0.0 137.0 
450.00040553626064 9163.0 866.0 784.2295482295503 5.078547326427144 169.0 0.0 137.0 
460.00040553626064 9786.0 866.0 823.3308913308908 4.6062992869860935 179.0 0.0 151.0 
470.00040553626064 11918.0 931.0 865.5995115995119 4.684350619210182 205.0 0.0 166.0 
480.00040553626064 12159.0 947.0 882.4126984126981 5.968326184047002 213.0 0.0 172.0 
490.00040553626064 12839.0 992.0 975.1135531135541 5.325787669297406 252.0 0.0 205.0 
500.00040553626064 11727.0 977.0 1008.8424908424905 5.29735231125402 275.0 0.0 217.0 
510.00040553626064 12555.0 1003.0 986.5177045177037 5.6997240720273 260.0 0.0 209.0 
520.0004055362606 11424.0 964.0 944.0390720390725 5.244368276581631 234.0 0.0 194.0 
530.0004055362606 11784.0 959.0 983.1282051282063 5.572836401954675 245.0 0.0 208.0 
540.0004055362606 11679.0 960.0 1002.8058608058599 5.0644538959336565 250.0 0.0 215.0 
550.0004055362606 11888.0 969.0 960.9206349206341 5.46694280072968 233.0 0.0 200.0 
560.0004055362606 12262.0 996.0 989.1868131868126 4.886668439413086 244.0 0.0 210.0 
570.0004055362606 12208.0 988.0 961.1819291819281 5.832812004660428 241.0 0.0 200.0 
580.0004055362606 11623.0 968.0 952.356532356535 5.7789233411671495 246.0 0.0 197.0 
590.0004055362606 11160.0 943.0 893.3846153846177 5.121775000014984 224.0 0.0 176.0 
600.0004055362606 10853.0 931.0 823.2161172161192 5.4643557126977536 192.0 0.0 151.0 
610.0004055362606 10837.0 935.0 856.7570207570184 4.681152301168203 186.0 0.0 163.0 
620.0004055362606 11123.0 943.0 834.6300366300351 4.833801079475047 183.0 0.0 155.0 
630.0004055362606 11716.0 968.0 818.0146520146523 5.235874779508279 179.0 0.0 149.0 
640.0004055362606 11734.0 965.0 851.6043956043932 5.362525088559536 207.0 0.0 161.0 
650.0004055362606 11917.0 972.0 874.2246642246661 5.823864590198757 229.0 0.0 169.0 
660.0004055362606 12031.0 979.0 868.3882783882804 5.264486478144271 225.0 0.0 167.0 
#####################################################################
# End of data export. Simulation finished at: 2019-03-02T22:30+0000 #
#####################################################################
