#####################################################################
# Alchemist log file - simulation started at: 2019-03-03T07:42+0000 #
#####################################################################
# seed = 0.0, bandwidth = 17782.79410038923, accessPointCount = 531.8295896944988, baserange = 177.82794100389228
#
# The columns have the following meaning: 
# time neighbor_count[Sum] <value>@neighbor_count[Sum] packet_size[Mean] mean_delay[Mean] crowd[Sum] overcrowded[Sum] risk[Sum] 
0.0 NaN NaN NaN NaN NaN NaN NaN 
10.000227118050605 5634.0 1125.0 4985.927021696252 1.4131553905804028 1497.0 0.0 1497.0 
20.000227118050603 6662.0 1162.0 4985.972386587771 2.0884480772541174 1495.0 2.0 1495.0 
30.000227118050603 6308.0 1073.0 4986.027613412229 1.630090860226559 1492.0 5.0 1492.0 
40.0002271180506 6198.0 1050.0 4985.942800788955 1.3376657287889244 1490.0 7.0 1490.0 
50.0002271180506 6246.0 1053.0 4985.838264299802 1.2793056509710705 1494.0 3.0 1494.0 
60.0002271180506 6282.0 1056.0 4986.065088757397 1.3270592116040432 1495.0 2.0 1495.0 
70.00007504225981 6303.0 1060.0 992.2603550295858 1.0473173626258914 369.0 2.0 259.0 
80.00007504225981 6256.0 1060.0 994.3806706114414 1.0291465144088197 356.0 2.0 260.0 
90.00007504225981 6292.0 1060.0 994.2919132149884 1.1579104863903429 351.0 2.0 260.0 
100.00007504225981 6314.0 1062.0 998.8540433925048 1.0657527434264722 347.0 6.0 258.0 
110.00007504225981 6302.0 1063.0 1003.343195266277 1.0818695094581523 342.0 10.0 256.0 
120.00007504225981 6393.0 1064.0 1012.4556213017726 1.1091893864247606 346.0 10.0 260.0 
130.00007504225982 6498.0 1068.0 1012.4319526627298 1.102683202487485 348.0 10.0 260.0 
140.00007504225982 6586.0 1069.0 1014.7179487179544 1.1386352799452013 342.0 12.0 259.0 
150.00007504225982 6628.0 1068.0 1026.0808678500944 1.126512415482487 342.0 13.0 263.0 
160.00007504225982 6693.0 1069.0 1030.5798816568088 1.1012251398773676 346.0 14.0 264.0 
170.00007504225982 6713.0 1070.0 1035.0887573964542 1.1299222579589108 348.0 13.0 267.0 
180.00007504225982 6594.0 1068.0 1035.1262327416177 1.2385199571923284 346.0 13.0 267.0 
190.00007504225982 6567.0 1067.0 1035.0571992110508 1.1061885162786018 344.0 13.0 267.0 
200.00007504225982 6518.0 1067.0 1032.7850098619376 1.2211800424825587 344.0 14.0 265.0 
210.00007504225982 6430.0 1065.0 1028.1932938856012 1.213359046581837 344.0 14.0 263.0 
220.00007504225982 6355.0 1068.0 1028.1992110453664 1.148504925528017 342.0 14.0 263.0 
230.00007504225982 6289.0 1064.0 1028.1893491124226 1.151161937186946 340.0 15.0 262.0 
240.00007504225982 6263.0 1063.0 1016.869822485212 1.2813291595385752 339.0 13.0 259.0 
250.00007504225982 6187.0 1059.0 1012.2642998027551 1.1834928606173405 337.0 13.0 257.0 
260.0000750422598 6187.0 1057.0 1010.0374753451653 1.0579270218358152 337.0 13.0 256.0 
270.0000750422598 6233.0 1058.0 1005.4990138067132 1.1309306373935881 333.0 13.0 254.0 
280.0000750422598 6285.0 1058.0 1003.2090729783092 1.0627926868628523 329.0 13.0 253.0 
290.0000750422598 6335.0 1060.0 1005.4595660749532 1.161282230174654 330.0 13.0 254.0 
300.0000750422598 6262.0 1056.0 1007.7357001972448 1.2505299216438697 328.0 13.0 255.0 
310.0000750422598 6166.0 1052.0 1005.5069033530614 1.2410830281206646 328.0 13.0 254.0 
320.0000750422598 6083.0 1053.0 1005.5384615384634 1.1521891062783318 337.0 10.0 257.0 
330.0000750422598 6046.0 1053.0 1003.1735700197285 1.1856440962857444 340.0 10.0 256.0 
340.0000750422598 6005.0 1050.0 998.6706114398354 1.0840364384306262 340.0 8.0 256.0 
350.0000750422598 6012.0 1049.0 989.5601577909222 0.9244465108116342 334.0 8.0 252.0 
360.0000750422598 6076.0 1051.0 1007.7455621301773 1.1413296218671702 338.0 7.0 261.0 
370.0000750422598 6195.0 1058.0 1007.808678500982 1.0423064468130814 339.0 7.0 261.0 
380.0000750422598 6170.0 1060.0 1000.97435897436 1.2369291716587247 337.0 8.0 257.0 
390.0000750422598 6170.0 1059.0 1012.3313609467386 1.3183066952869198 337.0 7.0 263.0 
400.0000750422598 6240.0 1065.0 1019.147928994079 1.1230679816606193 344.0 7.0 266.0 
410.0000750422598 6339.0 1071.0 1023.7080867850124 1.1455397137208352 342.0 8.0 267.0 
420.0000750422598 6422.0 1075.0 1021.4063116370802 1.3703047908243187 344.0 7.0 267.0 
430.0000750422598 6343.0 1072.0 1019.124260355035 1.4165193850843998 344.0 7.0 266.0 
440.0000750422598 6258.0 1067.0 1021.327416173568 1.2517153316571188 348.0 7.0 267.0 
450.0000750422598 6173.0 1061.0 1016.8106508875771 1.2190499283141925 349.0 7.0 265.0 
460.0000750422598 6059.0 1057.0 1003.1794871794812 1.0928655783284646 344.0 8.0 258.0 
470.0000750422598 6067.0 1059.0 1000.9112426035458 1.2283928635125858 342.0 8.0 257.0 
480.0000750422598 6023.0 1061.0 996.380670611441 1.253314488470196 336.0 8.0 255.0 
490.0000750422598 6022.0 1058.0 1000.9368836291956 1.1103900638931339 339.0 8.0 257.0 
500.0000750422598 5968.0 1056.0 1003.2051282051304 1.2895122316354608 344.0 8.0 258.0 
510.0000750422598 5935.0 1050.0 987.343195266277 1.1773142214473846 336.0 8.0 251.0 
520.0000750422598 5946.0 1052.0 980.5562130177535 1.045210776472628 334.0 8.0 248.0 
530.0000750422598 5937.0 1052.0 985.0631163708046 1.0689724667703897 337.0 8.0 250.0 
540.0000750422598 5974.0 1052.0 994.1380670611464 1.1169502908810827 347.0 8.0 254.0 
550.0000750422598 6065.0 1057.0 985.0335305719975 1.1226060144589267 345.0 8.0 250.0 
560.0000750422598 6019.0 1057.0 987.3254437869862 1.174799482102484 345.0 8.0 251.0 
570.0000750422598 6112.0 1058.0 985.0808678500939 1.093348674566915 342.0 8.0 250.0 
580.0000750422598 6119.0 1062.0 996.3944773175524 1.1392170472852179 346.0 7.0 256.0 
590.0000750422598 6188.0 1067.0 1000.901380670615 1.2670702932251283 347.0 7.0 258.0 
600.0000750422598 6158.0 1064.0 1009.9901380670678 1.237125870741317 345.0 7.0 262.0 
610.0000750422598 6126.0 1066.0 1014.5364891518682 1.2484504464795985 348.0 7.0 264.0 
620.0000750422598 6090.0 1065.0 1019.1163708086762 1.3317417211289175 346.0 7.0 266.0 
630.0000750422598 6120.0 1068.0 1012.3372781065129 1.2529498057666022 345.0 7.0 263.0 
640.0000750422598 6106.0 1067.0 1023.6449704141958 1.3546150675698299 349.0 8.0 267.0 
650.0000750422598 5995.0 1059.0 1023.6548323471411 1.2414068696327165 350.0 7.0 268.0 
660.0000750422598 6014.0 1058.0 1030.4260355029542 1.0899714174817086 351.0 7.0 271.0 
#####################################################################
# End of data export. Simulation finished at: 2019-03-03T07:57+0000 #
#####################################################################
