#####################################################################
# Alchemist log file - simulation started at: 2019-03-07T17:44+0000 #
#####################################################################
# seed = 7.0, bandwidth = 4216.965034285822, accessPointCount = 1031.338537721246, baserange = 1000.0
#
# The columns have the following meaning: 
# time neighbor_count[Sum] <value>@neighbor_count[Sum] packet_size[Mean] mean_delay[Mean] crowd[Sum] overcrowded[Sum] risk[Sum] 
0.0 NaN NaN NaN NaN NaN NaN NaN 
2.0008200817491506 13.0 9.0 4978.212025316456 0.2865286193187948 1497.0 0.0 1497.0 
4.000820081749151 85.0 57.0 4978.213607594937 0.772807008424095 1497.0 0.0 1497.0 
6.000297418119471 328.0 196.0 4978.221518987341 1.0705450606496383 1497.0 0.0 1497.0 
8.00082008174915 659.0 379.0 4978.256329113924 1.772726053039101 1497.0 0.0 1497.0 
10.00082008174915 989.0 628.0 4978.272151898735 2.1380717732721513 1497.0 0.0 1497.0 
12.000472091983152 1436.0 966.0 4978.31170886076 2.3044624207781887 1497.0 0.0 1497.0 
14.00082008174915 2081.0 1477.0 4978.3718354430375 2.5416487934021545 1497.0 0.0 1497.0 
16.000297418119473 2703.0 1969.0 4978.422468354431 3.32400085149665 1497.0 0.0 1497.0 
18.00082008174915 3338.0 2455.0 4978.522151898735 3.6378980629103186 1497.0 0.0 1497.0 
20.00082008174915 4124.0 3123.0 4978.617088607594 4.032448234088276 1497.0 0.0 1497.0 
22.00082008174915 4885.0 3823.0 4978.655063291139 4.354336369046213 1497.0 0.0 1497.0 
24.00082008174915 5925.0 4605.0 4978.680379746836 4.738031045775545 1497.0 0.0 1497.0 
26.000297418119473 6755.0 5346.0 4978.789556962025 5.0232927168967985 1497.0 0.0 1497.0 
28.00082008174915 7464.0 5948.0 4978.8844936708865 5.421867791271546 1497.0 0.0 1497.0 
30.00082008174915 8157.0 6503.0 4978.954113924051 5.922208440798917 1497.0 0.0 1497.0 
32.000820081749154 8845.0 7097.0 4979.09335443038 6.3679653264272025 1497.0 0.0 1497.0 
34.000820081749154 9825.0 7895.0 4979.261075949367 6.731856934086038 1497.0 0.0 1497.0 
36.00029741811947 10349.0 8349.0 4979.340189873417 7.277347941041415 1497.0 0.0 1497.0 
38.000820081749154 11325.0 9197.0 4979.420886075949 6.912839258513467 1497.0 0.0 1497.0 
40.000820081749154 12094.0 9866.0 4979.547468354431 7.230860363193554 1497.0 0.0 1497.0 
42.000820081749154 12669.0 10389.0 4979.604430379747 7.754005399488781 1497.0 0.0 1497.0 
44.000820081749154 13230.0 10845.0 4979.712025316456 8.308388760085677 1497.0 0.0 1497.0 
46.00029741811947 13835.0 11272.0 4979.7990506329115 8.779823196736299 1497.0 0.0 1497.0 
48.000820081749154 14433.0 11631.0 4979.954113924051 9.244974815481877 1497.0 0.0 1497.0 
50.000820081749154 14748.0 11892.0 4979.93829113924 9.721011446092689 1497.0 0.0 1497.0 
52.000820081749154 15197.0 12316.0 4979.962025316456 10.12539124657889 1497.0 0.0 1497.0 
54.000820081749154 15456.0 12516.0 4979.9968354430375 10.319544544192455 1497.0 0.0 1497.0 
56.00029741811947 15982.0 12946.0 4980.106012658228 10.352818494058209 1497.0 0.0 1497.0 
58.000820081749154 16440.0 13348.0 4980.197784810127 10.417208344637992 1497.0 0.0 1497.0 
60.000820081749154 17114.0 13831.0 4980.243670886076 10.701123962790284 1497.0 0.0 1497.0 
62.00073225349868 17027.0 13804.0 489.25 10.6123486250257 358.0 0.0 49.0 
64.0002481603631 17567.0 13997.0 529.3623417721502 9.651325203611465 336.0 0.0 71.0 
66.0002481603631 18241.0 14514.0 534.724683544301 9.228566750573519 318.0 0.0 74.0 
68.0002481603631 18296.0 14534.0 534.7120253164532 8.590789715501565 292.0 0.0 74.0 
70.0002481603631 18923.0 15123.0 534.7215189873428 7.9335559900681005 282.0 0.0 74.0 
72.0002481603631 19267.0 15434.0 538.3227848101291 7.34104143968658 258.0 0.0 76.0 
74.0002481603631 19940.0 15962.0 565.6155063291174 6.589754171701844 252.0 0.0 91.0 
76.0002481603631 20384.0 16417.0 565.5870253164526 5.615793768267316 226.0 0.0 91.0 
78.0002481603631 20881.0 16879.0 565.6234177215216 5.228092091673207 214.0 0.0 91.0 
80.0002481603631 21434.0 17367.0 565.6075949367099 5.083732793095844 205.0 0.0 91.0 
82.0002481603631 21545.0 17468.0 565.6170886075923 4.796188567832084 192.0 0.0 91.0 
84.0002481603631 21814.0 17761.0 565.6218354430376 4.37653685514303 182.0 0.0 91.0 
86.0002481603631 21950.0 17889.0 565.6155063291174 3.8943296551752353 178.0 0.0 91.0 
88.0002481603631 22447.0 18282.0 576.4905063291177 3.1704194544383166 172.0 0.0 97.0 
90.0002481603631 22113.0 18141.0 576.4098101265805 2.594508556721108 147.0 0.0 97.0 
92.0002481603631 23003.0 18859.0 594.5474683544301 2.4461018268298695 148.0 0.0 107.0 
94.0002481603631 23618.0 19579.0 594.5158227848126 2.3871289745094133 147.0 0.0 107.0 
96.0002481603631 24142.0 20086.0 594.5474683544301 2.4076271515184287 144.0 0.0 107.0 
98.0002481603631 24823.0 20729.0 594.5506329113932 2.3956064360656866 142.0 0.0 107.0 
100.0002481603631 25643.0 21546.0 594.5348101265805 2.2298322970007085 140.0 0.0 107.0 
102.0002481603631 26372.0 22231.0 594.5474683544301 2.3853491099190003 140.0 0.0 107.0 
104.0002481603631 27103.0 23064.0 594.541139240511 2.190538453517543 143.0 0.0 107.0 
106.0002481603631 27829.0 23767.0 594.533227848103 2.130053124252875 147.0 0.0 107.0 
108.0002481603631 28642.0 24566.0 594.493670886081 2.051242542509394 144.0 0.0 107.0 
110.0002481603631 29920.0 25752.0 594.4968354430368 2.1652004953000277 144.0 0.0 107.0 
112.0002481603631 30796.0 26598.0 594.4778481012684 2.1524794416777397 143.0 0.0 107.0 
114.0002481603631 31535.0 27319.0 594.4810126582314 2.2736391775855456 143.0 0.0 107.0 
116.0002481603631 32427.0 28182.0 594.4841772151874 2.474892738972543 143.0 0.0 107.0 
118.0002481603631 33493.0 29233.0 594.4920886075918 2.3745659048638963 145.0 0.0 107.0 
120.0002481603631 34099.0 29779.0 594.5427215189895 2.331987313294896 149.0 0.0 107.0 
122.0002481603631 34799.0 30468.0 594.5522151898706 2.4171507057117534 150.0 0.0 107.0 
124.0002481603631 36013.0 31126.0 629.2104430379784 2.350491077031793 171.0 0.0 126.0 
126.0002481603631 36991.0 31731.0 641.9699367088601 2.377101201048383 181.0 0.0 133.0 
128.0002481603631 37946.0 32450.0 651.158227848105 2.3689855630562917 188.0 0.0 138.0 
130.0002481603631 38618.0 32954.0 651.1787974683467 2.4567863302786064 193.0 0.0 138.0 
132.0002481603631 39469.0 33798.0 651.1629746835486 2.540263161009277 193.0 0.0 138.0 
134.0002481603631 39837.0 34144.0 652.9620253164516 2.490109459882258 199.0 0.0 139.0 
136.0002481603631 40660.0 34726.0 654.7974683544301 2.4837570104966473 199.0 0.0 140.0 
138.0002481603631 41281.0 35232.0 660.2547468354404 2.5469702658616495 203.0 0.0 143.0 
140.0002481603631 42063.0 35393.0 702.2136075949397 2.6095833035547296 222.0 0.0 166.0 
142.0002481603631 42449.0 35419.0 734.8322784810163 2.673154054606631 240.0 0.0 184.0 
144.0002481603631 42875.0 35442.0 758.6060126582329 2.9318391255543097 270.0 0.0 197.0 
146.0002481603631 43560.0 35486.0 767.8243670886054 3.029793879477617 279.0 0.0 202.0 
148.0002481603631 43951.0 35575.0 813.2689873417654 2.953675348036664 301.0 0.0 227.0 
150.0002481603631 44039.0 35588.0 816.8955696202582 3.0896908451113108 305.0 0.0 229.0 
152.0002481603631 44026.0 35585.0 820.4636075949352 3.273207968699558 302.0 0.0 231.0 
154.0002481603631 43574.0 35565.0 818.6898734177202 3.262194023441707 303.0 0.0 230.0 
156.0002481603631 43336.0 35552.0 813.1281645569575 3.415460695736305 306.0 0.0 227.0 
158.0002481603631 43175.0 35568.0 813.0300632911399 3.3228877878425362 307.0 0.0 227.0 
160.0002481603631 43120.0 35618.0 814.7484177215171 3.0925718519002654 306.0 0.0 228.0 
162.0002481603631 43199.0 35628.0 818.395569620258 3.193235486701873 308.0 0.0 230.0 
164.0002481603631 43336.0 35643.0 832.8924050632996 3.1482183109657176 319.0 0.0 238.0 
166.0002481603631 43668.0 35771.0 860.1851265822798 3.195369688194064 332.0 0.0 253.0 
168.0002481603631 43717.0 35794.0 860.096518987346 3.2007801477119986 328.0 0.0 253.0 
170.0002481603631 43770.0 35913.0 874.6835443037937 3.2239116688183667 338.0 0.0 261.0 
172.0002481603631 43665.0 35912.0 892.875 3.27715220222169 351.0 0.0 271.0 
174.0002481603631 43273.0 35899.0 892.8481012658166 3.195166361574738 350.0 0.0 271.0 
176.0002481603631 42416.0 35866.0 896.4778481012561 2.9086759958367776 351.0 0.0 273.0 
178.0002481603631 42079.0 35849.0 894.3022151898829 2.898529996252617 348.0 0.0 272.0 
180.0002481603631 41979.0 35843.0 894.378164556954 2.8973053832364277 349.0 0.0 272.0 
182.0002481603631 41969.0 35844.0 890.7151898734196 2.931247763183195 353.0 0.0 270.0 
184.0002481603631 42015.0 35849.0 890.81487341772 2.691215273432232 353.0 0.0 270.0 
186.0002481603631 42398.0 35870.0 889.0237341772123 2.6804175563535413 352.0 0.0 269.0 
188.0002481603631 42561.0 35882.0 889.0142405063237 2.7542090236861747 350.0 0.0 269.0 
190.0002481603631 42874.0 35901.0 889.156645569626 2.8060084090369743 355.0 0.0 269.0 
192.0002481603631 42912.0 35902.0 889.123417721514 2.90714736259262 355.0 0.0 269.0 
194.0002481603631 42857.0 35898.0 889.0838607594851 3.049705095759616 353.0 0.0 269.0 
196.00001926189 42700.0 35890.0 889.125 2.878331056042096 353.0 0.0 269.0 
198.0002481603631 42726.0 35891.0 889.0142405063237 2.8759620437097064 352.0 0.0 269.0 
200.0002481603631 42653.0 35885.0 889.0142405063237 3.0522376784137135 351.0 0.0 269.0 
202.0002481603631 42611.0 35876.0 890.9446202531611 2.9934898045895095 350.0 0.0 270.0 
204.00062384474094 42691.0 35878.0 889.0838607594851 3.041608898986797 345.0 0.0 269.0 
206.00001926189 42961.0 35892.0 889.0981012658167 3.093938962129896 340.0 0.0 269.0 
208.00082008174917 42995.0 35894.0 890.920886075956 3.150923030978047 342.0 0.0 270.0 
210.00082008174917 43079.0 35898.0 894.617088607603 3.2116723116177885 342.0 0.0 272.0 
212.00082008174917 43006.0 35890.0 892.787974683537 3.1470920934681903 340.0 0.0 271.0 
214.00062384474094 43185.0 35895.0 887.3829113923973 3.0961431026663 345.0 0.0 268.0 
216.00001926189 42943.0 35884.0 854.7215189873459 3.1003003094700325 325.0 0.0 250.0 
218.00082008174917 42806.0 35876.0 854.5838607594856 3.110129299224403 326.0 0.0 250.0 
220.00082008174917 42558.0 35863.0 854.6044303797418 2.8038840224203443 327.0 0.0 250.0 
222.00082008174917 42524.0 35861.0 852.5696202531614 2.816847465703115 325.0 0.0 249.0 
224.00062384474094 42570.0 35865.0 852.5696202531614 2.8453189684925597 322.0 0.0 249.0 
226.00001926189 42757.0 35874.0 874.4066455696254 2.8243552571248167 330.0 1.0 260.0 
228.00082008174917 43006.0 35888.0 892.6123417721617 2.8977274259143613 346.0 0.0 271.0 
230.00082008174917 43054.0 35897.0 888.9936708860732 3.0295314149422503 347.0 0.0 269.0 
232.00082008174917 42987.0 35894.0 887.2088607594852 3.055493239974088 350.0 0.0 268.0 
234.00062384474094 42924.0 35894.0 885.3591772151841 3.0976067496722255 351.0 0.0 267.0 
236.00001926189 42891.0 35900.0 889.1471518987435 2.9604772387170324 354.0 0.0 269.0 
238.00082008174917 43066.0 35930.0 894.545886075956 2.910383695718111 354.0 0.0 272.0 
240.00082008174917 43014.0 35943.0 901.863924050625 2.96425870472052 357.0 0.0 276.0 
242.00082008174917 43459.0 35980.0 938.3006329113965 3.1053671673207663 385.0 0.0 296.0 
244.00062384474094 43381.0 36063.0 941.9319620253218 3.120495674317261 383.0 0.0 298.0 
246.00001926189 43451.0 36065.0 951.0253164556951 2.995397844481525 390.0 0.0 303.0 
248.00082008174917 43676.0 36087.0 956.4335443037962 3.0119908463195935 392.0 0.0 306.0 
250.00053138388643 43844.0 36098.0 960.1661392405153 3.081717435588709 399.0 0.0 308.0 
252.00082008174917 43955.0 36108.0 963.7816455696279 3.158149090005409 403.0 0.0 310.0 
254.00062384474094 43981.0 36107.0 962.0094936708813 3.2849400716539905 398.0 0.0 309.0 
256.00001926189 43748.0 36096.0 932.9240506329076 3.190686522388533 381.0 0.0 293.0 
258.00082008174917 43556.0 36091.0 927.4794303797436 3.0639172602596134 386.0 0.0 290.0 
260.00082008174917 43590.0 36092.0 912.9098101265809 3.1697251526070365 379.0 0.0 282.0 
262.00082008174917 43838.0 36100.0 909.2863924050669 3.2627089963499887 373.0 0.0 280.0 
264.0006238447409 44030.0 36115.0 907.5300632911399 3.4094770611434737 376.0 0.0 279.0 
266.00001926189003 44023.0 36114.0 907.5933544303743 3.3802089479541846 375.0 0.0 279.0 
268.00082008174917 43972.0 36108.0 909.3655063291184 3.2437478661310983 370.0 0.0 280.0 
270.00082008174917 43958.0 36105.0 911.1613924050667 3.373102497385338 364.0 0.0 281.0 
272.00082008174917 43871.0 36092.0 907.5854430379785 3.3827019303623986 360.0 0.0 279.0 
274.0006238447409 43843.0 36092.0 907.5759493670948 3.3618675592574943 357.0 0.0 279.0 
276.00001926189003 43689.0 36086.0 909.3987341772126 3.471806394758455 362.0 0.0 280.0 
278.00082008174917 43444.0 36067.0 905.6424050633015 3.390720630575354 360.0 0.0 278.0 
280.000687257195 43213.0 36054.0 905.5316455696255 3.081640280394587 357.0 0.0 278.0 
282.00082008174917 43195.0 36051.0 925.3813291139251 2.9980336286126046 362.0 0.0 289.0 
284.0006238447409 43200.0 36056.0 930.805379746839 3.0097581604492483 369.0 0.0 292.0 
286.00001926189003 43265.0 36064.0 939.8370253164645 2.9928262894145967 383.0 0.0 297.0 
288.00082008174917 43296.0 36067.0 952.6424050633038 2.9832935386024744 383.0 0.0 304.0 
290.00082008174917 43240.0 36065.0 958.0696202531611 3.0390910247117255 387.0 0.0 307.0 
292.00082008174917 43025.0 36060.0 957.9968354430422 2.9156048399431653 387.0 0.0 307.0 
294.00082008174917 42898.0 36054.0 957.9905063291185 2.9264148303418414 391.0 0.0 307.0 
296.00001926189003 42843.0 36054.0 957.9746835443054 2.9649322712658295 393.0 0.0 307.0 
298.00082008174917 42843.0 36058.0 967.1503164556939 2.9635572644364574 393.0 0.0 312.0 
300.00082008174917 42854.0 36059.0 972.5094936708814 3.041715332545011 396.0 0.0 315.0 
302.00082008174917 42666.0 36054.0 974.297468354438 2.982390639715449 398.0 0.0 316.0 
304.00082008174917 42656.0 36053.0 974.2642405063234 3.000719741168397 398.0 0.0 316.0 
306.00001926189003 42615.0 36052.0 972.4873417721583 3.0600495396310197 389.0 0.0 315.0 
308.00082008174917 42866.0 36063.0 972.6677215189756 2.9811194719962177 390.0 0.0 315.0 
310.00082008174917 42969.0 36066.0 970.8180379746805 2.970081936945459 391.0 0.0 314.0 
312.00082008174917 42991.0 36067.0 970.7974683544384 3.0955393802652797 392.0 0.0 314.0 
314.00082008174917 43028.0 36067.0 974.4193037974696 3.1714774346017798 391.0 0.0 316.0 
316.00001926189003 43012.0 36063.0 968.9224683544385 3.09612351196006 388.0 0.0 313.0 
318.00082008174917 42983.0 36058.0 936.3370253164652 3.0509063420990197 382.0 0.0 295.0 
320.00082008174917 42998.0 36058.0 936.2642405063235 3.2249174209037674 379.0 0.0 295.0 
322.00082008174917 43239.0 36066.0 936.3227848101191 3.1265345480135287 382.0 0.0 295.0 
324.00082008174917 43430.0 36072.0 932.7056962025337 3.0579207935417845 382.0 0.0 293.0 
326.00001926189003 43415.0 36068.0 941.7658227848126 3.0261196135432846 381.0 0.0 298.0 
328.00082008174917 43495.0 36067.0 952.6867088607632 2.854739925273053 387.0 0.0 304.0 
330.00082008174917 43875.0 36086.0 961.9018987341855 2.8998362010197 394.0 0.0 309.0 
332.00082008174917 43931.0 36085.0 952.7199367088647 3.0404876821550877 388.0 0.0 304.0 
334.00082008174917 43953.0 36086.0 952.6993670886033 3.0443084164386924 388.0 0.0 304.0 
336.00001926189003 44187.0 36101.0 949.2515822784832 3.129199308301249 389.0 0.0 302.0 
338.00082008174917 44011.0 36097.0 938.4066455696272 3.171402598132575 384.0 0.0 296.0 
340.00082008174917 43893.0 36090.0 914.7215189873478 3.19361270044458 371.0 0.0 283.0 
342.00082008174917 43824.0 36087.0 901.93987341772 3.3057909514284005 365.0 0.0 276.0 
344.00082008174917 43893.0 36090.0 896.4098101265804 3.2425251981004077 364.0 0.0 273.0 
346.00001926189003 43903.0 36092.0 896.4651898734196 3.249153849274054 364.0 0.0 273.0 
348.00082008174917 43824.0 36089.0 896.4129746835359 3.260777177943117 364.0 0.0 273.0 
350.00082008174917 43788.0 36088.0 900.1313291139281 3.362679835485782 366.0 0.0 275.0 
352.00082008174917 43517.0 36080.0 903.8971518987443 3.3234117137721237 367.0 0.0 277.0 
354.00082008174917 43347.0 36078.0 901.9762658227886 3.4237141911298354 365.0 0.0 276.0 
356.00001926189003 43209.0 36071.0 900.0901898734196 3.3145807814634587 361.0 0.0 275.0 
358.00082008174917 43000.0 36062.0 894.6123417721633 3.1445862636339346 353.0 0.0 272.0 
360.00082008174917 42598.0 36041.0 892.7879746835355 3.163922869229274 351.0 0.0 271.0 
362.00082008174917 42546.0 36041.0 894.4382911392332 3.2713366848077476 361.0 0.0 272.0 
364.00082008174917 42664.0 36045.0 896.196202531655 3.228969839120617 359.0 0.0 273.0 
366.00001926189003 42412.0 36029.0 896.2594936708815 3.1209253640313945 357.0 0.0 273.0 
368.00082008174917 42413.0 36022.0 901.7547468354404 2.90427837697583 358.0 0.0 276.0 
370.000687257195 42556.0 36037.0 899.9303797468389 2.9170730535508937 355.0 0.0 275.0 
372.00082008174917 42706.0 36044.0 894.3781645569534 2.985424756123817 355.0 0.0 272.0 
374.00082008174917 42735.0 36045.0 892.536392405068 2.9097395540351774 350.0 0.0 271.0 
376.00001926189003 42724.0 36045.0 883.4034810126528 2.846073267682843 349.0 0.0 266.0 
378.00082008174917 42774.0 36046.0 872.5759493670951 2.791425803482096 352.0 0.0 260.0 
380.00082008174917 42955.0 36053.0 869.0712025316545 2.8059762535281942 349.0 0.0 258.0 
382.00082008174917 43104.0 36061.0 876.3860759493748 2.815131946275466 354.0 0.0 262.0 
384.00082008174917 43134.0 36062.0 881.868670886073 2.8593381284069093 356.0 0.0 265.0 
386.00001926189003 43300.0 36076.0 876.5253164556995 2.9179008808189 354.0 0.0 262.0 
388.00082008174917 43492.0 36084.0 867.3575949366989 2.8635798665677936 347.0 0.0 257.0 
390.00082008174917 43628.0 36091.0 872.8022151898816 2.929971666885182 356.0 0.0 260.0 
392.00082008174917 43667.0 36094.0 887.375 2.997821152927218 365.0 0.0 268.0 
394.00082008174917 43626.0 36096.0 889.1297468354404 3.0199351843881286 361.0 0.0 269.0 
396.00001926189003 43733.0 36109.0 905.518987341765 3.159531636780348 370.0 0.0 278.0 
398.00082008174917 43586.0 36105.0 910.9905063291185 3.300193199889499 370.0 0.0 281.0 
400.00082008174917 43499.0 36099.0 920.0 3.185794626565891 373.0 0.0 286.0 
402.00082008174917 43432.0 36095.0 925.4493670886036 3.3073375923130364 379.0 0.0 289.0 
404.00082008174917 43420.0 36101.0 930.8085443037932 3.200392616669975 388.0 0.0 292.0 
406.00001926189003 43511.0 36108.0 941.8544303797441 3.1999100246821666 397.0 0.0 298.0 
408.00082008174917 43470.0 36107.0 940.034810126583 3.1783728609982815 401.0 0.0 297.0 
410.00082008174917 43425.0 36106.0 943.8006329113966 3.293800281300652 411.0 0.0 299.0 
412.00082008174917 43339.0 36100.0 943.7610759493726 3.1849673197391377 412.0 0.0 299.0 
414.00082008174917 43166.0 36089.0 938.2737341772108 3.212503000858929 404.0 0.0 296.0 
416.00001926189003 42968.0 36072.0 941.873417721515 3.167216607438173 407.0 0.0 298.0 
418.00082008174917 42813.0 36068.0 934.5348101265823 3.0528037775382875 406.0 0.0 294.0 
420.00082008174917 42735.0 36065.0 910.9636075949315 3.186126077947535 391.0 0.0 281.0 
422.00082008174917 42673.0 36063.0 910.9446202531614 3.1701625123094166 389.0 0.0 281.0 
424.00082008174917 42688.0 36061.0 910.9145569620215 3.116169767409637 387.0 0.0 281.0 
426.00001926189003 42701.0 36064.0 900.0648734177202 3.103382196088117 384.0 0.0 275.0 
428.00082008174917 42866.0 36076.0 905.4462025316548 3.0590902816873595 388.0 0.0 278.0 
430.00082008174917 43545.0 36116.0 931.1645569620227 3.0868117001187447 408.0 0.0 292.0 
432.00082008174917 43839.0 36123.0 945.7563291139257 3.1711685035745965 415.0 0.0 300.0 
434.00082008174917 43915.0 36126.0 949.4034810126516 3.1887957639851026 411.0 0.0 302.0 
436.00001926189003 43858.0 36122.0 952.9968354430439 3.039938185280697 410.0 0.0 304.0 
438.00082008174917 43890.0 36123.0 954.7943037974673 3.110907833114298 415.0 0.0 305.0 
440.00082008174917 43896.0 36117.0 960.2863924050689 3.094338030111176 411.0 0.0 308.0 
442.00082008174917 43867.0 36114.0 958.5 3.0623729260400494 406.0 0.0 307.0 
444.00082008174917 43915.0 36113.0 958.3639240506284 3.177288831848736 409.0 0.0 307.0 
446.00001926189003 43967.0 36115.0 958.3908227848124 3.240950355409859 405.0 0.0 307.0 
448.00082008174917 44123.0 36120.0 960.2041139240439 3.143852029463407 408.0 0.0 308.0 
450.00082008174917 44181.0 36117.0 963.8322784810243 3.3090492921356267 404.0 0.0 310.0 
452.00082008174917 44170.0 36122.0 961.9541139240438 3.4838866146200207 401.0 0.0 309.0 
454.00082008174917 44108.0 36114.0 961.8876582278398 3.4881421968569684 400.0 0.0 309.0 
456.00001926189003 44026.0 36102.0 960.0791139240437 3.4428408746378225 397.0 0.0 308.0 
458.00082008174917 43886.0 36090.0 961.9018987341854 3.498290887590981 393.0 0.0 309.0 
460.00082008174917 43322.0 36061.0 960.1044303797455 3.3541925454977197 386.0 0.0 308.0 
462.00082008174917 43049.0 36054.0 956.4082278480927 3.347887806438362 385.0 0.0 306.0 
464.0006238447409 42947.0 36045.0 958.0886075949313 3.317026298963527 385.0 0.0 307.0 
466.00001926189003 43085.0 36050.0 954.417721518976 3.156249650506507 382.0 0.0 305.0 
468.00082008174917 43043.0 36049.0 961.6566455696278 2.9912801456021496 386.0 0.0 309.0 
470.00082008174917 43006.0 36055.0 963.3496835443065 2.9139640935653657 393.0 0.0 310.0 
472.00002733691065 42945.0 36052.0 965.2262658227894 2.830292428054512 391.0 0.0 311.0 
474.0006238447409 42861.0 36048.0 965.1598101265865 2.9921900382389337 392.0 0.0 311.0 
476.00001926189003 42892.0 36053.0 954.3117088607623 3.00945105263676 387.0 0.0 305.0 
478.00082008174917 42796.0 36051.0 948.8686708860762 2.8880433829602166 389.0 0.0 302.0 
480.00082008174917 42705.0 36049.0 945.2231012658146 2.9708931728339407 387.0 0.0 300.0 
482.00082008174917 42730.0 36053.0 921.6977848101176 3.1062591689889336 377.0 0.0 287.0 
484.0006238447409 42766.0 36053.0 925.280063291138 3.0432246909061154 376.0 0.0 289.0 
486.00001926189003 42739.0 36054.0 925.3322784810238 3.157499718356352 378.0 0.0 289.0 
488.00082008174917 42727.0 36056.0 919.8987341772112 3.218678568373116 377.0 0.0 286.0 
490.00082008174917 42802.0 36056.0 901.7104430379786 3.1599945198181634 375.0 0.0 276.0 
492.00082008174917 42913.0 36069.0 894.4778481012559 3.2167583942088296 372.0 0.0 272.0 
494.0006238447409 42905.0 36073.0 874.5379746835365 3.36476205577508 361.0 0.0 261.0 
496.00001926189003 42861.0 36071.0 870.9699367088601 3.203539720510801 358.0 0.0 259.0 
498.00082008174917 42798.0 36066.0 861.8481012658169 3.1148746210877483 349.0 0.0 254.0 
500.00082008174917 42669.0 36053.0 858.1424050633012 2.9671617852390986 342.0 0.0 252.0 
502.00082008174917 42631.0 36051.0 849.0822784810209 2.9383731519643876 333.0 0.0 247.0 
504.0006238447409 42815.0 36060.0 847.1914556962058 3.01578465862133 331.0 0.0 246.0 
506.00001926189003 42803.0 36056.0 847.1898734177202 3.1012961975270588 330.0 0.0 246.0 
508.00082008174917 42841.0 36052.0 848.9920886076019 2.922066582871877 326.0 0.0 247.0 
510.00082008174917 42914.0 36052.0 848.9351265822798 2.882858559871272 334.0 0.0 247.0 
512.0008200817492 42942.0 36059.0 847.1661392405144 2.9298018006982036 333.0 0.0 246.0 
514.000623844741 42871.0 36062.0 839.8607594936759 3.012583031281583 336.0 0.0 242.0 
516.00001926189 43068.0 36081.0 847.2009493670947 3.0161551773186197 341.0 0.0 246.0 
518.0008200817492 43191.0 36084.0 858.2863924050666 3.017106523016367 348.0 0.0 252.0 
520.0000273369106 43128.0 36086.0 849.1787974683457 2.964132134169234 339.0 0.0 247.0 
522.0008200817492 43169.0 36088.0 820.1471518987413 3.1007094426583297 324.0 0.0 231.0 
524.000623844741 43410.0 36105.0 827.5569620253218 3.1567902341088803 330.0 0.0 235.0 
526.00001926189 43345.0 36102.0 833.0601265822798 2.9027319305771804 335.0 0.0 238.0 
528.0008200817492 43493.0 36112.0 869.3591772151841 2.9347248254998837 357.0 0.0 258.0 
530.0008200817492 43572.0 36112.0 883.8844936708815 3.0970828234889605 370.0 0.0 266.0 
532.0008200817492 43706.0 36118.0 887.5205696202584 3.0422575745770937 374.0 0.0 268.0 
534.000623844741 43909.0 36129.0 911.2768987341855 3.0307771784462 387.0 0.0 281.0 
536.00001926189 44023.0 36134.0 911.1882911392318 3.1291007529104933 394.0 0.0 281.0 
538.0008200817492 44055.0 36135.0 916.6740506329054 3.1858467812652176 398.0 0.0 284.0 
540.0008200817492 44141.0 36138.0 913.0332278480915 3.2031373346152505 400.0 0.0 282.0 
542.0008200817492 44145.0 36136.0 916.664556962022 3.380820967267192 404.0 0.0 284.0 
544.000623844741 44138.0 36139.0 920.2768987341865 3.3713088173129226 404.0 0.0 286.0 
546.00001926189 43929.0 36123.0 922.1424050633052 3.3730248495760975 403.0 0.0 287.0 
548.0008200817492 43810.0 36115.0 942.1186708860739 3.3093562629110536 413.0 0.0 298.0 
550.0008200817492 43842.0 36122.0 945.6202531645597 3.385248988170901 419.0 1.0 299.0 
552.0008200817492 44093.0 36131.0 943.8306962025316 3.374359653473598 417.0 1.0 298.0 
554.000623844741 43958.0 36123.0 943.895569620254 3.373398326105587 415.0 1.0 298.0 
556.00001926189 43945.0 36125.0 942.0506329113967 3.3054784391113534 417.0 1.0 297.0 
558.0008200817492 43799.0 36115.0 927.4889240506266 3.3296634665300937 414.0 0.0 290.0 
560.0008200817492 43823.0 36121.0 932.9825949366947 3.3881971777844377 413.0 0.0 293.0 
562.0008200817492 43637.0 36112.0 934.7183544303712 3.343189098311698 413.0 0.0 294.0 
564.000623844741 43275.0 36096.0 934.6645569620238 3.312529681804573 411.0 0.0 294.0 
566.00001926189 43097.0 36086.0 936.3417721519082 3.242569156962017 404.0 0.0 295.0 
568.0008200817492 43029.0 36083.0 938.0632911392354 3.105932662574584 404.0 0.0 296.0 
570.0008200817492 42887.0 36073.0 941.700949367091 3.070492524405948 400.0 0.0 298.0 
572.0008200817492 43053.0 36082.0 941.7389240506291 3.0545672508942707 402.0 0.0 298.0 
574.000623844741 43134.0 36080.0 939.960443037975 3.0742214501773244 398.0 0.0 297.0 
576.00001926189 43248.0 36091.0 947.2642405063236 3.0843742320550116 408.0 0.0 301.0 
578.0008200817492 43343.0 36095.0 958.2642405063235 3.1929916289935485 417.0 0.0 307.0 
580.0008200817492 43393.0 36093.0 960.0806962025312 3.1201149585571457 415.0 0.0 308.0 
582.0008200817492 43159.0 36080.0 963.7436708860766 3.106992535331971 413.0 0.0 310.0 
584.000623844741 43130.0 36078.0 965.4746835443063 3.2220563721721502 410.0 0.0 311.0 
586.00001926189 43041.0 36070.0 963.6613924050688 3.222527584074562 406.0 0.0 310.0 
588.0008200817492 42961.0 36057.0 959.8892405063235 3.0868374133209264 402.0 0.0 308.0 
590.0008200817492 42832.0 36047.0 959.8781645569574 3.0492846082032576 399.0 0.0 308.0 
592.0008200817492 42877.0 36045.0 959.772151898745 2.9841403619175435 398.0 0.0 308.0 
594.000623844741 42925.0 36042.0 961.55379746835 3.076870361361067 396.0 0.0 309.0 
596.00001926189 42956.0 36046.0 961.5522151898791 3.064505803685405 400.0 0.0 309.0 
598.0008200817492 42957.0 36046.0 963.3607594936766 3.0031480172255427 400.0 0.0 310.0 
600.0008200817492 42945.0 36049.0 957.9272151898798 3.109564768875351 397.0 1.0 306.0 
602.0008200817492 42802.0 36044.0 961.6155063291187 3.1374603101190983 396.0 1.0 308.0 
604.000623844741 42723.0 36040.0 950.6028481012551 3.0084493922250193 391.0 1.0 302.0 
606.00001926189 42602.0 36034.0 937.9477848101191 3.000179829434641 384.0 0.0 296.0 
608.0008200817492 42613.0 36033.0 930.7246835443028 2.972143880128191 384.0 0.0 292.0 
610.0008200817492 42685.0 36039.0 928.8844936708814 2.910433779263285 381.0 0.0 291.0 
612.0008200817492 42785.0 36035.0 930.6819620253225 2.854857116263019 384.0 0.0 292.0 
614.000623844741 42914.0 36050.0 921.710443037977 2.9625053388191973 377.0 0.0 287.0 
616.00001926189 43091.0 36059.0 927.1851265822798 2.818096134398898 385.0 0.0 290.0 
618.0008200817492 43264.0 36070.0 914.5395569620221 2.926703510983003 376.0 0.0 283.0 
620.0008200817492 43318.0 36076.0 905.455696202536 2.9400982882313085 381.0 0.0 278.0 
622.0008200817492 43359.0 36078.0 905.536392405067 3.046485670591883 379.0 0.0 278.0 
624.000623844741 43491.0 36083.0 871.0284810126537 3.0353315669862546 361.0 0.0 259.0 
626.00001926189 43486.0 36081.0 854.7674050633004 3.139064156042518 351.0 0.0 250.0 
628.0008200817492 43448.0 36080.0 862.0 3.0871799628683143 353.0 0.0 254.0 
630.0008200817492 43547.0 36088.0 867.4889240506255 3.1281399950156525 353.0 0.0 257.0 
632.0008200817492 43714.0 36096.0 891.2199367088601 3.1569403179956312 369.0 0.0 270.0 
634.000623844741 43801.0 36098.0 893.049050632905 3.270623270926524 368.0 0.0 271.0 
636.00001926189 43969.0 36106.0 896.7072784810222 3.3293765643521813 373.0 0.0 273.0 
638.0008200817492 43933.0 36104.0 889.4699367088601 3.362315424753202 374.0 0.0 269.0 
640.0008200817492 43873.0 36102.0 884.0047468354404 3.336736974602877 366.0 0.0 266.0 
642.0008200817492 43850.0 36107.0 883.9984177215144 3.47869063411188 374.0 0.0 266.0 
644.000623844741 43887.0 36110.0 889.3734177215141 3.5059212141757707 382.0 0.0 269.0 
646.00001926189 43787.0 36103.0 894.8971518987438 3.457046481493516 389.0 0.0 272.0 
648.0008200817492 43772.0 36109.0 900.2800632911399 3.326804910291741 391.0 0.0 275.0 
650.0008200817492 43832.0 36106.0 898.5791139240442 3.3884968395114674 392.0 0.0 274.0 
652.0008200817492 43935.0 36117.0 903.9699367088601 3.347205882337336 389.0 0.0 277.0 
654.000623844741 43616.0 36101.0 903.9683544303725 3.1492515635537104 388.0 0.0 277.0 
656.00001926189 43564.0 36094.0 901.992088607604 3.2614036212055213 390.0 0.0 276.0 
658.0008200817492 43570.0 36093.0 905.6186708860716 3.2869884307350707 393.0 0.0 278.0 
660.0008200817492 43641.0 36098.0 914.7167721519072 3.286870728893504 390.0 0.0 283.0 
662.0008200817492 43462.0 36089.0 916.5569620253237 3.3430692247187923 396.0 0.0 284.0 
664.000623844741 43415.0 36087.0 916.490506329119 3.2847000560939628 396.0 0.0 284.0 
#####################################################################
# End of data export. Simulation finished at: 2019-03-07T17:50+0000 #
#####################################################################
