#####################################################################
# Alchemist log file - simulation started at: 2019-03-03T03:32+0000 #
#####################################################################
# seed = 9.0, bandwidth = 316227.76601683797, accessPointCount = 141.4213562373095, baserange = 10.0
#
# The columns have the following meaning: 
# time neighbor_count[Sum] <value>@neighbor_count[Sum] packet_size[Mean] mean_delay[Mean] crowd[Sum] overcrowded[Sum] risk[Sum] 
0.0 NaN NaN NaN NaN NaN NaN NaN 
10.000337445961424 12.0 7.0 4986.0952380952385 0.4842012608097992 1497.0 0.0 1497.0 
20.000337445961424 12.0 7.0 4986.0952380952385 0.4842012608097974 1497.0 0.0 1497.0 
30.000337445961424 12.0 7.0 4986.063492063492 0.4842181262906517 1497.0 0.0 1497.0 
40.00033744596142 12.0 7.0 4986.0976800976805 0.4842012608097992 1497.0 0.0 1497.0 
50.00033744596142 12.0 7.0 4986.056166056166 0.4842128558278862 1497.0 0.0 1497.0 
60.00033744596142 12.0 7.0 4986.090354090354 0.4842044230874591 1497.0 0.0 1497.0 
70.00033744596142 12.0 7.0 400.0 0.49873508893593055 3.0 0.0 0.0 
80.00033744596142 12.0 7.0 400.0 0.49873508893593055 0.0 0.0 0.0 
90.00033744596142 14.0 8.0 400.0 0.49873508893593055 0.0 0.0 0.0 
100.00033744596142 14.0 8.0 400.0 0.49873508893593055 0.0 0.0 0.0 
110.00033744596142 14.0 8.0 400.0 0.49873508893593055 0.0 0.0 0.0 
120.00033744596142 14.0 8.0 400.0 0.49873508893593055 0.0 0.0 0.0 
130.0003374459614 14.0 8.0 400.0 0.49873508893594476 0.0 0.0 0.0 
140.0003374459614 14.0 8.0 400.0 0.49873508893594476 0.0 0.0 0.0 
150.0003374459614 14.0 8.0 400.0 0.49873508893594476 0.0 0.0 0.0 
160.0003374459614 14.0 8.0 400.0 0.49873508893594476 0.0 0.0 0.0 
170.0003374459614 14.0 8.0 400.0 0.49873508893594476 0.0 0.0 0.0 
180.0003374459614 14.0 8.0 400.0 0.49873508893594476 0.0 0.0 0.0 
190.0003374459614 14.0 8.0 400.0 0.49873508893594476 0.0 0.0 0.0 
200.0003374459614 15.0 9.0 400.0 0.47622424100450594 0.0 0.0 0.0 
210.0003374459614 16.0 9.0 400.0 0.4913249873821826 0.0 0.0 0.0 
220.0003374459614 16.0 9.0 400.0 0.4913249873821826 0.0 0.0 0.0 
230.0003374459614 16.0 9.0 400.0 0.4913249873821826 0.0 0.0 0.0 
240.0003374459614 16.0 9.0 400.0 0.4913249873821826 0.0 0.0 0.0 
250.0003374459614 16.0 9.0 400.0 0.4913249873821826 0.0 0.0 0.0 
260.0003374459614 16.0 9.0 400.0 0.49132498738216746 0.0 0.0 0.0 
270.0003374459614 16.0 9.0 400.0 0.49132498738216746 0.0 0.0 0.0 
280.0003374459614 16.0 9.0 400.0 0.49132498738216746 0.0 0.0 0.0 
290.0003374459614 16.0 9.0 400.0 0.49132498738216746 0.0 0.0 0.0 
300.0003374459614 16.0 9.0 400.0 0.5247426481197692 0.0 0.0 0.0 
310.0003374459614 14.0 8.0 400.0 0.49873508893591634 0.0 0.0 0.0 
320.0003374459614 14.0 8.0 400.0 0.49873508893591634 0.0 0.0 0.0 
330.0003374459614 14.0 8.0 400.0 0.49873508893591634 0.0 0.0 0.0 
340.0003374459614 14.0 8.0 400.0 0.49873508893591634 0.0 0.0 0.0 
350.0003374459614 14.0 8.0 400.0 0.49873508893591634 0.0 0.0 0.0 
360.0003374459614 14.0 8.0 400.0 0.49873508893591634 0.0 0.0 0.0 
370.0003374459614 14.0 8.0 400.0 0.49873508893591634 0.0 0.0 0.0 
380.0003374459614 14.0 8.0 400.0 0.49873508893591634 0.0 0.0 0.0 
390.0003374459614 14.0 8.0 400.0 0.49873508893591634 0.0 0.0 0.0 
400.0003374459614 14.0 8.0 400.0 0.49873508893591634 0.0 0.0 0.0 
410.0003374459614 14.0 8.0 400.0 0.49873508893591634 0.0 0.0 0.0 
420.0003374459614 14.0 8.0 400.0 0.49873508893591634 0.0 0.0 0.0 
430.0003374459614 14.0 8.0 400.0 0.49873508893591634 0.0 0.0 0.0 
440.0003374459614 14.0 8.0 400.0 0.49873508893591634 0.0 0.0 0.0 
450.0003374459614 14.0 8.0 400.0 0.49873508893591634 0.0 0.0 0.0 
460.0003374459614 18.0 9.0 400.0 0.498482106723111 0.0 0.0 0.0 
470.0003374459614 18.0 9.0 400.0 0.498482106723111 0.0 0.0 0.0 
480.0003374459614 16.0 9.0 400.0 0.4869621378558539 0.0 0.0 0.0 
490.0003374459614 14.0 8.0 400.0 0.49873508893591634 0.0 0.0 0.0 
500.0003374459614 16.0 9.0 400.0 0.47243874134656305 0.0 0.0 0.0 
510.0003374459614 14.0 8.0 400.0 0.49873508893591634 0.0 0.0 0.0 
520.0003374459613 14.0 8.0 400.0 0.4987350889359732 0.0 0.0 0.0 
530.0003374459613 12.0 7.0 400.0 0.4987350889359732 0.0 0.0 0.0 
540.0003374459613 12.0 7.0 400.0 0.4987350889359732 0.0 0.0 0.0 
550.0003374459613 16.0 9.0 400.0 0.4987350889359732 0.0 0.0 0.0 
560.0003374459613 16.0 9.0 400.0 0.7487350889359732 0.0 0.0 0.0 
570.0003374459613 14.0 8.0 400.0 0.4987350889359732 0.0 0.0 0.0 
580.0003374459613 14.0 8.0 400.0 0.4987350889359732 0.0 0.0 0.0 
590.0003374459613 14.0 8.0 400.0 0.4987350889359732 0.0 0.0 0.0 
600.0003374459613 14.0 8.0 400.0 0.4987350889359732 0.0 0.0 0.0 
610.0003374459613 14.0 8.0 400.0 0.4987350889359732 0.0 0.0 0.0 
620.0003374459613 16.0 9.0 400.0 0.4987350889359732 0.0 0.0 0.0 
630.0003374459613 20.0 10.0 400.0 0.498511869336419 0.0 0.0 0.0 
640.0003374459613 15.0 8.0 400.0 0.47617726341669975 0.0 0.0 0.0 
650.0003374459613 16.0 9.0 400.0 0.5612350889359732 0.0 0.0 0.0 
660.0003374459613 14.0 8.0 400.0 0.4987350889359732 0.0 0.0 0.0 
#####################################################################
# End of data export. Simulation finished at: 2019-03-03T03:34+0000 #
#####################################################################
