#####################################################################
# Alchemist log file - simulation started at: 2019-03-04T03:39+0000 #
#####################################################################
# seed = 0.0, bandwidth = 5623413.251903491, accessPointCount = 141.4213562373095, baserange = 31.622776601683796
#
# The columns have the following meaning: 
# time neighbor_count[Sum] <value>@neighbor_count[Sum] packet_size[Mean] mean_delay[Mean] crowd[Sum] overcrowded[Sum] risk[Sum] 
0.0 NaN NaN NaN NaN NaN NaN NaN 
10.000199674752503 122.0 18.0 4986.283272283273 0.4998837384323521 1495.0 2.0 1495.0 
20.000199674752505 122.0 18.0 4986.3638583638585 0.49989278350786903 1490.0 7.0 1490.0 
30.000199674752505 122.0 18.0 4986.190476190476 0.49989538872379513 1490.0 7.0 1490.0 
40.0001996747525 122.0 18.0 4986.354090354091 0.4998940978246687 1490.0 7.0 1490.0 
50.0001996747525 122.0 18.0 4986.178266178266 0.49989559948283796 1490.0 7.0 1490.0 
60.0001996747525 122.0 18.0 4986.315018315018 0.499893939755388 1490.0 7.0 1490.0 
70.00040553626063 122.0 18.0 428.06837606837615 0.5006967750966462 3.0 7.0 3.0 
80.00040553626063 122.0 18.0 428.06837606837615 0.5006967750966462 3.0 7.0 3.0 
90.00040553626063 122.0 18.0 428.06837606837615 0.5006968804761668 3.0 7.0 3.0 
100.00040553626063 122.0 18.0 428.06837606837615 0.5006968804761668 3.0 7.0 3.0 
110.00040553626063 122.0 18.0 428.06837606837615 0.5006968804761668 3.0 7.0 3.0 
120.00040553626063 122.0 18.0 428.06837606837615 0.5006968804761668 3.0 7.0 3.0 
130.00040553626064 122.0 18.0 428.06837606837615 0.5006968804761568 3.0 7.0 3.0 
140.00040553626064 122.0 18.0 428.06837606837615 0.5006968804761568 3.0 7.0 3.0 
150.00040553626064 120.0 17.0 428.06837606837615 0.5007582075984802 3.0 7.0 3.0 
160.00040553626064 120.0 17.0 428.06837606837615 0.5007582075984802 3.0 7.0 3.0 
170.00040553626064 120.0 17.0 428.06837606837615 0.5007582075984802 3.0 7.0 3.0 
180.00040553626064 120.0 17.0 428.06837606837615 0.5007582075984802 3.0 7.0 3.0 
190.00040553626064 120.0 17.0 428.06837606837615 0.5007583214083623 3.0 7.0 3.0 
200.00040553626064 120.0 17.0 428.06837606837615 0.5007583214083623 3.0 7.0 3.0 
210.00040553626064 120.0 17.0 428.06837606837615 0.5007583214083623 3.0 7.0 3.0 
220.00040553626064 120.0 17.0 428.06837606837615 0.5007583214083623 3.0 7.0 3.0 
230.00040553626064 120.0 17.0 428.06837606837615 0.5007583214083623 3.0 7.0 3.0 
240.00040553626064 120.0 17.0 428.06837606837615 0.5007583214083623 3.0 7.0 3.0 
250.00040553626064 120.0 17.0 428.06837606837615 0.5007583214083623 3.0 7.0 3.0 
260.00040553626064 120.0 17.0 428.06837606837615 0.5007583214083612 3.0 7.0 3.0 
270.00040553626064 120.0 17.0 428.06837606837615 0.5007583214083612 3.0 7.0 3.0 
280.00040553626064 120.0 17.0 428.06837606837615 0.5007583214083612 3.0 7.0 3.0 
290.00040553626064 120.0 17.0 428.06837606837615 0.5007583214083612 3.0 7.0 3.0 
300.00040553626064 120.0 17.0 428.06837606837615 0.5007583214083612 3.0 7.0 3.0 
310.00040553626064 120.0 17.0 428.06837606837615 0.5007583214083612 3.0 7.0 3.0 
320.00040553626064 120.0 17.0 428.06837606837615 0.5007583214083612 3.0 7.0 3.0 
330.00040553626064 120.0 17.0 428.06837606837615 0.5007583214083612 3.0 7.0 3.0 
340.00040553626064 121.0 18.0 428.06837606837615 0.5023399835968969 3.0 7.0 3.0 
350.00040553626064 126.0 19.0 428.06837606837615 0.5006618302910912 3.0 7.0 3.0 
360.00040553626064 126.0 19.0 428.06837606837615 0.5006618302910912 3.0 7.0 3.0 
370.00040553626064 126.0 19.0 428.06837606837615 0.536376116005377 3.0 7.0 3.0 
380.00040553626064 124.0 18.0 428.06837606837615 0.5007182119424377 3.0 7.0 3.0 
390.00040553626064 124.0 18.0 428.06837606837615 0.5007182119424377 3.0 7.0 3.0 
400.00040553626064 124.0 18.0 428.06837606837615 0.5007182119424377 3.0 7.0 3.0 
410.00040553626064 126.0 19.0 428.06837606837615 0.5006618302910912 3.0 7.0 3.0 
420.00040553626064 128.0 20.0 428.06837606837615 0.6006129661932577 3.0 7.0 3.0 
430.00040553626064 126.0 19.0 428.06837606837615 0.5006618302910912 3.0 7.0 3.0 
440.00040553626064 126.0 19.0 428.06837606837615 0.5006618302910912 3.0 7.0 3.0 
450.00040553626064 124.0 18.0 428.06837606837615 0.5007182119424377 3.0 7.0 3.0 
460.00040553626064 124.0 18.0 428.06837606837615 0.5007182119424377 3.0 7.0 3.0 
470.00040553626064 124.0 18.0 428.06837606837615 0.5007182119424377 3.0 7.0 3.0 
480.00040553626064 124.0 18.0 428.06837606837615 0.5007182119424377 3.0 7.0 3.0 
490.00040553626064 124.0 18.0 428.06837606837615 0.5007182119424377 3.0 7.0 3.0 
500.00040553626064 124.0 18.0 428.06837606837615 0.5007182119424377 3.0 7.0 3.0 
510.00040553626064 124.0 18.0 428.06837606837615 0.5007182119424377 3.0 7.0 3.0 
520.0004055362606 124.0 18.0 428.06837606837615 0.5007182119424635 3.0 7.0 3.0 
530.0004055362606 124.0 18.0 428.06837606837615 0.5007182119424635 3.0 7.0 3.0 
540.0004055362606 124.0 18.0 428.06837606837615 0.5007182119424635 3.0 7.0 3.0 
550.0004055362606 124.0 18.0 428.06837606837615 0.5007182119424635 3.0 7.0 3.0 
560.0004055362606 124.0 18.0 428.06837606837615 0.5007182119424635 3.0 7.0 3.0 
570.0004055362606 124.0 18.0 428.06837606837615 0.5007182119424635 3.0 7.0 3.0 
580.0004055362606 124.0 18.0 428.06837606837615 0.5007182119424635 3.0 7.0 3.0 
590.0004055362606 130.0 21.0 428.06837606837615 0.500570210107685 3.0 7.0 3.0 
600.0004055362606 128.0 20.0 428.06837606837615 0.5006129661932877 3.0 7.0 3.0 
610.0004055362606 126.0 19.0 428.06837606837615 0.5006618302911193 3.0 7.0 3.0 
620.0004055362606 126.0 19.0 428.06837606837615 0.5006618302911193 3.0 7.0 3.0 
630.0004055362606 126.0 19.0 428.06837606837615 0.5006618302911193 3.0 7.0 3.0 
640.0004055362606 126.0 19.0 428.06837606837615 0.5006618302911193 3.0 7.0 3.0 
650.0004055362606 126.0 19.0 428.06837606837615 0.5006618302911193 3.0 7.0 3.0 
660.0004055362606 126.0 19.0 428.06837606837615 0.5006618302911193 3.0 7.0 3.0 
#####################################################################
# End of data export. Simulation finished at: 2019-03-04T03:45+0000 #
#####################################################################
