#####################################################################
# Alchemist log file - simulation started at: 2019-03-06T14:39+0000 #
#####################################################################
# seed = 8.0, bandwidth = 2.3713737056616552E7, accessPointCount = 274.2481756762073, baserange = 1000.0
#
# The columns have the following meaning: 
# time neighbor_count[Sum] <value>@neighbor_count[Sum] packet_size[Mean] mean_delay[Mean] crowd[Sum] overcrowded[Sum] risk[Sum] 
0.0 NaN NaN NaN NaN NaN NaN NaN 
2.0000790604516703 7064.0 3900.0 4984.876341050254 0.4844665370563596 1497.0 0.0 1497.0 
4.000250735465063 12135.0 4051.0 4986.021456804066 0.5512773429929764 1497.0 0.0 1497.0 
6.000198348008885 16754.0 4050.0 4987.121400338791 0.5685290418642545 1497.0 0.0 1497.0 
8.000710087099401 20997.0 4070.0 4988.298136645963 0.6069357191902731 1497.0 0.0 1497.0 
10.000920429315311 24431.0 4061.0 4989.998870694523 0.6308186662598443 1497.0 0.0 1497.0 
12.000920429315311 23998.0 3960.0 4990.924901185771 0.6006577100616248 1496.0 1.0 1496.0 
14.000920429315311 22204.0 3853.0 4990.86617730096 0.49979436781217007 1495.0 2.0 1495.0 
16.000198348008887 22204.0 3853.0 4990.568040654997 0.4997944479398101 1493.0 4.0 1493.0 
18.000920429315308 22204.0 3853.0 4990.769057029926 0.4997942679442422 1494.0 3.0 1494.0 
20.000920429315308 22204.0 3853.0 4990.940711462451 0.499794307716546 1494.0 3.0 1494.0 
22.000920429315308 22230.0 3853.0 4991.024280067758 0.4998124782171424 1494.0 3.0 1494.0 
24.000920429315308 22263.0 3854.0 4990.6538678712595 0.5021512748520499 1494.0 3.0 1494.0 
26.000198348008887 22252.0 3852.0 4990.5590062111805 0.49986669977510906 1493.0 4.0 1493.0 
28.000920429315308 22252.0 3852.0 4990.391869000565 0.5023267395908373 1493.0 4.0 1493.0 
30.000920429315308 22242.0 3851.0 4990.730660643704 0.4998791992422248 1494.0 3.0 1494.0 
32.00092042931531 22272.0 3851.0 4990.906832298137 0.5001069241506162 1491.0 6.0 1491.0 
34.00092042931531 22301.0 3851.0 4990.787125917561 0.5007784759107066 1492.0 5.0 1492.0 
36.00019834800889 22300.0 3852.0 4990.513833992095 0.5015468845955497 1493.0 4.0 1493.0 
38.00092042931531 22270.0 3851.0 4990.59062676454 0.5000476635792904 1491.0 6.0 1491.0 
40.00092042931531 22290.0 3852.0 4990.757763975155 0.5022940515997405 1489.0 8.0 1489.0 
42.00092042931531 22228.0 3851.0 4990.886504799549 0.5000492736680607 1491.0 6.0 1491.0 
44.00092042931531 22232.0 3851.0 4990.730660643704 0.5000448313728392 1492.0 5.0 1492.0 
46.00019834800889 22238.0 3852.0 4990.690005646527 0.5012149166858613 1489.0 8.0 1489.0 
48.00092042931531 22252.0 3853.0 4990.484472049689 0.5010177928641484 1490.0 7.0 1490.0 
50.00092042931531 22244.0 3852.0 4990.872953133823 0.4997774654855947 1489.0 8.0 1489.0 
52.00092042931531 22253.0 3852.0 4990.77583286279 0.5005680454279358 1488.0 9.0 1488.0 
54.00092042931531 22343.0 3854.0 4990.63805759458 0.502312837008931 1489.0 8.0 1489.0 
56.00019834800889 22288.0 3852.0 4990.488989271598 0.4997875746442684 1491.0 6.0 1491.0 
58.00092042931531 22310.0 3853.0 4990.592885375494 0.5017585541362927 1489.0 8.0 1489.0 
60.00092042931531 22310.0 3852.0 4990.77583286279 0.5016546983160999 1490.0 7.0 1490.0 
62.000927030832834 22349.0 3852.0 1299.9119141727824 0.5020624404152095 757.0 7.0 339.0 
64.00092703083283 22301.0 3853.0 1302.561264822133 0.5030429367237563 579.0 18.0 329.0 
66.0001983480089 22308.0 3852.0 1302.1592320722787 0.5015975815155939 534.0 12.0 335.0 
68.00092703083283 22306.0 3852.0 1302.2789384528473 0.5005176201510136 499.0 9.0 338.0 
70.00092703083283 22352.0 3855.0 1307.3653303218514 0.505501523938784 485.0 9.0 340.0 
72.00092703083283 22242.0 3853.0 1309.906267645399 0.5030924993637169 482.0 9.0 341.0 
74.00092703083283 22210.0 3852.0 1309.8543195934471 0.50044559146886 479.0 10.0 340.0 
76.0001983480089 22238.0 3854.0 1309.8723884810856 0.5023906501693519 477.0 10.0 340.0 
78.00092703083283 22199.0 3855.0 1309.7594579333734 0.5050933565076778 474.0 10.0 340.0 
80.00092703083283 22235.0 3855.0 1314.9836250705841 0.5022435820553878 473.0 10.0 342.0 
82.00092703083283 22192.0 3855.0 1314.9068322981345 0.5047403828411209 477.0 10.0 342.0 
84.00092703083283 22069.0 3853.0 1317.5064935064968 0.5014598188051843 475.0 10.0 343.0 
86.0001983480089 22058.0 3852.0 1317.422924901187 0.500702252018504 475.0 10.0 343.0 
88.00092703083283 22056.0 3852.0 1317.5426312817597 0.5003319784014111 473.0 10.0 343.0 
90.00092703083283 22064.0 3853.0 1317.3845285149662 0.5027119982656686 473.0 10.0 343.0 
92.00092703083283 22031.0 3852.0 1317.4590626764575 0.5003688939337726 473.0 10.0 343.0 
94.00092703083283 22032.0 3852.0 1317.4319593450014 0.5003762420582004 473.0 10.0 343.0 
96.0001983480089 22034.0 3852.0 1317.440993788816 0.5004020472668129 473.0 10.0 343.0 
98.00092703083283 22082.0 3853.0 1317.427442123094 0.5013094495288957 471.0 11.0 342.0 
100.00092703083283 22080.0 3853.0 1317.5087521174462 0.5018271165817996 471.0 11.0 342.0 
102.00092703083283 22118.0 3853.0 1317.492941840771 0.501581295368453 471.0 11.0 342.0 
104.00092703083283 22118.0 3852.0 1317.4590626764575 0.5012160211354114 471.0 11.0 342.0 
106.0001983480089 22101.0 3854.0 1320.081309994352 0.5026822875642036 472.0 11.0 343.0 
108.00092703083283 22074.0 3853.0 1320.0903444381672 0.5016471622667675 472.0 10.0 344.0 
110.00092703083283 22141.0 3854.0 1319.9457933370954 0.5039600656326457 472.0 10.0 344.0 
112.00092703083283 22223.0 3853.0 1322.7193675889353 0.5027417985289717 472.0 10.0 345.0 
114.00092703083283 22250.0 3855.0 1322.6538678712582 0.5039759129613756 471.0 10.0 345.0 
116.0001983480089 22041.0 3853.0 1322.6448334274396 0.5026268321380555 473.0 10.0 345.0 
118.00092703083283 22096.0 3853.0 1327.864483342747 0.5006871763706175 474.0 10.0 347.0 
120.00092703083283 22100.0 3852.0 1330.432523997742 0.5006470497511849 475.0 9.0 349.0 
122.0007362677476 22139.0 3853.0 1330.4234895539273 0.5003120502485547 474.0 10.0 348.0 
124.0007362677476 22239.0 3854.0 1327.9164313946897 0.5029994841724245 474.0 10.0 347.0 
126.0001983480089 22198.0 3853.0 1327.73122529644 0.5013882692712354 476.0 8.0 349.0 
128.00092703083283 22190.0 3853.0 1327.8735177865622 0.5014728339629844 476.0 8.0 349.0 
130.00092703083283 22242.0 3853.0 1325.151891586677 0.501739192205127 476.0 8.0 348.0 
132.00092703083283 22263.0 3854.0 1322.6606437041235 0.5027185748550145 473.0 8.0 347.0 
134.00092703083283 22234.0 3852.0 1320.0271033314482 0.500175202461719 471.0 8.0 346.0 
136.0001983480089 22234.0 3852.0 1314.8887634105013 0.5001620908028335 469.0 8.0 344.0 
138.00092703083283 22234.0 3852.0 1314.8503670242808 0.5001664223754139 467.0 8.0 344.0 
140.00092703083283 22252.0 3853.0 1320.0609824957612 0.5014522347115958 469.0 8.0 346.0 
142.00092703083283 22238.0 3852.0 1325.3077357425211 0.5001913478034223 470.0 8.0 348.0 
144.00092703083283 22313.0 3854.0 1325.2332015810298 0.5014544274895647 470.0 8.0 348.0 
146.0001983480089 22352.0 3853.0 1325.1857707509903 0.5014233266383683 470.0 8.0 348.0 
148.00073626774758 22304.0 3853.0 1330.4664031620591 0.5027319082966942 470.0 8.0 350.0 
150.00073626774758 22269.0 3853.0 1330.3444381705283 0.5018017775729741 470.0 9.0 349.0 
152.00073626774758 22293.0 3854.0 1322.6019198193121 0.501853121191544 472.0 9.0 346.0 
154.00073626774758 22206.0 3853.0 1317.434217955959 0.5014652365540344 468.0 9.0 344.0 
156.0001983480089 22168.0 3852.0 1317.422924901187 0.4999342608710726 465.0 9.0 344.0 
158.00073626774758 22169.0 3852.0 1317.3890457368736 0.49993175301508924 467.0 9.0 344.0 
160.00073626774758 22170.0 3852.0 1317.4116318464141 0.5002079671632824 468.0 9.0 344.0 
162.00073626774758 22174.0 3853.0 1319.9887069452277 0.5026534059740351 467.0 9.0 345.0 
164.0005254194959 22170.0 3851.0 1322.6154714850338 0.5005112597690161 467.0 9.0 346.0 
166.0001983480089 22149.0 3852.0 1322.6245059288526 0.5023370283860613 466.0 10.0 345.0 
168.0005254194959 22096.0 3852.0 1320.036137775271 0.5018185247635528 468.0 8.0 346.0 
170.0005169855658 22076.0 3851.0 1317.3709768492402 0.5002049897189553 469.0 8.0 345.0 
172.0005507212861 22148.0 3853.0 1325.2783738001153 0.5026742041289602 472.0 8.0 348.0 
174.0007620755736 22210.0 3852.0 1325.1789949181252 0.50111714225368 471.0 8.0 348.0 
176.0001983480089 22202.0 3852.0 1330.405420666289 0.5018262793268282 471.0 8.0 350.0 
178.00073626774758 22196.0 3852.0 1330.348955392436 0.5014205455347258 472.0 8.0 350.0 
180.00072766513892 22247.0 3853.0 1330.348955392436 0.5022756710706556 471.0 10.0 348.0 
182.0007620755736 22236.0 3853.0 1325.210615471489 0.503152036372659 471.0 10.0 346.0 
184.0007620755736 22194.0 3852.0 1325.2173913043457 0.5011595295637024 470.0 10.0 346.0 
186.0001983480089 22188.0 3851.0 1325.1360813099973 0.5001645359843266 471.0 10.0 346.0 
188.00073626774758 22319.0 3853.0 1330.4009034443784 0.5031244621771083 472.0 9.0 349.0 
190.00073626774758 22284.0 3854.0 1325.242236024844 0.5041246119860838 470.0 9.0 347.0 
192.00073626774758 22228.0 3853.0 1325.2106154714888 0.5020839601194428 472.0 8.0 348.0 
194.00073626774758 22189.0 3852.0 1327.8283455674723 0.5029642541312322 472.0 8.0 349.0 
196.0001983480089 22094.0 3851.0 1327.8509316770217 0.5000612452163302 472.0 8.0 349.0 
198.00073626774758 22094.0 3851.0 1327.8283455674723 0.501774040713279 472.0 8.0 349.0 
200.00073626774758 22090.0 3850.0 1332.9870129870098 0.5000791718306563 474.0 8.0 351.0 
202.00073626774758 22090.0 3850.0 1332.9892715979681 0.5004580694955673 475.0 8.0 351.0 
204.00073626774758 22105.0 3852.0 1332.9621682665204 0.5043118087366664 475.0 8.0 351.0 
206.0001983480089 22097.0 3850.0 1330.3263692828953 0.5008730116042882 474.0 9.0 349.0 
208.00073626774758 22063.0 3851.0 1327.8373800112906 0.5009356025121471 472.0 9.0 348.0 
210.00073626774758 22058.0 3851.0 1325.1338226990388 0.5014629369950608 469.0 9.0 347.0 
212.00073626774758 22000.0 3850.0 1322.5815923207203 0.5000617339696202 467.0 9.0 346.0 
214.00073626774758 22012.0 3852.0 1325.147374364761 0.5021392320315603 467.0 9.0 347.0 
216.0001983480089 22024.0 3851.0 1325.1880293619397 0.5012668062637223 468.0 9.0 347.0 
218.00073626774758 22075.0 3853.0 1322.5047995482796 0.5033017811348826 466.0 9.0 346.0 
220.00073626774758 22133.0 3852.0 1319.9841897233161 0.5042472425551014 464.0 9.0 345.0 
222.00073626774758 22114.0 3850.0 1317.303218520614 0.5056069398731037 465.0 10.0 343.0 
224.00073626774758 22048.0 3850.0 1314.7848673066032 0.5013864222161143 464.0 10.0 342.0 
226.0001983480089 22132.0 3850.0 1314.714850367028 0.501026458747715 463.0 10.0 342.0 
228.00092703083283 22153.0 3852.0 1314.762281197063 0.5046085512772889 462.0 10.0 342.0 
230.00092703083283 22058.0 3851.0 1314.7351778656157 0.501157114528456 461.0 9.0 343.0 
232.00092703083283 22098.0 3851.0 1320.0813099943516 0.501663157621556 461.0 9.0 345.0 
234.00092703083283 22124.0 3853.0 1322.6109542631264 0.5046949818006221 462.0 9.0 346.0 
236.0001983480089 22024.0 3851.0 1322.6019198193121 0.502027048050631 462.0 9.0 346.0 
238.00092703083283 21966.0 3850.0 1322.5522303783148 0.5004649223553375 462.0 9.0 346.0 
240.00092703083283 21966.0 3850.0 1317.332580463011 0.5004660370186279 462.0 9.0 344.0 
242.00092703083283 22004.0 3851.0 1317.3845285149662 0.5019618976670152 463.0 9.0 344.0 
244.00092703083283 21950.0 3851.0 1312.2010163749305 0.5017056989319846 463.0 9.0 342.0 
246.0001983480089 21938.0 3850.0 1312.1942405420646 0.5002820779569204 463.0 9.0 342.0 
248.00092703083283 21968.0 3852.0 1309.6645962732898 0.5025549575191899 463.0 9.0 341.0 
250.00092703083283 21909.0 3850.0 1309.5742518351235 0.5018456421542279 461.0 9.0 341.0 
252.00092703083283 21917.0 3851.0 1309.5832862789377 0.5035392689344215 462.0 9.0 341.0 
254.00092703083283 21884.0 3851.0 1306.9474872953126 0.500661219888804 461.0 9.0 340.0 
256.0001983480089 21967.0 3852.0 1307.0062111801249 0.5030930571271021 462.0 9.0 340.0 
258.0009270308328 21927.0 3852.0 1306.979107848677 0.5025201904880531 464.0 9.0 340.0 
260.0009270308328 21976.0 3853.0 1304.334274421228 0.5048113543613745 464.0 9.0 339.0 
262.0009270308328 21832.0 3851.0 1301.7323546019163 0.5022324970641052 466.0 9.0 338.0 
264.0009270308328 21786.0 3851.0 1301.854319593447 0.500618270901691 464.0 9.0 338.0 
266.0001983480089 21816.0 3852.0 1301.7300959909674 0.5018184338874232 462.0 10.0 337.0 
268.0009270308328 21779.0 3851.0 1304.4313946922605 0.5011455359934202 463.0 10.0 338.0 
270.0009270308328 21766.0 3852.0 1312.065499717677 0.5023839914389506 463.0 10.0 341.0 
272.0009270308328 21750.0 3853.0 1312.090344438167 0.5024374228950054 464.0 10.0 341.0 
274.0009270308328 21681.0 3852.0 1314.6900056465297 0.5040295961840495 465.0 10.0 342.0 
276.0001983480089 21653.0 3852.0 1309.4477696216852 0.5013108282744351 466.0 10.0 340.0 
278.0009270308328 21614.0 3854.0 1309.4568040655 0.5034272546894049 465.0 10.0 340.0 
280.0009270308328 21526.0 3853.0 1306.888763410501 0.5019206728836089 465.0 10.0 339.0 
282.0009270308328 21515.0 3854.0 1309.5132693393539 0.5023252134939784 464.0 11.0 339.0 
284.0009270308328 21510.0 3854.0 1309.6103896103862 0.5025050900481673 465.0 10.0 340.0 
286.0001983480089 21501.0 3853.0 1309.465838509315 0.5007651950807217 463.0 9.0 341.0 
288.0009270308328 21509.0 3854.0 1309.5674760022578 0.5051737171370433 461.0 10.0 340.0 
290.0009270308328 21450.0 3851.0 1312.0609824957612 0.5008959479291133 461.0 10.0 341.0 
292.0009270308328 21460.0 3853.0 1309.5990965556214 0.502053691059483 461.0 10.0 340.0 
294.0009270308328 21473.0 3853.0 1309.5358554489026 0.504096905430211 460.0 10.0 340.0 
296.0001983480089 21467.0 3853.0 1309.5719932241648 0.5017730541388808 462.0 9.0 341.0 
298.0009270308328 21509.0 3853.0 1309.531338226992 0.5068611876746085 460.0 10.0 340.0 
300.0009270308328 21474.0 3855.0 1312.1264822134378 0.5054774221715543 460.0 10.0 341.0 
302.0009270308328 21430.0 3855.0 1309.465838509315 0.5074851310004346 459.0 10.0 340.0 
304.0009270308328 21389.0 3855.0 1309.5787690570307 0.5078618455897981 458.0 10.0 340.0 
306.0001983480089 21384.0 3852.0 1322.4618859401482 0.5019965982050975 460.0 9.0 346.0 
308.0009270308328 21366.0 3851.0 1320.0158102766836 0.5008585645759871 457.0 10.0 344.0 
310.0009270308328 21390.0 3853.0 1317.2670807453428 0.5040044681638374 457.0 10.0 343.0 
312.0009270308328 21357.0 3853.0 1314.764539808021 0.5043738825021478 459.0 10.0 342.0 
314.0009270308328 21377.0 3853.0 1317.2648221343848 0.5059824735810875 461.0 10.0 343.0 
316.0001983480089 21276.0 3850.0 1314.748729531341 0.5008127767811827 462.0 9.0 343.0 
318.0009270308328 21284.0 3851.0 1319.923207227559 0.5025832948243336 461.0 10.0 344.0 
320.0009270308328 21295.0 3852.0 1314.7826086956543 0.5030886606846395 459.0 10.0 342.0 
322.0009270308328 21320.0 3852.0 1314.7238848108427 0.5032608129645306 460.0 10.0 342.0 
324.0009270308328 21338.0 3852.0 1319.9774138904595 0.5055214990780349 459.0 10.0 344.0 
326.0001983480089 21320.0 3850.0 1319.8961038961024 0.5025247557728348 460.0 9.0 345.0 
328.0009270308328 21352.0 3851.0 1325.158667419534 0.5039396476956419 459.0 10.0 346.0 
330.0009270308328 21347.0 3850.0 1325.1767363071674 0.5047051690554651 460.0 10.0 346.0 
332.0009270308328 21317.0 3852.0 1322.5793337097714 0.5036290781736071 457.0 10.0 345.0 
334.0009270308328 21300.0 3849.0 1322.545454545458 0.5035872388511122 460.0 10.0 345.0 
336.0001983480089 21308.0 3849.0 1322.6109542631264 0.501572184172652 463.0 8.0 347.0 
338.0009270308328 21313.0 3849.0 1319.8825522303764 0.5015167434066541 461.0 9.0 345.0 
340.0009270308328 21310.0 3850.0 1319.966120835687 0.5031153202864209 460.0 9.0 345.0 
342.0009270308328 21252.0 3849.0 1319.9751552795015 0.5010922899933862 461.0 9.0 345.0 
344.0009270308328 21284.0 3852.0 1322.5838509316789 0.5045106377145 465.0 9.0 346.0 
346.0001983480089 21260.0 3850.0 1322.5793337097716 0.5025854391819198 466.0 8.0 347.0 
348.0009270308328 21288.0 3850.0 1319.9774138904597 0.5017996120285914 463.0 9.0 345.0 
350.0009270308328 21282.0 3849.0 1317.2964426877486 0.5011172847870405 462.0 9.0 344.0 
352.0009270308328 21302.0 3851.0 1317.3732354601896 0.502238408650983 464.0 9.0 344.0 
354.0009270308328 21280.0 3852.0 1314.7080745341586 0.5063160706411539 463.0 9.0 343.0 
356.0001983480089 21191.0 3850.0 1314.8232636928333 0.5027065110883897 464.0 8.0 344.0 
358.0009270308328 21278.0 3853.0 1314.8074534161528 0.5065003771473922 463.0 9.0 343.0 
360.0009270308328 21142.0 3851.0 1312.2439299830617 0.5038260130369951 464.0 9.0 342.0 
362.0009270308328 21170.0 3850.0 1306.9813664596259 0.501773202343341 465.0 9.0 340.0 
364.0009270308328 21260.0 3851.0 1312.171654432528 0.5032346590611239 465.0 12.0 339.0 
366.0001983480089 21240.0 3849.0 1312.0271033314477 0.5011718424557404 468.0 9.0 342.0 
368.0009270308328 21278.0 3852.0 1296.5827216261966 0.5034465890789064 466.0 9.0 336.0 
370.0009270308328 21281.0 3851.0 1296.5307735742506 0.5053319864235309 466.0 9.0 336.0 
372.0009270308328 21322.0 3850.0 1299.1575381140615 0.5022047484322774 466.0 9.0 337.0 
374.0009270308328 21284.0 3850.0 1299.143986448336 0.5018333257633958 468.0 9.0 337.0 
376.0001983480089 21274.0 3850.0 1304.345567476001 0.5036414685948958 469.0 8.0 340.0 
378.0009270308328 21209.0 3850.0 1301.6939582156956 0.5015607129863254 468.0 9.0 338.0 
380.0009270308328 21221.0 3851.0 1301.7413890457403 0.5037080034347496 468.0 9.0 338.0 
382.0009270308328 21220.0 3850.0 1299.0491247882524 0.5026321124450945 467.0 9.0 337.0 
384.0009270308328 21208.0 3850.0 1299.1756070016904 0.5020324809544997 465.0 10.0 336.0 
386.0001983480089 21244.0 3851.0 1301.653303218523 0.5038932913411458 469.0 8.0 339.0 
388.0009270308328 21274.0 3850.0 1296.587238848104 0.5021933325156418 467.0 9.0 336.0 
390.0009270308328 21261.0 3849.0 1299.1688311688345 0.5015341276685925 467.0 9.0 337.0 
392.0009270308328 21264.0 3849.0 1296.5736871823785 0.5033365313012134 466.0 9.0 336.0 
394.0009270308328 21334.0 3852.0 1299.193675889323 0.5051236000347898 470.0 9.0 337.0 
396.0001983480089 21281.0 3851.0 1299.1801242236013 0.5058320560752361 473.0 7.0 339.0 
398.0009270308328 21246.0 3852.0 1296.546583850935 0.5035005193541722 472.0 10.0 335.0 
400.0009270308328 21333.0 3853.0 1296.621118012427 0.5071779403840925 471.0 10.0 335.0 
402.0009270308328 21159.0 3853.0 1296.5262563523436 0.5065360621978354 472.0 11.0 334.0 
404.0009270308328 21102.0 3852.0 1299.193675889323 0.5039939403808534 472.0 9.0 337.0 
406.0001983480089 21060.0 3851.0 1301.806888763408 0.5036410331964274 474.0 9.0 338.0 
408.0009270308328 21070.0 3851.0 1301.7210615471529 0.5035012441897337 475.0 10.0 337.0 
410.0009270308328 21095.0 3852.0 1304.3071710897807 0.5048357437666965 477.0 9.0 339.0 
412.0009270308328 21038.0 3853.0 1301.7368718238317 0.5108856866851375 478.0 9.0 338.0 
414.0009270308328 21036.0 3851.0 1306.9452286843555 0.5058358866990537 476.0 9.0 340.0 
416.0001983480089 20945.0 3848.0 1304.3794466403142 0.5011492873892306 477.0 8.0 340.0 
418.0009270308328 20976.0 3849.0 1304.352343308867 0.5023687272961099 477.0 9.0 339.0 
420.0009270308328 21037.0 3849.0 1293.998870694524 0.5023255096421902 478.0 9.0 335.0 
422.0009270308328 21027.0 3849.0 1296.5194805194778 0.5029759951186267 476.0 9.0 336.0 
424.0009270308328 21165.0 3852.0 1291.4240542066593 0.504315901058283 472.0 8.0 335.0 
426.0001983480089 21201.0 3850.0 1291.320158102771 0.505515958385405 469.0 8.0 335.0 
428.0009270308328 21196.0 3849.0 1288.7972896668523 0.5045721942311492 470.0 8.0 334.0 
430.0009270308328 21265.0 3849.0 1283.6160361377786 0.5036710756893216 470.0 8.0 332.0 
432.0009270308328 21296.0 3848.0 1294.0327498588404 0.503345269790157 467.0 8.0 336.0 
434.0009270308328 21258.0 3848.0 1299.0423489553962 0.5016910271533559 467.0 9.0 337.0 
436.0001983480089 21266.0 3849.0 1304.2958780350073 0.5017886184786687 474.0 9.0 339.0 
438.0009270308328 21365.0 3856.0 1306.8255223037818 0.5074029375155723 476.0 8.0 341.0 
440.0009270308328 21238.0 3850.0 1306.9745906267606 0.5020529074472552 476.0 8.0 341.0 
442.0009270308328 21321.0 3851.0 1312.1061547148472 0.5043821371970937 477.0 8.0 343.0 
444.0009270308328 21242.0 3851.0 1309.5268210050845 0.5055567279229516 477.0 8.0 342.0 
446.0001983480089 21189.0 3850.0 1314.6809712027114 0.5016735215463795 477.0 7.0 345.0 
448.0009270308328 21175.0 3851.0 1312.2484472049687 0.5042483861872017 476.0 8.0 343.0 
450.0009270308328 21117.0 3850.0 1317.2648221343843 0.5028274596001084 474.0 8.0 345.0 
452.0009270308328 21156.0 3851.0 1317.375494071148 0.5040356057987011 476.0 8.0 345.0 
454.0009270308328 21199.0 3851.0 1319.875776397511 0.503694590460747 477.0 8.0 346.0 
456.0001983480089 21149.0 3849.0 1319.9819311123672 0.5012732791269311 477.0 9.0 345.0 
458.0009270308328 21150.0 3849.0 1317.2941840767903 0.5030985509316436 475.0 9.0 344.0 
460.0009270308328 21141.0 3849.0 1317.3529079616019 0.502723544296568 474.0 9.0 344.0 
462.0009270308328 21166.0 3850.0 1312.0677583286263 0.5023631386669838 477.0 9.0 342.0 
464.0009270308328 21165.0 3850.0 1312.1264822134378 0.5053305991274077 478.0 9.0 342.0 
466.0001983480089 21088.0 3848.0 1312.0316205533643 0.501272322159226 477.0 9.0 342.0 
468.0009270308328 21255.0 3851.0 1312.1129305477161 0.5054675214631211 477.0 9.0 342.0 
470.0009270308328 21264.0 3850.0 1312.0474308300386 0.5051069038615476 476.0 9.0 342.0 
472.0009270308328 21214.0 3850.0 1306.95200451722 0.501652231926209 476.0 9.0 340.0 
474.0009270308328 21223.0 3849.0 1304.259740259742 0.5031699212767371 473.0 9.0 339.0 
476.0001983480089 21211.0 3848.0 1301.6894409937847 0.5023069080889245 473.0 9.0 338.0 
478.0009270308328 21262.0 3849.0 1304.3252399774099 0.5025925653069164 473.0 9.0 339.0 
480.0009270308328 21257.0 3849.0 1304.280067758333 0.5027339891400759 473.0 9.0 339.0 
482.0009270308328 21193.0 3848.0 1293.8452851496318 0.5031719982881978 471.0 9.0 335.0 
484.0009270308328 21194.0 3851.0 1291.3562958780328 0.5054086279792496 472.0 9.0 334.0 
486.0001983480089 21212.0 3849.0 1288.684359119146 0.5030251387486984 467.0 9.0 333.0 
488.0009270308328 21188.0 3850.0 1288.6933935629606 0.5038244192063707 465.0 9.0 333.0 
490.0009270308328 21200.0 3851.0 1288.709203839635 0.5048152622572359 465.0 9.0 333.0 
492.0009270308328 21188.0 3849.0 1288.7159796725005 0.5021815725134207 466.0 9.0 333.0 
494.0009270308328 21193.0 3848.0 1280.8989271597927 0.5018783199112945 466.0 9.0 330.0 
496.0001983480089 21185.0 3850.0 1280.982495765102 0.5025248173603009 465.0 9.0 330.0 
498.0009270308328 21176.0 3850.0 1280.8853754940699 0.503044975670235 462.0 9.0 330.0 
500.0009270308328 21201.0 3852.0 1280.8763410502518 0.5050346407258711 462.0 10.0 329.0 
502.0009270308328 21179.0 3852.0 1286.0824392998347 0.5038321755785387 466.0 11.0 330.0 
504.0009270308328 21176.0 3853.0 1283.5053642010212 0.5047386832826434 467.0 11.0 329.0 
506.0001983480089 21133.0 3850.0 1283.4601919819347 0.5033092676149646 466.0 10.0 330.0 
508.0009270308328 21115.0 3850.0 1278.3579898362502 0.504231999142142 469.0 9.0 329.0 
510.0009270308328 21084.0 3850.0 1280.8808582721592 0.5022051514995083 468.0 9.0 330.0 
512.0009270308328 21078.0 3849.0 1278.317334839071 0.501304519999339 468.0 10.0 328.0 
514.0009270308328 21153.0 3850.0 1275.7041219649932 0.5019807688531651 470.0 9.0 328.0 
516.0001983480089 21284.0 3853.0 1275.7718802936224 0.5051734995542794 465.0 10.0 327.0 
518.0009270308328 21317.0 3852.0 1273.1789949181252 0.5039185432025983 465.0 10.0 326.0 
520.0009270308328 21339.0 3851.0 1270.6041784302604 0.5024275086257519 463.0 10.0 325.0 
522.0009270308328 21340.0 3850.0 1262.7509881422898 0.5033077774424309 460.0 11.0 321.0 
524.0009270308328 21339.0 3849.0 1249.867871259179 0.5037902522960856 453.0 11.0 316.0 
526.0001983480089 21334.0 3849.0 1249.7594579333734 0.5036229560644766 448.0 12.0 315.0 
528.0009270308328 21388.0 3849.0 1249.8746470920346 0.5014953343978324 447.0 10.0 317.0 
530.0009270308328 21447.0 3852.0 1247.173348390743 0.5062158999663571 445.0 10.0 316.0 
532.0009270308328 21352.0 3849.0 1244.7385657820394 0.5013391181748907 446.0 10.0 315.0 
534.0009270308328 21374.0 3849.0 1247.2207792207805 0.502412559174844 447.0 10.0 316.0 
536.0001983480089 21366.0 3849.0 1249.8317334839066 0.5018290725838555 450.0 10.0 317.0 
538.0009270308328 21395.0 3849.0 1249.7820440429095 0.5015133685002812 454.0 9.0 318.0 
540.0009270308328 21432.0 3850.0 1249.8927159796783 0.5039148920789306 454.0 9.0 318.0 
542.0009270308328 21414.0 3850.0 1247.200451722189 0.5021547966134933 456.0 9.0 317.0 
544.0009270308328 21405.0 3849.0 1247.2749858836846 0.5008641768221077 454.0 9.0 317.0 
546.0001983480089 21413.0 3851.0 1249.757199322413 0.5022492818666057 452.0 9.0 318.0 
548.0009270308328 21406.0 3852.0 1249.8678712591798 0.5077101674819052 451.0 9.0 318.0 
550.0009270308328 21303.0 3853.0 1247.2049689440962 0.5067726768326758 451.0 9.0 317.0 
552.0009270308328 21244.0 3851.0 1252.533032185211 0.5035412092972361 454.0 9.0 319.0 
554.0009270308328 21199.0 3852.0 1255.0378317334776 0.5040954183554032 451.0 11.0 318.0 
556.0001983480089 21154.0 3852.0 1254.9971767363102 0.501188584008509 452.0 11.0 318.0 
558.0009270308328 21166.0 3852.0 1252.3500846979082 0.5028824585620336 453.0 9.0 319.0 
560.0009270308328 21212.0 3853.0 1249.7707509881482 0.5050308668507842 451.0 9.0 318.0 
562.0009270308328 21179.0 3851.0 1249.7459062676496 0.5006249993559476 450.0 9.0 318.0 
564.0009270308328 21310.0 3853.0 1252.3839638622214 0.5036719008845026 451.0 9.0 319.0 
566.0001983480089 21251.0 3850.0 1252.2552230378365 0.5021166784879256 453.0 9.0 319.0 
568.0009270308328 21228.0 3850.0 1255.0197628458463 0.5004694893672439 453.0 9.0 320.0 
570.0009270308328 21280.0 3853.0 1257.5832862789377 0.5046563423386388 460.0 9.0 321.0 
572.0009270308328 21266.0 3851.0 1257.6487859966164 0.5022256319212718 461.0 9.0 321.0 
574.0009270308328 21326.0 3853.0 1260.2281197063776 0.5057759361441783 458.0 9.0 322.0 
576.0001983480089 21222.0 3851.0 1260.2800677583339 0.5017605997729204 458.0 8.0 323.0 
578.0009270308328 21180.0 3850.0 1257.6261998870657 0.5002282584202938 455.0 8.0 322.0 
580.0009270308328 21199.0 3850.0 1260.3342744212275 0.5004125940212045 456.0 8.0 323.0 
582.0009270308328 21346.0 3854.0 1260.3026538678735 0.5054789285825513 460.0 9.0 322.0 
584.0009270308328 21359.0 3856.0 1260.2281197063776 0.505315687037334 463.0 9.0 322.0 
586.0001983480089 21318.0 3856.0 1260.160361377751 0.5054721238049128 459.0 10.0 321.0 
588.0009270308328 21244.0 3854.0 1257.6013551665706 0.502982645625478 458.0 10.0 320.0 
590.0009270308328 21243.0 3854.0 1262.805194805191 0.5035297443606497 461.0 10.0 322.0 
592.0009270308328 21212.0 3852.0 1268.049689440997 0.5003564114190983 462.0 10.0 324.0 
594.0009270308328 21289.0 3855.0 1270.6380575945836 0.5036621351295906 462.0 10.0 325.0 
596.0001983480089 21286.0 3853.0 1268.0654997176775 0.5030047080781972 460.0 11.0 323.0 
598.0009270308328 21240.0 3852.0 1268.0022586109587 0.5024605965548251 458.0 13.0 321.0 
600.0009270308328 21300.0 3855.0 1273.3235460191956 0.5052483548516814 466.0 10.0 326.0 
602.0009270308328 21276.0 3852.0 1273.1789949181252 0.5012195016528297 466.0 10.0 326.0 
604.0009270308328 21334.0 3859.0 1281.04799548278 0.5092349395994947 468.0 10.0 329.0 
606.0001983480089 21264.0 3855.0 1280.9712027103358 0.5058428447350147 468.0 11.0 328.0 
608.0009270308328 21237.0 3854.0 1278.3218520609778 0.5060108582993003 469.0 10.0 328.0 
610.0009270308328 21141.0 3851.0 1283.5798983625032 0.5024288902752155 463.0 13.0 327.0 
612.0009270308328 21173.0 3850.0 1286.1547148503685 0.502884197196368 462.0 11.0 330.0 
614.0009270308328 21246.0 3851.0 1296.5849802371556 0.5031914330203899 464.0 11.0 334.0 
616.0001983480089 21288.0 3851.0 1294.0169395821565 0.503015135289919 464.0 13.0 331.0 
618.0009270308328 21227.0 3849.0 1291.3337097684966 0.5017443408371787 462.0 13.0 330.0 
620.0009270308328 21292.0 3851.0 1293.944664031623 0.5024413215171492 464.0 10.0 334.0 
622.0009270308328 21306.0 3852.0 1296.5714285714305 0.5028725134232834 464.0 11.0 334.0 
624.0009270308328 21316.0 3852.0 1299.2636928289078 0.5060473679073684 464.0 10.0 336.0 
626.0001983480089 21252.0 3851.0 1307.015245623939 0.5051008300262271 464.0 12.0 337.0 
628.0009270308328 21192.0 3849.0 1309.6171654432508 0.5015035048559383 471.0 11.0 339.0 
630.0009270308328 21195.0 3851.0 1317.3596837944679 0.5037460274821267 475.0 10.0 343.0 
632.0009270308328 21159.0 3850.0 1312.1513269339368 0.5024482025237323 475.0 11.0 340.0 
634.0009270308328 21220.0 3852.0 1317.3800112930592 0.5034270010153143 475.0 11.0 342.0 
636.0001983480089 21193.0 3850.0 1317.3483907396908 0.5011412649797609 479.0 11.0 342.0 
638.0009270308328 21239.0 3853.0 1317.3303218520618 0.5027518729207012 476.0 11.0 342.0 
640.0009270308328 21185.0 3853.0 1314.8774703557274 0.5039182516691267 476.0 11.0 341.0 
642.0009270308328 21150.0 3853.0 1314.87295313382 0.5026162857651654 476.0 11.0 341.0 
644.0009270308328 21165.0 3853.0 1314.886504799553 0.5041795745718183 476.0 11.0 341.0 
646.0001983480089 21071.0 3851.0 1314.9113495200402 0.5024880080827765 478.0 10.0 342.0 
648.0009270308328 21060.0 3851.0 1317.4409937888158 0.5009108927545519 477.0 10.0 343.0 
650.0009270308328 21156.0 3855.0 1317.3890457368736 0.5062303941656146 475.0 11.0 342.0 
652.0009270308328 21072.0 3852.0 1319.9819311123683 0.5023711612138507 476.0 10.0 344.0 
654.0009270308328 21105.0 3853.0 1320.0135516657217 0.5030577378240009 476.0 10.0 344.0 
656.0001983480089 21079.0 3851.0 1322.5477131564073 0.5037062372566521 476.0 10.0 345.0 
658.0009270308328 21119.0 3855.0 1322.5702992659467 0.505479392370996 475.0 10.0 345.0 
660.0009270308328 21133.0 3854.0 1322.6086956521785 0.505958522412499 474.0 10.0 345.0 
662.0009270308328 21055.0 3852.0 1325.14737436476 0.5035103354420011 474.0 10.0 346.0 
664.0001415827184 21078.0 3855.0 1330.475437605874 0.5069696235621443 472.0 10.0 348.0 
#####################################################################
# End of data export. Simulation finished at: 2019-03-06T14:46+0000 #
#####################################################################
