#####################################################################
# Alchemist log file - simulation started at: 2019-03-09T09:51+0000 #
#####################################################################
# seed = 3.0, bandwidth = 316227.76601683797, accessPointCount = 274.2481756762073, baserange = 562.341325190349
#
# The columns have the following meaning: 
# time neighbor_count[Sum] <value>@neighbor_count[Sum] packet_size[Mean] mean_delay[Mean] crowd[Sum] overcrowded[Sum] risk[Sum] 
0.0 NaN NaN NaN NaN NaN NaN NaN 
2.0004953836583104 3808.0 1735.0 4984.835686053078 0.4507481799378582 1497.0 0.0 1497.0 
4.00049538365831 8720.0 2105.0 4986.861660079051 0.6028239472241955 1497.0 0.0 1497.0 
6.000041935460567 12513.0 2129.0 4988.149068322981 0.5900356691602271 1497.0 0.0 1497.0 
8.000017538231596 16694.0 2126.0 4989.395821569735 0.6004922625168377 1496.0 1.0 1496.0 
10.000041935460567 20118.0 2114.0 4990.297007340486 0.6141050274909976 1497.0 0.0 1497.0 
12.000041935460567 21125.0 2042.0 4990.656126482213 0.5937187401010509 1495.0 2.0 1495.0 
14.000041935460567 20722.0 1980.0 4990.771315640881 0.5441333336146488 1494.0 3.0 1494.0 
16.000014753313305 20722.0 1980.0 4990.77583286279 0.5440806455728657 1492.0 5.0 1492.0 
18.000014753313305 20723.0 1980.0 4990.893280632411 0.5440961661270772 1491.0 6.0 1491.0 
20.000041935460565 20728.0 1980.0 4990.9542631281765 0.5441470769175112 1492.0 5.0 1492.0 
22.000041935460565 20730.0 1980.0 4990.735177865613 0.5441288041365862 1492.0 5.0 1492.0 
24.000041935460565 20730.0 1980.0 4990.671936758893 0.5440765966977514 1491.0 6.0 1491.0 
26.000041935460565 20733.0 1980.0 4990.854884246189 0.5442943699237082 1492.0 5.0 1492.0 
28.000041935460565 20744.0 1982.0 4990.893280632411 0.5459999713540044 1492.0 5.0 1492.0 
30.000041935460565 20722.0 1980.0 4990.870694522869 0.5439527158415756 1491.0 6.0 1491.0 
32.000041935460565 20725.0 1980.0 4990.793901750423 0.5441109052709397 1492.0 5.0 1492.0 
34.00004193546057 20722.0 1980.0 4990.626764539808 0.5438215217026914 1492.0 5.0 1492.0 
36.00004193546057 20768.0 1980.0 4990.841332580463 0.5452170717615111 1491.0 6.0 1491.0 
38.00004193546057 20841.0 1982.0 4991.026538678712 0.5465771790501991 1492.0 5.0 1492.0 
40.00004193546057 20813.0 1980.0 4990.922642574817 0.5473628278143459 1492.0 5.0 1492.0 
42.00004193546057 20802.0 1979.0 4990.619988706945 0.5444837467228788 1491.0 6.0 1491.0 
44.00004193546057 20797.0 1979.0 4990.839073969509 0.5444652877654169 1492.0 5.0 1492.0 
46.00004193546057 20823.0 1979.0 4990.793901750423 0.5453930562553273 1491.0 6.0 1491.0 
48.00004193546057 20833.0 1980.0 4990.911349520045 0.5460296579438164 1486.0 11.0 1486.0 
50.00004193546057 20821.0 1979.0 4990.863918690005 0.5451709660796261 1487.0 10.0 1487.0 
52.00004193546057 20826.0 1980.0 4990.773574251835 0.5460898943578143 1487.0 10.0 1487.0 
54.00004193546057 20807.0 1979.0 4990.633540372671 0.5450076699506954 1486.0 11.0 1486.0 
56.00004193546057 20812.0 1979.0 4990.8594014680975 0.544765132918336 1487.0 10.0 1487.0 
58.00004193546057 20820.0 1980.0 4990.888763410502 0.5447019383589855 1487.0 10.0 1487.0 
60.00004193546057 20823.0 1980.0 4990.911349520045 0.547343098575426 1486.0 11.0 1486.0 
62.00039174482546 20837.0 1980.0 1294.7306606437082 0.5332891334316932 735.0 9.0 335.0 
64.00039174482545 20824.0 1980.0 1294.7419536984721 0.5397951152859554 584.0 15.0 329.0 
66.00001475331331 20828.0 1982.0 1294.7080745341589 0.5417750491177077 522.0 21.0 323.0 
68.00001475331331 20840.0 1980.0 1294.6019198193121 0.5419691544663984 495.0 20.0 324.0 
70.00001475331331 20821.0 1981.0 1297.1089779785405 0.5421249747254792 478.0 21.0 324.0 
72.00001475331331 20799.0 1980.0 1291.9887069452268 0.539591904036119 475.0 20.0 323.0 
74.00001475331331 20802.0 1981.0 1291.830604178434 0.5403114270895252 475.0 17.0 326.0 
76.00008466603501 20817.0 1982.0 1291.8735177865622 0.5404648640297864 477.0 15.0 328.0 
78.00001475331331 20867.0 1981.0 1297.032185206096 0.5419691184581146 470.0 17.0 328.0 
80.00001475331331 20842.0 1980.0 1297.0276679841886 0.5392078646042847 465.0 19.0 326.0 
82.00039174482545 20845.0 1980.0 1297.041219649914 0.5409911988563499 465.0 19.0 326.0 
84.00001475331331 20845.0 1979.0 1297.009599096559 0.5392029681812035 466.0 17.0 328.0 
86.00001475331331 20870.0 1979.0 1297.0073404855975 0.5393175202277679 467.0 16.0 329.0 
88.00001475331331 20889.0 1979.0 1297.0254093732394 0.5393800794862608 466.0 17.0 328.0 
90.00001475331331 20885.0 1979.0 1299.6273291925431 0.5398170411951685 467.0 16.0 330.0 
92.00001475331331 20897.0 1980.0 1299.5437605872414 0.5395700941058879 464.0 19.0 327.0 
94.00001475331331 20904.0 1980.0 1299.67476002259 0.5395608076204044 465.0 18.0 328.0 
96.00001475331331 20905.0 1980.0 1302.1750423489589 0.5409930022187045 468.0 15.0 332.0 
98.00001475331331 20897.0 1982.0 1304.7250141163156 0.5462164888382317 467.0 17.0 331.0 
100.00001475331331 20881.0 1980.0 1309.9943534726165 0.5408057158583947 464.0 20.0 330.0 
102.00001475331331 20893.0 1979.0 1310.0372670807476 0.5398926092020018 468.0 16.0 334.0 
104.00001475331331 20893.0 1979.0 1309.9920948616577 0.5398946424695803 466.0 17.0 333.0 
106.00001475331331 20913.0 1981.0 1309.92659514399 0.5410055321029491 467.0 17.0 333.0 
108.00001475331331 20948.0 1980.0 1310.1276115189141 0.5412355213801354 464.0 19.0 331.0 
110.00001475331331 20894.0 1981.0 1309.946922642572 0.5394856639399835 468.0 15.0 335.0 
112.00001475331331 20876.0 1981.0 1310.001129305476 0.5407625668673686 469.0 14.0 336.0 
114.00001475331331 20868.0 1980.0 1310.1005081874669 0.5400992883231214 467.0 17.0 333.0 
116.00001475331331 20944.0 1982.0 1312.5149632975701 0.5403620433415748 468.0 17.0 334.0 
118.00001475331331 20947.0 1981.0 1315.1417278373774 0.5406981214801541 469.0 18.0 334.0 
120.00001475331331 20944.0 1982.0 1317.709768492376 0.5393640271501103 470.0 18.0 335.0 
122.00001475331331 20952.0 1984.0 1317.7120271033343 0.5435814514932449 468.0 20.0 333.0 
124.00001475331331 20779.0 1981.0 1317.6871823828362 0.5393156336534204 471.0 17.0 336.0 
126.00001475331331 20774.0 1981.0 1315.1010728402068 0.5385921052707873 472.0 16.0 336.0 
128.0000147533133 20776.0 1983.0 1315.1597967250104 0.5410384583876721 471.0 17.0 335.0 
130.00033353340314 20744.0 1981.0 1315.1394692264282 0.5395095509488991 473.0 15.0 337.0 
132.00039174482544 20796.0 1982.0 1317.773009599095 0.5398955904636827 472.0 16.0 337.0 
134.00039174482544 20792.0 1981.0 1317.6691134951973 0.5390587756482089 469.0 17.0 336.0 
136.000084666035 20792.0 1981.0 1320.3342744212282 0.5398799117868339 466.0 18.0 336.0 
138.00039174482544 20776.0 1981.0 1322.9294184076803 0.5394963826783593 468.0 15.0 340.0 
140.00033353340314 20747.0 1981.0 1322.9339356295902 0.5395886184553446 469.0 15.0 340.0 
142.00039174482544 20746.0 1982.0 1325.4816487859985 0.5412377920114986 468.0 16.0 340.0 
144.00039174482544 20740.0 1982.0 1325.4726143421808 0.5401424079968935 462.0 22.0 334.0 
146.000084666035 20743.0 1982.0 1317.6194240542095 0.5422051805274516 465.0 18.0 335.0 
148.00039174482544 20691.0 1980.0 1317.773009599095 0.5408743536850454 466.0 16.0 337.0 
150.00033353340314 20636.0 1981.0 1317.6736307171047 0.539043801046245 468.0 15.0 338.0 
152.00039174482544 20588.0 1980.0 1317.6962168266539 0.537366103220563 468.0 15.0 338.0 
154.00039174482544 20588.0 1981.0 1315.0762281197094 0.5373522798696438 464.0 19.0 333.0 
156.000084666035 20587.0 1981.0 1317.788819875779 0.5383631010002395 467.0 16.0 337.0 
158.00039174482544 20470.0 1981.0 1322.8481084133225 0.5402866328182006 468.0 15.0 340.0 
160.00033353340314 20432.0 1981.0 1322.9113495200415 0.5380125169966977 468.0 15.0 340.0 
162.00039174482544 20443.0 1981.0 1322.8435911914148 0.5389851277603369 467.0 16.0 339.0 
164.00039174482544 20430.0 1980.0 1322.9452286843557 0.5373190601146697 467.0 16.0 339.0 
166.000084666035 20483.0 1981.0 1322.8571428571463 0.5390983138883251 470.0 16.0 339.0 
168.00039174482544 20390.0 1981.0 1322.9768492377189 0.5386795411948881 470.0 16.0 339.0 
170.00033353340314 20396.0 1981.0 1325.37323546019 0.5362057926260875 470.0 16.0 340.0 
172.00039174482544 20296.0 1980.0 1325.459062676458 0.5356279073148221 471.0 15.0 341.0 
174.00039174482544 20292.0 1980.0 1322.832298136648 0.5354800771333275 472.0 15.0 340.0 
176.000084666035 20314.0 1980.0 1320.2552230378344 0.5356392529979579 471.0 15.0 339.0 
178.00039174482544 20370.0 1983.0 1320.2687747035598 0.5376223053514062 472.0 15.0 339.0 
180.00033353340314 20220.0 1983.0 1320.3365330321863 0.5353822098571072 468.0 17.0 337.0 
182.00039174482544 20190.0 1982.0 1320.2100508187484 0.5372555680652553 467.0 18.0 336.0 
184.00039174482544 20175.0 1981.0 1320.4020327498545 0.5346839987706425 467.0 15.0 339.0 
186.000084666035 20173.0 1981.0 1320.2123094296974 0.535158540153775 465.0 18.0 336.0 
188.00039174482544 20160.0 1983.0 1320.2439299830614 0.5366458058944367 467.0 14.0 340.0 
190.00033353340314 20181.0 1983.0 1320.318464144554 0.5367643540286252 465.0 15.0 339.0 
192.00039174482544 20091.0 1981.0 1317.6849237718775 0.5345226685084278 460.0 20.0 333.0 
194.00039174482544 20087.0 1981.0 1317.6081309994365 0.5338591493763647 463.0 16.0 337.0 
196.000084666035 20086.0 1981.0 1315.1033314511567 0.5339921496667475 465.0 15.0 337.0 
198.00039174482544 20064.0 1981.0 1315.0942970073422 0.5329080955351057 466.0 15.0 337.0 
200.00033353340314 20066.0 1982.0 1317.7233201581012 0.533157381904823 463.0 17.0 336.0 
202.00039174482544 20058.0 1982.0 1322.7713156408784 0.5333651694965355 465.0 15.0 340.0 
204.00039174482544 20139.0 1985.0 1320.3771880293652 0.5356483443569634 463.0 17.0 337.0 
206.000084666035 20141.0 1983.0 1320.2348955392463 0.532722606812565 462.0 18.0 336.0 
208.00039174482544 19966.0 1983.0 1320.3500846979086 0.5325504596875658 463.0 17.0 337.0 
210.00033353340314 19936.0 1982.0 1317.698475437603 0.5310921554723455 465.0 17.0 336.0 
212.00039174482544 19934.0 1983.0 1312.4743083003978 0.5336695456836931 467.0 17.0 334.0 
214.00039174482544 19824.0 1983.0 1309.854319593447 0.5328424299136432 468.0 16.0 334.0 
216.000084666035 19811.0 1982.0 1307.3201581027706 0.5327977923133922 464.0 17.0 332.0 
218.00039174482544 19802.0 1983.0 1304.6120835686027 0.5340089444303063 466.0 15.0 333.0 
220.00033353340314 19759.0 1982.0 1307.313382269905 0.5296563662625289 463.0 16.0 333.0 
222.00039174482544 19643.0 1982.0 1307.2569169960518 0.5294949091182816 461.0 17.0 332.0 
224.00039174482544 19590.0 1981.0 1304.7092038396354 0.527817773967541 463.0 16.0 332.0 
226.000084666035 19659.0 1985.0 1304.5556182947496 0.5322993628683266 463.0 17.0 331.0 
228.00039174482544 19568.0 1982.0 1307.3201581027706 0.530702522640335 466.0 12.0 337.0 
230.00033353340314 19502.0 1984.0 1304.600790513836 0.5324424156901257 464.0 13.0 335.0 
232.00039174482544 19436.0 1982.0 1307.385657820439 0.5270930108999583 462.0 13.0 336.0 
234.00039174482544 19437.0 1982.0 1309.9153020892172 0.527228514637026 463.0 11.0 339.0 
236.000084666035 19453.0 1984.0 1312.5330321852093 0.5298289699842117 463.0 12.0 339.0 
238.00039174482544 19462.0 1983.0 1309.946922642572 0.5276885290393003 460.0 14.0 336.0 
240.00033353340314 19354.0 1983.0 1304.7295313382258 0.5281353743212878 461.0 13.0 335.0 
242.00039174482544 19322.0 1982.0 1307.2591756070005 0.5263203162039767 458.0 16.0 333.0 
244.00039174482544 19324.0 1982.0 1309.958215697345 0.5260818339477812 458.0 16.0 334.0 
246.000084666035 19445.0 1985.0 1312.5352907961583 0.5286312774014836 460.0 14.0 337.0 
248.00039174482544 19539.0 1985.0 1307.3156408808545 0.5297988407948011 462.0 13.0 336.0 
250.00033353340314 19566.0 1985.0 1307.2275550536458 0.532975674781315 462.0 13.0 336.0 
252.00039174482544 19500.0 1982.0 1304.770186335405 0.5269852760932744 461.0 13.0 335.0 
254.00039174482544 19554.0 1983.0 1304.6391869000593 0.5282396279742366 459.0 13.0 335.0 
256.00008466603504 19619.0 1985.0 1304.752117447772 0.5303053998367246 461.0 13.0 335.0 
258.00039174482544 19561.0 1983.0 1304.6030491247848 0.5278633198665764 457.0 17.0 331.0 
260.00033353340314 19568.0 1984.0 1304.6685488424653 0.5288610665633693 457.0 17.0 331.0 
262.00039174482544 19541.0 1983.0 1307.23884810841 0.5277973572606853 456.0 17.0 332.0 
264.00039174482544 19571.0 1985.0 1307.3495200451769 0.5293186551006992 456.0 17.0 332.0 
266.00008466603504 19509.0 1987.0 1312.4630152456248 0.5314447047005094 453.0 18.0 333.0 
268.00039174482544 19344.0 1984.0 1317.7255787690597 0.5337341541529773 453.0 18.0 335.0 
270.00033353340314 19228.0 1983.0 1315.0129870129904 0.5295418081872076 451.0 18.0 334.0 
272.00039174482544 19196.0 1982.0 1315.087521174476 0.5268220304622422 451.0 18.0 334.0 
274.00039174482544 19166.0 1982.0 1314.970073404853 0.5263113528233256 451.0 18.0 334.0 
276.00008466603504 19203.0 1983.0 1315.0762281197094 0.5261572920313358 452.0 18.0 334.0 
278.00039174482544 19226.0 1982.0 1322.760022586114 0.5259272133673735 456.0 18.0 337.0 
280.00033353340314 19257.0 1984.0 1322.852625635239 0.5263096075054859 456.0 18.0 337.0 
282.00039174482544 19286.0 1985.0 1322.836815358556 0.5302512768989605 455.0 18.0 337.0 
284.00039174482544 19222.0 1984.0 1322.8661773009617 0.5286280564368238 454.0 18.0 337.0 
286.00008466603504 19183.0 1984.0 1320.1106719367572 0.5281929836351773 454.0 18.0 336.0 
288.00039174482544 19125.0 1984.0 1320.2642574816525 0.5272370994792783 454.0 18.0 336.0 
290.00033353340314 19137.0 1985.0 1322.6945228684372 0.5273942303535717 454.0 18.0 337.0 
292.00039174482544 19174.0 1985.0 1322.8255223037818 0.5289532942926555 454.0 18.0 337.0 
294.00039174482544 19056.0 1984.0 1322.8865047995519 0.5267614480158633 453.0 18.0 337.0 
296.00008466603504 19043.0 1984.0 1325.3732354601902 0.5267358300038234 454.0 18.0 338.0 
298.00039174482544 19032.0 1984.0 1327.927724449466 0.5269794433455108 454.0 18.0 339.0 
300.00033353340314 19061.0 1985.0 1328.0225861095398 0.5302352787142454 454.0 18.0 339.0 
302.00039174482544 18977.0 1985.0 1327.9954827780925 0.5286340545282222 454.0 18.0 339.0 
304.00039174482544 18935.0 1983.0 1328.1264822134378 0.5261241383009586 452.0 18.0 339.0 
306.00008466603504 18975.0 1984.0 1322.7442123094334 0.5291408099552346 453.0 18.0 337.0 
308.00039174482544 18909.0 1986.0 1317.6194240542095 0.5323856567862023 452.0 17.0 336.0 
310.00033353340314 18811.0 1982.0 1317.5335968379416 0.5268187839627058 452.0 17.0 336.0 
312.00039174482544 18814.0 1982.0 1317.6758893280628 0.5260713301865213 451.0 17.0 336.0 
314.00039174482544 18729.0 1981.0 1317.54037267081 0.5250389094251623 451.0 17.0 336.0 
316.00008466603504 18735.0 1982.0 1320.2213438735214 0.5273346341974682 452.0 17.0 337.0 
318.00039174482544 18737.0 1982.0 1322.782608695654 0.5250862508550412 453.0 17.0 338.0 
320.00033353340314 18748.0 1983.0 1322.8345567475972 0.5268811812541222 453.0 17.0 338.0 
322.00039174482544 18747.0 1981.0 1325.3483907396915 0.5249549186116009 452.0 17.0 339.0 
324.00039174482544 18820.0 1984.0 1325.445511010726 0.5276310847632681 454.0 17.0 339.0 
326.00008466603504 18847.0 1983.0 1325.3258046301546 0.5270644511058308 455.0 17.0 339.0 
328.00039174482544 18852.0 1982.0 1322.8413325804659 0.5258379620030357 453.0 17.0 338.0 
330.00033353340314 18849.0 1984.0 1314.9090909090924 0.5311813989935797 452.0 17.0 335.0 
332.00039174482544 18787.0 1982.0 1312.397515527947 0.5258183075506889 452.0 17.0 334.0 
334.00039174482544 18768.0 1981.0 1312.3771880293652 0.5244128584565813 452.0 17.0 334.0 
336.00008466603504 18782.0 1981.0 1307.2343308865022 0.5241951633860464 451.0 17.0 332.0 
338.00039174482544 18833.0 1982.0 1304.4810841332567 0.5253068995788686 449.0 17.0 331.0 
340.00033353340314 18825.0 1981.0 1301.9740259740288 0.5252322518657834 447.0 17.0 330.0 
342.00039174482544 18806.0 1981.0 1299.3427442123111 0.5273338164273228 447.0 17.0 329.0 
344.00039174482544 18720.0 1980.0 1304.6482213438744 0.5246869397708168 451.0 17.0 331.0 
346.00008466603504 18767.0 1982.0 1307.1214003387895 0.529545864133071 451.0 17.0 332.0 
348.00039174482544 18659.0 1979.0 1307.1394692264282 0.5280866363938526 448.0 17.0 332.0 
350.00033353340314 18650.0 1978.0 1304.4201016374964 0.5244270163902208 449.0 17.0 331.0 
352.00039174482544 18648.0 1978.0 1301.9424054206645 0.5243310547462094 448.0 17.0 330.0 
354.00039174482544 18657.0 1978.0 1301.86561264822 0.5244735926455445 448.0 17.0 330.0 
356.00008466603504 18660.0 1979.0 1301.8814229249037 0.527058856086386 446.0 17.0 330.0 
358.00039174482544 18619.0 1977.0 1301.8407679277216 0.5263132048679924 446.0 17.0 330.0 
360.00033353340314 18600.0 1978.0 1301.8927159796767 0.5291581275986229 446.0 17.0 330.0 
362.00039174482544 18585.0 1977.0 1301.7639751552806 0.5271275367368427 448.0 17.0 330.0 
364.00039174482544 18556.0 1976.0 1299.2862789384483 0.5264569760075012 447.0 17.0 329.0 
366.00008466603504 18566.0 1976.0 1286.226990400905 0.5250552906423447 447.0 18.0 323.0 
368.00039174482544 18585.0 1977.0 1275.9006211180094 0.5259704996661727 447.0 18.0 319.0 
370.00033353340314 18554.0 1977.0 1281.0095990965592 0.5285506740726374 447.0 18.0 321.0 
372.00039174482544 18413.0 1976.0 1281.0231507622811 0.5239963511754382 447.0 18.0 321.0 
374.00039174482544 18398.0 1974.0 1281.0276679841884 0.5242754277729244 448.0 18.0 321.0 
376.00008466603504 18408.0 1976.0 1281.0773574251857 0.5232686476525646 448.0 18.0 321.0 
378.00039174482544 18412.0 1975.0 1280.9892715979681 0.522839988493284 448.0 18.0 321.0 
380.00033353340314 18446.0 1976.0 1281.011857707508 0.5226791674941308 448.0 18.0 321.0 
382.00039174482544 18475.0 1977.0 1281.0073404855973 0.5236568346661947 446.0 18.0 321.0 
384.00039174482544 18474.0 1977.0 1286.256352343311 0.5273713833844791 450.0 18.0 323.0 
386.00008466603504 18455.0 1977.0 1291.4263128176212 0.527283056872826 448.0 19.0 324.0 
388.00039174482544 18478.0 1975.0 1283.6431394692224 0.5286022399061776 447.0 19.0 321.0 
390.00033353340314 18403.0 1975.0 1278.4822134387393 0.5250826181762418 447.0 19.0 319.0 
392.00039174482544 18395.0 1974.0 1278.45962732919 0.5257532356793803 446.0 19.0 319.0 
394.00039174482544 18379.0 1973.0 1278.405420666289 0.5249567050672317 445.0 19.0 319.0 
396.00008466603504 18376.0 1975.0 1278.466403162059 0.5243927254873174 446.0 19.0 319.0 
398.00039174482544 18384.0 1975.0 1275.7854319593444 0.526779245958036 447.0 19.0 318.0 
400.00033353340314 18393.0 1977.0 1275.9819311123672 0.5266140406556661 447.0 19.0 318.0 
402.00039174482544 18435.0 1976.0 1278.4121964991548 0.5260201292921165 447.0 19.0 319.0 
404.00039174482544 18483.0 1978.0 1281.1586674195341 0.5292008536223055 448.0 19.0 320.0 
406.00008466603504 18411.0 1976.0 1281.1654432524033 0.5263449304019571 448.0 20.0 319.0 
408.00039174482544 18398.0 1974.0 1275.923207227559 0.5273764800701684 446.0 20.0 317.0 
410.00033353340314 18459.0 1977.0 1278.4844720496883 0.5274273123329075 446.0 20.0 318.0 
412.0005923698108 18438.0 1974.0 1273.3438735177838 0.5238303703045173 446.0 20.0 316.0 
414.0005923698108 18432.0 1974.0 1270.6470920383981 0.523602636879075 445.0 20.0 315.0 
416.00008466603504 18458.0 1974.0 1270.732919254657 0.5240044146953269 448.0 18.0 317.0 
418.0005923698108 18383.0 1974.0 1270.5883681535865 0.5246543687393986 446.0 18.0 317.0 
420.00033353340314 18360.0 1974.0 1268.1197063805726 0.5242077524062632 447.0 18.0 316.0 
422.0005923698108 18334.0 1973.0 1255.026538678716 0.523429733216063 447.0 18.0 311.0 
424.0005923698108 18329.0 1972.0 1252.5556182947494 0.5261161199034755 445.0 18.0 310.0 
426.00008466603504 18332.0 1973.0 1260.2552230378353 0.5262742603941919 440.0 18.0 313.0 
428.0005923698108 18303.0 1971.0 1257.651044607564 0.5241130793120266 441.0 18.0 312.0 
430.00033353340314 18306.0 1972.0 1257.6126482213438 0.5270255832959606 443.0 16.0 314.0 
432.0005923698108 18275.0 1970.0 1255.071710897803 0.5214442671735209 441.0 17.0 312.0 
434.0005923698108 18301.0 1971.0 1252.3658949745925 0.5215987442787745 443.0 16.0 312.0 
436.00008466603504 18307.0 1972.0 1262.8819875776348 0.5235480565178321 447.0 16.0 316.0 
438.0005923698108 18371.0 1973.0 1265.4364765669086 0.5246514369159235 446.0 18.0 315.0 
440.00033353340314 18310.0 1972.0 1265.506493506497 0.5237605289827766 446.0 17.0 316.0 
442.0005923698108 18302.0 1972.0 1268.020327498591 0.5232784807716008 445.0 18.0 316.0 
444.0005923698108 18316.0 1972.0 1265.506493506497 0.5216869900209248 444.0 19.0 314.0 
446.00008466603504 18341.0 1973.0 1265.4342179559596 0.523132963511695 442.0 20.0 313.0 
448.0005923698108 18356.0 1974.0 1268.097120271032 0.5290119031875608 445.0 20.0 314.0 
450.00033353340314 18309.0 1974.0 1273.1654432524033 0.5255671103366164 446.0 20.0 316.0 
452.0005923698108 18329.0 1973.0 1275.8622247317887 0.5218593416363256 446.0 20.0 317.0 
454.0005923698108 18407.0 1974.0 1275.8486730660632 0.5230822672754866 445.0 20.0 317.0 
456.00008466603504 18425.0 1975.0 1275.902879728968 0.5231771992815435 446.0 18.0 319.0 
458.0005923698108 18489.0 1976.0 1275.747035573124 0.5290380922846881 447.0 18.0 319.0 
460.00033353340314 18455.0 1976.0 1275.8712591756039 0.5276015234596536 449.0 17.0 320.0 
462.0005923698108 18435.0 1974.0 1278.4189723320192 0.5283428576899387 448.0 16.0 322.0 
464.0005923698108 18420.0 1973.0 1278.4528514963336 0.5245863005733927 448.0 15.0 323.0 
466.00008466603504 18444.0 1974.0 1275.722190852625 0.5243599941263964 449.0 15.0 322.0 
468.0005923698108 18445.0 1973.0 1275.850931677022 0.5239014667243841 448.0 16.0 321.0 
470.00033353340314 18477.0 1975.0 1281.009599096559 0.5242829504574831 449.0 15.0 324.0 
472.0005923698108 18442.0 1975.0 1278.4392998306018 0.5232388360136733 451.0 16.0 322.0 
474.0005923698108 18475.0 1976.0 1273.124788255221 0.5263424315958971 449.0 15.0 321.0 
476.00008466603504 18425.0 1974.0 1270.606437041219 0.521507836051786 447.0 15.0 320.0 
478.0005923698108 18440.0 1975.0 1270.5364201016343 0.5212271066481408 447.0 16.0 319.0 
480.00033353340314 18465.0 1976.0 1268.0361377752715 0.52244731684448 445.0 16.0 318.0 
482.0005923698108 18458.0 1975.0 1267.891586674191 0.5213858164824039 444.0 16.0 318.0 
484.0005923698108 18464.0 1976.0 1262.8390739695074 0.5217798750843016 443.0 16.0 316.0 
486.00008466603504 18470.0 1978.0 1260.0903444381663 0.52417371162065 442.0 16.0 315.0 
488.0005923698108 18453.0 1976.0 1252.4630152456245 0.5225244285028676 440.0 16.0 312.0 
490.00033353340314 18445.0 1975.0 1249.7797854319617 0.5226673204160721 442.0 16.0 311.0 
492.0005923698108 18438.0 1977.0 1244.6866177300947 0.5223672174264797 440.0 17.0 308.0 
494.0005923698108 18358.0 1976.0 1247.1846414455076 0.5204622691132116 433.0 18.0 308.0 
496.00008466603504 18412.0 1979.0 1244.722755505367 0.5215802614897774 432.0 18.0 307.0 
498.0005923698108 18454.0 1977.0 1244.596273291929 0.5247134521585181 432.0 18.0 307.0 
500.00033353340314 18430.0 1976.0 1244.6233766233756 0.5212461631842165 431.0 18.0 307.0 
502.0005923698108 18446.0 1976.0 1239.4014680971227 0.5199827692327832 436.0 17.0 306.0 
504.0005923698108 18460.0 1978.0 1236.8808582721592 0.5238824534143689 435.0 18.0 304.0 
506.00008466603504 18409.0 1976.0 1236.765669113498 0.5217189397495292 434.0 16.0 306.0 
508.0005923698108 18370.0 1977.0 1234.3354037267106 0.5217536755198511 433.0 18.0 303.0 
510.00033353340314 18338.0 1977.0 1231.6476566911326 0.5226475933397561 434.0 16.0 304.0 
512.0005923698109 18282.0 1975.0 1234.353472614343 0.5217982215938454 433.0 16.0 305.0 
514.0005923698109 18290.0 1978.0 1236.8289102202168 0.5252814837875006 434.0 16.0 306.0 
516.000084666035 18268.0 1976.0 1236.910220214565 0.5208664931124346 433.0 16.0 306.0 
518.0005923698109 18344.0 1979.0 1226.5047995482796 0.522958343493141 428.0 15.0 303.0 
520.0003335334031 18341.0 1980.0 1224.0767927724407 0.5226798055135824 425.0 17.0 300.0 
522.0005923698109 18364.0 1980.0 1223.8351214003414 0.5211405170128355 429.0 14.0 303.0 
524.0005923698109 18363.0 1979.0 1213.6036137775293 0.5200400691936768 422.0 17.0 296.0 
526.000084666035 18415.0 1981.0 1210.9565217391275 0.5210861423952655 424.0 15.0 297.0 
528.0005923698109 18455.0 1982.0 1216.2439299830617 0.5220066478009243 424.0 17.0 297.0 
530.0003335334031 18464.0 1983.0 1218.6583850931636 0.5235187644678805 424.0 15.0 300.0 
532.0005923698109 18443.0 1981.0 1221.4116318464123 0.5199945658543722 429.0 17.0 299.0 
534.0005923698109 18446.0 1981.0 1229.1677018633507 0.5197293945278701 431.0 15.0 304.0 
536.000084666035 18449.0 1981.0 1226.6425748164922 0.519748277206732 431.0 17.0 301.0 
538.0005923698109 18470.0 1982.0 1226.565782044039 0.5193625001275032 432.0 15.0 303.0 
540.0003335334031 18485.0 1983.0 1226.5770750988133 0.5211657688988047 431.0 17.0 301.0 
542.000020573572 18513.0 1985.0 1226.493506493503 0.5230272552608711 433.0 15.0 303.0 
544.000020573572 18426.0 1982.0 1229.221908526253 0.5207834596364871 435.0 17.0 302.0 
546.000020573572 18487.0 1984.0 1234.245059288534 0.5241708627681381 435.0 16.0 305.0 
548.000020573572 18506.0 1982.0 1234.3692828910248 0.5211367450120182 436.0 18.0 303.0 
550.000020573572 18498.0 1981.0 1229.1134952004463 0.5209648737084767 435.0 16.0 303.0 
552.000020573572 18512.0 1982.0 1234.4009034443782 0.5218155885676342 441.0 18.0 303.0 
554.000020573572 18490.0 1981.0 1236.846979107846 0.5199011822171586 444.0 16.0 306.0 
556.000020573572 18528.0 1983.0 1236.892151326936 0.5220693949313947 446.0 18.0 304.0 
558.000020573572 18501.0 1986.0 1234.2902315076242 0.5257070810704246 446.0 16.0 305.0 
560.000020573572 18410.0 1984.0 1231.654432523999 0.5250921799744895 445.0 18.0 302.0 
562.000020573572 18450.0 1982.0 1234.1524562394093 0.5204087984080672 447.0 16.0 305.0 
564.0005047809744 18500.0 1986.0 1236.8356860530714 0.5257459262538455 447.0 18.0 304.0 
566.000084666035 18443.0 1985.0 1239.3946922642533 0.5263369363362557 449.0 15.0 308.0 
568.0005047809744 18401.0 1982.0 1242.0259740259712 0.5192714477519816 449.0 16.0 308.0 
570.0003335334031 18403.0 1982.0 1244.546583850935 0.5196021517933646 453.0 16.0 309.0 
572.0005047809744 18428.0 1984.0 1244.6324110671903 0.5218249078928238 451.0 17.0 308.0 
574.0005047809744 18464.0 1985.0 1247.279503105592 0.5221378981917157 450.0 16.0 310.0 
576.000084666035 18327.0 1982.0 1255.1010728402073 0.5198557938416821 452.0 17.0 312.0 
578.0005923698109 18374.0 1984.0 1254.9768492377189 0.5204769854801293 452.0 16.0 313.0 
580.0003335334031 18379.0 1984.0 1257.6894409937847 0.5244571683930483 453.0 17.0 313.0 
582.0005923698109 18335.0 1984.0 1255.105590062116 0.5236743391744215 450.0 16.0 313.0 
584.0005487042315 18329.0 1982.0 1252.4765669113465 0.5254728251390413 453.0 17.0 311.0 
586.000084666035 18332.0 1982.0 1255.0333145115712 0.5218436245446695 449.0 16.0 313.0 
588.0005487042315 18359.0 1981.0 1257.6668548842486 0.5230582945847565 450.0 17.0 313.0 
590.0003335334031 18330.0 1981.0 1262.7826086956543 0.5241143521276739 456.0 16.0 316.0 
592.0005923698109 18317.0 1981.0 1265.5223037831777 0.5228285403301794 457.0 17.0 316.0 
594.0005487042315 18229.0 1980.0 1260.1852060982499 0.5208709865856863 460.0 16.0 315.0 
596.000084666035 18214.0 1981.0 1260.2168266516142 0.5208052380920075 460.0 17.0 314.0 
598.0005487042315 18325.0 1982.0 1252.4765669113465 0.5214431331361766 459.0 16.0 312.0 
600.0003335334031 18393.0 1984.0 1260.2529644268761 0.5253319681379192 463.0 17.0 314.0 
602.0005487042315 18396.0 1984.0 1257.6645962732894 0.525453134686302 465.0 16.0 314.0 
604.0005487042315 18213.0 1984.0 1255.0468661773039 0.5224652368180841 467.0 17.0 312.0 
606.000084666035 18235.0 1981.0 1255.0423489553966 0.520572911042697 464.0 16.0 313.0 
608.0005487042315 18221.0 1980.0 1260.271033314509 0.5208698170430283 463.0 18.0 313.0 
610.0003335334031 18244.0 1982.0 1268.0835686053103 0.5249024704830411 464.0 17.0 317.0 
612.0005487042315 18263.0 1980.0 1270.7035573122514 0.520779116855687 464.0 18.0 317.0 
614.0005487042315 18223.0 1980.0 1270.7103331451171 0.5184690592444936 464.0 17.0 318.0 
616.000084666035 18309.0 1983.0 1268.1151891586649 0.5224522691319848 466.0 17.0 317.0 
618.0005487042315 18266.0 1981.0 1262.8187464709163 0.5211824106212931 464.0 17.0 315.0 
620.0003335334031 18274.0 1985.0 1268.1355166572528 0.5227673581174431 465.0 16.0 318.0 
622.0005487042315 18214.0 1983.0 1265.5652173913056 0.5137633760725667 462.0 15.0 318.0 
624.0005487042315 18122.0 1983.0 1270.8774703557283 0.5035286412794027 457.0 18.0 317.0 
626.000084666035 18093.0 1984.0 1283.719932241667 0.5040533546207807 455.0 17.0 323.0 
628.0005487042315 18111.0 1984.0 1283.747035573124 0.5048145815143926 462.0 16.0 324.0 
630.0003335334031 18141.0 1985.0 1283.7425183512164 0.5050772537228483 464.0 14.0 326.0 
632.0005487042315 18090.0 1983.0 1289.00282326369 0.502967220418468 462.0 15.0 327.0 
634.0005923698109 18024.0 1983.0 1291.5302089215097 0.5072664812995696 462.0 14.0 329.0 
636.000084666035 17936.0 1981.0 1291.534726143427 0.5023224642585209 464.0 15.0 328.0 
638.0002517740544 18046.0 1982.0 1291.4782608695637 0.5041186044962417 465.0 14.0 329.0 
640.0002517740544 17899.0 1981.0 1291.5415019762827 0.5063747672755625 465.0 15.0 328.0 
642.0005923698109 17819.0 1981.0 1291.4940711462477 0.5032032402375927 467.0 14.0 329.0 
644.0005923698109 17793.0 1981.0 1286.348955392436 0.5043964918983382 466.0 15.0 326.0 
646.000084666035 17699.0 1981.0 1286.4212309429693 0.5044612148697998 461.0 14.0 327.0 
648.0005487042315 17661.0 1979.0 1291.6386222473152 0.5028179220002239 460.0 15.0 328.0 
650.0003335334031 17691.0 1982.0 1294.1253529079652 0.5038007324767841 457.0 14.0 330.0 
652.0005923698109 17644.0 1980.0 1291.6273291925422 0.5047439016815567 456.0 15.0 328.0 
654.0005923698109 17636.0 1981.0 1291.6002258610945 0.504001381523645 458.0 14.0 329.0 
656.000084666035 17674.0 1983.0 1291.6228119706338 0.5079055270302059 458.0 15.0 328.0 
658.0005923698109 17647.0 1981.0 1299.3992094861637 0.5063794059934434 456.0 14.0 332.0 
660.0003335334031 17623.0 1979.0 1304.6188594014686 0.5056949585243204 457.0 15.0 333.0 
662.0005923698109 17603.0 1978.0 1304.596273291929 0.5031108485726761 457.0 14.0 334.0 
664.0005923698109 17587.0 1978.0 1302.0846979107828 0.5030321426304659 459.0 15.0 332.0 
#####################################################################
# End of data export. Simulation finished at: 2019-03-09T10:12+0000 #
#####################################################################
