#####################################################################
# Alchemist log file - simulation started at: 2019-03-11T03:14+0000 #
#####################################################################
# seed = 4.0, bandwidth = 316227.76601683797, accessPointCount = 19.39227447486858, baserange = 316.2277660168379
#
# The columns have the following meaning: 
# time neighbor_count[Sum] <value>@neighbor_count[Sum] packet_size[Mean] mean_delay[Mean] crowd[Sum] overcrowded[Sum] risk[Sum] 
0.0 NaN NaN NaN NaN NaN NaN NaN 
2.000158954363444 762.0 119.0 4987.936675461741 0.4428095217483282 1497.0 0.0 1497.0 
4.000158954363444 1539.0 144.0 4988.461741424802 0.4782063071898847 1497.0 0.0 1497.0 
6.000158954363444 2130.0 144.0 4988.815303430079 0.494626087646645 1497.0 0.0 1497.0 
8.000158954363444 2538.0 143.0 4988.828496042216 0.49062760661510957 1497.0 0.0 1497.0 
10.000158954363444 2777.0 143.0 4988.852242744063 0.4932443060858272 1497.0 0.0 1497.0 
12.000158954363444 2818.0 143.0 4988.883905013193 0.4945796504331996 1497.0 0.0 1497.0 
14.000158954363444 2818.0 143.0 4988.8891820580475 0.49459638886325863 1497.0 0.0 1497.0 
16.000158954363446 2818.0 143.0 4988.936675461741 0.49457394236283586 1497.0 0.0 1497.0 
18.000158954363446 2818.0 143.0 4988.873350923483 0.4946397806380632 1497.0 0.0 1497.0 
20.000158954363446 2818.0 143.0 4988.87598944591 0.4945895112175234 1497.0 0.0 1497.0 
22.000158954363446 2818.0 143.0 4988.873350923483 0.49457328479140633 1497.0 0.0 1497.0 
24.000158954363446 2818.0 143.0 4988.9472295514515 0.4946169617773621 1497.0 0.0 1497.0 
26.000158954363446 2818.0 143.0 4988.891820580475 0.49459258513176096 1497.0 0.0 1497.0 
28.000158954363446 2818.0 143.0 4988.8970976253295 0.49457072100740385 1496.0 1.0 1496.0 
30.000158954363446 2818.0 143.0 4988.878627968338 0.4945926147448246 1497.0 0.0 1497.0 
32.00015895436344 2818.0 143.0 4988.8891820580475 0.4945764254653984 1496.0 1.0 1496.0 
34.00015895436345 2819.0 143.0 4988.905013192612 0.494462142235945 1496.0 1.0 1496.0 
36.00015895436345 2820.0 143.0 4988.965699208443 0.49457883857320634 1497.0 0.0 1497.0 
38.00015895436345 2820.0 143.0 4988.860158311346 0.49457254163737197 1496.0 1.0 1496.0 
40.00015895436345 2820.0 143.0 4988.910290237467 0.4945519020057091 1496.0 1.0 1496.0 
42.00015895436345 2820.0 143.0 4988.857519788919 0.49458279687116247 1497.0 0.0 1497.0 
44.00015895436345 2822.0 143.0 4988.915567282322 0.4945617824486326 1496.0 1.0 1496.0 
46.00015895436345 2822.0 143.0 4988.915567282322 0.4945300495358626 1495.0 2.0 1495.0 
48.00015895436345 2822.0 143.0 4988.941952506596 0.4945929003313775 1497.0 0.0 1497.0 
50.00015895436345 2822.0 143.0 4988.833773087072 0.4945774958556568 1496.0 1.0 1496.0 
52.00015895436345 2822.0 143.0 4988.912928759894 0.49451868687477707 1495.0 2.0 1495.0 
54.00015895436345 2823.0 143.0 4988.902374670185 0.502816622131156 1497.0 0.0 1497.0 
56.00015895436345 2778.0 143.0 4988.923482849605 0.5107281565558145 1497.0 0.0 1497.0 
58.00015895436345 2770.0 142.0 4988.891820580475 0.49306814841265656 1496.0 1.0 1496.0 
60.00015895436345 2770.0 142.0 4988.944591029024 0.4934363561337383 1496.0 1.0 1496.0 
62.00047933655907 2769.0 142.0 573.2401055408975 0.4954249999322741 115.0 0.0 57.0 
64.00042902272939 2770.0 142.0 573.179419525066 0.5003328646029558 98.0 1.0 56.0 
66.00047933655907 2781.0 142.0 573.1160949868075 0.4965493961245523 90.0 0.0 57.0 
68.00047933655907 2794.0 143.0 573.1899736147761 0.49993565297138765 82.0 1.0 56.0 
70.00047933655907 2794.0 143.0 573.1372031662264 0.5055299582863148 82.0 0.0 57.0 
72.00047933655907 2762.0 143.0 573.2242744063319 0.5163017308846453 82.0 0.0 57.0 
74.00042902272939 2740.0 142.0 573.1952506596305 0.4984140752624798 81.0 1.0 56.0 
76.00047933655907 2740.0 142.0 573.1688654353559 0.504861200575352 82.0 0.0 57.0 
78.00047933655907 2729.0 142.0 573.1609498680741 0.5181442489026531 82.0 0.0 57.0 
80.00047933655907 2716.0 141.0 576.2295514511876 0.498387185736792 82.0 0.0 58.0 
82.00047933655907 2716.0 141.0 576.2137203166225 0.4987232807915643 83.0 0.0 58.0 
84.00042902272939 2716.0 141.0 576.2005277044861 0.49841894439260137 82.0 0.0 58.0 
86.00047933655907 2716.0 141.0 576.2189973614782 0.49840491142134047 82.0 0.0 58.0 
88.00047933655907 2716.0 141.0 576.1477572559364 0.498436467952432 82.0 0.0 58.0 
90.00047933655907 2716.0 141.0 576.1952506596305 0.49926023824188426 80.0 0.0 58.0 
92.00047933655907 2714.0 141.0 576.2084432717681 0.498812562054335 80.0 0.0 58.0 
94.00042902272939 2714.0 141.0 576.1926121372036 0.49855497385172015 80.0 0.0 58.0 
96.00047933655907 2714.0 141.0 576.1952506596305 0.5001374729038277 80.0 0.0 58.0 
98.00047933655907 2712.0 141.0 576.2163588390499 0.49871616139343405 80.0 0.0 58.0 
100.00047933655907 2764.0 142.0 579.2532981530339 0.5051104183927362 81.0 0.0 59.0 
102.00047933655907 2762.0 142.0 579.2321899736146 0.5011253798215256 81.0 0.0 59.0 
104.00042902272939 2762.0 142.0 579.2295514511876 0.5009127678867705 81.0 0.0 59.0 
106.00047933655907 2762.0 142.0 579.2269129287602 0.5009228069892632 81.0 0.0 59.0 
108.00047933655907 2826.0 143.0 579.2269129287602 0.5020448724381318 81.0 0.0 59.0 
110.00047933655907 2826.0 143.0 582.3034300791561 0.5036614177495973 80.0 1.0 59.0 
112.00047933655907 2822.0 143.0 582.2849604221641 0.5010145369359534 80.0 1.0 59.0 
114.00042902272939 2822.0 143.0 579.2506596306064 0.5003948599560059 80.0 1.0 58.0 
116.00047933655907 2822.0 143.0 576.2216358839044 0.5001713591374063 75.0 3.0 55.0 
118.00047933655907 2825.0 143.0 579.2506596306064 0.502112095709459 78.0 1.0 58.0 
120.00047933655907 2828.0 143.0 585.282321899736 0.5144846557368988 78.0 2.0 59.0 
122.00047933655907 2778.0 142.0 585.2981530343002 0.49943523867268785 77.0 3.0 58.0 
124.00042902272939 2776.0 142.0 585.2744063324539 0.498626227453538 78.0 2.0 59.0 
126.00047933655907 2776.0 142.0 585.358839050132 0.521482175127735 76.0 4.0 57.0 
128.00047933655907 2724.0 141.0 585.3535620052776 0.4998043093573442 76.0 4.0 57.0 
130.00047933655907 2720.0 141.0 585.3007915567279 0.4979154768767993 76.0 4.0 57.0 
132.00047933655907 2720.0 141.0 582.2796833773083 0.4982086403066236 76.0 3.0 57.0 
134.0004290227294 2720.0 141.0 582.2612137203163 0.4979360769617596 76.0 3.0 57.0 
136.00047933655907 2720.0 141.0 582.274406332454 0.49793719552816723 76.0 3.0 57.0 
138.00047933655907 2720.0 141.0 582.2717678100261 0.4982381781045584 76.0 3.0 57.0 
140.00047933655907 2720.0 141.0 582.2506596306064 0.5004387062519146 76.0 3.0 57.0 
142.00047933655907 2710.0 141.0 582.2506596306064 0.49774540358583325 75.0 3.0 57.0 
144.0004290227294 2710.0 141.0 582.2031662269122 0.4978177773749237 75.0 3.0 57.0 
146.00047933655907 2710.0 141.0 582.2453825857519 0.4977966695212125 75.0 3.0 57.0 
148.00047933655907 2710.0 141.0 582.2480211081797 0.5088956842934383 75.0 3.0 57.0 
150.00047933655907 2660.0 140.0 582.2849604221641 0.5078695703440915 75.0 3.0 57.0 
152.00047933655907 2624.0 140.0 582.2453825857519 0.500284901100808 75.0 3.0 57.0 
154.0004290227294 2620.0 139.0 582.2295514511878 0.4972979028633267 75.0 3.0 57.0 
156.00047933655907 2620.0 139.0 582.2664907651722 0.4972873105794052 75.0 3.0 57.0 
158.00047933655907 2620.0 139.0 582.2480211081797 0.497601958068852 75.0 3.0 57.0 
160.00047933655907 2620.0 139.0 582.2295514511878 0.49729461274926 75.0 3.0 57.0 
162.00047933655907 2620.0 139.0 582.2427440633243 0.5148745448594109 75.0 3.0 57.0 
164.0004290227294 2576.0 138.0 582.197889182058 0.49769805311099347 75.0 3.0 57.0 
166.00047933655907 2576.0 138.0 582.2374670184699 0.4976795572045675 75.0 3.0 57.0 
168.00047933655907 2576.0 138.0 582.2269129287602 0.498402538135523 75.0 3.0 57.0 
170.00047933655907 2575.0 138.0 582.2664907651722 0.4981064956874163 75.0 3.0 57.0 
172.00047933655907 2574.0 138.0 582.234828496042 0.49770569555870126 75.0 3.0 57.0 
174.0004290227294 2574.0 138.0 582.234828496042 0.49742090993047355 74.0 4.0 56.0 
176.00047933655907 2574.0 138.0 582.2506596306064 0.4974241678995912 76.0 2.0 58.0 
178.00047933655907 2574.0 138.0 582.2216358839042 0.497761448898817 77.0 1.0 59.0 
180.00047933655907 2613.0 138.0 582.2216358839042 0.4986984802376381 78.0 0.0 60.0 
182.00047933655907 2622.0 139.0 582.2427440633243 0.49910398035152936 78.0 0.0 60.0 
184.0004290227294 2622.0 139.0 579.1583113456461 0.499170659628111 77.0 0.0 59.0 
186.00047933655907 2662.0 140.0 579.2506596306064 0.49837837787037903 77.0 1.0 58.0 
188.00047933655907 2700.0 141.0 576.2031662269122 0.5006772266557474 76.0 2.0 56.0 
190.00047933655907 2702.0 141.0 576.2137203166225 0.51221996421739 75.0 3.0 55.0 
192.00047933655907 2655.0 141.0 576.2242744063319 0.4989062763463857 74.0 4.0 54.0 
194.0004290227294 2659.0 141.0 576.1451187335095 0.4979400394168705 75.0 3.0 55.0 
196.00047933655907 2662.0 141.0 576.200527704486 0.4992890329258448 74.0 4.0 54.0 
198.00047933655907 2664.0 141.0 573.1556728232198 0.4985895927356127 76.0 2.0 55.0 
200.00047933655907 2664.0 141.0 573.1372031662264 0.4982844930215653 75.0 3.0 54.0 
202.00047933655907 2664.0 141.0 573.1556728232198 0.4989729875002954 76.0 2.0 55.0 
204.0004290227294 2662.0 141.0 573.131926121372 0.498047491264597 75.0 3.0 54.0 
206.00047933655907 2662.0 141.0 573.1451187335094 0.498038832676318 75.0 3.0 54.0 
208.00047933655907 2662.0 141.0 570.1372031662264 0.4982992920358585 72.0 5.0 51.0 
210.00047933655907 2662.0 141.0 570.1503957783639 0.49802805753713947 72.0 5.0 51.0 
212.00047933655907 2662.0 141.0 570.1477572559363 0.4982706405038051 72.0 5.0 51.0 
214.0004290227294 2662.0 141.0 570.110817941952 0.4980395777965813 72.0 5.0 51.0 
216.00047933655907 2662.0 141.0 570.1635883905016 0.4979841722650482 72.0 5.0 51.0 
218.00047933655907 2666.0 141.0 570.12401055409 0.4985242343853188 71.0 5.0 51.0 
220.00047933655907 2666.0 141.0 570.1266490765175 0.4981808671078639 71.0 5.0 51.0 
222.00047933655907 2666.0 141.0 570.131926121372 0.5205057238721156 71.0 5.0 51.0 
224.0004290227294 2618.0 140.0 567.0817941952505 0.5014036990040873 70.0 5.0 50.0 
226.00047933655907 2618.0 140.0 567.0527704485486 0.5014361927497765 72.0 4.0 51.0 
228.00047933655907 2622.0 140.0 567.0844327176779 0.5017890062069 77.0 0.0 55.0 
230.00047933655907 2622.0 140.0 567.0554089709759 0.5015449899093125 77.0 0.0 55.0 
232.00047933655907 2622.0 140.0 567.073878627968 0.5038005937640194 77.0 0.0 55.0 
234.0004290227294 2618.0 140.0 567.039577836412 0.5022678481860868 77.0 0.0 55.0 
236.00047933655907 2621.0 140.0 567.0923482849599 0.49801657239725106 77.0 0.0 55.0 
238.00047933655907 2650.0 142.0 567.0527704485486 0.5014275009014691 77.0 0.0 55.0 
240.00047933655907 2654.0 142.0 567.0448548812659 0.5010760939010325 77.0 0.0 55.0 
242.00047933655907 2670.0 142.0 567.0712401055406 0.5193500459884471 78.0 0.0 55.0 
244.0004290227294 2656.0 142.0 570.0633245382586 0.5071285745497538 78.0 0.0 56.0 
246.00047933655907 2648.0 142.0 570.0817941952505 0.5048475710794221 78.0 0.0 56.0 
248.00047933655907 2658.0 142.0 570.0844327176779 0.5040887740291539 78.0 0.0 56.0 
250.00047933655907 2658.0 142.0 570.110817941952 0.5038180049414046 78.0 0.0 56.0 
252.00047933655907 2658.0 142.0 567.0686015831135 0.5040995162623553 77.0 0.0 55.0 
254.0004290227294 2658.0 142.0 563.973614775726 0.5120489342836033 77.0 0.0 54.0 
256.00047933655907 2616.0 141.0 564.065963060686 0.5333270451661504 77.0 0.0 54.0 
258.00047933655907 2568.0 141.0 563.9947229551453 0.5055754312584432 77.0 0.0 54.0 
260.00047933655907 2566.0 140.0 564.029023746702 0.5038990409043015 76.0 0.0 54.0 
262.00047933655907 2566.0 140.0 563.9683377308705 0.5036305754314089 76.0 0.0 54.0 
264.0004290227294 2566.0 140.0 563.9973614775726 0.5038954860021134 76.0 0.0 54.0 
266.00047933655907 2568.0 140.0 563.9630606860161 0.5040642020434632 75.0 0.0 54.0 
268.00047933655907 2568.0 140.0 564.0237467018467 0.5079289318214484 75.0 0.0 54.0 
270.00047933655907 2562.0 140.0 563.9973614775726 0.5037760442257877 75.0 0.0 54.0 
272.00047933655907 2564.0 140.0 563.9762532981533 0.5040348062519174 75.0 0.0 54.0 
274.0004290227294 2590.0 141.0 563.9577836411606 0.5021978368004977 75.0 0.0 54.0 
276.00047933655907 2590.0 141.0 564.047493403694 0.5049636616463716 75.0 0.0 54.0 
278.00047933655907 2582.0 141.0 563.9894459102899 0.5296797771715083 75.0 0.0 54.0 
280.00047933655907 2548.0 140.0 564.0131926121373 0.5032812156086295 76.0 0.0 54.0 
282.00047933655907 2548.0 140.0 560.934036939314 0.5029699790898139 75.0 0.0 53.0 
284.0004290227294 2600.0 141.0 558.0158311345645 0.5009358454202565 75.0 0.0 52.0 
286.00047933655907 2600.0 141.0 557.8997361477574 0.5012005254106755 75.0 0.0 52.0 
288.00047933655907 2600.0 141.0 557.9551451187341 0.5011992883011722 75.0 0.0 52.0 
290.00047933655907 2600.0 141.0 554.846965699208 0.503234288387527 74.0 0.0 51.0 
292.00047933655907 2598.0 141.0 554.926121372032 0.5012809649677505 74.0 0.0 51.0 
294.0004290227294 2602.0 141.0 554.868073878628 0.501645425042281 74.0 0.0 51.0 
296.00047933655907 2605.0 141.0 554.9419525065961 0.5000066708116901 74.0 0.0 51.0 
298.00047933655907 2608.0 142.0 554.8390501319259 0.5015593898902926 74.0 0.0 51.0 
300.00047933655907 2608.0 142.0 554.9393139841685 0.5021723733755745 74.0 0.0 51.0 
302.00047933655907 2645.0 142.0 557.9155672823221 0.5047560466757579 74.0 0.0 52.0 
304.0004290227294 2656.0 143.0 557.9393139841685 0.5008696744138033 74.0 0.0 52.0 
306.00047933655907 2660.0 144.0 557.889182058048 0.5214268085756957 74.0 0.0 52.0 
308.00047933655907 2612.0 143.0 557.9577836411604 0.5016262790264839 74.0 0.0 52.0 
310.00047933655907 2612.0 143.0 557.9445910290241 0.5018751389190488 74.0 0.0 52.0 
312.00047933655907 2613.0 143.0 558.0158311345643 0.5029098307942118 74.0 0.0 52.0 
314.0004290227294 2619.0 143.0 558.0052770448546 0.5028839710348995 74.0 0.0 52.0 
316.00047933655907 2617.0 143.0 557.9313984168864 0.5286346832490056 74.0 0.0 52.0 
318.00047933655907 2574.0 142.0 557.9155672823221 0.5172406067378884 74.0 0.0 52.0 
320.00047933655907 2540.0 142.0 557.973614775726 0.5185653226170929 73.0 0.0 52.0 
322.00047933655907 2548.0 143.0 557.868073878628 0.5026161473729072 74.0 0.0 52.0 
324.0004290227294 2554.0 143.0 557.9393139841685 0.504540068992185 74.0 0.0 52.0 
326.00047933655907 2552.0 143.0 557.8997361477575 0.5063814906677396 74.0 0.0 52.0 
328.00047933655907 2549.0 143.0 557.952506596306 0.5101059737496855 73.0 0.0 52.0 
330.00047933655907 2546.0 143.0 557.926121372032 0.5034150638679672 74.0 0.0 52.0 
332.00047933655907 2546.0 143.0 557.970976253298 0.5030765264387757 73.0 0.0 52.0 
334.0004290227294 2546.0 143.0 557.9208443271765 0.5033987863359054 74.0 0.0 52.0 
336.00047933655907 2546.0 143.0 557.9472295514515 0.5062772720607247 74.0 0.0 52.0 
338.00047933655907 2544.0 143.0 557.9234828496038 0.5122984129582235 74.0 0.0 52.0 
340.00047933655907 2559.0 144.0 557.9182058047496 0.4987230404465491 74.0 0.0 52.0 
342.00047933655907 2580.0 146.0 560.9762532981536 0.5022816180199795 75.0 0.0 53.0 
344.0004290227294 2578.0 146.0 560.9445910290241 0.5227059509700586 77.0 0.0 53.0 
346.00047933655907 2538.0 145.0 560.952506596306 0.5095147623802192 76.0 0.0 53.0 
348.00047933655907 2535.0 145.0 560.9894459102899 0.517354155773492 76.0 0.0 53.0 
350.00047933655907 2518.0 144.0 560.9868073878624 0.502793479549832 76.0 0.0 53.0 
352.00047933655907 2525.0 144.0 560.9762532981536 0.5030111175733749 77.0 0.0 53.0 
354.0004290227294 2558.0 146.0 560.9102902374677 0.5038197686472417 77.0 0.0 53.0 
356.00047933655907 2578.0 147.0 576.1583113456466 0.509168292625301 81.0 0.0 58.0 
358.00047933655907 2574.0 147.0 576.052770448548 0.5032082348950273 78.0 0.0 58.0 
360.00047933655907 2570.0 147.0 576.1398416886545 0.523564811958788 80.0 0.0 58.0 
362.00047933655907 2521.0 146.0 576.1002638522427 0.5121296949855015 81.0 0.0 58.0 
364.0004290227294 2516.0 146.0 576.1609498680734 0.507282781089264 81.0 0.0 58.0 
366.00047933655907 2515.0 146.0 573.1055408970976 0.5086144285771212 79.0 0.0 57.0 
368.00047933655907 2510.0 146.0 573.1609498680737 0.5113804731772993 79.0 0.0 57.0 
370.00047933655907 2486.0 146.0 573.1081794195255 0.5240282137748324 79.0 0.0 57.0 
372.00047933655907 2439.0 145.0 573.1345646438001 0.5158689869689765 80.0 0.0 57.0 
374.0004290227294 2428.0 145.0 573.1002638522425 0.5050023049263996 80.0 0.0 57.0 
376.00047933655907 2483.0 147.0 573.0949868073881 0.5063567666223885 80.0 0.0 57.0 
378.00047933655907 2480.0 147.0 573.1055408970976 0.5161337290881327 80.0 0.0 57.0 
380.00047933655907 2454.0 146.0 570.0474934036938 0.5280190115398866 79.0 0.0 56.0 
382.00047933655907 2395.0 145.0 570.0712401055401 0.5832615799049075 78.0 1.0 55.0 
384.0004290227294 2313.0 142.0 570.097625329816 0.5068259957959772 75.0 3.0 53.0 
386.00047933655907 2350.0 144.0 570.0422163588399 0.5022627143759864 78.0 1.0 55.0 
388.00047933655907 2348.0 144.0 569.9920844327178 0.5003425073457303 79.0 0.0 56.0 
390.00047933655907 2352.0 144.0 573.0659630606864 0.5070686108980379 79.0 0.0 57.0 
392.00047933655907 2346.0 144.0 573.1187335092345 0.5382269632588116 79.0 0.0 57.0 
394.0004290227294 2326.0 142.0 572.997361477572 0.5053044409792455 80.0 0.0 57.0 
396.00047933655907 2326.0 142.0 576.1266490765173 0.5089972803087044 81.0 0.0 58.0 
398.00047933655907 2324.0 141.0 576.0765171503962 0.50288328192523 81.0 0.0 58.0 
400.00047933655907 2324.0 141.0 576.1029023746705 0.5256841947675293 81.0 0.0 58.0 
402.00047933655907 2292.0 140.0 576.1345646438001 0.5143544881145092 80.0 0.0 58.0 
404.0004290227294 2276.0 139.0 573.0791556728238 0.5051862758202583 79.0 0.0 57.0 
406.00047933655907 2278.0 139.0 573.039577836412 0.5073185489556236 79.0 0.0 57.0 
408.00047933655907 2291.0 139.0 573.1002638522426 0.5053757941332022 80.0 0.0 57.0 
410.00047933655907 2302.0 140.0 573.0158311345641 0.5077198692736523 80.0 0.0 57.0 
412.00047933655907 2300.0 140.0 573.0237467018464 0.5105481776298373 80.0 0.0 57.0 
414.0004290227294 2292.0 140.0 576.0949868073881 0.5061272988376649 80.0 0.0 58.0 
416.00047933655907 2294.0 140.0 576.0738786279679 0.5126989214576898 81.0 0.0 58.0 
418.00047933655907 2310.0 142.0 576.0211081794203 0.5058079054213986 81.0 0.0 58.0 
420.00047933655907 2319.0 142.0 573.0817941952504 0.5042337012823095 81.0 0.0 57.0 
422.00047933655907 2326.0 143.0 570.0 0.5089128196314942 80.0 0.0 56.0 
424.0004290227294 2321.0 143.0 570.0369393139839 0.512768795597694 80.0 0.0 56.0 
426.00047933655907 2318.0 143.0 570.0079155672822 0.518329982067108 80.0 0.0 56.0 
428.00047933655907 2312.0 142.0 570.0474934036938 0.5055412448463733 80.0 0.0 56.0 
430.00047933655907 2314.0 142.0 566.868073878628 0.5076573802344191 79.0 0.0 55.0 
432.00047933655907 2312.0 142.0 563.9393139841684 0.5235408321126921 78.0 0.0 54.0 
434.0004290227294 2285.0 141.0 563.8891820580482 0.520132954463787 78.0 0.0 54.0 
436.00047933655907 2276.0 141.0 563.9894459102899 0.5305341169737793 79.0 0.0 54.0 
438.00047933655907 2265.0 140.0 563.9366754617414 0.5277399478671144 79.0 0.0 54.0 
440.00047933655907 2272.0 139.0 563.9947229551454 0.5062974811938784 80.0 0.0 54.0 
442.00047933655907 2319.0 141.0 560.9313984168864 0.5087109560489237 78.0 0.0 53.0 
444.0004290227294 2315.0 141.0 560.9894459102901 0.5147752683896994 78.0 0.0 53.0 
446.00047933655907 2345.0 142.0 563.9630606860161 0.5239891848551379 79.0 0.0 54.0 
448.00047933655907 2366.0 143.0 560.9102902374678 0.5030692648058785 79.0 0.0 53.0 
450.00047933655907 2379.0 143.0 560.9155672823218 0.5120920158707393 79.0 0.0 53.0 
452.00047933655907 2378.0 143.0 560.9102902374678 0.5150438335102699 79.0 0.0 53.0 
454.0004290227294 2370.0 143.0 560.9208443271763 0.5134415395017037 79.0 0.0 53.0 
456.00047933655907 2363.0 143.0 560.9525065963062 0.5051681856475777 78.0 0.0 53.0 
458.00047933655907 2366.0 143.0 564.0131926121376 0.5051891792793467 78.0 0.0 54.0 
460.00047933655907 2368.0 143.0 561.0237467018464 0.508755756089217 78.0 0.0 53.0 
462.00047933655907 2365.0 143.0 557.8522427440637 0.531458163564746 75.0 0.0 52.0 
464.0004290227294 2353.0 142.0 557.9366754617415 0.5125519953847847 74.0 0.0 52.0 
466.00047933655907 2348.0 141.0 554.7757255936681 0.5056268883067693 75.0 0.0 51.0 
468.00047933655907 2346.0 141.0 554.8258575197883 0.5036361827176952 76.0 0.0 51.0 
470.00047933655907 2354.0 141.0 554.7889182058044 0.5018963405025433 75.0 0.0 51.0 
472.00047933655907 2360.0 142.0 554.823218997362 0.5053941652385454 75.0 0.0 51.0 
474.0004290227294 2358.0 142.0 554.828496042216 0.5059755696791014 74.0 0.0 51.0 
476.00047933655907 2356.0 142.0 551.820580474934 0.504234180339705 73.0 0.0 50.0 
478.00047933655907 2356.0 142.0 551.7836411609501 0.5072004908686008 73.0 0.0 50.0 
480.00047933655907 2395.0 143.0 554.8179419525063 0.5050424909787263 74.0 0.0 51.0 
482.00047933655907 2397.0 143.0 554.846965699208 0.5269345606198176 74.0 0.0 51.0 
484.0004290227294 2370.0 142.0 554.799472295514 0.5462865928037551 73.0 0.0 51.0 
486.00047933655907 2328.0 140.0 551.820580474934 0.5085726110799026 72.0 0.0 50.0 
488.00047933655907 2326.0 140.0 554.8100263852239 0.5135438168060451 72.0 1.0 50.0 
490.00047933655907 2319.0 140.0 557.9208443271765 0.5056630330012092 68.0 7.0 45.0 
492.00047933655907 2322.0 140.0 560.9525065963062 0.5064058252386413 75.0 1.0 52.0 
494.0004290227294 2322.0 140.0 560.9313984168865 0.5064161543997592 68.0 8.0 45.0 
496.00047933655907 2322.0 140.0 560.9261213720321 0.5162968980526039 74.0 2.0 51.0 
498.00047933655907 2313.0 139.0 560.9050131926119 0.514452471687294 68.0 8.0 45.0 
500.00047933655907 2311.0 139.0 561.0105540897099 0.5071460430461026 74.0 2.0 51.0 
502.00047933655907 2313.0 139.0 560.8496042216361 0.5087009919657504 68.0 8.0 45.0 
504.0004290227294 2312.0 139.0 560.9366754617415 0.5073986020192945 74.0 2.0 51.0 
506.00047933655907 2312.0 139.0 560.9050131926119 0.5073543906894097 68.0 8.0 45.0 
508.00047933655907 2312.0 139.0 560.9313984168865 0.5144787268487714 74.0 2.0 51.0 
510.00047933655907 2308.0 139.0 557.960422163588 0.5142860725928545 67.0 8.0 44.0 
512.000479336559 2302.0 139.0 557.9102902374677 0.5339796217468742 73.0 2.0 50.0 
514.0004290227293 2294.0 138.0 557.8970976253299 0.5098104734762172 67.0 8.0 44.0 
516.000479336559 2294.0 138.0 554.9102902374677 0.5129488313963962 73.0 2.0 49.0 
518.000479336559 2291.0 138.0 554.9287598944596 0.5258092920456481 75.0 0.0 51.0 
520.000479336559 2278.0 137.0 551.8364116094983 0.5092213558049329 73.0 1.0 49.0 
522.000479336559 2277.0 137.0 551.77308707124 0.5170372688556932 73.0 1.0 49.0 
524.0004290227293 2274.0 137.0 551.868073878628 0.51067022170028 73.0 1.0 49.0 
526.000479336559 2274.0 137.0 548.7704485488123 0.5117728039093598 72.0 1.0 48.0 
528.000479336559 2273.0 137.0 548.8627968337736 0.5325232200730048 73.0 0.0 49.0 
530.000479336559 2264.0 136.0 548.8443271767804 0.5187072681532178 72.0 0.0 49.0 
532.000479336559 2267.0 137.0 548.810026385224 0.5111960631414494 71.0 1.0 48.0 
534.0004290227293 2267.0 137.0 548.7968337730875 0.509063077211644 71.0 1.0 48.0 
536.000479336559 2270.0 137.0 548.8073878627964 0.5263244511166302 72.0 1.0 48.0 
538.000479336559 2236.0 138.0 548.733509234828 0.5073278881918684 73.0 0.0 49.0 
540.000479336559 2236.0 138.0 548.857519788918 0.5154449506927199 72.0 0.0 49.0 
542.000479336559 2229.0 138.0 548.7229551451185 0.5336497064219529 71.0 1.0 48.0 
544.0004290227293 2241.0 137.0 548.8021108179421 0.5084547355516489 70.0 2.0 47.0 
546.000479336559 2257.0 138.0 548.849604221636 0.5370319719496617 72.0 0.0 49.0 
548.000479336559 2224.0 137.0 548.744063324538 0.5247580519959076 72.0 0.0 49.0 
550.000479336559 2222.0 136.0 548.7783641160954 0.512344666412418 72.0 0.0 49.0 
552.000479336559 2226.0 137.0 548.8284960422162 0.5524748829185888 72.0 0.0 49.0 
554.0004290227293 2186.0 135.0 548.7335092348281 0.5115201999478567 71.0 1.0 48.0 
556.000479336559 2186.0 135.0 548.725593667546 0.5228777713278474 70.0 2.0 47.0 
558.000479336559 2180.0 134.0 548.765171503958 0.513069750736366 72.0 0.0 49.0 
560.000479336559 2180.0 134.0 542.641160949868 0.508523396363745 70.0 0.0 47.0 
562.000479336559 2180.0 134.0 542.6992084432721 0.5086024928007749 70.0 0.0 47.0 
564.0004290227293 2190.0 134.0 539.715039577836 0.509255946840678 70.0 0.0 46.0 
566.000479336559 2201.0 135.0 539.667546174142 0.5350783667397873 69.0 1.0 45.0 
568.000479336559 2168.0 134.0 539.6649076517151 0.5056877562603622 68.0 2.0 44.0 
570.000479336559 2170.0 134.0 536.6517150395781 0.5056762386241905 68.0 0.0 45.0 
572.000479336559 2170.0 134.0 536.6200527704489 0.5058710863581556 68.0 0.0 45.0 
574.0004290227293 2173.0 134.0 539.6121372031658 0.506396988080697 69.0 0.0 46.0 
576.000479336559 2182.0 134.0 542.7229551451188 0.5060866674980729 69.0 0.0 47.0 
578.000479336559 2190.0 135.0 542.6649076517152 0.5103275286602691 68.0 1.0 46.0 
580.000479336559 2188.0 134.0 542.7018469656992 0.5258964975225511 67.0 2.0 45.0 
582.000479336559 2186.0 134.0 542.7546174142481 0.5056736642449999 69.0 0.0 47.0 
584.0004290227293 2186.0 134.0 542.6965699208441 0.5060981047631363 69.0 0.0 47.0 
586.000479336559 2185.0 134.0 542.715039577836 0.5070901199440675 69.0 0.0 47.0 
588.000479336559 2184.0 134.0 542.7572559366754 0.5058939408373522 69.0 0.0 47.0 
590.000479336559 2189.0 134.0 542.7018469656992 0.5045725019630778 68.0 1.0 46.0 
592.000479336559 2192.0 135.0 542.688654353562 0.5054905355502696 67.0 2.0 45.0 
594.0004290227293 2192.0 135.0 542.7757255936679 0.5138159336847472 69.0 0.0 47.0 
596.000479336559 2181.0 134.0 542.6569920844329 0.5527101961619633 72.0 0.0 47.0 
598.000479336559 2158.0 133.0 539.6912928759891 0.5065864059089918 72.0 0.0 46.0 
600.000479336559 2180.0 134.0 536.722955145119 0.515185247977141 71.0 0.0 45.0 
602.000479336559 2172.0 134.0 536.6490765171501 0.518268967908497 70.0 1.0 44.0 
604.0004290227293 2168.0 133.0 536.6517150395781 0.5124415752754166 69.0 2.0 43.0 
606.000479336559 2160.0 133.0 533.643799472296 0.5058872741969384 70.0 0.0 44.0 
608.000479336559 2160.0 133.0 533.622691292876 0.5059208381260999 70.0 0.0 44.0 
610.000479336559 2160.0 133.0 533.5672823219 0.5216123664156419 70.0 0.0 44.0 
612.000479336559 2132.0 132.0 527.5804749340366 0.508827612381385 69.0 0.0 42.0 
614.0004290227293 2134.0 133.0 524.4591029023743 0.5054026345951234 67.0 1.0 40.0 
616.000479336559 2134.0 133.0 524.5171503957781 0.5054200775347929 66.0 2.0 39.0 
618.000479336559 2134.0 133.0 524.5408970976257 0.5054088903079577 68.0 0.0 41.0 
620.000479336559 2134.0 133.0 524.4934036939318 0.505426649505151 68.0 0.0 41.0 
622.000479336559 2231.0 135.0 527.5540897097623 0.507716916902992 69.0 0.0 42.0 
624.0004290227293 2232.0 135.0 527.519788918206 0.5193354486604823 70.0 0.0 42.0 
626.000479336559 2228.0 134.0 527.519788918206 0.5052051275352059 70.0 0.0 42.0 
628.000479336559 2231.0 135.0 527.4907651715041 0.5029236213762462 70.0 0.0 42.0 
630.000479336559 2234.0 135.0 530.5804749340366 0.5096922219854666 70.0 0.0 43.0 
632.000479336559 2241.0 135.0 533.6068601583116 0.5403883552893307 70.0 0.0 44.0 
634.0004290227293 2220.0 134.0 533.612137203166 0.5164857494441165 70.0 0.0 44.0 
636.000479336559 2197.0 133.0 533.643799472296 0.5355420556445153 70.0 0.0 44.0 
638.000479336559 2172.0 132.0 533.6094986807385 0.5202683289453653 70.0 0.0 44.0 
640.000479336559 2173.0 133.0 533.5910290237464 0.5034767245281531 70.0 0.0 44.0 
642.000479336559 2184.0 133.0 533.5804749340365 0.5112703963379938 70.0 0.0 44.0 
644.0004290227293 2188.0 133.0 530.593667546174 0.5051389625824981 69.0 0.0 43.0 
646.000479336559 2188.0 133.0 530.5065963060682 0.5051188367587411 69.0 0.0 43.0 
648.000479336559 2189.0 133.0 527.5408970976256 0.5048283668608557 68.0 0.0 42.0 
650.000479336559 2192.0 133.0 524.4881266490761 0.5029240893038959 68.0 0.0 41.0 
652.000479336559 2194.0 134.0 524.5224274406334 0.5208383485191919 68.0 0.0 41.0 
654.0004290227293 2188.0 133.0 524.5039577836413 0.5034895560481967 68.0 0.0 41.0 
656.000479336559 2188.0 133.0 518.4643799472293 0.5013966196318266 67.0 0.0 39.0 
658.000479336559 2210.0 134.0 518.4432717678094 0.5085149174482716 67.0 0.0 39.0 
660.000479336559 2207.0 134.0 518.4379947229558 0.5069988109050626 67.0 0.0 39.0 
662.000479336559 2210.0 134.0 518.4643799472293 0.5027711771399841 65.0 0.0 39.0 
664.0004290227293 2210.0 134.0 521.4327176781 0.5040747850546452 64.0 0.0 40.0 
#####################################################################
# End of data export. Simulation finished at: 2019-03-11T03:23+0000 #
#####################################################################
