#####################################################################
# Alchemist log file - simulation started at: 2019-03-07T11:57+0000 #
#####################################################################
# seed = 2.0, bandwidth = 316227.76601683797, accessPointCount = 531.8295896944988, baserange = 1000.0
#
# The columns have the following meaning: 
# time neighbor_count[Sum] <value>@neighbor_count[Sum] packet_size[Mean] mean_delay[Mean] crowd[Sum] overcrowded[Sum] risk[Sum] 
0.0 NaN NaN NaN NaN NaN NaN NaN 
10.000334746269225 23889.0 9969.0 4987.029585798817 0.6051632746184851 1496.0 1.0 1496.0 
20.00058297905275 24854.0 9762.0 4987.627218934911 0.5245975422396819 1487.0 10.0 1487.0 
30.000301169289212 24860.0 9763.0 4987.710059171598 0.5245106595102395 1491.0 6.0 1491.0 
40.00058297905275 24960.0 9763.0 4987.617357001973 0.5246780402419555 1488.0 9.0 1488.0 
50.00058297905275 24872.0 9764.0 4987.408284023669 0.5248459455267405 1490.0 7.0 1490.0 
60.00030116928921 24861.0 9766.0 4987.70808678501 0.5265485077103914 1487.0 10.0 1487.0 
70.00058297905275 24953.0 9764.0 1146.9664694280004 0.518680204804563 472.0 12.0 317.0 
80.00058297905275 24992.0 9764.0 1153.6074950690306 0.5191805699213786 454.0 9.0 323.0 
90.00058297905275 25080.0 9764.0 1160.40039447732 0.5202615301474813 445.0 14.0 321.0 
100.00058297905275 24969.0 9766.0 1162.59368836292 0.5221145324901943 448.0 11.0 325.0 
110.00058297905275 25002.0 9764.0 1164.9270216962555 0.5189820060785968 451.0 11.0 326.0 
120.00058297905275 25103.0 9765.0 1176.2090729783092 0.5203734082075989 458.0 9.0 333.0 
130.00058297905275 25132.0 9765.0 1183.01183431953 0.5190435261936435 456.0 14.0 331.0 
140.00058297905275 25193.0 9765.0 1183.1341222879664 0.5196166327994668 453.0 10.0 335.0 
150.00058297905275 25036.0 9764.0 1180.7968441814521 0.5179041718591861 452.0 11.0 333.0 
160.00058297905275 24952.0 9764.0 1176.2248520710023 0.5174565811300118 452.0 9.0 333.0 
170.00058297905275 24802.0 9765.0 1176.2682445759335 0.5225981113004265 449.0 13.0 329.0 
180.00058297905275 24657.0 9765.0 1174.0335305719996 0.5221378236581707 455.0 10.0 331.0 
190.00058297905275 24530.0 9763.0 1173.9783037475304 0.514016893961599 453.0 11.0 330.0 
200.00058297905275 24261.0 9762.0 1174.0611439842232 0.5148008738414346 447.0 9.0 332.0 
210.00058297905275 24350.0 9762.0 1176.2859960552241 0.5143859837848778 441.0 15.0 327.0 
220.00058297905275 24439.0 9765.0 1178.5325443786965 0.5175062347259283 449.0 12.0 331.0 
230.00058297905275 24483.0 9763.0 1180.859960552273 0.5162746356366021 449.0 11.0 333.0 
240.00058297905275 24458.0 9764.0 1180.7376725838187 0.5165601562970716 449.0 9.0 335.0 
250.00058297905275 24312.0 9765.0 1176.1854043392573 0.5134226625141805 443.0 14.0 328.0 
260.0001702083457 24307.0 9766.0 1171.7416173569973 0.5121977397507259 446.0 11.0 329.0 
270.00058297905275 24240.0 9766.0 1180.7455621301772 0.5136388714772576 443.0 18.0 326.0 
280.00058297905275 24136.0 9768.0 1178.4575936883543 0.514032344069412 450.0 15.0 328.0 
290.00058297905275 23932.0 9765.0 1171.7278106508859 0.5126101409812799 442.0 14.0 326.0 
300.00058297905275 23794.0 9764.0 1164.9408284023677 0.5108084758747101 432.0 13.0 324.0 
310.00058297905275 23747.0 9764.0 1167.1814595660787 0.511088332905132 428.0 10.0 328.0 
320.00058297905275 23734.0 9764.0 1167.2544378698228 0.5110894141967433 423.0 19.0 319.0 
330.00058297905275 23673.0 9767.0 1167.1735700197287 0.5151168389444536 430.0 13.0 325.0 
340.00058297905275 23695.0 9765.0 1158.0946745562062 0.512448597825789 431.0 11.0 323.0 
350.00058297905275 23814.0 9766.0 1162.5522682445778 0.5142465322568406 432.0 15.0 321.0 
360.00058297905275 24015.0 9764.0 1171.715976331357 0.5137399444773719 431.0 18.0 322.0 
370.00058297905275 24185.0 9765.0 1148.863905325452 0.5267983807162393 435.0 15.0 315.0 
380.00058297905275 24207.0 9766.0 1153.4556213017722 0.5268268673833431 436.0 14.0 318.0 
390.00058297905275 24047.0 9766.0 1155.7790927021772 0.5142370034311287 438.0 13.0 320.0 
400.00058297905275 24025.0 9767.0 1158.090729783035 0.5146139514172318 441.0 10.0 324.0 
410.00058297905275 24000.0 9766.0 1173.9625246548367 0.5146515106741233 442.0 18.0 323.0 
420.00058297905275 24054.0 9766.0 1171.6706114398355 0.5138529892380184 450.0 13.0 327.0 
430.00058297905275 23942.0 9765.0 1167.0788954635138 0.5128124206296814 447.0 12.0 326.0 
440.00058297905275 23873.0 9766.0 1173.9112426035458 0.5143752289129496 454.0 15.0 326.0 
450.00058297905275 23940.0 9767.0 1185.2564102564047 0.5141697373061189 458.0 17.0 329.0 
460.00058297905275 23977.0 9769.0 1187.4871794871756 0.5159401812732212 455.0 15.0 332.0 
470.00058297905275 23832.0 9767.0 1176.1577909270184 0.5172020375447464 450.0 15.0 327.0 
480.00058297905275 23719.0 9768.0 1160.1676528599664 0.5163211664648865 444.0 14.0 321.0 
490.00058297905275 23820.0 9768.0 1160.2761341222927 0.5167381514838483 452.0 10.0 325.0 
500.00058297905275 23755.0 9766.0 1160.2366863905315 0.5155780794710506 440.0 19.0 316.0 
510.00058297905275 23792.0 9767.0 1162.4437869822434 0.5148321839930404 451.0 14.0 322.0 
520.0005829790528 23947.0 9766.0 1135.2169625246593 0.5159090564602284 443.0 11.0 313.0 
530.0005829790528 23951.0 9767.0 1121.7317554240665 0.5166719299051941 437.0 15.0 303.0 
540.0005829790528 23891.0 9769.0 1128.5719921104485 0.5179037422460132 428.0 21.0 300.0 
550.0005829790528 23782.0 9768.0 1130.7455621301772 0.5146746779044596 445.0 17.0 305.0 
560.0005829790528 23902.0 9774.0 1133.1163708086758 0.5180422585643965 442.0 16.0 307.0 
570.0005829790528 23810.0 9770.0 1146.6429980276118 0.5175952928334112 445.0 19.0 310.0 
580.0005829790528 23583.0 9768.0 1153.5226824457561 0.5148861399231267 450.0 15.0 317.0 
590.0005829790528 23791.0 9770.0 1158.1400394477275 0.5187023645901361 450.0 24.0 310.0 
600.0005829790528 23815.0 9766.0 1160.309664694276 0.5139896422134008 467.0 17.0 318.0 
610.0005829790528 23922.0 9768.0 1169.3550295858058 0.5171030571650971 466.0 16.0 323.0 
620.0005829790528 24023.0 9768.0 1169.4122287968403 0.5178174571314427 454.0 19.0 320.0 
630.0005829790528 24229.0 9768.0 1178.3826429980293 0.5181215132047656 443.0 27.0 316.0 
640.0005829790528 23996.0 9766.0 1176.260355029583 0.5167106962109291 450.0 22.0 320.0 
650.0005829790528 23927.0 9770.0 1171.7041420118358 0.5178567514767491 445.0 22.0 318.0 
660.0005829790528 23815.0 9769.0 1182.960552268239 0.5213856427936367 445.0 17.0 328.0 
#####################################################################
# End of data export. Simulation finished at: 2019-03-07T12:20+0000 #
#####################################################################
