#####################################################################
# Alchemist log file - simulation started at: 2019-03-10T22:12+0000 #
#####################################################################
# seed = 4.0, bandwidth = 74989.42093324558, accessPointCount = 19.39227447486858, baserange = 316.2277660168379
#
# The columns have the following meaning: 
# time neighbor_count[Sum] <value>@neighbor_count[Sum] packet_size[Mean] mean_delay[Mean] crowd[Sum] overcrowded[Sum] risk[Sum] 
0.0 NaN NaN NaN NaN NaN NaN NaN 
2.0004793365590676 140.0 39.0 4987.759894459103 0.3226431739221093 1497.0 0.0 1497.0 
4.00042902272939 1252.0 143.0 4988.382585751979 0.8236205634801805 1497.0 0.0 1497.0 
6.000479336559067 1932.0 144.0 4988.7255936675465 1.0269892211679692 1497.0 0.0 1497.0 
8.000479336559067 2315.0 144.0 4988.64907651715 1.0523546040274951 1497.0 0.0 1497.0 
10.000479336559067 2729.0 143.0 4988.744063324538 0.8722753721811586 1497.0 0.0 1497.0 
12.000479336559067 2799.0 143.0 4988.696569920844 1.1458101971799775 1496.0 1.0 1496.0 
14.00042902272939 2818.0 143.0 4988.7255936675465 1.1161770020600112 1496.0 1.0 1496.0 
16.000479336559067 2818.0 143.0 4988.7018469657 0.9317046638175501 1496.0 1.0 1496.0 
18.000479336559067 2818.0 143.0 4988.641160949868 1.1441925872882184 1496.0 1.0 1496.0 
20.000479336559067 2818.0 143.0 4988.709762532982 1.1407593284290045 1495.0 2.0 1495.0 
22.000479336559067 2818.0 143.0 4988.754617414248 0.9357462984241967 1496.0 1.0 1496.0 
24.000429022729392 2818.0 143.0 4988.736147757256 1.1192726568778657 1497.0 0.0 1497.0 
26.000479336559067 2818.0 143.0 4988.770448548813 1.1638918589151128 1495.0 2.0 1495.0 
28.000479336559067 2818.0 143.0 4988.759894459103 0.9366768708113274 1496.0 1.0 1496.0 
30.000479336559067 2818.0 143.0 4988.688654353562 1.1565506565087702 1496.0 1.0 1496.0 
32.00047933655907 2818.0 143.0 4988.757255936675 1.1624916173362032 1493.0 4.0 1493.0 
34.00042902272939 2818.0 143.0 4988.781002638522 0.9219061074303856 1495.0 2.0 1495.0 
36.00047933655907 2819.0 143.0 4988.691292875989 1.1409852241519947 1496.0 1.0 1496.0 
38.00047933655907 2820.0 143.0 4988.728232189974 1.164770135191438 1494.0 3.0 1494.0 
40.00047933655907 2820.0 143.0 4988.751978891821 0.9421393462460677 1494.0 3.0 1494.0 
42.00047933655907 2820.0 143.0 4988.686015831135 1.1405596639845381 1496.0 1.0 1496.0 
44.00042902272939 2820.0 143.0 4988.76253298153 1.1563593233570102 1495.0 2.0 1495.0 
46.00047933655907 2822.0 143.0 4988.754617414248 0.9361244257966002 1495.0 2.0 1495.0 
48.00047933655907 2822.0 143.0 4988.693931398417 1.1456611513943546 1496.0 1.0 1496.0 
50.00047933655907 2822.0 143.0 4988.770448548813 1.136778938913102 1495.0 2.0 1495.0 
52.00047933655907 2822.0 143.0 4988.76253298153 0.9545180335257623 1494.0 3.0 1494.0 
54.00042902272939 2823.0 143.0 4988.730870712401 1.1555741185943085 1497.0 0.0 1497.0 
56.00047933655907 2823.0 143.0 4988.749340369393 1.162119831788494 1496.0 1.0 1496.0 
58.00047933655907 2780.0 143.0 4988.736147757256 0.906172376826991 1496.0 1.0 1496.0 
60.00047933655907 2770.0 142.0 4985.67018469657 1.083288502693358 1496.0 0.0 1496.0 
62.00047933655907 2770.0 142.0 573.131926121372 0.8484565533464369 114.0 1.0 56.0 
64.00042902272939 2770.0 142.0 573.1372031662264 0.673093661623281 99.0 0.0 57.0 
66.00047933655907 2780.0 142.0 573.0844327176779 0.8377945476961185 90.0 0.0 57.0 
68.00047933655907 2794.0 143.0 573.10290237467 0.7961021649427588 82.0 1.0 56.0 
70.00047933655907 2794.0 143.0 573.1081794195255 0.6801014159867365 82.0 0.0 57.0 
72.00047933655907 2794.0 143.0 573.0870712401061 0.8618712188885566 82.0 0.0 57.0 
74.00042902272939 2749.0 142.0 573.1160949868075 0.8118831561081059 81.0 1.0 56.0 
76.00047933655907 2740.0 142.0 573.0949868073881 0.6670827639717969 82.0 0.0 57.0 
78.00047933655907 2740.0 142.0 573.0686015831135 0.8653166120004652 82.0 0.0 57.0 
80.00047933655907 2738.0 142.0 576.1635883905016 0.8483051833184476 80.0 2.0 56.0 
82.00047933655907 2716.0 141.0 576.1846965699203 0.6648880180545983 83.0 0.0 58.0 
84.00042902272939 2716.0 141.0 576.1345646438002 0.8365690968088761 80.0 2.0 56.0 
86.00047933655907 2716.0 141.0 576.1662269129284 0.7899821996102244 78.0 4.0 54.0 
88.00047933655907 2716.0 141.0 576.1662269129284 0.6648300882751728 79.0 3.0 55.0 
90.00047933655907 2716.0 141.0 576.1292875989445 0.8377875844870749 76.0 4.0 54.0 
92.00047933655907 2716.0 141.0 576.1767810026379 0.792504238359387 76.0 4.0 54.0 
94.00042902272939 2714.0 141.0 576.1715039577841 0.6650941268187948 77.0 3.0 55.0 
96.00047933655907 2714.0 141.0 576.1134564643801 0.8371778715375291 76.0 4.0 54.0 
98.00047933655907 2714.0 141.0 576.1556728232197 0.7920472504148957 76.0 4.0 54.0 
100.00047933655907 2753.0 142.0 576.160949868074 0.6620655740463196 78.0 3.0 55.0 
102.00047933655907 2764.0 142.0 579.1662269129286 0.8578877834539339 77.0 4.0 55.0 
104.00042902272939 2763.0 142.0 579.218997361478 0.8011378676623334 77.0 4.0 55.0 
106.00047933655907 2762.0 142.0 579.2084432717681 0.6756896625231086 78.0 3.0 56.0 
108.00047933655907 2817.0 143.0 579.1556728232196 0.8361937634610802 77.0 4.0 55.0 
110.00047933655907 2826.0 143.0 579.2058047493399 0.7998700438438013 77.0 4.0 55.0 
112.00047933655907 2826.0 143.0 582.2532981530339 0.6821993033273586 78.0 3.0 57.0 
114.00042902272939 2822.0 143.0 579.179419525066 0.855033970125323 77.0 4.0 55.0 
116.00047933655907 2822.0 143.0 579.2269129287602 0.7830300348184391 76.0 4.0 55.0 
118.00047933655907 2824.0 143.0 579.2664907651721 0.6780204343082524 76.0 4.0 55.0 
120.00047933655907 2829.0 143.0 585.2744063324539 0.8867698797843176 75.0 5.0 56.0 
122.00047933655907 2824.0 143.0 585.1741424802119 0.846325561184248 76.0 4.0 57.0 
124.00042902272939 2778.0 142.0 585.255936675462 0.6951866354320441 77.0 3.0 58.0 
126.00047933655907 2776.0 142.0 585.263852242744 0.8691106318292744 76.0 4.0 57.0 
128.00047933655907 2769.0 142.0 585.263852242744 0.8399548065754439 77.0 3.0 58.0 
130.00047933655907 2725.0 142.0 585.2427440633242 0.6934967382907015 77.0 3.0 58.0 
132.00047933655907 2720.0 141.0 585.2374670184698 0.8535478334133623 76.0 4.0 57.0 
134.0004290227294 2720.0 141.0 582.2427440633243 0.7970222153789159 76.0 3.0 57.0 
136.00047933655907 2720.0 141.0 582.255936675462 0.6892046487697987 76.0 3.0 57.0 
138.00047933655907 2720.0 141.0 582.2084432717681 0.8539908275915673 75.0 4.0 56.0 
140.00047933655907 2720.0 141.0 582.2453825857519 0.7992370242374928 76.0 3.0 57.0 
142.00047933655907 2720.0 141.0 582.2110817941957 0.6971465938595163 75.0 3.0 57.0 
144.0004290227294 2711.0 141.0 582.197889182058 0.8552960413481576 74.0 4.0 56.0 
146.00047933655907 2710.0 141.0 582.2269129287602 0.7964174437926426 75.0 3.0 57.0 
148.00047933655907 2710.0 141.0 582.2242744063319 0.707665349617823 75.0 3.0 57.0 
150.00047933655907 2710.0 141.0 582.200527704486 0.9079086253171955 74.0 4.0 56.0 
152.00047933655907 2663.0 140.0 582.2427440633243 0.8663768649232182 75.0 3.0 57.0 
154.0004290227294 2622.0 139.0 582.2295514511878 0.7228028893996549 75.0 3.0 57.0 
156.00047933655907 2620.0 139.0 582.176781002638 0.8586395371885694 74.0 4.0 56.0 
158.00047933655907 2620.0 139.0 582.218997361478 0.8002981384355905 75.0 3.0 57.0 
160.00047933655907 2620.0 139.0 582.218997361478 0.6927940891742574 75.0 3.0 57.0 
162.00047933655907 2620.0 139.0 582.1926121372037 0.8660762050897074 74.0 4.0 56.0 
164.0004290227294 2621.0 139.0 582.197889182058 0.8349541135122198 75.0 3.0 57.0 
166.00047933655907 2583.0 139.0 582.2058047493399 0.7232590730650351 75.0 3.0 57.0 
168.00047933655907 2576.0 138.0 582.142480211082 0.856186559418652 75.0 3.0 57.0 
170.00047933655907 2576.0 138.0 582.1952506596303 0.7988105964808873 76.0 2.0 58.0 
172.00047933655907 2574.0 138.0 582.2031662269122 0.6883206850940523 78.0 0.0 60.0 
174.0004290227294 2574.0 138.0 582.142480211082 0.8554200185981832 78.0 0.0 60.0 
176.00047933655907 2574.0 138.0 582.1846965699202 0.7965997399004413 77.0 1.0 59.0 
178.00047933655907 2574.0 138.0 582.1846965699202 0.6883419986818149 78.0 0.0 60.0 
180.00047933655907 2610.0 138.0 582.1477572559362 0.8513852244845526 78.0 0.0 60.0 
182.00047933655907 2622.0 139.0 582.1794195250659 0.8071294131809894 78.0 0.0 60.0 
184.0004290227294 2622.0 139.0 579.1715039577841 0.6917839017091305 77.0 0.0 59.0 
186.00047933655907 2661.0 140.0 579.1345646438001 0.8572339084629914 78.0 0.0 59.0 
188.00047933655907 2694.0 141.0 576.1794195250659 0.795452163944416 78.0 0.0 58.0 
190.00047933655907 2702.0 141.0 576.1873350923479 0.704787034063176 78.0 0.0 58.0 
192.00047933655907 2700.0 141.0 576.0949868073881 0.8923990345420213 78.0 0.0 58.0 
194.0004290227294 2658.0 141.0 576.1583113456461 0.7777536912188415 78.0 0.0 58.0 
196.00047933655907 2662.0 141.0 576.1556728232198 0.6787392877844274 78.0 0.0 58.0 
198.00047933655907 2665.0 141.0 573.0527704485484 0.8474389790187943 78.0 0.0 57.0 
200.00047933655907 2664.0 141.0 573.131926121372 0.7772978566247455 78.0 0.0 57.0 
202.00047933655907 2664.0 141.0 573.10290237467 0.6790193253844113 78.0 0.0 57.0 
204.0004290227294 2664.0 141.0 573.0343007915563 0.8480834134481283 78.0 0.0 57.0 
206.00047933655907 2662.0 141.0 573.10290237467 0.7776052722350605 78.0 0.0 57.0 
208.00047933655907 2662.0 141.0 573.105540897098 0.6780883093150369 78.0 0.0 57.0 
210.00047933655907 2662.0 141.0 570.029023746702 0.8457176994072054 77.0 0.0 56.0 
212.00047933655907 2662.0 141.0 570.0844327176779 0.777583389194909 75.0 2.0 54.0 
214.0004290227294 2662.0 141.0 570.0817941952504 0.6771271047801328 77.0 0.0 56.0 
216.00047933655907 2662.0 141.0 570.0052770448546 0.8462551207793647 77.0 0.0 56.0 
218.00047933655907 2666.0 141.0 570.065963060686 0.7768894711720633 74.0 2.0 54.0 
220.00047933655907 2666.0 141.0 570.0844327176779 0.676716559514418 76.0 0.0 56.0 
222.00047933655907 2666.0 141.0 570.026385224274 0.8647005509949919 76.0 0.0 56.0 
224.0004290227294 2665.0 141.0 570.0606860158316 0.8238890574516048 74.0 2.0 54.0 
226.00047933655907 2618.0 140.0 567.0369393139839 0.6769303483262814 75.0 1.0 54.0 
228.00047933655907 2621.0 140.0 566.9788918205799 0.8456401083638403 76.0 1.0 54.0 
230.00047933655907 2622.0 140.0 567.0158311345645 0.77753144717236 76.0 0.0 55.0 
232.00047933655907 2622.0 140.0 567.018469656992 0.6788443490778879 77.0 0.0 55.0 
234.0004290227294 2622.0 140.0 566.9445910290241 0.8495939886328061 77.0 0.0 55.0 
236.00047933655907 2626.0 140.0 567.018469656992 0.7718662125358167 77.0 0.0 55.0 
238.00047933655907 2651.0 142.0 567.0158311345645 0.6807724462452652 77.0 0.0 55.0 
240.00047933655907 2653.0 142.0 566.941952506596 0.8392312334614668 77.0 0.0 55.0 
242.00047933655907 2665.0 142.0 567.0158311345645 0.7818146673922287 77.0 0.0 55.0 
244.0004290227294 2697.0 143.0 570.0633245382586 0.7367785169469191 78.0 0.0 56.0 
246.00047933655907 2647.0 142.0 570.0052770448546 0.844481287419319 78.0 0.0 56.0 
248.00047933655907 2661.0 142.0 570.0422163588395 0.7772011827111531 78.0 0.0 56.0 
250.00047933655907 2658.0 142.0 570.0448548812659 0.6773816452249143 78.0 0.0 56.0 
252.00047933655907 2658.0 142.0 566.9683377308705 0.8416466110704345 77.0 0.0 55.0 
254.0004290227294 2658.0 142.0 566.9894459102899 0.7777614844561713 77.0 0.0 55.0 
256.00047933655907 2659.0 142.0 563.9841688654354 0.7155364820448146 78.0 0.0 54.0 
258.00047933655907 2614.0 141.0 563.9604221635881 0.8815876934054874 77.0 0.0 54.0 
260.00047933655907 2566.0 140.0 563.9868073878627 0.7710713811592111 76.0 0.0 54.0 
262.00047933655907 2566.0 140.0 563.981530343008 0.6652465615647225 76.0 0.0 54.0 
264.0004290227294 2566.0 140.0 563.9393139841686 0.8169187817192556 76.0 0.0 54.0 
266.00047933655907 2569.0 140.0 563.9762532981533 0.7712460526791548 75.0 0.0 54.0 
268.00047933655907 2570.0 140.0 563.97889182058 0.6703320755750479 75.0 0.0 54.0 
270.00047933655907 2569.0 140.0 563.926121372032 0.8254823139439473 75.0 0.0 54.0 
272.00047933655907 2564.0 140.0 563.9894459102899 0.7712605142784337 75.0 0.0 54.0 
274.0004290227294 2590.0 141.0 564.0026385224274 0.6663558115957028 75.0 0.0 54.0 
276.00047933655907 2590.0 141.0 563.9287598944593 0.8180059626669594 75.0 0.0 54.0 
278.00047933655907 2590.0 141.0 563.992084432718 0.7914340098126704 75.0 0.0 54.0 
280.00047933655907 2582.0 141.0 563.992084432718 0.7156281323910552 76.0 0.0 54.0 
282.00047933655907 2548.0 140.0 563.9393139841686 0.8162670734017307 76.0 0.0 54.0 
284.0004290227294 2598.0 141.0 560.9683377308705 0.7722601006116188 75.0 0.0 53.0 
286.00047933655907 2600.0 141.0 557.9419525065961 0.6523088861679148 75.0 0.0 52.0 
288.00047933655907 2600.0 141.0 557.8839050131924 0.8108091220051988 75.0 0.0 52.0 
290.00047933655907 2600.0 141.0 554.9234828496038 0.7652769604211296 74.0 0.0 51.0 
292.00047933655907 2600.0 141.0 554.90765171504 0.6557566584858173 74.0 0.0 51.0 
294.0004290227294 2602.0 141.0 554.8548812664906 0.8104758092599234 74.0 0.0 51.0 
296.00047933655907 2605.0 141.0 554.9182058047496 0.7598471218476547 74.0 0.0 51.0 
298.00047933655907 2608.0 142.0 554.9234828496038 0.6496309333919706 74.0 0.0 51.0 
300.00047933655907 2608.0 142.0 554.8548812664906 0.8087188328488146 74.0 0.0 51.0 
302.00047933655907 2652.0 142.0 557.9630606860161 0.7628935822138226 75.0 0.0 52.0 
304.0004290227294 2658.0 143.0 557.9604221635881 0.6597160342901642 74.0 0.0 52.0 
306.00047933655907 2660.0 144.0 557.8812664907655 0.8310367335193348 74.0 0.0 52.0 
308.00047933655907 2654.0 144.0 557.9445910290241 0.8048902403584396 74.0 0.0 52.0 
310.00047933655907 2612.0 143.0 557.981530343008 0.6488624404613402 74.0 0.0 52.0 
312.00047933655907 2614.0 143.0 557.8865435356199 0.8075877610888698 74.0 0.0 52.0 
314.0004290227294 2617.0 143.0 557.9498680738784 0.7591226610725726 74.0 0.0 52.0 
316.00047933655907 2620.0 143.0 557.9577836411604 0.6660465600676291 74.0 0.0 52.0 
318.00047933655907 2613.0 143.0 557.8839050131924 0.8556706301516802 74.0 0.0 52.0 
320.00047933655907 2584.0 143.0 557.9445910290241 0.7857969768742633 73.0 0.0 52.0 
322.00047933655907 2560.0 144.0 557.9551451187341 0.6682398595673933 74.0 0.0 52.0 
324.0004290227294 2554.0 143.0 557.8601583113459 0.7968083077105254 74.0 0.0 52.0 
326.00047933655907 2554.0 143.0 557.934036939314 0.754611417134853 74.0 0.0 52.0 
328.00047933655907 2552.0 143.0 557.9287598944595 0.6540002223484062 73.0 0.0 52.0 
330.00047933655907 2550.0 143.0 557.8654353562 0.8162248556738521 74.0 0.0 52.0 
332.00047933655907 2546.0 143.0 557.9234828496038 0.7487272870605501 73.0 0.0 52.0 
334.0004290227294 2546.0 143.0 557.9155672823221 0.6380385589927168 74.0 0.0 52.0 
336.00047933655907 2546.0 143.0 557.8627968337736 0.8009536450048386 74.0 0.0 52.0 
338.00047933655907 2546.0 143.0 557.9208443271765 0.7667547137634702 74.0 0.0 52.0 
340.00047933655907 2562.0 144.0 557.9313984168864 0.6400776150541261 74.0 0.0 52.0 
342.00047933655907 2584.0 146.0 560.9102902374677 0.793078275386501 75.0 0.0 53.0 
344.0004290227294 2585.0 146.0 560.941952506596 0.7688030976163137 75.0 0.0 53.0 
346.00047933655907 2578.0 146.0 560.9577836411604 0.688166933075292 76.0 0.0 53.0 
348.00047933655907 2538.0 145.0 560.87598944591 0.8268640807149632 76.0 0.0 53.0 
350.00047933655907 2556.0 146.0 560.9393139841684 0.8169937630285259 77.0 0.0 53.0 
352.00047933655907 2531.0 145.0 560.9551451187341 0.671414051298944 77.0 0.0 53.0 
354.0004290227294 2560.0 146.0 560.839050131926 0.797377871626928 77.0 0.0 53.0 
356.00047933655907 2573.0 146.0 570.0237467018464 0.754488796040502 79.0 0.0 56.0 
358.00047933655907 2577.0 147.0 576.1187335092347 0.646864853707264 78.0 0.0 58.0 
360.00047933655907 2576.0 147.0 576.0870712401055 0.810132159146852 80.0 0.0 58.0 
362.00047933655907 2573.0 147.0 576.0817941952506 0.8024802887430679 81.0 0.0 58.0 
364.0004290227294 2536.0 147.0 576.1398416886545 0.6963417883370957 81.0 0.0 58.0 
366.00047933655907 2522.0 146.0 576.0316622691294 0.806763363412297 80.0 0.0 58.0 
368.00047933655907 2517.0 146.0 576.0870712401055 0.7682693980677782 80.0 0.0 58.0 
370.00047933655907 2512.0 146.0 573.1108179419518 0.6766659498229682 79.0 0.0 57.0 
372.00047933655907 2489.0 146.0 573.0316622691296 0.8638785391004322 80.0 0.0 57.0 
374.0004290227294 2446.0 145.0 573.0844327176783 0.8078983876743014 80.0 0.0 57.0 
376.00047933655907 2485.0 147.0 576.116094986808 0.6564123137210239 81.0 0.0 58.0 
378.00047933655907 2483.0 147.0 573.0026385224279 0.8153359154201066 80.0 0.0 57.0 
380.00047933655907 2481.0 147.0 573.097625329816 0.7997661852012482 80.0 0.0 57.0 
382.00047933655907 2459.0 146.0 570.0633245382584 0.7678527901600706 79.0 0.0 56.0 
384.0004290227294 2408.0 146.0 569.9393139841682 0.9799237123073506 79.0 0.0 56.0 
386.00047933655907 2355.0 144.0 570.018469656992 0.7730316252877524 79.0 0.0 56.0 
388.00047933655907 2350.0 144.0 570.0131926121376 0.6356296053142383 79.0 0.0 56.0 
390.00047933655907 2350.0 144.0 569.9472295514519 0.7812836545390301 79.0 0.0 56.0 
392.00047933655907 2351.0 144.0 573.0686015831135 0.7985585607034105 79.0 0.0 57.0 
394.0004290227294 2349.0 144.0 573.0817941952504 0.724877497909136 81.0 0.0 57.0 
396.00047933655907 2328.0 142.0 576.039577836412 0.8118060616219405 81.0 0.0 58.0 
398.00047933655907 2328.0 142.0 576.1134564643801 0.7991399366627049 81.0 0.0 58.0 
400.00047933655907 2324.0 141.0 576.1213720316625 0.6673555333641246 81.0 0.0 58.0 
402.00047933655907 2324.0 141.0 576.0316622691294 0.8605519440791527 80.0 0.0 58.0 
404.0004290227294 2289.0 139.0 573.0263852242742 0.8031247010630757 79.0 0.0 57.0 
406.00047933655907 2279.0 139.0 573.0131926121375 0.6460400221744048 79.0 0.0 57.0 
408.00047933655907 2287.0 139.0 572.8918205804745 0.793462350560868 80.0 0.0 57.0 
410.00047933655907 2302.0 140.0 573.0158311345641 0.7622345047726418 80.0 0.0 57.0 
412.00047933655907 2302.0 140.0 573.0343007915561 0.6499540096011178 80.0 0.0 57.0 
414.0004290227294 2301.0 140.0 575.939313984168 0.8099157380227364 80.0 0.0 58.0 
416.00047933655907 2296.0 140.0 576.0211081794203 0.775746030933327 81.0 0.0 58.0 
418.00047933655907 2318.0 142.0 576.0474934036935 0.6622364654315704 81.0 0.0 58.0 
420.00047933655907 2317.0 142.0 575.9445910290242 0.7932664491128347 81.0 0.0 58.0 
422.00047933655907 2326.0 143.0 573.0158311345641 0.7651608068798532 81.0 0.0 57.0 
424.0004290227294 2326.0 143.0 570.0 0.6606286656963658 80.0 0.0 56.0 
426.00047933655907 2323.0 143.0 569.8522427440639 0.8175726049691738 80.0 0.0 56.0 
428.00047933655907 2328.0 143.0 569.9525065963062 0.7968063654401736 80.0 0.0 56.0 
430.00047933655907 2319.0 142.0 566.8997361477575 0.6851979419731314 79.0 0.0 55.0 
432.00047933655907 2316.0 142.0 566.8364116094984 0.818576937087075 79.0 0.0 55.0 
434.0004290227294 2314.0 142.0 563.8733509234825 0.8310499929670979 78.0 0.0 54.0 
436.00047933655907 2291.0 141.0 563.8997361477574 0.7385104914740948 79.0 0.0 54.0 
438.00047933655907 2286.0 141.0 563.8100263852239 0.8730498471142165 79.0 0.0 54.0 
440.00047933655907 2275.0 140.0 563.8997361477574 0.8135278844724877 80.0 0.0 54.0 
442.00047933655907 2324.0 141.0 566.9393139841683 0.6779031774331151 80.0 0.0 55.0 
444.0004290227294 2321.0 141.0 560.8522427440638 0.8295644880570991 78.0 0.0 53.0 
446.00047933655907 2354.0 142.0 560.8627968337736 0.8097624265070732 79.0 0.0 53.0 
448.00047933655907 2378.0 144.0 560.8759894459101 0.6967813598215312 79.0 0.0 53.0 
450.00047933655907 2377.0 143.0 560.8258575197882 0.8134261844856396 79.0 0.0 53.0 
452.00047933655907 2392.0 144.0 560.8918205804745 0.8153708104777067 79.0 0.0 53.0 
454.0004290227294 2383.0 144.0 560.8970976253298 0.7267785164853976 79.0 0.0 53.0 
456.00047933655907 2374.0 143.0 560.8284960422159 0.8341531114851036 78.0 0.0 53.0 
458.00047933655907 2365.0 143.0 563.8944591029024 0.7759386025088496 78.0 0.0 54.0 
460.00047933655907 2368.0 143.0 560.9472295514518 0.6676246024461243 78.0 0.0 53.0 
462.00047933655907 2370.0 143.0 557.8205804749341 0.8345526505842665 75.0 0.0 52.0 
464.0004290227294 2364.0 143.0 557.839050131926 0.8354374580431289 74.0 0.0 52.0 
466.00047933655907 2357.0 142.0 554.828496042216 0.7013585132977227 75.0 0.0 51.0 
468.00047933655907 2348.0 141.0 554.7018469656996 0.8083471094236278 76.0 0.0 51.0 
470.00047933655907 2353.0 141.0 554.781002638522 0.7714976969114911 75.0 0.0 51.0 
472.00047933655907 2360.0 142.0 554.7862796833776 0.6578580565779297 75.0 0.0 51.0 
474.0004290227294 2360.0 142.0 554.707124010554 0.8070968859323343 74.0 0.0 51.0 
476.00047933655907 2358.0 142.0 554.7862796833776 0.7769792179872426 75.0 0.0 51.0 
478.00047933655907 2357.0 142.0 554.781002638522 0.6612264618409838 75.0 0.0 51.0 
480.00047933655907 2392.0 143.0 557.7572559366757 0.8108559984314705 75.0 0.0 52.0 
482.00047933655907 2398.0 143.0 557.8337730870717 0.7932790867463084 76.0 0.0 52.0 
484.0004290227294 2397.0 143.0 557.8364116094984 0.7350860266441037 75.0 0.0 52.0 
486.00047933655907 2368.0 142.0 554.725593667546 0.8840682366664865 74.0 0.0 51.0 
488.00047933655907 2329.0 140.0 557.8258575197883 0.7946206500125297 74.0 0.0 52.0 
490.00047933655907 2327.0 140.0 557.828496042216 0.6806366795285056 76.0 0.0 52.0 
492.00047933655907 2324.0 140.0 563.8364116094984 0.8221871293114648 76.0 0.0 54.0 
494.0004290227294 2322.0 140.0 563.9287598944599 0.7781867793221073 77.0 0.0 54.0 
496.00047933655907 2323.0 140.0 563.8812664907655 0.6708539761363924 77.0 0.0 54.0 
498.00047933655907 2325.0 140.0 563.8337730870719 0.8442747185807462 77.0 0.0 54.0 
500.00047933655907 2317.0 139.0 563.9182058047496 0.818340737315857 77.0 0.0 54.0 
502.00047933655907 2314.0 139.0 563.9234828496038 0.6656023792705904 77.0 0.0 54.0 
504.0004290227294 2314.0 139.0 563.8205804749343 0.8170686526276038 77.0 0.0 54.0 
506.00047933655907 2312.0 139.0 563.9261213720321 0.7804891534997176 77.0 0.0 54.0 
508.00047933655907 2312.0 139.0 563.883905013192 0.6674915786043255 77.0 0.0 54.0 
510.00047933655907 2312.0 139.0 563.8416886543538 0.8254645933477572 77.0 0.0 54.0 
512.000479336559 2309.0 139.0 563.8970976253297 0.8125305522501715 77.0 0.0 54.0 
514.0004290227293 2307.0 139.0 557.8548812664906 0.7143189121434278 75.0 0.0 52.0 
516.000479336559 2294.0 138.0 554.7598944591025 0.8123366574749662 75.0 0.0 51.0 
518.000479336559 2294.0 138.0 554.8126649076521 0.7950324388998974 75.0 0.0 51.0 
520.000479336559 2291.0 138.0 551.857519788918 0.6966139856105221 75.0 0.0 50.0 
522.000479336559 2279.0 137.0 551.746701846966 0.8196557731553886 73.0 1.0 49.0 
524.0004290227293 2277.0 137.0 551.6569920844323 0.790269739468389 74.0 0.0 50.0 
526.000479336559 2274.0 137.0 548.746701846966 0.6586021006353201 73.0 0.0 49.0 
528.000479336559 2274.0 137.0 548.7044854881264 0.8308154439013556 73.0 0.0 49.0 
530.000479336559 2273.0 137.0 548.6992084432721 0.826017019524057 72.0 0.0 49.0 
532.000479336559 2270.0 137.0 548.733509234828 0.6711360039866184 72.0 0.0 49.0 
534.0004290227293 2268.0 137.0 548.6912928759897 0.8139908304117116 72.0 0.0 49.0 
536.000479336559 2270.0 137.0 548.7124010554083 0.7783403829982893 73.0 0.0 49.0 
538.000479336559 2272.0 139.0 548.7203166226916 0.6915205011121357 73.0 0.0 49.0 
540.000479336559 2237.0 139.0 548.7229551451185 0.8007196095657567 72.0 0.0 49.0 
542.000479336559 2236.0 138.0 548.715039577836 0.797941238214177 72.0 0.0 49.0 
544.0004290227293 2246.0 138.0 548.7440633245379 0.6934827151516213 73.0 0.0 49.0 
546.000479336559 2261.0 138.0 548.707124010554 0.8307802353450245 72.0 0.0 49.0 
548.000479336559 2254.0 138.0 548.746701846966 0.8376684055835873 72.0 0.0 49.0 
550.000479336559 2226.0 137.0 548.7994722955142 0.6885230251508655 72.0 0.0 49.0 
552.000479336559 2228.0 137.0 548.699208443272 0.850634038774333 71.0 1.0 48.0 
554.0004290227293 2223.0 137.0 548.7493403693933 0.863165219477268 72.0 0.0 49.0 
556.000479336559 2186.0 135.0 548.7546174142481 0.6594941773798518 71.0 1.0 48.0 
558.000479336559 2186.0 135.0 548.6622691292878 0.8338155862586526 72.0 0.0 49.0 
560.000479336559 2183.0 135.0 542.519788918206 0.7903901258128911 70.0 0.0 47.0 
562.000479336559 2180.0 134.0 542.641160949868 0.6488804112340796 70.0 0.0 47.0 
564.0004290227293 2187.0 134.0 539.5751978891819 0.7979111455837805 70.0 0.0 46.0 
566.000479336559 2202.0 135.0 539.564643799472 0.7987931482841586 70.0 0.0 46.0 
568.000479336559 2198.0 135.0 539.641160949868 0.7094575399799209 70.0 0.0 46.0 
570.000479336559 2170.0 134.0 536.5593667546171 0.7971467650801937 68.0 0.0 45.0 
572.000479336559 2170.0 134.0 536.564643799472 0.7671261017667327 68.0 0.0 45.0 
574.0004290227293 2173.0 134.0 539.6253298153032 0.6453519073460292 69.0 0.0 46.0 
576.000479336559 2182.0 134.0 542.6332453825861 0.798069615517835 69.0 0.0 47.0 
578.000479336559 2190.0 135.0 542.6543535620052 0.771306330653784 69.0 0.0 47.0 
580.000479336559 2190.0 135.0 542.6728232189973 0.6705851273497536 69.0 0.0 47.0 
582.000479336559 2190.0 135.0 542.6517150395781 0.8416785166930149 69.0 0.0 47.0 
584.0004290227293 2186.0 134.0 542.6939313984168 0.7690241030650078 69.0 0.0 47.0 
586.000479336559 2186.0 134.0 542.7625329815302 0.6494013374034002 69.0 0.0 47.0 
588.000479336559 2186.0 134.0 542.6306068601581 0.8035884866608117 68.0 1.0 46.0 
590.000479336559 2188.0 134.0 542.6939313984168 0.7695226677677037 69.0 0.0 47.0 
592.000479336559 2192.0 135.0 542.7018469656992 0.6506617863782426 68.0 1.0 46.0 
594.0004290227293 2192.0 135.0 542.6385224274408 0.8118521361120404 68.0 1.0 46.0 
596.000479336559 2192.0 135.0 542.5646437994722 0.8208671144287631 72.0 0.0 47.0 
598.000479336559 2185.0 135.0 542.67018469657 0.7433795968036413 72.0 0.0 47.0 
600.000479336559 2180.0 134.0 536.57783641161 0.8083559515486033 72.0 0.0 45.0 
602.000479336559 2180.0 134.0 536.532981530343 0.8064259625727349 71.0 0.0 45.0 
604.0004290227293 2176.0 134.0 536.617414248021 0.7118119845768996 71.0 0.0 45.0 
606.000479336559 2166.0 133.0 536.564643799472 0.809539540218798 71.0 0.0 45.0 
608.000479336559 2161.0 133.0 533.5277044854879 0.7698559132479348 70.0 0.0 44.0 
610.000479336559 2160.0 133.0 533.564643799472 0.6617504924952564 70.0 0.0 44.0 
612.000479336559 2159.0 133.0 533.5303430079159 0.8468593018389952 70.0 0.0 44.0 
614.0004290227293 2136.0 133.0 524.4722955145121 0.7719512045272036 68.0 0.0 41.0 
616.000479336559 2134.0 133.0 524.4775725593665 0.6357054133283397 68.0 0.0 41.0 
618.000479336559 2134.0 133.0 524.435356200528 0.7888472459917233 68.0 0.0 41.0 
620.000479336559 2134.0 133.0 524.498680738786 0.7583348325499352 68.0 0.0 41.0 
622.000479336559 2232.0 135.0 527.596306068602 0.6363460101226797 69.0 0.0 42.0 
624.0004290227293 2232.0 135.0 527.4670184696564 0.8465611753085186 69.0 1.0 41.0 
626.000479336559 2232.0 135.0 527.519788918206 0.7748394197655581 70.0 0.0 42.0 
628.000479336559 2232.0 136.0 527.538258575198 0.6288723262405781 70.0 0.0 42.0 
630.000479336559 2234.0 135.0 530.5145118733506 0.824405686664533 69.0 1.0 42.0 
632.000479336559 2243.0 135.0 533.4854881266496 0.7823721062985924 70.0 0.0 44.0 
634.0004290227293 2246.0 135.0 533.5540897097623 0.699507185902813 70.0 0.0 44.0 
636.000479336559 2220.0 134.0 533.5145118733504 0.8542080446236362 70.0 0.0 44.0 
638.000479336559 2202.0 133.0 533.57783641161 0.7924722489360582 70.0 0.0 44.0 
640.000479336559 2189.0 134.0 533.5857519788921 0.6567760269202203 70.0 0.0 44.0 
642.000479336559 2181.0 133.0 533.5145118733504 0.802678970047756 70.0 0.0 44.0 
644.0004290227293 2187.0 133.0 530.55672823219 0.7387971847424671 69.0 0.0 43.0 
646.000479336559 2188.0 133.0 530.5092348284959 0.6050355360711785 69.0 0.0 43.0 
648.000479336559 2189.0 133.0 527.4617414248021 0.79895795381752 68.0 0.0 42.0 
650.000479336559 2192.0 133.0 524.4828496042217 0.7258217604129351 68.0 0.0 41.0 
652.000479336559 2194.0 134.0 524.4854881266493 0.6214119503970194 68.0 0.0 41.0 
654.0004290227293 2194.0 134.0 524.4300791556724 0.83584409002265 68.0 0.0 41.0 
656.000479336559 2188.0 133.0 524.4485488126643 0.726975840185287 68.0 0.0 41.0 
658.000479336559 2208.0 134.0 518.4432717678094 0.6087024669526612 67.0 0.0 39.0 
660.000479336559 2210.0 134.0 518.377308707124 0.8134340231024716 67.0 0.0 39.0 
662.000479336559 2211.0 134.0 518.3957783641159 0.738917866401592 67.0 0.0 39.0 
664.0004290227293 2210.0 134.0 521.4696569920841 0.603390685432418 65.0 0.0 40.0 
#####################################################################
# End of data export. Simulation finished at: 2019-03-10T22:20+0000 #
#####################################################################
